﻿[
  {
    "label": "001",
    "text": "{{anim id=\"25\"}}Aaaaayyy{{delay frames=\"8\"}}.{{delay frames=\"8\"}}.{{delay frames=\"8\"}}.{{delay frames=\"20\"}} ¿Alguna vez has soñado\nque te quedabas dormid{{fun_0006000E arg=\"0x02006F0002006100\"}} por la\nmañana? Qué mal,{{delay frames=\"20\"}} {{fun_00070005 arg=\"\"}}."
  },
  {
    "label": "002",
    "text": "{{anim id=\"36\"}}{{anim id=\"25\"}}Uaaaahh...{{delay frames=\"20\"}} Pues no sé por qué tengo\ntanto sueño.{{delay frames=\"8\"}}.{{delay frames=\"8\"}}.{{delay frames=\"20\"}} ¡Ni que hubiese\ntrasnochado, {{delay frames=\"20\"}}{{fun_00070005 arg=\"\"}}!"
  },
  {
    "label": "003",
    "text": "{{anim id=\"25\"}}Uaaaah{{delay frames=\"8\"}}.{{delay frames=\"8\"}}.{{delay frames=\"8\"}}.{{delay frames=\"40\"}} Perdona que esté tan\ngrogui.{{delay frames=\"8\"}} Por la mañana sencillamente\nno funciono,{{delay frames=\"20\"}} {{fun_00070005 arg=\"\"}}."
  },
  {
    "label": "004",
    "text": "{{anim id=\"36\"}}Oye,{{delay frames=\"20\"}} dado que eres mi invitad{{fun_0006000E arg=\"0x02006F0002006100\"}},{{delay frames=\"20\"}}\n¡prometo no comerte!{{delay frames=\"20\"}} ¡Tranquilízate\nun poco, {{fun_00070005 arg=\"\"}}!{{anim id=\"0\"}}"
  },
  {
    "label": "005",
    "text": "{{anim id=\"37\"}}Oye, a mí me gusta tener limpia\nla casa tanto como a la que más.\n¡Eso que conste, {{delay frames=\"20\"}}{{fun_00070005 arg=\"\"}}!"
  },
  {
    "label": "006",
    "text": "{{anim id=\"16\"}}¿Crees que debería hacerme con\nuna vajilla para poner té a las\nvisitas?{{delay frames=\"40\"}} {{anim id=\"37\"}}¡Es que no me pega nada!"
  },
  {
    "label": "007",
    "text": "{{anim id=\"37\"}}Hola, {{fun_00080005 arg=\"\"}}. ¿Sabes que me\nestá entrando gusa? ¡Qué hambre\ntengo,{{delay frames=\"20\"}} {{fun_00070005 arg=\"\"}}!"
  },
  {
    "label": "008",
    "text": "{{anim id=\"9\"}}Es muy raro, pero de noche nunca\ntengo sueño{{delay frames=\"8\"}}.{{delay frames=\"8\"}}.{{delay frames=\"8\"}}.{{delay frames=\"20\"}} {{anim id=\"0\"}}¡Me pregunto\npor qué será,{{delay frames=\"20\"}} {{fun_00070005 arg=\"\"}}!"
  },
  {
    "label": "009",
    "text": "{{anim id=\"21\"}}Mi casa es supercómoda, ¡así que\nsiempre me paso aquí horas con\nlos amiguetes,{{delay frames=\"20\"}} {{fun_00070005 arg=\"\"}}!"
  },
  {
    "label": "010",
    "text": "{{anim id=\"37\"}}Bueno, ¡la noche todavía es joven!{{delay frames=\"20\"}}\n¿Y ahora qué podemos hacer? Si\nse te ocurre algo, soy todo oídos{{delay frames=\"8\"}}.{{delay frames=\"8\"}}.{{delay frames=\"8\"}}.{{delay frames=\"40\"}}"
  },
  {
    "label": "011",
    "text": "{{anim id=\"10\"}}Ay, ojalá la noche nunca\nterminase{{delay frames=\"8\"}}.{{delay frames=\"8\"}}.{{delay frames=\"8\"}}.{{delay frames=\"20\"}} ¡El amanecer, que se\nlo quede el gallo, {{delay frames=\"20\"}}{{fun_00070005 arg=\"\"}}!"
  },
  {
    "label": "012",
    "text": "{{anim id=\"21\"}}¡Ya pensaré mañana en el día de\nmañana!{{delay frames=\"20\"}} {{anim id=\"37\"}}De momento, ¡nos queda\ntoda la noche por delante!"
  }
]