﻿[
  {
    "label": "001",
    "text": "{{anim id=\"23\"}}Nadie ha visto ninguno de estos\nfósiles cuando aún eran animales\nvivos, ¿no?\n{{anim id=\"11\"}}Entonces, para las poses y eso{{delay frames=\"8\"}}.{{delay frames=\"8\"}}.{{delay frames=\"8\"}}.{{delay frames=\"20\"}}{{delay frames=\"20\"}}\nhan partido más bien de\nsuposiciones,{{delay frames=\"20\"}} ¿no, {{fun_00070005 arg=\"\"}}?"
  },
  {
    "label": "002",
    "text": "{{anim id=\"37\"}}Debido a la amenaza que suponían\nlos dinosaurios carnívoros...{{pageBreak}}muchos herbívoros tenían formas\nletales de defenderse, ¿sabes?{{pageBreak}}{{anim id=\"21\"}}O sea, que cuando los dinosaurios\niban en busca de carne, ¡arriesgaban\nsu vida! {{anim id=\"4\"}}¡Qué pasote, {{delay frames=\"20\"}}{{fun_00070005 arg=\"\"}}!"
  },
  {
    "label": "003",
    "text": "{{anim id=\"15\"}}Ya que me he molestado en venir,\n¡tendré que mirar también las\notras salas,{{delay frames=\"20\"}} {{fun_00070005 arg=\"\"}}!"
  },
  {
    "label": "004",
    "text": "{{anim id=\"9\"}}No me gustaría nada venir aquí\nde noche{{delay frames=\"8\"}}.{{delay frames=\"8\"}}.{{delay frames=\"8\"}}.{{delay frames=\"20\"}} {{anim id=\"20\"}}¡Me iba a dar mucho\nmiedito, {{delay frames=\"20\"}}{{fun_00070005 arg=\"\"}}!{{delay frames=\"40\"}}{{anim id=\"9\"}}"
  },
  {
    "label": "005",
    "text": "{{anim id=\"21\"}}Esta sala tiene un olor muy\nparticular{{delay frames=\"8\"}}.{{delay frames=\"8\"}}.{{delay frames=\"8\"}}.{{delay frames=\"20\"}} {{anim id=\"23\"}}¿Será este el\n\"olor a fósil\" por casualidad?\n{{anim id=\"37\"}}Ji, ji{{delay frames=\"8\"}}.{{delay frames=\"8\"}}.{{delay frames=\"8\"}}.{{delay frames=\"20\"}} ¡Tengo una nariz\nmuy sensible,{{delay frames=\"20\"}} {{fun_00070005 arg=\"\"}}!"
  }
]