﻿[
  {
    "label": "001",
    "text": "{{anim id=\"21\"}}{{fun_0003000E arg=\"\"}}{{fun_00050005 arg=\"\"}} no para de crecer y\ncrecer, cada vez hay más edificios{{delay frames=\"8\"}}.{{delay frames=\"8\"}}.{{delay frames=\"8\"}}.{{delay frames=\"20\"}}{{pageBreak}}{{anim id=\"37\"}}¡Lo bueno es que aún quedan\nmuchos huecos en los que no\nse ha construido nada!{{pageBreak}}{{anim id=\"5\"}}¡Por eso me gusta tanto \n{{fun_0003000E arg=\"\"}}{{fun_00050005 arg=\"\"}}!"
  },
  {
    "label": "002",
    "text": "{{anim id=\"15\"}}¡Anda!{{delay frames=\"20\"}}{{anim id=\"38\"}} Al parecer van a construir\nuna casa en esta zona.{{delay frames=\"20\"}} {{anim id=\"0\"}}¡Se va a\nmudar alguien nuevo al pueblo!{{pageBreak}}{{anim id=\"11\"}}Ay, ¿quién será?{{delay frames=\"20\"}} {{anim id=\"28\"}}¡Espero que sea\nalguien con muchas ganas de fiesta!"
  },
  {
    "label": "003",
    "text": "No lo había pensado antes, pero{{delay frames=\"8\"}}.{{delay frames=\"8\"}}.{{delay frames=\"8\"}}.{{delay frames=\"20\"}}\n{{anim id=\"21\"}}¡la verdad es que, vista desde fuera,\nmi casa es la pera!\n{{anim id=\"35\"}}A ver{{delay frames=\"8\"}}.{{delay frames=\"8\"}}.{{delay frames=\"8\"}}.{{delay frames=\"20\"}} parece que es normalita,\n¿no? ¡Pero luego dentro es donde\nestá la movida!{{pageBreak}}{{anim id=\"0\"}}Tú no entres, ¿eh?{{delay frames=\"40\"}} {{anim id=\"1\"}}¡Al menos hasta\nque yo te invite, {{delay frames=\"20\"}}{{fun_00070005 arg=\"\"}}!"
  },
  {
    "label": "004",
    "text": "{{anim id=\"21\"}}¡Qué bien situada está la casa de\n{{fun_00010011 arg=\"0x0000\"}}!{{delay frames=\"40\"}} {{anim id=\"23\"}}¿Cómo daría con un\nsitio tan alucinante?{{pageBreak}}{{anim id=\"11\"}}Bah, seguro que dice que fue la\nintuición o alguna paparrucha de\nesas{{delay frames=\"8\"}}.{{delay frames=\"8\"}}.{{delay frames=\"8\"}}.{{delay frames=\"20\"}}{{anim id=\"37\"}} ¡A ver quién se lo cree!"
  },
  {
    "label": "005",
    "text": "{{anim id=\"15\"}}¡Anda!{{delay frames=\"40\"}}{{anim id=\"0\"}} Oye y{{delay frames=\"8\"}}.{{delay frames=\"8\"}}.{{delay frames=\"8\"}}.{{delay frames=\"20\"}} dime{{delay frames=\"8\"}}.{{delay frames=\"8\"}}.{{delay frames=\"8\"}}.{{delay frames=\"20\"}} ¿Cómo llevas\neso de vivir en una tienda?{{delay frames=\"20\"}}{{pageBreak}}{{anim id=\"21\"}}Yo lo hice durante una temporadilla,\npero luego me di cuenta de que yo\nsoy más de espacios amplios y tal.{{delay frames=\"40\"}}{{anim id=\"1\"}}\n{{anim id=\"1\"}}¡Siempre van mejor para montar\nfiestas, ji, ji, ji!"
  },
  {
    "label": "006",
    "text": "{{anim id=\"37\"}}¡Ji, ji, ji! Oye, parece que tu casa\nya va adquiriendo forma, ¿no?{{pageBreak}}{{anim id=\"23\"}}Bueno, ¿y qué planes tienes?{{delay frames=\"20\"}}\n¿Vas a seguir construyendo\nhasta el infinito?{{fun_00050008 arg=\"0x1800150019002800\"}}\n¡Pues claro que sí!\nDe momento no"
  },
  {
    "label": "007",
    "text": "{{anim id=\"37\"}}¡Ji, ji, ji! ¡Oye, tu casa cada vez es\nmás grande!{{anim id=\"23\"}} ¿Qué tienes pensado\nhacer?{{delay frames=\"20\"}} ¿Ponerle una planta más?{{fun_00050008 arg=\"0x1A0015001B002800\"}}\n¡Desde luego!\nMe gusta como está"
  },
  {
    "label": "008",
    "text": "{{fun_00010009 arg=\"0x1C001D001E00\"}}"
  },
  {
    "label": "009",
    "text": "{{fun_00010009 arg=\"0x1F0020002100\"}}"
  },
  {
    "label": "010",
    "text": "{{anim id=\"37\"}}¡Caramba, {{fun_00000011 arg=\"0x0000\"}} tiene una casa\nmuy apañada!{{pageBreak}}{{anim id=\"21\"}}Sí, ya sé que no es más que una\ntiendecita, ¡pero el sitio lo rompe!{{delay frames=\"40\"}}\n{{anim id=\"1\"}}En fin, si a {{fun_0012000E arg=\"0x0D000400E9006C00080065006C006C0061000000\"}} le vale... ¡ya está!"
  },
  {
    "label": "011",
    "text": "{{anim id=\"37\"}}¡Ji, ji, ji! La casa de {{fun_00000011 arg=\"0x0000\"}} es\nmuy mona, ¡soy superfán!{{pageBreak}}{{anim id=\"0\"}}Una casa pequeña, una vida\ntranquila{{delay frames=\"8\"}}.{{delay frames=\"8\"}}.{{delay frames=\"8\"}}.{{delay frames=\"20\"}}{{anim id=\"38\"}} ¡La verdad es que no\nes mi rollo para nada!{{pageBreak}}{{anim id=\"36\"}}Pero bueno, ¡no todo el mundo\nes como yo, {{delay frames=\"20\"}}{{fun_00070005 arg=\"\"}}!"
  },
  {
    "label": "012",
    "text": "{{anim id=\"23\"}}¿Sabes si {{fun_00000011 arg=\"0x0000\"}} está hoy en\ncasa?{{pageBreak}}{{anim id=\"21\"}}Tenemos que arreglar unos\nasuntillos{{delay frames=\"8\"}}.{{delay frames=\"8\"}}.{{delay frames=\"8\"}}.{{delay frames=\"20\"}}{{anim id=\"37\"}} pero tampoco\ncorre mucha prisa, {{delay frames=\"20\"}}{{fun_00070005 arg=\"\"}}."
  },
  {
    "label": "013",
    "text": "{{anim id=\"37\"}}¡Ostras! Qué pedazo de casa tiene\n{{fun_00000011 arg=\"0x0000\"}}, ¿no?{{delay frames=\"40\"}}{{anim id=\"0\"}} ¡Y seguro que\nquiere añadirle otra planta más!"
  },
  {
    "label": "014",
    "text": "{{anim id=\"37\"}}¡Qué flipe! {{delay frames=\"8\"}}¡La casa de {{fun_00000011 arg=\"0x0000\"}}\nes gigante!{{delay frames=\"40\"}}{{anim id=\"23\"}}\n¿Y vivirá ahí {{fun_0008000E arg=\"0x00CD0400E9006C00080065006C006C0061000000\"}} sol{{fun_0008000E arg=\"0x00CD02006F00020061000000\"}}?{{pageBreak}}{{anim id=\"9\"}}Es que fíjate, ¡ahí podría vivir\nuna familia entera!{{pageBreak}}{{anim id=\"21\"}}¡A este ritmo va a ser una de las\nsiete maravillas de {{fun_0003000E arg=\"\"}}{{fun_00050005 arg=\"\"}}!"
  },
  {
    "label": "015",
    "text": "{{anim id=\"1\"}}¡En este sitio de aquí es donde pega\nla mejor brisa de todo {{fun_0003000E arg=\"\"}}{{fun_00050005 arg=\"\"}}!{{pageBreak}}{{anim id=\"44\"}}{{delay frames=\"20\"}}Yo siempre vengo cuando estoy de\nbajón, ¡es ideal!{{pageBreak}}{{anim id=\"37\"}}Es todo por el aire del mar, ¡que\nte espabila y te deja a tope de\nenergía, {{delay frames=\"20\"}}{{fun_00070005 arg=\"\"}}!"
  },
  {
    "label": "016",
    "text": "{{anim id=\"1\"}}¿Sabes la chica que trabaja en la\ntienda de reciclaje? ¡Es majísima\ny siempre huele de maravilla!\n{{anim id=\"21\"}}Es que en este pueblo hay gente\nmuy cascarrabias{{delay frames=\"8\"}}.{{delay frames=\"8\"}}.{{delay frames=\"8\"}}.{{delay frames=\"20\"}}\n{{anim id=\"38\"}}¡Con lo fácil que es ser agradable!{{pageBreak}}{{anim id=\"15\"}}Huy, no lo digo por ti, ¿eh? ¡Tú no\neres tan quejica como otros,\n{{delay frames=\"20\"}}{{anim id=\"37\"}}{{fun_00070005 arg=\"\"}}!"
  },
  {
    "label": "017",
    "text": "{{anim id=\"21\"}}¿Has visto al chico que trabaja en la\ntienda de reciclaje? {{delay frames=\"40\"}}{{anim id=\"38\"}}¡Es muy malote!\n¡Me encanta!{{pageBreak}}{{anim id=\"35\"}}Además tiene pinta de gustarle\nel boxeo. {{anim id=\"5\"}}¡Seguro que antes de\ncasarse era campeón de su pueblo!{{anim id=\"0\"}}\n{{anim id=\"11\"}}Pobre, ahora tiene que trabajar\na destajo y no tiene tiempo para\nseguir entrenando.{{anim id=\"0\"}}\n{{anim id=\"15\"}}Huy, menudas películas me monto\na veces. {{anim id=\"0\"}}No me hagas mucho caso,\n{{anim id=\"26\"}}¡que se me va la pinza!"
  },
  {
    "label": "018",
    "text": "{{anim id=\"0\"}}¿Y tú qué haces en la estación?{{delay frames=\"40\"}}\n{{anim id=\"23\"}}¿Estás haciendo fotos?{{pageBreak}}{{anim id=\"1\"}}Sí, a mí eso también me gusta{{delay frames=\"8\"}}.{{delay frames=\"8\"}}.{{delay frames=\"8\"}}.{{delay frames=\"40\"}}\n{{anim id=\"44\"}}{{delay frames=\"20\"}}¡aunque la verdad es que prefiero\nque me las hagan!\n{{anim id=\"37\"}}¡Ya ves, una, que es fotogénica!\n{{delay frames=\"20\"}}¡{{fun_0003000E arg=\"\"}}{{fun_00070005 arg=\"\"}}!"
  },
  {
    "label": "019",
    "text": "{{anim id=\"43\"}}Buf, solo de pensar en estar todo\nel día quieta en el mismo sitio con\nla caña de pescar{{delay frames=\"8\"}}.{{delay frames=\"8\"}}.{{delay frames=\"8\"}}.\n¡Qué muermo! {{anim id=\"40\"}}Además, ¡no creo que\nse pesque mucho estando siempre\nen el mismo sitio!{{pageBreak}}{{anim id=\"6\"}}¿O te crees que los peces se van\na quedar esperando tan panchos?{{delay frames=\"20\"}}\n¡Hay que moverse, {{delay frames=\"20\"}}{{fun_00070005 arg=\"\"}}!"
  },
  {
    "label": "020",
    "text": "{{anim id=\"9\"}}No es que yo sea de meterme en\nlíos, pero siempre que la poli anda\ncerca, ¡me pongo muy nerviosa!\n{{anim id=\"15\"}}Oye, ¡¿pero qué insinúas?!{{delay frames=\"40\"}}\n{{anim id=\"6\"}}¡Si yo soy una chica ejemplar!"
  },
  {
    "label": "021",
    "text": "{{anim id=\"37\"}}¡Anda!{{delay frames=\"8\"}} ¿Qué, vas a por un cafecito?{{pageBreak}}{{anim id=\"21\"}}El aroma del café{{delay frames=\"8\"}} me transporta a{{delay frames=\"8\"}}.{{delay frames=\"8\"}}.{{delay frames=\"8\"}}.{{delay frames=\"40\"}}\n{{anim id=\"35\"}}¡Huy!{{delay frames=\"40\"}}{{anim id=\"26\"}} ¡Ji, ji, ji! ¡Casi me pongo\ntontorrona, {{delay frames=\"20\"}}{{fun_00070005 arg=\"\"}}!{{delay frames=\"40\"}}{{anim id=\"37\"}}"
  },
  {
    "label": "022",
    "text": "{{anim id=\"15\"}}¡Eh, tú!{{delay frames=\"40\"}}{{anim id=\"23\"}} A ver, ¿lo de pasarte por\nel ayuntamiento es como uno de\ntus deberes alcaldiles o algo así?{{pageBreak}}{{anim id=\"21\"}}Tampoco es que crea que te pasas\nel día de juerga flamenca{{delay frames=\"8\"}}.{{delay frames=\"8\"}}.{{delay frames=\"8\"}}.{{anim id=\"0\"}} ¡Ya sé\nque de vez en cuando trabajas!\n{{anim id=\"1\"}}Pues{{delay frames=\"8\"}}.{{delay frames=\"8\"}}.{{delay frames=\"8\"}}.{{delay frames=\"20\"}} Nada, ¡sigue a lo tuyo,\nalcald{{fun_0006000E arg=\"0x020065000600650073006100\"}} {{fun_00080005 arg=\"\"}}!"
  },
  {
    "label": "023",
    "text": "{{anim id=\"9\"}}Oye{{delay frames=\"8\"}}.{{delay frames=\"8\"}}.{{delay frames=\"8\"}}.{{delay frames=\"20\"}} ¿Alguna vez has visto a\n{{fun_001C0005 arg=\"0x00CD\"}} dando el callo en {{delay frames=\"8\"}}el\nayuntamiento?\n{{anim id=\"11\"}}A ver, tampoco es plan de que se\npase el día entero en el despacho\ny todo eso, pero aun así{{delay frames=\"8\"}}.{{delay frames=\"8\"}}.{{delay frames=\"8\"}}.{{delay frames=\"20\"}}{{pageBreak}}{{anim id=\"23\"}}A lo mejor sí que trabaja, pero solo\nen proyectos secretos y cosas\nde esas, ¿no, {{delay frames=\"20\"}}{{fun_00070005 arg=\"\"}}?"
  },
  {
    "label": "024",
    "text": "{{anim id=\"16\"}}¡Mola! {{delay frames=\"20\"}}¡Tú sí que sabes!{{delay frames=\"40\"}} {{anim id=\"38\"}}¡Soy\nsuperfán de todo lo que estás\nconstruyendo en {{fun_0003000E arg=\"\"}}{{fun_00050005 arg=\"\"}}!{{pageBreak}}{{anim id=\"37\"}}¡A ver con qué nos sorprendes\nahora, {{delay frames=\"20\"}}{{fun_00070005 arg=\"\"}}!"
  },
  {
    "label": "025",
    "text": "{{anim id=\"9\"}}¿De verdad? {{delay frames=\"8\"}}¿Y eso?{{delay frames=\"40\"}} {{anim id=\"6\"}}¡Pero si todos\nqueremos que hagas crecer el\npueblo!{{delay frames=\"40\"}}{{anim id=\"5\"}} ¡Tú puedes!{{delay frames=\"20\"}}{{pageBreak}}Es cuestión de ahorrar alguna que\notra baya, ¡y listo! ¡Enséñales\nquién manda aquí, {{delay frames=\"20\"}}{{fun_00070005 arg=\"\"}}!"
  },
  {
    "label": "026",
    "text": "{{anim id=\"16\"}}¡Anda! {{delay frames=\"20\"}}¡Pero bueno!{{delay frames=\"40\"}} {{anim id=\"38\"}}¡Menuda\nhas liado en {{fun_0003000E arg=\"\"}}{{fun_00050005 arg=\"\"}} con todo\nlo que has construido!{{pageBreak}}{{anim id=\"37\"}}Tengo unas ganas locas de ver qué\nconstruyes ahora... ¡Tú sigue\ndándole duro, {{delay frames=\"20\"}}{{fun_00070005 arg=\"\"}}!"
  },
  {
    "label": "027",
    "text": "{{anim id=\"9\"}}¿Ein? {{delay frames=\"8\"}}¿Cómo que no?{{delay frames=\"40\"}}{{anim id=\"6\"}} ¡Las casas\nasí son las mejores!{{pageBreak}}{{anim id=\"5\"}}¡Además es pan comido!{{delay frames=\"20\"}} Solo tienes\nque ahorrar unas cuantas bayas...\n¡y ya está, {{delay frames=\"20\"}}{{fun_00070005 arg=\"\"}}!"
  },
  {
    "label": "028",
    "text": "{{anim id=\"21\"}}Pero {{fun_0006000E arg=\"0x0C0068006F006D006200720065000A006D0075006A0065007200\"}}{{delay frames=\"8\"}}.{{delay frames=\"8\"}}.{{delay frames=\"8\"}}.{{delay frames=\"20\"}} ¡Si tu casa es\nenorme!{{delay frames=\"40\"}}{{anim id=\"38\"}} Es como de gente\nrica o algo así...{{pageBreak}}{{anim id=\"27\"}}Pero tampoco te emociones,\n¡que no lo eres, {{delay frames=\"20\"}}{{fun_00070005 arg=\"\"}}!"
  },
  {
    "label": "029",
    "text": "{{anim id=\"0\"}}Oye{{delay frames=\"8\"}}.{{delay frames=\"8\"}}.{{delay frames=\"8\"}}.{{delay frames=\"20\"}}{{anim id=\"23\"}} ¿Y tú aprovechas todo el\nespacio que tienes en tu casa?{{pageBreak}}{{anim id=\"0\"}}No es por nada{{delay frames=\"8\"}}.{{delay frames=\"8\"}}.{{delay frames=\"8\"}}.{{delay frames=\"20\"}} {{anim id=\"21\"}}¡Es que me\nparece alucinante! Me flipan\nlas casas grandes y todo eso...\n{{anim id=\"15\"}}¿Ein?{{delay frames=\"20\"}} {{anim id=\"9\"}}Oye, que no tengo envidia ni\nnada que se le parezca,\n{{delay frames=\"40\"}}¡{{fun_00070005 arg=\"\"}}!"
  },
  {
    "label": "030",
    "text": "{{anim id=\"11\"}}Mmm{{delay frames=\"8\"}}.{{delay frames=\"8\"}}.{{delay frames=\"8\"}}.{{delay frames=\"20\"}} ¿Y si remodelo mi casa?\nPodría hacer que fuese tan grande\ncomo la tuya.{{pageBreak}}{{anim id=\"9\"}}Bah, pero tengo cosas más\nimportantes en las que\ngastarme las bayas{{delay frames=\"8\"}}.{{delay frames=\"8\"}}.{{delay frames=\"8\"}}.{{delay frames=\"20\"}}{{pageBreak}}{{anim id=\"21\"}}Claro, con todas las fiestas que\naún me quedan por delante...{{delay frames=\"40\"}}\n{{anim id=\"6\"}}¡Tengo que ahorrar!"
  },
  {
    "label": "031",
    "text": "{{anim id=\"21\"}}¡Caramba, tu casa es gigante!{{delay frames=\"40\"}}\n{{anim id=\"38\"}}¡Hay que ver, vives a todo\ntrapo, como la gente rica!{{anim id=\"0\"}}{{pageBreak}}Si algún día me marcho de casa,\n¡ya sé adónde tengo que venir!{{delay frames=\"40\"}}{{pageBreak}}{{anim id=\"37\"}}Podría quedarme en la planta\nde arriba, ¡ji, ji, ji!{{pageBreak}}{{anim id=\"15\"}}¡Espera, si yo vivo sola! No tengo\npor qué irme de casa...{{delay frames=\"40\"}} {{anim id=\"37\"}}Entonces\nsupongo que solo vendré de fiesta{{delay frames=\"8\"}}.{{delay frames=\"8\"}}.{{delay frames=\"8\"}}."
  },
  {
    "label": "032",
    "text": "Entonces{{delay frames=\"8\"}}.{{delay frames=\"8\"}}.{{delay frames=\"8\"}}.{{delay frames=\"20\"}}{{anim id=\"23\"}} ¿qué haces con todo\nel espacio que tienes en la planta\nde arriba? {{delay frames=\"40\"}}{{anim id=\"0\"}}¡Es que es una pasada!{{pageBreak}}{{anim id=\"21\"}}Yo es que hago muchas fiestas\nen casa y todo eso{{delay frames=\"8\"}}.{{delay frames=\"8\"}}.{{delay frames=\"8\"}}.{{pageBreak}}{{anim id=\"4\"}}¡Así que me encantaría tener una\ncasa tan grande como la tuya!"
  },
  {
    "label": "033",
    "text": "{{anim id=\"11\"}}Buf, ¿cuántas bayas me harán falta\npara ampliar mi casa como la tuya?{{delay frames=\"20\"}}{{pageBreak}}{{anim id=\"40\"}}¡Ay, que no!{{delay frames=\"20\"}} ¡No puedo ponerme\nahora a pensar en esas cosas!{{delay frames=\"40\"}}\n{{anim id=\"21\"}}¡Hay que ahorrar, {{fun_00010005 arg=\"\"}}!"
  }
]