﻿[
  {
    "label": "001",
    "text": "Ji, ji{{delay frames=\"8\"}}.{{delay frames=\"8\"}}.{{delay frames=\"8\"}}.{{delay frames=\"20\"}} ¡No te preocupes!{{delay frames=\"40\"}}\n{{anim id=\"36\"}}Esta noche, nada de fiesta,\n¡y mañana, como nueva!"
  },
  {
    "label": "002",
    "text": "{{anim id=\"21\"}}No hay nada que no se cure con un\nbuen descansito. {{delay frames=\"20\"}}{{anim id=\"39\"}}Bueno, y con algo\nde {{color id=\"2\"}}medicina{{color id=\"65535\"}}."
  },
  {
    "label": "003",
    "text": "Huy{{delay frames=\"8\"}}.{{delay frames=\"8\"}}.{{delay frames=\"8\"}}.{{delay frames=\"20\"}}{{anim id=\"21\"}} Anda con cuidado, ¡no vayas\na resfriarte tú también!"
  },
  {
    "label": "004",
    "text": "{{fun_000A0007 arg=\"\"}}{{anim id=\"30\"}}¡Achíiis!{{delay frames=\"40\"}}{{delay frames=\"8\"}}.{{delay frames=\"8\"}}.{{delay frames=\"8\"}}.{{delay frames=\"40\"}}{{anim id=\"9\"}} Ay, perdona, pero estoy\npara el arrastre, {{delay frames=\"20\"}}{{fun_00070005 arg=\"\"}}."
  },
  {
    "label": "005",
    "text": "{{fun_000A0007 arg=\"\"}}{{anim id=\"30\"}}Cof, cof{{delay frames=\"8\"}}.{{delay frames=\"8\"}}.{{delay frames=\"8\"}}.{{delay frames=\"40\"}} {{anim id=\"9\"}}Me da a mí que me voy a\ntener que tomar algo de {{color id=\"2\"}}medicina{{color id=\"65535\"}}{{delay frames=\"8\"}}.{{delay frames=\"8\"}}.{{delay frames=\"8\"}}."
  },
  {
    "label": "006",
    "text": "{{anim id=\"10\"}}Ayyy{{delay frames=\"8\"}}.{{delay frames=\"8\"}}.{{delay frames=\"8\"}}.{{delay frames=\"20\"}} qué ganas de que se me pase\nya el resfriado, {{delay frames=\"20\"}}{{fun_00070005 arg=\"\"}}."
  },
  {
    "label": "007",
    "text": "{{fun_000A0007 arg=\"\"}}{{anim id=\"30\"}}Cof, cof{{delay frames=\"8\"}}.{{delay frames=\"8\"}}.{{delay frames=\"8\"}}.{{delay frames=\"40\"}} {{anim id=\"20\"}}{{delay frames=\"20\"}}¡{{color id=\"2\"}}Medicina{{color id=\"65535\"}}, {{delay frames=\"8\"}}rescátame!"
  },
  {
    "label": "008",
    "text": "{{fun_000A0007 arg=\"\"}}{{anim id=\"30\"}}Cof, cof{{delay frames=\"8\"}}.{{delay frames=\"8\"}}.{{delay frames=\"8\"}}.{{delay frames=\"40\"}} {{anim id=\"20\"}}{{delay frames=\"20\"}}Aaay, ¡cómo odio estar\nmalita! No puedo hacer nada."
  },
  {
    "label": "009",
    "text": "{{fun_000A0007 arg=\"\"}}{{anim id=\"30\"}}Cof, cof{{delay frames=\"8\"}}.{{delay frames=\"8\"}}.{{delay frames=\"8\"}}.{{delay frames=\"40\"}} {{anim id=\"20\"}}{{delay frames=\"20\"}}Necesito{{delay frames=\"8\"}} descansar."
  }
]