﻿[
  {
    "label": "001",
    "text": "{{anim id=\"3\"}}¡Yuju, {{fun_00080005 arg=\"\"}}!{{delay frames=\"8\"}} {{anim id=\"37\"}}¡Te doy\nla bienvenida a mi guarida!"
  },
  {
    "label": "002",
    "text": "{{anim id=\"15\"}}Pero no te quedes ahí, ¡pasa!{{delay frames=\"10\"}}\n¡No hace falta que te descalces\nsi no quieres, {{delay frames=\"20\"}}{{fun_00070005 arg=\"\"}}!{{delay frames=\"40\"}}{{anim id=\"37\"}}"
  },
  {
    "label": "003",
    "text": "{{anim id=\"5\"}}¡Ji, ji, ji!{{delay frames=\"20\"}} Como en casa, en ningún\nsitio.{{delay frames=\"40\"}} Venga, ¡hasta la cocina!"
  },
  {
    "label": "004",
    "text": "{{anim id=\"32\"}}¡Te doy la bienvenida a mi guarida!{{delay frames=\"40\"}}\n¡Ji, ji, {{delay frames=\"20\"}}{{fun_00070005 arg=\"\"}}!"
  },
  {
    "label": "005",
    "text": "{{anim id=\"32\"}}¡Hombre, hola!{{delay frames=\"40\"}} Qué prontito\nllegas, ¿no, {{delay frames=\"20\"}}{{fun_00070005 arg=\"\"}}?"
  },
  {
    "label": "006",
    "text": "{{anim id=\"32\"}}¡Aloha!{{delay frames=\"40\"}} Pero si al final has venido...\n¡Increíble, {{delay frames=\"20\"}}{{fun_00070005 arg=\"\"}}!"
  },
  {
    "label": "007",
    "text": "{{anim id=\"32\"}}¡Así me gusta!{{delay frames=\"10\"}} ¡Qué pasote que\nhayas venido, {{delay frames=\"20\"}}{{fun_00070005 arg=\"\"}}!"
  },
  {
    "label": "008",
    "text": "{{anim id=\"32\"}}¡Anda, dichosos los ojos!{{delay frames=\"40\"}}\nVenga, pasa, {{fun_00070005 arg=\"\"}}."
  },
  {
    "label": "009",
    "text": "{{anim id=\"32\"}}¡Anda, hola!{{delay frames=\"40\"}} ¡Ya llevaba un ratejo\nesperándote, {{delay frames=\"20\"}}{{fun_00070005 arg=\"\"}}!"
  }
]