﻿[
  {
    "label": "001",
    "text": "{{anim id=\"37\"}}Ay, a ver si algún día tú también\nte resfrías para poder devolverte\nel favor...{{delay frames=\"20\"}} {{anim id=\"35\"}}¡Bueno, ya me entiendes!"
  },
  {
    "label": "002",
    "text": "{{anim id=\"37\"}}Ji, ji, ji{{delay frames=\"8\"}}.{{delay frames=\"8\"}}.{{delay frames=\"8\"}}.{{delay frames=\"20\"}} Los amigos de verdad\nson los que te quieren igual aunque\nestés hecha un guiñapo."
  },
  {
    "label": "003",
    "text": "{{anim id=\"37\"}}¡Ji, ji, ji!{{delay frames=\"20\"}} Es una pena que me hayas\nvisto con semejantes pintas.{{delay frames=\"20\"}} Pero \nbueno{{delay frames=\"8\"}}.{{delay frames=\"8\"}}.{{delay frames=\"8\"}}. ¡ahora ya sabes lo que hay!"
  }
]