﻿[
  {
    "label": "001",
    "text": "{{anim id=\"1\"}}¡¿Cómo se me ocurriría venir\na comprar en ayunas?!{{delay frames=\"8\"}} ¡Estoy\nsuperhambriento, {{fun_00070005 arg=\"\"}}!"
  },
  {
    "label": "002",
    "text": "{{anim id=\"1\"}}A veces solo con pasearme un poco\npor esta calle ya me quedo de lo\nmás tranquilo. ¡Me da buen rollo!"
  },
  {
    "label": "003",
    "text": "{{anim id=\"23\"}}¿Has comprado muchas cosas?{{delay frames=\"40\"}}\n{{anim id=\"9\"}}Yo todavía ninguna.{{delay frames=\"20\"}} Es que no sé\nqué comprarme. Hay tanto{{delay frames=\"8\"}}.{{delay frames=\"8\"}}.{{delay frames=\"8\"}}."
  },
  {
    "label": "004",
    "text": "{{anim id=\"5\"}}¡Je, je, je!{{delay frames=\"20\"}} ¡Hoy voy a fundírmelo\nTODO comprando lo que pille!"
  },
  {
    "label": "005",
    "text": "Comprar está bien cuando nadie te\nmete prisa.{{delay frames=\"20\"}} A mí me gusta hacerlo\ntodo con calma,{{delay frames=\"8\"}} {{fun_00070005 arg=\"\"}}."
  },
  {
    "label": "006",
    "text": ""
  },
  {
    "label": "007",
    "text": "Me gusta pasear por la zona\ncomercial a estas horas de la\nnoche.{{fun_00010007 arg=\"\"}} {{anim id=\"1\"}}¡Está más tranqui que de día!"
  },
  {
    "label": "008",
    "text": "{{anim id=\"25\"}}Uaaaaah...{{fun_00010007 arg=\"\"}} {{anim id=\"15\"}}Huy, {{delay frames=\"20\"}}¡perdón!{{fun_00010007 arg=\"\"}} {{anim id=\"26\"}}Es que\na estas horas siempre estoy que{{delay frames=\"20\"}}\nme caigo de sueño,{{delay frames=\"8\"}} {{fun_00070005 arg=\"\"}}."
  },
  {
    "label": "009",
    "text": "{{anim id=\"1\"}}¡Cómo mola pasar el ratillo\npor la zona comercial en cuanto\ntengo alguna hora libre!"
  },
  {
    "label": "010",
    "text": ""
  },
  {
    "label": "011",
    "text": "{{i10_6 arg=\"0x090014000C000D00\"}}"
  },
  {
    "label": "012",
    "text": "{{fun_00030009 arg=\"0x01000200030004000500\"}}"
  },
  {
    "label": "013",
    "text": "{{fun_00010009 arg=\"0x070008000900\"}}"
  }
]