﻿[
  {
    "label": "001",
    "text": "{{fun_00000009 arg=\"0x07000800\"}}"
  },
  {
    "label": "002",
    "text": "{{fun_00000009 arg=\"0x09000A00\"}}"
  },
  {
    "label": "003",
    "text": "{{fun_00000009 arg=\"0x0B000C00\"}}"
  },
  {
    "label": "004",
    "text": "{{fun_00000009 arg=\"0x0D000E00\"}}"
  },
  {
    "label": "005",
    "text": "{{fun_00000009 arg=\"0x0F001000\"}}"
  },
  {
    "label": "006",
    "text": ""
  },
  {
    "label": "007",
    "text": "{{anim id=\"5\"}}¡Estoy a la caza de fósiles!{{delay frames=\"40\"}}\nCuando encuentre uno, ¡lo voy\na desenterrar con esta pala!\n{{anim id=\"0\"}}Pero{{delay frames=\"8\"}}.{{delay frames=\"8\"}}.{{delay frames=\"8\"}}.{{delay frames=\"8\"}} empiezo a pensar que\n{{anim id=\"12\"}}voy a tardar bastante,{{delay frames=\"8\"}}\n{{fun_00070005 arg=\"\"}}."
  },
  {
    "label": "008",
    "text": "{{anim id=\"23\"}}¿Qué hay?{{delay frames=\"40\"}} Supongo que te\npreguntarás por qué llevo\nuna pala,{{delay frames=\"8\"}} ¿no, {{fun_00080005 arg=\"\"}}?{{pageBreak}}{{anim id=\"4\"}}¡Tengo un plan colosal para{{delay frames=\"20\"}}\nconectar todas nuestras casas\nsubterráneamente,{{delay frames=\"8\"}} {{fun_00070005 arg=\"\"}}!"
  },
  {
    "label": "009",
    "text": "{{anim id=\"1\"}}Nunca se sabe cuándo se te puede\nacercar volando algún bicho,\n¿a que no?{{delay frames=\"20\"}}\nPor eso voy por ahí con esta red.\n{{anim id=\"3\"}}¡No pienso desaprovechar ninguna\noportunidad que se me presente!"
  },
  {
    "label": "010",
    "text": "¿Te has fijado en mi{{delay frames=\"20\"}} {{anim id=\"23\"}}estupenda red,{{delay frames=\"8\"}}\n{{fun_00080005 arg=\"\"}}?{{fun_00010007 arg=\"\"}} {{anim id=\"18\"}}¡Lo sabía!{{pageBreak}}{{anim id=\"1\"}}Aunque parezca una red corriente\ny moliente,{{delay frames=\"20\"}} ¡en realidad es única en\nel mundo!{{delay frames=\"20\"}} ¡Nadie tiene otra igual!\n{{anim id=\"5\"}}¡Je, je, je!{{delay frames=\"20\"}} ¡Hasta tiene un\ncompartimento secreto,{{delay frames=\"8\"}}\n{{fun_00070005 arg=\"\"}}!"
  },
  {
    "label": "011",
    "text": "{{anim id=\"42\"}}¡Estoy a punto de pescar el mayor\npez{{delay frames=\"20\"}} de toda la historia de los peces!{{pageBreak}}{{anim id=\"3\"}}¡Je, je, je!{{delay frames=\"20\"}} Y cuando lo haga,{{delay frames=\"20\"}}\n¡espero salir en algún libro\nde historia,{{delay frames=\"8\"}} {{fun_00070005 arg=\"\"}}!"
  },
  {
    "label": "012",
    "text": "Me dirijo a mi lugar de pesca\nsupersecreto ahora mismo.{{delay frames=\"20\"}} {{anim id=\"13\"}}Así\nque no me sigas,{{delay frames=\"8\"}} ¿eh,{{delay frames=\"8\"}} {{fun_00080005 arg=\"\"}}?\n{{anim id=\"35\"}}Je, je, je{{delay frames=\"8\"}}.{{delay frames=\"8\"}}.{{delay frames=\"8\"}}.{{delay frames=\"20\"}} Es el sitio al que voy\nsiempre que quiero estar un rato\ntranquilo a mi bola."
  },
  {
    "label": "013",
    "text": "{{anim id=\"1\"}}¡El agua es como la comida\nde las flores!{{pageBreak}}{{anim id=\"5\"}}Así que cuando las riego,{{delay frames=\"20\"}} ¡lo que\nhago es imaginarme que les estoy\nsirviendo {{fun_0002000E arg=\"\"}}{{fun_00130005 arg=\"0x0000\"}}!"
  },
  {
    "label": "014",
    "text": "{{anim id=\"1\"}}¡Lo que te has perdido! Resulta\nque estaba regando una planta...{{delay frames=\"20\"}}\n¡y empezó a brillar de alegría!\n{{anim id=\"5\"}}¡Ojalá lo hubieras visto,\n{{fun_00080005 arg=\"\"}}!"
  },
  {
    "label": "015",
    "text": "{{anim id=\"5\"}}A mí no me disgustan los días de\nlluvia.{{delay frames=\"20\"}} ¡Así tengo una buena excusa\npara sacar mi paraguas molón!"
  },
  {
    "label": "016",
    "text": "{{anim id=\"1\"}}Lo que más mola de los paraguas\nes que sirven para muchas cosas.{{pageBreak}}{{anim id=\"21\"}}Puedes usarlos{{delay frames=\"20\"}} para no mojarte\ncuando llueve o darles vueltas\ncomo si fueran una hélice, ¡yuuuuu!"
  }
]