﻿[
  {
    "label": "001",
    "text": "{{anim id=\"3\"}}¡Qué guay!{{delay frames=\"20\"}} ¡Entonces vamos!"
  },
  {
    "label": "002",
    "text": "{{anim id=\"42\"}}¡Chachi!{{delay frames=\"20\"}} ¡Venga, vamos allá!"
  },
  {
    "label": "003",
    "text": "{{anim id=\"1\"}}¡Je, je, je!{{delay frames=\"20\"}} Venga, ¡tú me guías,\n{{fun_00080005 arg=\"\"}}!{{pageBreak}}{{anim id=\"26\"}}¡No sé cómo llegar{{delay frames=\"20\"}} a casa\ndesde aquí,{{delay frames=\"8\"}} {{fun_00070005 arg=\"\"}}!"
  }
]