﻿[
  {
    "label": "001",
    "text": "Vaya{{delay frames=\"8\"}}.{{delay frames=\"8\"}}.{{delay frames=\"8\"}}.{{delay frames=\"20\"}} ¡Pero si esta {{color id=\"2\"}}medicina{{color id=\"65535\"}}{{delay frames=\"20\"}}{{anim id=\"15\"}}{{fun_000B0007 arg=\"\"}} no es\namarga como me esperaba!{{delay frames=\"20\"}} ¡Sabe a\n{{fun_00100005 arg=\"0x0000\"}},{{delay frames=\"8\"}} {{fun_00070005 arg=\"\"}}!"
  },
  {
    "label": "002",
    "text": "{{anim id=\"9\"}}Puaj{{delay frames=\"8\"}}.{{delay frames=\"8\"}}.{{delay frames=\"8\"}}.{{delay frames=\"20\"}} Ahora tengo que enjuagarme\ncon {{fun_000E0005 arg=\"0x0000\"}} para quitarme\neste horrible regusto de la boca.\n{{anim id=\"1\"}}Pero creo que me siento un poco\nmejor,{{delay frames=\"20\"}} así que gracias, {{fun_00080005 arg=\"\"}}."
  },
  {
    "label": "003",
    "text": "{{anim id=\"1\"}}¡Je, je, je!{{delay frames=\"20\"}} Ahora lo único que\nme falta para mejorar es\ncomer mucho y bien."
  },
  {
    "label": "004",
    "text": "{{anim id=\"13\"}}¡Puaj!{{delay frames=\"20\"}} ¡Repuaj, buaj!{{delay frames=\"20\"}} Cuando\nalgo sabe tan mal uno tendrá\nque mejorarse fijo,{{delay frames=\"8\"}} ¿no?"
  },
  {
    "label": "005",
    "text": "{{anim id=\"9\"}}Puaj{{delay frames=\"8\"}}.{{delay frames=\"8\"}}.{{delay frames=\"8\"}}.{{delay frames=\"20\"}} Sabía asquerosa.{{fun_00010007 arg=\"\"}} {{anim id=\"1\"}}Pero\nse supone que me curará, ¿no?"
  },
  {
    "label": "006",
    "text": "{{anim id=\"3\"}}¡Chúpate esa, virus!{{delay frames=\"20\"}} ¡Esa\n{{color id=\"2\"}}medicina{{color id=\"65535\"}} acabará contigo!"
  },
  {
    "label": "007",
    "text": "{{anim id=\"1\"}}Tal vez mejore pronto\ny pueda salir a jugar fuera."
  },
  {
    "label": "008",
    "text": "{{anim id=\"1\"}}Y ahora sí que voy a mejorar,\n¿verdad?"
  },
  {
    "label": "009",
    "text": "Mmm{{delay frames=\"8\"}}.{{delay frames=\"8\"}}.{{delay frames=\"8\"}}.{{delay frames=\"20\"}} Creo que ahora ya\nempiezo a sentirme mejor."
  }
]