﻿[
  {
    "label": "001",
    "text": "{{anim id=\"5\"}}Pues oye,{{delay frames=\"20\"}} está bien lo de dar\nun paseíto por aquí afuera."
  },
  {
    "label": "002",
    "text": "{{anim id=\"23\"}}Me pregunto qué quiere {{fun_00010011 arg=\"0x0000\"}}.{{fun_00010007 arg=\"\"}}\n{{anim id=\"3\"}}¡Espero que nos ponga algo\nde comer,{{delay frames=\"8\"}} {{fun_00070005 arg=\"\"}}!"
  },
  {
    "label": "003",
    "text": "{{anim id=\"1\"}}Dar vueltas por ahí no está tan\nmal cuando vas con u{{fun_0006000E arg=\"0x02006E0004006E006100\"}} amig{{fun_0006000E arg=\"0x02006F0002006100\"}},{{delay frames=\"8\"}}\n{{fun_00070005 arg=\"\"}}."
  },
  {
    "label": "004",
    "text": "¡Deberíamos ir cuanto antes\na casa de {{fun_00010011 arg=\"0x0000\"}}!{{delay frames=\"20\"}} {{anim id=\"1\"}}Yo ya te\nsigo a mi ritmo, {{fun_00070005 arg=\"\"}}."
  },
  {
    "label": "005",
    "text": "{{anim id=\"9\"}}Hum{{delay frames=\"8\"}}.{{delay frames=\"8\"}}.{{delay frames=\"8\"}}.{{delay frames=\"20\"}} Me pregunto qué querrá\n{{fun_00010011 arg=\"0x0000\"}}.{{fun_00010007 arg=\"\"}} ¡Vamos enseguida\na su casa para averiguarlo!"
  }
]