﻿[
  {
    "label": "001",
    "text": "{{anim id=\"36\"}}Es muy difícil saber si los rumores\nque corren por el pueblo son verdad\no si se los inventa la gente.\n{{anim id=\"11\"}}Me imagino que lo mejor es creer\nsolo lo que puedes ver con tus\npropios ojos{{delay frames=\"8\"}}.{{delay frames=\"8\"}}.{{delay frames=\"8\"}}."
  },
  {
    "label": "002",
    "text": "{{anim id=\"9\"}}Estoy preocupadilla por {{fun_00010011 arg=\"0x0000\"}}.\nEstaba muy malit{{fun_0008000E arg=\"0x00CD02006F00020061000000\"}} cuando l{{fun_0008000E arg=\"0x00CD02006F00020061000000\"}} vi\nla última vez, está resfriad{{fun_0008000E arg=\"0x00CD02006F00020061000000\"}}.\n{{anim id=\"37\"}}Seguro que se alegraría si te\nacercaras a visitarl{{fun_0008000E arg=\"0x00CD02006F00020061000000\"}}, aunque\nsolo fuera un momentito."
  },
  {
    "label": "003",
    "text": "{{anim id=\"1\"}}¡Están construyendo una casa!{{fun_00010007 arg=\"\"}}\n{{anim id=\"5\"}}¡Tengo muchas ganas de saber\nquién será nuestro nuevo vecino!"
  },
  {
    "label": "004",
    "text": "{{anim id=\"1\"}}Parece que tenemos un nuevo\nvecino en {{fun_0003000E arg=\"\"}}{{fun_00050005 arg=\"\"}}. Noto su\naura, sé que nos llevaremos bien.\n{{anim id=\"37\"}}Tengo pensado invitarlo a tomar\nel té, para darle la bienvenida\na nuestro pueblo."
  },
  {
    "label": "005",
    "text": "{{anim id=\"37\"}}¿Has conocido a {{fun_00010011 arg=\"0x0000\"}}?\n{{delay frames=\"20\"}}Es {{fun_0008000E arg=\"0x00CD040065006C0004006C0061000000\"}} que se mudó hace poco,\n{{delay frames=\"10\"}}nuestr{{fun_0008000E arg=\"0x00CD02006F00020061000000\"}} nuev{{fun_0008000E arg=\"0x00CD02006F00020061000000\"}} vecin{{fun_0008000E arg=\"0x00CD02006F00020061000000\"}}.\n{{anim id=\"36\"}}Me acerqué para saludar{{fun_0008000E arg=\"0x00CD04006C006F0004006C0061000000\"}}, {{delay frames=\"10\"}}pero\ncreo que estaba muy ocupad{{fun_0008000E arg=\"0x00CD02006F00020061000000\"}}.\n{{delay frames=\"20\"}}{{anim id=\"9\"}}Espero no haberl{{fun_0008000E arg=\"0x00CD02006F00020061000000\"}} molestado{{delay frames=\"8\"}}.{{delay frames=\"8\"}}.{{delay frames=\"8\"}}.\n{{anim id=\"1\"}}Si tienes tiempo, {{delay frames=\"10\"}}creo que también\ndeberías pasarte y presentarte.\n{{delay frames=\"20\"}}Diría que ya está instalad{{fun_0008000E arg=\"0x00CD02006F00020061000000\"}}."
  },
  {
    "label": "006",
    "text": "{{anim id=\"37\"}}Hace poquito hablé con {{fun_00010011 arg=\"0x0000\"}}\ny me comentó que estaba pensando\nen mudarse{{delay frames=\"8\"}}.{{delay frames=\"8\"}}.{{delay frames=\"8\"}}.\n{{anim id=\"13\"}}¿Tú crees que hablaba en serio?\n{{delay frames=\"20\"}}¿O a lo mejor estaba de broma\ny no me di cuenta?{{delay frames=\"8\"}}.{{delay frames=\"8\"}}.{{delay frames=\"8\"}}.\n{{anim id=\"9\"}}Te agradecería mucho que fueras\na hablar con {{fun_0008000E arg=\"0x00CD0400E9006C00080065006C006C0061000000\"}}, {{fun_00080005 arg=\"\"}}.\n{{delay frames=\"20\"}}Así me quedaré más tranquila."
  },
  {
    "label": "007",
    "text": "{{anim id=\"15\"}}¿Te ha llegado la noticia?{{fun_00010007 arg=\"\"}}\n{{fun_00010011 arg=\"0x0000\"}} está empaquetando\nsus cosas para mudarse.\n{{anim id=\"11\"}}Y eso que todavía no ha decidido\nsiquiera a qué pueblo va a irse{{delay frames=\"8\"}}.{{delay frames=\"8\"}}.{{delay frames=\"8\"}}.{{delay frames=\"20\"}}\n{{anim id=\"9\"}}¡No sé si es valiente o insensat{{fun_0008000E arg=\"0x00CD02006F00020061000000\"}}!"
  },
  {
    "label": "008",
    "text": "{{anim id=\"13\"}}Ay, {{delay frames=\"10\"}}{{fun_00080005 arg=\"\"}}, {{delay frames=\"10\"}}¿te lo han dicho?{{fun_00010007 arg=\"\"}}\n{{fun_00010011 arg=\"0x0000\"}} está preparando sus\ncosas para mudarse.{{pageBreak}}{{anim id=\"11\"}}Se comenta que todo fue idea de\nun amigo suyo, {{delay frames=\"10\"}}o algo así, {{delay frames=\"10\"}}que se\nlo comentó{{delay frames=\"8\"}}.{{delay frames=\"8\"}}.{{delay frames=\"8\"}}.\n{{anim id=\"9\"}}Este pueblo no será lo mismo sin\nnuestr{{fun_0008000E arg=\"0x00CD02006F00020061000000\"}} {{fun_00010011 arg=\"0x0000\"}}, {{delay frames=\"10\"}}¿verdad?"
  },
  {
    "label": "009",
    "text": ""
  },
  {
    "label": "010",
    "text": ""
  },
  {
    "label": "011",
    "text": ""
  }
]