﻿[
  {
    "label": "001",
    "text": "{{i10_16 arg=\"2\"}}"
  },
  {
    "label": "002",
    "text": "{{anim id=\"1\"}}Cuando llega la primavera, {{delay frames=\"5\"}}mi joven\ncorazón busca refugio en la lectura,\n{{delay frames=\"10\"}}{{fun_00070005 arg=\"\"}}.\n{{anim id=\"43\"}}Me pregunto qué nuevas aventuras\nme estarán esperando, ocultas entre\nlas páginas{{delay frames=\"8\"}}.{{delay frames=\"8\"}}.{{delay frames=\"8\"}}.{{fun_00010007 arg=\"\"}} {{anim id=\"5\"}}¡Ay, qué emoción!"
  },
  {
    "label": "003",
    "text": "{{anim id=\"1\"}}El verano es la mejor época para\nleer en la playa, {{delay frames=\"15\"}}{{fun_00070005 arg=\"\"}}.{{pageBreak}}{{anim id=\"21\"}}El relajante sonido de las olas es\nel compañero ideal para entrar\nen un mundo de imaginación."
  },
  {
    "label": "004",
    "text": "{{anim id=\"1\"}}En otoño empieza a refrescar,\n{{delay frames=\"20\"}}así que me apetece más quedarme\nen casa leyendo un buen libro.\n{{anim id=\"1\"}}¡No se me ocurre una manera mejor\npara relajarme,{{delay frames=\"8\"}} {{fun_00070005 arg=\"\"}}!"
  },
  {
    "label": "005",
    "text": "{{anim id=\"1\"}}En invierno {{delay frames=\"10\"}}lo único que me apetece\nes envolverme en una manta al lado\nde la estufa{{delay frames=\"8\"}}.{{delay frames=\"8\"}}.{{delay frames=\"8\"}}.{{delay frames=\"20\"}} {{anim id=\"5\"}}¡y ponerme a leer!\n{{anim id=\"43\"}}Un buen libro {{delay frames=\"5\"}}y una tacita de\nchocolate caliente{{delay frames=\"8\"}}.{{delay frames=\"8\"}}.{{delay frames=\"8\"}}.{{delay frames=\"20\"}} {{anim id=\"4\"}}¡Eso para\nmí es como estar en el nirvana!"
  },
  {
    "label": "006",
    "text": ""
  },
  {
    "label": "007",
    "text": ""
  },
  {
    "label": "008",
    "text": "{{fun_00020009 arg=\"0x0900100013001600\"}}"
  },
  {
    "label": "009",
    "text": "{{anim id=\"37\"}}Sé que esto es un poco repentino,\npero{{delay frames=\"8\"}}.{{delay frames=\"8\"}}.{{delay frames=\"8\"}}. {{delay frames=\"20\"}}¿sabes en qué estoy\npensando ahora mismo?{{fun_00000008 arg=\"0x0A0000000D000000\"}}\nEn el futuro\nEn el pasado"
  },
  {
    "label": "010",
    "text": "{{fun_00000009 arg=\"0x0B000C00\"}}"
  },
  {
    "label": "011",
    "text": "{{anim id=\"16\"}}¡Qué bien me conoces!{{fun_00010007 arg=\"\"}} {{anim id=\"0\"}}Llevo desde\nhace tiempo pensando en cuál sería\n{{anim id=\"21\"}}la mejor manera de vivir mi vida.\n{{anim id=\"11\"}}Pero ¿cómo puedo decidir algo así?{{fun_00010007 arg=\"\"}}\n{{anim id=\"37\"}}Supongo que tendré que meditar un\npoco más para conocerme mejor."
  },
  {
    "label": "012",
    "text": "Pues lo cierto es que no, cariño.\nA mi espíritu le gusta disfrutar del\nmomento presente, ¿sabes?\nYo estaba intentando recordar\ndónde dejé {{fun_0001000E arg=\"\"}}{{fun_000F0005 arg=\"0x0000\"}}\nque compré el otro día.\n{{anim id=\"13\"}}¡Espero que no se me haya perdido!{{anim id=\"0\"}}"
  },
  {
    "label": "013",
    "text": "{{fun_00000009 arg=\"0x0E000F00\"}}"
  },
  {
    "label": "014",
    "text": "{{anim id=\"16\"}}¡Exacto!{{delay frames=\"20\"}} Siento como si me hubieras\nleído el pensamiento.{{pageBreak}}{{anim id=\"0\"}}Una persona muy amable me dio\nayer {{fun_0002000E arg=\"\"}}{{fun_00100005 arg=\"0x0000\"}}.\n¡Me hizo muchísima ilusión!\n{{delay frames=\"15\"}}{{anim id=\"9\"}}Lo malo es que no sé cuándo será\nel momento perfecto para hincarle\nel diente{{delay frames=\"8\"}}.{{delay frames=\"8\"}}.{{delay frames=\"8\"}}."
  },
  {
    "label": "015",
    "text": "{{anim id=\"40\"}}No, no estoy pensando en el pasado.{{delay frames=\"10\"}}\nMi espíritu tiene la mirada puesta\nen el futuro, {{delay frames=\"10\"}}{{fun_00070005 arg=\"\"}}{{delay frames=\"8\"}}.{{delay frames=\"8\"}}.{{delay frames=\"8\"}}.\nQuiero hacer tantísimas cosas{{delay frames=\"15\"}} que\nno sé cómo organizarme.{{delay frames=\"15\"}}{{anim id=\"37\"}} Debería\nmeditar más sobre este asunto."
  },
  {
    "label": "016",
    "text": "{{anim id=\"37\"}}Noto un fuerte vínculo entre\nnuestros espíritus{{delay frames=\"8\"}}.{{delay frames=\"8\"}}.{{delay frames=\"8\"}}.\n{{delay frames=\"20\"}}A ver, {{delay frames=\"5\"}}dime en qué estoy pensando.{{fun_00000008 arg=\"0x1100000012000000\"}}\nEn el mundo\nEn nada"
  },
  {
    "label": "017",
    "text": "{{anim id=\"16\"}}¡Has dado en el clavo!{{delay frames=\"20\"}} {{anim id=\"21\"}}Pensaba en\nqué puedo hacer yo para que este\nmundo sea un lugar mejor.\n{{anim id=\"5\"}}¡Pero para que un bosque crezca,\nprimero hay que plantar semillas!{{pageBreak}}Así que creo que plantaré mis\nsemillas de la paz en {{fun_0003000E arg=\"\"}}{{fun_00060005 arg=\"\"}}.\nOjalá lleguen a ser un bosque{{delay frames=\"8\"}}.{{delay frames=\"8\"}}.{{delay frames=\"8\"}}."
  },
  {
    "label": "018",
    "text": "{{anim id=\"6\"}}¡¿Cómo?! {{delay frames=\"20\"}}¡Pues claro que estoy\npensando en algo!{{fun_00010007 arg=\"\"}} {{anim id=\"21\"}}Mi mente está\nconcentrada en esta conversación."
  },
  {
    "label": "019",
    "text": "{{anim id=\"37\"}}¡Vaya, {{fun_00000005 arg=\"\"}}! {{delay frames=\"20\"}}Algo me dice\nque sabes en lo que estoy pensando\nen este mismo instante{{delay frames=\"8\"}}.{{delay frames=\"8\"}}.{{delay frames=\"8\"}}.{{fun_00000008 arg=\"0x1400000015000000\"}}\nEn extraterrestres\nEn pollitos"
  },
  {
    "label": "020",
    "text": "{{anim id=\"21\"}}¡Sabía que podías leerme la mente!{{delay frames=\"20\"}}\nVerás, a mí siempre me han atraído\nmucho los astros y los planetas.{{pageBreak}}{{anim id=\"4\"}}Me encantaría ser un astronauta.\n{{delay frames=\"8\"}}Visitaría otros mundos y aprendería\nmucho de ellos, {{delay frames=\"20\"}}¡estoy convencida!"
  },
  {
    "label": "021",
    "text": "{{anim id=\"21\"}}Correcto.{{fun_00010007 arg=\"\"}} Los pollitos nacen siendo\namarillos, {{delay frames=\"10\"}}pero a medida que crecen\ncambian de color{{delay frames=\"8\"}}.{{delay frames=\"8\"}}.{{delay frames=\"8\"}}.\n{{anim id=\"16\"}}¡A lo mejor te pasa a ti también!{{delay frames=\"20\"}}\nOh,{{delay frames=\"10\"}} espera{{delay frames=\"8\"}}.{{delay frames=\"8\"}}.{{delay frames=\"8\"}}.{{delay frames=\"5\"}} ¡Dudo mucho que tú\ncambies de color cuando crezcas!"
  },
  {
    "label": "022",
    "text": "{{anim id=\"37\"}}¡Oh! He notado cómo nuestras\nauras se han mezclado. A ver{{delay frames=\"8\"}}.{{delay frames=\"8\"}}.{{delay frames=\"8\"}}.\nAdivina en qué estoy pensando.{{fun_00000008 arg=\"0x170000001A000000\"}}\nEn guantes\nEn calcetines"
  },
  {
    "label": "023",
    "text": "{{i10_16 arg=\"24\"}}"
  },
  {
    "label": "024",
    "text": "{{anim id=\"21\"}}¡Exacto!{{delay frames=\"20\"}} {{anim id=\"0\"}}Suelo llevar mis bayas\nen un guante que ya no me pongo.{{pageBreak}}{{anim id=\"9\"}}Pero en las tiendas suelen mirarme\ncon cara rara,{{delay frames=\"20\"}} así que me compraré\nun monedero normal."
  },
  {
    "label": "025",
    "text": "{{anim id=\"1\"}}¡Sabía que acertarías!{{fun_00010007 arg=\"\"}} Llevo días\npensando en que debería coserme\nun nuevo par de guantes, {{delay frames=\"10\"}}¿sabes?\n{{anim id=\"39\"}}Pero la última vez que lo intenté{{delay frames=\"20\"}}\nestaba tan concentrada que acabé\nhaciéndolos con trece dedos{{delay frames=\"8\"}}.{{delay frames=\"8\"}}.{{delay frames=\"8\"}}."
  },
  {
    "label": "026",
    "text": "{{i10_16 arg=\"27\"}}"
  },
  {
    "label": "027",
    "text": "{{anim id=\"21\"}}Cierto.{{delay frames=\"40\"}} {{anim id=\"37\"}}Me estaba acordando de que\nel otro día fui a casa de {{fun_00020005 arg=\"\"}}\n{{delay frames=\"10\"}}y me quité los zapatos al entrar.\n{{anim id=\"39\"}}¡No sabes la vergüenza que me dio\ncuando vi que tenía un agujero en\nuno de mis calcetines!{{pageBreak}}No quería que se diera cuenta, así\nque mantuve el pie escondido{{delay frames=\"8\"}}.{{delay frames=\"8\"}}.{{delay frames=\"8\"}}.{{anim id=\"0\"}}{{delay frames=\"20\"}}{{anim id=\"41\"}}\n¡y fui a la pata coja todo el rato!{{anim id=\"0\"}}\n{{anim id=\"27\"}}Lo bueno es que no se percató de\nlo del calcetín, {{delay frames=\"20\"}}pero me sentí muy\nrara dando saltitos por su casa{{delay frames=\"8\"}}.{{delay frames=\"8\"}}.{{delay frames=\"8\"}}.{{anim id=\"0\"}}"
  },
  {
    "label": "028",
    "text": "{{anim id=\"21\"}}Eso mismo. {{fun_00010007 arg=\"\"}}{{anim id=\"37\"}}Últimamente, {{delay frames=\"10\"}}me pongo\ncalcetines gorditos para dormir.{{pageBreak}}{{anim id=\"0\"}}Pero siempre acaban al final de\nla cama, hechos un gurruño. {{delay frames=\"10\"}}{{anim id=\"27\"}}¡Y me\ndespierto con los pies heladitos!\n{{anim id=\"1\"}}He pensado que podría usar cinta\nadhesiva para que no se me caigan.\n{{delay frames=\"20\"}}Oh, ¿crees que es mala idea? {{delay frames=\"10\"}}Vaya{{delay frames=\"8\"}}.{{delay frames=\"8\"}}.{{delay frames=\"8\"}}."
  },
  {
    "label": "029",
    "text": ""
  },
  {
    "label": "030",
    "text": "{{fun_00030009 arg=\"0x1F002000210022002300\"}}"
  },
  {
    "label": "031",
    "text": "{{anim id=\"39\"}}Hace poco,{{delay frames=\"10\"}} recogí una carta de\n{{fun_00040005 arg=\"0x00CD\"}} del suelo.{{delay frames=\"8\"}} Supongo\nque se le cayó del bolsillo o algo.\n{{anim id=\"13\"}}¡Sé que estuvo fatal leerla,\npero es que no pude resistirme!\n{{delay frames=\"20\"}}¡No se lo digas a nadie, por favor!\nMe sentí tan mal conmigo misma\nque la dejé donde la encontré.{{pageBreak}}{{anim id=\"11\"}}Ahora que lo pienso{{delay frames=\"8\"}}.{{delay frames=\"8\"}}.{{delay frames=\"8\"}}.{{delay frames=\"30\"}} A lo mejor\ndebería habérsela entregado{{delay frames=\"8\"}}.{{delay frames=\"8\"}}.{{delay frames=\"8\"}}.{{delay frames=\"8\"}}\n{{anim id=\"14\"}}¡Ay, qué mala persona soy!{{anim id=\"0\"}}\n{{anim id=\"9\"}}Jo, espero que no la haya recogido\notro y la haya leído también{{delay frames=\"8\"}}.{{delay frames=\"8\"}}.{{delay frames=\"8\"}}."
  },
  {
    "label": "032",
    "text": "{{anim id=\"37\"}}Hace poco encontré una bota de\ngoma cuando iba de camino a casa\nde {{fun_00040005 arg=\"0x00CD\"}}, {{delay frames=\"15\"}}¿te lo puedes creer?\nMe sabía mal dejarla ahí tirada, así\nque me la llevé. {{delay frames=\"15\"}}{{anim id=\"1\"}}¿A que no adivinas\nqué hizo {{fun_00040005 arg=\"0x00CD\"}} cuando la vio?\n{{anim id=\"5\"}}¡Pues la llenó de agua y puso flores!\n{{delay frames=\"15\"}}¡Como si fuera un jarrón! {{delay frames=\"15\"}}La verdad\nes que me pareció una gran idea."
  },
  {
    "label": "033",
    "text": "{{anim id=\"37\"}}El otro día me encontré un\ncaleidoscopio hecho a mano.{{pageBreak}}{{anim id=\"0\"}}Cuando miré a través de él, vi que\nno tenía cuentas ni cristales dentro,\n{{delay frames=\"15\"}}sino arroz y judías.\n{{anim id=\"11\"}}Es muy raro, {{delay frames=\"10\"}}pero también una\ngenialidad, {{delay frames=\"15\"}}¿no crees? {{anim id=\"37\"}}En un lado\ntenía un nombre: {{delay frames=\"15\"}}\"{{fun_00040005 arg=\"0x00CD\"}}\"."
  },
  {
    "label": "034",
    "text": "{{anim id=\"37\"}}No hace mucho me encontré\nun diario en el suelo, {{delay frames=\"10\"}}supongo que\nse le caería a alguien.\n{{anim id=\"39\"}}Sé que no está bien ser cotilla,\npero lo hojeé un poquito.{{anim id=\"0\"}}{{pageBreak}}Ponía: \"Día uno: {{delay frames=\"10\"}}he jugado mucho.\nDía dos: {{delay frames=\"10\"}}he jugado un montón.\nDía tres: {{delay frames=\"10\"}}¡no veas si he jugado!\".\n{{anim id=\"13\"}}¡Y así todo el rato!{{fun_00010007 arg=\"\"}} ¿Qué sentido\ntiene escribir un diario así?"
  },
  {
    "label": "035",
    "text": "{{anim id=\"37\"}}Hace poquito encontré en el suelo\nuna nota que alguien había escrito.{{anim id=\"0\"}}{{pageBreak}}Ponía: \"Ir a la derecha o no ir a\nla derecha{{delay frames=\"8\"}}.{{delay frames=\"8\"}}.{{delay frames=\"8\"}}.{{delay frames=\"8\"}} Esa es la cuestión\".{{pageBreak}}¿Crees que la pregunta es así\ncomo filosófica?{{fun_00010007 arg=\"\"}} ¡A mí me gusta\npensar que sí!"
  },
  {
    "label": "036",
    "text": ""
  },
  {
    "label": "037",
    "text": ""
  },
  {
    "label": "038",
    "text": "{{fun_00020009 arg=\"0x2700280029002A00\"}}"
  },
  {
    "label": "039",
    "text": "{{anim id=\"1\"}}Estos días me estoy acostando\ncon el pijama al revés {{delay frames=\"15\"}}y con la\nparte de dentro por fuera.\n{{anim id=\"21\"}}Desde que duermo así,{{delay frames=\"20\"}} no he tenido\nni una sola pesadilla."
  },
  {
    "label": "040",
    "text": "{{anim id=\"1\"}}Últimamente parece que duermo\nboca abajo. {{delay frames=\"15\"}}{{anim id=\"21\"}}Da igual cómo me\nacueste, {{delay frames=\"10\"}}siempre me despierto así.\n{{anim id=\"9\"}}Lo malo es que me duele el cuello{{delay frames=\"8\"}}.{{delay frames=\"8\"}}.{{delay frames=\"8\"}}."
  },
  {
    "label": "041",
    "text": "{{anim id=\"1\"}}¿Sabes que he vuelto a tomarle\nel gusto a la caligrafía?{{delay frames=\"20\"}}{{pageBreak}}Pero para hacerlo más difícil,\nescribo en pañuelos de papel.{{pageBreak}}{{anim id=\"5\"}}¡Ni te imaginas lo satisfactorio que\nes acabar de escribir sin que se\nrompa el papel!"
  },
  {
    "label": "042",
    "text": "{{anim id=\"1\"}}Hace tiempo puse unos pétalos de\n{{fun_00210005 arg=\"0x00CD\"}} a secar\nentre las páginas de un libro{{delay frames=\"10\"}}.{{pageBreak}}{{anim id=\"9\"}}Pero el otro día me confundí.\nPensé que eran hojas de té{{delay frames=\"8\"}}.{{delay frames=\"8\"}}.{{delay frames=\"8\"}}.{{delay frames=\"20\"}}\n¡y le preparé uno a {{fun_00040005 arg=\"0x00CD\"}}!{{pageBreak}}{{anim id=\"13\"}}¡Qué disgusto tengo, {{delay frames=\"5\"}}ni te imaginas!{{fun_00010007 arg=\"\"}}\n{{anim id=\"9\"}}{{fun_0007000E arg=\"0x0400C9006C00080045006C006C006100\"}} se lo bebió tan content{{fun_0007000E arg=\"0x02006F0002006100\"}}, pero\npreferiría que no lo supiera{{delay frames=\"8\"}}.{{delay frames=\"8\"}}.{{delay frames=\"8\"}}."
  },
  {
    "label": "043",
    "text": ""
  },
  {
    "label": "044",
    "text": ""
  },
  {
    "label": "045",
    "text": "{{fun_00000009 arg=\"0x2E003300\"}}"
  },
  {
    "label": "046",
    "text": "{{anim id=\"37\"}}¿Sabes? {{delay frames=\"10\"}}Últimamente mi espíritu\nno encontraba satisfacción cuando\ntendía la ropa.\nNormalmente, {{delay frames=\"10\"}}todo lo hago con una\nsonrisa, {{delay frames=\"10\"}}pero esta tarea se me hacía\nincreíblemente pesada.\nAsí que busqué un libro que me\ndiera ideas nuevas. {{delay frames=\"15\"}}Ya he probado\nalgunos truquitos.{{fun_00000008 arg=\"0x2F00000032000000\"}}\n¿Por ejemplo?\nMuy bien..."
  },
  {
    "label": "047",
    "text": "{{fun_00000009 arg=\"0x30003100\"}}"
  },
  {
    "label": "048",
    "text": "{{anim id=\"1\"}}Pues mira, {{delay frames=\"10\"}}una cosa que he estado\nhaciendo ha sido tender mi ropa en\nun espantapájaros.{{pageBreak}}{{anim id=\"36\"}}Pero a veces {{fun_00040005 arg=\"0x00CD\"}} empieza\na hablar con el monigote {{delay frames=\"10\"}}y no se\nda cuenta de que no soy yo."
  },
  {
    "label": "049",
    "text": "{{anim id=\"1\"}}Por ejemplo, {{delay frames=\"10\"}}de vez en cuando\ncuelgo la ropa al final de mi caña\nde pescar, {{delay frames=\"10\"}}¿sabes?\n{{anim id=\"36\"}}¡Parte de la gracia de esto es que\nla ropa huela a mar!"
  },
  {
    "label": "050",
    "text": "{{anim id=\"1\"}}Si se te ocurre alguna idea original\npara hacer que tender la ropa sea\nmás divertido, {{delay frames=\"10\"}}cuéntamela, {{delay frames=\"10\"}}¿vale?"
  },
  {
    "label": "051",
    "text": "{{anim id=\"9\"}}Últimamente, {{delay frames=\"10\"}}me aburría un montón\ncortar las verduras para cocinar{{delay frames=\"8\"}}.{{delay frames=\"8\"}}.{{delay frames=\"8\"}}.{{pageBreak}}{{anim id=\"11\"}}Así que se me ocurrió cambiar\nla manera de hacerlo, para que\nfuera un poco más divertido.\n{{anim id=\"37\"}}¡Y creo que mis ideas no están\nnada mal!{{fun_00000008 arg=\"0x3400000035000000\"}}\n¡Cuenta, cuenta!\nBien por ti..."
  },
  {
    "label": "052",
    "text": "{{anim id=\"37\"}}Me pongo \"{{fun_00150005 arg=\"0x0000\"}}\"\n{{delay frames=\"8\"}}y voy cortando las verduras\nsiguiendo el ritmo.\n{{anim id=\"3\"}}¡Creo que así de paso mejoraré\nmi oído musical!"
  },
  {
    "label": "053",
    "text": "{{anim id=\"1\"}}Si a ti se te ocurre alguna idea,\nsoy toda oídos, {{delay frames=\"10\"}}¿eh?"
  },
  {
    "label": "054",
    "text": ""
  },
  {
    "label": "055",
    "text": ""
  },
  {
    "label": "056",
    "text": "{{fun_00010009 arg=\"0x39003A003B00\"}}"
  },
  {
    "label": "057",
    "text": "{{anim id=\"1\"}}Una pregunta, {{fun_00080005 arg=\"\"}}. ¿Qué tipo\nde libros te gusta leer?{{fun_00010008 arg=\"0x3C0000003F00000040000000\"}}\nNovelas de fantasía\nNovelas de misterio\nDiccionarios"
  },
  {
    "label": "058",
    "text": "{{anim id=\"1\"}}Dime una cosa, {{delay frames=\"10\"}}¿qué tipo de libros\nte gustan, {{delay frames=\"10\"}}{{fun_00080005 arg=\"\"}}?{{fun_00010008 arg=\"0x3E0000003D00000041000000\"}}\nLos de ilustraciones\nLas enciclopedias\nLos de poesía"
  },
  {
    "label": "059",
    "text": "{{anim id=\"1\"}}Tengo curiosidad, {{fun_00080005 arg=\"\"}}.\n¿Qué clase de libros sueles leer\nen tu tiempo libre?{{fun_00010008 arg=\"0x3E0000003F0000003D000000\"}}\nLos de ilustraciones\nNovelas de misterio\nEnciclopedias"
  },
  {
    "label": "060",
    "text": "{{anim id=\"1\"}}¡Oh!{{delay frames=\"20\"}} ¿De verdad?{{delay frames=\"30\"}} {{anim id=\"5\"}}A mí también me\nencanta leer novelas de fantasía.{{pageBreak}}{{anim id=\"1\"}}¿Dónde si no podríamos encontrar\norcos, {{delay frames=\"8\"}}magos {{delay frames=\"8\"}}y unicornios?\n{{anim id=\"4\"}}¡Ay, adoro los unicornios!"
  },
  {
    "label": "061",
    "text": "{{anim id=\"5\"}}¡Oh,{{delay frames=\"10\"}} estás hech{{fun_0006000E arg=\"0x02006F0002006100\"}} un{{fun_0006000E arg=\"0x000002006100\"}} erudit{{fun_0006000E arg=\"0x02006F0002006100\"}}!\nMe gusta tu espíritu curioso.{{pageBreak}}{{anim id=\"1\"}}Hay tanto conocimiento en las\npáginas de una enciclopedia{{delay frames=\"8\"}}.{{delay frames=\"8\"}}.{{delay frames=\"8\"}}.{{pageBreak}}{{anim id=\"21\"}}Seguro que leerla no es nada fácil,\n{{delay frames=\"20\"}}pero estoy convencida de que\nmerece la pena."
  },
  {
    "label": "062",
    "text": "{{anim id=\"21\"}}¡A mí también me encantan!\n{{delay frames=\"20\"}}Como tienen tan poco texto, {{delay frames=\"20\"}}son\nperfectos para aprender a leer.\n{{anim id=\"1\"}}De hecho, {{delay frames=\"15\"}}por eso mismo les tengo\ntanto cariño, {{delay frames=\"15\"}}porque me recuerdan\na mi infancia."
  },
  {
    "label": "063",
    "text": "{{anim id=\"16\"}}¡Oh,{{delay frames=\"10\"}} a mí también me gustan mucho!{{fun_00010007 arg=\"\"}}\n{{anim id=\"9\"}}Pero intento no leer ese tipo de\nnovelas antes de ir a dormir.\n{{anim id=\"5\"}}¡Porque, si empiezo con un misterio,\n{{delay frames=\"20\"}}no puedo descansar hasta saber\ncómo se resuelve!"
  },
  {
    "label": "064",
    "text": "{{anim id=\"1\"}}Vaya, {{delay frames=\"20\"}}¿en serio?{{fun_00010007 arg=\"\"}}{{anim id=\"0\"}} No debe de ser\nnada fácil leer un diccionario,\nseguro que se hace muy pesado.\n{{anim id=\"1\"}}Pero claro, {{delay frames=\"20\"}}seguramente merece\nla pena intentarlo por lo mucho que\npuedes aprender."
  },
  {
    "label": "065",
    "text": "{{anim id=\"21\"}}¡Oh,{{delay frames=\"10\"}} qué maravilla!{{fun_00010007 arg=\"\"}} {{anim id=\"1\"}}Adoro la poesía.\n{{delay frames=\"20\"}}Es la manera más bella de expresar\nsentimientos, {{delay frames=\"10\"}}¿no crees?\n{{anim id=\"0\"}}¡Deberíamos compartir nuestras\ncolecciones favoritas! {{delay frames=\"20\"}}¡Así,{{delay frames=\"5\"}} nuestros\nespíritus estarían aún más unidos!"
  },
  {
    "label": "066",
    "text": ""
  },
  {
    "label": "067",
    "text": ""
  },
  {
    "label": "068",
    "text": "{{fun_00020009 arg=\"0x4500460047004800\"}}"
  },
  {
    "label": "069",
    "text": "{{anim id=\"1\"}}He estado practicando mucho para\nmi examen profesional de creación\nde mermeladas alternativas.\nAunque no me acabe dedicando a\neso exclusivamente, {{delay frames=\"20\"}}está muy bien\ncomo afición."
  },
  {
    "label": "070",
    "text": "{{anim id=\"1\"}}¿Sabes que dentro de poco tengo\nun examen de limpieza de chakras?\n¡He estado estudiando mucho!\n{{anim id=\"38\"}}Si quieres, puedo enseñarte algún\ntruco para que tus chakras estén\nsiempre relucientes."
  },
  {
    "label": "071",
    "text": "{{anim id=\"1\"}}He hecho un curso de panadería\ny me examino dentro de poco.{{pageBreak}}¡Me encanta hornear pan en casa!\n{{delay frames=\"20\"}}El olor a pan recién hecho es una\nverdadera maravilla.{{anim id=\"38\"}}"
  },
  {
    "label": "072",
    "text": "{{anim id=\"1\"}}Llevo bastante tiempo practicando\nmucho para conseguir mi título de\nprofesional en caligrafía.\n{{anim id=\"38\"}}¡Algún día te enseñaré mi firma!\n{{delay frames=\"20\"}}¡Es muy bonita, ya verás!"
  },
  {
    "label": "073",
    "text": ""
  },
  {
    "label": "074",
    "text": ""
  },
  {
    "label": "075",
    "text": ""
  },
  {
    "label": "076",
    "text": "{{fun_00020009 arg=\"0x4D004E004F005200\"}}"
  },
  {
    "label": "077",
    "text": "{{anim id=\"1\"}}Me he leído tantísimos libros, {{delay frames=\"20\"}}que\nse me ocurrió que podía ser\ndivertido escribir alguno.\n{{anim id=\"22\"}}¡Incluso ya tengo una idea sobre\nla que trabajar!{{pageBreak}}{{anim id=\"5\"}}¡Haré una colección de ensayos\ncon las cosas de las que hablamos\ntú y yo! {{delay frames=\"20\"}}¡Será como un diario!"
  },
  {
    "label": "078",
    "text": "{{anim id=\"1\"}}Se me ha ocurrido que sería bonito\nampliar el universo de los libros,\n{{delay frames=\"20\"}}así que creo que escribiré yo alguno.\n{{anim id=\"5\"}}¡Voy a escribir \"{{fun_0003000E arg=\"\"}}{{fun_00080005 arg=\"\"}} y\n{{fun_0001000E arg=\"\"}}{{fun_001A0005 arg=\"0x00CD\"}} invisible\"!\n¡Será toda una aventura!{{anim id=\"0\"}}\nNo te voy a contar de qué va...\n¡Solo te diré que será una historia\ncon muchos giros argumentales!"
  },
  {
    "label": "079",
    "text": "{{anim id=\"1\"}}¿Sabes qué? {{delay frames=\"20\"}}Se me ha ocurrido una\nidea para escribir un libro, {{delay frames=\"10\"}}pero no\nsé si suena interesante o no.\nLa historia se titularía: {{delay frames=\"10\"}}\"{{fun_0003000E arg=\"\"}}{{fun_00050005 arg=\"\"}}\ny el misterio del museo\".\n¿Qué te parece?{{fun_00000008 arg=\"0x5000000051000000\"}}\n¡Interesantísimo!\nBueno..."
  },
  {
    "label": "080",
    "text": "{{anim id=\"1\"}}¿De verdad?{{delay frames=\"20\"}} {{fun_0003000E arg=\"\"}}{{fun_00040005 arg=\"0x00CD\"}} y\n{{fun_0003000E arg=\"\"}}{{fun_00040005 arg=\"0x01CD\"}} saldrían en el libro.{{pageBreak}}La historia giraría alrededor de\nnuestro museo{{delay frames=\"8\"}}.{{delay frames=\"8\"}}.{{delay frames=\"8\"}}. {{delay frames=\"20\"}}¡Desaparecería\ntodo lo que está expuesto!{{anim id=\"0\"}}\n¡Si me queda bien, {{delay frames=\"10\"}}te daré una\ncopia para que lo leas!{{anim id=\"38\"}}"
  },
  {
    "label": "081",
    "text": "Oh{{delay frames=\"8\"}}.{{delay frames=\"8\"}}.{{delay frames=\"8\"}}.{{delay frames=\"8\"}} {{anim id=\"9\"}}Es una pena, {{delay frames=\"20\"}}porque pensaba\nhacer que tú fueras {{fun_0006000E arg=\"0x040065006C0004006C006100\"}} protagonista."
  },
  {
    "label": "082",
    "text": "{{anim id=\"1\"}}Como leo mucho, {{delay frames=\"20\"}}he pensado que\nquizá debería intentar escribir\nun libro yo misma.{{fun_00000008 arg=\"0x5300000054000000\"}}\nNo es mala idea\n¡Claro que sí! ¡Hazlo!"
  },
  {
    "label": "083",
    "text": "{{anim id=\"9\"}}Me gustaría mucho intentarlo, pero\ncreo que no tengo demasiadas ideas\nde momento{{delay frames=\"8\"}}.{{delay frames=\"8\"}}.{{delay frames=\"8\"}}.\n{{anim id=\"22\"}}Supongo que si mi vida fuera más\nentretenida, {{delay frames=\"10\"}}se me ocurrirían más\ncosas,{{delay frames=\"15\"}} {{fun_00070005 arg=\"\"}}."
  },
  {
    "label": "084",
    "text": "{{anim id=\"11\"}}A ver, me gustaría intentarlo, pero\nno sé sobre qué podría escribir{{delay frames=\"8\"}}.{{delay frames=\"8\"}}.{{delay frames=\"8\"}}.{{delay frames=\"10\"}}\n{{anim id=\"22\"}}¡Ah, ya sé!\nPrimero preguntaré a mis amigos\nqué clase de historia querrían leer,\n{{delay frames=\"10\"}}¡y luego empezaré a escribirla!\n{{anim id=\"5\"}}¡Más vale que empiece a preguntar!\n{{delay frames=\"20\"}}¡Ahora esta idea me tiene mucho\nmás entusiasmada y todo!"
  },
  {
    "label": "085",
    "text": ""
  },
  {
    "label": "086",
    "text": ""
  },
  {
    "label": "087",
    "text": "{{fun_00010009 arg=\"0x58005B005E00\"}}"
  },
  {
    "label": "088",
    "text": "{{anim id=\"1\"}}Escucha, {{fun_00080005 arg=\"\"}}, ¿a ti te gusta\nescribir cartas?{{fun_00000008 arg=\"0x590015005A002800\"}}\n¡Ya lo creo!\nNo mucho..."
  },
  {
    "label": "089",
    "text": "{{anim id=\"5\"}}¡Lo suponía!{{delay frames=\"20\"}} ¡A mí también me\ngusta mucho!{{pageBreak}}{{anim id=\"39\"}}Pero, {{delay frames=\"10\"}}por más que me esfuerce,\n{{delay frames=\"10\"}}no sé cómo resumir lo que quiero\nexpresar y acabo no enviándolas{{delay frames=\"8\"}}.{{delay frames=\"8\"}}.{{delay frames=\"8\"}}."
  },
  {
    "label": "090",
    "text": "{{anim id=\"16\"}}¡Claro! A ti te gusta más hablar\ncara a cara, {{delay frames=\"10\"}}¿no es así?{{pageBreak}}{{anim id=\"37\"}}Es comprensible, {{delay frames=\"10\"}}pero a veces\ntambién está bien organizar tus\npensamientos en una carta."
  },
  {
    "label": "091",
    "text": "{{anim id=\"1\"}}Me gusta mucho escribir cartas.\n¿Y a ti, {{fun_00080005 arg=\"\"}}?{{fun_00000008 arg=\"0x5C0015005D002800\"}}\nA mí también\nLa verdad es que no..."
  },
  {
    "label": "092",
    "text": "{{anim id=\"21\"}}Me lo imaginaba.{{delay frames=\"20\"}} {{anim id=\"1\"}}De hecho, solo\nquería confirmar lo que tu aura\nme estaba transmitiendo.\n{{anim id=\"0\"}}Sé que a veces puede ser difícil\nexpresar los sentimientos.\n{{delay frames=\"20\"}}{{anim id=\"1\"}}Las cartas facilitan esa tarea, ¿no?"
  },
  {
    "label": "093",
    "text": "{{anim id=\"0\"}}Vaya{{delay frames=\"8\"}}.{{delay frames=\"8\"}}.{{delay frames=\"8\"}}.{{fun_00010007 arg=\"\"}} {{anim id=\"1\"}}A mí me gusta enviar cartas\ncon regalos cuando estoy ocupada\n{{delay frames=\"10\"}}y no puedo visitar a alguien."
  },
  {
    "label": "094",
    "text": "{{anim id=\"1\"}}¿A ti te gusta recibir cartas,\n{{fun_00080005 arg=\"\"}}?{{fun_00000008 arg=\"0x5F00150060002800\"}}\n¡Ya te digo!\nPues no..."
  },
  {
    "label": "095",
    "text": "{{anim id=\"5\"}}¡A mí también me gusta muchísimo!{{pageBreak}}{{anim id=\"1\"}}Es genial saber que hay alguien\nque piensa en ti y que se molesta\nen escribirte, {{delay frames=\"10\"}}¿no crees?"
  },
  {
    "label": "096",
    "text": "{{anim id=\"37\"}}Vaya, qué curioso{{delay frames=\"8\"}}.{{delay frames=\"8\"}}.{{delay frames=\"8\"}}.{{delay frames=\"8\"}} La verdad es\nque no me esperaba esa respuesta.{{pageBreak}}{{anim id=\"0\"}}Bueno, {{delay frames=\"10\"}}lo tendré en cuenta.\n{{delay frames=\"10\"}}{{anim id=\"1\"}}¡Intentaré escribirte solo sobre\ncosas que te interesen mucho!"
  },
  {
    "label": "097",
    "text": ""
  },
  {
    "label": "098",
    "text": "{{anim id=\"1\"}}Cuando llega esta época del año,\n{{delay frames=\"10\"}}los recuerdos inundan mi espíritu{{delay frames=\"8\"}}.{{delay frames=\"8\"}}.{{delay frames=\"8\"}}."
  },
  {
    "label": "099",
    "text": "{{i10_16 arg=\"100\"}}"
  },
  {
    "label": "100",
    "text": "{{fun_00000009 arg=\"0x65006600\"}}"
  },
  {
    "label": "101",
    "text": "{{anim id=\"1\"}}Mi madre solía prepararme una sopa\nhecha con verduras de primavera.{{pageBreak}}{{anim id=\"5\"}}Las recogía del huerto que teníamos\ndetrás de casa {{delay frames=\"15\"}}y las dejaba hervir\na fuego lento varias horas.{{anim id=\"0\"}}\nMe gustaría volver a probar {{anim id=\"4\"}}esa\nsopa que guardo en mis recuerdos."
  },
  {
    "label": "102",
    "text": "{{anim id=\"1\"}}¡Ay, qué mermelada de fresa sabía\npreparar mi madre! {{fun_00010007 arg=\"\"}}{{anim id=\"5\"}}Y además la\nuntaba en pan recién horneado{{delay frames=\"8\"}}.{{delay frames=\"8\"}}.{{delay frames=\"8\"}}.\n{{anim id=\"4\"}}Oh, solo de pensar en eso me\nentran ganas de comer."
  },
  {
    "label": "103",
    "text": "{{fun_00000009 arg=\"0x68006900\"}}"
  },
  {
    "label": "104",
    "text": "{{anim id=\"1\"}}Mi padre solía traer melón a casa\nde vez en cuando.{{pageBreak}}{{anim id=\"5\"}}¡Lo poníamos en la nevera para que\nse enfriara un poco {{delay frames=\"15\"}}y luego lo\npartíamos con un cuchillo!\n{{anim id=\"43\"}}Aaah{{delay frames=\"8\"}}.{{delay frames=\"8\"}}.{{delay frames=\"8\"}}.{{delay frames=\"8\"}} Ese sabor era la verdadera\nesencia del verano para mí.\n{{delay frames=\"20\"}}{{anim id=\"1\"}}¡No creo que lo olvide nunca!"
  },
  {
    "label": "105",
    "text": "{{anim id=\"1\"}}Mi madre solía preparar ensaladas\ncon tomates frescos de nuestro\nhuertecito.\n{{anim id=\"5\"}}¡Sabía preparar un aliño increíble!\n{{anim id=\"1\"}}A mí no me sale tan bueno, {{delay frames=\"10\"}}aunque\nlo hago tal y como me enseñó."
  },
  {
    "label": "106",
    "text": "{{fun_00000009 arg=\"0x6B006C00\"}}"
  },
  {
    "label": "107",
    "text": "{{anim id=\"1\"}}Cuando era pequeña, {{delay frames=\"5\"}}mis padres\nme llevaban al bosque de vez en\ncuando para recoger castañas.\n{{anim id=\"5\"}}¡Me divertía mucho partirlas y\nver cómo se hacían en el fuego!"
  },
  {
    "label": "108",
    "text": "{{anim id=\"1\"}}Parece que fue ayer cuando comí\nlas patatas asadas que preparaba\nmi padre con su receta secreta.\n{{anim id=\"5\"}}Sé que llevaban mayonesa, un poco\nde ajo, sal... {{delay frames=\"10\"}}¡pero jamás he sido\ncapaz de prepararlas como él!"
  },
  {
    "label": "109",
    "text": "{{fun_00000009 arg=\"0x6E006F00\"}}"
  },
  {
    "label": "110",
    "text": "{{anim id=\"1\"}}No paro de pensar en los potajes\nque hacía mi madre.{{fun_00010007 arg=\"\"}} {{anim id=\"43\"}}El olorcito que\nimpregnaba la casa era increíble{{delay frames=\"8\"}}.{{delay frames=\"8\"}}.{{delay frames=\"8\"}}."
  },
  {
    "label": "111",
    "text": "{{anim id=\"1\"}}Los domingos por la mañana,\nmi madre me preparaba chocolate\na la taza con churros.\n{{anim id=\"5\"}}¡Me despertaba con más energía\nsolo de pensar en el desayuno que\nme esperaba!"
  },
  {
    "label": "112",
    "text": ""
  },
  {
    "label": "113",
    "text": ""
  },
  {
    "label": "114",
    "text": "{{fun_00010009 arg=\"0x730074007500\"}}"
  },
  {
    "label": "115",
    "text": "{{anim id=\"1\"}}Me he preparado un bocadillo para\ncomer, {{anim id=\"0\"}}pero no estaba tan bueno\ncomo los que hacía mi madre.\n{{anim id=\"1\"}}Estoy convencida de que mi madre\nles ponía algún ingrediente secreto\npara que supieran mejor."
  },
  {
    "label": "116",
    "text": "El otro día, me guardé la comida\nen una fiambrera para irme de\npícnic, {{delay frames=\"10\"}}{{anim id=\"9\"}}¡y me dejé las servilletas!\n{{anim id=\"0\"}}{{anim id=\"2\"}}Pero soy una mujer de recursos\ny usé hojas de árbol. Sentí una\ngran conexión con la naturaleza{{delay frames=\"8\"}}.{{delay frames=\"8\"}}.{{delay frames=\"8\"}}.{{anim id=\"37\"}}"
  },
  {
    "label": "117",
    "text": "{{anim id=\"1\"}}¿Te gusta hornear, {{fun_00080005 arg=\"\"}}?{{fun_00000008 arg=\"0x7600150077002800\"}}\n¡Muchísimo!\nNo mucho..."
  },
  {
    "label": "118",
    "text": "{{anim id=\"5\"}}¡Estaba convencida de que me\ndirías que sí! {{delay frames=\"10\"}}{{anim id=\"1\"}}Así podremos\nintercambiar consejos de cocina.\nYo siempre unto bien de mantequilla\nla bandeja del horno{{delay frames=\"8\"}}.{{delay frames=\"8\"}}.{{delay frames=\"8\"}}. {{delay frames=\"20\"}}{{anim id=\"32\"}}¡Por eso los\npasteles no se me pegan!"
  },
  {
    "label": "119",
    "text": "{{anim id=\"36\"}}Oh, qué lástima.{{delay frames=\"20\"}} {{anim id=\"1\"}}Estaba pensando\nen darte algunos consejillos, pero\nbueno, {{delay frames=\"10\"}}no pasa nada, {{delay frames=\"8\"}}{{fun_00070005 arg=\"\"}}."
  },
  {
    "label": "120",
    "text": ""
  },
  {
    "label": "121",
    "text": ""
  },
  {
    "label": "122",
    "text": "{{fun_00010009 arg=\"0x7B007C007D00\"}}"
  },
  {
    "label": "123",
    "text": "{{anim id=\"1\"}}¿No crees que es mucho mejor\ntender la ropa al aire libre y no\ndejarla secar dentro de casa?\n{{anim id=\"5\"}}¡Así huele muchísimo mejor! A sol,\na aire, a naturaleza{{delay frames=\"8\"}}.{{delay frames=\"8\"}}.{{delay frames=\"8\"}}.{{delay frames=\"8\"}} Aaah, {{delay frames=\"15\"}}estas\npequeñas cosas liberan mi espíritu."
  },
  {
    "label": "124",
    "text": "{{anim id=\"1\"}}¿Sabes que hay que sacudir la ropa\nantes de tenderla? {{delay frames=\"10\"}}Así se queda\nun poco más lisita.\n{{anim id=\"5\"}}¡Ay, pocas cosas me gustan tanto\ncomo el olor de la ropa limpia!\n{{delay frames=\"15\"}}Me hace sentir muy zen."
  },
  {
    "label": "125",
    "text": "¿Sabes qué me pasó el otro día?\nPuse mi ropa a lavar, pero le eché\ndemasiado detergente.\n{{anim id=\"13\"}}¡No paraban de salir burbujas de\nla lavadora! {{delay frames=\"10\"}}¡Me puse un poquito\nnerviosa y todo!\n{{anim id=\"37\"}}Pero respiré hondo {{delay frames=\"10\"}}y me imaginé\nque estaba flotando entre nubes.{{delay frames=\"20\"}}\n¡Al final fue hasta relajante!"
  },
  {
    "label": "126",
    "text": ""
  },
  {
    "label": "127",
    "text": ""
  },
  {
    "label": "128",
    "text": "{{anim id=\"23\"}}¿Has hecho alguna vez un muñeco\nde nieve, {{fun_00080005 arg=\"\"}}?{{pageBreak}}{{anim id=\"1\"}}Haz rodar dos bolas de nieve\nhasta que agarren un buen tamaño.\n{{delay frames=\"15\"}}Así, harás la cabeza y el cuerpo.\nLuego pones la pequeña encima de\nla grande y{{delay frames=\"8\"}}.{{delay frames=\"8\"}}.{{delay frames=\"8\"}}.{{delay frames=\"8\"}} ¡listo! {{delay frames=\"15\"}}¡Ya tienes tu\nmuñeco de nieve!\n{{anim id=\"0\"}}Es bastante difícil hacer un muñeco\nperfectamente equilibrado, {{delay frames=\"10\"}}{{anim id=\"21\"}}¡pero\nsé que a ti te saldría genial!"
  },
  {
    "label": "129",
    "text": "{{anim id=\"23\"}}Escucha, {{fun_00080005 arg=\"\"}}, ¿has intentado\nhacer algún muñeco de nieve?{{pageBreak}}{{anim id=\"1\"}}Si ruedas un par de bolas de nieve,\n{{delay frames=\"15\"}}una más grande y otra más pequeña,\n{{delay frames=\"15\"}}ya tendrás la cabeza y el cuerpo.\nLuego, {{delay frames=\"10\"}}solo tienes que poner\nla pequeña encima de la grande\ny ya está.\n{{anim id=\"0\"}}Una vez me dijeron que los muñecos\nde nieve tienen una personalidad\ndistinta según su tamaño.\n{{anim id=\"1\"}}Menuda locura, {{delay frames=\"10\"}}¿no te parece?"
  },
  {
    "label": "130",
    "text": ""
  },
  {
    "label": "131",
    "text": ""
  },
  {
    "label": "132",
    "text": ""
  },
  {
    "label": "133",
    "text": ""
  },
  {
    "label": "134",
    "text": ""
  },
  {
    "label": "135",
    "text": ""
  },
  {
    "label": "136",
    "text": ""
  }
]