﻿[
  {
    "label": "001",
    "text": "{{anim id=\"5\"}}¡Felicidades, {{delay frames=\"10\"}}{{fun_00080005 arg=\"\"}}!{{delay frames=\"20\"}}\n¡Has estado genial!{{pageBreak}}{{anim id=\"1\"}}Te lo has ganado. {{delay frames=\"20\"}}Aquí tienes\ntu merecida recompensa{{delay frames=\"8\"}}.{{delay frames=\"8\"}}.{{delay frames=\"8\"}}.{{delay frames=\"20\"}}\n¡{{fun_0003000E arg=\"\"}}{{fun_0002000E arg=\"\"}}{{fun_00030011 arg=\"0x0000\"}}!"
  },
  {
    "label": "002",
    "text": "{{anim id=\"1\"}}¡Sabía que tenías un gran talento!{{fun_00010007 arg=\"\"}}\n{{anim id=\"5\"}}Pese a haber perdido,{{delay frames=\"10\"}} tu victoria\nme ha inspirado.\n{{anim id=\"16\"}}¡Y aquí está{{delay frames=\"10\"}} el premio para\n{{fun_0006000E arg=\"0x040065006C0004006C006100\"}} ganado{{fun_0006000E arg=\"0x02007200040072006100\"}}! {{delay frames=\"20\"}}{{anim id=\"37\"}}Ten,{{delay frames=\"10\"}} acepta est{{fun_0008000E arg=\"0x00CD02006500020061000000\"}}\n{{fun_00030011 arg=\"0x0000\"}}."
  },
  {
    "label": "003",
    "text": "{{anim id=\"37\"}}Así que {{fun_0006000E arg=\"0x140065006C002000670061006E00610064006F00720016006C0061002000670061006E00610064006F0072006100\"}} esta vez es{{delay frames=\"8\"}}.{{delay frames=\"8\"}}.{{delay frames=\"8\"}}.{{delay frames=\"20\"}}\n¡{{anim id=\"29\"}}{{fun_00080005 arg=\"\"}}!{{delay frames=\"20\"}} Eres {{fun_0006000E arg=\"0x1A0075006E002000720061007300740072006500610064006F0072001E0075006E0061002000720061007300740072006500610064006F0072006100\"}}\nnat{{fun_0006000E arg=\"0x02006F0002006100\"}},{{delay frames=\"10\"}} {{fun_00070005 arg=\"\"}}.{{anim id=\"37\"}}{{pageBreak}}¡Ya nos dirás cómo has sido capaz\nde dar con nosotros sin despeinarte!{{anim id=\"38\"}}{{pageBreak}}{{anim id=\"5\"}}¡Te vamos a agradecer con {{fun_0002000E arg=\"\"}}\n{{fun_00030011 arg=\"0x0000\"}} que hayas\npasado este ratito con nosotros!{{delay frames=\"10\"}}"
  }
]