﻿[
  {
    "label": "001",
    "text": "{{anim id=\"1\"}}¡Vuelve cuando quieras, {{delay frames=\"10\"}}cariño!\n{{delay frames=\"20\"}}Esto hay que repetirlo, sin duda."
  },
  {
    "label": "002",
    "text": "{{anim id=\"1\"}}¡Me lo he pasado muy bien contigo!"
  },
  {
    "label": "003",
    "text": "{{anim id=\"1\"}}Me alegro mucho de que hayas\nvenido, {{delay frames=\"10\"}}{{fun_00080005 arg=\"\"}}."
  },
  {
    "label": "004",
    "text": "{{anim id=\"39\"}}¿Eh? {{delay frames=\"20\"}}¿Adónde vas? {{delay frames=\"20\"}}¡Con las ganas\nque tenía de hablar contigo!"
  },
  {
    "label": "005",
    "text": "{{anim id=\"16\"}}¡¿Cómo?!{{delay frames=\"20\"}} {{anim id=\"37\"}}¿Ya te quieres ir,\n{{fun_00080005 arg=\"\"}}?{{delay frames=\"20\"}} {{anim id=\"1\"}}¡Anda, quédate\nun ratito más!"
  },
  {
    "label": "006",
    "text": "{{anim id=\"13\"}}¡Espera, {{delay frames=\"10\"}}por favor!{{fun_00010007 arg=\"\"}} {{anim id=\"37\"}}Ya que has\nvenido, quédate un poquito más."
  }
]