﻿[
  {
    "label": "001",
    "text": "{{anim id=\"1\"}}Voy a contarte una cosa con gestos\ny alguna que otra palabra.{{delay frames=\"20\"}} ¡Estate\nmuy atent{{fun_0006000E arg=\"0x02006F0002006100\"}}!"
  },
  {
    "label": "002",
    "text": ""
  },
  {
    "label": "003",
    "text": ""
  },
  {
    "label": "004",
    "text": "{{anim id=\"40\"}}Vaya.{{delay frames=\"20\"}} Igual no me he explicado muy\nbien{{delay frames=\"8\"}}.{{delay frames=\"8\"}}.{{delay frames=\"8\"}}.{{fun_00010007 arg=\"\"}} {{anim id=\"37\"}}La respuesta correcta era:\n\"{{fun_00130012 arg=\"0x00CD\"}}\"."
  },
  {
    "label": "005",
    "text": "{{anim id=\"36\"}}No era eso,{{delay frames=\"10\"}} bichín.{{delay frames=\"20\"}} Parece que esto\nno se me da bien{{delay frames=\"8\"}}.{{delay frames=\"8\"}}.{{delay frames=\"8\"}}.{{fun_00010007 arg=\"\"}}{{anim id=\"37\"}} La respuesta\ncorrecta era \"{{fun_00130012 arg=\"0x00CD\"}}\"."
  },
  {
    "label": "006",
    "text": "{{anim id=\"38\"}}¡Muy bien!{{delay frames=\"20\"}} ¡Sí, eso es!{{delay frames=\"20\"}}\n{{anim id=\"37\"}}¡Qué ilusión! {{delay frames=\"20\"}}Parece mentira que\nme conozcas así de bien, {{delay frames=\"10\"}}pequeñ{{fun_0006000E arg=\"0x02006F0002006100\"}}."
  },
  {
    "label": "007",
    "text": "{{anim id=\"29\"}}¡Enhorabuena!{{delay frames=\"20\"}}{{anim id=\"37\"}} Debes de tener un\ntalento natural para este juego."
  }
]