﻿[
  {
    "label": "001",
    "text": "{{anim id=\"16\"}}¡Anda, si eres tú, {{fun_00080005 arg=\"\"}}!{{delay frames=\"20\"}}\n{{anim id=\"1\"}}¡Sabía que algún día te volvería\na ver!{{delay frames=\"10\"}} ¿Cómo va todo?"
  },
  {
    "label": "002",
    "text": "{{anim id=\"15\"}}¡Pero qué fuerte! ¡{{fun_0003000E arg=\"\"}}{{fun_00080005 arg=\"\"}}!{{delay frames=\"20\"}}\n{{anim id=\"5\"}}¡No me puedo creer que estés aquí!{{delay frames=\"5\"}}\n¡Cuánto tiempo, {{fun_00070005 arg=\"\"}}!"
  },
  {
    "label": "003",
    "text": "{{anim id=\"16\"}}¡Guau! {{delay frames=\"5\"}}¡Mi deseo se ha cumplido!{{delay frames=\"20\"}}\n{{anim id=\"1\"}}¡Tenía tantas ganas de verte!{{delay frames=\"10\"}}\nTe echaba de menos, {{fun_00080005 arg=\"\"}}."
  },
  {
    "label": "004",
    "text": "{{anim id=\"15\"}}¡No puede ser! {{delay frames=\"30\"}}{{anim id=\"1\"}}Justo estaba\npensando en ti... {{delay frames=\"20\"}}¡Y aquí estás,{{delay frames=\"20\"}}\nideal chipilerendi, {{fun_00070005 arg=\"\"}}!"
  },
  {
    "label": "005",
    "text": "{{anim id=\"15\"}}¡¿Eh?! ¿Eres tú, {{fun_00080005 arg=\"\"}}?{{delay frames=\"30\"}}\n{{anim id=\"5\"}}¡Qué alegría! ¡Esto es lo más,\ncomo un sueño, {{fun_00070005 arg=\"\"}}!"
  }
]