﻿[
  {
    "label": "001",
    "text": "{{anim id=\"13\"}}¡Nooo! ¡Aparta!{{fun_00010007 arg=\"\"}} {{anim id=\"27\"}}Jo...{{delay frames=\"10\"}} Estaba a punto\nde cazar un bicho superchachi.{{fun_0004000B arg=\"0x01CD\"}}"
  },
  {
    "label": "002",
    "text": "{{anim id=\"13\"}}¡AAAAH!{{fun_00010007 arg=\"\"}} {{anim id=\"9\"}}¡No me molestes\ncuando estoy en modo cazadora!{{fun_0004000B arg=\"0x01CD\"}}"
  },
  {
    "label": "003",
    "text": "{{anim id=\"6\"}}¡Vete! ¡Largo!{{delay frames=\"10\"}} Debo concentrarme\nsi quiero atrapar algún bicho.{{fun_0004000B arg=\"0x01CD\"}}"
  }
]