﻿[
  {
    "label": "001",
    "text": "{{anim id=\"22\"}}¡Esta casa es muy tuya, {{fun_00080005 arg=\"\"}}!{{fun_00010007 arg=\"\"}}\n{{anim id=\"1\"}}¡Me encanta tu estilo! {{anim id=\"35\"}}Creo que\nvoy a copiarte algunas cosillas..."
  },
  {
    "label": "002",
    "text": "{{anim id=\"5\"}}¡Sabía que tu casa sería ideal\nchipilerendi! {{delay frames=\"10\"}}¡Casi es tan chuli\ncomo la mía, {{fun_00070005 arg=\"\"}}!"
  },
  {
    "label": "003",
    "text": "{{anim id=\"21\"}}¡Tu casa es justo como\nme la imaginaba, {{fun_00080005 arg=\"\"}}!{{delay frames=\"20\"}}\n{{anim id=\"1\"}}¡Superchula, como tú!"
  }
]