﻿[
  {
    "label": "001",
    "text": "{{anim id=\"17\"}}¡Qué fuerte!{{fun_00010007 arg=\"\"}} {{anim id=\"13\"}}¿Qué le ha pasado a\ntu cara tan cuqui, {{delay frames=\"15\"}}{{fun_00080005 arg=\"\"}}?\n{{anim id=\"21\"}}Tiene muy mala pinta...\nDeberías tomar medicina si no\nquieres que empeore. {{delay frames=\"10\"}}{{anim id=\"37\"}}¡Bueno,\nque te recuperes, {{delay frames=\"20\"}}{{fun_00070005 arg=\"\"}}!"
  },
  {
    "label": "002",
    "text": "{{anim id=\"17\"}}¡Hala!{{delay frames=\"10\"}} ¿Te han picado las abejas?\n{{delay frames=\"15\"}}{{anim id=\"9\"}}¡Aaaay, parece superdoloroso,\npobrecit{{fun_0006000E arg=\"0x02006F0002006100\"}}!\n{{anim id=\"37\"}}Oye,{{delay frames=\"10\"}} si vuelves a tirar otro panal,\n{{delay frames=\"15\"}}{{anim id=\"27\"}}¡sal por patas y escóndete en el\nprimer edificio que veas!"
  },
  {
    "label": "003",
    "text": "{{anim id=\"18\"}}¡{{fun_0003000E arg=\"\"}}{{fun_00080005 arg=\"\"}}! Mmm{{delay frames=\"8\"}}.{{delay frames=\"8\"}}.{{delay frames=\"8\"}}.{{delay frames=\"8\"}} ¿Eres tú?\n¡Casi ni te reconozco! ¡Tienes la\ncara superhinchada!{{fun_001B000A arg=\"0x010004000500\"}}"
  },
  {
    "label": "004",
    "text": "{{fun_00010009 arg=\"0x050005000600\"}}"
  },
  {
    "label": "005",
    "text": "{{fun_0000000A arg=\"0x0307000800CD\"}}"
  },
  {
    "label": "006",
    "text": "{{anim id=\"16\"}}¡Tienes suerte de que pasara por\naquí!{{delay frames=\"20\"}} Por casualidad, llevo un poco\nde medicina en los bolsillos.\n{{anim id=\"21\"}}Tú la necesitas mucho más que yo. {{delay frames=\"15\"}}{{anim id=\"3\"}}\n¡Ya verás como se te baja la\nhinchazón!"
  },
  {
    "label": "007",
    "text": "{{anim id=\"13\"}}¡Qué fatal, me duele solo de verte,\n{{fun_00080005 arg=\"\"}}! {{delay frames=\"30\"}}Toma medicina en\ncuanto puedas,{{delay frames=\"10\"}} ¿vale?"
  },
  {
    "label": "008",
    "text": "{{anim id=\"9\"}}Yo que tú tomaría medicina\nenseguida. {{anim id=\"40\"}}¡Las caras hinchadas\nno se llevan ahora,{{delay frames=\"10\"}} {{fun_00070005 arg=\"\"}}!"
  }
]