﻿[
  {
    "label": "001",
    "text": "{{anim id=\"29\"}}¿Preparad{{fun_0006000E arg=\"0x02006F0002006100\"}}? ¡Más te vale!{{delay frames=\"8\"}} Porque\nsolo habrá {{color id=\"2\"}}una ronda{{color id=\"65535\"}}. {{anim id=\"1\"}}A no ser\nque empatemos, claro."
  },
  {
    "label": "002",
    "text": "{{anim id=\"1\"}}{{fun_0006000E arg=\"0x140045006C0020007000720069006D00650072006F0014004C00610020007000720069006D00650072006100\"}} que gane {{color id=\"2\"}}{{fun_00060004 arg=\"0x0000\"}} rondas{{color id=\"65535\"}}\nserá {{fun_0006000E arg=\"0x140065006C002000630061006D0070006500F3006E0016006C0061002000630061006D00700065006F006E006100\"}} definitiv{{fun_0006000E arg=\"0x02006F0002006100\"}}.{{delay frames=\"20\"}}\n{{anim id=\"35\"}}¡Prepárate!{{delay frames=\"8\"}}"
  },
  {
    "label": "003",
    "text": "A la de tres.{{delay frames=\"20\"}}\nUna{{delay frames=\"8\"}}.{{delay frames=\"8\"}}.{{delay frames=\"8\"}}. dos{{delay frames=\"8\"}}.{{delay frames=\"8\"}}.{{delay frames=\"8\"}}. ¡y tres!{{delay frames=\"20\"}}{{fun_0001000F arg=\"0x000000000000\"}}\nPiedra\nTijera\nPapel"
  },
  {
    "label": "004",
    "text": "{{fun_000B0007 arg=\"\"}}¡PIEDRA!"
  },
  {
    "label": "005",
    "text": "{{fun_000B0007 arg=\"\"}}¡TIJERA!"
  },
  {
    "label": "006",
    "text": "{{fun_000B0007 arg=\"\"}}¡PAPEL!"
  },
  {
    "label": "007",
    "text": "{{anim id=\"41\"}}¡Ay, nooo! ¡Estaba superconvencida\nde que ganaría yo!"
  },
  {
    "label": "008",
    "text": "{{anim id=\"13\"}}¡Qué fuerte! ¡Empate!{{fun_00010007 arg=\"\"}}\n{{anim id=\"27\"}}Habrá que jugar otra vez."
  },
  {
    "label": "009",
    "text": "{{anim id=\"3\"}}¡Síii! ¡Viva {{fun_00010005 arg=\"\"}}!{{delay frames=\"20\"}}\nO sea, ¡viva yo!"
  },
  {
    "label": "010",
    "text": ""
  },
  {
    "label": "011",
    "text": "{{anim id=\"9\"}}Perder no mola nada.{{delay frames=\"20\"}}\nQué rollo, {{fun_00070005 arg=\"\"}}."
  },
  {
    "label": "012",
    "text": "{{anim id=\"2\"}}¡Soy la mejor, {{fun_00070005 arg=\"\"}}!"
  }
]