﻿[
  {
    "label": "001",
    "text": ""
  },
  {
    "label": "002",
    "text": "{{fun_001F000A arg=\"0x000B000B000800070008000700080007000800070008000D00CD\"}}"
  },
  {
    "label": "003",
    "text": "{{fun_001F000A arg=\"0x000C000C000A0009000A0009000A0009000A0009000A000E00CD\"}}"
  },
  {
    "label": "004",
    "text": ""
  },
  {
    "label": "005",
    "text": ""
  },
  {
    "label": "006",
    "text": ""
  },
  {
    "label": "007",
    "text": "{{anim id=\"10\"}}A veces desearía ser un pez.{{delay frames=\"5\"}}.{{delay frames=\"5\"}}.{{delay frames=\"20\"}} pero\nluego recuerdo que no podría llevar\nvestidos.{{delay frames=\"20\"}}{{anim id=\"17\"}} ¡Qué terrible, {{fun_00080005 arg=\"\"}}!"
  },
  {
    "label": "008",
    "text": "{{anim id=\"1\"}}Míralos, nadando sin parar.\n¿Cómo lo harán para no chocar\nentre ellos, {{fun_00070005 arg=\"\"}}?"
  },
  {
    "label": "009",
    "text": "{{anim id=\"37\"}}Este sitio es tan silencioso.{{delay frames=\"5\"}}.{{delay frames=\"5\"}}.{{delay frames=\"5\"}}\n{{anim id=\"28\"}}¡Es perfecto para contar secretos\nsin que nadie te oiga!"
  },
  {
    "label": "010",
    "text": "¡Este sitio es de lo más fresco! {{delay frames=\"10\"}}{{anim id=\"34\"}}\nVoy a venir aquí cuando tenga\nfiebre."
  },
  {
    "label": "011",
    "text": "Quizá debería empezar a pescar\npara llenar un poco el museo.{{pageBreak}}{{anim id=\"13\"}}Pero me da pavor mojarme\nla ropa, ¿entiendes?"
  },
  {
    "label": "012",
    "text": "{{anim id=\"37\"}}¿Tenéis más peces en vuestro\nmuseo? {{delay frames=\"10\"}}{{anim id=\"27\"}}Debe de ser superchuli\nver el acuario lleno."
  },
  {
    "label": "013",
    "text": "{{anim id=\"3\"}}¡Nuestro acuario es lo más,\n{{fun_00070005 arg=\"\"}}! {{delay frames=\"10\"}}Todo el mundo\ndebería venir a verlo."
  },
  {
    "label": "014",
    "text": "{{anim id=\"5\"}}¿No es ideal nuestro acuario?{{delay frames=\"10\"}}\n¡Es como tener el mar entero\ndentro de una habitación!"
  }
]