﻿[
  {
    "label": "001",
    "text": "{{anim id=\"6\"}}¡{{fun_0003000E arg=\"\"}}{{fun_00080005 arg=\"\"}}! ¡Estoy planteándome\nampliar mi entrenamiento para\nel Día de los Juguetes!\n{{anim id=\"23\"}}¿Eh? ¿Que qué es lo que quiero\nentrenar concretamente?{{fun_00010007 arg=\"\"}}{{anim id=\"31\"}}{{delay frames=\"15\"}}\n{{fun_000B0007 arg=\"\"}}¡Todo el cuerpo, claro!{{delay frames=\"40\"}}{{anim id=\"37\"}}"
  },
  {
    "label": "002",
    "text": "{{anim id=\"6\"}}¡Que este mes se celebre el Día\nde los Juguetes no le da derecho\na nadie a tocarse las narices!\n{{anim id=\"27\"}}¡Todo el mundo se está poniendo\nmorado de turrones y dulces\nde esos en vez de hacer ejercicio!"
  },
  {
    "label": "003",
    "text": "{{anim id=\"13\"}}¡El Día de los Juguetes te\nlava el cerebro! ¡Nadie puede\npensar en otra cosa!\n{{anim id=\"5\"}}{{fun_000B0007 arg=\"\"}}¡Ay, no!{{delay frames=\"20\"}}{{fun_000B0007 arg=\"\"}} A mí también me ha\nafectado. ¡Ya no puedo dejar de\npensar en ello!"
  },
  {
    "label": "004",
    "text": "{{anim id=\"23\"}}{{color id=\"4\"}}Renato{{color id=\"65535\"}} se dejará ver el Día\nde los Juguetes, ¿no?{{delay frames=\"40\"}}{{anim id=\"6\"}} ¡Porque tengo\nalgunas cosas que preguntarle!\n{{anim id=\"13\"}}A ver, tiene que ser muy fuerte\npara cargar por ahí con todos esos\nregalos para todos...\n¡Por eso quiero preguntarle\nqué tabla de ejercicios hace!\n¡O si acumula carbohidratos!"
  },
  {
    "label": "005",
    "text": "{{anim id=\"1\"}}¡El Día de los Juguetes ya casi\nha llegado! ¡Qué emoción!"
  },
  {
    "label": "006",
    "text": "{{anim id=\"1\"}}¡{{fun_0003000E arg=\"\"}}{{fun_00080005 arg=\"\"}}! ¿Sabes lo que quieres\npara el Día de los Juguetes?{{pageBreak}}{{anim id=\"5\"}}¡Porque yo sí que lo tengo\nclarísimo, {{delay frames=\"8\"}}{{fun_00070005 arg=\"\"}}!"
  },
  {
    "label": "007",
    "text": "{{anim id=\"23\"}}¿Quieres saber si queda mucho\npara el Día de los Juguetes?{{pageBreak}}{{anim id=\"13\"}}¡Pues queda mucho más de lo\nque me gustaría!"
  },
  {
    "label": "008",
    "text": "{{anim id=\"6\"}}¡Oye, {{fun_00080005 arg=\"\"}}! Si sabes algo\nde {{color id=\"4\"}}Renato{{color id=\"65535\"}}, tú enróllate y\ncuéntamelo, ¿eh?{{pageBreak}}Va llevando regalos por todas\npartes con un trineo, subiéndose a\nchimeneas{{delay frames=\"8\"}}.{{delay frames=\"8\"}}.{{delay frames=\"8\"}}.{{delay frames=\"20\"}} ¡No para, el campeón!\n¡Debe de tener unos músculos de\nagárrate y no te menees! {{anim id=\"13\"}}¡Todo lo\nque oigo de este tío me fascina!"
  },
  {
    "label": "009",
    "text": "{{anim id=\"5\"}}¡Este es mi baile del\nDía de los Juguetes!"
  },
  {
    "label": "010",
    "text": "{{anim id=\"23\"}}¿Qué tienes pensado hacer\nel Día de los Juguetes, {{fun_00080005 arg=\"\"}}?{{pageBreak}}{{anim id=\"33\"}}¡Yo pienso quedarme despierto\nhasta que venga {{color id=\"4\"}}Renato{{color id=\"65535\"}}!\n¡Hablo en serio, {{fun_00070005 arg=\"\"}}!"
  },
  {
    "label": "011",
    "text": "¡Qué nervios! ¡No puedo creer\nque el Día de los Juguetes esté\na la vuelta de la esquina!"
  },
  {
    "label": "012",
    "text": "¡Ojito, que ya casi se nos echa\nencima el Día de los Juguetes!\n¡Aaaaaayyyyyy!\n{{anim id=\"6\"}}¡{{fun_0003000E arg=\"\"}}{{fun_00080005 arg=\"\"}}, tienes que estar\npreparad{{fun_0006000E arg=\"0x02006F0002006100\"}}! Conserva tu energía,\n¡que esto va a ser la locura!\n{{anim id=\"5\"}}¡Regalitos, regalotes, regalines,\nregalazos, regalucos, regaloides!\n¡Regaaaaaalooooooooos!"
  },
  {
    "label": "013",
    "text": ""
  },
  {
    "label": "014",
    "text": ""
  },
  {
    "label": "015",
    "text": ""
  },
  {
    "label": "016",
    "text": ""
  },
  {
    "label": "017",
    "text": ""
  },
  {
    "label": "018",
    "text": ""
  },
  {
    "label": "019",
    "text": ""
  },
  {
    "label": "020",
    "text": ""
  },
  {
    "label": "021",
    "text": "{{anim id=\"1\"}}Entre tú y yo, espero que\n{{color id=\"4\"}}Renato{{color id=\"65535\"}} me traiga un {{color id=\"2\"}}mueble{{color id=\"65535\"}}."
  },
  {
    "label": "022",
    "text": "{{anim id=\"1\"}}Entre tú y yo, espero que\n{{color id=\"4\"}}Renato{{color id=\"65535\"}} me traiga una {{color id=\"2\"}}alfombra{{color id=\"65535\"}}."
  },
  {
    "label": "023",
    "text": "{{anim id=\"1\"}}Entre tú y yo, espero que\n{{color id=\"4\"}}Renato{{color id=\"65535\"}} me traiga {{color id=\"2\"}}papel de pared{{color id=\"65535\"}}."
  },
  {
    "label": "024",
    "text": "{{anim id=\"1\"}}Entre tú y yo, espero que {{color id=\"4\"}}Renato\n{{color id=\"65535\"}}me traiga un {{color id=\"2\"}}electrodoméstico{{color id=\"65535\"}}."
  },
  {
    "label": "025",
    "text": "{{anim id=\"1\"}}Entre tú y yo, espero que\n{{color id=\"4\"}}Renato{{color id=\"65535\"}} me traiga un {{color id=\"2\"}}instrumento\nmusical{{color id=\"65535\"}}."
  },
  {
    "label": "026",
    "text": "{{anim id=\"1\"}}Entre tú y yo, espero que\n{{color id=\"4\"}}Renato{{color id=\"65535\"}} me traiga una {{color id=\"2\"}}planta{{color id=\"65535\"}}."
  },
  {
    "label": "027",
    "text": "{{anim id=\"1\"}}Entre tú y yo, espero que\n{{color id=\"4\"}}Renato{{color id=\"65535\"}} me traiga {{color id=\"2\"}}ropa{{color id=\"65535\"}}."
  },
  {
    "label": "028",
    "text": "{{anim id=\"1\"}}Entre tú y yo, espero que\n{{color id=\"4\"}}Renato{{color id=\"65535\"}} me traiga una {{color id=\"2\"}}muñeca{{color id=\"65535\"}}."
  },
  {
    "label": "029",
    "text": "{{anim id=\"1\"}}Entre tú y yo, espero que\n{{color id=\"4\"}}Renato{{color id=\"65535\"}} me traiga un{{color id=\"2\"}} juguete{{color id=\"65535\"}}."
  },
  {
    "label": "030",
    "text": "{{anim id=\"1\"}}Entre tú y yo, espero que\n{{color id=\"4\"}}Renato{{color id=\"65535\"}} me traiga {{color id=\"2\"}}comida{{color id=\"65535\"}}."
  },
  {
    "label": "031",
    "text": "{{anim id=\"1\"}}Entre tú y yo, espero que\n{{color id=\"4\"}}Renato{{color id=\"65535\"}} me traiga una{{color id=\"2\"}} lámpara{{color id=\"65535\"}}."
  },
  {
    "label": "032",
    "text": "{{anim id=\"1\"}}Entre tú y yo, espero que\n{{color id=\"4\"}}Renato{{color id=\"65535\"}} me traiga un{{color id=\"2\"}} paraguas{{color id=\"65535\"}}."
  },
  {
    "label": "033",
    "text": ""
  },
  {
    "label": "034",
    "text": ""
  },
  {
    "label": "035",
    "text": ""
  },
  {
    "label": "036",
    "text": ""
  },
  {
    "label": "037",
    "text": "{{anim id=\"35\"}}¡Este año espero que mi regalo\ndel Día de los Juguetes sea\n{{color id=\"2\"}}{{fun_00020012 arg=\"\"}}{{color id=\"65535\"}}!"
  },
  {
    "label": "038",
    "text": "{{anim id=\"2\"}}Tú no estás tan animado por\nel Día de los Juguetes que estás\na punto de ponerte mal{{fun_0006000E arg=\"0x02006F0002006100\"}}, ¿no?{{delay frames=\"20\"}}{{anim id=\"1\"}}"
  },
  {
    "label": "039",
    "text": "{{anim id=\"43\"}}A lo mejor este año tenemos un\nDía de los Juguetes cubierto de\nblanco{{delay frames=\"8\"}}.{{delay frames=\"8\"}}.{{delay frames=\"8\"}}.{{delay frames=\"40\"}}{{anim id=\"38\"}} ¡Es un presentimiento!"
  },
  {
    "label": "040",
    "text": "{{anim id=\"39\"}}¡He estado intentando ser bueno\ntodo el año! Bueno, al menos para\nlo que se puede esperar de mí{{delay frames=\"8\"}}.{{delay frames=\"8\"}}.{{delay frames=\"8\"}}.{{delay frames=\"20\"}}\n{{anim id=\"13\"}}{{color id=\"4\"}}Renato{{color id=\"65535\"}} me traerá un buen\nregalo, ¿no?"
  }
]