﻿[
  {
    "label": "001",
    "text": "{{anim id=\"1\"}}¿Tiene {{fun_0002000E arg=\"\"}}{{fun_00030011 arg=\"0x0000\"}}\nde mascota?{{pageBreak}}{{anim id=\"4\"}}Un acuario le da personalidad\na una casa, eso es cierto{{delay frames=\"8\"}}.{{delay frames=\"8\"}}.{{delay frames=\"8\"}}.{{pageBreak}}{{anim id=\"18\"}}{{fun_000B0007 arg=\"\"}}¡Aaaah, ya lo pillo! ¡Está ahí para\nimpresionar a las chicas! ¡Lo\ntiene todo muy bien pensado!\n{{anim id=\"12\"}}Sí que es espabilado {{fun_00010011 arg=\"0x0000\"}}{{delay frames=\"8\"}}.{{delay frames=\"8\"}}.{{delay frames=\"8\"}}.\n¡A mí nunca se me ocurren esas\nartimañas! ¡Menudo jefe!"
  },
  {
    "label": "002",
    "text": "{{anim id=\"1\"}}Eso de tener cuadritos colgados es\nun farde típico de {{fun_00010011 arg=\"0x0000\"}}.\n¡Si es que lo tengo calado!\n{{anim id=\"40\"}}La verdad, no entiendo ni papa\nde arte, {{delay frames=\"40\"}}{{anim id=\"1\"}}¡pero está claro que\nél sí, {{delay frames=\"8\"}}{{fun_00070005 arg=\"\"}}!"
  },
  {
    "label": "003",
    "text": "¡{{fun_0003000E arg=\"\"}}{{fun_00030011 arg=\"0x0000\"}} emitiendo\niones negativos! ¡Ponte a cubierto!{{pageBreak}}{{anim id=\"6\"}}¡Son peligrosos! Protégete antes\nde que{{delay frames=\"8\"}}.{{delay frames=\"8\"}}.{{delay frames=\"8\"}}.{{delay frames=\"20\"}} {{anim id=\"2\"}}Vale, ¡me estaba quedando\ncontigo! ¡No hay nada de eso!\n{{anim id=\"18\"}}{{fun_000B0007 arg=\"\"}}¡Pero imagínate que existieran y\nque ahora mismo planeasen ser\nlos dueños del planeta!"
  },
  {
    "label": "004",
    "text": "Ah, {{color id=\"2\"}}{{fun_00030011 arg=\"0x0100\"}}{{color id=\"65535\"}}...{{pageBreak}}¡He oído que quiere ponerle letra\ny hacer unos arreglos para grupos\nde rock y bandas de gaitas!{{pageBreak}}{{anim id=\"36\"}}Pues si te digo la verdad{{delay frames=\"8\"}}.{{delay frames=\"8\"}}.{{delay frames=\"8\"}}.{{delay frames=\"20\"}} ¡temo\nque la mitad de las palabras que use\nno las vaya a entender ni el Tato!"
  },
  {
    "label": "005",
    "text": "{{fun_00040009 arg=\"0x380039003A003B003C003D00\"}}"
  },
  {
    "label": "006",
    "text": "{{anim id=\"1\"}}{{fun_0003000E arg=\"\"}}{{fun_00010011 arg=\"0x0000\"}} solía tocar\n{{fun_0001000E arg=\"\"}}{{fun_00030011 arg=\"0x0000\"}},\naunque a duras penas, la verdad.\n{{anim id=\"27\"}}Solo sabe hacer sonar tres notas,\n¡pero dice que ha compuesto\ncuarenta canciones!"
  },
  {
    "label": "007",
    "text": "{{anim id=\"21\"}}¡La casa de {{fun_00010011 arg=\"0x0000\"}} es tal como\nme la esperaba! ¡Seguro que usa su\n{{fun_00030011 arg=\"0x0000\"}} a menudo!{{delay frames=\"8\"}}{{pageBreak}}{{anim id=\"27\"}}Pero te apuesto lo que quieras a\nque solo cocina con ingredientes\nrarísimos y difíciles de conseguir.\n¡A mí que no me vengan con esas\ncomplicaciones! ¡Me vale con un\nhuevo frito, {{delay frames=\"8\"}}{{fun_00070005 arg=\"\"}}!"
  },
  {
    "label": "008",
    "text": "{{anim id=\"19\"}}{{delay frames=\"20\"}}Esta cama huele a flores.\nNo sé qué pensar, {{delay frames=\"8\"}}{{fun_00070005 arg=\"\"}}..."
  },
  {
    "label": "009",
    "text": "¡Pero qué cama tan lujosa!{{delay frames=\"20\"}}{{pageBreak}}{{anim id=\"15\"}}No solo eso, ¡sino que huele\nestupendamente!{{pageBreak}}{{anim id=\"9\"}}Huy{{delay frames=\"8\"}}.{{delay frames=\"8\"}}.{{delay frames=\"8\"}}.{{delay frames=\"20\"}} ¿Y eso? ¿Le echa colonia\na la cama o qué, {{delay frames=\"8\"}}{{fun_00070005 arg=\"\"}}?"
  },
  {
    "label": "010",
    "text": "{{fun_0003000E arg=\"\"}}{{fun_00010011 arg=\"0x0000\"}} se pasa todo el rato\nescuchando música relajado en su\n{{fun_00030011 arg=\"0x0000\"}}.{{pageBreak}}{{anim id=\"13\"}}¡Qué forma de perder el tiempo!\n¿Y la de sentadillas que podría\nhacer en esas horas malgastadas?\n{{anim id=\"27\"}}¡Ahora es que ya estaría como un\ntoro! ¡Este chico no tiene cabeza,{{delay frames=\"8\"}}\n{{fun_00070005 arg=\"\"}}!"
  },
  {
    "label": "011",
    "text": "{{anim id=\"6\"}}Vive solo, pero tiene un sofá para\ndos personas. A eso en mi pueblo\nse le llama \"optimismo\"{{delay frames=\"8\"}}.{{delay frames=\"8\"}}.{{delay frames=\"8\"}}.{{pageBreak}}{{anim id=\"15\"}}¡Se nota la tira que le está\nreservando ese sitio a una chica!\n¡Pues a ver dónde la encuentra!\n{{anim id=\"2\"}}¡Pues yo pienso sentarme ahí sin\nque se dé cuenta antes de irme!{{delay frames=\"40\"}}{{anim id=\"37\"}}"
  },
  {
    "label": "012",
    "text": "{{anim id=\"1\"}}Oye, llevas un buen rato de pie.\n¿Por qué no te sientas en\nes{{fun_0008000E arg=\"0x00CD02006500020061000000\"}} {{fun_00030011 arg=\"0x0000\"}}?{{pageBreak}}{{anim id=\"23\"}}¿Quién, yo?{{delay frames=\"40\"}}{{anim id=\"40\"}} No, ¡tranqui, jef{{fun_0006000E arg=\"0x0200650002006100\"}}!{{delay frames=\"40\"}}{{anim id=\"33\"}}\n¡No necesito sentarme! ¡Es una de\nlas ventajas de estar tan cachas!"
  },
  {
    "label": "013",
    "text": "{{anim id=\"1\"}}Tiene {{fun_0002000E arg=\"\"}}{{fun_00030011 arg=\"0x0000\"}}\nde mascotita, ¿eh?{{pageBreak}}{{anim id=\"21\"}}¡Si es que aún sigue teniendo\ncorazón de chaval!{{delay frames=\"40\"}}{{anim id=\"1\"}} ¡Eso hace que\nel colega me caiga un poco mejor!"
  },
  {
    "label": "014",
    "text": "¡{{fun_0003000E arg=\"\"}}{{fun_00010011 arg=\"0x0000\"}} tiene{{delay frames=\"20\"}}\n{{fun_0002000E arg=\"\"}}{{fun_00030011 arg=\"0x0000\"}}!{{pageBreak}}{{anim id=\"36\"}}Seguro que dentro hay cosas de\nesas raras que le gustan a él y que\nyo ni entiendo, {{delay frames=\"8\"}}{{fun_00070005 arg=\"\"}}."
  },
  {
    "label": "015",
    "text": "El otro día se me ocurrió preguntar\npor su {{fun_00030011 arg=\"0x0000\"}}\npara ver si me invitaba a un cafelito.{{pageBreak}}{{anim id=\"12\"}}Al final me estuvo hablando de las\ndiferencias entre los tipos de café\ndurante horas. Ay{{delay frames=\"8\"}}.{{delay frames=\"8\"}}.{{delay frames=\"8\"}}.{{pageBreak}}{{anim id=\"13\"}}Una vez que le das cuerda, ¡ya no\nhay quien lo pare! ¡Tenlo en cuenta\nantes de cometer una estupidez!"
  },
  {
    "label": "016",
    "text": "Si buscas el momento adecuado,\nlos giroides pueden ir al ritmo\nde la música,{{anim id=\"23\"}} ¿no?{{delay frames=\"8\"}}\n{{anim id=\"0\"}}{{fun_0003000E arg=\"\"}}{{fun_00010011 arg=\"0x0000\"}} está obsesionado con\neso, ¡y se pasa horas tratando de\nsincronizarlos perfectamente!\n{{anim id=\"36\"}}¡Por lo visto un error de una\nfracción de segundo puede\nestropearlo todo!"
  },
  {
    "label": "017",
    "text": "{{anim id=\"11\"}}Est{{fun_0008000E arg=\"0x00CD02006500020061000000\"}} {{fun_00030011 arg=\"0x0000\"}}{{delay frames=\"8\"}}.{{delay frames=\"8\"}}.{{delay frames=\"8\"}}.{{delay frames=\"20\"}}{{anim id=\"15\"}} debe\nde estar ahí para que {{fun_00010011 arg=\"0x0000\"}}\npueda hablar de ropa con las chicas."
  },
  {
    "label": "018",
    "text": "{{anim id=\"5\"}}¡Mira! ¡Podemos ponernos a jugar\ncon {{delay frames=\"20\"}}est{{fun_0008000E arg=\"0x00CD02006500020061000000\"}} {{fun_00030011 arg=\"0x0000\"}}\nhasta hartarnos! ¡Qué detallazo!\n{{anim id=\"40\"}}Pero{{delay frames=\"8\"}}.{{delay frames=\"8\"}}.{{delay frames=\"8\"}}.{{delay frames=\"20\"}} {{anim id=\"27\"}}alto... ¡Esto no está para\njugar! ¡{{fun_0003000E arg=\"\"}}{{fun_00010011 arg=\"0x0000\"}} lo tiene solo\npara decorar, el muy gañán!"
  },
  {
    "label": "019",
    "text": "{{anim id=\"15\"}}¿{{fun_0003000E arg=\"\"}}{{fun_00010011 arg=\"0x0000\"}} tiene {{fun_0002000E arg=\"\"}}\n{{fun_00030011 arg=\"0x0000\"}}?{{pageBreak}}{{anim id=\"9\"}}Hum{{delay frames=\"8\"}}.{{delay frames=\"8\"}}.{{delay frames=\"8\"}}.{{delay frames=\"20\"}} Quizá no sea un detalle\nhipermasculino, pero claro, le\ngusta mirarse en el espejo y eso..."
  },
  {
    "label": "020",
    "text": "{{anim id=\"1\"}}¡Menudos tochos que tiene en la\nestantería! ¡Esos libros no hay\nquien los entienda!\n{{anim id=\"11\"}}Claro, ¡por eso luego no hay quien\nse entere de lo que dice {{fun_00010011 arg=\"0x0000\"}}!\n¡Son esos libros!\n{{anim id=\"21\"}}Quizá si se los escondiéramos\nle haríamos un gran favor,\n¿no crees?"
  },
  {
    "label": "021",
    "text": "{{fun_00040009 arg=\"0x380039003A003B003C003D00\"}}"
  },
  {
    "label": "022",
    "text": "{{anim id=\"1\"}}Así que decora su casa con fósiles{{delay frames=\"8\"}}.{{delay frames=\"8\"}}.{{delay frames=\"8\"}}.{{delay frames=\"20\"}}\nClaro, él siempre dice que le gusta\nlo \"retro\"...\n¿Es que puede haber algo en el\nmundo que sea más retro que\nun fósil? ¡Es imposible!"
  },
  {
    "label": "023",
    "text": "{{anim id=\"13\"}}¡Fíjate! ¡{{fun_0003000E arg=\"\"}}{{fun_0002000E arg=\"\"}}\n{{fun_00030011 arg=\"0x0000\"}}!{{pageBreak}}¿Nos irá a ofrecer algo especial?\n¿Una infusión del otro lado del\nmundo con pastitas de canela?{{pageBreak}}{{anim id=\"27\"}}¡Pues yo preferiría algo que se\npueda beber de un buen trago y\nno a sorbitos, {{delay frames=\"8\"}}{{fun_0003000E arg=\"\"}}{{fun_00070005 arg=\"\"}}!"
  },
  {
    "label": "024",
    "text": "{{anim id=\"11\"}}{{fun_0003000E arg=\"\"}}{{fun_00010011 arg=\"0x0000\"}} parece dedicarle\nbastante tiempo hasta a su retrete.{{pageBreak}}{{anim id=\"21\"}}¿Sabes una cosa? La verdad{{delay frames=\"8\"}}.{{delay frames=\"8\"}}.{{delay frames=\"8\"}}.{{delay frames=\"40\"}}\n{{anim id=\"18\"}}{{fun_000B0007 arg=\"\"}}¡Mi cuarto de baño jamás\nha olido tan bien como este!"
  },
  {
    "label": "025",
    "text": "{{anim id=\"1\"}}¡{{fun_0003000E arg=\"\"}}{{fun_00010011 arg=\"0x0000\"}} probablemente es una\nde las personas del pueblo que más\nsabe de tecnología y todo eso!\n{{anim id=\"40\"}}¡Yo es que esos trastos no sé ni\nencenderlos! ¡No sabría qué hacer\ncon {{fun_0002000E arg=\"\"}}{{fun_00030011 arg=\"0x0000\"}}!"
  },
  {
    "label": "026",
    "text": "{{anim id=\"38\"}}¡Lo que sospechaba!{{delay frames=\"40\"}}{{anim id=\"36\"}} Estaba\nconvencido de que {{fun_00010011 arg=\"0x0000\"}}\ntendría flores en casa{{delay frames=\"8\"}}.{{delay frames=\"8\"}}.{{delay frames=\"8\"}}."
  },
  {
    "label": "027",
    "text": "{{fun_00040009 arg=\"0x380039003A003B003C003D00\"}}"
  },
  {
    "label": "028",
    "text": "{{fun_00040009 arg=\"0x380039003A003B003C003D00\"}}"
  },
  {
    "label": "029",
    "text": "{{anim id=\"1\"}}¡{{fun_0003000E arg=\"\"}}{{fun_0002000E arg=\"\"}}{{fun_00030011 arg=\"0x0000\"}}!{{pageBreak}}{{anim id=\"36\"}}Es muy refinado{{delay frames=\"8\"}}.{{delay frames=\"8\"}}.{{delay frames=\"8\"}}.{{pageBreak}}{{anim id=\"33\"}}¡Seguro que es de los que les gusta\nquedarse durante un buen rato\ndelante del espejo!"
  },
  {
    "label": "030",
    "text": "{{anim id=\"4\"}}¡Qué bien que tiene en casa\n{{fun_0002000E arg=\"\"}}{{fun_00030011 arg=\"0x0000\"}}!{{delay frames=\"20\"}}\n¡Se lo tenía bien calladito!\n{{anim id=\"11\"}}Y mira que no tiene cara de ser de\nesos viciados con los videojuegos,{{delay frames=\"20\"}}\npero{{delay frames=\"8\"}}.{{delay frames=\"8\"}}.{{delay frames=\"8\"}}.{{pageBreak}}{{anim id=\"35\"}}¡Me da a mí que luego este tío juega\nmás horas que ninguno de nosotros\nen vez de leer tanto como dice!"
  },
  {
    "label": "031",
    "text": "¡{{fun_0003000E arg=\"\"}}{{fun_0002000E arg=\"\"}}{{fun_00030011 arg=\"0x0000\"}}!{{pageBreak}}{{anim id=\"27\"}}Seguro que cuando no hay nadie\nlo que hace es darle la chapa\nal pobre panda..."
  },
  {
    "label": "032",
    "text": "¡{{fun_0003000E arg=\"\"}}{{fun_0002000E arg=\"\"}}{{fun_00030011 arg=\"0x0000\"}}!\nUf, ¿sabes una cosa? Te lo digo\ncomo si lo viera...\n{{anim id=\"27\"}}¡Fijo que el tío se pone a hablarle al\npobre oso horas y horas de la cría\ndel mejillón y paranoias de esas!"
  },
  {
    "label": "033",
    "text": "{{fun_00040009 arg=\"0x380039003A003B003C003D00\"}}"
  },
  {
    "label": "034",
    "text": "{{fun_00040009 arg=\"0x380039003A003B003C003D00\"}}"
  },
  {
    "label": "035",
    "text": "{{anim id=\"23\"}}Mira, ¡pero si tiene aquí\n{{fun_0002000E arg=\"\"}}{{fun_00030011 arg=\"0x0000\"}}!{{delay frames=\"20\"}}{{pageBreak}}{{anim id=\"18\"}}{{fun_000B0007 arg=\"\"}}¿Qué tiene que ocultarnos? ¿O será\nuna nueva moda? {{anim id=\"12\"}}Pero qué cosas\ntan raras hace la peña..."
  },
  {
    "label": "036",
    "text": "{{fun_00040009 arg=\"0x380039003A003B003C003D00\"}}"
  },
  {
    "label": "037",
    "text": "{{anim id=\"11\"}}¿Qué es eso que oigo? Un sonido\na lo lejos llamándome{{delay frames=\"8\"}}.{{delay frames=\"8\"}}.{{delay frames=\"8\"}}.{{pageBreak}}{{anim id=\"18\"}}{{fun_000B0007 arg=\"\"}}¡Ajá! {{fun_0003000E arg=\"\"}}{{fun_0002000E arg=\"\"}}{{fun_00030011 arg=\"0x0000\"}},\n¿eh? ¡Eso lo explica todo!{{pageBreak}}{{anim id=\"13\"}}¡Ese sonido es el sonido\nde la gloria! ¡Es la campana\nque reclama mi presencia!{{pageBreak}}{{anim id=\"16\"}}{{fun_000B0007 arg=\"\"}}{{size value=\"150\"}}{{color id=\"5\"}}¡Ding, diiiiiing!{{color id=\"65535\"}}{{size value=\"100\"}}"
  },
  {
    "label": "038",
    "text": "{{anim id=\"1\"}}¡{{fun_0003000E arg=\"\"}}{{fun_00010011 arg=\"0x0000\"}} sí que se lo monta\nbien! No sé cómo ha conseguido\nesta lona de lucha libre, ¡pero mola!\n{{anim id=\"38\"}}¡A ver si un día podemos celebrar\nel gran torneo de {{fun_0003000E arg=\"\"}}{{fun_00050005 arg=\"\"}}\naquí mismo, {{delay frames=\"8\"}}{{fun_00070005 arg=\"\"}}!"
  },
  {
    "label": "039",
    "text": "{{fun_00040009 arg=\"0x380039003A003B003C003D00\"}}"
  },
  {
    "label": "040",
    "text": "¡{{fun_0003000E arg=\"\"}}{{fun_00010011 arg=\"0x0000\"}} tiene {{fun_0002000E arg=\"\"}}\n{{fun_00030011 arg=\"0x0000\"}}!{{pageBreak}}{{anim id=\"11\"}}Ya me había dicho que todas las\nmañanas se daba una ducha{{delay frames=\"8\"}}.{{delay frames=\"8\"}}.{{delay frames=\"8\"}}.{{pageBreak}}{{anim id=\"13\"}}Como si importara algo tener el\npelo un poco grasiento... ¡Es que\nhay gente que es muy finolis!"
  },
  {
    "label": "041",
    "text": "{{fun_00040009 arg=\"0x380039003A003B003C003D00\"}}"
  },
  {
    "label": "042",
    "text": "{{fun_00040009 arg=\"0x380039003A003B003C003D00\"}}"
  },
  {
    "label": "043",
    "text": "{{fun_00040009 arg=\"0x380039003A003B003C003D00\"}}"
  },
  {
    "label": "044",
    "text": "{{fun_00040009 arg=\"0x380039003A003B003C003D00\"}}"
  },
  {
    "label": "045",
    "text": ""
  },
  {
    "label": "046",
    "text": ""
  },
  {
    "label": "047",
    "text": ""
  },
  {
    "label": "048",
    "text": ""
  },
  {
    "label": "049",
    "text": ""
  },
  {
    "label": "050",
    "text": ""
  },
  {
    "label": "051",
    "text": ""
  },
  {
    "label": "052",
    "text": ""
  },
  {
    "label": "053",
    "text": ""
  },
  {
    "label": "054",
    "text": ""
  },
  {
    "label": "055",
    "text": ""
  },
  {
    "label": "056",
    "text": "{{anim id=\"21\"}}La casa de {{fun_00010011 arg=\"0x0000\"}} mola\nlo que no está escrito{{delay frames=\"8\"}}.{{delay frames=\"8\"}}.{{delay frames=\"8\"}}.{{pageBreak}}{{anim id=\"33\"}}¡Pero sigue gustándome más\nla mía, {{delay frames=\"8\"}}{{fun_0003000E arg=\"\"}}{{fun_00070005 arg=\"\"}}!"
  },
  {
    "label": "057",
    "text": "Viendo la casa de alguien puedes\nsaber más sobre él, ¿no? Pues\naquí yo he aprendido bastante."
  },
  {
    "label": "058",
    "text": "{{anim id=\"1\"}}¡Deberías dejarte caer por mi\ncasa y así me dices qué tal está\ncomparada con la de {{fun_00010011 arg=\"0x0000\"}}!"
  },
  {
    "label": "059",
    "text": "A ver, somos tres,{{anim id=\"32\"}} así que digo yo\nque podríamos jugar a algo, ¿no?\nYa sabéis, a algún deporte como...\n{{anim id=\"11\"}}Como.{{delay frames=\"8\"}}.{{delay frames=\"8\"}}.{{delay frames=\"20\"}} Esto...{{delay frames=\"40\"}}\nYo{{delay frames=\"8\"}}.{{delay frames=\"8\"}}.{{delay frames=\"8\"}}.{{pageBreak}}{{anim id=\"13\"}}¡No se me ocurre nada a lo\nque se pueda jugar con tres!\n¡Estoy bloqueado!"
  },
  {
    "label": "060",
    "text": "{{anim id=\"23\"}}¿Vienes mucho a casa de\n{{fun_00010011 arg=\"0x0000\"}}, {{delay frames=\"8\"}}{{fun_00070005 arg=\"\"}}?{{pageBreak}}{{anim id=\"0\"}}Yo no{{delay frames=\"8\"}}.{{delay frames=\"8\"}}.{{delay frames=\"8\"}}.{{delay frames=\"40\"}}{{anim id=\"1\"}} ¡pero tampoco me\nimportaría venir más a menudo!\n¡Seguro que aprendería algo!"
  },
  {
    "label": "061",
    "text": "{{anim id=\"5\"}}¡Eh,{{delay frames=\"20\"}} quiero practicar {{fun_00110005 arg=\"0x0000\"}}\nahora mismo! ¡Tengo unas ganas\nbrutales, colega!\n{{anim id=\"40\"}}¡Pero no puedo ponerme a hacerlo\naquí! {{delay frames=\"40\"}}{{anim id=\"2\"}}Si le rompo algo a {{fun_00010011 arg=\"0x0000\"}}\n¡se subiría por las paredes!{{delay frames=\"40\"}}{{anim id=\"37\"}}"
  }
]