﻿[
  {
    "label": "001",
    "text": "{{anim id=\"15\"}}¡Vaya!{{delay frames=\"20\"}} ¡Creo que empiezo a\nsentirme un poco mejor!{{pageBreak}}{{anim id=\"1\"}}¡Gracias, {{fun_00080005 arg=\"\"}}!{{delay frames=\"40\"}} Creo que\nde momento solo me entrenaré en\ncasa, pero al menos puedo entrenar."
  },
  {
    "label": "002",
    "text": "{{anim id=\"16\"}}¡Vaya!{{delay frames=\"20\"}} ¡Creo que ya me siento\nmejor!{{delay frames=\"40\"}} {{anim id=\"5\"}}¡Gracias, {{delay frames=\"8\"}}{{fun_00080005 arg=\"\"}}!"
  },
  {
    "label": "003",
    "text": "{{anim id=\"32\"}}¡Gracias!{{delay frames=\"20\"}} ¡Creo que he pillado\nfiebre por entrenarme febrilmente!"
  },
  {
    "label": "004",
    "text": "{{anim id=\"41\"}}¡Puaj, esto sabe horrible!{{pageBreak}}{{anim id=\"0\"}}Pero me lo he tomado,\n¡así que más vale que funcione!"
  },
  {
    "label": "005",
    "text": "{{anim id=\"1\"}}Espero que esto funcione,\n{{delay frames=\"8\"}}{{fun_00070005 arg=\"\"}}."
  },
  {
    "label": "006",
    "text": "{{anim id=\"25\"}}Ahora me ha dado sueño.{{delay frames=\"40\"}}{{anim id=\"1\"}} Supongo\nque me sentiré mejor después\nde una siesta, {{delay frames=\"8\"}}{{fun_00070005 arg=\"\"}}."
  },
  {
    "label": "007",
    "text": "{{anim id=\"1\"}}¡Gracias!{{delay frames=\"20\"}} ¡Me siento un poco mejor!{{pageBreak}}{{anim id=\"0\"}}Ahora voy a cruzar los dedos{{delay frames=\"8\"}}.{{delay frames=\"8\"}}.{{delay frames=\"8\"}}.{{delay frames=\"8\"}}"
  },
  {
    "label": "008",
    "text": "{{anim id=\"1\"}}Gracias. {{delay frames=\"20\"}}Ahora me siento un poco\nmejor. {{delay frames=\"40\"}}Pero me avergüenza que me\nhayas visto tan débil, {{delay frames=\"8\"}}{{fun_00070005 arg=\"\"}}."
  },
  {
    "label": "009",
    "text": "Gracias, {{fun_00080005 arg=\"\"}}.{{delay frames=\"40\"}} ¡No me\nhas dejado tirado, colegui!"
  }
]