﻿[
  {
    "label": "001",
    "text": "{{anim id=\"15\"}}¡¿{{fun_0003000E arg=\"\"}}{{fun_0001000E arg=\"\"}}{{fun_00030011 arg=\"0x0000\"}}?!{{pageBreak}}{{anim id=\"1\"}}Es algo que llama la atención, ¿eh?{{pageBreak}}{{anim id=\"11\"}}Hum... {{delay frames=\"20\"}}No me separaré de {{fun_0008000E arg=\"0x00CD0400E9006C00080065006C006C0061000000\"}}\npor menos de{{delay frames=\"8\"}}.{{delay frames=\"8\"}}.{{delay frames=\"8\"}}. {{delay frames=\"40\"}}{{color id=\"2\"}}{{anim id=\"1\"}}{{fun_000A0004 arg=\"0x0000\"}} bayas{{color id=\"65535\"}}.{{fun_0008000D arg=\"0x02CD\"}}{{fun_0005000F arg=\"0x15002800\"}}\n¡Acepto!\n¡Ni hablar!"
  },
  {
    "label": "002",
    "text": "¿{{fun_0003000E arg=\"\"}}{{fun_0001000E arg=\"\"}}{{fun_00030011 arg=\"0x0000\"}}?{{delay frames=\"20\"}}\n{{anim id=\"2\"}}¡Ja, ja!{{delay frames=\"20\"}} ¡{{fun_0003000E arg=\"\"}}{{fun_00080005 arg=\"\"}}, sabía que\nelegirías eso, {{delay frames=\"8\"}}{{fun_00070005 arg=\"\"}}!{{delay frames=\"40\"}}{{anim id=\"37\"}}\n{{anim id=\"11\"}}Te l{{fun_0008000E arg=\"0x00CD02006F00020061000000\"}} venderé por{{delay frames=\"8\"}}.{{delay frames=\"8\"}}.{{delay frames=\"8\"}}. {{delay frames=\"20\"}}{{color id=\"2\"}}{{fun_000A0004 arg=\"0x0000\"}} bayas{{color id=\"65535\"}}.\n¿Qué tal?{{fun_0008000D arg=\"0x02CD\"}}{{fun_0005000F arg=\"0x15002800\"}}\n¡Hecho!\n¡No!"
  },
  {
    "label": "003",
    "text": "{{anim id=\"16\"}}{{fun_000B0007 arg=\"\"}}¡Lo sabía!{{delay frames=\"20\"}}{{fun_00010007 arg=\"\"}}{{anim id=\"21\"}} ¡Sabía que le\nhabías echado el ojo a\nmi {{fun_00030011 arg=\"0x0000\"}}!{{pageBreak}}{{anim id=\"11\"}}Buena elección.{{delay frames=\"20\"}} ¡Y además está\nclarísimo que se va a revalorizar\nporque me ha pertenecido a mí!{{pageBreak}}{{anim id=\"1\"}}Te pediré {{color id=\"2\"}}{{fun_000A0004 arg=\"0x0000\"}} bayas{{color id=\"65535\"}}. ¿Hace?{{fun_0008000D arg=\"0x02CD\"}}{{fun_0005000F arg=\"0x15002800\"}}\n¡Hace!\n¡No, no hace!"
  },
  {
    "label": "004",
    "text": "{{anim id=\"15\"}}¡Oh!{{delay frames=\"20\"}} ¡¿Mi {{fun_00030011 arg=\"0x0000\"}}?!{{pageBreak}}Oye, {{delay frames=\"20\"}}{{anim id=\"27\"}}pero parece que ya tienes{{delay frames=\"40\"}}\nlos bolsillos llenos. Habla conmigo\ncuando no lleves tantas cosas."
  },
  {
    "label": "005",
    "text": "{{anim id=\"9\"}}¡¿Qué?!{{delay frames=\"20\"}} ¿Has cambiado de opinión?{{pageBreak}}{{anim id=\"21\"}}Bueno, estás en tu derecho.{{delay frames=\"20\"}} ¡Pero\ncreo que estás desaprovechando\nuna oportunidad estupenda!"
  },
  {
    "label": "006",
    "text": "{{anim id=\"0\"}}¡¿Eh?!{{delay frames=\"20\"}} ¿No tienes bastante dinero?{{pageBreak}}Bueno, supongo que no estabas\npreparad{{fun_0006000E arg=\"0x02006F0002006100\"}} para hacer negocios.{{delay frames=\"40\"}}\nLo dejaremos para otra ocasión."
  },
  {
    "label": "007",
    "text": "{{anim id=\"17\"}}{{fun_000B0007 arg=\"\"}}¡¿Mi {{fun_00030011 arg=\"0x0000\"}}?!{{pageBreak}}{{anim id=\"9\"}}¡No está en venta! ¡Es mi amig{{fun_0008000E arg=\"0x00CD02006F00020061000000\"}}!"
  },
  {
    "label": "008",
    "text": "{{anim id=\"9\"}}Lo siento, {{fun_00080005 arg=\"\"}}, pero{{delay frames=\"40\"}}\nmi {{fun_00030011 arg=\"0x0000\"}}\nno está en venta.\nTengo como política no vender a\nmis colegas.{{delay frames=\"40\"}} {{anim id=\"38\"}}¡Pero ya encontrarás\nun{{fun_0008000E arg=\"0x00CD02006F00020061000000\"}} para ti, {{delay frames=\"20\"}}{{fun_00070005 arg=\"\"}}!"
  },
  {
    "label": "009",
    "text": "{{anim id=\"18\"}}{{fun_000B0007 arg=\"\"}}¡¿Qué?!{{delay frames=\"20\"}} Eso es muy importante\npara mí.{{anim id=\"13\"}} ¡Elige otra cosa!{{delay frames=\"20\"}}\nLo que sea, ¡pero eso no!"
  },
  {
    "label": "010",
    "text": "{{anim id=\"9\"}}¡Lo siento, {{fun_00080005 arg=\"\"}}!{{delay frames=\"20\"}} Eso tiene\ndemasiado valor para mí.{{pageBreak}}{{anim id=\"40\"}}Me temo que no puedo vendértelo,\n{{delay frames=\"8\"}}{{fun_00070005 arg=\"\"}}."
  },
  {
    "label": "011",
    "text": "{{anim id=\"41\"}}Noooo{{delay frames=\"8\"}}.{{delay frames=\"8\"}}.{{delay frames=\"8\"}}.{{delay frames=\"20\"}} ¿No ves que eso lo uso\npara sujetar lo que hay encima?{{pageBreak}}{{anim id=\"13\"}}¡No quiero romper {{delay frames=\"20\"}}el equilibrio\nde este sitio, {{delay frames=\"8\"}}{{fun_00070005 arg=\"\"}}!"
  },
  {
    "label": "012",
    "text": "{{anim id=\"40\"}}Lo siento, {{delay frames=\"20\"}}eso no puedo vendértelo.{{fun_00010007 arg=\"\"}}\nElige otra cosa, {{delay frames=\"8\"}}{{fun_00070005 arg=\"\"}}."
  }
]