﻿[
  {
    "label": "001",
    "text": "Hace poco visité otro pueblo{{delay frames=\"15\"}} y me\nencontré con un zorro un tanto\npeculiar en la estación de tren.\n{{anim id=\"21\"}}Me dijo que yo tenía muy buen ojo\npara el arte{{delay frames=\"15\"}} y {{anim id=\"40\"}}que no podía dejar\npasar la oportunidad.\n{{anim id=\"0\"}}Total,{{delay frames=\"8\"}} antes de darme cuenta,\nme había gastado una fortuna\nen EST{{fun_0008000E arg=\"0x02CD02004500020041000000\"}} {{fun_00030011 arg=\"0x0200\"}}{{delay frames=\"8\"}}.{{delay frames=\"8\"}}.{{delay frames=\"8\"}}.\n{{anim id=\"9\"}}Y claro,{{delay frames=\"8\"}} después de reflexionar\nsobre el tema,{{delay frames=\"8\"}} tengo que admitir\nque no tengo ni idea de pintura.\n{{anim id=\"0\"}}Y aquí entras tú en el juego:{{delay frames=\"15\"}}\n{{fun_000D0007 arg=\"\"}}{{anim id=\"1\"}}¿Estarías dispuest{{fun_0006000E arg=\"0x02006F0002006100\"}} a comprármel{{fun_0008000E arg=\"0x02CD02006F00020061000000\"}}\npor {{color id=\"2\"}}{{fun_00090004 arg=\"0x0100\"}} bayas{{color id=\"65535\"}}?\n{{anim id=\"35\"}}Eso sí, no sé si el cuadro es un\noriginal o una copia.{{delay frames=\"8\"}} El que avisa\nno es traidor.{{fun_0008000D arg=\"0x02CD\"}}{{fun_00050008 arg=\"0x0500150004002800\"}}\n¡Me lo quedo!\nNo me fío..."
  },
  {
    "label": "002",
    "text": "¿Te cuento un secreto,{{delay frames=\"8\"}} {{fun_00080005 arg=\"\"}}?{{pageBreak}}{{anim id=\"9\"}}No lo puedo evitar,{{delay frames=\"8\"}} en cuanto veo\n{{fun_0002000E arg=\"\"}}{{fun_00030011 arg=\"0x0100\"}},{{delay frames=\"8\"}} {{anim id=\"36\"}}tengo\nque comprarl{{fun_0008000E arg=\"0x01CD02006F00020061000000\"}}. ¡Es mi perdición!\n{{anim id=\"1\"}}Lo sé,{{delay frames=\"8\"}} soy un comprador tirando a\ncompulsivo.{{delay frames=\"12\"}} Nunca dejo pasar\nalgo si creo que merece la pena.{{fun_0000000A arg=\"0x020B001100CD\"}}"
  },
  {
    "label": "003",
    "text": "{{anim id=\"37\"}}El otro día me entró un pronto\ny me compré {{fun_0002000E arg=\"\"}}\n{{fun_00030011 arg=\"0x0100\"}}{{delay frames=\"8\"}}.{{delay frames=\"8\"}}.{{delay frames=\"8\"}}.{{pageBreak}}{{anim id=\"9\"}}Pero la verdad es que no me acaba\nde convencer y estoy tratando\nde deshacerme de {{fun_0008000E arg=\"0x01CD0400E9006C00080065006C006C0061000000\"}}.\n{{fun_000D0007 arg=\"\"}}{{anim id=\"1\"}}¿Te interesa? Podría ser tuy{{fun_0008000E arg=\"0x01CD02006F00020061000000\"}} por\n{{delay frames=\"20\"}}{{color id=\"2\"}}{{fun_00090004 arg=\"0x0100\"}} bayas{{color id=\"65535\"}}.{{fun_0008000D arg=\"0x02CD\"}}{{fun_00050008 arg=\"0x0F0015000E002800\"}}\n¡Compro!\nNo me interesa"
  },
  {
    "label": "004",
    "text": "{{anim id=\"36\"}}Ya veo{{delay frames=\"8\"}}.{{delay frames=\"8\"}}.{{delay frames=\"8\"}}.{{delay frames=\"8\"}} Sí,{{delay frames=\"8\"}} eso es lo que le tenía\n{{anim id=\"27\"}}que haber dicho yo al zorro ese.{{pageBreak}}{{anim id=\"1\"}}Bueno, {{delay frames=\"12\"}}voy a ver si encuentro otro\nperdedor{{delay frames=\"8\"}}.{{delay frames=\"8\"}}.{{delay frames=\"8\"}}.{{delay frames=\"8\"}} {{anim id=\"16\"}}digo{{delay frames=\"8\"}}.{{delay frames=\"8\"}}.{{delay frames=\"8\"}}.{{delay frames=\"8\"}} {{anim id=\"28\"}}comprador."
  },
  {
    "label": "005",
    "text": "{{fun_0000000A arg=\"0x0406000700CD\"}}"
  },
  {
    "label": "006",
    "text": "{{fun_00060009 arg=\"0x07000700070007000700070007000800\"}}"
  },
  {
    "label": "007",
    "text": "{{anim id=\"16\"}}¡Ajá!{{delay frames=\"8\"}} ¿En...{{delay frames=\"20\"}} serio?{{anim id=\"1\"}} ¡Sabía que\nte tenía que preguntar a ti!{{fun_00010007 arg=\"\"}}\n¡Muy bien, {{delay frames=\"8\"}}trato hecho!"
  },
  {
    "label": "008",
    "text": "{{anim id=\"16\"}}¡Ajá!{{delay frames=\"8\"}} ¿De...{{delay frames=\"30\"}} verdad?{{anim id=\"1\"}} Tú nunca dices\nno a un amigo,{{delay frames=\"8\"}} ¿eh? ¡Genial!{{pageBreak}}{{anim id=\"33\"}}¿Sabes qué?{{delay frames=\"30\"}} {{anim id=\"1\"}}Como me has alegrado\nel día,{{delay frames=\"8\"}} te lo voy a dar totalmente\ngratis. En serio,{{delay frames=\"8\"}} por la patilla,{{delay frames=\"15\"}}\nsin letra pequeña.{{delay frames=\"8\"}} ¡Aquí tienes!"
  },
  {
    "label": "009",
    "text": "{{anim id=\"1\"}}¡Uuuooh! ¡Viva la amistad,\n{{delay frames=\"20\"}}{{fun_00070005 arg=\"\"}}!"
  },
  {
    "label": "010",
    "text": "{{anim id=\"1\"}}¡Gracias! {{delay frames=\"8\"}}Me sacas de un apuro,\n{{delay frames=\"20\"}}{{fun_00070005 arg=\"\"}}."
  },
  {
    "label": "011",
    "text": "{{fun_00060009 arg=\"0x0C000C000C000C000C000C000C000D00\"}}"
  },
  {
    "label": "012",
    "text": "{{anim id=\"11\"}}Sin embargo, {{delay frames=\"8\"}}no tiene sentido tener\nun montón de cosas repes. {{anim id=\"0\"}}Por eso\nte voy a hacer una oferta.\n{{fun_000D0007 arg=\"\"}}{{anim id=\"1\"}}En las tiendas te costaría {{fun_00090004 arg=\"0x0400\"}}\nbayas, pero por ser tú, te pediré\nsolo {{color id=\"2\"}}{{fun_00090004 arg=\"0x0100\"}}{{color id=\"65535\"}}. ¿Qué me dices?{{fun_0008000D arg=\"0x02CD\"}}{{fun_00050008 arg=\"0x0F0015000E002800\"}}\nSuena bien\nNo, gracias"
  },
  {
    "label": "013",
    "text": "{{anim id=\"11\"}}Aun así, {{delay frames=\"8\"}}no tiene sentido tener\nun montón de cosas repes.{{pageBreak}}{{fun_000D0007 arg=\"\"}}{{anim id=\"1\"}}Si te interesa, estaría dispuesto\na aceptar {{anim id=\"32\"}}{{delay frames=\"8\"}}{{color id=\"2\"}}{{fun_00090004 arg=\"0x0200\"}} bayas{{color id=\"65535\"}} a cambio.\n¿A que es un chollo?{{fun_0008000D arg=\"0x02CD\"}}{{fun_00050008 arg=\"0x0F0015000E002800\"}}\nEfectivamente\nNo me interesa"
  },
  {
    "label": "014",
    "text": "{{anim id=\"9\"}}Ni por esas, ¿eh? {{anim id=\"0\"}}De acuerdo.\n{{delay frames=\"8\"}}{{anim id=\"1\"}}Gracias de todas formas,\n{{delay frames=\"20\"}}{{fun_00070005 arg=\"\"}}."
  },
  {
    "label": "015",
    "text": "{{anim id=\"38\"}}¡Así me gusta!{{delay frames=\"20\"}} {{anim id=\"1\"}}¡Sabía que podía\ncontar contigo!{{fun_00010007 arg=\"\"}}\nPues nada, {{delay frames=\"8\"}}¡aquí tienes!"
  },
  {
    "label": "016",
    "text": "{{anim id=\"1\"}}La próxima vez que se me\npresente algo así, serás {{fun_0006000E arg=\"0x140065006C0020007000720069006D00650072006F0014006C00610020007000720069006D00650072006100\"}}\nen enterarte, {{delay frames=\"10\"}}{{fun_00070005 arg=\"\"}}."
  },
  {
    "label": "017",
    "text": "{{fun_00060009 arg=\"0x12001200120012001200120012001300\"}}"
  },
  {
    "label": "018",
    "text": "{{anim id=\"40\"}}Sin embargo, {{delay frames=\"8\"}}no tiene sentido tener\ncosas repetidas. Por eso te voy\na ofrecer un trato.\n{{fun_000D0007 arg=\"\"}}{{anim id=\"1\"}}Podría decirle adiós por\n{{color id=\"2\"}}{{fun_00090004 arg=\"0x0000\"}} bayas{{color id=\"65535\"}}.{{delay frames=\"15\"}} ¿Qué me dices?{{fun_0008000D arg=\"0x02CD\"}}{{fun_00050008 arg=\"0x0F0015000E002800\"}}\nSuena bien\nNo, gracias"
  },
  {
    "label": "019",
    "text": "{{anim id=\"11\"}}Sigo sin verle sentido {{delay frames=\"8\"}}a tener un\nmontón de cosas iguales, así que\nhe decidido aligerarme de trastos.{{delay frames=\"8\"}}.{{delay frames=\"8\"}}.{{delay frames=\"8\"}}\n{{fun_000D0007 arg=\"\"}}{{anim id=\"1\"}}¿Te interesaría por{{delay frames=\"20\"}} {{color id=\"2\"}}{{fun_00090004 arg=\"0x0300\"}} bayas{{color id=\"65535\"}}?{{fun_0008000D arg=\"0x02CD\"}}{{fun_00050008 arg=\"0x1400150015002800\"}}\nEstoy tentad{{fun_0006000E arg=\"0x02006F0002006100\"}}...\nNi en sueños"
  },
  {
    "label": "020",
    "text": "{{anim id=\"16\"}}¡Ah!{{delay frames=\"8\"}} ¿En serio?{{delay frames=\"15\"}}{{anim id=\"1\"}} ¡Genial!{{fun_00010007 arg=\"\"}}\nMuy bien, {{delay frames=\"8\"}}¡aquí tienes!"
  },
  {
    "label": "021",
    "text": "{{anim id=\"36\"}}Así que ni por esas, ¿eh?{{delay frames=\"20\"}}{{anim id=\"1\"}} Ya sabía\nyo que iba a ser difícil de vender.{{delay frames=\"20\"}}\n{{anim id=\"2\"}}¡Ja, ja, ja!{{delay frames=\"30\"}}{{anim id=\"1\"}}"
  }
]