﻿[
  {
    "label": "001",
    "text": "Siempre que paso por la puerta del\nmuseo,{{delay frames=\"8\"}} acabo entrando.{{delay frames=\"15\"}}{{anim id=\"28\"}} Me conozco\nhasta las baldosas."
  },
  {
    "label": "002",
    "text": "De pequeño,{{delay frames=\"8\"}}{{anim id=\"21\"}} mis padres me llevaban\nal museo a menudo. Por eso me\ngusta tanto el arte.\nMi hermano, sin embargo, siempre\ntenía alguna{{anim id=\"40\"}}{{delay frames=\"8\"}} excusa para no venir.{{pageBreak}}{{anim id=\"37\"}}Por eso ahora sabe cero patatero\nsobre arte."
  },
  {
    "label": "003",
    "text": "{{anim id=\"37\"}}Me gusta poder tomarme mi tiempo\npara ver las cosas aquí sin que haya\nseñoras mayores que me empujen."
  },
  {
    "label": "004",
    "text": "{{anim id=\"37\"}}No aguanto a los que van de\nentendidos en arte y luego\nno tienen ni repajolera idea.{{pageBreak}}Me entran ganas de gritarles:{{anim id=\"6\"}}{{delay frames=\"15\"}}\n\"¡Si no sabes de lo que estás\nhablando, calla la bocaza!\"."
  },
  {
    "label": "005",
    "text": "{{anim id=\"1\"}}Si te tomas tu tiempo para\nentenderlo,{{delay frames=\"15\"}} ¡el arte puede llegar\na ser muy divertido!"
  }
]