﻿[
  {
    "label": "001",
    "text": "{{anim id=\"11\"}}A veces pienso que me hacen falta\ntodos estos trastos,{{delay frames=\"15\"}} y otras veces\nparece que no necesito ninguno{{delay frames=\"8\"}}.{{delay frames=\"8\"}}.{{delay frames=\"8\"}}.\n{{anim id=\"0\"}}Pero cuando logro superar\nla confusión,{{delay frames=\"8\"}} ¡esta tienda es\nun paraíso!"
  },
  {
    "label": "002",
    "text": "Me acaba de entrar un deseo\nirrefrenable de comprarlo.{{pageBreak}}{{anim id=\"13\"}}¡Pero ya tengo en casa cinco\ndestornilladores como mínimo!"
  },
  {
    "label": "003",
    "text": "{{anim id=\"15\"}}¡Resistirse no tiene sentido!{{delay frames=\"20\"}}\n{{anim id=\"9\"}}La tienda de bricolaje me atrae\ncomo la miel a las moscas{{delay frames=\"8\"}}.{{delay frames=\"8\"}}.{{delay frames=\"8\"}}."
  },
  {
    "label": "004",
    "text": "Cada vez que me paso por\nla tienda de bricolaje{{delay frames=\"15\"}} acabo\nperdiendo la noción del tiempo."
  },
  {
    "label": "005",
    "text": "¿Sabes si por un casual\nvenden aquí palés?{{delay frames=\"8\"}}.{{delay frames=\"8\"}}.{{delay frames=\"8\"}}.{{delay frames=\"8\"}}"
  }
]