﻿[
  {
    "label": "001",
    "text": "{{anim id=\"9\"}}¿Pero{{delay frames=\"8\"}}.{{delay frames=\"8\"}}.{{delay frames=\"8\"}}.{{delay frames=\"8\"}} qué haces aquí?{{delay frames=\"30\"}}\n{{anim id=\"6\"}}¡Corre a buscar al resto!{{pageBreak}}{{anim id=\"36\"}}Como no te des prisa,{{delay frames=\"8\"}}\nvas a perder el juego."
  },
  {
    "label": "002",
    "text": "{{anim id=\"36\"}}A mí me has encontrado,\npero no te confíes.{{pageBreak}}{{anim id=\"6\"}}¡El juego no se acaba mientras\nno aparezca hasta el último mono!{{pageBreak}}{{anim id=\"36\"}}Bueno,{{delay frames=\"8\"}} mono{{delay frames=\"8\"}}.{{delay frames=\"8\"}}.{{delay frames=\"8\"}}.{{delay frames=\"8\"}} Es un decir."
  },
  {
    "label": "003",
    "text": "{{anim id=\"13\"}}Pero venga,{{delay frames=\"8\"}} que todavía no nos\nhas encontrado a todos.{{pageBreak}}{{anim id=\"36\"}}El tiempo sigue corriendo, ¿sabes?{{delay frames=\"20\"}}\n¡Date prisa!"
  },
  {
    "label": "004",
    "text": "{{anim id=\"1\"}}Vaya,{{delay frames=\"8\"}} {{fun_00080005 arg=\"\"}},{{delay frames=\"8\"}} se te ha acabado\nel tiempo.{{delay frames=\"8\"}}{{pageBreak}}{{anim id=\"36\"}}Lo siento por ti, ¿eh?{{delay frames=\"20\"}}\nAunque la buena noticia{{delay frames=\"8\"}}.{{delay frames=\"8\"}}.{{delay frames=\"8\"}}.{{delay frames=\"15\"}}\n¡es que gano yo,{{delay frames=\"8\"}} {{fun_00070005 arg=\"\"}}!"
  }
]