﻿[
  {
    "label": "001",
    "text": "{{fun_00000009 arg=\"0x03000400\"}}"
  },
  {
    "label": "002",
    "text": "{{fun_00000009 arg=\"0x05000600\"}}"
  },
  {
    "label": "003",
    "text": "{{anim id=\"6\"}}¡No pasa nada!{{delay frames=\"8\"}} Aún no nos\nhas encontrado a todos...{{fun_00010007 arg=\"\"}}\n{{anim id=\"36\"}}Buena suerte, je."
  },
  {
    "label": "004",
    "text": "{{anim id=\"6\"}}¡Pero todavía te falta alguien!{{fun_00010007 arg=\"\"}}\n{{anim id=\"36\"}}No te has ganado el descanso\ntodavía, je."
  },
  {
    "label": "005",
    "text": "{{anim id=\"6\"}}Sabes que todavía te quedan dos\nmás por encontrar,{{delay frames=\"8\"}} ¿verdad?{{pageBreak}}{{anim id=\"36\"}}Y aunque me hayas encontrado a mí,{{delay frames=\"8\"}}\nno ganarás ni pipas si no encuentras\na todo el mundo,{{delay frames=\"12\"}} {{fun_00070005 arg=\"\"}}."
  },
  {
    "label": "006",
    "text": "{{anim id=\"1\"}}Pero todavía quedamos dos,\n¿verdad?{{delay frames=\"20\"}} Bueno, quedan.{{pageBreak}}{{anim id=\"36\"}}He sido el primero en caer,\nqué humillación, {{delay frames=\"8\"}}{{fun_00070005 arg=\"\"}}.{{pageBreak}}Espero que encuentres también\na mis compis en el tiempo que\nte queda{{delay frames=\"8\"}}.{{delay frames=\"8\"}}.{{delay frames=\"8\"}}."
  }
]