﻿[
  {
    "label": "001",
    "text": "Oye,{{delay frames=\"8\"}} {{fun_00000005 arg=\"\"}},{{delay frames=\"12\"}} {{anim id=\"9\"}}no te lo tomes a\nmal,{{delay frames=\"8\"}} pero tengo cosas en que pensar\ny necesito unos minutos.{{pageBreak}}{{anim id=\"37\"}}No puedo estar todo el día dándole\ncontigo a la sinhueso,{{delay frames=\"12\"}} {{fun_00070005 arg=\"\"}}.{{fun_0005000B arg=\"0x03CD\"}}"
  },
  {
    "label": "002",
    "text": "{{anim id=\"37\"}}Comprendo que te quieras pasar\nel día entero de cháchara con un tío\ntan inteligente como yo{{delay frames=\"8\"}}.{{delay frames=\"8\"}}.{{delay frames=\"8\"}}.\n{{anim id=\"0\"}}Pero tengo cosas en que pensar\ny tal,{{delay frames=\"8\"}} ¿sabes?{{delay frames=\"20\"}} {{anim id=\"9\"}}Necesito unos\nminutos de paz.{{pageBreak}}{{anim id=\"37\"}}¡Luego hablamos!{{fun_0005000B arg=\"0x03CD\"}}"
  },
  {
    "label": "003",
    "text": "{{anim id=\"37\"}}Siempre es agradable charlar\ncontigo,{{delay frames=\"8\"}} {{anim id=\"9\"}}pero ahora tengo\notras cosas en la cabeza.\n{{anim id=\"37\"}}Hablamos en otro momento,{{delay frames=\"8\"}} ¿vale?{{fun_0005000B arg=\"0x03CD\"}}"
  }
]