﻿[
  {
    "label": "001",
    "text": "{{anim id=\"15\"}}{{delay frames=\"10\"}}¡Anda, {{fun_00080005 arg=\"\"}}!{{delay frames=\"20\"}} Hoy te estás\ntomando en serio eso de ser\n{{fun_0006000E arg=\"0x0E0061006C00630061006C0064006500120061006C00630061006C006400650073006100\"}},{{delay frames=\"8\"}} ¿eh,{{delay frames=\"8\"}} {{fun_00070005 arg=\"\"}}?\n{{anim id=\"1\"}}¡Pues en marcha!{{delay frames=\"20\"}} Si tienes trabajo,{{delay frames=\"8\"}}\nno te distraigas conmigo.{{delay frames=\"20\"}}\n¡Haz lo que tengas que hacer!"
  },
  {
    "label": "002",
    "text": "Buenas, {{fun_00080005 arg=\"\"}}.{{delay frames=\"20\"}}\n¿Qué hacéis,{{delay frames=\"8\"}} {{fun_00070005 arg=\"\"}}?\n¿Tareas de {{fun_0006000E arg=\"0x0E0061006C00630061006C0064006500120061006C00630061006C006400650073006100\"}}?\n{{anim id=\"1\"}}Debe de ser un trabajo duro.{{delay frames=\"20\"}}\n¡Ánimo!"
  },
  {
    "label": "003",
    "text": "{{i10_8 arg=\"0x01000200040005000500060006000700\"}}"
  },
  {
    "label": "004",
    "text": "{{anim id=\"15\"}}{{delay frames=\"10\"}}¡{{fun_0003000E arg=\"\"}}{{fun_00080005 arg=\"\"}},{{delay frames=\"8\"}} buenas!{{delay frames=\"20\"}}\n{{anim id=\"1\"}}¿Dando vueltas con este tiempo?{{delay frames=\"20\"}}\n¿Tanto trabajo hay?\nMás vale que terminéis antes de\nque se líe a llover,{{delay frames=\"8\"}} {{fun_00070005 arg=\"\"}}."
  },
  {
    "label": "005",
    "text": "{{anim id=\"15\"}}{{delay frames=\"10\"}}¡Pero bueno, {{fun_00080005 arg=\"\"}}!{{delay frames=\"20\"}}\n¿Estáis trabajando?{{delay frames=\"20\"}}\n{{anim id=\"23\"}}¿Con la que está cayendo?\n{{anim id=\"1\"}}¡Qué dedicación!{{pageBreak}}{{anim id=\"36\"}}Pues no vas a disfrutar de los\nresultados si acabas en cama\ncon gripe.{{delay frames=\"20\"}} {{anim id=\"37\"}}¡Cuídate,{{delay frames=\"8\"}} {{fun_00070005 arg=\"\"}}!"
  },
  {
    "label": "006",
    "text": "{{anim id=\"15\"}}{{delay frames=\"10\"}}¡Buenas, {{fun_00080005 arg=\"\"}}!{{delay frames=\"20\"}}\n{{anim id=\"1\"}}Veo que ni el frío puede contigo.{{pageBreak}}Pero igual pueden los virus{{delay frames=\"5\"}}.{{delay frames=\"5\"}}.{{delay frames=\"5\"}}.{{delay frames=\"5\"}}\n¡No te vayas a resfriar!{{delay frames=\"20\"}}\n¡{{fun_0003000E arg=\"\"}}{{fun_00070005 arg=\"\"}}!"
  },
  {
    "label": "007",
    "text": "{{anim id=\"15\"}}{{delay frames=\"10\"}}¡Pero {{fun_0006000E arg=\"0x0C0068006F006D006200720065000A006D0075006A0065007200\"}}!{{delay frames=\"20\"}}\n{{anim id=\"23\"}}¿Qué haces trabajando con el día\ntan bonico que hace,{{delay frames=\"8\"}} {{fun_00080005 arg=\"\"}}?\n{{anim id=\"1\"}}Tomaos un descanso luego para\nhacer un pícnic o echar una siesta\no algo,{{delay frames=\"8\"}} {{fun_00070005 arg=\"\"}}."
  }
]