﻿[
  {
    "label": "001",
    "text": "{{anim id=\"1\"}}Ayer fue el Día de la Marmota.{{delay frames=\"10\"}}\nSe me ha pasado rapidísimo.{{pageBreak}}{{anim id=\"5\"}}¡Espero que el año que viene sea\nigual de divertido!"
  },
  {
    "label": "002",
    "text": "{{anim id=\"1\"}}Estoy segura de que nos espera una\nprimavera espléndida después del\nDía de la Marmota."
  },
  {
    "label": "003",
    "text": "{{anim id=\"5\"}}¡Los cambios de estación siempre\nme llenan de emoción!"
  },
  {
    "label": "004",
    "text": "{{anim id=\"1\"}}La primavera ya está al caer en\n{{fun_0003000E arg=\"\"}}{{fun_00050005 arg=\"\"}}.{{delay frames=\"8\"}} Espero que disfrutes\nde tu visita en esta época."
  },
  {
    "label": "005",
    "text": "La primavera se resiste a llegar a\n{{fun_0003000E arg=\"\"}}{{fun_00050005 arg=\"\"}}.{{delay frames=\"15\"}} Disfruta de tu visita\naunque haga un poco de fresco."
  },
  {
    "label": "006",
    "text": "{{anim id=\"1\"}}Espero que te lo pases en grande\njugando con todos los habitantes\ndel pueblo.{{anim id=\"38\"}}"
  },
  {
    "label": "007",
    "text": ""
  },
  {
    "label": "008",
    "text": ""
  },
  {
    "label": "009",
    "text": ""
  },
  {
    "label": "010",
    "text": ""
  },
  {
    "label": "011",
    "text": "{{anim id=\"16\"}}¡Vaya,{{delay frames=\"20\"}} {{anim id=\"1\"}}menudo viajecito te has\nmarcado!{{delay frames=\"10\"}} Gracias por unirte a\nnuestra celebración.\n{{anim id=\"37\"}}Hoy se hace la predicción sobre\ncuándo llegará la primavera.\n¡Por fin es el {{color id=\"2\"}}Día de la Marmota{{color id=\"65535\"}}!"
  },
  {
    "label": "012",
    "text": "{{anim id=\"1\"}}Ya que has venido de tan lejos,{{delay frames=\"10\"}}\nespero que disfrutes del Día de la\nMarmota al estilo de {{fun_0003000E arg=\"\"}}{{fun_00050005 arg=\"\"}}."
  },
  {
    "label": "013",
    "text": "{{anim id=\"1\"}}He preparado una sorpresita para\ncelebrar el Día de la Marmota.{{pageBreak}}{{anim id=\"37\"}}Pásate cuando hayas hecho algo\nde hueco en los bolsillos."
  },
  {
    "label": "014",
    "text": "{{anim id=\"1\"}}He preparado una sorpresita para\ncelebrar el Día de la Marmota.{{delay frames=\"10\"}}\n{{anim id=\"38\"}}¿Quieres ver de qué se trata?"
  },
  {
    "label": "015",
    "text": "{{anim id=\"1\"}}¡Es un {{color id=\"2\"}}mini Rese T. Ado{{color id=\"65535\"}}!{{fun_00010007 arg=\"\"}}\n¿Acaso no es la mejor manera de\ncelebrar el Día de la Marmota?"
  },
  {
    "label": "016",
    "text": "{{anim id=\"16\"}}¡Oye!{{delay frames=\"20\"}} {{anim id=\"1\"}}Si quieres un regalo del\n{{color id=\"2\"}}Día de la Marmota{{color id=\"65535\"}},{{delay frames=\"10\"}} que sepas que\nyo me encargo de repartirlos.\n{{anim id=\"37\"}}Eso sí, primero tienes que vaciar\nun poco los bolsillos."
  },
  {
    "label": "017",
    "text": "{{anim id=\"16\"}}¡Caramba!{{delay frames=\"20\"}} {{anim id=\"37\"}}¿Aún no te he dado un\nregalo del Día de la Marmota?\n{{anim id=\"38\"}}Pues aquí lo tienes, faltaría más."
  },
  {
    "label": "018",
    "text": ""
  },
  {
    "label": "019",
    "text": ""
  },
  {
    "label": "020",
    "text": ""
  },
  {
    "label": "021",
    "text": "{{anim id=\"1\"}}Hola, {{fun_00000005 arg=\"\"}}.{{delay frames=\"30\"}} Hoy intentaremos\nadivinar cuándo será primavera en\n{{fun_0003000E arg=\"\"}}{{fun_00050005 arg=\"\"}}.{{delay frames=\"15\"}} ¡El {{color id=\"2\"}}Día de la Marmota{{color id=\"65535\"}}!"
  },
  {
    "label": "022",
    "text": "{{anim id=\"1\"}}Espero que la primavera no se haga\nmucho de rogar."
  },
  {
    "label": "023",
    "text": "{{anim id=\"1\"}}Tengo preparada una cosita para\ncelebrar el Día de la Marmota.{{delay frames=\"10\"}}\n{{anim id=\"38\"}}¿Quieres verla?"
  },
  {
    "label": "024",
    "text": "{{anim id=\"1\"}}¡Es un {{color id=\"2\"}}mini Rese T. Ado{{color id=\"65535\"}}!{{fun_00010007 arg=\"\"}}\n¿Acaso no es la mejor manera de\ncelebrar el Día de la Marmota?"
  },
  {
    "label": "025",
    "text": "{{anim id=\"1\"}}¡Alcald{{fun_0006000E arg=\"0x020065000600650073006100\"}}!{{delay frames=\"20\"}} Hoy toca adivinar\ncuándo llegará la primavera.{{delay frames=\"15\"}}"
  },
  {
    "label": "026",
    "text": "{{anim id=\"1\"}}Hace un día perfecto para dar un\npaseo mientras uno intenta adivinar\ncuándo llegará la primavera."
  },
  {
    "label": "027",
    "text": "{{anim id=\"1\"}}Tengo preparada una cosita para\ncelebrar el Día de la Marmota.{{pageBreak}}{{anim id=\"37\"}}Pásate cuando hayas hecho algo\nde hueco en los bolsillos."
  },
  {
    "label": "028",
    "text": "{{anim id=\"1\"}}¡Por eso he preparado una cosita\npara celebrar este día como está\nmandado!"
  },
  {
    "label": "029",
    "text": "{{anim id=\"1\"}}¡Es un {{color id=\"2\"}}mini Rese T. Ado{{color id=\"65535\"}}!{{fun_00010007 arg=\"\"}} Llévatelo\ncomo recuerdo de nuestro pueblo\ny de este día tan estupendo."
  },
  {
    "label": "030",
    "text": ""
  },
  {
    "label": "031",
    "text": "{{anim id=\"1\"}}Aunque todavía queda para que sea\nprimavera,{{delay frames=\"15\"}} si cierras los ojos y\nprestas mucha atención...{{delay frames=\"8\"}}\npuedes oír el sonido de los pasos\nque da una nueva estación que ya\nestá en camino."
  },
  {
    "label": "032",
    "text": "{{anim id=\"1\"}}Alcald{{fun_0006000E arg=\"0x020065000600650073006100\"}},{{delay frames=\"10\"}} me parece que todos los\nhabitantes del pueblo se lo han\npasado hoy en grande.{{pageBreak}}{{anim id=\"3\"}}¡Seguro que {{fun_0003000E arg=\"\"}}{{fun_00050005 arg=\"\"}} está\nprecioso cuando llegue la primavera!{{delay frames=\"8\"}}{{anim id=\"37\"}}"
  },
  {
    "label": "033",
    "text": "{{anim id=\"1\"}}Espero que todo el mundo disfrute\nde este Día de la Marmota."
  },
  {
    "label": "034",
    "text": "{{anim id=\"37\"}}No me hagas mucho caso,{{delay frames=\"8\"}}\npero tengo entendido que hoy\ntambién es el Día del Topo.\nEs el día en que los topos, al igual\nque las marmotas, predicen la\nllegada de la primavera o algo así.{{pageBreak}}{{anim id=\"21\"}}Por lo visto los topos saben cuándo\nse va a acabar el invierno.{{pageBreak}}{{anim id=\"11\"}}Me pregunto si en verdad los topos\ntienen ese tipo de habilidad{{delay frames=\"10\"}}.{{delay frames=\"10\"}}.{{delay frames=\"10\"}}.{{delay frames=\"10\"}}{{pageBreak}}{{anim id=\"1\"}}¡Yo pensaba que veían el pronóstico\ndel tiempo en la tele, como todo\nhijo de vecino!"
  },
  {
    "label": "035",
    "text": "{{anim id=\"1\"}}Espero que la primavera no tarde\nen llegar a {{fun_0003000E arg=\"\"}}{{fun_00050005 arg=\"\"}}."
  }
]