﻿[
  {
    "label": "001",
    "text": "¡En este tour es más importante\ntener maña que fuerza!{{pageBreak}}El objetivo es {{color id=\"2\"}}pescar {{color id=\"65535\"}}el mayor\nnúmero de peces en {{color id=\"2\"}}{{fun_00070004 arg=\"0x0500\"}} minutos{{color id=\"65535\"}}."
  },
  {
    "label": "002",
    "text": "Pero hagámoslo más interesante.{{delay frames=\"20\"}}\nSi pescas,{{delay frames=\"20\"}} digamos,{{delay frames=\"20\"}} {{color id=\"2\"}}{{fun_00070004 arg=\"0x0600\"}} {{color id=\"65535\"}}{{color id=\"2\"}}o más{{color id=\"65535\"}},{{delay frames=\"20\"}}\n¡te daré unas medallitas!"
  },
  {
    "label": "003",
    "text": "Si podéis pescar {{color id=\"2\"}}{{fun_00070004 arg=\"0x0600\"}} o más {{color id=\"65535\"}}antes\nde que se acabe el tiempo,{{delay frames=\"10\"}} ¡os\nganaréis unas cuantas medallas!"
  },
  {
    "label": "004",
    "text": "Si entre todos conseguís pescar\n{{color id=\"2\"}}{{fun_00070004 arg=\"0x0600\"}} o más{{color id=\"65535\"}},{{delay frames=\"10\"}} ¡os llevaréis unas\ncuantas medallas!"
  },
  {
    "label": "005",
    "text": ""
  },
  {
    "label": "006",
    "text": "He oído que a los jóvenes os gusta\nmucho eso de \"tirar la caña\"...{{delay frames=\"20\"}}\n¡Pues en eso consiste este tour!{{pageBreak}}En tirar la caña... ¡a los peces!{{delay frames=\"20\"}}\nEl objetivo es {{color id=\"2\"}}pescar {{color id=\"65535\"}}muchos\npeces valiosos en {{color id=\"2\"}}{{fun_00070004 arg=\"0x0500\"}} minutos{{color id=\"65535\"}}."
  },
  {
    "label": "007",
    "text": "Si el valor de lo que has pescado\nsuma un total de {{color id=\"2\"}}{{fun_000B0004 arg=\"0x0600\"}} bayas{{color id=\"65535\"}},{{delay frames=\"10\"}}\n¡te recompensaré con medallas!"
  },
  {
    "label": "008",
    "text": "Si el valor de lo que pesquéis suma\nun total de {{color id=\"2\"}}{{fun_000B0004 arg=\"0x0600\"}} bayas{{color id=\"65535\"}},{{delay frames=\"10\"}}\n¡os recompensaré con medallas!"
  },
  {
    "label": "009",
    "text": "Si el valor de lo que pesquéis suma\nun total de {{color id=\"2\"}}{{fun_000B0004 arg=\"0x0600\"}} bayas{{color id=\"65535\"}},{{delay frames=\"10\"}}\n¡os recompensaré con medallas!"
  },
  {
    "label": "010",
    "text": ""
  },
  {
    "label": "011",
    "text": "Si logras pescar {{color id=\"2\"}}{{fun_00070004 arg=\"0x0600\"}} peces {{color id=\"65535\"}}en\n{{color id=\"2\"}}{{fun_00070004 arg=\"0x0500\"}} minutos{{color id=\"65535\"}},{{delay frames=\"10\"}} ¡te habrás ganado\nunas cuantas medallas, renacuaj{{fun_0006000E arg=\"0x02006F0002006100\"}}!"
  },
  {
    "label": "012",
    "text": "Si lográis pescar {{color id=\"2\"}}{{fun_00070004 arg=\"0x0600\"}} peces {{color id=\"65535\"}}en\n{{color id=\"2\"}}{{fun_00070004 arg=\"0x0500\"}} minutos{{color id=\"65535\"}},{{delay frames=\"10\"}} ¡ganaréis unas cuantas\nmedallas, granujillas!"
  },
  {
    "label": "013",
    "text": "Si lográis pescar {{color id=\"2\"}}{{fun_00070004 arg=\"0x0600\"}} peces {{color id=\"65535\"}}en\n{{color id=\"2\"}}{{fun_00070004 arg=\"0x0500\"}} minutos{{color id=\"65535\"}},{{delay frames=\"10\"}} ¡ganaréis unas cuantas\nmedallas, granujillas!"
  },
  {
    "label": "014",
    "text": ""
  },
  {
    "label": "015",
    "text": ""
  },
  {
    "label": "016",
    "text": ""
  },
  {
    "label": "017",
    "text": ""
  },
  {
    "label": "018",
    "text": ""
  },
  {
    "label": "019",
    "text": "Así me gusta, con la {{color id=\"2\"}}caña {{color id=\"65535\"}}en mano.\nYa está todo listo para empezar."
  },
  {
    "label": "021",
    "text": "¡Intenta pescar por lo menos{{delay frames=\"5\"}}\n{{color id=\"2\"}}{{fun_00070004 arg=\"0x0600\"}} peces{{color id=\"65535\"}}! ¡Ánimo, niñ{{fun_0006000E arg=\"0x02006F0002006100\"}}!"
  },
  {
    "label": "022",
    "text": "¡Intentad pescar por lo menos{{delay frames=\"5\"}}\n{{color id=\"2\"}}{{fun_00070004 arg=\"0x0600\"}} peces{{color id=\"65535\"}}, pareja!"
  },
  {
    "label": "023",
    "text": "¡Intentad pescar por lo menos{{delay frames=\"5\"}}\n{{color id=\"2\"}}{{fun_00070004 arg=\"0x0600\"}} peces{{color id=\"65535\"}} entre todos!"
  },
  {
    "label": "024",
    "text": ""
  },
  {
    "label": "025",
    "text": "¡Pesca todo lo que puedas para\nsumar un total de al menos\n{{color id=\"2\"}}{{fun_000B0004 arg=\"0x0600\"}} bayas{{color id=\"65535\"}}!"
  },
  {
    "label": "026",
    "text": "¡Pescad todo lo que podáis para\nsumar un total de al menos{{color id=\"2\"}}\n{{fun_000B0004 arg=\"0x0600\"}} bayas{{color id=\"65535\"}}!"
  },
  {
    "label": "027",
    "text": "¡Pescad todo lo que podáis para\nsumar un total de al menos{{color id=\"2\"}}\n{{fun_000B0004 arg=\"0x0600\"}} bayas{{color id=\"65535\"}}!"
  },
  {
    "label": "028",
    "text": ""
  },
  {
    "label": "029",
    "text": "¡No te despistes e intenta pescar\nal menos {{color id=\"2\"}}{{fun_00070004 arg=\"0x0600\"}} peces{{color id=\"65535\"}} antes de que\nse acabe el tiempo!"
  },
  {
    "label": "030",
    "text": "¡No os despistéis e intentad pescar\nal menos {{color id=\"2\"}}{{fun_00070004 arg=\"0x0600\"}} peces{{color id=\"65535\"}} antes de que\nse acabe el tiempo!"
  },
  {
    "label": "031",
    "text": "¡No os despistéis e intentad pescar\nal menos {{color id=\"2\"}}{{fun_00070004 arg=\"0x0600\"}} peces{{color id=\"65535\"}} antes de que\nse acabe el tiempo!"
  },
  {
    "label": "032",
    "text": ""
  },
  {
    "label": "033",
    "text": "¡Muy bien! {{delay frames=\"10\"}}¡Pero que no pare la\ncosa!{{delay frames=\"10\"}} Habrá más medallas si\nse supera el récord actual."
  },
  {
    "label": "034",
    "text": ""
  },
  {
    "label": "035",
    "text": ""
  },
  {
    "label": "036",
    "text": ""
  },
  {
    "label": "037",
    "text": "¡Muy bien! {{delay frames=\"10\"}}¡Pero que no pare la\ncosa!{{delay frames=\"10\"}} Habrá más medallas si\nse supera el récord actual."
  },
  {
    "label": "038",
    "text": ""
  },
  {
    "label": "039",
    "text": ""
  },
  {
    "label": "040",
    "text": ""
  },
  {
    "label": "041",
    "text": "¡Muy bien! {{delay frames=\"10\"}}¡Pero que no pare la\ncosa!{{delay frames=\"10\"}} Habrá más medallas si\nse supera el récord actual."
  },
  {
    "label": "042",
    "text": ""
  },
  {
    "label": "043",
    "text": ""
  },
  {
    "label": "044",
    "text": ""
  },
  {
    "label": "045",
    "text": ""
  },
  {
    "label": "046",
    "text": ""
  },
  {
    "label": "047",
    "text": ""
  },
  {
    "label": "048",
    "text": "En este tour nos preocupamos\npor el ecosistema de la isla.{{pageBreak}}Todos los peces que se pesquen\nserán devueltos al mar."
  },
  {
    "label": "049",
    "text": "Puedes llevarte todo lo que quieras\nde esta isla, pequeñaj{{fun_0006000E arg=\"0x02006F0002006100\"}}.\nExcepto los peces.{{pageBreak}}Si necesitas herramientas,{{delay frames=\"20\"}}\nhabla con el {{color id=\"4\"}}giroide {{color id=\"65535\"}}para que\nte preste alguna."
  },
  {
    "label": "051",
    "text": "{{anim id=\"11\"}}A ver cómo ha ido la pesca{{delay frames=\"5\"}}.{{delay frames=\"5\"}}.{{delay frames=\"5\"}}.{{delay frames=\"60\"}}\n{{anim id=\"1\"}}¡Aquí hay {{color id=\"2\"}}{{fun_00070004 arg=\"0x0700\"}} {{fun_0009000E arg=\"0x07CD0A00700065006300650073000600700065007A000A0070006500630065007300\"}}{{color id=\"65535\"}}!"
  },
  {
    "label": "052",
    "text": "{{anim id=\"11\"}}A ver cómo ha ido la pesca{{delay frames=\"5\"}}.{{delay frames=\"5\"}}.{{delay frames=\"5\"}}.{{delay frames=\"60\"}}\n¡El valor total asciende\na {{color id=\"2\"}}{{fun_000B0004 arg=\"0x0700\"}} {{fun_0009000E arg=\"0x07CD0A0062006100790061007300080062006100790061000A0062006100790061007300\"}}{{color id=\"65535\"}}!"
  },
  {
    "label": "053",
    "text": "{{anim id=\"9\"}}¡Qué pena! Me temo que no es\nsuficiente.{{delay frames=\"20\"}} Esta vez no entregaré\nni una sola medalla.\n{{anim id=\"0\"}}¡Hasta la próxima!"
  },
  {
    "label": "054",
    "text": "{{anim id=\"1\"}}¡Conseguido! {{size value=\"75\"}}(Por los pelos...){{size value=\"100\"}}{{delay frames=\"15\"}}\n¡El premio {{fun_0009000E arg=\"0x00CD060073006F006E00040065007300060073006F006E00\"}}{{color id=\"2\"}} {{fun_00070004 arg=\"0x0000\"}} {{fun_0009000E arg=\"0x00CD10006D006500640061006C006C00610073000E006D006500640061006C006C00610010006D006500640061006C006C0061007300\"}}{{color id=\"65535\"}}!"
  },
  {
    "label": "055",
    "text": "{{anim id=\"21\"}}Bien hecho, sí señor{{delay frames=\"5\"}}.{{delay frames=\"5\"}}.{{delay frames=\"5\"}}.{{delay frames=\"10\"}}\n{{anim id=\"1\"}}¡Una actuación digna de un Tórtimer\nde bronce y de {{color id=\"2\"}}{{fun_00070004 arg=\"0x0000\"}} {{fun_0009000E arg=\"0x00CD10006D006500640061006C006C00610073000E006D006500640061006C006C00610010006D006500640061006C006C0061007300\"}}{{color id=\"65535\"}}!"
  },
  {
    "label": "056",
    "text": "{{anim id=\"38\"}}¡Fantástico! ¡Buena pesca!\n{{anim id=\"1\"}}Tal hazaña merece un Tórtimer\nde plata... ¡y {{color id=\"2\"}}{{fun_00070004 arg=\"0x0000\"}} {{fun_0009000E arg=\"0x00CD10006D006500640061006C006C00610073000E006D006500640061006C006C00610010006D006500640061006C006C0061007300\"}}{{color id=\"65535\"}}!"
  },
  {
    "label": "057",
    "text": "{{anim id=\"31\"}}¡Menuda demostración de maestría!{{delay frames=\"20\"}}\n{{anim id=\"1\"}}¡Sin duda es merecedora de un\nTórtimer de oro y de {{color id=\"2\"}}{{fun_00070004 arg=\"0x0000\"}} {{fun_0009000E arg=\"0x00CD10006D006500640061006C006C00610073000E006D006500640061006C006C00610010006D006500640061006C006C0061007300\"}}{{color id=\"65535\"}}!"
  },
  {
    "label": "058",
    "text": ""
  },
  {
    "label": "059",
    "text": ""
  },
  {
    "label": "060",
    "text": ""
  },
  {
    "label": "061",
    "text": ""
  },
  {
    "label": "062",
    "text": ""
  },
  {
    "label": "063",
    "text": ""
  },
  {
    "label": "064",
    "text": ""
  },
  {
    "label": "065",
    "text": ""
  },
  {
    "label": "066",
    "text": ""
  },
  {
    "label": "067",
    "text": ""
  },
  {
    "label": "068",
    "text": ""
  },
  {
    "label": "069",
    "text": ""
  },
  {
    "label": "070",
    "text": ""
  },
  {
    "label": "071",
    "text": ""
  },
  {
    "label": "072",
    "text": ""
  },
  {
    "label": "073",
    "text": ""
  },
  {
    "label": "074",
    "text": ""
  },
  {
    "label": "075",
    "text": ""
  },
  {
    "label": "076",
    "text": ""
  },
  {
    "label": "077",
    "text": ""
  },
  {
    "label": "078",
    "text": ""
  },
  {
    "label": "079",
    "text": ""
  },
  {
    "label": "081",
    "text": "¡La competición consiste en\npescar peces {{color id=\"2\"}}largos y finos{{color id=\"65535\"}}!\nComo {{color id=\"2\"}}anguilas {{color id=\"65535\"}}o{{delay frames=\"5\"}} {{color id=\"2\"}}morenas{{color id=\"65535\"}}."
  },
  {
    "label": "082",
    "text": "{{anim id=\"43\"}}Ah, {{delay frames=\"20\"}}las maravillas de los mares\ndel sur.{{fun_00010007 arg=\"\"}} {{anim id=\"1\"}}¡Es hora de pescar unos\ncuantos {{color id=\"2\"}}peces tropicales{{color id=\"65535\"}}!"
  },
  {
    "label": "083",
    "text": "Esta vez nos centraremos en\npescar algún {{color id=\"2\"}}fósil viviente{{color id=\"65535\"}},\n¿queda claro?{{pageBreak}}Sí,{{delay frames=\"20\"}} como el {{color id=\"2\"}}celacanto {{color id=\"65535\"}}o el {{color id=\"2\"}}pirarucú{{color id=\"65535\"}}.{{delay frames=\"20\"}}\n¡Aunque parezca mentira, esos\npeces tienen más años que yo!"
  },
  {
    "label": "084",
    "text": "A los jóvenes os gusta vivir al\nlímite, ¿verdad? Disfrutar de\nla intensidad del momento.{{pageBreak}}Pues en esta ocasión hay que\npescar peces carnívoros como\n{{color id=\"2\"}}tiburones {{color id=\"65535\"}}o {{color id=\"2\"}}pirañas{{color id=\"65535\"}}."
  },
  {
    "label": "085",
    "text": "{{anim id=\"28\"}}¡En este tour{{delay frames=\"30\"}} hay que\npescar {{color id=\"2\"}}atun{{color id=\"65535\"}}tún!{{delay frames=\"30\"}}\n{{anim id=\"2\"}}¡Juas!{{delay frames=\"30\"}} ¡Ja, ja! {{delay frames=\"30\"}}{{anim id=\"0\"}}Ja...\n{{anim id=\"31\"}}¿No?{{delay frames=\"15\"}} ¡Pescar {{color id=\"2\"}}atún{{color id=\"65535\"}}!{{delay frames=\"30\"}} ¡Al tuntún!{{fun_00010007 arg=\"\"}} \n{{anim id=\"12\"}}Los críos de hoy en día no tenéis\nsentido del humor."
  },
  {
    "label": "086",
    "text": "¡Esta prueba solo es apta para\nvalientes porque hay que pescar\n{{color id=\"2\"}}tiburones{{color id=\"65535\"}}!{{pageBreak}}En estas aguas viven desde {{color id=\"2\"}}peces\nmartillo {{color id=\"65535\"}}hasta {{color id=\"2\"}}tiburones ballena{{color id=\"65535\"}},\nasí que a por ellos."
  }
]