﻿[
  {
    "label": "001",
    "text": "Mmm{{delay frames=\"8\"}}.{{delay frames=\"8\"}}.{{delay frames=\"8\"}}.{{delay frames=\"20\"}} Qué sensación tan\nagradable.{{pageBreak}}Al fin siento en mi interior ese\nequilibrio que tanto buscaba{{delay frames=\"8\"}}.{{delay frames=\"8\"}}.{{delay frames=\"8\"}}.{{delay frames=\"20\"}}{{pageBreak}}¡La perfección hecha con nieve!{{fun_00010007 arg=\"\"}}\n¿Acaso estoy frente a u{{fun_0006000E arg=\"0x02006E0004006E006100\"}} gran\nesculto{{fun_0006000E arg=\"0x02007200040072006100\"}}?{{pageBreak}}Estoy en deuda contigo por\notorgarme este equilibrio perfecto. {{pageBreak}}Me gustaría agradecértelo\nde alguna forma, pero solo\nllevo encima un juego de bingo{{delay frames=\"8\"}}.{{delay frames=\"8\"}}.{{delay frames=\"8\"}}.{{pageBreak}}{{fun_000A0007 arg=\"\"}}¡Oye! ¡¿Y si jugamos al bingo?!"
  },
  {
    "label": "002",
    "text": "¡Fantástico! Un cuerpo robusto\ny una cabeza bien sujeta a los...\nhombros, supongo.{{pageBreak}}¡Has conseguido encontrar\nel equilibrio y la estabilidad\nperfectos!{{fun_00010007 arg=\"\"}} ¡Muchas gracias!{{pageBreak}}En serio, ¡qué maravilla!\nEs la perfección absoluta\nlo mires por donde lo mires.{{pageBreak}}No es mucho, pero para agradecerte\nesta figura tan excepcional, te invito\na una estimulante partida de bingo."
  },
  {
    "label": "003",
    "text": "{{fun_000A0007 arg=\"\"}}¡Bravo! {{delay frames=\"20\"}}{{fun_000A0007 arg=\"\"}}¡Espléndido!{{delay frames=\"40\"}} ¡Qué trabajo,\nqué habilidad! Pero ¡¿quién eres?!{{pageBreak}}Eres u{{fun_0006000E arg=\"0x02006E0004006E006100\"}} verdader{{fun_0006000E arg=\"0x02006F0002006100\"}} esculto{{fun_0006000E arg=\"0x02007200040072006100\"}}\nde muñecos de nieve,\n¡de l{{fun_0006000E arg=\"0x02006F0002006100\"}}s que ya no quedan!{{pageBreak}}No soy capaz de expresar con\npalabras la satisfacción que siento\ngracias al cuerpo que me has dado.{{pageBreak}}Me gustaría agradecértelo de todo\ncorazón con una partida de bingo.\n¿Qué me dices?"
  },
  {
    "label": "004",
    "text": "Qué aire tan{{delay frames=\"8\"}}.{{delay frames=\"8\"}}.{{delay frames=\"8\"}}.{{delay frames=\"20\"}} ¡refrescante!{{pageBreak}}Soy {{color id=\"4\"}}Don Copo{{color id=\"65535\"}}, un caballero\nque dedica su existencia a pensar\nprimero en las damas.{{pageBreak}}Una cosita{{delay frames=\"8\"}}.{{delay frames=\"8\"}}.{{delay frames=\"8\"}}.{{delay frames=\"20\"}} Sé que es de bien\nnacido ser agradecido y me alegro\nde haber sido creado aquí, pero{{delay frames=\"8\"}}.{{delay frames=\"8\"}}.{{delay frames=\"8\"}}.{{delay frames=\"20\"}}{{pageBreak}}Lo cierto es que podrías haberme\ndado una forma un poco más...\nequilibrada.\nPerdona por ser tan directo y frío,\nsupongo que es lo que tiene estar\nhecho de nieve. ¡Ja, ja, ja!"
  },
  {
    "label": "005",
    "text": "{{fun_000B0007 arg=\"\"}}¡Por qué poco!{{pageBreak}}Estaba tan cerca de convertirme\nen una obra maestra...{{pageBreak}}Pero parece que soy un cúmulo\nde imperfecciones{{delay frames=\"8\"}}.{{delay frames=\"8\"}}.{{delay frames=\"8\"}}.{{delay frames=\"20\"}} Pobre de mí."
  },
  {
    "label": "006",
    "text": "Esto.{{delay frames=\"8\"}}.{{delay frames=\"8\"}}.{{delay frames=\"20\"}}{{pageBreak}}Mi educación me dice que debería\nreservarme mis comentarios, pero\nmejor te lo digo por tu propio bien:\n{{size value=\"150\"}}{{size value=\"100\"}}{{fun_000B0007 arg=\"\"}}{{size value=\"150\"}}¡ESTOY HECHO{{size value=\"100\"}}{{delay frames=\"40\"}}\n{{size value=\"150\"}}{{size value=\"100\"}}{{fun_000A0007 arg=\"\"}}{{size value=\"150\"}}UN CHURRO!{{size value=\"100\"}}{{pageBreak}}¡Hacer un muñeco en condiciones\nno consiste en aplastujar un montón\nde nieve de cualquier manera!{{pageBreak}}Escucha con atención, porque este\nconsejo es por tu bien y el de tus\nfuturos muñecos de nieve...\n{{size value=\"150\"}}{{size value=\"100\"}}¡La cabeza tiene que ser más\npequeña que el cuerpo!{{pageBreak}}Así es como se hacen las cosas.\nCuento contigo para la próxima\nvez, ¿eh?"
  },
  {
    "label": "007",
    "text": "Vaya{{delay frames=\"8\"}}.{{delay frames=\"8\"}}.{{delay frames=\"8\"}}.{{delay frames=\"20\"}} Me has dado un cuerpo\nde escándalo.{{pageBreak}}Aunque la cabeza está muy\ndesproporcionada. Demasiado\npequeña.\nPara ti estará bien, pero para\nun muñeco de nieve, una cabeza\ngrande es algo muy atractivo.{{pageBreak}}¿Que por qué? ¿Qué más te da?\nEstá claro que no lo entenderías."
  },
  {
    "label": "008",
    "text": ""
  },
  {
    "label": "009",
    "text": "{{fun_000A0007 arg=\"\"}}¡¿Cómo?! ¡¿Que no tienes\nun {{color id=\"2\"}}cartón de bingo{{color id=\"65535\"}}?!{{pageBreak}}Entonces yo, {{color id=\"4\"}}Don Copo{{color id=\"65535\"}}, te hago\nentrega de este cartón de bingo.\n¡Solo para ti!{{fun_0006000F arg=\"0x150000002800\"}}\n¡Gracias!\n¿Bingo?\nNo, gracias..."
  },
  {
    "label": "010",
    "text": "¡Bingo! Vienes a por un {{color id=\"2\"}}cartón\nde bingo{{color id=\"65535\"}}, ¿me equivoco?{{fun_0006000F arg=\"0x150000002800\"}}\n¡Dámelo, porfa!\n¿Bingo?\nSí, te equivocas"
  },
  {
    "label": "011",
    "text": "Esto{{delay frames=\"8\"}}.{{delay frames=\"8\"}}.{{delay frames=\"8\"}}.{{delay frames=\"20\"}} ¿Estás segur{{fun_0006000E arg=\"0x02006F0002006100\"}}{{delay frames=\"8\"}}.{{delay frames=\"8\"}}.{{delay frames=\"8\"}}.{{delay frames=\"40\"}}?{{pageBreak}}Con lo apasionante que es el bingo{{delay frames=\"8\"}}.{{delay frames=\"8\"}}.{{delay frames=\"8\"}}."
  },
  {
    "label": "012",
    "text": "Vaya, parece que llevas demasiadas\ncosas encima para darte un cartón.{{pageBreak}}Vuelve cuando tengas más espacio\nen los bolsillos.{{fun_00010007 arg=\"\"}} ¡Pero que sea hoy!"
  },
  {
    "label": "013",
    "text": "Toma, aquí tienes tu cartón\nde bingo.{{pageBreak}}Solo puedo darte uno, así que\nnada de perderlo, ¿eh?"
  },
  {
    "label": "014",
    "text": ""
  },
  {
    "label": "015",
    "text": "Ah, ¿que no te sabes las reglas?\n¡Entonces te daré el cartón y\nuna pequeña clase!{{pageBreak}}Solo te puedo dar un cartón.\n¡No lo pierdas!"
  },
  {
    "label": "016",
    "text": "El cartón de bingo aparecerá\nen la pantalla inferior. Eso es\nen lo que hay que fijarse.{{pageBreak}}Yo te daré el número del día.{{pageBreak}}Si tienes ese número en tu\ncartón, tócalo para marcarlo\nhaciendo un agujero.{{pageBreak}}Si consigues hacer una línea\nvertical, horizontal o diagonal,\n¡habrás conseguido hacer bingo!\n¡Entonces podrás cambiar el cartón\npor un premio!{{pageBreak}}Los números se eligen al azar\nuna vez al día. Podrás verlos\nen mis ojos.\nEl número de hoy no se ha decidido\naún. Tira de la palanca y mira el\nnúmero que salga en mis ojos."
  },
  {
    "label": "017",
    "text": "El cartón de bingo aparecerá\nen la pantalla inferior. Eso es\nen lo que hay que fijarse.{{pageBreak}}Yo te daré el número del día.{{pageBreak}}Si ese número aparece en tu\ncartón, toca el recuadro en\nel que está para hacer un agujero.{{pageBreak}}Si consigues hacer una línea\nvertical, horizontal o diagonal,\n¡habrás conseguido hacer bingo!\n¡Entonces podrás cambiar el cartón\npor un premio!{{pageBreak}}Ya puedes consultar el número\nde hoy. ¡Mira mis ojos!{{pageBreak}}Si quieres ver otro, tendrás que\nesperar a mañana por la mañana."
  },
  {
    "label": "018",
    "text": "¡Mil perdones! Me he alargado\nun poco con la explicación.{{pageBreak}}¿Empezamos con la partida, pues?{{pageBreak}}En primer lugar, toca en el centro\ndel cartón para hacer un agujero.{{fun_00090007 arg=\"0x0A000000\"}}"
  },
  {
    "label": "019",
    "text": "Bueno, ¿empezamos la partida?{{pageBreak}}Primero, toca en el centro del\ncartón para hacer un agujero.{{fun_00090007 arg=\"0x0A000000\"}}"
  },
  {
    "label": "020",
    "text": "¡Perfecto!"
  },
  {
    "label": "021",
    "text": ""
  },
  {
    "label": "022",
    "text": "Todavía no tenemos número del día.{{fun_00010007 arg=\"\"}}\n¡Tira de la palanca!{{fun_0005000F arg=\"0x15002800\"}}\n¡Allá va!\nLuego..."
  },
  {
    "label": "023",
    "text": "¿Qué, te gusta el bingo?{{pageBreak}}¡Tu destino depende de mis ojos!\n¡Hazlos girar con fuerza!{{fun_0005000F arg=\"0x15002800\"}}\n¡Allá va!\nLuego..."
  },
  {
    "label": "024",
    "text": "¡Buenas! ¿De visita en {{fun_0003000E arg=\"\"}}{{fun_00050005 arg=\"\"}}?{{pageBreak}}Quizá te interese echar una partida\nde bingo... ¡Verás qué divertido!\n¡Tira de la palanca!{{fun_0005000F arg=\"0x15002800\"}}\n¡Venga!\nPaso"
  },
  {
    "label": "025",
    "text": "¡Bienvenid{{fun_0006000E arg=\"0x02006F0002006100\"}} a {{fun_0003000E arg=\"\"}}{{fun_00050005 arg=\"\"}}!\nVeo que tienes un cartón de bingo.{{pageBreak}}Si te apetece probar suerte, solo\ntienes que poner mis ojos a girar\npara ver el número de hoy.{{fun_0005000F arg=\"0x15002800\"}}\n¡Vamos allá!\nOtro día"
  },
  {
    "label": "026",
    "text": "¿Juegas al bingo?{{delay frames=\"8\"}}\n¡El número de hoy es el {{color id=\"2\"}}{{fun_00070004 arg=\"0x0000\"}}{{color id=\"65535\"}}! {{fun_0005000F arg=\"0x15002800\"}}\n¡Sí, a ver!\nNo, no juego"
  },
  {
    "label": "027",
    "text": "¿Disfrutando del bingo?{{pageBreak}}Si tienes tu cartón a mano\ny lo quieres comprobar,\nel número de hoy es el {{color id=\"2\"}}{{fun_00070004 arg=\"0x0000\"}}{{color id=\"65535\"}}.{{fun_0005000F arg=\"0x15002800\"}}\n¡Vamos a verlo!\nYo no juego"
  },
  {
    "label": "028",
    "text": "¡Bienvenid{{fun_0006000E arg=\"0x02006F0002006100\"}} a {{fun_0003000E arg=\"\"}}{{fun_00050005 arg=\"\"}}!{{pageBreak}}¡Anda! ¿Eso que tienes ahí es\nun cartón de bingo?{{pageBreak}}Por si te interesa, el número de hoy\nes el {{color id=\"2\"}}{{fun_00070004 arg=\"0x0000\"}}{{color id=\"65535\"}}. ¡Buena suerte!{{fun_0005000F arg=\"0x15002800\"}}\n¡Gracias!\nYo no juego"
  },
  {
    "label": "029",
    "text": "¡Gracias por pararte a charlar!{{fun_00010007 arg=\"\"}}\n¡Soy el único e inimitable\n{{color id=\"4\"}}Don Copo {{color id=\"65535\"}}de {{fun_0003000E arg=\"\"}}{{fun_00050005 arg=\"\"}}!{{pageBreak}}El bingo es un gran juego, ¿sabes?\nNo importa que estés lejos de casa.\nNunca es mal momento para jugar.{{pageBreak}}El número del día es el {{color id=\"2\"}}{{fun_00070004 arg=\"0x0000\"}}{{color id=\"65535\"}}.{{fun_00010007 arg=\"\"}}\n¡Mira a ver si aparece en tu cartón!{{fun_0005000F arg=\"0x15002800\"}}\n¡Voy!\nPaso"
  },
  {
    "label": "030",
    "text": "Ya veo{{delay frames=\"8\"}}.{{delay frames=\"8\"}}.{{delay frames=\"8\"}}."
  },
  {
    "label": "031",
    "text": "Oh, vaya{{delay frames=\"8\"}}.{{delay frames=\"8\"}}.{{delay frames=\"8\"}}.{{delay frames=\"40\"}} Bueno, ya sabes dónde\nestoy si cambias de idea."
  },
  {
    "label": "032",
    "text": "Mmm{{delay frames=\"8\"}}.{{delay frames=\"8\"}}.{{delay frames=\"8\"}}.{{delay frames=\"20\"}} ¿Crees que a alguien\nle vendrá bien un {{color id=\"2\"}}{{fun_00070004 arg=\"0x0000\"}}{{color id=\"65535\"}}?"
  },
  {
    "label": "033",
    "text": "Entiendo{{delay frames=\"8\"}}.{{delay frames=\"8\"}}.{{delay frames=\"8\"}}.{{pageBreak}}Bueno, si conoces a alguien que\nbusque un {{color id=\"2\"}}{{fun_00070004 arg=\"0x0000\"}}{{color id=\"65535\"}}, dile dónde estoy."
  },
  {
    "label": "034",
    "text": "¡Muy buenas! ¿Puedo ayudarte?{{fun_0005000F arg=\"0x00002800\"}}\n¡Quiero jugar al bingo!\nMmm... No"
  },
  {
    "label": "035",
    "text": "¡Qué mala pata! Parece que\nno llevas contigo un cartón\nde bingo. ¡No puede ser!{{pageBreak}}Los cartones de bingo representan\nla gratitud, ¿sabes?{{pageBreak}}Cuando un {{color id=\"4\"}}Don Copo {{color id=\"65535\"}}está bien\nhecho, se lo regala a su creador\ncomo muestra de agradecimiento."
  },
  {
    "label": "036",
    "text": ""
  },
  {
    "label": "037",
    "text": "¡La primavera es una estación\nmaravillosa, simple y llanamente!{{pageBreak}}Igual te parece raro, pero es\nmi estación favorita después\ndel invierno."
  },
  {
    "label": "038",
    "text": "Los cartones de bingo caducan\nen primavera.{{pageBreak}}Después de eso tienes que esperar\nhasta el siguiente invierno para\nvolver a jugar."
  },
  {
    "label": "039",
    "text": "Este invierno estamos muy\nagradecidos a nuestros escultores.{{pageBreak}}Quería darte las gracias en nombre\nde toda mi familia.{{pageBreak}}¡Ya verás como el año que viene\nnos volvemos a reunir todos para\nredescubrir nuestra amistad!"
  },
  {
    "label": "040",
    "text": ""
  },
  {
    "label": "041",
    "text": "¿Has conocido ya a mi familia?{{pageBreak}}No siempre vamos a juego{{delay frames=\"8\"}}.{{delay frames=\"8\"}}.{{delay frames=\"8\"}}.{{delay frames=\"20\"}}\npero es bastante fácil distinguirnos\nentre la gente del pueblo."
  },
  {
    "label": "042",
    "text": "Puede que no lo parezca, pero en\nmis años mozos era todo un tirillas.{{pageBreak}}Ahora que soy un hombre de familia\nhe ganado algo de peso. ¡Fíjate en\nesta fabulosa y oronda cintura!"
  },
  {
    "label": "043",
    "text": "Pues tampoco te creas que es\ntan pesado eso de pasarse\ntodo el día de pie, ¿eh?{{pageBreak}}¿Por qué no pruebas? Ponte aquí\na mi lado un rato sin moverte,\na ver qué te parece."
  },
  {
    "label": "044",
    "text": ""
  },
  {
    "label": "045",
    "text": "¡Va a ser un gustazo disfrutar\nde este pueblo tan maravilloso!\nAunque sea por poco tiempo..."
  },
  {
    "label": "046",
    "text": "Puede que la proporción entre mi\ncabeza y mi cuerpo sea discutible,\n¡pero mi bigote es envidiable!{{pageBreak}}Estoy muy orgulloso de él,\nsi se me permite el comentario."
  },
  {
    "label": "047",
    "text": "Dicen que un hombre está en la\nflor de la vida{{delay frames=\"8\"}}.{{delay frames=\"8\"}}.{{delay frames=\"8\"}}.{{delay frames=\"20\"}} ¡bueno, cuando\nlo está!{{pageBreak}}¡Los muñecos de nieve alcanzamos\nnuestro apogeo nada más empezar\na derretirnos!"
  },
  {
    "label": "048",
    "text": "Dentro de poco empezaré\na derretirme... pero esto\nno es un adiós para siempre.{{pageBreak}}¡El año que viene volveré en forma\nde nieve y con tu ayuda resurgiré\ncomo un nuevo {{color id=\"4\"}}Don Copo{{color id=\"65535\"}}!"
  },
  {
    "label": "049",
    "text": ""
  },
  {
    "label": "050",
    "text": "Ojalá hubiera podido darte alguna\nindicación mientras me hacías{{delay frames=\"8\"}}.{{delay frames=\"8\"}}.{{delay frames=\"8\"}}.{{pageBreak}}Con un simple \"más pequeño\" o\n\"más grande\" podría haber sido\nun {{color id=\"4\"}}Don Copo {{color id=\"65535\"}}muy diferente.{{pageBreak}}Pero bueno, por desgracia no\npude hablar hasta que no tuve\nla cabeza sobre los hombros."
  },
  {
    "label": "051",
    "text": "¿Tú qué crees que define a\nun muñeco hecho y derecho?{{fun_00010007 arg=\"\"}}\nYo creo que es la perseverancia.\nPerseverancia ante el frío.{{delay frames=\"40\"}}\nPerseverancia ante estar de pie.{{delay frames=\"40\"}}\nPerseverancia ante el desequilibrio."
  },
  {
    "label": "052",
    "text": "Solo un {{color id=\"4\"}}Don Copo {{color id=\"65535\"}}hecho y derecho\npuede repartir cartones de bingo.{{pageBreak}}¡Espero que en mi próxima aparición\nme hagan con mayor habilidad para\npoder repartirlos por doquier!"
  },
  {
    "label": "053",
    "text": "Quizá te preguntes qué le pasará al\nsombrero cuando yo desaparezca.{{pageBreak}}¡Mucho me temo que se derretirá\nconmigo!"
  },
  {
    "label": "054",
    "text": ""
  },
  {
    "label": "055",
    "text": "Hace calor{{delay frames=\"8\"}}.{{delay frames=\"8\"}}.{{delay frames=\"8\"}}.{{fun_00010007 arg=\"\"}} ¡pero no pienso dejar\nque las temperaturas me dobleguen!\n¡El sombrero se queda donde está!\nUn sombrero como este es\nlo que define a un caballero."
  },
  {
    "label": "056",
    "text": "¡Ha llegado la primavera!\nLa estación de la familia\nde nieve toca a su fin..."
  },
  {
    "label": "057",
    "text": "Hace calorcito en primavera, ¿eh?\n¡Tengo la zona del bigote asada!"
  },
  {
    "label": "058",
    "text": "Todo lo que quedará de mí\nes un leve aroma invernal.{{pageBreak}}¿Que no es para tanto?{{fun_00010007 arg=\"\"}} Bueno,\nme guste o no, tarde o temprano\nacabaré por derretirme del todo{{delay frames=\"8\"}}.{{delay frames=\"8\"}}.{{delay frames=\"8\"}}."
  },
  {
    "label": "059",
    "text": "Este invierno hemos sido muy\nfelices.{{fun_00010007 arg=\"\"}} En nombre de mi familia,\nme gustaría darte las gracias.\n¡Espero verte de nuevo el\npróximo invierno!"
  },
  {
    "label": "060",
    "text": "Ah, la primavera{{delay frames=\"8\"}}.{{delay frames=\"8\"}}.{{delay frames=\"8\"}}.{{delay frames=\"20\"}} A pesar de ser\nmuy diferente a mi querido invierno,\nes una estación maravillosa."
  },
  {
    "label": "061",
    "text": ""
  },
  {
    "label": "062",
    "text": ""
  },
  {
    "label": "063",
    "text": "Veamos...{{fun_00010007 arg=\"\"}} ¿Está este número\nen tu cartón?"
  },
  {
    "label": "064",
    "text": "Bueno{{delay frames=\"8\"}}.{{delay frames=\"8\"}}.{{delay frames=\"8\"}}.{{delay frames=\"20\"}} Ojos de {{color id=\"4\"}}Don Copo{{color id=\"65535\"}}...\n{{fun_00040007 arg=\"\"}}{{fun_0009000D arg=\"\"}}{{size value=\"150\"}}¡A girar{{size value=\"150\"}}!{{size value=\"150\"}}{{fun_000A0007 arg=\"\"}}{{size value=\"100\"}}{{fun_000A000D arg=\"\"}}{{fun_00050007 arg=\"\"}}"
  },
  {
    "label": "065",
    "text": "Y el número de hoy es{{delay frames=\"8\"}}.{{delay frames=\"8\"}}.{{delay frames=\"8\"}}.{{delay frames=\"20\"}}"
  },
  {
    "label": "066",
    "text": "{{fun_0009000D arg=\"\"}}{{fun_000B0007 arg=\"\"}}{{size value=\"150\"}}¡El {{color id=\"2\"}}{{fun_00070004 arg=\"0x0000\"}}{{color id=\"65535\"}}!{{size value=\"100\"}}{{fun_000A000D arg=\"\"}}"
  },
  {
    "label": "067",
    "text": "¡Ajá, conque tienes un{{delay frames=\"8\"}} {{color id=\"2\"}}{{fun_00070004 arg=\"0x0000\"}}{{color id=\"65535\"}}!{{delay frames=\"40\"}}\n¡Tócalo para hacer un agujerito\nen tu cartón de bingo!"
  },
  {
    "label": "068",
    "text": "Vaya{{delay frames=\"8\"}}.{{delay frames=\"8\"}}.{{delay frames=\"8\"}}.{{delay frames=\"40\"}} no veo el número en tu\ncartón, lo siento."
  },
  {
    "label": "069",
    "text": "Mmm{{delay frames=\"8\"}}.{{delay frames=\"8\"}}.{{delay frames=\"8\"}}.{{delay frames=\"20\"}} Nada.{{fun_00010007 arg=\"\"}} Lo siento mucho."
  },
  {
    "label": "070",
    "text": "\n{{fun_00040007 arg=\"\"}}{{delay frames=\"70\"}}{{fun_000B0007 arg=\"\"}}{{size value=\"150\"}}¡BIEN!{{size value=\"100\"}}{{fun_00050007 arg=\"\"}}{{pageBreak}}¡Solo te falta un número\npara cantar bingo!"
  },
  {
    "label": "071",
    "text": "\n{{fun_00040007 arg=\"\"}}{{delay frames=\"70\"}}{{fun_000B0007 arg=\"\"}}{{size value=\"150\"}}¡MUY BIEN!{{size value=\"100\"}}{{fun_00050007 arg=\"\"}}{{pageBreak}}¡Casi! ¡Solo te falta un número\npara poder cantar bingo en\ndos direcciones!"
  },
  {
    "label": "072",
    "text": "\n{{fun_00040007 arg=\"\"}}{{delay frames=\"70\"}}{{fun_000B0007 arg=\"\"}}{{size value=\"150\"}}¡REQUETEBIÉN!{{size value=\"100\"}}{{fun_00050007 arg=\"\"}}{{pageBreak}}¡Hacía tiempo que no veía algo así!\n¡Un número más y podrás cantar\nbingo en tres direcciones distintas!\nY tú que pensabas que lo difícil era\nconseguir un bingo sencillo, ¿eh?"
  },
  {
    "label": "073",
    "text": "{{fun_000A0007 arg=\"\"}}¡Casi! ¡Ojalá consigas cantar bingo\ncon el próximo número! Si tuviera\ndedos, los cruzaría."
  },
  {
    "label": "074",
    "text": "Vuelve a pasarte mañana{{delay frames=\"8\"}}.{{delay frames=\"8\"}}.{{delay frames=\"8\"}}.{{delay frames=\"20\"}} si no\nme he derretido para entonces."
  },
  {
    "label": "075",
    "text": "¡Vuelve cuando quieras!\nTotal, yo me quedo aquí...\nmientras el tiempo lo permita."
  },
  {
    "label": "076",
    "text": "{{fun_00040007 arg=\"\"}}{{delay frames=\"120\"}}Es{{delay frames=\"8\"}}.{{delay frames=\"8\"}}.{{delay frames=\"8\"}}. Es un{{delay frames=\"8\"}}.{{delay frames=\"8\"}}.{{delay frames=\"8\"}}. Un{{delay frames=\"8\"}}.{{delay frames=\"8\"}}.{{delay frames=\"8\"}}.{{fun_00050007 arg=\"\"}}{{fun_00090007 arg=\"0x50000000\"}}"
  },
  {
    "label": "077",
    "text": "{{fun_00040007 arg=\"\"}}\n{{fun_000B0007 arg=\"\"}}{{fun_0009000D arg=\"\"}}{{size value=\"200\"}}¡BINGOOOOO!{{size value=\"100\"}}{{fun_000A000D arg=\"\"}}{{fun_00050007 arg=\"\"}}"
  },
  {
    "label": "078",
    "text": "{{fun_000A0007 arg=\"\"}}¡Ja, ja! ¡Esto hay que celebrarlo!{{delay frames=\"40\"}}\n¡Lo has conseguido!{{pageBreak}}Te habrá costado lo tuyo,{{delay frames=\"20\"}}\npero precisamente por eso\ndisfrutarás el doble de tu logro.{{pageBreak}}Bueno, ahora si me entregas\ntu cartón para certificar el\nresultado, te daré tu premio."
  },
  {
    "label": "079",
    "text": "Esta vez te ha tocado...\n¡{{fun_0002000E arg=\"\"}}{{fun_00030011 arg=\"0x0000\"}}!{{fun_00010007 arg=\"\"}}\nDebería estar entre tus cosas.\nVuelve a jugar cuando consigas\notro cartón de bingo. ¡Y felicidades!"
  },
  {
    "label": "080",
    "text": ""
  },
  {
    "label": "081",
    "text": ""
  },
  {
    "label": "082",
    "text": "El camino hacia el bingo es largo\ny tortuoso, pero es como todas\nlas cosas buenas de la vida.\nSi vas poco a poco y con paciencia,\nobtendrás tu merecida recompensa."
  },
  {
    "label": "083",
    "text": "¡Fabuloso!{{fun_00010007 arg=\"\"}} El número de hoy\nte abre el camino de mañana.{{pageBreak}}Un pequeño paso hacia tu objetivo.\nAh, el bingo... amante esquivo."
  },
  {
    "label": "084",
    "text": "Te daré un consejo que te vendrá\nmuy bien en tu búsqueda del bingo:\n¡puedes jugar donde quieras!{{pageBreak}}Quizá consigas cantar bingo\nmás rápido si visitas pueblos\ndonde haya un {{color id=\"4\"}}Don Copo{{color id=\"65535\"}}.\n¡Ve a hablar con ellos y\na que te den números!"
  },
  {
    "label": "085",
    "text": "¡Enhorabuena! Acabas de dar\nun gran paso en tu camino\npara cantar bingo.{{pageBreak}}Recuerda que esto no es cosa de\nun par de días.{{fun_00010007 arg=\"\"}} ¡El ancestral juego\ndel bingo requiere perseverancia!"
  },
  {
    "label": "086",
    "text": ""
  },
  {
    "label": "087",
    "text": "¡Bienvenid{{fun_0006000E arg=\"0x02006F0002006100\"}}! Normalmente te diría\nde participar en una apasionante\npartida de bingo{{delay frames=\"8\"}}.{{delay frames=\"8\"}}.{{delay frames=\"8\"}}.{{delay frames=\"20\"}}\n¡Pero para eso necesitas un cartón\nde bingo, claro!{{pageBreak}}Si quieres uno, tendrás que hacer\nun muñeco de nieve tan rollizo y\nequilibrado como yo. Él te lo dará."
  },
  {
    "label": "088",
    "text": "Los cartones de bingo simbolizan\nla gratitud de los muñecos de nieve.{{pageBreak}}Un {{color id=\"4\"}}Don Copo {{color id=\"65535\"}}se lo regala a aquel\nque lo hace con una habilidad y\nartesanía envidiables.{{pageBreak}}¡Deberás hacer el mejor {{color id=\"4\"}}Don Copo{{color id=\"65535\"}}\nque se haya visto en tu pueblo para\nconseguir tu cartón de bingo!"
  },
  {
    "label": "089",
    "text": ""
  },
  {
    "label": "090",
    "text": "Tu cartón de bingo solo es válido\ndurante el invierno.{{pageBreak}}¡Espero que puedas cantar bingo\nantes de que canten los pajarillos\nde la primavera!"
  }
]