﻿[
  {
    "label": "001",
    "text": "{{fun_0000000C arg=\"\"}}{{fun_0006000C arg=\"\"}}{{fun_0001000C arg=\"\"}}{{fun_0004000C arg=\"\"}}{{fun_0002000C arg=\"\"}}{{fun_0006000C arg=\"\"}}{{anim id=\"16\"}}Ah, aquí estáis. {{delay frames=\"8\"}}¡Adelante!{{fun_0009000C arg=\"\"}}"
  },
  {
    "label": "002",
    "text": "{{fun_0000000C arg=\"\"}}{{fun_0006000C arg=\"\"}}{{fun_0001000C arg=\"\"}}{{fun_0004000C arg=\"\"}}{{fun_0002000C arg=\"\"}}{{fun_0006000C arg=\"\"}}{{anim id=\"1\"}}¡Hola,{{delay frames=\"8\"}} {{fun_00080005 arg=\"\"}}!{{delay frames=\"16\"}} Gracias por\ntraer a {{fun_00010011 arg=\"0x0100\"}}.{{fun_0009000C arg=\"\"}}"
  },
  {
    "label": "003",
    "text": "{{fun_0000000C arg=\"\"}}{{fun_0006000C arg=\"\"}}{{fun_0001000C arg=\"\"}}{{fun_0004000C arg=\"\"}}{{fun_0002000C arg=\"\"}}{{fun_0006000C arg=\"\"}}Oh, pasad, por favor.{{delay frames=\"16\"}} Os estaba\nesperando.{{fun_0009000C arg=\"\"}}"
  },
  {
    "label": "004",
    "text": "{{fun_0000000C arg=\"\"}}{{fun_0006000C arg=\"\"}}{{fun_0001000C arg=\"\"}}{{fun_0004000C arg=\"\"}}{{fun_0002000C arg=\"\"}}{{fun_0006000C arg=\"\"}}{{anim id=\"15\"}}¡Menos mal! {{delay frames=\"20\"}}¿Por qué habéis\ntardado tanto? {{delay frames=\"20\"}}Ya me estaba\nempezando a preocupar.{{fun_0009000C arg=\"\"}}"
  },
  {
    "label": "005",
    "text": "{{fun_0000000C arg=\"\"}}{{fun_0007000C arg=\"\"}}{{fun_0001000C arg=\"\"}}{{fun_0008000C arg=\"\"}}{{fun_0002000C arg=\"\"}}{{fun_0006000C arg=\"\"}}{{anim id=\"23\"}}¿Qué te pasa, {{delay frames=\"10\"}}{{fun_00010011 arg=\"0x0000\"}}?\n{{delay frames=\"20\"}}¿Ha ocurrido algo malo?{{fun_0009000C arg=\"\"}}"
  },
  {
    "label": "006",
    "text": "{{fun_0000000C arg=\"\"}}{{fun_0007000C arg=\"\"}}{{fun_0001000C arg=\"\"}}{{fun_0008000C arg=\"\"}}{{fun_0002000C arg=\"\"}}{{fun_0006000C arg=\"\"}}{{anim id=\"23\"}}¿Qué necesitas, {{delay frames=\"10\"}}{{fun_00010011 arg=\"0x0000\"}}?{{fun_0009000C arg=\"\"}}"
  },
  {
    "label": "007",
    "text": "{{fun_0000000C arg=\"\"}}{{fun_0007000C arg=\"\"}}{{fun_0001000C arg=\"\"}}{{fun_0008000C arg=\"\"}}{{fun_0002000C arg=\"\"}}{{fun_0006000C arg=\"\"}}{{anim id=\"23\"}}¿Te ocurre algo, {{delay frames=\"10\"}}{{fun_00010011 arg=\"0x0000\"}}?\n{{delay frames=\"20\"}}Mi {{fun_00080005 arg=\"\"}} me ha ido a llamar\na toda prisa{{delay frames=\"8\"}}.{{delay frames=\"8\"}}.{{delay frames=\"8\"}}.{{delay frames=\"8\"}}{{fun_0009000C arg=\"\"}}"
  },
  {
    "label": "008",
    "text": ""
  },
  {
    "label": "009",
    "text": "{{fun_0000000C arg=\"\"}}{{fun_0005000C arg=\"\"}}{{fun_0001000C arg=\"\"}}{{fun_0008000C arg=\"\"}}{{fun_0002000C arg=\"\"}}{{fun_0006000C arg=\"\"}}{{anim id=\"39\"}}No es nada urgente. Solo quería\ndevolverte algo que me prestaste.{{pageBreak}}{{anim id=\"9\"}}Siento haberlo retenido tanto\ntiempo, ¡ni me acordaba de que\nlo tenía!{{fun_0009000C arg=\"\"}}"
  },
  {
    "label": "010",
    "text": "{{fun_0000000C arg=\"\"}}{{fun_0007000C arg=\"\"}}{{fun_0001000C arg=\"\"}}{{fun_0008000C arg=\"\"}}{{anim id=\"16\"}}¡Anda, si te lo había prestado a ti!\n{{anim id=\"37\"}}No te preocupes, en este tiempo\nno me ha hecho ninguna falta.\n{{anim id=\"38\"}}¡Pero gracias por acordarte y\ndevolvérmelo, {{fun_00070005 arg=\"\"}}!"
  },
  {
    "label": "011",
    "text": "{{fun_0000000C arg=\"\"}}{{fun_0005000C arg=\"\"}}{{fun_0001000C arg=\"\"}}{{fun_0008000C arg=\"\"}}{{fun_0002000C arg=\"\"}}{{fun_0006000C arg=\"\"}}{{anim id=\"39\"}}Hace tiempo me contaste que\nte encantaría tener una cosa.{{pageBreak}}{{anim id=\"23\"}}¡Pues resulta que la encontré\nen la tienda y te la he comprado!{{fun_0009000C arg=\"\"}}"
  },
  {
    "label": "012",
    "text": "{{fun_0000000C arg=\"\"}}{{fun_0007000C arg=\"\"}}{{fun_0001000C arg=\"\"}}{{fun_0008000C arg=\"\"}}{{anim id=\"15\"}}¡{{fun_0003000E arg=\"\"}}{{fun_00070005 arg=\"\"}}! {{delay frames=\"20\"}}¿Me has comprado\n{{fun_0002000E arg=\"\"}}{{fun_00030011 arg=\"0x0000\"}}?{{delay frames=\"20\"}}{{anim id=\"29\"}}\n¡Pero qué detalle tan bonito!\n{{anim id=\"9\"}}No tengo nada para darte{{delay frames=\"8\"}}.{{delay frames=\"8\"}}.{{delay frames=\"8\"}}.{{delay frames=\"20\"}}\nsalvo una gran sonrisa y quizá\nun abracito. {{delay frames=\"20\"}}{{anim id=\"38\"}}¡Gracias, {{delay frames=\"10\"}}{{fun_00010011 arg=\"0x0000\"}}!"
  },
  {
    "label": "013",
    "text": "{{fun_0000000C arg=\"\"}}{{fun_0005000C arg=\"\"}}{{fun_0001000C arg=\"\"}}{{fun_0008000C arg=\"\"}}{{fun_0002000C arg=\"\"}}{{fun_0006000C arg=\"\"}}{{anim id=\"1\"}}Encontré esto en el suelo durante\nuno de mis paseos.{{delay frames=\"20\"}} Me pareció que\nera tuyo y lo recogí.{{fun_0009000C arg=\"\"}}"
  },
  {
    "label": "014",
    "text": "{{fun_0000000C arg=\"\"}}{{fun_0007000C arg=\"\"}}{{fun_0001000C arg=\"\"}}{{fun_0008000C arg=\"\"}}¡No me lo puedo creer!\n{{delay frames=\"20\"}}¡Si es mi {{fun_00030011 arg=\"0x0000\"}}!{{pageBreak}}{{anim id=\"13\"}}¡He removido cielo y tierra\nbuscando esto! {{delay frames=\"20\"}}{{anim id=\"3\"}}¡No sabes lo feliz\nque me has hecho, {{delay frames=\"10\"}}{{fun_00010011 arg=\"0x0000\"}}!"
  },
  {
    "label": "015",
    "text": "{{fun_0000000C arg=\"\"}}{{fun_0005000C arg=\"\"}}{{fun_0001000C arg=\"\"}}{{fun_0008000C arg=\"\"}}{{fun_0002000C arg=\"\"}}{{fun_0006000C arg=\"\"}}{{anim id=\"9\"}}Esto no es muy propio de mí, pero\ntuve un sueño extrañísimo anoche\nsobre ti.\n{{anim id=\"15\"}}¡Te acusaban de robar {{fun_0002000E arg=\"\"}}\n{{fun_000F0005 arg=\"0x0000\"}} y te condenaban\na veinte años de cárcel espacial!\n{{anim id=\"36\"}}No sé si hay cárceles en el espacio,\npero quería verte por si acaso.{{fun_0009000C arg=\"\"}}"
  },
  {
    "label": "016",
    "text": "{{fun_0000000C arg=\"\"}}{{fun_0007000C arg=\"\"}}{{fun_0001000C arg=\"\"}}{{fun_0008000C arg=\"\"}}{{fun_0002000C arg=\"\"}}{{fun_0006000C arg=\"\"}}{{anim id=\"18\"}}¡Ay,{{delay frames=\"10\"}} no! {{delay frames=\"20\"}}Una vez salí de una tienda\nsin pagar un caramelo. {{delay frames=\"20\"}}¡Pero te\naseguro que no me di cuenta!\n{{anim id=\"13\"}}¿Crees que tu sueño puede referirse\na eso? {{delay frames=\"20\"}}¿Me están buscando?\n{{delay frames=\"20\"}}¿Me escondes en tu sótano?\n{{anim id=\"2\"}}¡Es broma, {{delay frames=\"10\"}}{{fun_00070005 arg=\"\"}}! {{delay frames=\"20\"}}Cuando\nme di cuenta de lo del caramelo,\nvolví y lo pagué. {{delay frames=\"20\"}}{{anim id=\"1\"}}¡No pasa nada!"
  },
  {
    "label": "017",
    "text": "{{fun_0000000C arg=\"\"}}{{fun_0005000C arg=\"\"}}{{fun_0001000C arg=\"\"}}{{fun_0008000C arg=\"\"}}{{fun_0002000C arg=\"\"}}{{fun_0006000C arg=\"\"}}{{anim id=\"11\"}}El otro día me comentaste que te\ncostaba dormir, ¿recuerdas?{{pageBreak}}{{anim id=\"1\"}}He leído por internet que colocar\nuna flor de lavanda en la almohada\nayuda a conciliar el sueño.{{fun_0009000C arg=\"\"}}"
  },
  {
    "label": "018",
    "text": "{{fun_0000000C arg=\"\"}}{{fun_0007000C arg=\"\"}}{{fun_0001000C arg=\"\"}}{{fun_0008000C arg=\"\"}}{{fun_0002000C arg=\"\"}}{{fun_0006000C arg=\"\"}}La verdad es que me encanta el\naroma a lavanda. {{anim id=\"23\"}}{{delay frames=\"20\"}}¿No crees que me\npasaré la noche despierta oliéndolo?\n{{anim id=\"11\"}}Mmm{{delay frames=\"8\"}}.{{delay frames=\"8\"}}.{{delay frames=\"8\"}}.{{delay frames=\"20\"}} Bueno, {{delay frames=\"10\"}}por probar no\npierdo nada, {{delay frames=\"10\"}}¿verdad? {{delay frames=\"20\"}}{{anim id=\"1\"}}¡Gracias\npor este consejo, {{delay frames=\"10\"}}{{fun_00010011 arg=\"0x0000\"}}!"
  },
  {
    "label": "019",
    "text": ""
  },
  {
    "label": "020",
    "text": "{{fun_0000000C arg=\"\"}}{{fun_0007000C arg=\"\"}}{{fun_0001000C arg=\"\"}}{{fun_0007000C arg=\"\"}}{{fun_0002000C arg=\"\"}}{{fun_0003000C arg=\"\"}}{{anim id=\"9\"}}Tengo muchas cosas que hacer\nen casa, {{delay frames=\"10\"}}así que me voy ya.{{pageBreak}}{{anim id=\"1\"}}Muchas gracias por ir a buscarme,\n{{delay frames=\"10\"}}{{fun_00080005 arg=\"\"}}. {{delay frames=\"20\"}}¡Ya nos veremos otro\ndía, {{fun_00070005 arg=\"\"}}!"
  },
  {
    "label": "021",
    "text": "{{fun_0000000C arg=\"\"}}{{fun_0007000C arg=\"\"}}{{fun_0001000C arg=\"\"}}{{fun_0007000C arg=\"\"}}{{fun_0002000C arg=\"\"}}{{fun_0003000C arg=\"\"}}{{anim id=\"1\"}}Gracias por ir a buscarme, {{delay frames=\"10\"}}bichín,\n{{delay frames=\"10\"}}pero ya me tengo que volver a casa.\n{{anim id=\"32\"}}{{delay frames=\"20\"}}¡Hasta pronto!"
  },
  {
    "label": "022",
    "text": "{{fun_0000000C arg=\"\"}}{{fun_0007000C arg=\"\"}}{{fun_0001000C arg=\"\"}}{{fun_0007000C arg=\"\"}}{{fun_0002000C arg=\"\"}}{{fun_0003000C arg=\"\"}}{{anim id=\"1\"}}Si no hay nada más que hablar,\n{{delay frames=\"10\"}}creo que será mejor dejar que\n{{fun_00010011 arg=\"0x0000\"}} siga con su rutina.\n¡Hasta la próxima, {{delay frames=\"10\"}}{{fun_00080005 arg=\"\"}}!"
  },
  {
    "label": "023",
    "text": ""
  }
]