﻿[
  {
    "label": "001",
    "text": "{{anim id=\"37\"}}¡Bueno, muchas gracias, {{fun_00080005 arg=\"\"}}!"
  },
  {
    "label": "002",
    "text": "{{anim id=\"37\"}}Gracias por traerme el paquete,\n{{fun_00080005 arg=\"\"}}."
  },
  {
    "label": "003",
    "text": "{{anim id=\"11\"}}Te mereces algo a cambio,\n{{fun_00080005 arg=\"\"}}.{{pageBreak}}{{anim id=\"22\"}}¡Ya sé! {{delay frames=\"30\"}}{{anim id=\"37\"}}Quédate la ropa que llevaba.{{delay frames=\"20\"}}\nToma, mi {{fun_00030011 arg=\"0x0100\"}}."
  },
  {
    "label": "004",
    "text": "{{anim id=\"37\"}}¡Ya verás como esta prenda\nte queda divina, {{fun_00080005 arg=\"\"}}!"
  },
  {
    "label": "005",
    "text": "{{anim id=\"11\"}}Debería darte algo a cambio,\n{{fun_00080005 arg=\"\"}}.{{pageBreak}}{{anim id=\"22\"}}¡Claro! {{delay frames=\"30\"}}{{anim id=\"37\"}}¡Puedes quedarte con\nest{{fun_0008000E arg=\"0x01CD02006500020061000000\"}} {{fun_00030011 arg=\"0x0100\"}}!"
  },
  {
    "label": "006",
    "text": "{{anim id=\"39\"}}Es {{fun_0001000E arg=\"\"}}{{fun_00030011 arg=\"0x0100\"}}\ntan guay que me ha dado por\ncomprar un montón, ¿sabes?{{pageBreak}}Prefiero regalarl{{fun_0008000E arg=\"0x01CD02006F00020061000000\"}}s antes que\ntirarl{{fun_0008000E arg=\"0x01CD02006F00020061000000\"}}s, {{fun_00070005 arg=\"\"}}."
  },
  {
    "label": "007",
    "text": "{{anim id=\"37\"}}En fin, gracias, {{fun_00080005 arg=\"\"}}.{{delay frames=\"10\"}}\n¿Por qué no te quedas con esto?\nPor las molestias."
  },
  {
    "label": "008",
    "text": "{{anim id=\"11\"}}Te mereces una recompensa\npor la ayuda, ¿no crees?{{pageBreak}}{{anim id=\"22\"}}¡Ya lo tengo! {{delay frames=\"30\"}}{{anim id=\"37\"}}¡Seguro que\nesto te va a encantar!"
  },
  {
    "label": "009",
    "text": "{{anim id=\"37\"}}¡{{fun_0003000E arg=\"\"}}{{fun_0002000E arg=\"\"}}{{fun_00030011 arg=\"0x0100\"}}!\nEs muy inusual, procura no\nperderl{{fun_0008000E arg=\"0x01CD02006F00020061000000\"}}, cariñín."
  },
  {
    "label": "010",
    "text": "{{anim id=\"37\"}}¡Es {{fun_0002000E arg=\"\"}}{{fun_00030011 arg=\"0x0100\"}}!\nNunca viene mal un toque\nde elegancia en casa."
  },
  {
    "label": "011",
    "text": "{{anim id=\"37\"}}¡Es {{fun_0002000E arg=\"\"}}{{fun_00030011 arg=\"0x0100\"}}!\nEl estilo es perfecto para ti,\ncaramelito."
  },
  {
    "label": "012",
    "text": "{{anim id=\"37\"}}¡{{fun_0003000E arg=\"\"}}{{fun_0002000E arg=\"\"}}{{fun_00030011 arg=\"0x0100\"}}!\nAsí tienes algo para picotear."
  },
  {
    "label": "013",
    "text": ""
  },
  {
    "label": "014",
    "text": ""
  }
]