﻿[
  {
    "label": "001",
    "text": ""
  },
  {
    "label": "002",
    "text": "{{fun_00020009 arg=\"0x0500060007000800\"}}"
  },
  {
    "label": "003",
    "text": "{{fun_00000009 arg=\"0x09000A00\"}}"
  },
  {
    "label": "004",
    "text": ""
  },
  {
    "label": "005",
    "text": "{{anim id=\"4\"}}¡Adoro la zona comercial!{{delay frames=\"16\"}} Es mucho\nmás que una calle con tiendas{{delay frames=\"8\"}}.{{delay frames=\"8\"}}.{{delay frames=\"8\"}}.{{delay frames=\"8\"}}{{anim id=\"21\"}} \n¡Es el corazón de {{fun_0003000E arg=\"\"}}{{fun_00050005 arg=\"\"}}!"
  },
  {
    "label": "006",
    "text": "{{i10_7 arg=\"0x0B000B000B000B000B000D00\"}}"
  },
  {
    "label": "007",
    "text": "{{anim id=\"43\"}}Cuando me aburro paseo por esta\ncalle y observo los escaparates,\n{{fun_00070005 arg=\"\"}}."
  },
  {
    "label": "008",
    "text": "{{anim id=\"21\"}}Esta es la zona con más ambiente\nde {{fun_0003000E arg=\"\"}}{{fun_00050005 arg=\"\"}}. ¡Todo el mundo\npasa por aquí!\nPor eso siempre intento ir bien\nvestida."
  },
  {
    "label": "009",
    "text": "{{anim id=\"23\"}}¿En tu pueblo también tenéis una\nzona comercial, {{fun_00080005 arg=\"\"}}?{{pageBreak}}{{anim id=\"1\"}}Ah, ¿sí? ¡Me encantaría poder\nvisitarla algún día!"
  },
  {
    "label": "010",
    "text": "{{i10_7 arg=\"0x0C000C000C000C000C000E00\"}}"
  },
  {
    "label": "011",
    "text": "{{anim id=\"36\"}}A veces vengo por aquí sin bayas\npara evitar la tentación de\ncomprarme algo{{delay frames=\"8\"}}.{{delay frames=\"8\"}}.{{delay frames=\"8\"}}.{{delay frames=\"8\"}}"
  },
  {
    "label": "012",
    "text": "{{anim id=\"1\"}}¡Seguro que encontrarás algo\nbonito para llevártelo de recuerdo!"
  },
  {
    "label": "013",
    "text": "{{anim id=\"36\"}}Es un poco tarde para salir de\ncompras, ¿no crees?"
  },
  {
    "label": "014",
    "text": "{{anim id=\"23\"}}Algunas tiendas cierran más tarde\ncuando hay algún acontecimiento.{{pageBreak}}{{anim id=\"6\"}}Aunque, como puedes ver, hoy\nno es el caso."
  }
]