﻿[
  {
    "label": "001",
    "text": "{{anim id=\"1\"}}¡Hola,{{delay frames=\"8\"}} muy buenas!{{delay frames=\"30\"}} Hoy no vengo\na vender nada{{delay frames=\"8\"}}.{{delay frames=\"8\"}}.{{delay frames=\"8\"}}.{{delay frames=\"8\"}} Bueno,{{delay frames=\"8\"}} o quizá\nsí,{{delay frames=\"8\"}} según se vea.\n{{anim id=\"21\"}}El caso es que estoy aquí para\npresentarme a las elecciones\nde Villa Puzzle League.\n{{anim id=\"1\"}}El viejo {{color id=\"4\"}}Ladino {{color id=\"65535\"}}como alcalde,{{delay frames=\"8\"}}\n¿qué te parece? {{anim id=\"28\"}}¡Lo que el pueblo\nnecesita!"
  },
  {
    "label": "002",
    "text": "Mi política se funda en la igualdad.{{delay frames=\"20\"}}\n¡Basta de privilegios para los\noriginales!{{delay frames=\"20\"}} ¡Ninguna copia es ilegal!\n{{anim id=\"21\"}}Lo que cuenta es el placer estético\nque nos ofrece el arte,{{delay frames=\"8\"}} en cualquiera\nde sus manifestaciones.\n{{anim id=\"1\"}}Incluidas las falsificaciones.{{delay frames=\"20\"}}\n¡Votadme!"
  },
  {
    "label": "003",
    "text": "Sí,{{delay frames=\"8\"}} ese será mi discurso ante\nlos vecinos.{{delay frames=\"20\"}} {{anim id=\"37\"}}Nos vemos luego."
  },
  {
    "label": "004",
    "text": "{{fun_00020007 arg=\"\"}}En este nivel aparecerán {{color id=\"2\"}}bloques{{color id=\"65535\"}}.{{fun_00030007 arg=\"\"}}{{delay frames=\"40\"}}{{pageBreak}}{{fun_00020007 arg=\"\"}}Cuando elimines una ficha,\nlos {{color id=\"2\"}}bloques {{color id=\"65535\"}}adyacentes a ella\nse convertirán en fichas.{{fun_00030007 arg=\"\"}}{{delay frames=\"40\"}}"
  },
  {
    "label": "006",
    "text": "¡Hola,{{delay frames=\"8\"}} prim{{fun_0006000E arg=\"0x02006F0002006100\"}}!{{delay frames=\"30\"}}\n{{anim id=\"37\"}}¿Preparad{{fun_0006000E arg=\"0x02006F0002006100\"}}?"
  },
  {
    "label": "007",
    "text": "{{anim id=\"0\"}}Lo siento mucho,{{delay frames=\"8\"}} {{anim id=\"1\"}}pero voy a ganar\nlas elecciones.{{delay frames=\"30\"}} Y sin pucherazo,{{delay frames=\"8\"}} que\nconste.{{delay frames=\"20\"}}{{anim id=\"28\"}} {{color id=\"5\"}}(Aunque lo había barajado.){{color id=\"65535\"}}{{delay frames=\"20\"}}\n{{anim id=\"0\"}}Bueno,{{delay frames=\"8\"}} ¡comencemos!"
  },
  {
    "label": "008",
    "text": ""
  },
  {
    "label": "009",
    "text": ""
  },
  {
    "label": "011",
    "text": "{{anim id=\"9\"}}Lo que hay que ver{{delay frames=\"8\"}}.{{delay frames=\"8\"}}.{{delay frames=\"8\"}}.{{delay frames=\"8\"}}{{delay frames=\"30\"}}\n¡He perdido!{{delay frames=\"20\"}} {{anim id=\"13\"}}¿Y para esto\nhe gastado tanta retórica?"
  },
  {
    "label": "012",
    "text": "{{anim id=\"19\"}}De todos modos,{{delay frames=\"8\"}} prim{{fun_0006000E arg=\"0x02006F0002006100\"}},{{delay frames=\"8\"}} lo de ser\nalcalde exige mucha transparencia.\nNo sé si sería lo mío{{delay frames=\"8\"}}.{{delay frames=\"8\"}}.{{delay frames=\"8\"}}."
  },
  {
    "label": "013",
    "text": ""
  },
  {
    "label": "014",
    "text": ""
  },
  {
    "label": "016",
    "text": "{{anim id=\"3\"}}¡Toooma!{{delay frames=\"20\"}} ¡He ganado!{{delay frames=\"20\"}}\n¡El viejo {{color id=\"4\"}}Ladino {{color id=\"65535\"}}al ayuntamiento!"
  },
  {
    "label": "017",
    "text": "{{anim id=\"2\"}}Bueno,{{delay frames=\"8\"}} prim{{fun_0006000E arg=\"0x02006F0002006100\"}},{{delay frames=\"8\"}} a partir de ahora voy\na estar muy ocupado. {{anim id=\"28\"}}¡Ja, ja, ja!"
  },
  {
    "label": "018",
    "text": ""
  },
  {
    "label": "019",
    "text": ""
  }
]