﻿[
  {
    "label": "001",
    "text": "{{anim id=\"16\"}}¡Hola, primate!{{delay frames=\"20\"}} ¿Así que tú también\nde acampada por aquí?{{delay frames=\"20\"}}\n{{anim id=\"21\"}}Yo dejo que me lleve el viento...{{delay frames=\"20\"}}\n{{anim id=\"0\"}}Y cuando llega el tiempo de partir,{{delay frames=\"8\"}}\nme voy.{{delay frames=\"20\"}} Así es la vida de una\nnutria nómada.{{anim id=\"37\"}}"
  },
  {
    "label": "002",
    "text": "{{i10_7 arg=\"0x0C000C000B000B000C000C00\"}}"
  },
  {
    "label": "003",
    "text": "{{i10_7 arg=\"0x0C000C000B000B000C000C00\"}}"
  },
  {
    "label": "004",
    "text": ""
  },
  {
    "label": "005",
    "text": ""
  },
  {
    "label": "006",
    "text": "{{fun_00030009 arg=\"0x0D000E000F0010001100\"}}"
  },
  {
    "label": "007",
    "text": "{{fun_00030009 arg=\"0x0D000E000F0010001100\"}}"
  },
  {
    "label": "008",
    "text": ""
  },
  {
    "label": "009",
    "text": ""
  },
  {
    "label": "011",
    "text": "{{anim id=\"15\"}}¡Anda, un primate!{{delay frames=\"30\"}} {{anim id=\"23\"}}Tú eres fauna\nautóctona de este pueblo,{{delay frames=\"8\"}} ¿no?{{delay frames=\"30\"}}\n{{anim id=\"0\"}}Me gusta tu hábitat,{{delay frames=\"8\"}} sí señor{{delay frames=\"8\"}}.{{delay frames=\"8\"}}.{{delay frames=\"8\"}}."
  },
  {
    "label": "012",
    "text": "¡Hola, primate!{{delay frames=\"20\"}} {{anim id=\"23\"}}No me digas que\nvives en este pueblo{{delay frames=\"8\"}}.{{delay frames=\"8\"}}.{{delay frames=\"8\"}}.{{delay frames=\"8\"}} {{anim id=\"37\"}}¡Confío en\nque esté a mi altura!"
  },
  {
    "label": "013",
    "text": "¿Sabes, primate? {{anim id=\"21\"}}Me encantan\nlas vieiras frescas de la playa.{{delay frames=\"20\"}} {{anim id=\"0\"}}Cojo\nunas cuantas y me doy un festín.\n{{anim id=\"3\"}}¡Su sabor me eleva a nuevos planos\nde la existencia!{{delay frames=\"20\"}} {{anim id=\"21\"}}De ahí surgen\nmis pensamientos más profundos."
  },
  {
    "label": "014",
    "text": "La vida no es solo comer vieiras.{{delay frames=\"20\"}}\n{{anim id=\"40\"}}Por ejemplo,{{delay frames=\"8\"}} también medito\nacerca de las vieiras.{{pageBreak}}{{anim id=\"12\"}}No, no es lo mismo, primate."
  },
  {
    "label": "015",
    "text": "{{anim id=\"21\"}}No hay nada como hacer turismo\npara respirar aires nuevos.{{pageBreak}}{{anim id=\"43\"}}Y para respirar aguas nuevas,{{delay frames=\"8\"}}\nno hay nada como hacer\nsubmarinismo."
  },
  {
    "label": "016",
    "text": "Un viajero sin sentido de\nla orientación{{delay frames=\"8\"}} está perdido.{{delay frames=\"20\"}}\n{{anim id=\"21\"}}Literalmente, primate{{delay frames=\"8\"}}.{{delay frames=\"8\"}}.{{delay frames=\"8\"}}.\n{{anim id=\"11\"}}Sí,{{delay frames=\"8\"}} hoy en día hay navegadores,\n{{delay frames=\"8\"}}{{anim id=\"0\"}}pero ¿qué haces si te quieres\norientar en tierra firme,{{anim id=\"40\"}} eh?"
  },
  {
    "label": "017",
    "text": "Ay, primate,{{delay frames=\"8\"}} espero que no se\nme haya quedado el pelo {{anim id=\"10\"}}todo\nplanchado{{delay frames=\"8\"}}.{{delay frames=\"8\"}}.{{delay frames=\"8\"}}."
  }
]