﻿[
  {
    "label": "001",
    "text": "¡He pescado un amarguillo!{{delay frames=\"10\"}}\nPues no le noto el saborcillo...\n{{color id=\"5\"}}{{color id=\"5\"}} {{color id=\"5\"}}{{fun_00130004 arg=\"0x00CD\"}} cm{{color id=\"65535\"}}"
  },
  {
    "label": "002",
    "text": "¡He pescado un cacho!{{delay frames=\"10\"}}\n¡Pues de la lista lo tacho!\n{{color id=\"5\"}}{{color id=\"5\"}} {{color id=\"5\"}}{{fun_00130004 arg=\"0x00CD\"}} cm{{color id=\"65535\"}}"
  },
  {
    "label": "003",
    "text": "¡He pescado un carpín!{{delay frames=\"10\"}}\n¡Me lo quedo de botín!\n{{color id=\"5\"}}{{color id=\"5\"}} {{color id=\"5\"}}{{fun_00130004 arg=\"0x00CD\"}} cm{{color id=\"65535\"}}"
  },
  {
    "label": "004",
    "text": "¡He pescado un leucisco!{{delay frames=\"10\"}}\n¡Y parece un poco arisco!\n{{color id=\"5\"}}{{color id=\"5\"}} {{color id=\"5\"}}{{fun_00130004 arg=\"0x00CD\"}} cm{{color id=\"65535\"}}"
  },
  {
    "label": "005",
    "text": "¡He pescado un barbo!{{delay frames=\"10\"}}\nEs un pez con mucho garbo...\n{{color id=\"5\"}}{{color id=\"5\"}} {{color id=\"5\"}}{{fun_00130004 arg=\"0x00CD\"}} cm{{color id=\"65535\"}}"
  },
  {
    "label": "006",
    "text": "¡He pescado una carpa!{{delay frames=\"10\"}}\n¡Se movía a ritmo de arpa!\n{{color id=\"5\"}}{{color id=\"5\"}} {{color id=\"5\"}}{{fun_00130004 arg=\"0x00CD\"}} cm{{color id=\"65535\"}}"
  },
  {
    "label": "007",
    "text": "¡He pescado un koi!{{delay frames=\"10\"}}\n¡Hay que ver cómo estoy hoy!\n{{color id=\"5\"}}{{color id=\"5\"}} {{color id=\"5\"}}{{fun_00130004 arg=\"0x00CD\"}} cm{{color id=\"65535\"}}"
  },
  {
    "label": "008",
    "text": "¡He pescado un pez dorado!{{delay frames=\"10\"}}\n¡Aunque está un poco colorado!\n{{color id=\"5\"}}{{color id=\"5\"}} {{color id=\"5\"}}{{fun_00130004 arg=\"0x00CD\"}} cm{{color id=\"65535\"}}"
  },
  {
    "label": "009",
    "text": "¡He pescado un pez telescopio!{{delay frames=\"10\"}}\n¡Para ver las estrellas es lo propio!\n{{color id=\"5\"}}{{color id=\"5\"}} {{color id=\"5\"}}{{fun_00130004 arg=\"0x00CD\"}} cm{{color id=\"65535\"}}"
  },
  {
    "label": "010",
    "text": "¡He pescado un killi!{{delay frames=\"10\"}}\n¿Será pariente de Pili y Mili?\n{{color id=\"5\"}}{{color id=\"5\"}} {{color id=\"5\"}}{{fun_00130004 arg=\"0x00CD\"}} cm{{color id=\"65535\"}}"
  },
  {
    "label": "011",
    "text": "¡He pescado un cangrejo de río!{{delay frames=\"10\"}}\n¡De esas pinzas no me fío!\n{{color id=\"5\"}}{{color id=\"5\"}} {{color id=\"5\"}}{{fun_00130004 arg=\"0x00CD\"}} cm{{color id=\"65535\"}}"
  },
  {
    "label": "012",
    "text": "{{i10_8 arg=\"0x5E005E005F005F005F005F005F005E00\"}}"
  },
  {
    "label": "013",
    "text": "¡He pescado un renacuajo!{{delay frames=\"10\"}}\n¡Hay que ver qué desparpajo!\n{{color id=\"5\"}}{{color id=\"5\"}} {{color id=\"5\"}}{{fun_00130004 arg=\"0x00CD\"}} cm{{color id=\"65535\"}}"
  },
  {
    "label": "014",
    "text": "¡He pescado una rana!{{delay frames=\"10\"}}\n¡Qué verde y qué lozana!\n{{color id=\"5\"}}{{color id=\"5\"}} {{color id=\"5\"}}{{fun_00130004 arg=\"0x00CD\"}} cm{{color id=\"65535\"}}"
  },
  {
    "label": "015",
    "text": "¡He pescado un gobio de río!{{delay frames=\"10\"}}\n¡Qué careto más sombrío!\n{{color id=\"5\"}}{{color id=\"5\"}} {{color id=\"5\"}}{{fun_00130004 arg=\"0x00CD\"}} cm{{color id=\"65535\"}}"
  },
  {
    "label": "016",
    "text": "¡He pescado una locha!{{delay frames=\"10\"}}\n¡Esto es la repanocha!\n{{color id=\"5\"}}{{color id=\"5\"}} {{color id=\"5\"}}{{fun_00130004 arg=\"0x00CD\"}} cm{{color id=\"65535\"}}"
  },
  {
    "label": "017",
    "text": "¡He pescado un siluro!{{delay frames=\"10\"}}\nQué pez más raro y oscuro...\n{{color id=\"5\"}}{{color id=\"5\"}} {{color id=\"5\"}}{{fun_00130004 arg=\"0x00CD\"}} cm{{color id=\"65535\"}}"
  },
  {
    "label": "018",
    "text": "¡He pescado una anguila!{{delay frames=\"10\"}}\nEso le pasa por estar tan tranquila.\n{{color id=\"5\"}}{{color id=\"5\"}} {{color id=\"5\"}}{{fun_00130004 arg=\"0x00CD\"}} cm{{color id=\"65535\"}}"
  },
  {
    "label": "019",
    "text": "¡He pescado un cabeza serpiente!{{delay frames=\"10\"}}\n¡Pues no es un pez corriente!\n{{color id=\"5\"}}{{color id=\"5\"}} {{color id=\"5\"}}{{fun_00130004 arg=\"0x00CD\"}} cm{{color id=\"65535\"}}"
  },
  {
    "label": "020",
    "text": "¡He pescado un pez sol!{{delay frames=\"10\"}}\n¡Ya no necesitaré farol!\n{{color id=\"5\"}}{{color id=\"5\"}} {{color id=\"5\"}}{{fun_00130004 arg=\"0x00CD\"}} cm{{color id=\"65535\"}}"
  },
  {
    "label": "021",
    "text": "¡He pescado una perca amarilla!{{delay frames=\"10\"}}\n¡Le pasa por acercarse a la orilla!\n{{color id=\"5\"}}{{color id=\"5\"}} {{color id=\"5\"}}{{fun_00130004 arg=\"0x00CD\"}} cm{{color id=\"65535\"}}"
  },
  {
    "label": "022",
    "text": "¡He pescado una perca!{{delay frames=\"10\"}}\n¡Qué impresión da verla de cerca!\n{{color id=\"5\"}}{{color id=\"5\"}} {{color id=\"5\"}}{{fun_00130004 arg=\"0x00CD\"}} cm{{color id=\"65535\"}}"
  },
  {
    "label": "023",
    "text": "¡He pescado un lucio!{{delay frames=\"10\"}}\n¡Y no está nada sucio!\n{{color id=\"5\"}}{{color id=\"5\"}} {{color id=\"5\"}}{{fun_00130004 arg=\"0x00CD\"}} cm{{color id=\"65535\"}}"
  },
  {
    "label": "024",
    "text": "¡He pescado un eperlano!{{delay frames=\"10\"}}\n¡Suena a nombre de humano!\n{{color id=\"5\"}}{{color id=\"5\"}} {{color id=\"5\"}}{{fun_00130004 arg=\"0x00CD\"}} cm{{color id=\"65535\"}}"
  },
  {
    "label": "025",
    "text": "¡He pescado un ayu!{{delay frames=\"10\"}}\n¡Hoy ya no ayu-no!\n{{color id=\"5\"}}{{color id=\"5\"}} {{color id=\"5\"}}{{fun_00130004 arg=\"0x00CD\"}} cm{{color id=\"65535\"}}"
  },
  {
    "label": "026",
    "text": "¡He pescado un salmón japonés!{{delay frames=\"10\"}}\n¡Otro pez para mi palmarés!\n{{color id=\"5\"}}{{color id=\"5\"}} {{color id=\"5\"}}{{fun_00130004 arg=\"0x00CD\"}} cm{{color id=\"65535\"}}"
  },
  {
    "label": "027",
    "text": "¡He pescado una trucha!{{delay frames=\"10\"}}\n¡Qué cosa más flacucha!\n{{color id=\"5\"}}{{color id=\"5\"}} {{color id=\"5\"}}{{fun_00130004 arg=\"0x00CD\"}} cm{{color id=\"65535\"}}"
  },
  {
    "label": "028",
    "text": "¡He pescado una trucha arcoíris!{{delay frames=\"10\"}}\nEl arco no lo veo, ¡pero sí tiene iris!\n{{color id=\"5\"}}{{color id=\"5\"}} {{color id=\"5\"}}{{fun_00130004 arg=\"0x00CD\"}} cm{{color id=\"65535\"}}"
  },
  {
    "label": "029",
    "text": "\n{{size value=\"150\"}}¡No me lo puedo creer!{{size value=\"100\"}}{{size value=\"100\"}}{{pageBreak}}{{size value=\"100\"}}¡He pescado un taimén!\n¡Ahora será mi rehén!\n{{color id=\"5\"}}{{color id=\"5\"}} {{color id=\"5\"}}{{fun_00130004 arg=\"0x00CD\"}} cm{{color id=\"65535\"}}"
  },
  {
    "label": "030",
    "text": "¡He pescado un salmón!{{delay frames=\"10\"}}\n¡No te me escapes, bribón!\n{{color id=\"5\"}}{{color id=\"5\"}} {{color id=\"5\"}}{{fun_00130004 arg=\"0x00CD\"}} cm{{color id=\"65535\"}}"
  },
  {
    "label": "031",
    "text": "¡Chachiiii!{{delay frames=\"10\"}}\n¡He pescado un salmón real!{{pageBreak}}¡Fíjate qué porte más señorial!\n{{color id=\"5\"}}{{color id=\"5\"}} {{color id=\"5\"}}{{fun_00130004 arg=\"0x00CD\"}} cm{{color id=\"65535\"}}"
  },
  {
    "label": "032",
    "text": "¡He pescado un cangrejo de\nShanghái!{{delay frames=\"10\"}} ¡Qué crustáceo más guay!\n{{color id=\"5\"}}{{color id=\"5\"}} {{color id=\"5\"}}{{fun_00130004 arg=\"0x00CD\"}} cm{{color id=\"65535\"}}"
  },
  {
    "label": "033",
    "text": "¡He pescado un gupi!{{delay frames=\"10\"}}\n¡Qué pequeñito, yupi!\n{{color id=\"5\"}}{{color id=\"5\"}} {{color id=\"5\"}}{{fun_00130004 arg=\"0x00CD\"}} cm{{color id=\"65535\"}}"
  },
  {
    "label": "034",
    "text": "¡He pescado un pez doctor!{{delay frames=\"10\"}}\n¡Pues me siento mucho mejor!\n{{color id=\"5\"}}{{color id=\"5\"}} {{color id=\"5\"}}{{fun_00130004 arg=\"0x00CD\"}} cm{{color id=\"65535\"}}"
  },
  {
    "label": "035",
    "text": "¡He pescado un pez ángel!{{delay frames=\"10\"}}\n¡Es difícil echarle el guante!\n{{color id=\"5\"}}{{color id=\"5\"}} {{color id=\"5\"}}{{fun_00130004 arg=\"0x00CD\"}} cm{{color id=\"65535\"}}"
  },
  {
    "label": "036",
    "text": "¡He pescado un tetra neón!{{delay frames=\"10\"}}\n¡Tiene nombre de canción!\n{{color id=\"5\"}}{{color id=\"5\"}} {{color id=\"5\"}}{{fun_00130004 arg=\"0x00CD\"}} cm{{color id=\"65535\"}}"
  },
  {
    "label": "037",
    "text": "¡He pescado una piraña!{{delay frames=\"10\"}}\n¡Cuidado, es un pez que engaña!\n{{color id=\"5\"}}{{color id=\"5\"}} {{color id=\"5\"}}{{fun_00130004 arg=\"0x00CD\"}} cm{{color id=\"65535\"}}"
  },
  {
    "label": "038",
    "text": "¡He pescado un arowana!{{delay frames=\"10\"}}\n¡El acontecimiento de la semana!\n{{color id=\"5\"}}{{color id=\"5\"}} {{color id=\"5\"}}{{fun_00130004 arg=\"0x00CD\"}} cm{{color id=\"65535\"}}"
  },
  {
    "label": "039",
    "text": "¡He pescado un dorado!{{delay frames=\"10\"}}\n¡Un ejemplar de mucho cuidado!\n{{color id=\"5\"}}{{color id=\"5\"}} {{color id=\"5\"}}{{fun_00130004 arg=\"0x00CD\"}} cm{{color id=\"65535\"}}"
  },
  {
    "label": "040",
    "text": "¡He pescado un pez caimán!{{delay frames=\"10\"}}\n¡No me muerdas, rufián!\n{{color id=\"5\"}}{{color id=\"5\"}} {{color id=\"5\"}}{{fun_00130004 arg=\"0x00CD\"}} cm{{color id=\"65535\"}}"
  },
  {
    "label": "041",
    "text": "¡He pescado un pirarucú!{{delay frames=\"10\"}}\n¡Es inmenso, mira tú!\n{{color id=\"5\"}}{{color id=\"5\"}} {{color id=\"5\"}}{{fun_00130004 arg=\"0x00CD\"}} cm{{color id=\"65535\"}}"
  },
  {
    "label": "042",
    "text": "¡Rayos!{{delay frames=\"10\"}}\n¡Un bichir ensillado!{{pageBreak}}¡Quién lo hubiera pensado!\n{{color id=\"5\"}}{{color id=\"5\"}} {{color id=\"5\"}}{{fun_00130004 arg=\"0x00CD\"}} cm{{color id=\"65535\"}}"
  },
  {
    "label": "043",
    "text": "¡He pescado una mariposa marina!{{delay frames=\"10\"}}\n¡Qué criatura más divina!\n{{color id=\"5\"}}{{color id=\"5\"}} {{color id=\"5\"}}{{fun_00130004 arg=\"0x00CD\"}} cm{{color id=\"65535\"}}"
  },
  {
    "label": "044",
    "text": "¡He pescado un caballito de mar!{{delay frames=\"10\"}}\nPero no creo que pueda cabalgar...\n{{color id=\"5\"}}{{color id=\"5\"}} {{color id=\"5\"}}{{fun_00130004 arg=\"0x00CD\"}} cm{{color id=\"65535\"}}"
  },
  {
    "label": "045",
    "text": "¡He pescado un pez payaso!{{delay frames=\"10\"}}\n¡El rey del humor, abran paso!\n{{color id=\"5\"}}{{color id=\"5\"}} {{color id=\"5\"}}{{fun_00130004 arg=\"0x00CD\"}} cm{{color id=\"65535\"}}"
  },
  {
    "label": "046",
    "text": "¡He pescado un pez cirujano!{{delay frames=\"10\"}}\n¡El esfuerzo no ha sido en vano!\n{{color id=\"5\"}}{{color id=\"5\"}} {{color id=\"5\"}}{{fun_00130004 arg=\"0x00CD\"}} cm{{color id=\"65535\"}}"
  },
  {
    "label": "047",
    "text": "{{fun_001A000A arg=\"0x5B005C00\"}}"
  },
  {
    "label": "048",
    "text": "¡He pescado un pez napoleón!{{delay frames=\"10\"}}\nTiene aspecto de campeón.\n{{color id=\"5\"}}{{color id=\"5\"}} {{color id=\"5\"}}{{fun_00130004 arg=\"0x00CD\"}} cm{{color id=\"65535\"}}"
  },
  {
    "label": "049",
    "text": "¡He pescado un pez león!{{delay frames=\"10\"}}\nPero ¿dónde está su melenón?\n{{color id=\"5\"}}{{color id=\"5\"}} {{color id=\"5\"}}{{fun_00130004 arg=\"0x00CD\"}} cm{{color id=\"65535\"}}"
  },
  {
    "label": "050",
    "text": "¡He pescado un pez globo!{{delay frames=\"10\"}}\n¿Saldrá volando si lo dejo solo?\n{{color id=\"5\"}}{{color id=\"5\"}} {{color id=\"5\"}}{{fun_00130004 arg=\"0x00CD\"}} cm{{color id=\"65535\"}}"
  },
  {
    "label": "051",
    "text": "¡He pescado un pez erizo!{{delay frames=\"10\"}}\n¡Y los pinchos no son postizos!\n{{color id=\"5\"}}{{color id=\"5\"}} {{color id=\"5\"}}{{fun_00130004 arg=\"0x00CD\"}} cm{{color id=\"65535\"}}"
  },
  {
    "label": "052",
    "text": "¡He pescado un jurel!{{delay frames=\"10\"}}\n¡No le he dado cuartel!\n{{color id=\"5\"}}{{color id=\"5\"}} {{color id=\"5\"}}{{fun_00130004 arg=\"0x00CD\"}} cm{{color id=\"65535\"}}"
  },
  {
    "label": "053",
    "text": "¡He pescado una dorada japonesa!{{delay frames=\"10\"}}\n¡Konnichiwa, princesa!\n{{color id=\"5\"}}{{color id=\"5\"}} {{color id=\"5\"}}{{fun_00130004 arg=\"0x00CD\"}} cm{{color id=\"65535\"}}"
  },
  {
    "label": "054",
    "text": "¡He pescado una lubina!{{delay frames=\"10\"}}\nPues mejor que una sardina...\n{{color id=\"5\"}}{{color id=\"5\"}} {{color id=\"5\"}}{{fun_00130004 arg=\"0x00CD\"}} cm{{color id=\"65535\"}}"
  },
  {
    "label": "055",
    "text": "¡He pescado un pargo rojo!{{delay frames=\"10\"}}\nCreo que me mira de reojo...\n{{color id=\"5\"}}{{color id=\"5\"}} {{color id=\"5\"}}{{fun_00130004 arg=\"0x00CD\"}} cm{{color id=\"65535\"}}"
  },
  {
    "label": "056",
    "text": "¡He pescado un gallo!{{delay frames=\"10\"}}\nSi canta, yo me callo...\n{{color id=\"5\"}}{{color id=\"5\"}} {{color id=\"5\"}}{{fun_00130004 arg=\"0x00CD\"}} cm{{color id=\"65535\"}}"
  },
  {
    "label": "057",
    "text": "He pescado un gallo...{{delay frames=\"10\"}}\n\n¿Eh?{{pageBreak}}¡Que no, que es un rodaballo!\n{{color id=\"5\"}}{{color id=\"5\"}} {{color id=\"5\"}}{{fun_00130004 arg=\"0x00CD\"}} cm{{color id=\"65535\"}}"
  },
  {
    "label": "058",
    "text": "¡He pescado un calamar!{{delay frames=\"10\"}}\n¡Parece a punto de disparar!\n{{color id=\"5\"}}{{color id=\"5\"}} {{color id=\"5\"}}{{fun_00130004 arg=\"0x00CD\"}} cm{{color id=\"65535\"}}"
  },
  {
    "label": "059",
    "text": "¡He pescado una morena!{{delay frames=\"10\"}}\n¡Me la quedo para la cena!\n{{color id=\"5\"}}{{color id=\"5\"}} {{color id=\"5\"}}{{fun_00130004 arg=\"0x00CD\"}} cm{{color id=\"65535\"}}"
  },
  {
    "label": "060",
    "text": "¡He pescado una anguila listón azul!{{delay frames=\"10\"}}\n¡Es tan ligera que parece tul!\n{{color id=\"5\"}}{{color id=\"5\"}} {{color id=\"5\"}}{{fun_00130004 arg=\"0x00CD\"}} cm{{color id=\"65535\"}}"
  },
  {
    "label": "061",
    "text": "¡He pescado un pez balón!{{delay frames=\"10\"}}\n¡Podré hacer una competición!\n{{color id=\"5\"}}{{color id=\"5\"}} {{color id=\"5\"}}{{fun_00130004 arg=\"0x00CD\"}} cm{{color id=\"65535\"}}"
  },
  {
    "label": "062",
    "text": "¡He pescado un atún!{{delay frames=\"10\"}}\nEn estas aguas no es muy común...\n{{color id=\"5\"}}{{color id=\"5\"}} {{color id=\"5\"}}{{fun_00130004 arg=\"0x00CD\"}} cm{{color id=\"65535\"}}"
  },
  {
    "label": "063",
    "text": "¡He pescado un pez espada!{{delay frames=\"10\"}}\nEspero que no esté mellada...\n{{color id=\"5\"}}{{color id=\"5\"}} {{color id=\"5\"}}{{fun_00130004 arg=\"0x00CD\"}} cm{{color id=\"65535\"}}"
  },
  {
    "label": "064",
    "text": "¡He pescado un jurel gigante!{{delay frames=\"10\"}}\n¡Vaya bicho más despampanante!\n{{color id=\"5\"}}{{color id=\"5\"}} {{color id=\"5\"}}{{fun_00130004 arg=\"0x00CD\"}} cm{{color id=\"65535\"}}"
  },
  {
    "label": "065",
    "text": "¡He pescado una raya!{{delay frames=\"10\"}}\n¡Me merezco una medalla!\n{{color id=\"5\"}}{{color id=\"5\"}} {{color id=\"5\"}}{{fun_00130004 arg=\"0x00CD\"}} cm{{color id=\"65535\"}}"
  },
  {
    "label": "066",
    "text": "¡He pescado un pez luna!{{delay frames=\"10\"}}\nMe recuerda a una aceituna...\n{{color id=\"5\"}}{{color id=\"5\"}} {{color id=\"5\"}}{{fun_00130004 arg=\"0x00CD\"}} cm{{color id=\"65535\"}}"
  },
  {
    "label": "067",
    "text": "¡He pescado un pez martillo!{{delay frames=\"10\"}}\n¡Será útil llevarlo en el bolsillo!\n{{color id=\"5\"}}{{color id=\"5\"}} {{color id=\"5\"}}{{fun_00130004 arg=\"0x00CD\"}} cm{{color id=\"65535\"}}"
  },
  {
    "label": "068",
    "text": "¡He pescado un tiburón!{{delay frames=\"10\"}}\n¡Casi me desmayo de la impresión!\n{{color id=\"5\"}}{{color id=\"5\"}} {{color id=\"5\"}}{{fun_00130004 arg=\"0x00CD\"}} cm{{color id=\"65535\"}}"
  },
  {
    "label": "069",
    "text": "¡He pescado un pez sierra!{{delay frames=\"10\"}}\n¡Menudos dientes, qué fiera!\n{{color id=\"5\"}}{{color id=\"5\"}} {{color id=\"5\"}}{{fun_00130004 arg=\"0x00CD\"}} cm{{color id=\"65535\"}}"
  },
  {
    "label": "070",
    "text": "\n{{size value=\"200\"}}¡Repámpanos!{{size value=\"100\"}}{{size value=\"100\"}}{{pageBreak}}{{size value=\"100\"}}¡He pescado un tiburón ballena!{{delay frames=\"10\"}}\n¡Podéis darme la enhorabuena!\n{{color id=\"5\"}}{{color id=\"5\"}} {{color id=\"5\"}}{{fun_00130004 arg=\"0x00CD\"}} cm{{color id=\"65535\"}}"
  },
  {
    "label": "071",
    "text": "¡He pescado un pez remo!{{delay frames=\"10\"}}\n¿Le gustará el deporte extremo?\n{{color id=\"5\"}}{{color id=\"5\"}} {{color id=\"5\"}}{{fun_00130004 arg=\"0x00CD\"}} cm{{color id=\"65535\"}}"
  },
  {
    "label": "072",
    "text": "\n{{size value=\"200\"}}¡Ostras!{{size value=\"100\"}}{{pageBreak}}¡He pescado un celacanto!{{delay frames=\"10\"}}\nEs viejo, pero tiene encanto...\n{{color id=\"5\"}}{{color id=\"5\"}} {{color id=\"5\"}}{{fun_00130004 arg=\"0x00CD\"}} cm{{color id=\"65535\"}}"
  },
  {
    "label": "073",
    "text": "¡He pescado chatarra!{{delay frames=\"10\"}}\nEs que estoy en la parra..."
  },
  {
    "label": "074",
    "text": "¡He pescado una bota!{{delay frames=\"10\"}}\n¿Dónde estará la otra?"
  },
  {
    "label": "075",
    "text": "¡He pescado un neumático!{{delay frames=\"10\"}}\nQué objeto tan poco acuático..."
  },
  {
    "label": "076",
    "text": ""
  },
  {
    "label": "077",
    "text": ""
  },
  {
    "label": "078",
    "text": ""
  },
  {
    "label": "079",
    "text": ""
  },
  {
    "label": "080",
    "text": "¡He pescado un huevo!{{delay frames=\"10\"}}\nDebería llevárselo a {{color id=\"4\"}}Coti Conejal{{color id=\"65535\"}}..."
  },
  {
    "label": "081",
    "text": "Huy.{{delay frames=\"5\"}}.{{delay frames=\"5\"}}.{{delay frames=\"5\"}} ¡Pero si me he quedado sin\nsitio!{{delay frames=\"10\"}} Pues nada,{{delay frames=\"5\"}} que siga nadando\nen libertad."
  },
  {
    "label": "082",
    "text": "Huy.{{delay frames=\"5\"}}.{{delay frames=\"5\"}}.{{delay frames=\"5\"}} ¡Pero si me he quedado sin\nsitio!{{delay frames=\"10\"}} ¿Podré hacer un cambio?{{endTag}}\nCambiar por otra cosa\nQue siga nadando"
  },
  {
    "label": "083",
    "text": "Huy.{{delay frames=\"5\"}}.{{delay frames=\"5\"}}.{{delay frames=\"5\"}} ¡Pero si me he quedado sin\nsitio!{{delay frames=\"10\"}} ¿Podré hacer un cambio?{{endTag}}\nCambiar por otra cosa\nQue siga flotando"
  },
  {
    "label": "084",
    "text": "Huy...\nEso quiere decir que..."
  },
  {
    "label": "085",
    "text": "\n{{size value=\"150\"}}¡Yuuuupi!{{size value=\"100\"}}{{pageBreak}}¡He pescado peces\nde todos los tipos!"
  },
  {
    "label": "086",
    "text": "¡He pescado {{fun_0002000E arg=\"\"}}\n{{fun_00030011 arg=\"0x0000\"}}!\nAh, no... ¡que estoy soñando!"
  },
  {
    "label": "087",
    "text": "¡Es un momento memorable!\nSe registrará en tu  colección."
  },
  {
    "label": "088",
    "text": ""
  },
  {
    "label": "089",
    "text": ""
  },
  {
    "label": "091",
    "text": "¡He pescado un pez mariposa!{{delay frames=\"10\"}}\n¿Los habrá de color rosa?\n{{color id=\"5\"}}{{color id=\"5\"}} {{color id=\"5\"}}{{fun_00130004 arg=\"0x00CD\"}} cm{{color id=\"65535\"}}"
  },
  {
    "label": "092",
    "text": "¡He pescado un pez mariposa!{{delay frames=\"10\"}}\n¡Qué mezcla más curiosa!\n{{color id=\"5\"}}{{color id=\"5\"}} {{color id=\"5\"}}{{fun_00130004 arg=\"0x00CD\"}} cm{{color id=\"65535\"}}"
  },
  {
    "label": "093",
    "text": "¡He pescado una lubina!{{delay frames=\"10\"}}\n¿Otra vez? ¡Qué mala espina!\n{{color id=\"5\"}}{{color id=\"5\"}} {{color id=\"5\"}}{{fun_00130004 arg=\"0x00CD\"}} cm{{color id=\"65535\"}}"
  },
  {
    "label": "094",
    "text": "{{i10_7 arg=\"0x5F005F005F005F0060006000\"}}"
  },
  {
    "label": "095",
    "text": "¡Una tortuga de caparazón blando!{{delay frames=\"10\"}}\nCreo que no va a salir pitando...\n{{color id=\"5\"}}{{color id=\"5\"}} {{color id=\"5\"}}{{fun_00130004 arg=\"0x00CD\"}} cm{{color id=\"65535\"}}"
  },
  {
    "label": "096",
    "text": "¡Una tortuga de caparazón blando!{{delay frames=\"10\"}}\n¡Mira que es lenta nadando!\n{{color id=\"5\"}}{{color id=\"5\"}} {{color id=\"5\"}}{{fun_00130004 arg=\"0x00CD\"}} cm{{color id=\"65535\"}}"
  },
  {
    "label": "097",
    "text": ""
  },
  {
    "label": "098",
    "text": ""
  },
  {
    "label": "099",
    "text": ""
  },
  {
    "label": "100",
    "text": ""
  },
  {
    "label": "101",
    "text": ""
  },
  {
    "label": "102",
    "text": ""
  },
  {
    "label": "103",
    "text": ""
  },
  {
    "label": "104",
    "text": ""
  },
  {
    "label": "105",
    "text": "¡Has pescado {{fun_0002000E arg=\"\"}}\n{{fun_00030011 arg=\"0x0000\"}}!\nY vale... ¡{{fun_000B0004 arg=\"0x0000\"}} bayas!\n¡Así se hace! ¡Ya puedes devolverl{{fun_0008000E arg=\"0x00CD02006F00020061000000\"}}\nal agua e intentar pescar otro pez!"
  },
  {
    "label": "106",
    "text": "¡Has pescado {{fun_0002000E arg=\"\"}}\n{{fun_00030011 arg=\"0x0000\"}}!\n¡Qué dominio de la pesca!\n¡Venga, deja que vuelva\nal agua y sigue pescando!"
  },
  {
    "label": "107",
    "text": "¡Has pescado {{fun_0002000E arg=\"\"}}\n{{fun_00030011 arg=\"0x0000\"}}!{{pageBreak}}Pero buscabas algo distinto. ¡Deja\nque vuelva al agua y sigue pescando!"
  }
]