﻿[
  {
    "label": "001",
    "text": "¡Esta noche nos visitará {{color id=\"4\"}}Renato{{color id=\"65535\"}}!{{delay frames=\"32\"}}\n{{anim id=\"36\"}}Llevo toda la mañana nervioso.\nLa espera me va a matar.{{delay frames=\"32\"}}\n{{anim id=\"6\"}}Si me trae justo lo que quiero, {{anim id=\"5\"}}\n¡voy a ponerme a bailar!"
  },
  {
    "label": "002",
    "text": "{{fun_0003000E arg=\"\"}}{{fun_00080005 arg=\"\"}},{{delay frames=\"8\"}} ¿qué planes tienes\npara esta noche?{{delay frames=\"32\"}} {{anim id=\"38\"}}¡Te recuerdo \nque viene {{color id=\"4\"}}Renato{{color id=\"65535\"}}!"
  },
  {
    "label": "003",
    "text": "{{fun_0003000E arg=\"\"}}{{fun_00080005 arg=\"\"}}, ¿no me digas que no\nconoces a {{color id=\"4\"}}Renato{{color id=\"65535\"}}, el reno que visita\n{{fun_0003000E arg=\"\"}}{{fun_00050005 arg=\"\"}} por estas fechas?{{pageBreak}}{{anim id=\"36\"}}Pues no será porque no llama\nla atención{{delay frames=\"32\"}} con ese traje rojo\nsuperhorte{{delay frames=\"8\"}}.{{delay frames=\"8\"}}.{{delay frames=\"8\"}}.{{delay frames=\"8\"}} Digo{{delay frames=\"8\"}}.{{delay frames=\"8\"}}.{{delay frames=\"8\"}}. Superfestivo."
  },
  {
    "label": "004",
    "text": "{{anim id=\"38\"}}¡Felices fiestas, {{delay frames=\"8\"}}{{fun_00080005 arg=\"\"}}!{{delay frames=\"32\"}} {{color id=\"4\"}}Renato{{color id=\"65535\"}}\nvisitará el pueblo esta noche.{{delay frames=\"32\"}} {{anim id=\"9\"}}Es una\npena que no se haya puesto el sol...\n{{anim id=\"35\"}}Tengo muchas ganas de que sea de\nnoche.{{fun_00010007 arg=\"\"}} {{anim id=\"15\"}}¿Que por qué? {{delay frames=\"32\"}}{{anim id=\"36\"}}¡Pues porque\nes cuando reparte regalos!"
  },
  {
    "label": "005",
    "text": "{{anim id=\"37\"}}¡{{color id=\"4\"}}Renato {{color id=\"65535\"}}vendrá a {{fun_0003000E arg=\"\"}}{{fun_00050005 arg=\"\"}} esta\nnoche para repartir felicidad!\n{{anim id=\"36\"}}¡Y regalos!{{delay frames=\"16\"}} ¡Sobre todo, regalos!\nHace exactamente un año que\nno estoy así de emocionado,{{delay frames=\"8\"}}\n{{fun_00070005 arg=\"\"}}."
  },
  {
    "label": "006",
    "text": "{{anim id=\"6\"}}Como habrás notado,{{delay frames=\"16\"}} está nevando\nen {{fun_0003000E arg=\"\"}}{{fun_00050005 arg=\"\"}}.{{delay frames=\"32\"}} {{anim id=\"35\"}}¿No te parece la\nmejor manera de recibir a {{color id=\"4\"}}Renato{{color id=\"65535\"}}?"
  },
  {
    "label": "007",
    "text": "{{anim id=\"36\"}}¡Mira fuera,{{delay frames=\"16\"}} {{fun_00080005 arg=\"\"}}!{{pageBreak}}¡Está nevando!{{delay frames=\"32\"}} Hace una noche ideal\npara que {{color id=\"4\"}}Renato {{color id=\"65535\"}}nos visite{{delay frames=\"8\"}}.{{delay frames=\"8\"}} {{color id=\"5\"}}(Espero\nque no se quede congelado.){{color id=\"65535\"}}"
  },
  {
    "label": "008",
    "text": "{{anim id=\"37\"}}{{color id=\"4\"}}Renato {{color id=\"65535\"}}visitará el pueblo esta\nnoche,{{delay frames=\"16\"}} {{fun_00080005 arg=\"\"}}.{{pageBreak}}Parece que le espera una bienvenida\n\"pasada por nieve\", no sé si me\nentiendes."
  },
  {
    "label": "009",
    "text": "{{anim id=\"36\"}}Quería que nevara en estas fechas,{{delay frames=\"16\"}}\npero no tanto.{{delay frames=\"32\"}} {{anim id=\"35\"}}{{color id=\"4\"}}Renato {{color id=\"65535\"}}no lo va a\ntener nada fácil con los regalos."
  },
  {
    "label": "010",
    "text": ""
  },
  {
    "label": "011",
    "text": "{{anim id=\"37\"}}Esta noche nos visitará {{color id=\"4\"}}Renato{{color id=\"65535\"}}.{{delay frames=\"32\"}}\nNo aguantaba ni un minuto más\ndentro de casa con tanta emoción."
  },
  {
    "label": "012",
    "text": "{{anim id=\"38\"}}¡Felices fiestas,{{delay frames=\"8\"}} {{fun_00080005 arg=\"\"}}!{{delay frames=\"32\"}} \nHoy es ese día especial en el que\n{{color id=\"4\"}}Renato {{color id=\"65535\"}}nos honra con su visita.{{pageBreak}}{{anim id=\"9\"}}Como no podía esperar en casa,{{delay frames=\"16\"}}\nhe salido a la calle sin pensármelo{{delay frames=\"8\"}}.{{delay frames=\"8\"}}.{{delay frames=\"8\"}}.{{delay frames=\"8\"}}{{anim id=\"20\"}}\n¡Brrr!{{delay frames=\"16\"}} ¡Hace un frío que pela!"
  },
  {
    "label": "013",
    "text": "Esta noche viene {{color id=\"4\"}}Renato{{color id=\"65535\"}},\n¿no,{{delay frames=\"16\"}} {{fun_00080005 arg=\"\"}}?{{pageBreak}}{{anim id=\"36\"}}Estaba en casa tan tranquilo cuando\noí un ruido{{delay frames=\"16\"}} y salí corriendo a ver\nsi era él.{{pageBreak}}{{anim id=\"9\"}}Pero no lo vi por ningún lado{{delay frames=\"8\"}}.\nPor cierto, no veas qué frío.{{delay frames=\"8\"}}.{{delay frames=\"8\"}}.{{delay frames=\"8\"}}"
  },
  {
    "label": "014",
    "text": "{{anim id=\"38\"}}¡Felices fiestas!{{pageBreak}}{{anim id=\"5\"}}¡Bailar sobre la nieve es lo mejor\npara contagiarse del espíritu\nfestivo de {{fun_0003000E arg=\"\"}}{{fun_00050005 arg=\"\"}}!"
  },
  {
    "label": "015",
    "text": "{{anim id=\"36\"}}¿A que {{fun_0008000E arg=\"0x00CD040075006E00060075006E0061000000\"}} {{fun_001F0005 arg=\"0x00CD\"}} sobre\nla nieve de {{fun_0003000E arg=\"\"}}{{fun_00050005 arg=\"\"}} es una visión\ndigna de recordar,{{delay frames=\"8\"}} {{fun_00080005 arg=\"\"}}?\n{{anim id=\"6\"}}Espero que no te haya hecho olvidar\nque {{color id=\"4\"}}Renato {{color id=\"65535\"}}viene esta noche.{{delay frames=\"8\"}}"
  },
  {
    "label": "016",
    "text": "{{anim id=\"37\"}}Quería sentir la nieve que está\ncayendo, por eso he salido de\ncasa,{{delay frames=\"16\"}} {{fun_00070005 arg=\"\"}}.\n{{anim id=\"3\"}}¿Te has fijado? Como hemos sido\nbuenos todo el año, vamos a tener\nnieve estas fiestas, {{fun_00080005 arg=\"\"}}."
  },
  {
    "label": "017",
    "text": "{{anim id=\"6\"}}Me encanta sentir la nieve sobre mí.{{delay frames=\"8\"}}{{anim id=\"37\"}}\n¡Por eso he salido de casa en\ncuanto he visto que nevaba!\n{{anim id=\"38\"}}¡Felices fiestas,{{delay frames=\"16\"}} {{fun_0003000E arg=\"\"}}{{fun_00050005 arg=\"\"}}!{{delay frames=\"32\"}}\n{{anim id=\"35\"}}¡Y felices fiestas para ti también,{{delay frames=\"8\"}}\n{{fun_00080005 arg=\"\"}}!"
  },
  {
    "label": "018",
    "text": "{{anim id=\"6\"}}Justo como yo quería,{{delay frames=\"10\"}} ¡la nieve \ncubre {{fun_0003000E arg=\"\"}}{{fun_00050005 arg=\"\"}}! ¡Qué bien!{{delay frames=\"32\"}}\n{{anim id=\"35\"}}{{color id=\"4\"}}Renato {{color id=\"65535\"}}va a estar encantado.\n{{anim id=\"6\"}}Aunque ahora que me fijo{{delay frames=\"8\"}}.{{delay frames=\"8\"}}.{{delay frames=\"8\"}}.{{delay frames=\"32\"}}{{anim id=\"13\"}} cae\ncon demasiada fuerza, ¿no?"
  },
  {
    "label": "019",
    "text": "{{anim id=\"6\"}}Pega que nieve para recibir\na {{color id=\"4\"}}Renato{{color id=\"65535\"}}, ¿no te parece?{{anim id=\"11\"}}{{delay frames=\"16\"}} Le da\nal pueblo aire de cuento de hadas.\n{{anim id=\"36\"}}Lo malo es que esta tormenta\nde nieve parece demasiado intensa,{{delay frames=\"8\"}}\n{{fun_00070005 arg=\"\"}}."
  },
  {
    "label": "020",
    "text": ""
  },
  {
    "label": "021",
    "text": "{{anim id=\"11\"}}{{delay frames=\"16\"}}Qué raro.{{delay frames=\"16\"}} Ya va siendo hora de\nque {{color id=\"4\"}}Renato {{color id=\"65535\"}}se pasara por aquí{{delay frames=\"8\"}}.{{delay frames=\"8\"}}.{{delay frames=\"8\"}}.{{delay frames=\"8\"}} {{anim id=\"13\"}}\n¿No le habrá pasado algo?"
  },
  {
    "label": "022",
    "text": "{{anim id=\"11\"}}{{delay frames=\"16\"}}Estoy esperando a {{color id=\"4\"}}Renato{{color id=\"65535\"}},{{delay frames=\"16\"}} pero\nparece que tarda más que de\ncostumbre,{{delay frames=\"8\"}} {{fun_00070005 arg=\"\"}}.{{pageBreak}}{{anim id=\"36\"}}Espero que no haya decidido\nno venir por habernos portado\nmal este año."
  },
  {
    "label": "023",
    "text": "{{anim id=\"36\"}}¡{{color id=\"4\"}}Renato {{color id=\"65535\"}}me tiene de los nervios!{{delay frames=\"32\"}}\n¿Cómo me voy a dormir si no sé\ncuándo va a venir a mi casa?\n{{anim id=\"37\"}}Mmm, supongo que la gracia está\nen que tenga algo de misterio,{{delay frames=\"8\"}}\n{{fun_00070005 arg=\"\"}}."
  },
  {
    "label": "024",
    "text": "{{anim id=\"2\"}}¡Je, je! {{delay frames=\"8\"}}{{fun_0003000E arg=\"\"}}{{fun_00080005 arg=\"\"}}, {{delay frames=\"16\"}}¿intentas\nhacerte pasar por Papá Noel?{{delay frames=\"32\"}}\n{{anim id=\"36\"}}Yo diría que te falta algo{{delay frames=\"8\"}}.{{delay frames=\"8\"}}.{{delay frames=\"8\"}}.{{delay frames=\"8\"}}"
  },
  {
    "label": "025",
    "text": "{{anim id=\"36\"}}{{fun_0003000E arg=\"\"}}{{fun_00080005 arg=\"\"}}, con esas pintas nadie\nte va a confundir con Papá Noel,{{delay frames=\"8\"}} \nque lo sepas.\n¿No crees que te faltan algunos\ndetalles importantes?{{delay frames=\"32\"}} {{anim id=\"6\"}}Vamos,{{delay frames=\"8\"}} {{anim id=\"35\"}}\n¿a quién pretendes engañar así?"
  },
  {
    "label": "026",
    "text": "{{anim id=\"15\"}}¿Eres Papá Noel?{{fun_00010007 arg=\"\"}} {{anim id=\"0\"}}Vaya{{delay frames=\"8\"}}.{{delay frames=\"8\"}}.{{delay frames=\"8\"}}.{{delay frames=\"8\"}}{{anim id=\"36\"}} si se trata\nde ti,{{delay frames=\"16\"}} {{fun_00080005 arg=\"\"}}.{{delay frames=\"32\"}} ¡Qué desilusión!{{pageBreak}}{{anim id=\"2\"}}Además, ahora que me fijo,{{delay frames=\"16\"}} te falta\nalgún que otro detalle importante\npara hacerte pasar por él.{{delay frames=\"16\"}}{{anim id=\"1\"}}"
  },
  {
    "label": "027",
    "text": "{{anim id=\"25\"}}Zzz{{delay frames=\"8\"}}.{{delay frames=\"8\"}}.{{delay frames=\"8\"}}.{{delay frames=\"8\"}} Seguro que viene{{delay frames=\"8\"}}.{{delay frames=\"8\"}}.{{delay frames=\"8\"}}.{{delay frames=\"8\"}}"
  },
  {
    "label": "028",
    "text": "{{anim id=\"25\"}}Zzz{{delay frames=\"8\"}}.{{delay frames=\"8\"}}.{{delay frames=\"8\"}}.{{delay frames=\"8\"}} No{{delay frames=\"8\"}}.{{delay frames=\"8\"}}.{{delay frames=\"8\"}}.{{delay frames=\"32\"}} {{anim id=\"35\"}}dormir{{delay frames=\"8\"}}.{{delay frames=\"8\"}}.{{delay frames=\"8\"}}.{{delay frames=\"8\"}} {{anim id=\"25\"}}Zzz\nEsperar{{delay frames=\"8\"}}.{{delay frames=\"8\"}}.{{delay frames=\"8\"}}.{{delay frames=\"8\"}} a {{color id=\"4\"}}Renato{{color id=\"65535\"}}{{delay frames=\"8\"}}.{{delay frames=\"8\"}}.{{delay frames=\"8\"}}."
  },
  {
    "label": "029",
    "text": "{{anim id=\"25\"}}Zzz{{delay frames=\"8\"}}.{{delay frames=\"8\"}}.{{delay frames=\"8\"}}.{{delay frames=\"8\"}} ¡Por fin!{{delay frames=\"32\"}} ¿Papá {{delay frames=\"30\"}}Noel?{{pageBreak}}{{anim id=\"15\"}}¡Pero si tú{{delay frames=\"8\"}} {{anim id=\"36\"}}eres {{fun_00080005 arg=\"\"}}!{{delay frames=\"32\"}} \n¡¿Por qué quieres liarme?!"
  },
  {
    "label": "030",
    "text": "{{anim id=\"25\"}}Zzz{{delay frames=\"8\"}}.{{delay frames=\"8\"}}.{{delay frames=\"8\"}}.{{delay frames=\"8\"}} Papá Noel,{{delay frames=\"8\"}} ¡por fin estás aquí!\n{{delay frames=\"32\"}}Te pareces mucho a u{{fun_0006000E arg=\"0x02006E0004006E006100\"}} chic{{fun_0006000E arg=\"0x02006F0002006100\"}}\nque conozco{{delay frames=\"8\"}}.{{delay frames=\"8\"}}.{{delay frames=\"8\"}}.{{delay frames=\"8\"}}\n{{anim id=\"18\"}}¿Eh? ¡Un momento!{{delay frames=\"8\"}} ¡¿{{fun_00080005 arg=\"\"}}?!{{delay frames=\"32\"}}\n{{anim id=\"36\"}}Estaba en duermevela y te\nhe confundido con él."
  },
  {
    "label": "031",
    "text": "{{anim id=\"13\"}}¡No te lo vas a creer, {{delay frames=\"8\"}}{{fun_00080005 arg=\"\"}}!{{delay frames=\"32\"}}\nPapá Noel{{color id=\"4\"}} {{color id=\"65535\"}}me ha traído un regalo{{delay frames=\"4\"}}.{{delay frames=\"4\"}}.{{delay frames=\"4\"}}.{{delay frames=\"4\"}}{{pageBreak}}{{anim id=\"6\"}}¡Y encima era justo lo\nque quería,{{delay frames=\"8\"}} {{fun_00070005 arg=\"\"}}!{{pageBreak}}{{anim id=\"36\"}}¿Cómo lo habrá sabido?{{delay frames=\"8\"}}"
  },
  {
    "label": "032",
    "text": "{{anim id=\"37\"}}Escucha,{{delay frames=\"8\"}} {{fun_00080005 arg=\"\"}},{{delay frames=\"8\"}} Papá Noel me\nha traído {{anim id=\"5\"}}justo el regalo que quería.{{pageBreak}}{{anim id=\"6\"}}Aunque no me ha dicho cómo\nse ha enterado de {{anim id=\"35\"}}qué era."
  },
  {
    "label": "033",
    "text": "El regalo que me ha dado Papá Noel\nes algo que llevaba un tiempo\ndeseando. {{anim id=\"23\"}}¿Cómo lo habrá sabido?\n{{anim id=\"15\"}}¡Ya lo tengo, {{fun_00080005 arg=\"\"}}!\n{{anim id=\"11\"}}¿Y si fuese algún vecino del pueblo?{{pageBreak}}{{anim id=\"36\"}}Piénsalo, podría tener una identidad\nsecreta, como los superhéroes.{{pageBreak}}Vecino de día,{{delay frames=\"10\"}} ¡entregarregalos de\nnoche! ¡Quién sabe,{{delay frames=\"16\"}} hasta podrías\nser TÚ!{{fun_00010007 arg=\"\"}}{{anim id=\"38\"}} ¡Je, je! {{delay frames=\"8\"}}¡No, imposible!"
  },
  {
    "label": "034",
    "text": "{{anim id=\"37\"}}Papá Noel por fin me ha dado\nmi regalo.{{delay frames=\"8\"}}{{pageBreak}}{{anim id=\"36\"}}Aunque no era justo lo que quería,{{delay frames=\"10\"}}\nme ha hecho ilusión.{{delay frames=\"32\"}}{{anim id=\"37\"}} ¿A quién no\nle gusta recibir regalos?"
  },
  {
    "label": "035",
    "text": "{{anim id=\"37\"}}¡Papá Noel me ha dado mi regalo!{{pageBreak}}{{anim id=\"11\"}}{{delay frames=\"16\"}}No era exactamente lo que quería.{{delay frames=\"32\"}}\nMe pregunto si me habrá dado\nel regalo de otro vecino{{delay frames=\"8\"}}.{{delay frames=\"8\"}}.{{delay frames=\"8\"}}.{{delay frames=\"8\"}}"
  },
  {
    "label": "036",
    "text": "{{anim id=\"5\"}}¡{{fun_0003000E arg=\"\"}}{{fun_00080005 arg=\"\"}}!{{delay frames=\"32\"}} ¡Papá Noel me ha\ndado mi regalo en persona!{{delay frames=\"16\"}} {{anim id=\"4\"}}{{delay frames=\"16\"}}{{fun_00010007 arg=\"\"}}¡No veas\nqué alucine!\n{{anim id=\"9\"}}Es una pena que el regalo que me\nha dado no fuese exactamente\nlo que quería{{delay frames=\"8\"}}.{{delay frames=\"8\"}}.{{delay frames=\"8\"}}.{{delay frames=\"8\"}}"
  },
  {
    "label": "037",
    "text": "{{anim id=\"16\"}}¡Hombre,{{delay frames=\"8\"}} Papá Noel!{{delay frames=\"32\"}} {{anim id=\"21\"}}Oye, {{color id=\"4\"}}Renato{{color id=\"65535\"}}\nte andaba buscando hace un rato.{{delay frames=\"20\"}}\n¡Je, je, je!"
  },
  {
    "label": "038",
    "text": "{{anim id=\"9\"}}Por cierto,{{delay frames=\"20\"}} el reno {{color id=\"4\"}}Renato{{color id=\"65535\"}}{{delay frames=\"8\"}}\nparecía preocupado.{{pageBreak}}{{anim id=\"6\"}}Seguro que es {{anim id=\"35\"}}porque tiene mucho\ntrabajo y necesita que le eches\nun cable, Papá Noel."
  },
  {
    "label": "039",
    "text": "{{anim id=\"23\"}}¿Aún no has visto a {{color id=\"4\"}}Renato{{color id=\"65535\"}}?{{delay frames=\"20\"}}{{pageBreak}}{{anim id=\"1\"}}En cuanto llegue{{delay frames=\"20\"}}, seguro que\nanuncian el inicio de las fiestas.\n{{anim id=\"3\"}}¡Me encantan las vacaciones!"
  },
  {
    "label": "040",
    "text": "{{anim id=\"37\"}}He visto a {{color id=\"4\"}}Renato {{color id=\"65535\"}}hace un rato,{{delay frames=\"8\"}}\n{{fun_00080005 arg=\"\"}}.{{pageBreak}}{{anim id=\"11\"}}{{delay frames=\"16\"}}La pena es que su ayudante, que es\nmuuucho más importante porque\nreparte los regalos, no estaba{{delay frames=\"8\"}}.{{delay frames=\"20\"}}\n¿Le habrá pasado algo?\n{{anim id=\"13\"}}¡Ojalá que no!"
  },
  {
    "label": "041",
    "text": "{{anim id=\"18\"}}¡Eeeh! {{delay frames=\"16\"}}¿Eres Papá Noel?{{delay frames=\"32\"}} {{anim id=\"11\"}}{{delay frames=\"16\"}}Todavía\nfalta un poco para que se haga\nde noche{{delay frames=\"8\"}}.{{delay frames=\"8\"}}{{pageBreak}}{{anim id=\"37\"}}Estás explorando el terreno con\nantelación, ¿eh?{{anim id=\"35\"}} ¡Eres todo un\nprofesional!"
  },
  {
    "label": "042",
    "text": "{{anim id=\"15\"}}¿Papá Noel? ¿Ya estás aquí?{{delay frames=\"32\"}} {{anim id=\"36\"}}\nPensaba que vendrías más tarde{{delay frames=\"8\"}}.{{delay frames=\"8\"}}.{{delay frames=\"8\"}}.{{delay frames=\"8\"}}"
  },
  {
    "label": "043",
    "text": "{{anim id=\"2\"}}¡Je! {{delay frames=\"16\"}}¡No seas tan impaciente!{{delay frames=\"32\"}} {{anim id=\"37\"}}\nSerá mejor que te pases por aquí\nen un rato, querido Papá Noel."
  },
  {
    "label": "044",
    "text": "{{anim id=\"37\"}}¡No sabes la ilusión que me hace\nrecibir un regalo de mano de alguien\ntaaaan famoso como tú! ¡Gracias!"
  },
  {
    "label": "045",
    "text": "{{anim id=\"37\"}}¡Gracias por el regalo que me has\ndado antes,{{delay frames=\"8\"}} Papá Noel!{{pageBreak}}{{anim id=\"36\"}}Je, je{{delay frames=\"8\"}}.{{delay frames=\"8\"}}.{{delay frames=\"8\"}}.{{delay frames=\"8\"}} Si estoy soñando,{{delay frames=\"10\"}} ¡no quiero\ndespertarme nunca,{{delay frames=\"8\"}} {{fun_00070005 arg=\"\"}}!"
  },
  {
    "label": "046",
    "text": "{{anim id=\"6\"}}Te prometo {{anim id=\"35\"}}que cuidaré muy bien\ndel regalo que me has dado."
  },
  {
    "label": "047",
    "text": "{{anim id=\"15\"}}{{delay frames=\"16\"}}¿Y tu bolsa mágica? ¿Dónde está?\n¡No me digas que la has perdido!"
  },
  {
    "label": "048",
    "text": "{{anim id=\"15\"}}¡Ah! {{delay frames=\"8\"}}¡Papá Noel!{{delay frames=\"16\"}} ¿Dónde está la\nbolsa que sueles llevar?{{delay frames=\"32\"}} {{anim id=\"9\"}}Sin ella\nno hay regalos{{delay frames=\"8\"}}.{{delay frames=\"8\"}}.{{delay frames=\"8\"}}.{{delay frames=\"8\"}}"
  },
  {
    "label": "049",
    "text": "Una pregunta inocente,{{delay frames=\"16\"}} Papá Noel:{{anim id=\"23\"}}\n¿Y tu bolsa?{{fun_00010007 arg=\"\"}} Porque creo que {{anim id=\"36\"}}\nmi regalo está dentro."
  },
  {
    "label": "050",
    "text": "{{anim id=\"16\"}}¿Eres tú,{{delay frames=\"16\"}} Papá Noel?{{fun_00010007 arg=\"\"}}\n{{anim id=\"38\"}}¡Felices fiestas!{{fun_0005000F arg=\"0x00000000\"}}\n¡Toma tu regalo!\n¡Jo, jo, jo!"
  },
  {
    "label": "051",
    "text": "{{anim id=\"36\"}}¡Por fin estás aquí,{{delay frames=\"16\"}} Papá Noel!{{fun_00010007 arg=\"\"}}\nPorque eres tú de verdad, ¿no?{{anim id=\"38\"}}\n¡Felices fiestas!{{fun_0005000F arg=\"0x00000000\"}}\n¡Toma tu regalo!\n¡Jo, jo, jo!"
  },
  {
    "label": "052",
    "text": "{{anim id=\"1\"}}¿Papá Noel?{{delay frames=\"16\"}} Llevo tanto tiempo\nesperándote que casi me duermo.\nEn fin, {{anim id=\"38\"}}¡felices fiestas!{{fun_0005000F arg=\"0x00000000\"}}\n¡Toma tu regalo!\n¡Jo, jo, jo!"
  },
  {
    "label": "053",
    "text": "{{anim id=\"36\"}}¡Menos mal que no me he quedado\ndormido!{{delay frames=\"32\"}} {{anim id=\"37\"}}Encantado de conocerte,{{delay frames=\"8\"}}\nPapá Noel.{{fun_00010007 arg=\"\"}} {{anim id=\"38\"}}¡Y felices fiestas!{{fun_0005000F arg=\"0x00000000\"}}\n¡Toma tu regalo!\n¡Jo, jo, jo!"
  },
  {
    "label": "054",
    "text": "{{anim id=\"15\"}}¿Cómo? No lo entiendo{{delay frames=\"4\"}}.{{delay frames=\"4\"}}.{{delay frames=\"4\"}}.{{delay frames=\"16\"}} {{anim id=\"9\"}}{{delay frames=\"16\"}}\n¡Si este año he sido superbueno!"
  },
  {
    "label": "055",
    "text": "{{anim id=\"15\"}}¿Jo, jo, jo? {{delay frames=\"16\"}}Papá Noel,{{delay frames=\"8\"}} {{anim id=\"39\"}}venga,{{delay frames=\"8\"}}\nalégrame un poco el día{{delay frames=\"8\"}}.{{delay frames=\"8\"}}.{{delay frames=\"8\"}}.{{delay frames=\"8\"}}"
  },
  {
    "label": "056",
    "text": "{{anim id=\"36\"}}¿Por qué me das falsas esperanzas?"
  },
  {
    "label": "057",
    "text": "{{anim id=\"38\"}}¡Gracias, Papá Noel!{{delay frames=\"32\"}}{{anim id=\"37\"}}\n¿Puedo abrirlo ya?"
  },
  {
    "label": "058",
    "text": "{{anim id=\"38\"}}¡Gracias, Papá Noel!{{delay frames=\"32\"}} {{anim id=\"36\"}}Tengo que\nabrirlo inmediatamente,{{delay frames=\"16\"}} que si no\nme va a dar algo."
  },
  {
    "label": "059",
    "text": "{{anim id=\"4\"}}{{delay frames=\"16\"}}¡Llevo todo el año esperando!{{delay frames=\"32\"}}\n{{anim id=\"35\"}}No te importa que lo abra, ¿verdad?"
  },
  {
    "label": "060",
    "text": "{{anim id=\"15\"}}¿{{fun_0003000E arg=\"\"}}{{delay frames=\"32\"}}{{fun_0002000E arg=\"\"}}{{fun_00030011 arg=\"0x0000\"}}?{{delay frames=\"32\"}}\n{{anim id=\"36\"}}Esto{{delay frames=\"4\"}}.{{delay frames=\"4\"}}.{{delay frames=\"4\"}}.{{delay frames=\"4\"}} Gracias.{{delay frames=\"16\"}} {{color id=\"5\"}}(Supongo.){{color id=\"65535\"}}"
  },
  {
    "label": "061",
    "text": "{{anim id=\"16\"}}¡No me lo puedo creer!{{delay frames=\"16\"}}\n¡¿{{fun_0003000E arg=\"\"}}{{fun_0002000E arg=\"\"}}{{fun_00030011 arg=\"0x0000\"}}?!{{delay frames=\"32\"}}\n{{anim id=\"5\"}}¡Justo lo que quería!"
  },
  {
    "label": "062",
    "text": "{{anim id=\"18\"}}¡¿{{fun_0003000E arg=\"\"}}{{fun_0002000E arg=\"\"}}{{fun_00030011 arg=\"0x0000\"}}?!{{delay frames=\"32\"}}\n{{anim id=\"3\"}}¡Increíble!{{delay frames=\"16\"}} ¡Inigualable! {{delay frames=\"10\"}}¡Inimitable!\n¡Justo lo que quería!"
  },
  {
    "label": "063",
    "text": "{{anim id=\"38\"}}¡Síii!{{delay frames=\"8\"}} ¡{{fun_0003000E arg=\"\"}}{{fun_0002000E arg=\"\"}}{{fun_00030011 arg=\"0x0000\"}}!{{delay frames=\"32\"}}\n{{anim id=\"6\"}}Mis deseos se han hecho realidad{{delay frames=\"8\"}}.{{delay frames=\"8\"}}.{{delay frames=\"8\"}}.{{delay frames=\"32\"}} {{anim id=\"37\"}}\n¡Y todo gracias a ti,{{delay frames=\"8\"}} Papá Noel!"
  },
  {
    "label": "064",
    "text": "{{anim id=\"37\"}}¡Sigue así, amigo!{{delay frames=\"16\"}} {{anim id=\"35\"}}No te imaginas\nla alegría que traes a {{fun_0003000E arg=\"\"}}{{fun_00050005 arg=\"\"}}\ncada año."
  },
  {
    "label": "065",
    "text": "¡Guau, Papá Noel existe de verdad!{{fun_00010007 arg=\"\"}} {{anim id=\"37\"}}\n¡Tengo que contárselo a todo\nel pueblo!"
  },
  {
    "label": "066",
    "text": "Papá Noel,{{delay frames=\"16\"}} {{anim id=\"23\"}}¿hay más vecinos\nesperándote?{{delay frames=\"8\"}}{{pageBreak}}{{anim id=\"6\"}}Si es así{{delay frames=\"8\"}}.{{delay frames=\"8\"}}.{{delay frames=\"8\"}}.{{delay frames=\"32\"}} ¡será mejor que\nno los tengas en ascuas!"
  },
  {
    "label": "067",
    "text": "{{anim id=\"36\"}}Por fin voy a poder dormir\ntranquilo.{{delay frames=\"32\"}} {{anim id=\"37\"}}¡Buenas noches!{{delay frames=\"8\"}}"
  },
  {
    "label": "068",
    "text": "{{anim id=\"2\"}}¡Je!{{delay frames=\"16\"}} Debes de ser despistad{{fun_0006000E arg=\"0x02006F0002006100\"}} para\nolvidarte la bolsa, que es lo más\nimportante.{{pageBreak}}{{anim id=\"36\"}}A lo mejor la tiene {{color id=\"4\"}}Renato{{color id=\"65535\"}}.{{delay frames=\"16\"}}"
  },
  {
    "label": "069",
    "text": "{{anim id=\"23\"}}¿Eh?{{delay frames=\"16\"}} No parece que tengas la bolsa\nmágica.{{pageBreak}}{{anim id=\"18\"}}¿No me digas que la has perdido? \n{{anim id=\"11\"}}{{delay frames=\"16\"}}Ay, ay, que me va a dar un chungo{{delay frames=\"8\"}}.{{delay frames=\"8\"}}.{{delay frames=\"8\"}}.{{delay frames=\"8\"}}{{pageBreak}}Ve a hablar con {{color id=\"4\"}}Renato{{color id=\"65535\"}}, a ver\nsi él sabe algo del tema."
  },
  {
    "label": "070",
    "text": "{{anim id=\"6\"}}Aunque el rojo no es el color más\ninvernal,{{delay frames=\"16\"}} a ti no te sienta mal{{delay frames=\"8\"}}.{{delay frames=\"8\"}}.{{delay frames=\"8\"}}.{{delay frames=\"32\"}}\n{{anim id=\"35\"}}del todo. En fin, ¡felices fiestas!{{fun_0005000F arg=\"0x00000000\"}}\n¡Toma tu regalo!\n¡Jo, jo, jo!"
  },
  {
    "label": "071",
    "text": "{{anim id=\"11\"}}{{delay frames=\"16\"}}Papá Noel,{{delay frames=\"8\"}} incluso con esa barba,\nte pareces bastante a u{{fun_0006000E arg=\"0x02006E0004006E006100\"}} amig{{fun_0006000E arg=\"0x02006F0002006100\"}}\nmí{{fun_0006000E arg=\"0x02006F0002006100\"}}.{{delay frames=\"8\"}}.{{delay frames=\"8\"}}.{{delay frames=\"8\"}}{{fun_0005000F arg=\"0x00000000\"}}\nToma tu regalo y calla\n¡Jo, jo, jo!"
  },
  {
    "label": "072",
    "text": "{{anim id=\"36\"}}Trabajar hasta tan tarde debe\nde ser duro, Papá Noel.{{pageBreak}}{{anim id=\"9\"}}Seguro que entregar regalos\npor el pueblo era más difícil\nde lo que esperabas, ¿a que sí?{{fun_0005000F arg=\"0x00000000\"}}\n¡Toma y calla!\n¡Jo, jo, jo!"
  },
  {
    "label": "073",
    "text": "Entonces{{delay frames=\"8\"}}.{{delay frames=\"8\"}}.{{delay frames=\"8\"}}.{{delay frames=\"8\"}}{{delay frames=\"32\"}} {{anim id=\"23\"}}¿me quedo sin regalo?{{pageBreak}}{{anim id=\"13\"}}¡Deja de engañarme, Papá Noel!{{delay frames=\"32\"}}"
  },
  {
    "label": "074",
    "text": "{{anim id=\"38\"}}¡Felices fiestas,{{delay frames=\"16\"}} Papá Noel!"
  },
  {
    "label": "075",
    "text": "{{anim id=\"32\"}}¡Ese Papá Noel!{{delay frames=\"32\"}} {{anim id=\"36\"}}Vaya, sí que eres\nlaborioso,{{delay frames=\"8\"}} {{fun_00070005 arg=\"\"}}."
  },
  {
    "label": "076",
    "text": "{{anim id=\"15\"}}¿Papá Noel?{{delay frames=\"32\"}} {{anim id=\"38\"}}¡Felices fiestas!{{pageBreak}}{{anim id=\"0\"}}¡Esa ropa que llevas{{delay frames=\"10\"}}{{anim id=\"35\"}} \nparece muy festiva!"
  },
  {
    "label": "077",
    "text": "{{anim id=\"6\"}}Si pasas tus vacaciones en otro\npueblo,{{anim id=\"36\"}} será que ese sitio tiene\nalgo especial, ¿no?{{delay frames=\"32\"}}{{anim id=\"38\"}} ¡Je, je!"
  },
  {
    "label": "078",
    "text": "{{anim id=\"38\"}}¡Felices fiestas,{{delay frames=\"10\"}} {{fun_00070005 arg=\"\"}}!{{pageBreak}}{{anim id=\"6\"}}¡Bienvenid{{fun_0006000E arg=\"0x02006F0002006100\"}} a {{fun_0003000E arg=\"\"}}{{fun_00050005 arg=\"\"}}{{delay frames=\"32\"}}{{anim id=\"35\"}}!"
  },
  {
    "label": "079",
    "text": "{{anim id=\"23\"}}¿Te gusta pasar las vacaciones\nfuera de tu pueblo?{{fun_00010007 arg=\"\"}}{{anim id=\"37\"}} Espero que\ndisfrutes de este,{{delay frames=\"8\"}} {{fun_00070005 arg=\"\"}}."
  },
  {
    "label": "080",
    "text": ""
  }
]