﻿[
  {
    "label": "001",
    "text": "{{anim id=\"37\"}}¡Muchas gracias por traerme esa\n{{color id=\"2\"}}medicina{{color id=\"65535\"}},{{delay frames=\"8\"}} {{fun_00080005 arg=\"\"}}!{{pageBreak}}¡Si no fuera por ti,{{delay frames=\"16\"}} {{anim id=\"3\"}}no estaría\nrecuperado del todo!{{pageBreak}}{{anim id=\"0\"}}Sé que no es gran cosa, pero quiero\ndarte est{{fun_0008000E arg=\"0x00CD02006500020061000000\"}} {{fun_00030011 arg=\"0x0000\"}}\na modo de agradecimiento."
  },
  {
    "label": "002",
    "text": "{{anim id=\"37\"}}{{fun_0003000E arg=\"\"}}{{fun_00080005 arg=\"\"}},{{delay frames=\"16\"}} fue todo un detalle por\ntu parte venir a verme el otro día.{{pageBreak}}{{anim id=\"36\"}}Me encuentro mucho mejor gracias \na la {{color id=\"2\"}}medicina {{color id=\"65535\"}}que me trajiste,\n{{delay frames=\"8\"}}{{fun_00070005 arg=\"\"}}.\n{{anim id=\"37\"}}Como la generosidad es uno de mis\nmuchos dones,{{delay frames=\"10\"}} ¡aquí tienes est{{fun_0008000E arg=\"0x00CD02006500020061000000\"}}\n{{fun_00030011 arg=\"0x0000\"}}!"
  },
  {
    "label": "003",
    "text": "{{anim id=\"37\"}}He recuperado por completo la\nsalud.{{delay frames=\"8\"}} ¡Y te lo debo a ti, {{fun_00080005 arg=\"\"}}!{{pageBreak}}¡Si no llegas a darme esa {{color id=\"2\"}}medicina{{color id=\"65535\"}},\nno sé qué habría sido de mí!{{pageBreak}}Déjame que te devuelva el favor.{{fun_00010007 arg=\"\"}}\n{{anim id=\"37\"}}¡Toma est{{fun_0008000E arg=\"0x00CD02006500020061000000\"}} {{fun_00030011 arg=\"0x0000\"}}\ncomo regalo de agradecimiento!"
  }
]