﻿[
  {
    "label": "001",
    "text": "{{anim id=\"9\"}}¡Necesito imperiosamente tu ayuda!\nAlguien del futuro se merece\nun gran subidón de moral:{{delay frames=\"20\"}} ¡YO!\n{{anim id=\"35\"}}Para ello me he escrito una carta\ny la he metido junto con un regalo\nen esta {{color id=\"2\"}}cápsula del tiempo{{color id=\"65535\"}}.\n{{anim id=\"9\"}}Y aquí es donde tú entras en acción:\n¿podrías enterrarla en algún lugar\nde {{fun_0003000E arg=\"\"}}{{fun_00050005 arg=\"\"}}, {{fun_00070005 arg=\"\"}}?{{fun_0005000F arg=\"0x15002800\"}}\n¿Por qué no?\nPaso"
  },
  {
    "label": "002",
    "text": "{{anim id=\"9\"}}Necesito tu ayuda en una misión\nultrasecreta, {{fun_00070005 arg=\"\"}}.{{delay frames=\"10\"}}\nSe trata de un viaje al futuro.\n{{anim id=\"6\"}}No me seas pardill{{fun_0006000E arg=\"0x02006F0002006100\"}}, {{fun_00080005 arg=\"\"}}, no\nes posible viajar al futuro...{{delay frames=\"20\"}} todavía.\nEl viaje lo hace una {{color id=\"2\"}}cápsula{{color id=\"65535\"}}, no tú.\nEl caso es que quiero enviarle una\ncarta a mi yo del futuro junto con\nun regalo. Para eso es la cápsula.\n{{anim id=\"23\"}}¿Podrías enterrarla en algún lugar\nde {{fun_0003000E arg=\"\"}}{{fun_00050005 arg=\"\"}}?{{fun_0005000F arg=\"0x15002800\"}}\n¡Cuenta conmigo!\nNo me apetece"
  },
  {
    "label": "003",
    "text": "{{anim id=\"9\"}}Necesito que me eches dos manos.{{delay frames=\"5\"}}.{{delay frames=\"5\"}}.{{delay frames=\"5\"}}\n¡una ahora y{{delay frames=\"20\"}} otra en el futuro!{{pageBreak}}{{anim id=\"6\"}}Estoy viendo que mi yo del futuro\nva a deprimirse un poco, así que\nle he escrito una carta preventiva.\nLa he metido junto con un pequeño\ndetalle en una {{color id=\"2\"}}cápsula del tiempo{{color id=\"65535\"}}.{{pageBreak}}Necesito que la entierres en algún\nlugar de {{fun_0003000E arg=\"\"}}{{fun_00050005 arg=\"\"}}.{{delay frames=\"10\"}} ¿Qué me\ndices, me ayudarás, {{fun_00080005 arg=\"\"}}?{{fun_0005000F arg=\"0x15002800\"}}\n¡Por supuesto!\nComo que no"
  },
  {
    "label": "004",
    "text": "{{anim id=\"37\"}}¡Gracias, todo un detalle por\ntu parte, {{fun_00070005 arg=\"\"}}!"
  },
  {
    "label": "005",
    "text": "{{anim id=\"15\"}}¿La enterrarás? {{delay frames=\"30\"}}\n{{anim id=\"37\"}}¡Gracias, {{fun_00080005 arg=\"\"}}!"
  },
  {
    "label": "006",
    "text": "{{anim id=\"1\"}}¡Sabía que podía contar contigo,\n{{fun_00080005 arg=\"\"}}! La cápsula puede darse\npor enterrada, {{fun_00070005 arg=\"\"}}."
  },
  {
    "label": "007",
    "text": "{{anim id=\"9\"}}¿No? Jo, ojalá cambiaras\nde opinión, {{fun_00080005 arg=\"\"}}."
  },
  {
    "label": "008",
    "text": "{{anim id=\"37\"}}Pues nada, que no se te pase\nenterrarla, {{fun_00080005 arg=\"\"}}.{{pageBreak}}No te olvides de que está\ncon el resto de tus cartas...\n¡y que no se te ocurra abrirla!"
  },
  {
    "label": "009",
    "text": "{{anim id=\"6\"}}¿Te acuerdas de aquella cápsula\nque te pedí que enterraras y que\naún guardas como oro en paño?\n{{anim id=\"23\"}}¿Podrías devolvérmela?{{fun_00010007 arg=\"\"}}\n{{anim id=\"9\"}}Voy a pedirle a otra persona\nque la entierre."
  },
  {
    "label": "010",
    "text": "{{anim id=\"18\"}}¿Quéee? ¿Me has perdido la cápsula\ndel tiempo, {{fun_00070005 arg=\"\"}}?{{pageBreak}}{{anim id=\"9\"}}No sabes lo importante que era\npara mí, {{fun_00080005 arg=\"\"}}."
  },
  {
    "label": "011",
    "text": "{{anim id=\"15\"}}¿Eh? {{delay frames=\"20\"}}Has abierto la cápsula, ¿eh,\n{{fun_00070005 arg=\"\"}}?{{pageBreak}}{{anim id=\"36\"}}Sabía que te morías por descubrir\nmis secretos, {{fun_00080005 arg=\"\"}}."
  },
  {
    "label": "012",
    "text": "{{anim id=\"10\"}}Jooooo. Pensaba que podía\nconfiar en ti, {{fun_00080005 arg=\"\"}}."
  },
  {
    "label": "013",
    "text": "{{anim id=\"13\"}}¿No me das nada, {{fun_00080005 arg=\"\"}}?"
  },
  {
    "label": "014",
    "text": "{{anim id=\"15\"}}¡Un momento! {{delay frames=\"30\"}}{{anim id=\"9\"}}Esta cápsula...{{delay frames=\"20\"}}\n¡ya está abierta, {{fun_00070005 arg=\"\"}}!\n¡Quería que la abriéramos juntos!"
  },
  {
    "label": "015",
    "text": "{{anim id=\"18\"}}¿Cómo? {{delay frames=\"20\"}}La has abierto... {{delay frames=\"10\"}}¡y encima\nhas perdido lo que tenía dentro!{{delay frames=\"10\"}}\n{{anim id=\"9\"}}Y yo que pensaba que eras de fiar."
  },
  {
    "label": "016",
    "text": "{{anim id=\"37\"}}¡Gracias por guardar el secreto!\n¡Vamos a abrirla juntos,\n{{fun_00070005 arg=\"\"}}!"
  },
  {
    "label": "017",
    "text": "{{anim id=\"16\"}}¿Qué te parece, {{fun_00080005 arg=\"\"}}?\n¡{{fun_0003000E arg=\"\"}}{{fun_0002000E arg=\"\"}}{{fun_00030011 arg=\"0x0000\"}}!{{pageBreak}}{{anim id=\"37\"}}Ya no me acordaba de que l{{fun_0008000E arg=\"0x00CD02006F00020061000000\"}} había\nmetido ahí dentro. A ver qué ponía\nen la nota..."
  },
  {
    "label": "018",
    "text": "{{anim id=\"16\"}}Entonces...{{delay frames=\"20\"}} ¿qué había guardado\nen la cápsula? ¡Ah, sí, era\n{{fun_0002000E arg=\"\"}}{{fun_00030011 arg=\"0x0000\"}}!{{pageBreak}}{{anim id=\"36\"}}Je, je, sí, ahora me acuerdo.\n{{delay frames=\"10\"}}¿Qué ponía en la carta?"
  },
  {
    "label": "019",
    "text": "{{anim id=\"15\"}}¿Eeeh? {{delay frames=\"10\"}}¿En serio metí ahí{{delay frames=\"10\"}}\n{{fun_0002000E arg=\"\"}}{{fun_00030011 arg=\"0x0000\"}}?{{pageBreak}}{{anim id=\"37\"}}Si está aquí, supongo que lo hice.\n{{delay frames=\"10\"}}Veamos la carta que escribí."
  },
  {
    "label": "020",
    "text": "{{anim id=\"26\"}}Me da un poco de vergüenza leer\nesto después de todo este tiempo,\n{{fun_00070005 arg=\"\"}}."
  },
  {
    "label": "021",
    "text": "{{anim id=\"37\"}}¿Qué me dices si te quedas tú\nel objeto que metí en la cápsula,\n{{fun_00070005 arg=\"\"}}?"
  },
  {
    "label": "022",
    "text": "{{anim id=\"15\"}}¡Se me pasaba darte las gracias! {{fun_00010007 arg=\"\"}}{{anim id=\"37\"}}\nOye,{{delay frames=\"5\"}} ¿por qué no te quedas tú\ncon esto, {{fun_00070005 arg=\"\"}}?"
  },
  {
    "label": "023",
    "text": "{{anim id=\"37\"}}Se ve que tienes los bolsillos llenos\nhasta arriba, {{fun_00080005 arg=\"\"}}.{{pageBreak}}No te preocupes, luego te mando\nese objeto. ¿Vale, {{fun_00070005 arg=\"\"}}?"
  },
  {
    "label": "024",
    "text": "{{anim id=\"37\"}}¡Te has portado, {{fun_00080005 arg=\"\"}}!\nTienes mi eterno agradecimiento...\n¡y est{{fun_0008000E arg=\"0x01CD02006500020061000000\"}} {{fun_00030011 arg=\"0x0100\"}}!"
  },
  {
    "label": "025",
    "text": "{{anim id=\"36\"}}Je, je. ¿Quieres darle emoción\nal asunto, {{fun_00080005 arg=\"\"}}?"
  },
  {
    "label": "026",
    "text": "{{anim id=\"37\"}}Eh, esa es la cápsula que te pedí\nque me enterraras, ¿no? {{delay frames=\"10\"}}Justo\nahora estaba pensando en ella.\n{{anim id=\"15\"}}¿Ya la has abierto y todo?{{fun_00010007 arg=\"\"}}\n{{anim id=\"9\"}}¡Jo, yo quería que la abriéramos\njuntos, {{fun_00080005 arg=\"\"}}!"
  },
  {
    "label": "027",
    "text": "{{anim id=\"37\"}}Oye, ¿has desenterrado la cápsula\nque te pedí que enterraras? {{delay frames=\"10\"}}Iba a\npedirte que me la trajeras.\n{{anim id=\"15\"}}¿La has abierto y has sacado\nlo que había dentro? {{fun_00010007 arg=\"\"}}{{anim id=\"9\"}}¡Eso no mola,\nquería que lo hiciéramos juntos!"
  },
  {
    "label": "028",
    "text": "{{anim id=\"37\"}}Eh, traes la cápsula que te pedí que\nenterraras hace un tiempo.{{delay frames=\"10\"}} ¡Justo\nhoy iba a pedirte que la trajeras!\n{{anim id=\"37\"}}¡Te ahorraste el viaje, {{fun_00080005 arg=\"\"}}!\n{{fun_00010007 arg=\"\"}}¡Hora de abrirla!"
  },
  {
    "label": "029",
    "text": "{{anim id=\"16\"}}¡Fíjate lo que hay aquí, {{fun_00080005 arg=\"\"}}! \n¡{{fun_0003000E arg=\"\"}}{{fun_0002000E arg=\"\"}}{{fun_00030011 arg=\"0x0000\"}}!{{pageBreak}}{{anim id=\"37\"}}Ni me acordaba de que l{{fun_0008000E arg=\"0x00CD02006F00020061000000\"}} había\nmetido ahí. ¿Qué habré escrito\nen esta carta?"
  },
  {
    "label": "030",
    "text": "{{anim id=\"16\"}}¿Qué habré metido aquí?\n¡{{fun_0003000E arg=\"\"}}{{fun_0002000E arg=\"\"}}{{fun_00030011 arg=\"0x0000\"}}!{{pageBreak}}{{anim id=\"36\"}}Je, je. ¡Ya ni me acordaba! {{delay frames=\"10\"}}Mmm...\n¿Y qué escribí en esta carta?"
  },
  {
    "label": "031",
    "text": "{{anim id=\"15\"}}¿Eeeh? {{delay frames=\"10\"}}¿Cuándo metí aquí {{delay frames=\"10\"}}{{fun_0002000E arg=\"\"}}\n{{fun_00030011 arg=\"0x0000\"}}?{{pageBreak}}{{anim id=\"37\"}}¡Y yo que pensaba que l{{fun_0008000E arg=\"0x00CD02006F00020061000000\"}} había\nperdido!{{delay frames=\"10\"}} ¿Qué habrá sido de la\ncarta?"
  },
  {
    "label": "032",
    "text": "{{anim id=\"37\"}}Vaya, menudo genio literario,\n{{fun_00070005 arg=\"\"}}."
  },
  {
    "label": "033",
    "text": "{{anim id=\"37\"}}¿Qué tal si te quedas el objeto\nde la cápsula como agradecimiento\npor tu colaboración, {{fun_00080005 arg=\"\"}}?"
  },
  {
    "label": "034",
    "text": "{{anim id=\"15\"}}Estoy intentando decidir qué puedo\nregalarte por tu ayuda...{{delay frames=\"30\"}}\n{{anim id=\"37\"}}¿Qué te parece esto, {{fun_00070005 arg=\"\"}}?"
  },
  {
    "label": "035",
    "text": "{{anim id=\"37\"}}Tenía pensado darte un regalo por\ntu ayuda, {{fun_00080005 arg=\"\"}}, pero tienes\nlos bolsillos llenos.\n{{anim id=\"37\"}}No te preocupes, ¡te lo mandaré\npor correo, {{fun_00070005 arg=\"\"}}!"
  },
  {
    "label": "036",
    "text": "{{anim id=\"37\"}}¡Te has portado, {{fun_00080005 arg=\"\"}}!\nTienes mi eterno agradecimiento...\n¡y est{{fun_0008000E arg=\"0x01CD02006500020061000000\"}} {{fun_00030011 arg=\"0x0100\"}}!"
  },
  {
    "label": "037",
    "text": ""
  },
  {
    "label": "038",
    "text": ""
  },
  {
    "label": "039",
    "text": ""
  },
  {
    "label": "040",
    "text": ""
  },
  {
    "label": "041",
    "text": ""
  },
  {
    "label": "042",
    "text": ""
  },
  {
    "label": "043",
    "text": ""
  },
  {
    "label": "044",
    "text": ""
  },
  {
    "label": "045",
    "text": ""
  },
  {
    "label": "046",
    "text": ""
  },
  {
    "label": "047",
    "text": ""
  },
  {
    "label": "048",
    "text": ""
  },
  {
    "label": "049",
    "text": ""
  },
  {
    "label": "050",
    "text": "{{anim id=\"15\"}}¿Cómo? {{delay frames=\"30\"}}¡La has abierto sin decirme\nni mu, {{fun_00070005 arg=\"\"}}!{{pageBreak}}{{anim id=\"9\"}}Lo siento, {{delay frames=\"16\"}}{{fun_00080005 arg=\"\"}}, pero me\nla vas a tener que devolver\ninmediatamente."
  },
  {
    "label": "051",
    "text": "{{anim id=\"37\"}}Esta vez te perdono, pero no me\nvuelvas a fallar, ¿vale, {{fun_00080005 arg=\"\"}}?"
  },
  {
    "label": "052",
    "text": "{{anim id=\"18\"}}¿Cómo dices? {{delay frames=\"30\"}}¿Que has perdido\nlo que había dentro?{{pageBreak}}{{anim id=\"9\"}}Hum...{{delay frames=\"20\"}} Creo que no tenía que\nhaberte encargado esto.{{pageBreak}}Esta vez no pasa nada, {{fun_00080005 arg=\"\"}}.\nEso sí, la próxima vez será mejor\nque me hagas caso, ¿vale?"
  },
  {
    "label": "053",
    "text": "{{anim id=\"15\"}}¡Está vacía!{{delay frames=\"30\"}} ¡Alguien la ha abierto {{delay frames=\"20\"}}\ny se ha llevado lo que había dentro,\n{{fun_00080005 arg=\"\"}}!\n{{anim id=\"10\"}}{{delay frames=\"60\"}}Menudo rollo de cápsula del tiempo.{{delay frames=\"10\"}}\n{{anim id=\"27\"}}Si lo llego a saber, {{delay frames=\"5\"}}ni me molesto."
  }
]