﻿[
  {
    "label": "001",
    "text": "{{fun_0004000D arg=\"0x03CD\"}}{{anim id=\"10\"}}{{delay frames=\"16\"}}Jooo{{delay frames=\"8\"}}.{{delay frames=\"8\"}}.{{delay frames=\"8\"}}.{{delay frames=\"8\"}}{{fun_00010007 arg=\"\"}}{{anim id=\"15\"}} ¿Eh?{{delay frames=\"32\"}} {{anim id=\"9\"}}Uf,{{delay frames=\"16\"}} ahora mismo estoy\nde un bajón que no veas{{delay frames=\"8\"}}.{{delay frames=\"8\"}}.{{delay frames=\"8\"}}.{{delay frames=\"8\"}}{{fun_0005000D arg=\"\"}}"
  },
  {
    "label": "002",
    "text": "{{fun_0004000D arg=\"0x03CD\"}}Lo siento, no está el horno para\nbollos.{{anim id=\"23\"}} ¿Te importa dejarme solo?{{fun_00010007 arg=\"\"}} {{anim id=\"9\"}}\nEstoy un poco triste ahora mismo{{delay frames=\"8\"}}.{{delay frames=\"8\"}}.{{delay frames=\"8\"}}.{{delay frames=\"8\"}}{{fun_0005000D arg=\"\"}}"
  },
  {
    "label": "003",
    "text": "{{fun_0004000D arg=\"0x03CD\"}}{{anim id=\"9\"}}Ahora mismo no estoy para nadie{{delay frames=\"8\"}}.{{delay frames=\"8\"}}.{{delay frames=\"8\"}}.{{delay frames=\"8\"}}{{fun_0005000D arg=\"\"}}"
  }
]