﻿[
  {
    "label": "001",
    "text": ""
  },
  {
    "label": "002",
    "text": "{{fun_00020009 arg=\"0x0500060007000800\"}}"
  },
  {
    "label": "003",
    "text": "{{fun_00000009 arg=\"0x09000A00\"}}"
  },
  {
    "label": "004",
    "text": ""
  },
  {
    "label": "005",
    "text": "{{anim id=\"6\"}}A lo mejor tendría que llevar algo\nde camuflaje{{anim id=\"44\"}} para esquivar a la\nprensa,{{delay frames=\"8\"}} {{fun_00070005 arg=\"\"}}."
  },
  {
    "label": "006",
    "text": "{{anim id=\"11\"}}{{delay frames=\"16\"}}Me pregunto si podré encontrar\nalgún complemento que muestre\nmi lado más alternativo{{delay frames=\"8\"}}.{{delay frames=\"8\"}}.{{delay frames=\"8\"}}.{{delay frames=\"8\"}}"
  },
  {
    "label": "007",
    "text": "{{anim id=\"37\"}}Busco algo que sea lo contrario de\ncomercial,{{delay frames=\"8\"}} {{fun_00080005 arg=\"\"}}.{{delay frames=\"10\"}} ¡Y que me\nguste, por supuesto!"
  },
  {
    "label": "008",
    "text": "{{anim id=\"37\"}}Esta semana se lleva la ropa\najustada,{{delay frames=\"8\"}} {{fun_00080005 arg=\"\"}}.{{pageBreak}}{{anim id=\"15\"}}¿Cómo?{{delay frames=\"32\"}} {{anim id=\"36\"}}¿Que si me preocupa?{{delay frames=\"16\"}} {{anim id=\"33\"}}\n¡Para nada!{{delay frames=\"10\"}} Con esta percha puedo\nlucir cualquier cosa sin complejos."
  },
  {
    "label": "009",
    "text": "{{anim id=\"37\"}}¡Buen trabajo, {{fun_00080005 arg=\"\"}}!{{delay frames=\"32\"}} Eres\nrápid{{fun_0006000E arg=\"0x02006F0002006100\"}} adaptándote a las nuevas\ntendencias.{{pageBreak}}{{anim id=\"36\"}}Normalmente los turistas están\nmás interesados en ponerse\nmorados de fruta del pueblo{{delay frames=\"8\"}}.{{delay frames=\"8\"}}.{{delay frames=\"8\"}}.{{delay frames=\"8\"}}"
  },
  {
    "label": "010",
    "text": "{{anim id=\"36\"}}Así que vienes en busca de ropa\ndesde otro pueblo, ¿eh?{{delay frames=\"32\"}} {{anim id=\"2\"}}¡Debe de\ngustarte la moda tanto como a mí!"
  }
]