﻿[
  {
    "label": "001",
    "text": "{{anim id=\"16\"}}Hep!{{delay frames=\"8\"}} {{fun_0003000E arg=\"\"}}{{fun_00080005 arg=\"\"}}!{{delay frames=\"40\"}}\n{{anim id=\"37\"}}T'es {{fun_0006000E arg=\"0x0800760065006E0075000A00760065006E0075006500\"}} fêter l'anniv\n{{fun_000A000E arg=\"0x0600640065002000040064002700\"}}{{fun_00010011 arg=\"0x0000\"}}?\n{{anim id=\"5\"}}Qu'est-ce qu'on attend pour\ncommencer, alors?{{delay frames=\"20\"}} {{fun_0003000E arg=\"\"}}{{fun_00070005 arg=\"\"}}!"
  },
  {
    "label": "002",
    "text": "{{anim id=\"16\"}}Tiens?! {{fun_0003000E arg=\"\"}}{{fun_00080005 arg=\"\"}}!{{delay frames=\"20\"}} T'es {{fun_0006000E arg=\"0x0800760065006E0075000A00760065006E0075006500\"}}!{{delay frames=\"40\"}}\n{{anim id=\"44\"}}Voilà qui m'donne encore plus envie\nd'faire la fiesta!"
  },
  {
    "label": "003",
    "text": "{{anim id=\"38\"}}Hep!{{delay frames=\"10\"}} {{fun_0003000E arg=\"\"}}{{fun_00080005 arg=\"\"}}!{{delay frames=\"20\"}} Te v'là enfin!{{pageBreak}}{{anim id=\"42\"}}Aujourd'hui, on fête la naissance\n{{fun_000A000E arg=\"0x0600640065002000040064002700\"}}{{fun_00010011 arg=\"0x0000\"}}...{{delay frames=\"20\"}} Ouais, son anniv,\nquoi! Ça va barder,{{delay frames=\"20\"}} {{fun_00070005 arg=\"\"}}!"
  },
  {
    "label": "004",
    "text": "{{anim id=\"16\"}}Au fait!{{delay frames=\"20\"}} Tu{{delay frames=\"8\"}}.{{delay frames=\"8\"}}.{{delay frames=\"8\"}}.{{delay frames=\"20\"}} T'as apporté un\ncadeau?{{pageBreak}}{{anim id=\"0\"}}J'me disais qu'on aurait pu s'assurer\nd'pas avoir choisi l'même, mais{{delay frames=\"8\"}}.{{delay frames=\"8\"}}.{{delay frames=\"8\"}}.{{delay frames=\"20\"}}\n{{anim id=\"37\"}}{{fun_00070005 arg=\"\"}}, peu importe!"
  },
  {
    "label": "005",
    "text": "{{anim id=\"15\"}}Dis, {{fun_00080005 arg=\"\"}}!{{delay frames=\"40\"}} {{anim id=\"0\"}}T'as pensé à\napporter un cadeau, j'espère?!{{delay frames=\"20\"}}\n{{fun_0003000E arg=\"\"}}{{fun_00070005 arg=\"\"}}?!\n{{anim id=\"35\"}}Aujourd'hui, on doit faire pleurer\n{{fun_00010011 arg=\"0x0000\"}} d'bonheur!{{delay frames=\"20\"}} Du coup, on\ncompte aussi sur toi!"
  },
  {
    "label": "006",
    "text": "{{anim id=\"21\"}}Aujourd'hui,{{delay frames=\"10\"}} quoi qu'il arrive, une\nseule chose compte :{{delay frames=\"15\"}} le bonheur\n{{fun_000A000E arg=\"0x0600640065002000040064002700\"}}{{fun_00010011 arg=\"0x0000\"}}!\n{{anim id=\"37\"}}{{fun_0008000E arg=\"0x00CD040049006C00080045006C006C0065000000\"}} doit passer un moment\ninoubliable.{{delay frames=\"40\"}} {{anim id=\"5\"}}Hésite surtout pas à\nenvoyer tes meilleures blagues!"
  },
  {
    "label": "007",
    "text": "{{anim id=\"5\"}}J'déclinerais pour rien au monde une\ninvitation à une fête comme celle-ci,{{delay frames=\"20\"}}\n{{fun_00070005 arg=\"\"}}!"
  },
  {
    "label": "008",
    "text": "{{anim id=\"21\"}}Un anniv, c'est avant tout la fête\nd'une personne, mais au final, tout\nle monde s'y amuse,{{delay frames=\"20\"}} {{fun_00070005 arg=\"\"}}!"
  },
  {
    "label": "009",
    "text": "{{anim id=\"21\"}}{{fun_00010011 arg=\"0x0000\"}} a l'air d'passer du bon\ntemps!{{delay frames=\"20\"}} Mission accomplie!{{delay frames=\"20\"}}\n{{fun_0003000E arg=\"\"}}{{fun_00070005 arg=\"\"}}!"
  },
  {
    "label": "010",
    "text": "{{anim id=\"5\"}}Youhou!{{delay frames=\"15\"}} Cette fête est bien partie\npour rester dans les annales!"
  },
  {
    "label": "011",
    "text": "{{anim id=\"9\"}}J'espère que l'cadeau que j'ai fait\nà {{fun_00010011 arg=\"0x0000\"}} lui a plu{{delay frames=\"8\"}}.{{delay frames=\"8\"}}.{{delay frames=\"8\"}}.{{delay frames=\"20\"}}{{fun_00010007 arg=\"\"}} {{anim id=\"37\"}}Bah, y'a pas\nd'raison, après tout!"
  },
  {
    "label": "012",
    "text": "{{anim id=\"15\"}}Hein?!{{delay frames=\"20\"}} J't'ai jamais {{fun_0006000E arg=\"0x0400760075000600760075006500\"}}, toi{{delay frames=\"8\"}}.{{delay frames=\"8\"}}.{{delay frames=\"8\"}}.{{delay frames=\"20\"}} T'es\n{{fun_0006000E arg=\"0x0E006E006F007500760065006100750010006E006F007500760065006C006C006500\"}} dans l'coin?{{fun_00010007 arg=\"\"}} {{anim id=\"38\"}}Moi, c'est\n{{fun_00010005 arg=\"\"}}!\n{{anim id=\"5\"}}Chuis une amie {{fun_000A000E arg=\"0x0600640065002000040064002700\"}}{{fun_00010011 arg=\"0x0000\"}}. Ravie\nd'te rencontrer,{{delay frames=\"20\"}} {{fun_00070005 arg=\"\"}}!"
  },
  {
    "label": "013",
    "text": ""
  },
  {
    "label": "014",
    "text": "{{anim id=\"21\"}}{{fun_00010011 arg=\"0x0000\"}} a une de ces bananes!{{delay frames=\"20\"}}\n{{anim id=\"4\"}}{{fun_0008000E arg=\"0x00CD040049006C00080045006C006C0065000000\"}} rayonne comme un tournesol\nen fleurs, {{fun_00070005 arg=\"\"}}...\n{{anim id=\"26\"}}Euh, j'veux dire :{{delay frames=\"20\"}}{{anim id=\"33\"}} on dirait qu'{{fun_0008000E arg=\"0x00CD040069006C00080065006C006C0065000000\"}}\nvient d'mettre la pâtée à trois\nloubards avec une main dans l'dos!"
  },
  {
    "label": "015",
    "text": "{{anim id=\"5\"}}Youhou!{{delay frames=\"8\"}} Je sais qu'c'est qu'une\nfête d'anniversaire, mais j'vais y\nmettre le feu!"
  },
  {
    "label": "016",
    "text": "{{anim id=\"11\"}}Çui qu'a inventé les fêtes\nd'anniversaire, c'était pas la\nmoitié d'une buse, quand même.\n{{anim id=\"21\"}}J'veux dire, c'est cool d'offrir à\nchacun une journée uniquement pour\nsa pomme!{{delay frames=\"16\"}} {{anim id=\"0\"}}Pas vrai, {{fun_00080005 arg=\"\"}}?"
  },
  {
    "label": "017",
    "text": "{{anim id=\"11\"}}Hum... {{delay frames=\"8\"}}Je m'goure ou c'est aussi\nl'anniv {{fun_000A000E arg=\"0x0600640065002000040064002700\"}}{{fun_00010011 arg=\"0x0100\"}}, aujourd'hui?{{pageBreak}}{{anim id=\"21\"}}Mais ouais, c'est bien c'que j'me\ndisais!{{delay frames=\"8\"}} J'ai pas la caboche qui\npart en vrille à c'point-là!\n{{anim id=\"1\"}}J'compte sur toi pour lui en taper\ncinq de ma part!{{delay frames=\"8\"}} Ça roule,\n{{fun_00080005 arg=\"\"}}?"
  },
  {
    "label": "018",
    "text": "{{anim id=\"4\"}}Cette journée est vraiment au top!{{delay frames=\"40\"}}\n{{anim id=\"35\"}}Chuis tell'ment joice d'être là pour\nl'anniv {{fun_000A000E arg=\"0x0600640065002000040064002700\"}}{{fun_00010011 arg=\"0x0000\"}}!\n{{anim id=\"37\"}}Chais pas, ça m'fait comme des\ngouzi-gouzis, tu vois.{{delay frames=\"20\"}} {{anim id=\"4\"}}Tout l'monde\nqui partage des tas d'tendresse!\n{{anim id=\"11\"}}D'ailleurs, si j'hallucine pas, j'crois\n{{fun_000A000E arg=\"0x080071007500650020000600710075002700\"}}{{fun_00010011 arg=\"0x0100\"}} et {{fun_00010011 arg=\"0x0000\"}} ont\nleur anniv en même temps, non?\n{{anim id=\"3\"}}Le pied!{{delay frames=\"8\"}} On va s'partager\nencore plus de tendresse!{{delay frames=\"20\"}}\n{{anim id=\"26\"}}Oh...{{pageBreak}}{{anim id=\"6\"}}Oh!{{delay frames=\"8\"}} Si tu dis à qui qu'ce soit que\nj'l'ai jouée aussi fleur bleue,\nj't'assome, pigé?"
  }
]