﻿[
  {
    "label": "001",
    "text": "{{fun_00040009 arg=\"0x46004700480049004A004B00\"}}"
  },
  {
    "label": "002",
    "text": "{{anim id=\"18\"}}Vise un peu ça!{{delay frames=\"30\"}} {{anim id=\"37\"}}Elle a un d'ces\ntableaux nostalgiques...{{delay frames=\"15\"}} T'sais, ceux\nqui t'font cogiter sur ton passé.\n{{anim id=\"36\"}}C'est tout {{fun_00010011 arg=\"0x0000\"}}, ça! Ce p'tit\ncôté vieillot doublé d'une part de\nmystère...{{delay frames=\"8\"}} {{fun_00070005 arg=\"\"}}."
  },
  {
    "label": "003",
    "text": "{{anim id=\"37\"}}Y paraît qu'une plante d'intérieur\npeut avoir un effet apaisant...{{pageBreak}}{{anim id=\"36\"}}J'parie qu'c'est c'{{fun_000A000E arg=\"0x080071007500650020000600710075002700\"}}{{fun_00010011 arg=\"0x0000\"}}\navait en tête quand elle a acheté la\nsienne!{{delay frames=\"20\"}} {{fun_0003000E arg=\"\"}}{{fun_00070005 arg=\"\"}}!"
  },
  {
    "label": "004",
    "text": "{{anim id=\"15\"}}J'le connais, ce morceau{{delay frames=\"8\"}}.{{delay frames=\"8\"}}.{{delay frames=\"8\"}}.{{delay frames=\"8\"}}!{{delay frames=\"20\"}} C'est\n{{color id=\"2\"}}{{fun_00030011 arg=\"0x0100\"}}{{color id=\"65535\"}}, nan?!{{delay frames=\"15\"}}{{pageBreak}}{{anim id=\"21\"}}M'étonne pas qu'ça plaise à\n{{fun_00010011 arg=\"0x0000\"}},{{delay frames=\"20\"}} {{fun_00070005 arg=\"\"}}!"
  },
  {
    "label": "005",
    "text": "{{anim id=\"21\"}}{{fun_00010011 arg=\"0x0000\"}} connaît les programmes\nde télé-shopping nocturnes sur\nl'bout des doigts{{delay frames=\"8\"}}.{{delay frames=\"8\"}}.{{delay frames=\"8\"}}.\n{{anim id=\"5\"}}En tant que couche-tard, on s'refile\nsouvent les bons plans qu'on y\ndécouvre,{{delay frames=\"20\"}} {{fun_00070005 arg=\"\"}}!"
  },
  {
    "label": "006",
    "text": "{{anim id=\"23\"}}J'ai jamais vu {{fun_00010011 arg=\"0x0000\"}} jouer d'un\ninstrument{{delay frames=\"8\"}}.{{delay frames=\"8\"}}.{{delay frames=\"8\"}}.{{delay frames=\"20\"}} Et toi?{{pageBreak}}{{anim id=\"21\"}}J'imagine qu'elle en est capable vu\n{{fun_0001000E arg=\"\"}}{{fun_00030011 arg=\"0x0000\"}} qui\ntraîne dans cette pièce!"
  },
  {
    "label": "007",
    "text": "{{anim id=\"21\"}}{{fun_00010011 arg=\"0x0000\"}} est une véritable\ngastronome, mais apparemment,\nelle cuisine pas beaucoup...\n{{anim id=\"36\"}}C'est à s'demander c'quelle fiche\navec {{fun_0002000E arg=\"\"}}{{fun_00030011 arg=\"0x0000\"}}!{{delay frames=\"20\"}}\n{{fun_0003000E arg=\"\"}}{{fun_00070005 arg=\"\"}}!"
  },
  {
    "label": "008",
    "text": "{{fun_00040009 arg=\"0x46004700480049004A004B00\"}}"
  },
  {
    "label": "009",
    "text": "{{anim id=\"36\"}}J'imaginais pas {{fun_00010011 arg=\"0x0000\"}} dormir\ndans autre chose qu'un énorme lit...{{pageBreak}}{{anim id=\"37\"}}J'te parie même que l'matelas est\nd'super bonne qualité,{{delay frames=\"20\"}}\n{{fun_00070005 arg=\"\"}}!"
  },
  {
    "label": "010",
    "text": "{{anim id=\"36\"}}Hi hi! J'l'imagine tout à fait en train\nd'lire l'dernier bouquin à la mode\ninstallée dans ce fauteuil!\n{{anim id=\"21\"}}J'vois même le titre du livre d'ici{{delay frames=\"8\"}}.{{delay frames=\"8\"}}.{{delay frames=\"8\"}}.{{delay frames=\"20\"}}\n{{fun_001D0005 arg=\"0x0000\"}}, ou\nun truc dans l'genre,{{delay frames=\"20\"}} {{fun_00070005 arg=\"\"}}!"
  },
  {
    "label": "011",
    "text": "{{fun_00040009 arg=\"0x46004700480049004A004B00\"}}"
  },
  {
    "label": "012",
    "text": "{{anim id=\"21\"}}Ce s'rait marrant si les chaises\navaient, genre, des grades, tout ça,\ntu crois pas?\n{{anim id=\"6\"}}Vu qu'{{fun_0001000E arg=\"\"}}{{fun_00030011 arg=\"0x0000\"}}\nqui s'trouve là est en bon état, ce\ns'rait {{fun_0008000E arg=\"0x00CD04006C00270006006C00610020000000\"}}capitaine des chaises{{delay frames=\"8\"}}.{{delay frames=\"8\"}}.{{delay frames=\"8\"}}.\n{{anim id=\"37\"}}{{fun_0008000E arg=\"0x00CD080045006C006C006500040049006C000000\"}} s'laisserait pas marcher sur les\npieds par les autres chaises!{{delay frames=\"20\"}} {{anim id=\"36\"}}Bah vi,\nles chaises ont des pieds{{delay frames=\"8\"}}.{{delay frames=\"8\"}}.{{delay frames=\"8\"}}.{{delay frames=\"20\"}} Bref..."
  },
  {
    "label": "013",
    "text": "{{fun_00040009 arg=\"0x46004700480049004A004B00\"}}"
  },
  {
    "label": "014",
    "text": "{{anim id=\"6\"}}Attention! Si tu veux sortir d'ici\n{{fun_0006000E arg=\"0x0C0076006900760061006E0074000E0076006900760061006E0074006500\"}}, t'amuse pas à ouvrir le\nmoindre placard ou tiroir!\n{{anim id=\"13\"}}Elle m'a dit qu'si on f'sait ça sans\nsa permission, la maison nous\navalerait!{{delay frames=\"20\"}} {{fun_0003000E arg=\"\"}}{{fun_00070005 arg=\"\"}}!{{delay frames=\"20\"}}{{anim id=\"9\"}}"
  },
  {
    "label": "015",
    "text": "{{anim id=\"11\"}}{{fun_00010011 arg=\"0x0000\"}} dit souvent qu'les\nmatins difficiles, y'a qu'le café qui\nsoit valable{{delay frames=\"8\"}}.{{delay frames=\"8\"}}.{{delay frames=\"8\"}}.\n{{anim id=\"21\"}}Facile à dire quand on a\n{{fun_0002000E arg=\"\"}}{{fun_00030011 arg=\"0x0000\"}} à la\nmaison!\n{{anim id=\"37\"}}Sérieux{{delay frames=\"8\"}}.{{delay frames=\"8\"}}.{{delay frames=\"8\"}}.{{delay frames=\"20\"}} Tu t'vois aller jusque chez\n{{color id=\"4\"}}Robusto {{color id=\"65535\"}}alors qu't'es pas du tout\n{{fun_0006000E arg=\"0x10007200E9007600650069006C006C00E90012007200E9007600650069006C006C00E9006500\"}},{{delay frames=\"20\"}} {{fun_00070005 arg=\"\"}}?"
  },
  {
    "label": "016",
    "text": "{{anim id=\"21\"}}À un moment, {{fun_00010011 arg=\"0x0000\"}} s'était\nmis en tête de populariser c'qu'elle\nappelait « la danse gyroïdale »{{delay frames=\"8\"}}.{{delay frames=\"8\"}}.{{delay frames=\"8\"}}.\n{{anim id=\"27\"}}Si tu veux mon avis, elle avait juste\nsingé {{fun_0001000E arg=\"\"}}{{fun_00030011 arg=\"0x0000\"}}\nqui s'trouve sous nos yeux!"
  },
  {
    "label": "017",
    "text": "{{anim id=\"21\"}}Tiens{{delay frames=\"8\"}}.{{delay frames=\"8\"}}.{{delay frames=\"8\"}}.{{delay frames=\"20\"}} C'est plutôt original\nd'utiliser des fringues pour décorer\nson intérieur...\n{{anim id=\"37\"}}Ça peut même s'avérer pratique si\njamais t'as besoin d'te changer\nd'toute urgence,{{delay frames=\"20\"}} {{fun_00070005 arg=\"\"}}!"
  },
  {
    "label": "018",
    "text": "{{fun_00040009 arg=\"0x46004700480049004A004B00\"}}"
  },
  {
    "label": "019",
    "text": "{{anim id=\"21\"}}{{fun_00010011 arg=\"0x0000\"}} s'pose en face d'son\nmiroir une heure par jour.{{pageBreak}}{{anim id=\"35\"}}Ça explique qu'il soit si propre,{{delay frames=\"20\"}}\n{{fun_00070005 arg=\"\"}}!"
  },
  {
    "label": "020",
    "text": "{{anim id=\"11\"}}{{fun_00010011 arg=\"0x0000\"}} lit vraiment tant qu'ça?{{delay frames=\"15\"}}\n{{anim id=\"21\"}}Sa bibliothèque est fournie, mais\nc'est p't'être juste pour faire style!"
  },
  {
    "label": "021",
    "text": "{{anim id=\"21\"}}Se servir d'ustensiles qui nous\nplaisent est un bon moyen d'se\nmotiver à faire l'ménage!\n{{anim id=\"36\"}}Tu vois {{fun_0001000E arg=\"\"}}{{fun_00030011 arg=\"0x0000\"}},\nlà? J'te parie {{fun_000A000E arg=\"0x080071007500650020000600710075002700\"}}{{fun_00010011 arg=\"0x0000\"}} s'fait\nà chaque fois un plaisir de l'utiliser!"
  },
  {
    "label": "022",
    "text": "{{anim id=\"37\"}}J'pensais pas {{fun_000A000E arg=\"0x080071007500650020000600710075002700\"}}{{fun_00010011 arg=\"0x0000\"}} aimait\nles fossiles au point de décorer ses\nmurs avec{{delay frames=\"8\"}}.{{delay frames=\"8\"}}.{{delay frames=\"8\"}}.\n{{anim id=\"23\"}}C'est la nouvelle tendance en\nmatière de déco d'intérieur ou\nquoi?{{delay frames=\"20\"}} {{fun_0003000E arg=\"\"}}{{fun_00070005 arg=\"\"}}?"
  },
  {
    "label": "023",
    "text": "{{anim id=\"16\"}}{{fun_0003000E arg=\"\"}}{{fun_0002000E arg=\"\"}}{{fun_00030011 arg=\"0x0000\"}}!{{delay frames=\"25\"}}\n{{fun_0003000E arg=\"\"}}{{fun_00070005 arg=\"\"}}...{{pageBreak}}{{anim id=\"43\"}}J'ai trop envie d'la voir l'utiliser{{delay frames=\"8\"}}.{{delay frames=\"8\"}}.{{delay frames=\"8\"}}.{{delay frames=\"20\"}}\n{{anim id=\"37\"}}Chuis sûre qu'elle lève le p'tit doigt\nen portant la tasse à sa bouche!"
  },
  {
    "label": "024",
    "text": "{{fun_00040009 arg=\"0x46004700480049004A004B00\"}}"
  },
  {
    "label": "025",
    "text": "{{anim id=\"21\"}}{{fun_00010011 arg=\"0x0000\"}} était au taquet à l'idée\nd'ouvrir son blog{{delay frames=\"8\"}}.{{delay frames=\"8\"}}.{{delay frames=\"8\"}}.{{delay frames=\"20\"}} {{anim id=\"9\"}}Mais ça fait un\nbail qu'j'en ai plus entendu parler.\n{{anim id=\"36\"}}Y'a moyen qu'elle ait jamais réussi à\nallumer son ordi,{{delay frames=\"20\"}} {{fun_00070005 arg=\"\"}}!"
  },
  {
    "label": "026",
    "text": "{{anim id=\"1\"}}Ça m'aurait étonnée d'pas trouver\nd'fleurs chez {{fun_00010011 arg=\"0x0000\"}}!{{pageBreak}}{{anim id=\"21\"}}Franchement, si y'a bien un truc que\nj'lui envie, c'est son sens de la déco\nflorale!"
  },
  {
    "label": "027",
    "text": "{{anim id=\"23\"}}Y m'semble {{fun_000A000E arg=\"0x080071007500650020000600710075002700\"}}{{fun_00010011 arg=\"0x0000\"}} fait\nquasiment jamais la cuisine...{{pageBreak}}{{anim id=\"21\"}}D'où l'intérêt d'avoir un bon\nréfrigérateur pour y entasser des\nplats préparés,{{delay frames=\"20\"}} {{fun_00070005 arg=\"\"}}."
  },
  {
    "label": "028",
    "text": "{{fun_00040009 arg=\"0x46004700480049004A004B00\"}}"
  },
  {
    "label": "029",
    "text": "{{anim id=\"16\"}}Tiens, ça tombe bien, ça m'fait\npenser à un truc{{delay frames=\"8\"}}.{{delay frames=\"8\"}}.{{delay frames=\"8\"}}.{{delay frames=\"8\"}} Faut qu'j'achète\ncinq kilos d'patates en rentrant."
  },
  {
    "label": "030",
    "text": "{{fun_00040009 arg=\"0x46004700480049004A004B00\"}}"
  },
  {
    "label": "031",
    "text": "{{fun_00040009 arg=\"0x46004700480049004A004B00\"}}"
  },
  {
    "label": "032",
    "text": "{{anim id=\"11\"}}J'me demande c'{{fun_000A000E arg=\"0x080071007500650020000600710075002700\"}}{{fun_00010011 arg=\"0x0000\"}}\ntrafique avec {{fun_0002000E arg=\"\"}}\n{{fun_00030011 arg=\"0x0000\"}}{{delay frames=\"8\"}}.{{delay frames=\"8\"}}.{{delay frames=\"8\"}}.\n{{anim id=\"9\"}}La connaissant, j'imagine qu'y vaut\nmieux éviter d'lui poser la question,{{delay frames=\"20\"}}\n{{fun_00070005 arg=\"\"}}!"
  },
  {
    "label": "033",
    "text": "{{fun_00040009 arg=\"0x46004700480049004A004B00\"}}"
  },
  {
    "label": "034",
    "text": "{{fun_00040009 arg=\"0x46004700480049004A004B00\"}}"
  },
  {
    "label": "035",
    "text": "{{anim id=\"11\"}}{{fun_00010011 arg=\"0x0000\"}} a installé {{fun_0002000E arg=\"\"}}\n{{fun_00030011 arg=\"0x0000\"}} dans cette\npièce{{delay frames=\"8\"}}.{{delay frames=\"8\"}}.{{delay frames=\"8\"}}.{{delay frames=\"20\"}} {{anim id=\"21\"}}Riche idée,{{delay frames=\"20\"}} {{fun_00070005 arg=\"\"}}!"
  },
  {
    "label": "036",
    "text": "{{fun_00040009 arg=\"0x46004700480049004A004B00\"}}"
  },
  {
    "label": "037",
    "text": "{{anim id=\"13\"}}Gné?! Pourquoi diable {{fun_00010011 arg=\"0x0000\"}}\naurait {{fun_0002000E arg=\"\"}}{{fun_00030011 arg=\"0x0000\"}}\nchez elle?!\n{{anim id=\"9\"}}Elle nous cache un truc, c'est obligé,{{delay frames=\"20\"}}\n{{fun_00070005 arg=\"\"}}!"
  },
  {
    "label": "038",
    "text": "{{anim id=\"9\"}}{{fun_00010011 arg=\"0x0000\"}} disait vouloir faire plus\nde sport ces temps-ci, mais{{delay frames=\"8\"}}.{{delay frames=\"8\"}}.{{delay frames=\"8\"}}.{{delay frames=\"20\"}}{{pageBreak}}{{anim id=\"10\"}}{{fun_0003000E arg=\"\"}}{{fun_0002000E arg=\"\"}}{{fun_00030011 arg=\"0x0000\"}}?!{{delay frames=\"20\"}}\nC'est pas un peu exagéré,{{delay frames=\"20\"}}\n{{fun_00070005 arg=\"\"}}?"
  },
  {
    "label": "039",
    "text": "{{anim id=\"37\"}}Une piscine d'intérieur? Rien d'plus\nnormal pour {{fun_00010011 arg=\"0x0000\"}}!{{pageBreak}}{{anim id=\"36\"}}En fait, remplie d'eau chaude, elle y\nfait sa toilette, et remplie d'eau\nfroide, elle y nage...{{delay frames=\"10\"}} Pas bête!{{delay frames=\"20\"}}{{anim id=\"0\"}}"
  },
  {
    "label": "040",
    "text": "{{anim id=\"11\"}}{{fun_00010011 arg=\"0x0000\"}} est assez spéciale dès\nqu'il s'agit de bain ou de douche{{delay frames=\"8\"}}.{{delay frames=\"8\"}}.{{delay frames=\"8\"}}.{{pageBreak}}{{anim id=\"23\"}}À mon avis, c'qu'on voit là, c'est\npas {{fun_0002000E arg=\"\"}}{{fun_00030011 arg=\"0x0000\"}}\nordinaire.\n{{anim id=\"37\"}}Ça y ressemble, mais crois-moi. Y'a\nforcément un truc zarbi planqué\nquelque part.{{delay frames=\"20\"}} {{fun_0003000E arg=\"\"}}{{fun_00070005 arg=\"\"}}!"
  },
  {
    "label": "041",
    "text": "{{fun_00040009 arg=\"0x46004700480049004A004B00\"}}"
  },
  {
    "label": "042",
    "text": "{{fun_00040009 arg=\"0x46004700480049004A004B00\"}}"
  },
  {
    "label": "043",
    "text": "{{anim id=\"37\"}}À ton avis, {{fun_00010011 arg=\"0x0000\"}} a connu les\nannées {{fun_00030011 arg=\"0x0000\"}}?{{pageBreak}}{{anim id=\"16\"}}Lui demande pas directement, hein!{{delay frames=\"15\"}}\n{{anim id=\"9\"}}Elle voit rouge dès qu'la discussion\nporte plus ou moins sur son âge!"
  },
  {
    "label": "044",
    "text": "{{fun_00040009 arg=\"0x46004700480049004A004B00\"}}"
  },
  {
    "label": "045",
    "text": ""
  },
  {
    "label": "046",
    "text": ""
  },
  {
    "label": "047",
    "text": ""
  },
  {
    "label": "048",
    "text": ""
  },
  {
    "label": "049",
    "text": ""
  },
  {
    "label": "050",
    "text": ""
  },
  {
    "label": "051",
    "text": ""
  },
  {
    "label": "052",
    "text": ""
  },
  {
    "label": "053",
    "text": ""
  },
  {
    "label": "054",
    "text": ""
  },
  {
    "label": "055",
    "text": ""
  },
  {
    "label": "056",
    "text": ""
  },
  {
    "label": "057",
    "text": ""
  },
  {
    "label": "058",
    "text": ""
  },
  {
    "label": "059",
    "text": ""
  },
  {
    "label": "060",
    "text": ""
  },
  {
    "label": "061",
    "text": ""
  },
  {
    "label": "062",
    "text": ""
  },
  {
    "label": "063",
    "text": ""
  },
  {
    "label": "064",
    "text": ""
  },
  {
    "label": "065",
    "text": ""
  },
  {
    "label": "066",
    "text": ""
  },
  {
    "label": "067",
    "text": ""
  },
  {
    "label": "068",
    "text": ""
  },
  {
    "label": "069",
    "text": ""
  },
  {
    "label": "070",
    "text": "{{anim id=\"37\"}}Chaque recoin d'cet endroit crie\n« {{fun_00010011 arg=\"0x0000\"}} »{{delay frames=\"8\"}}.{{delay frames=\"8\"}}.{{delay frames=\"8\"}}.{{delay frames=\"20\"}} {{fun_0003000E arg=\"\"}}{{fun_00070005 arg=\"\"}}!{{delay frames=\"15\"}}\nT'entends pas...?"
  },
  {
    "label": "071",
    "text": "{{anim id=\"21\"}}Hé hé! On s'croirait presque dans\nun garde-meubles, ici!{{delay frames=\"20\"}}\n{{fun_0003000E arg=\"\"}}{{fun_00070005 arg=\"\"}}."
  },
  {
    "label": "072",
    "text": "{{anim id=\"35\"}}Hi hi! Cette pièce manque de rien,\ntu trouves pas?{{delay frames=\"20\"}} {{fun_0003000E arg=\"\"}}{{fun_00070005 arg=\"\"}}?"
  },
  {
    "label": "073",
    "text": "{{anim id=\"21\"}}Même si tout l'monde avait les\nmêmes meubles{{delay frames=\"8\"}}.{{delay frames=\"8\"}}.{{delay frames=\"8\"}}.{{delay frames=\"20\"}} {{anim id=\"37\"}}la façon d'les\nagencer diffèrerait pour chacun!"
  },
  {
    "label": "074",
    "text": "{{anim id=\"21\"}}Hi hi! Ça t'étonne si j'te dis\n{{fun_000A000E arg=\"0x080071007500650020000600710075002700\"}}{{fun_00010011 arg=\"0x0000\"}} est une véritable fée\ndu logis?{{delay frames=\"15\"}} Vraiment?!"
  },
  {
    "label": "075",
    "text": "{{anim id=\"26\"}}Hum! Chez les autres, j'ai toujours\npeur d'faire des gaffes... Casser des\ntrucs, tout ça,{{delay frames=\"20\"}} {{fun_00070005 arg=\"\"}}..."
  },
  {
    "label": "076",
    "text": ""
  },
  {
    "label": "077",
    "text": ""
  },
  {
    "label": "078",
    "text": ""
  },
  {
    "label": "079",
    "text": ""
  },
  {
    "label": "080",
    "text": ""
  },
  {
    "label": "081",
    "text": ""
  },
  {
    "label": "082",
    "text": ""
  },
  {
    "label": "083",
    "text": ""
  },
  {
    "label": "084",
    "text": ""
  }
]