﻿[
  {
    "label": "001",
    "text": "{{anim id=\"21\"}}En ce moment, j'réfléchis à un motif\nkiller, et j'verrais bien un truc basé\nsur {{fun_0001000E arg=\"\"}}{{color id=\"2\"}}{{fun_00030011 arg=\"0x0000\"}}{{color id=\"65535\"}}...\n{{anim id=\"4\"}}C'est pas l'insecte le plus rare du\nmonde{{delay frames=\"15\"}}.{{delay frames=\"15\"}}.{{delay frames=\"15\"}}.{{delay frames=\"20\"}} mais à bien le scruter, sa\nsilhouette est vraiment stylée!\n{{anim id=\"0\"}}Donc, {{fun_00080005 arg=\"\"}},{{delay frames=\"20\"}} tu es fortiche\nà la chasse aux insectes, nan?{{pageBreak}}{{anim id=\"21\"}}Tu voudrais bien m'attraper\n{{fun_0002000E arg=\"\"}}{{fun_00030011 arg=\"0x0000\"}}?{{delay frames=\"20\"}} {{anim id=\"37\"}}{{fun_0008000E arg=\"0x00CD040049006C00080045006C006C0065000000\"}}\nm'servira de modèle pour le motif!{{fun_0005000F arg=\"0x15002800\"}}\nJ'en fais mon affaire!\nPas le temps!"
  },
  {
    "label": "002",
    "text": "{{anim id=\"32\"}}Hep!{{delay frames=\"20\"}} {{anim id=\"23\"}}Dis, d'après toi, j'ressemble à\n{{fun_0002000E arg=\"\"}}{{color id=\"2\"}}{{fun_00030011 arg=\"0x0000\"}}{{color id=\"65535\"}}?!{{delay frames=\"20\"}}\n{{anim id=\"27\"}}Selon {{fun_00020005 arg=\"\"}}, c'est le cas...\n{{anim id=\"0\"}}Paraît que tu t'y connais en chasse\naux insectes, {{fun_00080005 arg=\"\"}}...{{pageBreak}}{{anim id=\"21\"}}Tu crois que tu pourrais m'attraper\n{{fun_0002000E arg=\"\"}}{{fun_00030011 arg=\"0x0000\"}}?{{delay frames=\"20\"}}\n{{anim id=\"37\"}}Faut que j'en aie le cœur net!{{fun_0005000F arg=\"0x15002800\"}}\nPas de problème!\nPas envie, là..."
  },
  {
    "label": "003",
    "text": "{{anim id=\"6\"}}{{delay frames=\"20\"}}Mon super-héros favori achève\ntoujours ses combats sur ce coup :\nl'attaque {{color id=\"2\"}}{{fun_00030011 arg=\"0x0000\"}}{{color id=\"65535\"}}!\n{{anim id=\"44\"}}{{delay frames=\"20\"}}C'est son super-pouvoir ultime!{{pageBreak}}{{anim id=\"21\"}}Quand j'ai vu ça, j'ai voulu dégoter\n{{fun_0002000E arg=\"\"}}{{fun_00030011 arg=\"0x0000\"}}{{delay frames=\"15\"}}.{{delay frames=\"15\"}}.{{delay frames=\"15\"}}.{{delay frames=\"20\"}} {{anim id=\"27\"}}Mais\nc'est la misère à attraper!\n{{anim id=\"0\"}}Les insectes, c'est ton truc?{{delay frames=\"20\"}} {{anim id=\"37\"}}Car si\n{{fun_0002000E arg=\"\"}}{{fun_00030011 arg=\"0x0000\"}} peut\nfaire ce coup, faut qu'j'voie ça!\nÇa te dérangerait d'en attraper {{fun_0008000E arg=\"0x00CD040075006E00060075006E0065000000\"}}\npour moi?{{fun_0005000F arg=\"0x15002800\"}}\nPas de souci!\nTrop dur pour moi..."
  },
  {
    "label": "004",
    "text": "{{anim id=\"21\"}}L'autre jour, z'ont montré des\ncombats d'insectes à la télé{{delay frames=\"15\"}}.{{delay frames=\"15\"}}.{{delay frames=\"15\"}}.{{delay frames=\"20\"}} {{anim id=\"37\"}}T'as\npas raté ça, j'espère.{{delay frames=\"20\"}} C'était génial!\nY'avait cette bestiole trop balèze,{{delay frames=\"15\"}}\n{{fun_0002000E arg=\"\"}}{{color id=\"2\"}}{{fun_00030011 arg=\"0x0000\"}}{{color id=\"65535\"}}, je\ncrois...{{delay frames=\"15\"}} L'a pas perdu un round!\n{{anim id=\"43\"}}Comme j'aimerais trop en voir {{fun_0008000E arg=\"0x00CD040075006E00060075006E0065000000\"}}\nde mes propres yeux{{delay frames=\"15\"}}.{{delay frames=\"15\"}}.{{delay frames=\"15\"}}.{{pageBreak}}{{anim id=\"0\"}}J'y pense!{{delay frames=\"20\"}} Tu es fortiche avec le\ninsectes, nan?{{delay frames=\"20\"}} {{anim id=\"37\"}}Tu m'attraperais\n{{fun_0002000E arg=\"\"}}{{fun_00030011 arg=\"0x0000\"}}?{{fun_0005000F arg=\"0x15002800\"}}\nJe m'en occupe!\nUne autre fois..."
  },
  {
    "label": "005",
    "text": "{{anim id=\"37\"}}{{fun_0003000E arg=\"\"}}{{fun_00080005 arg=\"\"}},{{delay frames=\"20\"}} les insectes, ça te fait\npas peur, pas vrai?{{pageBreak}}{{anim id=\"0\"}}Si tu tombes sur un {{color id=\"2\"}}papillon{{color id=\"65535\"}}, tu\npourrais l'attraper pour moi?{{pageBreak}}{{anim id=\"35\"}}J'parie que j'peux apprendre une ou\ndeux techniques de combat en\nobservant leur façon de se déplacer.\n{{anim id=\"21\"}}N'importe quel papillon fera\nl'affaire{{delay frames=\"15\"}}.{{delay frames=\"15\"}}.{{delay frames=\"15\"}}.{{delay frames=\"20\"}} {{anim id=\"37\"}}C'est OK?{{fun_0005000F arg=\"0x15002800\"}}\nDacodac!\nNon."
  },
  {
    "label": "006",
    "text": "{{anim id=\"15\"}}Hep, {{fun_00080005 arg=\"\"}}!{{delay frames=\"20\"}}\nLes insectes, ça te connaît, nan?{{pageBreak}}{{anim id=\"21\"}}En ce moment, chuis à fond dans les\n{{color id=\"2\"}}scarabées à corne{{color id=\"65535\"}}{{delay frames=\"15\"}}.{{delay frames=\"15\"}}.{{delay frames=\"15\"}}.\n{{anim id=\"37\"}}J'imagine que t'as deviné pourquoi?\nÀ cause de cette technique, là,\nquand ils balancent des trucs avec\nleurs cornes!{{delay frames=\"20\"}} C'est juste MOR{{delay frames=\"15\"}}TEL!\n{{anim id=\"5\"}}Faut que j'arrive à les imiter!{{delay frames=\"20\"}}{{anim id=\"0\"}} Donc,\ntu pourrais choper un scarabée à\ncorne pour moi?{{delay frames=\"15\"}} {{anim id=\"21\"}}N'importe lequel!{{fun_0005000F arg=\"0x15002800\"}}\nC'est parti!\nOublie."
  },
  {
    "label": "007",
    "text": "{{anim id=\"15\"}}Hep, {{fun_00080005 arg=\"\"}}!{{delay frames=\"20\"}}\nLes insectes, c'est ton truc, nan?{{pageBreak}}{{anim id=\"21\"}}Chuis à fond dans les {{color id=\"2\"}}lucanes{{color id=\"65535\"}} en ce\nmoment{{delay frames=\"15\"}}.{{delay frames=\"15\"}}.{{delay frames=\"15\"}}.{{delay frames=\"20\"}} J'en rêve carrément!{{delay frames=\"20\"}}\n{{anim id=\"37\"}}J'imagine que t'as deviné pourquoi?\nÀ cause de cette technique, là,\nquand ils balancent des trucs avec\nleurs mandibules!{{delay frames=\"20\"}} La classe totale!\n{{anim id=\"5\"}}{{delay frames=\"20\"}}Faut que j'étudie ce mouvement!{{delay frames=\"20\"}}{{anim id=\"0\"}}\nDonc, tu pourrais attraper un lucane\npour moi?{{delay frames=\"15\"}} {{anim id=\"21\"}}N'importe lequel!{{fun_0005000F arg=\"0x15002800\"}}\nOuaip!\nNan."
  },
  {
    "label": "008",
    "text": "{{anim id=\"37\"}}Hep, {{fun_00080005 arg=\"\"}}, les insectes et toi,\nc'est le parfait amour, pas vrai?{{pageBreak}}{{anim id=\"21\"}}Alors écoute{{delay frames=\"15\"}}.{{delay frames=\"15\"}}.{{delay frames=\"15\"}}.{{delay frames=\"20\"}} Si jamais t'attrapes\nune {{color id=\"2\"}}cigale{{color id=\"65535\"}}, amène-la-moi!{{delay frames=\"20\"}} {{anim id=\"35\"}}J'veux\nétudier leur crissement infernal!\n{{anim id=\"21\"}}N'importe quelle cigale fera\nl'affaire...{{delay frames=\"20\"}} {{anim id=\"37\"}}Ça marche?{{fun_0005000F arg=\"0x15002800\"}}\nÇa marche.\nCours toujours."
  },
  {
    "label": "009",
    "text": "{{anim id=\"37\"}}Hep, {{fun_00080005 arg=\"\"}}!\nLe monde des insectes a plus de\nsecrets pour toi, pas vrai?\n{{anim id=\"21\"}}Alors voilà{{delay frames=\"15\"}}.{{delay frames=\"15\"}}.{{delay frames=\"15\"}}.{{delay frames=\"20\"}} Attrape-moi une\n{{color id=\"2\"}}libellule{{color id=\"65535\"}}, tu veux?{{delay frames=\"15\"}} {{anim id=\"35\"}}Mon but,{{delay frames=\"15\"}} c'est\nd'apprendre à voler en l'étudiant!\n{{anim id=\"0\"}}N'importe quelle libellule fera\nl'affaire, vraiment.{{delay frames=\"20\"}} {{anim id=\"37\"}}T'en es?{{fun_0005000F arg=\"0x15002800\"}}\nJ'en suis.\nT'es en plein délire."
  },
  {
    "label": "010",
    "text": "{{anim id=\"21\"}}J'cherche à créer un nouveau motif,{{delay frames=\"8\"}}\net j'pensais m'appuyer sur\n{{fun_0001000E arg=\"\"}}{{fun_00030011 arg=\"0x0000\"}}...\n{{anim id=\"4\"}}C'est pas l'poisson l'plus rare du\nmonde, on est d'accord{{delay frames=\"15\"}}.{{delay frames=\"15\"}}.{{delay frames=\"15\"}}.{{delay frames=\"20\"}} mais la\nforme de sa queue m'inspire à fond.\n{{anim id=\"0\"}}{{fun_0003000E arg=\"\"}}{{fun_00080005 arg=\"\"}},{{delay frames=\"20\"}} toi qu'est sans {{fun_0006000E arg=\"0x0800E900670061006C000A00E900670061006C006500\"}} la\ncanne à la main,{{delay frames=\"20\"}} {{anim id=\"21\"}}tu m'attraperais\n{{fun_0002000E arg=\"\"}}{{fun_00030011 arg=\"0x0000\"}}?{{delay frames=\"20\"}}\n{{anim id=\"37\"}}Sans sa queue sous les yeux,\ndifficile de faire du bon boulot!{{fun_0005000F arg=\"0x15002800\"}}\nCompte sur moi!\nPas là, désolé{{fun_0006000E arg=\"0x000002006500\"}}..."
  },
  {
    "label": "011",
    "text": "{{anim id=\"21\"}}Écoute{{delay frames=\"15\"}}.{{delay frames=\"15\"}}.{{delay frames=\"15\"}}.{{delay frames=\"20\"}} Ça m'trotte dans le\nciboulot depuis un bail, déjà, mais...{{pageBreak}}{{anim id=\"9\"}}{{fun_0003000E arg=\"\"}}{{fun_00020005 arg=\"\"}}...{{delay frames=\"15\"}} Sa tête te rappelle\npas un truc?{{delay frames=\"15\"}} Ouais, exactement :\n{{fun_0002000E arg=\"\"}}{{color id=\"2\"}}{{fun_00030011 arg=\"0x0000\"}}{{color id=\"65535\"}}!\n{{anim id=\"13\"}}Attends,{{delay frames=\"20\"}} tu trouves pas ça bizarre?{{delay frames=\"20\"}}\nSi ça s'trouve, la poiscaille cherche\nà nous envahir!{{anim id=\"0\"}}\n{{anim id=\"11\"}}Mais avant de tirer des conclusions,\nil nous faut des preuves...{{delay frames=\"20\"}} Une\ncomparaison de visu, par exemple!\n{{anim id=\"0\"}}{{fun_0003000E arg=\"\"}}{{fun_00080005 arg=\"\"}}, toi qui es {{fun_0006000E arg=\"0x040075006E00060075006E006500\"}} pro de la\ncanne à pêche,{{anim id=\"23\"}} tu m'attraperais\n{{fun_0002000E arg=\"\"}}{{fun_00030011 arg=\"0x0000\"}}?{{fun_0005000F arg=\"0x15002800\"}}\nOui, faut vérifier ça!\nNan, poisson power!"
  },
  {
    "label": "012",
    "text": "{{anim id=\"6\"}}{{delay frames=\"20\"}}Écoute un peu ça :{{delay frames=\"15\"}}\n{{anim id=\"44\"}}« J'vais t'atomiser avec ma charge\nmaxi-{{color id=\"2\"}}{{fun_00030011 arg=\"0x0000\"}}{{color id=\"65535\"}}! »\nMeilleure.{{delay frames=\"20\"}} Réplique.{{delay frames=\"20\"}} Jamais.{{delay frames=\"20\"}} Écrite.{{pageBreak}}{{anim id=\"37\"}}Pas mal, hein?{{delay frames=\"20\"}} C'est c'que dit tout\nl'temps l'héroïne d'un d'mes films\nfavoris.{{delay frames=\"20\"}} Une vraie dure à cuire!\n{{anim id=\"21\"}}Mais bref, y m'faut à tout prix\n{{fun_0002000E arg=\"\"}}{{fun_00030011 arg=\"0x0000\"}} pour\nanalyser cette charge maxi-bidule!\n{{anim id=\"27\"}}Et c'est plus facile à dire qu'à\nfaire...{{delay frames=\"20\"}} {{anim id=\"0\"}}Mais dis-moi, tu t'débrouilles\navec une canne à pêche, nan?\n{{anim id=\"37\"}}Y'aurait moyen qu'tu m'attrapes\n{{fun_0002000E arg=\"\"}}{{fun_00030011 arg=\"0x0000\"}}?{{fun_0005000F arg=\"0x15002800\"}}\nJ'y cours!\nSans moi..."
  },
  {
    "label": "013",
    "text": "{{anim id=\"21\"}}L'autre jour, y'avait un reportage à\nla télé où on pouvait voir différents\npoissons et leurs façons d'nager{{delay frames=\"15\"}}.{{delay frames=\"15\"}}.{{delay frames=\"15\"}}.\n{{anim id=\"37\"}}Et t'sais quoi?{{delay frames=\"20\"}} Ils ont montré\n{{fun_0002000E arg=\"\"}}{{color id=\"2\"}}{{fun_00030011 arg=\"0x0000\"}}{{color id=\"65535\"}},{{delay frames=\"15\"}} {{fun_0008000E arg=\"0x00CD040069006C00080065006C006C0065000000\"}}\nfilait comme une torpille!\nFranchement, les autres faisaient\npâle figure face à {{fun_0008000E arg=\"0x00CD06006C0075006900080065006C006C0065000000\"}}.{{delay frames=\"20\"}} {{anim id=\"43\"}}Raaah,{{delay frames=\"20\"}} si un\njour j'pouvais nager comme ça...\n{{anim id=\"0\"}}Mais dis-moi!{{delay frames=\"20\"}} T'es pas {{fun_0006000E arg=\"0x040075006E00060075006E006500\"}} as d'la\ncanne à pêche? {{anim id=\"37\"}}Tu m'attraperais\n{{fun_0002000E arg=\"\"}}{{fun_00030011 arg=\"0x0000\"}}?{{fun_0005000F arg=\"0x15002800\"}}\nBien sûr!\nMarre de pêcher..."
  },
  {
    "label": "014",
    "text": "{{anim id=\"37\"}}T'es fortiche à la pêche,\n{{fun_00080005 arg=\"\"}}?{{pageBreak}}{{anim id=\"35\"}}J't'explique{{delay frames=\"15\"}}.{{delay frames=\"15\"}}.{{delay frames=\"15\"}}.{{delay frames=\"20\"}} J'essaie de percer un\nsecret lié aux {{color id=\"2\"}}poissons d'eau\ndouce{{color id=\"65535\"}}!{{delay frames=\"20\"}} {{anim id=\"40\"}}J'peux pas t'en révéler plus.\n{{anim id=\"37\"}}Ce s'rait mauvais pour mes affaires.{{delay frames=\"20\"}}{{anim id=\"0\"}}\nMais peut-être que si tu m'amènes\nta prochaine prise, j'te dirai tout!\n{{anim id=\"21\"}}N'importe quel {{color id=\"2\"}}poisson d'eau douce{{color id=\"65535\"}}\nconviendra{{delay frames=\"15\"}}.{{delay frames=\"15\"}}.{{delay frames=\"15\"}}.{{delay frames=\"20\"}} {{anim id=\"37\"}}C'est bon pour toi?{{fun_0005000F arg=\"0x15002800\"}}\nOuaip!\nBof..."
  },
  {
    "label": "015",
    "text": "{{anim id=\"37\"}}T'es fortiche avec une canne à\npêche, {{fun_00080005 arg=\"\"}}?{{pageBreak}}{{anim id=\"35\"}}J't'explique{{delay frames=\"15\"}}.{{delay frames=\"15\"}}.{{delay frames=\"15\"}}.{{delay frames=\"20\"}} J'essaie de percer un\nsecret lié aux {{color id=\"2\"}}poissons d'eau de\nmer{{color id=\"65535\"}}!{{delay frames=\"20\"}} {{anim id=\"40\"}}J'peux pas t'en révéler plus.\n{{anim id=\"37\"}}Ce s'rait mauvais pour mes affaires.{{delay frames=\"20\"}}{{anim id=\"0\"}}\nMais peut-être que si tu m'amènes\nta prochaine prise, j'te dirai tout!\n{{anim id=\"21\"}}N'importe quel {{color id=\"2\"}}poisson d'eau de\nmer {{color id=\"65535\"}}conviendra{{delay frames=\"15\"}}.{{delay frames=\"15\"}}.{{delay frames=\"15\"}}.{{delay frames=\"20\"}} {{anim id=\"37\"}}C'est bon pour\ntoi?{{fun_0005000F arg=\"0x15002800\"}}\nOuaip!\nBof..."
  },
  {
    "label": "016",
    "text": "{{anim id=\"22\"}}Royal, {{fun_00080005 arg=\"\"}}!{{delay frames=\"20\"}}\n{{anim id=\"37\"}}Comment j'ferais sans toi,{{delay frames=\"20\"}}\n{{fun_00070005 arg=\"\"}}?"
  },
  {
    "label": "017",
    "text": "{{anim id=\"29\"}}Mortel!{{delay frames=\"10\"}} J'serais bien embêtée si\nt'étais pas là!{{delay frames=\"20\"}} {{anim id=\"37\"}}Me déçois pas,\n{{fun_00080005 arg=\"\"}}!{{delay frames=\"20\"}} {{fun_0003000E arg=\"\"}}{{fun_00070005 arg=\"\"}}!"
  },
  {
    "label": "018",
    "text": "{{anim id=\"9\"}}Ah?!{{delay frames=\"15\"}} Pouquoi?{{delay frames=\"20\"}} Ce serait pourtant\nun jeu d'enfant pour toi,\n{{fun_00080005 arg=\"\"}}{{delay frames=\"15\"}}.{{delay frames=\"15\"}}.{{delay frames=\"15\"}}.\n{{anim id=\"37\"}}Bon, j't'en reparlerai peut-être plus\ntard,{{delay frames=\"15\"}} quand tu seras mieux {{fun_0006000E arg=\"0x0E0064006900730070006F007300E900100064006900730070006F007300E9006500\"}}.{{delay frames=\"20\"}}\n{{fun_0003000E arg=\"\"}}{{fun_00070005 arg=\"\"}}!"
  },
  {
    "label": "019",
    "text": "{{anim id=\"15\"}}Gné?!{{fun_00010007 arg=\"\"}} {{anim id=\"23\"}}Et comment j'fais, moi,\nalors{{delay frames=\"15\"}}.{{delay frames=\"15\"}}.{{delay frames=\"15\"}}.?{{pageBreak}}{{anim id=\"27\"}}OK, j'ai pigé.{{delay frames=\"20\"}} Va encore falloir que\nj'me débrouille toute seule,{{delay frames=\"20\"}}\n{{fun_00070005 arg=\"\"}}..."
  },
  {
    "label": "020",
    "text": "{{anim id=\"29\"}}Wouhou!{{delay frames=\"20\"}} Tu déchires, {{fun_00080005 arg=\"\"}}!\nTu recules devant rien!{{delay frames=\"20\"}}{{anim id=\"37\"}}{{fun_00010007 arg=\"\"}} {{anim id=\"21\"}}Bonne\nchance,{{delay frames=\"20\"}} {{fun_00070005 arg=\"\"}}!"
  },
  {
    "label": "021",
    "text": "{{anim id=\"22\"}}Oh, vraiment?{{delay frames=\"20\"}} {{anim id=\"37\"}}Si y'a bien quelqu'un\nsur qui on peut se reposer, c'est\ntoi!{{delay frames=\"20\"}} {{fun_0003000E arg=\"\"}}{{fun_00070005 arg=\"\"}}!"
  },
  {
    "label": "022",
    "text": "{{anim id=\"3\"}}Mortel! T'assures comme {{fun_0006000E arg=\"0x040075006E00060075006E006500\"}}\nchef!{{fun_00010007 arg=\"\"}} {{anim id=\"37\"}}J'compte sur toi,{{delay frames=\"20\"}}\n{{fun_00070005 arg=\"\"}}!"
  },
  {
    "label": "023",
    "text": "{{anim id=\"15\"}}Waouh!{{delay frames=\"20\"}} T'es {{fun_0006000E arg=\"0x0E007300E9007200690065007500780010007300E900720069006500750073006500\"}}?{{delay frames=\"20\"}} {{anim id=\"37\"}}Super!{{delay frames=\"20\"}}\n{{fun_0003000E arg=\"\"}}{{fun_00070005 arg=\"\"}}!"
  },
  {
    "label": "024",
    "text": "{{anim id=\"2\"}}Arf,{{delay frames=\"15\"}} vraiment pas?{{delay frames=\"20\"}}{{anim id=\"37\"}}{{fun_00010007 arg=\"\"}} {{anim id=\"21\"}}Bon{{delay frames=\"15\"}}.{{delay frames=\"15\"}}.{{delay frames=\"15\"}}.{{delay frames=\"20\"}}\nJ'trouverai bien un moyen d'arriver\nà mes fins,{{delay frames=\"20\"}} {{fun_00070005 arg=\"\"}}."
  },
  {
    "label": "025",
    "text": "{{anim id=\"15\"}}Ah?!{{delay frames=\"20\"}} Vraiment?{{delay frames=\"20\"}}{{anim id=\"0\"}} C'est beaucoup te\ndemander, je sais{{delay frames=\"15\"}}.{{delay frames=\"15\"}}.{{delay frames=\"15\"}}.{{delay frames=\"20\"}} {{anim id=\"37\"}}Bah, pas grave!{{delay frames=\"20\"}}\nJ'me débrouillerai,{{delay frames=\"20\"}} {{fun_00070005 arg=\"\"}}."
  },
  {
    "label": "026",
    "text": "{{anim id=\"9\"}}Nan, tu veux pas?{{delay frames=\"20\"}} {{anim id=\"37\"}}Trop dommage.{{delay frames=\"20\"}}\nMais j'vais pas renoncer pour\nautant,{{delay frames=\"20\"}} {{fun_00070005 arg=\"\"}}!"
  }
]