﻿[
  {
    "label": "001",
    "text": "{{anim id=\"1\"}}Hé hé!{{delay frames=\"20\"}} Alors, {{fun_00080005 arg=\"\"}}, je suis\nsûr que tu adores mon intérieur,\nje me trompe, {{fun_00070005 arg=\"\"}}?"
  },
  {
    "label": "002",
    "text": "{{anim id=\"16\"}}{{fun_000A0007 arg=\"\"}}Oh!{{delay frames=\"20\"}} {{fun_0003000E arg=\"\"}}{{fun_00080005 arg=\"\"}}, c'est encore toi,\n{{fun_00070005 arg=\"\"}}."
  },
  {
    "label": "003",
    "text": "{{anim id=\"32\"}}{{fun_0003000E arg=\"\"}}{{fun_00060007 arg=\"\"}}{{fun_0003000E arg=\"\"}}{{fun_00080005 arg=\"\"}}{{fun_00070007 arg=\"\"}}!{{delay frames=\"20\"}}\nÀ croire que tu aimes vraiment ma\nmaison. Je suis flatté,{{delay frames=\"8\"}} {{fun_00070005 arg=\"\"}}."
  },
  {
    "label": "004",
    "text": "{{anim id=\"1\"}}C'est bien chez soi qu'on est le\nmieux, {{delay frames=\"8\"}}{{fun_00070005 arg=\"\"}}!"
  }
]