﻿[
  {
    "label": "001",
    "text": "Dis {{fun_00080005 arg=\"\"}}... Ce ne serait pas\ngénial d'avoir un mot de passe?\nOu alors une phrase secrète?\nIl n'y aurait que toi et moi qui\npourrions comprendre ce que\nça voudrait dire.\n{{anim id=\"4\"}}Ça ferait un peu comme si on était\ndes espions! {{delay frames=\"20\"}}{{anim id=\"1\"}}Ce serait trop drôle!{{pageBreak}}On choisit une phrase secrète?{{fun_00050008 arg=\"0x0400000003002800\"}}\nOuais!\nElle est nulle, ton idée."
  },
  {
    "label": "002",
    "text": "{{anim id=\"1\"}}Hier à la télé,{{delay frames=\"20\"}} j'ai entendu que tout{{delay frames=\"20\"}}\nle monde devrait choisir une façon\nplus personnelle de dire bonjour.\n{{anim id=\"4\"}}Alors j'ai commencé à réfléchir à\nun moyen plus original de saluer les\ngens.\n{{anim id=\"13\"}}Mais le problème c'est que je n'ai\npas d'idées!{{delay frames=\"20\"}} Tu t'y connais, toi, en\nsalutations sympas,{{delay frames=\"8\"}} {{fun_00080005 arg=\"\"}}?{{fun_00050008 arg=\"0x0400000003002800\"}}\nOn peut dire ça, ouais.\nPas vraiment, non."
  },
  {
    "label": "003",
    "text": "{{anim id=\"12\"}}Mince alors!{{delay frames=\"40\"}} Tu me laisses tomber\ncomme ça, {{fun_00080005 arg=\"\"}}.{{delay frames=\"20\"}} Et moi qui\ncroyais que nous étions amis...{{fun_0003000B arg=\"0x01CD\"}}"
  },
  {
    "label": "004",
    "text": "{{anim id=\"1\"}}Super, tu es vraiment trop sympa!\n{{delay frames=\"20\"}}Alors, qu'est-ce que tu as trouvé,{{delay frames=\"8\"}}\n{{fun_00070005 arg=\"\"}}?"
  },
  {
    "label": "005",
    "text": "{{anim id=\"0\"}}Alors tu me dis ce que tu en penses.{{delay frames=\"40\"}}\n{{anim id=\"32\"}}« {{fun_0003000E arg=\"\"}}{{fun_00060007 arg=\"\"}}　　　　　　　　　　{{fun_00070007 arg=\"\"}}. »{{fun_00010007 arg=\"\"}}\n{{anim id=\"26\"}}Ça en jette, non?{{fun_0008000D arg=\"0x02CD\"}}{{fun_00050008 arg=\"0x0700150006002800\"}}\nExcellent!\nBof..."
  },
  {
    "label": "006",
    "text": "{{anim id=\"13\"}}Comment?!{{fun_00010007 arg=\"\"}}\nBon. Tu aurais une autre proposition\npeut-être,{{delay frames=\"8\"}} {{fun_00070005 arg=\"\"}}?"
  },
  {
    "label": "007",
    "text": "{{fun_00000009 arg=\"0x08000900\"}}"
  },
  {
    "label": "008",
    "text": "{{fun_0003000E arg=\"\"}}{{fun_00060007 arg=\"\"}}　　　　　　　　　　{{fun_00070007 arg=\"\"}}!{{delay frames=\"40\"}}\n{{anim id=\"4\"}}J'adore!{{delay frames=\"20\"}} C'est trop la classe!"
  },
  {
    "label": "009",
    "text": "{{anim id=\"32\"}}{{fun_0003000E arg=\"\"}}{{fun_00060007 arg=\"\"}}　　　　　　　　　　{{fun_00070007 arg=\"\"}}!{{delay frames=\"40\"}}\n{{anim id=\"5\"}}Yes!{{delay frames=\"20\"}} C'est pas génial ça?"
  },
  {
    "label": "010",
    "text": "{{fun_00010009 arg=\"0x0B000C000D00\"}}"
  },
  {
    "label": "011",
    "text": "{{anim id=\"38\"}}Je te remercie sincèrement d'avoir\neu une telle idée,{{delay frames=\"20\"}} {{fun_00080005 arg=\"\"}}!"
  },
  {
    "label": "012",
    "text": "{{anim id=\"43\"}}Trop G-É-N-I-A-L!{{delay frames=\"20\"}} À partir de\nmaintenant, je l'utiliserai à chaque\nfois,{{delay frames=\"8\"}} {{fun_00070005 arg=\"\"}}."
  },
  {
    "label": "013",
    "text": "Merci bien!{{delay frames=\"20\"}} Ça, c'est de l'idée,{{delay frames=\"8\"}}\n{{fun_00070005 arg=\"\"}}."
  },
  {
    "label": "014",
    "text": ""
  },
  {
    "label": "015",
    "text": ""
  }
]