﻿[
  {
    "label": "001",
    "text": "{{i10_11 arg=\"0x1011000F00CD\"}}"
  },
  {
    "label": "002",
    "text": "{{i10_11 arg=\"0x1011001000CD\"}}"
  },
  {
    "label": "003",
    "text": "{{i10_11 arg=\"0x1014001200CD\"}}"
  },
  {
    "label": "004",
    "text": "{{i10_11 arg=\"0x1014001300CD\"}}"
  },
  {
    "label": "005",
    "text": "{{i10_11 arg=\"0x1017001500CD\"}}"
  },
  {
    "label": "006",
    "text": "{{i10_11 arg=\"0x1017001600CD\"}}"
  },
  {
    "label": "007",
    "text": "{{i10_11 arg=\"0x101A001800CD\"}}"
  },
  {
    "label": "008",
    "text": "{{i10_11 arg=\"0x101A001900CD\"}}"
  },
  {
    "label": "009",
    "text": "{{i10_11 arg=\"0x100D000C00CD\"}}"
  },
  {
    "label": "010",
    "text": "{{i10_11 arg=\"0x100D000C00CD\"}}"
  },
  {
    "label": "011",
    "text": ""
  },
  {
    "label": "012",
    "text": "{{fun_00000009 arg=\"0x1B001C00\"}}"
  },
  {
    "label": "013",
    "text": "{{fun_00000009 arg=\"0x1D001E00\"}}"
  },
  {
    "label": "014",
    "text": ""
  },
  {
    "label": "015",
    "text": "{{anim id=\"1\"}}Bonjour{{delay frames=\"20\"}} {{fun_00000005 arg=\"\"}}, {{fun_00070005 arg=\"\"}}!"
  },
  {
    "label": "016",
    "text": "{{anim id=\"25\"}}Les jours pluvieux je m'endors\nencore plus facilement que les\nautres jours,{{delay frames=\"10\"}} {{fun_00000005 arg=\"\"}}.\n{{anim id=\"1\"}}Au moins, quand tu es là, je ne\nm'endors pas!{{delay frames=\"40\"}} Tu as le don de me\nfiler la patate, {{fun_00070005 arg=\"\"}}!"
  },
  {
    "label": "017",
    "text": "{{anim id=\"3\"}}Un temps comme ça...{{delay frames=\"40\"}} Moi ça me\ndonne la pêche,{{delay frames=\"10\"}} {{fun_00070005 arg=\"\"}}!"
  },
  {
    "label": "018",
    "text": "Salut, {{fun_00000005 arg=\"\"}}. Content de voir\nque la pluie ne te décourage pas de\nvenir nous voir,{{delay frames=\"10\"}} {{fun_00070005 arg=\"\"}}."
  },
  {
    "label": "019",
    "text": "{{anim id=\"23\"}}Ça ne te dérange pas trop qu'il\npleuve comme ça le jour où tu viens\nnous rendre une petite visite?{{pageBreak}}{{anim id=\"35\"}}Ne t'inquiète pas, on ne s'ennuie\njamais à {{fun_00050005 arg=\"\"}}. Même pas les\njours de pluie,{{delay frames=\"10\"}} {{fun_00070005 arg=\"\"}}."
  },
  {
    "label": "020",
    "text": "{{anim id=\"16\"}}{{fun_0003000E arg=\"\"}}{{fun_00000005 arg=\"\"}} est dans la place\naujourd'hui!{{pageBreak}}{{anim id=\"5\"}}Génial! Ça rend ce jour de pluie\ndoublement agréable,{{delay frames=\"10\"}} {{fun_00070005 arg=\"\"}}."
  },
  {
    "label": "021",
    "text": "{{anim id=\"43\"}}C'est bizarre... {{delay frames=\"60\"}}Quand il pleut sur\n{{fun_00050005 arg=\"\"}} la nuit, ça fait comme\nune drôle de sensation...\n{{anim id=\"4\"}}Un peu comme si on était dans un\nfilm noir,{{delay frames=\"10\"}} tu trouves pas,\n{{fun_00070005 arg=\"\"}}?"
  },
  {
    "label": "022",
    "text": "{{anim id=\"1\"}}Si tu n'aimes pas la pluie tu peux\ntoujours t'abriter chez quelqu'un,\n{{fun_00000005 arg=\"\"}}. Ne te gêne surtout pas.\n{{anim id=\"5\"}}{{delay frames=\"20\"}}Ici à {{fun_00050005 arg=\"\"}}, tout le monde aime\nrecevoir de la visite,{{delay frames=\"8\"}} {{fun_00070005 arg=\"\"}}!"
  },
  {
    "label": "023",
    "text": "{{anim id=\"1\"}}Aaah... Décidément, les promenades\nnocturnes sous la pluie sont bien\ncelles que je préfère,{{delay frames=\"10\"}} {{fun_00070005 arg=\"\"}}."
  },
  {
    "label": "024",
    "text": "{{anim id=\"15\"}}{{fun_000B0007 arg=\"\"}}Holà!{{delay frames=\"20\"}}{{fun_00010007 arg=\"\"}} {{anim id=\"11\"}}Qui c'est ça{{delay frames=\"8\"}}.{{delay frames=\"8\"}}.{{delay frames=\"8\"}}.{{delay frames=\"8\"}} {{fun_00000005 arg=\"\"}}?!{{pageBreak}}{{anim id=\"13\"}}On t'a jamais dit que ça se fait pas\nde faire peur aux gens la nuit?!{{delay frames=\"20\"}}\nC'est pas cool ça,{{delay frames=\"8\"}} {{fun_00070005 arg=\"\"}}!"
  },
  {
    "label": "025",
    "text": "{{anim id=\"25\"}}{{fun_0003000E arg=\"\"}}{{fun_00000005 arg=\"\"}}, il est tard et il pleut.\nIl est plus que temps d'aller se\nmettre au lit.{{delay frames=\"20\"}} Sérieux, {{fun_00070005 arg=\"\"}}."
  },
  {
    "label": "026",
    "text": "Alors tu es comme moi pour ça,\n{{fun_00000005 arg=\"\"}}? {{delay frames=\"20\"}}Tu aimes sortir la nuit\npar temps de pluie,{{delay frames=\"8\"}} {{fun_00070005 arg=\"\"}}?"
  },
  {
    "label": "027",
    "text": "{{anim id=\"1\"}}Cool, {{delay frames=\"20\"}}c'est {{fun_00000005 arg=\"\"}}!{{delay frames=\"40\"}}\nTu sors quand même malgré la pluie.{{delay frames=\"20\"}}\nTu as du courage, {{delay frames=\"8\"}}{{fun_00070005 arg=\"\"}}."
  },
  {
    "label": "028",
    "text": "{{anim id=\"1\"}}{{fun_0003000E arg=\"\"}}{{fun_00060007 arg=\"\"}}Super,{{delay frames=\"20\"}} voilà {{fun_00000005 arg=\"\"}}{{fun_00070007 arg=\"\"}}!{{delay frames=\"40\"}}\nMaintenant que tu es là,{{delay frames=\"8\"}} je me sens\ndéjà mieux, {{fun_00070005 arg=\"\"}}."
  },
  {
    "label": "029",
    "text": "Hé, bienvenue,{{delay frames=\"8\"}} {{fun_00000005 arg=\"\"}}!{{delay frames=\"40\"}}\n{{anim id=\"5\"}}{{fun_0003000E arg=\"\"}}{{fun_00070005 arg=\"\"}}! Tu n'as rien contre\nles éclaboussures, j'espère!"
  },
  {
    "label": "030",
    "text": "{{anim id=\"1\"}}Salut, {{fun_00000005 arg=\"\"}}.{{delay frames=\"20\"}} Tu trouves pas ça\ngénial d'être trempé{{fun_0006000E arg=\"0x000002006500\"}} jusqu'aux os\ntoi,{{delay frames=\"8\"}} {{fun_00070005 arg=\"\"}}?"
  }
]