﻿[
  {
    "label": "001",
    "text": "{{anim id=\"1\"}}Bonjour toi!{{delay frames=\"20\"}} Alors toi aussi tu viens\nrendre visite à {{fun_00010011 arg=\"0x0000\"}}?{{delay frames=\"20\"}} Sympa,{{delay frames=\"8\"}}\n{{fun_00070005 arg=\"\"}}!"
  },
  {
    "label": "002",
    "text": "{{anim id=\"1\"}}{{fun_0003000E arg=\"\"}}{{fun_00060007 arg=\"\"}}{{fun_0003000E arg=\"\"}}{{fun_00080005 arg=\"\"}}{{fun_00070007 arg=\"\"}}!{{delay frames=\"20\"}}\nOn dirait qu'on a tous les deux eu\nl'idée de venir chez {{fun_00010011 arg=\"0x0000\"}}!\n{{fun_0003000E arg=\"\"}}{{fun_00070005 arg=\"\"}}!"
  },
  {
    "label": "003",
    "text": "{{anim id=\"1\"}}Quelle heureuse coïncidence! Tu as\neu la même envie que moi de voir\n{{fun_00010011 arg=\"0x0000\"}} on dirait,{{delay frames=\"8\"}} {{fun_00070005 arg=\"\"}}!"
  }
]