﻿[
  {
    "label": "001",
    "text": "{{anim id=\"15\"}}{{fun_000A0007 arg=\"\"}}{{fun_0003000E arg=\"\"}}{{fun_0002000E arg=\"\"}}{{fun_00030011 arg=\"0x0000\"}}?!\nOù t'as eu ça, {{fun_00080005 arg=\"\"}}?{{fun_00010007 arg=\"\"}} {{anim id=\"13\"}}Ça fait\nune éternité que j'en cherche {{fun_0008000E arg=\"0x00CD040075006E00060075006E0065000000\"}}!\nÇa te dirait de me l'échanger contre\n{{fun_0002000E arg=\"\"}}{{fun_00030011 arg=\"0x0100\"}}?\nAllez, dis oui!{{delay frames=\"20\"}} S'il te plaît!{{fun_00050008 arg=\"0x0500150004002800\"}}\nD'accord!\nSûrement pas!"
  },
  {
    "label": "002",
    "text": "{{anim id=\"6\"}}Ça sent\n{{fun_0001000E arg=\"\"}}{{fun_00030011 arg=\"0x0000\"}}!{{delay frames=\"20\"}}\nC'est toi qui en as?{{fun_00050008 arg=\"0x0700000008002800\"}}\nComment tu le sais?\nNon, je n'en ai pas."
  },
  {
    "label": "003",
    "text": "Moi, je collectionne toutes sortes\nd'objets différents.{{delay frames=\"20\"}}{{anim id=\"21\"}} Et je suis fier\nde mes collections.\n{{anim id=\"1\"}}Et si tu m'échangeais {{fun_0008000E arg=\"0x00CD120074006F006E0020007000650074006900740012007400610020007000650074006900740065000000\"}}\n{{fun_00030011 arg=\"0x0000\"}} contre\n{{fun_0002000E arg=\"\"}}{{fun_00030011 arg=\"0x0100\"}}?\nAlors, qu'est-ce que t'en dis?{{fun_00050008 arg=\"0x0D0015000C002800\"}}\nSi ça te fait plaisir...\nNon merci."
  },
  {
    "label": "004",
    "text": "{{anim id=\"12\"}}Oh, je vois{{delay frames=\"8\"}}.{{delay frames=\"8\"}}.{{delay frames=\"8\"}}.{{delay frames=\"20\"}} Bon, comme\ntu voudras,{{delay frames=\"8\"}} {{fun_00070005 arg=\"\"}}."
  },
  {
    "label": "005",
    "text": "{{anim id=\"5\"}}Super!{{delay frames=\"40\"}} OK, alors on échange!"
  },
  {
    "label": "006",
    "text": "{{size value=\"100\"}}{{anim id=\"1\"}}Waouh! Trop bien!\nMerci beaucoup,{{size value=\"100\"}}{{delay frames=\"8\"}} {{fun_00070005 arg=\"\"}}!"
  },
  {
    "label": "007",
    "text": "{{anim id=\"2\"}}Tu plaisantes?{{delay frames=\"20\"}} Mon nez ne se\ntrompe jamais! Ça fait des années\nque je cherche un de ces trucs-là.\nTu me l'échangerais contre \n{{fun_0002000E arg=\"\"}}{{fun_00030011 arg=\"0x0100\"}}?{{fun_00050008 arg=\"0x0A00150009002800\"}}\nBien sûr!\nNon. Pas question."
  },
  {
    "label": "008",
    "text": "{{anim id=\"1\"}}Tu dois avoir oublié que tu l'as sur\ntoi. Mon nez ne se trompe jamais.\nAllez quoi, tu me l'échanges? \nJe te propose {{fun_0008000E arg=\"0x01CD040075006E00060075006E0065000000\"}} magnifique\n{{fun_00030011 arg=\"0x0100\"}}!{{delay frames=\"20\"}} Qu'est-ce\nque t'en dis?{{fun_00050008 arg=\"0x0A00150009002800\"}}\nOK!\nTu peux rêver!"
  },
  {
    "label": "009",
    "text": "{{anim id=\"9\"}}Zut alors!{{delay frames=\"20\"}} Bon, ben, si tu ne veux\nvraiment pas échanger{{delay frames=\"8\"}}.{{delay frames=\"8\"}}.{{delay frames=\"8\"}}.\nTant pis pour moi,{{delay frames=\"8\"}} {{fun_00070005 arg=\"\"}}!"
  },
  {
    "label": "010",
    "text": "{{anim id=\"5\"}}Yesssssss!{{delay frames=\"20\"}} Alors ne perdons pas de\ntemps. Allez hop, on échange!"
  },
  {
    "label": "011",
    "text": "{{anim id=\"1\"}}Génial!{{delay frames=\"20\"}} Oh, merci merci merci,{{delay frames=\"8\"}}\n{{fun_00070005 arg=\"\"}}!"
  },
  {
    "label": "012",
    "text": "{{anim id=\"18\"}}Quoi?!{{delay frames=\"20\"}} {{anim id=\"13\"}}Mais comment on peut\nrefuser un truc aussi cool?{{fun_00010007 arg=\"\"}}\n{{anim id=\"27\"}}T'es pas net{{fun_0006000E arg=\"0x0000040074006500\"}} toi, {{fun_00080005 arg=\"\"}}."
  },
  {
    "label": "013",
    "text": "{{anim id=\"5\"}}Yesssss!{{delay frames=\"20\"}} Tu gagnes un super objet,\nje gagne un super objet...\nOn y gagne tous les deux!"
  },
  {
    "label": "014",
    "text": "{{anim id=\"1\"}}Le troc, c'est trop top!{{delay frames=\"20\"}}\nFaudra qu'on s'échange encore des\ntrucs,{{delay frames=\"8\"}} {{fun_00070005 arg=\"\"}}!"
  }
]