﻿[
  {
    "label": "001",
    "text": "{{anim id=\"6\"}}Le tournoi de pêche, c'est\naujourd'hui!"
  },
  {
    "label": "002",
    "text": "J'ai trop hâte que le tournoi de\npêche commence!{{delay frames=\"40\"}} {{anim id=\"1\"}}J'ai passé toute\nla semaine à nourrir les poissons.\n{{anim id=\"5\"}}Maintenant que je suis devenu leur\nami, je suis sûr qu'ils vont m'aider\nà gagner, {{delay frames=\"8\"}}{{fun_00070005 arg=\"\"}}!"
  },
  {
    "label": "003",
    "text": "{{anim id=\"23\"}}Il reste encore combien de temps\navant le début du tournoi?{{pageBreak}}{{anim id=\"13\"}}Depuis que je me suis levé ce matin,\nje compte les minutes,\n{{delay frames=\"8\"}}{{fun_00070005 arg=\"\"}}!"
  },
  {
    "label": "004",
    "text": "{{anim id=\"1\"}}La compétition, ça me rend nerveux.\nDu coup, je vais faire le vide et\npêcher comme d'habitude{{delay frames=\"20\"}}.\n{{delay frames=\"8\"}}.{{delay frames=\"8\"}}.{{delay frames=\"8\"}}.{{delay frames=\"8\"}} {{anim id=\"9\"}}Hum.{{delay frames=\"40\"}} En fait, d'habitude je repars\ntoujours bredouille.{{delay frames=\"40\"}} Il va falloir que\nje revoie ma stratégie..."
  },
  {
    "label": "005",
    "text": ""
  },
  {
    "label": "006",
    "text": "{{anim id=\"5\"}}C'est partiiiii!{{delay frames=\"20\"}} Je sens bien que je\nvais le gagner, ce tournoi!"
  },
  {
    "label": "007",
    "text": "{{anim id=\"1\"}}Le tournoi a commencé!{{delay frames=\"40\"}} Et moi, ça\nme donne une pêche d'enfer!"
  },
  {
    "label": "008",
    "text": "{{anim id=\"1\"}}Laisse-moi te donner un petit\nconseil, {{fun_00080005 arg=\"\"}}.{{pageBreak}}Les poissons que tu pêches, il ne\nfaut PAS les manger! Sinon ils\ncomptent pas.{{pageBreak}}En fait, il faut les apporter à\n{{color id=\"4\"}}Castor{{color id=\"65535\"}}, {{delay frames=\"8\"}}{{fun_00070005 arg=\"\"}}."
  },
  {
    "label": "009",
    "text": "{{anim id=\"35\"}}J'ai une idée!{{delay frames=\"20\"}} Une fois le tournoi\nterminé, on devrait se faire un\nénorme barbecue aux fruits de mer!"
  },
  {
    "label": "010",
    "text": "{{anim id=\"33\"}}Personne en ville n'aime les\npoissons autant que moi!{{pageBreak}}La preuve : {{delay frames=\"40\"}}{{anim id=\"5\"}}je parie que je suis le\nseul à leur expliquer que si je les\npêche, c'est pas pour les manger!"
  },
  {
    "label": "011",
    "text": "Attendre qu'un poisson morde à\nl'hameçon, ça laisse du temps pour\nréfléchir.{{pageBreak}}{{anim id=\"11\"}}Là par exemple, {{delay frames=\"20\"}}je me demande si\nje préférerais manger du poisson ou\nautre chose, ce soir."
  },
  {
    "label": "012",
    "text": "{{anim id=\"23\"}}Ça mord, {{fun_00080005 arg=\"\"}}?{{delay frames=\"40\"}} {{anim id=\"0\"}}Hmm{{delay frames=\"8\"}}.{{delay frames=\"8\"}}.{{delay frames=\"8\"}}.{{delay frames=\"8\"}} \nJ'arrive pas à savoir ce que ton\nsilence peut bien vouloir dire{{delay frames=\"8\"}}.{{delay frames=\"8\"}}.{{delay frames=\"8\"}}.\n{{anim id=\"33\"}}Dans le doute, je vais quand même\nme retrousser les manches et m'y\nmettre pour de bon, {{fun_00070005 arg=\"\"}}!"
  },
  {
    "label": "013",
    "text": "{{anim id=\"13\"}}Il ne reste plus beaucoup de temps\navant la fin du tournoi!{{delay frames=\"40\"}} Vite, je\ndois faire une pêche miraculeuse!"
  },
  {
    "label": "014",
    "text": "{{anim id=\"5\"}}Une fois le tournoi terminé, je\ncrois que j'aurai bien mérité\n{{fun_0002000E arg=\"\"}}{{fun_00130005 arg=\"0x0000\"}}!"
  },
  {
    "label": "015",
    "text": "On est dans la dernière ligne droite,{{delay frames=\"20\"}}\n{{anim id=\"1\"}}c'est le moment de donner tout ce\nqu'on a, {{delay frames=\"8\"}}{{fun_00070005 arg=\"\"}}!"
  },
  {
    "label": "016",
    "text": ""
  },
  {
    "label": "017",
    "text": "{{anim id=\"13\"}}Qu'est-ce que j'ai hâte de\nconnaître les résultats!"
  },
  {
    "label": "018",
    "text": "{{anim id=\"11\"}}Je me demande quel sera mon\nclassement{{delay frames=\"8\"}}.{{delay frames=\"8\"}}.{{delay frames=\"8\"}}.{{delay frames=\"40\"}} {{anim id=\"13\"}}Tant d'attente, c'est\ninsoutenable,{{delay frames=\"8\"}} {{fun_00070005 arg=\"\"}}!"
  },
  {
    "label": "019",
    "text": "{{anim id=\"43\"}}Hmmm{{delay frames=\"8\"}}.{{delay frames=\"8\"}}.{{delay frames=\"8\"}}.{{delay frames=\"20\"}} J'espère vraiment que\nj'aurai ma place sur le podium{{delay frames=\"8\"}}.{{delay frames=\"8\"}}.{{delay frames=\"8\"}}.{{pageBreak}}{{anim id=\"26\"}}J'ai même déjà préparé un discours\npour l'occasion, {{delay frames=\"8\"}}{{fun_00070005 arg=\"\"}}!"
  },
  {
    "label": "020",
    "text": ""
  },
  {
    "label": "021",
    "text": ""
  },
  {
    "label": "022",
    "text": "{{anim id=\"1\"}}Toutes mes félicitations,\n{{fun_00080005 arg=\"\"}}!{{pageBreak}}{{anim id=\"1\"}}J'espère que tu me laisseras tenir\nton trophée de temps en temps,\n{{delay frames=\"8\"}}{{fun_00070005 arg=\"\"}}."
  },
  {
    "label": "023",
    "text": "{{anim id=\"1\"}}Bien joué, {{fun_00080005 arg=\"\"}}!{{pageBreak}}{{anim id=\"0\"}}Moi qui pensais être mauvais\nperdant,{{delay frames=\"20\"}} {{anim id=\"40\"}}en fait je prends ma\ndéfaite plutôt bien!{{pageBreak}}{{anim id=\"38\"}}Peut-être que c'est parce que j'ai\npu pêcher de quoi faire un très très\nbon repas,{{delay frames=\"8\"}} {{fun_00070005 arg=\"\"}}!"
  },
  {
    "label": "024",
    "text": "{{anim id=\"1\"}}Tu t'en es {{fun_0006000E arg=\"0x0800740069007200E9000A00740069007200E9006500\"}} comme {{fun_0006000E arg=\"0x040075006E00060075006E006500\"}} chef,\n{{fun_00080005 arg=\"\"}}!{{pageBreak}}{{anim id=\"23\"}}Où est-ce que tu as fait cette jolie\nprise?{{fun_00010007 arg=\"\"}} {{anim id=\"35\"}}Tu as l'air d'avoir trouvé un\nsuper bon coin!"
  },
  {
    "label": "025",
    "text": "{{anim id=\"5\"}}Incroyable!{{delay frames=\"20\"}} J'ai fini mieux classé\nque toi!{{pageBreak}}{{anim id=\"1\"}}Est-ce que j'arriverai à renouveler\nl'exploit la prochaine fois,\n{{delay frames=\"8\"}}{{fun_00070005 arg=\"\"}}?"
  },
  {
    "label": "026",
    "text": "{{anim id=\"1\"}}On dirait bien que je t'ai battu{{fun_0006000E arg=\"0x000002006500\"}},\n{{fun_00080005 arg=\"\"}}!{{delay frames=\"20\"}} Mais c'était quand\nmême plutôt serré, {{delay frames=\"8\"}}{{fun_00070005 arg=\"\"}}!\n{{anim id=\"4\"}}Sans vouloir me vanter, je crois que\nj'ai un charisme fou auprès des\npoissons!"
  },
  {
    "label": "027",
    "text": "Si on m'avait dit que je parviendrais\nà te surpasser...{{fun_00010007 arg=\"\"}} {{anim id=\"33\"}}Il faut croire que je\ntenais une pêche d'enfer!\n{{anim id=\"25\"}}Oouuhhh{{delay frames=\"8\"}}.{{delay frames=\"8\"}}.{{delay frames=\"8\"}}.{{delay frames=\"40\"}} C'est peut-être pour ça\nque j'ai un gros coup de barre,\nmaintenant{{delay frames=\"8\"}}.{{delay frames=\"8\"}}.{{delay frames=\"8\"}}."
  },
  {
    "label": "028",
    "text": "Tu crois qu'on a pêché tous les\npoissons de la ville...?{{fun_00010007 arg=\"\"}} {{anim id=\"18\"}}J'espère bien\nque non!\n{{anim id=\"9\"}}J'espère que maintenant que le\ntournoi est terminé, {{color id=\"4\"}}Castor{{color id=\"65535\"}} va\nrelâcher toutes nos prises!"
  },
  {
    "label": "029",
    "text": "{{anim id=\"1\"}}Je me suis amusé comme un petit\nfou!{{delay frames=\"20\"}} {{anim id=\"21\"}}Et ça, ça vaut tous les\ntrophées du monde!"
  },
  {
    "label": "030",
    "text": "{{anim id=\"1\"}}Vive les tournois de pêche!{{delay frames=\"40\"}}\nJ'adore quand tout le monde en\nville participe comme ça!\n{{anim id=\"43\"}}Je me demande combien de\npoissons ont été pêchés\naujourd'hui.{{delay frames=\"8\"}}.{{delay frames=\"8\"}}.{{delay frames=\"20\"}}{{pageBreak}}{{anim id=\"3\"}}Sûrement assez pour faire une\nÉNORME bouillabaisse,\n{{delay frames=\"8\"}}{{fun_00070005 arg=\"\"}}!"
  },
  {
    "label": "031",
    "text": "La cérémonie est finie!{{delay frames=\"20\"}}\n{{anim id=\"9\"}}C'est vraiment dommage que tu\nl'aies manquée, {{fun_00080005 arg=\"\"}}.\n{{anim id=\"23\"}}Tu seras là la prochaine fois,{{delay frames=\"20\"}} hein?"
  },
  {
    "label": "032",
    "text": "Tu sais que si tu veux assister à la\ncérémonie, c'est trop tard, hein?{{pageBreak}}{{anim id=\"1\"}}Si tu veux, on ira ensemble la\nprochaine fois, {{delay frames=\"8\"}}{{fun_00070005 arg=\"\"}}."
  },
  {
    "label": "033",
    "text": "{{anim id=\"1\"}}Je me suis vraiment donné à fond\naujourd'hui! Mais du coup{{delay frames=\"8\"}}.{{delay frames=\"8\"}}.{{delay frames=\"8\"}}.{{delay frames=\"20\"}} {{anim id=\"12\"}}je suis\nsur les rotules!{{pageBreak}}{{anim id=\"25\"}}Oouuhhh{{delay frames=\"8\"}}.{{delay frames=\"8\"}}.{{delay frames=\"8\"}}.{{delay frames=\"40\"}} Je sens que je vais\nbien dormir ce soir!"
  },
  {
    "label": "034",
    "text": "{{anim id=\"1\"}}Pfiou!{{delay frames=\"8\"}} On peut dire que participer\nà un tournoi, ça ouvre l'appétit!{{delay frames=\"20\"}}\nJe meurs de faim!\n{{anim id=\"38\"}}Peut-être que mes bras ont fait\ntout le boulot aujourd'hui{{delay frames=\"8\"}}.{{delay frames=\"8\"}}.{{delay frames=\"8\"}}.{{pageBreak}}{{delay frames=\"8\"}}.{{delay frames=\"8\"}}.{{delay frames=\"8\"}}. mais c'est quand même mon\nestomac qui mérite une\nrécompense,{{delay frames=\"8\"}} {{fun_00070005 arg=\"\"}}!"
  },
  {
    "label": "035",
    "text": ""
  },
  {
    "label": "036",
    "text": ""
  },
  {
    "label": "037",
    "text": ""
  },
  {
    "label": "038",
    "text": ""
  },
  {
    "label": "039",
    "text": ""
  },
  {
    "label": "040",
    "text": "{{anim id=\"9\"}}On dirait que la remise des prix a\nété annulée.{{pageBreak}}{{anim id=\"11\"}}Hmm{{delay frames=\"8\"}}.{{delay frames=\"8\"}}.{{delay frames=\"8\"}}.{{delay frames=\"20\"}} un tournoi sans cérémonie\nde clôture, c'est comme un gâteau\nd'anniversaire sans garniture{{delay frames=\"8\"}}.{{delay frames=\"8\"}}.{{delay frames=\"8\"}}.\n{{anim id=\"38\"}}Tu sais quoi? On devrait organiser\nnotre propre remise des prix!{{pageBreak}}{{anim id=\"0\"}}... Et à la première place, avec une\nprise qui restera dans l'Histoire,\nnous avons{{delay frames=\"8\"}}.{{delay frames=\"8\"}}.{{delay frames=\"8\"}}. {{delay frames=\"20\"}}{{fun_000B0007 arg=\"\"}}{{fun_00010005 arg=\"\"}}!{{delay frames=\"40\"}}{{anim id=\"37\"}}{{pageBreak}}{{anim id=\"29\"}}On l'applaudit bien fort! Et voici\nson prix, une entrée libre dans la\nfabrique {{fun_000A000E arg=\"0x0600640065002000040064002700\"}}{{fun_00100005 arg=\"0x0000\"}}!{{pageBreak}}{{anim id=\"10\"}}Ahh{{delay frames=\"8\"}}.{{delay frames=\"8\"}}.{{delay frames=\"8\"}}.{{delay frames=\"40\"}} Si seulement c'était vrai,\n{{delay frames=\"8\"}}{{fun_00070005 arg=\"\"}}{{delay frames=\"8\"}}.{{delay frames=\"8\"}}.{{delay frames=\"8\"}}."
  },
  {
    "label": "041",
    "text": "{{anim id=\"9\"}}C'est nul, la cérémonie a été\nannulée{{delay frames=\"8\"}}.{{delay frames=\"8\"}}.{{delay frames=\"8\"}}.{{delay frames=\"40\"}}{{pageBreak}}{{anim id=\"1\"}}Il n'y a plus qu'à patienter jusqu'au\nprochain tournoi et à croiser les\ndoigts, {{delay frames=\"8\"}}{{fun_00070005 arg=\"\"}}."
  },
  {
    "label": "042",
    "text": ""
  },
  {
    "label": "043",
    "text": "Si j'attrape un gros poisson,{{delay frames=\"20\"}} je vais\nlui faire faire des bisous à tout le\nmonde en ville, {{delay frames=\"8\"}}{{fun_00070005 arg=\"\"}}!"
  },
  {
    "label": "044",
    "text": "Hmmm{{delay frames=\"8\"}}.{{delay frames=\"8\"}}.{{delay frames=\"8\"}}. Rien.{{delay frames=\"40\"}} Peut-être que c'est\nl'heure de la sieste pour les\npoissons.{{delay frames=\"8\"}}.{{delay frames=\"8\"}}."
  }
]