﻿[
  {
    "label": "001",
    "text": ""
  },
  {
    "label": "002",
    "text": "{{anim id=\"39\"}}J'espère qu'aujourd'hui, tout plein\nde gens me donneront des {{color id=\"2\"}}bonbons{{color id=\"65535\"}},\n{{delay frames=\"8\"}}{{fun_00070005 arg=\"\"}}."
  },
  {
    "label": "003",
    "text": "{{anim id=\"11\"}}Je sais que si je donne un {{color id=\"2\"}}bonbon{{color id=\"65535\"}}\nà {{color id=\"4\"}}Jacqu'O{{color id=\"65535\"}}, il me donnera quelque\nchose en cadeau.\nMais{{delay frames=\"8\"}}.{{delay frames=\"8\"}}.{{delay frames=\"8\"}}.{{delay frames=\"40\"}} Je suis quand même bien\ntenté de le garder pour pouvoir le\nmanger."
  },
  {
    "label": "004",
    "text": "{{anim id=\"1\"}}Si tu me donnes un {{color id=\"2\"}}bonbon{{color id=\"65535\"}},{{delay frames=\"20\"}} je te\ndirai de quoi ont peur les autres,{{delay frames=\"8\"}}\n{{fun_00070005 arg=\"\"}}."
  },
  {
    "label": "005",
    "text": ""
  },
  {
    "label": "006",
    "text": ""
  },
  {
    "label": "007",
    "text": "Des {{color id=\"2\"}}bonbons {{color id=\"65535\"}}ou des farces!{{fun_00010007 arg=\"\"}} Tu\ndois choisir!{{delay frames=\"20\"}} Soit tu me donnes des\n{{color id=\"2\"}}bonbons{{color id=\"65535\"}}, soit je te fais une farce!{{fun_0005000F arg=\"0x15002800\"}}\nTiens! Un {{color id=\"2\"}}bonbon{{color id=\"65535\"}}!\nTu n'auras rien! Ha ha!"
  },
  {
    "label": "008",
    "text": ""
  },
  {
    "label": "009",
    "text": ""
  },
  {
    "label": "010",
    "text": ""
  },
  {
    "label": "011",
    "text": "{{anim id=\"5\"}}Ha ha ha ha!{{delay frames=\"20\"}} Faire des farces, c'est\npresque aussi drôle que de recevoir\ndes {{color id=\"2\"}}bonbons{{color id=\"65535\"}}!{{pageBreak}}{{anim id=\"23\"}}Hein?{{delay frames=\"40\"}} Tu n'es pas encore {{fun_0006000E arg=\"0x080061006C006C00E9000A0061006C006C00E9006500\"}}\nvoir {{color id=\"4\"}}Jacqu'O{{color id=\"65535\"}}?{{fun_00010007 arg=\"\"}} {{anim id=\"21\"}}Si tu lui apportes\ndes {{color id=\"2\"}}bonbons{{color id=\"65535\"}}, il te récompensera.\n{{anim id=\"1\"}}Il doit se trouver quelque part en\nville, à l'heure qu'il est.{{delay frames=\"40\"}} Tu devrais\naller le chercher, {{delay frames=\"8\"}}{{fun_00070005 arg=\"\"}}."
  },
  {
    "label": "012",
    "text": "{{anim id=\"2\"}}Ha ha ha!{{delay frames=\"20\"}} Je t'ai fait peur? {{delay frames=\"40\"}}{{anim id=\"37\"}}{{pageBreak}}{{anim id=\"33\"}}Ça veut dire que je fais bien mon\ntravail et que {{color id=\"4\"}}Jacqu'O {{color id=\"65535\"}}va sûrement\nme récompenser, {{delay frames=\"8\"}}{{fun_00070005 arg=\"\"}}!"
  },
  {
    "label": "013",
    "text": "{{anim id=\"1\"}}Ne le prends pas mal, hein!{{delay frames=\"40\"}} C'est\nla tradition d'Halloween qui veut\nça!"
  },
  {
    "label": "014",
    "text": "{{anim id=\"2\"}}Tu devrais me remercier!{{delay frames=\"40\"}} T'as\nbien meilleure mine comme ça!{{delay frames=\"40\"}}{{anim id=\"37\"}}"
  },
  {
    "label": "015",
    "text": "{{anim id=\"28\"}}Hé hé hé{{delay frames=\"8\"}}.{{delay frames=\"8\"}}.{{delay frames=\"8\"}}.{{delay frames=\"20\"}} À mon avis, tu devrais\nvérifier ce que tu as dans les\npoches,{{delay frames=\"8\"}} {{fun_00070005 arg=\"\"}}!"
  },
  {
    "label": "016",
    "text": "{{anim id=\"35\"}}Regarde dans tes poches!{{delay frames=\"40\"}} Je crois\nque quelqu'un t'y a laissé un petit\ncadeau!"
  },
  {
    "label": "017",
    "text": "{{anim id=\"23\"}}Hein?{{delay frames=\"40\"}} Pourquoi ma farce n'a pas\nfonctionné?{{fun_00010007 arg=\"\"}} {{anim id=\"13\"}}Euh{{delay frames=\"8\"}}.{{delay frames=\"8\"}}.{{delay frames=\"8\"}}.{{delay frames=\"20\"}} Bon!{{delay frames=\"20\"}} On va dire\nque tu t'en sors pour cette fois!"
  },
  {
    "label": "018",
    "text": ""
  },
  {
    "label": "019",
    "text": "{{anim id=\"3\"}}Super!{{delay frames=\"20\"}} {{color id=\"4\"}}Jacqu'O {{color id=\"65535\"}}va m'offrir une\njolie récompense pour celui-là!"
  },
  {
    "label": "020",
    "text": "{{anim id=\"38\"}}Merci!{{delay frames=\"20\"}} Je vais le savourer\nlentement{{delay frames=\"8\"}}.{{delay frames=\"8\"}}.{{delay frames=\"8\"}}.{{delay frames=\"20\"}} TRÈS lentement!"
  },
  {
    "label": "021",
    "text": "{{anim id=\"3\"}}OUAIS!{{delay frames=\"20\"}} Il a l'air super bon, en plus!"
  },
  {
    "label": "022",
    "text": "{{anim id=\"33\"}}Je vais être sympa et te dire un\npetit secret en échange de ce\n{{color id=\"2\"}}bonbon{{color id=\"65535\"}}, {{delay frames=\"8\"}}{{fun_00070005 arg=\"\"}}."
  },
  {
    "label": "023",
    "text": ""
  },
  {
    "label": "024",
    "text": "{{anim id=\"11\"}}La phobie {{fun_000A000E arg=\"0x0600640065002000040064002700\"}}{{fun_00010011 arg=\"0x0000\"}}, c'est de\nse faire mordre par des\n{{fun_00040012 arg=\"0x00CD\"}}!\n{{anim id=\"13\"}}Ou des {{fun_00030012 arg=\"0x01CD\"}}! C'est\nl'un ou l'autre!{{delay frames=\"40\"}} C'est juste que ça\ndépend des jours!"
  },
  {
    "label": "025",
    "text": "{{anim id=\"11\"}}{{fun_00010011 arg=\"0x0000\"}} a une peur bleue des\n{{fun_00030012 arg=\"0x01CD\"}}!{{delay frames=\"20\"}} Ou bien des\n{{fun_00040012 arg=\"0x00CD\"}}!\n{{anim id=\"13\"}}J'ai un doute, mais c'est l'un ou\nl'autre, sûr et certain!"
  },
  {
    "label": "026",
    "text": "{{anim id=\"11\"}}On a quelqu'un en ville qui a super\npeur des {{fun_00040012 arg=\"0x00CD\"}}. C'est\nsoit {{fun_00010011 arg=\"0x0000\"}}, soit {{fun_00010011 arg=\"0x0100\"}}{{delay frames=\"8\"}}.{{delay frames=\"8\"}}.{{delay frames=\"8\"}}.\n{{anim id=\"13\"}}Je sais plus qui exactement, mais\nc'est l'un de ces deux-là. C'est\nobligé!"
  },
  {
    "label": "027",
    "text": "{{anim id=\"11\"}}Je connais quelqu'un qui a très très\npeur des {{fun_00040012 arg=\"0x00CD\"}}! C'est\n{{fun_00010011 arg=\"0x0100\"}}! Ou alors {{fun_00010011 arg=\"0x0000\"}}{{delay frames=\"8\"}}.{{delay frames=\"8\"}}.{{delay frames=\"8\"}}.?\n{{anim id=\"13\"}}Mince! Je crois que j'ai oublié!"
  },
  {
    "label": "028",
    "text": "{{anim id=\"0\"}}{{fun_00010011 arg=\"0x0000\"}}{{delay frames=\"20\"}} et {{fun_00010011 arg=\"0x0200\"}} partagent\nla même phobie!{{pageBreak}}{{anim id=\"11\"}}Décidément, on peut dire que\nces deux-là ont un paquet de\nchoses en commun, {{fun_00070005 arg=\"\"}}!"
  },
  {
    "label": "029",
    "text": "{{fun_00010011 arg=\"0x0000\"}} a une trouille bleue\ndes {{fun_00040012 arg=\"0x00CD\"}}!{{pageBreak}}{{anim id=\"13\"}}Mais ne répète à personne que\nc'est moi qui te l'ai dit, OK?"
  },
  {
    "label": "030",
    "text": "Ça reste entre nous,{{delay frames=\"20\"}} mais\n{{fun_00010011 arg=\"0x0000\"}} a la frousse des\n{{fun_00040012 arg=\"0x00CD\"}}!"
  },
  {
    "label": "031",
    "text": ""
  },
  {
    "label": "032",
    "text": "{{anim id=\"9\"}}Hein?{{delay frames=\"20\"}} Mais je veux un {{color id=\"2\"}}bonbon{{color id=\"65535\"}},\nmoi!{{pageBreak}}{{anim id=\"22\"}}Bon,{{delay frames=\"8\"}} puisque c'est comme ça!{{delay frames=\"40\"}} {{anim id=\"1\"}}Je te\ndéfie à un petit jeu, {{fun_00070005 arg=\"\"}}!{{pageBreak}}Si tu gagnes{{delay frames=\"8\"}}, je te donne un\n{{color id=\"2\"}}bonbon{{color id=\"65535\"}}.{{fun_00010007 arg=\"\"}} Mais si tu perds{{delay frames=\"8\"}}.{{delay frames=\"8\"}}.{{delay frames=\"8\"}}.{{delay frames=\"40\"}} {{anim id=\"35\"}}tu auras\ndroit à une farce!"
  },
  {
    "label": "033",
    "text": "{{anim id=\"27\"}}Oh{{delay frames=\"8\"}}.{{delay frames=\"8\"}}.{{delay frames=\"8\"}}.{{delay frames=\"40\"}} Alors toi aussi tu collectes les\n{{color id=\"2\"}}bonbons{{color id=\"65535\"}}?{{fun_00010007 arg=\"\"}} {{anim id=\"22\"}}Je sais ce qu'on va faire!\n{{delay frames=\"40\"}}Jouons à un jeu!{{pageBreak}}{{anim id=\"1\"}}Si tu gagnes, tu empoches un\n{{color id=\"2\"}}bonbon{{color id=\"65535\"}}!{{delay frames=\"20\"}} Mais si tu perds, tu subiras\nune de mes farces,{{delay frames=\"8\"}} {{fun_00070005 arg=\"\"}}!"
  },
  {
    "label": "034",
    "text": "{{anim id=\"11\"}}OK{{delay frames=\"8\"}}.{{delay frames=\"8\"}}.{{delay frames=\"8\"}}. {{anim id=\"38\"}}On va jouer à{{delay frames=\"8\"}}.{{delay frames=\"8\"}}.{{delay frames=\"8\"}}.{{delay frames=\"40\"}} {{color id=\"2\"}}pierre-papier-\nciseaux{{color id=\"65535\"}}!{{fun_00120007 arg=\"0x00012E002F00\"}}"
  },
  {
    "label": "035",
    "text": "{{anim id=\"11\"}}OK{{delay frames=\"8\"}}.{{delay frames=\"8\"}}.{{delay frames=\"8\"}}. On va jouer{{delay frames=\"8\"}}.{{delay frames=\"8\"}}.{{delay frames=\"8\"}}.{{delay frames=\"40\"}} {{anim id=\"38\"}}au {{color id=\"2\"}}mime{{color id=\"65535\"}}!{{fun_00120007 arg=\"0x01012E002F00\"}}"
  },
  {
    "label": "036",
    "text": ""
  },
  {
    "label": "037",
    "text": "{{anim id=\"1\"}}T'as perdu!{{delay frames=\"40\"}} {{delay frames=\"20\"}}{{anim id=\"38\"}}Attention à la farce!{{fun_00080007 arg=\"0x3C000000\"}}"
  },
  {
    "label": "038",
    "text": "{{anim id=\"35\"}}Place à la farce tant redoutée!{{pageBreak}}\n{{anim id=\"31\"}}{{delay frames=\"20\"}}{{fun_000A0007 arg=\"\"}}{{size value=\"150\"}}Abracadabra!{{size value=\"100\"}}{{fun_00080007 arg=\"0x3C000000\"}}"
  },
  {
    "label": "039",
    "text": "Comme promis, voilà ton {{color id=\"2\"}}bonbon{{color id=\"65535\"}}!"
  },
  {
    "label": "040",
    "text": "{{anim id=\"9\"}}Je suis {{fun_0002000E arg=\"\"}}{{fun_001F0005 arg=\"0x00CD\"}} de\nparole. Voilà ton {{color id=\"2\"}}bonbon{{color id=\"65535\"}}!"
  },
  {
    "label": "041",
    "text": "{{anim id=\"15\"}}Je crois bien que tes poches sont\npleines!{{pageBreak}}{{anim id=\"27\"}}Quel dommage...{{delay frames=\"20\"}} Du coup tu n'as\nrien gagné!"
  },
  {
    "label": "042",
    "text": "Hmph!{{delay frames=\"20\"}} À charge de revanche!"
  },
  {
    "label": "043",
    "text": "{{anim id=\"10\"}}Pfff{{delay frames=\"8\"}}.{{delay frames=\"8\"}}.{{delay frames=\"8\"}}.{{delay frames=\"20\"}} Il va falloir que je trouve\nde nouvelles victimes,\n{{delay frames=\"8\"}}{{fun_00070005 arg=\"\"}}!"
  },
  {
    "label": "044",
    "text": "{{anim id=\"18\"}}{{fun_000B0007 arg=\"\"}}Hein?!{{delay frames=\"40\"}} Tu refuses?!{{pageBreak}}{{anim id=\"15\"}}Oh! J'ai compris!{{delay frames=\"40\"}} Toi et moi, on\nest rivaux!{{pageBreak}}{{anim id=\"21\"}}Dans ce cas, qu'est-ce que tu dirais\nd'un petit défi?{{pageBreak}}{{anim id=\"1\"}}Si tu gagnes, tu empoches un de\nmes {{color id=\"2\"}}bonbons{{color id=\"65535\"}}.{{delay frames=\"20\"}} Mais si je gagne, {{anim id=\"35\"}}tu\nauras droit à une farce!"
  },
  {
    "label": "045",
    "text": ""
  },
  {
    "label": "046",
    "text": "{{fun_00000009 arg=\"0x27002800\"}}"
  },
  {
    "label": "047",
    "text": "{{fun_00000009 arg=\"0x25002600\"}}"
  }
]