﻿[
  {
    "label": "001",
    "text": "{{anim id=\"9\"}}{{fun_0003000E arg=\"\"}}{{fun_0002000E arg=\"\"}}{{fun_00030011 arg=\"0x0000\"}}... Je\nme demande si {{fun_00010011 arg=\"0x0000\"}} en prend\nsoin.{{pageBreak}}Je suis plutôt inquiet pour {{fun_0012000E arg=\"0x100006006C0075006900080065006C006C0065000000\"}}, je\nvais {{fun_0012000E arg=\"0x100004006C00650004006C0061000000\"}} nourrir un peu pendant\n{{fun_000A000E arg=\"0x080071007500650020000600710075002700\"}}{{fun_00010011 arg=\"0x0000\"}} a le dos tourné."
  },
  {
    "label": "002",
    "text": "{{fun_00040009 arg=\"0x380039003A003B003C003D00\"}}"
  },
  {
    "label": "003",
    "text": "{{fun_00040009 arg=\"0x380039003A003B003C003D00\"}}"
  },
  {
    "label": "004",
    "text": "{{anim id=\"1\"}}{{fun_00010011 arg=\"0x0000\"}}{{delay frames=\"20\"}} m'a dit qu'elle écoutait\nde la musique chaque fois qu'elle\nchoisissait comment s'habiller.\n{{anim id=\"21\"}}Elle doit souvent écouter\n{{fun_00030011 arg=\"0x0100\"}} alors."
  },
  {
    "label": "005",
    "text": "Je me demande ce {{fun_000A000E arg=\"0x080071007500650020000600710075002700\"}}{{fun_00010011 arg=\"0x0000\"}}\naime regarder à la télé.{{delay frames=\"20\"}} {{anim id=\"1\"}}Sûrement,\n{{delay frames=\"20\"}}des télé-crochets!"
  },
  {
    "label": "006",
    "text": "{{fun_00040009 arg=\"0x380039003A003B003C003D00\"}}"
  },
  {
    "label": "007",
    "text": "{{anim id=\"21\"}}{{fun_00010011 arg=\"0x0000\"}} a {{fun_0002000E arg=\"\"}}\n{{fun_00030011 arg=\"0x0000\"}},{{delay frames=\"20\"}} ça veut\ndire qu'elle sait faire la cuisine?\n{{anim id=\"41\"}}Dire que je croyais qu'elle ne savait\nfaire que des plateaux télé!"
  },
  {
    "label": "008",
    "text": "{{anim id=\"1\"}}J'étais sûr {{fun_000A000E arg=\"0x080071007500650020000600710075002700\"}}{{fun_00010011 arg=\"0x0000\"}} dormait\ndans {{fun_0002000E arg=\"\"}}{{fun_00030011 arg=\"0x0000\"}}!{{pageBreak}}{{delay frames=\"20\"}}{{anim id=\"43\"}}Je me demande quel genre de rêve\nelle peut bien faire..."
  },
  {
    "label": "009",
    "text": "{{fun_00010011 arg=\"0x0000\"}} a un lit énorme!{{fun_00010007 arg=\"\"}} {{anim id=\"5\"}}Je\nparie qu'elle passe son temps à\nsauter dessus et à danser!\n{{anim id=\"21\"}}Ouais, je suis sûr qu'elle doit\ns'imaginer sur scène quand elle est\ndessus!"
  },
  {
    "label": "010",
    "text": "{{anim id=\"1\"}}Tu as vu\n{{fun_0001000E arg=\"\"}}{{fun_00030011 arg=\"0x0000\"}}\n{{fun_000A000E arg=\"0x0600640065002000040064002700\"}}{{fun_00010011 arg=\"0x0000\"}}?\nJe parie qu'elle se sent comme une\nprincesse sur son trône, assise\nlà-dessus,{{delay frames=\"8\"}} {{fun_00070005 arg=\"\"}}!"
  },
  {
    "label": "011",
    "text": "{{fun_00040009 arg=\"0x380039003A003B003C003D00\"}}"
  },
  {
    "label": "012",
    "text": "{{anim id=\"1\"}}{{fun_00010011 arg=\"0x0000\"}}{{delay frames=\"20\"}} m'a dit qu'elle s'assoit\nrarement sur\n{{fun_0001000E arg=\"\"}}{{fun_00030011 arg=\"0x0000\"}}.\nElle s'en sert surtout comme\naccessoire pendant ses séances de\nshooting,{{delay frames=\"8\"}} {{fun_00070005 arg=\"\"}}."
  },
  {
    "label": "013",
    "text": "{{anim id=\"15\"}}J'aurais jamais cru voir {{fun_0002000E arg=\"\"}}\n{{fun_00030011 arg=\"0x0000\"}} chez\n{{fun_00010011 arg=\"0x0000\"}}!\nJe la pensais facilement\nimpressionnable,{{delay frames=\"20\"}}{{anim id=\"1\"}} mais on dirait que\nje me suis trompé,{{delay frames=\"8\"}} {{fun_00070005 arg=\"\"}}!"
  },
  {
    "label": "014",
    "text": "Je me demande ce qu'il y a dans\n{{fun_0001000E arg=\"\"}}{{fun_00030011 arg=\"0x0000\"}}?{{pageBreak}}{{anim id=\"11\"}}{{fun_00010011 arg=\"0x0000\"}} doit y ranger plein de\nvêtements flashy et d'autres trucs\nbling-bling{{delay frames=\"8\"}}.{{delay frames=\"8\"}}.{{delay frames=\"8\"}}.{{pageBreak}}{{anim id=\"2\"}}Ha ha ha! {{delay frames=\"20\"}}{{anim id=\"35\"}} T'imagines si en fait on\ny trouvait des t-shirts punk rock à\nmoitié déchirés?"
  },
  {
    "label": "015",
    "text": "{{fun_00040009 arg=\"0x380039003A003B003C003D00\"}}"
  },
  {
    "label": "016",
    "text": "{{anim id=\"5\"}}{{fun_00010011 arg=\"0x0000\"}} dit que les gyroïdes\nsont super pratiques pour garder le\nsens du rythme.\n{{anim id=\"21\"}}Ça doit faire partie des trucs à\ntravailler pour devenir une star,\n{{delay frames=\"8\"}}{{fun_00070005 arg=\"\"}}."
  },
  {
    "label": "017",
    "text": "{{anim id=\"1\"}}C'est vraiment une bonne idée\nd'utiliser des habits pour décorer\nson chez soi.{{pageBreak}}Mais bon, si je le faisais...{{delay frames=\"20\"}}{{anim id=\"27\"}} je suis\nsûr que je m'en servirai pour\nm'essuyer les mains{{delay frames=\"8\"}}.{{delay frames=\"8\"}}.{{delay frames=\"8\"}}."
  },
  {
    "label": "018",
    "text": "{{anim id=\"27\"}}Même si {{fun_00010011 arg=\"0x0000\"}} a {{fun_0002000E arg=\"\"}}\n{{fun_00030011 arg=\"0x0000\"}},{{delay frames=\"20\"}} on dirait\nqu'elle n'y joue que très peu{{delay frames=\"8\"}}.{{delay frames=\"8\"}}.{{delay frames=\"8\"}}.\n{{anim id=\"21\"}}Il faut croire qu'elle ne {{fun_0012000E arg=\"0x100004006C00650004006C0061000000\"}} garde que\nparce qu'elle {{fun_0012000E arg=\"0x100004006C00650004006C0061000000\"}} trouve joli{{fun_0012000E arg=\"0x10000000020065000000\"}},\n{{delay frames=\"8\"}}{{fun_00070005 arg=\"\"}}."
  },
  {
    "label": "019",
    "text": "{{fun_00010011 arg=\"0x0000\"}} m'a dit que son endroit\npréféré, c'est devant\n{{fun_0001000E arg=\"\"}}{{fun_00030011 arg=\"0x0000\"}}."
  },
  {
    "label": "020",
    "text": "{{anim id=\"9\"}}La bibliothèque {{fun_000A000E arg=\"0x0600640065002000040064002700\"}}{{fun_00010011 arg=\"0x0000\"}} est\npleine de livres sur la mode et de\nbiographies de stars.\n{{anim id=\"10\"}}J'ai beau chercher, j'y vois pas\nl'ombre d'une BD{{delay frames=\"8\"}}.{{delay frames=\"8\"}}.{{delay frames=\"8\"}}."
  },
  {
    "label": "021",
    "text": "{{fun_00040009 arg=\"0x380039003A003B003C003D00\"}}"
  },
  {
    "label": "022",
    "text": "{{anim id=\"9\"}}{{fun_00010011 arg=\"0x0000\"}}{{delay frames=\"20\"}} dit que ce sont des os\nde « choupinosaure » {{anim id=\"36\"}}Je crois qu'en\nfait, elle y connaît rien.\nJe m'y connais pas trop, mais je\nsuis quasi sûr que c'est\n{{fun_0002000E arg=\"\"}}{{fun_00030011 arg=\"0x0000\"}}."
  },
  {
    "label": "023",
    "text": "{{anim id=\"5\"}}Je vois {{fun_000A000E arg=\"0x080071007500650020000600710075002700\"}}{{fun_00010011 arg=\"0x0000\"}} a sorti\n{{fun_0001000E arg=\"\"}}{{fun_00030011 arg=\"0x0000\"}}!{{pageBreak}}{{anim id=\"1\"}}On m'a dit qu'elle aimait recevoir,\nmais là ça serait royal!"
  },
  {
    "label": "024",
    "text": "{{anim id=\"39\"}}Je ne m'habituerai jamais à voir\n{{fun_0002000E arg=\"\"}}{{fun_00030011 arg=\"0x0000\"}} à la\nvue de tous..."
  },
  {
    "label": "025",
    "text": "{{anim id=\"1\"}}On dirait {{fun_000A000E arg=\"0x080071007500650020000600710075002700\"}}{{fun_00010011 arg=\"0x0000\"}} utilise\nsurtout son ordinateur pour bloguer.\n{{anim id=\"28\"}}Voyons voir si elle parle de nous{{delay frames=\"8\"}}.{{delay frames=\"8\"}}.{{delay frames=\"8\"}}.\n{{anim id=\"0\"}}« Aujourd'hui, {{fun_00080005 arg=\"\"}}{{delay frames=\"20\"}} et\n{{fun_00010005 arg=\"\"}} sont passés à la\nmaison. » {{delay frames=\"8\"}}.{{delay frames=\"8\"}}.{{delay frames=\"8\"}}.{{anim id=\"19\"}}{{delay frames=\"40\"}} Et c'est tout.\n{{anim id=\"13\"}}Il faut qu'on fasse un truc pour\nrendre sa journée inoubliable,\n{{fun_00080005 arg=\"\"}}!{{pageBreak}}Sinon tous ses lecteurs vont croire\nqu'on est ennuyeux!"
  },
  {
    "label": "026",
    "text": "{{fun_00040009 arg=\"0x380039003A003B003C003D00\"}}"
  },
  {
    "label": "027",
    "text": "Je me demande ce {{fun_000A000E arg=\"0x080071007500650020000600710075002700\"}}{{fun_00010011 arg=\"0x0000\"}}\nrange{{delay frames=\"20\"}} {{anim id=\"23\"}}dans son frigo?{{pageBreak}}{{anim id=\"2\"}}Il ne doit pas y avoir grand-chose à\npart des glaces et du soda!"
  },
  {
    "label": "028",
    "text": "{{anim id=\"9\"}}On a le droit de manger\n{{fun_0001000E arg=\"\"}}{{fun_00030011 arg=\"0x0000\"}}?{{pageBreak}}{{anim id=\"13\"}}J'aimerais bien savoir, moi,\n{{fun_00070005 arg=\"\"}}!"
  },
  {
    "label": "029",
    "text": "{{anim id=\"1\"}}Pendant {{fun_000A000E arg=\"0x080071007500650020000600710075002700\"}}{{fun_00010011 arg=\"0x0000\"}} ne\nregardait pas, j'en ai profité pour\npeser ma tête, c'était rigolo!"
  },
  {
    "label": "030",
    "text": "{{fun_00010011 arg=\"0x0000\"}} a {{fun_0002000E arg=\"\"}}\n{{fun_00030011 arg=\"0x0000\"}},{{delay frames=\"20\"}} comme\ndans les salles d'arcade!\nQuand il s'agit de s'amuser, elle\nne prend pas les choses à la légère,{{delay frames=\"8\"}}\n{{fun_00070005 arg=\"\"}}."
  },
  {
    "label": "031",
    "text": "{{anim id=\"9\"}}{{fun_00010011 arg=\"0x0000\"}} m'a demandé de lui dire\nqui était le plus mignon...{{delay frames=\"20\"}} Elle,{{delay frames=\"8\"}} ou\n{{fun_0001000E arg=\"\"}}{{fun_00030011 arg=\"0x0000\"}}...{{delay frames=\"20\"}}{{pageBreak}}Au début je rigolais, {{delay frames=\"20\"}}mais quand\nj'ai vu qu'elle était sérieuse, j'ai\ncommencé à avoir peur{{delay frames=\"8\"}}.{{delay frames=\"8\"}}.{{delay frames=\"8\"}}."
  },
  {
    "label": "032",
    "text": "{{anim id=\"9\"}}{{fun_00010011 arg=\"0x0000\"}} m'a demandé de lui dire\nqui était le plus mignon...{{delay frames=\"20\"}} Elle,{{delay frames=\"8\"}} ou\n{{fun_0001000E arg=\"\"}}{{fun_00030011 arg=\"0x0000\"}}...{{delay frames=\"20\"}}{{pageBreak}}Au début je rigolais, {{delay frames=\"20\"}}mais quand\nj'ai vu qu'elle était sérieuse, j'ai\ncommencé à avoir peur{{delay frames=\"8\"}}.{{delay frames=\"8\"}}.{{delay frames=\"8\"}}."
  },
  {
    "label": "033",
    "text": "{{fun_00040009 arg=\"0x380039003A003B003C003D00\"}}"
  },
  {
    "label": "034",
    "text": "{{fun_00040009 arg=\"0x380039003A003B003C003D00\"}}"
  },
  {
    "label": "035",
    "text": "{{fun_00040009 arg=\"0x380039003A003B003C003D00\"}}"
  },
  {
    "label": "036",
    "text": "{{fun_00040009 arg=\"0x380039003A003B003C003D00\"}}"
  },
  {
    "label": "037",
    "text": "{{fun_00040009 arg=\"0x380039003A003B003C003D00\"}}"
  },
  {
    "label": "038",
    "text": "{{fun_00040009 arg=\"0x380039003A003B003C003D00\"}}"
  },
  {
    "label": "039",
    "text": "{{fun_00040009 arg=\"0x380039003A003B003C003D00\"}}"
  },
  {
    "label": "040",
    "text": "{{fun_00040009 arg=\"0x380039003A003B003C003D00\"}}"
  },
  {
    "label": "041",
    "text": "{{fun_00040009 arg=\"0x380039003A003B003C003D00\"}}"
  },
  {
    "label": "042",
    "text": "{{anim id=\"4\"}}J'ai bien envie de croquer dans\n{{fun_0001000E arg=\"\"}}{{fun_00030011 arg=\"0x0000\"}}{{delay frames=\"20\"}}! {{fun_0008000E arg=\"0x00CD040049006C00080045006C006C0065000000\"}}\na l'air d'avoir super bon goût!"
  },
  {
    "label": "043",
    "text": "{{fun_00040009 arg=\"0x380039003A003B003C003D00\"}}"
  },
  {
    "label": "044",
    "text": "{{fun_00040009 arg=\"0x380039003A003B003C003D00\"}}"
  },
  {
    "label": "045",
    "text": ""
  },
  {
    "label": "046",
    "text": ""
  },
  {
    "label": "047",
    "text": ""
  },
  {
    "label": "048",
    "text": ""
  },
  {
    "label": "049",
    "text": ""
  },
  {
    "label": "050",
    "text": ""
  },
  {
    "label": "051",
    "text": ""
  },
  {
    "label": "052",
    "text": ""
  },
  {
    "label": "053",
    "text": ""
  },
  {
    "label": "054",
    "text": ""
  },
  {
    "label": "055",
    "text": ""
  },
  {
    "label": "056",
    "text": "J'adore fureter chez les gens.{{delay frames=\"20\"}} {{anim id=\"1\"}}Tu\ntrouves pas ça super amusant, toi,\n{{delay frames=\"8\"}}{{fun_00070005 arg=\"\"}}?"
  },
  {
    "label": "057",
    "text": "{{anim id=\"5\"}}J'aime bien rendre visite à\n{{fun_00010011 arg=\"0x0000\"}} pour avoir quelques\nconseils sur mon look.\nElle s'y connaît drôlement bien!"
  },
  {
    "label": "058",
    "text": "{{anim id=\"1\"}}C'est qu'on commence à être\nnombreux, tu crois {{fun_000A000E arg=\"0x080071007500650020000600710075002700\"}}{{delay frames=\"8\"}}{{fun_00010011 arg=\"0x0000\"}}\nnous a préparé à manger?"
  },
  {
    "label": "059",
    "text": "{{anim id=\"43\"}}C'est joli chez {{fun_00010011 arg=\"0x0000\"}}!{{fun_00010007 arg=\"\"}} Je sens\nque je vais m'en inspirer pour ma\nnouvelle déco."
  },
  {
    "label": "060",
    "text": "{{anim id=\"13\"}}{{fun_00010011 arg=\"0x0000\"}} t'a dit ce qu'elle nous\navait préparé à manger?\nJ'ai peur qu'elle ait oublié!"
  },
  {
    "label": "061",
    "text": "{{anim id=\"25\"}}Ouuhhh...{{delay frames=\"40\"}} C'est moi, ou chez\n{{fun_00010011 arg=\"0x0000\"}}, c'est l'endroit parfait\npour faire la sieste, {{delay frames=\"8\"}}{{fun_00070005 arg=\"\"}}?"
  }
]