﻿[
  {
    "label": "001",
    "text": "{{fun_0001000C arg=\"\"}}{{fun_0004000C arg=\"\"}}{{fun_0002000C arg=\"\"}}{{fun_0006000C arg=\"\"}}{{fun_00010011 arg=\"0x0100\"}}, {{fun_00080005 arg=\"\"}}!\nContent que vous ayez pu venir,\n{{fun_00070005 arg=\"\"}}!{{fun_0009000C arg=\"\"}}"
  },
  {
    "label": "002",
    "text": "{{fun_0001000C arg=\"\"}}{{fun_0004000C arg=\"\"}}{{fun_0002000C arg=\"\"}}{{fun_0006000C arg=\"\"}}Soyez les bienvenus dans mon\nrepaire!{{fun_0009000C arg=\"\"}}"
  },
  {
    "label": "003",
    "text": "{{fun_0001000C arg=\"\"}}{{fun_0004000C arg=\"\"}}{{fun_0002000C arg=\"\"}}{{fun_0006000C arg=\"\"}}Merci d'avoir amené {{fun_00010011 arg=\"0x0100\"}},\n{{fun_00080005 arg=\"\"}}.{{fun_0009000C arg=\"\"}}"
  },
  {
    "label": "004",
    "text": "{{fun_0001000C arg=\"\"}}{{fun_0004000C arg=\"\"}}{{fun_0002000C arg=\"\"}}{{fun_0006000C arg=\"\"}}Eh bien, vous avez pris tout votre\ntemps.{{delay frames=\"20\"}} Ça fait un moment que je\nvous attends, moi, {{fun_00070005 arg=\"\"}}!{{fun_0009000C arg=\"\"}}"
  },
  {
    "label": "005",
    "text": "{{fun_0000000C arg=\"\"}}{{fun_0007000C arg=\"\"}}{{fun_0002000C arg=\"\"}}{{fun_0005000C arg=\"\"}}{{fun_0001000C arg=\"\"}}{{fun_0008000C arg=\"\"}}Hé, {{fun_00010011 arg=\"0x0000\"}}!{{delay frames=\"20\"}}\n{{anim id=\"23\"}}Qu'est-ce que tu me voulais?{{fun_0009000C arg=\"\"}}"
  },
  {
    "label": "006",
    "text": "{{fun_0000000C arg=\"\"}}{{fun_0007000C arg=\"\"}}{{fun_0002000C arg=\"\"}}{{fun_0005000C arg=\"\"}}{{fun_0001000C arg=\"\"}}{{fun_0008000C arg=\"\"}}{{anim id=\"44\"}}Voilà, ta star est arrivée!{{delay frames=\"20\"}}\nDis-moi tout, {{fun_00010011 arg=\"0x0000\"}}!{{fun_0009000C arg=\"\"}}"
  },
  {
    "label": "007",
    "text": "{{fun_0000000C arg=\"\"}}{{fun_0007000C arg=\"\"}}{{fun_0002000C arg=\"\"}}{{fun_0005000C arg=\"\"}}{{fun_0001000C arg=\"\"}}{{fun_0008000C arg=\"\"}}Alors, c'est quoi le buzz?{{delay frames=\"40\"}}\n{{anim id=\"38\"}}Raconte, je t'écoute, {{fun_00010011 arg=\"0x0000\"}}!{{fun_0009000C arg=\"\"}}"
  },
  {
    "label": "008",
    "text": ""
  },
  {
    "label": "009",
    "text": "{{fun_0000000C arg=\"\"}}{{fun_0005000C arg=\"\"}}Tu te souviens de ce truc que je t'ai\nemprunté il y a cinq ans?{{delay frames=\"20\"}} Eh bien je\nl'ai enfin retrouvé!\nAlors je te le rends,{{delay frames=\"8\"}} {{fun_00070005 arg=\"\"}}.\nTiens.{{fun_0009000C arg=\"\"}}"
  },
  {
    "label": "010",
    "text": "{{fun_0000000C arg=\"\"}}{{fun_0007000C arg=\"\"}}{{anim id=\"16\"}}{{fun_000B0007 arg=\"\"}}{{fun_0003000E arg=\"\"}}{{fun_0001000E arg=\"\"}}{{fun_00030011 arg=\"0x0000\"}} que\nj'ai gagné{{fun_0008000E arg=\"0x00CD0000020065000000\"}} lors de mon premier\npassage télé! {{anim id=\"1\"}}Ça fait un bail!\n{{anim id=\"11\"}}Mais{{delay frames=\"8\"}}.{{delay frames=\"8\"}}.{{delay frames=\"8\"}}.{{delay frames=\"20\"}} {{anim id=\"17\"}}mais on dirait que ça sent\nla pizza moisie... et l'œuf pourri! Et\nça sent aussi le vieux camembert!\n{{anim id=\"7\"}}Mais c'est pas possible, ma parole!\nT'as fait quoi avec,{{delay frames=\"8\"}} {{fun_00070005 arg=\"\"}}?{{pageBreak}}{{anim id=\"27\"}}J'aurais dû m'y attendre...{{delay frames=\"40\"}} Bah,\naprès tout, c'est pas grave.{{delay frames=\"40\"}} Au\nmoins tu ne l'as pas mangé!{{anim id=\"1\"}}"
  },
  {
    "label": "011",
    "text": "{{fun_0000000C arg=\"\"}}{{fun_0005000C arg=\"\"}}{{anim id=\"1\"}}Tu te souviens de ce que tu m'as\ndemandé la dernière fois?{{delay frames=\"20\"}} Eh bien,\nça y est, je l'ai!\n{{anim id=\"3\"}}Alors?! C'est qui le meilleur?{{fun_0009000C arg=\"\"}}"
  },
  {
    "label": "012",
    "text": "{{fun_0000000C arg=\"\"}}{{fun_0007000C arg=\"\"}}{{anim id=\"15\"}}{{fun_000B0007 arg=\"\"}}{{fun_0003000E arg=\"\"}}{{fun_0002000E arg=\"\"}}{{fun_00030011 arg=\"0x0000\"}}!{{delay frames=\"40\"}}\nCool, vieux.{{delay frames=\"20\"}} T'es fortiche dans ton\ngenre!\n{{anim id=\"38\"}}Excellent! Avec ça je vais pouvoir\nen mettre plein la vue!{{delay frames=\"20\"}}\nTrop la classe!"
  },
  {
    "label": "013",
    "text": "{{fun_0000000C arg=\"\"}}{{fun_0005000C arg=\"\"}}{{anim id=\"1\"}}Tiens, j'ai trouvé ça par terre, juste\nà côté de la maison {{fun_000A000E arg=\"0x0600640065002000040064002700\"}}{{fun_00220005 arg=\"0x00CD\"}}.{{fun_00010007 arg=\"\"}}\n{{anim id=\"21\"}}Mais je pense que c'est à toi.{{fun_0009000C arg=\"\"}}"
  },
  {
    "label": "014",
    "text": "{{fun_0000000C arg=\"\"}}{{fun_0007000C arg=\"\"}}{{anim id=\"21\"}}Ouais, bien vu.{{delay frames=\"8\"}} C'est bien\n{{fun_0001000E arg=\"\"}}{{fun_00030011 arg=\"0x0000\"}} qu'une\ngroupie surexcitée m'a offert{{fun_0008000E arg=\"0x00CD0000020065000000\"}}.{{delay frames=\"20\"}}{{anim id=\"1\"}}\n{{anim id=\"37\"}}Merci vieux, {{fun_00070005 arg=\"\"}}.{{delay frames=\"40\"}}\nFinalement t'es pas si tête en l'air\nque t'en as l'air,{{delay frames=\"20\"}} hein p'tite tête?!"
  },
  {
    "label": "015",
    "text": "{{fun_0000000C arg=\"\"}}{{fun_0005000C arg=\"\"}}{{anim id=\"5\"}}Je t'ai fait venir parce que j'ai une\ngrosse envie de{{delay frames=\"20\"}} pâtes!{{pageBreak}}{{anim id=\"23\"}}Dis, tu sais où on trouve les\nmeilleures pâtes en ville,\n{{fun_00010011 arg=\"0x0100\"}}?{{fun_0009000C arg=\"\"}}"
  },
  {
    "label": "016",
    "text": "{{fun_0000000C arg=\"\"}}{{fun_0007000C arg=\"\"}}Hmm...{{delay frames=\"20\"}} Un resto? Nan. Je vois pas.{{delay frames=\"20\"}}\nMais si tu veux vivre une expérience\ngustative unique,{{delay frames=\"8\"}} y'a trois solutions.\n{{anim id=\"11\"}}Primo, tu prends l'avion et tu vas à\nl'autre bout du monde, dans le pays\noù on a inventé les pâtes.\n{{anim id=\"21\"}}Deuxio, tu t'invites chez la mère de\nta copine et tu lui demandes de t'en\nfaire.\n{{anim id=\"44\"}}Troisio, et là, attention les yeux,\nc'est ultime, éloignez les enfants...{{pageBreak}}{{anim id=\"33\"}}Tu viens chez moi et je te fais LE\nplat de pâtes de ta vie. Je suis le\nmeilleur cuistot de toute la ville.\nMais bon, ça c'est pas possible, j'ai\npas le temps en ce moment,\n{{fun_00070005 arg=\"\"}}."
  },
  {
    "label": "017",
    "text": "{{fun_0000000C arg=\"\"}}{{fun_0005000C arg=\"\"}}Euh{{delay frames=\"8\"}}.{{delay frames=\"8\"}}.{{delay frames=\"8\"}}. {{anim id=\"23\"}}Si je t'ai fait venir c'est parce\nque, euh...{{pageBreak}}{{anim id=\"13\"}}Ah, zut! J'ai oublié. Qu'est-ce que\nc'était déjà...{{delay frames=\"40\"}} Bon ben tant pis,\ndésolé. Et merci d'être venu.{{fun_0009000C arg=\"\"}}"
  },
  {
    "label": "018",
    "text": "{{fun_0000000C arg=\"\"}}{{fun_0007000C arg=\"\"}}{{anim id=\"35\"}}Hé hé...{{delay frames=\"30\"}} Pas la peine de mitonner.{{delay frames=\"8\"}}\nTu voulais juste que je vienne, {{delay frames=\"8\"}}je\nparie. {{delay frames=\"30\"}}C'est normal,{{delay frames=\"20\"}} je comprends.\n{{anim id=\"37\"}}Tu veux qu'on te voie avec un type\ncool comme moi?{{delay frames=\"12\"}} Pigé.{{fun_00010007 arg=\"\"}} {{anim id=\"1\"}}T'inquiète,{{delay frames=\"20\"}}\nje t'apprendrai à être cool aussi!\nFais tout comme moi si tu veux\nqu'on te respecte.{{delay frames=\"30\"}} {{anim id=\"36\"}}Enfin, {{delay frames=\"20\"}}tu peux\ntoujours essayer,{{delay frames=\"8\"}} {{fun_00070005 arg=\"\"}}."
  },
  {
    "label": "019",
    "text": ""
  },
  {
    "label": "020",
    "text": "Bon, ben,{{delay frames=\"20\"}} il est temps de mettre les\nbouts.{{pageBreak}}{{fun_0002000C arg=\"\"}}{{fun_0004000C arg=\"\"}}Merci pour la balade, {{fun_00080005 arg=\"\"}}.{{delay frames=\"40\"}} À\nplus,{{delay frames=\"8\"}} {{fun_00070005 arg=\"\"}}."
  },
  {
    "label": "021",
    "text": "Fini pour aujourd'hui les gars.{{delay frames=\"20\"}} Faut\nque je trace.{{pageBreak}}{{anim id=\"35\"}}J'ai encore plein de trucs à faire.\nJ'ai une vie moi, {{delay frames=\"20\"}}et quelle vie!{{delay frames=\"20\"}} {{anim id=\"32\"}}À la\nprochaine!"
  },
  {
    "label": "022",
    "text": "J'y go, moi. {{fun_0002000C arg=\"\"}}{{fun_0004000C arg=\"\"}}C'était cool de vous\nvoir, {{fun_00070005 arg=\"\"}}.{{delay frames=\"20\"}} {{anim id=\"32\"}}Tchao!"
  },
  {
    "label": "023",
    "text": ""
  }
]