﻿[
  {
    "label": "001",
    "text": "{{anim id=\"1\"}}Alors tu voudrais m'acheter\n{{fun_0001000E arg=\"\"}}{{fun_00030011 arg=\"0x0000\"}}?{{fun_00010007 arg=\"\"}}{{anim id=\"4\"}}\nJe vois que tu as du goût.\n{{anim id=\"11\"}}Voyons voir{{delay frames=\"8\"}}.{{delay frames=\"8\"}}.{{delay frames=\"8\"}}.{{delay frames=\"40\"}} Je suis prêt à te {{fun_0008000E arg=\"0x00CD04006C00650004006C0061000000\"}}\nlaisser pour {{delay frames=\"8\"}}{{color id=\"2\"}}{{anim id=\"1\"}}{{fun_000A0004 arg=\"0x0000\"}} clochettes{{color id=\"65535\"}}!{{fun_0008000D arg=\"0x02CD\"}}{{fun_0005000F arg=\"0x15002800\"}}\nJe prends!\nJe laisse."
  },
  {
    "label": "002",
    "text": "{{anim id=\"15\"}}{{fun_000B0007 arg=\"\"}}Excellent!{{delay frames=\"20\"}} Je savais que tu avais du\ngoût, {{fun_00080005 arg=\"\"}}!{{pageBreak}}{{anim id=\"1\"}}Je veux bien te vendre\n{{fun_0001000E arg=\"\"}}{{fun_00030011 arg=\"0x0000\"}} pour\n{{color id=\"2\"}}{{fun_000A0004 arg=\"0x0000\"}} clochette{{color id=\"65535\"}}{{color id=\"2\"}}s{{color id=\"65535\"}}, {{fun_00070005 arg=\"\"}}!\n{{anim id=\"23\"}}Alors?{{delay frames=\"20\"}} Le prix te va?{{fun_0008000D arg=\"0x02CD\"}}{{fun_0005000F arg=\"0x15002800\"}}\nOui! Ça me va!\nNon, trop cher."
  },
  {
    "label": "003",
    "text": "{{anim id=\"13\"}}Eh bien... Pour tout dire, c'est {{fun_0002000E arg=\"\"}}\n{{fun_00030011 arg=\"0x0000\"}} {{fun_0008000E arg=\"0x00CD0C00610075007100750065006C001400E00020006C0061007100750065006C006C0065000000\"}} je\nsuis particulièrement attaché...\n{{anim id=\"11\"}}Hum{{delay frames=\"8\"}}.{{delay frames=\"8\"}}.{{delay frames=\"8\"}}.{{delay frames=\"40\"}} Mais comme tu es un{{fun_0006000E arg=\"0x000002006500\"}} ami{{fun_0006000E arg=\"0x000002006500\"}},\n{{delay frames=\"40\"}}{{anim id=\"21\"}}je veux bien te {{fun_0008000E arg=\"0x00CD04006C00650004006C0061000000\"}} céder. À prix\nd'ami, bien sûr. {{color id=\"2\"}}{{anim id=\"38\"}}{{fun_000A0004 arg=\"0x0000\"}} clochettes{{color id=\"65535\"}}?{{fun_0008000D arg=\"0x02CD\"}}{{fun_0005000F arg=\"0x15002800\"}}\nVendu!\nSans moi."
  },
  {
    "label": "004",
    "text": "{{anim id=\"3\"}}Je le savais!{{delay frames=\"20\"}} Tu veux\n{{fun_0001000E arg=\"\"}}{{fun_00030011 arg=\"0x0000\"}}?\nPas de problème!{{delay frames=\"40\"}}{{pageBreak}}{{anim id=\"9\"}}Ah, si...{{delay frames=\"8\"}} Problème quand même. Tu\nas déjà trop d'objets, tu ne peux\nplus rien porter, {{fun_00080005 arg=\"\"}}."
  },
  {
    "label": "005",
    "text": "{{anim id=\"9\"}}Ah?{{delay frames=\"20\"}} Tu as changé d'avis?{{delay frames=\"40\"}} Tu es\nsûr{{fun_0006000E arg=\"0x000002006500\"}} que tu n'en veux pas?"
  },
  {
    "label": "006",
    "text": "{{anim id=\"9\"}}Oh... Désolé, mais tu n'as pas assez\nde clochettes...{{fun_00010007 arg=\"\"}} Ah, {{fun_00080005 arg=\"\"}},{{delay frames=\"20\"}} j'ai \nune bouche à nourrir, tu sais..."
  },
  {
    "label": "007",
    "text": "{{anim id=\"9\"}}Désolé, {{fun_00080005 arg=\"\"}}.{{delay frames=\"40\"}} Mais {{fun_0002000E arg=\"\"}}\n{{fun_00030011 arg=\"0x0000\"}}, c'est\ncomme {{fun_0008000E arg=\"0x00CD0C0075006E00200061006D006900100075006E006500200061006D00690065000000\"}}{{delay frames=\"8\"}}.{{delay frames=\"8\"}}.{{delay frames=\"8\"}}.\n{{anim id=\"40\"}}Je ne peux pas te vendre {{fun_0008000E arg=\"0x00CD0C0075006E00200061006D006900100075006E006500200061006D00690065000000\"}}."
  },
  {
    "label": "008",
    "text": "{{anim id=\"18\"}}Hein?!{{delay frames=\"40\"}} {{anim id=\"41\"}}Avec tout ce que j'ai, je\nn'aurais pas cru que tu choisirais\n{{fun_0002000E arg=\"\"}}{{fun_00030011 arg=\"0x0000\"}}...\n{{anim id=\"9\"}}Eh bien, désolé mais je ne peux pas\nvendre un poisson.{{delay frames=\"40\"}} Je les aime trop.\n{{anim id=\"1\"}}Et j'ai invité celui-ci à dîner ce soir."
  },
  {
    "label": "009",
    "text": "{{anim id=\"9\"}}Désolé,{{delay frames=\"20\"}} mais je ne peux pas te\nvendre ça.{{delay frames=\"20\"}} J'y tiens trop, tu\ncomprends,{{delay frames=\"8\"}} {{fun_00070005 arg=\"\"}}."
  },
  {
    "label": "010",
    "text": "{{anim id=\"15\"}}{{fun_000B0007 arg=\"\"}}Ah non, pas ça!{{delay frames=\"40\"}} {{anim id=\"13\"}}C'est ce que je\npréfère dans cette maison.{{delay frames=\"20\"}} C'est ça\nqui lui donne son charme.\n{{anim id=\"21\"}}Jette plutôt un œil aux autres\nobjets, {{fun_00070005 arg=\"\"}}."
  },
  {
    "label": "011",
    "text": "{{anim id=\"9\"}}Désolé,{{delay frames=\"20\"}} mais ça, je le garde.{{fun_00010007 arg=\"\"}} Il y a\nautre chose qui te plaît?"
  },
  {
    "label": "012",
    "text": "{{anim id=\"9\"}}Ça, c'est pas à vendre{{delay frames=\"8\"}}.{{delay frames=\"8\"}}.{{delay frames=\"8\"}}.{{fun_00010007 arg=\"\"}} {{anim id=\"1\"}}Il y a autre\nchose qui te plairait,{{delay frames=\"8\"}} {{fun_00070005 arg=\"\"}}?"
  }
]