﻿[
  {
    "label": "001",
    "text": "{{anim id=\"1\"}}Alors, on récapitule :{{delay frames=\"20\"}}\n{{color id=\"2\"}}{{fun_00100004 arg=\"0x01CD\"}} h {{color id=\"65535\"}}chez moi.{{fun_00010007 arg=\"\"}} Et ne me pose\npas de lapin,{{delay frames=\"8\"}} {{fun_00070005 arg=\"\"}}!"
  },
  {
    "label": "002",
    "text": "{{anim id=\"1\"}}On a dit\n{{color id=\"2\"}}{{fun_00100004 arg=\"0x01CD\"}} h {{fun_00110004 arg=\"0x02CD\"}}{{color id=\"65535\"}},{{delay frames=\"20\"}} c'est bien ça?{{pageBreak}}{{anim id=\"38\"}}Alors je t'attendrai,{{delay frames=\"20\"}} bien calé dans\nmon fauteuil à siroter un bon jus de\ncourgette,{{delay frames=\"8\"}} {{fun_00070005 arg=\"\"}}."
  }
]