﻿[
  {
    "label": "001",
    "text": "{{anim id=\"3\"}}Joyeux anniversaire {{fun_00080005 arg=\"\"}}!{{pageBreak}}{{anim id=\"1\"}}Je t'ai envoyé un cadeau par\ncourrier, pense bien à vérifier ta\nboîte aux lettres,{{delay frames=\"8\"}} {{fun_00070005 arg=\"\"}}!"
  },
  {
    "label": "002",
    "text": "{{anim id=\"15\"}}{{fun_000A0007 arg=\"\"}}Ha ha! Te voilà!{{delay frames=\"20\"}} {{fun_000A0007 arg=\"\"}}La star de la\njournée!{{fun_00010007 arg=\"\"}} {{anim id=\"29\"}}Joyeux anniversaire,\n{{fun_00080005 arg=\"\"}}!{{pageBreak}}{{anim id=\"39\"}}Je sais que j'ai souvent la tête dans\nles nuages,{{delay frames=\"20\"}} mais je n'oublierai\njamais ton anniversaire!\n{{anim id=\"1\"}}Je t'ai posté un petit quelque\nchose,{{delay frames=\"8\"}} alors n'oublie pas de vérifier\nton courrier, {{delay frames=\"8\"}}{{fun_00070005 arg=\"\"}}!"
  },
  {
    "label": "003",
    "text": "{{anim id=\"3\"}}Joyeux anniversaire, {{fun_00080005 arg=\"\"}}!{{delay frames=\"20\"}}\n{{anim id=\"35\"}}Je me demande quelles bonnes\nsurprises tu auras aujourd'hui?\n{{anim id=\"39\"}}Peut-être qu'il y en a une de ma\npart qui t'attend dans ta boîte aux\nlettres, {{delay frames=\"8\"}}{{fun_00070005 arg=\"\"}}!"
  },
  {
    "label": "004",
    "text": "{{anim id=\"5\"}}Joyeux anniversaire!{{delay frames=\"40\"}} {{anim id=\"11\"}}Hmmm,{{delay frames=\"20\"}}\nmaintenant que j'y pense,{{delay frames=\"20\"}} t'as l'air\nplus {{fun_0006000E arg=\"0x0A00760069006500750078000E0076006900650069006C006C006500\"}} qu'avant{{delay frames=\"8\"}}.{{delay frames=\"8\"}}.{{delay frames=\"8\"}}.{{pageBreak}}{{anim id=\"13\"}}Dis, tu me promets que tu\ncontinueras à jouer avec moi même\nsi tu deviens adulte, hein?!"
  },
  {
    "label": "005",
    "text": "{{anim id=\"29\"}}C'est aujourd'hui ton anniversaire?{{delay frames=\"20\"}}\nEh bien alors, bon anniversaire,\n{{delay frames=\"8\"}}{{fun_00070005 arg=\"\"}}!{{delay frames=\"40\"}}{{anim id=\"37\"}}{{pageBreak}}{{anim id=\"4\"}}La chance!{{delay frames=\"20\"}} Tu vas pouvoir manger\ndu bon gâteau d'anniversaire!{{pageBreak}}{{anim id=\"40\"}}Mais moi je ne pourrai pas{{delay frames=\"8\"}}.{{delay frames=\"8\"}}.{{delay frames=\"8\"}}.{{fun_00010007 arg=\"\"}} {{anim id=\"1\"}}Ben\noui! Tu ne peux en manger que\nquand c'est ton anniversaire!\n{{anim id=\"2\"}}Sinon ça s'appellerait pas « gâteau\nd'anniversaire »,{{delay frames=\"20\"}} mais « gâteau de\ntoute l'année » ha ha!"
  },
  {
    "label": "006",
    "text": "{{anim id=\"3\"}}Joyeux anniversaire {{fun_00080005 arg=\"\"}}!{{fun_00010007 arg=\"\"}}\n{{anim id=\"1\"}}Alors,{{delay frames=\"20\"}} tu comptes manger combien\nde gâteaux aujourd'hui?{{delay frames=\"20\"}}\n{{anim id=\"35\"}}10?...{{delay frames=\"20\"}}{{fun_00010007 arg=\"\"}}\n{{anim id=\"38\"}}100?...{{delay frames=\"20\"}}{{fun_00010007 arg=\"\"}}\n{{anim id=\"5\"}}1 000?!\n{{anim id=\"43\"}}Je me demande s'il existe un moyen\npour que mon anniversaire arrive\nplus tôt, {{delay frames=\"20\"}}cette année{{delay frames=\"8\"}}.{{delay frames=\"8\"}}.{{delay frames=\"8\"}}."
  },
  {
    "label": "007",
    "text": "Tu es né{{fun_0006000E arg=\"0x000002006500\"}} durant une année\nbissextile,{{delay frames=\"20\"}}{{anim id=\"23\"}} c'est ça?{{pageBreak}}{{anim id=\"1\"}}Cette année il n'y aura pas de\n29 février,{{delay frames=\"20\"}} alors faisons comme si\nton anniversaire c'était aujourd'hui!{{pageBreak}}{{anim id=\"5\"}}Joyeux anniversaire,{{delay frames=\"8\"}} {{fun_00080005 arg=\"\"}}!{{fun_00010007 arg=\"\"}}\nJe t'ai laissé un petit cadeau dans\nta boîte aux lettres, {{delay frames=\"8\"}}{{fun_00070005 arg=\"\"}}."
  },
  {
    "label": "008",
    "text": "{{anim id=\"29\"}}Je m'y prends un peu tôt, mais je\nvoulais te souhaiter un bon\nanniversaire {{fun_00080005 arg=\"\"}}!{{pageBreak}}{{anim id=\"1\"}}De toute façon, comme on n'est pas\ndans une année bissextile,{{delay frames=\"20\"}}{{anim id=\"2\"}} soit c'est\ntrop tôt,{{delay frames=\"20\"}} soit c'est trop tard!{{pageBreak}}Je te souhaite beaucoup de bonheur\npour cette nouvelle année de ta vie!"
  },
  {
    "label": "009",
    "text": "{{anim id=\"5\"}}Joyeux anniversaire {{fun_00080005 arg=\"\"}}!{{pageBreak}}{{anim id=\"29\"}}Et comme on est dans une année\nbissextile, c'est une journée encore\nplus spéciale que d'ordinaire!\nEh ouais, on peut enfin te souhaiter\nton anniversaire à la bonne date,\n{{delay frames=\"8\"}}{{fun_00070005 arg=\"\"}}.{{pageBreak}}{{anim id=\"39\"}}{{anim id=\"35\"}}Je me demande quel genre de\nsurprises cette journée te réserve!{{pageBreak}}{{anim id=\"35\"}}En tout cas,{{delay frames=\"20\"}} tu en trouveras une de\nma part dans ta boîte aux lettres!{{fun_00010007 arg=\"\"}}\n{{anim id=\"38\"}}Jettes-y un œil!"
  },
  {
    "label": "010",
    "text": "{{anim id=\"15\"}}{{fun_000A0007 arg=\"\"}}Salut!{{delay frames=\"40\"}} Dis, ça serait pas mon\nanniversaire aujourd'hui? {{delay frames=\"40\"}}Eh bien\nnon, c'est le tien {{fun_00080005 arg=\"\"}}!{{pageBreak}}{{anim id=\"1\"}}C'est pas parce qu'il ne tombe que\ntous les quatre ans que je vais\nl'oublier! {{delay frames=\"40\"}}{{anim id=\"29\"}}Je te souhaite le meilleur!{{delay frames=\"40\"}}{{anim id=\"37\"}}"
  },
  {
    "label": "011",
    "text": "{{fun_0003000E arg=\"\"}}{{fun_00000005 arg=\"\"}}!{{delay frames=\"20\"}} {{anim id=\"23\"}}C'est ton anniversaire\naujourd'hui, c'est bien ça?{{fun_00010007 arg=\"\"}} {{anim id=\"3\"}}Ha ha!{{pageBreak}}T'as vu?{{delay frames=\"20\"}}{{anim id=\"33\"}} Je m'en suis souvenu!\n{{delay frames=\"40\"}}Mange tout plein de gâteaux pour\nmoi, d'accord?"
  },
  {
    "label": "012",
    "text": "{{anim id=\"1\"}}Hé!{{delay frames=\"20\"}} Voilà {{fun_0006000E arg=\"0x0C004D006900730074006500720008004D00690073007300\"}} Anniversaire,\n{{fun_00000005 arg=\"\"}}!{{delay frames=\"40\"}} {{anim id=\"32\"}}Bon anniversaire!"
  },
  {
    "label": "013",
    "text": "{{anim id=\"32\"}}Salut {{fun_00000005 arg=\"\"}}!{{delay frames=\"20\"}} {{anim id=\"1\"}}Je sais que je\nsuis un peu en avance,{{delay frames=\"20\"}} mais{{delay frames=\"8\"}}.{{delay frames=\"8\"}}.{{delay frames=\"8\"}}.\nBon anniversaire!"
  },
  {
    "label": "014",
    "text": "{{anim id=\"5\"}}Je te souhaite de passer un très\nbon anniversaire ici à {{fun_00050005 arg=\"\"}},\n{{delay frames=\"8\"}}{{fun_00070005 arg=\"\"}}!"
  },
  {
    "label": "015",
    "text": "{{anim id=\"39\"}}En fait, {{delay frames=\"20\"}}j'ai même un petit quelque\nchose pour toi.{{delay frames=\"40\"}} Tiens!"
  },
  {
    "label": "016",
    "text": "{{anim id=\"26\"}}Hé hé hé...{{delay frames=\"20\"}} J'espère que ça te plaira,{{delay frames=\"8\"}}\n{{fun_00070005 arg=\"\"}}."
  },
  {
    "label": "017",
    "text": ""
  },
  {
    "label": "018",
    "text": ""
  },
  {
    "label": "019",
    "text": ""
  },
  {
    "label": "020",
    "text": ""
  }
]