﻿[
  {
    "label": "001",
    "text": "{{anim id=\"1\"}}{{fun_0003000E arg=\"\"}}{{fun_00060007 arg=\"\"}}Bonjour{{fun_00070007 arg=\"\"}}!{{pageBreak}}Un peu de neige pour commencer la\njournée, je trouve que c'est\nrafraîchissant, {{delay frames=\"15\"}}{{fun_00070005 arg=\"\"}}!"
  },
  {
    "label": "002",
    "text": "{{anim id=\"1\"}}{{fun_0003000E arg=\"\"}}{{fun_00060007 arg=\"\"}}Bonjour{{fun_00070007 arg=\"\"}}!{{fun_00010007 arg=\"\"}}\nJ'ai eu froid ce matin au réveil{{delay frames=\"8\"}} en\nvoyant cette neige, {{delay frames=\"15\"}}{{fun_00070005 arg=\"\"}}!"
  },
  {
    "label": "003",
    "text": "{{anim id=\"1\"}}Oh, salut, {{delay frames=\"10\"}}{{fun_00000005 arg=\"\"}}!{{delay frames=\"15\"}} Contente\nque tu nous rendes visite. Mais ce\nfroid, alors... Brrrr,{{delay frames=\"8\"}} {{fun_00070005 arg=\"\"}}."
  },
  {
    "label": "004",
    "text": "{{anim id=\"1\"}}Oh, salut, {{delay frames=\"10\"}}{{fun_00000005 arg=\"\"}}!\n{{delay frames=\"20\"}}Sois {{fun_0006000E arg=\"0x04006C00650004006C006100\"}} bienvenu{{fun_0006000E arg=\"0x000002006500\"}} à {{fun_00050005 arg=\"\"}}-la-\nFloconneuse!"
  },
  {
    "label": "005",
    "text": "{{anim id=\"1\"}}{{fun_0003000E arg=\"\"}}{{fun_00060007 arg=\"\"}}Oh, coucou{{fun_00070007 arg=\"\"}}!{{delay frames=\"20\"}}\nTu nous fais une visite surprise?{{pageBreak}}Cette neige, c'est plutôt joli, non,{{delay frames=\"8\"}}\n{{fun_00070005 arg=\"\"}}?"
  },
  {
    "label": "006",
    "text": "{{anim id=\"1\"}}Hé, {{fun_00000005 arg=\"\"}}!{{delay frames=\"20\"}} Ça fait longtemps\nque tu es là? {{delay frames=\"20\"}}{{anim id=\"5\"}}Je suis contente de te\nvoir en tout cas,{{delay frames=\"15\"}} {{fun_00070005 arg=\"\"}}!"
  },
  {
    "label": "007",
    "text": "{{anim id=\"1\"}}{{fun_0003000E arg=\"\"}}{{fun_00060007 arg=\"\"}}Hello{{fun_00070007 arg=\"\"}}.{{delay frames=\"20\"}}\nJe ne m'attendais pas à te voir, dis!{{pageBreak}}{{anim id=\"37\"}}{{fun_0003000E arg=\"\"}}{{fun_00050005 arg=\"\"}} est magnifique sous la\nneige. J'espère que tu passes une\nbonne soirée,{{delay frames=\"15\"}} {{fun_00070005 arg=\"\"}}!"
  },
  {
    "label": "008",
    "text": "{{anim id=\"1\"}}Bienvenue à {{fun_00050005 arg=\"\"}}!{{fun_00010007 arg=\"\"}} {{anim id=\"20\"}}Attention,\nils ont prévu des températures très\nbasses cette nuit,{{delay frames=\"15\"}} {{fun_00070005 arg=\"\"}}!"
  },
  {
    "label": "009",
    "text": "{{anim id=\"1\"}}{{fun_0003000E arg=\"\"}}{{fun_00000005 arg=\"\"}}!\n{{delay frames=\"10\"}}Alors ça, c'est une surprise!{{pageBreak}}J'espère que tu t'es bien\nemmitouflé{{fun_0006000E arg=\"0x000002006500\"}},{{delay frames=\"10\"}} il fait un froid pas\npossible dehors.{{delay frames=\"15\"}} {{fun_0003000E arg=\"\"}}{{fun_00070005 arg=\"\"}}!"
  },
  {
    "label": "010",
    "text": "{{anim id=\"1\"}}Hé, {{delay frames=\"15\"}}un visiteur! Je n'étais pas au\ncourant!{{delay frames=\"20\"}} Dis, {{delay frames=\"10\"}}tu penses qu'il va\nneiger toute la nuit,{{delay frames=\"8\"}} {{fun_00070005 arg=\"\"}}?"
  },
  {
    "label": "011",
    "text": "Oh, coucou! {{delay frames=\"10\"}}Je suis surprise de te\nvoir dans le coin!{{pageBreak}}{{anim id=\"1\"}}{{fun_0003000E arg=\"\"}}{{fun_00050005 arg=\"\"}} est belle sous son\nmanteau neigeux, hein?{{fun_00010007 arg=\"\"}} {{anim id=\"4\"}}J'adooore,\nc'est super joli,{{delay frames=\"15\"}} {{fun_00070005 arg=\"\"}}!"
  },
  {
    "label": "012",
    "text": "{{anim id=\"1\"}}{{fun_0003000E arg=\"\"}}{{fun_00060007 arg=\"\"}}Oh, hello, {{delay frames=\"20\"}}{{fun_00000005 arg=\"\"}}{{fun_00070007 arg=\"\"}}!{{pageBreak}}Il fait froid à {{fun_00050005 arg=\"\"}} ce soir!{{delay frames=\"20\"}}\nNe va pas tomber malade, d'accord,\n{{delay frames=\"10\"}}{{fun_00070005 arg=\"\"}}?"
  },
  {
    "label": "013",
    "text": "{{anim id=\"1\"}}{{fun_0003000E arg=\"\"}}{{fun_00060007 arg=\"\"}}Oh, salut, {{fun_00000005 arg=\"\"}}{{fun_00070007 arg=\"\"}}!{{delay frames=\"20\"}}\n{{anim id=\"39\"}}Au milieu de toute cette neige, tu as\nl'air radieu{{fun_0006000E arg=\"0x02007800040073006500\"}}{{delay frames=\"40\"}}, {{delay frames=\"15\"}}{{fun_00070005 arg=\"\"}}!"
  },
  {
    "label": "014",
    "text": "{{anim id=\"1\"}}Oh, salut! {{delay frames=\"10\"}}La forme?{{fun_00010007 arg=\"\"}}\n{{anim id=\"20\"}}Il fait super froid à {{fun_00050005 arg=\"\"}},{{delay frames=\"10\"}} tu\nne trouves pas, {{delay frames=\"15\"}}{{fun_00070005 arg=\"\"}}?"
  },
  {
    "label": "015",
    "text": "{{anim id=\"1\"}}Hé! {{delay frames=\"10\"}}Hello!{{delay frames=\"20\"}} {{anim id=\"37\"}}Je te souhaite de passer\ndu bon temps à {{fun_00050005 arg=\"\"}}-sur-\nNeige,{{delay frames=\"10\"}} {{fun_00070005 arg=\"\"}}!"
  }
]