﻿[
  {
    "label": "001",
    "text": "{{anim id=\"37\"}}Je te présente le must pour se\ndétendre après une dure journée :{{delay frames=\"10\"}}\n{{fun_0002000E arg=\"\"}}{{fun_00030011 arg=\"0x0000\"}}!\n{{anim id=\"1\"}}Quand Morphée a des crampes aux\nbras et ne m'étreint pas, j'admire\nles poissons et boum!{{delay frames=\"10\"}} Je m'endors!"
  },
  {
    "label": "002",
    "text": "{{anim id=\"1\"}}{{fun_0003000E arg=\"\"}}{{fun_0001000E arg=\"\"}}{{fun_00030011 arg=\"0x0000\"}} que\nvoilà est une pièce illustre, je brûlais\nde te la montrer!\n{{anim id=\"38\"}}Je lui ai trouvé une place de choix :\nmes enfants et mes petits-enfants\npourront l'admirer tout à leur aise!"
  },
  {
    "label": "003",
    "text": "{{anim id=\"1\"}}L'essentiel dans la déco d'intérieur,\nc'est de créer un espace où il fait\nbon vivre.\n{{anim id=\"0\"}}Et pour ça, rien ne vaut {{fun_0008000E arg=\"0x00CD0C0075006E00200062006F006E00120075006E006500200062006F006E006E0065000000\"}}\n{{fun_00030011 arg=\"0x0000\"}}!{{delay frames=\"10\"}}{{anim id=\"1\"}} C'est\napaisant et en plus, ça sent bon!"
  },
  {
    "label": "004",
    "text": "{{anim id=\"37\"}}Ah, {{fun_0001000E arg=\"\"}}{{fun_00030011 arg=\"0x0000\"}}...\nJe ne vois pas passer le temps en\nécoutant {{fun_00030011 arg=\"0x0100\"}}!\n{{anim id=\"39\"}}Du coup, j'évite ce morceau quand\nje cuisine...{{delay frames=\"20\"}} Les plats brûlés, j'ai\nassez donné, hi hi!"
  },
  {
    "label": "005",
    "text": "{{anim id=\"5\"}}Tu connais « Un plat quatre étoiles\nen quatre minutes »?{{delay frames=\"10\"}} J'adore cette\némission, je ne la rate jamais!\n{{anim id=\"5\"}}La prochaine fois, ils vont donner la\nrecette {{fun_0002000E arg=\"\"}}{{fun_00130005 arg=\"0x0000\"}}!{{delay frames=\"10\"}}\nJ'en ai déjà l'eau à la bouche!"
  },
  {
    "label": "006",
    "text": "{{anim id=\"1\"}}Tu joues de la musique,\n{{fun_00080005 arg=\"\"}}?{{delay frames=\"10\"}} Moi, j'ai essayé\npresque tous les instruments...\n{{anim id=\"11\"}}Bandoléon, guimbarde, ukulélé, oud,\net j'en passe! {{fun_00010007 arg=\"\"}}{{anim id=\"36\"}}Mais j'ai encore du\nboulot si je veux devenir une star..."
  },
  {
    "label": "007",
    "text": "{{anim id=\"1\"}}Esthétique, fonctionnelle, moderne\net bien agencée...{{delay frames=\"10\"}} Ah, je ne suis pas\npeu fière de ma cuisine.\nLa cuisine, c'est l'âme de la maison.{{delay frames=\"10\"}}\nOn y mijote de quoi régaler ses\npapilles et celles de ses amis!\n{{anim id=\"5\"}}En tout cas, si je suis chez moi, tu\nas toutes les chances de me trouver\naux fourneaux, {{fun_00070005 arg=\"\"}}!"
  },
  {
    "label": "008",
    "text": "{{anim id=\"37\"}}{{fun_0008000E arg=\"0x00CD06004D006F006E0004004D0061000000\"}} fidèle {{fun_00030011 arg=\"0x0000\"}}.\nÀ peine je m'y allonge, je suis déjà\nau pays des rêves!\n{{anim id=\"37\"}}Inutile d'espérer y bouquiner plus de\ndeux minutes : avec un tel matelas,\nlire ou dormir, il faut choisir!"
  },
  {
    "label": "009",
    "text": "{{anim id=\"1\"}}J'avais un peu peur d'être à l'étroit\ndans ma chambre quand j'ai acheté\n{{fun_0001000E arg=\"\"}}{{fun_00030011 arg=\"0x0000\"}}...\nMais je ne le regrette pas :{{delay frames=\"10\"}} je\npourrais m'y étendre, m'y enrouler\net m'y pelotonner tout le temps!"
  },
  {
    "label": "010",
    "text": "{{anim id=\"5\"}}Le meilleur endroit de la maison!{{delay frames=\"10\"}}\nLire, coudre, rêvasser :{{delay frames=\"10\"}} j'ai mille\nprétextes pour m'y vautrer!\n{{anim id=\"1\"}}Pose un peu tes fesses sur ce\ncoussin moelleux et tu\ncomprendras!"
  },
  {
    "label": "011",
    "text": "{{anim id=\"1\"}}Je ne veux pas entendre un mot :{{delay frames=\"10\"}}\n{{fun_0001000E arg=\"\"}}{{fun_00030011 arg=\"0x0000\"}}, on ne\ndisserte pas dessus, on l'essaie!\n{{anim id=\"5\"}}Assieds-toi sur cette merveille et\ndécouvre la vraie définition du mot\n« confortable », {{fun_00070005 arg=\"\"}}!"
  },
  {
    "label": "012",
    "text": "{{fun_00040009 arg=\"0x46004700480049004A004B00\"}}"
  },
  {
    "label": "013",
    "text": "{{anim id=\"1\"}}Puisque tu es là, il y a quelque\nchose qu'il faut absolument que je\nte montre...\n{{anim id=\"39\"}}{{fun_0008000E arg=\"0x00CD10004D006F006E002000630068006500720010004D006100200063006800E800720065000000\"}} {{fun_00030011 arg=\"0x0000\"}}!{{fun_00010007 arg=\"\"}}{{anim id=\"37\"}}\nNe t'y trompe pas : ce n'est pas\njuste un animal de compagnie...\n{{anim id=\"37\"}}C'est une source d'inspiration!{{delay frames=\"10\"}} Il ne\nse passe pas un jour sans que je\nne l'admire longuement...\n{{anim id=\"38\"}}J'espère ainsi en apprendre plus sur\nses congénères et devenir une\nchasseuse d'insectes de renom!"
  },
  {
    "label": "014",
    "text": "{{anim id=\"37\"}}Toi aussi, tu es parfois pris{{fun_0006000E arg=\"0x000002006500\"}} d'une\nfrénésie nocturne de rangement?{{pageBreak}}{{anim id=\"1\"}}Moi, ça m'arrive tout le temps.\nQuand minuit sonne, je vide toutes\nmes étagères, je les réorganise...\n... puis je les remplis à nouveau!{{delay frames=\"40\"}}{{anim id=\"39\"}}\nToi aussi, tu connais ça, je parie!\n{{fun_00010007 arg=\"\"}}Pas vrai, {{fun_00080005 arg=\"\"}}?"
  },
  {
    "label": "015",
    "text": "{{fun_00040009 arg=\"0x46004700480049004A004B00\"}}"
  },
  {
    "label": "016",
    "text": "{{anim id=\"16\"}}Oh!{{delay frames=\"10\"}} Quand je pense que j'allais te\nlaisser partir sans te présenter mon\ngyroïde d'amour!\n{{anim id=\"4\"}}Si tu les observes attentivement,\ntu verras que chacun a une\nphysionomie propre!\n{{anim id=\"1\"}}Parfois, je les contemple et je\njoue à essayer de deviner leur\npersonnalité!"
  },
  {
    "label": "017",
    "text": "{{anim id=\"37\"}}Je prépare toujours ma tenue du\njour la veille :{{delay frames=\"10\"}} ça m'évite la panique\ndu matin devant ma garde-robe!\n{{anim id=\"1\"}}Le hic, c'est que je suis parfois si\nembrouillée au réveil que j'oublie et\nque je mets tout autre chose...\n{{anim id=\"2\"}}Du coup, les habits que j'avais\nsoigneusement préparés décorent\nma chambre, {{fun_00070005 arg=\"\"}}!"
  },
  {
    "label": "018",
    "text": "{{fun_00040009 arg=\"0x46004700480049004A004B00\"}}"
  },
  {
    "label": "019",
    "text": "{{anim id=\"37\"}}Tu te demandes ce qu'il y a dans\n{{fun_0001000E arg=\"\"}}{{fun_00030011 arg=\"0x0000\"}}, pas\nvrai? Eh bien pour être franche...\n{{anim id=\"39\"}}Je passe mon temps à en sortir des\nbidules et à y mettre des machins,\nalors je ne sais pas moi-même!"
  },
  {
    "label": "020",
    "text": "{{anim id=\"1\"}}{{fun_0003000E arg=\"\"}}{{fun_0001000E arg=\"\"}}{{fun_00030011 arg=\"0x0000\"}} :{{delay frames=\"10\"}} mon\nréservoir de rêves et d'aventures!{{delay frames=\"10\"}}\nN'hésite pas à y jeter un œil!\n{{anim id=\"13\"}}Comme tu le vois, {{fun_0008000E arg=\"0x00CD180069006C002000650073007400200070006C00650069006E001E0065006C006C0065002000650073007400200070006C00650069006E0065000000\"}} à\ncraquer, on ne pourrait plus y\nglisser le plus petit fascicule!\n{{anim id=\"5\"}}Bien sûr, je range tous mes livres\npar ordre alphabétique, sinon c'est\nla pagaille."
  },
  {
    "label": "021",
    "text": "{{anim id=\"16\"}}Oh!{{delay frames=\"10\"}} Comment j'ai pu laisser traîner\n{{fun_0001000E arg=\"\"}}{{fun_00030011 arg=\"0x0000\"}},\nsachant que tu venais me voir?\n{{anim id=\"36\"}}Enfin, si on veut un intérieur propre,\nil faut garder les produits ménagers\nà portée de main, pas vrai?"
  },
  {
    "label": "022",
    "text": "{{anim id=\"37\"}}Que penses-tu de {{fun_0008000E arg=\"0x00CD06006D006F006E0004006D0061000000\"}} magnifique\n{{fun_00030011 arg=\"0x0000\"}}?{{delay frames=\"10\"}} Moi, je\n{{fun_0008000E arg=\"0x00CD04006C00650004006C0061000000\"}} trouve absolument fascinant{{fun_0008000E arg=\"0x00CD0000020065000000\"}}.\n{{anim id=\"4\"}}{{fun_0008000E arg=\"0x00CD040049006C00080045006C006C0065000000\"}} me stimule intellectuellement :{{delay frames=\"10\"}}\nmille questions me traversent\nl'esprit quand je l{{fun_0008000E arg=\"0x00CD02006500020061000000\"}} regarde..."
  },
  {
    "label": "023",
    "text": "{{fun_00040009 arg=\"0x46004700480049004A004B00\"}}"
  },
  {
    "label": "024",
    "text": "{{fun_00040009 arg=\"0x46004700480049004A004B00\"}}"
  },
  {
    "label": "025",
    "text": "{{fun_00040009 arg=\"0x46004700480049004A004B00\"}}"
  },
  {
    "label": "026",
    "text": "{{anim id=\"1\"}}J'ai disposé ici cet{{fun_0008000E arg=\"0x00CD00000400740065000000\"}} adorable\n{{fun_00030011 arg=\"0x0000\"}} pour te\nsouhaiter la bienvenue, {{fun_00080005 arg=\"\"}}!\n{{anim id=\"21\"}}J'ai longuement réfléchi avant de {{fun_0008000E arg=\"0x00CD04006C00650004006C0061000000\"}}\nmettre ici... {{delay frames=\"10\"}}J'espère que tu\napprouves mon choix."
  },
  {
    "label": "027",
    "text": "{{anim id=\"16\"}}Oh, j'ai oublié mon curry dans\n{{fun_0001000E arg=\"\"}}{{fun_00030011 arg=\"0x0000\"}}!\n{{delay frames=\"15\"}}{{anim id=\"13\"}}Ça commence à sentir, tu crois?"
  },
  {
    "label": "028",
    "text": "{{anim id=\"13\"}}Oh, désolée d'avoir laissé traîner\n{{fun_0001000E arg=\"\"}}{{fun_00030011 arg=\"0x0000\"}}...{{delay frames=\"10\"}} Ça\nne sent pas la rose, je te l'accorde...\n{{anim id=\"39\"}}En fait, {{fun_0008000E arg=\"0x00CD040069006C00080065006C006C0065000000\"}} entrait dans la recette\nd'un plat que j'avais l'intention de\npréparer...\n{{anim id=\"37\"}}Il y a un temps pour la cuisine, et un\ntemps pour le ménage...{{delay frames=\"10\"}} On ne peut\npas tout faire!"
  },
  {
    "label": "029",
    "text": "{{fun_00040009 arg=\"0x46004700480049004A004B00\"}}"
  },
  {
    "label": "030",
    "text": "{{fun_00040009 arg=\"0x46004700480049004A004B00\"}}"
  },
  {
    "label": "031",
    "text": "{{anim id=\"1\"}}{{fun_0008000E arg=\"0x00CD10004D006F006E002000630068006500720010004D006100200063006800E800720065000000\"}} {{fun_00030011 arg=\"0x0000\"}},\n{{fun_00080005 arg=\"\"}}. {{delay frames=\"10\"}}{{fun_0003000E arg=\"\"}}{{fun_00080005 arg=\"\"}}, {{fun_0008000E arg=\"0x00CD10006D006F006E002000630068006500720010006D006100200063006800E800720065000000\"}}\n{{fun_00030011 arg=\"0x0000\"}}.\n{{anim id=\"5\"}}Je l'adore!{{delay frames=\"10\"}} Quand je mange, quand\nje dors, quand je lis, je l{{fun_0008000E arg=\"0x00CD02006500020061000000\"}} garde\ntoujours près de moi!"
  },
  {
    "label": "032",
    "text": "{{anim id=\"1\"}}{{fun_0008000E arg=\"0x00CD10004D006F006E002000630068006500720010004D006100200063006800E800720065000000\"}} {{fun_00030011 arg=\"0x0000\"}},\n{{fun_00080005 arg=\"\"}}. {{delay frames=\"10\"}}{{fun_0003000E arg=\"\"}}{{fun_00080005 arg=\"\"}}, {{fun_0008000E arg=\"0x00CD10006D006F006E002000630068006500720010006D006100200063006800E800720065000000\"}}\n{{fun_00030011 arg=\"0x0000\"}}.\n{{anim id=\"5\"}}Je l'adore!{{delay frames=\"10\"}} Quand je mange, quand\nje dors, quand je lis, je l{{fun_0008000E arg=\"0x00CD02006500020061000000\"}} garde\ntoujours près de moi!"
  },
  {
    "label": "033",
    "text": "{{fun_00040009 arg=\"0x46004700480049004A004B00\"}}"
  },
  {
    "label": "034",
    "text": "{{fun_00040009 arg=\"0x46004700480049004A004B00\"}}"
  },
  {
    "label": "035",
    "text": "{{fun_00040009 arg=\"0x46004700480049004A004B00\"}}"
  },
  {
    "label": "036",
    "text": "{{fun_00040009 arg=\"0x46004700480049004A004B00\"}}"
  },
  {
    "label": "037",
    "text": "{{fun_00040009 arg=\"0x46004700480049004A004B00\"}}"
  },
  {
    "label": "038",
    "text": "{{fun_00040009 arg=\"0x46004700480049004A004B00\"}}"
  },
  {
    "label": "039",
    "text": "{{anim id=\"5\"}}{{fun_0003000E arg=\"\"}}{{fun_0001000E arg=\"\"}}{{fun_00030011 arg=\"0x0000\"}}! Ça\naurait été dommage que tu partes\nsans l{{fun_0008000E arg=\"0x00CD02006500020061000000\"}} voir!\n{{anim id=\"23\"}}Tu te débrouilles en papillon et en\ndos crawlé? {{delay frames=\"30\"}}{{anim id=\"38\"}}Moi, je suis imbattable\nà la planche, hi hi!"
  },
  {
    "label": "040",
    "text": "{{fun_00040009 arg=\"0x46004700480049004A004B00\"}}"
  },
  {
    "label": "041",
    "text": "{{fun_00040009 arg=\"0x46004700480049004A004B00\"}}"
  },
  {
    "label": "042",
    "text": "{{fun_00040009 arg=\"0x46004700480049004A004B00\"}}"
  },
  {
    "label": "043",
    "text": "{{fun_00040009 arg=\"0x46004700480049004A004B00\"}}"
  },
  {
    "label": "044",
    "text": "{{anim id=\"1\"}}Ah, les poubelles, quelle belle\ninvention! {{delay frames=\"20\"}}{{anim id=\"21\"}}Tous les déchets\ndisparaissent en un tour de main!"
  },
  {
    "label": "045",
    "text": ""
  },
  {
    "label": "046",
    "text": ""
  },
  {
    "label": "047",
    "text": ""
  },
  {
    "label": "048",
    "text": ""
  },
  {
    "label": "049",
    "text": ""
  },
  {
    "label": "050",
    "text": ""
  },
  {
    "label": "051",
    "text": ""
  },
  {
    "label": "052",
    "text": ""
  },
  {
    "label": "053",
    "text": ""
  },
  {
    "label": "054",
    "text": ""
  },
  {
    "label": "055",
    "text": ""
  },
  {
    "label": "056",
    "text": ""
  },
  {
    "label": "057",
    "text": ""
  },
  {
    "label": "058",
    "text": ""
  },
  {
    "label": "059",
    "text": ""
  },
  {
    "label": "060",
    "text": ""
  },
  {
    "label": "061",
    "text": ""
  },
  {
    "label": "062",
    "text": ""
  },
  {
    "label": "063",
    "text": ""
  },
  {
    "label": "064",
    "text": ""
  },
  {
    "label": "065",
    "text": ""
  },
  {
    "label": "066",
    "text": ""
  },
  {
    "label": "067",
    "text": ""
  },
  {
    "label": "068",
    "text": ""
  },
  {
    "label": "069",
    "text": ""
  },
  {
    "label": "070",
    "text": "{{anim id=\"5\"}}Alors, tu te plais chez moi?"
  },
  {
    "label": "071",
    "text": "{{anim id=\"1\"}}Ça me fait tellement plaisir de te\nrecevoir chez moi, {{fun_00080005 arg=\"\"}}!"
  },
  {
    "label": "072",
    "text": "{{anim id=\"37\"}}Que penses-tu de mon home, sweet\nhome?{{fun_00010007 arg=\"\"}}{{anim id=\"5\"}} Il reflète ma personnalité,\ntu ne trouves pas, {{fun_00070005 arg=\"\"}}?"
  },
  {
    "label": "073",
    "text": "{{anim id=\"1\"}}Je mets toujours du temps avant de\nme décider pour l'emplacement d'un\nobjet... {{delay frames=\"15\"}}Mais ça vaut le coup, non?"
  },
  {
    "label": "074",
    "text": "{{anim id=\"1\"}}Je n'ai pas tellement l'habitude de\nrecevoir du monde...{{delay frames=\"10\"}} C'est amusant\nde te voir chez moi, {{fun_00080005 arg=\"\"}}."
  },
  {
    "label": "075",
    "text": "{{anim id=\"39\"}}Avant que tu viennes, j'avais un peu\npeur de ne pas être une hôtesse à\nla hauteur...\n{{anim id=\"1\"}}Mais maintenant que tu es là, ça me\nfait si plaisir de te recevoir que\ntoute ma nervosité s'est envolée!"
  }
]