﻿[
  {
    "label": "001",
    "text": "{{anim id=\"1\"}}Pas de deuxième chance, on ne joue\nqu'{{color id=\"2\"}}une seule manche{{color id=\"65535\"}}!{{delay frames=\"10\"}} Sauf en cas\nd'égalité, évidemment.{{delay frames=\"10\"}} Tu es prêt{{fun_0006000E arg=\"0x000002006500\"}}?"
  },
  {
    "label": "002",
    "text": "{{anim id=\"1\"}}Prêt{{fun_0006000E arg=\"0x000002006500\"}}?{{delay frames=\"40\"}} L{{fun_0006000E arg=\"0x0200650002006100\"}} premi{{fun_0006000E arg=\"0x0400650072000600E80072006500\"}} à remporter\n{{color id=\"2\"}}{{fun_00060004 arg=\"0x0000\"}} manches{{color id=\"65535\"}} gagne la partie!"
  },
  {
    "label": "003",
    "text": "À la une{{delay frames=\"8\"}}.{{delay frames=\"8\"}}.{{delay frames=\"8\"}}. À la deux{{delay frames=\"8\"}}.{{delay frames=\"8\"}}.{{delay frames=\"8\"}}.{{fun_0001000F arg=\"0x000000000000\"}}\nPierre!\nCiseaux!\nPapier!"
  },
  {
    "label": "004",
    "text": "{{fun_000B0007 arg=\"\"}}PIERRE!"
  },
  {
    "label": "005",
    "text": "{{fun_000B0007 arg=\"\"}}CISEAUX!"
  },
  {
    "label": "006",
    "text": "{{fun_000B0007 arg=\"\"}}PAPIER!"
  },
  {
    "label": "007",
    "text": "{{anim id=\"41\"}}Argh!"
  },
  {
    "label": "008",
    "text": "{{anim id=\"37\"}}Égalité!"
  },
  {
    "label": "009",
    "text": "{{anim id=\"1\"}}Youpi!"
  },
  {
    "label": "010",
    "text": ""
  },
  {
    "label": "011",
    "text": "{{anim id=\"37\"}}Bien joué!{{delay frames=\"10\"}} Quel est ton secret?{{delay frames=\"20\"}}{{anim id=\"29\"}} Tu\nes redoutable à ce jeu!"
  },
  {
    "label": "012",
    "text": "{{anim id=\"37\"}}Qui c'est qui a gagné?{{delay frames=\"10\"}} C'est bibi!{{delay frames=\"20\"}}{{anim id=\"21\"}}\nMais c'était un honneur d'affronter\nun{{fun_0006000E arg=\"0x000002006500\"}} adversaire de ta trempe!"
  }
]