﻿[
  {
    "label": "001",
    "text": "{{fun_0000000C arg=\"\"}}{{fun_0005000C arg=\"\"}}{{fun_0002000C arg=\"\"}}{{fun_0006000C arg=\"\"}}{{fun_0001000C arg=\"\"}}{{fun_0008000C arg=\"\"}}{{anim id=\"1\"}}Houlà, c'est la fête aujourd'hui, on\ndirait!{{delay frames=\"20\"}} {{anim id=\"35\"}}On a pas l'habitude de te\nvoir habillée comme ça, dis-moi!\n{{anim id=\"29\"}}Un relooking s'impose, {{fun_00010011 arg=\"0x0100\"}}!{{delay frames=\"10\"}}\nHi hi hi!{{delay frames=\"20\"}} Tu sais ce qui t'irait?{{delay frames=\"20\"}}\nTotal look{{delay frames=\"10\"}} ROSE!{{fun_0009000C arg=\"\"}}"
  },
  {
    "label": "002",
    "text": "{{fun_0000000C arg=\"\"}}{{fun_0007000C arg=\"\"}}{{fun_0002000C arg=\"\"}}{{anim id=\"37\"}}Je te remercie, mais je sais quelles\ncouleurs me vont.{{delay frames=\"20\"}} {{anim id=\"27\"}}Et je préfère ne\npas abuser du rose...{{fun_0009000C arg=\"\"}}"
  },
  {
    "label": "003",
    "text": "{{fun_0000000C arg=\"\"}}{{fun_0006000C arg=\"\"}}{{fun_0001000C arg=\"\"}}{{anim id=\"27\"}}Tu te contentes des couleurs qui te{{delay frames=\"10\"}}\nvont?{{delay frames=\"30\"}}{{anim id=\"5\"}} Mais c'est tristoune, ça!{{delay frames=\"10\"}} Il\nfaut oser, voyons!{{fun_0009000C arg=\"\"}}"
  },
  {
    "label": "004",
    "text": "{{fun_0000000C arg=\"\"}}{{fun_0007000C arg=\"\"}}{{fun_0002000C arg=\"\"}}{{anim id=\"11\"}}J'ose, mais à ma façon{{delay frames=\"8\"}}.{{delay frames=\"8\"}}.{{delay frames=\"8\"}}. {{delay frames=\"10\"}}Parfois, je\nsors même sans chaussettes, c'est\npour te dire!{{fun_0009000C arg=\"\"}}"
  },
  {
    "label": "005",
    "text": "{{fun_0000000C arg=\"\"}}{{fun_0006000C arg=\"\"}}{{fun_0001000C arg=\"\"}}{{anim id=\"9\"}}Ouais d'accord... {{delay frames=\"10\"}}mais il te suffirait\nde pas grand-chose pour\n{{anim id=\"1\"}}VRAIMENT faire la différence!\n{{anim id=\"29\"}}Pour que les gens se retournent sur\nton passage!{{delay frames=\"5\"}} Ça te rendrait méga\npopulaire, {{delay frames=\"5\"}}{{delay frames=\"10\"}}{{fun_00010011 arg=\"0x0100\"}}! {{delay frames=\"10\"}}Crois-moi!{{fun_0009000C arg=\"\"}}"
  },
  {
    "label": "006",
    "text": "{{fun_0000000C arg=\"\"}}{{fun_0007000C arg=\"\"}}{{fun_0002000C arg=\"\"}}{{anim id=\"43\"}}Populaire, tu dis? {{delay frames=\"10\"}}Hmm{{delay frames=\"8\"}}.{{delay frames=\"8\"}}.{{delay frames=\"8\"}}.{{delay frames=\"8\"}} Ça\nm'intéresse, tu sais.{{delay frames=\"10\"}} On pourrait\npeut-être en reparler, {{delay frames=\"10\"}}{{anim id=\"23\"}}en privé?"
  },
  {
    "label": "007",
    "text": ""
  },
  {
    "label": "008",
    "text": ""
  },
  {
    "label": "009",
    "text": ""
  },
  {
    "label": "010",
    "text": "{{fun_0000000C arg=\"\"}}{{fun_0005000C arg=\"\"}}{{fun_0001000C arg=\"\"}}{{fun_0004000C arg=\"\"}}{{fun_0002000C arg=\"\"}}{{fun_0004000C arg=\"\"}}{{fun_0001000C arg=\"\"}}{{anim id=\"32\"}}Hé, {{delay frames=\"20\"}}{{fun_00080005 arg=\"\"}}!{{delay frames=\"20\"}}\nOn va former un groupe! {{delay frames=\"30\"}}{{anim id=\"39\"}}Tu veux\nen faire partie?{{fun_0009000C arg=\"\"}}"
  },
  {
    "label": "011",
    "text": "{{fun_0000000C arg=\"\"}}{{fun_0007000C arg=\"\"}}{{fun_0002000C arg=\"\"}}{{fun_0005000C arg=\"\"}}{{anim id=\"16\"}}Minute!{{delay frames=\"30\"}} Tu parles de nous deux?{{delay frames=\"5\"}}{{anim id=\"1\"}} À\nquel moment aurais-je accepté de\nformer un groupe avec toi?{{fun_0009000C arg=\"\"}}"
  },
  {
    "label": "012",
    "text": "{{fun_0001000A arg=\"0x0D001200\"}}"
  },
  {
    "label": "013",
    "text": "{{fun_0000000C arg=\"\"}}{{fun_0005000C arg=\"\"}}{{fun_0001000C arg=\"\"}}{{fun_0007000C arg=\"\"}}T'as pas lu ma lettre?{{delay frames=\"20\"}} {{anim id=\"27\"}}J'avais\ndessiné tout plein de notes de\nmusique,{{delay frames=\"20\"}} tout ça pour rien{{delay frames=\"8\"}}.{{delay frames=\"8\"}}.{{delay frames=\"8\"}}.\n{{anim id=\"39\"}}Je suis sûre que tu as toujours rêvé\nd'être choriste{{delay frames=\"8\"}}.{{delay frames=\"8\"}}.{{delay frames=\"8\"}}. {{anim id=\"1\"}}Pas vrai?{{delay frames=\"20\"}} Moi je\nserais la chanteuse!\nQu'est-ce que t'en dis, {{fun_00010011 arg=\"0x0100\"}}?\n{{fun_0003000C arg=\"\"}}{{anim id=\"29\"}}Et {{delay frames=\"5\"}}{{fun_00080005 arg=\"\"}} pourrait danser?{{delay frames=\"5\"}}\nHistoire d'attirer le public féminin?{{fun_0002000C arg=\"\"}}{{fun_0003000C arg=\"\"}}{{fun_0009000C arg=\"\"}}{{fun_00050008 arg=\"0x0E00150010000000\"}}\nJe suis partant!\nSans moi..."
  },
  {
    "label": "014",
    "text": "{{fun_0000000C arg=\"\"}}{{fun_0007000C arg=\"\"}}{{fun_0002000C arg=\"\"}}{{fun_0003000C arg=\"\"}}{{anim id=\"13\"}}Dans quoi est-ce que je suis en train\nde m'embarquer?!{{delay frames=\"10\"}} Imagine qu'on ait\nle trac,{{delay frames=\"10\"}} {{fun_00080005 arg=\"\"}} et moi?{{fun_0009000C arg=\"\"}}"
  },
  {
    "label": "015",
    "text": "{{fun_0000000C arg=\"\"}}{{fun_0005000C arg=\"\"}}{{fun_0001000C arg=\"\"}}{{fun_0007000C arg=\"\"}}{{anim id=\"1\"}}Han là là, comment tu stresses!{{delay frames=\"10\"}}\nHi hi hi! {{delay frames=\"20\"}}Ce sera méga drôle, je te le\npromets, {{delay frames=\"5\"}}{{fun_00010011 arg=\"0x0100\"}}!"
  },
  {
    "label": "016",
    "text": "{{fun_0000000C arg=\"\"}}{{fun_0007000C arg=\"\"}}{{fun_0002000C arg=\"\"}}{{anim id=\"40\"}}Quelle idée, aussi...{{delay frames=\"10\"}} {{fun_0003000E arg=\"\"}}{{fun_00080005 arg=\"\"}} et\nmoi ne sommes peut-être pas faits\npour la scène!{{fun_0009000C arg=\"\"}}"
  },
  {
    "label": "017",
    "text": "{{fun_0000000C arg=\"\"}}{{fun_0005000C arg=\"\"}}{{fun_0001000C arg=\"\"}}{{anim id=\"36\"}}Me dis pas que tu me lâches, toi\naussi...{{delay frames=\"20\"}} {{anim id=\"27\"}}On aurait pu devenir hyper\ncélèbres, pourtant..."
  },
  {
    "label": "018",
    "text": "{{fun_0000000C arg=\"\"}}{{fun_0005000C arg=\"\"}}{{fun_0001000C arg=\"\"}}{{fun_0007000C arg=\"\"}}T'as pas lu ma lettre?{{delay frames=\"20\"}} {{anim id=\"27\"}}J'avais\ndessiné tout plein de notes de\nmusique,{{delay frames=\"20\"}} tout ça pour rien{{delay frames=\"8\"}}.{{delay frames=\"8\"}}.{{delay frames=\"8\"}}.\n{{anim id=\"39\"}}Je suis sûre que tu as toujours rêvé\nd'être choriste{{delay frames=\"8\"}}.{{delay frames=\"8\"}}.{{delay frames=\"8\"}}. {{anim id=\"1\"}}Pas vrai?{{delay frames=\"20\"}} Moi je\nserais la chanteuse!\nQu'est-ce que t'en dis, {{fun_00010011 arg=\"0x0100\"}}?\n{{fun_0003000C arg=\"\"}}{{anim id=\"29\"}}Et {{delay frames=\"5\"}}{{fun_00080005 arg=\"\"}} pourrait nous\naccompagner au tambourin!\nT'es d'accord, dis, copine?{{fun_0002000C arg=\"\"}}{{fun_0003000C arg=\"\"}}{{fun_0009000C arg=\"\"}}{{fun_00050008 arg=\"0x1300150015000000\"}}\nJe suis partante!\nPas du tambourin!"
  },
  {
    "label": "019",
    "text": "{{fun_0000000C arg=\"\"}}{{fun_0007000C arg=\"\"}}{{fun_0002000C arg=\"\"}}{{fun_0003000C arg=\"\"}}{{anim id=\"27\"}}Tu ne sais même pas {{delay frames=\"10\"}}si {{fun_00080005 arg=\"\"}}\nsait jouer du tambourin!{{delay frames=\"30\"}}{{anim id=\"40\"}} Ce n'est\npas un instrument facile, tu sais.{{fun_0009000C arg=\"\"}}"
  },
  {
    "label": "020",
    "text": "{{fun_0000000C arg=\"\"}}{{fun_0005000C arg=\"\"}}{{fun_0001000C arg=\"\"}}{{fun_0007000C arg=\"\"}}C'est carrément pas gentil, de dire\nça!{{anim id=\"29\"}} Moi, je crois en {{fun_00080005 arg=\"\"}}!!!{{delay frames=\"20\"}}\nJe crois en vous deux, {{delay frames=\"10\"}}{{fun_00010011 arg=\"0x0100\"}}!"
  },
  {
    "label": "021",
    "text": "{{fun_0000000C arg=\"\"}}{{fun_0007000C arg=\"\"}}{{fun_0001000C arg=\"\"}}{{fun_0007000C arg=\"\"}}{{anim id=\"9\"}}Faire jouer du tambourin à\n{{fun_00080005 arg=\"\"}}, quelle idée...{{delay frames=\"30\"}}{{anim id=\"37\"}} Elle serait\npeut-être plus à l'aise au clavecin?{{fun_0009000C arg=\"\"}}"
  },
  {
    "label": "022",
    "text": "{{fun_0000000C arg=\"\"}}{{fun_0005000C arg=\"\"}}{{fun_0001000C arg=\"\"}}{{fun_0007000C arg=\"\"}}{{anim id=\"27\"}}C'est moi qui décide qui fait quoi!\nJe suis la chanteuse, quoi.{{delay frames=\"30\"}} {{anim id=\"1\"}}Bon, si\nelle préfère le clavecin, {{delay frames=\"10\"}}OK..."
  },
  {
    "label": "023",
    "text": ""
  },
  {
    "label": "024",
    "text": ""
  },
  {
    "label": "025",
    "text": "{{fun_0000000C arg=\"\"}}{{fun_0005000C arg=\"\"}}{{fun_0001000C arg=\"\"}}{{fun_0004000C arg=\"\"}}{{fun_0002000C arg=\"\"}}{{fun_0004000C arg=\"\"}}{{fun_0001000C arg=\"\"}}{{anim id=\"31\"}}Vous êtes prêts pour un tout\nnouveau numéro de {{delay frames=\"20\"}}« Tendance\n{{fun_00010011 arg=\"0x0000\"}} »? C'est parti!!!{{fun_0009000C arg=\"\"}}"
  },
  {
    "label": "026",
    "text": "{{fun_0000000C arg=\"\"}}{{fun_0007000C arg=\"\"}}{{fun_0002000C arg=\"\"}}{{fun_0005000C arg=\"\"}}Euh...{{delay frames=\"30\"}} {{anim id=\"23\"}}On est filmées?{{delay frames=\"10\"}} {{anim id=\"13\"}}C'est du\ndirect?{{fun_0009000C arg=\"\"}}"
  },
  {
    "label": "027",
    "text": "{{fun_0000000C arg=\"\"}}{{fun_0005000C arg=\"\"}}{{fun_0001000C arg=\"\"}}{{anim id=\"29\"}}Tendance de la semaine numéro 1!{{delay frames=\"20\"}}\nLe petit pas sympa..."
  },
  {
    "label": "028",
    "text": "{{fun_00010009 arg=\"0x1D001E001F00\"}}"
  },
  {
    "label": "029",
    "text": "{{anim id=\"42\"}}Olé,{{delay frames=\"20\"}} flamenco!"
  },
  {
    "label": "030",
    "text": "{{anim id=\"42\"}}Zzz, zzz!{{delay frames=\"20\"}} Le robot!"
  },
  {
    "label": "031",
    "text": "{{anim id=\"42\"}}Yo man! {{delay frames=\"20\"}}Hip-hop!"
  },
  {
    "label": "032",
    "text": "{{fun_00010009 arg=\"0x210022002300\"}}"
  },
  {
    "label": "033",
    "text": "{{anim id=\"31\"}}Tendance de la semaine numéro 2!{{delay frames=\"20\"}}\nLe livre à avoir dans les mains :{{delay frames=\"10\"}}\n{{fun_001D0005 arg=\"0x0000\"}}!"
  },
  {
    "label": "034",
    "text": "{{anim id=\"31\"}}Tendance de la semaine numéro 2!{{delay frames=\"20\"}}\nLe dessert dont tout le monde\nraffole :{{delay frames=\"10\"}} {{fun_0001000E arg=\"\"}}{{fun_00100005 arg=\"0x0000\"}}!"
  },
  {
    "label": "035",
    "text": "{{anim id=\"31\"}}Tendance de la semaine numéro 2!{{delay frames=\"20\"}}\nLe petit repas du soir à se faire\nlivrer :{{delay frames=\"10\"}} {{fun_0001000E arg=\"\"}}{{fun_00130005 arg=\"0x0000\"}}!"
  },
  {
    "label": "036",
    "text": "{{fun_0002000C arg=\"\"}}{{fun_0003000C arg=\"\"}}{{fun_0001000C arg=\"\"}}{{fun_0003000C arg=\"\"}}{{anim id=\"21\"}}Pour nous parler de LA boisson du\nmoment,{{delay frames=\"20\"}} notre reporter spécial{{delay frames=\"8\"}}.{{delay frames=\"8\"}}.{{delay frames=\"8\"}}.\n{{delay frames=\"10\"}}{{fun_00080005 arg=\"\"}}!!!\nQu'est-ce qu'on sirote en ville en ce\nmoment, {{fun_00080005 arg=\"\"}}?{{fun_00010008 arg=\"0x250000002500000025000000\"}}\n{{fun_0003000E arg=\"\"}}{{fun_0002000E arg=\"\"}}{{fun_000E0005 arg=\"0x0000\"}}.\n{{fun_0003000E arg=\"\"}}{{fun_0002000E arg=\"\"}}{{fun_000E0005 arg=\"0x0100\"}}.\n{{fun_0003000E arg=\"\"}}{{fun_0002000E arg=\"\"}}{{fun_000E0005 arg=\"0x0200\"}}."
  },
  {
    "label": "037",
    "text": "{{fun_00000009 arg=\"0x26002700\"}}"
  },
  {
    "label": "038",
    "text": "{{anim id=\"29\"}}Merci, {{fun_00080005 arg=\"\"}}!!!{{delay frames=\"10\"}}\nMerci à vous de nous avoir suivi{{fun_0006000E arg=\"0x02007300040065007300\"}}!{{delay frames=\"10\"}}\nÀ la semaine prochaine, mes chéris!{{fun_0009000C arg=\"\"}}"
  },
  {
    "label": "039",
    "text": "{{anim id=\"13\"}}T'es sûr{{fun_0006000E arg=\"0x000002006500\"}} de ton coup,{{delay frames=\"5\"}} {{delay frames=\"10\"}}{{fun_00080005 arg=\"\"}}?\n{{anim id=\"27\"}}C'est vraiment {{delay frames=\"10\"}}ÇA, la boisson du\nmoment?{{delay frames=\"20\"}} J'aurais jamais dit{{delay frames=\"8\"}}.{{delay frames=\"8\"}}.{{delay frames=\"8\"}}.\n{{anim id=\"29\"}}Vivement la semaine prochaine!!!\nQu'on ait encore plein de nouvelles\ntendances bizarres à décortiquer!!!{{fun_0009000C arg=\"\"}}"
  },
  {
    "label": "040",
    "text": "{{fun_0000000C arg=\"\"}}{{fun_0007000C arg=\"\"}}{{fun_0002000C arg=\"\"}}{{anim id=\"40\"}}Je n'ai aucune idée de ce qui vient\nde se passer{{delay frames=\"8\"}}.{{delay frames=\"8\"}}.{{delay frames=\"8\"}}. {{anim id=\"37\"}}et je crois que c'est\nmieux comme ça!{{delay frames=\"20\"}}"
  }
]