﻿[
  {
    "label": "001",
    "text": "{{fun_0000000C arg=\"\"}}{{fun_0005000C arg=\"\"}}{{fun_0001000C arg=\"\"}}{{anim id=\"1\"}}Je reçois toujours une tonne de\nlettres de fans...{{delay frames=\"20\"}} Certaines me\ndonnent même les larmes aux yeux!\n{{anim id=\"39\"}}Comme celle que j'ai reçue hier...{{delay frames=\"30\"}}\n{{anim id=\"37\"}}Entre autres, elle disait que j'étais\nbelle comme une tarte aux fraises...\n{{anim id=\"27\"}}Manque de bol, y'avait pas de\nsignature!{{delay frames=\"20\"}} Elle serait pas de toi,{{delay frames=\"10\"}}\n{{fun_00010011 arg=\"0x0100\"}}?{{fun_0009000C arg=\"\"}}"
  },
  {
    "label": "002",
    "text": "{{fun_0000000C arg=\"\"}}{{fun_0007000C arg=\"\"}}{{fun_0002000C arg=\"\"}}{{anim id=\"15\"}}De moi?{{delay frames=\"20\"}} Ce genre de lettres, c'est\npas mon truc, tu sais...{{delay frames=\"10\"}} On dirait que\ntu as un admirateur secret.{{fun_0009000C arg=\"\"}}"
  },
  {
    "label": "003",
    "text": "{{fun_0000000C arg=\"\"}}{{fun_0005000C arg=\"\"}}{{fun_0001000C arg=\"\"}}{{anim id=\"9\"}}T'es sûr? {{delay frames=\"20\"}}Tu me le dirais, hein, si\nc'était de toi?{{delay frames=\"10\"}} Y'a pas de honte!!!{{delay frames=\"20\"}}\n{{anim id=\"3\"}}C'est juste hyper flatteur pour moi!{{fun_0009000C arg=\"\"}}"
  },
  {
    "label": "004",
    "text": "{{fun_00010009 arg=\"0x050006000700\"}}"
  },
  {
    "label": "005",
    "text": "{{fun_0000000C arg=\"\"}}{{fun_0007000C arg=\"\"}}{{fun_0002000C arg=\"\"}}{{anim id=\"27\"}}Je serais bien incapable de flatter\nqui que ce soit...{{delay frames=\"40\"}} {{anim id=\"36\"}}Puis, je m'en\nsouviendrais, quand même.{{fun_0009000C arg=\"\"}}"
  },
  {
    "label": "006",
    "text": "{{fun_0000000C arg=\"\"}}{{fun_0007000C arg=\"\"}}{{fun_0002000C arg=\"\"}}{{anim id=\"11\"}}« Flatteur »{{delay frames=\"8\"}}.{{delay frames=\"8\"}}.{{delay frames=\"8\"}}.{{delay frames=\"30\"}} Comme quand on me\nsert {{fun_0002000E arg=\"\"}}{{fun_00100005 arg=\"0x0000\"}} {{delay frames=\"30\"}}{{anim id=\"37\"}}et\nque je dis que c'est super bon?{{fun_0009000C arg=\"\"}}"
  },
  {
    "label": "007",
    "text": "{{fun_0000000C arg=\"\"}}{{fun_0007000C arg=\"\"}}{{fun_0002000C arg=\"\"}}{{anim id=\"43\"}}Pour que je t'envoie une lettre de\nfan,{{delay frames=\"20\"}} il faudrait que tu sois{{delay frames=\"8\"}}.{{delay frames=\"8\"}}.{{delay frames=\"8\"}}.{{delay frames=\"20\"}}{{anim id=\"4\"}}\npâtissière,{{delay frames=\"10\"}} ou chocolatière...{{fun_0009000C arg=\"\"}}"
  },
  {
    "label": "008",
    "text": "{{fun_0000000C arg=\"\"}}{{fun_0005000C arg=\"\"}}{{fun_0001000C arg=\"\"}}{{anim id=\"27\"}}OK...{{delay frames=\"20\"}} J'insiste pas...{{delay frames=\"20\"}} {{anim id=\"1\"}}Avoir un\nadmirateur secret,{{delay frames=\"10\"}} ça me va, hi hi!"
  },
  {
    "label": "009",
    "text": "{{fun_0000000C arg=\"\"}}{{fun_0005000C arg=\"\"}}{{fun_0001000C arg=\"\"}}{{anim id=\"21\"}}Oui,{{delay frames=\"5\"}} exactement!!!{{delay frames=\"20\"}} On se comprend\ntous les deux, délire!"
  },
  {
    "label": "010",
    "text": "{{fun_0000000C arg=\"\"}}{{fun_0005000C arg=\"\"}}{{fun_0001000C arg=\"\"}}{{anim id=\"23\"}}Y'a vraiment que la nourriture qui\nt'intéresse, toi, hein?{{delay frames=\"20\"}}"
  },
  {
    "label": "011",
    "text": ""
  },
  {
    "label": "012",
    "text": ""
  },
  {
    "label": "013",
    "text": ""
  },
  {
    "label": "014",
    "text": ""
  },
  {
    "label": "015",
    "text": "{{fun_0000000C arg=\"\"}}{{fun_0005000C arg=\"\"}}{{fun_0001000C arg=\"\"}}{{anim id=\"37\"}}Dis,{{delay frames=\"10\"}} c'est quoi, ton secret?{{delay frames=\"5\"}} Tu fais\nque dormir et manger...{{delay frames=\"10\"}} mais t'es en\nsuper forme, {{fun_00010011 arg=\"0x0100\"}}!\n{{anim id=\"23\"}}T'as un truc?{{delay frames=\"10\"}} Tu fais des pompes\nen secret, ou quoi?{{fun_0009000C arg=\"\"}}"
  },
  {
    "label": "016",
    "text": "{{fun_0000000C arg=\"\"}}{{fun_0007000C arg=\"\"}}{{fun_0002000C arg=\"\"}}{{anim id=\"27\"}}Qu'est-ce que tu racontes{{delay frames=\"8\"}}.{{delay frames=\"8\"}}.{{delay frames=\"8\"}}.{{delay frames=\"8\"}}?{{delay frames=\"8\"}} Je me\ndépense beaucoup!{{delay frames=\"10\"}} Voilà pourquoi\nje suis en forme.{{fun_0009000C arg=\"\"}}"
  },
  {
    "label": "017",
    "text": "{{fun_0000000C arg=\"\"}}{{fun_0005000C arg=\"\"}}{{fun_0001000C arg=\"\"}}{{anim id=\"16\"}}Ah oui?! {{delay frames=\"25\"}}Je pense pas qu'on puisse\nconsidérer le fait de mâcher comme\nde l'exercice,{{delay frames=\"5\"}} tu sais!{{delay frames=\"5\"}} {{anim id=\"2\"}}Hi hi hi!{{fun_0009000C arg=\"\"}}"
  },
  {
    "label": "018",
    "text": "{{fun_00010009 arg=\"0x130014001500\"}}"
  },
  {
    "label": "019",
    "text": "{{fun_0000000C arg=\"\"}}{{fun_0007000C arg=\"\"}}{{fun_0002000C arg=\"\"}}{{anim id=\"35\"}}À table, je soulève mon couteau et\nma fourchette dix fois avant de\nmanger.{{delay frames=\"20\"}}{{anim id=\"1\"}} Comme des haltères.\n{{anim id=\"21\"}}Ça fait les muscles.{{delay frames=\"15\"}} Et surtout, ça\nouvre l'appétit.{{fun_0009000C arg=\"\"}}"
  },
  {
    "label": "020",
    "text": "{{fun_0000000C arg=\"\"}}{{fun_0007000C arg=\"\"}}{{fun_0002000C arg=\"\"}}{{anim id=\"26\"}}Je jongle avec des pommes, on fait\npas plus simple. {{delay frames=\"30\"}}{{anim id=\"21\"}}J'arrive à en\nlancer trois en même temps!\n{{anim id=\"43\"}}Je les rattrape pas toujours, par\ncontre{{delay frames=\"8\"}}.{{delay frames=\"8\"}}.{{delay frames=\"8\"}}. {{delay frames=\"10\"}}Et dès qu'une pomme\ntombe, {{delay frames=\"20\"}}{{anim id=\"1\"}}je la mange. {{fun_0009000C arg=\"\"}}"
  },
  {
    "label": "021",
    "text": "{{fun_0000000C arg=\"\"}}{{fun_0007000C arg=\"\"}}{{fun_0002000C arg=\"\"}}{{anim id=\"39\"}}Ben voilà{{delay frames=\"8\"}}.{{delay frames=\"8\"}}.{{delay frames=\"8\"}}.{{delay frames=\"8\"}} Je fais de la muscu.{{delay frames=\"20\"}} {{anim id=\"38\"}}Je\nme baisse pour ramasser\n{{fun_0002000E arg=\"\"}}{{fun_00100005 arg=\"0x0000\"}}...\n{{anim id=\"36\"}}... puis je me lève, je mange,{{delay frames=\"5\"}} et je\nrecommence.{{delay frames=\"20\"}} Le lendemain, j'ai des\ncourbatures partout...{{fun_0009000C arg=\"\"}}"
  },
  {
    "label": "022",
    "text": "{{fun_00010009 arg=\"0x170017001800\"}}"
  },
  {
    "label": "023",
    "text": "{{fun_0000000C arg=\"\"}}{{fun_0005000C arg=\"\"}}{{fun_0001000C arg=\"\"}}{{anim id=\"2\"}}Hi{{delay frames=\"5\"}} hi{{delay frames=\"5\"}} hi!{{delay frames=\"20\"}} Tu devrais lancer un\nnouveau sport!{{delay frames=\"20\"}} On s'entraîne\nensemble, la prochaine fois?"
  },
  {
    "label": "024",
    "text": "{{fun_0000000C arg=\"\"}}{{fun_0005000C arg=\"\"}}{{fun_0001000C arg=\"\"}}{{anim id=\"13\"}}C'est pas de l'exercice, ça!!!{{delay frames=\"20\"}} Je suis\nsûre que tu transpires même pas!{{delay frames=\"20\"}}\n{{anim id=\"27\"}}N'importe quoi..."
  },
  {
    "label": "025",
    "text": ""
  },
  {
    "label": "026",
    "text": ""
  },
  {
    "label": "027",
    "text": ""
  },
  {
    "label": "028",
    "text": ""
  },
  {
    "label": "029",
    "text": ""
  },
  {
    "label": "030",
    "text": "{{fun_0000000C arg=\"\"}}{{fun_0005000C arg=\"\"}}{{fun_0001000C arg=\"\"}}{{fun_0004000C arg=\"\"}}{{anim id=\"32\"}}Kikou, {{delay frames=\"10\"}}{{fun_00080005 arg=\"\"}}!\nTu tombes à pic!{{delay frames=\"20\"}}{{anim id=\"1\"}} On se demandait\nce qui était le mieux...\n{{anim id=\"23\"}}L'été ou l'hiver?{{delay frames=\"20\"}} T'en penses quoi,\ntoi?!{{fun_00050008 arg=\"0x1F00000024000000\"}}\nSans hésitation, l'été!\nJe préfère l'hiver!"
  },
  {
    "label": "031",
    "text": "{{anim id=\"21\"}}Ouais, carrément d'accord! {{delay frames=\"20\"}}En été,\n{{delay frames=\"5\"}}le soleil se lève tôt{{delay frames=\"10\"}} et se couche\ntard!{{delay frames=\"20\"}} {{anim id=\"35\"}}Tout comme moi, quoi!!!{{fun_0009000C arg=\"\"}}"
  },
  {
    "label": "032",
    "text": "{{fun_00010009 arg=\"0x210022002300\"}}"
  },
  {
    "label": "033",
    "text": "{{fun_0000000C arg=\"\"}}{{fun_0007000C arg=\"\"}}{{fun_0002000C arg=\"\"}}{{anim id=\"43\"}}L'été et ses pastèques bien\nfraîches, ses glaces...{{delay frames=\"20\"}} {{anim id=\"21\"}}Moi aussi,{{delay frames=\"5\"}} je\nsuis d'accord.{{fun_0009000C arg=\"\"}}"
  },
  {
    "label": "034",
    "text": "{{fun_0000000C arg=\"\"}}{{fun_0007000C arg=\"\"}}{{fun_0002000C arg=\"\"}}{{anim id=\"43\"}}Ce que j'adore en été,{{delay frames=\"20\"}} c'est manger\ndu maïs directement sur l'épi.{{delay frames=\"10\"}} Ça\ntient dans la main, c'est pratique!{{fun_0009000C arg=\"\"}}"
  },
  {
    "label": "035",
    "text": "{{fun_0000000C arg=\"\"}}{{fun_0007000C arg=\"\"}}{{fun_0002000C arg=\"\"}}{{anim id=\"27\"}}Ça va vous paraître bizarre,{{delay frames=\"10\"}} mais\nl'été, j'adore les soupes bien\nchaudes{{delay frames=\"8\"}}.{{delay frames=\"8\"}}.{{delay frames=\"8\"}}.\n{{anim id=\"37\"}}Comme ça j'ai l'impression d'être\ntout froid, ça me rafraîchit.{{fun_0009000C arg=\"\"}}"
  },
  {
    "label": "036",
    "text": "{{anim id=\"3\"}}L'hiver, hein?! {{delay frames=\"10\"}}C'est vrai que la\nneige, c'est trop fort!{{delay frames=\"20\"}} Et ça fait de\nla buée quand on parle,{{delay frames=\"10\"}} hi hi hi!{{fun_0009000C arg=\"\"}}"
  },
  {
    "label": "037",
    "text": "{{fun_00010009 arg=\"0x260027002800\"}}"
  },
  {
    "label": "038",
    "text": "{{fun_0000000C arg=\"\"}}{{fun_0007000C arg=\"\"}}{{fun_0002000C arg=\"\"}}{{anim id=\"26\"}}En hiver,{{delay frames=\"5\"}} les glaces sont encore plus\nfroides que l'été!{{delay frames=\"20\"}} {{anim id=\"36\"}}Aucun risque que\nça fonde, comme ça...{{fun_0009000C arg=\"\"}}"
  },
  {
    "label": "039",
    "text": "{{fun_0000000C arg=\"\"}}{{fun_0007000C arg=\"\"}}{{fun_0002000C arg=\"\"}}{{anim id=\"1\"}}Vous avez déjà versé du sirop\nd'érable sur de la glace à la vanille?{{delay frames=\"10\"}}\n{{anim id=\"4\"}}Miam miam, {{delay frames=\"10\"}}trop bon en hiver...{{fun_0009000C arg=\"\"}}"
  },
  {
    "label": "040",
    "text": "{{fun_0000000C arg=\"\"}}{{fun_0007000C arg=\"\"}}{{fun_0002000C arg=\"\"}}{{anim id=\"1\"}}L'hiver,{{delay frames=\"10\"}} la raclette,{{delay frames=\"10\"}} la tartiflette...{{delay frames=\"20\"}}\n{{anim id=\"25\"}}Plein de fromage fondu...{{delay frames=\"5\"}} De bonnes\npommes de terre...{{delay frames=\"10\"}} Trop bon.{{fun_0009000C arg=\"\"}}"
  },
  {
    "label": "041",
    "text": "{{fun_0000000C arg=\"\"}}{{fun_0005000C arg=\"\"}}{{fun_0001000C arg=\"\"}}{{fun_0007000C arg=\"\"}}{{anim id=\"27\"}}Tu ramènes vraiment tout à la\nnourriture, toi!{{delay frames=\"10\"}} Le truc de fou!{{fun_0009000C arg=\"\"}}"
  },
  {
    "label": "042",
    "text": "{{fun_0000000C arg=\"\"}}{{fun_0007000C arg=\"\"}}{{fun_0002000C arg=\"\"}}{{anim id=\"40\"}}C'est pas vrai!{{delay frames=\"30\"}} J'aime bien parler\nde mes boissons préférées aussi...{{delay frames=\"20\"}}\n{{anim id=\"4\"}}Qui a dit « {{fun_000E0005 arg=\"0x0000\"}} »?!{{fun_0009000C arg=\"\"}}"
  },
  {
    "label": "043",
    "text": "{{fun_0000000C arg=\"\"}}{{fun_0005000C arg=\"\"}}{{fun_0001000C arg=\"\"}}{{anim id=\"7\"}}Oh non! {{delay frames=\"10\"}}J'ai faim, maintenant!!!{{delay frames=\"30\"}}\nBah bravo{{delay frames=\"8\"}}.{{delay frames=\"8\"}}.{{delay frames=\"8\"}}.{{delay frames=\"10\"}} {{anim id=\"2\"}}Merci beaucoup,\n{{delay frames=\"10\"}}hi hi hi!"
  }
]