﻿[
  {
    "label": "001",
    "text": "{{anim id=\"1\"}}On a de la visite en ville, ch'est cool\ncha!!!{{delay frames=\"20\"}} {{anim id=\"33\"}}Mon charme irrésistible\ndéplache les foules, que veux-tu!"
  },
  {
    "label": "002",
    "text": "{{anim id=\"13\"}}Y'a un bus de touristes qui vient de\ndébarquer, t'as vu?!{{fun_00010007 arg=\"\"}} {{anim id=\"37\"}}OK{{delay frames=\"8\"}}.{{delay frames=\"8\"}}.{{delay frames=\"8\"}}.{{delay frames=\"20\"}} J'exagère\npeut-être un tout petit peu, lol!"
  },
  {
    "label": "003",
    "text": "{{anim id=\"1\"}}{{fun_0003000E arg=\"\"}}{{fun_00050005 arg=\"\"}} a de la visite!{{delay frames=\"20\"}} {{anim id=\"35\"}}T'aurais\npas invité du monde sans me\nprévenir, toi,{{delay frames=\"5\"}} par hasard?"
  },
  {
    "label": "004",
    "text": "{{anim id=\"5\"}}J'ai aperçu une tête que je connais\npas, en ville!{{delay frames=\"20\"}} Faut que j'aille\nfouiner un peu, hi hi hi!"
  },
  {
    "label": "005",
    "text": "{{fun_00030009 arg=\"0x06000700080009000A00\"}}"
  },
  {
    "label": "006",
    "text": "{{anim id=\"39\"}}Les portes de l'office de tourisme\nsont grandes ouvertes{{delay frames=\"8\"}}.{{delay frames=\"8\"}}.{{delay frames=\"8\"}}.{{delay frames=\"20\"}} {{anim id=\"32\"}}C'est chez\nmoi, hi hi hi!"
  },
  {
    "label": "007",
    "text": "{{anim id=\"9\"}}Bon,{{delay frames=\"5\"}} j'espère qu'il y a pas de\npaparazzi en ville{{delay frames=\"8\"}}.{{delay frames=\"8\"}}.{{delay frames=\"8\"}}.{{delay frames=\"20\"}} {{anim id=\"1\"}}Bah, je vais me\nrefaire une beauté, au cas où!!!"
  },
  {
    "label": "008",
    "text": "{{anim id=\"36\"}}J'aurais bien aimé qu'on me\nprévienne qu'on allait avoir de la\nvisite!\n{{anim id=\"13\"}}Je me serais fringuée mieux que ça!"
  },
  {
    "label": "009",
    "text": "Le monde entier rêve de venir\nadmirer un spécimen {{fun_000A000E arg=\"0x0600640065002000040064002700\"}}{{fun_00010005 arg=\"\"}}\ndans son habitat naturel, mdr!"
  },
  {
    "label": "010",
    "text": "{{anim id=\"43\"}}Ce serait cool si des gens venaient\ns'installer à {{fun_00050005 arg=\"\"}}{{delay frames=\"8\"}}.{{delay frames=\"8\"}}.{{delay frames=\"8\"}}.{{delay frames=\"30\"}} {{anim id=\"29\"}}Ça me\nferait plus de fans!!!"
  },
  {
    "label": "011",
    "text": ""
  },
  {
    "label": "012",
    "text": "{{anim id=\"5\"}}On est pareil{{fun_0006000E arg=\"0x000004006C006500\"}}s, toi et moi, on\nadore recevoir du monde!{{pageBreak}}{{anim id=\"27\"}}Mais des fois, les gens s'éternisent{{delay frames=\"8\"}}.{{delay frames=\"8\"}}.{{delay frames=\"8\"}}.{{delay frames=\"20\"}}\nalors qu'on a une manucure {{anim id=\"16\"}}HYPER\nurgente,{{delay frames=\"10\"}} ou un cours de varappe!\n{{anim id=\"33\"}}{{fun_00010005 arg=\"\"}} a trouvé LA solution!{{delay frames=\"10\"}}\nTu appuies sur {{color id=\"2\"}}START{{color id=\"65535\"}}, tu choisis\n{{color id=\"2\"}}Fin de la session {{color id=\"65535\"}}et hop!\n{{anim id=\"32\"}}Au revoir, tout le monde!"
  }
]