﻿[
  {
    "label": "001",
    "text": ""
  },
  {
    "label": "002",
    "text": "{{anim id=\"37\"}}Ça t'est jamais arrivé de voir un\ninsecte hyper rare, mais de pas\narriver à sortir ton filet à temps???\n{{anim id=\"7\"}}Moi, des milliards de fois!!!{{delay frames=\"20\"}} C'est\nrageant, hein?{{delay frames=\"20\"}} {{anim id=\"33\"}}Mais j'ai découvert\nun truc supermégapratique!{{delay frames=\"20\"}}{{pageBreak}}Pour sortir un outil ou changer\nd'outil rapidos, appuie sur  ou .{{pageBreak}}{{anim id=\"38\"}}Et si tu veux ranger un truc, appuie\nsur !{{delay frames=\"20\"}} {{anim id=\"36\"}}Si j'y arrive, tu peux y\narriver, LOL!"
  },
  {
    "label": "003",
    "text": ""
  },
  {
    "label": "004",
    "text": "{{anim id=\"1\"}}Ça t'est déjà arrivé de cueillir {{fun_0002000E arg=\"\"}}\n{{fun_001A0005 arg=\"0x00CD\"}} supermégaparfait{{fun_0008000E arg=\"0x00CD0000020065000000\"}}?\n{{anim id=\"38\"}}Ça arrive genre{{delay frames=\"10\"}}.{{delay frames=\"10\"}}.{{delay frames=\"10\"}}.{{delay frames=\"10\"}} une fois sur cent!\n{{anim id=\"33\"}}Ça m'est arrivé UNE fois!{{fun_00010007 arg=\"\"}} Rien que\nd'y repenser, j'en ai l'eau à la\nbouche{{delay frames=\"10\"}}.{{delay frames=\"10\"}}.{{delay frames=\"10\"}}.{{delay frames=\"10\"}} Trop trop bon{{fun_0008000E arg=\"0x00CD000004006E0065000000\"}}!\n{{anim id=\"13\"}}Je vais carrément me mettre à\nbaver, lol...{{delay frames=\"40\"}} {{anim id=\"21\"}}Bon, il paraît qu'au lieu\nde les manger, il faut les planter{{delay frames=\"10\"}}.{{delay frames=\"10\"}}.{{delay frames=\"10\"}}.\n{{anim id=\"1\"}}Moi, j'ai pas résisté, mais si tu en\ntrouves un{{fun_0008000E arg=\"0x00CD0000020065000000\"}}, sois fort{{fun_0006000E arg=\"0x000002006500\"}}!"
  },
  {
    "label": "005",
    "text": "{{anim id=\"9\"}}Je sens que t'es comme moi{{delay frames=\"10\"}}.{{delay frames=\"10\"}}.{{delay frames=\"10\"}}.{{delay frames=\"10\"}}\n{{anim id=\"13\"}}Quand tu commences à cueillir des\nfruits, tu peux plus t'arrêter!!!\n{{anim id=\"27\"}}Après, vas-y pour porter tout ça!{{delay frames=\"30\"}}\n{{anim id=\"36\"}}Mais j'ai un petit secret :{{delay frames=\"20\"}} {{anim id=\"21\"}}la\ntechnique du {{color id=\"2\"}}lot de fruits{{color id=\"65535\"}}!\n{{anim id=\"1\"}}C'est facile : ça consiste à empiler\nles fruits de la même sorte les uns\nsur les autres!\n{{anim id=\"3\"}}Tu peux en mettre neuf dans un\nmême lot.{{delay frames=\"20\"}} Ça prend moins de\nplace!{{delay frames=\"20\"}} Pas bête, la chouette, hein?!"
  },
  {
    "label": "006",
    "text": "{{anim id=\"27\"}}Bon alors c'est bien connu, j'adore\ncouper du bois{{delay frames=\"10\"}}.{{delay frames=\"10\"}}.{{delay frames=\"10\"}}.{{delay frames=\"10\"}} Dis bonjour à\n{{fun_00010005 arg=\"\"}} la bûcheronne, lol!\n{{anim id=\"5\"}}Bref, l'autre fois, j'étais en train de\ndébiter un arbre, et pas des âneries\npour changer!!! Lol!\nEt je me suis retrouvée avec une\nsouche très très louche! {{anim id=\"15\"}}Il y avait\nun {{color id=\"2\"}}drôle de dessin{{color id=\"65535\"}} dessus...\n{{anim id=\"31\"}}C'était carrément magnifique, trop\ntrop beau! C'est dommage que\nt'aies pas vu ça, {{fun_00080005 arg=\"\"}}!!!\n{{anim id=\"21\"}}La prochaine fois que tu coupes des\narbres, ouvre bien les yeux!{{delay frames=\"20\"}} {{anim id=\"33\"}}Et\ntiens-moi au courant!"
  },
  {
    "label": "007",
    "text": ""
  },
  {
    "label": "008",
    "text": "{{anim id=\"15\"}}Si c'est vrai, c'est{{delay frames=\"10\"}}.{{delay frames=\"10\"}}.{{delay frames=\"10\"}}.{{delay frames=\"10\"}} waouh!{{delay frames=\"10\"}} {{anim id=\"29\"}}Je vais\npouvoir m'acheter toutes les\nfringues que je veux, {{fun_00080005 arg=\"\"}}!!!\n{{anim id=\"0\"}}J'espère que c'est pas du flan{{delay frames=\"10\"}}.{{delay frames=\"10\"}}.{{delay frames=\"10\"}}.{{delay frames=\"10\"}} {{anim id=\"37\"}}Il\nparaît qu'il y a des {{color id=\"2\"}}pierres qui\n{{color id=\"65535\"}}{{color id=\"2\"}}crachent de l'argent{{color id=\"65535\"}}, en ville.\n{{anim id=\"29\"}}Il suffirait de taper dessus avec une\npelle, délire!!!{{pageBreak}}{{anim id=\"38\"}}Si jamais tu touches le jackpot, tu\nsais quoi faire, hein?{{delay frames=\"20\"}} Tu donnes\ntout à {{fun_00010005 arg=\"\"}}!\n{{anim id=\"1\"}}Ou tu appuies sur , tu sélectionnes\nl'argent, {{anim id=\"21\"}}et tu fais glisser toutes les\nclochettes au même endroit!\n{{anim id=\"5\"}}Fastoche, hein?!{{delay frames=\"20\"}} Ça fait de la place\ndans ton inventaire!{{delay frames=\"20\"}} Bon{{delay frames=\"10\"}}.{{delay frames=\"10\"}}.{{delay frames=\"10\"}}.{{delay frames=\"10\"}} y'a plus\nqu'à trouver les pierres magiques!"
  },
  {
    "label": "009",
    "text": "{{anim id=\"38\"}}Tu sais ce qu'on dit sur l'argent qui\npousse pas sur les arbres, et\npatati et patata?\nC'est une légende urbaine, LOL!\nJe viens de secouer un arbre, et des\n{{color id=\"2\"}}clochettes en sont tombées{{color id=\"65535\"}}!!!\n{{anim id=\"31\"}}Waouh, le rêve, hi hi hi!{{delay frames=\"30\"}} {{anim id=\"33\"}}Soit on m'a\njoué un tour...{{delay frames=\"20\"}} soit il se passe des\nchoses bizarres, lol!\n{{anim id=\"2\"}}Dans les deux cas, ça me va très\nbien!{{fun_00010007 arg=\"\"}} {{anim id=\"21\"}}Essaie, on sait jamais...{{delay frames=\"10\"}} Au\npire, tu risques une piqûre!"
  },
  {
    "label": "010",
    "text": ""
  },
  {
    "label": "011",
    "text": ""
  },
  {
    "label": "012",
    "text": ""
  },
  {
    "label": "013",
    "text": ""
  },
  {
    "label": "014",
    "text": "{{anim id=\"38\"}}J'aimerais avoir plus de chance en\namitié... Un {{color id=\"2\"}}porte-bonheur {{color id=\"65535\"}}pour ça,\nça doit bien exister, non?\n{{anim id=\"36\"}}J'y crois pas trop, mais bon, on sait\njamais, lol!{{pageBreak}}{{anim id=\"11\"}}Un jour, faudra que j'aille voir une\ndiseuse de bonne aventure, pour\nqu'elle me dise ce qu'elle en pense..."
  },
  {
    "label": "015",
    "text": ""
  },
  {
    "label": "016",
    "text": ""
  },
  {
    "label": "017",
    "text": ""
  },
  {
    "label": "018",
    "text": ""
  },
  {
    "label": "019",
    "text": ""
  },
  {
    "label": "020",
    "text": ""
  },
  {
    "label": "021",
    "text": "{{anim id=\"1\"}}Hé, {{fun_00080005 arg=\"\"}}! Tu savais que les\n{{color id=\"2\"}}pépites {{color id=\"65535\"}}qu'il y a dans les pierres\npouvaient servir à quelque chose?\n{{anim id=\"21\"}}Je devrais peut-être arrêter de\nm'en faire des colliers...{{pageBreak}}Si tu les amènes chez {{color id=\"2\"}}Revente &\nRetouches {{color id=\"65535\"}}avec de vieux meubles,\n{{color id=\"4\"}}Serge {{color id=\"65535\"}}te {{color id=\"2\"}}rénove {{color id=\"65535\"}}tout ça!\n{{anim id=\"5\"}}Il fait des miracles! Si tu voyais le\nmeuble de star qu'il m'a fait!\nVas-y, essaie, toi aussi!!!"
  },
  {
    "label": "022",
    "text": ""
  },
  {
    "label": "023",
    "text": ""
  },
  {
    "label": "024",
    "text": "{{anim id=\"27\"}}Je me suis encore payé la honte,\n{{fun_00080005 arg=\"\"}}! La BIG honte!!!{{pageBreak}}{{anim id=\"37\"}}J'ai vu un petit champignon bien\nappétissant dans un magasin...{{delay frames=\"20\"}} Et\nj'ai voulu goûter avant d'acheter!\n{{anim id=\"36\"}}Mais{{delay frames=\"10\"}} c'était pas un champignon!!!{{delay frames=\"20\"}}\nJuste un {{color id=\"2\"}}meuble en forme de\nchampignon{{color id=\"65535\"}}{{delay frames=\"10\"}}.{{delay frames=\"10\"}}.{{delay frames=\"10\"}}.\nAvec la trace de mes dents dessus,\nmaintenant...{{delay frames=\"10\"}} Collector, mdr!"
  },
  {
    "label": "025",
    "text": ""
  },
  {
    "label": "026",
    "text": ""
  },
  {
    "label": "027",
    "text": "{{anim id=\"37\"}}Il y a plein de rumeurs sur {{color id=\"2\"}}la\nboutique de recyclage{{color id=\"65535\"}},{{delay frames=\"20\"}} {{anim id=\"23\"}}t'es au\ncourant, {{fun_00070005 arg=\"\"}}?\nBon, tu sais que des fois ils paient\ndouble pour certains articles?{{pageBreak}}{{anim id=\"1\"}}Si tu croises plein de gens dans la\nmême journée,{{delay frames=\"20\"}} {{anim id=\"29\"}}le nombre d'articles\nqui rapportent double augmente!\n{{anim id=\"37\"}}Il faut activer StreetPass pour ça,\nil paraît...{{pageBreak}}{{anim id=\"5\"}}Délire, hein?! Plus tu rencontres de\nmonde, plus tu peux t'enrichir, mdr!{{delay frames=\"10\"}}\nT'y gagnes sur toute la ligne!"
  },
  {
    "label": "028",
    "text": ""
  },
  {
    "label": "029",
    "text": ""
  },
  {
    "label": "030",
    "text": ""
  }
]