﻿[
  {
    "label": "001",
    "text": "{{anim id=\"9\"}}C'est pas cool du tout, ça,{{delay frames=\"10\"}}\n{{fun_00070005 arg=\"\"}}{{delay frames=\"5\"}}.{{delay frames=\"5\"}}.{{delay frames=\"5\"}}."
  },
  {
    "label": "002",
    "text": "{{anim id=\"20\"}}Si c'est une b-blague, c'est très\nm-moyen, {{fun_00070005 arg=\"\"}}."
  },
  {
    "label": "003",
    "text": "{{anim id=\"19\"}}Houlà, grosse déception{{delay frames=\"5\"}}.{{delay frames=\"5\"}}.{{delay frames=\"5\"}}. Je croyais\nque t'avais quelque chose pour moi."
  },
  {
    "label": "004",
    "text": "{{anim id=\"20\"}}J'y crois bas{{delay frames=\"5\"}}.{{delay frames=\"5\"}}.{{delay frames=\"5\"}}. Tu b'as rien rabené?"
  },
  {
    "label": "005",
    "text": "{{anim id=\"9\"}}Et boi qui bensais que tu\nm'abbortais...{{delay frames=\"20\"}} Bah, laisse tomber."
  },
  {
    "label": "006",
    "text": "{{anim id=\"20\"}}Han là l-là, {{fun_0006000E arg=\"0x24006C006500200062006500740069007400200066002D00660061007200630065007500720028006C0061002000620065007400690074006500200066002D0066006100720063006500750073006500\"}}, j'y\nc-crois bas..."
  },
  {
    "label": "007",
    "text": "{{anim id=\"20\"}}R-Rien de rien?"
  },
  {
    "label": "008",
    "text": "{{anim id=\"20\"}}Hé, tu voulais bas be donner un\ntruc?{{delay frames=\"20\"}} Allez, steublaît{{delay frames=\"5\"}}.{{delay frames=\"5\"}}.{{delay frames=\"5\"}}. "
  },
  {
    "label": "009",
    "text": "{{anim id=\"20\"}}Je rêve ou t'as r-rien à be donner?{{delay frames=\"20\"}}\nB-bouh..."
  }
]