﻿[
  {
    "label": "001",
    "text": "{{anim id=\"23\"}}T'as pas l'impression d'être dans un\nmagazine de déco, sérieux?{{delay frames=\"20\"}} {{anim id=\"37\"}}Si\nquelque chose te plaît, dis-moi!{{fun_0005000F arg=\"0x15002800\"}}\nOui, justement!\nNon, non."
  },
  {
    "label": "002",
    "text": "{{anim id=\"36\"}}Toi, tu as flashé sur un de mes\nmeubles, {{delay frames=\"10\"}}j'en mettrai ma main à\ncouper, hi hi hi!{{fun_0005000F arg=\"0x15002800\"}}\nOui!\nNon..."
  },
  {
    "label": "003",
    "text": "{{anim id=\"33\"}}Je suis trop fière de ma déco! Si tu\npouvais avoir un de mes meubles{{delay frames=\"5\"}}.{{delay frames=\"5\"}}.{{delay frames=\"5\"}}.\ntu voudrais lequel?{{fun_0005000F arg=\"0x15002800\"}}\nJe sais!\nAucun."
  },
  {
    "label": "004",
    "text": "{{anim id=\"2\"}}C'est bien vrai, ce mensonge?!\nHi hi hi! {{anim id=\"13\"}}Oh et puis,{{delay frames=\"10\"}} chacun ses\ngoûts, {{fun_00070005 arg=\"\"}}!"
  },
  {
    "label": "005",
    "text": "{{anim id=\"9\"}}Sérieux? {{delay frames=\"10\"}}Tu les aimes pas mes\nmeubles?{{delay frames=\"10\"}} Ah{{delay frames=\"5\"}}.{{delay frames=\"5\"}}.{{delay frames=\"5\"}}.{{delay frames=\"10\"}}"
  },
  {
    "label": "006",
    "text": "{{anim id=\"13\"}}En gros,{{delay frames=\"10\"}} t'aimes pas ma déco, c'est\nça? Hein?{{delay frames=\"20\"}} T'étais peut-être pas\nobligé{{fun_0006000E arg=\"0x000002006500\"}} de me le dire, {{fun_00080005 arg=\"\"}}!"
  },
  {
    "label": "007",
    "text": "{{anim id=\"5\"}}Ch'est vrai, cha? {{delay frames=\"10\"}}Hi hi hi! {{delay frames=\"10\"}}\nPeut-être bien que c'est ton jour\nde chance, {{fun_00070005 arg=\"\"}}.{{delay frames=\"5\"}}.{{delay frames=\"5\"}}.{{delay frames=\"5\"}}"
  },
  {
    "label": "008",
    "text": "{{anim id=\"2\"}}Je le savais! Je le savais, hi hi!{{delay frames=\"30\"}} {{anim id=\"37\"}}Qui\nsait,{{delay frames=\"10\"}} tu vas peut-être pas repartir\nles mains vides, {{fun_00080005 arg=\"\"}}!"
  },
  {
    "label": "009",
    "text": "{{anim id=\"3\"}}Je savais qu'un de mes meubles\nt'avait tapé dans l'œil! {{delay frames=\"10\"}}Tu as\ndu goût, toi!{{delay frames=\"10\"}} On peut s'arranger{{delay frames=\"10\"}}.{{delay frames=\"10\"}}.{{delay frames=\"10\"}}.?"
  },
  {
    "label": "010",
    "text": "{{anim id=\"1\"}}Dis-moi ce qui te plaît, on sait\njamais!{{delay frames=\"10\"}} Mais je garantis rien, OK?!"
  },
  {
    "label": "011",
    "text": "{{anim id=\"1\"}}Alors, qu'est-ce qui te plaît,\n{{fun_00080005 arg=\"\"}}? Dis tout à {{fun_00010005 arg=\"\"}},\nsois pas timide, hi hi!"
  },
  {
    "label": "012",
    "text": "{{anim id=\"1\"}}Montre-moi UNE chose qui te\nplaît, ça coûte rien...{{delay frames=\"10\"}} Je te promets\nd'y réfléchir, hi hi!"
  }
]