﻿[
  {
    "label": "001",
    "text": "{{anim id=\"36\"}}Sérieux?{{delay frames=\"10\"}} Tu veux pas passer à la\nmaison, {{fun_00080005 arg=\"\"}}? {{delay frames=\"10\"}}Bah, une autre\nfois alors, tant pis!"
  },
  {
    "label": "002",
    "text": "{{anim id=\"9\"}}Tu veux pas passer, {{fun_00080005 arg=\"\"}}?{{delay frames=\"10\"}}\nTant pis, la prochaine fois alors!{{anim id=\"0\"}}\nSinon je me vexe, hi hi..."
  },
  {
    "label": "003",
    "text": "{{anim id=\"9\"}}Oh non, c'est trop trop dommage...{{delay frames=\"20\"}}\nBah, c'est que partie remise,\n{{fun_00070005 arg=\"\"}}!"
  }
]