﻿[
  {
    "label": "001",
    "text": "{{anim id=\"16\"}}Ayé!{{delay frames=\"30\"}} Je me suis enfin décidée à\nsauter le pas! {{delay frames=\"50\"}}{{anim id=\"33\"}}Je déménage!{{pageBreak}}{{anim id=\"11\"}}J'ai cogité, cogité{{delay frames=\"8\"}}.{{delay frames=\"8\"}}.{{delay frames=\"8\"}}.{{anim id=\"13\"}} je pouvais plus\nm'arrêter de cogiter! {{delay frames=\"30\"}}{{anim id=\"37\"}}Alors j'ai tiré\nça à pile ou face!\n{{anim id=\"44\"}}Tu vas me manquer, {{delay frames=\"10\"}}{{fun_00080005 arg=\"\"}}!{{delay frames=\"5\"}} Je\npenserai à toi TOUT le temps!"
  },
  {
    "label": "002",
    "text": "{{anim id=\"39\"}}Tu voulais savoir ce que j'ai décidé,\nau final?{{delay frames=\"10\"}} {{anim id=\"29\"}}Tu as peur que je\ndéménage?!\n{{anim id=\"43\"}}Ben en fait, oui{{delay frames=\"8\"}}.{{delay frames=\"8\"}}.{{delay frames=\"8\"}}. {{anim id=\"44\"}}je déménage!{{delay frames=\"20\"}} Je\nréalise pas encore, le truc de\nmalade!"
  },
  {
    "label": "003",
    "text": "{{anim id=\"2\"}}Regardez un peu qui voilà!{{delay frames=\"30\"}} Je\npensais justement à toi!{{delay frames=\"15\"}} {{anim id=\"38\"}}Je voulais\nte remercier{{delay frames=\"8\"}}.{{delay frames=\"8\"}}.{{delay frames=\"8\"}}. pour tout{{delay frames=\"8\"}}.{{delay frames=\"8\"}}.{{delay frames=\"8\"}}.\n{{anim id=\"11\"}}Ça m'a fait cogiter, ce que tu m'as\ndit{{delay frames=\"8\"}}.{{delay frames=\"8\"}}.{{delay frames=\"8\"}}. {{anim id=\"37\"}}j'en ai carrément raté ma série\npréférée, hi hi hi!\nAu final...{{delay frames=\"20\"}} {{anim id=\"3\"}}j'ai décidé de déménager!\n{{delay frames=\"15\"}}J'ai trop hâte de m'installer dans\nma nouvelle vie!!!"
  },
  {
    "label": "004",
    "text": "{{anim id=\"16\"}}Tu m'excuseras pour le bazar, hein!{{delay frames=\"30\"}}\nCette fois, j'ai une bonne excuse{{delay frames=\"8\"}}.{{delay frames=\"8\"}}.{{delay frames=\"8\"}}.\n{{anim id=\"29\"}}je déménage!\n{{anim id=\"39\"}}Je savais pas trop comment te Ie\ndire{{delay frames=\"8\"}}.{{delay frames=\"8\"}}.{{delay frames=\"8\"}}. {{anim id=\"35\"}}alors je te l'ai pas dit, lol!{{pageBreak}}{{anim id=\"24\"}}Je voulais pas te briser ton petit\ncœur{{delay frames=\"8\"}}.{{delay frames=\"8\"}}.{{delay frames=\"8\"}}. {{delay frames=\"20\"}}{{anim id=\"38\"}}Merci pour tout,\n{{fun_00080005 arg=\"\"}}!\nReste comme tu es, change rien!\nC'est comme ça que je t'adore!{{delay frames=\"20\"}} {{anim id=\"32\"}}On\nreste en contact!"
  },
  {
    "label": "005",
    "text": "{{anim id=\"29\"}}Hi hi hi, {{delay frames=\"15\"}}de la visite!{{delay frames=\"15\"}}\nRavie de te rencontrer, je m'appelle\n{{fun_00010005 arg=\"\"}}, {{delay frames=\"10\"}}{{fun_00070005 arg=\"\"}}!\n{{anim id=\"37\"}}T'attache pas trop à moi, par\ncontre{{delay frames=\"8\"}}.{{delay frames=\"8\"}}.{{delay frames=\"8\"}}. {{anim id=\"33\"}}je suis en train de\ndéménager!{{delay frames=\"5\"}}{{anim id=\"32\"}} Désolée, hi hi!"
  },
  {
    "label": "006",
    "text": "{{anim id=\"32\"}}Hé,{{delay frames=\"10\"}} {{delay frames=\"20\"}}{{fun_00000005 arg=\"\"}}!{{delay frames=\"30\"}}\n{{anim id=\"27\"}}Oups, t'es pas au courant{{delay frames=\"8\"}}.{{delay frames=\"8\"}}.{{delay frames=\"8\"}}.{{delay frames=\"10\"}} Assieds-\ntoi, j'ai une sacrée nouvelle.\n{{anim id=\"37\"}}Je déménage! {{delay frames=\"15\"}}En fait, c'est mon\ndernier jour à {{delay frames=\"15\"}}{{fun_00050005 arg=\"\"}}{{delay frames=\"8\"}}.{{delay frames=\"8\"}}.{{delay frames=\"8\"}}.{{pageBreak}}Tu continueras de venir à\n{{fun_00050005 arg=\"\"}}, OK?!"
  },
  {
    "label": "007",
    "text": "{{anim id=\"23\"}}Euh{{delay frames=\"8\"}}.{{delay frames=\"8\"}}.{{delay frames=\"8\"}}.{{delay frames=\"8\"}} on se connaît?{{fun_00010007 arg=\"\"}} {{anim id=\"32\"}}Enchantée!{{delay frames=\"30\"}}\nT'as bien fait de venir aujourd'hui!{{pageBreak}}Tu m'aurais ratée sinon, je\ndéménage.{{delay frames=\"10\"}} {{anim id=\"27\"}}C'est pour ça que tout le\nmonde est triste en ville{{delay frames=\"8\"}}.{{delay frames=\"8\"}}.{{delay frames=\"8\"}}.\n{{anim id=\"3\"}}Tu t'occuperas {{fun_000A000E arg=\"0x0600640065002000040064002700\"}}{{fun_00050005 arg=\"\"}} pour\nmoi?!"
  },
  {
    "label": "008",
    "text": "{{anim id=\"15\"}}{{fun_0003000E arg=\"\"}}{{fun_00000005 arg=\"\"}}?!{{fun_00010007 arg=\"\"}}\n{{anim id=\"38\"}}Fais gaffe ou je t'embauche pour\nterminer les cartons,{{delay frames=\"10\"}} {{fun_00070005 arg=\"\"}}!\nJe suis en plein déménagement, là!{{delay frames=\"20\"}}\n{{anim id=\"27\"}}C'est pas cool pour {{fun_00050005 arg=\"\"}},{{delay frames=\"10\"}} je\nsais...\n{{anim id=\"44\"}}J'ai la bougeotte, tu me connais!\n{{anim id=\"39\"}}Je sais pas OÙ je vais{{delay frames=\"8\"}}.{{delay frames=\"8\"}}.{{delay frames=\"8\"}}. mais j'y\nvais!{{delay frames=\"10\"}}{{anim id=\"9\"}} Tu connais une ville sympa?{{endTag}}\nOui, la mienne!\nÀ part ici, non..."
  },
  {
    "label": "009",
    "text": "{{anim id=\"27\"}}Tu m'aides pas vraiment, là{{delay frames=\"8\"}}.{{delay frames=\"8\"}}.{{delay frames=\"8\"}}.{{delay frames=\"10\"}} lol!\n{{delay frames=\"15\"}}{{anim id=\"37\"}}Bah, on trouvera bien un endroit où\nse poser, les cartons et moi!\n{{anim id=\"9\"}}{{fun_0003000E arg=\"\"}}{{fun_00050005 arg=\"\"}} va grave me manquer!\n{{delay frames=\"30\"}}{{anim id=\"38\"}}Mais j'ai besoin de voir du pays,\nje veux pas prendre racine, hi hi!"
  },
  {
    "label": "010",
    "text": "{{anim id=\"23\"}}Quoi?{{delay frames=\"10\"}} T'es sérieu{{fun_0006000E arg=\"0x02007800040073006500\"}}? {{fun_00010007 arg=\"\"}}{{anim id=\"4\"}}Tu aimerais\nque je vienne m'installer dans ta\nville?{{delay frames=\"20\"}} J'y crois pas...\n{{anim id=\"29\"}}C'est une super idée!{{delay frames=\"10\"}} Comme ça, je\nconnaîtrai quelqu'un!{{pageBreak}}Par contre,{{delay frames=\"30\"}} {{anim id=\"9\"}}qu'est-ce que les gens\nportent chez toi?{{delay frames=\"20\"}} {{anim id=\"44\"}}Je veux être la\nplus stylée, attention!\n{{anim id=\"39\"}}Tu pourrais me rendre un petit\nservice, {{delay frames=\"20\"}}{{fun_00000005 arg=\"\"}}?{{delay frames=\"10\"}} {{anim id=\"33\"}}Dis à tout\n{{fun_00060005 arg=\"\"}} {{fun_000A000E arg=\"0x080071007500650020000600710075002700\"}}{{fun_00010005 arg=\"\"}} arrive!"
  },
  {
    "label": "011",
    "text": "{{anim id=\"15\"}}J'y{{delay frames=\"30\"}} crois{{delay frames=\"30\"}} pas. {{delay frames=\"30\"}}Tu aimerais qu'on\nredevienne voisin{{fun_0006000E arg=\"0x000002006500\"}}s?{{pageBreak}}{{anim id=\"29\"}}Je dois pas être aussi insupportable\nqu'on le dit alors,{{delay frames=\"10\"}} lol!{{delay frames=\"20\"}} {{anim id=\"39\"}}Han là là,\nfaut que je réfléchisse{{delay frames=\"8\"}}.{{delay frames=\"8\"}}.{{delay frames=\"8\"}}. {{anim id=\"38\"}}OK!\nJe m'installe chez toi!{{delay frames=\"10\"}} Merci,{{delay frames=\"15\"}}\n{{fun_00000005 arg=\"\"}}!{{delay frames=\"20\"}} {{anim id=\"21\"}}On se revoit après le\ndéménagement alors!"
  },
  {
    "label": "012",
    "text": "{{anim id=\"15\"}}Waouh,{{delay frames=\"10\"}} c'est du rapide!{{fun_00010007 arg=\"\"}} {{anim id=\"9\"}}Attends{{delay frames=\"8\"}}.{{delay frames=\"8\"}}.{{delay frames=\"8\"}}.\nt'es pas {{fun_0006000E arg=\"0x040075006E00060075006E006500\"}} déménageu{{fun_0006000E arg=\"0x02007200040073006500\"}}?{{delay frames=\"15\"}}\n{{anim id=\"27\"}}Quelle cruche, désolée!\n{{anim id=\"37\"}}Je suis en mode déménagement, là...{{delay frames=\"20\"}}\nJe vois des déménageurs partout!\n{{anim id=\"43\"}}T'es{{delay frames=\"10\"}} {{fun_0006000E arg=\"0x12006C006500200063006F007000610069006E0012006C006100200063006F00700069006E006500\"}}{{delay frames=\"5\"}} {{fun_000A000E arg=\"0x0600640065002000040064002700\"}}{{fun_00000011 arg=\"0x0000\"}}, non?\n{{anim id=\"38\"}}Ça va, je me rattrape bien,\nhi hi! {{anim id=\"39\"}}Dis, tu connais un coin sympa\noù je pourrais emménager?{{endTag}}\nMa ville!\nJe vais y réfléchir!"
  },
  {
    "label": "013",
    "text": "{{anim id=\"21\"}}Super, merci!!!"
  },
  {
    "label": "014",
    "text": "{{anim id=\"23\"}}Ah ouais? {{delay frames=\"10\"}}{{anim id=\"44\"}}C'est une idée, ça!{{delay frames=\"15\"}} Elle\ns'appelle comment ta ville,\n{{fun_00000005 arg=\"\"}}?!\n{{anim id=\"43\"}}« Kikou, j'habite à {{fun_00060005 arg=\"\"}}! »{{delay frames=\"20\"}}\nC'est la classe{{delay frames=\"8\"}}.{{delay frames=\"8\"}}.{{delay frames=\"8\"}}. {{delay frames=\"20\"}}{{anim id=\"3\"}}Comment ça va,\n{{fun_0006000E arg=\"0x180066007500740075007200200076006F006900730069006E001C00660075007400750072006500200076006F006900730069006E006500\"}}s?!\n{{anim id=\"29\"}}{{fun_00010005 arg=\"\"}} va emménager à\n{{fun_00060005 arg=\"\"}}, le méga délire!!!"
  },
  {
    "label": "015",
    "text": "{{anim id=\"9\"}}Quand je vois tous ces cartons{{delay frames=\"8\"}}.{{delay frames=\"8\"}}.{{delay frames=\"8\"}}.{{delay frames=\"8\"}}{{delay frames=\"20\"}}\nj'ai plus du tout envie de\ndéménager, lol!"
  },
  {
    "label": "016",
    "text": "{{anim id=\"35\"}}La moitié des cartons, c'est des\nfringues{{delay frames=\"8\"}}.{{delay frames=\"8\"}}.{{delay frames=\"8\"}}.{{fun_00010007 arg=\"\"}}{{anim id=\"44\"}} L'autre moitié, des\nlettres de fan, hi hi!"
  },
  {
    "label": "017",
    "text": "{{anim id=\"11\"}}Hmm{{delay frames=\"8\"}}.{{delay frames=\"8\"}}.{{delay frames=\"8\"}}.{{delay frames=\"8\"}} maintenant,{{delay frames=\"10\"}} bonjour pour\nretrouver {{delay frames=\"10\"}}{{fun_0001000E arg=\"\"}}{{fun_000F0005 arg=\"0x0000\"}}!{{pageBreak}}{{anim id=\"13\"}}Mais qu'est-ce qui m'a pris de\nl'emballer?!"
  },
  {
    "label": "018",
    "text": "{{anim id=\"13\"}}J'arrive pas à imaginer {{fun_00050005 arg=\"\"}}\nsans moi{{delay frames=\"8\"}}.{{delay frames=\"8\"}}.{{delay frames=\"8\"}}.{{delay frames=\"30\"}} Tu viendras me raconter\ncomment c'est!"
  },
  {
    "label": "019",
    "text": "{{anim id=\"37\"}}Je vais m'installer à {{fun_00020011 arg=\"0x0000\"}}!{{delay frames=\"10\"}} {{anim id=\"29\"}}Si\ntu t'ennuies, passe me faire un petit\ncoucou, {{delay frames=\"10\"}}{{fun_00070005 arg=\"\"}}!"
  },
  {
    "label": "020",
    "text": "{{anim id=\"16\"}}Hé, je t'ai pas dit où je vais?!{{delay frames=\"10\"}}{{fun_00010007 arg=\"\"}} Je\nvais m'installer à {{fun_00020011 arg=\"0x0000\"}}!{{delay frames=\"30\"}} {{anim id=\"31\"}}T'as\nintérêt à venir me voir, lol!"
  },
  {
    "label": "021",
    "text": "{{anim id=\"16\"}}Tu sais quoi?!{{fun_00010007 arg=\"\"}} La prochaine fois\nqu'on se verra,{{delay frames=\"10\"}}{{anim id=\"29\"}} on sera voisin{{fun_0006000E arg=\"0x000002006500\"}}s!\nJe vais me plaire à {{delay frames=\"10\"}}{{fun_00060005 arg=\"\"}}, moi!"
  },
  {
    "label": "022",
    "text": "{{anim id=\"3\"}}J'en reviens pas!{{delay frames=\"10\"}} On va être\nvoisin{{fun_0006000E arg=\"0x000002006500\"}}s, {{delay frames=\"15\"}}{{fun_00000005 arg=\"\"}}!{{delay frames=\"20\"}} Comme\navant, {{delay frames=\"20\"}}{{fun_00070005 arg=\"\"}}!"
  },
  {
    "label": "023",
    "text": "{{anim id=\"37\"}}Elle va grave me manquer, cette\nville{{delay frames=\"8\"}}.{{delay frames=\"8\"}}.{{delay frames=\"8\"}}.{{delay frames=\"30\"}} {{anim id=\"44\"}}mais j'ai la bougeotte, je suis\ncomme ça!\n{{anim id=\"29\"}}Et puis surtout, je veux me faire\nconnaître!{{delay frames=\"10\"}} {{anim id=\"23\"}}Dis, tu connais une ville\nstylée, {{delay frames=\"10\"}}{{fun_00000005 arg=\"\"}}?{{endTag}}\nOui... ma ville?\nNon, je vois pas..."
  },
  {
    "label": "024",
    "text": "{{anim id=\"1\"}}T'inquiète, je trouverai!{{delay frames=\"30\"}} {{anim id=\"44\"}}Au pire, je\nsillonnerai le monde avec mes\ncartons!"
  },
  {
    "label": "025",
    "text": "C'est{{delay frames=\"5\"}} carrément {{delay frames=\"5\"}}{{anim id=\"29\"}}la {{delay frames=\"5\"}}MEILLEURE\nidée que j'aie jamais entendue,\n{{fun_00080005 arg=\"\"}}!\n{{anim id=\"33\"}}Tu vas voir, les voisines comme moi,\nça court pas les rues! Tu vas pas\nregretter, {{delay frames=\"10\"}}{{fun_00070005 arg=\"\"}}!"
  },
  {
    "label": "026",
    "text": "C'est{{delay frames=\"5\"}} carrément {{delay frames=\"5\"}}{{anim id=\"29\"}}la {{delay frames=\"5\"}}MEILLEURE\nidée que j'aie jamais entendue,\n{{fun_00080005 arg=\"\"}}!\n{{anim id=\"5\"}}On fera la fête tous les soirs!{{delay frames=\"5\"}}\nEt on mangera des tonnes\n{{fun_000A000E arg=\"0x0600640065002000040064002700\"}}{{fun_00100005 arg=\"0x0000\"}}!!!"
  },
  {
    "label": "027",
    "text": "{{anim id=\"16\"}}Ah, {{delay frames=\"4\"}}{{fun_00080005 arg=\"\"}}!{{delay frames=\"20\"}}\n{{anim id=\"1\"}}Tu tombes méga bien, {{delay frames=\"8\"}}faut\nabsolument que j'te dise un truc!\n{{anim id=\"0\"}}Un producteur très très connu...{{delay frames=\"8\"}}{{anim id=\"23\"}}\nattends,{{delay frames=\"4\"}} comment il s'appelait,{{delay frames=\"4\"}}\ndéja...{{delay frames=\"8\"}} Mollet?{{delay frames=\"4\"}} Non{{delay frames=\"8\"}}.{{delay frames=\"8\"}}.{{delay frames=\"8\"}}.{{delay frames=\"8\"}} {{anim id=\"22\"}}Ah!{{delay frames=\"12\"}} {{color id=\"4\"}}Follet{{color id=\"65535\"}}!\nDonc ce type est venu me chercher\nen personne, ici!{{anim id=\"0\"}}{{delay frames=\"8\"}}{{anim id=\"37\"}} Il veut lancer ma\ncarrière{{delay frames=\"8\"}}.{{delay frames=\"8\"}}.{{delay frames=\"8\"}}.{{delay frames=\"8\"}} mais pas à {{fun_00050005 arg=\"\"}}.\n{{anim id=\"21\"}}C'est triste, mais il a raison.{{delay frames=\"20\"}}\n{{anim id=\"0\"}}Je dois voir les choses en grand...{{delay frames=\"8\"}}\n{{anim id=\"33\"}}et aller là où le showbiz m'appelle!\n{{anim id=\"0\"}}Tu vas me manquer,{{delay frames=\"16\"}} {{anim id=\"1\"}}{{fun_00080005 arg=\"\"}},{{delay frames=\"4\"}}\nmais j'espère que tu comprends que\nje suis destinée à m'exporter!"
  },
  {
    "label": "028",
    "text": "{{anim id=\"16\"}}Kikou, {{delay frames=\"4\"}}{{fun_00080005 arg=\"\"}}!{{delay frames=\"20\"}} {{anim id=\"1\"}}On peut dire que\ntu tombes bien,{{delay frames=\"8\"}} j'ai un méga scoop\nà t'annoncer en exclu!{{pageBreak}}J'ai pris une décision : {{delay frames=\"8\"}}celle de m'en\naller.{{anim id=\"9\"}} Tu ne vas pas pleurer,{{delay frames=\"8\"}}\nj'espère?\n{{anim id=\"39\"}}J'ai des fans ici,{{delay frames=\"8\"}} mais j'en ai aussi\nailleurs,{{delay frames=\"8\"}} et c'est leur tour d'avoir le\nprivilège de ma présence.\n{{anim id=\"1\"}}Et puis dans le showbiz,{{delay frames=\"8\"}} c'est pas\nbon de stagner.{{delay frames=\"8\"}} Faut rester dans le\nmove,{{delay frames=\"8\"}} tu comprends?\nC'est la vie...{{delay frames=\"16\"}} Quand on est une star,\ny'a des sacrifices à faire.{{delay frames=\"16\"}}{{anim id=\"37\"}} Et on n'a\njamais trop de fans!"
  }
]