﻿[
  {
    "label": "001",
    "text": "{{anim id=\"38\"}}Mais c'est {{delay frames=\"20\"}}{{fun_00080005 arg=\"\"}}!{{delay frames=\"30\"}}\nTu te souviens de moi? {{delay frames=\"15\"}}{{anim id=\"44\"}}{{fun_00010005 arg=\"\"}},{{delay frames=\"10\"}}\nla seule et unique!\n{{anim id=\"1\"}}Je viens tout juste de m'installer à\n{{delay frames=\"10\"}}{{fun_00050005 arg=\"\"}}, {{anim id=\"27\"}}alors c'est un peu le\nbazar...\nEncore plus le bazar que d'habitude,\nje veux dire!{{delay frames=\"15\"}} Hi hi! Si tu passais\ndemain, qu'on papote tranquilles?"
  },
  {
    "label": "002",
    "text": "{{anim id=\"16\"}}DÉJÀ? {{anim id=\"13\"}}J'ai passé l'annonce pour\ntrouver {{fun_0006000E arg=\"0x040075006E00060075006E006500\"}} coloc, y'a genre{{delay frames=\"8\"}}.{{delay frames=\"8\"}}.{{delay frames=\"8\"}}. cinq\nminutes maxi!!!\n{{anim id=\"2\"}}Ah OK, tu fais que passer! Je me\ndisais aussi...{{delay frames=\"15\"}} Tu me reconnais au\nmoins?{{delay frames=\"15\"}} {{fun_00010005 arg=\"\"}}!\n{{anim id=\"37\"}}Puisque t'es là,{{delay frames=\"10\"}} tu vas m'aider à\ndéballer deux-trois cartons, hein?{{delay frames=\"15\"}}\n{{anim id=\"4\"}}Oh, c'est trop gentil de proposer!!!\n{{anim id=\"21\"}}Non, je veux pas abuser, ça se fait\npas.{{delay frames=\"15\"}} {{anim id=\"43\"}}J'en ai plus pour longtemps{{delay frames=\"8\"}}.{{delay frames=\"8\"}}.{{delay frames=\"8\"}}.\n{{anim id=\"37\"}}Tu repasses plus tard?{{delay frames=\"20\"}} Allez!!!"
  },
  {
    "label": "003",
    "text": "{{anim id=\"23\"}}Vous avez demandé du méga\nbazar? {{delay frames=\"10\"}}{{anim id=\"32\"}}Bienvenue chez {{fun_00010005 arg=\"\"}}!\n{{fun_00010007 arg=\"\"}}Attention, réalisé sans trucages!\n{{anim id=\"16\"}}Hé!{{delay frames=\"10\"}} Mais c'est {{delay frames=\"15\"}}{{fun_00080005 arg=\"\"}}! {{delay frames=\"20\"}}Pour un\npeu, je te reconnaissais pas! Y'a un\ntruc qui a changé... {{delay frames=\"10\"}}Les cheveux?\n{{anim id=\"5\"}}Je suis trop contente de te revoir!{{delay frames=\"10\"}}\n{{anim id=\"37\"}}Je viens d'emménager ici,{{delay frames=\"15\"}} avec tous\nmes cartons...\n{{anim id=\"39\"}}Tu passeras me voir souvent,\nj'espère{{delay frames=\"8\"}}.{{delay frames=\"8\"}}.{{delay frames=\"8\"}}. Hein?{{delay frames=\"10\"}} Dis?"
  },
  {
    "label": "004",
    "text": "{{anim id=\"29\"}}Je te reconnais, toi!{{delay frames=\"15\"}} Si tu voulais\nrester incognito, c'est râpé,\n{{delay frames=\"10\"}}{{fun_00080005 arg=\"\"}}!{{delay frames=\"10\"}} {{anim id=\"2\"}}T'es trop fort{{fun_0006000E arg=\"0x000002006500\"}}, hi hi!\nJe suis hyper méga contente qu'on\nsoit voisin{{fun_0006000E arg=\"0x000002006500\"}}s!!!{{delay frames=\"10\"}} {{anim id=\"9\"}}Quoi,{{delay frames=\"10\"}} tu\nreconnais pas ta petite {{fun_00010005 arg=\"\"}}?\n{{color id=\"5\"}}(J'y crois pas, la méga honte...){{color id=\"65535\"}}{{delay frames=\"20\"}} {{anim id=\"37\"}}\nJe viens d'emménager ici, on pourra\npapoter des heures comme avant!!!"
  },
  {
    "label": "005",
    "text": "{{anim id=\"16\"}}J'y crois pas!{{delay frames=\"10\"}} C'est {{delay frames=\"10\"}}{{fun_00080005 arg=\"\"}}!{{delay frames=\"40\"}} En\nchair et en os!!! {{delay frames=\"20\"}}{{anim id=\"37\"}}Tu te souviens de\nmoi, j'espère?!\n{{anim id=\"5\"}}{{fun_00010005 arg=\"\"}}, ta meilleure copine!{{delay frames=\"15\"}} On\nva pouvoir se voir TOUS les jours,\nmaintenant!\n{{anim id=\"29\"}}C'est pas beau, ça?!{{delay frames=\"10\"}} Je viens\nd'emménager ici!{{delay frames=\"15\"}} Et c'est pas une\nblague, lol!\nTu fais quoi demain? Et après-\ndemain?{{delay frames=\"15\"}} Bloque toutes tes\nsoirées{{delay frames=\"8\"}}.{{delay frames=\"8\"}}.{{delay frames=\"8\"}}. {{fun_00010005 arg=\"\"}} est là!"
  },
  {
    "label": "006",
    "text": "{{anim id=\"29\"}}Han là là, c'est pas trop tôt!{{delay frames=\"15\"}} J'ai\nbien cru qu'on se verrait jamais!{{delay frames=\"15\"}}{{pageBreak}}{{anim id=\"38\"}}{{fun_00010005 arg=\"\"}} emménage en ville et on\nvient même pas lui faire un petit\ncoucou?!{{delay frames=\"5\"}} C'est pas gentil, hi hi hi!\n{{anim id=\"1\"}}On est voisin{{fun_0006000E arg=\"0x000002006500\"}}s, tu réalises le\ndélire?! {{anim id=\"2\"}}On fait quoi?{{delay frames=\"20\"}} {{anim id=\"16\"}}T'as des\nplans pour le week-end prochain?!\n{{anim id=\"39\"}}Je suis toujours autant fan\n{{fun_000A000E arg=\"0x0600640065002000040064002700\"}}{{fun_00100005 arg=\"0x0000\"}} au fait{{delay frames=\"8\"}}.{{delay frames=\"8\"}}.{{delay frames=\"8\"}}. Au\ncas où tu aurais du rabe, des fois!"
  },
  {
    "label": "007",
    "text": "{{anim id=\"29\"}}Yesssss! {{delay frames=\"20\"}}J'ai trouvé {{fun_00080005 arg=\"\"}}!{{fun_00010007 arg=\"\"}} À\nmoi de me cacher maintenant, hi hi!{{pageBreak}}{{anim id=\"9\"}}C'est une impression ou tu me\nremets pas? {{anim id=\"32\"}}Tu me fais marcher,\non oublie jamais une {{fun_00010005 arg=\"\"}}!\n{{anim id=\"1\"}}Ça fait genre une semaine que\nj'habite ici {{delay frames=\"10\"}}et pas moyen de te\nmettre la patte dessus!\n{{anim id=\"21\"}}C'est pas génial de m'avoir comme\nvoisine, hein?{{delay frames=\"20\"}} {{color id=\"5\"}}({{fun_0006000E arg=\"0x040049006C00080045006C006C006500\"}} fait genre, mais\n{{fun_0006000E arg=\"0x040069006C00080065006C006C006500\"}} est tout ému{{fun_0006000E arg=\"0x000002006500\"}}, c'est clair{{delay frames=\"8\"}}.{{delay frames=\"8\"}}.{{delay frames=\"8\"}}.){{color id=\"65535\"}}"
  },
  {
    "label": "008",
    "text": "{{anim id=\"5\"}}{{fun_0003000E arg=\"\"}}{{fun_00080005 arg=\"\"}}!{{delay frames=\"20\"}} Je commençais à me\ndemander si tu habitais vraiment\nici?!\n{{anim id=\"29\"}}Je suis méga contente, c'est un peu\npour toi que j'ai emménagé dans\ncette ville, quand même!\n{{anim id=\"44\"}}Surprise!!!{{delay frames=\"10\"}} Je suis ta nouvelle\nvoisine!{{delay frames=\"20\"}} Content{{fun_0006000E arg=\"0x000002006500\"}}?!{{color id=\"5\"}} ({{fun_0006000E arg=\"0x040049006C00080045006C006C006500\"}} ose pas le\nmontrer, c'est trop trop chou!!!){{color id=\"65535\"}}"
  },
  {
    "label": "009",
    "text": "{{anim id=\"32\"}}Comme on se retrouve!!!{{delay frames=\"20\"}} {{anim id=\"27\"}}Ben quoi,\non se connaît{{delay frames=\"8\"}}.{{delay frames=\"8\"}}.{{delay frames=\"8\"}}.{{delay frames=\"10\"}} Moi c'est\n{{fun_00010005 arg=\"\"}}, tu te souviens?\n{{anim id=\"38\"}}Grande nouvelle :{{delay frames=\"10\"}} j'ai emménagé\nici!{{delay frames=\"15\"}} {{anim id=\"29\"}}On est voisin{{fun_0006000E arg=\"0x000002006500\"}}s, maintenant!{{pageBreak}}{{color id=\"5\"}}(Je suis sûre qu'{{fun_0006000E arg=\"0x040069006C00080065006C006C006500\"}} m'avait\nreconnue, d'abord!){{color id=\"65535\"}}"
  },
  {
    "label": "010",
    "text": "A{{delay frames=\"5\"}}H{{delay frames=\"5\"}}H{{delay frames=\"5\"}}H-{{delay frames=\"10\"}}{{anim id=\"20\"}}{{fun_000B0007 arg=\"\"}}TCHOUM!{{delay frames=\"50\"}}{{anim id=\"0\"}} Waouh, ça\nréveille, lol! {{anim id=\"32\"}}Kikou, {{delay frames=\"10\"}}{{fun_00080005 arg=\"\"}}!\n{{anim id=\"37\"}}Tu te souviens de moi?\n{{fun_00010005 arg=\"\"}}, la fofolle!!!! {{anim id=\"38\"}}Et fais pas\nsemblant de pas te rappeler, hi hi!{{delay frames=\"20\"}}\n{{anim id=\"33\"}}J'habite à {{delay frames=\"10\"}}{{fun_00050005 arg=\"\"}} maintenant!{{delay frames=\"15\"}}\n{{anim id=\"21\"}}J'adore carrément tout le monde\nici! {{anim id=\"9\"}}Sauf les microbes{{delay frames=\"8\"}}.{{delay frames=\"8\"}}.{{delay frames=\"8\"}}. {{anim id=\"5\"}}Dès que je\nsuis remise, on se fait une soirée!!!"
  },
  {
    "label": "011",
    "text": "{{anim id=\"32\"}}Kikou,{{delay frames=\"10\"}} {{fun_00080005 arg=\"\"}}!{{delay frames=\"20\"}}\n{{anim id=\"37\"}}Tu sais que maintenant, on n'habite\nplus la même ville, hein?\n{{anim id=\"3\"}}J'espère quand même que tu\nviendras me voir souvent,{{delay frames=\"10\"}} comme\navant!"
  },
  {
    "label": "012",
    "text": "{{anim id=\"32\"}}Kikou, {{delay frames=\"20\"}}{{fun_00080005 arg=\"\"}}!{{delay frames=\"20\"}}\n{{anim id=\"3\"}}C'est méga gentil de venir m'aider à\ndéballer les cartons!!!\n{{anim id=\"9\"}}Dire que j'ai même pas\n{{fun_000A000E arg=\"0x0600640065002000040064002700\"}}{{fun_00100005 arg=\"0x0000\"}} à t'offrir,\n{{delay frames=\"10\"}}tout est emballé!\n{{anim id=\"37\"}}Dès que je suis installée,{{delay frames=\"15\"}} {{anim id=\"38\"}}on se fait\nune soirée pyjama{{delay frames=\"10\"}} avec plein\n{{fun_000A000E arg=\"0x0600640065002000040064002700\"}}{{fun_00100005 arg=\"0x0000\"}}, promis!"
  },
  {
    "label": "013",
    "text": "{{anim id=\"32\"}}Kikou, {{delay frames=\"10\"}}{{fun_00080005 arg=\"\"}}!{{delay frames=\"10\"}}\n{{anim id=\"37\"}}C'est trop chou de passer me faire\ncoucou!!!\n{{anim id=\"12\"}}Ici c'est la méga cata,{{delay frames=\"5\"}} un vrai\nchantier{{delay frames=\"8\"}}.{{delay frames=\"8\"}}.{{delay frames=\"8\"}}. {{anim id=\"13\"}}Je peux plus les voir en\npeinture, ces cartons!!!\n{{anim id=\"37\"}}Si tu repassais une autre fois?{{delay frames=\"10\"}} {{anim id=\"3\"}}On\nmangera {{fun_0002000E arg=\"\"}}{{fun_00100005 arg=\"0x0000\"}}\ncomme au bon vieux temps, hi hi!"
  },
  {
    "label": "014",
    "text": "{{anim id=\"16\"}}{{fun_0003000E arg=\"\"}}{{fun_00080005 arg=\"\"}}!{{delay frames=\"20\"}}\n{{anim id=\"3\"}}Ça me fait trop plaisir de te voir\ndébarquer comme ça!!!\n{{anim id=\"37\"}}Elle est plutôt sympa cette ville{{delay frames=\"8\"}}.{{delay frames=\"8\"}}.{{delay frames=\"8\"}}.\n{{anim id=\"29\"}}Côté mode, c'est pas encore ça,\nmais je m'en occupe!\n{{anim id=\"38\"}}Relooking gratuit pour tous!{{delay frames=\"10\"}}\nFais-moi signe si ça t'intéresse!\n{{color id=\"5\"}}(Ce sera avec plaisir, hi hi...){{color id=\"65535\"}}"
  },
  {
    "label": "015",
    "text": "{{anim id=\"16\"}}Coucou, {{delay frames=\"20\"}}{{fun_00080005 arg=\"\"}}!{{delay frames=\"20\"}}\nJe suis{{delay frames=\"5\"}} genre{{delay frames=\"5\"}}{{anim id=\"38\"}} hyper méga contente\nd'avoir emménagé à {{fun_00050005 arg=\"\"}}!!!\n{{anim id=\"44\"}}Vous aviez bien besoin de moi ici!{{delay frames=\"10\"}}\nJe vais devenir la star locale,{{delay frames=\"10\"}} la\nmascotte de la ville!"
  },
  {
    "label": "016",
    "text": "{{anim id=\"23\"}}Hein? {{delay frames=\"20\"}}{{fun_0003000E arg=\"\"}}{{fun_00080005 arg=\"\"}}, c'est toi?{{fun_00010007 arg=\"\"}} {{anim id=\"38\"}}Hé\noui, c'était pas une rumeur!\nJ'habite à {{fun_00050005 arg=\"\"}}!!!\n{{anim id=\"44\"}}Tout le monde parle de moi, c'est\nhallucinant!{{delay frames=\"10\"}} {{anim id=\"29\"}}Je me demandais quand\non finirait par se voir!!!\nC'est trop trop chou d'être passé{{fun_0006000E arg=\"0x000002006500\"}}!{{delay frames=\"15\"}}\nOn va rattraper le temps perdu\ntou{{fun_0006000E arg=\"0x020073000600740065007300\"}} les deux, grave!!!"
  },
  {
    "label": "017",
    "text": "{{anim id=\"16\"}}Pas de doute, {{delay frames=\"10\"}}c'est {{delay frames=\"20\"}}{{fun_00080005 arg=\"\"}}!{{delay frames=\"20\"}} Je\nt'ai manqué, hein?{{delay frames=\"10\"}} Dis?!{{delay frames=\"10\"}} {{anim id=\"37\"}}Bonne\nnouvelle :{{delay frames=\"10\"}} j'ai emménagé ici!\n{{anim id=\"3\"}}C'est pas génialissime,\n{{delay frames=\"10\"}}{{fun_00070005 arg=\"\"}}?!{{pageBreak}}Les soirées légendaires, les\nindigestions {{fun_000A000E arg=\"0x0600640065002000040064002700\"}}{{fun_00100005 arg=\"0x0000\"}},\nles virées shopping{{delay frames=\"8\"}}.{{delay frames=\"8\"}}.{{delay frames=\"8\"}}. c'est reparti!"
  },
  {
    "label": "018",
    "text": "{{anim id=\"29\"}}J'hallucine!{{delay frames=\"15\"}} {{fun_0003000E arg=\"\"}}{{fun_00080005 arg=\"\"}} en chair et\nen os!{{delay frames=\"30\"}} {{anim id=\"38\"}}Tu devineras jamais{{delay frames=\"8\"}}.{{delay frames=\"8\"}}.{{delay frames=\"8\"}}.{{delay frames=\"5\"}}\nJ'habite ici, maintenant!!!\n{{anim id=\"5\"}}Voir ta petite bouille débarquer,{{delay frames=\"10\"}} là,{{delay frames=\"10\"}}\ncomme ça, c'est trop génial!{{delay frames=\"20\"}} Tu\ndois avoir plein de trucs à raconter!"
  },
  {
    "label": "019",
    "text": "{{anim id=\"32\"}}Kikou, vous!{{delay frames=\"5\"}}\nÇa me fait trop plaisir de te voir,\n{{fun_00080005 arg=\"\"}}!\n{{anim id=\"35\"}}T'es pas surpris{{fun_0006000E arg=\"0x000002006500\"}} de me voir ici?{{delay frames=\"15\"}}\nJ'habite à {{fun_00050005 arg=\"\"}} depuis un\nmoment!{{pageBreak}}{{anim id=\"3\"}}Quand je repense à tous nos fous\nrires{{delay frames=\"8\"}}.{{delay frames=\"8\"}}.{{delay frames=\"8\"}}.{{delay frames=\"5\"}} On va pouvoir remettre ça,\nc'est trop génial!{{delay frames=\"10\"}} Viens souvent!!!"
  },
  {
    "label": "020",
    "text": "{{anim id=\"16\"}}Tiens, {{delay frames=\"20\"}}{{fun_00080005 arg=\"\"}}!{{delay frames=\"20\"}}\nÇa me fait trop plaisir de te voir!{{delay frames=\"10\"}}\nC'est énormissime!\n{{anim id=\"2\"}}Non, tu n'es pas dans un magasin de\ncartons, lol{{delay frames=\"8\"}}.{{delay frames=\"8\"}}.{{delay frames=\"8\"}}. C'est chez moi, je\nviens d'emménager!\n{{anim id=\"21\"}}Tu repasseras, hein,{{delay frames=\"10\"}} voisin{{fun_0006000E arg=\"0x000002006500\"}}?{{delay frames=\"10\"}} {{anim id=\"5\"}}On va\npouvoir se faire des sorties, se\nraconter notre vie, {{delay frames=\"10\"}}et tout et tout!"
  },
  {
    "label": "021",
    "text": "{{anim id=\"32\"}}{{fun_0003000E arg=\"\"}}{{fun_00080005 arg=\"\"}}! J'y crois pas!{{delay frames=\"20\"}}\n{{anim id=\"35\"}}Content{{fun_0006000E arg=\"0x000002006500\"}} de me voir?{{delay frames=\"15\"}} {{anim id=\"33\"}}J'espère,\nparce que je viens d'emménager!\n{{anim id=\"27\"}}Là, c'est la cata, ça ressemble à\nrien avec tous ces cartons.{{delay frames=\"8\"}}.{{delay frames=\"8\"}}. {{delay frames=\"30\"}}{{anim id=\"29\"}}On\ndiscutera mieux la prochaine fois!"
  },
  {
    "label": "022",
    "text": "{{anim id=\"32\"}}Kikou, {{delay frames=\"20\"}}{{fun_00080005 arg=\"\"}}!{{delay frames=\"20\"}}\nÇa faisait méga longtemps qu'on\ns'était pas vu{{fun_0006000E arg=\"0x000002006500\"}}s!!!\n{{anim id=\"38\"}}T'es au courant?{{delay frames=\"15\"}} J'habite ici,\nmaintenant!{{delay frames=\"10\"}} {{fun_0003000E arg=\"\"}}{{fun_00070005 arg=\"\"}}!{{pageBreak}}Tu vas pouvoir frimer, {{anim id=\"44\"}}dire à tout le\nmonde que tu connais {{fun_00010005 arg=\"\"}}!\nLa nouvelle star {{fun_000A000E arg=\"0x0600640065002000040064002700\"}}{{fun_00050005 arg=\"\"}}!!!"
  },
  {
    "label": "023",
    "text": "{{anim id=\"32\"}}Coucou, {{fun_00080005 arg=\"\"}}!!!{{delay frames=\"15\"}}\n{{anim id=\"38\"}}Pas trop surpris{{fun_0006000E arg=\"0x000002006500\"}} de me voir ici?{{delay frames=\"10\"}}\nAccroche-toi bien{{delay frames=\"8\"}}.{{delay frames=\"8\"}}.{{delay frames=\"8\"}}.\nJ'habite à {{fun_00050005 arg=\"\"}}!{{delay frames=\"15\"}} Ça fait un\nmoment déjà!{{pageBreak}}{{anim id=\"44\"}}Dis bonjour à LA star montante\n{{fun_000A000E arg=\"0x0600640065002000040064002700\"}}{{fun_00050005 arg=\"\"}}!{{delay frames=\"15\"}} Sors les lunettes de\nsoleil, je vais faire des étincelles!!!"
  }
]