﻿[
  {
    "label": "001",
    "text": "{{anim id=\"5\"}}Ouah,{{delay frames=\"5\"}} c'est une super idée,{{delay frames=\"5\"}} ça!!!{{delay frames=\"10\"}}\n{{anim id=\"21\"}}T'as raison!{{delay frames=\"5\"}} J'ai qu'à emménager\nici!\n{{anim id=\"42\"}}{{fun_00010005 arg=\"\"}} et {{delay frames=\"10\"}}{{fun_00000005 arg=\"\"}},{{delay frames=\"10\"}} dans la\nmême ville, hi hi!{{delay frames=\"10\"}} {{fun_0003000E arg=\"\"}}{{fun_00050005 arg=\"\"}} va se\ndemander ce qu'il lui arrive!!!"
  },
  {
    "label": "002",
    "text": "{{anim id=\"22\"}}C'est pas une mauvaise idée!{{delay frames=\"10\"}} Mais\nje dois y réfléchir un peu{{delay frames=\"8\"}}.{{delay frames=\"8\"}}.{{delay frames=\"8\"}}. Hmmm,\n{{anim id=\"29\"}}OK!\n{{anim id=\"38\"}}On va devenir inséparables, hi hi!{{delay frames=\"10\"}}\nOn parlera plus que {{fun_000A000E arg=\"0x0600640065002000040064002700\"}}{{fun_00010005 arg=\"\"}}\net {{fun_00000005 arg=\"\"}},{{delay frames=\"10\"}} à {{fun_00050005 arg=\"\"}}!"
  },
  {
    "label": "003",
    "text": "{{anim id=\"5\"}}J'espérais bien que tu répondrais\nça, hi hi!{{delay frames=\"5\"}} Tu peux plus te passer de\nmoi, {{delay frames=\"10\"}}je le savais!!!\n{{anim id=\"39\"}}Tu préviendras tout le monde,\nOK{{delay frames=\"8\"}}.{{delay frames=\"8\"}}.{{delay frames=\"8\"}}.{{delay frames=\"8\"}}?{{delay frames=\"10\"}} {{anim id=\"16\"}}Hé,{{delay frames=\"10\"}} vous pourriez même\nm'organiser une fête surprise?!"
  },
  {
    "label": "004",
    "text": "{{anim id=\"11\"}}C'est peut-être pas une mauvaise\nidée, tiens{{delay frames=\"8\"}}.{{delay frames=\"8\"}}.{{delay frames=\"8\"}}.{{delay frames=\"30\"}}{{anim id=\"13\"}} Nan, j'ai déjà le mal du\npays rien que d'y penser!!!\n{{anim id=\"27\"}}J'aime trop ma ville{{delay frames=\"8\"}}.{{delay frames=\"8\"}}.{{delay frames=\"8\"}}. {{anim id=\"1\"}}Je vais me\ncontenter de profiter des joies du\ncamping à {{delay frames=\"10\"}}{{fun_00050005 arg=\"\"}}, hi hi hi!"
  },
  {
    "label": "005",
    "text": "{{anim id=\"38\"}}Ta proposition me va droit au\ncœur!{{delay frames=\"30\"}} {{anim id=\"27\"}}Mais faut que j'arrête de\npartir dans tous les sens{{delay frames=\"8\"}}.{{delay frames=\"8\"}}.{{delay frames=\"8\"}}.\n{{anim id=\"37\"}}Je vais déjà profiter du camping,{{delay frames=\"5\"}} {{anim id=\"29\"}}\non verra plus tard pour\nl'emménagement, hi hi!"
  },
  {
    "label": "006",
    "text": "{{anim id=\"38\"}}T'es sérieu{{fun_0006000E arg=\"0x02007800040073006500\"}}?{{delay frames=\"20\"}} Oh, c'est trop trop\ngentil de proposer!{{delay frames=\"30\"}}{{anim id=\"11\"}} C'est tentant,{{delay frames=\"10\"}}\nmais ça va pas être possible{{delay frames=\"8\"}}.{{delay frames=\"8\"}}.{{delay frames=\"8\"}}.\n{{anim id=\"40\"}}Je peux quand même pas tout\nplaquer du jour au lendemain{{delay frames=\"8\"}}.{{delay frames=\"8\"}}.{{delay frames=\"8\"}}.{{anim id=\"44\"}}\nJe peux pas faire ça à mes fans!\n{{anim id=\"27\"}}Non, je peux pas{{delay frames=\"8\"}}.{{delay frames=\"8\"}}.{{delay frames=\"8\"}}.{{delay frames=\"30\"}} {{anim id=\"32\"}}Merci de me\nl'avoir proposé, en tout cas!"
  },
  {
    "label": "007",
    "text": "{{anim id=\"15\"}}Moi?{{delay frames=\"20\"}} Vivre ici?{{delay frames=\"10\"}} À {{fun_00050005 arg=\"\"}}?!{{delay frames=\"60\"}} Tu\nveux dire,{{delay frames=\"10\"}} dans une maison et tout\net tout? \n{{anim id=\"11\"}}C'est pas une décision à prendre à\nla légère{{delay frames=\"8\"}}.{{delay frames=\"8\"}}.{{delay frames=\"8\"}}. J'ai des attaches chez\nmoi!{{delay frames=\"10\"}} {{anim id=\"9\"}}Mes fans, {{delay frames=\"10\"}}ma salle de sport{{delay frames=\"8\"}}.{{delay frames=\"8\"}}.{{delay frames=\"8\"}}.\n{{anim id=\"29\"}}Yessss! {{delay frames=\"10\"}}Je sais!{{delay frames=\"10\"}} On va tirer ça à\npile ou face!{{delay frames=\"10\"}} Mince, j'ai pas de\npièce{{delay frames=\"8\"}}.{{delay frames=\"8\"}}.{{delay frames=\"8\"}}. On va faire un jeu alors!\n{{anim id=\"39\"}}Si tu gagnes, j'emménage ici!{{delay frames=\"10\"}} {{anim id=\"35\"}}Sinon,\ntu devras me donner {{fun_0008000E arg=\"0x00CD120074006F006E0020007000650074006900740012007400610020007000650074006900740065000000\"}}\n{{delay frames=\"5\"}}{{fun_00030011 arg=\"0x0000\"}}, hi hi{{delay frames=\"8\"}}.{{delay frames=\"8\"}}.{{delay frames=\"8\"}}.{{fun_00050008 arg=\"0x190015000A002800\"}}\nÇa marche!\nSans moi..."
  },
  {
    "label": "008",
    "text": "{{anim id=\"16\"}}T'as vraiment dit ce que j'ai\nentendu?{{delay frames=\"10\"}} Ça a l'air de tenir à cœur,\nen plus{{delay frames=\"8\"}}.{{delay frames=\"8\"}}.{{delay frames=\"8\"}}.\n{{anim id=\"13\"}}Ça se décide pas comme ça, en\n30 secondes, un truc pareil!{{delay frames=\"10\"}} Faut\nque j'y réfléchisse!\n{{anim id=\"1\"}}Bah, j'ai pas envie de me creuser la\ntête{{delay frames=\"8\"}}.{{delay frames=\"8\"}}.{{delay frames=\"8\"}}. {{anim id=\"29\"}}On va faire un jeu à la place,\nhi hi!{{anim id=\"38\"}} Si tu gagnes, j'emménage ici!\n{{anim id=\"35\"}}Si tu perds, par contre, tu me\ndonnes {{fun_0008000E arg=\"0x00CD1C0074006F006E0020006A006F006C0069002000700065007400690074001E007400610020006A006F006C006900650020007000650074006900740065000000\"}}\n{{fun_00030011 arg=\"0x0000\"}}!{{fun_00050008 arg=\"0x190015000B002800\"}}\nOK!\nNon."
  },
  {
    "label": "009",
    "text": "{{anim id=\"29\"}}Vraiment? {{delay frames=\"10\"}}Tu veux que je reste ici,\nje le savais!{{delay frames=\"20\"}}{{anim id=\"37\"}} Ça me fait {{delay frames=\"5\"}}HYPER\nplaisir!{{delay frames=\"30\"}}{{anim id=\"9\"}} Mais je sais pas...\n{{anim id=\"4\"}}J'adore ma ville{{delay frames=\"8\"}}.{{delay frames=\"8\"}}.{{delay frames=\"8\"}}.{{delay frames=\"5\"}} Mais j'aime bien\nbouger aussi!{{delay frames=\"30\"}} Prendre des risques!\n{{anim id=\"13\"}}Han là là, je suis en stress!!!\n{{anim id=\"21\"}}J'arriverai jamais à me décider...{{delay frames=\"10\"}}\nSi on laissait faire le destin?! {{delay frames=\"30\"}}\n{{anim id=\"33\"}}On va faire un jeu!\nSi tu gagnes, {{fun_00010005 arg=\"\"}} te fera\nl'honneur d'emménager ici{{delay frames=\"8\"}}.{{delay frames=\"8\"}}.{{delay frames=\"8\"}}.{{pageBreak}}{{anim id=\"35\"}}Mais si c'est moi qui gagne, tu peux\ndire au revoir à {{fun_0008000E arg=\"0x00CD120074006F006E0020007000650074006900740012007400610020007000650074006900740065000000\"}}\n{{fun_00030011 arg=\"0x0000\"}}! Alors?{{fun_00050008 arg=\"0x190015000C002800\"}}\nOK!\nHmmm... non merci."
  },
  {
    "label": "010",
    "text": "{{anim id=\"23\"}}Tu veux pas jouer?! {{delay frames=\"10\"}}{{anim id=\"9\"}}Je pourrai\njamais me décider, moi!"
  },
  {
    "label": "011",
    "text": "{{anim id=\"9\"}}Tu veux pas?{{delay frames=\"30\"}} {{anim id=\"27\"}}Comment tu peux\nrefuser une offre pareille?!"
  },
  {
    "label": "012",
    "text": "{{anim id=\"27\"}}C'était l'occasion de s'amuser un\npeu, quoi{{delay frames=\"8\"}}.{{delay frames=\"8\"}}.{{delay frames=\"8\"}}."
  },
  {
    "label": "013",
    "text": "{{anim id=\"21\"}}Youhou!!!{{delay frames=\"10\"}} OK,{{delay frames=\"5\"}} on va décider ça à\n{{delay frames=\"5\"}}{{color id=\"2\"}}pierre-papier-ciseaux{{color id=\"65535\"}}!{{fun_00120007 arg=\"0x00031B001A00\"}}"
  },
  {
    "label": "014",
    "text": "{{anim id=\"1\"}}Yesssssss! {{delay frames=\"10\"}}OK, {{delay frames=\"10\"}}{{anim id=\"29\"}}ça va se décider au\n{{delay frames=\"10\"}}{{color id=\"2\"}}mime{{color id=\"65535\"}}!{{fun_00120007 arg=\"0x01011B001A00\"}}"
  },
  {
    "label": "015",
    "text": "{{anim id=\"5\"}}Génial!!!{{delay frames=\"10\"}} Mon avenir va se décider à\n{{delay frames=\"8\"}}.{{delay frames=\"8\"}}.{{delay frames=\"8\"}}.{{delay frames=\"5\"}} {{color id=\"2\"}}regarde où je regarde{{color id=\"65535\"}}!{{fun_00120007 arg=\"0x02011B001A00\"}}"
  },
  {
    "label": "016",
    "text": "{{anim id=\"9\"}}Dommage! {{delay frames=\"10\"}}Au revoir {{fun_00010005 arg=\"\"}}{{delay frames=\"8\"}}.{{delay frames=\"8\"}}.{{delay frames=\"8\"}}.{{delay frames=\"10\"}}{{anim id=\"35\"}}\nAu revoir {{fun_00030011 arg=\"0x0000\"}}{{delay frames=\"8\"}}.{{delay frames=\"8\"}}.{{delay frames=\"8\"}}.\nC'est pas ton jour de chance!!!"
  },
  {
    "label": "017",
    "text": "{{anim id=\"39\"}}C'est le moment où tu es censé{{fun_0006000E arg=\"0x000002006500\"}} me\ndonner {{fun_0001000E arg=\"\"}}{{delay frames=\"10\"}}{{fun_00030011 arg=\"0x0000\"}},\nnon{{delay frames=\"8\"}}.{{delay frames=\"8\"}}.{{delay frames=\"8\"}}.{{delay frames=\"8\"}}?"
  },
  {
    "label": "018",
    "text": "{{anim id=\"39\"}}On dirait que je vais repartir avec\n{{delay frames=\"10\"}}{{fun_0002000E arg=\"\"}}{{fun_00030011 arg=\"0x0000\"}}{{delay frames=\"8\"}}.{{delay frames=\"8\"}}.{{delay frames=\"8\"}}."
  },
  {
    "label": "019",
    "text": "{{anim id=\"1\"}}J'en prendrai bien soin, t'inquiète!{{delay frames=\"20\"}}\n{{anim id=\"3\"}}Ça me fera un souvenir de mon\npassage ici{{delay frames=\"8\"}}.{{delay frames=\"8\"}}.{{delay frames=\"8\"}}."
  },
  {
    "label": "020",
    "text": "{{anim id=\"5\"}}Ça m'évitera d'avoir à acheter un\nsouvenir {{fun_000A000E arg=\"0x0600640065002000040064002700\"}}{{fun_00050005 arg=\"\"}}, hi hi!"
  },
  {
    "label": "021",
    "text": "{{anim id=\"1\"}}Ça fera un super souvenir de\nvacances!{{delay frames=\"20\"}} Je savais pas quoi\nacheter justement, trop fort!"
  },
  {
    "label": "022",
    "text": "{{anim id=\"29\"}}T'as gagné le gros lot, hi hi!{{delay frames=\"10\"}}\n{{anim id=\"37\"}}{{delay frames=\"30\"}}{{fun_00010005 arg=\"\"}} emménage dans\nta ville,{{delay frames=\"10\"}} tu te rends compte?\n{{anim id=\"16\"}}J'y crois pas, je déménage!{{delay frames=\"20\"}}{{anim id=\"13\"}} Rien\nqu'en fringues, ça va faire genre{{delay frames=\"10\"}}\n50 cartons!!!\nEuh{{delay frames=\"8\"}}.{{delay frames=\"8\"}}.{{delay frames=\"8\"}}. {{anim id=\"32\"}}Moi, c'est {{fun_00010005 arg=\"\"}} au fait!{{delay frames=\"10\"}}\nToi, c'est {{fun_00000005 arg=\"\"}}, non?"
  },
  {
    "label": "023",
    "text": "{{anim id=\"29\"}}Trop fort! {{delay frames=\"10\"}}J'attaque les cartons\ndès que je rentre à la maison!\n{{delay frames=\"30\"}}{{anim id=\"39\"}}Bientôt, la maison, ce sera ici, hi hi{{delay frames=\"8\"}}.{{delay frames=\"8\"}}.{{delay frames=\"8\"}}.\n{{anim id=\"13\"}}Je réalise pas encore!!!{{delay frames=\"20\"}} Le truc de\nfou!{{delay frames=\"10\"}} {{anim id=\"3\"}}Ça doit être le destin{{delay frames=\"8\"}}.{{delay frames=\"8\"}}.{{delay frames=\"8\"}}.{{pageBreak}}Euh{{delay frames=\"8\"}}.{{delay frames=\"8\"}}.{{delay frames=\"8\"}}. {{anim id=\"32\"}}Moi, c'est {{fun_00010005 arg=\"\"}} au fait!{{delay frames=\"10\"}}\nToi, c'est {{fun_00000005 arg=\"\"}}, non?"
  },
  {
    "label": "024",
    "text": "{{anim id=\"32\"}}On dirait que je vais déménager!{{delay frames=\"10\"}}\nEuh{{delay frames=\"8\"}}.{{delay frames=\"8\"}}.{{delay frames=\"8\"}}. Moi, c'est {{fun_00010005 arg=\"\"}} au fait!{{delay frames=\"10\"}}\nToi, c'est {{fun_00000005 arg=\"\"}}, non?\n{{anim id=\"29\"}}On va super bien s'entendre! Je les\nsens, ces choses-là! {{anim id=\"38\"}}Merci de\nm'avoir aidée à me décider!!!"
  },
  {
    "label": "025",
    "text": "{{fun_00010009 arg=\"0x0D000E000F00\"}}"
  },
  {
    "label": "026",
    "text": "{{fun_00010009 arg=\"0x100011001200\"}}"
  },
  {
    "label": "027",
    "text": "{{fun_00010009 arg=\"0x160017001800\"}}"
  },
  {
    "label": "028",
    "text": "{{fun_00000009 arg=\"0x0D000E00\"}}"
  }
]