﻿[
  {
    "label": "001",
    "text": "{{anim id=\"1\"}}Ce soir, c'est le compte à rebours!{{delay frames=\"40\"}}\nRendons hommage à {{fun_00000004 arg=\"\"}} en\nfaisant {{fun_00000004 arg=\"\"}} pompes chacun!{{delay frames=\"20\"}}{{anim id=\"38\"}}"
  },
  {
    "label": "002",
    "text": "{{anim id=\"1\"}}Vivement le compte à rebours, je ne\ntiens plus en place!{{pageBreak}}5,{{delay frames=\"20\"}} 4,{{delay frames=\"20\"}} 3,{{delay frames=\"20\"}} 2{{delay frames=\"8\"}}.{{delay frames=\"8\"}}.{{delay frames=\"8\"}}.{{delay frames=\"40\"}} {{anim id=\"4\"}}Cette sensation, quand\nles dernières secondes de l'année\ns'écoulent...{{delay frames=\"20\"}} {{fun_0003000E arg=\"\"}}{{fun_00070005 arg=\"\"}}!"
  },
  {
    "label": "003",
    "text": "{{anim id=\"23\"}}Tu vas te joindre à nous sur la place\nde la ville pour le compte à rebours\nde ce soir, hein?\n{{anim id=\"1\"}}Si on veut passer une bonne année,\nautant l'accueillir en grande pompe,{{delay frames=\"8\"}}\n{{fun_00070005 arg=\"\"}}!"
  },
  {
    "label": "004",
    "text": "{{anim id=\"1\"}}Le meilleur moment du compte à\nrebours, c'est quand on approche de\nzéro. Ça me file de ces frissons!\n{{anim id=\"6\"}}Ne loupe surtout pas ça,\n{{fun_00080005 arg=\"\"}}!"
  }
]