﻿[
  {
    "label": "001",
    "text": "{{anim id=\"38\"}}Hé hé,{{delay frames=\"20\"}} l'idée me trotte dans la tête\ndepuis un bail, mais voilà...{{delay frames=\"20\"}} J'ai enfin\nconstruit une capsule temporelle!\n{{anim id=\"33\"}}J'y ai glissé une note avec mes\nmensurations détaillées...{{pageBreak}}{{anim id=\"0\"}}Comme ça, mon futur moi pourra\nvoir à quel point ses entraînements\nont porté leurs fruits!\n{{anim id=\"9\"}}Le souci{{delay frames=\"8\"}}.{{delay frames=\"8\"}}.{{delay frames=\"8\"}}.{{delay frames=\"20\"}} c'est mon impatience\nchronique. Si je l'enterre moi-même,\nje la déterrerai bien trop tôt.\n{{anim id=\"22\"}}C'est là que tu entres en scène!{{delay frames=\"40\"}} {{anim id=\"1\"}}Tu\npourrais l'enterrer pour moi{{delay frames=\"8\"}}.{{delay frames=\"8\"}}.{{delay frames=\"8\"}}.{{delay frames=\"20\"}} hein?{{fun_0005000F arg=\"0x15002800\"}}\nSi tu veux.\nÇa n'a aucun sens..."
  },
  {
    "label": "002",
    "text": "{{anim id=\"1\"}}J'ai réussi à construire une capsule\ntemporelle!{{pageBreak}}À l'intérieur, j'ai déposé{{delay frames=\"8\"}}.{{delay frames=\"8\"}}.{{delay frames=\"8\"}}.{{delay frames=\"20\"}} {{anim id=\"27\"}}Bah, tu\nt'en fiches, non?{{pageBreak}}{{anim id=\"1\"}}Dis,{{delay frames=\"20\"}} puisque je t'ai sous la patte,{{delay frames=\"20\"}} tu\ncrois que tu pourrais aller l'enterrer\npour moi?{{fun_0005000F arg=\"0x15002800\"}}\nBien sûr!\nHors de question!"
  },
  {
    "label": "003",
    "text": "Dis,{{delay frames=\"20\"}} {{anim id=\"23\"}}tu sais ce que c'est qu'une\ncapsule temporelle?{{pageBreak}}{{anim id=\"1\"}}Grâce à ce dispositif, je peux\nenvoyer mes programmes\nd'entraînement à mon futur moi!\nIl me suffit de les glisser dans la\ncapsule, d'enterrer celle-ci, et de la\ndéterrer le moment venu!\n{{fun_0003000E arg=\"\"}}{{fun_00080005 arg=\"\"}},{{delay frames=\"20\"}} toi qui es digne de\nconfiance, tu irais enterrer cette\ncapsule pour moi?{{fun_0005000F arg=\"0x15002800\"}}\nOK!\nNon!"
  },
  {
    "label": "004",
    "text": "{{anim id=\"1\"}}Super!{{delay frames=\"20\"}} Je te la confie!"
  },
  {
    "label": "005",
    "text": "{{anim id=\"38\"}}Parfait!{{delay frames=\"20\"}} Tiens, la voici."
  },
  {
    "label": "006",
    "text": "{{anim id=\"1\"}}Nickel, {{fun_00080005 arg=\"\"}}!{{delay frames=\"20\"}} Je compte sur\ntoi!"
  },
  {
    "label": "007",
    "text": "{{anim id=\"9\"}}{{delay frames=\"8\"}}.{{delay frames=\"8\"}}.{{delay frames=\"8\"}}.{{delay frames=\"20\"}} {{fun_0006000E arg=\"0x10004D006F006E00730069006500750072000C004D006100640061006D006500\"}} est mal {{fun_0006000E arg=\"0x08006C0075006E00E9000A006C0075006E00E9006500\"}}, à ce que\nje vois.{{delay frames=\"20\"}} Je retenterai ma chance une\nautre fois..."
  },
  {
    "label": "008",
    "text": "Tu la trouveras là où tu gardes tes\nlettres.{{delay frames=\"20\"}} Fais-moi plaisir : enterre-la\nvite pour ne pas l'égarer!\n{{anim id=\"6\"}}C'est pas tout.{{delay frames=\"20\"}} Son contenu est\nabsolument top secret!{{delay frames=\"20\"}} Autrement\ndit : interdit de l'ouvrir, pigé?\n{{anim id=\"32\"}}Ne me déçois pas!{{delay frames=\"20\"}}"
  },
  {
    "label": "009",
    "text": "{{anim id=\"6\"}}Ho!{{delay frames=\"15\"}} Ce serait pas ma capsule que\ntu trimballes, là? L'idée, c'était de\nl'enterrer, pas de la balader en ville.{{delay frames=\"15\"}}{{anim id=\"0\"}}\n{{anim id=\"27\"}}Bref, tant pis. Ça m'apprendra à te\nfaire confiance.{{delay frames=\"20\"}} Rends-la-moi,\nmaintenant."
  },
  {
    "label": "010",
    "text": "{{anim id=\"17\"}}{{fun_000B0007 arg=\"\"}}De quoi?!{{delay frames=\"20\"}} T'as paumé ma capsule?{{pageBreak}}{{anim id=\"12\"}}Comment tu t'es {{fun_0006000E arg=\"0x14006400E900620072006F00750069006C006C00E90016006400E900620072006F00750069006C006C00E9006500\"}}?!{{delay frames=\"40\"}} {{anim id=\"8\"}}Si\nmon futur moi se retrouve dans la\npanade, ce sera de ta faute!"
  },
  {
    "label": "011",
    "text": "{{anim id=\"17\"}}{{fun_000B0007 arg=\"\"}}Hein?!{{delay frames=\"20\"}} Tu as ouvert ma capsule,\navoue!{{fun_00010007 arg=\"\"}} {{anim id=\"7\"}}{{delay frames=\"10\"}}{{fun_00020007 arg=\"\"}}SACRILÈGE!{{fun_00030007 arg=\"\"}}{{delay frames=\"20\"}}{{pageBreak}}Pauvre {{fun_0006000E arg=\"0x060066006F0075000A0066006F006C006C006500\"}}, tu as rompu le\ncontinuum espace-temps!{{pageBreak}}Si ça se trouve, maintenant, ma\nnaissance n'a jamais eu lieu{{delay frames=\"8\"}}.{{delay frames=\"8\"}}.{{delay frames=\"8\"}}.{{delay frames=\"8\"}}!{{delay frames=\"20\"}}{{anim id=\"0\"}} Euh{{delay frames=\"8\"}}.{{delay frames=\"8\"}}.{{delay frames=\"8\"}}.{{delay frames=\"20\"}}\nQu'est-ce que je raconte, moi..."
  },
  {
    "label": "012",
    "text": "{{anim id=\"2\"}}Bon, finalement, je n'avais qu'à\nl'enterrer moi-même.{{delay frames=\"20\"}} Ha ha!{{delay frames=\"20\"}}{{anim id=\"1\"}}"
  },
  {
    "label": "013",
    "text": "{{anim id=\"9\"}}Hein?{{delay frames=\"20\"}} Tu veux la garder pour toi?"
  },
  {
    "label": "014",
    "text": "{{anim id=\"32\"}}Merci!{{delay frames=\"20\"}}{{pageBreak}}{{anim id=\"0\"}}Ho, {{fun_00080005 arg=\"\"}}! {{anim id=\"9\"}}Elle s'est ouverte\ntoute seule ou tu l'as un peu aidée?{{pageBreak}}{{anim id=\"12\"}}Moi qui tenais à l'ouvrir à tes\ncôtés{{delay frames=\"8\"}}.{{delay frames=\"8\"}}.{{delay frames=\"8\"}}."
  },
  {
    "label": "015",
    "text": "{{anim id=\"32\"}}Merci, {{fun_00080005 arg=\"\"}}!{{pageBreak}}{{delay frames=\"20\"}}{{anim id=\"18\"}}{{fun_000B0007 arg=\"\"}}Attends!{{delay frames=\"40\"}} Elle est ouverte! Et vide,\nen plus...{{pageBreak}}{{anim id=\"6\"}}Je t'avais pourtant bien dit de ne\npas y toucher!{{delay frames=\"15\"}} {{anim id=\"12\"}}Si j'avais su que\nj'avais affaire à {{fun_0006000E arg=\"0x040075006E00060075006E006500\"}} cleptomane{{delay frames=\"8\"}}.{{delay frames=\"8\"}}.{{delay frames=\"8\"}}."
  },
  {
    "label": "016",
    "text": "{{anim id=\"1\"}}Merci, {{fun_00080005 arg=\"\"}}!{{delay frames=\"20\"}} Allez, on\nl'ouvre!"
  },
  {
    "label": "017",
    "text": "{{anim id=\"15\"}}{{fun_000B0007 arg=\"\"}}Ha ha ha!{{delay frames=\"20\"}} Vise un peu {{fun_0008000E arg=\"0x00CD1000630065002000760069006500750078001A0063006500740074006500200076006900650069006C006C0065000000\"}}\n{{fun_00030011 arg=\"0x0000\"}}! {{fun_0008000E arg=\"0x00CD040049006C00080045006C006C0065000000\"}} sent\nencore la sueur!\n{{anim id=\"3\"}}Quelle nostalgie...!{{delay frames=\"40\"}} Tiens, il y a aussi\nune lettre."
  },
  {
    "label": "018",
    "text": "{{anim id=\"5\"}}Oh, {{fun_0002000E arg=\"\"}}{{fun_00030011 arg=\"0x0000\"}}!{{delay frames=\"40\"}}\nMarrant ça, je ne me souviens pas\nl'y avoir {{fun_0008000E arg=\"0x00CD0C006400E90070006F007300E9000E006400E90070006F007300E90065000000\"}}...\n{{anim id=\"0\"}}Tiens,{{delay frames=\"20\"}} il y a également une lettre... "
  },
  {
    "label": "019",
    "text": "{{anim id=\"15\"}}Oh, {{fun_0002000E arg=\"\"}}{{fun_00030011 arg=\"0x0000\"}}!{{delay frames=\"40\"}}\n{{anim id=\"2\"}}J'avais vraiment de drôles de goûts\nà l'époque!{{delay frames=\"20\"}}{{anim id=\"1\"}}\n{{anim id=\"0\"}}Hein?{{delay frames=\"20\"}} Ce serait pas une lettre, là?"
  },
  {
    "label": "020",
    "text": "{{anim id=\"26\"}}Ouh là!{{delay frames=\"20\"}} C'est pas très glorieux, tout\nça!"
  },
  {
    "label": "021",
    "text": "{{anim id=\"1\"}}Tiens,{{delay frames=\"20\"}} en guise de récompense!"
  },
  {
    "label": "022",
    "text": "{{anim id=\"1\"}}Mais j'y pense,{{delay frames=\"20\"}} il faut que je te\nrécompense!{{pageBreak}}Hop!{{delay frames=\"20\"}} C'est pour toi,{{delay frames=\"8\"}} {{fun_00070005 arg=\"\"}}!"
  },
  {
    "label": "023",
    "text": "{{anim id=\"1\"}}Merci, {{fun_00080005 arg=\"\"}}!{{delay frames=\"20\"}} Comme tu es\ndéjà bien {{fun_0006000E arg=\"0x0C0063006800610072006700E9000E0063006800610072006700E9006500\"}}, je t'enverrai une\nrécompense par courrier!"
  },
  {
    "label": "024",
    "text": "{{anim id=\"1\"}}C'est {{fun_0002000E arg=\"\"}}{{fun_00030011 arg=\"0x0100\"}}!{{delay frames=\"15\"}}\n{{anim id=\"38\"}}Merci, {{fun_00080005 arg=\"\"}}!{{delay frames=\"20\"}} Grâce à toi, mon\nancien moi vient de goûter au futur!"
  },
  {
    "label": "025",
    "text": "{{anim id=\"9\"}}Oui?!{{delay frames=\"20\"}} On peut savoir ce que tu\nfabriques?"
  },
  {
    "label": "026",
    "text": "{{anim id=\"5\"}}Oh!{{delay frames=\"20\"}} Tu me ramènes ma capsule\ntemporelle?{{delay frames=\"20\"}} J'étais justement en\ntrain d'y penser{{delay frames=\"8\"}}.{{delay frames=\"8\"}}.{{delay frames=\"8\"}}.\nAttends!{{delay frames=\"20\"}} {{anim id=\"9\"}}Quelqu'un t'a demandé de\nregarder dedans?{{delay frames=\"15\"}} Non?{{delay frames=\"20\"}} {{anim id=\"6\"}}Alors\npourquoi elle est ouverte?!{{delay frames=\"15\"}}{{anim id=\"0\"}}\n{{anim id=\"12\"}}Pfff,{{delay frames=\"8\"}} en fait, je prévoyais de l'ouvrir\navec toi à mes côtés{{delay frames=\"8\"}}.{{delay frames=\"8\"}}.{{delay frames=\"8\"}}."
  },
  {
    "label": "027",
    "text": "{{anim id=\"5\"}}Oh!{{delay frames=\"20\"}} Tu me ramènes ma capsule\ntemporelle?{{delay frames=\"20\"}} J'étais justement en\ntrain d'y penser{{delay frames=\"8\"}}.{{delay frames=\"8\"}}.{{delay frames=\"8\"}}.\n{{anim id=\"18\"}}{{fun_000B0007 arg=\"\"}}Attends!{{delay frames=\"40\"}} Elle a été ouverte... et y'a\nplus rien dedans!{{delay frames=\"20\"}} Que pouic!{{pageBreak}}{{anim id=\"6\"}}Je t'avais pourtant bien dit de ne\npas y toucher!{{delay frames=\"15\"}} {{anim id=\"12\"}}Si j'avais su que\nj'avais affaire à {{fun_0006000E arg=\"0x040075006E00060075006E006500\"}} cleptomane{{delay frames=\"8\"}}.{{delay frames=\"8\"}}.{{delay frames=\"8\"}}."
  },
  {
    "label": "028",
    "text": "{{anim id=\"15\"}}Oh!{{delay frames=\"20\"}} Tu m'as ramené ma capsule\ntemporelle?{{pageBreak}}{{anim id=\"5\"}}Super!{{delay frames=\"20\"}} J'étais vraiment impatient\nde l'ouvrir!"
  },
  {
    "label": "029",
    "text": "{{anim id=\"1\"}}Oh!{{delay frames=\"20\"}} {{fun_0003000E arg=\"\"}}{{fun_0002000E arg=\"\"}}{{fun_00030011 arg=\"0x0000\"}}!{{delay frames=\"40\"}}\nJe crois me rappeler que c'était un\ncadeau...{{delay frames=\"15\"}} mais de la part de qui?!{{pageBreak}}{{anim id=\"16\"}}Ah, j'y suis, {{delay frames=\"8\"}}c'était de ma part,\nha ha!{{pageBreak}}{{anim id=\"0\"}}Tiens!{{delay frames=\"20\"}} Il y a aussi une lettre..."
  },
  {
    "label": "030",
    "text": "{{anim id=\"16\"}}{{fun_000B0007 arg=\"\"}}Oh, {{fun_0002000E arg=\"\"}}{{fun_00030011 arg=\"0x0000\"}}!{{delay frames=\"15\"}}\n{{anim id=\"0\"}}{{fun_0008000E arg=\"0x00CD040049006C00080045006C006C0065000000\"}} faisait ma fierté à l'époque.{{pageBreak}}{{anim id=\"21\"}}Mais je dois me rendre à l'évidence :{{delay frames=\"20\"}}\ndésormais, {{fun_0008000E arg=\"0x00CD040069006C00080065006C006C0065000000\"}} ne me fait ni chaud\nni froid.\n{{anim id=\"19\"}}{{delay frames=\"40\"}}Probablement parce qu'{{fun_0008000E arg=\"0x00CD040069006C00080065006C006C0065000000\"}} est\nresté {{fun_0008000E arg=\"0x00CD0E0065006E007400650072007200E900100065006E007400650072007200E90065000000\"}} un bout de temps{{delay frames=\"8\"}}.{{delay frames=\"8\"}}.{{delay frames=\"8\"}}.{{pageBreak}}{{anim id=\"23\"}}Tiens?{{delay frames=\"20\"}} C'est une lettre que je vois\nlà?"
  },
  {
    "label": "031",
    "text": "{{anim id=\"15\"}}Oh,{{delay frames=\"20\"}} c'est pas vrai!{{delay frames=\"20\"}} {{fun_0003000E arg=\"\"}}{{fun_0002000E arg=\"\"}}\n{{fun_00030011 arg=\"0x0000\"}}!{{pageBreak}}{{anim id=\"26\"}}Roh là là...{{delay frames=\"20\"}} La honte...{{pageBreak}}{{anim id=\"0\"}}Enfin, c'est à ça que servent les\ncapsules temporelles, pas vrai?{{pageBreak}}{{anim id=\"23\"}}Tiens?{{delay frames=\"20\"}} Une lettre?"
  },
  {
    "label": "032",
    "text": "{{anim id=\"2\"}}Ha ha ha!{{delay frames=\"20\"}} Je me demande bien quel\nabruti a pu écrire un truc pareil!{{delay frames=\"20\"}}{{anim id=\"1\"}}{{pageBreak}}{{anim id=\"9\"}}{{delay frames=\"20\"}}Arf.{{delay frames=\"20\"}} J'avais oublié que c'était moi{{delay frames=\"8\"}}.{{delay frames=\"8\"}}.{{delay frames=\"8\"}}."
  },
  {
    "label": "033",
    "text": "{{anim id=\"1\"}}J'allais oublier!{{delay frames=\"20\"}} Tous tes efforts\nont bien mérité une petite\nrécompense!\n{{anim id=\"0\"}}Allez, je vais te donner ce que\ncontenait la capsule,{{delay frames=\"20\"}} ça me semble\nde circonstance!"
  },
  {
    "label": "034",
    "text": "{{anim id=\"1\"}}Merci de t'être {{fun_0006000E arg=\"0x0C006F006300630075007000E9000E006F006300630075007000E9006500\"}} de ça pour\nmoi!{{delay frames=\"20\"}} Passons à ta récompense!"
  },
  {
    "label": "035",
    "text": "{{anim id=\"1\"}}Merci, {{fun_00080005 arg=\"\"}}!{{pageBreak}}Puisque tu es {{fun_0006000E arg=\"0x0C0063006800610072006700E9000E0063006800610072006700E9006500\"}} comme une\nmule, je t'enverrai ta récompense\npar voie postale,{{delay frames=\"20\"}} {{fun_00070005 arg=\"\"}}!"
  },
  {
    "label": "036",
    "text": "C'est {{fun_0002000E arg=\"\"}}{{fun_00030011 arg=\"0x0100\"}}!{{delay frames=\"15\"}}\n{{anim id=\"38\"}}Remettons ça un de ces jours!"
  },
  {
    "label": "037",
    "text": ""
  },
  {
    "label": "038",
    "text": ""
  },
  {
    "label": "039",
    "text": ""
  },
  {
    "label": "040",
    "text": ""
  },
  {
    "label": "041",
    "text": ""
  },
  {
    "label": "042",
    "text": ""
  },
  {
    "label": "043",
    "text": ""
  },
  {
    "label": "044",
    "text": ""
  },
  {
    "label": "045",
    "text": ""
  },
  {
    "label": "046",
    "text": ""
  },
  {
    "label": "047",
    "text": ""
  },
  {
    "label": "048",
    "text": ""
  },
  {
    "label": "049",
    "text": ""
  },
  {
    "label": "050",
    "text": "{{anim id=\"18\"}}Tu plaisantes?!{{delay frames=\"20\"}} Tu as ouvert ma\ncapsule!{{pageBreak}}{{anim id=\"6\"}}À ta place, je ne prendrais pas ces\nhistoires d'espace-temps à la\nlégère!{{delay frames=\"15\"}} Mais bref, rends-la-moi."
  },
  {
    "label": "051",
    "text": "{{anim id=\"8\"}}Ne t'avise pas de me refaire le\ncoup, {{fun_00080005 arg=\"\"}}. À moins que tu ne\ntiennes à me voir fâché, très fâché{{delay frames=\"8\"}}.{{delay frames=\"8\"}}.{{delay frames=\"8\"}}.{{delay frames=\"20\"}}{{anim id=\"6\"}}"
  },
  {
    "label": "052",
    "text": "{{anim id=\"18\"}}{{fun_000B0007 arg=\"\"}}Nom d'un...?!{{delay frames=\"40\"}} Elle est complètement\nvide!{{pageBreak}}{{anim id=\"12\"}}C'est pas bien ce que tu as fait là,\n{{fun_00080005 arg=\"\"}}, pas bien du tout{{delay frames=\"8\"}}.{{delay frames=\"8\"}}.{{delay frames=\"8\"}}."
  },
  {
    "label": "053",
    "text": "{{anim id=\"23\"}}Quoi?!{{delay frames=\"20\"}} Ma capsule a été ouverte...{{delay frames=\"20\"}}\net pillée au passage...?{{pageBreak}}{{anim id=\"7\"}}{{fun_000B0007 arg=\"\"}}{{fun_0003000E arg=\"\"}}{{fun_00080005 arg=\"\"}}!{{delay frames=\"20\"}} Fais-moi 700\npompes!{{delay frames=\"20\"}} TOUT DE SUITE!"
  }
]