﻿[
  {
    "label": "001",
    "text": "{{anim id=\"1\"}}Ce trajet n'a plus de secrets pour\nmoi{{delay frames=\"8\"}}.{{delay frames=\"8\"}}.{{delay frames=\"8\"}}.{{delay frames=\"20\"}} Mais c'est toujours plus cool\nde le faire à deux,{{delay frames=\"8\"}} {{fun_00070005 arg=\"\"}}!"
  },
  {
    "label": "002",
    "text": "{{anim id=\"23\"}}Qu'est-ce qui t'arrive?{{delay frames=\"20\"}} Des\ncrampes aux orteils, peut-être?{{pageBreak}}{{anim id=\"6\"}}On est presque arrivés, alors\naccroche-toi!"
  },
  {
    "label": "003",
    "text": "{{anim id=\"23\"}}Tu ne sais plus où j'habite?{{pageBreak}}{{anim id=\"21\"}}Consulte la carte,{{delay frames=\"8\"}} {{fun_00070005 arg=\"\"}}.{{delay frames=\"15\"}} {{anim id=\"1\"}}Elle\nn'est pas là juste pour faire joli, tu\nsais!"
  },
  {
    "label": "004",
    "text": "{{anim id=\"23\"}}Tu veux que je passe devant,{{delay frames=\"8\"}}\n{{fun_00070005 arg=\"\"}}?{{pageBreak}}{{anim id=\"2\"}}Désolé, mais non, {{fun_0006000E arg=\"0x1400700065007400690074002000670061007200730012006D00610020006700720061006E0064006500\"}}.{{delay frames=\"20\"}} Ce\nn'est pas en me suivant bêtement\nque tu mémoriseras le chemin!{{delay frames=\"15\"}}{{anim id=\"37\"}}"
  },
  {
    "label": "005",
    "text": "{{anim id=\"13\"}}J'étais en train de me dire que je\nn'avais pas fait le ménage depuis\nquelque temps,{{delay frames=\"8\"}} {{fun_00070005 arg=\"\"}}!\n{{anim id=\"2\"}}Bah, ça donnera un cachet plus\nauthentique à ta visite, {{fun_00080005 arg=\"\"}}!"
  },
  {
    "label": "006",
    "text": "{{anim id=\"1\"}}C'est la première fois que tu viens\nchez moi, non, {{fun_00080005 arg=\"\"}}?{{pageBreak}}{{anim id=\"38\"}}J'espère que tu es tout aussi {{fun_0006000E arg=\"0x0600E9006D0075000800E9006D0075006500\"}}\nque moi,{{delay frames=\"20\"}} {{fun_00070005 arg=\"\"}}!"
  },
  {
    "label": "007",
    "text": "{{anim id=\"11\"}}Essaie d'imaginer à quoi ressemble\nmon intérieur{{delay frames=\"8\"}}.{{delay frames=\"8\"}}.{{delay frames=\"8\"}}.{{pageBreak}}{{anim id=\"1\"}}Comme ça, une fois qu'on sera\narrivés, tu verras si tu avais mis\ndans le mille ou pas!"
  },
  {
    "label": "008",
    "text": "Ne t'inquiète pas! Je ne te lâche\npas d'une semelle!"
  },
  {
    "label": "009",
    "text": "{{anim id=\"11\"}}À quand remonte ta dernière visite\nchez moi?{{pageBreak}}Hmm{{delay frames=\"8\"}}.{{delay frames=\"8\"}}.{{delay frames=\"8\"}}.{{delay frames=\"20\"}} {{anim id=\"1\"}}Moi aussi, j'ai un doute...{{delay frames=\"20\"}} Ce\nqui est sûr, c'est que ça devait être\nfun,{{delay frames=\"20\"}} {{fun_00070005 arg=\"\"}}!"
  },
  {
    "label": "010",
    "text": "{{anim id=\"1\"}}Quand on arrivera, essaie de trouver\nce qui a changé chez moi depuis ta\ndernière visite!\n{{anim id=\"2\"}}Il y a des chances que tout soit\nresté exactement à la même place,\ncela dit!{{delay frames=\"15\"}}{{anim id=\"37\"}}"
  },
  {
    "label": "011",
    "text": "{{anim id=\"1\"}}Si tu reviens, c'est que l'accueil\navait dû être à ton goût la dernière\nfois,{{delay frames=\"20\"}} {{fun_00070005 arg=\"\"}}!"
  },
  {
    "label": "012",
    "text": "{{anim id=\"15\"}}On peut savoir ce que tu\nfabriques?!{{delay frames=\"20\"}} On est censés aller\nchez moi, pas chez toi..."
  },
  {
    "label": "013",
    "text": "{{anim id=\"13\"}}Hé!{{delay frames=\"10\"}} Je suis toujours partant pour\npiquer une tête, tu sais.{{delay frames=\"20\"}} Mais je\npréfère te prévenir{{delay frames=\"8\"}}.{{delay frames=\"8\"}}.{{delay frames=\"8\"}}.\n{{anim id=\"11\"}}On arrivera chez moi bien plus vite\nen y allant à pied!"
  },
  {
    "label": "014",
    "text": "{{anim id=\"15\"}}Euh?!{{delay frames=\"20\"}} Tu as un train à prendre?{{delay frames=\"20\"}}\nMaintenant?!{{pageBreak}}{{anim id=\"23\"}}Et donc, on remet la visite à plus\ntard, c'est ça?{{endTag}}\nNon, allons-y!\nOui, ça m'arrangerait."
  },
  {
    "label": "015",
    "text": "{{anim id=\"1\"}}Ben allez, je te suis!{{delay frames=\"20\"}} Et si tu veux\nmon avis, pas besoin de prendre le\ntrain, hein!"
  },
  {
    "label": "016",
    "text": "{{anim id=\"9\"}}Ah bon{{delay frames=\"8\"}}.{{delay frames=\"8\"}}.{{delay frames=\"8\"}}.{{delay frames=\"20\"}} {{anim id=\"40\"}}Bah, c'est toi qui vois.{{delay frames=\"20\"}} {{anim id=\"1\"}}Une\nprochaine fois, peut-être..."
  },
  {
    "label": "017",
    "text": "{{anim id=\"15\"}}Tu as des courses à faire?{{delay frames=\"20\"}} Et ça ne\npeut pas attendre?!{{fun_00010007 arg=\"\"}} {{anim id=\"9\"}}J'ai des choses\nà gérer après ta visite, tu sais...\n{{anim id=\"23\"}}Va falloir faire un choix, {{fun_0006000E arg=\"0x1400700065007400690074002000670061007200730012006D00610020006700720061006E0064006500\"}}.{{delay frames=\"20\"}}\nShopping ou visite?{{endTag}}\nVisite!\nShopping!"
  },
  {
    "label": "018",
    "text": "{{anim id=\"1\"}}OK! Alors en route!"
  },
  {
    "label": "019",
    "text": "Bien reçu!{{delay frames=\"20\"}} {{anim id=\"1\"}}Une prochaine fois,\nalors!"
  },
  {
    "label": "020",
    "text": "{{anim id=\"15\"}}Euh...!{{delay frames=\"20\"}} On est chez {{fun_00010011 arg=\"0x0000\"}}, là!{{pageBreak}}{{anim id=\"13\"}}Tu es {{fun_0006000E arg=\"0x0A00700065007200640075000C00700065007200640075006500\"}}?{{delay frames=\"20\"}} Tout va bien?{{delay frames=\"20\"}} Tu\nt'appelles {{fun_00000005 arg=\"\"}}!{{delay frames=\"20\"}} On est à\n{{fun_00060005 arg=\"\"}}!"
  },
  {
    "label": "021",
    "text": "{{anim id=\"15\"}}Tu es au courant que je n'habite pas\nici, hein?{{fun_00010007 arg=\"\"}} {{anim id=\"6\"}}Bon!{{delay frames=\"20\"}} C'est reparti!"
  },
  {
    "label": "022",
    "text": "{{anim id=\"9\"}}Désolé, {{fun_00080005 arg=\"\"}}!{{delay frames=\"20\"}} Courir, ça va\nun temps, mais là, c'est l'heure\nd'aller lever de la fonte!\n{{anim id=\"1\"}}Ta visite devra attendre,{{delay frames=\"20\"}}\n{{fun_00070005 arg=\"\"}}!"
  },
  {
    "label": "023",
    "text": "{{anim id=\"13\"}}Nom d'un rat tisseur!{{delay frames=\"20\"}} Comment\nest-ce qu'il peut déjà être\n{{fun_00030004 arg=\"\"}} h {{fun_00040004 arg=\"\"}}?!\n{{anim id=\"9\"}}Bon{{delay frames=\"8\"}}.{{delay frames=\"8\"}}.{{delay frames=\"8\"}}.{{delay frames=\"20\"}} Je vais devoir rentrer.{{pageBreak}}{{anim id=\"1\"}}D'ailleurs, tu devrais en faire\nautant!{{delay frames=\"40\"}} On ira s'amuser chez moi\nune prochaine fois,{{delay frames=\"8\"}} {{fun_00070005 arg=\"\"}}."
  },
  {
    "label": "024",
    "text": "{{anim id=\"1\"}}Enfin nous y voilà!{{delay frames=\"8\"}} Mais je t'en prie,\nentre!"
  },
  {
    "label": "025",
    "text": "{{anim id=\"5\"}}Juste une seconde, le temps\nd'ouvrir la porte..."
  },
  {
    "label": "026",
    "text": "{{anim id=\"5\"}}On est arrivés!{{delay frames=\"20\"}} Entrons!"
  },
  {
    "label": "027",
    "text": "{{anim id=\"13\"}}{{fun_000B0007 arg=\"\"}}Ho, {{fun_00080005 arg=\"\"}}!{{delay frames=\"20\"}} Attends-moi, bon\nsang!{{delay frames=\"20\"}} {{fun_0003000E arg=\"\"}}{{fun_00070005 arg=\"\"}}!"
  },
  {
    "label": "028",
    "text": "{{anim id=\"13\"}}{{fun_000B0007 arg=\"\"}}Hé!{{delay frames=\"20\"}} C'est quoi que tu ne comprends\npas dans « Attends-moi »?!{{pageBreak}}{{anim id=\"12\"}}Han han{{delay frames=\"8\"}}.{{delay frames=\"8\"}}.{{delay frames=\"8\"}}.{{delay frames=\"20\"}} Je suis sur les rotules.{{delay frames=\"10\"}}\nComment tu fais pour,{{delay frames=\"10\"}} han,{{delay frames=\"10\"}} courir\naussi vite?!{{delay frames=\"20\"}} Han han{{delay frames=\"8\"}}.{{delay frames=\"8\"}}.{{delay frames=\"8\"}}.{{pageBreak}}{{anim id=\"40\"}}En tout cas, j'abandonne.{{delay frames=\"20\"}} {{anim id=\"0\"}}J'ai\nbesoin d'une bonne sieste!{{delay frames=\"10\"}} Ciao,\n{{fun_00080005 arg=\"\"}}!"
  }
]