﻿[
  {
    "label": "001",
    "text": "{{anim id=\"1\"}}Assure-toi {{fun_000A000E arg=\"0x080071007500650020000600710075002700\"}}{{fun_00010011 arg=\"0x0000\"}} reçoive\nson cadeau, OK?{{delay frames=\"8\"}} {{fun_0003000E arg=\"\"}}{{fun_00070005 arg=\"\"}}?"
  },
  {
    "label": "002",
    "text": "Rappelle-toi... Tu m'as promis de\nlivrer quelque chose à {{fun_00010011 arg=\"0x0000\"}} de\nma part.{{delay frames=\"40\"}} {{anim id=\"9\"}}Espérons que ça {{fun_0008000E arg=\"0x00CD04006C00650004006C0061000000\"}} calme{{delay frames=\"8\"}}.{{delay frames=\"8\"}}.{{delay frames=\"8\"}}."
  },
  {
    "label": "003",
    "text": "{{anim id=\"6\"}}Tu dois rendre son truc à\n{{fun_00010011 arg=\"0x0000\"}} pour moi, OK?"
  },
  {
    "label": "004",
    "text": "Fais en sorte que {{fun_00010011 arg=\"0x0000\"}}\nrécupère le bidule qu'{{fun_0008000E arg=\"0x00CD040069006C00080065006C006C0065000000\"}} avait\nperdu!"
  },
  {
    "label": "005",
    "text": "Tu as une livraison à faire!{{fun_00010007 arg=\"\"}}\n{{anim id=\"1\"}}Destinataire : {{fun_00010011 arg=\"0x0000\"}}!\n{{delay frames=\"20\"}}Ne te plante pas!"
  },
  {
    "label": "006",
    "text": "Assure-toi {{fun_000A000E arg=\"0x080071007500650020000600710075002700\"}}{{fun_00010011 arg=\"0x0000\"}} reçoive\nl'objet que je t'ai confié!"
  }
]