﻿[
  {
    "label": "001",
    "text": "{{anim id=\"7\"}}Tiens, tiens! T'as pas l'impression\nd'avoir oublié un truc, par hasard?{{pageBreak}}{{anim id=\"0\"}}Tu étais {{fun_0006000E arg=\"0x0A00630065006E007300E9000C00630065006E007300E9006500\"}} passer chez moi{{delay frames=\"8\"}}.{{delay frames=\"8\"}}.{{delay frames=\"8\"}}.{{delay frames=\"20\"}}\nJ'avais fait tout mon possible pour\nte recevoir comme {{fun_0006000E arg=\"0x120075006E0020007000720069006E00630065001A0075006E00650020007000720069006E0063006500730073006500\"}}!\n{{anim id=\"6\"}}Refais jamais ça ou je t'inscris à\nmon prochain stage commando sans\nte demander ton avis!"
  },
  {
    "label": "002",
    "text": "{{anim id=\"9\"}}Ouais, je sais... Je t'avais {{fun_0006000E arg=\"0x0C0069006E00760069007400E9000E0069006E00760069007400E9006500\"}} à\nvenir visiter ma maison{{delay frames=\"8\"}}.{{delay frames=\"8\"}}.{{delay frames=\"8\"}}.{{pageBreak}}Je suis vraiment désolé, {{anim id=\"41\"}}mais j'ai dû\nm'absenter à la dernière minute{{delay frames=\"8\"}}.{{delay frames=\"8\"}}.{{delay frames=\"8\"}}.{{pageBreak}}{{anim id=\"13\"}}La prochaine fois, quoi qu'il arrive,\nje tiendrai ma promesse! Ne m'en\nveux pas!"
  },
  {
    "label": "003",
    "text": "{{fun_0003000E arg=\"\"}}{{fun_00080005 arg=\"\"}}! Je te dois des\nexcuses!{{pageBreak}}Tu as dû trouver porte close si tu es\n{{fun_0006000E arg=\"0x0A007000610073007300E9000C007000610073007300E9006500\"}} chez moi à l'heure qu'on\ns'était fixée...\n{{anim id=\"9\"}}Un truc à régler en urgence m'est\ntombé dessus sans prévenir{{delay frames=\"8\"}}.{{delay frames=\"8\"}}.{{delay frames=\"8\"}}.{{delay frames=\"20\"}} {{anim id=\"41\"}}Je\nsuis désolé!\nSi tu veux, pour me racheter, je fais\nle tour de la ville en criant :\n« {{fun_0003000E arg=\"\"}}{{fun_00080005 arg=\"\"}} est super cool! »"
  },
  {
    "label": "004",
    "text": "Dis donc, {{fun_00080005 arg=\"\"}}! Va falloir\nt'expliquer, {{fun_0006000E arg=\"0x1400700065007400690074002000670061007200730012006D00610020006700720061006E0064006500\"}}!\n{{fun_0003000E arg=\"\"}}{{fun_00070005 arg=\"\"}}!\n{{anim id=\"6\"}}Fais pas comme si tu voyais pas de\nquoi je veux parler!{{delay frames=\"8\"}} T'as disparu\nalors qu'on marchait tous les deux!\n{{anim id=\"9\"}}Passons sur le fait que tu n'aies pas\npu visiter ma maison...{{pageBreak}}{{anim id=\"12\"}}Ce qui ne me plaît pas du tout, c'est\nla vitesse à laquelle t'as détalé!\nDepuis quand t'es si rapide?"
  }
]