﻿[
  {
    "label": "001",
    "text": "{{anim id=\"32\"}}Yo {{fun_00080005 arg=\"\"}}! Comme d'hab\nsteuplé!"
  },
  {
    "label": "002",
    "text": "{{anim id=\"15\"}}Hein?!{{delay frames=\"40\"}} {{fun_0003000E arg=\"\"}}{{fun_00080005 arg=\"\"}}? Tu bosses à\ntemps partiel ici, maintenant?{{pageBreak}}{{anim id=\"1\"}}Bon ben{{delay frames=\"8\"}}.{{delay frames=\"8\"}}.{{delay frames=\"8\"}}.{{delay frames=\"20\"}} dans ce cas, sers-moi ce\nque je prends d'habitude!"
  },
  {
    "label": "003",
    "text": ""
  },
  {
    "label": "004",
    "text": "Yo! Un {{color id=\"2\"}}Blue Mountain {{color id=\"65535\"}}steuplé!"
  },
  {
    "label": "005",
    "text": "Yo! Un {{color id=\"2\"}}{{color id=\"2\"}}moka{{color id=\"2\"}} {{color id=\"65535\"}}steuplé!"
  },
  {
    "label": "006",
    "text": "Yo! Un {{color id=\"2\"}}{{color id=\"2\"}}Kilimandjaro{{color id=\"2\"}} {{color id=\"65535\"}}steuplé!"
  },
  {
    "label": "007",
    "text": "Yo! Un {{color id=\"2\"}}{{color id=\"2\"}}mélange{{color id=\"2\"}} {{color id=\"65535\"}}steuplé!"
  },
  {
    "label": "008",
    "text": "Un café steuplé!\nAvec {{color id=\"2\"}}une tonne de lait{{color id=\"65535\"}}, merci!"
  },
  {
    "label": "009",
    "text": "Un café steuplé!\nAvec {{color id=\"2\"}}un nuage de lait{{color id=\"65535\"}}, merci!"
  },
  {
    "label": "010",
    "text": "Un café steuplé!\nAvec {{color id=\"2\"}}une pointe de lait{{color id=\"65535\"}}, merci!"
  },
  {
    "label": "011",
    "text": "Un café steuplé!\nEt {{color id=\"2\"}}noir{{color id=\"65535\"}}, merci!"
  },
  {
    "label": "012",
    "text": "Un café steuplé!{{pageBreak}}Avec {{color id=\"2\"}}trois sucres{{color id=\"65535\"}}, merci!"
  },
  {
    "label": "013",
    "text": "Un café steuplé!{{pageBreak}}Avec {{color id=\"2\"}}deux sucres{{color id=\"65535\"}}, merci!"
  },
  {
    "label": "014",
    "text": "Un café steuplé!{{pageBreak}}Avec {{color id=\"2\"}}seulement un sucre{{color id=\"65535\"}}, merci!"
  },
  {
    "label": "015",
    "text": "Un café steuplé!{{pageBreak}}{{color id=\"2\"}}Sans sucre{{color id=\"65535\"}}, merci!"
  },
  {
    "label": "016",
    "text": "{{anim id=\"1\"}}Hé hé! Voyons voir si tu l'as\nréussi!"
  },
  {
    "label": "017",
    "text": "{{anim id=\"35\"}}Voyons voir{{delay frames=\"8\"}}.{{delay frames=\"8\"}}.{{delay frames=\"8\"}}.{{delay frames=\"20\"}}"
  },
  {
    "label": "018",
    "text": "OK! Place à la dégustation{{delay frames=\"8\"}}.{{delay frames=\"8\"}}.{{delay frames=\"8\"}}."
  },
  {
    "label": "019",
    "text": "{{anim id=\"18\"}}{{fun_000B0007 arg=\"\"}}C-{{delay frames=\"20\"}}{{fun_000B0007 arg=\"\"}}C'est parfait!{{fun_000E0007 arg=\"\"}}{{delay frames=\"40\"}} {{anim id=\"1\"}}C'est\nEXACTEMENT ce que je voulais!{{delay frames=\"20\"}}\nChapeau bas, {{fun_00080005 arg=\"\"}}!{{pageBreak}}Je ne te savais pas si {{fun_0006000E arg=\"0x080064006F007500E9000A0064006F007500E9006500\"}} pour\nservir le café! Tu m'impressionnes,\n{{delay frames=\"8\"}}{{fun_00070005 arg=\"\"}}!"
  },
  {
    "label": "020",
    "text": "{{anim id=\"31\"}}{{delay frames=\"15\"}}Ya{{fun_000B0007 arg=\"\"}}hooooo!{{delay frames=\"20\"}} {{fun_000B0007 arg=\"\"}}Quel régal!{{delay frames=\"20\"}}{{anim id=\"37\"}}{{fun_000E0007 arg=\"\"}}{{pageBreak}}{{anim id=\"1\"}}C'est tout à fait ce que je voulais!\nOn dirait que tu as fait ça toute ta\nvie!{{pageBreak}}{{anim id=\"32\"}}Je repasserai, tu peux compter sur\nmoi!"
  },
  {
    "label": "021",
    "text": "{{anim id=\"21\"}}Super bon! Je me régale!{{fun_000E0007 arg=\"\"}}{{pageBreak}}{{anim id=\"43\"}}Hmmm{{delay frames=\"8\"}}.{{delay frames=\"8\"}}.{{delay frames=\"8\"}}.{{delay frames=\"20\"}} Je sens déjà l'énergie\nrevenir dans mes petits muscles\ntout fatigués{{delay frames=\"8\"}}.{{delay frames=\"8\"}}.{{delay frames=\"8\"}}.{{delay frames=\"20\"}}{{pageBreak}}{{anim id=\"38\"}}Hé hé! Tu t'en es {{fun_0006000E arg=\"0x0A0073006F007200740069000C0073006F007200740069006500\"}} comme un\nchef!{{delay frames=\"40\"}} Prépare-toi à souvent me\nrevoir dans le coin!{{delay frames=\"8\"}} {{fun_0003000E arg=\"\"}}{{fun_00070005 arg=\"\"}}!"
  },
  {
    "label": "022",
    "text": "{{anim id=\"15\"}}Waouh! Il est super bon!{{pageBreak}}Mais{{delay frames=\"8\"}}.{{delay frames=\"8\"}}.{{delay frames=\"8\"}}.{{delay frames=\"20\"}}{{anim id=\"9\"}} il y a un petit truc qui cloche,\nj'ai l'impression!{{pageBreak}}Rien de grave, mais je crois que tu\nn'as pas utilisé les bons{{color id=\"2\"}} grains de\ncafé{{color id=\"65535\"}}.{{pageBreak}}{{anim id=\"1\"}}T'inquiète, je suis sûr que la\nprochaine fois, ton café sera\nabsolument parfait, {{fun_00070005 arg=\"\"}}!"
  },
  {
    "label": "023",
    "text": "{{anim id=\"15\"}}Waouh! Il est super bon!\n{{delay frames=\"8\"}}.{{delay frames=\"8\"}}.{{delay frames=\"8\"}}.{{delay frames=\"20\"}}{{anim id=\"9\"}} Mais pas parfait pour autant...{{pageBreak}}Je crois que tu as {{color id=\"2\"}}mal dosé le lait{{color id=\"65535\"}}.{{pageBreak}}{{anim id=\"1\"}}Mais t'inquiète, je suis sûr que la\nprochaine fois, ton café sera\nabsolument parfait, {{fun_00070005 arg=\"\"}}!"
  },
  {
    "label": "024",
    "text": "{{anim id=\"15\"}}Waouh! Il est super bon!{{pageBreak}}{{delay frames=\"8\"}}.{{delay frames=\"8\"}}.{{delay frames=\"8\"}}.{{delay frames=\"20\"}}{{anim id=\"9\"}} Mais il y a un petit quelque chose\nqui cloche, j'ai l'impression!{{pageBreak}}Je crois bien que tu t'es {{fun_0006000E arg=\"0x0C00740072006F006D007000E9000E00740072006F006D007000E9006500\"}}\nsur {{color id=\"2\"}}la quantité de sucre{{color id=\"65535\"}}.{{pageBreak}}{{anim id=\"1\"}}Mais t'inquiète, je suis sûr que la\nprochaine fois, ton café sera\nabsolument parfait, {{fun_00070005 arg=\"\"}}!"
  },
  {
    "label": "025",
    "text": ""
  },
  {
    "label": "026",
    "text": ""
  },
  {
    "label": "027",
    "text": ""
  },
  {
    "label": "028",
    "text": "{{anim id=\"11\"}}Hmmm{{delay frames=\"8\"}}.{{delay frames=\"8\"}}.{{delay frames=\"8\"}}.{{delay frames=\"20\"}} C'est pas tout à fait ce\nque j'avais commandé{{delay frames=\"8\"}}.{{delay frames=\"8\"}}.{{delay frames=\"8\"}}.{{delay frames=\"20\"}}{{pageBreak}}{{anim id=\"1\"}}Bon, par contre, tu as assuré sur\nles {{color id=\"2\"}}grains de café{{color id=\"65535\"}}!{{pageBreak}}La prochaine fois, je compte sur toi\npour réussir un sans faute, {{fun_0006000E arg=\"0x0A007000650074006900740004006D006100\"}}\n{{fun_0006000E arg=\"0x080067006100720073000C006700720061006E0064006500\"}}!{{delay frames=\"8\"}} {{fun_0003000E arg=\"\"}}{{fun_00070005 arg=\"\"}}!"
  },
  {
    "label": "029",
    "text": "{{anim id=\"11\"}}Hmmm{{delay frames=\"8\"}}.{{delay frames=\"8\"}}.{{delay frames=\"8\"}}.{{delay frames=\"20\"}} C'est pas tout à fait ce\nque j'avais commandé{{delay frames=\"8\"}}.{{delay frames=\"8\"}}.{{delay frames=\"8\"}}.{{delay frames=\"20\"}}{{pageBreak}}{{anim id=\"1\"}}Bon, par contre, tu as assuré sur {{color id=\"2\"}}la\nquantité de lait{{color id=\"65535\"}}!{{pageBreak}}La prochaine fois, je compte sur toi\npour réussir un sans faute, {{fun_0006000E arg=\"0x0A007000650074006900740004006D006100\"}}\n{{fun_0006000E arg=\"0x080067006100720073000C006700720061006E0064006500\"}}!{{delay frames=\"8\"}} {{fun_0003000E arg=\"\"}}{{fun_00070005 arg=\"\"}}!"
  },
  {
    "label": "030",
    "text": "{{anim id=\"11\"}}Hmmm{{delay frames=\"8\"}}.{{delay frames=\"8\"}}.{{delay frames=\"8\"}}.{{delay frames=\"20\"}} C'est pas tout à fait ce\nque j'avais commandé{{delay frames=\"8\"}}.{{delay frames=\"8\"}}.{{delay frames=\"8\"}}.{{delay frames=\"20\"}}{{pageBreak}}{{anim id=\"1\"}}Bon, par contre, tu as assuré sur {{color id=\"2\"}}la\nquantité de sucre{{color id=\"65535\"}}!{{pageBreak}}La prochaine fois, je compte sur toi\npour réussir un sans faute, {{fun_0006000E arg=\"0x0A007000650074006900740004006D006100\"}}\n{{fun_0006000E arg=\"0x080067006100720073000C006700720061006E0064006500\"}}!{{delay frames=\"8\"}} {{fun_0003000E arg=\"\"}}{{fun_00070005 arg=\"\"}}!"
  },
  {
    "label": "031",
    "text": "{{anim id=\"40\"}}Ça ne va pas du tout!{{delay frames=\"40\"}} {{anim id=\"12\"}}Il n'y a rien\nqui correspond à ce que je t'ai\ncommandé!{{pageBreak}}{{anim id=\"2\"}}Je ne sais pas comment t'as fait,\nmais t'as réussi à te planter sur\ntoute la ligne!{{delay frames=\"8\"}}{{anim id=\"1\"}}{{pageBreak}}La prochaine fois, j'espère que le\nrésultat ne sera pas aussi\ncatastrophique, {{delay frames=\"8\"}}{{fun_00070005 arg=\"\"}}!"
  },
  {
    "label": "032",
    "text": ""
  },
  {
    "label": "033",
    "text": ""
  },
  {
    "label": "034",
    "text": ""
  },
  {
    "label": "035",
    "text": ""
  },
  {
    "label": "036",
    "text": ""
  },
  {
    "label": "037",
    "text": ""
  },
  {
    "label": "038",
    "text": ""
  },
  {
    "label": "039",
    "text": "\n{{anim id=\"15\"}}{{fun_000A0007 arg=\"\"}}{{size value=\"150\"}}QUEL RÉGAL!{{size value=\"100\"}}{{fun_000E0007 arg=\"\"}}{{pageBreak}}{{anim id=\"21\"}}Tu m'impressionnes! C'est pile-poil\nce dont j'avais envie!{{pageBreak}}{{anim id=\"1\"}}Je suis bien content d'avoir fait le\nchemin jusqu'ici pour venir prendre\nun café!\n{{anim id=\"38\"}}Hé hé! Chapeau bas!{{delay frames=\"8\"}}\n{{fun_0003000E arg=\"\"}}{{fun_00070005 arg=\"\"}}!"
  },
  {
    "label": "040",
    "text": "{{anim id=\"5\"}}Waouh! C'est parfait! Exactement\nce qu'il me fallait!{{fun_000E0007 arg=\"\"}}{{pageBreak}}{{anim id=\"43\"}}Hmmmm{{delay frames=\"8\"}}.{{delay frames=\"8\"}}.{{delay frames=\"8\"}}.{{delay frames=\"20\"}} Je sens déjà l'énergie\net la motivation revenir en moi!{{pageBreak}}{{anim id=\"1\"}}Merci beaucoup! Je reviendrai te\nvoir, ça c'est sûr! {{delay frames=\"8\"}}{{fun_0003000E arg=\"\"}}{{fun_00070005 arg=\"\"}}!"
  },
  {
    "label": "041",
    "text": ""
  },
  {
    "label": "042",
    "text": ""
  },
  {
    "label": "043",
    "text": ""
  },
  {
    "label": "044",
    "text": ""
  },
  {
    "label": "045",
    "text": ""
  },
  {
    "label": "046",
    "text": ""
  },
  {
    "label": "047",
    "text": ""
  },
  {
    "label": "048",
    "text": "Oh! Et je le voudrais avec\n{{color id=\"2\"}}une tonne de lait{{color id=\"65535\"}}, merci!"
  },
  {
    "label": "049",
    "text": "Oh! Et je le voudrais avec\n{{color id=\"2\"}}un nuage de lait{{color id=\"65535\"}}, merci!"
  },
  {
    "label": "050",
    "text": "Oh! Et je le voudrais avec\n{{color id=\"2\"}}une pointe de lait{{color id=\"65535\"}}, merci!"
  },
  {
    "label": "051",
    "text": "Oh! Et je le voudrais {{color id=\"2\"}}noir{{color id=\"65535\"}}, merci!"
  },
  {
    "label": "052",
    "text": "Oh! Et avec {{color id=\"2\"}}trois sucres{{color id=\"65535\"}}, merci!"
  },
  {
    "label": "053",
    "text": "Oh! Et avec {{color id=\"2\"}}deux sucres{{color id=\"65535\"}}, merci!"
  },
  {
    "label": "054",
    "text": "Oh! Et avec {{color id=\"2\"}}un seul sucre{{color id=\"65535\"}}, merci!"
  },
  {
    "label": "055",
    "text": "Oh! Et {{color id=\"2\"}}sans sucre{{color id=\"65535\"}}, merci!"
  }
]