﻿[
  {
    "label": "001",
    "text": "Je suis venu discuter avec les\npoissons...{{delay frames=\"15\"}} {{anim id=\"36\"}}Sont toujours d'accord\navec moi,{{delay frames=\"8\"}} eux{{delay frames=\"8\"}}.{{delay frames=\"8\"}}.{{delay frames=\"8\"}}."
  },
  {
    "label": "002",
    "text": "Je nage comme une brêle,{{delay frames=\"15\"}}{{anim id=\"27\"}} je ferais\nsûrement un très mauvais poisson{{delay frames=\"8\"}}.{{delay frames=\"8\"}}.{{delay frames=\"8\"}}.{{delay frames=\"20\"}}"
  },
  {
    "label": "003",
    "text": "On dirait que tu as découvert ma\ncachette. {{anim id=\"37\"}}Je me sens comme un\npoisson dans l'eau ici, {{anim id=\"2\"}}HA HA HA!"
  },
  {
    "label": "004",
    "text": "{{anim id=\"11\"}}Personne n'a jamais vu un poisson\ndormir.{{anim id=\"0\"}} Pfff, il suffit pourtant\nd'être un peu patient. Je guette..."
  },
  {
    "label": "005",
    "text": "Gros poisson non identifié à midi!\n{{anim id=\"2\"}}HA HA HA!{{delay frames=\"15\"}}{{anim id=\"1\"}}"
  }
]