﻿[
  {
    "label": "001",
    "text": "{{anim id=\"16\"}}Oh, super!{{delay frames=\"30\"}} T'es venu{{fun_0006000E arg=\"0x000002006500\"}}, {{fun_00080005 arg=\"\"}}!{{delay frames=\"40\"}}\n{{anim id=\"37\"}}Vas-y, entre,{{delay frames=\"20\"}} {{fun_00070005 arg=\"\"}}!"
  },
  {
    "label": "002",
    "text": "{{anim id=\"16\"}}Oh!{{delay frames=\"20\"}} T'es venu{{fun_0006000E arg=\"0x000002006500\"}} à ma petite fête\nd'anniversaire,{{delay frames=\"20\"}} {{fun_00080005 arg=\"\"}}!{{pageBreak}}{{anim id=\"26\"}}{{delay frames=\"16\"}}Waouh,{{delay frames=\"8\"}} ça me fait drôlement plaisir,\ntu sais{{delay frames=\"10\"}}.{{delay frames=\"10\"}}.{{delay frames=\"10\"}}.{{fun_00010007 arg=\"\"}} {{anim id=\"37\"}}Allez, entre!{{delay frames=\"10\"}} Te fais pas\nprier!"
  },
  {
    "label": "003",
    "text": "{{anim id=\"5\"}}C'est sympa de venir\nm'accompagner dans ce moment\ndifficile, {{fun_00080005 arg=\"\"}}!\n{{anim id=\"38\"}}Eh oui, un an de plus...{{delay frames=\"20\"}} Ahhh, ça me\nfait plaisir que tu sois là!{{delay frames=\"40\"}} {{anim id=\"37\"}}Allez,\nentre, installe-toi!"
  },
  {
    "label": "004",
    "text": "{{anim id=\"37\"}}{{fun_00010011 arg=\"0x0000\"}} vient d'arriver aussi,\n{{fun_0007000E arg=\"0x040069006C00080065006C006C006500\"}} m'a offert un super cadeau!\nEt toi,{{delay frames=\"20\"}} {{anim id=\"33\"}}qu'est-ce que tu as apporté?{{fun_0005000F arg=\"0x00000000\"}}\nTiens!\nOups..."
  },
  {
    "label": "005",
    "text": "{{anim id=\"39\"}}Hmmm,{{delay frames=\"8\"}} euh{{delay frames=\"10\"}}.{{delay frames=\"10\"}}.{{delay frames=\"10\"}}. si jamais t'as{{delay frames=\"10\"}} un\ncadeau, {{anim id=\"1\"}}tu peux me le donner\nmaintenant, y'a pas de problème!{{fun_0005000F arg=\"0x00000000\"}}\nBien sûr, tiens!\nAh non, il fallait?"
  },
  {
    "label": "006",
    "text": "{{anim id=\"11\"}}{{delay frames=\"16\"}}Alors?{{delay frames=\"15\"}} {{anim id=\"1\"}}Hé hé,{{delay frames=\"10\"}} tu l'as caché où?{{delay frames=\"40\"}}\n{{anim id=\"36\"}}T'as bien un cadeau pour moi, non?{{delay frames=\"20\"}}\nAllez, tu me fais marcher...{{fun_0005000F arg=\"0x00000000\"}}\nOui, le voilà!\nNon, je te jure..."
  },
  {
    "label": "007",
    "text": "{{anim id=\"38\"}}Ha ha ha!{{fun_00010007 arg=\"\"}} {{anim id=\"1\"}}Aucun problème!{{delay frames=\"15\"}} Je\nt'assure!!!{{pageBreak}}{{anim id=\"36\"}}J'ai plus de place de toute façon!\nEt t'es là, c'est tout ce qui compte.{{delay frames=\"20\"}}\nLa bonne blague, {{anim id=\"2\"}}HA HA HA!{{delay frames=\"30\"}}{{anim id=\"1\"}}"
  },
  {
    "label": "008",
    "text": "{{anim id=\"40\"}}Oh,{{delay frames=\"8\"}} c'est pas grave!{{delay frames=\"40\"}} Et puis,\n{{fun_00010011 arg=\"0x0000\"}} y a pensé, {{fun_0007000E arg=\"0x06006C0075006900080065006C006C006500\"}}, alors t'en\nfais pas...\n{{anim id=\"11\"}}T'auras qu'à me faire deux cadeaux\nl'année prochaine{{delay frames=\"10\"}}.{{delay frames=\"10\"}}.{{delay frames=\"10\"}}."
  },
  {
    "label": "009",
    "text": "{{anim id=\"2\"}}HA HA HA!{{delay frames=\"30\"}} {{anim id=\"1\"}}C'est tout toi, ça!{{pageBreak}}{{anim id=\"36\"}}Arriver les mains vides à mon\nanniversaire...{{fun_00010007 arg=\"\"}} {{anim id=\"2\"}}HA HA HA!{{delay frames=\"30\"}} {{anim id=\"36\"}}Fallait\noser, tiens{{delay frames=\"30\"}}.{{delay frames=\"30\"}}.{{delay frames=\"30\"}}.{{delay frames=\"30\"}} {{anim id=\"2\"}}HA HA HA!{{delay frames=\"30\"}}{{anim id=\"1\"}}"
  },
  {
    "label": "010",
    "text": "{{anim id=\"15\"}}Un cadeau?{{delay frames=\"20\"}} Pour moi?!{{delay frames=\"40\"}}\n{{anim id=\"37\"}}Hé hé hé,{{delay frames=\"20\"}} je me demande bien ce\nque ça peut-être..."
  },
  {
    "label": "011",
    "text": "{{anim id=\"16\"}}Ouah!{{delay frames=\"20\"}} T'y as pensé!{{delay frames=\"30\"}} {{anim id=\"36\"}}Je me sens\ntout bête d'avoir réclamé du coup.{{delay frames=\"40\"}}\nHé hé hé{{delay frames=\"8\"}}.{{delay frames=\"8\"}}.{{delay frames=\"8\"}}."
  },
  {
    "label": "012",
    "text": "{{anim id=\"38\"}}C'est pour moi?{{delay frames=\"30\"}} {{anim id=\"37\"}}Je peux l'ouvrir?"
  },
  {
    "label": "013",
    "text": "{{anim id=\"16\"}}Ouah!{{delay frames=\"30\"}} {{anim id=\"1\"}}C'est toi qui l'as fait?{{pageBreak}}{{anim id=\"21\"}}Maintenant qu'il y a du gâteau,{{delay frames=\"10\"}} on\nva pouvoir passer aux choses\nsérieuses!{{delay frames=\"40\"}} {{anim id=\"37\"}}Merci, {{fun_00080005 arg=\"\"}}!"
  },
  {
    "label": "014",
    "text": "{{anim id=\"15\"}}Oh!{{delay frames=\"30\"}} {{fun_0003000E arg=\"\"}}{{fun_0002000E arg=\"\"}}{{fun_00030011 arg=\"0x0000\"}}!{{delay frames=\"40\"}}\n{{anim id=\"38\"}}Bonne idée!{{pageBreak}}{{anim id=\"37\"}}C'est drôle, j'en ai déjà {{fun_0008000E arg=\"0x00CD040075006E00060075006E0065000000\"}},\njustement.{{delay frames=\"10\"}} {{anim id=\"21\"}}Mais on en a jamais\nassez!{{delay frames=\"40\"}} {{anim id=\"32\"}}Merci, {{fun_00080005 arg=\"\"}}!"
  },
  {
    "label": "015",
    "text": "{{anim id=\"15\"}}Oh,{{delay frames=\"30\"}} {{fun_0002000E arg=\"\"}}{{fun_00030011 arg=\"0x0000\"}}!{{fun_00010007 arg=\"\"}}\n{{anim id=\"37\"}}Je saurai quoi mettre quand {{fun_0008000E arg=\"0x00CD0A00630065006C00750069000A00630065006C006C0065000000\"}}\nque je porte sera au lavage!\n{{anim id=\"36\"}}Je voulais justement m'en acheter\n{{fun_0008000E arg=\"0x00CD040075006E00060075006E0065000000\"}} deuxième, en plus{{delay frames=\"10\"}}.{{delay frames=\"10\"}}.{{delay frames=\"10\"}}.{{delay frames=\"40\"}} {{anim id=\"32\"}}Merci!"
  },
  {
    "label": "016",
    "text": "{{anim id=\"16\"}}Oh,{{delay frames=\"30\"}} {{fun_0002000E arg=\"\"}}{{fun_00030011 arg=\"0x0000\"}}?{{delay frames=\"20\"}}\n{{anim id=\"36\"}}{{fun_0008000E arg=\"0x00CD04004C00650004004C0061000000\"}} même que {{fun_0008000E arg=\"0x00CD0A00630065006C00750069000A00630065006C006C0065000000\"}} que tu portes, en\nplus?{{pageBreak}}Euh{{delay frames=\"10\"}}.{{delay frames=\"10\"}}.{{delay frames=\"10\"}}. {{anim id=\"26\"}}{{delay frames=\"16\"}}tu veux{{delay frames=\"20\"}} qu'on s'habille pareil,\ntoi et moi?{{delay frames=\"20\"}} {{anim id=\"2\"}}HA HA HA!{{delay frames=\"30\"}}{{anim id=\"1\"}}"
  },
  {
    "label": "017",
    "text": "{{anim id=\"16\"}}Oh!{{delay frames=\"30\"}} {{fun_0003000E arg=\"\"}}{{fun_0002000E arg=\"\"}}{{fun_00030011 arg=\"0x0000\"}}!{{pageBreak}}{{anim id=\"26\"}}{{delay frames=\"16\"}}Comment tu as su que ça me\nplairait?{{delay frames=\"30\"}} Tu me connais vraiment\nbien, {{fun_00080005 arg=\"\"}}{{delay frames=\"10\"}}.{{delay frames=\"10\"}}.{{delay frames=\"10\"}}. Merci!"
  },
  {
    "label": "018",
    "text": "{{anim id=\"16\"}}Oh!{{delay frames=\"30\"}} {{anim id=\"5\"}}{{fun_0003000E arg=\"\"}}{{fun_0002000E arg=\"\"}}{{fun_00030011 arg=\"0x0000\"}}!\nPile-poil {{fun_0008000E arg=\"0x00CD0A00630065006C00750069000A00630065006C006C0065000000\"}} que je voulais!{{pageBreak}}{{anim id=\"36\"}}Mais comment t'as su?{{delay frames=\"20\"}} Tu lis pas\ndans mes pensées, dis, oh?!{{pageBreak}}{{anim id=\"38\"}}En tout cas, merci {{fun_00080005 arg=\"\"}}!"
  },
  {
    "label": "019",
    "text": "{{anim id=\"16\"}}Oh!{{delay frames=\"30\"}} Sans blague{{delay frames=\"10\"}}.{{delay frames=\"10\"}}.{{delay frames=\"10\"}}. C'est {{fun_0002000E arg=\"\"}}\n{{fun_00030011 arg=\"0x0000\"}}?!{{pageBreak}}{{anim id=\"1\"}}Tu m'épates,{{delay frames=\"20\"}} {{fun_00080005 arg=\"\"}}!{{delay frames=\"30\"}} Comment\nt'as su que j'en voulais {{fun_0008000E arg=\"0x00CD040075006E00060075006E0065000000\"}}? {{anim id=\"32\"}}Merci!"
  },
  {
    "label": "020",
    "text": "Eh,{{delay frames=\"20\"}} {{fun_0002000E arg=\"\"}}{{fun_00030011 arg=\"0x0000\"}}?{{pageBreak}}{{anim id=\"37\"}}Ben tu vois,{{delay frames=\"10\"}} je m'y attendais pas du\ntout{{delay frames=\"10\"}}.{{delay frames=\"10\"}}.{{delay frames=\"10\"}}.{{delay frames=\"10\"}} mais je suis bien content\nque tu me l'aies offert{{fun_0008000E arg=\"0x00CD0000020065000000\"}}!\n{{anim id=\"36\"}}C'est fait pour ça les anniversaires!{{delay frames=\"30\"}}\n{{anim id=\"32\"}}Merci!"
  },
  {
    "label": "021",
    "text": "{{anim id=\"16\"}}Oh,{{delay frames=\"15\"}} {{fun_0002000E arg=\"\"}}{{fun_00030011 arg=\"0x0000\"}}?{{fun_00010007 arg=\"\"}}\n{{anim id=\"11\"}}{{delay frames=\"16\"}}J'aurais jamais pensé à acheter ça{{delay frames=\"8\"}}.{{delay frames=\"8\"}}.{{delay frames=\"8\"}}.{{pageBreak}}{{anim id=\"37\"}}Et je serais peut-être passé à côté\nde quelque chose!{{delay frames=\"15\"}} {{anim id=\"38\"}}Merci,\n{{fun_00080005 arg=\"\"}}!"
  },
  {
    "label": "022",
    "text": "{{anim id=\"16\"}}.{{delay frames=\"10\"}}.{{delay frames=\"10\"}}.{{delay frames=\"10\"}} {{fun_0003000E arg=\"\"}}{{fun_0002000E arg=\"\"}}{{fun_00030011 arg=\"0x0000\"}}?!{{pageBreak}}{{anim id=\"13\"}}Oh,{{delay frames=\"20\"}} c'est pas que j'aime pas!{{delay frames=\"20\"}} Je\nsuis surpris, c'est tout.{{pageBreak}}{{anim id=\"1\"}}En tout cas, je salue la prise de\nrisque! {{anim id=\"32\"}}Merci, {{fun_00080005 arg=\"\"}}!"
  },
  {
    "label": "023",
    "text": "{{anim id=\"16\"}}Oh!{{delay frames=\"20\"}} {{anim id=\"9\"}}Je peux pas accepter{{delay frames=\"10\"}}.{{delay frames=\"10\"}}.{{delay frames=\"10\"}}. Ça me\ngêne, sérieux!{{pageBreak}}{{anim id=\"11\"}}{{delay frames=\"16\"}}Un chèque cadeau à la limite, je\nveux bien, mais là{{delay frames=\"8\"}}.{{delay frames=\"8\"}}.{{delay frames=\"8\"}}.{{pageBreak}}{{anim id=\"37\"}}Non, pas de ça entre nous!{{delay frames=\"20\"}} Tiens, je\nte le rends."
  },
  {
    "label": "024",
    "text": "{{anim id=\"18\"}}Des ordures?{{delay frames=\"20\"}} T'as pas la poubelle\nqui va avec, par hasard? {{anim id=\"1\"}}Bah, je te\nremercie!{{delay frames=\"20\"}} Vraiment!\nLe cadeau emballé dans du papier\ntoilette, je connaissais{{delay frames=\"10\"}}.{{delay frames=\"10\"}}.{{delay frames=\"10\"}}. mais là tu\nt'es surpassé{{fun_0006000E arg=\"0x000002006500\"}}! {{anim id=\"2\"}}HA HA HA!{{delay frames=\"30\"}}{{anim id=\"1\"}}{{pageBreak}}.{{delay frames=\"8\"}}.{{delay frames=\"8\"}}.{{delay frames=\"8\"}} C'est tout?{{delay frames=\"30\"}} {{anim id=\"6\"}}T'as même pas de\nvrai cadeau?{{pageBreak}}{{anim id=\"36\"}}Ce que c'est drôle{{delay frames=\"8\"}}.{{delay frames=\"8\"}}.{{delay frames=\"8\"}}.{{delay frames=\"15\"}} {{anim id=\"37\"}}Rappelle-moi\nde pas t'inviter l'année prochaine!"
  },
  {
    "label": "025",
    "text": "{{anim id=\"16\"}}Oh, {{delay frames=\"20\"}}des navets!{{pageBreak}}{{anim id=\"37\"}}D'habitude, on me les offre en\nDVD{{delay frames=\"10\"}}.{{delay frames=\"10\"}}.{{delay frames=\"10\"}}. Au moins, là, ça annonce\nla couleur tout de suite, {{delay frames=\"30\"}}{{anim id=\"2\"}}HA HA HA!"
  },
  {
    "label": "026",
    "text": "{{anim id=\"37\"}}Ça tombe bien, j'avais envie d'en\nmanger!{{delay frames=\"30\"}} {{anim id=\"38\"}}Merci!"
  },
  {
    "label": "027",
    "text": "{{anim id=\"15\"}}Quoi?!{{delay frames=\"30\"}} {{anim id=\"6\"}}C'était une feinte?{{delay frames=\"20\"}} C'est\nmon anniversaire, vous êtes pas\ncensés être gentils avec moi, tous?"
  },
  {
    "label": "028",
    "text": "{{anim id=\"15\"}}Ah,{{delay frames=\"30\"}} {{anim id=\"0\"}}tiens,{{delay frames=\"20\"}} {{anim id=\"37\"}}merci!"
  },
  {
    "label": "029",
    "text": "{{anim id=\"11\"}}{{delay frames=\"16\"}}Hmmm{{delay frames=\"8\"}}.{{delay frames=\"8\"}}.{{delay frames=\"8\"}}.{{delay frames=\"20\"}} {{anim id=\"13\"}}Quelle bonne idée!{{pageBreak}}{{anim id=\"32\"}}Merci!{{delay frames=\"20\"}} {{anim id=\"1\"}}Allez, amuse-toi bien à ma\npetite fête!"
  },
  {
    "label": "030",
    "text": "{{anim id=\"16\"}}M-mer...{{delay frames=\"8\"}} merci bien!"
  },
  {
    "label": "031",
    "text": ""
  },
  {
    "label": "032",
    "text": ""
  },
  {
    "label": "033",
    "text": "{{anim id=\"6\"}}Ton cadeau...{{delay frames=\"20\"}} {{anim id=\"35\"}}m'a beaucoup touché,{{delay frames=\"20\"}}\n{{fun_00070005 arg=\"\"}}!"
  },
  {
    "label": "034",
    "text": "{{anim id=\"38\"}}Bien sûr, ça fait toujours plaisir de\nrecevoir des cadeaux!{{pageBreak}}{{anim id=\"26\"}}{{delay frames=\"16\"}}Mais je te remercie surtout d'avoir\nrépondu présent{{fun_0006000E arg=\"0x000002006500\"}},{{delay frames=\"20\"}} {{fun_00070005 arg=\"\"}}{{delay frames=\"10\"}}.{{delay frames=\"10\"}}.{{delay frames=\"10\"}}."
  },
  {
    "label": "035",
    "text": "{{anim id=\"21\"}}Tu es là{{delay frames=\"10\"}}.{{delay frames=\"10\"}}.{{delay frames=\"10\"}}. {{anim id=\"21\"}}{{fun_00010011 arg=\"0x0000\"}} est là...\n{{anim id=\"26\"}}{{delay frames=\"16\"}}Que demander de plus,{{delay frames=\"20\"}}\n{{fun_00070005 arg=\"\"}}?"
  },
  {
    "label": "036",
    "text": "{{anim id=\"37\"}}Faut que je t'avoue un truc{{delay frames=\"10\"}}.{{delay frames=\"10\"}}.{{delay frames=\"10\"}}. J'avais\nun petit peu peur que tu viennes\npas...\n{{anim id=\"39\"}}Tiens au fait{{delay frames=\"8\"}}.{{delay frames=\"8\"}}.{{delay frames=\"8\"}}.{{delay frames=\"20\"}} est-ce que tu m'as\napporté quelque chose?{{fun_0005000F arg=\"0x15002800\"}}\nTiens, c'est pour toi!\nAh non, tiens..."
  },
  {
    "label": "037",
    "text": "{{anim id=\"9\"}}C'est pas tous les jours qu'on fête\nson anniversaire...{{pageBreak}}{{anim id=\"1\"}}Et{{delay frames=\"10\"}} euh{{delay frames=\"10\"}}.{{delay frames=\"10\"}}.{{delay frames=\"10\"}}. {{anim id=\"26\"}}je suis content que tu\nsois là, voilà!{{pageBreak}}{{anim id=\"39\"}}Hmm,{{delay frames=\"10\"}} puisqu'on parle anniversaire{{delay frames=\"8\"}}.{{delay frames=\"8\"}}.{{delay frames=\"8\"}}.{{delay frames=\"20\"}}\nt'aurais pas un petit quelque chose\npour moi, par hasard?{{fun_0005000F arg=\"0x15000000\"}}\nTiens, c'est pour toi!\nMon chien l'a mangé..."
  },
  {
    "label": "038",
    "text": "{{anim id=\"6\"}}Aujourd'hui c'est mon anniversaire,{{delay frames=\"40\"}}\n{{anim id=\"44\"}}je peux dire et faire ce que je veux!{{anim id=\"0\"}}{{delay frames=\"50\"}}\nQui a dit « comme d'habitude »?!\n{{anim id=\"39\"}}Par exemple{{delay frames=\"8\"}}.{{delay frames=\"8\"}}.{{delay frames=\"8\"}}.{{delay frames=\"20\"}} je peux réclamer des\ncadeaux!{{delay frames=\"20\"}} Ton cadeau, s'il te plaît!\n{{fun_0003000E arg=\"\"}}{{fun_00070005 arg=\"\"}}!{{fun_0005000F arg=\"0x15002800\"}}\nTout de suite, voilà!\nEuh... j'en ai pas!"
  },
  {
    "label": "039",
    "text": "Je suis né le {{fun_000F0004 arg=\"0x00CD\"}} {{fun_000E0004 arg=\"0x00CD\"}}, je\nsuis{{delay frames=\"10\"}}.{{delay frames=\"10\"}}.{{delay frames=\"10\"}}.?{{fun_00010007 arg=\"\"}} {{fun_000C0005 arg=\"\"}}! Bonne réponse\nau premier rang!{{pageBreak}}{{anim id=\"21\"}}Y'en a qui disent que ce signe porte\nchance...{{delay frames=\"20\"}} {{anim id=\"40\"}}Qu'ils viennent me dire ça\nen face,{{delay frames=\"10\"}} {{anim id=\"2\"}}HA HA HA!\n{{anim id=\"36\"}}OK, aujourd'hui j'ai pas à me\nplaindre,{{delay frames=\"20\"}} je suis plutôt bien\nentouré!"
  },
  {
    "label": "040",
    "text": "{{anim id=\"1\"}}J'espérais que tu viendrais{{delay frames=\"10\"}}.{{delay frames=\"10\"}}.{{delay frames=\"10\"}}.{{delay frames=\"20\"}} et tu\nes là!{{delay frames=\"20\"}} {{anim id=\"23\"}}C'est peut-être ça, la magie\nd'Halloween?\nAh non,{{delay frames=\"10\"}} je me trompe de fête là,\n{{anim id=\"2\"}}HA HA HA!"
  },
  {
    "label": "041",
    "text": "{{anim id=\"1\"}}Qu'est-ce que je vais bien pouvoir\nt'offrir à ton anniversaire...{{delay frames=\"20\"}}\n{{fun_0003000E arg=\"\"}}{{fun_00070005 arg=\"\"}}!"
  },
  {
    "label": "042",
    "text": "Purée, {{anim id=\"26\"}}{{delay frames=\"16\"}}je suis tout ému que vous\nsoyez là, tous réunis...{{delay frames=\"20\"}}\n{{fun_0003000E arg=\"\"}}{{fun_00070005 arg=\"\"}}!"
  },
  {
    "label": "043",
    "text": "{{anim id=\"39\"}}Les amis, c'est pour la vie{{delay frames=\"10\"}}.{{delay frames=\"10\"}}.{{delay frames=\"10\"}}. Pas\nvrai,{{delay frames=\"8\"}} {{fun_00080005 arg=\"\"}}?"
  },
  {
    "label": "044",
    "text": "{{anim id=\"15\"}}Oh?!{{delay frames=\"30\"}} Tu t'en vas déjà?{{pageBreak}}Encore merci pour le cadeau!{{anim id=\"26\"}}{{delay frames=\"16\"}} Et\npuis d'être venu{{fun_0006000E arg=\"0x000002006500\"}} surtout...{{pageBreak}}{{anim id=\"1\"}}À toi de m'inviter à ton anniversaire\nmaintenant!{{delay frames=\"20\"}} {{fun_0003000E arg=\"\"}}{{fun_00070005 arg=\"\"}}!"
  },
  {
    "label": "045",
    "text": "{{anim id=\"15\"}}Oh?{{delay frames=\"15\"}} Tu t'ennuies, {{fun_00080005 arg=\"\"}}?{{pageBreak}}{{anim id=\"32\"}}Merci, j'ai passé un très bon\nmoment, moi!{{delay frames=\"40\"}} {{anim id=\"1\"}}Et merci encore pour\nle cadeau!"
  },
  {
    "label": "046",
    "text": "{{anim id=\"38\"}}C'est vraiment super que tu sois\nvenu{{fun_0006000E arg=\"0x000002006500\"}}{{delay frames=\"10\"}}.{{delay frames=\"10\"}}.{{delay frames=\"10\"}}.{{delay frames=\"40\"}} {{anim id=\"1\"}}En plus, tu m'as même fait\nun cadeau!{{delay frames=\"20\"}} Merci, {{fun_00070005 arg=\"\"}}!"
  },
  {
    "label": "047",
    "text": "{{anim id=\"15\"}}Oh!{{delay frames=\"30\"}} Tu pars déjà?{{delay frames=\"20\"}} La fête vient à\npeine de commencer!{{pageBreak}}{{anim id=\"1\"}}OK, je te retiens pas plus\nlongtemps...{{delay frames=\"10\"}} Merci d'être passé{{fun_0006000E arg=\"0x000002006500\"}}, en\ntout cas!"
  },
  {
    "label": "048",
    "text": "{{anim id=\"15\"}}Déjà?{{delay frames=\"15\"}} {{anim id=\"1\"}}Bon ben, merci d'être\nvenu{{fun_0006000E arg=\"0x000002006500\"}} et tout et tout!{{delay frames=\"20\"}} Ça m'a\nvraiment fait plaisir,{{delay frames=\"20\"}} {{fun_00070005 arg=\"\"}}!"
  },
  {
    "label": "049",
    "text": "{{anim id=\"15\"}}Oh?{{delay frames=\"20\"}} Tu peux pas rester?{{pageBreak}}{{anim id=\"1\"}}J'espère que la fête t'a plu, au\nmoins!{{delay frames=\"30\"}} Sans toi, ça aurait pas été\npareil{{delay frames=\"10\"}}.{{delay frames=\"10\"}}.{{delay frames=\"10\"}}. {{anim id=\"38\"}}Merci,{{delay frames=\"20\"}} {{fun_00070005 arg=\"\"}}!"
  },
  {
    "label": "050",
    "text": ""
  },
  {
    "label": "051",
    "text": "{{anim id=\"15\"}}Oh?! {{delay frames=\"30\"}}Tu t'en vas déjà? {{pageBreak}}{{anim id=\"26\"}}{{delay frames=\"16\"}}Merci pour le cadeau. {{delay frames=\"20\"}}\nT'aurais pas dû!{{pageBreak}}{{anim id=\"1\"}}Sois assuré{{fun_0006000E arg=\"0x000002006500\"}} que je te retournerai\nla faveur quand ton anniversaire\nviendra, {{delay frames=\"20\"}}{{fun_00070005 arg=\"\"}}!{{pageBreak}}{{anim id=\"21\"}}D'ailleurs,{{delay frames=\"8\"}} c'est aussi l'anniversaire\n{{fun_000A000E arg=\"0x0600640065002000040064002700\"}}{{fun_00010011 arg=\"0x0100\"}}!{{delay frames=\"16\"}} {{anim id=\"36\"}}Tout le monde me\ncopie,{{delay frames=\"8\"}} hé hé hé!"
  },
  {
    "label": "052",
    "text": "{{anim id=\"15\"}}Oh? {{delay frames=\"15\"}}{{fun_00080005 arg=\"\"}}?!{{delay frames=\"30\"}}\nTu pars?{{pageBreak}}{{anim id=\"7\"}}Dis tout de suite que cette fête\nest pas assez bien pour toi!{{delay frames=\"40\"}}{{anim id=\"2\"}}\nHA HA HA, j'te charrie, va!{{delay frames=\"20\"}}\n{{anim id=\"21\"}}Merci pour le cadeau{{delay frames=\"8\"}}.{{delay frames=\"8\"}}.{{delay frames=\"8\"}}.{{delay frames=\"8\"}} Mais j'y\npense,{{delay frames=\"8\"}} c'est aussi l'anniversaire\n{{fun_000A000E arg=\"0x0600640065002000040064002700\"}}{{fun_00010011 arg=\"0x0100\"}}!{{pageBreak}}{{anim id=\"36\"}}Et comme tout le monde est à ma\nfête, {{delay frames=\"16\"}}{{fun_0007000E arg=\"0x040069006C00080065006C006C006500\"}} doit s'ennuyer ferme,\n{{fun_0007000E arg=\"0x240074006F007500740020007300650075006C0020006300680065007A0020006C00750069002A0074006F0075007400650020007300650075006C00650020006300680065007A00200065006C006C006500\"}}. Va {{fun_0007000E arg=\"0x04006C00650004006C006100\"}} voir!"
  },
  {
    "label": "053",
    "text": "{{anim id=\"38\"}}Je suis ravi que tu sois venu{{fun_0006000E arg=\"0x000002006500\"}}! {{delay frames=\"40\"}}\n{{anim id=\"1\"}}En plus,{{delay frames=\"8\"}} tu m'as apporté un cadeau,\n{{delay frames=\"20\"}}{{fun_00070005 arg=\"\"}}!\n{{anim id=\"15\"}}Oh? {{delay frames=\"16\"}}Tu as aussi été invité{{fun_0006000E arg=\"0x000002006500\"}} à\nl'anniversaire {{fun_000A000E arg=\"0x0600640065002000040064002700\"}}{{fun_00010011 arg=\"0x0100\"}}? {{delay frames=\"16\"}}\n{{anim id=\"35\"}}T'es une vraie star, {{delay frames=\"8\"}}{{fun_00080005 arg=\"\"}}!"
  },
  {
    "label": "054",
    "text": "{{anim id=\"15\"}}Hé, {{delay frames=\"15\"}}{{fun_00080005 arg=\"\"}}. {{delay frames=\"30\"}}{{anim id=\"7\"}}Tu vas où comme\nça?! Je t'ai autorisé{{fun_0006000E arg=\"0x000002006500\"}} à partir? Je\nn'crois pas, non!{{pageBreak}}{{anim id=\"2\"}}HA HA HA! Me regarde pas comme\nça, je te charrie!{{delay frames=\"20\"}}{{anim id=\"1\"}} Merci d'être\nvenu{{fun_0006000E arg=\"0x000002006500\"}}. Et avec un cadeau, en plus.{{pageBreak}}{{anim id=\"21\"}}Il paraît que c'est aussi l'anniv\n{{fun_000A000E arg=\"0x0600640065002000040064002700\"}}{{fun_00010011 arg=\"0x0100\"}}. {{delay frames=\"8\"}}Tu as préparé un\ncadeau pour {{fun_0007000E arg=\"0x06006C0075006900080065006C006C006500\"}}?{{delay frames=\"8\"}} Vaudrait mieux!"
  },
  {
    "label": "055",
    "text": "{{anim id=\"15\"}}Alors, {{delay frames=\"15\"}}on prend la tangente?{{delay frames=\"40\"}}\n{{anim id=\"1\"}}Hé hé hé,{{delay frames=\"8\"}} merci de m'avoir fait\nl'honneur de ta présence!\n{{anim id=\"21\"}}J'ai un scoop pour toi. {{delay frames=\"16\"}}Aujourd'hui,\nc'est aussi l'anniversaire\n{{fun_000A000E arg=\"0x0600640065002000040064002700\"}}{{fun_00010011 arg=\"0x0100\"}}.{{pageBreak}}{{anim id=\"37\"}}Je suis sûr {{delay frames=\"16\"}}que rien ne lui ferait\nplus plaisir qu'une petite visite\naccompagnée d'un petit cadeau!"
  },
  {
    "label": "056",
    "text": "{{anim id=\"15\"}}Oh?! {{delay frames=\"20\"}}Tu files déjà? {{pageBreak}}{{anim id=\"1\"}}T'inquiète, j'aurais bien voulu que tu\nrestes,{{delay frames=\"8\"}} mais c'est sympa que tu sois\nvenu{{fun_0006000E arg=\"0x000002006500\"}}, {{fun_00080005 arg=\"\"}}!\n{{delay frames=\"30\"}}{{anim id=\"38\"}}Merci pour tout, {{delay frames=\"20\"}}{{fun_00070005 arg=\"\"}}!{{pageBreak}}{{anim id=\"6\"}}Quoiiiii?!{{delay frames=\"8\"}}.{{delay frames=\"8\"}}.{{delay frames=\"8\"}}.{{delay frames=\"8\"}} Tu as aussi été invité{{fun_0006000E arg=\"0x000002006500\"}} à\nl'anniv {{fun_000A000E arg=\"0x0600640065002000040064002700\"}}{{fun_00010011 arg=\"0x0100\"}}?! {{delay frames=\"8\"}}{{anim id=\"21\"}}Au moins,\ntu es venu{{fun_0006000E arg=\"0x000002006500\"}} chez moi en premier.{{delay frames=\"20\"}}\n{{anim id=\"23\"}}{{delay frames=\"16\"}}N'est-ce pas{{delay frames=\"8\"}}.{{delay frames=\"8\"}}.{{delay frames=\"8\"}}.?"
  }
]