﻿[
  {
    "label": "001",
    "text": "{{fun_00040009 arg=\"0x3C003D003E003F0040004100\"}}"
  },
  {
    "label": "002",
    "text": "{{anim id=\"21\"}}J'étais sûr qu'il y aurait au moins\nun tableau chez {{fun_00010011 arg=\"0x0000\"}}{{delay frames=\"8\"}}.{{delay frames=\"8\"}}.{{delay frames=\"8\"}}.{{pageBreak}}{{anim id=\"37\"}}En plus, il est très joli!{{delay frames=\"20\"}} On dirait,\neuh, des pâquerettes! Ou bien un\nvélo! {{fun_0003000E arg=\"\"}}{{fun_00070005 arg=\"\"}}!"
  },
  {
    "label": "003",
    "text": "{{anim id=\"21\"}}Dis, que penses-tu des plantes\ndécoratives?{{pageBreak}}{{anim id=\"27\"}}J'ai déjà dit à {{fun_00010011 arg=\"0x0000\"}} qu'il\ndevrait se procurer un bonsaï{{delay frames=\"8\"}}.{{delay frames=\"8\"}}.{{delay frames=\"8\"}}.{{pageBreak}}{{anim id=\"10\"}}Mais même {{fun_0002000E arg=\"\"}}\n{{fun_00030011 arg=\"0x0000\"}}, c'est trop\ndélicat pour lui!"
  },
  {
    "label": "004",
    "text": "{{anim id=\"15\"}}Oh!{{delay frames=\"20\"}} Je connais ce morceau!{{fun_00010007 arg=\"\"}} C'est\n{{fun_00030011 arg=\"0x0100\"}}, non?{{delay frames=\"40\"}}{{anim id=\"36\"}} C'est\npas trop mal{{delay frames=\"8\"}}.{{delay frames=\"8\"}}.{{delay frames=\"8\"}}.{{delay frames=\"20\"}}\nEn tout cas, ça correspond bien au\nstyle {{fun_000A000E arg=\"0x0600640065002000040064002700\"}}{{fun_00010011 arg=\"0x0000\"}}, {{delay frames=\"20\"}}{{fun_00070005 arg=\"\"}}!{{delay frames=\"40\"}}{{anim id=\"37\"}}"
  },
  {
    "label": "005",
    "text": "{{anim id=\"21\"}}Je suis pas surpris de voir une télé\nchez {{fun_00010011 arg=\"0x0000\"}}{{delay frames=\"8\"}}.{{delay frames=\"8\"}}.{{delay frames=\"8\"}}.{{delay frames=\"20\"}}{{pageBreak}}{{anim id=\"27\"}}Je parie qu'il ne rate pas un seul\nfilm!"
  },
  {
    "label": "006",
    "text": "{{anim id=\"21\"}}{{fun_00010011 arg=\"0x0000\"}} s'est donc acheté\n{{fun_0002000E arg=\"\"}}{{fun_00030011 arg=\"0x0000\"}}?\nC'est pas mal du tout.\n{{anim id=\"10\"}}Ce serait bien s'il nous épargnait\nson speech avant de jouer{{delay frames=\"8\"}}.{{delay frames=\"8\"}}.{{delay frames=\"8\"}}.{{delay frames=\"20\"}}{{delay frames=\"20\"}}\n{{fun_0003000E arg=\"\"}}{{fun_00070005 arg=\"\"}}."
  },
  {
    "label": "007",
    "text": "{{anim id=\"15\"}}{{fun_00010011 arg=\"0x0000\"}} s'est dégoté {{fun_0012000E arg=\"0x10000E0075006E0020006A006F006C006900120075006E00650020006A006F006C00690065000000\"}}\n{{fun_00030011 arg=\"0x0000\"}}, on dirait!\nTu crois qu'il cuisine?\n{{anim id=\"21\"}}Il fait sûrement des petits plats de\ngourmet{{delay frames=\"8\"}}.{{delay frames=\"8\"}}.{{delay frames=\"8\"}}.{{delay frames=\"20\"}} Reste à voir s'ils sont\nbons ou pas!{{delay frames=\"20\"}} {{fun_0003000E arg=\"\"}}{{fun_00070005 arg=\"\"}}!"
  },
  {
    "label": "008",
    "text": "{{anim id=\"21\"}}Parfois, {{fun_00010011 arg=\"0x0000\"}} me raconte les\nrêves qu'il fait{{delay frames=\"8\"}}.{{delay frames=\"8\"}}.{{delay frames=\"8\"}}.{{delay frames=\"20\"}}{{pageBreak}}{{anim id=\"36\"}}Je me demande comment il fait\npour courir le 100 mètres dans un\nlit aussi petit! {{anim id=\"2\"}}HA HA HA!"
  },
  {
    "label": "009",
    "text": "{{fun_00040009 arg=\"0x3C003D003E003F0040004100\"}}"
  },
  {
    "label": "010",
    "text": "{{anim id=\"21\"}}C'est juste mon avis, mais{{delay frames=\"8\"}}.{{delay frames=\"8\"}}.{{delay frames=\"8\"}}.{{delay frames=\"20\"}} J'ai\ntoujours pensé {{fun_000A000E arg=\"0x080071007500650020000600710075002700\"}}{{fun_00010011 arg=\"0x0000\"}}\naurait un petit canapé.\n{{anim id=\"36\"}}Il a vraiment pas l'air du genre à\ns'asseoir à côté de quelqu'un, juste\ncomme ça{{delay frames=\"8\"}}.{{delay frames=\"8\"}}.{{delay frames=\"8\"}}.{{delay frames=\"20\"}} tu crois pas?{{anim id=\"0\"}}"
  },
  {
    "label": "011",
    "text": "{{fun_00040009 arg=\"0x3C003D003E003F0040004100\"}}"
  },
  {
    "label": "012",
    "text": "{{anim id=\"15\"}}Oh! {{fun_0003000E arg=\"\"}}{{fun_0002000E arg=\"\"}}{{fun_00030011 arg=\"0x0000\"}}!{{delay frames=\"40\"}}\n{{anim id=\"37\"}}Quelle superbe chaise, je suis\njaloux.\n{{anim id=\"36\"}}Je croyais {{fun_000A000E arg=\"0x080071007500650020000600710075002700\"}}{{fun_00010011 arg=\"0x0000\"}} avait des\nchaises inutilisables, pour qu'on\npuisse pas s'asseoir! {{anim id=\"2\"}}HA HA HA!{{anim id=\"0\"}}"
  },
  {
    "label": "013",
    "text": "{{fun_00040009 arg=\"0x3C003D003E003F0040004100\"}}"
  },
  {
    "label": "014",
    "text": "{{anim id=\"21\"}}Un jour, j'espère comprendre les\nchoix esthétiques {{fun_000A000E arg=\"0x0600640065002000040064002700\"}}{{fun_00010011 arg=\"0x0000\"}} en\nmatière de mobilier...\n{{anim id=\"10\"}}Mais bon, je vais pas aller jusqu'à\nregarder dans ses tiroirs,\n{{fun_00070005 arg=\"\"}}!"
  },
  {
    "label": "015",
    "text": "{{fun_00040009 arg=\"0x3C003D003E003F0040004100\"}}"
  },
  {
    "label": "016",
    "text": "{{fun_00040009 arg=\"0x3C003D003E003F0040004100\"}}"
  },
  {
    "label": "017",
    "text": "{{anim id=\"21\"}}Hmmm, {{delay frames=\"20\"}}voici donc\n{{fun_0001000E arg=\"\"}}{{fun_00030011 arg=\"0x0000\"}}\n{{fun_000A000E arg=\"0x080071007500650020000600710075002700\"}}{{fun_00010011 arg=\"0x0000\"}} aime tant.\n{{anim id=\"27\"}}Je comprends pas bien pourquoi il\ndécore sa maison avec{{delay frames=\"8\"}}.{{delay frames=\"8\"}}.{{delay frames=\"8\"}}.{{delay frames=\"20\"}} mais enfin,\n{{delay frames=\"8\"}}chacun son truc!"
  },
  {
    "label": "018",
    "text": "{{anim id=\"21\"}}Il a {{fun_0002000E arg=\"\"}}{{fun_00030011 arg=\"0x0000\"}}!\nPour une surprise, c'est une\nsurprise!\n{{anim id=\"35\"}}La prochaine fois, on se fera des\nparties, et puis je lui mettrai la\npâtée,{{delay frames=\"20\"}} {{fun_00070005 arg=\"\"}}!"
  },
  {
    "label": "019",
    "text": "{{anim id=\"21\"}}L'autre jour,{{delay frames=\"20\"}} {{fun_00010011 arg=\"0x0000\"}} m'a dit{{delay frames=\"40\"}} {{anim id=\"37\"}}que\nj'avais atteint l'âge où je devrais\nfaire attention à mon look.{{delay frames=\"40\"}}\n{{anim id=\"9\"}}Tu le crois, toi? {{anim id=\"10\"}}Il devrait plutôt\nse regarder dans\n{{fun_0001000E arg=\"\"}}{{fun_00030011 arg=\"0x0000\"}}, là!"
  },
  {
    "label": "020",
    "text": "{{anim id=\"21\"}}Regarde-moi ces livres{{delay frames=\"8\"}}.{{delay frames=\"8\"}}.{{delay frames=\"8\"}}.{{delay frames=\"20\"}} {{fun_00010011 arg=\"0x0000\"}}\na l'air de quelqu'un qui lit beaucoup,\nnon?\n{{anim id=\"36\"}}Il va sûrement commencer à nous\nfaire la leçon, avec tout son savoir!{{delay frames=\"40\"}}{{anim id=\"0\"}}"
  },
  {
    "label": "021",
    "text": "{{fun_00040009 arg=\"0x3C003D003E003F0040004100\"}}"
  },
  {
    "label": "022",
    "text": "{{anim id=\"21\"}}Hmm, {{fun_0002000E arg=\"\"}}{{fun_00030011 arg=\"0x0000\"}}\ndans une maison comme celle-ci{{delay frames=\"8\"}}.{{delay frames=\"8\"}}.{{delay frames=\"8\"}}.{{delay frames=\"20\"}}{{pageBreak}}{{fun_00010011 arg=\"0x0000\"}} se la joue classe, ou\nquoi?{{pageBreak}}{{anim id=\"37\"}}Je crois que je nous ai enfin trouvé\nun point commun.{{delay frames=\"40\"}} {{anim id=\"2\"}}{{delay frames=\"20\"}}HA HA HA!{{delay frames=\"30\"}}{{anim id=\"1\"}}"
  },
  {
    "label": "023",
    "text": "{{anim id=\"21\"}}Soit dit entre nous, {{fun_00010011 arg=\"0x0000\"}} a la\nréputation de faire un excellent thé.{{pageBreak}}{{anim id=\"37\"}}Il a {{fun_0012000E arg=\"0x1000060073006F006E000400730061000000\"}} propre\n{{fun_00030011 arg=\"0x0000\"}}, après\ntout{{delay frames=\"8\"}}.{{delay frames=\"8\"}}.{{delay frames=\"8\"}}.{{delay frames=\"20\"}}\nTu devrais lui demander de te faire\nboire une tasse!{{delay frames=\"20\"}} {{fun_0003000E arg=\"\"}}{{fun_00070005 arg=\"\"}}!"
  },
  {
    "label": "024",
    "text": "{{fun_00040009 arg=\"0x3C003D003E003F0040004100\"}}"
  },
  {
    "label": "025",
    "text": "{{anim id=\"11\"}}Le nombre de gens possédant un\nordinateur a énormément augmenté\nces derniers temps{{delay frames=\"8\"}}.{{delay frames=\"8\"}}.{{delay frames=\"8\"}}.{{delay frames=\"20\"}}\n{{anim id=\"27\"}}Les temps changent, on dirait..."
  },
  {
    "label": "026",
    "text": "{{anim id=\"21\"}}{{fun_00010011 arg=\"0x0000\"}} s'y connaît à mort en\nmatière de... fleurs!{{pageBreak}}Chaque fleur a une signification : on\npeut exprimer toutes sortes de\nchoses avec elles.\n{{anim id=\"11\"}}Je me demande ce que\n{{fun_0001000E arg=\"\"}}{{fun_00030011 arg=\"0x0000\"}}{{delay frames=\"8\"}}.{{delay frames=\"8\"}}.{{delay frames=\"8\"}}.{{delay frames=\"20\"}}\nsignifie...{{delay frames=\"20\"}} {{fun_0003000E arg=\"\"}}{{fun_00070005 arg=\"\"}}?"
  },
  {
    "label": "027",
    "text": "{{anim id=\"21\"}}{{fun_00010011 arg=\"0x0000\"}} n'en a pas l'air, mais\n{{delay frames=\"8\"}}il adore faire la cuisine. Son frigo\nest plein à craquer!\n{{anim id=\"36\"}}Je dois l'admettre, parfois il y met\ndes trucs tellement rares qu'on a du\nmal à dire si ça se mange ou pas!{{anim id=\"37\"}}"
  },
  {
    "label": "028",
    "text": "{{fun_00040009 arg=\"0x3C003D003E003F0040004100\"}}"
  },
  {
    "label": "029",
    "text": "{{anim id=\"27\"}}Laisser une balance traîner, comme\nça{{delay frames=\"8\"}}.{{delay frames=\"8\"}}.{{delay frames=\"8\"}}.{{delay frames=\"20\"}} Tu crois {{fun_000A000E arg=\"0x080071007500650020000600710075002700\"}}{{fun_00010011 arg=\"0x0000\"}} fait ça\npour faire jaser?\n{{anim id=\"35\"}}Ça lui ressemblerait bien!\n{{anim id=\"2\"}}HA HA HA!{{delay frames=\"20\"}} {{fun_0003000E arg=\"\"}}{{fun_00070005 arg=\"\"}}!"
  },
  {
    "label": "030",
    "text": "{{fun_00040009 arg=\"0x3C003D003E003F0040004100\"}}"
  },
  {
    "label": "031",
    "text": "{{fun_00040009 arg=\"0x3C003D003E003F0040004100\"}}"
  },
  {
    "label": "032",
    "text": "{{anim id=\"21\"}}C'est donc comme ça, chez\n{{fun_00010011 arg=\"0x0000\"}}? Pourquoi ne suis-je\nabsolument pas surpris{{delay frames=\"8\"}}.{{delay frames=\"8\"}}.{{delay frames=\"8\"}}.{{delay frames=\"20\"}}?\n{{anim id=\"36\"}}{{fun_0003000E arg=\"\"}}{{fun_0002000E arg=\"\"}}{{fun_00030011 arg=\"0x0000\"}} qui\ntraîne, c'est tout naturel, venant de\nlui!{{delay frames=\"20\"}} {{fun_0003000E arg=\"\"}}{{fun_00070005 arg=\"\"}}!{{delay frames=\"40\"}}{{anim id=\"37\"}}"
  },
  {
    "label": "033",
    "text": "{{anim id=\"1\"}}Je suis choqué de m'apercevoir\n{{fun_000A000E arg=\"0x080071007500650020000600710075002700\"}}{{fun_00010011 arg=\"0x0000\"}} s'occupe d'un\nbonsaï.\n{{anim id=\"35\"}}Et c'est pas n'importe lequel,\n{{fun_0002000E arg=\"\"}}{{fun_00030011 arg=\"0x0000\"}}, en\nplus!"
  },
  {
    "label": "034",
    "text": "{{fun_00040009 arg=\"0x3C003D003E003F0040004100\"}}"
  },
  {
    "label": "035",
    "text": "{{anim id=\"21\"}}Ouais{{delay frames=\"8\"}}.{{delay frames=\"8\"}}.{{delay frames=\"8\"}}.{{delay frames=\"20\"}} Ça ressemble bien à l'idée\nque je me faisais de chez\n{{fun_00010011 arg=\"0x0000\"}}.\n{{anim id=\"36\"}}Mais y trouver {{fun_0002000E arg=\"\"}}\n{{fun_00030011 arg=\"0x0000\"}}, alors ça!\n{{anim id=\"2\"}}HA HA HA!{{delay frames=\"20\"}} {{fun_0003000E arg=\"\"}}{{fun_00070005 arg=\"\"}}!{{delay frames=\"40\"}}{{anim id=\"37\"}}"
  },
  {
    "label": "036",
    "text": "{{fun_00040009 arg=\"0x3C003D003E003F0040004100\"}}"
  },
  {
    "label": "037",
    "text": "{{fun_00040009 arg=\"0x3C003D003E003F0040004100\"}}"
  },
  {
    "label": "038",
    "text": "{{anim id=\"21\"}}{{fun_00010011 arg=\"0x0000\"}} n'est pas vraiment du\ngenre à faire du sport{{delay frames=\"8\"}}.{{delay frames=\"8\"}}.{{delay frames=\"8\"}}.{{delay frames=\"20\"}}{{pageBreak}}{{anim id=\"27\"}}Faut croire que laisser traîner\n{{fun_0002000E arg=\"\"}}{{fun_00030011 arg=\"0x0000\"}}, c'est\nsa manière de se dépenser..."
  },
  {
    "label": "039",
    "text": "{{anim id=\"21\"}}Avoir {{fun_0002000E arg=\"\"}}{{fun_00030011 arg=\"0x0000\"}}\nchez soi{{delay frames=\"8\"}}.{{delay frames=\"8\"}}.{{delay frames=\"8\"}}.{{delay frames=\"20\"}} c'est une riche idée!{{pageBreak}}{{anim id=\"36\"}}{{fun_00010011 arg=\"0x0000\"}} est un homme d'action!{{delay frames=\"20\"}}\n{{anim id=\"2\"}}HA HA HA! {{fun_0003000E arg=\"\"}}{{fun_00070005 arg=\"\"}}!{{delay frames=\"40\"}}{{anim id=\"37\"}}"
  },
  {
    "label": "040",
    "text": "{{anim id=\"27\"}}Tous les gens que je connais\npréfèrent les douches aux bains,\n{{fun_00070005 arg=\"\"}}{{delay frames=\"8\"}}.{{delay frames=\"8\"}}.{{delay frames=\"8\"}}.{{pageBreak}}{{anim id=\"10\"}}Je les comprends pas du tout!{{delay frames=\"40\"}}\nC'est tellement mieux d'être\nimmergé dans l'eau!"
  },
  {
    "label": "041",
    "text": "{{fun_00040009 arg=\"0x3C003D003E003F0040004100\"}}"
  },
  {
    "label": "042",
    "text": "{{fun_00040009 arg=\"0x3C003D003E003F0040004100\"}}"
  },
  {
    "label": "043",
    "text": "{{fun_00040009 arg=\"0x3C003D003E003F0040004100\"}}"
  },
  {
    "label": "044",
    "text": "{{fun_00040009 arg=\"0x3C003D003E003F0040004100\"}}"
  },
  {
    "label": "045",
    "text": ""
  },
  {
    "label": "046",
    "text": ""
  },
  {
    "label": "047",
    "text": ""
  },
  {
    "label": "048",
    "text": ""
  },
  {
    "label": "049",
    "text": ""
  },
  {
    "label": "050",
    "text": ""
  },
  {
    "label": "051",
    "text": ""
  },
  {
    "label": "052",
    "text": ""
  },
  {
    "label": "053",
    "text": ""
  },
  {
    "label": "054",
    "text": ""
  },
  {
    "label": "055",
    "text": ""
  },
  {
    "label": "056",
    "text": ""
  },
  {
    "label": "057",
    "text": ""
  },
  {
    "label": "058",
    "text": ""
  },
  {
    "label": "059",
    "text": ""
  },
  {
    "label": "060",
    "text": "{{anim id=\"21\"}}Alors voilà la forteresse\n{{fun_000A000E arg=\"0x0600640065002000040064002700\"}}{{fun_00010011 arg=\"0x0000\"}}! {{anim id=\"37\"}}Ça a l'air bien\nconfortable!{{delay frames=\"20\"}} {{fun_0003000E arg=\"\"}}{{fun_00070005 arg=\"\"}}!"
  },
  {
    "label": "061",
    "text": "{{anim id=\"15\"}}Avant de toucher à quoi que ce soit,{{anim id=\"21\"}}\nfaudrait demander la permission{{delay frames=\"40\"}}\n{{fun_000A000E arg=\"0x0600640065002000040064002700\"}}{{fun_00010011 arg=\"0x0000\"}}{{delay frames=\"8\"}}.{{delay frames=\"8\"}}.{{delay frames=\"8\"}}.{{delay frames=\"20\"}}"
  },
  {
    "label": "062",
    "text": "{{anim id=\"21\"}}Les paroles c'est une chose, mais\nl'intérieur d'une maison, ça en dit\nlong sur quelqu'un!\n{{anim id=\"36\"}}Cette pièce porte la marque\n{{fun_000A000E arg=\"0x0600640065002000040064002700\"}}{{fun_00010011 arg=\"0x0000\"}}.{{delay frames=\"20\"}} {{fun_0003000E arg=\"\"}}{{fun_00070005 arg=\"\"}}!{{delay frames=\"40\"}}{{anim id=\"37\"}}"
  },
  {
    "label": "063",
    "text": "{{anim id=\"21\"}}Les maisons des uns et des autres\nsentent vraiment très\ndifféremment{{delay frames=\"8\"}}.{{delay frames=\"8\"}}.{{delay frames=\"8\"}}.{{delay frames=\"20\"}}\n{{anim id=\"15\"}}Oh,{{delay frames=\"40\"}} {{anim id=\"13\"}}je voulais pas dire que ça \nsent mauvais!{{delay frames=\"20\"}} {{fun_0003000E arg=\"\"}}{{fun_00070005 arg=\"\"}}!{{delay frames=\"40\"}}{{anim id=\"9\"}}"
  },
  {
    "label": "064",
    "text": "{{anim id=\"35\"}}Hmm, {{fun_00010011 arg=\"0x0000\"}} a l'air un peu\nnerveux!{{pageBreak}}{{anim id=\"37\"}}On dirait qu'il croit qu'on est là\npour une inspection surprise!{{delay frames=\"20\"}}\n{{anim id=\"2\"}}HA HA HA!{{delay frames=\"30\"}}{{anim id=\"37\"}}"
  },
  {
    "label": "065",
    "text": "{{anim id=\"37\"}}Il a vraiment tout changé à sa\ndécoration{{delay frames=\"20\"}} depuis la dernière fois\nque je suis venu!\n{{anim id=\"27\"}}Enfin, je me souviens plus très\nbien...{{delay frames=\"40\"}} {{anim id=\"2\"}}HA HA HA!{{delay frames=\"30\"}}{{anim id=\"37\"}}"
  }
]