﻿[
  {
    "label": "001",
    "text": "{{anim id=\"15\"}}Oh, salut, {{delay frames=\"20\"}}{{fun_00080005 arg=\"\"}}!{{delay frames=\"30\"}} {{anim id=\"1\"}}Merci pour\nton aide l'autre jour!{{delay frames=\"20\"}}\n{{fun_0003000E arg=\"\"}}{{fun_00070005 arg=\"\"}}!\n{{anim id=\"36\"}}J'étais désespéré{{delay frames=\"20\"}} et probablement\npas très sympa.{{delay frames=\"8\"}}{{pageBreak}}{{anim id=\"37\"}}Mais grâce à toi,{{delay frames=\"20\"}} j'ai récupéré\n100 % de mes facultés!{{pageBreak}}{{anim id=\"9\"}}C'est pas grand-chose,{{delay frames=\"20\"}} mais je t'ai\nenvoyé un petit cadeau,{{delay frames=\"20\"}} regarde ça\nquand tu rentres chez toi!"
  },
  {
    "label": "002",
    "text": "{{anim id=\"1\"}}Hé, {{delay frames=\"8\"}}{{fun_00080005 arg=\"\"}}!{{delay frames=\"20\"}} Je me souviens de\nce que tu as fait pour moi l'autre\njour!\n{{anim id=\"5\"}}Je vais beaucoup mieux, tu t'es\nbien occup{{fun_0006000E arg=\"0x0200E9000400E9006500\"}} de moi.{{delay frames=\"20\"}}{{pageBreak}}{{anim id=\"37\"}}Je t'ai envoyé un petit cadeau à ton\nadresse,{{delay frames=\"20\"}} t'as intérêt à aimer!"
  },
  {
    "label": "003",
    "text": "{{anim id=\"38\"}}Oh, {{delay frames=\"8\"}}{{fun_00080005 arg=\"\"}}!{{delay frames=\"30\"}} {{anim id=\"1\"}}T'es venu{{fun_0006000E arg=\"0x000002006500\"}} me voir\nl'autre jour, quand j'étais souffrant,\nnon?\n{{anim id=\"26\"}}{{delay frames=\"16\"}}Tu m'as vraiment sauvé la vie sur ce\ncoup-là,{{delay frames=\"20\"}} j'étais dans un sale état!{{fun_00010007 arg=\"\"}}\n{{anim id=\"36\"}}C'est ça, l'amitié.\n{{anim id=\"37\"}}Pour te remercier,{{delay frames=\"8\"}} je t'ai envoyé un\ncadeau par la poste... Profite de ma\ngénérosité!"
  }
]