﻿[
  {
    "label": "001",
    "text": "{{anim id=\"1\"}}Merci du coup de main, {{delay frames=\"8\"}}{{fun_00080005 arg=\"\"}}!{{delay frames=\"30\"}}"
  },
  {
    "label": "002",
    "text": "{{anim id=\"1\"}}Grâce à toi,{{delay frames=\"8\"}} tout est bien qui finit\nbien!{{delay frames=\"30\"}} Merci,{{delay frames=\"20\"}} {{fun_00070005 arg=\"\"}}!"
  },
  {
    "label": "003",
    "text": "{{anim id=\"26\"}}Je te suis tellement reconnaissant\nd'avoir accompli cette tâche si\ningrate! {{anim id=\"1\"}}Merci, {{delay frames=\"8\"}}{{fun_00080005 arg=\"\"}}!"
  },
  {
    "label": "004",
    "text": ""
  },
  {
    "label": "005",
    "text": ""
  },
  {
    "label": "006",
    "text": "{{anim id=\"1\"}}Bon, {{delay frames=\"15\"}}c'est pas plus mal comme ça.{{delay frames=\"30\"}}\n{{anim id=\"21\"}}Je préfère quand même parler de\nces choses-là en tête-à-tête.\n{{anim id=\"1\"}}Voici {{fun_0002000E arg=\"\"}}{{fun_00030011 arg=\"0x0000\"}}\npour te remercier.{{delay frames=\"8\"}} Si, si, j'insiste!"
  },
  {
    "label": "007",
    "text": "{{anim id=\"1\"}}Très bien, tu as bien mérité un petit\ncadeau.{{delay frames=\"30\"}}{{pageBreak}}Tiens, {{fun_0002000E arg=\"\"}}{{fun_00030011 arg=\"0x0000\"}}\npour toi!{{delay frames=\"8\"}} Fais-en bon usage!"
  },
  {
    "label": "008",
    "text": "{{anim id=\"27\"}}Waouh,{{delay frames=\"8\"}} {{fun_00010011 arg=\"0x0100\"}} est vraiment\n{{fun_0008000E arg=\"0x01CD0A00700061007200740069000C007000610072007400690065000000\"}} précipitamment!{{delay frames=\"30\"}}{{anim id=\"2\"}} C'est un\ntantinet impoli, {{delay frames=\"15\"}}HA HA HA!{{delay frames=\"30\"}}{{anim id=\"1\"}}\nTu m'as bien aidé, prends donc\n{{fun_0002000E arg=\"\"}}{{fun_00030011 arg=\"0x0000\"}} en\nrécompense."
  },
  {
    "label": "009",
    "text": "{{anim id=\"1\"}}Eh bien voilà, c'est terminé.{{delay frames=\"30\"}} {{anim id=\"21\"}}Ça va\nbien plus vite quand on règle ça en\ntête-à-tête!\nTiens, en récompense de tout ce\nque tu as fait pour moi{{delay frames=\"8\"}}.{{delay frames=\"8\"}}.{{delay frames=\"8\"}}.\n\n{{anim id=\"15\"}}Hein?{{delay frames=\"20\"}} Il semblerait que...{{delay frames=\"15\"}}{{anim id=\"9\"}} tu sois\nbien trop charg{{fun_0006000E arg=\"0x0200E9000400E9006500\"}}!{{pageBreak}}{{anim id=\"1\"}}Bon, très bien, je t'envoie ça par la\nposte dès que j'ai le temps."
  },
  {
    "label": "010",
    "text": "{{anim id=\"27\"}}Ah,{{delay frames=\"8\"}} {{fun_00010011 arg=\"0x0100\"}} a filé à l'anglaise!{{delay frames=\"30\"}}\n{{anim id=\"1\"}}Je croyais que c'était une habitude\nd'humains. {{anim id=\"2\"}}HA HA HA!{{delay frames=\"30\"}}{{anim id=\"1\"}}\nPlus sérieusement, en gage de ma\ngratitude, prends donc ce...\n\n{{anim id=\"15\"}}Hmm?{{delay frames=\"20\"}} {{anim id=\"0\"}}{{anim id=\"9\"}}Tu ne peux rien porter de\nplus, espèce de collectionneu{{fun_0006000E arg=\"0x02007200040073006500\"}}\ncompulsi{{fun_0006000E arg=\"0x02006600040076006500\"}}!\n{{anim id=\"1\"}}Pas de soucis,{{delay frames=\"8\"}} je t'envoie ça par la\nposte plus tard!"
  }
]