﻿[
  {
    "label": "001",
    "text": "{{anim id=\"18\"}}Oh!{{delay frames=\"15\"}} {{fun_0003000E arg=\"\"}}{{fun_0002000E arg=\"\"}}{{fun_00030011 arg=\"0x0000\"}}?{{fun_00010007 arg=\"\"}}\n{{anim id=\"6\"}}J'ose même pas bouger{{delay frames=\"8\"}}.{{delay frames=\"8\"}}.{{delay frames=\"8\"}}.{{delay frames=\"20\"}} Va-t'en,\nsale bête, {{fun_00070005 arg=\"\"}}!"
  },
  {
    "label": "002",
    "text": "{{anim id=\"18\"}}W...{{delay frames=\"10\"}} WAH!{{delay frames=\"15\"}} Oh non! OH NON! AH!\n{{fun_0003000E arg=\"\"}}{{fun_0001000E arg=\"\"}}{{fun_00030011 arg=\"0x0000\"}} m'a\nregardé droit dans les yeux!\n{{anim id=\"13\"}}Je suis paralysé!{{delay frames=\"15\"}} J'arrive plus à\nbouger! Au secours!"
  },
  {
    "label": "003",
    "text": "{{anim id=\"18\"}}Salut, {{fun_00080005 arg=\"\"}}!{{fun_00010007 arg=\"\"}} {{anim id=\"9\"}}Ce serait pas{{delay frames=\"8\"}}\n{{fun_0002000E arg=\"\"}}{{fun_00030011 arg=\"0x0000\"}},{{delay frames=\"20\"}}\njuste là?\n{{anim id=\"13\"}}Ça...{{delay frames=\"8\"}} ça...{{delay frames=\"8\"}} ça va aller.{{fun_00010007 arg=\"\"}} Je...{{delay frames=\"8\"}} dois...{{fun_00010007 arg=\"\"}}\nrester{{delay frames=\"8\"}} calme{{delay frames=\"8\"}}.{{delay frames=\"8\"}}.{{delay frames=\"8\"}}.{{pageBreak}}{{anim id=\"20\"}}Ah! {{delay frames=\"8\"}}J'y{{delay frames=\"8\"}} arrive pas!{{delay frames=\"15\"}} Je tremble\ncomme une feuille{{delay frames=\"8\"}}.{{delay frames=\"8\"}}.{{delay frames=\"8\"}}.{{delay frames=\"8\"}} Je suis perdu."
  }
]