﻿[
  {
    "label": "001",
    "text": "{{anim id=\"1\"}}Bienvenue dans le temple de la\ncouture des {{color id=\"2\"}}sœurs Doigts de Fée{{color id=\"65535\"}}!"
  },
  {
    "label": "002",
    "text": "Entre, {{delay frames=\"15\"}}{{anim id=\"1\"}}bienvenue!"
  },
  {
    "label": "003",
    "text": "{{anim id=\"1\"}}Merci et à bientôt!"
  },
  {
    "label": "004",
    "text": "{{anim id=\"1\"}}Bienvenue!"
  },
  {
    "label": "005",
    "text": "C'est {{fun_0002000E arg=\"\"}}{{fun_00030011 arg=\"0x0000\"}}!\nJ'aime son côté {{fun_00230005 arg=\"0x00CD\"}}...{{delay frames=\"10\"}}\n{{fun_0012000E arg=\"0x1000040049006C00080045006C006C0065000000\"}} est à {{color id=\"2\"}}{{fun_000C0004 arg=\"0x0000\"}} clochettes{{color id=\"65535\"}}.{{fun_0008000D arg=\"0x02CD\"}}{{fun_0006000F arg=\"0x000000000000\"}}\nJe prends!\nJe peux essayer?\nNon merci."
  },
  {
    "label": "006",
    "text": "C'est {{fun_0002000E arg=\"\"}}{{fun_00030011 arg=\"0x0000\"}}!\nLe style {{fun_00230005 arg=\"0x00CD\"}} te plaît,\nn'est-ce pas?\n{{anim id=\"1\"}}Avec les bons accessoires, tu\nressembleras à {{fun_0002000E arg=\"\"}}\n{{fun_00090011 arg=\"0x0100\"}}!\nÇa coûte {{color id=\"2\"}}{{fun_000C0004 arg=\"0x0000\"}} clochettes{{color id=\"65535\"}}.\nQu'en dis-tu?{{fun_0008000D arg=\"0x02CD\"}}{{fun_0006000F arg=\"0x000000000000\"}}\nJe prends!\nJe peux essayer?\nNon merci."
  },
  {
    "label": "007",
    "text": "C'est {{fun_0002000E arg=\"\"}}{{fun_00030011 arg=\"0x0000\"}}.{{delay frames=\"10\"}}\nSon style {{fun_00230005 arg=\"0x00CD\"}} est du\nmeilleur effet!\n{{anim id=\"1\"}}Avec le haut assorti,{{delay frames=\"10\"}} tu\nressembleras à {{fun_0002000E arg=\"\"}}\n{{fun_00090011 arg=\"0x0100\"}}!\nNous {{fun_0012000E arg=\"0x100004006C00650004006C0061000000\"}} faisons à\n{{color id=\"2\"}}{{fun_000C0004 arg=\"0x0000\"}} clochettes{{color id=\"65535\"}}.{{fun_0008000D arg=\"0x02CD\"}}{{fun_0006000F arg=\"0x000000000000\"}}\nJe prends!\nJe peux essayer?\nNon merci."
  },
  {
    "label": "008",
    "text": "C'est {{fun_0002000E arg=\"\"}}{{fun_00030011 arg=\"0x0000\"}}!{{delay frames=\"10\"}}\n{{anim id=\"1\"}}J'aime beaucoup le style\n{{fun_00230005 arg=\"0x00CD\"}} qui s'en dégage...\n{{anim id=\"1\"}}Avec un article de la même série,{{delay frames=\"10\"}} tu\nressembleras à {{fun_0002000E arg=\"\"}}\n{{fun_00090011 arg=\"0x0100\"}}!\nÇa coûte {{color id=\"2\"}}{{fun_000C0004 arg=\"0x0000\"}} clochettes{{color id=\"65535\"}}.\nQu'en dis-tu?{{fun_0008000D arg=\"0x02CD\"}}{{fun_0006000F arg=\"0x000000000000\"}}\nJe prends!\nJe peux essayer?\nNon merci."
  },
  {
    "label": "009",
    "text": "C'est pour offrir?{{fun_00010007 arg=\"\"}} Excellent choix,\nc'est {{fun_0002000E arg=\"\"}}{{fun_00030011 arg=\"0x0000\"}}.{{pageBreak}}{{anim id=\"1\"}}Son côté {{fun_00230005 arg=\"0x00CD\"}} est à\ntomber, n'est-ce pas?{{pageBreak}}{{fun_0012000E arg=\"0x1000040049006C00080045006C006C0065000000\"}} est à {{color id=\"2\"}}{{fun_000C0004 arg=\"0x0000\"}} clochettes{{color id=\"65535\"}}.{{fun_0008000D arg=\"0x02CD\"}}{{fun_0006000F arg=\"0x000000000000\"}}\nJe prends!\nJe peux essayer?\nNon merci."
  },
  {
    "label": "010",
    "text": "Oh,{{delay frames=\"5\"}} très bien."
  },
  {
    "label": "011",
    "text": "{{anim id=\"1\"}}Oh, {{delay frames=\"8\"}}ça te va à ravir!{{fun_00010007 arg=\"\"}} C'est à toi\npour {{color id=\"2\"}}{{fun_000C0004 arg=\"0x0000\"}} clochettes{{color id=\"65535\"}}.{{delay frames=\"5\"}} {{anim id=\"23\"}}{{delay frames=\"10\"}}Alors,\nqu'en penses-tu?{{fun_0008000D arg=\"0x02CD\"}}{{fun_0006000F arg=\"0x000000000000\"}}\nJe prends!\nJe veux plus l'enlever!\nNon merci."
  },
  {
    "label": "012",
    "text": "{{anim id=\"1\"}}Très seyant, {{delay frames=\"10\"}}ce style garçonne!{{delay frames=\"10\"}} Ça\ncoûte {{color id=\"2\"}}{{fun_000C0004 arg=\"0x0000\"}} clochettes{{color id=\"65535\"}}.{{delay frames=\"10\"}} {{anim id=\"23\"}}{{delay frames=\"10\"}}Qu'en\npenses-tu?{{fun_0008000D arg=\"0x02CD\"}}{{fun_0006000F arg=\"0x000000000000\"}}\nJe prends!\nJe veux plus l'enlever!\nNon merci."
  },
  {
    "label": "013",
    "text": "{{anim id=\"1\"}}Cela fait partie de notre collection\npour femme, {{delay frames=\"10\"}}mais ça te va très\nbien!{{pageBreak}}Ça coûte {{color id=\"2\"}}{{fun_000C0004 arg=\"0x0000\"}} clochettes{{color id=\"65535\"}}.{{delay frames=\"10\"}}\n{{anim id=\"23\"}}{{delay frames=\"10\"}}Alors? Qu'en penses-tu?{{fun_0008000D arg=\"0x02CD\"}}{{fun_0006000F arg=\"0x000000000000\"}}\nJe prends!\nJe veux plus l'enlever!\nNon merci."
  },
  {
    "label": "014",
    "text": "{{anim id=\"15\"}}{{delay frames=\"5\"}}C'est original{{delay frames=\"5\"}}.{{delay frames=\"5\"}}.{{delay frames=\"5\"}}.{{delay frames=\"5\"}}{{delay frames=\"10\"}} {{anim id=\"1\"}}mais très seyant!\nÇa coûte {{color id=\"2\"}}{{fun_000C0004 arg=\"0x0000\"}} clochettes{{color id=\"65535\"}}.{{delay frames=\"10\"}} {{anim id=\"23\"}}{{delay frames=\"10\"}}\nQu'en penses-tu?{{fun_0008000D arg=\"0x02CD\"}}{{fun_0006000F arg=\"0x000000000000\"}}\nJe prends!\nJe veux plus l'enlever!\nNon merci."
  },
  {
    "label": "015",
    "text": "{{anim id=\"9\"}}Hum, {{delay frames=\"5\"}}je suis navrée, mais tu n'as\npas assez de clochettes{{delay frames=\"5\"}}.{{delay frames=\"5\"}}.{{delay frames=\"5\"}}."
  },
  {
    "label": "016",
    "text": "{{anim id=\"9\"}}Tu es bien trop chargé{{fun_0006000E arg=\"0x000002006500\"}}{{delay frames=\"5\"}}.{{delay frames=\"5\"}}.{{delay frames=\"5\"}}.{{pageBreak}}{{anim id=\"1\"}}Si tu revenais quand tu auras un peu\nplus de place dans tes poches?"
  },
  {
    "label": "017",
    "text": "{{anim id=\"9\"}}Hum{{delay frames=\"5\"}}.{{delay frames=\"5\"}}.{{delay frames=\"5\"}}.{{delay frames=\"10\"}} Tes poches sont pleines,\nje ne sais pas où mettre ce que tu\nportais... Tu ne peux pas garder ça."
  },
  {
    "label": "018",
    "text": "Très bien, {{delay frames=\"8\"}}je mets ce que tu\nportais dans ton inventaire.{{fun_00010007 arg=\"\"}} {{anim id=\"1\"}}Merci!"
  },
  {
    "label": "019",
    "text": "{{anim id=\"1\"}}Merci!{{fun_00010007 arg=\"\"}} {{color id=\"2\"}}{{fun_000C0004 arg=\"0x0000\"}} clochettes{{color id=\"65535\"}},\nparfait!"
  },
  {
    "label": "020",
    "text": "{{anim id=\"23\"}}C'est ton premier achat chez nous,\nn'est-ce pas?{{pageBreak}}{{anim id=\"0\"}}Notre boutique est petite, mais\nnous recevons des articles tous les\njours.{{delay frames=\"10\"}} {{anim id=\"1\"}}Reviens nous voir souvent!"
  },
  {
    "label": "021",
    "text": "Oh, {{fun_00050011 arg=\"\"}}!{{fun_00010007 arg=\"\"}}\n{{anim id=\"1\"}}N'est-il pas superbe, ce motif?"
  },
  {
    "label": "022",
    "text": "{{anim id=\"1\"}}Ce motif est une de tes créations,\nn'est-ce pas?{{fun_00010007 arg=\"\"}} Il s'appelle\n{{fun_00050011 arg=\"\"}}.\n{{anim id=\"0\"}}{{anim id=\"23\"}}Que souhaites-tu faire?{{fun_0006000F arg=\"0x000000000000\"}}\nJe le veux!\nJe veux exposer!\nRien, je regardais..."
  },
  {
    "label": "023",
    "text": "{{anim id=\"1\"}}Ce motif est une création\n{{fun_000A000E arg=\"0x0600640065002000040064002700\"}}{{fun_00000011 arg=\"0x0000\"}} qui l'a appelé\n« {{fun_00050011 arg=\"\"}} ».\n{{anim id=\"0\"}}{{delay frames=\"5\"}}.{{delay frames=\"5\"}}.{{delay frames=\"5\"}}.{{delay frames=\"5\"}} Bien, {{delay frames=\"5\"}}{{anim id=\"23\"}}que souhaites-tu faire?{{fun_0006000F arg=\"0x000000000000\"}}\nJe le veux!\nExposer le mien!\nRien, je regardais..."
  },
  {
    "label": "024",
    "text": "{{anim id=\"1\"}}Ce motif nous arrive\n{{fun_000A000E arg=\"0x0600640065002000040064002700\"}}{{fun_00020011 arg=\"0x0000\"}}.{{pageBreak}}Il a été créé par {{fun_00000011 arg=\"0x0000\"}} qui l'a\nbaptisé « {{fun_00050011 arg=\"\"}} ».{{pageBreak}}{{anim id=\"0\"}}{{delay frames=\"5\"}}.{{delay frames=\"5\"}}.{{delay frames=\"5\"}}.{{delay frames=\"5\"}} Bien, {{delay frames=\"5\"}}{{anim id=\"23\"}}que souhaites-tu faire?{{fun_0006000F arg=\"0x000000000000\"}}\nJe le veux!\nJe veux exposer!\nRien, je regardais..."
  },
  {
    "label": "025",
    "text": "{{anim id=\"1\"}}Je t'en prie, prends tout ton temps!"
  },
  {
    "label": "026",
    "text": ""
  },
  {
    "label": "027",
    "text": "Très bien. {{delay frames=\"8\"}}{{anim id=\"23\"}}Est-ce que je peux voir\nton motif?"
  },
  {
    "label": "028",
    "text": "Tu vas devoir effacer un ancien\nmotif pour pouvoir en stocker un\nnouveau.{{delay frames=\"5\"}} {{anim id=\"23\"}}C'est d'accord?{{fun_0005000F arg=\"0x00000000\"}}\nOui.\nNon, tant pis."
  },
  {
    "label": "029",
    "text": "Très bien,{{delay frames=\"10\"}} comme tu voudras."
  },
  {
    "label": "030",
    "text": "{{anim id=\"1\"}}Tu veux exposer ton motif intitulé\n« {{fun_00050011 arg=\"\"}} », c'est\nbien ça?\n{{anim id=\"0\"}}Très bien... Qu'est-ce que je fais du\nmotif qui {{anim id=\"23\"}}était exposé à la place?{{fun_0008000D arg=\"0x02CD\"}}{{fun_0005000F arg=\"0x00000000\"}}\nJe le prends.\nJ'en ai pas besoin."
  },
  {
    "label": "031",
    "text": "{{anim id=\"1\"}}Tu veux exposer\n{{fun_00050011 arg=\"\"}} dans notre\nboutique?{{delay frames=\"20\"}} Avec plaisir!\n{{anim id=\"0\"}}Sur quoi {{anim id=\"23\"}}veux-tu\nappliquer ton motif?{{fun_0007000F arg=\"0x0000000000000000\"}}\nUn vêtement.\nUn couvre-chef.\nUn parapluie.\nJ'ai changé d'avis."
  },
  {
    "label": "032",
    "text": "{{anim id=\"1\"}}Parfait, {{delay frames=\"10\"}}je m'en occupe!{{pageBreak}}{{anim id=\"0\"}}Qu'est-ce que je dois faire {{anim id=\"23\"}}du\nmotif exposé actuellement\n({{fun_00050011 arg=\"\"}})?{{fun_0008000D arg=\"0x02CD\"}}{{fun_0005000F arg=\"0x00000000\"}}\nJe le prends.\nJ'en ai pas besoin."
  },
  {
    "label": "033",
    "text": "Si tu n'en veux pas, je m'en occupe."
  },
  {
    "label": "034",
    "text": "Très bien, je vais les échanger."
  },
  {
    "label": "035",
    "text": "{{anim id=\"1\"}}OK, {{delay frames=\"5\"}}on le met où? Choisis\nun emplacement, je t'en prie."
  },
  {
    "label": "036",
    "text": "{{anim id=\"1\"}}Ce motif est à toi!{{fun_0000000D arg=\"0x05CD\"}}"
  },
  {
    "label": "037",
    "text": "Si jamais tu ne veux pas effacer un\nmotif, nous pouvons le sauvegarder\npour toi.{{pageBreak}}{{anim id=\"1\"}}N'hésite surtout pas à venir me voir\nsi tu as un motif à sauvegarder."
  },
  {
    "label": "038",
    "text": "Ce motif est identique à celui\nque tu portes.{{pageBreak}}En conséquence, cette opération\nmodifiera aussi le motif que tu\nportes. {{delay frames=\"10\"}}{{anim id=\"23\"}}{{delay frames=\"10\"}}Es-tu d'accord?{{fun_0008000D arg=\"0x02CD\"}}{{fun_0005000F arg=\"0x00000000\"}}\nOui.\nNon, tant pis."
  },
  {
    "label": "039",
    "text": "{{anim id=\"9\"}}Tu crois qu'une tenue de plongée\nest ce qu'il y a de plus indiqué pour\nvenir essayer des vêtements?\n{{anim id=\"1\"}}Reviens me voir quand tu te seras\nchangé{{fun_0006000E arg=\"0x000002006500\"}}!"
  },
  {
    "label": "041",
    "text": "{{anim id=\"1\"}}J'espère que tu reviendras nous voir\nà la boutique,{{delay frames=\"10\"}} quand ton\ndéménagement sera terminé!"
  },
  {
    "label": "042",
    "text": "{{anim id=\"1\"}}Essaie tout ce que tu veux.{{delay frames=\"8\"}}\nSi quelque chose te plaît, fais-moi\nsigne!"
  },
  {
    "label": "043",
    "text": "{{anim id=\"1\"}}Oui, {{delay frames=\"6\"}}je t'écoute.{{delay frames=\"10\"}} Que puis-je faire\npour toi?{{fun_0006000F arg=\"0x000000000000\"}}\nCréer un motif pro.\nSauvegarder un motif.\nOh, rien."
  },
  {
    "label": "044",
    "text": "Vraiment?{{delay frames=\"15\"}} {{anim id=\"1\"}}Si je peux faire quoi que\nce soit, tu sais où me trouver."
  },
  {
    "label": "045",
    "text": "{{anim id=\"9\"}}Je suis un peu débordée{{delay frames=\"5\"}}.{{delay frames=\"5\"}}.{{delay frames=\"5\"}}. {{anim id=\"0\"}}Dès que\nles visiteurs auront quitté la ville, je\nsauvegarderai ton motif.\n{{anim id=\"1\"}}Nous serons plus tranquilles!"
  },
  {
    "label": "046",
    "text": "{{anim id=\"1\"}}Très bien!{{delay frames=\"10\"}} Ta sélection est en\nlieu sûr."
  },
  {
    "label": "047",
    "text": "{{anim id=\"1\"}}Si tu as besoin de quoi que ce soit,{{delay frames=\"10\"}}\nfais-moi signe!"
  },
  {
    "label": "048",
    "text": "{{anim id=\"9\"}}Je ne vais pas pouvoir m'occuper de\nça tout de suite{{delay frames=\"5\"}}.{{delay frames=\"5\"}}.{{delay frames=\"5\"}}.{{pageBreak}}{{anim id=\"0\"}}Mais dès que les visiteurs auront\nquitté la ville, je t'aiderai à créer\nton motif.\n{{anim id=\"1\"}}Nous pourrons prendre notre\ntemps!"
  },
  {
    "label": "049",
    "text": "{{anim id=\"1\"}}Tu veux créer un motif pro?{{fun_00010007 arg=\"\"}} Tout\nde suite! Je te demanderai juste\n{{color id=\"2\"}}500 clochettes {{color id=\"65535\"}}pour les matériaux.\n{{anim id=\"0\"}}Si tu veux stocker un nouveau\nmotif, tu dois en effacer un ancien.{{delay frames=\"10\"}}\n{{anim id=\"23\"}}Ça ne te pose pas de problème?{{fun_0006000F arg=\"0x000000000000\"}}\nPas du tout!\nUn motif pro?\nJ'ai changé d'avis."
  },
  {
    "label": "050",
    "text": "Comme tu voudras.{{fun_00010007 arg=\"\"}} {{anim id=\"1\"}}Si jamais je\npeux t'aider, n'hésite surtout pas!"
  },
  {
    "label": "051",
    "text": "{{anim id=\"1\"}}Tu as l'habitude de créer des motifs\nvia le menu des motifs perso{{delay frames=\"5\"}}.{{delay frames=\"5\"}}.{{delay frames=\"5\"}}.{{fun_00010007 arg=\"\"}}\nN'est-ce pas?\n{{anim id=\"0\"}}C'est très bien si tu veux le même\nmotif sur le devant, l'arrière et les\nmanches{{delay frames=\"5\"}}.{{delay frames=\"5\"}}.{{delay frames=\"5\"}}.\n{{anim id=\"1\"}}Mais avec les motifs pro,{{delay frames=\"10\"}} tu peux\navoir un motif différent sur chacun\nde ces éléments!\nRobes créées de toutes pièces,\nhauts sans manches, manches\nlongues... Tu peux tout faire!\n{{anim id=\"3\"}}De quoi obtenir un résultat\nprofessionnel, sans formation\nintensive!{{pageBreak}}{{anim id=\"1\"}}{{delay frames=\"5\"}}.{{delay frames=\"5\"}}.{{delay frames=\"5\"}}.{{delay frames=\"5\"}} {{anim id=\"23\"}}Ça t'intéresse?{{delay frames=\"10\"}} Tu as peut-être\nenvie d'essayer?{{fun_0005000F arg=\"0x00000000\"}}\nOh oui!\nLa prochaine fois."
  },
  {
    "label": "052",
    "text": "{{anim id=\"1\"}}J'espère que ton motif aura du\nsuccès!"
  },
  {
    "label": "053",
    "text": "{{anim id=\"1\"}}Très bien! {{delay frames=\"8\"}}Dis-moi ce que tu\naimerais réaliser.{{fun_0007000F arg=\"0x0000000000000000\"}}\nUn haut.\nUne robe.\nUn couvre-chef.\nRien, finalement."
  },
  {
    "label": "054",
    "text": "{{anim id=\"23\"}}Bon, avec quel type de manches?{{fun_00010007 arg=\"\"}}\n{{anim id=\"1\"}}Courtes, longues ou inexistantes,{{delay frames=\"5\"}}\nc'est toi qui choisis!{{fun_0007000F arg=\"0x0000000000000000\"}}\nManches courtes.\nManches longues.\nSans manches.\nOublions, finalement."
  },
  {
    "label": "055",
    "text": "{{anim id=\"1\"}}Quel genre de couvre-chef?{{fun_0006000F arg=\"0x000000002800\"}}\nUn bonnet en laine.\nUn bonnet à cornes.\nOublions, finalement."
  },
  {
    "label": "056",
    "text": "Nous y sommes presque!{{delay frames=\"5\"}} Dis-moi\njuste où tu voudrais stocker ce\nmotif."
  },
  {
    "label": "057",
    "text": "Oh, {{delay frames=\"10\"}}tu veux annuler?{{fun_00010007 arg=\"\"}} {{anim id=\"1\"}}Pas de\nproblème, tu peux revenir quand tu\nveux!"
  },
  {
    "label": "058",
    "text": "{{anim id=\"1\"}}Joli travail!{{fun_00010007 arg=\"\"}} Oh, tu l'as appelé\n« {{fun_00050011 arg=\"\"}} »{{delay frames=\"5\"}}.{{delay frames=\"5\"}}.{{delay frames=\"5\"}}.{{delay frames=\"5\"}}\nParfait!{{pageBreak}}Ça fera{{delay frames=\"10\"}} {{color id=\"2\"}}500 clochettes {{color id=\"65535\"}}pour les\nmatériaux."
  },
  {
    "label": "059",
    "text": "{{anim id=\"1\"}}Merci!{{delay frames=\"15\"}} J'espère te revoir très\nbientôt!"
  },
  {
    "label": "061",
    "text": "{{anim id=\"15\"}}J'ai affaire {{delay frames=\"15\"}}au nouveau maire de la\nville, {{anim id=\"23\"}}n'est-ce pas?{{pageBreak}}{{anim id=\"1\"}}Je n'ai eu aucun mal à te\nreconnaître, tu es la nouvelle\ncoqueluche {{fun_000A000E arg=\"0x0600640065002000040064002700\"}}{{fun_00060005 arg=\"\"}}! "
  },
  {
    "label": "062",
    "text": "Je ne pense pas t'avoir déjà vu{{fun_0006000E arg=\"0x000002006500\"}} par\nici{{delay frames=\"8\"}}.{{delay frames=\"8\"}}.{{delay frames=\"8\"}}. Tu viens d'emménager à\n{{fun_00050005 arg=\"\"}} peut-être?"
  },
  {
    "label": "063",
    "text": "{{delay frames=\"15\"}}{{anim id=\"22\"}}{{delay frames=\"15\"}}Je vais t'expliquer le concept de\nnotre boutique!{{fun_00010007 arg=\"\"}} {{anim id=\"0\"}}Nous sommes plus\nqu'un magasin de vêtements...\nNous guidons aussi nos clients dans\nla réalisation de leurs propres\nmotifs!\nNous pouvons aussi sauvegarder les\nmotifs que tu crées chez nous,\n{{fun_00000005 arg=\"\"}}.{{pageBreak}}{{anim id=\"1\"}}Si tu veux en savoir plus sur les\nmotifs, viens me voir, {{delay frames=\"8\"}}je suis\nintarissable sur le sujet!"
  },
  {
    "label": "064",
    "text": "{{anim id=\"1\"}}Bienvenue dans le temple de la\ncouture des {{color id=\"2\"}}sœurs Doigts de Fée{{color id=\"65535\"}}!{{pageBreak}}{{delay frames=\"8\"}}.{{delay frames=\"8\"}}.{{delay frames=\"8\"}}.{{delay frames=\"8\"}}{{anim id=\"15\"}}{{delay frames=\"15\"}} Tu ne serais pas{{delay frames=\"8\"}} le nouveau\nmaire, par hasard{{delay frames=\"8\"}}{{anim id=\"23\"}}?{{pageBreak}}{{anim id=\"1\"}}Vu que toute la ville parle de toi en\nce moment, il aurait été difficile de\nne pas te reconnaître!"
  },
  {
    "label": "065",
    "text": "{{anim id=\"1\"}}Bienvenue!{{anim id=\"0\"}} {{delay frames=\"8\"}}.{{delay frames=\"8\"}}.{{delay frames=\"8\"}}.{{delay frames=\"8\"}}{{anim id=\"15\"}}{{delay frames=\"15\"}} Dis-moi! Tu ne serais\npas le nouveau maire, par hasard{{delay frames=\"8\"}}{{anim id=\"23\"}}?{{pageBreak}}{{anim id=\"1\"}}On ne parle plus que de toi en ville\nen ce moment, il aurait été\ndifficile de ne pas te reconnaître!"
  },
  {
    "label": "066",
    "text": "{{anim id=\"1\"}}Qu'est-ce que nous avons là? Oh,\nc'est {{fun_0002000E arg=\"\"}}{{fun_00030011 arg=\"0x0000\"}}.{{delay frames=\"10\"}}\n{{fun_0008000E arg=\"0x00CD040049006C00080045006C006C0065000000\"}} est superbe, n'est-ce pas?\nJe ne peux pas te l{{fun_0008000E arg=\"0x00CD02006500020061000000\"}} vendre tout\nde suite, il faut que tu sois dûment\ninscrit{{fun_0006000E arg=\"0x000002006500\"}} à la mairie d'abord."
  },
  {
    "label": "067",
    "text": "Je te présente notre choix de\n{{color id=\"2\"}}motifs {{color id=\"65535\"}}uniques,{{delay frames=\"12\"}} tous créés à l'aide\nde la fonction correspondante.\nSi tu aimes ces motifs, {{delay frames=\"15\"}}tu peux les\nprendre, {{delay frames=\"12\"}}c'est gratuit.{{pageBreak}}Tu peux également exposer tes\nmotifs si tu le souhaites.{{pageBreak}}Certains habitants de cette ville\nles adopteront peut-être!"
  },
  {
    "label": "068",
    "text": "Au fait{{delay frames=\"8\"}}.{{delay frames=\"8\"}}.{{delay frames=\"8\"}}.{{delay frames=\"15\"}} je ne t'avais jamais vu{{fun_0006000E arg=\"0x000002006500\"}}\ndans le coin.{{delay frames=\"15\"}} {{anim id=\"23\"}}{{delay frames=\"8\"}}Tu viens d'emménager\nà {{fun_00050005 arg=\"\"}}, peut-être?\n{{anim id=\"1\"}}Comme tu as dû le remarquer, notre\nboutique est spécialisée dans les\nvêtements cousus main.\n{{anim id=\"0\"}}Nous proposons ici des {{color id=\"2\"}}motifs\n{{color id=\"65535\"}}absolument uniques.{{pageBreak}}Si une des créations présentées\nici te plaît, tu peux l'acheter et\nrepartir avec.{{pageBreak}}De même, si tu exposes un de tes\nmotifs chez nous,{{delay frames=\"10\"}} un concitoyen\nchoisira peut-être de l'acquérir!"
  },
  {
    "label": "069",
    "text": "{{anim id=\"1\"}}J'espère que tu reviendras nous voir\nà la boutique,{{delay frames=\"8\"}} quand tu seras bien\ninstallé{{fun_0006000E arg=\"0x000002006500\"}}!"
  },
  {
    "label": "070",
    "text": "{{anim id=\"1\"}}Si quelque chose t'intéresse,\npréviens-moi!"
  },
  {
    "label": "071",
    "text": "{{anim id=\"1\"}}Très bien!{{fun_00010007 arg=\"\"}} Ce motif est à toi!{{delay frames=\"10\"}}"
  },
  {
    "label": "072",
    "text": "{{anim id=\"1\"}}Tu veux exposer\n{{fun_00050011 arg=\"\"}},\nc'est bien ça?{{pageBreak}}{{anim id=\"0\"}}Qu'est-ce que je dois faire du motif{{anim id=\"23\"}}\nqui est actuellement exposé ici?{{pageBreak}}{{anim id=\"0\"}}Tu peux repartir avec si tu le\nsouhaites.{{delay frames=\"10\"}} Qu'est-ce que tu veux\nfaire?{{fun_0008000D arg=\"0x02CD\"}}{{fun_0005000F arg=\"0x00000000\"}}\nJe le prends.\nJ'en ai pas besoin."
  },
  {
    "label": "073",
    "text": "{{anim id=\"1\"}}OK, {{delay frames=\"10\"}}je m'en occupe!{{pageBreak}}{{anim id=\"0\"}}Qu'est-ce que je dois faire du motif\nqui est exposé actuellement,\n{{anim id=\"23\"}}{{fun_00050011 arg=\"\"}}?\n{{anim id=\"0\"}}Tu peux repartir avec si tu le\nsouhaites.{{delay frames=\"10\"}} Qu'est-ce que tu veux\nfaire?{{fun_0008000D arg=\"0x02CD\"}}{{fun_0005000F arg=\"0x00000000\"}}\nJe le prends.\nJ'en ai pas besoin."
  },
  {
    "label": "074",
    "text": "Comme tu le vois, nous sommes\nspécialisées dans les vêtements\ncousus main.{{pageBreak}}Si tu cherches des accessoires,{{delay frames=\"15\"}}{{anim id=\"3\"}} je te\nconseille le magasin d'à côté!"
  },
  {
    "label": "075",
    "text": ""
  },
  {
    "label": "076",
    "text": ""
  },
  {
    "label": "077",
    "text": "C'est {{fun_0002000E arg=\"\"}}{{fun_00030011 arg=\"0x0000\"}}.{{delay frames=\"15\"}}\n{{anim id=\"1\"}}Son style {{fun_00230005 arg=\"0x00CD\"}} a\nbeaucoup d'adeptes, tu sais.\n{{fun_0012000E arg=\"0x1000040049006C00080045006C006C0065000000\"}} est à {{color id=\"2\"}}{{fun_000C0004 arg=\"0x0000\"}} clochettes{{color id=\"65535\"}}.{{fun_0008000D arg=\"0x02CD\"}}{{fun_0006000F arg=\"0x000000000000\"}}\nJe prends!\nJe peux essayer?\nNon merci."
  },
  {
    "label": "078",
    "text": "C'est pour offrir?{{fun_00010007 arg=\"\"}} Excellent choix,\nc'est {{fun_0002000E arg=\"\"}}{{fun_00030011 arg=\"0x0000\"}}.{{pageBreak}}{{anim id=\"1\"}}Son côté {{fun_00230005 arg=\"0x00CD\"}} est à\ntomber, n'est-ce pas?{{pageBreak}}{{fun_0012000E arg=\"0x1000040049006C00080045006C006C0065000000\"}} est à {{color id=\"2\"}}{{fun_000C0004 arg=\"0x0000\"}} clochettes{{color id=\"65535\"}}.{{fun_0008000D arg=\"0x02CD\"}}{{fun_0006000F arg=\"0x000000000000\"}}\nJe prends!\nJe peux essayer?\nNon merci."
  },
  {
    "label": "079",
    "text": "{{anim id=\"1\"}}Merci d'avoir attendu!{{delay frames=\"20\"}} Je suis à ta\ndisposition si tu as besoin d'autre\nchose!"
  },
  {
    "label": "081",
    "text": "Oh, {{delay frames=\"10\"}}{{fun_00000005 arg=\"\"}}...{{delay frames=\"15\"}} {{anim id=\"1\"}}Nous t'offrons\négalement ce mannequin!"
  },
  {
    "label": "082",
    "text": "On peut exposer des vêtements et\ndes accessoires en même temps sur\nce {{color id=\"2\"}}mannequin{{color id=\"65535\"}}.\n{{anim id=\"1\"}}Tu pourras t'amuser à changer les\nvêtements et juger de l'effet. C'est\nplutôt pratique, non?\n{{anim id=\"3\"}}Avec tous les habits que tu nous as\ndéjà achetés, {{fun_00000005 arg=\"\"}}, ta garde-\nrobe doit être bien fournie.\nDu coup, je me suis dit que ça te\nserait utile!"
  },
  {
    "label": "083",
    "text": ""
  },
  {
    "label": "084",
    "text": ""
  },
  {
    "label": "085",
    "text": "{{anim id=\"9\"}}On nous a annoncé l'arrivée d'un\ngroupe de clients d'une ville voisine,\nnous sommes en pleins préparatifs!\n{{anim id=\"1\"}}Pourrais-tu repasser un peu plus\ntard, quand ce sera plus calme au\nmagasin?"
  }
]