﻿[
  {
    "label": "001",
    "text": "{{fun_00040007 arg=\"\"}}J'suis sûr que les garçons se battent\npour toi tous les jours, {{fun_00000011 arg=\"0x0300\"}}...{{fun_00050007 arg=\"\"}}"
  },
  {
    "label": "002",
    "text": "{{fun_00040007 arg=\"\"}}Il existait autrefois une île de sel\nqu'un tsunami géant a engloutie...\nDepuis, la mer a le goût du sel!{{fun_00050007 arg=\"\"}}"
  },
  {
    "label": "003",
    "text": "{{fun_00040007 arg=\"\"}}Pas d'panique, {{fun_00000011 arg=\"0x0300\"}}!\nJ't'amène à bon port!{{fun_00050007 arg=\"\"}}"
  },
  {
    "label": "004",
    "text": "{{fun_00040007 arg=\"\"}}On pourrait devenir la première\nchorale des mers! {{fun_0003000E arg=\"\"}}{{fun_00000011 arg=\"0x0300\"}}, tu\nserais notre chef de chœur!{{fun_00050007 arg=\"\"}}"
  },
  {
    "label": "005",
    "text": "{{fun_00040007 arg=\"\"}}Ça t'gêne pas d'être la seule fille\nà bord, {{fun_00000011 arg=\"0x0300\"}}?{{fun_00050007 arg=\"\"}}"
  },
  {
    "label": "006",
    "text": "{{fun_00040007 arg=\"\"}}Parlons peu, parlons bien{{delay frames=\"8\"}}.{{delay frames=\"8\"}}.{{delay frames=\"8\"}}.{{delay frames=\"20\"}} Vous\nêtes célibataires?{{fun_00050007 arg=\"\"}}"
  },
  {
    "label": "007",
    "text": "{{fun_00040007 arg=\"\"}}Et si on tournait un film de pirates?\n{{fun_0003000E arg=\"\"}}{{fun_00000011 arg=\"0x0300\"}}, derrière la caméra!\n{{fun_0003000E arg=\"\"}}{{fun_00000011 arg=\"0x0100\"}}, au maquillage, allez!{{fun_00050007 arg=\"\"}}"
  },
  {
    "label": "008",
    "text": "{{fun_00040007 arg=\"\"}}Kôôa! {{fun_0003000E arg=\"\"}}{{fun_00000011 arg=\"0x0300\"}} règne sur cet\néquipage et nous sommes tous ses\ndévoués serviteurs!{{fun_00050007 arg=\"\"}}"
  },
  {
    "label": "009",
    "text": "{{fun_00040007 arg=\"\"}}Vivement qu'on arrive! {{fun_0003000E arg=\"\"}}{{fun_00000011 arg=\"0x0100\"}}\net {{fun_00000011 arg=\"0x0200\"}} vont pas tarder à\ns'taper dessus pour {{fun_00000011 arg=\"0x0300\"}}!{{fun_00050007 arg=\"\"}}"
  },
  {
    "label": "010",
    "text": "{{fun_00040007 arg=\"\"}}{{delay frames=\"8\"}}.{{delay frames=\"8\"}}.{{delay frames=\"8\"}}.{{delay frames=\"8\"}}{{fun_0000000D arg=\"0x02CD\"}} Tiens{{delay frames=\"8\"}}.{{delay frames=\"8\"}}.{{delay frames=\"8\"}}.{{delay frames=\"20\"}} C'était quoi ce bruit?\nC'était un poisson?{{fun_00050007 arg=\"\"}}"
  }
]