﻿[
  {
    "label": "001",
    "text": "{{anim id=\"32\"}}Bonjour, bonjour,{{delay frames=\"10\"}} {{fun_0006000E arg=\"0x0E004D002700730069006500750072000C004D002700640061006D006500\"}} le maire!"
  },
  {
    "label": "002",
    "text": "{{anim id=\"32\"}}Bonjour, bonjour, {{delay frames=\"10\"}}{{fun_00000005 arg=\"\"}}!"
  },
  {
    "label": "003",
    "text": "C'est le dernier vendredi d'avril, ce\nqui signifie{{delay frames=\"15\"}}{{delay frames=\"8\"}}.{{delay frames=\"8\"}}.{{delay frames=\"8\"}}.{{delay frames=\"8\"}}{{anim id=\"38\"}}{{delay frames=\"8\"}} que c'est le {{color id=\"2\"}}jour du\ndésherbage{{color id=\"65535\"}}!"
  },
  {
    "label": "004",
    "text": "{{anim id=\"1\"}}C'est r'parti pour une séance\nintensive{{anim id=\"42\"}} d'arrachage de mauvaises\nherbes! {{delay frames=\"10\"}}\nCette ville a bien b'soin d'un p'tit\ncoup de nettoyage."
  },
  {
    "label": "005",
    "text": "Le dernier vendredi d'avril est un\njour particulier où tout l'monde aide\nà{{delay frames=\"10\"}} {{anim id=\"33\"}}arracher les mauvaises herbes."
  },
  {
    "label": "006",
    "text": "{{anim id=\"0\"}}Ça alors{{delay frames=\"5\"}}.{{delay frames=\"5\"}}.{{delay frames=\"5\"}}.{{delay frames=\"5\"}}{{anim id=\"1\"}} On dirait bien que {{delay frames=\"10\"}}toutes\nles mauvaises herbes {{fun_000A000E arg=\"0x0600640065002000040064002700\"}}{{fun_00050005 arg=\"\"}}\nont déjà été arrachées."
  },
  {
    "label": "007",
    "text": "{{anim id=\"39\"}}J'ai des récompenses en stock pour\nla ville {{fun_000A000E arg=\"0x0600640065002000040064002700\"}}{{fun_00050005 arg=\"\"}}, puisque tous\nles habitants ont fait du bon travail.{{pageBreak}}{{anim id=\"1\"}}J'ai aussi un p'tit quelque chose\npour toi, {{fun_00000005 arg=\"\"}}, pense à v'nir\nme voir!"
  },
  {
    "label": "008",
    "text": "{{anim id=\"39\"}}À tous les amoureux de la propreté\nde la ville {{fun_000A000E arg=\"0x0600640065002000040064002700\"}}{{fun_00050005 arg=\"\"}}, j'offre{{delay frames=\"5\"}}.{{delay frames=\"5\"}}.{{delay frames=\"5\"}}."
  },
  {
    "label": "009",
    "text": "{{anim id=\"1\"}}{{fun_0003000E arg=\"\"}}{{fun_0002000E arg=\"\"}}{{fun_00030011 arg=\"0x0000\"}}!{{fun_00010007 arg=\"\"}}\nJ'tiens à préciser que c'est moi\nqui l'ai fait{{fun_0008000E arg=\"0x00CD0000020065000000\"}}, moi tout seul!"
  },
  {
    "label": "010",
    "text": "{{anim id=\"0\"}}{{delay frames=\"5\"}}.{{delay frames=\"5\"}}.{{delay frames=\"5\"}}.{{delay frames=\"5\"}}{{anim id=\"1\"}} Mais{{delay frames=\"5\"}}.{{delay frames=\"5\"}}.{{delay frames=\"5\"}}.{{delay frames=\"10\"}} la ville {{fun_000A000E arg=\"0x0600640065002000040064002700\"}}{{fun_00050005 arg=\"\"}} est\ndéjà toute propre! {{delay frames=\"5\"}}Bon ben, pas\nb'soin de désherber, du coup..."
  },
  {
    "label": "011",
    "text": "{{anim id=\"39\"}}À toi, maire {{fun_000A000E arg=\"0x0600640065002000040064002700\"}}{{fun_00050005 arg=\"\"}}, capitale\nde la propreté... {{delay frames=\"15\"}}{{anim id=\"38\"}}je décerne{{delay frames=\"20\"}} le{{color id=\"2\"}} prix\ndu désherbage{{color id=\"65535\"}}!{{pageBreak}}{{anim id=\"0\"}}Tu peux désormais décorer la ville\navec des topiaires de ma création,\nsi ça t'dit.{{pageBreak}}Comment ça, t'sais pas c'que c'est\nune topiaire? Ces buissons sculptés\nde manière artistique? Rhô, enfin...{{pageBreak}}{{anim id=\"39\"}}Je vais en toucher un mot à\n{{color id=\"4\"}}Marie{{color id=\"65535\"}}.{{delay frames=\"10\"}} Ça serait super que tu en\nfasses un {{color id=\"2\"}}projet de travaux publics{{color id=\"65535\"}}!{{fun_0000000D arg=\"0x06CD\"}}"
  },
  {
    "label": "012",
    "text": "{{anim id=\"13\"}}Regarde un peu ça! {{delay frames=\"10\"}}Toute la ville\nest envahie par les mauvaises\nherbes!"
  },
  {
    "label": "013",
    "text": "Moi c'que j'en pense, c'est que le\ndésherbage ne fait pas partie de la\nliste des priorités {{fun_000A000E arg=\"0x0600640065002000040064002700\"}}{{fun_00050005 arg=\"\"}}!{{delay frames=\"5\"}}\nJ'me{{anim id=\"23\"}} trompe?"
  },
  {
    "label": "014",
    "text": "Certes, il n'y a que quelques p'tites\nmauvaises herbes de rien du tout à\n{{fun_00050005 arg=\"\"}}...\nMais c'est pas une raison!{{delay frames=\"10\"}} Il faut en\nfinir!"
  },
  {
    "label": "015",
    "text": "{{anim id=\"1\"}}Allons régler leur compte à ces\nfichues mauvaises herbes avant le\ncoucher du soleil, OK?{{pageBreak}}{{anim id=\"3\"}}J't'aiderai à compter les mauvaises\nherbes arrachées, {{delay frames=\"10\"}}t'auras\npas à t'en occuper.\n{{anim id=\"0\"}}Oh, j'allais oublier! J'ai un cadeau\nun peu spécial pour toi.{{delay frames=\"10\"}} {{anim id=\"32\"}}Viens\nl'chercher quand t'auras fini!"
  },
  {
    "label": "016",
    "text": "{{anim id=\"32\"}}Bonjour, bonjour! Enfin, j'veux\ndire...{{delay frames=\"15\"}} Ravi d'faire ta\nconnaissance!{{pageBreak}}J'suis le gérant de l'espace\njardinage, c'est là-bas que\nj'travaille d'habitude.{{pageBreak}}Mais aujourd'hui, on est fermés{{delay frames=\"5\"}}.{{delay frames=\"5\"}}.{{delay frames=\"5\"}}.{{delay frames=\"15\"}}\n{{anim id=\"39\"}}Enfin, bref{{delay frames=\"5\"}}.{{delay frames=\"5\"}}.{{delay frames=\"5\"}}.{{delay frames=\"15\"}}"
  },
  {
    "label": "017",
    "text": "J'ai un cadeau pour toi, {{fun_00000005 arg=\"\"}}, {{delay frames=\"10\"}}\npense à v'nir me voir plus tard pour\nle récupérer."
  },
  {
    "label": "018",
    "text": "{{anim id=\"15\"}}Arf, après tout... Pourquoi ne pas\noffrir ma récompense maintenant?{{anim id=\"0\"}}{{pageBreak}}À tous les habitants {{fun_000A000E arg=\"0x0600640065002000040064002700\"}}{{fun_00050005 arg=\"\"}}, \nfiers représentants de la propreté,\nj'ai le plaisir d'offrir{{delay frames=\"5\"}}.{{delay frames=\"5\"}}.{{delay frames=\"5\"}}."
  },
  {
    "label": "019",
    "text": "{{anim id=\"38\"}}... {{color id=\"2\"}}le prix de la ville propre{{color id=\"65535\"}}!\n{{delay frames=\"5\"}}.{{delay frames=\"5\"}}.{{delay frames=\"5\"}}.{{delay frames=\"8\"}} Trop cool, hein?!"
  },
  {
    "label": "020",
    "text": "{{anim id=\"32\"}}Bonjour, bonjour, {{delay frames=\"10\"}}{{fun_00000005 arg=\"\"}}!{{delay frames=\"15\"}}\nTu t'en sors avec le désherbage?{{pageBreak}}{{anim id=\"11\"}}Hmm, il reste exactement{{delay frames=\"10\"}}{{anim id=\"22\"}} {{fun_00090004 arg=\"0x0000\"}}\n{{fun_0009000E arg=\"0x04CD1C006D0061007500760061006900730065002000680065007200620065001C006D00610075007600610069007300650020006800650072006200650020006D00610075007600610069007300650073002000680065007200620065007300\"}} dans cette ville\nhabituellement si belle{{delay frames=\"10\"}}.{{delay frames=\"10\"}}.{{delay frames=\"10\"}}.{{delay frames=\"20\"}}"
  },
  {
    "label": "021",
    "text": "{{anim id=\"1\"}}Il reste encore un sacré paquet de\nces fichues mauvaises herbes... Mais\non va s'en sortir, n'est-ce pas?"
  },
  {
    "label": "022",
    "text": "{{anim id=\"1\"}}Objectif en vue!{{delay frames=\"10\"}} Encore un p'tit\neffort!"
  },
  {
    "label": "023",
    "text": "{{anim id=\"1\"}}Allez, encore un peu d'huile de \ncoude!{{delay frames=\"10\"}} On y est presque!"
  },
  {
    "label": "024",
    "text": "{{anim id=\"32\"}}Super, {{delay frames=\"15\"}}{{fun_00000005 arg=\"\"}}!{{delay frames=\"20\"}} Félicitations!{{delay frames=\"30\"}}\n{{anim id=\"3\"}}On leur a fait leur fête, à ces\nmauvaises herbes!\n{{anim id=\"0\"}}Il est l'heure de passer à la\ncérémonie{{delay frames=\"5\"}}.{{delay frames=\"5\"}}.{{delay frames=\"5\"}}.{{delay frames=\"15\"}}{{anim id=\"42\"}} car j'ai prévu une p'tite\nrécompense pour l'occasion!"
  },
  {
    "label": "025",
    "text": "{{delay frames=\"5\"}}.{{delay frames=\"5\"}}.{{delay frames=\"5\"}}.{{delay frames=\"5\"}} Enfin, c'est ce que j'avais en\ntête,{{delay frames=\"10\"}} {{anim id=\"9\"}}mais on dirait bien qu'tes\npoches sont pleines, {{fun_00000005 arg=\"\"}}.{{pageBreak}}{{anim id=\"35\"}}Ce que j'te propose, c'est de jeter\nun de tes objets et de revenir me\nparler, {{delay frames=\"10\"}}avant qu'on oublie."
  },
  {
    "label": "026",
    "text": "{{anim id=\"39\"}}À tous les habitants {{fun_000A000E arg=\"0x0600640065002000040064002700\"}}{{fun_00050005 arg=\"\"}},{{delay frames=\"5\"}}\nà vous les pros du désherbage, je\ntiens à offrir{{delay frames=\"5\"}}.{{delay frames=\"5\"}}.{{delay frames=\"5\"}}."
  },
  {
    "label": "027",
    "text": "{{anim id=\"4\"}}J'aime quand la ville est d'une\npropreté impeccable...{{delay frames=\"10\"}} Même l'air\nsemble plus pur!"
  },
  {
    "label": "028",
    "text": "J'rêve secrètement que toutes les\nvilles du monde soient aussi propres\n{{fun_000A000E arg=\"0x080071007500650020000600710075002700\"}}{{fun_00050005 arg=\"\"}}.{{pageBreak}}{{anim id=\"39\"}}{{fun_0003000E arg=\"\"}}{{fun_00000005 arg=\"\"}}, {{delay frames=\"10\"}}si un jour tu vas dans\nune aut' ville, promets-moi d'aider\nles gens à désherber leur terrain..."
  },
  {
    "label": "029",
    "text": "{{anim id=\"39\"}}Il se trouve{{delay frames=\"10\"}}.{{delay frames=\"10\"}}.{{delay frames=\"10\"}}.{{delay frames=\"15\"}} que j'ai une\nrécompense spéciale pour tous les\nvisiteurs qui nous ont aidés!"
  },
  {
    "label": "031",
    "text": "{{anim id=\"32\"}}Bonjour, bonjour!{{delay frames=\"10\"}} Bienvenue à\n{{fun_00050005 arg=\"\"}}!"
  },
  {
    "label": "032",
    "text": "Aujourd'hui est un jour très\nspécial pour {{fun_00050005 arg=\"\"}}, car c'est le\ngrand {{color id=\"2\"}}jour du{{color id=\"65535\"}}{{delay frames=\"15\"}}{{delay frames=\"8\"}}.{{delay frames=\"8\"}}.{{delay frames=\"8\"}}.{{delay frames=\"8\"}}{{anim id=\"38\"}}{{delay frames=\"8\"}} {{color id=\"2\"}}désherbage{{color id=\"65535\"}}!"
  },
  {
    "label": "033",
    "text": "{{anim id=\"1\"}}Aujourd'hui, à {{fun_00050005 arg=\"\"}}, nous\nallons arracher toutes les mauvaises\nherbes et ainsi embellir la ville!"
  },
  {
    "label": "034",
    "text": "{{anim id=\"39\"}}Je compte sur vous pour enl'ver le\nplus de mauvaises herbes possible\navant le coucher du soleil.\n{{anim id=\"1\"}}J'ai même un cadeau spécial pour\nles plus motivés d'entre vous qui\narrach'ront {{delay frames=\"10\"}}{{color id=\"2\"}}30 mauvaises herbes{{color id=\"65535\"}}!"
  },
  {
    "label": "035",
    "text": "{{anim id=\"32\"}}Bonjour, bonjour! Comment ça va,\n{{delay frames=\"10\"}}{{fun_00000005 arg=\"\"}} {{fun_000A000E arg=\"0x0600640065002000040064002700\"}}{{fun_00060005 arg=\"\"}}?{{fun_00010007 arg=\"\"}} Tu t'en\nsors avec les mauvaises herbes?"
  },
  {
    "label": "036",
    "text": ".{{delay frames=\"8\"}}.{{delay frames=\"8\"}}.{{delay frames=\"15\"}}{{anim id=\"15\"}}{{delay frames=\"5\"}}Oh, mazette!{{delay frames=\"15\"}} Il semblerait que tu\nt'sois dépassé{{fun_0006000E arg=\"0x000002006500\"}}!"
  },
  {
    "label": "037",
    "text": ".{{delay frames=\"8\"}}.{{delay frames=\"8\"}}.{{delay frames=\"15\"}}{{anim id=\"15\"}}{{delay frames=\"5\"}} Wahou!{{delay frames=\"15\"}} J'suis impressionné!\nJ'aurais jamais pensé que tu y\nmettrais autant d'ardeur."
  },
  {
    "label": "038",
    "text": "{{anim id=\"1\"}}{{fun_0003000E arg=\"\"}}{{fun_00000005 arg=\"\"}}, tu mérites une p'tite\nrécompense pour tous tes efforts.{{pageBreak}}Viens la récupérer avant la tombée\nd'la nuit, OK?"
  },
  {
    "label": "039",
    "text": "{{anim id=\"39\"}}Pour te récompenser de ton\ndévouement, {{fun_00000005 arg=\"\"}}, je te prie\nde bien vouloir accepter{{delay frames=\"5\"}}.{{delay frames=\"5\"}}.{{delay frames=\"5\"}}.{{pageBreak}}{{anim id=\"38\"}}... {{color id=\"2\"}}le prix de la générosité{{color id=\"65535\"}}!"
  },
  {
    "label": "040",
    "text": "{{anim id=\"1\"}}J'dois dire que je n'suis pas peu\nfier de {{fun_0008000E arg=\"0x00CD0400630065000A00630065007400740065000000\"}} magnifique\n{{fun_00030011 arg=\"0x0000\"}}."
  },
  {
    "label": "041",
    "text": "{{anim id=\"39\"}}J'ai emmené plein de trucs\naujourd'hui, j'peux bien t'en donner\nun!"
  },
  {
    "label": "042",
    "text": "{{anim id=\"39\"}}Ce cadeau, c'est comme une partie\nde moi-même...{{delay frames=\"10\"}} J'espère que ça te\nfera plaisir!"
  },
  {
    "label": "043",
    "text": "C'est super propre par ici!{{delay frames=\"10\"}} Mais je\nconnais d'autres villes qui sont\nenvahies par les mauvaises herbes.\n{{anim id=\"39\"}}Si jamais un d'tes amis a besoin\nd'un coup de main,{{delay frames=\"10\"}} j'espère que\nt'iras l'aider!"
  },
  {
    "label": "044",
    "text": "{{anim id=\"3\"}}Grâce à toi, cette ville est propre\ncomme un sou neuf!{{pageBreak}}{{anim id=\"0\"}}Mais, tu sais{{delay frames=\"10\"}}.{{delay frames=\"10\"}}.{{delay frames=\"10\"}}.{{delay frames=\"15\"}} Il y a plein d'autres\nvilles qui sont actuellement\nenvahies par les mauvaises herbes.{{pageBreak}}{{anim id=\"39\"}}Peut-être qu'un d'tes amis aura un\njour besoin de ton aide...{{delay frames=\"10\"}} J'espère\nque tu le laisseras pas tomber!"
  },
  {
    "label": "045",
    "text": "{{anim id=\"39\"}}La ville {{fun_000A000E arg=\"0x0600640065002000040064002700\"}}{{fun_00050005 arg=\"\"}} est attaquée\npar une armée de mauvaises\nherbes!{{pageBreak}}J'compte sur ton aide, on doit\ntoutes les éradiquer!"
  },
  {
    "label": "046",
    "text": "{{anim id=\"39\"}}Il reste une poignée de mauvaises\nherbes dans {{fun_00050005 arg=\"\"}}.{{delay frames=\"10\"}} T'as un peu\nde temps d'vant toi pour m'aider?"
  },
  {
    "label": "047",
    "text": "{{anim id=\"39\"}}On a bientôt fini de débarrasser\n{{fun_00050005 arg=\"\"}} de ces saletés de\nmauvaises herbes.\nTu nous files un p'tit coup de main?"
  },
  {
    "label": "048",
    "text": "{{anim id=\"1\"}}J'ai prévu une p'tite récompense\npour quiconque arrache plus de {{color id=\"2\"}}30\nmauvaises herbes{{color id=\"65535\"}}."
  },
  {
    "label": "049",
    "text": ""
  },
  {
    "label": "051",
    "text": "{{anim id=\"45\"}}{{size value=\"75\"}}Hé hé{{delay frames=\"5\"}}.{{delay frames=\"5\"}}.{{delay frames=\"5\"}}.{{delay frames=\"15\"}} Adieu...\nMauvaises herbes{{size value=\"75\"}}{{delay frames=\"5\"}}.{{delay frames=\"5\"}}.{{delay frames=\"5\"}}.{{delay frames=\"15\"}}\n{{size value=\"75\"}}de malheur{{delay frames=\"5\"}}.{{delay frames=\"5\"}}.{{delay frames=\"5\"}}.{{size value=\"100\"}}{{fun_00090007 arg=\"0x5A000000\"}}"
  },
  {
    "label": "052",
    "text": "{{anim id=\"45\"}}{{size value=\"75\"}}Hé hé hé{{delay frames=\"5\"}}.{{delay frames=\"5\"}}.{{delay frames=\"5\"}}.{{delay frames=\"15\"}}\nTout propre{{size value=\"75\"}}{{delay frames=\"5\"}}.{{delay frames=\"5\"}}.{{delay frames=\"5\"}}.{{delay frames=\"15\"}}\nT{{size value=\"75\"}}out beau{{delay frames=\"5\"}}.{{delay frames=\"5\"}}.{{delay frames=\"5\"}}.{{size value=\"100\"}}{{fun_00090007 arg=\"0x5A000000\"}}"
  },
  {
    "label": "053",
    "text": "{{anim id=\"45\"}}{{size value=\"75\"}}Hé hé hé{{delay frames=\"5\"}}.{{delay frames=\"5\"}}.{{delay frames=\"5\"}}.{{delay frames=\"15\"}}\n{{size value=\"75\"}}{{fun_0008000E arg=\"0x00CD040055006E00060055006E0065000000\"}} {{fun_00210005 arg=\"0x00CD\"}}{{size value=\"75\"}}{{delay frames=\"5\"}}.{{delay frames=\"5\"}}.{{delay frames=\"5\"}}.{{delay frames=\"15\"}}\n{{size value=\"75\"}}enfin épanoui{{size value=\"75\"}}{{fun_0008000E arg=\"0x00CD0000020065000000\"}}{{size value=\"75\"}}{{size value=\"75\"}}{{delay frames=\"5\"}}.{{delay frames=\"5\"}}.{{delay frames=\"5\"}}.{{delay frames=\"15\"}} C'est beau{{size value=\"100\"}}{{size value=\"75\"}}{{delay frames=\"5\"}}.{{delay frames=\"5\"}}.{{delay frames=\"5\"}}.{{size value=\"100\"}}{{fun_00090007 arg=\"0x5A000000\"}}"
  },
  {
    "label": "054",
    "text": ""
  },
  {
    "label": "055",
    "text": ""
  },
  {
    "label": "056",
    "text": "{{anim id=\"45\"}}{{delay frames=\"10\"}}{{size value=\"75\"}}Ooooohhhh{{delay frames=\"10\"}}.{{delay frames=\"10\"}}.{{delay frames=\"10\"}}.{{delay frames=\"15\"}} Là, partout{{delay frames=\"10\"}}.{{delay frames=\"10\"}}.{{delay frames=\"10\"}}.{{delay frames=\"15\"}}\nDes mauvaises herbes{{size value=\"75\"}}{{delay frames=\"10\"}}.{{delay frames=\"10\"}}.{{delay frames=\"10\"}}.{{delay frames=\"15\"}}\n{{size value=\"75\"}}À l'aide{{delay frames=\"10\"}}.{{delay frames=\"10\"}}.{{delay frames=\"10\"}}.{{size value=\"100\"}}{{fun_00090007 arg=\"0x5A000000\"}}"
  },
  {
    "label": "057",
    "text": "{{anim id=\"45\"}}{{delay frames=\"10\"}}{{size value=\"75\"}}Nooooon{{delay frames=\"10\"}}.{{delay frames=\"10\"}}.{{delay frames=\"10\"}}.{{delay frames=\"15\"}}\nIl ne faut pas{{delay frames=\"10\"}}.{{delay frames=\"10\"}}.{{delay frames=\"10\"}}.{{delay frames=\"15\"}}\nles laisser pousser{{delay frames=\"10\"}}.{{delay frames=\"10\"}}.{{delay frames=\"10\"}}.{{size value=\"100\"}}{{fun_00090007 arg=\"0x5A000000\"}}"
  },
  {
    "label": "058",
    "text": "{{anim id=\"45\"}}{{delay frames=\"10\"}}{{size value=\"75\"}}Gneugneugneu{{delay frames=\"10\"}}.{{delay frames=\"10\"}}.{{delay frames=\"10\"}}.{{delay frames=\"15\"}}\nPlus que quelques{{delay frames=\"10\"}}.{{delay frames=\"10\"}}.{{delay frames=\"10\"}}.\nmauvaises herbes{{delay frames=\"10\"}}.{{delay frames=\"10\"}}.{{delay frames=\"10\"}}.{{size value=\"100\"}}{{fun_00090007 arg=\"0x5A000000\"}}"
  },
  {
    "label": "059",
    "text": ""
  },
  {
    "label": "060",
    "text": ""
  }
]