﻿[
  {
    "label": "001",
    "text": "{{anim id=\"15\"}}{{delay frames=\"15\"}}Ah,{{delay frames=\"10\"}} {{anim id=\"0\"}}toi, là,{{delay frames=\"15\"}} tu es {{anim id=\"23\"}}le maire de cette\nville, non?"
  },
  {
    "label": "002",
    "text": "{{anim id=\"36\"}}Désolé de débarquer sans prévenir.{{fun_00010007 arg=\"\"}}\n{{anim id=\"37\"}}J'ai une faveur à te demander,\n{{fun_0006000E arg=\"0x16004D006F006E007300690065007500720020006C00650012004D006100640061006D00650020006C006500\"}} maire."
  },
  {
    "label": "003",
    "text": "{{delay frames=\"5\"}}.{{delay frames=\"5\"}}.{{delay frames=\"5\"}}.{{delay frames=\"5\"}} Hmm,{{delay frames=\"10\"}} {{anim id=\"39\"}}euuuh, pourrais-tu me\ndonner l'autorisation de m'installer\ndans la rue commerçante{{delay frames=\"5\"}}.{{delay frames=\"5\"}}.{{delay frames=\"5\"}}.?\n{{anim id=\"1\"}}Voilà, c'est tout ce que je voulais.{{fun_00010007 arg=\"\"}}\n{{anim id=\"0\"}}{{delay frames=\"5\"}}.{{delay frames=\"10\"}}.{{delay frames=\"10\"}}.{{delay frames=\"10\"}}{{anim id=\"23\"}}{{delay frames=\"5\"}} Alors,{{delay frames=\"10\"}} qu'est-ce que tu en\npenses?{{fun_0006000F arg=\"0x150000002800\"}}\nMais c'est génial!\nPour quoi faire?\nPas question!"
  },
  {
    "label": "004",
    "text": "{{anim id=\"16\"}}Hein?!{{delay frames=\"15\"}} Vraiment?!{{pageBreak}}{{anim id=\"11\"}}Sans même me demander quel\ngenre d'établissement je comptais\nouvrir{{delay frames=\"8\"}}.{{delay frames=\"8\"}}.{{delay frames=\"8\"}}.?{{pageBreak}}{{delay frames=\"5\"}}{{anim id=\"38\"}}{{delay frames=\"10\"}}{{fun_0006000E arg=\"0x10004D006F006E00730069006500750072000C004D006100640061006D006500\"}} le maire,{{delay frames=\"10\"}} ton sens de la\nrépartie ferait de toi un{{fun_0006000E arg=\"0x000002006500\"}}\nhumoriste de premier ordre!"
  },
  {
    "label": "005",
    "text": "{{anim id=\"39\"}}Cependant,{{delay frames=\"10\"}} je me dois de donner\ndes détails sur mes projets{{delay frames=\"8\"}}.{{delay frames=\"8\"}}.{{delay frames=\"8\"}}.{{pageBreak}}{{anim id=\"0\"}}J'ai l'intention de faire {{anim id=\"1\"}}bouger\n{{fun_00060005 arg=\"\"}} en ouvrant une\ndiscothèque : le {{fun_00040007 arg=\"\"}}{{anim id=\"42\"}}{{delay frames=\"10\"}}{{color id=\"2\"}}Club MDR{{color id=\"65535\"}}!{{delay frames=\"40\"}}{{fun_00050007 arg=\"\"}}\n{{delay frames=\"5\"}}.{{delay frames=\"5\"}}.{{delay frames=\"5\"}}.{{delay frames=\"5\"}}.{{delay frames=\"5\"}}.{{delay frames=\"5\"}}.{{delay frames=\"5\"}}.{{delay frames=\"5\"}}.{{delay frames=\"5\"}}.{{delay frames=\"5\"}}{{anim id=\"9\"}}{{delay frames=\"10\"}} Hmmm.{{delay frames=\"15\"}} Tu n'as pas l'air aussi\nenthousiaste{{delay frames=\"5\"}}{{anim id=\"19\"}} que je l'espérais{{delay frames=\"5\"}}.{{delay frames=\"5\"}}.{{delay frames=\"5\"}}.{{pageBreak}}{{anim id=\"0\"}}Mais{{delay frames=\"10\"}} {{anim id=\"2\"}}ce n'est pas grave!{{delay frames=\"15\"}} Tu m'as\nl'air d'{{fun_0006000E arg=\"0x040075006E00060075006E006500\"}} artiste dans l'âme,{{delay frames=\"10\"}} alors\nje suis sûr que ça te plaira!{{delay frames=\"20\"}}{{anim id=\"1\"}}"
  },
  {
    "label": "006",
    "text": "Bien, {{delay frames=\"10\"}}{{fun_0006000E arg=\"0x10004D006F006E00730069006500750072000C004D006100640061006D006500\"}} le maire, merci\nd'avoir donné ton accord.{{delay frames=\"10\"}} Mais\nj'aurais encore besoin{{anim id=\"35\"}}{{delay frames=\"5\"}} de ton aide!\n{{anim id=\"0\"}}{{delay frames=\"8\"}}.{{delay frames=\"8\"}}.{{delay frames=\"8\"}}.{{delay frames=\"8\"}} En vérité, {{anim id=\"9\"}}je suis déjà passé à la\nmairie. Ta secrétaire {{color id=\"4\"}}Marie {{color id=\"65535\"}}et\nmoi avons un peu discuté.\n{{anim id=\"11\"}}Tu sais, les discothèques peuvent\nparfois occasionner du bruit, et des\nhabitants pourraient s'en plaindre{{delay frames=\"8\"}}.{{delay frames=\"8\"}}.{{delay frames=\"8\"}}.\n{{anim id=\"36\"}}Elle a donc dit que je devrais avoir\nla permission du maire, ainsi que la\nsignature de quelques habitants.\n{{anim id=\"1\"}}Maintenant que tu m'as donné ton\nautorisation,{{delay frames=\"10\"}} il ne reste plus qu'à\nobtenir ces signatures!"
  },
  {
    "label": "007",
    "text": "Et comme par hasard...{{delay frames=\"30\"}} {{anim id=\"29\"}}{{delay frames=\"5\"}}J'ai sur moi\n{{delay frames=\"15\"}}une {{color id=\"2\"}}pétition{{color id=\"65535\"}}!"
  },
  {
    "label": "008",
    "text": "{{anim id=\"1\"}}{{delay frames=\"5\"}}.{{delay frames=\"5\"}}.{{delay frames=\"5\"}}.{{delay frames=\"5\"}} Et ces signatures,{{delay frames=\"5\"}}{{anim id=\"32\"}}{{delay frames=\"5\"}} c'est toi qui\nvas t'en occuper!{{delay frames=\"10\"}}{{anim id=\"1\"}}{{pageBreak}}{{fun_00040007 arg=\"\"}}.{{delay frames=\"8\"}}.{{delay frames=\"8\"}}.{{fun_00050007 arg=\"\"}}{{fun_00090007 arg=\"0x3C000000\"}}{{pageBreak}}Youhou, y'a quelqu'un? Allô la\nterre, ici la lune!{{pageBreak}}{{anim id=\"23\"}}Est-ce que tu viens de penser très\nfort{{delay frames=\"5\"}} « Tu veux 100 clochettes avec\nça? FAIS-LE TOI-MÊME! »{{delay frames=\"10\"}}?{{delay frames=\"10\"}} {{size value=\"75\"}}{{delay frames=\"15\"}}.{{delay frames=\"5\"}}.{{delay frames=\"5\"}}.{{delay frames=\"5\"}}{{anim id=\"9\"}}{{delay frames=\"5\"}} Pff.\n{{size value=\"100\"}}{{anim id=\"37\"}}Sans blague,{{delay frames=\"5\"}} ce serait vraiment\nsympa de m'aider, {{fun_0006000E arg=\"0x10004D006F006E00730069006500750072000C004D006100640061006D006500\"}} le\nmaire.{{pageBreak}}{{anim id=\"0\"}}Je pense que les gens seront\nbeaucoup plus méfiants{{anim id=\"1\"}} si c'est un\ninconnu qui les aborde.\nImagine ce qui arriverait si un\nhurluberlu de mon genre les\naccostait pour leur demander :\n{{anim id=\"13\"}}« HÉ MON POTE! BIEN OU BIEN?\nAU FAIT, T'AIMES LA\nMUSIQUE?! »"
  },
  {
    "label": "009",
    "text": "{{anim id=\"0\"}}Je suis déjà allé voir les autres\ncommerçants,{{delay frames=\"10\"}} alors il ne manque\nque la signature de {{color id=\"2\"}}six {{color id=\"65535\"}}habitants!"
  },
  {
    "label": "010",
    "text": "Bien, {{delay frames=\"10\"}}je dois tout préparer pour\nl'inauguration, alors je serai souvent\ndans la rue commerçante{{delay frames=\"8\"}}.{{delay frames=\"8\"}}.{{delay frames=\"8\"}}.\n{{anim id=\"1\"}}Quand tu auras rassemblé toutes les\nsignatures ou si tu veux me voir,{{delay frames=\"5\"}}\ncherche par là.{{delay frames=\"10\"}} {{anim id=\"32\"}}Merci pour ton aide!"
  },
  {
    "label": "011",
    "text": "{{anim id=\"11\"}}Ah,{{delay frames=\"10\"}} tu auras besoin d'une {{color id=\"2\"}}pétition{{color id=\"65535\"}}\nà faire remplir{{delay frames=\"8\"}}.{{delay frames=\"8\"}}.{{delay frames=\"8\"}}.{{delay frames=\"15\"}}{{pageBreak}}{{anim id=\"9\"}}Hmm, j'ai l'impression que tu es\ntrop chargé{{fun_0006000E arg=\"0x000002006500\"}} pour pouvoir en\nemporter une maintenant.{{pageBreak}}{{anim id=\"0\"}}Je dois préparer l'inauguration,\nalors je serai souvent dans la rue\ncommerçante{{delay frames=\"8\"}}.{{delay frames=\"8\"}}.{{delay frames=\"8\"}}.\n{{anim id=\"1\"}}Quand tu auras un moment,{{delay frames=\"5\"}} passe\nm'y voir et je t'en remettrai une.{{fun_00010007 arg=\"\"}}\n{{anim id=\"32\"}}À bientôt!"
  },
  {
    "label": "012",
    "text": "{{delay frames=\"5\"}}{{anim id=\"15\"}}{{delay frames=\"10\"}}Oh!{{delay frames=\"20\"}} Ai-je {{anim id=\"23\"}}piqué ta curiosité?{{pageBreak}}{{anim id=\"39\"}}J'ai l'intention de faire{{anim id=\"0\"}} {{anim id=\"1\"}}bouger\n{{fun_00060005 arg=\"\"}} en ouvrant une\ndiscothèque : le {{fun_00040007 arg=\"\"}}{{anim id=\"42\"}}{{delay frames=\"10\"}}{{color id=\"2\"}}Club MDR{{color id=\"65535\"}}!{{delay frames=\"40\"}}{{fun_00050007 arg=\"\"}}\n{{delay frames=\"5\"}}.{{delay frames=\"5\"}}.{{delay frames=\"5\"}}.{{delay frames=\"5\"}}.{{delay frames=\"5\"}}.{{delay frames=\"5\"}}.{{delay frames=\"5\"}}.{{delay frames=\"5\"}}.{{delay frames=\"5\"}}.{{delay frames=\"5\"}}{{anim id=\"9\"}}{{delay frames=\"10\"}} Hmmm.{{delay frames=\"15\"}} Tu n'as pas l'air aussi\nenthousiaste{{delay frames=\"5\"}}{{anim id=\"19\"}} que je l'espérais{{delay frames=\"5\"}}.{{delay frames=\"5\"}}.{{delay frames=\"5\"}}."
  },
  {
    "label": "013",
    "text": "{{anim id=\"13\"}}Je te laisse imaginer à quel point ce\nsera grandiose!{{pageBreak}}{{anim id=\"1\"}}Allez!{{delay frames=\"15\"}} Avoue que ça t'emballe!\n{{delay frames=\"20\"}}C'est une idée de génie, pas vrai?{{fun_0005000F arg=\"0x15002800\"}}\nÇa a l'air génial!\nJ'ai des doutes..."
  },
  {
    "label": "014",
    "text": "{{anim id=\"2\"}}N'est-ce pas?{{fun_00010007 arg=\"\"}} {{anim id=\"3\"}}Je savais bien qu'on\nserait sur la même longueur d'onde!"
  },
  {
    "label": "015",
    "text": "{{delay frames=\"5\"}}{{anim id=\"17\"}}{{delay frames=\"10\"}}Non?!{{delay frames=\"10\"}} {{anim id=\"14\"}}C'est comme couper l'herbe\nsous mes pieds... Comme me\ncondamner à une vie sans bonheur!{{pageBreak}}{{anim id=\"20\"}}Je ne te croyais pas suffisamment\ncruel{{fun_0006000E arg=\"0x000004006C006500\"}}{{delay frames=\"10\"}} pour refuser sans même\nsavoir ce que je comptais faire.\nJe... J'ai envie de m'enfouir la tête\ndans le sable{{delay frames=\"8\"}}.{{delay frames=\"8\"}}.{{delay frames=\"8\"}}."
  },
  {
    "label": "016",
    "text": "{{anim id=\"9\"}}Peut-être que je parviendrai à te\nfaire changer d'avis en t'exposant\nmon projet?\n{{anim id=\"39\"}}J'ai simplement{{delay frames=\"10\"}} l'intention de{{delay frames=\"8\"}}.{{delay frames=\"8\"}}.{{delay frames=\"8\"}}.{{pageBreak}}{{anim id=\"0\"}}... {{anim id=\"1\"}}faire bouger {{fun_00060005 arg=\"\"}} en\nouvrant une discothèque :\n{{fun_00040007 arg=\"\"}}{{anim id=\"42\"}}{{delay frames=\"10\"}}le {{color id=\"2\"}}Club MDR{{color id=\"65535\"}}!{{delay frames=\"40\"}}{{fun_00050007 arg=\"\"}} {{size value=\"75\"}}La foule est en délire!{{size value=\"100\"}}\n.{{delay frames=\"5\"}}.{{delay frames=\"5\"}}.{{delay frames=\"5\"}}{{anim id=\"9\"}}{{delay frames=\"10\"}} Vent glacial de force 7 {{anim id=\"19\"}}en\nprovenance du maire{{delay frames=\"5\"}}.{{delay frames=\"5\"}}.{{delay frames=\"5\"}}."
  },
  {
    "label": "017",
    "text": "{{delay frames=\"5\"}}{{anim id=\"18\"}}{{delay frames=\"10\"}}Mais ALLEZ, quoi!{{delay frames=\"30\"}} {{delay frames=\"5\"}}{{anim id=\"10\"}}{{delay frames=\"10\"}}Je suis sûr que\ntu adorerais cette discothèque{{delay frames=\"8\"}}.{{delay frames=\"8\"}}.{{delay frames=\"8\"}}.{{pageBreak}}{{anim id=\"11\"}}Bouhou, que vais-je faire\nmaintenant{{delay frames=\"8\"}}.{{delay frames=\"8\"}}.{{delay frames=\"8\"}}.{{delay frames=\"15\"}}? Je ne peux pas ouvrir\nsans l'autorisation du maire{{delay frames=\"8\"}}.{{delay frames=\"8\"}}.{{delay frames=\"8\"}}."
  },
  {
    "label": "018",
    "text": "Bah, {{delay frames=\"10\"}}{{anim id=\"6\"}}ce n'est pas un refus qui\nanéantira ma détermination! Foi de\nvieil humoriste!{{pageBreak}}{{anim id=\"0\"}}Il ne me reste plus qu'à espérer que\ntu t'aperçoives des bienfaits de mon\nprojet pour cette ville!\n{{anim id=\"11\"}}Je vais donc me rendre à la rue\ncommerçante comme un prince, et\nchercher un emplacement{{delay frames=\"8\"}}.{{delay frames=\"8\"}}.{{delay frames=\"8\"}}.\n{{anim id=\"1\"}}Si tu changes d'avis et que tu veux\nme donner ton feu vert,{{delay frames=\"10\"}} tu me\ntrouveras dans cette rue.\nJ'espère te revoir {{anim id=\"32\"}}très bientôt,\ncher maire!"
  },
  {
    "label": "019",
    "text": ""
  },
  {
    "label": "021",
    "text": "{{anim id=\"1\"}}Merci d'aller rassembler ces\nsignatures pour moi!{{fun_00010007 arg=\"\"}} Le destin du\n{{color id=\"2\"}}Club MDR {{color id=\"65535\"}}est entre tes mains!\n{{anim id=\"0\"}}Lorsque tu auras rassemblé les\nsignatures,{{delay frames=\"10\"}} apporte-les-moi dans la\nrue commerçante!"
  },
  {
    "label": "022",
    "text": "{{anim id=\"1\"}}Je compte sur toi pour me ramener\nces précieuses signatures!{{pageBreak}}Je serai dans la rue commerçante,\n{{delay frames=\"10\"}}maintenant tu sais où m'amener la\n{{color id=\"2\"}}pétition {{color id=\"65535\"}}une fois complétée."
  },
  {
    "label": "023",
    "text": "{{anim id=\"1\"}}Je compte sur toi pour me ramener\nces précieuses signatures!{{pageBreak}}{{anim id=\"0\"}}{{delay frames=\"5\"}}.{{delay frames=\"5\"}}.{{delay frames=\"5\"}}.{{delay frames=\"5\"}}{{anim id=\"15\"}}{{delay frames=\"10\"}}Oh!{{delay frames=\"20\"}} Je crois que je peux te\ndonner la {{color id=\"2\"}}pétition {{color id=\"65535\"}}tout de suite!{{fun_00010007 arg=\"\"}}\n{{delay frames=\"5\"}}{{anim id=\"38\"}}{{delay frames=\"10\"}}Un instant, que je la retrouve...!"
  },
  {
    "label": "024",
    "text": "{{anim id=\"1\"}}Ceci est une {{color id=\"2\"}}pétition{{color id=\"65535\"}}.\nMontre-la aux habitants de la ville,\net ils la signeront. Ou pas.\n{{anim id=\"0\"}}Je me suis déjà occupé de\nconvaincre les commerçants,{{delay frames=\"10\"}} alors il\nne manque plus que {{color id=\"2\"}}six {{color id=\"65535\"}}résidents!"
  },
  {
    "label": "025",
    "text": "Je suis certain qu'un jour, tu\nchangeras d'avis et me laisseras\nouvrir ma discothèque!\n{{anim id=\"1\"}}Je compte traîner un peu du côté de\nla rue commerçante.{{pageBreak}}Lorsque tu auras changé d'avis,\npréviens-moi au galop!"
  },
  {
    "label": "026",
    "text": ""
  },
  {
    "label": "027",
    "text": ""
  },
  {
    "label": "028",
    "text": ""
  },
  {
    "label": "029",
    "text": ""
  },
  {
    "label": "031",
    "text": "{{anim id=\"1\"}}Je compte sur toi pour m'obtenir\nces précieuses signatures!{{pageBreak}}Je serai du côté de la rue\ncommerçante,{{delay frames=\"10\"}} passe me voir quand\ntu auras les signatures."
  },
  {
    "label": "032",
    "text": "Bien bien, {{delay frames=\"10\"}}c'est pas tout ça, mais\nj'ai ma grande ouverture à préparer.\nJe resterai dans le coin{{delay frames=\"8\"}}.{{delay frames=\"8\"}}.{{delay frames=\"8\"}}.{{pageBreak}}{{anim id=\"1\"}}Quand tu auras rassemblé toutes les\nsignatures,{{delay frames=\"5\"}} ou si tu veux me voir,\nje serai sûrement par ici!\nJe{{anim id=\"32\"}} compte sur toi! Bonne chance!"
  },
  {
    "label": "033",
    "text": "{{anim id=\"1\"}}Tiens donc, {{fun_0006000E arg=\"0x10004D006F006E00730069006500750072000C004D006100640061006D006500\"}} le maire!{{pageBreak}}{{anim id=\"39\"}}Quel bon vent t'amène?{{delay frames=\"10\"}} Tu as\nchangé d'avis?{{fun_00010007 arg=\"\"}} {{anim id=\"23\"}}Tu veux bien que\nj'ouvre ma discothèque?{{fun_0008000D arg=\"0x02CD\"}}{{fun_0005000F arg=\"0x15002800\"}}\nAllez, si tu y tiens!\nTu rêves, mon vieux!"
  },
  {
    "label": "034",
    "text": "{{delay frames=\"5\"}}{{anim id=\"10\"}}{{delay frames=\"10\"}}Pff, t'es pas marrant{{fun_0006000E arg=\"0x000002006500\"}}{{delay frames=\"8\"}}.{{delay frames=\"8\"}}.{{delay frames=\"8\"}}. {{anim id=\"6\"}}Mais je\npersisterai jusqu'à ce que tu\nchanges d'avis! Mon jour viendra!"
  },
  {
    "label": "035",
    "text": ".{{delay frames=\"5\"}}.{{delay frames=\"5\"}}.{{delay frames=\"5\"}}.{{delay frames=\"5\"}}.{{delay frames=\"5\"}}.{{delay frames=\"5\"}}{{anim id=\"15\"}} AH{{delay frames=\"10\"}}!{{delay frames=\"20\"}} {{anim id=\"2\"}}{{delay frames=\"10\"}}Je ne suis pas voyant,{{delay frames=\"10\"}} mais\nje savais que ce jour viendrait!{{fun_00010007 arg=\"\"}} {{anim id=\"3\"}}Ma\npatience a fini par payer!"
  },
  {
    "label": "036",
    "text": "{{anim id=\"11\"}}Ah, {{delay frames=\"10\"}}tu vas avoir besoin d'une\n{{color id=\"2\"}}pétition{{color id=\"65535\"}} à faire signer{{delay frames=\"8\"}}.{{delay frames=\"8\"}}.{{delay frames=\"8\"}}.{{delay frames=\"15\"}}{{pageBreak}}{{anim id=\"9\"}}Mais ton inventaire semble rempli!\nJe ne peux donc pas te la remettre\npour le moment.\n{{anim id=\"0\"}}Je dois préparer l'inauguration,\nalors je serai souvent dans les\nparages{{delay frames=\"8\"}}.{{delay frames=\"8\"}}.{{delay frames=\"8\"}}.\n{{anim id=\"1\"}}Viens récupérer la pétition auprès\nde moi{{delay frames=\"5\"}} dès que possible!{{fun_00010007 arg=\"\"}}\nJe{{anim id=\"32\"}} t'attendrai ici!"
  },
  {
    "label": "037",
    "text": ""
  },
  {
    "label": "038",
    "text": ""
  },
  {
    "label": "039",
    "text": ""
  },
  {
    "label": "041",
    "text": ""
  },
  {
    "label": "042",
    "text": "{{anim id=\"1\"}}Salut,{{delay frames=\"15\"}} comment se passe la chasse\naux signatures? Ça roule?{{fun_0005000F arg=\"0x00000000\"}}\nJ'ai terminé!\nÇa vient, ça vient."
  },
  {
    "label": "043",
    "text": "{{delay frames=\"5\"}}{{anim id=\"38\"}}{{delay frames=\"10\"}}Super!{{delay frames=\"10\"}} Continue ainsi!{{fun_00010007 arg=\"\"}}\n{{anim id=\"0\"}}N'oublie pas,{{delay frames=\"10\"}} le destin du {{color id=\"2\"}}Club MDR{{color id=\"65535\"}}\n{{anim id=\"1\"}}ne dépend que de toi!"
  },
  {
    "label": "044",
    "text": ""
  },
  {
    "label": "045",
    "text": ""
  },
  {
    "label": "046",
    "text": ""
  },
  {
    "label": "047",
    "text": ""
  },
  {
    "label": "048",
    "text": ""
  },
  {
    "label": "049",
    "text": ""
  },
  {
    "label": "050",
    "text": ""
  },
  {
    "label": "051",
    "text": "{{delay frames=\"5\"}}{{anim id=\"15\"}}{{delay frames=\"10\"}}C'EST VRAI?!{{delay frames=\"20\"}} {{anim id=\"1\"}}Est-ce que je peux\nvoir la {{color id=\"2\"}}pétition{{color id=\"65535\"}}?"
  },
  {
    "label": "052",
    "text": "{{delay frames=\"5\"}}{{anim id=\"23\"}}{{delay frames=\"10\"}}Oh?{{delay frames=\"10\"}} Un problème?{{delay frames=\"20\"}}\n{{anim id=\"9\"}}Hmmmm{{delay frames=\"8\"}}.{{delay frames=\"8\"}}.{{delay frames=\"8\"}}.{{pageBreak}}{{anim id=\"0\"}}Bien,{{delay frames=\"5\"}} je n'insiste pas.{{delay frames=\"10\"}} {{anim id=\"1\"}}Bonne chance\npour le reste des signatures!"
  },
  {
    "label": "053",
    "text": "{{delay frames=\"5\"}}{{anim id=\"9\"}}{{delay frames=\"10\"}}Hein{{delay frames=\"5\"}}.{{delay frames=\"5\"}}.{{delay frames=\"5\"}}.{{delay frames=\"5\"}}?{{delay frames=\"20\"}} {{anim id=\"6\"}}Mais la pétition est vide!{{fun_00010007 arg=\"\"}}\n{{anim id=\"13\"}}Enfin!{{delay frames=\"10\"}} Je compte sur toi! Ne me\nlaisse pas tomber comme ça!"
  },
  {
    "label": "054",
    "text": "{{delay frames=\"5\"}}{{anim id=\"23\"}}{{delay frames=\"10\"}}Hein?{{delay frames=\"20\"}} {{anim id=\"9\"}}Il manque des signatures{{delay frames=\"8\"}}.{{delay frames=\"8\"}}.{{delay frames=\"8\"}}.{{pageBreak}}{{anim id=\"0\"}}Sans {{color id=\"2\"}}six{{color id=\"65535\"}} signatures,{{delay frames=\"10\"}} je n'aurai pas le\ndroit de m'établir, {{anim id=\"1\"}}tu comprends?"
  },
  {
    "label": "055",
    "text": "{{delay frames=\"5\"}}{{anim id=\"16\"}}{{delay frames=\"10\"}}Ça alors!{{delay frames=\"10\"}} Tu m'as obtenu toutes les\nsignatures!{{delay frames=\"20\"}} {{anim id=\"3\"}}Je t'aaaime!{{pageBreak}}{{anim id=\"1\"}}Je te reprends cette pétition, et je\nme mets tout de suite au travail!"
  },
  {
    "label": "056",
    "text": "Maintenant que j'ai une autorisation\nen bonne et due forme,{{delay frames=\"10\"}} il ne me\nreste plus qu'à construire!\n{{anim id=\"11\"}}Hmm... Je ne sais pas encore quand\nje serai prêt à ouvrir{{delay frames=\"8\"}}.{{delay frames=\"8\"}}.{{delay frames=\"8\"}}.{{delay frames=\"20\"}} {{anim id=\"1\"}}mais je vais\nfaire aussi vite que possible.\n{{anim id=\"0\"}}Je pense ouvrir ma salle au sous-sol,\net je t'invite à voir l'avancement\ndes travaux quand tu veux!\nOH! Et avant que j'oublie{{delay frames=\"8\"}}.{{delay frames=\"8\"}}.{{delay frames=\"8\"}}.{{delay frames=\"20\"}}\n{{anim id=\"32\"}}{{delay frames=\"5\"}}Merci, merci beaucoup!"
  },
  {
    "label": "057",
    "text": ""
  },
  {
    "label": "058",
    "text": ""
  },
  {
    "label": "059",
    "text": ""
  },
  {
    "label": "061",
    "text": "{{anim id=\"1\"}}Je vais accélérer la cadence pour\npouvoir ouvrir dès que possible!{{pageBreak}}{{delay frames=\"5\"}}{{anim id=\"38\"}}{{delay frames=\"10\"}}J'espère que tu es aussi impatient{{fun_0006000E arg=\"0x000002006500\"}}\nque je le suis!"
  },
  {
    "label": "062",
    "text": "{{anim id=\"5\"}}J'ai vraiment bien fait de te\ndemander de m'aider!"
  },
  {
    "label": "063",
    "text": "{{anim id=\"1\"}}Je suis certain que ma discothèque\nte plaira,{{delay frames=\"10\"}} alors je t'invite à repasser\ndès l'inauguration!"
  },
  {
    "label": "064",
    "text": ""
  },
  {
    "label": "065",
    "text": ""
  }
]