﻿[
  {
    "label": "001",
    "text": "{{fun_0001000A arg=\"0x0C000D00\"}}"
  },
  {
    "label": "002",
    "text": "{{fun_00000009 arg=\"0x0E000F00\"}}"
  },
  {
    "label": "003",
    "text": "{{fun_00010009 arg=\"0x0F0011001200\"}}"
  },
  {
    "label": "004",
    "text": "J'ai essayé un peu tous les types de\ncafé,{{delay frames=\"10\"}} mais c'est l'arôme du\n{{color id=\"2\"}}Kilimandjaro {{color id=\"65535\"}}que je préfère."
  },
  {
    "label": "005",
    "text": "Je comprendrai jamais les gens qui\nmettent du lait dans leur café...{{pageBreak}}Pour moi le café, il doit être amer,\n{{color id=\"2\"}}sans lait{{color id=\"65535\"}}, sinon je pique du nez."
  },
  {
    "label": "006",
    "text": "Je vois pas l'intérêt de mettre du\nsucre dans le café.{{pageBreak}}Moi c'est {{color id=\"2\"}}sans sucre{{color id=\"65535\"}}.{{delay frames=\"20\"}} Plus c'est\namer, mieux c'est!{{delay frames=\"20\"}} Sinon c'est\nmême pas la peine d'aller bosser."
  },
  {
    "label": "007",
    "text": ""
  },
  {
    "label": "008",
    "text": "{{fun_00010009 arg=\"0x150016001700\"}}"
  },
  {
    "label": "009",
    "text": "{{fun_00010009 arg=\"0x1F0020002100\"}}"
  },
  {
    "label": "010",
    "text": "{{fun_00010009 arg=\"0x29002A002B00\"}}"
  },
  {
    "label": "012",
    "text": "{{anim id=\"6\"}}{{delay frames=\"10\"}}T'as aucune chance, laisse tomber!{{delay frames=\"10\"}}\n{{color id=\"5\"}}(Mais lâchez-moi, les mecs!){{color id=\"65535\"}}"
  },
  {
    "label": "013",
    "text": ".{{delay frames=\"10\"}}.{{delay frames=\"10\"}}.{{delay frames=\"10\"}} {{anim id=\"6\"}}{{delay frames=\"10\"}}La place est prise, tu vois pas?"
  },
  {
    "label": "014",
    "text": ".{{delay frames=\"10\"}}.{{delay frames=\"10\"}}.{{delay frames=\"10\"}} Quoi?{{delay frames=\"20\"}} Encore toi?!"
  },
  {
    "label": "015",
    "text": ".{{delay frames=\"10\"}}.{{delay frames=\"10\"}}.{{delay frames=\"10\"}} Quoi.{{delay frames=\"20\"}} Tu veux ma photo?"
  },
  {
    "label": "016",
    "text": ""
  },
  {
    "label": "017",
    "text": ".{{delay frames=\"10\"}}.{{delay frames=\"10\"}}.{{delay frames=\"10\"}} Juste entre nous.{{delay frames=\"20\"}} T'es pas du\ngenre matinal, je me trompe?"
  },
  {
    "label": "018",
    "text": ".{{delay frames=\"10\"}}.{{delay frames=\"10\"}}.{{delay frames=\"10\"}} B'jour."
  },
  {
    "label": "019",
    "text": ""
  },
  {
    "label": "021",
    "text": "Avec l'arrivée de l'e-mail, {{delay frames=\"10\"}}je me\nsuis dit que les gens arrêteraient\npeut-être d'envoyer des lettres{{delay frames=\"8\"}}.{{delay frames=\"8\"}}.{{delay frames=\"8\"}}.\n{{anim id=\"6\"}}Tu parles!{{delay frames=\"5\"}} On continue à travailler\n24 heures sur 24!{{fun_00010007 arg=\"\"}} C'est pas une\nvie."
  },
  {
    "label": "022",
    "text": "{{fun_001A000A arg=\"0x19001A00\"}}"
  },
  {
    "label": "023",
    "text": "{{fun_0001000C arg=\"\"}}{{delay frames=\"5\"}}{{anim id=\"15\"}}{{delay frames=\"10\"}}Ah,{{fun_0007000C arg=\"\"}}{{delay frames=\"10\"}} {{color id=\"4\"}}Robusto{{color id=\"65535\"}}!{{delay frames=\"20\"}} Avant que j'oublie.\nTu me fais deux cafés à emporter?{{pageBreak}}Un pour moi,{{delay frames=\"10\"}} un pour {{color id=\"4\"}}Opélie{{color id=\"65535\"}}.{{fun_00010007 arg=\"\"}} Et pas\ntiédasses, s'il te plaît!{{fun_0009000C arg=\"\"}}"
  },
  {
    "label": "024",
    "text": "{{delay frames=\"10\"}}{{fun_0002000C arg=\"\"}}{{fun_0003000C arg=\"\"}}{{delay frames=\"10\"}}Deux cafés qui marchent{{delay frames=\"8\"}}.{{delay frames=\"8\"}}.{{delay frames=\"8\"}}."
  },
  {
    "label": "025",
    "text": "J'ai travaillé à la mairie moi aussi,\ndu temps de ton prédécesseur!{{pageBreak}}Si tu l'avais vu, toujours à roupiller\ndans un coin...{{delay frames=\"20\"}} Pour les fêtes par\ncontre, il était toujours là!\nSi t'étais arrivé{{fun_0006000E arg=\"0x000002006500\"}} avant,{{delay frames=\"5\"}} ça aurait\npeut-être été moins galère..."
  },
  {
    "label": "026",
    "text": "J'étais employé à la mairie bien\navant {{fun_000A000E arg=\"0x080071007500650020000600710075002700\"}}{{fun_001B0005 arg=\"0x00CD\"}} ne devienne\nmaire!{{pageBreak}}Le maire de mon époque était\ntoujours à roupiller...{{delay frames=\"20\"}} Pour les fêtes\npar contre, il était en pleine forme!\nSi {{fun_001B0005 arg=\"0x00CD\"}} était arrivé{{fun_0005000E arg=\"0x000002006500\"}} avant,{{delay frames=\"5\"}}\nça aurait peut-être été moins\ngalère..."
  },
  {
    "label": "027",
    "text": ""
  },
  {
    "label": "028",
    "text": ""
  },
  {
    "label": "029",
    "text": ""
  },
  {
    "label": "031",
    "text": "Le café et les chewing-gums, c'est\ntoute ma vie!"
  },
  {
    "label": "032",
    "text": "Avant, je me préparais un thermos\nde café tous les soirs, pour en\nramener au boulot!\nDepuis que {{color id=\"4\"}}Robusto {{color id=\"65535\"}}est là, c'est lui\nqui me fournit ma dose quotidienne\nde caféine{{delay frames=\"8\"}}.{{delay frames=\"8\"}}.{{delay frames=\"8\"}}."
  },
  {
    "label": "033",
    "text": "Haaa,{{delay frames=\"20\"}} {{color id=\"4\"}}Robusto{{color id=\"65535\"}},{{delay frames=\"10\"}} qu'est-ce que je\nferais sans toi?{{fun_0009000C arg=\"\"}}"
  },
  {
    "label": "034",
    "text": "{{delay frames=\"10\"}}{{fun_0002000C arg=\"\"}}{{fun_0003000C arg=\"\"}}{{delay frames=\"8\"}}.{{delay frames=\"8\"}}.{{delay frames=\"8\"}}.{{delay frames=\"8\"}}.{{delay frames=\"8\"}}.{{delay frames=\"8\"}}.{{delay frames=\"8\"}}.{{delay frames=\"8\"}}.{{delay frames=\"8\"}}."
  },
  {
    "label": "035",
    "text": ""
  },
  {
    "label": "036",
    "text": ""
  },
  {
    "label": "037",
    "text": ""
  },
  {
    "label": "038",
    "text": ""
  },
  {
    "label": "039",
    "text": ""
  },
  {
    "label": "041",
    "text": "Haa{{delay frames=\"8\"}}.{{delay frames=\"8\"}}.{{delay frames=\"8\"}}.{{delay frames=\"15\"}} j'espère que le collègue va\npas venir m'ennuyer ce soir{{delay frames=\"8\"}}.{{delay frames=\"8\"}}.{{delay frames=\"8\"}}.{{pageBreak}}On le sait qu'il fait du bon travail,{{delay frames=\"10\"}}\nalors s'il pouvait arrêter de faire\nson intéressant!\n{{color id=\"4\"}}Opélie{{color id=\"65535\"}} a l'air de le supporter elle, je\nsais pas comment elle fait{{delay frames=\"8\"}}.{{delay frames=\"8\"}}.{{delay frames=\"8\"}}."
  },
  {
    "label": "042",
    "text": "Je te vois souvent ici,{{delay frames=\"10\"}} force pas\ntrop sur le café, OK?{{pageBreak}}Je sais, je suis mal placée pour\nparler.{{delay frames=\"20\"}} En tout cas, moi je me\nlimite."
  },
  {
    "label": "043",
    "text": "Il est pas un peu tard pour prendre\nun café?{{delay frames=\"10\"}} Tu as fini de travailler?{{delay frames=\"20\"}}\nOu pas encore commencé?{{fun_00010008 arg=\"0x2C0000002D0000002E000000\"}}\nJe viens de finir.\nJe vais m'y mettre.\nJe fais une pause."
  },
  {
    "label": "044",
    "text": "On a un point commun{{delay frames=\"8\"}}.{{delay frames=\"8\"}}.{{delay frames=\"8\"}}.{{delay frames=\"15\"}} on\ntravaille tard, {{fun_0006000E arg=\"0x080074006F00750073000C0074006F007500740065007300\"}} les deux!"
  },
  {
    "label": "045",
    "text": "On travaille de nuit {{fun_0006000E arg=\"0x080074006F00750073000C0074006F007500740065007300\"}} les deux\non dirait{{delay frames=\"8\"}}.{{delay frames=\"8\"}}.{{delay frames=\"8\"}}.{{delay frames=\"15\"}}{{fun_00010007 arg=\"\"}} Je te souhaite bien du\ncourage!"
  },
  {
    "label": "046",
    "text": "{{anim id=\"6\"}}Ah je vois{{delay frames=\"8\"}}.{{delay frames=\"8\"}}.{{delay frames=\"8\"}}.{{delay frames=\"15\"}}\n{{color id=\"5\"}}(Je crois que j'ai fait une gaffe...){{color id=\"65535\"}}"
  },
  {
    "label": "047",
    "text": ""
  },
  {
    "label": "048",
    "text": ""
  },
  {
    "label": "049",
    "text": ""
  },
  {
    "label": "050",
    "text": ""
  }
]