﻿[
  {
    "label": "001",
    "text": "{{anim id=\"37\"}}Oh, c'est encore toi.\n{{fun_0003000E arg=\"\"}}{{fun_00060007 arg=\"\"}}Re-bonjour{{fun_00070007 arg=\"\"}}.{{pageBreak}}Alors, {{fun_00080005 arg=\"\"}}?\nTout va comme tu veux?\n{{fun_0003000E arg=\"\"}}{{fun_00070005 arg=\"\"}}?"
  },
  {
    "label": "002",
    "text": "Tiens, {{fun_00080005 arg=\"\"}}... Tout va bien,\n{{fun_00070005 arg=\"\"}}? Quel beau solstice\nnous avons cette année!"
  },
  {
    "label": "003",
    "text": "{{anim id=\"37\"}}Hé hé! {{delay frames=\"5\"}}On dirait que nous\nn'arrêtons pas de nous croiser\naujourd'hui, {{fun_00080005 arg=\"\"}}.\n{{anim id=\"9\"}}Tu ne devrais pas courir comme ça.\nMénage-toi car cette journée va\nêtre très longue, {{fun_00070005 arg=\"\"}}."
  },
  {
    "label": "004",
    "text": "{{anim id=\"37\"}}{{fun_0003000E arg=\"\"}}{{fun_00060007 arg=\"\"}}Bonjour {{fun_00080005 arg=\"\"}}{{fun_00070007 arg=\"\"}}.{{delay frames=\"10\"}}\nC'est sympa d'avoir une journée\naussi longue, mais dis-moi...\n{{anim id=\"34\"}}... Tu n'as pas chaud, toi?{{delay frames=\"10\"}} Moi je\nsuis en train de fondre comme\nun bonhomme de neige au soleil.\n{{anim id=\"10\"}}Ah... De la neige, {{fun_00080005 arg=\"\"}}...\n{{fun_0003000E arg=\"\"}}{{fun_00070005 arg=\"\"}}... Si seulement..."
  },
  {
    "label": "005",
    "text": "{{anim id=\"15\"}}Oh, {{fun_00080005 arg=\"\"}}! C'est encore toi...\nJ'ai l'impression de te voir partout\naujourd'hui!\n{{anim id=\"37\"}}On dirait que le soleil du solstice\nd'été te donne toute son énergie,\n{{fun_00070005 arg=\"\"}}."
  },
  {
    "label": "006",
    "text": "{{anim id=\"37\"}}Bien, {{delay frames=\"10\"}}bien, {{delay frames=\"10\"}}bien, {{delay frames=\"10\"}}{{fun_00070005 arg=\"\"}}.{{delay frames=\"10\"}} On\ndirait que tu profites bien de ta\njournée.{{delay frames=\"20\"}} Où que j'aille, tu es là.\nOn ne voit que toi partout\naujourd'hui.{{delay frames=\"20\"}} Un peu comme ce\nmagnifique soleil.{{delay frames=\"10\"}}"
  },
  {
    "label": "007",
    "text": "{{anim id=\"37\"}}Bonsoir {{fun_00080005 arg=\"\"}}. J'ai du mal à\ncroire qu'il est déjà si tard...{{pageBreak}}C'est drôle comme on perd la notion\ndu temps quand le soleil ne se\ncouche pas, {{fun_00070005 arg=\"\"}}."
  },
  {
    "label": "008",
    "text": "{{anim id=\"37\"}}Encore toi? {{delay frames=\"10\"}}Tu sais, tu ne seras\njamais en forme demain si tu ne vas\npas te coucher, {{fun_00070005 arg=\"\"}}."
  },
  {
    "label": "009",
    "text": "{{anim id=\"37\"}}Toujours debout, {{fun_00080005 arg=\"\"}}?{{delay frames=\"20\"}}\n{{anim id=\"25\"}}Te voir courir comme ça à cette\nheure, {{delay frames=\"5\"}}ça m'épuise, {{fun_00070005 arg=\"\"}}!"
  }
]