﻿[
  {
    "label": "001",
    "text": "{{anim id=\"1\"}}J'ai entendu dire que tu aurais\n{{fun_0002000E arg=\"\"}}{{fun_00030011 arg=\"0x0000\"}}.{{pageBreak}}Oh,{{delay frames=\"20\"}} cela fait si longtemps que j'en\ncherche {{fun_0008000E arg=\"0x00CD040075006E00060075006E0065000000\"}}, {{fun_00070005 arg=\"\"}}!{{fun_0000000A arg=\"0x0404001200CD\"}}"
  },
  {
    "label": "002",
    "text": "{{anim id=\"39\"}}Dis-moi{{delay frames=\"8\"}}.{{delay frames=\"8\"}}.{{delay frames=\"8\"}}.{{delay frames=\"8\"}} J'ai entendu dire que tu\naurais un objet très sympa,\n{{fun_00080005 arg=\"\"}}...{{fun_00060009 arg=\"0x17001700170017001700170017001B00\"}}"
  },
  {
    "label": "003",
    "text": "{{anim id=\"16\"}}Oh! {{delay frames=\"20\"}}{{fun_0003000E arg=\"\"}}{{fun_00080005 arg=\"\"}}! {{delay frames=\"10\"}}Est-il vrai que tu\npossèdes {{fun_0002000E arg=\"\"}}\n{{fun_00030011 arg=\"0x0000\"}}?{{fun_00050008 arg=\"0x2200150021002800\"}}\nOui, c'est vrai.\nNon. Je n'en ai pas."
  },
  {
    "label": "004",
    "text": "{{anim id=\"1\"}}Puisque toi et moi sommes ami{{fun_0006000E arg=\"0x02007300040065007300\"}},\n{{fun_00080005 arg=\"\"}},{{delay frames=\"20\"}} je me disais que tu\nvoudrais bien me vendre cet objet.{{fun_00050008 arg=\"0x0500000008002800\"}}\nCombien tu offres?\nNon, je garde."
  },
  {
    "label": "005",
    "text": "{{fun_000D0007 arg=\"\"}}{{anim id=\"11\"}}Puisque c'est toi, je vais te\nproposer un bon prix.{{delay frames=\"15\"}} Voyons{{delay frames=\"8\"}}.{{delay frames=\"8\"}}.{{delay frames=\"8\"}}.{{delay frames=\"15\"}}\nDisons{{delay frames=\"8\"}}.{{delay frames=\"8\"}}.{{delay frames=\"8\"}}.{{delay frames=\"15\"}} {{color id=\"2\"}}{{fun_000B0004 arg=\"0x0000\"}} clochettes{{color id=\"65535\"}}?{{fun_0008000D arg=\"0x02CD\"}}{{fun_00050008 arg=\"0x0600150009002800\"}}\nOK, ça marche!\nPfff... Non merci."
  },
  {
    "label": "006",
    "text": "{{anim id=\"16\"}}Oh! {{delay frames=\"45\"}}{{anim id=\"37\"}}C'est magnifique! {{delay frames=\"45\"}}Tiens, {{delay frames=\"15\"}}voici\n{{color id=\"2\"}}{{fun_000B0004 arg=\"0x0000\"}}{{color id=\"65535\"}}{{color id=\"2\"}} clochettes{{color id=\"65535\"}}."
  },
  {
    "label": "007",
    "text": "{{anim id=\"4\"}}Oh, merci beaucoup! Tu es un\namour, {{fun_00080005 arg=\"\"}}!"
  },
  {
    "label": "008",
    "text": "{{fun_00020009 arg=\"0x0900090009000A00\"}}"
  },
  {
    "label": "009",
    "text": "{{anim id=\"9\"}}Alors c'est non? {{delay frames=\"60\"}}Oh... {{delay frames=\"30\"}}J'en avais\ntellement envie... {{delay frames=\"45\"}}Bon... {{delay frames=\"20\"}}Je\ndemanderai à quelqu'un d'autre..."
  },
  {
    "label": "010",
    "text": "{{anim id=\"9\"}}Tu ne souhaites pas vendre?{{delay frames=\"20\"}} Ah?{{pageBreak}}Et si, en complément, je rajoutais\n{{fun_0002000E arg=\"\"}}{{fun_00130005 arg=\"0x0300\"}} {{fun_0008000E arg=\"0x03CD080066006100690074000A00660061006900740065000000\"}}\nmaison?{{fun_00050008 arg=\"0x0C0000000B002800\"}}\nÇa mérite réflexion...\nJ'ai dit non."
  },
  {
    "label": "011",
    "text": "{{anim id=\"19\"}}Hmm{{delay frames=\"8\"}}.{{delay frames=\"8\"}}.{{delay frames=\"8\"}}.{{delay frames=\"8\"}} Je vois{{delay frames=\"8\"}}.{{delay frames=\"8\"}}.{{delay frames=\"8\"}}.{{delay frames=\"8\"}} Tu n'as pas\nconfiance en mes talents de\ncuisinière...\nCe n'est pas grave. Je finirai bien\npar trouver mon bonheur..."
  },
  {
    "label": "012",
    "text": "{{anim id=\"13\"}}S'il te plaît, {{fun_00080005 arg=\"\"}},{{delay frames=\"20\"}} c'est\nvraiment important! {{delay frames=\"45\"}}Alors, {{delay frames=\"20\"}}veux-tu\nbien me vendre cet objet?{{fun_00050008 arg=\"0x0E0000000D002800\"}}\nCombien tu offres?\nNon. Pas question."
  },
  {
    "label": "013",
    "text": "{{anim id=\"19\"}}C'était pas sympa de me donner\nde l'espoir et d'ensuite me dire non,\n{{fun_00080005 arg=\"\"}}. {{delay frames=\"30\"}}Pas sympa du tout!{{pageBreak}}Pas grave!{{delay frames=\"20\"}} Je finirai bien par\ntrouver mon bonheur... ailleurs!{{delay frames=\"30\"}}\nPfff!"
  },
  {
    "label": "014",
    "text": "{{fun_00000009 arg=\"0x05000F00\"}}"
  },
  {
    "label": "015",
    "text": "{{anim id=\"9\"}}Si j'ai bien compris, {{delay frames=\"20\"}}il va falloir que\nje paie le prix fort{{delay frames=\"8\"}}.{{delay frames=\"8\"}}.{{delay frames=\"8\"}}.{{delay frames=\"8\"}} Allez{{delay frames=\"8\"}}.{{delay frames=\"8\"}}.{{delay frames=\"8\"}}.{{delay frames=\"8\"}}\n{{fun_000D0007 arg=\"\"}}{{anim id=\"6\"}}{{color id=\"2\"}}{{delay frames=\"20\"}}{{fun_000B0004 arg=\"0x0300\"}} clochettes{{color id=\"65535\"}}?{{fun_0008000D arg=\"0x02CD\"}}{{fun_00050008 arg=\"0x1100150010002800\"}}\nSuper! D'accord!\nNon. C'est non."
  },
  {
    "label": "016",
    "text": "{{anim id=\"7\"}}Comment?! {{delay frames=\"30\"}}Même à ce prix\noutrageant,{{delay frames=\"20\"}} tu refuses encore?{{pageBreak}}{{anim id=\"10\"}}Alors je suppose que ce n'est pas\nune question d'argent et que tu y\ntiens vraiment.\nBon,{{delay frames=\"20\"}} tant pis.{{delay frames=\"30\"}} La chance finira bien\npar me sourire..."
  },
  {
    "label": "017",
    "text": "{{anim id=\"5\"}}Oh!{{delay frames=\"20\"}} C'est vrai? {{delay frames=\"30\"}}Magnifique! {{delay frames=\"30\"}}Même\nà {{color id=\"2\"}}{{fun_000B0004 arg=\"0x0300\"}}{{color id=\"65535\"}}{{color id=\"2\"}} clochettes{{color id=\"65535\"}},{{delay frames=\"10\"}} c'est une\naffaire!"
  },
  {
    "label": "018",
    "text": "{{anim id=\"39\"}}Voudrais-tu me vendre cet objet,\n{{fun_00080005 arg=\"\"}}?{{fun_00050008 arg=\"0x1300000009002800\"}}\nTu offres combien?\nNon. Je garde."
  },
  {
    "label": "019",
    "text": "{{fun_000D0007 arg=\"\"}}{{anim id=\"11\"}}Hmmm...{{delay frames=\"30\"}} Penses-tu que {{color id=\"2\"}}{{fun_000B0004 arg=\"0x0100\"}}\n{{color id=\"65535\"}}{{color id=\"2\"}}clochettes{{color id=\"65535\"}} soit un prix raisonnable?{{fun_0008000D arg=\"0x02CD\"}}{{fun_00050008 arg=\"0x1400150016002800\"}}\nAllez. On va dire oui.\nNon. C'est trop peu."
  },
  {
    "label": "020",
    "text": "{{anim id=\"9\"}}Oh? {{delay frames=\"20\"}}Désolée si tu trouves que cela\nfait un peu juste...{{delay frames=\"30\"}} Je ne peux\nvraiment pas t'en offrir plus.\nVoici tes {{color id=\"2\"}}{{fun_000B0004 arg=\"0x0100\"}}{{color id=\"65535\"}}{{color id=\"2\"}} clochettes{{color id=\"65535\"}}."
  },
  {
    "label": "021",
    "text": "{{anim id=\"1\"}}J'en prendrai grand soin,\n{{fun_00080005 arg=\"\"}}.{{delay frames=\"30\"}} Merci encore de m'avoir\nvendu cette merveille!"
  },
  {
    "label": "022",
    "text": "{{anim id=\"9\"}}Oh,{{delay frames=\"20\"}} c'est vraiment dommage... {{delay frames=\"30\"}}C'est\ntout ce que je pouvais t'en offrir...{{delay frames=\"45\"}}\nTant pis.{{delay frames=\"20\"}} Je m'en passerai."
  },
  {
    "label": "023",
    "text": "{{fun_000D0007 arg=\"\"}}{{anim id=\"39\"}}{{fun_0008000E arg=\"0x00CD100054006F006E0020006A006F006C00690010005400610020006A006F006C00690065000000\"}} {{fun_00030011 arg=\"0x0000\"}}\nm'intéresse, en fait. Me {{fun_0008000E arg=\"0x00CD04006C00650004006C0061000000\"}} vendrais-\ntu pour {{color id=\"2\"}}{{fun_000B0004 arg=\"0x0100\"}}{{color id=\"65535\"}}{{color id=\"2\"}} clochettes{{color id=\"65535\"}}?{{fun_0008000D arg=\"0x02CD\"}}{{fun_00050008 arg=\"0x1900150018002800\"}}\nC'est juste mais OK.\nNon. Pas à ce prix-là."
  },
  {
    "label": "024",
    "text": "{{anim id=\"9\"}}Vraiment pas? {{delay frames=\"45\"}}Bon,{{delay frames=\"20\"}} merci à toi\nd'avoir pris le temps de m'écouter."
  },
  {
    "label": "025",
    "text": "{{anim id=\"37\"}}Vraiment? {{delay frames=\"30\"}}Oh,{{delay frames=\"20\"}} magnifique! {{delay frames=\"45\"}}Et voici\n{{color id=\"2\"}}{{delay frames=\"16\"}}{{fun_000B0004 arg=\"0x0100\"}} clochettes{{color id=\"65535\"}}!"
  },
  {
    "label": "026",
    "text": "{{anim id=\"1\"}}J'ai du mal à croire que j'ai enfin\ntrouvé ce que je cherchais,\n{{fun_00080005 arg=\"\"}}.{{delay frames=\"8\"}}.{{delay frames=\"8\"}}.{{delay frames=\"8\"}} Et à si bon prix..."
  },
  {
    "label": "027",
    "text": "{{anim id=\"13\"}}Pour être tout à fait honnête avec\ntoi, {{fun_00080005 arg=\"\"}}, {{delay frames=\"20\"}}j'ai vraiment besoin\nd'{{fun_0002000E arg=\"\"}}{{fun_00030011 arg=\"0x0000\"}}.\n{{anim id=\"6\"}}Je suis prête à débourser jusqu'à\nma dernière clochette pour\nl'obtenir!{{fun_00000009 arg=\"0x1C001E00\"}}"
  },
  {
    "label": "028",
    "text": "{{anim id=\"11\"}}Alors voyons...{{delay frames=\"30\"}} Combien y a-t-il\ndans mon porte-monnaie...?{{delay frames=\"30\"}} {{fun_000D0007 arg=\"\"}}{{anim id=\"6\"}}Oh,{{delay frames=\"20\"}}\n{{color id=\"2\"}}{{fun_000B0004 arg=\"0x0300\"}} clochettes{{color id=\"65535\"}}!{{delay frames=\"20\"}}{{fun_0008000D arg=\"0x02CD\"}}{{fun_00050008 arg=\"0x1D00150018002800\"}}\nVendu!\nNon. Pas pour si peu."
  },
  {
    "label": "029",
    "text": "{{anim id=\"38\"}}Oh,{{delay frames=\"20\"}} je suis si heureuse! {{delay frames=\"45\"}}{{anim id=\"37\"}}Parfait!{{delay frames=\"30\"}}\nVoici donc {{color id=\"2\"}}{{fun_000B0004 arg=\"0x0300\"}}{{color id=\"65535\"}}{{color id=\"2\"}} clochettes {{color id=\"65535\"}}pour\ntoi!"
  },
  {
    "label": "030",
    "text": "{{anim id=\"11\"}}Alors voyons...{{delay frames=\"20\"}} Combien me\nreste-t-il?{{pageBreak}}{{fun_000D0007 arg=\"\"}}{{anim id=\"10\"}}Oh,{{delay frames=\"10\"}} seulement {{color id=\"2\"}}{{fun_000B0004 arg=\"0x0200\"}}{{color id=\"65535\"}}{{color id=\"2\"}} clochettes{{color id=\"65535\"}}.{{delay frames=\"8\"}}.{{delay frames=\"8\"}}.{{delay frames=\"8\"}}\nEuh... {{delay frames=\"20\"}}Cela suffira-t-il, {{fun_00080005 arg=\"\"}}?{{fun_0008000D arg=\"0x02CD\"}}{{fun_00050008 arg=\"0x1F00150020002800\"}}\nOui, c'est bon.\nC'est pas assez."
  },
  {
    "label": "031",
    "text": "{{anim id=\"18\"}}C'est vrai? {{delay frames=\"16\"}}Vraiment vrai?{{delay frames=\"45\"}} {{anim id=\"5\"}}C'est\nmerveilleux! {{delay frames=\"30\"}}Alors tiens. Voici tes\n{{color id=\"2\"}}{{fun_000B0004 arg=\"0x0200\"}}{{color id=\"65535\"}}{{color id=\"2\"}} clochettes{{color id=\"65535\"}}.\n{{anim id=\"9\"}}Je suis vraiment navrée de ne pas\navoir plus à t'offrir."
  },
  {
    "label": "032",
    "text": "{{anim id=\"12\"}}Oh... {{delay frames=\"20\"}}Oui... {{delay frames=\"20\"}}Je comprends,\n{{fun_00070005 arg=\"\"}}...{{pageBreak}}Moi non plus je ne m'en séparerais\npas pour si peu...{{delay frames=\"30\"}} Merci tout de\nmême, {{fun_00080005 arg=\"\"}}."
  },
  {
    "label": "033",
    "text": "{{anim id=\"15\"}}Non? {{delay frames=\"8\"}}Tu n'en as pas?{{fun_00010007 arg=\"\"}}{{anim id=\"27\"}} Oh...{{delay frames=\"20\"}} La\npersonne qui m'a dit ça a dû se\ntromper, alors{{delay frames=\"8\"}}.{{delay frames=\"8\"}}.{{delay frames=\"8\"}}.{{delay frames=\"20\"}} {{anim id=\"9\"}}Tant pis."
  },
  {
    "label": "034",
    "text": "{{anim id=\"5\"}}Magnifique! {{delay frames=\"20\"}}C'est ce que j'espérais.{{delay frames=\"30\"}}\nTu sais,{{delay frames=\"15\"}} cela fait très longtemps que\nje cherchais ça!\n{{fun_000D0007 arg=\"\"}}Je te l'achète! {{color id=\"2\"}}{{fun_000B0004 arg=\"0x0000\"}}{{color id=\"65535\"}}{{color id=\"2\"}} clochettes{{color id=\"65535\"}}.{{delay frames=\"20\"}}\nTu veux bien? {{delay frames=\"30\"}}S'il te plaît...{{fun_0008000D arg=\"0x02CD\"}}{{fun_00050008 arg=\"0x2400150023002800\"}}\nD'accord. Si tu veux.\nC'est non."
  },
  {
    "label": "035",
    "text": "{{anim id=\"19\"}}Ah. {{delay frames=\"20\"}}Bon.{{delay frames=\"20\"}} Tant pis. {{delay frames=\"30\"}}Désolée de\nt'avoir embêté{{fun_0006000E arg=\"0x000002006500\"}}, {{fun_00080005 arg=\"\"}}."
  },
  {
    "label": "036",
    "text": "{{anim id=\"15\"}}C'est vrai? {{delay frames=\"32\"}}{{anim id=\"1\"}}Magnifique! {{delay frames=\"30\"}}Tiens, {{delay frames=\"10\"}}voici\ntes {{color id=\"2\"}}{{delay frames=\"16\"}}{{color id=\"2\"}}{{fun_000B0004 arg=\"0x0000\"}}{{color id=\"2\"}} clochettes{{color id=\"65535\"}}."
  },
  {
    "label": "037",
    "text": "{{anim id=\"1\"}}Magnifique! {{delay frames=\"20\"}}Je le savais,\n{{fun_00080005 arg=\"\"}}.{{delay frames=\"20\"}} Je savais que tu me\nferais plaisir, {{fun_00070005 arg=\"\"}}!"
  },
  {
    "label": "038",
    "text": "{{anim id=\"1\"}}C'est ce qu'on appelle un achat\nimpulsif! {{delay frames=\"20\"}}Je t'assure que cela n'est\npas dans mes habitudes, {{fun_00080005 arg=\"\"}}."
  },
  {
    "label": "039",
    "text": "{{anim id=\"39\"}}Merci, {{fun_00080005 arg=\"\"}}. {{delay frames=\"30\"}}Je n'oublierai pas\nton geste, {{fun_00070005 arg=\"\"}}."
  }
]