﻿[
  {
    "label": "001",
    "text": "{{anim id=\"37\"}}Bienvenue à {{fun_00050005 arg=\"\"}}. {{delay frames=\"32\"}}J'espère\nque tu ne comptais pas profiter de\nta journée, {{fun_00080005 arg=\"\"}}.\nParce qu'en fait,{{delay frames=\"16\"}} il n'y en aura pas,{{delay frames=\"16\"}}\nde journée.{{delay frames=\"32\"}} {{anim id=\"27\"}}Il va faire nuit noire\njusqu'à demain.\nC'est comme ça tous les ans le jour\ndu solstice d'hiver, {{fun_00070005 arg=\"\"}}."
  },
  {
    "label": "002",
    "text": "{{anim id=\"37\"}}Bonjour! {{delay frames=\"20\"}}Oui, {{delay frames=\"5\"}}J'ai bien dit\n« bonjour ».{{delay frames=\"10\"}} Il fait encore noir\nmais c'est pourtant le matin{{delay frames=\"10\"}}!\n{{anim id=\"27\"}}Je ne sais pas pourquoi le soleil ne\nse lève pas le « jour » du solstice,{{delay frames=\"20\"}}\n{{anim id=\"37\"}}mais c'est comme ça, {{fun_00070005 arg=\"\"}}."
  },
  {
    "label": "003",
    "text": "{{anim id=\"37\"}}Quel courage! Venir à {{fun_00050005 arg=\"\"}} si\ntôt le matin, {{fun_00000005 arg=\"\"}}! Hélas le\nsoleil n'est pas si courageux, lui.\nPourquoi il fait nuit comme ça?{{delay frames=\"10\"}}\n{{anim id=\"27\"}}Bah, {{delay frames=\"10\"}}il y a des jours comme ça,\n{{fun_00070005 arg=\"\"}}."
  },
  {
    "label": "004",
    "text": "{{anim id=\"37\"}}Tu viens te balader à {{fun_00050005 arg=\"\"}}?\n{{delay frames=\"10\"}}Dommage que tu n'aies pas apporté\nle soleil avec toi, {{fun_00070005 arg=\"\"}}...\n{{anim id=\"7\"}}Oui, dommage! {{delay frames=\"10\"}}Parce que si tu\nl'avais amené, j'aurais pu lui dire ce\nque j'en pense, moi, de son solstice."
  },
  {
    "label": "005",
    "text": "{{anim id=\"37\"}}Bonjour {{fun_00000005 arg=\"\"}}.{{delay frames=\"10\"}} Enfin, si on\npeut dire. {{anim id=\"6\"}}Il fait toujours noir le jour\ndu solstice d'hiver, {{fun_00070005 arg=\"\"}}.\n{{anim id=\"37\"}}Bah, {{delay frames=\"20\"}}essayons de ne plus y penser..."
  },
  {
    "label": "006",
    "text": "{{anim id=\"37\"}}{{fun_0003000E arg=\"\"}}{{fun_00060007 arg=\"\"}}Bienvenue, {{fun_00000005 arg=\"\"}}{{fun_00070007 arg=\"\"}}.{{delay frames=\"10\"}}\nBienvenue dans une ville plongée\ndans les ténèbres, {{fun_00070005 arg=\"\"}}.\n{{anim id=\"27\"}}Ah, désolée. {{delay frames=\"10\"}}Cette obscurité, moi,\nça me donne le cafard. {{delay frames=\"10\"}}Je sens que\nje vais broyer du noir toute la nuit."
  },
  {
    "label": "007",
    "text": "{{anim id=\"37\"}}Bonsoir, {{fun_00000005 arg=\"\"}}.{{delay frames=\"10\"}}\nSi tu aimes visiter {{fun_00050005 arg=\"\"}} de\nnuit, tu vas être servi{{fun_0006000E arg=\"0x000002006500\"}}.\nAujourd'hui, c'est le solstice d'hiver.\nNous avons eu la nuit la plus longue\nde l'année, {{delay frames=\"10\"}}{{anim id=\"9\"}}et c'est loin d'être fini..."
  },
  {
    "label": "008",
    "text": "{{anim id=\"37\"}}Oh, ça fait plaisir de te voir ici à\n{{fun_00050005 arg=\"\"}}. {{delay frames=\"20\"}}{{anim id=\"37\"}}Toi, au moins, tu viens\nilluminer ma journée!\nJe n'ai pas vu le moindre rayon de\nsoleil aujourd'hui. {{delay frames=\"10\"}}{{anim id=\"38\"}}Enfin, sauf toi\nbien entendu, {{fun_00000005 arg=\"\"}}."
  },
  {
    "label": "009",
    "text": "Bienvenue à {{fun_00050005 arg=\"\"}}.{{delay frames=\"20\"}}\n{{anim id=\"27\"}}La ville obscure à la nuit sans fin...\nLà où le soleil ne brille jamais...\n{{anim id=\"12\"}}Oh, non, voilà que je recommence...{{delay frames=\"20\"}}\nJe suis désolée. Le solstice me fait\ntoujours déprimer comme ça.\nNe fais pas attention à moi, ça ira\nmieux demain, {{fun_00070005 arg=\"\"}}."
  },
  {
    "label": "010",
    "text": "{{anim id=\"37\"}}Qu'est-ce qui t'amène à {{fun_00050005 arg=\"\"}}\nsi tard le soir, {{fun_00000005 arg=\"\"}}? {{anim id=\"23\"}}Tu sais\nqu'il fait nuit depuis hier ici?\n{{delay frames=\"10\"}}Heureusement, le solstice d'hiver\nest presque terminé, {{fun_00070005 arg=\"\"}}!"
  },
  {
    "label": "011",
    "text": "{{anim id=\"23\"}}Tiens? {{fun_0003000E arg=\"\"}}{{fun_00000005 arg=\"\"}}!{{delay frames=\"10\"}}\nSi je m'attendais...{{delay frames=\"10\"}} Drôle de\nrencontre pour une drôle de nuit.\nLe soleil ne s'est même pas montré\naujourd'hui, {{delay frames=\"10\"}}et la journée n'aura été\nqu'une longue nuit.\n{{anim id=\"13\"}}Je suis toute déphasée maintenant,\n{{fun_00070005 arg=\"\"}}. C'est malin!"
  }
]