﻿[
  {
    "label": "001",
    "text": "{{fun_00010009 arg=\"0x09000A000B00\"}}"
  },
  {
    "label": "002",
    "text": "{{fun_00020009 arg=\"0x0C000D000E001D00\"}}"
  },
  {
    "label": "003",
    "text": "{{fun_00040009 arg=\"0x0F0010001100120013001D00\"}}"
  },
  {
    "label": "004",
    "text": "{{fun_00020009 arg=\"0x1400150016001D00\"}}"
  },
  {
    "label": "005",
    "text": "{{fun_00010009 arg=\"0x170018001900\"}}"
  },
  {
    "label": "006",
    "text": "{{fun_00010009 arg=\"0x1A001B001C00\"}}"
  },
  {
    "label": "007",
    "text": ""
  },
  {
    "label": "008",
    "text": ""
  },
  {
    "label": "009",
    "text": "{{anim id=\"23\"}}Toi aussi tu attends fébrilement le\nfeu d'artifice de ce soir,\n{{delay frames=\"8\"}}{{fun_00080005 arg=\"\"}}?{{delay frames=\"20\"}} {{anim id=\"3\"}}Moi j'en trépigne!{{delay frames=\"8\"}}"
  },
  {
    "label": "010",
    "text": "{{anim id=\"6\"}}Patience, {{delay frames=\"8\"}}{{fun_00080005 arg=\"\"}}. {{delay frames=\"30\"}}Le spectacle\nva bientôt commencer."
  },
  {
    "label": "011",
    "text": "{{anim id=\"1\"}}Plus que quelques minutes et le ciel\ns'illuminera de mille feux.{{anim id=\"29\"}}{{delay frames=\"30\"}} Cela va\nêtre magnifique, {{fun_00070005 arg=\"\"}}!"
  },
  {
    "label": "012",
    "text": "Regarde!{{anim id=\"31\"}}{{delay frames=\"30\"}} {{fun_0003000E arg=\"\"}}{{fun_00070005 arg=\"\"}}!{{delay frames=\"20\"}} Le feu\nd'artifice est commencé!"
  },
  {
    "label": "013",
    "text": "{{anim id=\"6\"}}Je garde cette place depuis des\nheures pour être sûre d'avoir une\nbelle vue sur le feu d'artifice.\n{{anim id=\"38\"}}Allez,{{delay frames=\"20\"}} viens à côté de moi. Il y a de\nla place pour deux."
  },
  {
    "label": "014",
    "text": "{{anim id=\"29\"}}Ça commence!{{delay frames=\"20\"}} Lève les yeux et\nadmire ce beau feu d'artifice. {{delay frames=\"30\"}}N'est-\nce pas magnifique, {{delay frames=\"8\"}}{{fun_00070005 arg=\"\"}}?"
  },
  {
    "label": "015",
    "text": "{{anim id=\"4\"}}Ce feu d'artifice est\nparticulièrement impressionnant, {{delay frames=\"8\"}}tu\nne trouves pas,{{delay frames=\"8\"}} {{fun_00080005 arg=\"\"}}?"
  },
  {
    "label": "016",
    "text": "{{anim id=\"5\"}}Il n'y a qu'à {{fun_00050005 arg=\"\"}} que les feux\nd'artifice sont si beaux!"
  },
  {
    "label": "017",
    "text": "{{anim id=\"40\"}}Je crois que j'en ai assez profité\npour ce soir.{{pageBreak}}{{anim id=\"12\"}}Si je continue de regarder en l'air,{{delay frames=\"16\"}}\nje vais me faire un torticolis."
  },
  {
    "label": "018",
    "text": "{{anim id=\"29\"}}{{fun_0003000E arg=\"\"}}{{fun_00070005 arg=\"\"}}, c'est magnifique!{{pageBreak}}Et c'est toujours plus agréable de\nregarder un feu d'artifice en bonne\ncompagnie,{{delay frames=\"8\"}} {{fun_00080005 arg=\"\"}}."
  },
  {
    "label": "019",
    "text": "{{anim id=\"4\"}}Que c'est beau{{delay frames=\"8\"}}.{{delay frames=\"8\"}}.{{delay frames=\"8\"}}."
  },
  {
    "label": "020",
    "text": "{{anim id=\"37\"}}J'ai l'impression que cela se\ntermine.{{pageBreak}}{{anim id=\"45\"}}Ce n'est pas plus mal, {{delay frames=\"20\"}}je commence\nà être vraiment fatiguée,{{delay frames=\"8\"}}\n{{fun_00070005 arg=\"\"}}."
  },
  {
    "label": "021",
    "text": "C'est presque fini... {{delay frames=\"30\"}}{{anim id=\"23\"}}Et maintenant?{{delay frames=\"30\"}}\nTout le monde rentre chez soi?"
  },
  {
    "label": "022",
    "text": "{{anim id=\"9\"}}Le spectacle touche à sa fin,\nsemble-t-il...{{delay frames=\"45\"}} {{anim id=\"36\"}}J'ai faim. {{delay frames=\"20\"}}Je mangerais\nbien {{fun_0002000E arg=\"\"}}{{fun_00130005 arg=\"0x0000\"}}..."
  },
  {
    "label": "023",
    "text": "{{anim id=\"10\"}}C'est déjà fini pour ce soir.{{delay frames=\"30\"}} C'était\nbeau. {{anim id=\"1\"}}{{delay frames=\"8\"}}Je m'en souviendrai\nlongtemps."
  },
  {
    "label": "024",
    "text": "{{anim id=\"10\"}}Voilà, {{fun_00070005 arg=\"\"}}... {{delay frames=\"30\"}}Le spectacle\nest terminé.{{delay frames=\"30\"}}{{anim id=\"21\"}} C'était vraiment très\njoli en tout cas."
  },
  {
    "label": "025",
    "text": "{{anim id=\"9\"}}Et voilà. {{delay frames=\"16\"}}C'est fini.{{delay frames=\"30\"}} C'était\nsomptueux{{delay frames=\"8\"}}.{{delay frames=\"8\"}}.{{delay frames=\"8\"}}.{{pageBreak}}Mais maintenant je n'ai plus envie\nde dormir.{{delay frames=\"16\"}} {{anim id=\"31\"}}J'ai envie de faire la\nfête!"
  },
  {
    "label": "026",
    "text": "{{anim id=\"10\"}}Et voilà.{{delay frames=\"45\"}} {{anim id=\"24\"}}C'était le dernier feu\nd'artifice de l'année.{{delay frames=\"30\"}} Cela va me\nmanquer{{delay frames=\"8\"}}.{{delay frames=\"8\"}}.{{delay frames=\"8\"}}.{{delay frames=\"8\"}}\nJ'espère que tu seras encore à mes\ncôtés pour le regarder avec moi\nl'année prochaine, {{fun_00070005 arg=\"\"}}!"
  },
  {
    "label": "027",
    "text": "C'est triste, {{fun_00080005 arg=\"\"}}. {{delay frames=\"30\"}}{{anim id=\"14\"}}C'était le\ndernier de l'année.{{delay frames=\"45\"}} {{anim id=\"12\"}}L'été est\nmaintenant officiellement terminé..."
  },
  {
    "label": "028",
    "text": "{{anim id=\"37\"}}J'espère que le spectacle t'a plu,\n{{fun_00080005 arg=\"\"}}.{{pageBreak}}{{anim id=\"9\"}}Et j'espère que tu en as bien\nprofité, {{delay frames=\"20\"}}car c'était le dernier pour\ncette année."
  },
  {
    "label": "029",
    "text": "{{anim id=\"21\"}}Si tu veux bien profiter du\nspectacle, {{delay frames=\"20\"}}appuie sur  pour lever\nla tête.\n{{anim id=\"17\"}}Mais qu'est-ce que je raconte, moi?\n{{delay frames=\"20\"}}D'où je sors ça?"
  }
]