﻿[
  {
    "label": "001",
    "text": "{{fun_00040009 arg=\"0x4700480049004A004B004C00\"}}"
  },
  {
    "label": "002",
    "text": "{{anim id=\"18\"}}J'ignorais totalement\n{{fun_000A000E arg=\"0x080071007500650020000600710075002700\"}}{{fun_00010011 arg=\"0x0000\"}} s'intéressait à l'art.{{pageBreak}}{{anim id=\"11\"}}Je suis même confondue de voir\n{{fun_0002000E arg=\"\"}}{{fun_00030011 arg=\"0x0000\"}} chez\nlui!\n{{anim id=\"36\"}}Je m'attendais plutôt à voir des\ntrophées de compétitions sportives\nsur ses murs."
  },
  {
    "label": "003",
    "text": "{{anim id=\"11\"}}Alors comme ça,{{delay frames=\"15\"}} {{fun_00010011 arg=\"0x0000\"}} aime la\nverdure...{{pageBreak}}{{anim id=\"1\"}}Je suis sûre que pour lui, jardiner\nest une sorte de compétition à qui\nfera pousser la plus belle plante!"
  },
  {
    "label": "004",
    "text": "{{fun_00040009 arg=\"0x4700480049004A004B004C00\"}}"
  },
  {
    "label": "005",
    "text": "{{fun_00040009 arg=\"0x4700480049004A004B004C00\"}}"
  },
  {
    "label": "006",
    "text": "Tiens,{{delay frames=\"16\"}} {{fun_0002000E arg=\"\"}}{{fun_00030011 arg=\"0x0000\"}}.{{delay frames=\"30\"}}\n{{anim id=\"36\"}}Je suis sûre qu'il s'en sert pour faire\ndu bruit quand il va au stade."
  },
  {
    "label": "007",
    "text": "{{anim id=\"1\"}}Alors comme ça, {{delay frames=\"16\"}}{{fun_00010011 arg=\"0x0000\"}} a {{fun_0002000E arg=\"\"}}\n{{fun_00030011 arg=\"0x0000\"}}...{{pageBreak}}{{anim id=\"21\"}}Quand on fait autant d'exercice que\nlui,{{delay frames=\"16\"}} bien manger, {{delay frames=\"8\"}}c'est important."
  },
  {
    "label": "008",
    "text": "{{fun_00040009 arg=\"0x4700480049004A004B004C00\"}}"
  },
  {
    "label": "009",
    "text": "{{anim id=\"11\"}}Ce serait un {{fun_00030011 arg=\"0x0000\"}}\nbien trop grand pour une personne\nnormale.\n{{anim id=\"36\"}}Mais j'imagine {{fun_000A000E arg=\"0x080071007500650020000600710075002700\"}}{{fun_00010011 arg=\"0x0000\"}} fait\ndu sport jusque dans son lit, alors il\na besoin d'espace."
  },
  {
    "label": "010",
    "text": "{{fun_00040009 arg=\"0x4700480049004A004B004C00\"}}"
  },
  {
    "label": "011",
    "text": "{{fun_00040009 arg=\"0x4700480049004A004B004C00\"}}"
  },
  {
    "label": "012",
    "text": "{{anim id=\"21\"}}Je suis certaine que {{fun_0008000E arg=\"0x00CD0E006300650020006A006F006C00690016006300650074007400650020006A006F006C00690065000000\"}}\n{{fun_00030011 arg=\"0x0000\"}} n'a jamais\nservi.\n{{anim id=\"10\"}}{{fun_00010011 arg=\"0x0000\"}} est plutôt du genre à ne\njamais s'arrêter de courir..."
  },
  {
    "label": "013",
    "text": "{{fun_00040009 arg=\"0x4700480049004A004B004C00\"}}"
  },
  {
    "label": "014",
    "text": "{{anim id=\"28\"}}Et si on jetait un petit coup d'œil à\nl'intérieur? {{delay frames=\"30\"}}Après tout, {{delay frames=\"16\"}}moi je suis\nici pour voir son intérieur...\n{{anim id=\"23\"}}Tu crois {{fun_000A000E arg=\"0x080071007500650020000600710075002700\"}}{{fun_00010011 arg=\"0x0000\"}} nous en\nvoudrait?"
  },
  {
    "label": "015",
    "text": "{{fun_00040009 arg=\"0x4700480049004A004B004C00\"}}"
  },
  {
    "label": "016",
    "text": "{{fun_00040009 arg=\"0x4700480049004A004B004C00\"}}"
  },
  {
    "label": "017",
    "text": "{{fun_0003000E arg=\"\"}}{{fun_0002000E arg=\"\"}}{{fun_00030011 arg=\"0x0000\"}}.{{delay frames=\"8\"}}.{{delay frames=\"8\"}}.{{delay frames=\"8\"}}?{{pageBreak}}{{anim id=\"11\"}}Je ne comprends pas pourquoi\n{{fun_00010011 arg=\"0x0000\"}} a mis ça ici.{{pageBreak}}{{anim id=\"35\"}}J'aurais plutôt cru qu'il aurait\nexposé son maillot de foot préféré."
  },
  {
    "label": "018",
    "text": "{{fun_00040009 arg=\"0x4700480049004A004B004C00\"}}"
  },
  {
    "label": "019",
    "text": "{{fun_00040009 arg=\"0x4700480049004A004B004C00\"}}"
  },
  {
    "label": "020",
    "text": "{{anim id=\"18\"}}Je n'arrive pas à croire\n{{fun_000A000E arg=\"0x080071007500650020000600710075002700\"}}{{fun_00010011 arg=\"0x0000\"}} lise des livres.{{delay frames=\"30\"}}\nDes livres aussi épais de surcroît!\n{{anim id=\"16\"}}Ah,{{delay frames=\"16\"}} je comprends! {{delay frames=\"30\"}}Il doit s'en servir\npour se muscler!"
  },
  {
    "label": "021",
    "text": "{{anim id=\"23\"}}Qu'est-ce qui est le plus plausible à\nton avis?{{pageBreak}}{{fun_000A000E arg=\"0x080051007500650020000600510075002700\"}}{{fun_00010011 arg=\"0x0000\"}} se serve de ce\n{{fun_00030011 arg=\"0x0000\"}} pour laver\nle sol,{{delay frames=\"12\"}} ou pour se muscler?"
  },
  {
    "label": "022",
    "text": "{{anim id=\"11\"}}Alors comme ça,{{delay frames=\"12\"}} {{fun_00010011 arg=\"0x0000\"}} a {{fun_0002000E arg=\"\"}}\n{{fun_00030011 arg=\"0x0000\"}} chez lui...{{pageBreak}}{{anim id=\"36\"}}Il doit penser qu'il s'agit d'une\nespèce d'haltère."
  },
  {
    "label": "023",
    "text": "{{anim id=\"17\"}}{{fun_0003000E arg=\"\"}}{{fun_0002000E arg=\"\"}}{{fun_00030011 arg=\"0x0000\"}}?{{delay frames=\"30\"}}\nChez {{fun_00010011 arg=\"0x0000\"}}?{{delay frames=\"50\"}}{{anim id=\"27\"}} Décidément,\nj'aurai tout vu..."
  },
  {
    "label": "024",
    "text": "{{anim id=\"11\"}}Je me demande à quoi {{fun_00010011 arg=\"0x0000\"}}\npensait quand il a installé ça ici...{{pageBreak}}{{anim id=\"27\"}}Franchement{{delay frames=\"8\"}}.{{delay frames=\"8\"}}.{{delay frames=\"8\"}}.{{delay frames=\"8\"}}\n{{fun_0003000E arg=\"\"}}{{fun_0002000E arg=\"\"}}{{fun_00030011 arg=\"0x0000\"}}{{delay frames=\"8\"}}.{{delay frames=\"8\"}}.{{delay frames=\"8\"}}.{{delay frames=\"8\"}}\nAu milieu d'une pièce{{delay frames=\"8\"}}.{{delay frames=\"8\"}}.{{delay frames=\"8\"}}.\n{{anim id=\"36\"}}En fait,{{delay frames=\"16\"}} je me demande surtout s'il\npensait tout court quand il l'a fait..."
  },
  {
    "label": "025",
    "text": "{{anim id=\"9\"}}J'imagine mal {{fun_00010011 arg=\"0x0000\"}} s'asseoir\ndevant son {{fun_00030011 arg=\"0x0000\"}}\npour jouer à des jeux vidéo.\n{{anim id=\"35\"}}Ou alors pour jouer à des jeux de\nsport..."
  },
  {
    "label": "026",
    "text": "{{anim id=\"17\"}}{{fun_0003000E arg=\"\"}}{{fun_0002000E arg=\"\"}}{{fun_00030011 arg=\"0x0000\"}}!{{pageBreak}}{{anim id=\"3\"}}Il faut croire que derrière les façons\nde sportif décérébré {{fun_000A000E arg=\"0x0600640065002000040064002700\"}}{{fun_00010011 arg=\"0x0000\"}},{{delay frames=\"16\"}}\nse cache une âme douce et sensible.\n{{anim id=\"27\"}}Ou alors il se sert du pot comme\nd'un haltère{{delay frames=\"8\"}}.{{delay frames=\"8\"}}.{{delay frames=\"8\"}}."
  },
  {
    "label": "027",
    "text": "{{anim id=\"36\"}}Si ce {{fun_00030011 arg=\"0x0000\"}} n'est\npas rempli de boissons protéinées,{{delay frames=\"8\"}}\nje ne comprends plus rien."
  },
  {
    "label": "028",
    "text": "{{fun_00040009 arg=\"0x4700480049004A004B004C00\"}}"
  },
  {
    "label": "029",
    "text": "{{fun_00040009 arg=\"0x4700480049004A004B004C00\"}}"
  },
  {
    "label": "030",
    "text": "{{fun_00040009 arg=\"0x4700480049004A004B004C00\"}}"
  },
  {
    "label": "031",
    "text": "{{anim id=\"18\"}}{{fun_0003000E arg=\"\"}}{{fun_0002000E arg=\"\"}}{{fun_00030011 arg=\"0x0000\"}}?{{delay frames=\"32\"}}\nChez {{fun_00010011 arg=\"0x0000\"}}?{{delay frames=\"32\"}} Je n'en reviens\npas!"
  },
  {
    "label": "032",
    "text": "{{anim id=\"18\"}}{{fun_0003000E arg=\"\"}}{{fun_0002000E arg=\"\"}}{{fun_00030011 arg=\"0x0000\"}}?{{delay frames=\"32\"}}\nDans cette maison?{{delay frames=\"32\"}} Qui l'eût cru?"
  },
  {
    "label": "033",
    "text": "{{fun_00040009 arg=\"0x4700480049004A004B004C00\"}}"
  },
  {
    "label": "034",
    "text": "{{fun_00040009 arg=\"0x4700480049004A004B004C00\"}}"
  },
  {
    "label": "035",
    "text": "{{anim id=\"11\"}}J'avoue que j'ai du mal à imaginer\n{{fun_00010011 arg=\"0x0000\"}} dormir dans\n{{fun_0002000E arg=\"\"}}{{fun_00030011 arg=\"0x0000\"}}..."
  },
  {
    "label": "036",
    "text": "{{fun_00040009 arg=\"0x4700480049004A004B004C00\"}}"
  },
  {
    "label": "037",
    "text": "{{anim id=\"40\"}}Cela ne me surprend pas de trouver\n{{fun_0002000E arg=\"\"}}{{fun_00030011 arg=\"0x0000\"}} chez\n{{fun_00010011 arg=\"0x0000\"}}.\n{{anim id=\"21\"}}C'est son absence qui eût été\nétonnante..."
  },
  {
    "label": "038",
    "text": "{{fun_00040009 arg=\"0x4700480049004A004B004C00\"}}"
  },
  {
    "label": "039",
    "text": "{{anim id=\"17\"}}Mais je ne savais pas\n{{fun_000A000E arg=\"0x080071007500650020000600710075002700\"}}{{fun_00010011 arg=\"0x0000\"}} avait {{fun_0002000E arg=\"\"}}\n{{fun_00030011 arg=\"0x0000\"}}!\n{{anim id=\"0\"}}Le petit cachottier{{delay frames=\"8\"}}.{{delay frames=\"8\"}}.{{delay frames=\"8\"}}.{{delay frames=\"8\"}} {{anim id=\"28\"}}Je prendrai\nmon maillot la prochaine fois que\nje viendrai chez lui{{delay frames=\"8\"}}.{{delay frames=\"8\"}}.{{delay frames=\"8\"}}."
  },
  {
    "label": "040",
    "text": "{{fun_00040009 arg=\"0x4700480049004A004B004C00\"}}"
  },
  {
    "label": "041",
    "text": "{{fun_00040009 arg=\"0x4700480049004A004B004C00\"}}"
  },
  {
    "label": "042",
    "text": "{{fun_00040009 arg=\"0x4700480049004A004B004C00\"}}"
  },
  {
    "label": "043",
    "text": "{{fun_00040009 arg=\"0x4700480049004A004B004C00\"}}"
  },
  {
    "label": "044",
    "text": ""
  },
  {
    "label": "045",
    "text": ""
  },
  {
    "label": "046",
    "text": ""
  },
  {
    "label": "047",
    "text": ""
  },
  {
    "label": "048",
    "text": ""
  },
  {
    "label": "049",
    "text": ""
  },
  {
    "label": "050",
    "text": ""
  },
  {
    "label": "051",
    "text": ""
  },
  {
    "label": "052",
    "text": ""
  },
  {
    "label": "053",
    "text": ""
  },
  {
    "label": "054",
    "text": ""
  },
  {
    "label": "055",
    "text": ""
  },
  {
    "label": "056",
    "text": ""
  },
  {
    "label": "057",
    "text": ""
  },
  {
    "label": "058",
    "text": ""
  },
  {
    "label": "059",
    "text": ""
  },
  {
    "label": "060",
    "text": ""
  },
  {
    "label": "061",
    "text": ""
  },
  {
    "label": "062",
    "text": ""
  },
  {
    "label": "063",
    "text": ""
  },
  {
    "label": "064",
    "text": ""
  },
  {
    "label": "065",
    "text": ""
  },
  {
    "label": "066",
    "text": ""
  },
  {
    "label": "067",
    "text": ""
  },
  {
    "label": "068",
    "text": ""
  },
  {
    "label": "069",
    "text": ""
  },
  {
    "label": "070",
    "text": ""
  },
  {
    "label": "071",
    "text": "{{anim id=\"35\"}}Je savais un peu à quoi m'attendre\nen allant chez {{fun_00010011 arg=\"0x0000\"}},\n{{fun_00070005 arg=\"\"}}."
  },
  {
    "label": "072",
    "text": "{{anim id=\"36\"}}Alors c'est ici {{fun_000A000E arg=\"0x080071007500650020000600710075002700\"}}{{fun_00010011 arg=\"0x0000\"}}\ns'entraîne quand il n'est pas dehors\nà faire son jogging{{delay frames=\"8\"}}.{{delay frames=\"8\"}}.{{delay frames=\"8\"}}."
  },
  {
    "label": "073",
    "text": "{{anim id=\"9\"}}C'est sans doute un peu malpoli de\nfarfouiller comme ça chez\n{{fun_00010011 arg=\"0x0000\"}}.{{pageBreak}}{{anim id=\"36\"}}Bah... {{delay frames=\"30\"}}Si ce n'est qu'un PEU malpoli,{{delay frames=\"15\"}}\nça va..."
  },
  {
    "label": "074",
    "text": "{{anim id=\"9\"}}Je dois avoir une hallucination\nolfactive. {{delay frames=\"30\"}}Je sens comme une forte\nodeur {{fun_000A000E arg=\"0x0600640065002000040064002700\"}}{{fun_00130005 arg=\"0x0001\"}}...\n{{anim id=\"11\"}}Mais je n'en vois nulle part.{{delay frames=\"30\"}}\nÉtrange..."
  },
  {
    "label": "075",
    "text": "{{anim id=\"6\"}}Mais non! {{delay frames=\"20\"}}Je ne fouille pas dans les\naffaires {{fun_000A000E arg=\"0x0600640065002000040064002700\"}}{{fun_00010011 arg=\"0x0000\"}}! {{delay frames=\"45\"}}{{anim id=\"36\"}}Enfin, {{delay frames=\"12\"}}si.{{delay frames=\"30\"}}\nPeut-être un peu{{delay frames=\"8\"}}.{{delay frames=\"8\"}}.{{delay frames=\"8\"}}."
  },
  {
    "label": "076",
    "text": "{{anim id=\"11\"}}J'avoue que je suis assez surprise\npar la déco {{fun_000A000E arg=\"0x0600640065002000040064002700\"}}{{fun_00010011 arg=\"0x0000\"}}.{{pageBreak}}{{anim id=\"36\"}}Je pensais que son intérieur\nressemblait davantage à un\ngymnase."
  }
]