﻿[
  {
    "label": "001",
    "text": "{{fun_00040009 arg=\"0x4700480049004A004B004C00\"}}"
  },
  {
    "label": "002",
    "text": "{{anim id=\"1\"}}Cela ne me surprend pas de trouver\nune telle œuvre chez {{fun_00010011 arg=\"0x0000\"}}.{{pageBreak}}{{anim id=\"33\"}}Elle comme moi pour ça, {{delay frames=\"16\"}}elle a un\ngoût très sûr."
  },
  {
    "label": "003",
    "text": "{{anim id=\"3\"}}{{fun_0003000E arg=\"\"}}{{fun_0002000E arg=\"\"}}{{fun_00030011 arg=\"0x0000\"}}...{{delay frames=\"40\"}}\nC'est la petite touche qui donne\nvie à une maison.\nEt puis c'est d'un chic!{{delay frames=\"32\"}} {{anim id=\"16\"}}Il me faut la\nmême pour chez moi,\n{{fun_00070005 arg=\"\"}}!"
  },
  {
    "label": "004",
    "text": "{{fun_00040009 arg=\"0x4700480049004A004B004C00\"}}"
  },
  {
    "label": "005",
    "text": "{{fun_00040009 arg=\"0x4700480049004A004B004C00\"}}"
  },
  {
    "label": "006",
    "text": "{{anim id=\"15\"}}Je ne savais pas {{fun_000A000E arg=\"0x080071007500650020000600710075002700\"}}{{fun_00010011 arg=\"0x0000\"}}\njouait d'un instrument aussi difficile\nque {{fun_0001000E arg=\"\"}}{{fun_00030011 arg=\"0x0000\"}}!\n{{anim id=\"36\"}}Moi qui croyais qu'elle n'aimait que\n{{fun_0001000E arg=\"\"}}{{fun_00140005 arg=\"0x0000\"}}..."
  },
  {
    "label": "007",
    "text": "{{anim id=\"11\"}}J'aime beaucoup {{fun_0008000E arg=\"0x00CD120073006F006E0020007000650074006900740012007300610020007000650074006900740065000000\"}}\n{{fun_00030011 arg=\"0x0000\"}}{{delay frames=\"8\"}}.{{delay frames=\"8\"}}.{{delay frames=\"8\"}}.{{pageBreak}}{{anim id=\"9\"}}J'ai même l'impression qu'{{fun_0008000E arg=\"0x00CD040069006C00080065006C006C0065000000\"}} est\nplus {{fun_0008000E arg=\"0x00CD20006200650061007500200071007500650020006C00650020006D00690065006E002600620065006C006C006500200071007500650020006C00610020006D00690065006E006E0065000000\"}}...{{delay frames=\"40\"}}\n{{anim id=\"7\"}}Ce qu'elle m'énerve!"
  },
  {
    "label": "008",
    "text": "{{fun_00040009 arg=\"0x4700480049004A004B004C00\"}}"
  },
  {
    "label": "009",
    "text": "{{anim id=\"11\"}}Je crois savoir pourquoi {{fun_00010011 arg=\"0x0000\"}}\ndort dans {{fun_0002000E arg=\"\"}}\n{{fun_00030011 arg=\"0x0000\"}}...\n{{anim id=\"21\"}}Elle doit souffrir du « syndrome de\nl'adulte qui tombe du lit ».{{pageBreak}}{{anim id=\"6\"}}{{delay frames=\"16\"}}Ne te moque pas d'elle! {{delay frames=\"40\"}}{{anim id=\"36\"}}Enfin pas\ntrop...{{delay frames=\"40\"}} C'est très sérieux comme\nmaladie."
  },
  {
    "label": "010",
    "text": "{{fun_00040009 arg=\"0x4700480049004A004B004C00\"}}"
  },
  {
    "label": "011",
    "text": "{{fun_00040009 arg=\"0x4700480049004A004B004C00\"}}"
  },
  {
    "label": "012",
    "text": "{{anim id=\"36\"}}{{fun_0008000E arg=\"0x00CD12005100750065006C0020006A006F006C00690018005100750065006C006C00650020006A006F006C00690065000000\"}} {{fun_00030011 arg=\"0x0000\"}}.{{delay frames=\"40\"}}\nC'est assise ici que notre amie lit\nses livres de culture générale...\n{{anim id=\"9\"}}La pauvre fille...{{delay frames=\"40\"}} Elle doit se donner\nbeaucoup de mal pour avoir l'air\ninstruite..."
  },
  {
    "label": "013",
    "text": "{{fun_00040009 arg=\"0x4700480049004A004B004C00\"}}"
  },
  {
    "label": "014",
    "text": "{{anim id=\"28\"}}Tiens, tiens, tiens{{delay frames=\"8\"}}.{{delay frames=\"8\"}}.{{delay frames=\"8\"}}.{{delay frames=\"8\"}}\n{{fun_0003000E arg=\"\"}}{{fun_0001000E arg=\"\"}}{{fun_00030011 arg=\"0x0000\"}}\n{{fun_000A000E arg=\"0x0600640065002000040064002700\"}}{{fun_00010011 arg=\"0x0000\"}}{{delay frames=\"8\"}}.{{delay frames=\"8\"}}.{{delay frames=\"8\"}}.\n{{anim id=\"36\"}}Si tu veux te remémorer ce qui était\nà la mode l'année dernière, {{delay frames=\"12\"}}tu n'as\nqu'à y jeter un œil..."
  },
  {
    "label": "015",
    "text": "{{fun_00040009 arg=\"0x4700480049004A004B004C00\"}}"
  },
  {
    "label": "016",
    "text": "{{fun_00040009 arg=\"0x4700480049004A004B004C00\"}}"
  },
  {
    "label": "017",
    "text": "{{anim id=\"18\"}}Oh, {{delay frames=\"20\"}}{{fun_0002000E arg=\"\"}}{{fun_00030011 arg=\"0x0000\"}}!{{delay frames=\"40\"}}\nJ'ai exactement {{fun_0008000E arg=\"0x00CD04006C00650004006C0061000000\"}} même!{{pageBreak}}{{anim id=\"6\"}}GRRRrrrr! {{delay frames=\"30\"}}Je ne vais plus pouvoir\n{{fun_0008000E arg=\"0x00CD04006C00650004006C0061000000\"}} mettre désormais!"
  },
  {
    "label": "018",
    "text": "{{fun_00040009 arg=\"0x4700480049004A004B004C00\"}}"
  },
  {
    "label": "019",
    "text": "{{fun_00040009 arg=\"0x4700480049004A004B004C00\"}}"
  },
  {
    "label": "020",
    "text": "{{anim id=\"37\"}}Tiens,{{delay frames=\"16\"}} il semble {{fun_000A000E arg=\"0x080071007500650020000600710075002700\"}}{{fun_00010011 arg=\"0x0000\"}} lise\n{{fun_001D0005 arg=\"0x0001\"}} en\nce moment...\n{{anim id=\"1\"}}C'est amusant, {{delay frames=\"16\"}}je viens juste de le\nfinir..."
  },
  {
    "label": "021",
    "text": "{{anim id=\"17\"}}{{fun_0003000E arg=\"\"}}{{fun_0002000E arg=\"\"}}{{fun_00030011 arg=\"0x0000\"}}?!{{delay frames=\"40\"}}\nJ'avoue que j'ai du mal à imaginer\n{{fun_00010011 arg=\"0x0000\"}} passer la serpillière...\n{{anim id=\"11\"}}J'aurais plutôt cru qu'elle employait\nune femme de ménage{{delay frames=\"8\"}}.{{delay frames=\"8\"}}.{{delay frames=\"8\"}}.{{delay frames=\"8\"}}"
  },
  {
    "label": "022",
    "text": "{{anim id=\"36\"}}Regarde, {{fun_00080005 arg=\"\"}},{{delay frames=\"16\"}}\n{{fun_0002000E arg=\"\"}}{{fun_00030011 arg=\"0x0000\"}}...{{pageBreak}}{{anim id=\"2\"}}Hi hi! {{delay frames=\"20\"}}Ça doit la rassurer d'avoir\nsous les yeux quelque chose de plus\nvieux qu'elle,{{delay frames=\"8\"}} {{fun_00070005 arg=\"\"}}!"
  },
  {
    "label": "023",
    "text": "{{anim id=\"4\"}}{{delay frames=\"16\"}}Quel joli {{fun_00030011 arg=\"0x0000\"}}!{{delay frames=\"40\"}}\n{{anim id=\"23\"}}Crois-tu {{fun_000A000E arg=\"0x080071007500650020000600710075002700\"}}{{fun_00010011 arg=\"0x0000\"}} l'ait\ndisposé pour nous?\n{{anim id=\"11\"}}C'est à croire qu'elle se doutait que\nnous viendrions regarder partout..."
  },
  {
    "label": "024",
    "text": "{{fun_00040009 arg=\"0x4700480049004A004B004C00\"}}"
  },
  {
    "label": "025",
    "text": "{{anim id=\"18\"}}Regarde,{{delay frames=\"20\"}}\n{{fun_0001000E arg=\"\"}}{{fun_00030011 arg=\"0x0000\"}}\n{{fun_000A000E arg=\"0x0600640065002000040064002700\"}}{{fun_00010011 arg=\"0x0000\"}} est allumé{{delay frames=\"8\"}}.{{delay frames=\"8\"}}.{{delay frames=\"8\"}}.{{delay frames=\"8\"}}\n{{anim id=\"17\"}}C'est une page de son journal intime\navec « {{fun_00070005 arg=\"\"}} » écrit des\ncentaines de fois!\n{{anim id=\"13\"}}J'ai peur,{{delay frames=\"8\"}} {{fun_00080005 arg=\"\"}}! {{delay frames=\"20\"}}Vite,{{delay frames=\"12\"}} sortons\nd'ici!"
  },
  {
    "label": "026",
    "text": "{{anim id=\"3\"}}Oh,{{delay frames=\"8\"}} {{fun_0002000E arg=\"\"}}{{fun_00030011 arg=\"0x0000\"}}{{delay frames=\"8\"}}.{{delay frames=\"8\"}}.{{delay frames=\"8\"}}.{{delay frames=\"8\"}}\nQuelle délicatesse!{{pageBreak}}{{anim id=\"36\"}}{{fun_00010011 arg=\"0x0000\"}} est vraiment une\nhôtesse pleine d'attentions."
  },
  {
    "label": "027",
    "text": "{{anim id=\"9\"}}Je commence à avoir faim{{delay frames=\"8\"}}.{{delay frames=\"8\"}}.{{delay frames=\"8\"}}.{{pageBreak}}{{anim id=\"28\"}}Si j'osais, {{delay frames=\"16\"}}je regarderais dans\n{{fun_0001000E arg=\"\"}}{{fun_00030011 arg=\"0x0000\"}} pour\nvoir ce qu'il y a à grignoter{{delay frames=\"8\"}}.{{delay frames=\"8\"}}.{{delay frames=\"8\"}}.\n{{anim id=\"27\"}}Mais il est sans doute rempli de\nbrocolis et de repas allégés..."
  },
  {
    "label": "028",
    "text": "{{fun_00040009 arg=\"0x4700480049004A004B004C00\"}}"
  },
  {
    "label": "029",
    "text": "{{fun_00040009 arg=\"0x4700480049004A004B004C00\"}}"
  },
  {
    "label": "030",
    "text": "{{fun_00040009 arg=\"0x4700480049004A004B004C00\"}}"
  },
  {
    "label": "031",
    "text": "{{anim id=\"35\"}}J'en étais certaine!\n{{delay frames=\"30\"}}{{fun_0003000E arg=\"\"}}{{fun_0002000E arg=\"\"}}{{fun_00030011 arg=\"0x0000\"}}!{{pageBreak}}{{anim id=\"4\"}}Que c'est mignon!{{delay frames=\"30\"}} On a tout\nde suite envie de lui faire un câlin..."
  },
  {
    "label": "032",
    "text": "{{anim id=\"4\"}}Oh, {{delay frames=\"16\"}}{{fun_0002000E arg=\"\"}}{{fun_00030011 arg=\"0x0000\"}}!{{delay frames=\"30\"}}\nQue c'est mignon!{{delay frames=\"20\"}} J'en veux un!{{pageBreak}}{{anim id=\"41\"}}Enfin, {{delay frames=\"16\"}}euh{{delay frames=\"8\"}}.{{delay frames=\"8\"}}.{{delay frames=\"8\"}}.{{delay frames=\"8\"}} Je suis peut-être un peu\ntrop âgée pour ça{{delay frames=\"8\"}}.{{delay frames=\"8\"}}.{{delay frames=\"8\"}}."
  },
  {
    "label": "033",
    "text": "{{fun_00040009 arg=\"0x4700480049004A004B004C00\"}}"
  },
  {
    "label": "034",
    "text": "{{fun_00040009 arg=\"0x4700480049004A004B004C00\"}}"
  },
  {
    "label": "035",
    "text": "{{fun_0003000E arg=\"\"}}{{fun_0002000E arg=\"\"}}{{fun_00030011 arg=\"0x0000\"}}?!{{delay frames=\"40\"}}\n{{anim id=\"36\"}}J'espère qu'elle ne dort pas dedans\ndans l'espoir de rajeunir.\n{{anim id=\"21\"}}Ce serait pathétique. {{delay frames=\"40\"}}Et puis,{{delay frames=\"20\"}} {{anim id=\"10\"}}j'ai\ndéjà essayé, {{delay frames=\"20\"}}ça ne fonctionne pas..."
  },
  {
    "label": "036",
    "text": "{{fun_00040009 arg=\"0x4700480049004A004B004C00\"}}"
  },
  {
    "label": "037",
    "text": "{{anim id=\"11\"}}Je vois{{delay frames=\"8\"}}.{{delay frames=\"8\"}}.{{delay frames=\"8\"}}.{{delay frames=\"20\"}} C'est sans doute une\nœuvre d'art qui imite {{fun_0002000E arg=\"\"}}\n{{fun_00030011 arg=\"0x0000\"}}...\n... {{anim id=\"21\"}}pour mieux en déstructurer les\ncodes et détourner son utilisation\npremière{{delay frames=\"8\"}}.{{delay frames=\"8\"}}.{{delay frames=\"8\"}}.\n{{anim id=\"29\"}}Quelle sophistication!{{delay frames=\"30\"}} {{fun_00010011 arg=\"0x0000\"}}\nest vraiment très avant-gardiste!"
  },
  {
    "label": "038",
    "text": "{{fun_00040009 arg=\"0x4700480049004A004B004C00\"}}"
  },
  {
    "label": "039",
    "text": "{{anim id=\"17\"}}{{delay frames=\"16\"}}Oh,{{delay frames=\"16\"}} regarde ça!\n{{delay frames=\"16\"}}{{fun_0003000E arg=\"\"}}{{fun_0002000E arg=\"\"}}{{fun_00030011 arg=\"0x0000\"}}!{{pageBreak}}{{anim id=\"3\"}}Je crois que je viens de trouver ma\nnouvelle meilleure amie,\n{{fun_00070005 arg=\"\"}}!"
  },
  {
    "label": "040",
    "text": "{{fun_00040009 arg=\"0x4700480049004A004B004C00\"}}"
  },
  {
    "label": "041",
    "text": "{{fun_00040009 arg=\"0x4700480049004A004B004C00\"}}"
  },
  {
    "label": "042",
    "text": "{{fun_00040009 arg=\"0x4700480049004A004B004C00\"}}"
  },
  {
    "label": "043",
    "text": "{{fun_00040009 arg=\"0x4700480049004A004B004C00\"}}"
  },
  {
    "label": "044",
    "text": ""
  },
  {
    "label": "045",
    "text": ""
  },
  {
    "label": "046",
    "text": ""
  },
  {
    "label": "047",
    "text": ""
  },
  {
    "label": "048",
    "text": ""
  },
  {
    "label": "049",
    "text": ""
  },
  {
    "label": "050",
    "text": ""
  },
  {
    "label": "051",
    "text": ""
  },
  {
    "label": "052",
    "text": ""
  },
  {
    "label": "053",
    "text": ""
  },
  {
    "label": "054",
    "text": ""
  },
  {
    "label": "055",
    "text": ""
  },
  {
    "label": "056",
    "text": ""
  },
  {
    "label": "057",
    "text": ""
  },
  {
    "label": "058",
    "text": ""
  },
  {
    "label": "059",
    "text": ""
  },
  {
    "label": "060",
    "text": ""
  },
  {
    "label": "061",
    "text": ""
  },
  {
    "label": "062",
    "text": ""
  },
  {
    "label": "063",
    "text": ""
  },
  {
    "label": "064",
    "text": ""
  },
  {
    "label": "065",
    "text": ""
  },
  {
    "label": "066",
    "text": ""
  },
  {
    "label": "067",
    "text": ""
  },
  {
    "label": "068",
    "text": ""
  },
  {
    "label": "069",
    "text": ""
  },
  {
    "label": "070",
    "text": ""
  },
  {
    "label": "071",
    "text": "{{anim id=\"21\"}}{{delay frames=\"20\"}}J'étais certaine{{delay frames=\"10\"}} {{fun_000A000E arg=\"0x080071007500650020000600710075002700\"}}{{fun_00010011 arg=\"0x0000\"}}\naurait ça chez elle. {{delay frames=\"30\"}}{{anim id=\"33\"}}Une femme de sa\nqualité, {{delay frames=\"16\"}}c'était évident!"
  },
  {
    "label": "072",
    "text": "{{anim id=\"21\"}}J'ai l'impression d'être chez moi ici.{{delay frames=\"40\"}}\n{{fun_00010011 arg=\"0x0000\"}} a décoré sa maison avec\ngoût. {{delay frames=\"30\"}}Je m'y sens à l'aise."
  },
  {
    "label": "073",
    "text": "{{anim id=\"9\"}}Je ne suis pas sûre {{fun_000A000E arg=\"0x080071007500650020000600710075002700\"}}{{fun_00010011 arg=\"0x0000\"}}\napprécierait que nous fouillions\npartout chez elle.\n{{anim id=\"2\"}}Mais heureusement,{{delay frames=\"16\"}} elle ne le saura\njamais!"
  },
  {
    "label": "074",
    "text": "{{anim id=\"43\"}}C'est tout à fait comme cela que\nj'imaginais son intérieur.{{pageBreak}}{{anim id=\"3\"}}Propre,{{delay frames=\"12\"}} de bon goût {{delay frames=\"12\"}}et délicatement\nparfumé.{{delay frames=\"40\"}}{{anim id=\"4\"}} Cette douce fragrance\n{{fun_000A000E arg=\"0x0600640065002000040064002700\"}}{{fun_00100005 arg=\"0x0000\"}}, hmmm{{delay frames=\"8\"}}.{{delay frames=\"8\"}}.{{delay frames=\"8\"}}."
  },
  {
    "label": "075",
    "text": "{{anim id=\"6\"}}J'ai horreur qu'on me dérange\nquand je fouine dans les affaires\ndes autres!"
  },
  {
    "label": "076",
    "text": "{{anim id=\"21\"}}Connaissant {{fun_00010011 arg=\"0x0000\"}},{{delay frames=\"16\"}} je suis sûre\nque chacun de ces objets a été\nsoigneusement choisi et disposé.\n{{anim id=\"36\"}}Je me demande si elle le\nremarquerait si je déplaçais un\nbibelot de quelques millimètres{{delay frames=\"8\"}}.{{delay frames=\"8\"}}.{{delay frames=\"8\"}}."
  }
]