﻿[
  {
    "label": "001",
    "text": "{{anim id=\"15\"}}Comment ça?! {{delay frames=\"30\"}}Tu pars déjà? {{delay frames=\"30\"}}Bon.{{delay frames=\"20\"}}\nComme tu voudras...{{pageBreak}}{{anim id=\"37\"}}Mais pourrais-tu me dire ce que tu\npenses de ma déco avant de rentrer\nchez toi?{{fun_0001000F arg=\"0x000000000000\"}}\nElle est... magnifique!\nC'est joli, oui.\nEuh... Comment dire..."
  },
  {
    "label": "002",
    "text": "{{anim id=\"15\"}}Oh, non! {{delay frames=\"30\"}}Tu pars déjà?{{delay frames=\"60\"}} Pourrais-tu\nme dire ce que tu penses de ma\ndéco avant de rentrer chez toi?{{fun_0001000F arg=\"0x000000000000\"}}\nC'est très beau!\nC'est pas mal.\nComment dire..."
  },
  {
    "label": "003",
    "text": "{{anim id=\"15\"}}Tu pars déjà? {{delay frames=\"45\"}}Quel dommage!{{delay frames=\"60\"}}\nJ'espère au moins que ma nouvelle\ndéco te plaît, {{fun_00070005 arg=\"\"}}...{{fun_0001000F arg=\"0x000000000000\"}}\nC'est magnifique!\nOui.\nÀ vrai dire..."
  },
  {
    "label": "004",
    "text": "{{anim id=\"4\"}}Oh,{{delay frames=\"20\"}} j'en suis ravie, {{fun_00070005 arg=\"\"}}. {{delay frames=\"45\"}}Je\nvoulais vraiment te faire bonne\nimpression, {{fun_00080005 arg=\"\"}}."
  },
  {
    "label": "005",
    "text": "{{anim id=\"9\"}}Oh, {{delay frames=\"20\"}}vraiment? {{delay frames=\"60\"}}Et... {{delay frames=\"60\"}}{{anim id=\"6\"}}C'est tout,\n{{fun_00070005 arg=\"\"}}?"
  },
  {
    "label": "006",
    "text": "{{anim id=\"9\"}}Au moins, {{delay frames=\"5\"}}tu es {{fun_0006000E arg=\"0x0A006600720061006E0063000E006600720061006E00630068006500\"}},\n{{fun_00080005 arg=\"\"}}... {{delay frames=\"10\"}}Je respecte ça,\n{{fun_00070005 arg=\"\"}}.\nEt même, j'apprécie. C'est une\nqualité assez rare pour être\nsoulignée, {{fun_00070005 arg=\"\"}}!"
  },
  {
    "label": "007",
    "text": "{{anim id=\"15\"}}Oh... {{delay frames=\"60\"}}C'est vraiment ce que tu\npenses? {{delay frames=\"60\"}}{{anim id=\"9\"}}Tu ne dis pas ça pour me\nfaire plaisir,{{delay frames=\"8\"}} j'espère{{delay frames=\"8\"}}.{{delay frames=\"8\"}}.{{delay frames=\"8\"}}."
  },
  {
    "label": "008",
    "text": "{{anim id=\"9\"}}Hmmm.{{delay frames=\"8\"}}.{{delay frames=\"8\"}}.{{delay frames=\"30\"}} Tu n'as pas l'air\nconvaincu{{fun_0006000E arg=\"0x000002006500\"}}, {{fun_00080005 arg=\"\"}}.{{pageBreak}}{{anim id=\"21\"}}Mais qu'à cela ne tienne, je vais\npoursuivre les efforts, et j'y\narriverai! {{delay frames=\"8\"}}Oui, j'y arriverai!"
  },
  {
    "label": "009",
    "text": "{{anim id=\"9\"}}Vraiment? {{delay frames=\"60\"}}Tu penses que cela\npourrait être mieux arrangé?"
  },
  {
    "label": "010",
    "text": "{{anim id=\"16\"}}Oh! {{delay frames=\"30\"}}{{anim id=\"37\"}}C'est adorable de ta part\nde me dire ça, {{fun_00080005 arg=\"\"}}!{{pageBreak}}{{anim id=\"0\"}}C'est peut-être presque trop\ngentil, hi hi!{{delay frames=\"16\"}}{{anim id=\"37\"}} En tout cas, ça\nme fait drôlement plaisir!"
  },
  {
    "label": "011",
    "text": "{{anim id=\"27\"}}En effet.{{delay frames=\"8\"}} Je pense que c'est le mot\njuste. {{delay frames=\"8\"}}On ne saurait mieux décrire\nla situation.\n{{anim id=\"37\"}}J'ai encore un long chemin à\nparcourir avant d'être digne\nde tes compliments!"
  },
  {
    "label": "012",
    "text": "{{anim id=\"36\"}}Hé hé.{{delay frames=\"4\"}}.{{delay frames=\"4\"}}.{{delay frames=\"4\"}} Tu n'est pas du genre à\nprendre des pincettes, {{fun_00080005 arg=\"\"}}!{{pageBreak}}{{anim id=\"37\"}}Le bon côté, c'est que je ne peux\nque m'améliorer, et j'ai l'intention\nde m'y mettre sérieusement!"
  }
]