﻿[
  {
    "label": "001",
    "text": "{{anim id=\"39\"}}Il paraît que la couleur de ta maison\nrappelle {{fun_0001000E arg=\"\"}}{{fun_000E0005 arg=\"0x0200\"}}.{{delay frames=\"8\"}}.{{delay frames=\"8\"}}.{{delay frames=\"8\"}}\n{{delay frames=\"10\"}}J'ai hâte de voir ça!"
  },
  {
    "label": "002",
    "text": "{{anim id=\"37\"}}Tu sais, quand je te vois courir\ncomme ça{{delay frames=\"8\"}}.{{delay frames=\"8\"}}.{{delay frames=\"8\"}}. Je me dis que tu dois\nêtre bon{{fun_0006000E arg=\"0x000004006E006500\"}} à un sport d'endurance..."
  },
  {
    "label": "003",
    "text": "{{anim id=\"27\"}}Oh,{{delay frames=\"10\"}} ne fais pas attention à moi. {{delay frames=\"20\"}}Je\nte suis, ne t'inquiète pas,\n{{fun_00070005 arg=\"\"}}."
  },
  {
    "label": "004",
    "text": "{{anim id=\"2\"}}C'est amusant! Tes traces de pas\nressemblent un peu aux\nempreintes d'{{fun_0002000E arg=\"\"}}{{fun_001F0005 arg=\"0x04CD\"}}..."
  },
  {
    "label": "005",
    "text": "{{anim id=\"13\"}}J'ai terriblement hâte de voir ce que\ntu as fait de ta maison\n{{fun_00070005 arg=\"\"}}!"
  },
  {
    "label": "006",
    "text": "Je vais enfin pouvoir étudier {{fun_0006000E arg=\"0x04006C00650004006C006100\"}}\n{{fun_00080005 arg=\"\"}} dans son habitat\nnaturel... Hi hi!"
  },
  {
    "label": "007",
    "text": "{{anim id=\"38\"}}C'est la première fois que je viens\nici... {{delay frames=\"30\"}}Je suis très heureuse que tu\naies accepté ma proposition."
  },
  {
    "label": "008",
    "text": "{{anim id=\"39\"}}Je me doutais que tu habitais dans\ncette direction, {{fun_00080005 arg=\"\"}}. Je\nt'avais déjà vu aller et venir par ici."
  },
  {
    "label": "009",
    "text": "{{anim id=\"23\"}}Je suis curieuse de voir ce qui a\nchangé chez toi depuis ma dernière\nvisite, {{fun_00080005 arg=\"\"}}."
  },
  {
    "label": "010",
    "text": "{{anim id=\"21\"}}Tu as très bien fait de m'avoir\npermis de venir chez toi.{{delay frames=\"30\"}} {{anim id=\"1\"}}La déco\nd'intérieur, c'est mon dada!"
  },
  {
    "label": "011",
    "text": "{{anim id=\"5\"}}À vrai dire,{{delay frames=\"8\"}} je ne pensais pas avoir\nà nouveau la chance de visiter ton\nchez toi,{{delay frames=\"8\"}} {{fun_00070005 arg=\"\"}}!"
  },
  {
    "label": "012",
    "text": "{{anim id=\"37\"}}Je croyais que nous allions visiter ta\nmaison, {{fun_00080005 arg=\"\"}}, pas la mienne!"
  },
  {
    "label": "013",
    "text": "{{anim id=\"37\"}}Allons directement chez toi. {{delay frames=\"20\"}}Ne\nperdons pas notre temps sur la\nplage..."
  },
  {
    "label": "014",
    "text": "{{anim id=\"23\"}}Chercherais-tu à quitter la ville?{{pageBreak}}{{delay frames=\"10\"}}As-tu vraiment si peur que cela que\nje découvre que ta maison n'est pas\nrangée?{{endTag}}\nNon, non. Allons-y!\nEuh... À la prochaine!"
  },
  {
    "label": "015",
    "text": "{{anim id=\"37\"}}Bien. {{delay frames=\"10\"}}Allons chez toi, maintenant!"
  },
  {
    "label": "016",
    "text": "{{anim id=\"9\"}}C'est vraiment dommage...\n{{delay frames=\"10\"}}Peut-être que je pourrai venir chez\ntoi une prochaine fois?"
  },
  {
    "label": "017",
    "text": "{{anim id=\"9\"}}Si tu préfères aller faire du\nshopping, c'est comme tu veux.{{pageBreak}}Nous pouvons toujours remettre la\nvisite à une autre fois.{{endTag}}\nAllons chez moi!\nUne autre fois, alors..."
  },
  {
    "label": "018",
    "text": "{{anim id=\"37\"}}Oh, tant mieux. {{delay frames=\"20\"}}Je commençais à\nm'inquiéter. {{delay frames=\"20\"}}Allons chez toi,\nmaintenant."
  },
  {
    "label": "019",
    "text": "{{anim id=\"9\"}}Oh, je comprends parfaitement...{{pageBreak}}{{delay frames=\"20\"}}Quand on a une crise de fièvre\nacheteuse, {{delay frames=\"20\"}}plus rien d'autre ne\ncompte que faire les boutiques!\n{{anim id=\"37\"}}Cela me prend aussi, parfois.{{delay frames=\"20\"}} Nous\nnous reverrons bientôt, {{fun_00080005 arg=\"\"}}."
  },
  {
    "label": "020",
    "text": "{{anim id=\"37\"}}Mais voyons... {{delay frames=\"20\"}}Ici c'est la maison\n{{fun_000A000E arg=\"0x0600640065002000040064002700\"}}{{fun_00010011 arg=\"0x0000\"}}!{{pageBreak}}Souviens-toi, {{fun_00080005 arg=\"\"}}.{{delay frames=\"20\"}} Nous\navions dit que nous irions chez toi."
  },
  {
    "label": "021",
    "text": "Un instant.{{delay frames=\"8\"}}.{{delay frames=\"8\"}}.{{delay frames=\"8\"}} Je croyais que nous\nallions chez toi, {{fun_00080005 arg=\"\"}}..."
  },
  {
    "label": "022",
    "text": "{{anim id=\"9\"}}Désolée, {{fun_00080005 arg=\"\"}}. {{delay frames=\"10\"}}Il faut que je\nrentre maintenant. {{delay frames=\"10\"}}Remettons ma\nvisite à une autre fois, veux-tu?"
  },
  {
    "label": "023",
    "text": "{{anim id=\"25\"}}{{delay frames=\"20\"}}Oh!{{delay frames=\"10\"}} C'est fou comme cela passe\nvite! {{delay frames=\"10\"}}Il est déjà {{fun_00030004 arg=\"\"}} h {{fun_00040004 arg=\"\"}}...{{delay frames=\"10\"}}\n{{anim id=\"37\"}}Il me faut rentrer, maintenant.{{delay frames=\"10\"}}\nRemettons cela à une autre fois,\nveux-tu?"
  },
  {
    "label": "024",
    "text": "{{anim id=\"9\"}}Attends-moi, {{fun_00080005 arg=\"\"}}!"
  },
  {
    "label": "025",
    "text": "{{anim id=\"6\"}}Je n'arrive plus à te suivre,\n{{fun_00070005 arg=\"\"}}! {{delay frames=\"10\"}}Tant pis, j'arrête.\nNous ferons ça une autre fois.{{fun_0002000B arg=\"0x03CD\"}}"
  }
]