﻿[
  {
    "label": "001",
    "text": "{{fun_0000000C arg=\"\"}}{{fun_0006000C arg=\"\"}}{{fun_0001000C arg=\"\"}}{{fun_0004000C arg=\"\"}}{{fun_0002000C arg=\"\"}}{{fun_0006000C arg=\"\"}}{{anim id=\"16\"}}Bien, {{delay frames=\"30\"}}vous êtes là, {{fun_00070005 arg=\"\"}}!{{fun_0009000C arg=\"\"}}"
  },
  {
    "label": "002",
    "text": "{{fun_0000000C arg=\"\"}}{{fun_0006000C arg=\"\"}}{{fun_0001000C arg=\"\"}}{{fun_0004000C arg=\"\"}}{{fun_0002000C arg=\"\"}}{{fun_0006000C arg=\"\"}}{{anim id=\"1\"}}Bien.{{delay frames=\"30\"}} Merci, d'avoir accompagné\n{{fun_00010011 arg=\"0x0100\"}} jusque chez moi.{{fun_0009000C arg=\"\"}}"
  },
  {
    "label": "003",
    "text": "{{fun_0000000C arg=\"\"}}{{fun_0006000C arg=\"\"}}{{fun_0001000C arg=\"\"}}{{fun_0004000C arg=\"\"}}{{fun_0002000C arg=\"\"}}{{fun_0006000C arg=\"\"}}{{anim id=\"35\"}}Ah,{{delay frames=\"16\"}} {{fun_00080005 arg=\"\"}}!{{delay frames=\"40\"}} Et tu as amené\n{{fun_00010011 arg=\"0x0100\"}}, {{delay frames=\"16\"}}parfait!{{fun_0009000C arg=\"\"}}"
  },
  {
    "label": "004",
    "text": "{{fun_0000000C arg=\"\"}}{{fun_0006000C arg=\"\"}}{{fun_0001000C arg=\"\"}}{{fun_0004000C arg=\"\"}}{{fun_0002000C arg=\"\"}}{{fun_0006000C arg=\"\"}}{{anim id=\"16\"}}{{fun_0003000E arg=\"\"}}{{fun_00080005 arg=\"\"}}!\nQuelle bonne surprise!{{pageBreak}}{{anim id=\"9\"}}Oh! {{delay frames=\"16\"}}Désolée...{{delay frames=\"40\"}} J'avais totalement\noublié que tu allais passer avec\n{{fun_00010011 arg=\"0x0100\"}}{{delay frames=\"8\"}}.{{delay frames=\"8\"}}.{{delay frames=\"8\"}}.\n{{anim id=\"1\"}}Excuse-moi encore.{{delay frames=\"30\"}} En tout cas, je\nsuis contente que vous ayez pu\nvenir.{{fun_0009000C arg=\"\"}}"
  },
  {
    "label": "005",
    "text": "{{fun_0000000C arg=\"\"}}{{fun_0007000C arg=\"\"}}{{fun_0001000C arg=\"\"}}{{fun_0008000C arg=\"\"}}{{fun_0002000C arg=\"\"}}{{fun_0006000C arg=\"\"}}{{anim id=\"6\"}}J'espère que c'est important et que\nje ne me déplace pas pour rien!{{fun_0009000C arg=\"\"}}"
  },
  {
    "label": "006",
    "text": "{{fun_0000000C arg=\"\"}}{{fun_0007000C arg=\"\"}}{{fun_0001000C arg=\"\"}}{{fun_0008000C arg=\"\"}}{{fun_0002000C arg=\"\"}}{{fun_0006000C arg=\"\"}}{{anim id=\"1\"}}Oui,{{delay frames=\"8\"}} {{fun_00010011 arg=\"0x0000\"}}?\n{{delay frames=\"16\"}}Tu voulais me voir?{{fun_0009000C arg=\"\"}}"
  },
  {
    "label": "007",
    "text": "{{fun_0000000C arg=\"\"}}{{fun_0007000C arg=\"\"}}{{fun_0001000C arg=\"\"}}{{fun_0008000C arg=\"\"}}{{fun_0002000C arg=\"\"}}{{fun_0006000C arg=\"\"}}{{anim id=\"23\"}}Alors que se passe-t-il, {{fun_00010011 arg=\"0x0000\"}}?\n{{delay frames=\"30\"}}Ce doit être important pour que tu\nm'envoies {{fun_00080005 arg=\"\"}}.{{fun_0009000C arg=\"\"}}"
  },
  {
    "label": "008",
    "text": ""
  },
  {
    "label": "009",
    "text": "{{fun_0000000C arg=\"\"}}{{fun_0005000C arg=\"\"}}{{fun_0001000C arg=\"\"}}{{fun_0008000C arg=\"\"}}{{fun_0002000C arg=\"\"}}{{fun_0006000C arg=\"\"}}{{anim id=\"37\"}}Cet objet te rappelle-t-il quelque\nchose?{{delay frames=\"30\"}} Il est à toi. {{delay frames=\"20\"}}Je te l'avais\nemprunté, {{delay frames=\"8\"}}cela fait déjà longtemps.\n{{anim id=\"1\"}}Je n'ai plus pensé à te le rendre sur\nle coup. {{delay frames=\"30\"}}Mais il n'est jamais trop\ntard pour bien faire,{{delay frames=\"20\"}} {{anim id=\"36\"}}alors tiens.{{fun_0009000C arg=\"\"}} "
  },
  {
    "label": "010",
    "text": "{{fun_0000000C arg=\"\"}}{{fun_0007000C arg=\"\"}}{{fun_0001000C arg=\"\"}}{{fun_0008000C arg=\"\"}}{{anim id=\"16\"}}Oh mais oui, {{delay frames=\"16\"}}je m'en souviens,{{delay frames=\"16\"}}\n{{fun_00070005 arg=\"\"}}...{{pageBreak}}{{anim id=\"38\"}}Merci. {{delay frames=\"30\"}}Mais rien ne presse, tu sais.\n{{delay frames=\"30\"}}Tu es sûre que tu n'en as plus\nbesoin? {{delay frames=\"30\"}}Alors je t'en débarrasse..."
  },
  {
    "label": "011",
    "text": "{{fun_0000000C arg=\"\"}}{{fun_0005000C arg=\"\"}}{{fun_0001000C arg=\"\"}}{{fun_0008000C arg=\"\"}}{{fun_0002000C arg=\"\"}}{{fun_0006000C arg=\"\"}}{{anim id=\"37\"}}L'autre jour, {{delay frames=\"16\"}}en dévalisant les\nboutiques, {{delay frames=\"16\"}}je suis tombé sur cette\npetite chose{{delay frames=\"8\"}}.{{delay frames=\"8\"}}.{{delay frames=\"8\"}}.{{delay frames=\"8\"}}\n{{anim id=\"38\"}}Regarde,{{delay frames=\"16\"}} je pense que cela te plaira.{{delay frames=\"40\"}}\n{{anim id=\"1\"}}Je sais que tu en cherchais depuis\nlongtemps.{{delay frames=\"30\"}} Alors je t'en fais cadeau.{{fun_0009000C arg=\"\"}}"
  },
  {
    "label": "012",
    "text": "{{fun_0000000C arg=\"\"}}{{fun_0007000C arg=\"\"}}{{fun_0001000C arg=\"\"}}{{fun_0008000C arg=\"\"}}{{anim id=\"15\"}}Oh,{{delay frames=\"8\"}} {{fun_00070005 arg=\"\"}}! {{delay frames=\"16\"}}\n{{fun_0003000E arg=\"\"}}{{fun_0002000E arg=\"\"}}{{fun_00030011 arg=\"0x0000\"}}...{{delay frames=\"30\"}}\nPour moi?{{delay frames=\"20\"}}{{anim id=\"29\"}} Comme c'est gentil...\nComment pourrais-je te remercier?{{delay frames=\"30\"}}\n{{anim id=\"38\"}}Oh,{{delay frames=\"15\"}} {{fun_00010011 arg=\"0x0000\"}}, {{delay frames=\"15\"}}je suis si contente...{{delay frames=\"30\"}}\nJe ne sais plus quoi dire..."
  },
  {
    "label": "013",
    "text": "{{fun_0000000C arg=\"\"}}{{fun_0005000C arg=\"\"}}{{fun_0001000C arg=\"\"}}{{fun_0008000C arg=\"\"}}{{fun_0002000C arg=\"\"}}{{fun_0006000C arg=\"\"}}{{anim id=\"1\"}}Regarde ce que j'ai trouvé en me\npromenant sur la plage...{{pageBreak}}{{anim id=\"38\"}}Cela t'appartient, je crois.{{fun_0009000C arg=\"\"}}"
  },
  {
    "label": "014",
    "text": "{{fun_0000000C arg=\"\"}}{{fun_0007000C arg=\"\"}}{{fun_0001000C arg=\"\"}}{{fun_0008000C arg=\"\"}}{{anim id=\"18\"}}Magnifique! {{delay frames=\"16\"}}Tu as retrouvé\n{{fun_0001000E arg=\"\"}}{{fun_00030011 arg=\"0x0000\"}} que\nj'avais perdu{{fun_0008000E arg=\"0x00CD0000020065000000\"}}!{{delay frames=\"30\"}} Incroyable!\n{{anim id=\"13\"}}Sur la plage, dis-tu? {{delay frames=\"30\"}}C'est fou!\n{{delay frames=\"20\"}}Je l'ai cherché{{fun_0008000E arg=\"0x00CD0000020065000000\"}} partout!{{delay frames=\"30\"}} {{anim id=\"3\"}}Oh, merci,{{delay frames=\"8\"}}\n{{fun_00010011 arg=\"0x0000\"}}!{{delay frames=\"20\"}} Merci!"
  },
  {
    "label": "015",
    "text": "{{fun_0000000C arg=\"\"}}{{fun_0005000C arg=\"\"}}{{fun_0001000C arg=\"\"}}{{fun_0008000C arg=\"\"}}{{fun_0002000C arg=\"\"}}{{fun_0006000C arg=\"\"}}{{anim id=\"37\"}}Cette nuit j'ai rêvé que tu gagnais\nl'élection Miss {{fun_0003000E arg=\"\"}}{{fun_00050005 arg=\"\"}} et que tu\npartais en tournée pendant un an.\n{{anim id=\"2\"}}Oui! {{delay frames=\"8\"}}Hi{{delay frames=\"8\"}} hi!{{delay frames=\"20\"}} Tu te rends comptes?{{delay frames=\"20\"}}\nToi, {{delay frames=\"16\"}}{{fun_0003000E arg=\"\"}}{{fun_00050005 arg=\"\"}}, {{delay frames=\"16\"}}à ton âge...\n{{anim id=\"9\"}}Oui, {{delay frames=\"16\"}}bon. {{delay frames=\"20\"}}Ne t'énerve pas...\n{{anim id=\"10\"}}Bref,{{delay frames=\"12\"}} je me disais que c'était peut-\nêtre une prémonition symbolique,{{delay frames=\"20\"}}\nque tu allais peut-être nous quitter.\n{{anim id=\"9\"}}Rassure-moi,{{delay frames=\"20\"}} tu ne comptes pas\npartir, dis.{{delay frames=\"30\"}} Je ne veux pas perdre\nune amie...{{fun_0009000C arg=\"\"}}"
  },
  {
    "label": "016",
    "text": "{{fun_0000000C arg=\"\"}}{{fun_0007000C arg=\"\"}}{{fun_0001000C arg=\"\"}}{{fun_0008000C arg=\"\"}}{{fun_0002000C arg=\"\"}}{{fun_0006000C arg=\"\"}}{{anim id=\"6\"}}Sois rassurée,{{delay frames=\"20\"}} je compte pas\ndéménager de sitôt. {{delay frames=\"30\"}}J'aime trop\ncette ville pour ça.\n{{anim id=\"8\"}}À mon âge, {{delay frames=\"16\"}}on a ses habitudes,{{delay frames=\"16\"}} on\nn'aime pas le changement.{{delay frames=\"40\"}} Mais tu\nsais cela mieux que moi, ma chère...\n{{anim id=\"36\"}}Alors comme ça, {{delay frames=\"20\"}}dans ton rêve, {{delay frames=\"20\"}}je\nremportais l'élection...{{delay frames=\"40\"}} Et toi,{{delay frames=\"16\"}} étais-\ntu loin derrière?"
  },
  {
    "label": "017",
    "text": "{{fun_0000000C arg=\"\"}}{{fun_0005000C arg=\"\"}}{{fun_0001000C arg=\"\"}}{{fun_0008000C arg=\"\"}}{{fun_0002000C arg=\"\"}}{{fun_0006000C arg=\"\"}}{{anim id=\"37\"}}On m'a dit que tu souffrais\nd'insomnies en ce moment.{{pageBreak}}J'ai un truc à te donner si tu veux.{{delay frames=\"30\"}}{{anim id=\"21\"}}\nAllume une bougie parfumée à la\nlavande dans l'après-midi.\n{{anim id=\"1\"}}Le soir venu, {{delay frames=\"8\"}}tu dormiras comme un\nbébé.{{delay frames=\"30\"}} Tu verras,{{delay frames=\"20\"}} effet garanti. {{delay frames=\"30\"}}C'est\nune vieille astuce de ma grand-mère.{{fun_0009000C arg=\"\"}}"
  },
  {
    "label": "018",
    "text": "{{fun_0000000C arg=\"\"}}{{fun_0007000C arg=\"\"}}{{fun_0001000C arg=\"\"}}{{fun_0008000C arg=\"\"}}{{fun_0002000C arg=\"\"}}{{fun_0006000C arg=\"\"}}{{anim id=\"11\"}}Je ne sais pas...{{delay frames=\"40\"}} Je n'aime pas\ntellement l'odeur de la lavande en\nfait...\n{{anim id=\"1\"}}Mais puisque ça vient de ta grand-\nmère, {{delay frames=\"12\"}}alors j'essaierai.{{delay frames=\"20\"}} Merci pour le\nconseil."
  },
  {
    "label": "019",
    "text": ""
  },
  {
    "label": "020",
    "text": "{{fun_0000000C arg=\"\"}}{{fun_0007000C arg=\"\"}}{{fun_0001000C arg=\"\"}}{{fun_0007000C arg=\"\"}}{{fun_0002000C arg=\"\"}}{{fun_0003000C arg=\"\"}}{{anim id=\"1\"}}Je te remercie de m'avoir menée\njusqu'ici,{{delay frames=\"8\"}} {{fun_00080005 arg=\"\"}}. {{delay frames=\"30\"}}C'était gentil\nà toi de t'être donné{{fun_0006000E arg=\"0x000002006500\"}} cette peine.\n{{anim id=\"36\"}}Tu peux t'attendre à une\nrécompense de la part\n{{fun_000A000E arg=\"0x0600640065002000040064002700\"}}{{fun_00010011 arg=\"0x0000\"}}...\n{{anim id=\"32\"}}Bien.{{delay frames=\"30\"}} Puisque je n'ai plus rien à\nfaire ici, {{delay frames=\"8\"}}je rentre chez moi me faire\nune tasse de thé."
  },
  {
    "label": "021",
    "text": "{{fun_0000000C arg=\"\"}}{{fun_0007000C arg=\"\"}}{{fun_0001000C arg=\"\"}}{{fun_0007000C arg=\"\"}}{{fun_0002000C arg=\"\"}}{{fun_0003000C arg=\"\"}}{{anim id=\"37\"}}Bien.{{delay frames=\"30\"}} Je pense que je vais retourner\nchez moi, {{fun_00070005 arg=\"\"}}.{{pageBreak}}{{anim id=\"1\"}}Je te remercie pour tout,\n{{delay frames=\"8\"}}{{fun_00080005 arg=\"\"}}.{{delay frames=\"30\"}} Passe à la maison\nprendre le thé, à l'occasion."
  },
  {
    "label": "022",
    "text": "{{fun_0000000C arg=\"\"}}{{fun_0007000C arg=\"\"}}{{fun_0001000C arg=\"\"}}{{fun_0007000C arg=\"\"}}{{fun_0002000C arg=\"\"}}{{fun_0003000C arg=\"\"}}{{anim id=\"17\"}}Oh là là! {{delay frames=\"16\"}}Vous avez vu l'heure?{{delay frames=\"30\"}}\nAllez, {{delay frames=\"12\"}}{{anim id=\"1\"}}moi,{{delay frames=\"12\"}} je me sauve. {{delay frames=\"20\"}}Bisous!{{pageBreak}}{{anim id=\"35\"}}À ta place, {{delay frames=\"8\"}}{{fun_00080005 arg=\"\"}}, {{delay frames=\"8\"}}je resterais\nencore un peu. {{delay frames=\"20\"}}Mon petit doigt me\ndit que tu ne le regretterais pas."
  },
  {
    "label": "023",
    "text": ""
  }
]