﻿[
  {
    "label": "001",
    "text": "{{anim id=\"31\"}}Heureux anniversaire,{{delay frames=\"8\"}} {{fun_00080005 arg=\"\"}}!{{delay frames=\"30\"}}\nJe t'ai envoyé ton cadeau par voie\npostale, alors ouvre ta boîte!\n{{anim id=\"11\"}}Au moins, {{delay frames=\"16\"}}maintenant tu sais qu'il\nest suffisamment petit pour entrer\ndans ta boîte aux lettres...\n{{anim id=\"35\"}}Ou peut-être pas. {{delay frames=\"30\"}}{{anim id=\"36\"}}Notre facteur est\ntrès fort. {{delay frames=\"20\"}}Il y ferait rentrer un\néléphant, s'il le fallait!"
  },
  {
    "label": "002",
    "text": "{{anim id=\"38\"}}J'espère que tu n'as pas oublié\nqu'aujourd'hui c'est ton\nanniversaire!\n{{anim id=\"39\"}}Au cas où, {{delay frames=\"12\"}}je t'ai envoyé un petit\nquelque chose pour te le rappeler{{delay frames=\"8\"}}.{{delay frames=\"8\"}}.{{delay frames=\"8\"}}.{{delay frames=\"8\"}}\nAlors ouvre ta boîte aux lettres!"
  },
  {
    "label": "003",
    "text": "{{anim id=\"38\"}}As-tu ouvert ton courrier ce matin?\n{{delay frames=\"25\"}}As-tu vu ce que je t'ai envoyé?{{pageBreak}}{{anim id=\"21\"}}{{delay frames=\"8\"}}C'est pour ton anniversaire.{{delay frames=\"45\"}}{{anim id=\"9\"}} C'est\nbien ton anniversaire aujourd'hui,{{delay frames=\"8\"}}\nn'est-ce pas?"
  },
  {
    "label": "004",
    "text": "{{anim id=\"1\"}}Tiens,{{delay frames=\"16\"}} {{fun_00080005 arg=\"\"}}! {{delay frames=\"30\"}}C'est bien ton\nanniversaire aujourd'hui, n'est-ce\npas? {{delay frames=\"40\"}}{{anim id=\"16\"}}C'est bien ce que je me disais.\nBon anniversaire! {{delay frames=\"40\"}}{{anim id=\"11\"}}Je n'ai pas ton\ncadeau sur moi, {{delay frames=\"8\"}}mais j'ai le reste de\nla journée pour te l'apporter{{delay frames=\"8\"}}.{{delay frames=\"8\"}}.{{delay frames=\"8\"}}."
  },
  {
    "label": "005",
    "text": "{{anim id=\"38\"}}{{fun_0003000E arg=\"\"}}{{fun_00080005 arg=\"\"}}! {{delay frames=\"30\"}}C'est ton anniversaire\naujourd'hui,{{delay frames=\"8\"}} sauf erreur? {{delay frames=\"40\"}}{{anim id=\"33\"}}Je m'en\ndoutais!\n{{anim id=\"1\"}}J'adore les anniversaires!{{delay frames=\"30\"}} Surtout\nceux des autres."
  },
  {
    "label": "006",
    "text": "{{anim id=\"36\"}}Devine quel jour nous sommes,{{delay frames=\"8\"}}\n{{fun_00080005 arg=\"\"}}...{{fun_00010007 arg=\"\"}} Oui,{{delay frames=\"16\"}} {{fun_00070005 arg=\"\"}}!{{delay frames=\"30\"}}\nC'est ton anniversaire!\n{{anim id=\"1\"}}Heureux anniversaire à toi!"
  },
  {
    "label": "007",
    "text": "{{anim id=\"37\"}}Tu fais partie des rares chanceu{{fun_0006000E arg=\"0x020078000600730065007300\"}}\ndont l'anniversaire tombe le 29\nfévrier,{{delay frames=\"8\"}} je crois...\n{{anim id=\"4\"}}Oh,{{delay frames=\"16\"}} {{fun_00070005 arg=\"\"}}...\n{{delay frames=\"30\"}}Quelle chance tu as!{{pageBreak}}{{anim id=\"35\"}}Tu as le choix entre fêter ton\nanniversaire tous les ans le 28, ou\nseulement une fois tous les 4 ans!\n{{anim id=\"1\"}}Quelque soit ton choix pour cette\nfois, {{delay frames=\"12\"}}jette tout de même un œil à ta\nboîte aux lettres.\n{{anim id=\"39\"}}Je t'ai envoyé un petit cadeau.\n{{delay frames=\"30\"}}J'espère qu'il te plaira."
  },
  {
    "label": "008",
    "text": "{{anim id=\"11\"}}Tu es né{{fun_0006000E arg=\"0x000002006500\"}} un 29 février, je crois?{{delay frames=\"30\"}}\nMais cette année, {{delay frames=\"16\"}}il n'y a que 28\njours...\n{{anim id=\"36\"}}J'imagine que de ce fait, {{delay frames=\"12\"}}tu le fêtes\nen avance...{{delay frames=\"30\"}}{{anim id=\"29\"}}Alors,{{delay frames=\"8\"}} joyeux\nanniversaire,{{delay frames=\"8\"}} {{fun_00070005 arg=\"\"}}!"
  },
  {
    "label": "009",
    "text": "{{anim id=\"39\"}}Non seulement le 29 février est un\njour spécial en soi, {{delay frames=\"16\"}}mais en plus,{{delay frames=\"12\"}}\nc'est ton anniversaire!\n{{anim id=\"36\"}}En as-tu assez qu'on te répète que\ntu as de la chance de ne le fêter que\ntous les quatre ans?\n{{anim id=\"10\"}}Moi,{{delay frames=\"16\"}} je t'assure que j'aimerais bien\nêtre à ta place!{{delay frames=\"40\"}} Je me sens vieille,\nparfois...\n{{anim id=\"11\"}}Mais bon.{{delay frames=\"20\"}} Assez parlé de moi.{{delay frames=\"30\"}} Je te\nsouhaite un bon anniversaire, {{delay frames=\"12\"}}du\nfond du cœur.\n{{anim id=\"28\"}}Et je serais toi, {{delay frames=\"16\"}}je regarderais dans\nma boîte aux lettres{{delay frames=\"8\"}}.{{delay frames=\"8\"}}.{{delay frames=\"8\"}}.{{delay frames=\"8\"}}"
  },
  {
    "label": "010",
    "text": "{{anim id=\"39\"}}Non seulement le 29 février est un\njour spécial en soi, {{delay frames=\"16\"}}mais en plus,{{delay frames=\"12\"}}\nc'est ton anniversaire!\n{{anim id=\"36\"}}En as-tu assez qu'on te répète que\ntu as de la chance de ne le fêter que\ntous les quatre ans?\n{{anim id=\"10\"}}Moi,{{delay frames=\"16\"}} je t'assure que j'aimerais bien\nêtre à ta place!{{delay frames=\"40\"}} Je me sens vieille,\nparfois...\n{{anim id=\"11\"}}Mais bon.{{delay frames=\"20\"}} Assez parlé de moi.{{delay frames=\"30\"}} Je te\nsouhaite un bon anniversaire, {{delay frames=\"12\"}}du\nfond du cœur, {{fun_00070005 arg=\"\"}}."
  },
  {
    "label": "011",
    "text": "{{anim id=\"43\"}}J'ai un sentiment étrange...{{delay frames=\"45\"}} Comme\nsi j'oubliais quelque chose\nd'important{{delay frames=\"8\"}}.{{delay frames=\"8\"}}.{{delay frames=\"8\"}}.\n{{anim id=\"16\"}}Ah ha! {{delay frames=\"30\"}}Je t'ai eu{{fun_0006000E arg=\"0x000002006500\"}}! {{delay frames=\"30\"}}Tu pensais\nvraiment que j'allais oublier ton\nanniversaire?{{anim id=\"2\"}}{{delay frames=\"16\"}} Hi hi!\n{{anim id=\"38\"}}Joyeux anniversaire,{{delay frames=\"8\"}} {{fun_00080005 arg=\"\"}}!"
  },
  {
    "label": "012",
    "text": "{{anim id=\"5\"}}Happy birthday to you! {{delay frames=\"20\"}}Happy\nbirthday to you! {{delay frames=\"20\"}}Happy birthday to\nyou, {{fun_00080005 arg=\"\"}}!\n{{anim id=\"44\"}}Happy birthday to you...{{delay frames=\"30\"}}\n{{anim id=\"31\"}}Joyeux anniversaire,{{delay frames=\"8\"}} {{fun_00080005 arg=\"\"}}!"
  },
  {
    "label": "013",
    "text": "{{anim id=\"11\"}}Alors, {{delay frames=\"12\"}}techniquement, {{delay frames=\"20\"}}ton\nanniversaire, {{delay frames=\"12\"}}ce serait plutôt demain\nen fait, {{delay frames=\"12\"}}c'est cela?\n{{anim id=\"13\"}}Le problème, {{delay frames=\"16\"}}c'est que demain nous\nne serons plus le même mois{{delay frames=\"8\"}}.{{delay frames=\"8\"}}.{{delay frames=\"8\"}}.{{delay frames=\"8\"}} C'est\nennuyeux, {{fun_00070005 arg=\"\"}}{{delay frames=\"8\"}}.{{delay frames=\"8\"}}.{{delay frames=\"8\"}}.\n{{anim id=\"27\"}}Et c'est presque tous les ans le\nmême dilemme{{delay frames=\"8\"}}.{{delay frames=\"8\"}}.{{delay frames=\"8\"}}.{{delay frames=\"8\"}} Soit tu le fêtes\navant, soit tu le fêtes après{{delay frames=\"8\"}}.{{delay frames=\"8\"}}.{{delay frames=\"8\"}}.\n{{anim id=\"1\"}}Bon. {{delay frames=\"20\"}}Alors au cas où tu le\ncélébrerais aujourd'hui{{delay frames=\"8\"}}.{{delay frames=\"8\"}}.{{delay frames=\"8\"}}.{{delay frames=\"8\"}} Bon\nanniversaire, {{fun_00080005 arg=\"\"}}!"
  },
  {
    "label": "014",
    "text": "{{anim id=\"38\"}}Oh! {{delay frames=\"30\"}}Tu as choisi de fêter ton\nanniversaire à {{fun_00050005 arg=\"\"}}?{{delay frames=\"30\"}}\nMais quelle belle idée!\n{{anim id=\"1\"}}Profites-en pour bien t'amuser!{{delay frames=\"30\"}}\nC'est ton jour, aujourd'hui!{{pageBreak}}{{anim id=\"2\"}}Tu peux même prendre un bain de\ncaramel ou {{fun_0002000E arg=\"\"}}{{fun_00100005 arg=\"0x0000\"}}\nen guise de dîner!"
  },
  {
    "label": "015",
    "text": "{{anim id=\"23\"}}Devine?{{delay frames=\"40\"}} {{anim id=\"29\"}}J'ai un cadeau pour toi!{{delay frames=\"16\"}}"
  },
  {
    "label": "016",
    "text": "{{anim id=\"39\"}}J'espère qu'il te plaira{{delay frames=\"8\"}}.{{delay frames=\"8\"}}.{{delay frames=\"8\"}}.{{delay frames=\"8\"}}"
  },
  {
    "label": "017",
    "text": ""
  },
  {
    "label": "018",
    "text": ""
  },
  {
    "label": "019",
    "text": ""
  },
  {
    "label": "020",
    "text": ""
  },
  {
    "label": "021",
    "text": ""
  }
]