﻿[
  {
    "label": "001",
    "text": ""
  },
  {
    "label": "002",
    "text": "{{fun_00020009 arg=\"0x0500060007000800\"}}"
  },
  {
    "label": "003",
    "text": "{{fun_00000009 arg=\"0x09000A00\"}}"
  },
  {
    "label": "004",
    "text": ""
  },
  {
    "label": "005",
    "text": "{{anim id=\"9\"}}Les boutiques comme celle-ci sont\ndangereuses pour une shoppeuse\ncompulsive telle que moi.\n{{anim id=\"12\"}}Elles sont tout le temps ouvertes."
  },
  {
    "label": "006",
    "text": "{{anim id=\"37\"}}Il n'y a jamais grand-chose en\nrayon,{{delay frames=\"16\"}} mais au moins c'est ouvert\njour et nuit."
  },
  {
    "label": "007",
    "text": "{{anim id=\"39\"}}Ce magasin est drôlement pratique\nquand tu as besoin de dépenser des\nclochettes et que tout est fermé.\n{{anim id=\"27\"}}Oui, j'avoue{{delay frames=\"8\"}}.{{delay frames=\"8\"}}.{{delay frames=\"8\"}}. Parfois je viens y\nacheter des bricoles la nuit.{{delay frames=\"16\"}} Ça\nm'aide à m'endormir..."
  },
  {
    "label": "008",
    "text": "{{anim id=\"13\"}}Une boutique qui ouvre de jour\ncomme de nuit!{{delay frames=\"8\"}} Je n'en reviens\ntoujours pas!{{delay frames=\"8\"}} C'est magnifique!"
  },
  {
    "label": "009",
    "text": "{{anim id=\"23\"}}Il n'y a pas de boutiques ouvertes en\ncontinu dans ta ville, {{delay frames=\"8\"}}{{fun_00080005 arg=\"\"}}?{{pageBreak}}{{anim id=\"11\"}}Je cherche seulement à comprendre\npourquoi tu as fait tout ce chemin\npour venir faire tes courses ici..."
  },
  {
    "label": "010",
    "text": "Je sais pourquoi tu es là.{{delay frames=\"30\"}} {{anim id=\"11\"}}Tu dois\navoir une grosse envie\n{{fun_000A000E arg=\"0x0600640065002000040064002700\"}}{{fun_00130005 arg=\"0x0000\"}}.\n{{anim id=\"21\"}}Et malheureusement dans ta ville il\nn'y a pas de magasin ouvert la nuit,\n{{fun_00070005 arg=\"\"}}."
  }
]