﻿[
  {
    "label": "001",
    "text": "{{anim id=\"23\"}}Es-tu joueu{{fun_0006000E arg=\"0x02007200040073006500\"}}?{{delay frames=\"25\"}}\nAimes-tu prendre des risques?{{delay frames=\"40\"}}\n{{anim id=\"28\"}}Alors je connais un jeu qui te plaira.\n{{fun_000D0007 arg=\"\"}}{{anim id=\"11\"}}Si tu gagnes, {{delay frames=\"12\"}}je t'achète {{fun_0008000E arg=\"0x00CD100074006F006E0020006A006F006C00690010007400610020006A006F006C00690065000000\"}}\n{{fun_00030011 arg=\"0x0000\"}} à un très\nbon prix.\n{{anim id=\"35\"}}Mais si tu perds,{{delay frames=\"16\"}} tu dois me {{fun_0008000E arg=\"0x00CD04006C00650004006C0061000000\"}}\nvendre en deçà de sa valeur réelle.{{pageBreak}}{{anim id=\"28\"}}Ce jeu s'appelle :{{delay frames=\"16\"}} « chasse l'as ».{{delay frames=\"25\"}}\nVeux-tu t'y risquer?{{fun_00050008 arg=\"0x0700150002002800\"}}\nEt comment!\nPas cette fois."
  },
  {
    "label": "002",
    "text": "{{anim id=\"37\"}}Alors tu tiens tant que cela à cet\nobjet{{delay frames=\"12\"}} que tu ne veux pas risquer\nde le perdre?\n{{anim id=\"27\"}}Je comprends. {{delay frames=\"25\"}}J'ai aussi chez moi\nquelques trésors dont je ne me\nséparerais pour rien au monde..."
  },
  {
    "label": "003",
    "text": "{{anim id=\"16\"}}Oups! {{delay frames=\"20\"}}Pas de chance.\n{{delay frames=\"30\"}}{{anim id=\"36\"}}Cela veut dire que je vais pouvoir\nl'avoir pour {{color id=\"2\"}}{{fun_00090004 arg=\"0x0000\"}} clochettes{{color id=\"65535\"}}!"
  },
  {
    "label": "004",
    "text": "{{anim id=\"16\"}}Ah ha! {{delay frames=\"20\"}}Tu as tiré le joker!{{delay frames=\"30\"}} {{anim id=\"33\"}}Alors je\nvais t'acheter ton bien pour tout\njuste {{color id=\"2\"}}{{fun_00090004 arg=\"0x0100\"}} clochettes{{color id=\"65535\"}}."
  },
  {
    "label": "005",
    "text": "{{anim id=\"18\"}}Oh, {{delay frames=\"16\"}}pas mal.{{delay frames=\"25\"}} Bien joué, {{delay frames=\"12\"}}je dois dire.{{delay frames=\"25\"}}\nTu as failli avoir trois as d'affilée.{{pageBreak}}{{anim id=\"10\"}}Ce qui signifie que je t'achète ton\nobjet au prix de {{color id=\"2\"}}{{fun_00090004 arg=\"0x0200\"}} clochettes{{color id=\"65535\"}}..."
  },
  {
    "label": "006",
    "text": "{{anim id=\"27\"}}Oh! {{delay frames=\"25\"}}Trois as de suite?!{{delay frames=\"25\"}}\nQuelle chance insolente!{{pageBreak}}{{anim id=\"9\"}}Je vais devoir te l'acheter très cher.\n{{delay frames=\"30\"}}{{color id=\"2\"}}{{fun_00090004 arg=\"0x0300\"}} clochettes{{color id=\"65535\"}}{{delay frames=\"8\"}}.{{delay frames=\"8\"}}.{{delay frames=\"8\"}}.{{delay frames=\"8\"}} {{anim id=\"12\"}}C'est la ruine{{delay frames=\"8\"}}.{{delay frames=\"8\"}}.{{delay frames=\"8\"}}."
  },
  {
    "label": "007",
    "text": "{{anim id=\"29\"}}{{delay frames=\"20\"}}Je savais que l'idée te tenterait!{{delay frames=\"30\"}}{{anim id=\"23\"}}{{delay frames=\"8\"}}\nSais-tu comment on y joue ou veux-\ntu que je t'en explique les règles?{{fun_00050008 arg=\"0x0800150009002800\"}}\nExplique-les-moi.\nJe sais y jouer."
  },
  {
    "label": "008",
    "text": "{{anim id=\"21\"}}Alors écoute bien : {{delay frames=\"30\"}}j'ai deux cartes,{{delay frames=\"20\"}}\nl'as de cœur {{delay frames=\"15\"}}et le joker.{{delay frames=\"16\"}} {{anim id=\"1\"}}Je vais les\nmélanger,{{delay frames=\"8\"}} tu devras en choisir une.\n{{anim id=\"16\"}}Si tu pioches l'as, {{delay frames=\"8\"}}le prix de ton\nobjet montera. {{delay frames=\"25\"}}{{anim id=\"35\"}}Mais si tu prends le\njoker,{{delay frames=\"8\"}} alors là...\n{{anim id=\"36\"}}Je pourrai te l'acheter pour {{color id=\"2\"}}{{fun_00090004 arg=\"0x0000\"}}\nclochettes{{color id=\"65535\"}}.{{delay frames=\"25\"}} Nous allons jouer en\ntrois manches.{{delay frames=\"25\"}} {{anim id=\"28\"}}Es-tu prêt{{fun_0006000E arg=\"0x000002006500\"}}?\nPrends une carte, {{delay frames=\"15\"}}celle de ton choix.{{fun_00000008 arg=\"0x0A0000000B000000\"}}\nCelle de gauche.\nCelle de droite."
  },
  {
    "label": "009",
    "text": "{{anim id=\"16\"}}Magnifique! {{delay frames=\"20\"}}C'est encore mieux si\ntu sais déjà y jouer. {{delay frames=\"20\"}}Le défi n'en est\nque plus grand pour moi.\n{{anim id=\"33\"}}C'est parti!{{delay frames=\"20\"}} Quelle carte prendras-\ntu? {{delay frames=\"20\"}}Pioche la mauvaise et ton objet\nsera à moi pour {{color id=\"2\"}}{{fun_00090004 arg=\"0x0000\"}} clochettes{{color id=\"65535\"}}.{{fun_00000008 arg=\"0x0A0000000A000000\"}}\nCelle de gauche.\nCelle de droite."
  },
  {
    "label": "010",
    "text": "{{fun_00020009 arg=\"0x0B000B000B000C00\"}}"
  },
  {
    "label": "011",
    "text": "{{anim id=\"36\"}}Parfait!{{delay frames=\"20\"}} Je retourne la carte que tu\nas choisie, {{delay frames=\"12\"}}et c'est{{delay frames=\"8\"}}.{{delay frames=\"8\"}}.{{delay frames=\"8\"}}.{{delay frames=\"16\"}} {{anim id=\"15\"}}C'est l'as de\ncœur! {{delay frames=\"16\"}}Ça commence bien!"
  },
  {
    "label": "012",
    "text": "{{anim id=\"1\"}}Alors voyons...{{delay frames=\"30\"}} Je retourne la carte\nque tu as choisie, {{delay frames=\"8\"}}et c'est{{delay frames=\"8\"}}.{{delay frames=\"8\"}}.{{delay frames=\"8\"}}.{{delay frames=\"8\"}} {{fun_000B0007 arg=\"\"}}Hi hi!{{delay frames=\"20\"}}\n{{anim id=\"36\"}}C'est le joker..."
  },
  {
    "label": "013",
    "text": "{{anim id=\"10\"}}Tu remportes la première manche.{{delay frames=\"25\"}}\nLe prix reste donc à {{color id=\"2\"}}{{fun_00090004 arg=\"0x0100\"}}\nclochettes{{color id=\"65535\"}}.\n{{anim id=\"37\"}}{{delay frames=\"25\"}}Passons à la seconde manche avant\nque je ne commence à paniquer.{{delay frames=\"25\"}}\n{{anim id=\"23\"}}Alors? {{delay frames=\"20\"}}Quelle carte?{{fun_00000008 arg=\"0x0E0000000E000000\"}}\nCelle de gauche.\nCelle de droite."
  },
  {
    "label": "014",
    "text": "{{fun_00020009 arg=\"0x0F000F0010001000\"}}"
  },
  {
    "label": "015",
    "text": "{{anim id=\"23\"}}Tu es sûr{{fun_0006000E arg=\"0x000002006500\"}} que tu veux cette carte-\nci? {{delay frames=\"35\"}}Alors je la retourne{{delay frames=\"8\"}}.{{delay frames=\"8\"}}.{{delay frames=\"8\"}}.{{delay frames=\"8\"}}\n{{anim id=\"17\"}}{{fun_0003000E arg=\"\"}}{{fun_00070005 arg=\"\"}}!{{delay frames=\"16\"}} C'est l'as de cœur!"
  },
  {
    "label": "016",
    "text": "{{anim id=\"23\"}}Tu es sûr{{fun_0006000E arg=\"0x000002006500\"}} que tu veux cette carte-\nci? {{delay frames=\"35\"}}Alors je la retourne{{delay frames=\"8\"}}.{{delay frames=\"8\"}}.{{delay frames=\"8\"}}.{{delay frames=\"8\"}}\n{{anim id=\"28\"}}Oh!{{delay frames=\"16\"}} Le joker!"
  },
  {
    "label": "017",
    "text": "{{anim id=\"16\"}}Ça fait deux! {{delay frames=\"25\"}}Tu crois que tu peux\naussi avoir la troisième? {{delay frames=\"30\"}}{{anim id=\"36\"}}C'est ce\nque nous allons voir!\n{{anim id=\"11\"}}{{delay frames=\"16\"}}Si tu pioches la mauvaise cette fois,{{delay frames=\"8\"}}\nle prix sera de {{color id=\"2\"}}{{fun_00090004 arg=\"0x0200\"}} clochettes{{color id=\"65535\"}}.{{delay frames=\"25\"}}{{anim id=\"9\"}}{{delay frames=\"8\"}}\nRien ne va plus! {{delay frames=\"8\"}}Choisis une carte!{{fun_00000008 arg=\"0x1200000012000000\"}}\nCelle de gauche.\nCelle de droite."
  },
  {
    "label": "018",
    "text": "{{fun_00020009 arg=\"0x1300140014001400\"}}"
  },
  {
    "label": "019",
    "text": "{{anim id=\"9\"}}Oh{{delay frames=\"8\"}}.{{delay frames=\"8\"}}.{{delay frames=\"8\"}}.{{delay frames=\"8\"}} Quel suspense! {{delay frames=\"16\"}}{{anim id=\"13\"}}As-tu choisi la\nbonne?{{delay frames=\"20\"}} La mauvaise? {{delay frames=\"30\"}}Vais-je\narrêter de parler et la regarder?\n{{anim id=\"16\"}}Bingo!{{delay frames=\"16\"}} Tu as pioché l'as de cœur!"
  },
  {
    "label": "020",
    "text": "{{anim id=\"9\"}}Oh{{delay frames=\"8\"}}.{{delay frames=\"8\"}}.{{delay frames=\"8\"}}.{{delay frames=\"8\"}} Quel suspense! {{delay frames=\"16\"}}{{anim id=\"13\"}}As-tu choisi la\nbonne? {{delay frames=\"20\"}}La mauvaise? {{delay frames=\"30\"}}Vais-je\narrêter de parler et la regarder?\n{{anim id=\"16\"}}Tu as pioché le joker! {{delay frames=\"12\"}}YES!\n{{delay frames=\"30\"}}Euh... {{delay frames=\"20\"}}désolée."
  },
  {
    "label": "021",
    "text": "{{fun_00010009 arg=\"0x170018001900\"}}"
  },
  {
    "label": "022",
    "text": "{{fun_00010009 arg=\"0x1A001B001C00\"}}"
  },
  {
    "label": "023",
    "text": "{{anim id=\"9\"}}{{delay frames=\"12\"}}Cette fois, {{delay frames=\"12\"}}c'est toi qui perds. {{delay frames=\"25\"}}{{anim id=\"28\"}}\nMais que cela ne t'empêche pas\nde retenter ta chance{{delay frames=\"8\"}}.{{delay frames=\"8\"}}.{{delay frames=\"8\"}}."
  },
  {
    "label": "024",
    "text": "{{anim id=\"39\"}}C'est pas de chance. {{delay frames=\"30\"}}Mais nous\npouvons toujours faire une autre\npartie si tu veux..."
  },
  {
    "label": "025",
    "text": "{{anim id=\"9\"}}Allons... {{delay frames=\"20\"}}N'abandonne pas si vite.\n{{delay frames=\"30\"}}{{anim id=\"35\"}}Je veux bien te donner ta revanche\nsi tu veux."
  },
  {
    "label": "026",
    "text": "{{anim id=\"1\"}}Tu t'en sors bien.{{pageBreak}}{{anim id=\"16\"}}Tu sais ce que l'on dit : « Heureu{{fun_0006000E arg=\"0x02007800040073006500\"}}\naux jeux de cartes douteux,{{delay frames=\"8\"}}\nheureu{{fun_0006000E arg=\"0x02007800040073006500\"}} en amour. »\n{{anim id=\"27\"}}Ou quelque chose comme ça{{delay frames=\"8\"}}.{{delay frames=\"8\"}}.{{delay frames=\"8\"}}.{{delay frames=\"8\"}}"
  },
  {
    "label": "027",
    "text": "{{anim id=\"1\"}}Très bien joué!{{delay frames=\"30\"}} Tu es très fort{{fun_0006000E arg=\"0x000002006500\"}} à\nce jeu de hasard!"
  },
  {
    "label": "028",
    "text": "{{anim id=\"35\"}}J'ose espérer que tu n'avais pas\nd'as dans ta manche{{delay frames=\"8\"}}.{{delay frames=\"8\"}}.{{delay frames=\"8\"}}.{{delay frames=\"8\"}}"
  }
]