﻿[
  {
    "label": "001",
    "text": "{{anim id=\"6\"}}Grrr!{{delay frames=\"30\"}} Si le candidat le plus grognon\nétait élu d'office,{{delay frames=\"8\"}} je serais maire\ndepuis belle lurette!"
  },
  {
    "label": "002",
    "text": "{{anim id=\"6\"}}D'ailleurs, quand je serai maire,\nje ferai du Centre de Surveillance\nResetti l'institution principale{{delay frames=\"8\"}}.{{delay frames=\"8\"}}.{{delay frames=\"8\"}}.{{pageBreak}}{{anim id=\"8\"}}Et les réinitialisateurs récidivistes\ndevront creuser 20 mètres de\ngaleries dans mon appartement!{{pageBreak}}{{anim id=\"33\"}}Mon slogan sera :{{delay frames=\"20\"}}\n« Quand Resetti sera élu,{{delay frames=\"8\"}}\nÇa ne rigolera plus! »"
  },
  {
    "label": "003",
    "text": "{{anim id=\"27\"}}Mais même les réformes les plus\nextrêm... hem, extraordinaires\nnécessitent le soutien des gens.\n{{delay frames=\"20\"}}Alors, pas le choix, il va falloir que\nje parte en campagne, armé de{{delay frames=\"8\"}}.{{delay frames=\"8\"}}.{{delay frames=\"8\"}}.\nmon plus beau sourire{{delay frames=\"8\"}}.{{delay frames=\"8\"}}.{{delay frames=\"8\"}}.\n{{anim id=\"6\"}}Et ne t'avise surtout pas de\nréinitialiser si tu penses que je\nm'apprête à te voler la victoire!"
  },
  {
    "label": "004",
    "text": "{{fun_00020007 arg=\"\"}}Au cours de ce tour, des {{color id=\"2\"}}parasites{{color id=\"65535\"}}\napparaissent sur la grille.{{fun_00030007 arg=\"\"}}{{delay frames=\"40\"}}{{pageBreak}}{{fun_00020007 arg=\"\"}}Élimine les blocs adjacents aux\n{{color id=\"2\"}}parasites{{color id=\"65535\"}} pour transformer ces\nderniers en blocs classiques.{{fun_00030007 arg=\"\"}}{{delay frames=\"40\"}}"
  },
  {
    "label": "006",
    "text": "Bien, {{delay frames=\"8\"}}{{anim id=\"23\"}}tu es prêt{{fun_0006000E arg=\"0x000002006500\"}} à assister au\ntriomphe de la justice?{{delay frames=\"20\"}}{{anim id=\"6\"}} Que le\nmeilleur gagne!"
  },
  {
    "label": "007",
    "text": "{{anim id=\"7\"}}Finissons-en une bonne fois pour\ntoutes! {{delay frames=\"20\"}}Le stress, {{delay frames=\"8\"}}ça me donne une\nirrésistible envie de creuser! {{anim id=\"6\"}}Grrr!"
  },
  {
    "label": "008",
    "text": ""
  },
  {
    "label": "009",
    "text": ""
  },
  {
    "label": "011",
    "text": "{{anim id=\"15\"}}Nom d'une petite pioche!{{delay frames=\"40\"}} J'ai\nperdu? {{delay frames=\"20\"}}Moi?{{delay frames=\"20\"}}{{anim id=\"7\"}} IMPOSSIBLE!!!{{delay frames=\"20\"}}\nJ'exige des explications!"
  },
  {
    "label": "012",
    "text": "{{anim id=\"39\"}}Si c'est ainsi{{delay frames=\"8\"}}.{{delay frames=\"8\"}}.{{delay frames=\"8\"}}.{{delay frames=\"20\"}} je vais aller me\nterrer{{delay frames=\"8\"}}.{{delay frames=\"8\"}}.{{delay frames=\"8\"}}.{{delay frames=\"8\"}} en espérant que la cause du\nCenSuRe te tienne aussi à cœur.\n{{anim id=\"6\"}}C'est bien le cas,{{delay frames=\"8\"}} n'est-ce pas?"
  },
  {
    "label": "013",
    "text": ""
  },
  {
    "label": "014",
    "text": ""
  },
  {
    "label": "016",
    "text": "{{anim id=\"2\"}}J'AI ÉTÉ ÉLU!{{delay frames=\"40\"}}{{anim id=\"6\"}} Mais tu t'y\nattendais,{{delay frames=\"8\"}} n'est-ce pas?"
  },
  {
    "label": "017",
    "text": "{{anim id=\"33\"}}Habitants de Puzzleville, le règne\nde Resetti commence! {{delay frames=\"40\"}}{{anim id=\"28\"}}HA HA HA!\nTout le monde devra filer doux!"
  },
  {
    "label": "018",
    "text": ""
  },
  {
    "label": "019",
    "text": ""
  }
]