﻿[
  {
    "label": "001",
    "text": "{{anim id=\"37\"}}Hé. {{delay frames=\"10\"}}Buongiorno, {{fun_00000005 arg=\"\"}}.{{pageBreak}}{{anim id=\"21\"}}Pas mal, hein? Je m'entraîne pour\nmes prochaines vacances. Les filles\nvont être dingues de moi avec ça.{{delay frames=\"20\"}}\nSi je pense aux vacances, c'est\nà cause de ce soleil qui ne se\ncouchera pas aujourd'hui.{{pageBreak}}En fait, à {{fun_00050005 arg=\"\"}}, les vacances\nc'est maintenant!"
  },
  {
    "label": "002",
    "text": "{{anim id=\"32\"}}{{fun_0003000E arg=\"\"}}{{fun_00060007 arg=\"\"}}Hé, 'jour, {{fun_00000005 arg=\"\"}}{{fun_00070007 arg=\"\"}}.{{pageBreak}}Je suis pas étonné de te voir dehors\naujourd'hui,{{delay frames=\"5\"}} avec ce soleil bonus\nauquel on a droit, {{fun_00070005 arg=\"\"}}."
  },
  {
    "label": "003",
    "text": "{{anim id=\"32\"}}Hé, {{fun_00000005 arg=\"\"}}.{{delay frames=\"10\"}}\nAujourd'hui, j'me sens comme une\ncellule photovoltaïque,{{delay frames=\"5\"}} pas toi?\n{{anim id=\"37\"}}Rassure-moi... Tu sais ce que c'est,\nune cellule photomachin?{{delay frames=\"10\"}} Bref, ce\nsoleil me régénère, {{fun_00070005 arg=\"\"}}!"
  },
  {
    "label": "004",
    "text": "{{anim id=\"1\"}}On fait une petite balade digestive,\n{{fun_00000005 arg=\"\"}}?{{delay frames=\"10\"}} T'as raison, le solstice\nd'été est parfait pour ça."
  },
  {
    "label": "005",
    "text": "{{anim id=\"37\"}}{{fun_0003000E arg=\"\"}}{{fun_00060007 arg=\"\"}}Hé, {{fun_00000005 arg=\"\"}}{{fun_00070007 arg=\"\"}}.{{pageBreak}}Aujourd'hui, c'est le solstice d'été,\nce qui signifie bronzette à gogo,{{delay frames=\"10\"}} t'es\npas d'accord avec moi?"
  },
  {
    "label": "006",
    "text": "{{anim id=\"37\"}}Hé, {{fun_00000005 arg=\"\"}}, bienvenue à\n{{fun_00050005 arg=\"\"}}, ville partenaire du\nsolstice d'été.{{delay frames=\"10\"}} C'est le pied, non?"
  },
  {
    "label": "007",
    "text": "'soir, {{fun_00000005 arg=\"\"}}.{{delay frames=\"32\"}}{{anim id=\"36\"}} Difficle de croire\nqu'il est déjà {{fun_00030004 arg=\"\"}} h {{fun_00040004 arg=\"\"}}, hein?\n{{anim id=\"0\"}}{{delay frames=\"8\"}}{{fun_0003000E arg=\"\"}}{{fun_00070005 arg=\"\"}}."
  },
  {
    "label": "008",
    "text": "{{anim id=\"37\"}}{{fun_0003000E arg=\"\"}}{{fun_00060007 arg=\"\"}}Hé, content de te voir{{fun_00070007 arg=\"\"}}.\n{{anim id=\"21\"}}Petit poème, ahem :\n« Ce fut une nuit où il fit jour. »\n{{anim id=\"37\"}}Pas mal, hein?{{delay frames=\"5\"}} Non, n'applaudis\npas, va, {{delay frames=\"8\"}}{{fun_00070005 arg=\"\"}}..."
  },
  {
    "label": "009",
    "text": "{{anim id=\"32\"}}Hé, {{fun_00000005 arg=\"\"}}, {{delay frames=\"5\"}}tu passes nous\nrendre visite au bon moment. C'est\nplutôt bien vu, j'avoue...{{anim id=\"23\"}} Pourquoi?\n{{anim id=\"1\"}}Parce que c'est au solstice d'été\nque la vie nocturne à {{fun_00050005 arg=\"\"}}\nprend tout son sens, {{fun_00070005 arg=\"\"}}."
  },
  {
    "label": "010",
    "text": "{{anim id=\"11\"}}Hmm, {{fun_00030004 arg=\"\"}} h {{fun_00040004 arg=\"\"}}... {{delay frames=\"20\"}}Du soleil jusqu'au\nbout de la nuit... Cool!{{delay frames=\"20\"}} Si seulement\nil pouvait ne plus jamais se coucher.\n{{anim id=\"37\"}}Ouah, le rêve,{{delay frames=\"8\"}} {{fun_00070005 arg=\"\"}}!"
  },
  {
    "label": "011",
    "text": "{{anim id=\"37\"}}Bienvenue dans notre ville, {{delay frames=\"10\"}}le coin le\nplus cool et le plus ensoleillé du\nmonde aujourd'hui, {{delay frames=\"8\"}}{{fun_00070005 arg=\"\"}}.\n{{anim id=\"11\"}}Bon, peut-être que c'est la même\nchose là où tu vis.{{delay frames=\"40\"}}{{anim id=\"1\"}} Mais quand\nmême, c'est pas pareil. Hé hé."
  }
]