﻿[
  {
    "label": "001",
    "text": "{{anim id=\"17\"}}{{fun_000A0007 arg=\"\"}}Au secours!{{delay frames=\"16\"}} Un ogre!"
  },
  {
    "label": "002",
    "text": "{{anim id=\"17\"}}{{fun_000A0007 arg=\"\"}}Malheur!{{delay frames=\"16\"}} Il y a un ogre parmi nous!"
  },
  {
    "label": "003",
    "text": "{{anim id=\"38\"}}Je t'attendais, {{delay frames=\"15\"}}petit ogre!"
  },
  {
    "label": "004",
    "text": "{{anim id=\"5\"}}Ogre, vil ogre, rentre chez toi!{{delay frames=\"20\"}}\nEt qu'à la peur succède la joie!{{delay frames=\"32\"}}\nHa ha!"
  },
  {
    "label": "005",
    "text": "{{anim id=\"37\"}}J'ai toujours rêvé de faire ça{{delay frames=\"8\"}}.{{delay frames=\"8\"}}.{{delay frames=\"8\"}}.{{pageBreak}}{{anim id=\"36\"}}Même si, pour être franc,{{delay frames=\"16\"}} je\npréfèrerais jouer le rôle de l'ogre,\naussi bizarre que ça puisse paraître."
  },
  {
    "label": "006",
    "text": "{{anim id=\"9\"}}Désolé, {{delay frames=\"8\"}}{{fun_00070005 arg=\"\"}}.{{delay frames=\"32\"}} Ça fait mal?{{pageBreak}}Je me sens coupable maintenant,{{delay frames=\"16\"}}\nj'aurais préféré prendre ta place{{delay frames=\"8\"}}.{{delay frames=\"8\"}}.{{delay frames=\"8\"}}.{{delay frames=\"8\"}}"
  },
  {
    "label": "007",
    "text": "{{anim id=\"37\"}}C'est sympa d'avoir joué les\nsouffre-douleur,{{delay frames=\"8\"}} {{fun_00070005 arg=\"\"}}!{{pageBreak}}{{anim id=\"36\"}}Ben ouais, pour pouvoir jeter des\nharicots, il nous faut un ogre, non?"
  },
  {
    "label": "008",
    "text": "{{anim id=\"17\"}}{{fun_000A0007 arg=\"\"}}Ah! {{delay frames=\"16\"}}Un ogre!{{delay frames=\"32\"}} Hein{{delay frames=\"8\"}}.{{delay frames=\"8\"}}.{{delay frames=\"8\"}}.{{delay frames=\"8\"}}?{{delay frames=\"8\"}} Minute!{{delay frames=\"32\"}}\n{{anim id=\"23\"}}Comment ça se fait que tu te\ntrimballes aussi des haricots?!\n{{anim id=\"36\"}}Faut qu'on se mette d'accord :\n{{delay frames=\"8\"}}c'est toi qui jettes les haricots ou\nc'est moi, {{fun_00070005 arg=\"\"}}?"
  },
  {
    "label": "009",
    "text": "{{anim id=\"17\"}}{{fun_000A0007 arg=\"\"}}Oh!{{delay frames=\"16\"}} Un ogre!{{delay frames=\"32\"}} {{anim id=\"9\"}}Hein{{delay frames=\"8\"}}.{{delay frames=\"8\"}}.{{delay frames=\"8\"}}.{{delay frames=\"8\"}}? {{delay frames=\"8\"}}Un ogre\nqui se balade avec un panier de\nharicots?\n{{anim id=\"36\"}}Faut savoir ce que tu veux!{{delay frames=\"32\"}} Soit tu\nbalances des haricots, {{delay frames=\"15\"}}soit c'est les\ngens qui te les balancent dessus!"
  },
  {
    "label": "010",
    "text": "{{anim id=\"38\"}}Je t'attendais, {{delay frames=\"15\"}}petit ogre!{{delay frames=\"32\"}} Hein{{delay frames=\"8\"}}.{{delay frames=\"8\"}}.{{delay frames=\"8\"}}.{{delay frames=\"8\"}}?{{delay frames=\"8\"}}\n{{anim id=\"23\"}}C'est normal que t'aies aussi des\nharicots?\n{{anim id=\"9\"}}Encore un{{fun_0006000E arg=\"0x000002006500\"}} qui sait pas ce qu'{{fun_0006000E arg=\"0x040069006C00080065006C006C006500\"}}\nveut{{delay frames=\"8\"}}.{{delay frames=\"8\"}}.{{delay frames=\"8\"}}.{{pageBreak}}Dis, soit tu jettes des haricots, soit\nt'attends qu'on te les jette dessus,\nmais les deux en même temps, {{delay frames=\"8\"}}non!"
  },
  {
    "label": "011",
    "text": "{{anim id=\"13\"}}Aaaah!{{delay frames=\"16\"}} J'ai une envie irrépressible\nde balancer des haricots sur tout ce\nqui bouge,{{delay frames=\"8\"}} {{fun_00070005 arg=\"\"}}!\n{{anim id=\"9\"}}L'idéal serait que je trouve{{delay frames=\"8\"}}.{{delay frames=\"8\"}}.{{delay frames=\"8\"}}.{{delay frames=\"32\"}} {{anim id=\"28\"}}un de\nces ogres ridicules!"
  },
  {
    "label": "012",
    "text": "{{anim id=\"9\"}}{{delay frames=\"16\"}}J'ai envie de jeter des haricots sur\nquelqu'un{{delay frames=\"8\"}}.{{delay frames=\"8\"}}.{{delay frames=\"8\"}}.{{pageBreak}}N'y a-t-il pas une âme charitable\nqui accepterait{{delay frames=\"8\"}}.{{delay frames=\"8\"}}.{{delay frames=\"8\"}}.{{delay frames=\"32\"}} {{anim id=\"35\"}}que je lui lance des\nharicots?"
  },
  {
    "label": "013",
    "text": "{{anim id=\"6\"}}Un jour du haricot sans personne\nsur qui jeter des haricots,{{delay frames=\"8\"}} je vois\npas l'intérêt!\n{{anim id=\"13\"}}{{delay frames=\"16\"}}S'il vous plaît, si quelqu'un\nm'entend...! {{delay frames=\"15\"}}J'ai trop envie de\nbalancer des haricots{{delay frames=\"8\"}}.{{delay frames=\"8\"}}.{{delay frames=\"8\"}}.{{delay frames=\"8\"}}"
  },
  {
    "label": "014",
    "text": "{{anim id=\"15\"}}Oh,{{delay frames=\"8\"}} {{fun_00080005 arg=\"\"}}!{{delay frames=\"32\"}} Qu'est-ce que t'as\nl'intention de faire avec ces\nharicots, exactement?\n{{anim id=\"37\"}}Si c'est pour les jeter, te trompe\npas de cible, hein? {{delay frames=\"15\"}}Trouve-toi un\nogre et laisse-moi tranquille!"
  },
  {
    "label": "015",
    "text": "{{anim id=\"15\"}}Oh{{delay frames=\"8\"}}.{{delay frames=\"8\"}}.{{delay frames=\"8\"}}.{{delay frames=\"32\"}} {{anim id=\"0\"}}T'as des haricots?{{pageBreak}}{{anim id=\"11\"}}{{delay frames=\"16\"}}À vrai dire, il ne nous manque plus\nqu'un ogre pour que cette ville\ns'anime comme il faut{{delay frames=\"8\"}}.{{delay frames=\"8\"}}.{{delay frames=\"8\"}}."
  },
  {
    "label": "016",
    "text": "{{anim id=\"15\"}}Oh waouh, {{delay frames=\"8\"}}t'as des haricots!{{delay frames=\"32\"}}\n.{{delay frames=\"8\"}}.{{delay frames=\"8\"}}.{{delay frames=\"8\"}}{{anim id=\"36\"}} Hé,{{delay frames=\"16\"}} t'avises pas de me les\nbalancer dessus, hein?\n{{anim id=\"5\"}}Faut les jeter sur un ogre en criant\n« Ogre, vil ogre, rentre chez toi! »,{{delay frames=\"8\"}}\n{{fun_00070005 arg=\"\"}}!"
  },
  {
    "label": "017",
    "text": "{{anim id=\"23\"}}Tu participes à notre{{delay frames=\"32\"}} {{anim id=\"35\"}}bataille de\nharicots, {{fun_00080005 arg=\"\"}}?"
  },
  {
    "label": "018",
    "text": "{{anim id=\"36\"}}Hé hé.{{delay frames=\"16\"}} T'as l'air un peu perdu{{fun_0006000E arg=\"0x000002006500\"}},\n{{fun_00080005 arg=\"\"}}, j'ai pas raison?{{pageBreak}}{{anim id=\"9\"}}Les haricots, c'est une chose,{{delay frames=\"15\"}} mais\nfaut encore attendre qu'un ogre se\npointe pour nous servir de cible!"
  },
  {
    "label": "019",
    "text": "{{anim id=\"37\"}}Quelle coïncidence, {{delay frames=\"8\"}}{{fun_00080005 arg=\"\"}}!{{delay frames=\"32\"}} On\na des haricots tous les deux,{{delay frames=\"32\"}} à ce\nqu'il semble!\n{{anim id=\"36\"}}Ouais, {{delay frames=\"8\"}}qu'un vilain ogre se pointe et\nil en prendra pour son grade{{delay frames=\"8\"}}.{{delay frames=\"8\"}}.{{delay frames=\"8\"}}."
  },
  {
    "label": "020",
    "text": "{{anim id=\"9\"}}Tu tiens le coup?{{delay frames=\"30\"}} Tous ces haricots\nque t'as reçus t'ont pas trop\ncabossé la caboche?\n{{anim id=\"6\"}}T'en fais pas!{{delay frames=\"30\"}} {{anim id=\"35\"}}Chuis de ton côté."
  },
  {
    "label": "021",
    "text": "{{anim id=\"21\"}}On m'a pas menti,{{delay frames=\"15\"}} t'as vraiment une\nvilaine tête, comme ça!{{delay frames=\"8\"}}\n{{fun_0003000E arg=\"\"}}{{fun_00070005 arg=\"\"}}!"
  },
  {
    "label": "022",
    "text": "{{anim id=\"9\"}}Mais{{delay frames=\"8\"}}.{{delay frames=\"8\"}}.{{delay frames=\"8\"}}.{{delay frames=\"8\"}} en fait{{anim id=\"35\"}} c'est toi, {{fun_00080005 arg=\"\"}},\nnon?{{pageBreak}}{{anim id=\"27\"}}OK, t'as l'apparence d'un ogre,{{delay frames=\"20\"}} mais\nça me ferait trop de peine de te\njeter des haricots.\n{{anim id=\"28\"}}{{color id=\"5\"}}(C'est surtout que j'ai pas envie de\ntout nettoyer après, hé hé...){{color id=\"65535\"}}"
  }
]