﻿[
  {
    "label": "001",
    "text": "{{anim id=\"37\"}}Tu sais quoi, {{fun_00080005 arg=\"\"}},{{delay frames=\"16\"}} je suis né\nle{{delay frames=\"16\"}} {{fun_000F0004 arg=\"0x00CD\"}} {{fun_000E0004 arg=\"0x00CD\"}},{{delay frames=\"8\"}} {{fun_00070005 arg=\"\"}}. {{delay frames=\"15\"}}{{anim id=\"27\"}}Oh,{{delay frames=\"8\"}}\nme remercie pas, va, {{delay frames=\"8\"}}c'est naturel.\n{{anim id=\"36\"}}Ben oui, {{delay frames=\"15\"}}c'est important pour un\nadmirateur de connaître la date de\nnaissance de son idole, pas vrai?"
  },
  {
    "label": "002",
    "text": "Tiens,{{delay frames=\"16\"}} il me semble que tu es\n{{fun_000B0005 arg=\"\"}}, pas vrai?{{pageBreak}}{{anim id=\"37\"}}Comme je suis né le {{delay frames=\"16\"}}{{fun_000F0004 arg=\"0x00CD\"}} {{fun_000E0004 arg=\"0x00CD\"}},\nje suis {{fun_000C0005 arg=\"\"}}!{{pageBreak}}{{anim id=\"11\"}}Je crois savoir que la compatibilité\nentre nos deux signes est de{{delay frames=\"8\"}}.{{delay frames=\"8\"}}.{{delay frames=\"8\"}}.{{pageBreak}}{{anim id=\"27\"}}Oh puis non,{{delay frames=\"15\"}} oublie ça!{{delay frames=\"15\"}} Inutile\nd'interroger les étoiles pour\ncomprendre notre relation.\n{{anim id=\"33\"}}Chuis ton idole {{delay frames=\"8\"}}et tu m'aimes,{{delay frames=\"15\"}} point.{{delay frames=\"30\"}}\n{{anim id=\"36\"}}J'ai pas raison, {{fun_00080005 arg=\"\"}}?"
  },
  {
    "label": "003",
    "text": ""
  },
  {
    "label": "004",
    "text": "{{anim id=\"6\"}}Tu sais quoi, {{fun_00080005 arg=\"\"}}? {{delay frames=\"16\"}}Mon\nexpression favorite est{{delay frames=\"8\"}}.{{delay frames=\"8\"}}.{{delay frames=\"8\"}}."
  },
  {
    "label": "005",
    "text": "{{anim id=\"37\"}}Ouais, note-la bien si tu veux\ndevenir aussi cool que moi.{{pageBreak}}Avec cette expression, c'est la\nclassitude assurée,{{delay frames=\"8\"}} {{fun_00070005 arg=\"\"}},\ncrois-moi!"
  },
  {
    "label": "006",
    "text": "{{anim id=\"6\"}}J'ai un scoop pour toi, {{fun_00080005 arg=\"\"}} :{{delay frames=\"15\"}}\nle secret de ma réussite, ni plus ni\nmoins! Prêt{{fun_0006000E arg=\"0x000002006500\"}}{{delay frames=\"8\"}}.{{delay frames=\"8\"}}.{{delay frames=\"8\"}}.{{delay frames=\"8\"}}?"
  },
  {
    "label": "007",
    "text": "{{anim id=\"37\"}}Eh ouais! C'est mon expression\nfavorite, figure-toi!{{pageBreak}}{{anim id=\"33\"}}C'est elle qui m'a ouvert les portes\ndes plus grands plateaux de télé,\n{{fun_00070005 arg=\"\"}}!"
  },
  {
    "label": "008",
    "text": ""
  },
  {
    "label": "009",
    "text": ""
  },
  {
    "label": "010",
    "text": "{{anim id=\"1\"}}Comme tu le sais, {{fun_00080005 arg=\"\"}},{{delay frames=\"16\"}}\nmon truc à moi, c'est\n{{fun_000A000E arg=\"0x0600640065002000040064002700\"}}{{fun_00180012 arg=\"0x00CD\"}}.\n{{anim id=\"21\"}}Ça représente à peu près 99,99 %\nde ma vie, {{delay frames=\"30\"}}sans exagérer!"
  },
  {
    "label": "011",
    "text": "{{anim id=\"27\"}}J'avoue,{{delay frames=\"8\"}} {{fun_00080005 arg=\"\"}}{{delay frames=\"8\"}}.{{delay frames=\"8\"}}.{{delay frames=\"8\"}}.{{delay frames=\"32\"}} Pour ce qui\nest {{fun_000A000E arg=\"0x0600640065002000040064002700\"}}{{fun_00180012 arg=\"0x00CD\"}},\nje suis un dieu vivant{{delay frames=\"8\"}}.{{delay frames=\"8\"}}.{{delay frames=\"8\"}}.\n{{anim id=\"35\"}}C'est un peu ma raison d'être! {{anim id=\"15\"}}Oh,{{delay frames=\"8\"}}\npardon!{{delay frames=\"32\"}} {{anim id=\"9\"}}Je parle tout le temps de\nmoi, hein! Parlons un peu de toi{{delay frames=\"8\"}}.{{delay frames=\"8\"}}.{{delay frames=\"8\"}}.\n{{anim id=\"36\"}}Euh...{{delay frames=\"30\"}} Tu as bien compris\n{{fun_000A000E arg=\"0x080071007500650020000600710075002700\"}}{{fun_00180012 arg=\"0x00CD\"}} était\nma passion? {{delay frames=\"15\"}}Hé hé, {{delay frames=\"8\"}}{{fun_00070005 arg=\"\"}}."
  },
  {
    "label": "012",
    "text": ""
  },
  {
    "label": "013",
    "text": "{{anim id=\"27\"}}On dit toujours que j'ai l'air d'être{{delay frames=\"16\"}}\n{{fun_0001000E arg=\"\"}}{{fun_00160012 arg=\"0x00CD\"}},{{delay frames=\"16\"}}\n{{delay frames=\"8\"}}{{fun_00070005 arg=\"\"}}.\n{{anim id=\"36\"}}Les gens se font toujours plein de\nfilms à mon sujet, {{fun_00080005 arg=\"\"}}, {{delay frames=\"8\"}}mais\nsur ce coup-là, {{delay frames=\"15\"}}ils ont raison!"
  },
  {
    "label": "014",
    "text": "{{anim id=\"21\"}}Pour tout dire, {{fun_00080005 arg=\"\"}},{{delay frames=\"8\"}} je suis{{delay frames=\"8\"}}.{{delay frames=\"8\"}}.{{delay frames=\"8\"}}.{{delay frames=\"32\"}}\n{{fun_0001000E arg=\"\"}}{{fun_00160012 arg=\"0x00CD\"}}!{{pageBreak}}{{anim id=\"27\"}}Eh oui, c'est mon côté humain, tu\nvois. Je ne suis pas (encore)\ncomplètement divin{{delay frames=\"8\"}}.{{delay frames=\"8\"}}.{{delay frames=\"8\"}}."
  },
  {
    "label": "015",
    "text": ""
  },
  {
    "label": "016",
    "text": "{{anim id=\"23\"}}Mon rêve à moi?{{delay frames=\"32\"}} {{anim id=\"0\"}}C'est de notoriété\npublique, voyons{{delay frames=\"8\"}}.{{delay frames=\"8\"}}.{{delay frames=\"8\"}}.{{pageBreak}}{{anim id=\"21\"}}Devenir {{fun_00170012 arg=\"0x00CD\"}}, tout\nbêtement. {{fun_0003000E arg=\"\"}}{{fun_00170012 arg=\"0x00CD\"}},\noui.{{delay frames=\"8\"}} {{fun_0003000E arg=\"\"}}{{fun_00070005 arg=\"\"}}."
  },
  {
    "label": "017",
    "text": "{{anim id=\"22\"}}J'ai trouvé, {{fun_00080005 arg=\"\"}}! {{delay frames=\"15\"}}Mon rêve\nde vedette rien qu'à moi!{{pageBreak}}Je vais te le dire, accroche-toi{{delay frames=\"8\"}}.{{delay frames=\"8\"}}.{{delay frames=\"8\"}}.{{delay frames=\"32\"}}\n{{anim id=\"35\"}}Devenir {{fun_00170012 arg=\"0x00CD\"}}!{{pageBreak}}{{anim id=\"21\"}}Bien sûr,{{delay frames=\"8\"}} il s'agit plus d'un projet\nque d'un rêve proprement dit. {{delay frames=\"15\"}}Suffit\nque je trouve le temps, c'est tout."
  }
]