﻿[
  {
    "label": "001",
    "text": "{{anim id=\"15\"}}Oh, {{delay frames=\"16\"}}comment t'as fait pour me\ntrouver, dis donc!{{delay frames=\"8\"}} {{fun_0003000E arg=\"\"}}{{fun_00070005 arg=\"\"}}!{{pageBreak}}{{anim id=\"36\"}}Enfin, manque de bol, c'est trop\ntard,{{delay frames=\"16\"}} donc tu perds la partie,\n{{fun_00080005 arg=\"\"}}!"
  },
  {
    "label": "002",
    "text": "{{anim id=\"15\"}}Waouh! T'as réussi à me débusquer\ndans une cachette aussi bien\npensée! {{delay frames=\"8\"}}C'est fort!\n{{anim id=\"35\"}}Mais comme c'est dommage, le\ntemps est écoulé!{{pageBreak}}{{anim id=\"3\"}}En conséquence : tu perds la partie,\net moi, je deviens la vedette la plus\nintrouvable de tous les temps!"
  },
  {
    "label": "003",
    "text": "{{anim id=\"38\"}}Ha ha, tu m'as trouvé!{{delay frames=\"16\"}} Fallait le\nfaire, {{delay frames=\"8\"}}{{fun_00080005 arg=\"\"}}!{{pageBreak}}{{anim id=\"37\"}}Mais{{delay frames=\"8\"}}.{{delay frames=\"8\"}}.{{delay frames=\"8\"}}.{{delay frames=\"32\"}} te réjouis pas trop vite!{{pageBreak}}{{anim id=\"35\"}}Le temps est écoulé, {{delay frames=\"8\"}}{{fun_00070005 arg=\"\"}}!\nDu coup, l'équipe {{fun_00010005 arg=\"\"}}\nl'emporte! {{delay frames=\"8\"}}{{anim id=\"44\"}}Yes!"
  }
]