﻿[
  {
    "label": "001",
    "text": "{{anim id=\"16\"}}{{fun_0003000E arg=\"\"}}{{fun_0001000E arg=\"\"}}{{fun_00030011 arg=\"0x0000\"}}!{{delay frames=\"32\"}}\nHo ho, {{delay frames=\"12\"}}{{anim id=\"37\"}}très bon choix, {{fun_00080005 arg=\"\"}}!{{pageBreak}}{{anim id=\"11\"}}C'est une de mes pièces favorites,\npour être franc{{delay frames=\"8\"}}.{{delay frames=\"8\"}}.{{delay frames=\"8\"}}.{{pageBreak}}{{anim id=\"37\"}}Mais je pense que pour {{color id=\"2\"}}{{fun_000A0004 arg=\"0x0000\"}}\nclochettes {{color id=\"65535\"}}je peux accepter de m'en\nséparer.{{fun_0008000D arg=\"0x02CD\"}}{{fun_0005000F arg=\"0x15002800\"}}\nIl me faut ce truc!\nJ'en veux pas."
  },
  {
    "label": "002",
    "text": "{{anim id=\"23\"}}C'est {{fun_0002000E arg=\"\"}}{{fun_00030011 arg=\"0x0000\"}}\nd'une facture remarquable, n'est-ce\npas?\n{{anim id=\"21\"}}C'est un peu la pièce maîtresse de\nla collection {{fun_00010005 arg=\"\"}}{{delay frames=\"4\"}}.{{delay frames=\"4\"}}.{{delay frames=\"4\"}}.{{pageBreak}}{{anim id=\"39\"}}Mais j'accepte de te la vendre pour\n{{color id=\"2\"}}{{fun_000A0004 arg=\"0x0000\"}} clochettes{{color id=\"65535\"}}. {{delay frames=\"8\"}}Intéressé{{fun_0006000E arg=\"0x000002006500\"}}?{{fun_0008000D arg=\"0x02CD\"}}{{fun_0005000F arg=\"0x15002800\"}}\nEmballé{{fun_0006000E arg=\"0x000002006500\"}}, même!\nPas trop, non."
  },
  {
    "label": "003",
    "text": "{{anim id=\"11\"}}{{delay frames=\"16\"}}Ah, tu as été séduit{{fun_0006000E arg=\"0x000002006500\"}} par\n{{fun_0001000E arg=\"\"}}{{fun_00030011 arg=\"0x0000\"}}, hein?{{pageBreak}}{{anim id=\"21\"}}Normal, c'est une véritable œuvre\nd'art.{{pageBreak}}{{anim id=\"37\"}}Pourtant, je pense que je peux t'en\nproposer un prix raisonnable,\n{{fun_00080005 arg=\"\"}}.\n{{anim id=\"0\"}}Voyons{{delay frames=\"8\"}}.{{delay frames=\"8\"}}.{{delay frames=\"8\"}}.{{delay frames=\"32\"}} {{anim id=\"23\"}}Que dirais-tu de {{color id=\"2\"}}{{fun_000A0004 arg=\"0x0000\"}}\nclochettes{{color id=\"65535\"}}? {{delay frames=\"8\"}}Alléchant, non?\n{{delay frames=\"8\"}}{{fun_0003000E arg=\"\"}}{{fun_00070005 arg=\"\"}}?{{fun_0008000D arg=\"0x02CD\"}}{{fun_0005000F arg=\"0x15002800\"}}\nJ'achète!\nBof, non."
  },
  {
    "label": "004",
    "text": "{{anim id=\"15\"}}{{fun_0003000E arg=\"\"}}{{fun_0001000E arg=\"\"}}{{fun_00030011 arg=\"0x0000\"}}?{{pageBreak}}{{anim id=\"27\"}}Oh, moi je veux bien te {{fun_0008000E arg=\"0x00CD04006C00650004006C0061000000\"}} vendre,\nmais{{delay frames=\"8\"}}.{{delay frames=\"8\"}}.{{delay frames=\"8\"}}. {{anim id=\"36\"}}va falloir faire un peu de\nplace dans ton inventaire."
  },
  {
    "label": "005",
    "text": "{{anim id=\"6\"}}Je vois, t'as du mal à te décider{{delay frames=\"8\"}}.{{delay frames=\"8\"}}.{{delay frames=\"8\"}}."
  },
  {
    "label": "006",
    "text": "{{anim id=\"15\"}}Oh{{delay frames=\"8\"}}.{{delay frames=\"8\"}}.{{delay frames=\"8\"}}.{{delay frames=\"8\"}}?{{delay frames=\"32\"}} {{anim id=\"6\"}}Mais t'as pas assez de\nclochettes sur toi!{{pageBreak}}{{anim id=\"9\"}}Navré, {{fun_00080005 arg=\"\"}}, {{delay frames=\"15\"}}on en reparlera\nquand tu pourras te permettre ce\ngenre de folies!"
  },
  {
    "label": "007",
    "text": "{{anim id=\"18\"}}{{fun_0003000E arg=\"\"}}{{fun_0001000E arg=\"\"}}{{fun_00030011 arg=\"0x0000\"}}?!{{pageBreak}}{{anim id=\"40\"}}{{delay frames=\"4\"}}.{{delay frames=\"4\"}}.{{delay frames=\"4\"}}.{{delay frames=\"4\"}} Désolé,{{delay frames=\"16\"}} je m'en séparerais pas\npour tout l'or du monde!{{pageBreak}}{{anim id=\"38\"}}Monsieur Bestiole et moi, c'est une\nlongue histoire..."
  },
  {
    "label": "008",
    "text": "{{anim id=\"18\"}}{{fun_0003000E arg=\"\"}}{{fun_0001000E arg=\"\"}}{{fun_00030011 arg=\"0x0000\"}}?!{{delay frames=\"32\"}}{{pageBreak}}{{anim id=\"40\"}}{{delay frames=\"8\"}}.{{delay frames=\"8\"}}.{{delay frames=\"8\"}}.{{delay frames=\"8\"}} Non, tout sauf ça, {{fun_00080005 arg=\"\"}}!{{delay frames=\"16\"}}\nPeu importe combien t'es prêt{{fun_0006000E arg=\"0x000002006500\"}} à\nme donner{{delay frames=\"8\"}}.{{delay frames=\"8\"}}.{{delay frames=\"8\"}}.{{delay frames=\"8\"}}\n{{anim id=\"35\"}}Monsieur Gloup est moi, c'est\nspécial, tu comprends?"
  },
  {
    "label": "009",
    "text": "{{anim id=\"9\"}}Euh{{delay frames=\"4\"}}.{{delay frames=\"4\"}}.{{delay frames=\"4\"}}.{{delay frames=\"4\"}} C'est pas à vendre, navré.{{delay frames=\"32\"}}\nMais n'hésite pas à choisir autre\nchose, {{delay frames=\"8\"}}{{fun_00070005 arg=\"\"}}!"
  },
  {
    "label": "010",
    "text": "{{anim id=\"9\"}}Je peux pas te vendre ça, désolé.{{pageBreak}}{{anim id=\"37\"}}On peut sûrement s'entendre sur un\nautre objet, mais pas sur celui-ci,\n{{delay frames=\"8\"}}{{fun_00070005 arg=\"\"}}."
  },
  {
    "label": "011",
    "text": "{{anim id=\"9\"}}Ah{{delay frames=\"4\"}}.{{delay frames=\"4\"}}.{{delay frames=\"4\"}}.{{delay frames=\"4\"}} Non, pas ça.{{delay frames=\"32\"}}{{anim id=\"27\"}} C'est un cadeau\nauquel je tiens beaucoup! {{delay frames=\"15\"}}{{anim id=\"21\"}}Essaie\navec autre chose, {{delay frames=\"8\"}}{{fun_00070005 arg=\"\"}}."
  },
  {
    "label": "012",
    "text": "{{anim id=\"9\"}}Navré{{delay frames=\"8\"}}.{{delay frames=\"8\"}}.{{delay frames=\"8\"}}.{{delay frames=\"8\"}} Je peux pas te vendre ça.{{delay frames=\"32\"}}{{anim id=\"37\"}}\nMais le choix est vaste, alors\nfais-toi plaisir!"
  }
]