﻿[
  {
    "label": "001",
    "text": ""
  },
  {
    "label": "002",
    "text": "{{fun_00020009 arg=\"0x0500060007000800\"}}"
  },
  {
    "label": "003",
    "text": "{{fun_00000009 arg=\"0x09000A00\"}}"
  },
  {
    "label": "004",
    "text": ""
  },
  {
    "label": "005",
    "text": "{{anim id=\"37\"}}Je sais pas pourquoi,{{delay frames=\"16\"}} mais cet\nendroit m'attire comme un aimant.{{pageBreak}}{{anim id=\"39\"}}C'est sans doute l'envie de prendre\nun bain de foule qui me taraude{{delay frames=\"8\"}}.{{delay frames=\"8\"}}.{{delay frames=\"8\"}}."
  },
  {
    "label": "006",
    "text": "Tant de magasins concentrés en un\nseul endroit...{{delay frames=\"30\"}} {{anim id=\"5\"}}Avec tout ça, le\nshopping se transforme en fête!"
  },
  {
    "label": "007",
    "text": "{{anim id=\"37\"}}Quand je viens ici, je suis souvent\nassailli par des fans en délire,{{delay frames=\"8\"}}\n{{fun_00070005 arg=\"\"}}.{{pageBreak}}{{anim id=\"0\"}}Comme toi, par exemple{{delay frames=\"8\"}}.{{delay frames=\"8\"}}.{{delay frames=\"8\"}}.{{delay frames=\"32\"}} {{anim id=\"36\"}}Hé hé."
  },
  {
    "label": "008",
    "text": "{{anim id=\"36\"}}C'est définitivement le lieu où il faut\nêtre si tu veux te faire remarquer à\n{{fun_00050005 arg=\"\"}},{{delay frames=\"8\"}} t'es pas d'accord?"
  },
  {
    "label": "009",
    "text": "{{i10_7 arg=\"0x0D000B000B000B000B000E00\"}}"
  },
  {
    "label": "010",
    "text": "{{i10_7 arg=\"0x0D000C000C000C000C000F00\"}}"
  },
  {
    "label": "011",
    "text": "{{anim id=\"36\"}}Dis, {{fun_00080005 arg=\"\"}},{{delay frames=\"16\"}} j'aimerais bien\nsavoir ce que t'es venu{{fun_0006000E arg=\"0x000002006500\"}} acheter à\n{{fun_00050005 arg=\"\"}}..."
  },
  {
    "label": "012",
    "text": "{{anim id=\"37\"}}T'as déjà acheté un petit souvenir,{{delay frames=\"16\"}}\n{{fun_00080005 arg=\"\"}}?"
  },
  {
    "label": "013",
    "text": "{{anim id=\"37\"}}Je me suis levé de bonne heure ce\nmatin, {{delay frames=\"8\"}}{{fun_00070005 arg=\"\"}}...{{pageBreak}}{{anim id=\"27\"}}Et pouf, à peine sorti du lit, je me\nsuis retrouvé ici, en train de faire\nles boutiques.\n{{anim id=\"35\"}}C'est grave, docteur?"
  },
  {
    "label": "014",
    "text": "{{anim id=\"9\"}}Je réussissais pas à m'endormir{{delay frames=\"8\"}}.{{delay frames=\"8\"}}.{{delay frames=\"8\"}}.{{pageBreak}}{{anim id=\"37\"}}J'ai fini par atterrir ici, dans la rue\ncommerçante, sans trop savoir\ncomment.{{delay frames=\"8\"}} {{fun_0003000E arg=\"\"}}{{fun_00070005 arg=\"\"}}."
  },
  {
    "label": "015",
    "text": "{{anim id=\"36\"}}Toi non plus, t'arrivais pas à dormir,\n{{fun_00080005 arg=\"\"}}?"
  }
]