﻿[
  {
    "label": "001",
    "text": "{{fun_0006000E arg=\"0x080043006800650072000A0043006800E80072006500\"}} \n,"
  },
  {
    "label": "002",
    "text": "{{fun_0006000E arg=\"0x220041007500200072006F00690020006400650020006C00610020006D006F00640065002A00C00020006C00610020007200650069006E00650020006400650020006C00610020006D006F0064006500\"}},"
  },
  {
    "label": "003",
    "text": "{{fun_0006000E arg=\"0x220041007500200072006F00690020006400650020006C00610020006D006F00640065002A00C00020006C00610020007200650069006E00650020006400650020006C00610020006D006F0064006500\"}},"
  },
  {
    "label": "004",
    "text": "Écoute ça, \n!"
  },
  {
    "label": "005",
    "text": "{{fun_0006000E arg=\"0x080043006800650072000A0043006800E80072006500\"}} fan,"
  },
  {
    "label": "006",
    "text": "{{fun_0006000E arg=\"0x080043006800650072000A0043006800E80072006500\"}} fan numéro 1,"
  },
  {
    "label": "007",
    "text": "{{fun_0006000E arg=\"0x080043006800650072000A0043006800E80072006500\"}} fan,"
  },
  {
    "label": "008",
    "text": "{{fun_0006000E arg=\"0x080043006800650072000A0043006800E80072006500\"}} \n,"
  },
  {
    "label": "009",
    "text": "Insaisissable fan,"
  },
  {
    "label": "010",
    "text": "{{fun_0006000E arg=\"0x080043006800650072000A0043006800E80072006500\"}} fan numéro 1,"
  }
]