﻿[
  {
    "label": "001",
    "text": "Hé, \n!"
  },
  {
    "label": "002",
    "text": "Ça roule, \n?"
  },
  {
    "label": "003",
    "text": "{{fun_0006000E arg=\"0x080043006800650072000A0043006800E80072006500\"}} \n,"
  },
  {
    "label": "004",
    "text": "{{fun_0006000E arg=\"0x12004D006F006E0020007000650074006900740012004D0061002000700065007400690074006500\"}} \n,"
  },
  {
    "label": "005",
    "text": "(Trop) {{fun_0006000E arg=\"0x0C00670065006E00740069006C001000670065006E00740069006C006C006500\"}} \n,"
  },
  {
    "label": "006",
    "text": "Comment va, \n?"
  },
  {
    "label": "007",
    "text": "Salut \n!"
  },
  {
    "label": "008",
    "text": "Hep \n!"
  },
  {
    "label": "009",
    "text": "Yop, \n!"
  }
]