﻿[
  {
    "label": "001",
    "text": "Pour : \n"
  },
  {
    "label": "002",
    "text": "{{fun_0006000E arg=\"0x080043006800650072000A0043006800E80072006500\"}} \n,"
  },
  {
    "label": "003",
    "text": "À {{fun_0006000E arg=\"0x14006D006F006E00200063006F007000610069006E0012006D006100200063006F00700069006E006500\"}} \n,"
  },
  {
    "label": "004",
    "text": "Coucou \n,"
  },
  {
    "label": "005",
    "text": "{{fun_0006000E arg=\"0x080043006800650072000A0043006800E80072006500\"}} \n,"
  },
  {
    "label": "006",
    "text": "Pour {{fun_0006000E arg=\"0x14006D006F006E00200063006F007000610069006E0012006D006100200063006F00700069006E006500\"}} \n,"
  },
  {
    "label": "007",
    "text": "{{fun_0006000E arg=\"0x080043006800650072000A0043006800E80072006500\"}} \n,"
  },
  {
    "label": "008",
    "text": "{{fun_0006000E arg=\"0x080043006800650072000A0043006800E80072006500\"}} \n,"
  },
  {
    "label": "009",
    "text": "\n..."
  }
]