﻿[
  {
    "label": "001",
    "text": "{{fun_0006000E arg=\"0x080043006800650072000A0043006800E80072006500\"}} \n,"
  },
  {
    "label": "002",
    "text": "Merci \n "
  },
  {
    "label": "003",
    "text": "{{fun_0006000E arg=\"0x080043006800650072000A0043006800E80072006500\"}} \n,"
  },
  {
    "label": "004",
    "text": "{{fun_0006000E arg=\"0x120054007200E800730020006300680065007200140054007200E8007300200063006800E80072006500\"}} \n,"
  },
  {
    "label": "005",
    "text": "Adorable \n,"
  },
  {
    "label": "006",
    "text": "Hello \n!"
  },
  {
    "label": "007",
    "text": "{{fun_0006000E arg=\"0x080043006800650072000A0043006800E80072006500\"}} \n,"
  },
  {
    "label": "008",
    "text": "{{fun_0006000E arg=\"0x120054007200E800730020006300680065007200140054007200E8007300200063006800E80072006500\"}} \n,"
  },
  {
    "label": "009",
    "text": "Hola \n !"
  }
]