﻿[
  {
    "label": "001",
    "text": "G ADORÉ ton kdo! Je\nt'envoie plein de mercis! \n"
  },
  {
    "label": "002",
    "text": "C trop génial, ce ke tu m'as\nenvoyé! T'as trouvé ça où?!\n"
  },
  {
    "label": "003",
    "text": "C une super idée 2 s'envoyer\ndes kdos + des mots doux!\n"
  },
  {
    "label": "004",
    "text": "Tu peux pas savoir kom ça\nm'a fait plaisir!!! \n"
  },
  {
    "label": "005",
    "text": "Où tu vas chercher des idées\npareilles? Trop top ce kdo!\n"
  }
]