﻿[
  {
    "label": "001",
    "text": "Si tu n'aimes pas, poubelle..."
  },
  {
    "label": "002",
    "text": "Et l'abîme pas, HA HA HA!"
  },
  {
    "label": "003",
    "text": "Bon, c'est pas grand-chose..."
  },
  {
    "label": "004",
    "text": "Et ça intérêt à te plaire."
  },
  {
    "label": "005",
    "text": "Fais gaffe, c'est fragile."
  }
]