﻿[
  {
    "label": "001",
    "text": "プレゼント　ありがとぉ。\nとっても　うれしかったよぉ～！\n"
  },
  {
    "label": "002",
    "text": "キミからの　プレゼント、\nちゃんと　うけとったよぉ。\n"
  },
  {
    "label": "003",
    "text": "プレゼントが　とどいたけど、\nほんとに　ボクにくれるのぉ？\n"
  },
  {
    "label": "004",
    "text": "キミから　とつぜんのプレゼント、\nビックリ　しちゃったよぉ。\n"
  },
  {
    "label": "005",
    "text": "おてがみくれて　ありがとぉ。\nしかも　プレゼントつき～！\n"
  }
]