﻿[
  {
    "label": "001",
    "text": "너무 수수해? From {{fun_00010005 arg=\"\"}}"
  },
  {
    "label": "002",
    "text": "괜한 참견? From {{fun_00010005 arg=\"\"}}"
  },
  {
    "label": "003",
    "text": "{{fun_00010005 arg=\"\"}}{{fun_000E000E arg=\"0x020074C7020000AC\"}}"
  },
  {
    "label": "004",
    "text": "{{fun_00010005 arg=\"\"}}{{fun_000E000E arg=\"0x020074C7020000AC\"}}"
  },
  {
    "label": "005",
    "text": "한번 써봐! From {{fun_00010005 arg=\"\"}}"
  },
  {
    "label": "006",
    "text": "도전해봐! From {{fun_00010005 arg=\"\"}}"
  },
  {
    "label": "007",
    "text": "마음에 들 거야! {{fun_00010005 arg=\"\"}}"
  },
  {
    "label": "008",
    "text": "중요한 건 마음이지! {{fun_00010005 arg=\"\"}}"
  },
  {
    "label": "009",
    "text": "From {{fun_00010005 arg=\"\"}}"
  },
  {
    "label": "010",
    "text": "사양은 말아 From {{fun_00010005 arg=\"\"}}"
  },
  {
    "label": "011",
    "text": "엄마 같았지? From {{fun_00010005 arg=\"\"}}"
  },
  {
    "label": "012",
    "text": "당신의 {{fun_00010005 arg=\"\"}}{{fun_000E000E arg=\"0x020074C7020000AC\"}}"
  }
]