﻿[
  {
    "label": "001",
    "text": "はいけい　\n{{fun_000D0005 arg=\"\"}}"
  },
  {
    "label": "002",
    "text": "はいけい　\n{{fun_000D0005 arg=\"\"}}"
  },
  {
    "label": "003",
    "text": "はいけい　\n{{fun_000D0005 arg=\"\"}}"
  },
  {
    "label": "004",
    "text": "オトナな　\n{{fun_000D0005 arg=\"\"}}"
  },
  {
    "label": "005",
    "text": "いじわるな　\n{{fun_000D0005 arg=\"\"}}へ"
  },
  {
    "label": "006",
    "text": "ねぇ、\n{{fun_000D0005 arg=\"\"}}"
  },
  {
    "label": "007",
    "text": "ねぇ、\n{{fun_000D0005 arg=\"\"}}"
  },
  {
    "label": "008",
    "text": "\n{{fun_000D0005 arg=\"\"}}へ"
  },
  {
    "label": "009",
    "text": "\n{{fun_000D0005 arg=\"\"}}へ"
  }
]