﻿[
  {
    "label": "001",
    "text": "ハッピーな　\n{{fun_000D0005 arg=\"\"}}へ"
  },
  {
    "label": "002",
    "text": "おめでとう　\n{{fun_000D0005 arg=\"\"}}！"
  },
  {
    "label": "003",
    "text": "なかよしの　\n{{fun_000D0005 arg=\"\"}}へ"
  }
]