﻿[
  {
    "label": "001",
    "text": "ダチの　\nへ"
  },
  {
    "label": "002",
    "text": "しんゆうの　\nへ"
  },
  {
    "label": "003",
    "text": "ツレの　\nへ"
  },
  {
    "label": "004",
    "text": "\nへ"
  },
  {
    "label": "005",
    "text": "よう、\n"
  },
  {
    "label": "006",
    "text": "おう、\n"
  }
]