﻿[
  {
    "label": "001",
    "text": "しってた？　\n"
  },
  {
    "label": "002",
    "text": "ヒマある？　\n"
  },
  {
    "label": "003",
    "text": "くるんだよ！　\n"
  },
  {
    "label": "004",
    "text": "\nへ　おれい"
  },
  {
    "label": "005",
    "text": "エスパー　\n"
  },
  {
    "label": "006",
    "text": "サンキュー！　\n"
  },
  {
    "label": "007",
    "text": "いいヤツな　\nへ"
  },
  {
    "label": "008",
    "text": "きづかいの　\nへ"
  },
  {
    "label": "009",
    "text": "マメな　\nへ"
  }
]