﻿[
  {
    "label": "001",
    "text": "\nさんへ"
  },
  {
    "label": "002",
    "text": "\nさんへ"
  },
  {
    "label": "003",
    "text": "\nさんへ"
  },
  {
    "label": "004",
    "text": "みらいの　\nへ"
  }
]