﻿[
  {
    "label": "001",
    "text": "Te alegrará saber que ya\nestoy mucho mejor gracias\na la medicina que me diste.\nToma este pequeño detalle\npara agradecerte tus\ncuidados. ¡Eres {{fun_0006000E arg=\"0x040065006C0004006C006100\"}} mejor!"
  },
  {
    "label": "002",
    "text": "¡Resfriado curado! Ya puedo\nvolver a levantar pesas,\npracticar mi cuádruple\nsalto con tirabuzón y\npulverizar todos los récords\nde velocidad. ¡Gracias!"
  },
  {
    "label": "003",
    "text": "¡Menudo favor me has hecho,\ncolega! Oye, no le cuentes\na nadie que me he puesto\nmalo. Ya sabes que tengo\nreputación de tipo duro.\nToma un regalo. ¡Y gracias!"
  }
]