﻿[
  {
    "label": "001",
    "text": "He visto en la tienda algo\nque pensé que te gustaría.\nEspero haber acertado y tal.\nY si no, pues mira: a caballo\nregalado, no le mires el\ndiente. ¡Ja, ja, ja!"
  },
  {
    "label": "002",
    "text": "Yo no sé mucho de moda,\npero fue ver esto y pensar\nen ti. ¡A ver si es tu talla!\nTe lo quiero ver puesto, ¿eh?\n\nLo digo en serio."
  },
  {
    "label": "003",
    "text": "Una vez cubiertas las\nnecesidades básicas,\n¿quién no quiere darse\nun capricho, eh?\nAquí tienes uno de mi parte,\n¡pero no te acostumbres!"
  },
  {
    "label": "004",
    "text": "¿Sabías que hacen papeles\npara cartas así con dibujicos\ny tal? Pues aquí tienes, para\nque aprendas algo nuevo.\nY de paso, ¡a ver si me\nescribes! ¡Ja, ja, ja!"
  },
  {
    "label": "005",
    "text": "Como siempre me estás\nhaciendo favores, hoy te\nquería hacer algún regalo,\npero en la tienda no tenían\ngran cosa. En fin, ¡menos da\nuna piedra! ¡Ja, ja, ja!"
  },
  {
    "label": "006",
    "text": "¿Has visto el cambiazo que\nda una habitación cuando\npones una alfombra nueva?\nAnda, prueba con esta,\nque yo tengo muy buen gusto\ny eso."
  },
  {
    "label": "007",
    "text": "Cuando cambias el papel de\npared, tu habitación parece\notra. Este, por ejemplo,\nle iría muy bien a tu casa.\nVamos, eso espero, que yo\nno soy muy de decorar..."
  },
  {
    "label": "008",
    "text": "Aquí te mando a un amigo,\nespero que lo trates tan bien\ncomo a mí. Pero no mejor,\n¡que yo no me entere!\n(Y no, no es un sustituto:\nno me voy a ninguna parte.)"
  },
  {
    "label": "009",
    "text": "¿Cómo llevas el armario?\nAquí tienes algo para tu\ncolección. Ya sé que no soy\ntu madre, pero... ¡a ver si\nte pones lo que te compro!"
  },
  {
    "label": "010",
    "text": "Este artículo es bastante\ncurioso, así que pensé\nque te gustaría tenerlo.\n¿He acertado? Di que sí.\n¿A que sí? Pues claro.\n¿Content{{fun_0006000E arg=\"0x02006F0002006100\"}}? ¡Yo más!"
  }
]