﻿[
  {
    "label": "001",
    "text": "Por casualidad, me he\ntopado con una prenda\nperfecta para ti. Como es\nde talla única, seguro que\nte quedará bien, terroncín."
  },
  {
    "label": "002",
    "text": "Te envío algo que cambiará\ntu vida. ¡Es un objeto con el\npoder de hacerte fabulos{{fun_0006000E arg=\"0x02006F0002006100\"}}!\nNo me preguntes de dónde\nlo he sacado, una tiene sus\nsecretos, ju, ju, ju..."
  },
  {
    "label": "003",
    "text": "Unas gafas pueden cambiar\ntotalmente a una persona.\n¿No tienes curiosidad por\nver cómo te quedarían a ti?\n¡Porque yo sí!"
  },
  {
    "label": "004",
    "text": "Me había propuesto llevar\neste estilo, pero me rindo,\nno me siento cómoda. No\nme gusta tirar nada y he\npensado que quizá a ti te\nquedaría mejor. ¡Pruébalo!"
  },
  {
    "label": "005",
    "text": "Me compré estos calcetines\nen un arrebato, pero no creo\nque me los ponga nunca.\n¡Te los regalo! Seguro que\ntú les darás un buen uso,\ncariñín."
  },
  {
    "label": "006",
    "text": "Las prendas sin mangas son\nadorables, si sabes llevarlas.\nCuando vi esta en la tienda,\nsupe que era para ti. ¿Me\nharás el favor de ponértela?"
  },
  {
    "label": "007",
    "text": "Ha llegado a mis manos un\nmueble maravilloso que, por\ndesgracia, no me cabe en\ncasa. Aunque no sea de tu\nestilo, seguro que le darás\nmás uso que yo, cielín."
  },
  {
    "label": "008",
    "text": "Limpiando en el desván,\nencontré este papel de pared\nviejo. He pensado que a lo\nmejor le vendría bien un\ncambio de look a tu casa."
  },
  {
    "label": "009",
    "text": "¿Te gustan las cosas usadas?\n¡Porque esta alfombra que\nte envío es divina para tu\nsuelo! Al menos quedaba\nfantástica en el mío..."
  },
  {
    "label": "010",
    "text": "Tirar las cosas viejas es un\ndesperdicio, ¿no crees? Por\neso te envío esto para que\npuedas usarlo en tu casa.\nVéndelo si no te gusta."
  }
]