﻿[
  {
    "label": "001",
    "text": "¡Feliz cumple!  Tu primer\nregalo es... ¡que te cedo\nel protagonismo! El segundo\nes... ¡este que te mando,\nclaro! ¡Que lo disfrutes!"
  },
  {
    "label": "002",
    "text": " FELIZ CUMPLEAÑOS \n¡Espero que este día sea tan\ndulce como un pastel de\ncumpleaños! No te lo comas\ntodo tú sol{{fun_0006000E arg=\"0x02006F0002006100\"}}, ¿eh?"
  },
  {
    "label": "003",
    "text": "¡Hoy es tu cumple! ¡Muchas\nfelicidades! Aquí tienes el\nregalo que tanto has estado\nesperando: ¡el mío! ¿A que\nsería chupi que fuera tu\ncumple todos los días?"
  }
]