﻿[
  {
    "label": "001",
    "text": "Se acerca mi cumple... ¡es el\n{{fun_00070004 arg=\"0x0100\"}}-{{fun_00070004 arg=\"0x0000\"}}! En mi casa se va a\nmontar una juerga de mucho\ncuidado, ¡más te vale que\nvengas! Ah, ¡no soy alérgica\na los regalos! Ejem, ejem..."
  },
  {
    "label": "002",
    "text": "Oye, ¡voy a dar una fiesta\nde cumple y tú no puedes\nfaltar! Es el {{fun_00070004 arg=\"0x0100\"}}-{{fun_00070004 arg=\"0x0000\"}} en mi\ncasa. ¡Ya puedes prepararte\npara darlo todo y disfrutar\ncomo nunca!"
  },
  {
    "label": "003",
    "text": "El {{fun_00070004 arg=\"0x0100\"}}-{{fun_00070004 arg=\"0x0000\"}} celebro una fiesta\nde cumple en mi casa. ¡No\npuedes faltar, {{fun_00000005 arg=\"\"}}!\nNo hay excusa que valga,\n¡ve cargando las pilas!"
  },
  {
    "label": "004",
    "text": "Sin ti, mi fiesta de cumple\nno habría sido lo mismo.\nTengo tu regalo al lado de\nla cama para verlo todos los\ndías al despertar. ¡Eres la\ncaña, {{fun_00000005 arg=\"\"}}!"
  },
  {
    "label": "005",
    "text": "Me has dejado sin palabras.\n¿Cómo sabías lo que quería?\n¡Ay, gracias por venir a la\nfiesta! Ya puedo ir pensando\nen un buen regalo para ti..."
  },
  {
    "label": "006",
    "text": "¡Mi fiesta de cumple fue el\ndoble de divertida gracias\na ti! Ya sabes que soy muy\ndura, pero tengo que\nreconocer que se me escapó\nalguna que otra lagrimilla..."
  },
  {
    "label": "007",
    "text": "¡Gracias por pasarte por la\nfiesta! Tu regalo fue el\nmejor de todos, ¡sin duda!\nLa verdad es que duermo\ncon él todos los días... ¡No\nse lo digas a nadie!"
  },
  {
    "label": "008",
    "text": "¡Eh, gracias por pasarte por\nla fiesta! Y por el regalillo,\nclaro. La verdad es que me\npillaste desprevenida... ¡a ver\nahora qué te regalo yo a ti!"
  },
  {
    "label": "009",
    "text": "¡Oye, gracias por venir a\ncelebrar mi cumple! Ya\nsabía yo que te encargarías\nde animar el cotarro.\n¡Espero que no te pierdas\nel siguiente, figura!"
  }
]