﻿[
  {
    "label": "001",
    "text": "¡Gracias por enviarme una\ncarta tan cálida con regalo\nincluido en plena temporada\nde invierno! Yo también te\nenvío un regalo para que te\nayude a aguantar este frío."
  },
  {
    "label": "002",
    "text": "¡Qué detalle tan bonito!\nPese a que se acerca el fin\nde año y todos estamos muy\nocupados, te has tomado la\nmolestia de mandarme una\ncarta. ¡Muchas gracias!"
  },
  {
    "label": "003",
    "text": "Gracias por la carta y por\nel regalo. He dado tantos\nsaltos al leerla que por fin he\nconseguido entrar en calor...\nTe mando un detalle como\nagradecimiento. ¡Disfrútalo!"
  },
  {
    "label": "004",
    "text": "No sabes la ilusión que me\nhace recibir una carta tuya\na final de año. Espero que\ntambién me envíes una nada\nmás iniciarse el año próximo.\n¡Me encantará, seguro!"
  },
  {
    "label": "005",
    "text": "Me ha gustado mucho recibir\nuna carta tan bonita... El año\nestá a punto de concluir,\npero nuestra amistad es\ncada vez más sólida y está\nmuy lejos de terminar, ¿no?"
  },
  {
    "label": "006",
    "text": "¡Gracias por sacar las manos\nde los guantes y escribirme\nuna carta con este frío!\nHas conseguido que entre\nen calor... ¡dando saltos\nde alegría!"
  }
]