﻿[
  {
    "label": "001",
    "text": "{{anim id=\"16\"}}Hey!{{delay frames=\"20\"}} Bist aber früh auf, {{fun_00080005 arg=\"\"}}!\n{{delay frames=\"40\"}}{{anim id=\"10\"}}Wie machste das nur?{{delay frames=\"8\"}} Trotz Regen\ngute Laune!"
  },
  {
    "label": "002",
    "text": "{{anim id=\"32\"}}Moin moin, {{fun_00080005 arg=\"\"}}!{{delay frames=\"40\"}} Uns\nHalbstarken kann 'n bisschen Regen\nnichts anhaben,{{delay frames=\"8\"}} ne?{{delay frames=\"20\"}} {{fun_0003000E arg=\"\"}}{{delay frames=\"20\"}}{{fun_00070005 arg=\"\"}}!"
  },
  {
    "label": "003",
    "text": "{{anim id=\"32\"}}{{fun_0003000E arg=\"\"}}{{fun_00060007 arg=\"\"}}Jo, {{fun_00080005 arg=\"\"}}{{fun_00070007 arg=\"\"}}!{{delay frames=\"40\"}} Du lässt\ndir deine gute Laune echt von\nnichts und niemandem verderben!{{i10_11 arg=\"0x100D000E00CD\"}}"
  },
  {
    "label": "004",
    "text": "{{anim id=\"16\"}}Bäh!{{delay frames=\"20\"}} Du bist ja klitschnass,\n{{fun_00080005 arg=\"\"}}!{{delay frames=\"40\"}} {{anim id=\"32\"}}Ähm{{delay frames=\"8\"}}.{{delay frames=\"8\"}}.{{delay frames=\"8\"}}.{{delay frames=\"20\"}} Morgen!\n{{delay frames=\"20\"}}{{fun_0003000E arg=\"\"}}{{fun_00070005 arg=\"\"}}!"
  },
  {
    "label": "005",
    "text": "{{anim id=\"32\"}}{{fun_0003000E arg=\"\"}}{{fun_00060007 arg=\"\"}}Hey, {{fun_00080005 arg=\"\"}}{{fun_00070007 arg=\"\"}}!{{delay frames=\"40\"}} Rennst hier\nso locker-flockig durch den\nRegen.{{delay frames=\"20\"}} Alles klar bei dir?{{i10_11 arg=\"0x100F001000CD\"}}"
  },
  {
    "label": "006",
    "text": "{{anim id=\"32\"}}Aloha, {{fun_00080005 arg=\"\"}}!{{delay frames=\"40\"}} {{anim id=\"36\"}}Cool, dich\nzu sehn! {{delay frames=\"20\"}}{{fun_0003000E arg=\"\"}}{{fun_00070005 arg=\"\"}}!"
  },
  {
    "label": "007",
    "text": "{{anim id=\"32\"}}{{fun_0003000E arg=\"\"}}{{fun_00060007 arg=\"\"}}Wenn das mal nicht {{fun_00080005 arg=\"\"}} ist{{fun_00070007 arg=\"\"}}!\n{{delay frames=\"40\"}}Na, altes Haus?{{delay frames=\"20\"}} Ziemlich{{delay frames=\"8\"}}.{{delay frames=\"8\"}}.{{delay frames=\"8\"}}.{{delay frames=\"20\"}} nass\nheute, {{delay frames=\"8\"}}was?{{i10_11 arg=\"0x1011001200CD\"}}"
  },
  {
    "label": "008",
    "text": "{{anim id=\"16\"}}Das ist doch {{fun_00080005 arg=\"\"}}!{{delay frames=\"40\"}} {{anim id=\"35\"}}Dein\nGesicht passt ja echt perfekt zum\nWetter heute,{{delay frames=\"20\"}} was? {{delay frames=\"20\"}}{{fun_0003000E arg=\"\"}}{{fun_00070005 arg=\"\"}}?{{delay frames=\"40\"}}{{anim id=\"0\"}}"
  },
  {
    "label": "009",
    "text": "{{anim id=\"2\"}}Muharharhar!{{delay frames=\"8\"}} Hey, {{fun_00080005 arg=\"\"}}!{{delay frames=\"40\"}}\n{{anim id=\"36\"}}Der Tag ist heute ins Wasser\ngefallen,{{delay frames=\"8\"}} verstehst du? {{delay frames=\"20\"}}{{anim id=\"35\"}}Hihihi!{{anim id=\"0\"}}"
  },
  {
    "label": "010",
    "text": "{{anim id=\"15\"}}{{fun_0003000E arg=\"\"}}{{fun_00080005 arg=\"\"}}, altes Haus!{{delay frames=\"40\"}} {{anim id=\"36\"}}Es ist\n{{color id=\"2\"}}{{fun_00030004 arg=\"\"}}:{{fun_00040004 arg=\"\"}} Uhr{{color id=\"65535\"}} in der Nacht –{{delay frames=\"40\"}} warum\nbiste noch nicht in der Falle?{{i10_11 arg=\"0x1013001400CD\"}}"
  },
  {
    "label": "011",
    "text": "{{anim id=\"15\"}}Oh,{{delay frames=\"8\"}} du bist's, {{fun_00080005 arg=\"\"}}!{{delay frames=\"40\"}}\n{{anim id=\"9\"}}Was machste denn nachts\nim Regen?{{delay frames=\"20\"}} {{fun_0003000E arg=\"\"}}{{fun_00070005 arg=\"\"}}?"
  },
  {
    "label": "012",
    "text": "{{anim id=\"17\"}}Hilfe!{{delay frames=\"20\"}} {{fun_0008000E arg=\"0x00CD2400450069006E002000670072006F00DF00650072002C0020006E00610073007300650072002200450069006E0065002000670072006F00DF0065002C0020006E0061007300730065002400450069006E002000670072006F00DF00650073002C0020006E0061007300730065007300\"}}\n{{fun_001F0005 arg=\"0x00CD\"}}!{{delay frames=\"40\"}}{{pageBreak}}{{anim id=\"0\"}}Moment mal{{delay frames=\"8\"}}.{{delay frames=\"8\"}}.{{delay frames=\"8\"}}.{{delay frames=\"20\"}} {{anim id=\"37\"}}Ach du bist's,{{delay frames=\"8\"}}\n{{fun_00080005 arg=\"\"}}.{{delay frames=\"20\"}} Jag mir nie wieder so\n'nen Schrecken ein!{{delay frames=\"20\"}} {{fun_0003000E arg=\"\"}}{{fun_00070005 arg=\"\"}}!"
  },
  {
    "label": "013",
    "text": "{{anim id=\"21\"}}Ich bin eigentlich der totale Morgen-\nmuffel.{{delay frames=\"20\"}} Außer an Regentagen{{delay frames=\"8\"}}.{{delay frames=\"8\"}}.{{delay frames=\"8\"}}.{{delay frames=\"20\"}} {{anim id=\"37\"}}\nDa dreh' ich total auf!"
  },
  {
    "label": "014",
    "text": "{{anim id=\"27\"}}Ich sollt mich wieder aufs Ohr\nhauen{{delay frames=\"8\"}}.{{delay frames=\"8\"}}.{{delay frames=\"8\"}}.{{delay frames=\"20\"}} Regentage sind am besten, {{delay frames=\"8\"}}\nwenn man sie verpennt!"
  },
  {
    "label": "015",
    "text": "{{anim id=\"5\"}}Jap, ich bin der totale Regenfreak!\n{{delay frames=\"20\"}}Ich fühle mich immer so lebendig,\nwenn's schüttet, {{delay frames=\"20\"}}{{fun_00070005 arg=\"\"}}!"
  },
  {
    "label": "016",
    "text": "{{anim id=\"21\"}}Genau!{{delay frames=\"20\"}} Das is' die richtige\nEinstellung.{{delay frames=\"20\"}} Wir lassen uns von\ndem Sauwetter nicht unterkriegen!"
  },
  {
    "label": "017",
    "text": "{{anim id=\"5\"}}Wind im Gesicht,{{delay frames=\"8\"}} Regen auf der\nNase... {{delay frames=\"20\"}}Jetzt kann's nächste\nAbenteuer kommen! {{delay frames=\"20\"}}{{fun_0003000E arg=\"\"}}{{fun_00070005 arg=\"\"}}!"
  },
  {
    "label": "018",
    "text": "{{anim id=\"40\"}}Es ist düster, diesig, nass und kalt.{{delay frames=\"20\"}}\nIch würd sagen,{{delay frames=\"8\"}} hier steppt der\nBär,{{delay frames=\"20\"}} {{fun_00070005 arg=\"\"}}."
  },
  {
    "label": "019",
    "text": "{{anim id=\"33\"}}Nichts geht über Regen bei Nacht!{{delay frames=\"20\"}}\nBiste mit mir, {{delay frames=\"20\"}}{{fun_00070005 arg=\"\"}}?"
  },
  {
    "label": "020",
    "text": "{{anim id=\"40\"}}Hätte nicht gedacht, dass du\nRegennächte so toll findest.{{delay frames=\"20\"}} Du bist\ndoch gar kein Frosch, {{delay frames=\"20\"}}{{fun_00070005 arg=\"\"}}!"
  }
]