﻿[
  {
    "label": "001",
    "text": "{{anim id=\"18\"}}Hey!{{delay frames=\"40\"}} Nicht so laut!{{pageBreak}}{{size value=\"75\"}}{{anim id=\"13\"}}Ich versteck mich gerade!{{delay frames=\"20\"}} Halt mal die Luft an,\nsonst findet man mich noch! {{delay frames=\"20\"}}{{fun_0003000E arg=\"\"}}{{fun_00070005 arg=\"\"}}!{{size value=\"100\"}}"
  },
  {
    "label": "002",
    "text": "{{anim id=\"18\"}}Was zur Butterblume?!{{delay frames=\"20\"}} {{fun_0003000E arg=\"\"}}{{fun_00000005 arg=\"\"}}!{{pageBreak}}{{size value=\"75\"}}{{anim id=\"13\"}}Ich würd mich ja liebend gern mit dir\nunterhalten, aber ich spiel gerade\nVerstecken{{delay frames=\"8\"}}.{{delay frames=\"8\"}}.{{delay frames=\"8\"}}.{{delay frames=\"20\"}} Also zieh Leine!{{delay frames=\"40\"}}{{anim id=\"9\"}}{{size value=\"100\"}}"
  },
  {
    "label": "003",
    "text": "{{anim id=\"6\"}}Psssssst!{{delay frames=\"10\"}} Luke zu!{{delay frames=\"40\"}} Willste etwa,\ndass man mich entdeckt,{{delay frames=\"10\"}} hä?{{pageBreak}}{{size value=\"75\"}}{{anim id=\"13\"}}Ich spiele gerade Verstecken!{{delay frames=\"20\"}} Schwirr ab,\n{{delay frames=\"20\"}}{{fun_00070005 arg=\"\"}}!{{size value=\"100\"}}"
  },
  {
    "label": "004",
    "text": "{{anim id=\"13\"}}{{fun_000C0007 arg=\"\"}}Du Tröte!{{delay frames=\"20\"}} Jeder kann mich sehn!!!"
  }
]