﻿[
  {
    "label": "001",
    "text": "{{anim id=\"1\"}}{{fun_0003000E arg=\"\"}}{{fun_00060007 arg=\"\"}}Guten Morgen, {{fun_00000005 arg=\"\"}}{{fun_00070007 arg=\"\"}}!{{delay frames=\"20\"}}\nWillkommen in {{fun_00050005 arg=\"\"}}!{{delay frames=\"20\"}}\nHeute ist ein ganz besonderer Tag.\n{{anim id=\"5\"}}Es ist {{color id=\"2\"}}Mittsommer{{color id=\"65535\"}} und die Sonne\nmacht Überstunden,{{delay frames=\"8\"}} {{fun_00070005 arg=\"\"}}!"
  },
  {
    "label": "002",
    "text": "{{anim id=\"32\"}}Hallo!{{delay frames=\"8\"}} Willkommen in {{fun_00050005 arg=\"\"}}!{{pageBreak}}{{anim id=\"1\"}}Heute ist {{color id=\"2\"}}Mittsommer{{color id=\"65535\"}}.{{delay frames=\"20\"}} Das ist der\nlängste Tag des Jahres, {{fun_00080005 arg=\"\"}}!{{pageBreak}}Wir können also so lange draußen\nspielen, wie wir wollen,{{delay frames=\"8\"}}\n{{fun_00070005 arg=\"\"}}!"
  },
  {
    "label": "003",
    "text": "{{anim id=\"16\"}}{{fun_000A0007 arg=\"\"}}Oha, {{fun_00080005 arg=\"\"}}!{{delay frames=\"40\"}}\n{{anim id=\"1\"}}Du hast deinen Besuch in {{fun_00050005 arg=\"\"}}\nperfekt geplant,{{delay frames=\"8\"}} {{fun_00070005 arg=\"\"}}.\nHeute ist {{color id=\"2\"}}Mittsommer{{color id=\"65535\"}}, es bleibt\nalso total lange hell!{{delay frames=\"20\"}}{{anim id=\"3\"}} Wir können so\nlange spielen, wie wir wollen!"
  },
  {
    "label": "004",
    "text": "{{anim id=\"1\"}}{{fun_0003000E arg=\"\"}}{{fun_00060007 arg=\"\"}}Hallihallo, {{fun_00000005 arg=\"\"}}{{fun_00070007 arg=\"\"}}!{{delay frames=\"20\"}}\nWillkommen in {{fun_00050005 arg=\"\"}}.{{delay frames=\"20\"}}\nZufällig ist gerade {{color id=\"2\"}}Mittsommer{{color id=\"65535\"}}!\n{{anim id=\"5\"}}Heute Abend bleibt es also\nextralange hell!{{delay frames=\"20\"}} Wir können bis in die\nPuppen aufbleiben,{{delay frames=\"8\"}} {{fun_00070005 arg=\"\"}}!"
  },
  {
    "label": "005",
    "text": "{{anim id=\"16\"}}{{fun_000A0007 arg=\"\"}}Oh,{{delay frames=\"20\"}} da ist ja {{fun_00080005 arg=\"\"}}!{{pageBreak}}{{anim id=\"5\"}}Heute ist der längste Tag des\nJahres!{{delay frames=\"20\"}} Lass uns bis spät abends\nin der Sonne spielen,{{delay frames=\"8\"}} {{fun_00070005 arg=\"\"}}!"
  },
  {
    "label": "006",
    "text": "{{anim id=\"32\"}}Willkommen, {{fun_00000005 arg=\"\"}}!{{delay frames=\"40\"}}\n{{anim id=\"1\"}}Weißt du, was heute für ein Tag ist?{{delay frames=\"40\"}}\n{{color id=\"2\"}}Mittsommer{{color id=\"65535\"}} natürlich!\n{{anim id=\"3\"}}So lange wie heute scheint die\nSonne das ganze Jahr nicht mehr!{{delay frames=\"20\"}}\nIst das nicht toll,{{delay frames=\"8\"}} {{fun_00070005 arg=\"\"}}?"
  },
  {
    "label": "007",
    "text": "{{anim id=\"1\"}}Es ist schon spät, aber trotzdem\nscheint die Sonne.{{delay frames=\"40\"}} Komisch, oder?{{delay frames=\"40\"}}\nAlso, ich war erst etwas verwirrt.\n{{anim id=\"33\"}}Aber das muss so sein,{{delay frames=\"20\"}} weil heute\n{{color id=\"2\"}}Mittsommer{{color id=\"65535\"}} ist,{{delay frames=\"8\"}} {{fun_00070005 arg=\"\"}}!"
  },
  {
    "label": "008",
    "text": "{{anim id=\"32\"}}{{fun_0003000E arg=\"\"}}{{fun_00060007 arg=\"\"}}Hallihallo,{{delay frames=\"20\"}} {{fun_00080005 arg=\"\"}}{{fun_00070007 arg=\"\"}}!{{delay frames=\"40\"}} {{anim id=\"1\"}}Heute ist\n{{color id=\"2\"}}Mittsommer{{color id=\"65535\"}}, darum bleibt es die\nganze Nacht lang hell,{{delay frames=\"8\"}} {{fun_00070005 arg=\"\"}}!\n{{anim id=\"4\"}}Ich kann also so lange draußen\n{{fun_00130005 arg=\"0x0000\"}} futtern,\nwie ich will!{{delay frames=\"20\"}} Jippie!"
  },
  {
    "label": "009",
    "text": "{{anim id=\"5\"}}Juhuuu!{{delay frames=\"20\"}} Heute ist {{color id=\"2\"}}Mittsommer{{color id=\"65535\"}},\n{{fun_00080005 arg=\"\"}}!{{delay frames=\"20\"}} Und das Beste daran\nist:{{delay frames=\"20\"}} Es bleibt unglaublich lange hell!\n{{anim id=\"1\"}}Also müssen wir auch unglaublich\nlange aufbleiben,{{delay frames=\"8\"}} {{fun_00070005 arg=\"\"}}!"
  },
  {
    "label": "010",
    "text": "{{anim id=\"32\"}}Guten Morgen, {{fun_00080005 arg=\"\"}}!{{delay frames=\"20\"}}\n{{anim id=\"11\"}}Äh{{delay frames=\"8\"}}.{{delay frames=\"8\"}}.{{delay frames=\"8\"}}.{{delay frames=\"8\"}} Ich meine, guten Abend!{{delay frames=\"20\"}}\n{{anim id=\"40\"}}Nee, nee.{{delay frames=\"40\"}} Das stimmt auch nicht.\n{{anim id=\"26\"}}Dieser Sonnenschein mitten\nin der Nacht bringt mich ganz\ndurcheinander.\n{{anim id=\"1\"}}Egal.{{delay frames=\"20\"}} Welche Tageszeit auch immer\nist, mach das Beste daraus,{{delay frames=\"8\"}}\n{{fun_00070005 arg=\"\"}}!"
  },
  {
    "label": "011",
    "text": "{{anim id=\"32\"}}Huhu, {{fun_00080005 arg=\"\"}}!{{delay frames=\"40\"}} Amüsierst du\ndich gut?{{delay frames=\"20\"}} Heute ist {{color id=\"2\"}}Mittsommer{{color id=\"65535\"}},\nes bleibt hell und wir bleiben auf! \n{{anim id=\"1\"}}Was soll ich als Nächstes machen?{{delay frames=\"20\"}}\nIch kann mich gar nicht entscheiden,{{delay frames=\"8\"}}\n{{fun_00070005 arg=\"\"}}."
  }
]