﻿[
  {
    "label": "001",
    "text": "{{anim id=\"1\"}}Weißt du, was?{{delay frames=\"20\"}} Vorhin saß ich vor\nmeinem Teller {{fun_00130005 arg=\"0x0000\"}},\nals ich plötzlich DIE Idee hatte!\n{{anim id=\"4\"}}Mir ist nämlich der perfekte\nSpitzname für dich eingefallen!{{delay frames=\"40\"}}\n{{anim id=\"23\"}}Willst du ihn hören?{{fun_0005000F arg=\"0x15002800\"}}\nSchieß los!\nLass mal gut sein."
  },
  {
    "label": "002",
    "text": "{{anim id=\"1\"}}Ach so...{{delay frames=\"40\"}} {{fun_00080005 arg=\"\"}} gefällt dir\nwohl besser, was?{{pageBreak}}{{anim id=\"39\"}}Hm.{{delay frames=\"40\"}} Dann muss ich mir deinen\nneuen Spitznamen einfach leise\ndazudenken,{{delay frames=\"8\"}} {{fun_00070005 arg=\"\"}}."
  },
  {
    "label": "003",
    "text": "{{anim id=\"3\"}}Jippie!{{delay frames=\"40\"}} Also halt dich fest, jetzt\nkommt's:{{delay frames=\"20\"}} Hallo, {{fun_00080005 arg=\"\"}}!{{pageBreak}}{{anim id=\"1\"}}Darf ich dich ab jetzt immer\n„{{fun_00080005 arg=\"\"}}“ nennen?{{fun_0005000F arg=\"0x15002800\"}}\nNatürlich!\nBloß nicht!"
  },
  {
    "label": "004",
    "text": "{{anim id=\"5\"}}Au fein!{{delay frames=\"40\"}} Hallo, {{fun_00080005 arg=\"\"}}!{{delay frames=\"20\"}}\nJa, das passt.{{delay frames=\"20\"}} Ab jetzt nenne ich\ndich so!"
  },
  {
    "label": "005",
    "text": "{{anim id=\"18\"}}Was?{{delay frames=\"20\"}} Mein schöner Spitzname\ngefällt dir nicht?{{delay frames=\"40\"}} {{anim id=\"10\"}}Schade.{{delay frames=\"20\"}} Aber\n{{fun_00080005 arg=\"\"}} ist auch nicht so übel."
  },
  {
    "label": "006",
    "text": "{{anim id=\"19\"}}Oh.{{delay frames=\"20\"}} Das war wohl nichts.{{delay frames=\"40\"}}\nWelcher Spitzname würde dir\ndenn gefallen?"
  },
  {
    "label": "007",
    "text": "{{anim id=\"23\"}}Darf ich dich „{{fun_00080005 arg=\"\"}}“ nennen?{{fun_0008000D arg=\"0x02CD\"}}{{fun_0005000F arg=\"0x15002800\"}}\nIn Ordnung.\nLieber nicht!"
  },
  {
    "label": "008",
    "text": "Wie willst du denn nun genannt\nwerden?"
  },
  {
    "label": "009",
    "text": "{{anim id=\"38\"}}Abgemacht!{{delay frames=\"40\"}}\nAb jetzt bist du{{delay frames=\"8\"}} {{fun_00080005 arg=\"\"}}!{{pageBreak}}{{anim id=\"1\"}}Wenn du irgendwo „{{fun_00080005 arg=\"\"}}“\nhörst, dann bist du gemeint,{{delay frames=\"8\"}}\n{{fun_00070005 arg=\"\"}}!"
  },
  {
    "label": "010",
    "text": ""
  },
  {
    "label": "011",
    "text": "Hallo, {{fun_00080005 arg=\"\"}}.{{delay frames=\"20\"}} Ich hab gehört,\nwie dich jemand „{{fun_00000011 arg=\"0x0000\"}}“\ngenannt hat.{{delay frames=\"20\"}} Das klang so cool!\nDarf ich dich auch „{{fun_00000011 arg=\"0x0000\"}}“\nnennen,{{delay frames=\"8\"}} {{fun_00070005 arg=\"\"}}?{{fun_0005000F arg=\"0x15002800\"}}\nKein Problem!\nWehe!"
  },
  {
    "label": "012",
    "text": "{{anim id=\"1\"}}Äh, he he he!{{delay frames=\"20\"}} Abgemacht!{{delay frames=\"40\"}}\nAb heute bist du für mich\n{{fun_00080005 arg=\"\"}}!"
  },
  {
    "label": "013",
    "text": "{{anim id=\"9\"}}Oh, 'tschuldigung.{{delay frames=\"20\"}}\nDas war wohl keine so gute Idee."
  },
  {
    "label": "014",
    "text": "{{anim id=\"9\"}}Du findest diesen Spitznamen also\ndoof?{{fun_00010007 arg=\"\"}} {{anim id=\"1\"}}Wie möchtest du denn lieber\ngenannt werden,{{delay frames=\"8\"}} {{fun_00070005 arg=\"\"}}?"
  },
  {
    "label": "015",
    "text": "Du möchtest also{{delay frames=\"8\"}} „{{fun_00080005 arg=\"\"}}“\ngenannt werden,{{delay frames=\"20\"}}{{anim id=\"23\"}} ja?{{fun_0008000D arg=\"0x02CD\"}}{{fun_0005000F arg=\"0x15002800\"}}\nGenau!\nAuf keinen Fall!"
  },
  {
    "label": "016",
    "text": "Also, noch ein Versuch:{{delay frames=\"20\"}}\nWie möchtest du genannt werden,{{delay frames=\"8\"}}\n{{fun_00070005 arg=\"\"}}?"
  },
  {
    "label": "017",
    "text": "{{anim id=\"5\"}}Hurra!{{delay frames=\"20\"}} Ab jetzt wird man dich als\n{{fun_00080005 arg=\"\"}} kennen!{{delay frames=\"40\"}} Ich bin ja so\nstolz,{{delay frames=\"8\"}} {{fun_00070005 arg=\"\"}}!"
  },
  {
    "label": "018",
    "text": ""
  }
]