﻿[
  {
    "label": "001",
    "text": "{{anim id=\"1\"}}Oh, du hast ja Besuch!"
  },
  {
    "label": "002",
    "text": "{{anim id=\"23\"}}Du hast gerade Besuch, oder?"
  },
  {
    "label": "003",
    "text": "{{anim id=\"1\"}}Du hast gerade Besuch, oder?"
  },
  {
    "label": "004",
    "text": "{{anim id=\"39\"}}Du und dein Besuch...{{delay frames=\"20\"}} Seid ihr\nrichtig dick befreundet?"
  },
  {
    "label": "005",
    "text": "{{fun_00020009 arg=\"0x0600070008000900\"}}"
  },
  {
    "label": "006",
    "text": "{{anim id=\"5\"}}Ich hoffe, ich kann mich auch mal\nmit deinem Besuch unterhalten,{{delay frames=\"8\"}}\n{{fun_00070005 arg=\"\"}}!"
  },
  {
    "label": "007",
    "text": "{{anim id=\"29\"}}Du scheinst ja Freunde von überall\nher zu haben, {{fun_00080005 arg=\"\"}}!{{delay frames=\"40\"}} Du bist\nja total beliebt,{{delay frames=\"8\"}} {{fun_00070005 arg=\"\"}}!"
  },
  {
    "label": "008",
    "text": "{{anim id=\"13\"}}Ich muss einen guten ersten\nEindruck machen!{{delay frames=\"30\"}} Ich werd mich\neinfach ganz schick anziehen{{delay frames=\"8\"}}.{{delay frames=\"8\"}}.{{delay frames=\"8\"}}."
  },
  {
    "label": "009",
    "text": "{{anim id=\"38\"}}Wir sehen uns noch.{{delay frames=\"20\"}} Du musst dich\njetzt erst mal um deinen Besuch\nkümmern."
  },
  {
    "label": "010",
    "text": "{{anim id=\"1\"}}Ich find's immer prima, wenn mal\nBesuch in unsere Stadt kommt.{{pageBreak}}{{anim id=\"0\"}}Aber manchmal kann Besuch\nauch total nerven, find ich.{{pageBreak}}{{anim id=\"21\"}}Wenn das passiert, dann drücke\n{{color id=\"2\"}}START{{color id=\"65535\"}} und wähle dann {{color id=\"2\"}}Besucher\nheimschicken{{color id=\"65535\"}}.\n{{anim id=\"1\"}}Dann werden deine ganzen\nBesucher nach Hause geschickt!{{pageBreak}}Und wenn du sie vorher nicht\nwarnst, wundern sich alle total.\n{{delay frames=\"20\"}}Äh, he he he."
  }
]