﻿[
  {
    "label": "001",
    "text": "{{anim id=\"5\"}}Hurra!{{delay frames=\"20\"}} Toll!{{delay frames=\"40\"}} Also, wann kommst du\nvorbei?{{fun_00010007 arg=\"\"}} {{anim id=\"0\"}}Alles nach {{color id=\"2\"}}{{fun_00100004 arg=\"0x00CD\"}} Uhr {{color id=\"65535\"}}ist\nin Ordnung für mich,{{delay frames=\"8\"}} {{fun_00070005 arg=\"\"}}."
  },
  {
    "label": "002",
    "text": "{{anim id=\"1\"}}Echt?{{delay frames=\"20\"}} Toll,{{delay frames=\"8\"}} {{fun_00070005 arg=\"\"}}!{{fun_00010007 arg=\"\"}} {{anim id=\"21\"}}Dann lass\nuns eine Zeit ausmachen!{{delay frames=\"20\"}} Mir passt\nes nach {{color id=\"2\"}}{{fun_00100004 arg=\"0x00CD\"}}:30 Uhr{{color id=\"65535\"}}."
  },
  {
    "label": "003",
    "text": "{{anim id=\"23\"}}Was?{{delay frames=\"40\"}} Schon so spät?{{fun_00010007 arg=\"\"}} {{anim id=\"25\"}}Ich bin\nganz schön müde.{{delay frames=\"20\"}} Lass uns das\nTreffen verschieben, {{fun_00080005 arg=\"\"}}."
  },
  {
    "label": "004",
    "text": "{{anim id=\"9\"}}Du kommst doch nicht?{{delay frames=\"40\"}} {{anim id=\"0\"}}Na gut,\nvielleicht nächstes Mal."
  },
  {
    "label": "005",
    "text": "{{anim id=\"13\"}}A-a-aber ich muss doch erst noch\naufräumen!{{fun_00010007 arg=\"\"}} {{anim id=\"9\"}}Gib mir bitte noch eine\nhalbe Stunde!"
  },
  {
    "label": "006",
    "text": "Punkt {{color id=\"2\"}}{{fun_00100004 arg=\"0x01CD\"}} Uhr{{color id=\"65535\"}}, jawoll!{{delay frames=\"40\"}} {{anim id=\"1\"}}Ich warte\ndann auf dich,{{delay frames=\"8\"}} {{fun_00070005 arg=\"\"}}!"
  },
  {
    "label": "007",
    "text": "{{anim id=\"3\"}}Abgemacht!{{delay frames=\"40\"}} Wir treffen uns dann\num {{color id=\"2\"}}{{fun_00100004 arg=\"0x01CD\"}}:{{fun_00110004 arg=\"0x02CD\"}} Uhr {{color id=\"65535\"}}bei mir!"
  },
  {
    "label": "008",
    "text": "{{anim id=\"9\"}}Ähm{{delay frames=\"8\"}}.{{delay frames=\"8\"}}.{{delay frames=\"8\"}}.{{delay frames=\"40\"}} So lange kann ich nicht\naufbleiben!{{fun_00010007 arg=\"\"}} {{anim id=\"0\"}}Geht es auch ein\nbisschen früher,{{delay frames=\"8\"}} {{fun_00070005 arg=\"\"}}?"
  }
]