﻿[
  {
    "label": "001",
    "text": "{{anim id=\"3\"}}Au fein!{{delay frames=\"20\"}} Mit {{fun_00080005 arg=\"\"}} Verstecken\nspielen!{{delay frames=\"20\"}} Juhuuu!{{pageBreak}}{{anim id=\"35\"}}Äh, he he he...{{delay frames=\"20\"}} Das wird aber richtig\nschwierig, gegen mich zu gewinnen!{{delay frames=\"20\"}}\nIch spiel nämlich jeden Tag!{{fun_00080007 arg=\"0x58020000\"}}\n{{anim id=\"1\"}}Ich frag noch ein paar Leute, ob\nsie auch mitspielen wollen,{{delay frames=\"8\"}}\n{{fun_00070005 arg=\"\"}}!{{fun_00080007 arg=\"0x58020000\"}}"
  },
  {
    "label": "002",
    "text": "{{anim id=\"6\"}}Ha ha!{{delay frames=\"20\"}} Und WIE wir Verstecken\nspielen werden!{{fun_00080007 arg=\"0x58020000\"}}{{pageBreak}}{{anim id=\"15\"}}Oje, nur mit uns beiden wird das\naber langweilig.{{delay frames=\"20\"}}{{anim id=\"1\"}} Wir sollten noch\nein paar Leute mitspielen lassen!{{fun_00080007 arg=\"0x58020000\"}}"
  },
  {
    "label": "003",
    "text": "Toll!{{delay frames=\"20\"}}{{anim id=\"32\"}} Gib mir aber auch eine\nChance, {{fun_00080005 arg=\"\"}}!{{fun_00080007 arg=\"0x58020000\"}}{{pageBreak}}{{anim id=\"1\"}}Weißt du, was?{{delay frames=\"20\"}} Ich frag noch ein\npaar andere Leute!{{delay frames=\"20\"}} Dann wird das\nnoch lustiger,{{delay frames=\"8\"}} {{fun_00070005 arg=\"\"}}!{{fun_00080007 arg=\"0x58020000\"}}"
  },
  {
    "label": "004",
    "text": "{{anim id=\"16\"}}{{fun_000B0007 arg=\"\"}}Oh nein!{{delay frames=\"20\"}} Guck mal, wie spät es ist!{{delay frames=\"30\"}}\n{{anim id=\"9\"}}Heute wird das nichts mehr mit\nVersteckenspielen, schade!\n{{anim id=\"2\"}}Im Dunkeln findet man sowieso\nniemanden!{{delay frames=\"40\"}}{{anim id=\"37\"}} Lass uns einfach ein\nanderes Mal spielen."
  }
]