﻿[
  {
    "label": "001",
    "text": "{{anim id=\"16\"}}Oha, {{fun_00080005 arg=\"\"}}! So sehen wir uns\nwieder.{{delay frames=\"20\"}}{{anim id=\"1\"}} Was kann ich denn diesmal\nfür dich tun, {{delay frames=\"15\"}}{{fun_00070005 arg=\"\"}}?"
  },
  {
    "label": "002",
    "text": "{{anim id=\"1\"}}{{fun_0003000E arg=\"\"}}{{fun_00060007 arg=\"\"}}Hi,{{delay frames=\"20\"}} {{fun_00080005 arg=\"\"}}{{fun_00070007 arg=\"\"}}!{{pageBreak}}{{anim id=\"37\"}}Wie nett, dass du immer mit mir\nreden willst,{{delay frames=\"15\"}} {{fun_00070005 arg=\"\"}}!"
  },
  {
    "label": "003",
    "text": "{{anim id=\"1\"}}Na?{{delay frames=\"20\"}} Wo drückt denn der Schuh,\n{{delay frames=\"15\"}}{{fun_00070005 arg=\"\"}}?"
  }
]