﻿[
  {
    "label": "001",
    "text": "{{anim id=\"1\"}}Du siehst heute ja aus wie {{fun_0006000E arg=\"0x0600650069006E000800650069006E006500\"}}\n{{fun_0006000E arg=\"0x1E0072006900630068007400690067006500720020004B00F6006E006900670020007200690063006800740069006700650020004B00F6006E006900670069006E00\"}},{{delay frames=\"20\"}} {{fun_00080005 arg=\"\"}}!{{pageBreak}}{{anim id=\"5\"}}Besonders deine Krone ist schick!{{delay frames=\"20\"}}\n{{anim id=\"1\"}}Falls das dein Partyoutfit ist,\nbin ich hoffentlich eingeladen!"
  },
  {
    "label": "002",
    "text": "{{anim id=\"1\"}}Uiii, siehst du heute toll aus.{{delay frames=\"20\"}}\n{{anim id=\"5\"}}Das Einzige, was dir noch fehlt,\nist ein Strauß Tulpen!"
  },
  {
    "label": "003",
    "text": "{{anim id=\"23\"}}Nanu?{{delay frames=\"30\"}} Was hast du denn da an?{{delay frames=\"20\"}}\nHattest du heute etwa deine\nAbschlussfeier?{{delay frames=\"30\"}} {{anim id=\"29\"}}Glückwunsch!{{delay frames=\"40\"}}\n{{anim id=\"1\"}}Da musst du aber viel gelernt haben!{{delay frames=\"20\"}}\nWie inspirierend!{{delay frames=\"10\"}} Da kriege ich auch\ngleich Lust aufs Lernen!"
  },
  {
    "label": "004",
    "text": "{{anim id=\"3\"}}Oh, dein Outfit heute ist ja ein\nGedicht,{{delay frames=\"8\"}} {{fun_00080005 arg=\"\"}}.{{delay frames=\"30\"}}{{anim id=\"37\"}}{{pageBreak}}{{anim id=\"1\"}}Damit meine ich,{{delay frames=\"10\"}}\ndu bist heute wirklich hübsch{{delay frames=\"10\"}}{{anim id=\"21\"}}\nund es passt zu dir."
  },
  {
    "label": "005",
    "text": "{{anim id=\"1\"}}Was erkundest du denn heute?{{delay frames=\"20\"}}\n{{anim id=\"5\"}}Die uralte Siedlung „{{fun_00050005 arg=\"\"}}“\netwa?{{delay frames=\"10\"}} Hihihi!"
  },
  {
    "label": "006",
    "text": "{{anim id=\"1\"}}Was hast du denn da Hübsches an?{{delay frames=\"20\"}}\n{{anim id=\"5\"}}Der grüne Hut und das Kleid mit\nder Blume passen gut zusammen!\nDas ist genau das Richtige für\njemanden wie dich,{{delay frames=\"8\"}} {{fun_00080005 arg=\"\"}}."
  },
  {
    "label": "007",
    "text": "{{anim id=\"13\"}}Was ist denn mit dir passiert?!{{delay frames=\"20\"}}\n{{anim id=\"15\"}}Du siehst aus, als hättest du dir\nalle Knochen gebrochen!{{pageBreak}}{{anim id=\"39\"}}Oh, ist das etwa die neueste Mode?{{delay frames=\"10\"}}\nNa, dann ist es ja gut.{{delay frames=\"20\"}}{{anim id=\"9\"}} Ich dachte\nschon, du wärst schwer verletzt..."
  },
  {
    "label": "008",
    "text": "{{anim id=\"1\"}}Du siehst heute aber heldenhaft aus!{{delay frames=\"20\"}}\n{{anim id=\"21\"}}Als könntest du {{fun_00050005 arg=\"\"}}\nbeschützen {{delay frames=\"20\"}}– {{anim id=\"1\"}}komme, was wolle!"
  },
  {
    "label": "009",
    "text": ""
  },
  {
    "label": "010",
    "text": ""
  },
  {
    "label": "011",
    "text": ""
  },
  {
    "label": "012",
    "text": "{{anim id=\"1\"}}Hihi, diese Pünktchen sind ja süß.{{delay frames=\"20\"}}\nDie gefallen mir richtig gut!{{pageBreak}}{{anim id=\"5\"}}{{fun_0003000E arg=\"\"}}{{fun_0008000E arg=\"0x02CD060064006500720006006400690065000600640061007300\"}} {{fun_00030011 arg=\"0x0200\"}} steht\ndir sehr gut, {{fun_00080005 arg=\"\"}}!"
  },
  {
    "label": "013",
    "text": "{{anim id=\"39\"}}Weißt du, wenn ich mir {{fun_0008000E arg=\"0x02CD0C006400650069006E0065006E000A006400650069006E00650008006400650069006E00\"}}\n{{fun_00030011 arg=\"0x0200\"}} ansehe.{{delay frames=\"8\"}}.{{delay frames=\"8\"}}.{{delay frames=\"8\"}}\n{{anim id=\"38\"}}dann kriege ich richtig Hunger!"
  },
  {
    "label": "014",
    "text": "{{anim id=\"1\"}}{{fun_0003000E arg=\"\"}}{{fun_0008000E arg=\"0x02CD0C006400690065007300650072000A00640069006500730065000C00640069006500730065007300\"}} {{fun_00030011 arg=\"0x0200\"}}{{delay frames=\"10\"}} ist\nwunderschön!{{delay frames=\"10\"}} Damit siehst du aus\nwie einem Gemälde entstiegen.\n{{anim id=\"5\"}}Das Outfit steht dir wirklich gut,\n{{fun_00080005 arg=\"\"}}."
  },
  {
    "label": "015",
    "text": "{{anim id=\"1\"}}Also, {{fun_0008000E arg=\"0x02CD060064006500720006006400690065000600640061007300\"}} {{fun_00030011 arg=\"0x0200\"}}\nsieht ja lupenrein sauber aus...{{pageBreak}}Gefällt mir!{{delay frames=\"20\"}} {{anim id=\"4\"}}So ein Outfit würde ich\nselbst auch tragen!"
  },
  {
    "label": "016",
    "text": "{{anim id=\"37\"}}Oh, warst du etwa gerade am\nKochen?{{delay frames=\"10\"}} Ich meine, weil du {{fun_0008000E arg=\"0x02CD0600640065006E0006006400690065000600640061007300\"}}\n{{fun_00030011 arg=\"0x0200\"}} anhast..."
  },
  {
    "label": "017",
    "text": "{{anim id=\"13\"}}Igitt, wieso trägst du denn {{fun_0008000E arg=\"0x02CD0C00640069006500730065006E000A00640069006500730065000C00640069006500730065007300\"}}\n{{fun_00030011 arg=\"0x0200\"}}?!{{pageBreak}}{{anim id=\"36\"}}Selbst wenn du nur im Haus wärst,\nsolltest du so was Schmutziges\nnicht anziehen!"
  },
  {
    "label": "018",
    "text": "{{anim id=\"1\"}}Du siehst aus wie {{fun_0006000E arg=\"0x1A00650069006E0020007200690063006800740069006700650072001A00650069006E006500200072006900630068007400690067006500\"}}\n{{fun_0006000E arg=\"0x08004B006F00630068000C004B00F6006300680069006E00\"}}, {{fun_00080005 arg=\"\"}}!{{delay frames=\"20\"}}{{anim id=\"5\"}} Da krieg ich\nrichtig Lust, selbst was zu kochen!"
  },
  {
    "label": "019",
    "text": "{{anim id=\"5\"}}Hihi, du siehst ja aus wie ein\nDetektiv im Krimi!{{delay frames=\"20\"}} {{anim id=\"1\"}}Man könnte\nmeinen, du bist auf Verbrecherjagd!"
  },
  {
    "label": "020",
    "text": ""
  },
  {
    "label": "021",
    "text": ""
  },
  {
    "label": "022",
    "text": ""
  },
  {
    "label": "023",
    "text": "{{anim id=\"11\"}}Hmmm.{{delay frames=\"8\"}}.{{delay frames=\"8\"}}.{{delay frames=\"8\"}} Wieso trägst du denn\nObst auf deinem Kopf herum?{{pageBreak}}{{anim id=\"16\"}}Oh, ach so! {{delay frames=\"20\"}}Das ist ja {{fun_0008000E arg=\"0x00CD0600650069006E000800650069006E0065000600650069006E00\"}}\n{{fun_00030011 arg=\"0x0000\"}}!{{delay frames=\"30\"}}\n{{anim id=\"26\"}}Wie peinlich..."
  },
  {
    "label": "024",
    "text": "{{anim id=\"13\"}}Was ist denn mit dir passiert?!{{delay frames=\"20\"}}\nDu siehst ja schrecklich aus!{{pageBreak}}{{anim id=\"15\"}}Wie?!{{delay frames=\"30\"}} Du trägst nur {{fun_0008000E arg=\"0x00CD0A00650069006E0065006E000800650069006E0065000600650069006E00\"}}\n{{fun_00030011 arg=\"0x0000\"}}?{{pageBreak}}{{anim id=\"1\"}}Und ich dachte schon, du wärst\nplötzlich zum Ungeheuer geworden!"
  },
  {
    "label": "025",
    "text": ""
  },
  {
    "label": "026",
    "text": ""
  },
  {
    "label": "027",
    "text": ""
  },
  {
    "label": "028",
    "text": ""
  },
  {
    "label": "029",
    "text": "{{anim id=\"1\"}}Ich habe ein richtig gutes Buch\ngelesen, das ich nur empfehlen kann:{{delay frames=\"10\"}}\n„{{fun_001D0005 arg=\"0x0000\"}}“.{{delay frames=\"20\"}}\n{{anim id=\"1\"}}Was ich noch empfehlen kann, ist\n„{{fun_001D0005 arg=\"0x0100\"}}“.{{delay frames=\"10\"}}\nDas war sehr interessant.{{delay frames=\"8\"}}.{{delay frames=\"8\"}}.\n{{anim id=\"13\"}}{{fun_0003000E arg=\"\"}}{{fun_00080005 arg=\"\"}},{{delay frames=\"15\"}} nun guck mich doch\nnicht so an, als ob ich dich\nlangweile!{{delay frames=\"10\"}} {{anim id=\"9\"}}Ist das so uninteressant?!\nOh.{{delay frames=\"8\"}}.{{delay frames=\"8\"}}.{{delay frames=\"8\"}}{{anim id=\"15\"}} Huch?!{{delay frames=\"10\"}} Diese Augen.{{delay frames=\"8\"}}.{{delay frames=\"8\"}}.{{delay frames=\"8\"}}\n{{anim id=\"2\"}}Hihihi, trägst du etwa {{fun_0008000E arg=\"0x01CD0A00650069006E0065006E000800650069006E0065000600650069006E00\"}}\n{{fun_00030011 arg=\"0x0100\"}}?\n{{anim id=\"1\"}}Hihi, das hat mich eben ein wenig\nverwirrt!"
  },
  {
    "label": "030",
    "text": "Oh, muss ich etwa aus {{fun_0008000E arg=\"0x01CD0C006400650069006E0065006D000C006400650069006E00650072000C006400650069006E0065006D00\"}}\n{{fun_00030011 arg=\"0x0100\"}} schließen,\ndass du krank bist?\nHast du dich erkältet, {{fun_00080005 arg=\"\"}}?{{delay frames=\"10\"}}\n{{anim id=\"39\"}}Zieh dich nur immer schön warm\nan und pass auf dich auf!"
  },
  {
    "label": "031",
    "text": ""
  },
  {
    "label": "032",
    "text": ""
  },
  {
    "label": "033",
    "text": ""
  },
  {
    "label": "034",
    "text": ""
  },
  {
    "label": "035",
    "text": ""
  },
  {
    "label": "036",
    "text": ""
  },
  {
    "label": "037",
    "text": ""
  },
  {
    "label": "038",
    "text": ""
  },
  {
    "label": "039",
    "text": ""
  },
  {
    "label": "040",
    "text": "{{anim id=\"1\"}}Du bist ja immer noch wie {{fun_0006000E arg=\"0x0600650069006E000800650069006E006500\"}}\n{{fun_0006000E arg=\"0x0A004B00F6006E00690067000E004B00F6006E006900670069006E00\"}} angezogen, {{fun_00080005 arg=\"\"}}...{{pageBreak}}{{anim id=\"16\"}}Hast du etwa wirklich irgendwo\nein kleines Königreich oder so?{{pageBreak}}{{anim id=\"13\"}}In diesem Fall entschuldige ich\nmich für mein äußerst anmaßendes\nBenehmen, Euer Hoheit!"
  },
  {
    "label": "041",
    "text": "{{anim id=\"1\"}}Das Outfit scheint dir ja zu gefallen.{{delay frames=\"20\"}}\nDas hast du doch neulich schon mal\ngetragen.{{pageBreak}}{{anim id=\"5\"}}Na, es steht dir ja auch, {{fun_00080005 arg=\"\"}}!"
  },
  {
    "label": "042",
    "text": "{{anim id=\"16\"}}Hast du heute etwa schon wieder\neine Abschlussfeier?!{{pageBreak}}{{anim id=\"1\"}}Ich wusste gar nicht, dass du so\nviele Sachen studierst!{{delay frames=\"20\"}} {{anim id=\"5\"}}Jetzt bin\nich schwer beeindruckt!"
  },
  {
    "label": "043",
    "text": "{{anim id=\"5\"}}Du siehst immer noch toll aus.{{pageBreak}}{{anim id=\"1\"}}Ich weiß, dass du das schon mal\ngetragen hast, und auch da war ich\nschon beeindruckt,{{delay frames=\"15\"}} {{fun_00070005 arg=\"\"}}."
  },
  {
    "label": "044",
    "text": "{{anim id=\"1\"}}Oha, was erkundest du denn\ndiesmal?!{{delay frames=\"20\"}} {{anim id=\"13\"}}Ich bin ganz neidisch\nauf deine Abenteuer, {{fun_00080005 arg=\"\"}}!"
  },
  {
    "label": "045",
    "text": "{{anim id=\"5\"}}Du hast ja schon wieder dieses\nsüße Outfit an!{{pageBreak}}{{anim id=\"1\"}}Ich weiß, dass du das schon mal\nanhattest, denn ich hab es ja schon\ndamals bewundert, {{delay frames=\"8\"}}{{fun_00070005 arg=\"\"}}."
  },
  {
    "label": "046",
    "text": "{{anim id=\"13\"}}Kriegst du denn so eingewickelt\neigentlich noch Luft?!{{pageBreak}}{{anim id=\"0\"}}Du bist doch schon mal in diesem\nAufzug rumgelaufen,{{delay frames=\"10\"}}{{anim id=\"13\"}} hoffentlich\nbist du nicht wirklich verletzt!"
  },
  {
    "label": "047",
    "text": "{{anim id=\"5\"}}Wie ich sehe, bist du wieder bereit,\ndie Welt vor dem Bösen zu retten!{{delay frames=\"20\"}}\nViel Erfolg,{{delay frames=\"15\"}} {{fun_00070005 arg=\"\"}}."
  },
  {
    "label": "048",
    "text": ""
  },
  {
    "label": "049",
    "text": ""
  },
  {
    "label": "050",
    "text": ""
  },
  {
    "label": "051",
    "text": "{{anim id=\"1\"}}Hihi, offensichtlich gefällt dir {{fun_0008000E arg=\"0x02CD08006400650069006E000A006400650069006E00650008006400650069006E00\"}}\n{{fun_00030011 arg=\"0x0200\"}}.{{pageBreak}}{{anim id=\"37\"}}{{fun_0008000E arg=\"0x02CD0600440065006E0006004400690065000600440061007300\"}} hast du nämlich schon mal\ngetragen.{{delay frames=\"10\"}} Aber {{fun_0008000E arg=\"0x02CD0400650072000600730069006500040065007300\"}} steht dir auch!"
  },
  {
    "label": "052",
    "text": "{{anim id=\"13\"}}Waaas?!{{delay frames=\"20\"}} Trägst du schon wieder\n{{fun_0008000E arg=\"0x02CD0C006400650069006E0065006E000A006400650069006E00650008006400650069006E00\"}} {{fun_00030011 arg=\"0x0200\"}}?!{{pageBreak}}{{anim id=\"27\"}}Also, ab und zu ist es schon mal\nnotwendig, seine Kleidung zu\nwaschen..."
  },
  {
    "label": "053",
    "text": "{{anim id=\"1\"}}Kochst du etwa schon wieder?!{{delay frames=\"30\"}}\n{{anim id=\"5\"}}Also, wenn du tolle neue Rezepte\nhast, musst du sie mir geben!"
  },
  {
    "label": "054",
    "text": "{{anim id=\"5\"}}Oho, du trägst schon wieder {{fun_0008000E arg=\"0x02CD0C006400650069006E0065006E000A006400650069006E00650008006400650069006E00\"}}\n{{fun_00030011 arg=\"0x0200\"}}?{{pageBreak}}{{anim id=\"37\"}}Bist du auf Spurensuche?{{delay frames=\"20\"}} Ich kann\ndir nämlich helfen, wenn du eine\nAssistentin brauchst..."
  },
  {
    "label": "055",
    "text": ""
  },
  {
    "label": "056",
    "text": ""
  },
  {
    "label": "057",
    "text": ""
  },
  {
    "label": "058",
    "text": "{{anim id=\"5\"}}Oh, du trägst wieder deinen\nleckeren Obsthut!{{delay frames=\"20\"}} {{anim id=\"1\"}}Da läuft mir\ndas Wasser im Mund zusammen!"
  },
  {
    "label": "059",
    "text": "{{anim id=\"13\"}}Heute wachsen dir schon wieder\nHörner aus dem Kopf!{{delay frames=\"20\"}} {{anim id=\"1\"}}Ach nein,\ndas ist nur wieder dein Hut..."
  },
  {
    "label": "060",
    "text": ""
  },
  {
    "label": "061",
    "text": ""
  },
  {
    "label": "062",
    "text": ""
  },
  {
    "label": "063",
    "text": ""
  },
  {
    "label": "064",
    "text": "{{anim id=\"1\"}}Ich habe endlich das Buch\n„{{fun_001D0005 arg=\"0x0000\"}}“\nausgelesen.\n{{anim id=\"5\"}}Angeblich gibt es auch bald eine\nFortsetzung davon, auf die ich\nmich schon richtig freue!\nIch weiß zwar nicht, wann sie\nrauskommt...{{delay frames=\"10\"}} Aber bestimmt wird\ndas Ende dann total überraschend!\n{{anim id=\"9\"}}Langweile ich dich, {{fun_00080005 arg=\"\"}}?{{delay frames=\"20\"}}\nDu guckst mich schon wieder so\nseltsam an.{{delay frames=\"8\"}}.{{delay frames=\"8\"}}.\n{{anim id=\"15\"}}Huch!{{delay frames=\"30\"}} {{anim id=\"2\"}}Oh, hihihihi!{{delay frames=\"20\"}} Du trägst nur\nwieder {{fun_0008000E arg=\"0x01CD0600640065006E0006006400690065000600640061007300\"}} {{fun_00030011 arg=\"0x0100\"}}!{{anim id=\"37\"}}"
  },
  {
    "label": "065",
    "text": "{{anim id=\"13\"}}Du trägst ja immer noch {{fun_0008000E arg=\"0x01CD0C006400650069006E0065006E000A006400650069006E00650008006400650069006E00\"}}\n{{fun_00030011 arg=\"0x0100\"}}...{{delay frames=\"20\"}}{{anim id=\"9\"}} Ist deine\nErkältung denn noch nicht besser?!\n{{anim id=\"37\"}}Ich hoffe, du wirst\nbald wieder gesund!"
  },
  {
    "label": "066",
    "text": ""
  },
  {
    "label": "067",
    "text": ""
  },
  {
    "label": "068",
    "text": ""
  }
]