﻿[
  {
    "label": "001",
    "text": "{{anim id=\"37\"}}So,{{delay frames=\"10\"}} komm doch rein!{{anim id=\"38\"}}"
  },
  {
    "label": "002",
    "text": "{{anim id=\"1\"}}Fühl dich wie zu Hause!"
  },
  {
    "label": "003",
    "text": "{{anim id=\"37\"}}Willkommen in meinem bescheidenen\nHeim, hihi!"
  },
  {
    "label": "004",
    "text": "{{anim id=\"1\"}}Oh!{{delay frames=\"10\"}} Du bist aber früh dran!"
  },
  {
    "label": "005",
    "text": "{{anim id=\"1\"}}Oh!{{delay frames=\"10\"}} Komm ruhig rein! {{delay frames=\"20\"}}{{anim id=\"37\"}}Ich hätte\ndamit rechnen sollen, dass du\netwas früher kommst, {{fun_00080005 arg=\"\"}}!"
  },
  {
    "label": "006",
    "text": "{{anim id=\"5\"}}Willkommen!{{delay frames=\"20\"}} \nDu bist ganz schön früh dran..."
  },
  {
    "label": "007",
    "text": "{{anim id=\"5\"}}Oh, {{delay frames=\"10\"}}hallo!"
  },
  {
    "label": "008",
    "text": "{{anim id=\"1\"}}Willkommen!{{delay frames=\"20\"}} {{anim id=\"5\"}}Komm ruhig rein!"
  },
  {
    "label": "009",
    "text": "{{anim id=\"5\"}}Schön, dich zu sehen, {{fun_00080005 arg=\"\"}}!{{delay frames=\"10\"}}\nIch hab schon auf dich gewartet."
  }
]