﻿[
  {
    "label": "001",
    "text": "{{anim id=\"14\"}}{{size value=\"150\"}}WAAAH! {{delay frames=\"20\"}}AUAAAA!{{pageBreak}}{{size value=\"100\"}}{{anim id=\"7\"}}Menno, {{delay frames=\"10\"}}warum haust du mich denn,\n{{delay frames=\"10\"}}{{fun_00070005 arg=\"\"}}?{{fun_0003000B arg=\"0x03CD\"}}"
  },
  {
    "label": "002",
    "text": "{{anim id=\"7\"}}Hey! {{delay frames=\"20\"}}Das tut weh, ja?!?{{pageBreak}}{{anim id=\"6\"}}Warum schmeißt du mir nicht gleich\n{{fun_0008000E arg=\"0x01CD0A00650069006E0065006E000800650069006E0065000600650069006E00\"}} {{fun_00100005 arg=\"0x0100\"}} an den\nKopf, {{delay frames=\"10\"}}{{fun_00070005 arg=\"\"}}!{{fun_0003000B arg=\"0x03CD\"}}"
  },
  {
    "label": "003",
    "text": "{{anim id=\"7\"}}{{size value=\"150\"}}AUA! {{delay frames=\"20\"}}MENNOOO!{{pageBreak}}{{size value=\"100\"}}{{anim id=\"6\"}}Was soll das?{{fun_00010007 arg=\"\"}} Hör {{delay frames=\"10\"}}sofort {{delay frames=\"10\"}}auf {{delay frames=\"10\"}}damit,\n{{delay frames=\"10\"}}{{fun_00070005 arg=\"\"}}!{{fun_0004000B arg=\"0x03CD\"}}"
  },
  {
    "label": "004",
    "text": "{{anim id=\"8\"}}Jetzt reicht's mir aber!\n{{delay frames=\"20\"}}Was ist denn mit DIR los?!?{{pageBreak}}Dir ist klar, dass du auf meiner\nSympathieskala gerade ganz schön\nviele Minuspunkte einfährst, {{delay frames=\"10\"}}oder?!{{fun_0004000B arg=\"0x03CD\"}}"
  }
]