﻿[
  {
    "label": "001",
    "text": "{{anim id=\"29\"}}Wuuhuuu! {{delay frames=\"20\"}}Heute ist {{color id=\"2\"}}Karneval{{color id=\"65535\"}}!\n{{delay frames=\"20\"}}Das gibt's nur einmal im Jahr, also\nlass uns das Beste draus machen!\n{{anim id=\"5\"}}Das ist der einzige Tag im Jahr, an\ndem ich abtanzen kann, ohne dass\nauch nur einer dumm guckt!\n{{fun_0003000E arg=\"\"}}{{fun_00070005 arg=\"\"}}! {{delay frames=\"20\"}}Wuuuhuuuu!"
  },
  {
    "label": "002",
    "text": "{{anim id=\"2\"}}Wow! {{delay frames=\"20\"}}{{color id=\"2\"}}Federn{{color id=\"65535\"}}, die vom Himmel\nfallen! {{delay frames=\"20\"}}Hast du sie gesehen,\n{{fun_00080005 arg=\"\"}}?\n{{anim id=\"42\"}}Heute ist der zauberhafteste Tag\nüberhaupt! {{delay frames=\"20\"}}{{anim id=\"36\"}}Willst du auch ein paar\n{{color id=\"2\"}}Federn {{color id=\"65535\"}}haben, {{fun_00080005 arg=\"\"}}?\nAber sicher willst du das!\n{{delay frames=\"20\"}}{{anim id=\"44\"}}Das sind schließlich {{color id=\"2\"}}Federn{{color id=\"65535\"}}!\n{{delay frames=\"20\"}}Cooler geht's ja wohl kaum!\n{{anim id=\"39\"}}Und ich weiß auch, wie man an\nwelche rankommt... {{delay frames=\"20\"}}Ich werd aber\nnichts verraten!\n{{anim id=\"2\"}}Zumindest jetzt noch nicht! {{delay frames=\"20\"}}Hi hi hi!"
  },
  {
    "label": "003",
    "text": ""
  },
  {
    "label": "004",
    "text": ""
  },
  {
    "label": "005",
    "text": "{{anim id=\"38\"}}Wow, {{fun_00000005 arg=\"\"}}! {{delay frames=\"20\"}}{{anim id=\"4\"}}Schau uns an!\n{{delay frames=\"20\"}}Wir sind ja heute die totalen\nMode-Zwillinge! {{delay frames=\"20\"}}Wuuhuu!\n{{anim id=\"42\"}}Komm schon, lass uns abhotten!"
  },
  {
    "label": "006",
    "text": "{{anim id=\"1\"}}Oooh, {{fun_00000005 arg=\"\"}}!\n{{delay frames=\"20\"}}Dein Outfit ist so spritzig und voller\nLeidenschaft – genau wie {{color id=\"2\"}}Karneval{{color id=\"65535\"}}!\n{{anim id=\"29\"}}Du bekommst dafür jetzt von mir\ndas begehrte {{fun_00010005 arg=\"\"}}-Prädikat\nfür untrüglichen Sinn für Style!{{pageBreak}}Komm schon, lass uns diese Party\naufmischen und richtig abrocken!"
  },
  {
    "label": "007",
    "text": "{{anim id=\"2\"}}Wenn {{color id=\"2\"}}Karneval{{color id=\"65535\"}} ist, muss ich einfach\nrausgehen und {{anim id=\"5\"}}meinen süßen kleinen\nAllerwertesten schwingen!\nKomm schon, wir müssen tanzen,\nbis uns schwarz vor Augen wird!"
  },
  {
    "label": "008",
    "text": "Hey, {{fun_00000005 arg=\"\"}}!\n{{delay frames=\"20\"}}{{anim id=\"31\"}}Überlass das Tanzen ruhig mir!{{pageBreak}}{{anim id=\"33\"}}Ich hab 364 Tage damit zugebracht,\nmeine besten {{color id=\"2\"}}Karnevals{{color id=\"65535\"}}-Moves zu\nperfektionieren! {{fun_00010007 arg=\"\"}}{{anim id=\"42\"}}Tadaa!"
  },
  {
    "label": "009",
    "text": "{{anim id=\"35\"}}WUU-HUU! {{delay frames=\"20\"}}Alle sind total hin und\nweg von meinen Tanzmoves!{{fun_00010007 arg=\"\"}}\n{{anim id=\"44\"}}Keine geht so ab wie ich!"
  },
  {
    "label": "010",
    "text": "{{anim id=\"1\"}}{{fun_0003000E arg=\"\"}}{{fun_00080005 arg=\"\"}}!{{pageBreak}}Warum schmeißt du dich nicht in\ndeine Tanzschuhe und legst mit mir\n'ne heiße Sohle aufs Parkett, hm?\n{{anim id=\"42\"}}Heute ist der Tag, an dem du 24\nStunden abtanzen kannst, ohne dass\nes jemanden juckt, {{delay frames=\"10\"}}{{fun_00070005 arg=\"\"}}!"
  },
  {
    "label": "011",
    "text": "{{anim id=\"38\"}}Wie läuft es so an der Abhottfront,\n{{fun_00000005 arg=\"\"}}?{{pageBreak}}{{anim id=\"42\"}}Bei mir ganz gut, falls du's noch\nnicht bemerkt hast! {{delay frames=\"20\"}}Hahahahaha!{{pageBreak}}{{anim id=\"2\"}}Tanzen ist wirklich ganz einfach!\n{{delay frames=\"20\"}}Mach dir nicht zu viele Gedanken\nüber deine Technik...\n{{anim id=\"3\"}}Mach einfach die Augen zu und lass\ndich vom Beat leiten!"
  },
  {
    "label": "012",
    "text": "{{anim id=\"1\"}}Oooh! {{delay frames=\"20\"}}Da liegt was in der Luft!\n{{delay frames=\"20\"}}Kannst du es fühlen, {{fun_00000005 arg=\"\"}}?{{pageBreak}}{{anim id=\"42\"}}Ich strotze heute früh nur so vor\nEnergie und Vorfreude!"
  },
  {
    "label": "013",
    "text": "{{anim id=\"42\"}}Meinst du, du hast schon alles von\n{{fun_00010005 arg=\"\"}} gesehen? {{delay frames=\"20\"}}Vergiss es!\n{{delay frames=\"20\"}}{{anim id=\"29\"}}Ich bin noch lange nicht müde!"
  },
  {
    "label": "014",
    "text": "{{anim id=\"1\"}}Wow, ist es echt schon Abend?{{pageBreak}}{{anim id=\"42\"}}Ich hab so viel und so lange getanzt,\ndass ich {{color id=\"2\"}}Karnevals{{color id=\"65535\"}}blasen an meinen\nsüßen kleinen Zehen habe!"
  },
  {
    "label": "015",
    "text": ""
  },
  {
    "label": "016",
    "text": ""
  },
  {
    "label": "017",
    "text": ""
  },
  {
    "label": "018",
    "text": ""
  },
  {
    "label": "019",
    "text": ""
  },
  {
    "label": "020",
    "text": ""
  },
  {
    "label": "021",
    "text": "Oh, wowie! {{delay frames=\"20\"}}{{anim id=\"29\"}}Das klingt echt so, als\nhätten alle draußen total viel Spaß\nam {{color id=\"2\"}}Karneval{{color id=\"65535\"}}, {{delay frames=\"10\"}}{{fun_00070005 arg=\"\"}}!\n{{anim id=\"13\"}}Was mach ich eigentlich noch hier\ndrinnen?{{pageBreak}}{{anim id=\"42\"}}Ich muss raus und allen zeigen,\nwie man RICHTIG Party macht!"
  },
  {
    "label": "022",
    "text": "{{anim id=\"38\"}}Wow, die Leute draußen scheinen\nrichtig abzugehen! {{delay frames=\"20\"}}{{anim id=\"5\"}}Wenn ich Musik\nhör, muss ich einfach tanzen!"
  },
  {
    "label": "023",
    "text": "{{anim id=\"31\"}}Ich hab gehört, heute ist voll der\n{{color id=\"2\"}}Karnevals{{color id=\"65535\"}}star bei uns in der Stadt!{{pageBreak}}Jemand, der wirklich weiß, {{anim id=\"42\"}}wie man\ndie Schwanzfedern schüttelt, {{delay frames=\"10\"}}yeah!"
  },
  {
    "label": "024",
    "text": "{{anim id=\"1\"}}Hör mal, die Musik da draußen!\n{{delay frames=\"20\"}}{{anim id=\"42\"}}Spürst du nicht auch den Rhythmus\nin deinem Innersten, {{fun_00080005 arg=\"\"}}?\n{{anim id=\"33\"}}Ich bin die Discokönigin, ich weiß,\nwovon ich rede! {{delay frames=\"20\"}}HA!"
  },
  {
    "label": "025",
    "text": "{{anim id=\"4\"}}Ich fahr einfach total auf {{color id=\"2\"}}Karneval{{color id=\"65535\"}}\nab! {{delay frames=\"20\"}}Das ist der einzige Tag im Jahr,\nan dem wirklich alle in {{fun_00050005 arg=\"\"}}\nzusammenkommen, um mal so\nrichtig einen draufzumachen!{{pageBreak}}All der Jubel und das Gelächter\nmachen mich totaaaal glücklich,\n{{fun_00070005 arg=\"\"}}!"
  },
  {
    "label": "026",
    "text": "{{anim id=\"42\"}}Ich kann heute einfach nicht mit\nTanzen aufhören! {{delay frames=\"20\"}}Das muss an der\nfetzigen {{color id=\"2\"}}Karnevals{{color id=\"65535\"}}musik liegen!\n{{anim id=\"5\"}}Hast du's heute auch schon so\nrichtig krachen lassen, {{fun_00080005 arg=\"\"}}?"
  },
  {
    "label": "027",
    "text": "{{anim id=\"27\"}}Oh, Mann! {{delay frames=\"20\"}}Ich hab's heute echt total\nverpeilt, Mittag zu essen! {{delay frames=\"20\"}}{{anim id=\"38\"}}Ich war\neinfach so mit Tanzen beschäftigt!\n{{anim id=\"21\"}}Aber das passiert halt schnell mal,\nwenn man in einer so fetzigen Stadt\nwie {{fun_00050005 arg=\"\"}} lebt, was?"
  },
  {
    "label": "028",
    "text": "{{anim id=\"1\"}}So langsam sollte diese Party ja\nmal zu Ende gehen...{{pageBreak}}Aber hört sich so an, als würden\nalle bis zum Morgengrauen\ndurchtanzen!\n{{anim id=\"5\"}}Ich hatte heute den ganzen Tag so\nwahnsinnig viel Spaß – auch wenn\nich im Haus festsaß, {{delay frames=\"10\"}}{{fun_00070005 arg=\"\"}}!"
  },
  {
    "label": "029",
    "text": ""
  },
  {
    "label": "030",
    "text": ""
  },
  {
    "label": "031",
    "text": ""
  },
  {
    "label": "032",
    "text": "{{anim id=\"16\"}}Ah! {{delay frames=\"20\"}}{{fun_0003000E arg=\"\"}}{{fun_00080005 arg=\"\"}}!\n{{delay frames=\"20\"}}Stopp, {{delay frames=\"10\"}}warte mal! {{delay frames=\"20\"}}Hast du da echt\n{{fun_0008000E arg=\"0x00CD0A00650069006E0065006E000800650069006E0065000600650069006E00\"}} {{fun_00030011 arg=\"0x0000\"}}?!?\n{{anim id=\"13\"}}Ich bin ja so neidisch! {{delay frames=\"20\"}}Du musst \n{{fun_0008000E arg=\"0x00CD0600640065006E0006006400690065000600640061007300\"}} unbedingt gegen {{fun_0008000E arg=\"0x01CD0C006D00650069006E0065006E000A006D00650069006E00650008006D00650069006E00\"}}\n{{fun_00030011 arg=\"0x0100\"}} tauschen!{{fun_0005000F arg=\"0x15002800\"}}\nKlar, gern!\nTräum weiter."
  },
  {
    "label": "033",
    "text": "{{anim id=\"17\"}}Wow, wowie, wow, {{fun_00080005 arg=\"\"}}!\n{{delay frames=\"20\"}}Ich kann's echt nicht fassen, dass du\n{{fun_0008000E arg=\"0x00CD0A00650069006E0065006E000800650069006E0065000600650069006E00\"}} {{fun_00030011 arg=\"0x0000\"}} hast!\n{{anim id=\"13\"}}Ich brauch ganz unbedingt dringend\nauch so {{fun_0008000E arg=\"0x00CD0A00650069006E0065006E000800650069006E0065000800650069006E007300\"}}!{{pageBreak}}{{anim id=\"1\"}}Warum tauscht du {{fun_0008000E arg=\"0x00CD0600690068006E000600730069006500040065007300\"}} nicht gegen\n{{fun_0008000E arg=\"0x01CD0C006D00650069006E0065006E000A006D00650069006E00650008006D00650069006E00\"}} {{fun_00030011 arg=\"0x0100\"}}?{{fun_0005000F arg=\"0x15002800\"}}\nOkay!\nGuter Witz."
  },
  {
    "label": "034",
    "text": "{{anim id=\"5\"}}Spitzenmäßig! {{delay frames=\"20\"}}Lass uns tauschen!"
  },
  {
    "label": "035",
    "text": "{{anim id=\"4\"}}Meinst du das ernst? {{delay frames=\"20\"}}Wow!\n{{delay frames=\"20\"}}Heute muss mein Glückstag sein!"
  },
  {
    "label": "036",
    "text": "{{anim id=\"5\"}}Abgefahren! {{delay frames=\"20\"}}{{fun_0003000E arg=\"\"}}{{fun_00070005 arg=\"\"}}!"
  },
  {
    "label": "037",
    "text": "{{anim id=\"1\"}}Spitze! {{delay frames=\"20\"}}Danke!"
  },
  {
    "label": "038",
    "text": "{{anim id=\"24\"}}Im Ernst jetzt? {{delay frames=\"20\"}}Ach menno..."
  },
  {
    "label": "039",
    "text": "{{anim id=\"27\"}}Pff! {{delay frames=\"20\"}}Du weißt ja gar nicht, was du\nverpasst, {{delay frames=\"10\"}}{{fun_00070005 arg=\"\"}}!"
  },
  {
    "label": "040",
    "text": ""
  },
  {
    "label": "041",
    "text": ""
  },
  {
    "label": "042",
    "text": "{{anim id=\"35\"}}Na, wie sieht's aus? {{delay frames=\"20\"}}Meinst du, du\nhast eine Glückssträhne?{{pageBreak}}{{anim id=\"29\"}}Lass uns ein Spiel spielen!\n{{delay frames=\"20\"}}Wenn du gewinnst, überlass ich dir\neine meiner hübschen Federn!\nAber wenn ich gewinne... {{delay frames=\"20\"}}krieg ich\neine von deinen!{{fun_0005000F arg=\"0x15002800\"}}\nBin dabei!\nKeine Lust!"
  },
  {
    "label": "043",
    "text": "{{anim id=\"1\"}}Hey, {{fun_00080005 arg=\"\"}}!\n{{anim id=\"28\"}}Ich geb dir eine Chance, mir eine\nFeder abzuluchsen!\nAlles, was du tun musst, ist, ein\nSpiel mit mir zu spielen! {{delay frames=\"20\"}}{{anim id=\"38\"}}Gewinnst\ndu, geb ich dir eine meiner Federn!\n{{anim id=\"35\"}}Aber wenn du verlierst, bekomm ich\neine von dir!{{fun_00010007 arg=\"\"}} {{anim id=\"23\"}}Was meinst du?\n{{delay frames=\"20\"}}Hast du Lust zu spielen?{{fun_0005000F arg=\"0x15002800\"}}\nKlingt lustig!\nNö, lass mal."
  },
  {
    "label": "044",
    "text": "{{anim id=\"24\"}}Wirklich? {{delay frames=\"20\"}}Echt schade...{{pageBreak}}{{anim id=\"38\"}}Aber du weißt ja, wo du mich finden\nkannst, falls du's dir anders\nüberlegen solltest!"
  },
  {
    "label": "045",
    "text": "{{anim id=\"27\"}}Echt mal! {{delay frames=\"20\"}}Es ist {{color id=\"2\"}}Karneval{{color id=\"65535\"}}! \n{{delay frames=\"20\"}}Du ruinierst die ganze Stimmung!"
  },
  {
    "label": "046",
    "text": "{{anim id=\"2\"}}Das ist es, was ich hören wollte!\n{{delay frames=\"20\"}}Komm schon, lass uns eine Runde\n{{color id=\"2\"}}Schere, {{delay frames=\"10\"}}Stein, {{delay frames=\"10\"}}Papier {{color id=\"65535\"}}spielen!{{fun_00120007 arg=\"0x00013B003C00\"}}"
  },
  {
    "label": "047",
    "text": "{{anim id=\"5\"}}Wuuhuuu! {{delay frames=\"20\"}}Supercool!\n{{delay frames=\"20\"}}Möge der Bessere gewinnen!\n{{delay frames=\"20\"}}Zeit für eine Partie {{color id=\"2\"}}Scharade{{color id=\"65535\"}}!{{fun_00120007 arg=\"0x01013B003C00\"}}"
  },
  {
    "label": "048",
    "text": "{{anim id=\"5\"}}Jippiiie! {{delay frames=\"20\"}}Zeit für eine Runde\n{{color id=\"2\"}}Guck mal da{{color id=\"65535\"}}! {{delay frames=\"20\"}}Dann zeig mal,\nwas du so draufhast!{{fun_00120007 arg=\"0x02013B003C00\"}}"
  },
  {
    "label": "049",
    "text": "{{anim id=\"10\"}}Ich hab mir noch gesagt, dass ich\nauf keinen Fall verlieren darf...\n{{delay frames=\"20\"}}Tja, jetzt ist es doch passiert...\n{{anim id=\"1\"}}Bitte schön, hier hast du {{fun_0008000E arg=\"0x01CD0C006D00650069006E0065006E000A006D00650069006E00650008006D00650069006E00\"}}\n{{fun_00030011 arg=\"0x0100\"}}!"
  },
  {
    "label": "050",
    "text": "{{anim id=\"27\"}}Tja, fair verloren, würd ich sagen.\n{{delay frames=\"20\"}}{{anim id=\"1\"}}Okay, hier hast du wie versprochen\n{{fun_0008000E arg=\"0x01CD0C006D00650069006E0065006E000A006D00650069006E00650008006D00650069006E00\"}} {{fun_00030011 arg=\"0x0100\"}}.\nIch wünsch dir viel Spaß damit,\n{{fun_00080005 arg=\"\"}}!"
  },
  {
    "label": "051",
    "text": "{{anim id=\"35\"}}Warum lässt du mich dir nicht {{fun_0008000E arg=\"0x00CD0600640065006E0006006400690065000600640061007300\"}}\n{{fun_00030011 arg=\"0x0000\"}} abnehmen,\nhm? {{delay frames=\"20\"}}Danke, {{delay frames=\"10\"}}sehr freundlich! {{delay frames=\"20\"}}Haha!"
  },
  {
    "label": "052",
    "text": "{{anim id=\"1\"}}Perfekt! {{delay frames=\"20\"}}Vielen Dank für {{fun_0008000E arg=\"0x00CD0600640065006E0006006400690065000600640061007300\"}}\n{{fun_00030011 arg=\"0x0000\"}}!"
  },
  {
    "label": "053",
    "text": "{{anim id=\"6\"}}{{color id=\"5\"}}(Wart's ab! {{delay frames=\"20\"}}Nächstes Mal verlier ich\nauf keinen Fall!){{color id=\"65535\"}}"
  },
  {
    "label": "054",
    "text": "{{anim id=\"37\"}}Lass uns bald mal wieder ein Spiel\nzusammen spielen, {{delay frames=\"10\"}}{{fun_00000005 arg=\"\"}}!"
  },
  {
    "label": "055",
    "text": "{{anim id=\"1\"}}Hey, in der Liebe und im Spiel ist\nalles erlaubt, nicht wahr? {{delay frames=\"20\"}}Nichts\nfür ungut!"
  },
  {
    "label": "056",
    "text": "{{anim id=\"5\"}}Cool! {{delay frames=\"20\"}}Lass uns bald mal wieder\nspielen, okay?"
  },
  {
    "label": "057",
    "text": ""
  },
  {
    "label": "058",
    "text": ""
  },
  {
    "label": "059",
    "text": "{{fun_00000009 arg=\"0x31003200\"}}"
  },
  {
    "label": "060",
    "text": "{{fun_00000009 arg=\"0x33003400\"}}"
  }
]