﻿[
  {
    "label": "001",
    "text": "{{fun_00010009 arg=\"0x030004000500\"}}"
  },
  {
    "label": "002",
    "text": "{{fun_00010009 arg=\"0x080009000C00\"}}"
  },
  {
    "label": "003",
    "text": "{{anim id=\"1\"}}Heute sehen wir den Mond in Best-\nform! {{delay frames=\"20\"}}Heute ist nämlich {{color id=\"2\"}}Autumn\nMoon{{color id=\"65535\"}}. {{delay frames=\"20\"}}{{anim id=\"29\"}}Das wird garantiert spitze!\n{{anim id=\"37\"}}Bei euch nennt ihr das doch {{color id=\"2\"}}Nacht\ndes Herbstmondes{{color id=\"65535\"}}, oder?{{pageBreak}}{{anim id=\"4\"}}Heute Nacht wird der gute Herr\nMond noch heller strahlen als sonst!\n{{delay frames=\"20\"}}{{anim id=\"32\"}}Genieß den Anblick, {{fun_00080005 arg=\"\"}}!"
  },
  {
    "label": "004",
    "text": "{{anim id=\"5\"}}Heute Nacht ist {{color id=\"2\"}}Autumn Moon{{color id=\"65535\"}}!\n{{delay frames=\"20\"}}Ich hab echt das ganze Jahr lang\nauf nichts anderes gewartet!\n{{anim id=\"1\"}}Das wird das Megaereignis!{{pageBreak}}{{anim id=\"21\"}}Aber vor allem muss ich mich heute\nso richtig herausputzen!{{pageBreak}}{{anim id=\"33\"}}Ich kann mich doch nicht vom Mond\nüberstrahlen lassen! {{delay frames=\"20\"}}{{anim id=\"2\"}}Hahaha!"
  },
  {
    "label": "005",
    "text": "{{anim id=\"1\"}}Heute Nacht beim {{color id=\"2\"}}Autumn Moon\n{{color id=\"65535\"}}wird der Mond einfach nur\natemberaubend aussehen!\n{{anim id=\"3\"}}Er wird dich umhauen, wenn du\nihn siehst!{{pageBreak}}{{anim id=\"43\"}}Kennst du das, wenn du zu viel\n{{fun_00100005 arg=\"0x0000\"}} isst und\ndein Bauch voll und rund wird?\n{{anim id=\"1\"}}Genau so wird der Mond heute\nNacht aussehen! {{delay frames=\"20\"}}{{anim id=\"2\"}}Keine Snacks\nmehr für dich, Herr Mond! {{delay frames=\"20\"}}HAHA!"
  },
  {
    "label": "006",
    "text": ""
  },
  {
    "label": "007",
    "text": ""
  },
  {
    "label": "008",
    "text": "{{anim id=\"1\"}}Was für ein schöner, großer und\nstrahlender {{color id=\"2\"}}Autumn Moon{{color id=\"65535\"}}!{{pageBreak}}{{anim id=\"43\"}}Bei euch nennt man dieses Fest\ndoch {{color id=\"2\"}}Nacht des Herbstmondes{{color id=\"65535\"}},\nnicht wahr? {{delay frames=\"20\"}}Auch ein cooler Name!\n{{anim id=\"40\"}}Tja, {{delay frames=\"10\"}}hoffentlich strahlt der Mond\nnicht heller als ich! {{delay frames=\"20\"}}{{anim id=\"44\"}}Schließlich bin\nich der Star hier in {{fun_00050005 arg=\"\"}}!"
  },
  {
    "label": "009",
    "text": "{{anim id=\"4\"}}Ich find's immer sooo toll, wie der\nMond zum {{color id=\"2\"}}Autumn Moon{{color id=\"65535\"}} aussieht!\n{{delay frames=\"20\"}}So rund und prall wie eine Orange!\n{{anim id=\"29\"}}Oder ein Keks! {{delay frames=\"20\"}}Oder eine Pizza!\n{{delay frames=\"20\"}}Oder ein Berliner!{{pageBreak}}Oder noch besser, wie ein großes,\nrundes, köstliches Hackbällchen!\n{{delay frames=\"20\"}}{{anim id=\"27\"}}Na toll, {{delay frames=\"10\"}}jetzt hab ich voll Hunger!"
  },
  {
    "label": "010",
    "text": ""
  },
  {
    "label": "011",
    "text": ""
  },
  {
    "label": "012",
    "text": "{{anim id=\"1\"}}{{color id=\"2\"}}Autumn Moon {{color id=\"65535\"}}heute wird bestimmt\ntotal cool! {{delay frames=\"20\"}}{{anim id=\"33\"}}Bei uns in {{fun_00050005 arg=\"\"}} hat\nman echt die beste Aussicht!{{pageBreak}}{{anim id=\"37\"}}Da, wo du wohnst, feiert man doch\nein ähnliches Fest, oder? {{delay frames=\"20\"}}{{anim id=\"21\"}}Heißt das\nnicht {{color id=\"2\"}}Nacht des Herbstmondes{{color id=\"65535\"}}?\n{{anim id=\"37\"}}Das ist DIE Nacht, wo die Herzen\naller Einwohner der Stadt im\nGleichklang schlagen.\nAlle fassen sich bei den Händen,\n{{anim id=\"4\"}}um zusammen den wunderschönen\nMond anzuhimmeln!\nIch sag dir was... {{delay frames=\"20\"}}Sollte ich mich\njemals Hals über Kopf verlieben...{{pageBreak}}Dann wäre heute Nacht genau\ndie richtige Nacht dafür!"
  }
]