﻿[
  {
    "label": "001",
    "text": "{{fun_00000009 arg=\"0x09000A00\"}}"
  },
  {
    "label": "002",
    "text": "{{anim id=\"37\"}}Nachmittage wie diese sind einfach\nnur total oberhübsch, {{delay frames=\"10\"}}{{fun_00070005 arg=\"\"}}!\n{{delay frames=\"20\"}}{{anim id=\"5\"}}Und später heute Nacht?{{pageBreak}}Da werden die Sterne wie funkelnde\nDiamanten am Nachthimmel\nentlangflitzen!"
  },
  {
    "label": "003",
    "text": "{{fun_00000009 arg=\"0x2D002E00\"}}"
  },
  {
    "label": "004",
    "text": "{{anim id=\"3\"}}Boah! {{delay frames=\"20\"}}Der eine Farbstreifen in dem\nRegenbogen da!{{pageBreak}}Das ist doch GENAU der Farbton\nvon {{fun_000E0005 arg=\"0x0000\"}}!{{delay frames=\"30\"}} {{anim id=\"36\"}}Oder bilde\nich mir das jetzt nur ein?"
  },
  {
    "label": "005",
    "text": "{{anim id=\"5\"}}Yeah, {{delay frames=\"10\"}}ein Doppelregenbogen!{{pageBreak}}Das ist, als würde man gleichzeitig\n{{fun_000E0005 arg=\"0x0000\"}} und\n{{fun_000E0005 arg=\"0x0100\"}} trinken!"
  },
  {
    "label": "006",
    "text": "{{anim id=\"1\"}}Ganz schön frisch heute, oder?\n{{delay frames=\"20\"}}Ich wette, der gesamte Himmel\nfriert bald ein!\n{{anim id=\"29\"}}Yay! {{delay frames=\"20\"}}Das würde bestimmt total\nhübsch aussehen, {{delay frames=\"10\"}}{{fun_00070005 arg=\"\"}}!"
  },
  {
    "label": "007",
    "text": "{{fun_00000009 arg=\"0x0B000C00\"}}"
  },
  {
    "label": "008",
    "text": "{{fun_00020009 arg=\"0x0D000E000F001000\"}}"
  },
  {
    "label": "009",
    "text": "{{anim id=\"1\"}}Das Wetter heute Morgen ist mehr\nals großartig, {{fun_00080005 arg=\"\"}}!{{pageBreak}}Und weißt du noch was?\n{{delay frames=\"20\"}}Heute Nacht wird's sogar noch\nviel, viel besser!\n{{anim id=\"5\"}}Yeah, {{delay frames=\"10\"}}ALLE Sterne werden am\nHimmel auf und ab tanzen,\n{{delay frames=\"10\"}}{{fun_00070005 arg=\"\"}}!"
  },
  {
    "label": "010",
    "text": "{{anim id=\"1\"}}Dieser Morgen ist SO sonnig! {{delay frames=\"20\"}}Ich\nmöchte nicht, dass er jemals\nzu Ende geht!{{fun_00010007 arg=\"\"}} {{anim id=\"17\"}}Ah, Moment mal!\nDas hieße ja, dass es gar nicht\nNacht werden würde! {{delay frames=\"20\"}}{{anim id=\"13\"}}Dann wünsch\nich mir das doch nicht.{{pageBreak}}Den Nachthimmel heute Abend\ndürfen wir schließlich auf gar keinen\nFall verpassen!\n{{anim id=\"38\"}}Der wird nämlich voller\nSternschnuppen sein!\n{{delay frames=\"20\"}}Genau wie im Märchen!"
  },
  {
    "label": "011",
    "text": "{{anim id=\"32\"}}Hey du! {{delay frames=\"20\"}}Hast du schon diesen\nVorhang aus Licht gesehen? {{delay frames=\"20\"}}{{anim id=\"4\"}}Darin\nwürd ich mich ja so gern einwickeln!\n{{anim id=\"1\"}}Es lohnt sich total, bei dieser Kälte\ndraußen zu sein, nur um etwas SO\nHübsches zu sehen, {{delay frames=\"10\"}}{{fun_00070005 arg=\"\"}}!"
  },
  {
    "label": "012",
    "text": "{{anim id=\"5\"}}Hast du es schon gesehen?\n{{delay frames=\"20\"}}Das Nordlicht ist da!{{pageBreak}}Es sitzt da oben und wartet darauf,\nvon uns bewundert zu werden!{{pageBreak}}{{anim id=\"16\"}}Es ist wie ein Vorhang aus Licht,\nder den ganzen Himmel bedeckt!{{pageBreak}}So einen Vorhang hätte ich ja auch\ngern in MEINEM Haus!"
  },
  {
    "label": "013",
    "text": "{{anim id=\"5\"}}An so einem Tag wie heute sollte\nich einfach mit {{fun_0008000E arg=\"0x00CD1C00650069006E0065006D0020006C00650063006B006500720065006E001C00650069006E006500720020006C00650063006B006500720065006E001C00650069006E0065006D0020006C00650063006B006500720065006E00\"}}\n{{fun_000E0005 arg=\"0x0000\"}} herumhüpfen!"
  },
  {
    "label": "014",
    "text": "{{anim id=\"37\"}}An Tagen wie heute hab ich immer\nvoll das Bedürfnis, mich schick zu\nmachen, {{delay frames=\"10\"}}{{fun_00070005 arg=\"\"}}!\n{{anim id=\"33\"}}Ich muss schließlich immer\nentsprechend meinem Status\nals Star angezogen sein!"
  },
  {
    "label": "015",
    "text": "{{anim id=\"3\"}}Tage wie diese sind perfekt für\nHobbys wie {{fun_00120005 arg=\"0x0000\"}}!\n{{delay frames=\"20\"}}Meinst du nicht, {{fun_00080005 arg=\"\"}}?"
  },
  {
    "label": "016",
    "text": "{{i10_8 arg=\"0x30003000120013001400150016001700\"}}"
  },
  {
    "label": "017",
    "text": ""
  },
  {
    "label": "018",
    "text": "{{fun_00010009 arg=\"0x1C001D001E00\"}}"
  },
  {
    "label": "019",
    "text": "{{i10_11 arg=\"0x101F002000CD\"}}"
  },
  {
    "label": "020",
    "text": "{{i10_11 arg=\"0x1023002400CD\"}}"
  },
  {
    "label": "021",
    "text": "{{fun_00010009 arg=\"0x250026002700\"}}"
  },
  {
    "label": "022",
    "text": "{{fun_00000009 arg=\"0x28002900\"}}"
  },
  {
    "label": "023",
    "text": "{{fun_00000009 arg=\"0x2A002B00\"}}"
  },
  {
    "label": "024",
    "text": ""
  },
  {
    "label": "025",
    "text": "{{anim id=\"3\"}}Hach, {{delay frames=\"10\"}}das Leben ist so toll, wenn\ndie Sonne scheint, {{delay frames=\"10\"}}{{fun_00070005 arg=\"\"}}!{{pageBreak}}Ich hab dann immer das Gefühl, als\nwürde der Himmel mich gaaanz fest\numarmen!"
  },
  {
    "label": "026",
    "text": "{{anim id=\"1\"}}Heute ist es so sonnig, dass ich...\n{{delay frames=\"20\"}}{{anim id=\"42\"}}unbedingt Pirouetten drehen\nmuss, {{delay frames=\"10\"}}{{fun_00070005 arg=\"\"}}!"
  },
  {
    "label": "027",
    "text": "{{anim id=\"1\"}}Ich kann's kaum glauben, wie sonnig\nund klar es heute ist! {{delay frames=\"20\"}}Ich hoffe, das\nbleibt ewig so, {{delay frames=\"10\"}}{{fun_00070005 arg=\"\"}}!"
  },
  {
    "label": "028",
    "text": "{{anim id=\"27\"}}Ganz schön wolkig heute, oder? {{delay frames=\"20\"}}Tja,\n{{delay frames=\"10\"}}da bleibt nur eins... {{delay frames=\"20\"}}{{anim id=\"33\"}}Doppelt so hell\nstrahlen, {{delay frames=\"10\"}}{{fun_00070005 arg=\"\"}}! {{delay frames=\"20\"}}Wuhuu!"
  },
  {
    "label": "029",
    "text": "{{anim id=\"37\"}}Irgendwann will ich mal einen Rock\ntragen, der genauso wattig und\nfluffig ist wie die Wolken da oben!\nDas wär's, {{delay frames=\"10\"}}{{delay frames=\"10\"}}{{fun_00070005 arg=\"\"}}!"
  },
  {
    "label": "030",
    "text": "{{anim id=\"1\"}}Heute ist der perfekte Tag, um\nSport zu treiben!{{delay frames=\"10\"}} Nicht zu heiß,\nnicht zu kalt.\nWie wär's mit einer Runde\n{{fun_00110005 arg=\"0x0000\"}}, {{fun_00080005 arg=\"\"}}?"
  },
  {
    "label": "031",
    "text": "{{anim id=\"13\"}}Mehr, mehr, mehr! {{delay frames=\"20\"}}Ich kann an einem\nTag wie heute einfach nicht genug\nvom Regen bekommen!\nAllein schon das Prasseln des\nRegens macht mich total glücklich!"
  },
  {
    "label": "032",
    "text": "{{fun_00000009 arg=\"0x21002200\"}}"
  },
  {
    "label": "033",
    "text": "{{anim id=\"13\"}}Was soll ich nur machen? {{delay frames=\"20\"}}Eigentlich\nwollte ich meine Tanz-Moves üben!{{pageBreak}}Aber wenn ich in dem Regen damit\nanfange, bin ich doch am Ende ga-\nrantiert mit Schlamm zugekleistert!"
  },
  {
    "label": "034",
    "text": "{{anim id=\"1\"}}Regengeräusche sind sooo hübsch!\n{{delay frames=\"20\"}}Wie ein Windglockenspiel, das uns\n{{fun_00140005 arg=\"0x0000\"}} vorspielt!"
  },
  {
    "label": "035",
    "text": "{{anim id=\"5\"}}Ich hab total Lust, einen neuen\nTanz zum Rhythmus des Regens\nzu choreographieren, {{delay frames=\"10\"}}{{fun_00070005 arg=\"\"}}!"
  },
  {
    "label": "036",
    "text": "{{anim id=\"13\"}}Oh Mann, {{delay frames=\"10\"}}heute regnet's echt stark!\nIch muss ja fast schon in der Stadt\nherumschwimmen, {{delay frames=\"10\"}}{{fun_00070005 arg=\"\"}}!"
  },
  {
    "label": "037",
    "text": "{{anim id=\"1\"}}Ich hab eben eine Schneeflocke auf\nder Zunge gehabt, die total nach\n{{fun_00100005 arg=\"0x0000\"}} schmeckte!"
  },
  {
    "label": "038",
    "text": "{{anim id=\"1\"}}Jede Schneeflocke ist einzigartig,\n{{fun_00070005 arg=\"\"}}!{{delay frames=\"20\"}} {{anim id=\"13\"}}Da war gerade eine,\ndie war total komisch geformt!\nDie sah aus wie eine Mischung aus\n{{fun_0008000E arg=\"0x00CD0A00650069006E0065006D000A00650069006E00650072000A00650069006E0065006D00\"}} {{fun_000F0005 arg=\"0x0000\"}} und\n{{fun_0008000E arg=\"0x01CD0A00650069006E0065006D000A00650069006E00650072000A00650069006E0065006D00\"}} {{fun_000F0005 arg=\"0x0100\"}}!"
  },
  {
    "label": "039",
    "text": "{{anim id=\"1\"}}An kalten Tagen liebe ich es, es mir\nmit einem guten Buch gemütlich\nzu machen!\n{{delay frames=\"20\"}}Ich bin noch nicht ganz sicher, was\nich als Nächstes lesen soll.\n{{delay frames=\"20\"}}Vielleicht...\n{{anim id=\"22\"}}Oh, cool! {{delay frames=\"20\"}}Ich glaub, ich werde mal\n„{{fun_001D0005 arg=\"0x0000\"}}“\nlesen, {{delay frames=\"10\"}}{{fun_00070005 arg=\"\"}}!"
  },
  {
    "label": "040",
    "text": "{{anim id=\"1\"}}Wow, heute kommt ganz schön viel\nSchnee runter! {{delay frames=\"20\"}}Und jede Flocke hat\neinen anderen Geschmack!\nWas war das hier...? {{delay frames=\"20\"}}{{anim id=\"5\"}}Mmm,\n{{fun_00100005 arg=\"0x0000\"}}! {{delay frames=\"20\"}}Und die hier...?\n{{delay frames=\"20\"}}Oooh, {{fun_00100005 arg=\"0x0100\"}}!\nUnd DIESE hier...? {{delay frames=\"20\"}}{{anim id=\"17\"}}Wi-der-lich!\n{{delay frames=\"20\"}}Ich hasse {{fun_0008000E arg=\"0x02CD12006500690073006B0061006C00740065006E0010006500690073006B0061006C007400650012006500690073006B0061006C00740065007300\"}}\n{{fun_00130005 arg=\"0x0200\"}}!"
  },
  {
    "label": "041",
    "text": "{{anim id=\"1\"}}Heute schneit es echt richtig stark!\n{{delay frames=\"20\"}}Das ist ja wie eine Schneeball-\nschlacht unter lauter kleinen Feen!"
  },
  {
    "label": "042",
    "text": "{{anim id=\"5\"}}Ich find's ja so hübsch, wie diese\nBlüten in der ganzen Stadt verteilt\nherumschweben.\nEs sieht fast so aus, als würden\nsie tanzen!{{pageBreak}}{{anim id=\"29\"}}Ich sollte ein Musikvideo mit Blüten\ndrehen, die um mich herum\nherabfallen!\nDas wär total künstlerisch,\n{{delay frames=\"10\"}}{{fun_00070005 arg=\"\"}}!"
  },
  {
    "label": "043",
    "text": "{{anim id=\"5\"}}Weißt du, was? {{delay frames=\"20\"}}All diese Blüten sind\nwie süße kleine Küsse, die im\nWind wehen, {{fun_00080005 arg=\"\"}}!\n{{anim id=\"13\"}}Stopp, {{delay frames=\"10\"}}stopp! {{delay frames=\"20\"}}Ist da auch einer für\nmich dabei? {{delay frames=\"20\"}}Ich will unbedingt einen\nhaben, {{delay frames=\"10\"}}{{fun_00070005 arg=\"\"}}!"
  },
  {
    "label": "044",
    "text": ""
  },
  {
    "label": "045",
    "text": "{{anim id=\"3\"}}Heute ist's, als würden Diamanten\nam Himmel entlangsausen!{{pageBreak}}Es wär so cool, wenn mal welche\nin meine Hände herabfallen würden,\n{{delay frames=\"10\"}}{{fun_00070005 arg=\"\"}}!"
  },
  {
    "label": "046",
    "text": "{{anim id=\"43\"}}Ich frag mich, ob meine Wünsche in\nErfüllung gehen, wenn ich sie mir bei\neiner Sternschnuppe wünsche!\nDas wär ja so schön, {{delay frames=\"10\"}}{{fun_00070005 arg=\"\"}}!\n{{delay frames=\"20\"}}{{anim id=\"21\"}}Drücke , um hoch in den\nSternenhimmel zu schauen!\nUnd halte Ausschau nach Stern-\nschnuppen, {{fun_00080005 arg=\"\"}}!\n{{delay frames=\"20\"}}{{anim id=\"29\"}}Das ist deine große Chance!\nDrücke , wenn du eine siehst, dann\nkannst du dir etwas wünschen!{{pageBreak}}{{anim id=\"28\"}}Und wer weiß, vielleicht geht's ja\nsogar in Erfüllung!"
  },
  {
    "label": "047",
    "text": ""
  },
  {
    "label": "048",
    "text": "{{i10_7 arg=\"0x310031003100320032003200\"}}"
  },
  {
    "label": "049",
    "text": "{{fun_00010009 arg=\"0x19001A001B00\"}}"
  },
  {
    "label": "050",
    "text": "{{fun_00010009 arg=\"0x0D000E000F00\"}}"
  }
]