﻿[
  {
    "label": "001",
    "text": "{{anim id=\"13\"}}Ich hab so Hunger! {{delay frames=\"20\"}}Ich brauch jetzt\nunbedingt 'ne {{color id=\"2\"}}Frucht{{color id=\"65535\"}}! {{delay frames=\"20\"}}Egal, welche!\n{{delay frames=\"20\"}}Bringst du mir eine, {{fun_00080005 arg=\"\"}}?{{fun_0005000F arg=\"0x15002800\"}}\nKlar, mach ich!\nKeine Zeit..."
  },
  {
    "label": "002",
    "text": "{{anim id=\"23\"}}Hey, ich versuch ja gerade mein\nLeben noch fetziger und stylisher\nzu gestalten!\nUnd der Schlüssel dazu sind...\n{{color id=\"2\"}}Früchte{{color id=\"65535\"}}! {{delay frames=\"20\"}}{{anim id=\"1\"}}Welche Art {{color id=\"2\"}}Frucht{{color id=\"65535\"}} ist\ndabei völlig egal.\nWie sieht's aus? {{delay frames=\"20\"}}Bringst du mir\neine, {{fun_00080005 arg=\"\"}}?{{fun_0005000F arg=\"0x15002800\"}}\nAber klaro!\nNee, mach ich nicht."
  },
  {
    "label": "003",
    "text": "{{anim id=\"1\"}}In letzter Zeit hab ich ständig Lust\nauf {{fun_00100005 arg=\"0x0100\"}}! {{delay frames=\"20\"}}Boah, {{delay frames=\"10\"}}ist\necht nicht normal, sag ich dir!\n{{anim id=\"13\"}}Ich kann doch aber nicht immer nur\nSüßkram futtern!{{pageBreak}}Also hab ich entschieden, dass ich\nstattdessen lieber {{color id=\"2\"}}Früchte {{color id=\"65535\"}}möchte.\n{{delay frames=\"20\"}}Ist mir egal, was für welche!{{fun_0005000F arg=\"0x15002800\"}}\nKannste haben!\nOch nö, keine Lust."
  },
  {
    "label": "004",
    "text": "{{anim id=\"1\"}}Behalt's bloß für dich, {{fun_00080005 arg=\"\"}}!\n{{delay frames=\"20\"}}In letzter Zeit bin ich total verrückt\nnach {{color id=\"2\"}}Früchten{{color id=\"65535\"}}.\nAber nach allen Sorten! {{delay frames=\"20\"}}{{anim id=\"5\"}}Früchte,\n{{delay frames=\"10\"}}Früchte, {{delay frames=\"10\"}}Früchte! {{delay frames=\"20\"}}Sooo lecker!{{pageBreak}}{{anim id=\"26\"}}Oje, {{delay frames=\"10\"}}jetzt kennst du mein dunkles\nGeheimnis... {{delay frames=\"20\"}}Bei {{color id=\"2\"}}Früchten{{color id=\"65535\"}} gerate ich\neinfach total in Ekstase!\nMeinst du, du kannst mir welche\nbesorgen?{{fun_0005000F arg=\"0x15002800\"}}\nEgal, welche? Klar!\nÄh, nee..."
  },
  {
    "label": "005",
    "text": "{{anim id=\"5\"}}Weißt du, was ich an unserem guten\nalten {{fun_00060005 arg=\"\"}} am tollsten\nfinde?\nUnsere Obstbäume! Ich sag's dir,\nich hätt gerade sooo Lust auf {{fun_0008000E arg=\"0x00CD0A00650069006E0065006E000800650069006E0065000600650069006E00\"}}\n{{fun_00060005 arg=\"\"}}-{{color id=\"2\"}}{{fun_00030011 arg=\"0x0000\"}}{{color id=\"65535\"}}!\n{{anim id=\"1\"}}Hey, {{delay frames=\"10\"}}würdest du mir vielleicht {{fun_0008000E arg=\"0x00CD0A00650069006E0065006E000800650069006E0065000600650069006E00\"}}\nbringen, sag mal?{{fun_0005000F arg=\"0x15002800\"}}\nSicher!\nNö."
  },
  {
    "label": "006",
    "text": "{{anim id=\"13\"}}Ich hab ein richtig großes Problem,\n{{fun_00080005 arg=\"\"}}.{{pageBreak}}Ich hab total Lust auf {{color id=\"2\"}}Früchte{{color id=\"65535\"}}, aber\nich will nicht, dass die Leute sehen,\nwie ich einen Baum schüttele!\nKannst du mir nicht {{fun_0008000E arg=\"0x00CD0A00650069006E0065006E000800650069006E0065000600650069006E00\"}}\n{{color id=\"2\"}}{{fun_00030011 arg=\"0x0000\"}}{{color id=\"65535\"}} bringen?{{fun_0005000F arg=\"0x15002800\"}}\nBin schon unterwegs!\nVergiss es..."
  },
  {
    "label": "007",
    "text": "{{anim id=\"10\"}}Also, ich hab da dieses Gerücht\ngehört...{{pageBreak}}{{color id=\"2\"}}{{fun_00030011 arg=\"0x0000\"}}{{color id=\"65535\"}} soll ja\ngerade die leckerste Obstsorte\nauf dem Markt sein!\n{{anim id=\"13\"}}Ich würde so gerne {{fun_0008000E arg=\"0x00CD0A00650069006E0065006E000800650069006E0065000800650069006E007300\"}} probieren,\naber die wachsen hier ja nicht.{{pageBreak}}Kannst du mir nicht schnell {{fun_0008000E arg=\"0x00CD0A00650069006E0065006E000800650069006E0065000600650069006E00\"}}\n{{color id=\"2\"}}{{fun_00030011 arg=\"0x0000\"}}{{color id=\"65535\"}} bringen?{{fun_0005000F arg=\"0x15002800\"}}\nAber sicher!\nNee, du..."
  },
  {
    "label": "008",
    "text": "{{anim id=\"1\"}}Ich hab gelesen, dass Stars pro Tag\n{{fun_0008000E arg=\"0x00CD0A00650069006E0065006E000800650069006E0065000600650069006E00\"}} {{color id=\"2\"}}{{fun_00030011 arg=\"0x0000\"}}{{color id=\"65535\"}} essen!{{pageBreak}}{{anim id=\"13\"}}Wenn die das tun, muss ich das auf\njeden Fall auch! {{delay frames=\"20\"}}Aber die Dinger\nwachsen hier ja leider nicht!\nKannst du mir nicht {{fun_0008000E arg=\"0x00CD0A00650069006E0065006E000800650069006E0065000800650069006E007300\"}} bringen?{{fun_0005000F arg=\"0x15002800\"}}\nKein Problem!\nKann nicht, sorry..."
  },
  {
    "label": "009",
    "text": "{{anim id=\"1\"}}Sag mal, hast du schon mal\nvon einer {{color id=\"2\"}}1a-Frucht {{color id=\"65535\"}}gehört,\n{{fun_00080005 arg=\"\"}}?\nDie sollen total megalecker sein und\nbesser als alle anderen Früchte!\n{{delay frames=\"20\"}}Irre, diese Frucht!\n{{anim id=\"1\"}}Ich würde sie ja wirklich gerne mal\nprobieren! {{delay frames=\"20\"}}Es wäre auch egal, was\nfür eine, Hauptsache, sie ist {{color id=\"2\"}}1a{{color id=\"65535\"}}!{{fun_0005000F arg=\"0x15002800\"}}\nBring ich dir!\nMach selbst..."
  },
  {
    "label": "010",
    "text": "{{anim id=\"27\"}}Oh Mann... {{delay frames=\"20\"}}Ich krieg gerade einfach\nkeine normalen Früchte runter,\n{{fun_00080005 arg=\"\"}}.\n{{anim id=\"13\"}}Aber eine {{color id=\"2\"}}1a-Frucht{{color id=\"65535\"}}?\n{{delay frames=\"20\"}}Dafür würde ich alles tun!{{pageBreak}}Es wär mir auch total egal, was für\neine. {{delay frames=\"20\"}}Hauptsache, sie ist {{color id=\"2\"}}1a{{color id=\"65535\"}}!{{fun_0005000F arg=\"0x15002800\"}}\nIch hol dir eine!\nNicht mein Problem."
  },
  {
    "label": "011",
    "text": ""
  },
  {
    "label": "012",
    "text": ""
  },
  {
    "label": "013",
    "text": ""
  },
  {
    "label": "014",
    "text": ""
  },
  {
    "label": "015",
    "text": "{{anim id=\"1\"}}Du ziehst für mich los?\n{{delay frames=\"20\"}}Oh Mann, ich kann's kaum\nerwarten, {{delay frames=\"10\"}}{{fun_00070005 arg=\"\"}}!"
  },
  {
    "label": "016",
    "text": "{{anim id=\"5\"}}Boah, du bist super, {{fun_00080005 arg=\"\"}}!\n{{delay frames=\"20\"}}Danke für deine Hilfe!"
  },
  {
    "label": "017",
    "text": "{{anim id=\"5\"}}Juhuuu! {{delay frames=\"20\"}}Du machst mich SO\nWAS von glücklich mit deiner\nHilfsbereitschaft, {{fun_00080005 arg=\"\"}}!"
  },
  {
    "label": "018",
    "text": "{{anim id=\"17\"}}Was? {{delay frames=\"20\"}}Du willst, dass ich mir mein\nEssen selbst pflücke, {{delay frames=\"10\"}}{{fun_00070005 arg=\"\"}}?\n{{delay frames=\"20\"}}{{anim id=\"12\"}}O-{{delay frames=\"10\"}}okay, {{fun_00080005 arg=\"\"}}."
  },
  {
    "label": "019",
    "text": "{{anim id=\"13\"}}Waas?!? {{delay frames=\"20\"}}Ich schätze, dann muss\nich wohl obstlos weiterleben,\n{{delay frames=\"10\"}}{{fun_00070005 arg=\"\"}}..."
  },
  {
    "label": "020",
    "text": "{{anim id=\"17\"}}Was?!{{delay frames=\"20\"}} {{anim id=\"9\"}}Aber mir schlägt doch sonst\nnie jemand was aus, {{delay frames=\"10\"}}{{fun_00070005 arg=\"\"}}..."
  }
]