﻿[
  {
    "label": "001",
    "text": "{{anim id=\"23\"}}Bist du auch hier, um dir dieses\ntrendige kleine Nest anzuschauen?{{pageBreak}}{{anim id=\"29\"}}Ich hab ja gehört, das hier soll im\nMoment die absolut angesagteste\nStadt sein!\n{{anim id=\"21\"}}Wir Trendtouristen sollten auf\njeden Fall zusammenhalten!{{pageBreak}}{{anim id=\"22\"}}Hey, {{delay frames=\"10\"}}lass uns doch Freunde sein!{{fun_00010007 arg=\"\"}}\n{{anim id=\"39\"}}Du kannst hier mit mir rumhängen,\nso oft du Lust hast!"
  },
  {
    "label": "002",
    "text": "{{anim id=\"37\"}}Du bist nur mal eben zu Besuch,\nwas? {{delay frames=\"20\"}}{{anim id=\"21\"}}Ich bin ja auch von außerhalb!{{pageBreak}}Ich hab gehört, dass {{fun_00050005 arg=\"\"}} die\ntotale Trendstadt sein soll!{{pageBreak}}{{anim id=\"27\"}}Anscheinend ist das hier DER Ort,\num zu sehen und gesehen zu werden!{{pageBreak}}{{anim id=\"9\"}}Ich hoff ja nur, dass die Paparazzi\nhier nicht so aufdringlich sind wie\ndie bei mir zu Hause!"
  },
  {
    "label": "003",
    "text": "{{anim id=\"27\"}}Ich war ja schon überall auf der\nWelt! {{delay frames=\"20\"}}{{anim id=\"1\"}}Aber diese Stadt ist einfach\nperfekt für eine kleine Auszeit!\n{{anim id=\"43\"}}Ich werd meine Zeit hier einfach\ndamit verbringen, {{fun_0008000E arg=\"0x00CD1800640065006E002000650069006E0020006F0064006500720018006400690065002000650069006E0020006F0064006500720018006400610073002000650069006E0020006F00640065007200\"}}\n{{fun_0008000E arg=\"0x00CD0E0061006E0064006500720065006E000C0061006E0064006500720065000C0061006E006400650072006500\"}} {{fun_001A0005 arg=\"0x00CD\"}} zu futtern...\nUnd natürlich den ganzen Stress\nvon mir abfallen zu lassen!{{pageBreak}}{{anim id=\"21\"}}Auch Promis brauchen mal\neine Auszeit von ihren Fans."
  },
  {
    "label": "004",
    "text": "{{anim id=\"15\"}}Ich kann's nicht fassen, dass diese\nStadt nicht in allen Reiseführern\ndrin ist.\nDas hier ist mit Abstand {{anim id=\"29\"}}{{delay frames=\"10\"}}die coolste\nStadt, die ich je besucht hab!{{pageBreak}}{{anim id=\"21\"}}Ich muss alles lernen, was es über\ndiese Stadt zu wissen gibt!{{pageBreak}}{{anim id=\"44\"}}Schließlich muss ich alles in meinen\nBlog über die heißesten Trends\nschreiben!"
  },
  {
    "label": "005",
    "text": "{{anim id=\"37\"}}Na, {{delay frames=\"10\"}}bist du nur zu Besuch hier?\n{{delay frames=\"20\"}}Ich auch! {{delay frames=\"20\"}}{{anim id=\"27\"}}Ich liebe diese Stadt, aber\nder Weg hierher ist ganz schön weit!\n{{anim id=\"29\"}}Ich wünschte, ich würde näher dran\nwohnen!{{delay frames=\"20\"}} Wow, dann wär ich ständig\nhier, sag ich dir!"
  },
  {
    "label": "006",
    "text": "{{anim id=\"32\"}}Hey du! {{delay frames=\"20\"}}Ich besuch gerade deine\nsüße kleine Stadt. {{delay frames=\"20\"}}{{anim id=\"38\"}}Du weißt schon,\nzelten und so.\n{{anim id=\"29\"}}Hier in {{fun_00050005 arg=\"\"}} ist es echt total\nentspannend. {{delay frames=\"20\"}}So viel frische Luft\nund die Natur!\n{{anim id=\"4\"}}Hach, {{delay frames=\"10\"}}ich bin hin und weg!"
  },
  {
    "label": "007",
    "text": "{{anim id=\"32\"}}Huhu! {{delay frames=\"20\"}}Hm, {{delay frames=\"10\"}}ich weiß, das kommt\njetzt etwas plötzlich, {{delay frames=\"10\"}}{{anim id=\"39\"}}aber ich hab\nbeschlossen, hier zu zelten.\n{{anim id=\"27\"}}Diesen Ausflug hab ich ja eigentlich\nauf den letzten Drücker geplant,\naber...\n{{anim id=\"21\"}}Ich bin megafroh, dass ich auf\ndie leise Stimme in meinem\nhübschen Köpfchen gehört hab!"
  },
  {
    "label": "008",
    "text": "{{anim id=\"44\"}}Meine superstylishe Wenigkeit ist\nwahrscheinlich das Letzte, was du\nhier erwartet hast, oder?\n{{anim id=\"27\"}}Ich hab ehrlich gesagt auch nicht\ngedacht, dass ich mal herkommen\nwürde...\n{{anim id=\"3\"}}Aber ich bin echt froh, dass ich's\ndoch getan hab!{{pageBreak}}Ich hab hier bei euch in {{fun_00050005 arg=\"\"}}\nauch gleich mal {{fun_0008000E arg=\"0x00CD0A00650069006E0065006E000800650069006E0065000600650069006E00\"}} {{fun_001A0005 arg=\"0x00CD\"}}\ngefuttert! {{delay frames=\"20\"}}{{anim id=\"4\"}}Einfach nur lecker!"
  },
  {
    "label": "009",
    "text": "{{anim id=\"43\"}}Ich frag mich, wo ich am besten\nmein Haus bauen sollte...{{pageBreak}}{{anim id=\"27\"}}Das sollte schon im trendigsten Teil\nder Stadt sein, {{delay frames=\"10\"}}{{fun_00070005 arg=\"\"}}!"
  },
  {
    "label": "010",
    "text": "{{anim id=\"11\"}}Wenn ich mein altes Leben aufgeb\nund hierherzieh, muss ich aber auch\nim trendigsten Teil der Stadt leben!\n{{anim id=\"29\"}}Sieht so aus, als müsste ich meine\nDetektivmütze aufsetzen und mich\nmal ein bisschen hier umsehen!"
  },
  {
    "label": "011",
    "text": "{{anim id=\"21\"}}Es ist wirklich wichtig, dass ich mich\nmit meinen Nachbarn verstehe.{{pageBreak}}Ich meine, {{delay frames=\"10\"}}{{anim id=\"39\"}}wir sitzen schließlich alle\nim selben Boot, wenn wir hier\nzusammen wohnen, {{delay frames=\"10\"}}oder nicht?\n{{anim id=\"38\"}}Ich glaub, ich schau mich noch ein\nbisschen hier um, {{anim id=\"29\"}}{{delay frames=\"10\"}}was hier für\nLeute leben!"
  },
  {
    "label": "012",
    "text": "{{anim id=\"1\"}}{{fun_0003000E arg=\"\"}}{{fun_00000011 arg=\"0x0000\"}} hat mich total davon\nüberzeugt, dass ich hierherziehen\nsoll. {{delay frames=\"20\"}}Tja, {{delay frames=\"10\"}}hier bin ich also!\n{{anim id=\"27\"}}Also, {{delay frames=\"10\"}}ich meinte, dass ich dann\nherziehen werde.{{pageBreak}}{{anim id=\"21\"}}Ich hab jetzt schon das Gefühl, dass\ndu und ich {{anim id=\"3\"}}gute Freunde und Nach-\nbarn sein werden. {{delay frames=\"20\"}}Du auch?"
  },
  {
    "label": "013",
    "text": "{{anim id=\"39\"}}{{fun_0003000E arg=\"\"}}{{fun_00000011 arg=\"0x0000\"}} musste ein bisschen\nÜberzeugungsarbeit leisten...{{pageBreak}}Aber ich hab mich entschieden,\n{{fun_0005000E arg=\"0x0C007300650069006E0065006E000A0069006800720065006E00\"}} Rat zu befolgen {{anim id=\"29\"}}und\nhierherzuziehen!\n{{anim id=\"44\"}}Dir macht es hoffentlich nichts aus,\ndass ein berühmter Star hier lebt!{{pageBreak}}{{anim id=\"22\"}}Hey, {{delay frames=\"10\"}}du kannst mir gerne jederzeit\ndie Stadt zeigen, wenn du willst!"
  },
  {
    "label": "014",
    "text": "{{anim id=\"1\"}}{{fun_0003000E arg=\"\"}}{{fun_00000011 arg=\"0x0000\"}} hat mich fast schon\nangebettelt, {{anim id=\"4\"}}hierherzuziehen...{{pageBreak}}Und ich hab's einfach nicht über\nmich gebracht, Nein zu sagen!{{pageBreak}}Außerdem {{anim id=\"29\"}}ist das hier ja eine\nziemlich coole Stadt.{{pageBreak}}Ich kann's kaum erwarten, noch\nmehr Leute aus {{fun_00050005 arg=\"\"}} kennen-\nzulernen, während ich hier zelte!"
  },
  {
    "label": "015",
    "text": "{{anim id=\"43\"}}Ich bin echt froh, dass ich mich\nentschlossen hab, hier draußen\nin der Wildnis zu zelten.\nMich mal so richtig schmutzig\nzu machen und so...{{pageBreak}}{{anim id=\"38\"}}Die viele frische Luft wirkt Wunder\nfür meinen Teint! {{delay frames=\"20\"}}{{anim id=\"3\"}}Quasi eine Gratis-\nschönheitsbehandlung!"
  },
  {
    "label": "016",
    "text": "{{anim id=\"38\"}}Ich hab Sterne in meinen Augen!\n{{delay frames=\"20\"}}{{anim id=\"9\"}}Oh, {{delay frames=\"10\"}}Moment mal... {{delay frames=\"20\"}}Eigentlich sind\ndie Sterne {{anim id=\"2\"}}ja oben am Himmel!\nHahaha! {{delay frames=\"20\"}}Zelten ist echt das Beste!"
  },
  {
    "label": "017",
    "text": "{{anim id=\"44\"}}Ich wette, niemand hier in der Stadt\nhat erwartet, dass ein Superstar wie\nich zum Zelten hierherkommt!\n{{anim id=\"39\"}}Ich hoffe ja, ich bring hier nicht zu\nviel Unruhe rein...{{pageBreak}}{{anim id=\"31\"}}Einfach weitermachen, Leute! \n{{delay frames=\"20\"}}Hier gibt's nichts zu sehen!"
  },
  {
    "label": "018",
    "text": "{{anim id=\"4\"}}Ist dieser Outdoor-Lifestyle nicht\neinfach herrlich? {{delay frames=\"20\"}}Der ist gerade\nauch richtig trendy!\n{{anim id=\"38\"}}Außerdem lern ich so auch\ngleichzeitig einen Haufen cooler\nneuer Leute kennen.\n{{anim id=\"29\"}}Wer hätte gedacht, dass dieser\n„Zurück zu Natur“-Trip so mega-\naufregend werden würde?"
  },
  {
    "label": "019",
    "text": "{{anim id=\"27\"}}Beim Zelten schmeckt Essen noch\nviel köstlicher als sonst! {{delay frames=\"20\"}}{{anim id=\"38\"}}Das muss\nan der vielen frischen Luft liegen!\n{{anim id=\"21\"}}Ich meine, {{fun_00100005 arg=\"0x0000\"}} ist ja\nso schon lecker. {{delay frames=\"20\"}}Aber beim Zelten\n{{anim id=\"31\"}}schmeckt {{fun_0008000E arg=\"0x00CD0400650072000600730069006500040065007300\"}} SUPERLECKER!"
  },
  {
    "label": "020",
    "text": "{{anim id=\"43\"}}Manchmal frage ich mich, wie es\nwäre, richtig hier zu leben, anstatt\neinfach nur zu Besuch zu sein...{{fun_0005000F arg=\"0x15002800\"}}\nCool! Zieh doch her!\nIst schon okay hier..."
  },
  {
    "label": "021",
    "text": "Weißt du, {{delay frames=\"10\"}}{{anim id=\"39\"}}ich bin total neidisch auf\ndich! {{delay frames=\"20\"}}Du lebst nämlich immer in\ndieser supercoolen Stadt...{{fun_0005000F arg=\"0x15002800\"}}\nZieh doch her!\nNa ja, geht so..."
  },
  {
    "label": "022",
    "text": "{{anim id=\"39\"}}Ich wette, wenn ich in so einer tollen\nStadt wie dieser hier leben würde,{{pageBreak}}{{anim id=\"3\"}}wäre ich noch viel glücklicher mit\nmeinem eh schon coolen Leben...{{fun_0005000F arg=\"0x15002800\"}}\nDann zieh hierher!\nWenn du meinst..."
  },
  {
    "label": "023",
    "text": "{{anim id=\"15\"}}Einfach nur okay?! {{delay frames=\"10\"}}Das kann ich\nnicht glauben!{{pageBreak}}{{anim id=\"27\"}}Also, ein bisschen mehr\nBegeisterung hätt ich irgendwie\nschon erwartet, {{delay frames=\"10\"}}{{fun_00070005 arg=\"\"}}!"
  },
  {
    "label": "024",
    "text": "{{anim id=\"15\"}}Ich bin schockiert, dass du dieses\nJuwel von einer Stadt nicht richtig\nzu schätzen weißt, {{delay frames=\"10\"}}{{fun_00070005 arg=\"\"}}!"
  },
  {
    "label": "025",
    "text": "{{anim id=\"11\"}}Hm, {{delay frames=\"10\"}}ich werd's wohl nie wirklich\nwissen, {{delay frames=\"10\"}}{{anim id=\"38\"}}außer ich zieh irgendwann\nhierher, {{delay frames=\"10\"}}{{fun_00070005 arg=\"\"}}!"
  }
]