﻿[
  {
    "label": "001",
    "text": "{{anim id=\"32\"}}{{fun_0003000E arg=\"\"}}{{fun_00060007 arg=\"\"}}Hi,{{delay frames=\"8\"}} {{fun_00080005 arg=\"\"}}{{fun_00070007 arg=\"\"}}!{{delay frames=\"40\"}}\n{{anim id=\"1\"}}Schön, {{delay frames=\"8\"}}dich hier zu sehen!{{pageBreak}}Heute ist {{color id=\"2\"}}Mittwinter{{color id=\"65535\"}}, {{delay frames=\"8\"}}mach dich also\nauf einen lichtarmen Tag gefasst,\n{{delay frames=\"8\"}}{{fun_00070005 arg=\"\"}}.\n{{anim id=\"2\"}}Hahaha!{{delay frames=\"20\"}} {{fun_0003000E arg=\"\"}}{{fun_00050005 arg=\"\"}} ist schon\nein seltsames Nest! {{anim id=\"23\"}}Oder gibt's das\nin {{fun_00060005 arg=\"\"}} etwa auch?"
  },
  {
    "label": "002",
    "text": "{{anim id=\"32\"}}Guten Morgen, {{fun_00080005 arg=\"\"}}!{{delay frames=\"20\"}}\nWillkommen in {{fun_00050005 arg=\"\"}}!{{pageBreak}}{{anim id=\"1\"}}Heute ist {{color id=\"2\"}}Mittwinter{{color id=\"65535\"}}.{{delay frames=\"20\"}}\nDarum bleibt es auch den\nganzen Tag über dunkel.\n{{anim id=\"33\"}}Mach am besten ab und zu\nein paar Kniebeugen! {{delay frames=\"20\"}}Die halten\ndich warm, {{delay frames=\"8\"}}{{fun_00070005 arg=\"\"}}."
  },
  {
    "label": "003",
    "text": "{{anim id=\"16\"}}Oh!{{delay frames=\"8\"}} {{fun_0003000E arg=\"\"}}{{fun_00080005 arg=\"\"}}!{{delay frames=\"20\"}}\nEs ist schon ziemlich schräg,\nheute einen Ausflug zu machen!\n{{anim id=\"1\"}}Heute ist {{color id=\"2\"}}Mittwinter{{color id=\"65535\"}}.\n{{delay frames=\"20\"}}Darum wird die Sonne den\nganzen Tag nicht scheinen.\n{{anim id=\"2\"}}Hahaha!{{delay frames=\"20\"}}\nDas klingt echt unglaublich,\n{{delay frames=\"8\"}}oder, {{delay frames=\"8\"}}{{fun_00070005 arg=\"\"}}?{{delay frames=\"20\"}}{{anim id=\"1\"}}"
  },
  {
    "label": "004",
    "text": "{{anim id=\"32\"}}{{fun_0003000E arg=\"\"}}{{fun_00060007 arg=\"\"}}Hey ho{{fun_00070007 arg=\"\"}}!{{delay frames=\"20\"}}\nToll, dass du hier bist, {{fun_00080005 arg=\"\"}}!{{pageBreak}}{{anim id=\"1\"}}Heute ist {{color id=\"2\"}}Mittwinter{{delay frames=\"8\"}}{{color id=\"65535\"}}.{{delay frames=\"8\"}}.{{delay frames=\"8\"}}.{{delay frames=\"20\"}} Da ist es\nselbst tagsüber stockdunkel!{{pageBreak}}{{anim id=\"2\"}}Du hast dir echt 'nen verrückten\nTag für deinen Besuch ausgesucht,\n{{delay frames=\"8\"}}{{fun_00070005 arg=\"\"}}."
  },
  {
    "label": "005",
    "text": "{{anim id=\"16\"}}{{fun_000A0007 arg=\"\"}}Hey!{{delay frames=\"8\"}} {{fun_0003000E arg=\"\"}}{{fun_00080005 arg=\"\"}}!{{delay frames=\"20\"}}\nWie lange bist du denn schon hier?{{pageBreak}}{{anim id=\"23\"}}Morgens, mittags, abends\nDunkelheit{{delay frames=\"8\"}}.{{delay frames=\"8\"}}.{{delay frames=\"8\"}}.{{delay frames=\"20\"}} Ziemlich\nungewöhnlich, oder?{{pageBreak}}{{anim id=\"21\"}}Das kommt daher, dass heute\n{{color id=\"2\"}}Mittwinter {{color id=\"65535\"}}ist, {{delay frames=\"8\"}}da scheint den\nganzen Tag keine Sonne.\n{{anim id=\"38\"}}Du musst dich also mit\nmeinem strahlenden Lächeln\nbegnügen, {{delay frames=\"8\"}}{{fun_00070005 arg=\"\"}}!"
  },
  {
    "label": "006",
    "text": "{{anim id=\"31\"}}{{delay frames=\"15\"}}Heeeey,{{fun_000B0007 arg=\"\"}} heeeeeeeey!{{delay frames=\"20\"}}{{anim id=\"37\"}}{{delay frames=\"40\"}}\n{{fun_0003000E arg=\"\"}}{{fun_00080005 arg=\"\"}} ist in {{fun_00050005 arg=\"\"}},\nLeute!\n{{anim id=\"33\"}}Eine fröhliche Begrüßung schenkt\ndoch gleich etwas Wärme, oder?{{pageBreak}}Heute ist {{color id=\"2\"}}Mittwinter{{color id=\"65535\"}}, {{delay frames=\"8\"}}es bleibt also\nden ganzen Tag dunkel.{{delay frames=\"20\"}} Mach das\nBeste draus, {{delay frames=\"8\"}}{{fun_00070005 arg=\"\"}}."
  },
  {
    "label": "007",
    "text": "{{anim id=\"16\"}}{{fun_000A0007 arg=\"\"}}Oh!{{delay frames=\"8\"}}\nWenn das mal nicht {{fun_00080005 arg=\"\"}} ist!{{delay frames=\"40\"}}\nBist du schon lange hier?\n{{anim id=\"0\"}}Heute ist {{color id=\"2\"}}Mittwinter{{color id=\"65535\"}}.{{delay frames=\"20\"}}\nDen ganzen Tag wird es nicht hell!{{pageBreak}}{{anim id=\"27\"}}Das sorgt für eine ganz schön\ngespenstische Stimmung.{{delay frames=\"20\"}}\nIrgendwie aufregend, {{delay frames=\"8\"}}{{fun_00070005 arg=\"\"}}!"
  },
  {
    "label": "008",
    "text": "{{anim id=\"32\"}}{{fun_0003000E arg=\"\"}}{{fun_00060007 arg=\"\"}}Hi,{{delay frames=\"8\"}} {{fun_00080005 arg=\"\"}}{{fun_00070007 arg=\"\"}}!{{delay frames=\"20\"}}\nDu bist wirklich an diesem eisigen\nAbend hierhergekommen?\n{{anim id=\"19\"}}Heute ist {{color id=\"2\"}}Mittwinter{{color id=\"65535\"}}, {{delay frames=\"8\"}}da zeigt\nsich der Winter von seiner\nfiesesten Seite{{delay frames=\"8\"}}.{{delay frames=\"8\"}}.{{delay frames=\"8\"}}.\n{{anim id=\"20\"}}Ich hoffe mal, du holst dir hier\nkeine Erkältung, {{fun_00070005 arg=\"\"}}.{{delay frames=\"20\"}}{{anim id=\"9\"}}"
  },
  {
    "label": "009",
    "text": "{{anim id=\"16\"}}{{fun_000A0007 arg=\"\"}}Oh!{{delay frames=\"8\"}} {{fun_0003000E arg=\"\"}}{{fun_00080005 arg=\"\"}}!{{delay frames=\"20\"}}\nBist du schon lange hier? {{pageBreak}}{{anim id=\"1\"}}Heute ist {{color id=\"2\"}}Mittwinter{{color id=\"65535\"}}.{{delay frames=\"20\"}}\nDen ganzen Tag war's stockfinster,{{delay frames=\"8\"}}\nsogar am Mittag!\n{{anim id=\"2\"}}Aber keine Panik!{{delay frames=\"20\"}} Das Leben in\n{{fun_00050005 arg=\"\"}} geht trotzdem seinen\ngewohnten Gang. {{delay frames=\"8\"}}{{fun_0003000E arg=\"\"}}{{fun_00070005 arg=\"\"}}!{{delay frames=\"20\"}}{{anim id=\"1\"}}"
  },
  {
    "label": "010",
    "text": "Guten Abend, {{fun_00080005 arg=\"\"}}!{{delay frames=\"40\"}}\n{{anim id=\"19\"}}Heute ist {{color id=\"2\"}}Mittwinter{{color id=\"65535\"}} {{delay frames=\"8\"}}und es ist\nso unglaublich k-{{delay frames=\"8\"}}k-{{delay frames=\"8\"}}kalt...\n{{anim id=\"38\"}}Aber wenigstens bist du auch hier.{{delay frames=\"20\"}}\nGeteiltes Leid ist schließlich\nhalbes Leid, {{delay frames=\"8\"}}{{fun_00070005 arg=\"\"}}."
  },
  {
    "label": "011",
    "text": "{{anim id=\"1\"}}Hey, hey, hey!{{delay frames=\"8\"}} {{fun_0003000E arg=\"\"}}{{fun_00080005 arg=\"\"}}!{{delay frames=\"40\"}}\n{{anim id=\"21\"}}Ich bin fast beeindruckt, dass du\nan so einem eisigen Tag herkommst.\n{{anim id=\"27\"}}Dir ist kalt?{{delay frames=\"20\"}} Klopf doch irgendwo\nan und wärm dich drinnen auf,\n{{delay frames=\"8\"}}{{fun_00070005 arg=\"\"}}!"
  }
]