﻿[
  {
    "label": "001",
    "text": "{{i10_8 arg=\"0x02000200030003000300030003000200\"}}"
  },
  {
    "label": "002",
    "text": "{{anim id=\"30\"}}Hatschiiiiii!{{delay frames=\"40\"}} Jeder gute Tag startet\nmit einem Begrüßungsnieser\nfür die Sonne, {{delay frames=\"8\"}}{{fun_00070005 arg=\"\"}}."
  },
  {
    "label": "003",
    "text": "{{anim id=\"31\"}}{{delay frames=\"15\"}}HEEEEEE{{fun_000B0007 arg=\"\"}}YAAAAA!{{delay frames=\"60\"}}{{anim id=\"37\"}} Es könnte zwar\nsonniger sein{{delay frames=\"8\"}}.{{delay frames=\"8\"}}.{{delay frames=\"8\"}}.{{delay frames=\"20\"}} Aber ich trainiere bei\nWind und Wetter, {{delay frames=\"8\"}}{{fun_00070005 arg=\"\"}}!"
  },
  {
    "label": "004",
    "text": "{{fun_0003000E arg=\"\"}}{{fun_00060007 arg=\"\"}}Hey, hey, hey!{{delay frames=\"8\"}} {{fun_0003000E arg=\"\"}}{{fun_00080005 arg=\"\"}}{{fun_00070007 arg=\"\"}}!{{delay frames=\"40\"}}\nDu scheinst heute gut in Form\nzu sein, {{delay frames=\"8\"}}{{fun_00070005 arg=\"\"}}."
  },
  {
    "label": "005",
    "text": "{{anim id=\"31\"}}{{delay frames=\"15\"}}Jetzt geht's los!{{delay frames=\"40\"}} Jetzt geht's los!{{pageBreak}}Hey{{delay frames=\"8\"}}.{{delay frames=\"8\"}}.{{delay frames=\"8\"}}.{{delay frames=\"8\"}} {{anim id=\"27\"}}{{delay frames=\"8\"}}Was ist los?{{delay frames=\"20\"}} Du musst mit\neinstimmen!{{delay frames=\"20\"}} Los, {{delay frames=\"8\"}}{{fun_00070005 arg=\"\"}}!{{delay frames=\"40\"}}\n{{anim id=\"31\"}}Jetzt geht's los!{{delay frames=\"40\"}} Jetzt geht's los!"
  },
  {
    "label": "006",
    "text": "{{anim id=\"32\"}}{{fun_0003000E arg=\"\"}}{{fun_00060007 arg=\"\"}}Hey, hey, hey,{{delay frames=\"8\"}} {{fun_00080005 arg=\"\"}}{{fun_00070007 arg=\"\"}}!{{delay frames=\"20\"}}\nHeute ist {{fun_00110005 arg=\"0x0000\"}} bis zum\nUmfallen angesagt, {{delay frames=\"8\"}}{{fun_00070005 arg=\"\"}}!"
  },
  {
    "label": "007",
    "text": "{{anim id=\"1\"}}{{fun_0003000E arg=\"\"}}{{fun_00060007 arg=\"\"}}Hi,{{delay frames=\"8\"}} {{fun_00080005 arg=\"\"}}{{fun_00070007 arg=\"\"}}!{{pageBreak}}Ich hoffe, du hast genug Kohlen-\nhydrate und Proteindrinks dabei,\n{{delay frames=\"8\"}}{{fun_00070005 arg=\"\"}}!"
  },
  {
    "label": "008",
    "text": "{{anim id=\"31\"}}{{delay frames=\"15\"}}HEEEEEE{{fun_000B0007 arg=\"\"}}YAAAAA!{{delay frames=\"60\"}}\n{{anim id=\"33\"}}Spüre meine Energie, {{delay frames=\"8\"}}{{fun_00070005 arg=\"\"}}!"
  },
  {
    "label": "009",
    "text": "{{anim id=\"1\"}}Hey ho!{{delay frames=\"20\"}}\nSiehst sportlich aus, {{delay frames=\"8\"}}{{fun_00070005 arg=\"\"}}!"
  },
  {
    "label": "010",
    "text": "{{i10_8 arg=\"0x0B000B000C000C000C000C000C000B00\"}}"
  },
  {
    "label": "011",
    "text": "{{fun_0003000E arg=\"\"}}{{fun_00060007 arg=\"\"}}Hey ho,{{delay frames=\"8\"}} {{fun_00080005 arg=\"\"}}{{fun_00070007 arg=\"\"}}!{{delay frames=\"40\"}}\n{{anim id=\"5\"}}Sieh dir nur mal die Sterne an.{{delay frames=\"20\"}}\nWow, {{delay frames=\"8\"}}{{fun_00070005 arg=\"\"}}!"
  },
  {
    "label": "012",
    "text": "{{anim id=\"32\"}}Hey,{{delay frames=\"8\"}} {{fun_00080005 arg=\"\"}}!{{delay frames=\"40\"}} {{anim id=\"1\"}}Mein Bauchgefühl \nsagt mir, dass es morgen freie Sicht\nauf den Himmel gibt, {{delay frames=\"8\"}}{{fun_00070005 arg=\"\"}}!"
  },
  {
    "label": "013",
    "text": "{{anim id=\"15\"}}Oh!{{delay frames=\"8\"}} {{fun_0003000E arg=\"\"}}{{fun_00080005 arg=\"\"}}!{{delay frames=\"40\"}}\n{{anim id=\"1\"}}{{fun_0003000E arg=\"\"}}{{fun_00050005 arg=\"\"}} ist so friedlich\num diese Zeit, {{delay frames=\"8\"}}{{fun_00070005 arg=\"\"}}."
  },
  {
    "label": "014",
    "text": "{{anim id=\"31\"}}{{delay frames=\"15\"}}HEEEEEE{{fun_000B0007 arg=\"\"}}YAAAAA!{{delay frames=\"60\"}}{{anim id=\"37\"}}{{delay frames=\"20\"}}\n{{anim id=\"0\"}}Der Tag ist fast rum...{{delay frames=\"40\"}}\n{{anim id=\"31\"}}Auf zum Endspurt, {{delay frames=\"8\"}}{{fun_00070005 arg=\"\"}}!"
  },
  {
    "label": "015",
    "text": "{{anim id=\"16\"}}Hey, {{fun_00080005 arg=\"\"}}!{{delay frames=\"40\"}}\n{{anim id=\"35\"}}Nur keine Müdigkeit vorschützen,\n{{delay frames=\"8\"}}{{fun_00070005 arg=\"\"}}!"
  },
  {
    "label": "016",
    "text": "{{anim id=\"20\"}}Brrrrr, {{fun_00080005 arg=\"\"}}!{{delay frames=\"40\"}}\nSo langsam wird's frisch,\n{{delay frames=\"8\"}}{{fun_00070005 arg=\"\"}}."
  },
  {
    "label": "017",
    "text": "{{anim id=\"32\"}}Hey!{{delay frames=\"8\"}} {{fun_0003000E arg=\"\"}}{{fun_00080005 arg=\"\"}}!{{delay frames=\"40\"}} Bist du immer\nnoch fit?{{delay frames=\"40\"}} Du Nachteule!{{pageBreak}}{{anim id=\"25\"}}Bei mir gehen so langsam\ndie Lichter aus, {{delay frames=\"8\"}}{{fun_00070005 arg=\"\"}}."
  },
  {
    "label": "018",
    "text": "{{anim id=\"32\"}}Hey ho,{{delay frames=\"8\"}} {{fun_00080005 arg=\"\"}}!{{delay frames=\"40\"}}\n{{anim id=\"1\"}}Du unterbrichst mein Mitternachts-\ntraining, {{delay frames=\"8\"}}{{fun_00070005 arg=\"\"}}!"
  }
]