﻿[
  {
    "label": "001",
    "text": "{{anim id=\"26\"}}Hey, {{delay frames=\"20\"}}äh... {{delay frames=\"20\"}}also...{{delay frames=\"20\"}}\nHör mal, {{delay frames=\"20\"}}ich... {{delay frames=\"20\"}}äh...{{delay frames=\"20\"}}\nDie Klamotten, die du anhast{{delay frames=\"8\"}}.{{delay frames=\"8\"}}.{{delay frames=\"8\"}}.\n{{anim id=\"31\"}}{{delay frames=\"15\"}}{{fun_000B0007 arg=\"\"}}Die stehen dir wirklich super!{{pageBreak}}{{anim id=\"17\"}}{{fun_000B0007 arg=\"\"}}Waaah!{{delay frames=\"20\"}} {{anim id=\"13\"}}Was rede ich denn da?{{delay frames=\"40\"}}\nTu einfach so, als hättest du mir\ngar nicht zugehört!"
  },
  {
    "label": "002",
    "text": "{{anim id=\"26\"}}W-{{delay frames=\"20\"}}wo siehst du denn hin?{{delay frames=\"20\"}}\nGefalle ich dir etwa?{{pageBreak}}{{anim id=\"17\"}}{{fun_000B0007 arg=\"\"}}Waaah!{{delay frames=\"20\"}}\n{{anim id=\"13\"}}Sieh mich bitte nicht so an!"
  },
  {
    "label": "003",
    "text": "{{anim id=\"1\"}}Du...{{delay frames=\"20\"}} wirkst heute irgendwie so\nanders als sonst!{{pageBreak}}{{anim id=\"26\"}}Viel{{delay frames=\"40\"}} weiblicher...{{delay frames=\"20\"}}\nund irgendwie {{delay frames=\"40\"}}süß{{delay frames=\"8\"}}.{{delay frames=\"8\"}}.{{delay frames=\"8\"}}.{{pageBreak}}{{anim id=\"18\"}}{{fun_000B0007 arg=\"\"}}Waaah!{{delay frames=\"20\"}} Was rede ich da?!?{{delay frames=\"40\"}}\n{{anim id=\"13\"}}{{fun_000B0007 arg=\"\"}}Vergiss das bitte sofort wieder!{{delay frames=\"20\"}}\n{{fun_000B0007 arg=\"\"}}Bitte!"
  },
  {
    "label": "004",
    "text": "{{anim id=\"32\"}}Hey, hey, hey! {{fun_0003000E arg=\"\"}}{{fun_00080005 arg=\"\"}}!{{delay frames=\"40\"}}\n{{anim id=\"1\"}}Du hast dich echt gemacht\nin letzter Zeit!{{pageBreak}}{{anim id=\"33\"}}Das ist ganz bestimmt das\nErgebnis deines harten Trainings!{{pageBreak}}{{anim id=\"37\"}}Irgendjemandem wollte ich heute\neinfach ein Kompliment machen,{{delay frames=\"20\"}} und\ndu hast es verdient, {{delay frames=\"8\"}}{{fun_00070005 arg=\"\"}}."
  },
  {
    "label": "005",
    "text": "{{anim id=\"6\"}}Das kommt jetzt vielleicht\nüberraschend,{{delay frames=\"20\"}} aber ich sehe in dir\nmeinen größten Rivalen!\n{{anim id=\"38\"}}Wir sind zwar Kumpels, aber wir\nstacheln uns gegenseitig auch immer\nwieder zu Spitzenleistungen an!\n{{anim id=\"1\"}}Eine freundschaftliche Rivalität\nist für so ehrgeizige Leute wie uns\nGold wert!"
  },
  {
    "label": "006",
    "text": "{{anim id=\"6\"}}{{fun_0003000E arg=\"\"}}{{fun_00080005 arg=\"\"}}!{{delay frames=\"20\"}} Wahre Stärke\nbedeutet nicht nur, von außen als\nMuskelpaket zu erscheinen.\n{{anim id=\"32\"}}Man muss auch die Muskeln\ntrainieren, die keiner sehen kann.{{delay frames=\"20\"}}\nWie zum Beispiel{{delay frames=\"8\"}}.{{delay frames=\"8\"}}.{{delay frames=\"8\"}}.{{pageBreak}}{{anim id=\"32\"}}den Seelenmuskel!{{delay frames=\"40\"}}{{pageBreak}}{{anim id=\"38\"}}Du hast ein gutes Herz, Kumpel!{{delay frames=\"40\"}}\nDeshalb mag ich dich!"
  },
  {
    "label": "007",
    "text": "{{anim id=\"1\"}}Hey, {{fun_00080005 arg=\"\"}}!{{delay frames=\"8\"}} Ich hab hier ein\nGeschenk für dich.{{delay frames=\"20\"}} Einfach so,{{delay frames=\"20\"}}\nals Zeichen meiner Freundschaft."
  },
  {
    "label": "008",
    "text": "Hey, {{delay frames=\"20\"}}{{fun_00080005 arg=\"\"}}.{{pageBreak}}Ich hab unter deinem Namen\nbei einem Preisausschreiben\nmitgemacht.{{delay frames=\"20\"}} Und gewonnen!{{pageBreak}}{{anim id=\"38\"}}Du hast echt Glück!{{fun_00010007 arg=\"\"}}\nHier, dein Preis!"
  },
  {
    "label": "009",
    "text": "{{anim id=\"1\"}}Ich dachte, du würdest dich über\ndas hier freuen, also hab ich's dir\ngekauft, {{delay frames=\"8\"}}{{fun_00070005 arg=\"\"}}.{{pageBreak}}{{anim id=\"32\"}}Sag nichts!{{delay frames=\"8\"}} Nimm's einfach!"
  },
  {
    "label": "010",
    "text": ""
  },
  {
    "label": "011",
    "text": "{{fun_00010009 arg=\"0x0C000D000E00\"}}"
  },
  {
    "label": "012",
    "text": "{{anim id=\"0\"}}Ich wollte dir heute einfach mal\nirgendwas schenken, {{delay frames=\"8\"}}{{fun_00070005 arg=\"\"}}."
  },
  {
    "label": "013",
    "text": "{{anim id=\"1\"}}Ich verlange von dir auch nichts im\nGegenzug.{{delay frames=\"20\"}} Ernsthaft, {{delay frames=\"8\"}}{{fun_00070005 arg=\"\"}}!"
  },
  {
    "label": "014",
    "text": "{{anim id=\"1\"}}Fühlt sich echt gut an, anderen eine\nFreude zu machen, {{delay frames=\"8\"}}{{fun_00070005 arg=\"\"}}."
  }
]