﻿[
  {
    "label": "001",
    "text": "{{anim id=\"32\"}}Hey ho,{{delay frames=\"8\"}} {{fun_00080005 arg=\"\"}}!{{delay frames=\"20\"}}\nWir feiern heute den Geburtstag von\n{{fun_0008000E arg=\"0x00CD260075006E007300720065006D002000530070006F0072007400730066007200650075006E0064002A0075006E0073007200650072002000530070006F0072007400730066007200650075006E00640069006E00260075006E007300720065006D002000530070006F0072007400730066007200650075006E006400\"}} {{fun_00010011 arg=\"0x0000\"}}!\n{{anim id=\"1\"}}Lassen wir's ordentlich krachen!{{delay frames=\"40\"}}\n{{anim id=\"2\"}}Haha!"
  },
  {
    "label": "002",
    "text": "{{anim id=\"1\"}}Hey, {{delay frames=\"8\"}}{{fun_00080005 arg=\"\"}}!{{delay frames=\"20\"}}\nDu bist doch bestimmt auch wegen\nder Geburtstagsfeier hier, {{delay frames=\"8\"}}oder?\n{{anim id=\"21\"}}Ich bin hier, {{delay frames=\"8\"}}obwohl ich heute zum\n{{fun_00110005 arg=\"0x0000\"}} verabredet war!"
  },
  {
    "label": "003",
    "text": "{{anim id=\"15\"}}Du bist spät dran,{{delay frames=\"8\"}} {{fun_00080005 arg=\"\"}}!{{pageBreak}}{{anim id=\"1\"}}Wir haben alle auf dich gewartet,\n{{delay frames=\"8\"}}{{fun_00070005 arg=\"\"}}!"
  },
  {
    "label": "004",
    "text": "{{anim id=\"23\"}}Hast du ein Geschenk mitgebracht?{{pageBreak}}{{anim id=\"33\"}}Meins hab ich dem Geburtstagskind\nschon gegeben. {{delay frames=\"40\"}}Und ich glaube, {{delay frames=\"8\"}}es\nhat ihm tierisch gut gefallen!"
  },
  {
    "label": "005",
    "text": "Ich hab {{fun_00010011 arg=\"0x0000\"}} {{fun_0008000E arg=\"0x00CD08007300650069006E00060069006800720008007300650069006E00\"}} Geschenk\nschon gegeben.{{pageBreak}}{{anim id=\"1\"}}Worauf wartest du denn noch,{{delay frames=\"8\"}}\n{{fun_00070005 arg=\"\"}}?"
  },
  {
    "label": "006",
    "text": "{{anim id=\"23\"}}Hast du dein Geschenk schon{{delay frames=\"8\"}}.{{delay frames=\"8\"}}.{{delay frames=\"8\"}}.{{delay frames=\"20\"}} öh{{delay frames=\"8\"}}.{{delay frames=\"8\"}}.{{delay frames=\"8\"}}.{{delay frames=\"20\"}}\ngeschenkt?{{pageBreak}}{{anim id=\"35\"}}Unser Geburtstagskind macht zwar\neinen auf cool.{{delay frames=\"20\"}} Aber es ist bestimmt\ntierisch gespannt, {{delay frames=\"8\"}}was du ihm gibst!"
  },
  {
    "label": "007",
    "text": "{{anim id=\"1\"}}{{fun_0003000E arg=\"\"}}{{fun_00010011 arg=\"0x0000\"}} sieht glücklich aus.\n{{delay frames=\"20\"}}Das finde ich echt Weltklasse,\n{{delay frames=\"8\"}}{{fun_00070005 arg=\"\"}}!\n{{anim id=\"33\"}}Heute sind wir alle noch bessere\nFreunde geworden!"
  },
  {
    "label": "008",
    "text": "Das war ein klasse Geburtstagstanz!{{delay frames=\"40\"}}\n{{anim id=\"42\"}}Ich hab aus dem Stand 'nen drei-\nfachen Rückwärtssalto hingelegt!\n{{anim id=\"27\"}}Schade, dass du das jetzt grade\nverpasst hast, {{delay frames=\"8\"}}{{fun_00070005 arg=\"\"}}!"
  },
  {
    "label": "009",
    "text": "{{anim id=\"1\"}}Das Geburtstagskind sieht glücklich\naus!{{pageBreak}}Ich glaub, {{delay frames=\"8\"}}das ist ansteckend!{{delay frames=\"40\"}} {{anim id=\"38\"}}Jetzt\nbin ich auch glücklich, {{delay frames=\"8\"}}{{fun_00070005 arg=\"\"}}!{{delay frames=\"40\"}}{{anim id=\"1\"}}"
  },
  {
    "label": "010",
    "text": "{{anim id=\"5\"}}Was für ein Weltklasse-Geburtstag\nfür ein Weltklasse-Geburtstagskind!{{pageBreak}}Ich könnt glatt das nächste Training\nausfallen lassen und weiterfeiern,\n{{delay frames=\"8\"}}{{fun_00070005 arg=\"\"}}!"
  },
  {
    "label": "011",
    "text": "{{anim id=\"1\"}}Ich hoffe, {{delay frames=\"8\"}}dass das hier der beste\nGeburtstag war, {{delay frames=\"8\"}}den {{fun_00010011 arg=\"0x0000\"}}\njemals hatte!"
  },
  {
    "label": "012",
    "text": "{{anim id=\"9\"}}Ähm{{delay frames=\"8\"}}.{{delay frames=\"8\"}}.{{delay frames=\"8\"}}.{{delay frames=\"20\"}} Gehörst du zur Familie von\n{{fun_00010011 arg=\"0x0000\"}}?{{pageBreak}}{{anim id=\"18\"}}{{fun_000B0007 arg=\"\"}}Was?! {{delay frames=\"40\"}}Wir leben in derselben Stadt\nund lernen uns erst JETZT kennen?!{{pageBreak}}{{anim id=\"2\"}}Haha! {{delay frames=\"40\"}}{{anim id=\"1\"}}Ich bin {{fun_00010005 arg=\"\"}}! {{delay frames=\"20\"}}Irgendwie\nwitzig, {{delay frames=\"8\"}}dass das ausgerechnet heute\nist{{delay frames=\"8\"}}.{{delay frames=\"8\"}}.{{delay frames=\"8\"}}.{{delay frames=\"20\"}} Endlich lernen wir uns kennen!{{delay frames=\"40\"}}{{anim id=\"1\"}}{{pageBreak}}{{anim id=\"5\"}}Okay!{{delay frames=\"40\"}} Dann wollen wir\n{{fun_0008000E arg=\"0x00CD260075006E007300720065006E002000530070006F0072007400730066007200650075006E006400280075006E007300720065002000530070006F0072007400730066007200650075006E00640069006E00260075006E007300720065006E002000530070006F0072007400730066007200650075006E006400\"}} {{fun_00010011 arg=\"0x0000\"}}\nmal so richtig feiern, {{delay frames=\"8\"}}{{fun_00070005 arg=\"\"}}!"
  },
  {
    "label": "013",
    "text": ""
  },
  {
    "label": "014",
    "text": "{{anim id=\"1\"}}{{fun_0003000E arg=\"\"}}{{fun_00010011 arg=\"0x0000\"}} sieht glücklich aus.\n{{delay frames=\"20\"}}Das finde ich echt Weltklasse,\n{{delay frames=\"8\"}}{{fun_00070005 arg=\"\"}}!\n{{anim id=\"33\"}}Heute sind wir alle noch bessere\nFreunde geworden!"
  },
  {
    "label": "015",
    "text": "{{anim id=\"1\"}}Das Geburtstagskind sieht glücklich\naus!{{pageBreak}}Ich glaub, {{delay frames=\"8\"}}das ist ansteckend!{{delay frames=\"40\"}} {{anim id=\"38\"}}Jetzt\nbin ich auch glücklich, {{delay frames=\"8\"}}{{fun_00070005 arg=\"\"}}!{{delay frames=\"40\"}}{{anim id=\"1\"}}"
  },
  {
    "label": "016",
    "text": "{{anim id=\"11\"}}{{delay frames=\"16\"}}Hmm, kennt jemand ein cooles\nPartyspiel?{{pageBreak}}Ich weiß eins!{{delay frames=\"40\"}} {{anim id=\"5\"}}Liegestütze!{{pageBreak}}{{anim id=\"15\"}}Hm{{delay frames=\"4\"}}.{{delay frames=\"4\"}}.{{delay frames=\"4\"}}.{{delay frames=\"4\"}} {{anim id=\"39\"}}{{delay frames=\"20\"}}Vielleicht,{{delay frames=\"8\"}} aber nur vielleicht,{{delay frames=\"8\"}}\npasst das doch nicht so richtig zum\nheutigen Event, {{delay frames=\"8\"}}{{fun_00070005 arg=\"\"}}."
  },
  {
    "label": "017",
    "text": "{{anim id=\"22\"}}{{delay frames=\"16\"}}Ach ja,{{delay frames=\"8\"}} {{fun_0008000E arg=\"0x01CD1800530070006F0072007400730066007200650075006E0064001C00530070006F0072007400730066007200650075006E00640069006E000000\"}} {{fun_00010011 arg=\"0x0100\"}}\nhat heute auch Geburtstag!{{pageBreak}}{{anim id=\"21\"}}Ich halte hier die Stellung, {{delay frames=\"20\"}}aber\ndu kannst dort ruhig mal\nauflaufen, {{delay frames=\"8\"}}{{fun_00080005 arg=\"\"}}{{delay frames=\"8\"}}.{{delay frames=\"8\"}}.{{delay frames=\"8\"}}."
  },
  {
    "label": "018",
    "text": "{{anim id=\"21\"}}{{fun_00010011 arg=\"0x0100\"}} macht heute auch 'ne\nGeburtstagsfeier, wusstest du das?{{pageBreak}}{{anim id=\"11\"}}{{delay frames=\"16\"}}Du bist doch quasi in {{fun_0008000E arg=\"0x01CD0C007300650069006E0065006D000A0069006800720065006D000000\"}}\nFanclub, da könntest du ruhig\nmal dort vorbeischauen{{delay frames=\"8\"}}.{{delay frames=\"8\"}}.{{delay frames=\"8\"}}."
  }
]