﻿[
  {
    "label": "001",
    "text": "{{fun_0001000C arg=\"\"}}{{fun_0004000C arg=\"\"}}{{fun_0002000C arg=\"\"}}{{fun_0006000C arg=\"\"}}{{anim id=\"32\"}}Hey!{{delay frames=\"20\"}} Endlich seid ihr hier, Leute!{{fun_0009000C arg=\"\"}}"
  },
  {
    "label": "002",
    "text": "{{fun_0001000C arg=\"\"}}{{fun_0004000C arg=\"\"}}{{fun_0002000C arg=\"\"}}{{fun_0006000C arg=\"\"}}{{anim id=\"2\"}}Haha!{{delay frames=\"8\"}} Endlich bist du zurück!{{delay frames=\"20\"}}\nDanke für deine Hilfe, {{fun_00080005 arg=\"\"}}!{{delay frames=\"20\"}}{{anim id=\"1\"}}{{fun_0009000C arg=\"\"}}"
  },
  {
    "label": "003",
    "text": "{{fun_0001000C arg=\"\"}}{{fun_0004000C arg=\"\"}}{{fun_0002000C arg=\"\"}}{{fun_0006000C arg=\"\"}}{{anim id=\"38\"}}Hey ho!{{delay frames=\"8\"}} Willkommen zurück!{{fun_0009000C arg=\"\"}}"
  },
  {
    "label": "004",
    "text": "{{fun_0001000C arg=\"\"}}{{fun_0004000C arg=\"\"}}{{fun_0002000C arg=\"\"}}{{fun_0006000C arg=\"\"}}{{anim id=\"27\"}}Hey!{{delay frames=\"20\"}} Ihr seid spät dran, ihr zwei!{{pageBreak}}Ich wollt schon die Laufschuhe\nschnüren und nach euch sehen,\n{{delay frames=\"8\"}}{{fun_00070005 arg=\"\"}}!{{fun_0009000C arg=\"\"}}"
  },
  {
    "label": "005",
    "text": "{{fun_0000000C arg=\"\"}}{{fun_0007000C arg=\"\"}}{{fun_0002000C arg=\"\"}}{{fun_0005000C arg=\"\"}}{{fun_0001000C arg=\"\"}}{{fun_0008000C arg=\"\"}}Dann erzähl mal, {{fun_00010011 arg=\"0x0000\"}}!\n{{delay frames=\"20\"}}{{anim id=\"23\"}}Warum hast du mich extra holen\nlassen, {{delay frames=\"10\"}}hm?{{fun_0009000C arg=\"\"}}"
  },
  {
    "label": "006",
    "text": "{{fun_0000000C arg=\"\"}}{{fun_0007000C arg=\"\"}}{{fun_0002000C arg=\"\"}}{{fun_0005000C arg=\"\"}}{{fun_0001000C arg=\"\"}}{{fun_0008000C arg=\"\"}}Puh! {{delay frames=\"20\"}}Ich hab's hergeschafft!\n{{delay frames=\"20\"}}{{anim id=\"23\"}}Also, {{delay frames=\"10\"}}was willst du von mir,\n{{fun_00010011 arg=\"0x0000\"}}?{{fun_0009000C arg=\"\"}}"
  },
  {
    "label": "007",
    "text": "{{fun_0000000C arg=\"\"}}{{fun_0007000C arg=\"\"}}{{fun_0002000C arg=\"\"}}{{fun_0005000C arg=\"\"}}{{fun_0001000C arg=\"\"}}{{fun_0008000C arg=\"\"}}Was liegt an, {{fun_00010011 arg=\"0x0000\"}}?\n{{delay frames=\"20\"}}{{anim id=\"23\"}}Warum bin ich hier?{{fun_0009000C arg=\"\"}}"
  },
  {
    "label": "008",
    "text": ""
  },
  {
    "label": "009",
    "text": "{{fun_0000000C arg=\"\"}}{{fun_0005000C arg=\"\"}}{{anim id=\"26\"}}Ähm{{delay frames=\"8\"}}.{{delay frames=\"8\"}}.{{delay frames=\"8\"}}.{{delay frames=\"20\"}} Ich wollte dir...{{delay frames=\"40\"}} Ich wollte dir\nnur das hier zurückgeben.{{delay frames=\"20\"}} Du hast es\nmir vor Ewigkeiten ausgeliehen.{{pageBreak}}{{anim id=\"38\"}}Hier ist es!{{delay frames=\"20\"}} Danke, {{delay frames=\"8\"}}{{fun_00070005 arg=\"\"}}!{{fun_0009000C arg=\"\"}}"
  },
  {
    "label": "010",
    "text": "{{fun_0000000C arg=\"\"}}{{fun_0007000C arg=\"\"}}{{anim id=\"15\"}}Boah! {{delay frames=\"20\"}}Das ist doch {{fun_0008000E arg=\"0x00CD14006D00650069006E00200061006C0074006500720014006D00650069006E006500200061006C007400650014006D00650069006E00200061006C00740065007300\"}}\n{{fun_00030011 arg=\"0x0000\"}}! {{delay frames=\"40\"}}Da\nwerden Erinnerungen wach...\n{{anim id=\"2\"}}Ich weiß gerade auch gar nicht,\nwas ich schockierender find...{{pageBreak}}Dass du das Ding immer noch hast,\noder dass du es mir zurückgibst! {{delay frames=\"20\"}}{{anim id=\"1\"}}"
  },
  {
    "label": "011",
    "text": "{{fun_0000000C arg=\"\"}}{{fun_0005000C arg=\"\"}}{{anim id=\"33\"}}Hier ist was für dich! {{delay frames=\"40\"}}Ich hab's beim\nJoggen im Schaufenster gesehn und\nMUSSTE es dir kaufen{{delay frames=\"20\"}}{{anim id=\"1\"}}!\nIch mach mir nicht für jeden solche\nMühe!{{fun_0009000C arg=\"\"}}"
  },
  {
    "label": "012",
    "text": "{{fun_0000000C arg=\"\"}}{{fun_0007000C arg=\"\"}}{{anim id=\"15\"}}WAS? {{delay frames=\"20\"}}Das ist nicht dein Ernst!\n{{delay frames=\"20\"}}{{fun_0003000E arg=\"\"}}{{fun_0002000E arg=\"\"}}{{fun_00030011 arg=\"0x0000\"}}?\n{{delay frames=\"20\"}}Das kommt absolut unerwartet!\n{{anim id=\"23\"}}Heute ist aber nicht irgend so ein\ngeheimer Geschenkefeiertag, den\ndu dir ausgedacht hast, oder?\n{{anim id=\"2\"}}Ha ha! {{delay frames=\"20\"}}Ist ja auch egal... {{delay frames=\"20\"}}Danke,\ndass du an mich gedacht hast!{{delay frames=\"20\"}}{{anim id=\"1\"}}"
  },
  {
    "label": "013",
    "text": "{{fun_0000000C arg=\"\"}}{{fun_0005000C arg=\"\"}}Beim Freiluft-Schattenboxen neulich\nhab ich was gefunden.{{pageBreak}}{{anim id=\"1\"}}Das gehört doch dir, oder?{{fun_0009000C arg=\"\"}}"
  },
  {
    "label": "014",
    "text": "{{fun_0000000C arg=\"\"}}{{fun_0007000C arg=\"\"}}{{anim id=\"16\"}}{{fun_000B0007 arg=\"\"}}Oh! {{delay frames=\"20\"}}{{fun_0008000E arg=\"0x00CD08004D00650069006E000A004D00650069006E00650008004D00650069006E00\"}} {{fun_00030011 arg=\"0x0000\"}}!{{pageBreak}}{{anim id=\"1\"}}Ich dachte, ich hätte {{fun_0008000E arg=\"0x00CD0600690068006E000600730069006500040065007300\"}} verloren!\n{{delay frames=\"20\"}}Viiielen, viiielen Dank,\n{{delay frames=\"10\"}}{{fun_00070005 arg=\"\"}}!"
  },
  {
    "label": "015",
    "text": "{{fun_0000000C arg=\"\"}}{{fun_0005000C arg=\"\"}}{{anim id=\"35\"}}Du wolltest doch, dass ich dir einen\nTrainingsplan zusammenstelle.{{pageBreak}}Ich hab einen für dich! {{delay frames=\"20\"}}{{anim id=\"33\"}}Er heißt:\n„Lauf zum Haus von {{fun_00010011 arg=\"0x0000\"}}!“\n{{delay frames=\"20\"}}Wie gefällt er dir?{{fun_0009000C arg=\"\"}}"
  },
  {
    "label": "016",
    "text": "{{fun_0000000C arg=\"\"}}{{fun_0007000C arg=\"\"}}{{anim id=\"17\"}}{{fun_000B0007 arg=\"\"}}WAS?! {{delay frames=\"20\"}}Das Rumgelaufe war also\nschon als Training gedacht?\n{{delay frames=\"20\"}}Ganz schön clever, {{fun_00010011 arg=\"0x0000\"}}...{{anim id=\"15\"}}\nAber hey! {{delay frames=\"20\"}}Ich hab echt das Gefühl,\ndass ich schon ein paar Muskeln\nmehr hab als vorher!\n{{anim id=\"5\"}}Wie cool! {{delay frames=\"20\"}}Danke für das Training,\n{{delay frames=\"10\"}}{{fun_00070005 arg=\"\"}}!"
  },
  {
    "label": "017",
    "text": "{{fun_0000000C arg=\"\"}}{{fun_0005000C arg=\"\"}}{{anim id=\"21\"}}Du hast meine Muskeln nur bei\nTageslicht gesehen, oder?{{pageBreak}}{{anim id=\"33\"}}Ich dachte mir, ich zeig sie dir auch\nmal bei künstlichem Licht. {{delay frames=\"20\"}}Viele\nMuskeln sehen hier besser aus!\nUnd?{{delay frames=\"8\"}} Was sagst du?{{delay frames=\"20\"}} Beeindruckend,\noder, {{delay frames=\"8\"}}{{fun_00070005 arg=\"\"}}?{{fun_0009000C arg=\"\"}}"
  },
  {
    "label": "018",
    "text": "{{fun_0000000C arg=\"\"}}{{fun_0007000C arg=\"\"}}{{anim id=\"18\"}}Was?! {{delay frames=\"20\"}}Du willst von mir wissen, wie\ndeine Muskeln bei künstlichem\nLicht aussehen?!\n{{anim id=\"27\"}}Oh Mann, {{delay frames=\"10\"}}{{fun_00010011 arg=\"0x0000\"}}, du bist mir\nja eine Marke! {{delay frames=\"20\"}}Wie sollen die\nschon aussehen? {{delay frames=\"40\"}}Wie immer eben!\n{{anim id=\"26\"}}{{delay frames=\"40\"}}{{size value=\"75\"}}Ausdefiniert und ziemlich cool... {{delay frames=\"20\"}}Hihi...\n{{delay frames=\"20\"}}{{fun_0003000E arg=\"\"}}{{fun_00070005 arg=\"\"}}!{{size value=\"100\"}}"
  },
  {
    "label": "019",
    "text": ""
  },
  {
    "label": "020",
    "text": "{{anim id=\"1\"}}Okay, {{delay frames=\"10\"}}ich glaube, wir haben alles\nerledigt! {{delay frames=\"20\"}}Ich muss dann auch wieder\nweiter!{{anim id=\"0\"}}\n{{fun_0002000C arg=\"\"}}{{fun_0004000C arg=\"\"}}Danke, dass du mich hergebracht\nhast, {{fun_00080005 arg=\"\"}}! {{delay frames=\"40\"}}{{anim id=\"32\"}}Ciaaaooo!\n{{delay frames=\"20\"}}{{fun_0003000E arg=\"\"}}{{fun_00070005 arg=\"\"}}!"
  },
  {
    "label": "021",
    "text": "{{anim id=\"1\"}}Tja, {{delay frames=\"10\"}}ich sollte langsam aber wirklich\nmal los! {{delay frames=\"20\"}}{{anim id=\"4\"}}Meine Lieblingsserie fängt\ngleich an!{{anim id=\"0\"}}\n{{fun_0002000C arg=\"\"}}{{fun_0004000C arg=\"\"}}Bis bald, {{fun_00080005 arg=\"\"}}! {{delay frames=\"20\"}}{{anim id=\"1\"}}Und danke\nfürs Herbringen, {{delay frames=\"10\"}}{{fun_00070005 arg=\"\"}}!"
  },
  {
    "label": "022",
    "text": "{{anim id=\"38\"}}Okido, {{delay frames=\"10\"}}ich muss dann auch wieder\nlos. {{delay frames=\"20\"}}Ihr wisst ja, dass ein Star wie\nich immer was Wichtiges zu tun hat!{{anim id=\"0\"}}\n{{fun_0002000C arg=\"\"}}{{fun_0004000C arg=\"\"}}Danke, dass du mich hergeholt hast,\n{{fun_00080005 arg=\"\"}}!{{pageBreak}}Es hat echt Spaß gemacht, mit dir\nhierherzulaufen, {{delay frames=\"10\"}}{{fun_00070005 arg=\"\"}}!\n{{delay frames=\"20\"}}{{anim id=\"32\"}}Bis bahaaald!"
  },
  {
    "label": "023",
    "text": ""
  }
]