﻿[
  {
    "label": "001",
    "text": "{{anim id=\"6\"}}Was?!{{delay frames=\"20\"}} {{fun_0003000E arg=\"\"}}{{fun_00010011 arg=\"0x0000\"}} ruft mich?!{{pageBreak}}{{anim id=\"11\"}}Was könnte {{fun_0008000E arg=\"0x00CD0400650072000600730069006500040065007300\"}} von mir wollen?{{pageBreak}}{{anim id=\"1\"}}Zum Glück bin ich größer und\nstärker als {{fun_0008000E arg=\"0x00CD0400650072000600730069006500040065007300\"}}! {{delay frames=\"20\"}}Also muss ich\nmir auch keine Sorgen machen!\n{{anim id=\"32\"}}Also gut! {{delay frames=\"20\"}}Gehen wir!"
  },
  {
    "label": "002",
    "text": "Aha{{delay frames=\"8\"}}.{{delay frames=\"8\"}}.{{delay frames=\"8\"}}.{{delay frames=\"20\"}} {{fun_00010011 arg=\"0x0000\"}} ruft mich zu sich.{{pageBreak}}{{anim id=\"36\"}}Ich hab grad kein gutes Gefühl,{{delay frames=\"20\"}}\naber das könnte auch am Essen\nvorhin liegen{{delay frames=\"8\"}}.{{delay frames=\"8\"}}.{{delay frames=\"8\"}}.\n{{anim id=\"21\"}}Okay, okay, {{delay frames=\"20\"}}ich komm allein schon\naus Neugier mit!{{delay frames=\"40\"}} {{anim id=\"1\"}}Ich folge dir dann!"
  },
  {
    "label": "003",
    "text": "{{anim id=\"17\"}}{{fun_000B0007 arg=\"\"}}Was?{{delay frames=\"20\"}} {{fun_0003000E arg=\"\"}}{{fun_00010011 arg=\"0x0000\"}} will mich sehen?{{pageBreak}}{{anim id=\"6\"}}Will {{fun_0008000E arg=\"0x00CD0400650072000600730069006500040065007300\"}} mich zu 'nem Duell oder so\nwas herausfordern?!{{pageBreak}}{{anim id=\"33\"}}Dann nichts wie hin!"
  },
  {
    "label": "004",
    "text": "{{anim id=\"13\"}}Mach mal langsam, {{fun_00080005 arg=\"\"}}!{{delay frames=\"40\"}}\nIch bin topfit und hab Probleme,{{delay frames=\"8\"}}\ndir zu folgen, {{delay frames=\"8\"}}{{fun_0006000E arg=\"0x1800530070006F0072007400730066007200650075006E0064001C00530070006F0072007400730066007200650075006E00640069006E00\"}}!"
  },
  {
    "label": "005",
    "text": "{{anim id=\"13\"}}Hey!{{delay frames=\"20\"}} Mach doch nicht so schnell!{{delay frames=\"20\"}}\nDa komm ich ja gar nicht mit!"
  },
  {
    "label": "006",
    "text": "{{anim id=\"10\"}}Puh! {{delay frames=\"20\"}}Ist es denn so schlimm,{{delay frames=\"8\"}} dass du\nvor mir weglaufen musst?!{{endTag}}\nIch mach ja langsamer!\nIch seil mich ab."
  },
  {
    "label": "007",
    "text": "{{anim id=\"6\"}}Was zur Hantel soll das?!{{delay frames=\"20\"}} Denkst du,\ndu bist cool,{{delay frames=\"8\"}} bloß weil du mich mal\nabhängen konntest?{{pageBreak}}Das ist echt ein grobes Foulspiel!{{delay frames=\"20\"}}\nWillst du, {{delay frames=\"8\"}}dass wir's sein lassen?{{endTag}}\nNein, gehen wir!\nGenau! Lassen wir's."
  },
  {
    "label": "008",
    "text": "{{anim id=\"15\"}}Da wollten wir nicht hin!{{fun_00010007 arg=\"\"}} {{anim id=\"0\"}}Oder{{delay frames=\"8\"}}.{{delay frames=\"8\"}}.{{delay frames=\"8\"}}.{{delay frames=\"20\"}}\nhast du plötzlich doch irgendwas\nanderes zu tun?{{endTag}}\nNein! Gehn wir weiter!\nJa, das stimmt..."
  },
  {
    "label": "009",
    "text": "{{anim id=\"13\"}}Warte, warte, warte!{{delay frames=\"40\"}}\nWo zur Hantel gehst du hin?{{pageBreak}}{{anim id=\"0\"}}Willst du mich loswerden?{{delay frames=\"20\"}}\nHast du plötzlich doch\nirgendwas anderes zu tun?{{endTag}}\nNein, nein. Weiter geht's!\nJa, das stimmt..."
  },
  {
    "label": "010",
    "text": "{{anim id=\"5\"}}Na also! {{delay frames=\"20\"}}Da wären wir{{delay frames=\"8\"}}.{{delay frames=\"8\"}}.{{delay frames=\"8\"}}.{{delay frames=\"40\"}} {{anim id=\"6\"}}Warte mal!{{delay frames=\"20\"}}\nWas soll das, {{delay frames=\"8\"}}{{fun_00080005 arg=\"\"}}?!{{delay frames=\"20\"}} Du bist\nüberhaupt nicht bei der Sache!{{endTag}}\nIch mach's besser!\nÄh... Ich muss weg."
  },
  {
    "label": "011",
    "text": "{{anim id=\"36\"}}Hey{{delay frames=\"8\"}}.{{delay frames=\"8\"}}.{{delay frames=\"8\"}}.{{delay frames=\"40\"}} Hast du dich etwa verirrt?!{{endTag}}\nIch weiß, wo ich bin!\nGeh weg!"
  },
  {
    "label": "012",
    "text": "{{anim id=\"12\"}}Wie lange soll das denn noch gehen?{{delay frames=\"40\"}}\nSogar ein Marathon-Champ wie ich\nmuss da irgendwann aufgeben!{{pageBreak}}{{anim id=\"0\"}}Tut mir leid! {{delay frames=\"20\"}}Das war's für heute!{{delay frames=\"40\"}}\n{{anim id=\"9\"}}Ich hatte genug Lauftraining für\neinen Tag, {{delay frames=\"8\"}}{{fun_00080005 arg=\"\"}}!"
  },
  {
    "label": "013",
    "text": "{{anim id=\"15\"}}{{fun_000B0007 arg=\"\"}}Wow!{{delay frames=\"20\"}}\nDas dauert mir jetzt echt zu lang!{{pageBreak}}{{anim id=\"9\"}}Tut mir leid, {{fun_00080005 arg=\"\"}}.{{delay frames=\"20\"}}\nAber ich muss jetzt gehen.\n{{delay frames=\"20\"}}Ich hab noch was zu erledigen.\n{{anim id=\"2\"}}{{fun_0003000E arg=\"\"}}{{fun_00010011 arg=\"0x0000\"}} wird's sicher überleben!{{delay frames=\"20\"}}\nVielleicht können wir diese Sache ja\nein andermal klären!{{delay frames=\"20\"}}{{anim id=\"1\"}}"
  },
  {
    "label": "014",
    "text": ""
  },
  {
    "label": "015",
    "text": ""
  },
  {
    "label": "016",
    "text": "{{anim id=\"0\"}}Dir ist schon klar, {{delay frames=\"8\"}}dass ich für diese\nTour das Beach-Völkerball-Training\ngeopfert hab, {{delay frames=\"8\"}}oder?!\n{{anim id=\"1\"}}Na ja, halb so wild.{{delay frames=\"20\"}}\nMeistens muss ich eh allein\ntrainieren, {{delay frames=\"8\"}}weil alle absagen.{{pageBreak}}{{anim id=\"32\"}}Bis dann, {{delay frames=\"8\"}}{{fun_00080005 arg=\"\"}}!"
  },
  {
    "label": "017",
    "text": "{{anim id=\"9\"}}Machen wir uns nichts vor.{{delay frames=\"20\"}} Du bist\nirgendwie nicht ganz bei der Sache!{{pageBreak}}{{anim id=\"21\"}}Kein Problem!{{delay frames=\"20\"}} Dann geh ich eben\nallein hin.{{delay frames=\"20\"}} Ich bin ja kein Kind mehr,\n{{delay frames=\"8\"}}dass ich {{fun_0006000E arg=\"0x0A004F006E006B0065006C000A00540061006E0074006500\"}} {{fun_00000005 arg=\"\"}} bräuchte.{{pageBreak}}{{anim id=\"1\"}}Danke für alles, {{delay frames=\"8\"}}was du getan hast!{{delay frames=\"40\"}}\nOder fast getan hättest, {{delay frames=\"8\"}}aber doch\nnicht getan hast, {{delay frames=\"8\"}}{{fun_00070005 arg=\"\"}}!"
  },
  {
    "label": "018",
    "text": "{{anim id=\"9\"}}Hey!{{delay frames=\"20\"}} {{fun_0006000E arg=\"0x1800530070006F0072007400730066007200650075006E0064001C00530070006F0072007400730066007200650075006E00640069006E00\"}}!{{delay frames=\"20\"}}\nMach mal langsam{{delay frames=\"8\"}}.{{delay frames=\"8\"}}.{{delay frames=\"8\"}}."
  },
  {
    "label": "019",
    "text": "{{anim id=\"27\"}}Ist ja echt toll für dich, {{delay frames=\"8\"}}dass du so\nschnell wie möglich hinwillst!{{pageBreak}}Aber SO schnell kann ich dann\ndoch nicht joggen, {{fun_0006000E arg=\"0x1800530070006F0072007400730066007200650075006E0064001C00530070006F0072007400730066007200650075006E00640069006E00\"}}{{delay frames=\"8\"}}.{{delay frames=\"8\"}}.{{delay frames=\"8\"}}."
  },
  {
    "label": "020",
    "text": "{{anim id=\"2\"}}Haha!{{delay frames=\"20\"}} Oh Mann, {{delay frames=\"8\"}}{{fun_00080005 arg=\"\"}}!{{delay frames=\"20\"}}\nUnd ich dachte, ICH wäre der\nVerwirrte von uns beiden!{{delay frames=\"40\"}}{{anim id=\"1\"}}"
  },
  {
    "label": "021",
    "text": "Lass den Müll, {{delay frames=\"8\"}}{{fun_00080005 arg=\"\"}}!{{delay frames=\"20\"}}{{anim id=\"27\"}} Zu 'nem\nordentlichen Lauf gehört auch, dass\nman sein Ziel irgendwann erreicht!"
  },
  {
    "label": "022",
    "text": ""
  },
  {
    "label": "023",
    "text": ""
  },
  {
    "label": "024",
    "text": "{{anim id=\"23\"}}Was?{{delay frames=\"40\"}} {{fun_0003000E arg=\"\"}}{{fun_00010011 arg=\"0x0000\"}} ruft mich?{{pageBreak}}{{anim id=\"2\"}}Haha!{{delay frames=\"20\"}} Kommst du nicht etwas spät?\n{{delay frames=\"20\"}}Die Sache hat sich erledigt!{{delay frames=\"40\"}}{{anim id=\"1\"}}{{pageBreak}}Das war nicht gerade deine\nBestzeit, was, {{delay frames=\"8\"}}{{fun_00080005 arg=\"\"}}?"
  },
  {
    "label": "025",
    "text": "{{anim id=\"23\"}}{{fun_0003000E arg=\"\"}}{{fun_00010011 arg=\"0x0000\"}} hat dich gefragt,\nob du mich zu {{fun_0008000E arg=\"0x00CD0600690068006D0006006900680072000600690068006D00\"}} bringen könntest?{{pageBreak}}{{anim id=\"11\"}}Ähm{{delay frames=\"8\"}}.{{delay frames=\"8\"}}.{{delay frames=\"8\"}}.{{delay frames=\"20\"}} Ist das nicht 'ne Weile her?{{pageBreak}}{{anim id=\"1\"}}Ich hab gleich mein Bleischuh-\nFußball-Training.{{anim id=\"0\"}}{{delay frames=\"20\"}} Das wird heute\nalso nichts mehr!"
  },
  {
    "label": "026",
    "text": "{{anim id=\"23\"}}{{fun_0003000E arg=\"\"}}{{fun_00010011 arg=\"0x0000\"}} will mich sehen?{{pageBreak}}{{anim id=\"9\"}}Ich bin grad tierisch beschäftigt,\n{{fun_0006000E arg=\"0x1800530070006F0072007400730066007200650075006E0064001C00530070006F0072007400730066007200650075006E00640069006E00\"}}!{{pageBreak}}{{anim id=\"1\"}}Ich geh zu {{fun_0008000E arg=\"0x00CD0600690068006D0006006900680072000600690068006D00\"}}, sobald ich Zeit hab.{{delay frames=\"20\"}}\nDu bist also befreit von dem Job.{{delay frames=\"20\"}}\nDanke für deine Mühen, {{delay frames=\"8\"}}{{fun_00080005 arg=\"\"}}!"
  },
  {
    "label": "027",
    "text": "{{anim id=\"23\"}}{{fun_0003000E arg=\"\"}}{{fun_00010011 arg=\"0x0000\"}} will also mit mir reden?{{delay frames=\"40\"}}\n{{anim id=\"1\"}}Okay!{{delay frames=\"8\"}} Gerne!{{pageBreak}}{{anim id=\"38\"}}Aber ich brauch dich nicht dafür.{{delay frames=\"20\"}}\nIch schaffe das auch allein,\n{{delay frames=\"8\"}}{{fun_00070005 arg=\"\"}}.{{pageBreak}}{{anim id=\"21\"}}Außerdem hast du doch schon\n'nen Freund zu Besuch, {{delay frames=\"8\"}}oder?"
  },
  {
    "label": "028",
    "text": "{{anim id=\"23\"}}{{fun_0003000E arg=\"\"}}{{fun_00010011 arg=\"0x0000\"}} will mich treffen?{{pageBreak}}{{anim id=\"0\"}}Okay!{{delay frames=\"20\"}} Aber{{delay frames=\"8\"}}.{{delay frames=\"8\"}}.{{delay frames=\"8\"}}.{{delay frames=\"20\"}} hast du nicht schon\nwas zu tun, {{delay frames=\"8\"}}{{fun_0006000E arg=\"0x1800530070006F0072007400730066007200650075006E0064001C00530070006F0072007400730066007200650075006E00640069006E00\"}}?{{pageBreak}}{{anim id=\"1\"}}Komm doch später wieder vorbei!{{delay frames=\"20\"}}\nVielleicht können wir beide dann zu\n{{fun_00010011 arg=\"0x0000\"}} sprinten."
  },
  {
    "label": "029",
    "text": ""
  },
  {
    "label": "030",
    "text": "{{anim id=\"23\"}}{{fun_00010011 arg=\"0x0000\"}} hat nach mir gefragt? {{pageBreak}}{{anim id=\"0\"}}Aber du erwartest doch Besuch,\n{{delay frames=\"8\"}}oder? {{delay frames=\"40\"}}{{anim id=\"1\"}}Du solltest dich um den\nkümmern!\n{{anim id=\"2\"}}Ich find den Weg zu {{fun_00010011 arg=\"0x0000\"}} auch\nalleine.{{delay frames=\"20\"}} Mach dir mal keine Sorgen\num mich, {{delay frames=\"8\"}}{{fun_00070005 arg=\"\"}}!{{delay frames=\"40\"}}{{anim id=\"37\"}}"
  },
  {
    "label": "031",
    "text": "Aber {{fun_00080005 arg=\"\"}}, {{delay frames=\"20\"}}{{anim id=\"23\"}}du hast doch\nBesuch, {{delay frames=\"8\"}}oder nicht? {{pageBreak}}{{anim id=\"1\"}}Du solltest dich um ihn kümmern!{{delay frames=\"20\"}}\nMach dir um mich keine Sorgen.{{pageBreak}}{{anim id=\"21\"}}Ich werd den Weg zu {{fun_00010011 arg=\"0x0000\"}}\nschon finden.{{delay frames=\"20\"}} Ich bin doch ein\ngroßer Junge! {{delay frames=\"8\"}}{{fun_0003000E arg=\"\"}}{{fun_00070005 arg=\"\"}}!"
  },
  {
    "label": "032",
    "text": "Aber {{fun_00080005 arg=\"\"}}, {{delay frames=\"20\"}}{{anim id=\"23\"}}dich kommt doch\ngleich jemand besuchen, {{delay frames=\"8\"}}oder?{{pageBreak}}{{anim id=\"1\"}}Kümmere dich nicht um mich.{{delay frames=\"20\"}}\nIch komm auch alleine klar!{{pageBreak}}{{anim id=\"21\"}}Ich geh gleich zu {{fun_00010011 arg=\"0x0000\"}}. {{delay frames=\"20\"}}Und du\nhängst entspannt mit deinem Besuch\nrum, okay, {{delay frames=\"8\"}}{{fun_00070005 arg=\"\"}}?"
  }
]