﻿[
  {
    "label": "001",
    "text": "{{anim id=\"27\"}}Darauf war ich echt nicht gefasst{{delay frames=\"8\"}}.{{delay frames=\"8\"}}.{{delay frames=\"8\"}}.{{delay frames=\"20\"}}\n{{anim id=\"6\"}}Von heute an werd ich trainieren\nwie ein Verrückter!"
  },
  {
    "label": "002",
    "text": "{{anim id=\"38\"}}Das war witzig! {{delay frames=\"20\"}}Wir sollten das bald\nmal wieder spielen, {{delay frames=\"8\"}}{{fun_00070005 arg=\"\"}}!"
  },
  {
    "label": "003",
    "text": "{{anim id=\"1\"}}Ich hatte selten so viel Spaß beim\nVerlieren!{{delay frames=\"20\"}} Wir müssen das unbedingt\nwiederholen! {{delay frames=\"20\"}}{{fun_0003000E arg=\"\"}}{{fun_00070005 arg=\"\"}}!"
  }
]