﻿[
  {
    "label": "001",
    "text": "{{anim id=\"1\"}}Vielen Dank, dass du bei mir warst,\nals es mir schlecht ging, {{fun_00080005 arg=\"\"}}!{{pageBreak}}Dank deiner Hilfe...{{delay frames=\"20\"}}{{anim id=\"33\"}} fühle ich mich\nwieder bärenstark, {{delay frames=\"8\"}}{{fun_00070005 arg=\"\"}}!{{pageBreak}}{{anim id=\"0\"}}Hier, {{delay frames=\"20\"}}{{fun_0008000E arg=\"0x00CD0C006400690065007300650072000A00640069006500730065000C00640069006500730065007300\"}} {{fun_00030011 arg=\"0x0000\"}}\nist 'ne kleine Belohnung für dich!"
  },
  {
    "label": "002",
    "text": "{{anim id=\"33\"}}Schau mal, {{fun_00080005 arg=\"\"}}!{{delay frames=\"20\"}}\nIch bin wieder fit wie 'n Turnschuh!{{pageBreak}}{{anim id=\"21\"}}Dank dir kann ich wieder den ganzen\nTag trainieren!{{delay frames=\"40\"}}{{pageBreak}}{{anim id=\"1\"}}Dafür schulde ich dir was...{{delay frames=\"40\"}}\nHier!{{delay frames=\"20\"}} {{fun_0008000E arg=\"0x00CD0C004400690065007300650072000A00440069006500730065000C00440069006500730065007300\"}} {{fun_00030011 arg=\"0x0000\"}}\ngehört jetzt dir!"
  },
  {
    "label": "003",
    "text": "{{anim id=\"33\"}}Tada!{{delay frames=\"40\"}} Ich bin wieder der Alte!{{pageBreak}}{{anim id=\"21\"}}Ich dachte echt, dass ich diesmal\nam Ende wäre.{{delay frames=\"40\"}}{{anim id=\"38\"}} Aber du hast mich\ngerettet, {{delay frames=\"8\"}}{{fun_00070005 arg=\"\"}}!\n{{anim id=\"1\"}}Und als Dank... {{delay frames=\"20\"}}hab ich was für dich!\n{{fun_0008000E arg=\"0x00CD0A00450069006E0065006E000800450069006E0065000600450069006E00\"}} {{fun_00030011 arg=\"0x0000\"}}!\nViel Spaß damit!"
  }
]