﻿[
  {
    "label": "001",
    "text": "{{anim id=\"1\"}}Es wäre klasse, wenn {{fun_00010011 arg=\"0x0000\"}}\ndie Lieferung kriegen würde,\n{{delay frames=\"8\"}}{{fun_00070005 arg=\"\"}}!"
  },
  {
    "label": "002",
    "text": "Vergiss nicht, bei {{fun_00010011 arg=\"0x0000\"}} wegen\nmeiner Lieferung vorbeizujoggen.{{delay frames=\"40\"}}\n{{anim id=\"9\"}}Ich hoffe, dass {{fun_0008000E arg=\"0x00CD0600690068006E000600730069006500040065007300\"}} das beruhigt..."
  },
  {
    "label": "003",
    "text": "{{anim id=\"6\"}}Bitte denk dran, {{fun_00010011 arg=\"0x0000\"}} diesen\nGegenstand zurückzubringen!"
  },
  {
    "label": "004",
    "text": "{{fun_00010011 arg=\"0x0000\"}} muss unbedingt dieses\nDing kriegen, das {{fun_0008000E arg=\"0x00CD0400650072000600730069006500040065007300\"}} verloren hat!"
  },
  {
    "label": "005",
    "text": "Kümmere dich bitte um die\nLieferung.{{delay frames=\"20\"}} {{anim id=\"1\"}}Sie ist für {{fun_00010011 arg=\"0x0000\"}}.{{delay frames=\"20\"}}\nNicht verwechseln, {{fun_0006000E arg=\"0x1800530070006F0072007400730066007200650075006E0064001C00530070006F0072007400730066007200650075006E00640069006E00\"}}!"
  },
  {
    "label": "006",
    "text": "Klemm dir das Ding untern Arm und\nlauf damit rüber zu {{fun_00010011 arg=\"0x0000\"}}!"
  }
]