﻿[
  {
    "label": "002",
    "text": "Hilfe, {{fun_0002000E arg=\"\"}}{{i20_1}}!{{delay frames=\"8\"}}\nWas willst du tun?{{fun_00000008 arg=\"0x0000000000000000\"}}\nKämpfen!\nFliehen..."
  },
  {
    "label": "003",
    "text": "Aua! Eine schmerzliche Niederlage..."
  },
  {
    "label": "004",
    "text": "Ha,{{delay frames=\"10\"}} {{fun_0001000E arg=\"\"}}{{i20_1}}\nist kein Problem für dich!"
  },
  {
    "label": "005",
    "text": "Hach... Du verlierst den Kampf\nund bist auch noch vergiftet."
  },
  {
    "label": "006",
    "text": "Du hast {{fun_00040014 arg=\"0x0600640065006E000600640069006500\"}} {{i20_1}}\nvertrieben, wurdest aber vergiftet..."
  },
  {
    "label": "007",
    "text": "Du vertreibst {{fun_00040014 arg=\"0x0600640065006E000600640069006500\"}} {{i20_1}}\nund erhältst {{fun_0002000E arg=\"\"}}{{i20_0}}!"
  },
  {
    "label": "008",
    "text": "Du vertreibst {{fun_00040014 arg=\"0x0600640065006E000600640069006500\"}} {{i20_1}}\nund euer Proviant erhöht sich um {{color id=\"2\"}}{{fun_00060004 arg=\"0x0000\"}}{{color id=\"65535\"}}!"
  },
  {
    "label": "009",
    "text": "Wirst du entkommen?"
  },
  {
    "label": "010",
    "text": "Das hat leider nicht geklappt..."
  },
  {
    "label": "011",
    "text": "Schnell, {{delay frames=\"10\"}}nimm die Beine\nin die Hand!"
  },
  {
    "label": "012",
    "text": "Hach. Du konntest nicht entkom-\nmen und bist auch noch vergiftet."
  },
  {
    "label": "013",
    "text": "Vertreibe {{fun_00040014 arg=\"0x0600640065006E000600640069006500\"}} {{i20_1}}\nmit {{fun_0008000E arg=\"0x00CD0600640065006D0006006400650072000600640065006D00\"}} {{i20_0}}!"
  },
  {
    "label": "014",
    "text": "Toll!{{delay frames=\"10\"}} Du hast {{fun_00040014 arg=\"0x0600640065006E000600640069006500\"}} {{i20_1}}\nvertrieben!"
  },
  {
    "label": "015",
    "text": "Aua, das tat weh!{{pageBreak}}Aber zumindest konntest du\n{{fun_00040014 arg=\"0x0600640065006E000600640069006500\"}} {{i20_1}} vertreiben!"
  },
  {
    "label": "016",
    "text": "In der Nähe ist eine Kreatur! {{delay frames=\"20\"}}\nDu versuchst wegzuschleichen."
  },
  {
    "label": "017",
    "text": "Oh nein, {{fun_0001000E arg=\"\"}}{{i20_1}}\nhat dich entdeckt!"
  },
  {
    "label": "018",
    "text": "Du konntest einen Kampf gerade\nnoch so vermeiden!"
  },
  {
    "label": "019",
    "text": "Sieh nur, {{fun_0001000E arg=\"\"}}{{i20_1}}\nist in die Fallgrube gefallen!{{pageBreak}}Das ist deine Chance, um\nzu entkommen!"
  },
  {
    "label": "021",
    "text": "Sieh nur! {{delay frames=\"10\"}}Eine Honigwabe!"
  },
  {
    "label": "022",
    "text": "Wenn du die Bienen verjagst,\ngehört der Honig dir...{{fun_00050008 arg=\"0x0000000000000000\"}}\nVerjagen!\nWegschleichen..."
  },
  {
    "label": "023",
    "text": "Eine Honigwabe!{{delay frames=\"8\"}} Der {{color id=\"2\"}}Kescher{{color id=\"65535\"}} sollte\nbeim Verjagen der Bienen helfen...{{fun_00050008 arg=\"0x0000000000000000\"}}\nVerjagen!\nWegschleichen..."
  },
  {
    "label": "024",
    "text": "Eine Honigwabe!{{delay frames=\"8\"}} Da gibt's sicher\nHonig zu holen!"
  },
  {
    "label": "025",
    "text": "Da! Eine Honigwabe!{{delay frames=\"10\"}} Schnapp dir\nden Honig mit dem {{color id=\"2\"}}Kescher{{color id=\"65535\"}}!"
  },
  {
    "label": "026",
    "text": "Aua! {{delay frames=\"30\"}}Bienenstiche tun weh..."
  },
  {
    "label": "027",
    "text": "Du hast die Bienen vertrieben, aber\ndie Honigwabe ist heruntergefallen!"
  },
  {
    "label": "028",
    "text": "Du hast die Bienen verscheucht!{{pageBreak}}Der {{color id=\"2\"}}Honig {{color id=\"65535\"}}erhöht den Proviant der\nAbenteurer um {{color id=\"2\"}}{{fun_00060004 arg=\"0x0000\"}}{{color id=\"65535\"}}!"
  },
  {
    "label": "029",
    "text": "Du willst keine Bienenstiche\nriskieren und schleichst lieber weg..."
  },
  {
    "label": "030",
    "text": "Eine Honigwabe!{{delay frames=\"10\"}} Schnapp dir den\nHonig mit dem {{i20_0}}!"
  },
  {
    "label": "031",
    "text": "Du hast die Bienen vertrieben!{{pageBreak}}Der {{color id=\"2\"}}Honig {{color id=\"65535\"}}erhöht den Proviant der\nAbenteurer um {{color id=\"2\"}}{{fun_00060004 arg=\"0x0000\"}}{{color id=\"65535\"}}!"
  },
  {
    "label": "032",
    "text": "Du bist schnurstracks gegen\neinen Baum gelaufen.{{pageBreak}}Glück im Unglück:{{delay frames=\"8\"}} Der so ergatterte\n{{color id=\"2\"}}Honig {{color id=\"65535\"}}erhöht euren Proviant um {{color id=\"2\"}}{{fun_00060004 arg=\"0x0000\"}}{{color id=\"65535\"}}!"
  },
  {
    "label": "034",
    "text": "Sieh nur all die {{color id=\"2\"}}{{i20_2 arg=\"0x00CD\"}}{{color id=\"65535\"}}!"
  },
  {
    "label": "035",
    "text": "Sieh nur all die {{color id=\"2\"}}{{i20_2 arg=\"0x00CD\"}}{{color id=\"65535\"}}!\nDas sind deine Lieblingsfrüchte!"
  },
  {
    "label": "036",
    "text": "Sieh nur all die {{color id=\"2\"}}{{i20_2 arg=\"0x00CD\"}}{{color id=\"65535\"}}!"
  },
  {
    "label": "037",
    "text": "Sieh nur all die {{color id=\"2\"}}{{i20_2 arg=\"0x00CD\"}}{{color id=\"65535\"}}!\nDas sind deine Lieblingsfrüchte!"
  },
  {
    "label": "038",
    "text": "Wenn du kräftig am Stamm rüttelst,\nfallen bestimmt Früchte herunter!"
  },
  {
    "label": "039",
    "text": "Du hast etwas zum Essen gefunden!\nDer Proviant erhöht sich um {{color id=\"2\"}}{{fun_00060004 arg=\"0x0000\"}}{{color id=\"65535\"}}!"
  },
  {
    "label": "041",
    "text": "Fische!{{delay frames=\"8\"}} Schnapp sie dir!"
  },
  {
    "label": "042",
    "text": "Diesmal hat leider nichts\nangebissen..."
  },
  {
    "label": "043",
    "text": "Du hast erfolgreich geangelt!{{pageBreak}}Der Proviant der Abenteurer\nerhöht sich um {{color id=\"2\"}}{{fun_00060004 arg=\"0x0000\"}}{{color id=\"65535\"}}!"
  },
  {
    "label": "044",
    "text": "Fische!{{delay frames=\"8\"}} Aber du hast\nkeine Angel..."
  },
  {
    "label": "045",
    "text": "Fische!{{delay frames=\"8\"}} Du kannst versuchen, sie\nmit bloßen Händen zu fangen!"
  },
  {
    "label": "046",
    "text": "So ein Jammer...{{delay frames=\"8\"}} Diesmal hast du \nkeinen einzigen Fisch fangen können!"
  },
  {
    "label": "047",
    "text": "Geschafft! {{delay frames=\"8\"}}Der Proviant der \nAbenteurer erhöht sich um {{color id=\"2\"}}{{fun_00060004 arg=\"0x0000\"}}{{color id=\"65535\"}}!"
  },
  {
    "label": "048",
    "text": "Fische!{{delay frames=\"8\"}} Schnapp sie dir!"
  },
  {
    "label": "049",
    "text": "Du warst erfolgreich!{{pageBreak}}Der Fang erhöht den Proviant\nder Abenteurer um {{color id=\"2\"}}{{fun_00060004 arg=\"0x0000\"}}{{color id=\"65535\"}}!"
  },
  {
    "label": "051",
    "text": "Das war das letzte Bauteil\nfür das Floß!{{fun_00090007 arg=\"0x78000000\"}}"
  },
  {
    "label": "052",
    "text": "Tolle Arbeit!{{delay frames=\"30\"}} Nichts wie weg\nvon dieser einsamen Insel!{{fun_00090007 arg=\"0x78000000\"}}"
  },
  {
    "label": "053",
    "text": "Der Proviant der Abenteurer\nist erschöpft..."
  },
  {
    "label": "054",
    "text": "Ihr habt es nicht rechtzeitig von der\nInsel geschafft..."
  },
  {
    "label": "055",
    "text": "Wie schrecklich, {{fun_0001000E arg=\"\"}}\n{{i20_0}} ist kaputtgegangen!"
  },
  {
    "label": "057",
    "text": "Oh nein! {{delay frames=\"8\"}}Eine Fallgrube!"
  },
  {
    "label": "058",
    "text": "Du steckst fest und kannst dich\nnicht mehr bewegen!"
  },
  {
    "label": "059",
    "text": "Puh!{{delay frames=\"8\"}} Du hast es geschafft, dich\naus der Fallgrube zu befreien."
  },
  {
    "label": "060",
    "text": "Huch?{{delay frames=\"8\"}} Sieht so aus, als hätte\njemand etwas hier vergraben."
  },
  {
    "label": "061",
    "text": "Du verwendest die {{i20_0}},\num zu graben."
  },
  {
    "label": "062",
    "text": "Das war knapp! {{delay frames=\"8\"}}Jemand hätte in\ndie Fallgrube stürzen können!"
  },
  {
    "label": "063",
    "text": "Unter den ausgegrabenen\nGegenständen waren einige Fallen!"
  },
  {
    "label": "064",
    "text": "Du hast {{color id=\"2\"}}{{fun_00060004 arg=\"0x0000\"}} {{color id=\"2\"}}{{fun_0009000E arg=\"0x00CD00000A00460061006C006C0065000C00460061006C006C0065006E00\"}} {{color id=\"2\"}}{{color id=\"65535\"}}gefunden!\nMöchtest du sie einsetzen?{{fun_00050008 arg=\"0x0000000000000000\"}}\nJa!\nNein danke..."
  },
  {
    "label": "065",
    "text": "Na so was!{{delay frames=\"8\"}} Du bist in deine\neigene Fallgrube gefallen."
  },
  {
    "label": "066",
    "text": "Oh nein!{{delay frames=\"8\"}} Eine Fallgrube!"
  },
  {
    "label": "067",
    "text": "Du steckst fest und kommst so\nschnell nicht wieder raus."
  },
  {
    "label": "068",
    "text": "Bist du nicht gerade an etwas\nvorbeigestürmt?"
  },
  {
    "label": "070",
    "text": "Gefundene Materialien\nwerden überprüft..."
  },
  {
    "label": "071",
    "text": "Nach den Strapazen haben sich die\nAbenteurer etwas Ruhe verdient."
  },
  {
    "label": "072",
    "text": "Oh, kein Proviant mehr!{{delay frames=\"30\"}} Du musst\nmorgen dringend Nahrung finden!"
  },
  {
    "label": "073",
    "text": "Morgen ist deine letzte Chance, der\nInsel zu entkommen. {{delay frames=\"8\"}}Viel Glück!"
  },
  {
    "label": "074",
    "text": "Was sollen die\nAbenteurer machen?"
  },
  {
    "label": "075",
    "text": "Essen & schlafen."
  },
  {
    "label": "076",
    "text": "Ein Werkzeug."
  },
  {
    "label": "077",
    "text": "Inventar ansehen."
  },
  {
    "label": "078",
    "text": "Heilen."
  },
  {
    "label": "079",
    "text": "Im Rucksack {{fun_0009000E arg=\"0x00CD0000100062006500660069006E00640065007400100062006500660069006E00640065006E00\"}} sich\n{{color id=\"2\"}}{{fun_00060004 arg=\"0x0000\"}} Medizinbeutel{{color id=\"65535\"}}.\nWer soll geheilt werden?"
  },
  {
    "label": "080",
    "text": "Einer der Abenteurer kann aus\nNahrungsmitteln Medizin machen.\n{{color id=\"2\"}}Proviant{{color id=\"65535\"}} vorrätig: {{color id=\"2\"}}{{fun_00070004 arg=\"0x0000\"}}{{color id=\"65535\"}}.\nWer soll geheilt werden?"
  },
  {
    "label": "081",
    "text": ""
  },
  {
    "label": "082",
    "text": ""
  },
  {
    "label": "083",
    "text": ""
  },
  {
    "label": "084",
    "text": "Keiner..."
  },
  {
    "label": "085",
    "text": "{{color id=\"4\"}}{{fun_00010011 arg=\"0x0000\"}}{{color id=\"65535\"}} fühlt sich besser!"
  },
  {
    "label": "086",
    "text": "Die Abenteurer sollen schlafen?{{delay frames=\"20\"}}\nAber es gibt noch so viel zu tun!{{fun_00050008 arg=\"0x0000000000000000\"}}\nSchlafen!\nNoch nicht!"
  },
  {
    "label": "087",
    "text": "Du hast noch {{color id=\"2\"}}{{fun_00060004 arg=\"0x0000\"}} Medizinbeutel{{color id=\"65535\"}}\nim Rucksack. Soll {{color id=\"4\"}}{{fun_00010011 arg=\"0x0000\"}}\n{{color id=\"65535\"}}geheilt werden?{{fun_00050008 arg=\"0x0000000000000000\"}}\nJa!\nNein..."
  },
  {
    "label": "088",
    "text": "Einer der Abenteurer kann aus\nNahrungsmitteln Medizin machen.{{pageBreak}}Die Abenteurer haben dann noch\n{{color id=\"2\"}}{{fun_00070004 arg=\"0x0000\"}} {{fun_0009000E arg=\"0x00CD00000E00450069006E0068006500690074001200450069006E00680065006900740065006E00\"}} Proviant{{color id=\"65535\"}}.\nSoll {{color id=\"4\"}}{{fun_00010011 arg=\"0x0000\"}} {{color id=\"65535\"}}geheilt werden?{{fun_00050008 arg=\"0x0000000000000000\"}}\nJa!\nNein..."
  },
  {
    "label": "089",
    "text": "Die {{color id=\"2\"}}Angel{{color id=\"65535\"}} ist fertig!{{pageBreak}}Nichts wie los zum nächsten\nAngelplatz, um Fische zu fangen!"
  },
  {
    "label": "090",
    "text": "Die {{color id=\"2\"}}Schleuder{{color id=\"65535\"}} ist fertig!{{pageBreak}}Dagegen haben die Kreaturen\nder Insel kaum eine Chance!"
  },
  {
    "label": "091",
    "text": "Der {{color id=\"2\"}}Kescher{{color id=\"65535\"}} ist fertig!{{pageBreak}}Damit kann man Bienen verjagen\nund sich ihren Honig schnappen!"
  },
  {
    "label": "092",
    "text": "Die {{color id=\"2\"}}Schaufel {{color id=\"65535\"}}ist fertig!{{pageBreak}}Fiese Fallgruben sind ab jetzt\nkein Problem mehr!"
  },
  {
    "label": "093",
    "text": "Die {{color id=\"2\"}}Silberangel{{color id=\"65535\"}} ist fertig!{{pageBreak}}Nichts wie los zum nächsten\nAngelplatz, um Fische zu fangen!"
  },
  {
    "label": "094",
    "text": "Die {{color id=\"2\"}}Silberschleuder {{color id=\"65535\"}}ist fertig!{{pageBreak}}Dagegen haben die Kreaturen\nder Insel keine Chance!"
  },
  {
    "label": "095",
    "text": "Der {{color id=\"2\"}}Silberkescher {{color id=\"65535\"}}ist fertig!{{pageBreak}}Damit kann man Bienen verjagen,\nNebel lichten und Items ergattern."
  },
  {
    "label": "096",
    "text": "Die {{color id=\"2\"}}Silberschaufel {{color id=\"65535\"}}ist fertig!{{pageBreak}}Fallgruben sind kein Problem und\nman kann Gegenstände ausgraben!"
  },
  {
    "label": "097",
    "text": "Die {{color id=\"2\"}}Goldangel{{color id=\"65535\"}} ist fertig!{{pageBreak}}Nichts wie los zum nächsten\nAngelplatz, um Fische zu fangen!"
  },
  {
    "label": "098",
    "text": "Die {{color id=\"2\"}}Goldschleuder {{color id=\"65535\"}}ist fertig!{{pageBreak}}Dagegen haben die Kreaturen\nder Insel keine Chance!"
  },
  {
    "label": "099",
    "text": "Der {{color id=\"2\"}}Goldkescher {{color id=\"65535\"}}ist fertig!{{pageBreak}}Damit kann man Bienen verjagen,\nNebel lichten und Items ergattern."
  },
  {
    "label": "100",
    "text": "Die {{color id=\"2\"}}Goldschaufel {{color id=\"65535\"}}ist fertig!{{pageBreak}}Fallgruben sind kein Problem und\nman kann Gegenstände ausgraben!"
  },
  {
    "label": "101",
    "text": ""
  },
  {
    "label": "102",
    "text": ""
  },
  {
    "label": "103",
    "text": ""
  },
  {
    "label": "104",
    "text": ""
  },
  {
    "label": "105",
    "text": "Speichern nicht möglich.\nZurück zum Titelbildschirm."
  },
  {
    "label": "106",
    "text": "{{fun_0008000E arg=\"0x00CD0A00450069006E0065006E000800450069006E0065000600450069006E00\"}} {{i20_0}} bauen?{{fun_00060008 arg=\"0x000000000000000000000000\"}}\nJa!\nErklärung ansehen\nAbbrechen"
  },
  {
    "label": "107",
    "text": ""
  },
  {
    "label": "108",
    "text": ""
  },
  {
    "label": "109",
    "text": ""
  },
  {
    "label": "110",
    "text": ""
  },
  {
    "label": "111",
    "text": ""
  },
  {
    "label": "112",
    "text": ""
  },
  {
    "label": "113",
    "text": ""
  },
  {
    "label": "114",
    "text": ""
  },
  {
    "label": "115",
    "text": ""
  },
  {
    "label": "116",
    "text": ""
  },
  {
    "label": "117",
    "text": ""
  },
  {
    "label": "119",
    "text": "Verwende mit  {{color id=\"2\"}}amiibo {{color id=\"65535\"}}oder aber\n{{color id=\"4\"}}{{fun_00060004 arg=\"0x0000\"}}  Spielmünzen je Bewohner{{color id=\"65535\"}},\num bis zu 3 Abenteurer zu wählen."
  },
  {
    "label": "120",
    "text": "Spiel mit den bisherigen\nAbenteurern starten? {{fun_00050008 arg=\"0x0000000000000000\"}}\nJa!\nAbenteurer auswählen"
  },
  {
    "label": "121",
    "text": "Deine {{color id=\"4\"}} Spielmünzen\n{{color id=\"65535\"}}reichen nicht aus!"
  },
  {
    "label": "122",
    "text": "Berühre mit einem {{color id=\"2\"}}Animal Crossing-\namiibo {{color id=\"65535\"}}den Touchscreen."
  },
  {
    "label": "123",
    "text": "Schalte das {{color id=\"2\"}}NFC-Lese-/\nSchreibgerät {{color id=\"65535\"}}ein, um es auf das\nLesen des {{color id=\"2\"}}amiibo {{color id=\"65535\"}}vorzubereiten.\nLies ein {{color id=\"2\"}}Animal Crossing-amiibo {{color id=\"65535\"}}ein."
  },
  {
    "label": "124",
    "text": ""
  },
  {
    "label": "125",
    "text": "Möchtest du {{color id=\"4\"}}Nepp {{color id=\"65535\"}}oder\n{{color id=\"4\"}}Schlepp{{color id=\"65535\"}} registrieren?{{fun_00000008 arg=\"0x0000000000000000\"}}\nNepp\nSchlepp"
  },
  {
    "label": "126",
    "text": "{{color id=\"4\"}}Nepp {{color id=\"65535\"}}und {{color id=\"4\"}}Schlepp {{color id=\"65535\"}}sind\nbereits als Abenteurer\nregistriert!"
  },
  {
    "label": "127",
    "text": "{{color id=\"4\"}}{{fun_00010011 arg=\"0x0000\"}} {{color id=\"65535\"}}ist bereits als\nAbenteurer registriert!"
  },
  {
    "label": "128",
    "text": ""
  },
  {
    "label": "129",
    "text": "Verwende dein {{color id=\"2\"}}amiibo{{color id=\"65535\"}}\nanstelle von {{color id=\"4\"}} Spielmünzen{{color id=\"65535\"}}.\n"
  },
  {
    "label": "130",
    "text": "Noch mal spielen?{{fun_00000008 arg=\"0x0000000000000000\"}}\nNoch mal spielen!\nZum Titelbildschirm"
  },
  {
    "label": "131",
    "text": "Noch mal spielen?{{fun_00000008 arg=\"0x0000000000000000\"}}\nNoch mal spielen! {{fun_00060004 arg=\"0x0000\"}} \nZum Titelbildschirm"
  },
  {
    "label": "132",
    "text": "Noch mal spielen?{{fun_00000008 arg=\"0x0000000000000000\"}}\n{{color id=\"5\"}}Noch mal spielen! {{fun_00060004 arg=\"0x0000\"}} \n{{color id=\"65535\"}}Zum Titelbildschirm"
  },
  {
    "label": "133",
    "text": ""
  },
  {
    "label": "134",
    "text": "Spiel mit den bisherigen\nAbenteurern starten? {{fun_00050008 arg=\"0x0000000000000000\"}}\nJa! ({{fun_00060004 arg=\"0x0000\"}} )\nAbenteurer auswählen"
  },
  {
    "label": "135",
    "text": "Spiel mit den bisherigen\nAbenteurern starten?{{fun_00050008 arg=\"0x0000000000000000\"}}\n{{color id=\"5\"}}Ja! ({{fun_00060004 arg=\"0x0000\"}}){{color id=\"65535\"}}\nAbenteurer auswählen"
  }
]