﻿[
  {
    "label": "001",
    "text": "{{fun_0000000C arg=\"\"}}{{fun_0005000C arg=\"\"}}{{delay frames=\"8\"}}{{anim id=\"27\"}}Mann.{{delay frames=\"10\"}} Kannst du nicht ein Mal etwas\nweniger griesgrämig dreinblicken?{{anim id=\"0\"}}{{fun_0000000C arg=\"\"}}{{fun_0007000C arg=\"\"}}{{delay frames=\"30\"}}{{pageBreak}}{{anim id=\"6\"}}Du siehst aus wie drei Tage\nRegenwetter.{{fun_0009000C arg=\"\"}}"
  },
  {
    "label": "002",
    "text": "{{fun_0000000C arg=\"\"}}{{fun_0005000C arg=\"\"}}Also gut,{{delay frames=\"15\"}} heute bin ich dran.{{delay frames=\"40\"}}\n{{anim id=\"35\"}}Bist du auch vorbereitet?{{fun_0009000C arg=\"\"}}"
  },
  {
    "label": "003",
    "text": "{{fun_00010009 arg=\"0x18001F002600\"}}"
  },
  {
    "label": "004",
    "text": ""
  },
  {
    "label": "005",
    "text": ""
  },
  {
    "label": "006",
    "text": "{{anim id=\"2\"}}Pah! {{delay frames=\"20\"}}Sagt der Richtige!{{delay frames=\"15\"}} {{anim id=\"7\"}}Heute schon\nmal in den Spiegel geschaut?!{{fun_0009000C arg=\"\"}}"
  },
  {
    "label": "007",
    "text": "{{fun_0000000C arg=\"\"}}{{fun_0005000C arg=\"\"}}{{anim id=\"7\"}}Ach, so fängst du mir jetzt an?! {{delay frames=\"20\"}}\nDas war als konstruktiver Tipp\ngemeint, {{anim id=\"8\"}}{{fun_000A0007 arg=\"\"}}du undankbarer Hund!{{fun_0009000C arg=\"\"}}"
  },
  {
    "label": "008",
    "text": "{{fun_0000000C arg=\"\"}}{{fun_0007000C arg=\"\"}}{{anim id=\"7\"}}Gute-Laune-Tipps von einem\nSauertopf wie dir?!{{delay frames=\"20\"}} {{anim id=\"8\"}}{{fun_000A0007 arg=\"\"}}Dass ich\nnicht lache!{{fun_0009000C arg=\"\"}}"
  },
  {
    "label": "009",
    "text": "{{fun_0000000C arg=\"\"}}{{fun_0005000C arg=\"\"}}{{anim id=\"28\"}}N-na warte, du{{delay frames=\"8\"}}.{{delay frames=\"8\"}}.{{delay frames=\"8\"}}.{{pageBreak}}{{anim id=\"0\"}}{{fun_0003000E arg=\"\"}}{{fun_00080005 arg=\"\"}}, guck uns an!{{delay frames=\"10\"}} {{anim id=\"6\"}}Guck\ngenau hin! {{delay frames=\"20\"}}{{anim id=\"0\"}}Wer von uns beiden{{fun_0001000C arg=\"\"}}{{fun_0004000C arg=\"\"}} {{anim id=\"6\"}}ist\nhier der Sauertopf?{{fun_0009000C arg=\"\"}}"
  },
  {
    "label": "010",
    "text": "{{fun_0000000C arg=\"\"}}{{fun_0007000C arg=\"\"}}{{anim id=\"33\"}}Gute Idee!{{delay frames=\"10\"}} Eine unvoreingenommene\nMeinung!{{fun_0002000C arg=\"\"}}{{fun_0004000C arg=\"\"}}{{delay frames=\"8\"}}{{anim id=\"0\"}} Du hast ihn gehört,\n{{fun_00080005 arg=\"\"}}!{{delay frames=\"20\"}} {{anim id=\"6\"}}Wer sieht fieser aus?!{{fun_00000008 arg=\"0x0E0000000B002800\"}}\nIhr seht beide fies aus.\nIhr seid nicht fies!"
  },
  {
    "label": "011",
    "text": "{{anim id=\"15\"}}Oh, Mann!{{delay frames=\"8\"}} Jetzt hast du {{fun_00080005 arg=\"\"}}\nfast zum Heulen gebracht!{{delay frames=\"20\"}} {{anim id=\"7\"}}{{fun_000A0007 arg=\"\"}}Musst du\nauch immer alle so anschreien!{{fun_0009000C arg=\"\"}}"
  },
  {
    "label": "012",
    "text": "{{anim id=\"15\"}}Ich?!{{delay frames=\"20\"}} {{anim id=\"6\"}}Du schreist doch auch rum!\nDu hast {{fun_0006000E arg=\"0x0600690068006D000600690068007200\"}} mindestens genauso\nviel Angst eingejagt wie ich!{{fun_0009000C arg=\"\"}}"
  },
  {
    "label": "013",
    "text": "{{anim id=\"16\"}}Hrmpf!?{{delay frames=\"30\"}}{{fun_0001000C arg=\"\"}}"
  },
  {
    "label": "014",
    "text": "{{anim id=\"16\"}}Grmpf?!{{fun_0002000C arg=\"\"}}{{fun_0006000C arg=\"\"}}{{fun_0009000C arg=\"\"}}"
  },
  {
    "label": "015",
    "text": "{{fun_0001000C arg=\"\"}}{{fun_0008000C arg=\"\"}}{{anim id=\"6\"}}Na schön. {{delay frames=\"20\"}}Einigen wir uns ausnahms-\nweise auf ein Unentschieden.{{delay frames=\"20\"}}{{anim id=\"0\"}} Sind\nwir eben gleich fies.{{delay frames=\"30\"}} {{anim id=\"2\"}}Bwa ha ha!"
  },
  {
    "label": "016",
    "text": ""
  },
  {
    "label": "017",
    "text": "{{fun_0000000C arg=\"\"}}{{fun_0007000C arg=\"\"}}{{anim id=\"6\"}}Und ob!{{delay frames=\"8\"}} Ich bin schließlich kein\nAnfänger.{{delay frames=\"30\"}} {{anim id=\"7\"}}Los, gib's mir!{{fun_0009000C arg=\"\"}}"
  },
  {
    "label": "018",
    "text": "{{fun_0000000C arg=\"\"}}{{fun_0005000C arg=\"\"}}{{anim id=\"28\"}}Du hast es so gewollt.{{delay frames=\"10\"}} Dann sei\nein Mann und stelle dich.{{delay frames=\"10\"}}.{{delay frames=\"10\"}}.{{delay frames=\"10\"}}{{pageBreak}}{{anim id=\"3\"}}Diesem Riesentörtchen!!{{delay frames=\"20\"}} Der Boden\nist aus {{fun_00100005 arg=\"0x0000\"}}!{{delay frames=\"15\"}}{{pageBreak}}Obendrauf sind drei Schichten\n{{fun_00100005 arg=\"0x0100\"}}{{delay frames=\"8\"}}.{{delay frames=\"8\"}}.{{delay frames=\"8\"}}.{{delay frames=\"15\"}}{{pageBreak}}Und darauf ist eine dicke Schicht\nSahne mit {{fun_001A0005 arg=\"0x00CD\"}}!!{{delay frames=\"8\"}}{{pageBreak}}Und du musst drei Portionen\ndavon essen, um zu gewinnen, {{delay frames=\"10\"}}\n{{anim id=\"7\"}}und dann noch...{{fun_0009000C arg=\"\"}}"
  },
  {
    "label": "019",
    "text": "{{fun_0000000C arg=\"\"}}{{fun_0007000C arg=\"\"}}{{anim id=\"18\"}}GRAH! {{delay frames=\"20\"}}{{anim id=\"13\"}}Ich geb auf! {{delay frames=\"20\"}}Verschone mich!\n{{delay frames=\"30\"}}{{anim id=\"40\"}}Ich lass dir den Sieg!{{anim id=\"9\"}}{{fun_0009000C arg=\"\"}}"
  },
  {
    "label": "020",
    "text": "{{fun_0000000C arg=\"\"}}{{fun_0005000C arg=\"\"}}{{anim id=\"15\"}}Was?!{{delay frames=\"20\"}} {{anim id=\"6\"}}Ich war doch noch gar nicht\nfertig!{{delay frames=\"15\"}} Das Menü geht noch weiter!{{delay frames=\"15\"}}{{fun_0009000C arg=\"\"}}"
  },
  {
    "label": "021",
    "text": "{{fun_0000000C arg=\"\"}}{{fun_0007000C arg=\"\"}}{{anim id=\"7\"}}Erspar mir den Rest! {{delay frames=\"10\"}}Wer soll denn\ndanach noch essen können, so süß,\nwie das war?!{{delay frames=\"15\"}}{{fun_0009000C arg=\"\"}}"
  },
  {
    "label": "022",
    "text": "{{fun_0000000C arg=\"\"}}{{fun_0005000C arg=\"\"}}{{anim id=\"38\"}}Niemand!{{delay frames=\"20\"}} {{anim id=\"2\"}}Selbst das wildeste\nWildschwein würde bei dieser\nZuckermenge den Geist aufgeben.\n{{anim id=\"28\"}}Den Sieg hab ich ehrlich verdient,\noder? {{delay frames=\"10\"}}Du musst zugeben, dass ich\nmich selbst übertroffen habe!\n{{anim id=\"2\"}}BWA HA HA HA!{{delay frames=\"40\"}}{{anim id=\"1\"}}"
  },
  {
    "label": "023",
    "text": ""
  },
  {
    "label": "024",
    "text": "{{fun_0000000C arg=\"\"}}{{fun_0005000C arg=\"\"}}He, {{fun_00010011 arg=\"0x0100\"}}.{{fun_0009000C arg=\"\"}}"
  },
  {
    "label": "025",
    "text": "{{fun_0000000C arg=\"\"}}{{fun_0007000C arg=\"\"}}{{anim id=\"6\"}}Was?{{delay frames=\"15\"}}{{fun_0009000C arg=\"\"}}"
  },
  {
    "label": "026",
    "text": "{{fun_0000000C arg=\"\"}}{{fun_0005000C arg=\"\"}}Ich hab {{color id=\"4\"}}Melinda {{color id=\"65535\"}}getroffen und ihr\nvon meiner neuesten Idee zur\nStadtverschönerung erzählt.{{fun_0009000C arg=\"\"}}"
  },
  {
    "label": "027",
    "text": "{{fun_0000000C arg=\"\"}}{{fun_0007000C arg=\"\"}}{{anim id=\"27\"}}Pfff. {{delay frames=\"10\"}}Stadtverschönerung.{{delay frames=\"15\"}}{{fun_0009000C arg=\"\"}}"
  },
  {
    "label": "028",
    "text": "{{fun_0000000C arg=\"\"}}{{fun_0005000C arg=\"\"}}{{anim id=\"1\"}}Ich hab gesagt, wir brauchen ein\nAutokino,{{delay frames=\"30\"}} und sie meinte nur,{{anim id=\"23\"}}\n„Was ist denn ein Autokino?“{{pageBreak}}{{anim id=\"9\"}}Ist das zu fassen?! {{delay frames=\"10\"}}Die Jugend von\nheute!{{delay frames=\"15\"}}{{fun_0009000C arg=\"\"}}"
  },
  {
    "label": "029",
    "text": "{{fun_0000000C arg=\"\"}}{{fun_0007000C arg=\"\"}}{{anim id=\"43\"}}Ach ja, Autokinos{{delay frames=\"8\"}}.{{delay frames=\"8\"}}.{{delay frames=\"8\"}}.{{delay frames=\"20\"}} Die waren\nganz groß, damals...{{delay frames=\"15\"}}"
  },
  {
    "label": "030",
    "text": ""
  },
  {
    "label": "031",
    "text": "{{fun_0000000C arg=\"\"}}{{fun_0005000C arg=\"\"}}He, {{fun_00010011 arg=\"0x0100\"}}.{{fun_0009000C arg=\"\"}}"
  },
  {
    "label": "032",
    "text": "{{fun_0000000C arg=\"\"}}{{fun_0007000C arg=\"\"}}{{anim id=\"6\"}}Was ist jetzt wieder?{{fun_0009000C arg=\"\"}}"
  },
  {
    "label": "033",
    "text": "{{fun_0000000C arg=\"\"}}{{fun_0005000C arg=\"\"}}Kennst du {{color id=\"4\"}}Samthea{{color id=\"65535\"}}, die in\nder Schneiderei arbeitet?{{fun_0009000C arg=\"\"}}"
  },
  {
    "label": "034",
    "text": "{{fun_0000000C arg=\"\"}}{{fun_0007000C arg=\"\"}}{{anim id=\"16\"}}Hm! {{delay frames=\"10\"}}Die mittlere der drei\nSchwestern?{{delay frames=\"30\"}} {{anim id=\"0\"}}Die ist nett,\n{{anim id=\"6\"}}aber etwas schroff, oder?{{fun_0009000C arg=\"\"}}"
  },
  {
    "label": "035",
    "text": "{{fun_0000000C arg=\"\"}}{{fun_0005000C arg=\"\"}}{{anim id=\"27\"}}Das ist jetzt egal.{{anim id=\"0\"}}{{delay frames=\"20\"}} Jedenfalls gibt\nsie sich immer sehr hilfsbereit, also\nhab ich gesagt...\n„Samthea, du bist hilfreich\nwie ein Fahrstuhlführer!“{{delay frames=\"20\"}}\n{{anim id=\"17\"}}Und was sagt sie zu mir?{{delay frames=\"30\"}}\n{{anim id=\"23\"}}„Was, bitte, ist ein Fahrstuhlführer?“{{delay frames=\"20\"}}\n{{anim id=\"9\"}}Ist das zu fassen?!{{delay frames=\"10\"}} Die Jugend von\nheute!{{fun_0009000C arg=\"\"}}"
  },
  {
    "label": "036",
    "text": "{{fun_0000000C arg=\"\"}}{{fun_0007000C arg=\"\"}}{{anim id=\"43\"}}Oh ja... Das war noch was, damals,\nals Aufzüge noch neu und aufregend\nwaren..."
  },
  {
    "label": "037",
    "text": ""
  },
  {
    "label": "038",
    "text": "{{fun_0000000C arg=\"\"}}{{fun_0005000C arg=\"\"}}{{anim id=\"16\"}}Wohlan! {{delay frames=\"20\"}}Frisch, frisch ans Werk!\n{{delay frames=\"20\"}}{{anim id=\"16\"}}Hossa, hoppla, juchhe!{{fun_0009000C arg=\"\"}}"
  },
  {
    "label": "039",
    "text": "{{fun_0000000C arg=\"\"}}{{fun_0007000C arg=\"\"}}{{anim id=\"15\"}}Argh! {{delay frames=\"20\"}}Was gibst du wieder für ver-\nstaubte Töne von dir?! {{delay frames=\"10\"}}Mal wieder\ndie ganze Nacht alte Filme geguckt?\n{{anim id=\"7\"}}Komm gefälligst zurück ins aktuelle\nJahrhundert, du Torfkopf, bevor du\ndich noch ernsthaft blamierst!"
  }
]