﻿[
  {
    "label": "001",
    "text": "{{fun_0000000C arg=\"\"}}{{fun_0005000C arg=\"\"}}{{fun_0002000C arg=\"\"}}{{fun_0006000C arg=\"\"}}{{fun_0001000C arg=\"\"}}{{fun_0008000C arg=\"\"}}{{delay frames=\"8\"}}.{{delay frames=\"8\"}}.{{delay frames=\"8\"}}.Also, alles klar so weit? {{delay frames=\"20\"}}Dann \n{{anim id=\"7\"}}Ärmel hochgekrempelt und ran\nans Werk!{{fun_0009000C arg=\"\"}}"
  },
  {
    "label": "002",
    "text": "{{fun_0000000C arg=\"\"}}{{fun_0005000C arg=\"\"}}{{fun_0002000C arg=\"\"}}{{fun_0006000C arg=\"\"}}{{fun_0001000C arg=\"\"}}{{fun_0008000C arg=\"\"}}{{delay frames=\"8\"}}{{anim id=\"11\"}}Hmmm{{delay frames=\"8\"}}.{{delay frames=\"8\"}}.{{delay frames=\"8\"}}.{{delay frames=\"20\"}} Vielleicht war die Pose\ndavor doch besser.{{fun_0009000C arg=\"\"}}"
  },
  {
    "label": "003",
    "text": "{{fun_0000000C arg=\"\"}}{{fun_0005000C arg=\"\"}}{{fun_0002000C arg=\"\"}}{{fun_0006000C arg=\"\"}}{{fun_0001000C arg=\"\"}}{{fun_0008000C arg=\"\"}}{{delay frames=\"8\"}}{{anim id=\"6\"}}{{delay frames=\"20\"}}{{delay frames=\"20\"}}Ob du {{fun_00130005 arg=\"0x0000\"}} mit dem\nGeschmack von {{fun_00130005 arg=\"0x0100\"}}\nmachen sollst?\nOder {{fun_00130005 arg=\"0x0100\"}} mit dem\nGeschmack von {{fun_00130005 arg=\"0x0000\"}}\nvielleicht?\n{{anim id=\"0\"}}{{anim id=\"27\"}}Du hast mal wieder Probleme!{{fun_0009000C arg=\"\"}}{{fun_00010009 arg=\"0x29002F003500\"}}"
  },
  {
    "label": "004",
    "text": ""
  },
  {
    "label": "005",
    "text": ""
  },
  {
    "label": "006",
    "text": "{{fun_0000000C arg=\"\"}}{{fun_0007000C arg=\"\"}}{{fun_0002000C arg=\"\"}}{{anim id=\"17\"}}Die Ärmel hochkrempeln?!?{{delay frames=\"40\"}}\n{{anim id=\"13\"}}Kannst du das nicht irgendwie\nweniger altmodisch formulieren?\n{{anim id=\"44\"}}{{delay frames=\"20\"}}Hochgekrempelte Ärmel sind\nja wohl von vorgestern, wenn\ndu mich fragst.{{fun_0009000C arg=\"\"}}"
  },
  {
    "label": "007",
    "text": "{{size value=\"100\"}}{{fun_0000000C arg=\"\"}}{{fun_0005000C arg=\"\"}}{{fun_0001000C arg=\"\"}}{{delay frames=\"20\"}}.{{delay frames=\"20\"}}.{{delay frames=\"20\"}}.{{delay frames=\"40\"}}{{anim id=\"13\"}}Du elender Tropf!{{delay frames=\"20\"}} {{size value=\"100\"}}Wen kümmert\ndieser Unsinn?{{pageBreak}}{{anim id=\"6\"}}Ich will, dass du mit anpackst! {{delay frames=\"10\"}}Und\nwenn ich das sage, {{delay frames=\"8\"}}kann ich so sehr\nvon vorgestern klingen, wie ich will!{{fun_0009000C arg=\"\"}}"
  },
  {
    "label": "008",
    "text": "{{fun_0000000C arg=\"\"}}{{fun_0007000C arg=\"\"}}{{fun_0002000C arg=\"\"}}{{anim id=\"27\"}}Das sehe ich anders!{{delay frames=\"40\"}}{{anim id=\"37\"}} Die Worte, die\nwir verwenden, sagen viel über\nunsere innere Einstellung aus.\n{{anim id=\"11\"}}Wer von hochgekrempelten Ärmeln\nredet, ist wahrscheinlich eher der\nVergangenheit zugewandt...\n{{fun_0001000C arg=\"\"}}{{fun_0003000C arg=\"\"}}{{fun_0002000C arg=\"\"}}{{fun_0003000C arg=\"\"}}{{delay frames=\"8\"}}{{anim id=\"15\"}}Hey, {{fun_00080005 arg=\"\"}}!{{delay frames=\"40\"}} {{anim id=\"23\"}}Fällt dir vielleicht\neine modische Alternative dazu ein?{{fun_00010008 arg=\"0x090000000D0000000E000000\"}}\nDen Kragen aufstellen!\nDie Stiefel schnüren.\n..."
  },
  {
    "label": "009",
    "text": "{{anim id=\"11\"}}Den Kragen aufstellen{{delay frames=\"20\"}}.{{delay frames=\"20\"}}.{{delay frames=\"20\"}}.{{delay frames=\"40\"}}{{anim id=\"38\"}} Das gefällt\nmir!{{delay frames=\"40\"}} Ein aufgestellter Kragen zeugt\nvon modischer Weitsicht!{{pageBreak}}{{fun_0001000C arg=\"\"}}{{fun_0007000C arg=\"\"}}{{fun_0002000C arg=\"\"}}{{fun_0005000C arg=\"\"}}{{delay frames=\"8\"}}{{anim id=\"23\"}}Was meinst du, {{fun_00010011 arg=\"0x0000\"}}?{{delay frames=\"20\"}} {{anim id=\"35\"}}Wem\nvon uns beiden würde ein aufge-\nstellter Kragen wohl besser stehen?{{fun_0009000C arg=\"\"}}"
  },
  {
    "label": "010",
    "text": "{{fun_0000000C arg=\"\"}}{{fun_0005000C arg=\"\"}}{{fun_0001000C arg=\"\"}}{{anim id=\"15\"}}S-sag mal{{delay frames=\"10\"}}.{{delay frames=\"10\"}}.{{delay frames=\"10\"}}.{{fun_00010007 arg=\"\"}}\n{{anim id=\"7\"}}{{fun_000A0007 arg=\"\"}}Kann man mit dir überhaupt ein\nvernünftiges Wort wechseln?!{{pageBreak}}{{anim id=\"8\"}}OHNE dass du an Klamotten,\nZahnaufheller oder dauerhafte\nHaarentfernung denkst!?{{fun_0009000C arg=\"\"}}"
  },
  {
    "label": "011",
    "text": "{{fun_0000000C arg=\"\"}}{{fun_0007000C arg=\"\"}}{{fun_0002000C arg=\"\"}}{{anim id=\"1\"}}Siehst du?{{delay frames=\"20\"}} Du reagierst nur so\naggressiv, weil du innerlich die\nÄrmel hochgekrempelt hast.{{fun_0009000C arg=\"\"}}"
  },
  {
    "label": "012",
    "text": "{{fun_0000000C arg=\"\"}}{{fun_0005000C arg=\"\"}}{{fun_0001000C arg=\"\"}}{{delay frames=\"8\"}}{{anim id=\"19\"}}{{delay frames=\"20\"}}Ich geb's auf. {{delay frames=\"20\"}}Ich {{delay frames=\"10\"}}weiß schon gar\nnicht mehr, warum ich dich\nüberhaupt angesprochen habe.\n{{anim id=\"40\"}}Wo soll das nur alles hinführen{{delay frames=\"10\"}}\nmit der Jugend von heute...\n{{delay frames=\"10\"}}{{fun_0003000E arg=\"\"}}{{fun_00070005 arg=\"\"}}!{{fun_0005000B arg=\"0x01CD\"}}"
  },
  {
    "label": "013",
    "text": "{{fun_0001000C arg=\"\"}}{{fun_0007000C arg=\"\"}}{{fun_0002000C arg=\"\"}}{{anim id=\"15\"}}Die Stiefel schnüren?{{delay frames=\"20\"}}{{anim id=\"11\"}} Ja, das hat\nwas...{{delay frames=\"40\"}} {{anim id=\"37\"}}Klingt nach modischem\nPioniergeist und Abenteuer!\n{{fun_0001000C arg=\"\"}}{{fun_0007000C arg=\"\"}}{{fun_0002000C arg=\"\"}}{{fun_0005000C arg=\"\"}}{{anim id=\"11\"}}Aber wenn ich mir ein Paar neue\nStiefel kaufe, brauche ich dazu\nnatürlich einen passenden Hut{{delay frames=\"8\"}}.{{delay frames=\"8\"}}.{{delay frames=\"8\"}}.\n{{anim id=\"0\"}}Hmmm?{{delay frames=\"20\"}} Stimmt was nicht,{{delay frames=\"8\"}}\n{{fun_00010011 arg=\"0x0000\"}}?{{fun_0009000C arg=\"\"}}"
  },
  {
    "label": "014",
    "text": "{{fun_0001000C arg=\"\"}}{{fun_0007000C arg=\"\"}}{{fun_0002000C arg=\"\"}}{{delay frames=\"20\"}}.{{delay frames=\"20\"}}.{{delay frames=\"20\"}}.{{delay frames=\"40\"}}{{anim id=\"15\"}}Kann es vielleicht sein,\ndass du dir auch gern die\nÄrmel hochkrempelst?{{delay frames=\"40\"}}{{anim id=\"0\"}}\n{{fun_0001000C arg=\"\"}}{{fun_0007000C arg=\"\"}}{{fun_0002000C arg=\"\"}}{{fun_0005000C arg=\"\"}}{{delay frames=\"8\"}}{{anim id=\"12\"}}{{fun_00010011 arg=\"0x0000\"}},{{delay frames=\"8\"}} ich bin entsetzt{{delay frames=\"8\"}}.{{delay frames=\"8\"}}.{{delay frames=\"8\"}}.{{fun_0009000C arg=\"\"}}"
  },
  {
    "label": "015",
    "text": ""
  },
  {
    "label": "016",
    "text": ""
  },
  {
    "label": "017",
    "text": ""
  },
  {
    "label": "018",
    "text": ""
  },
  {
    "label": "019",
    "text": ""
  },
  {
    "label": "020",
    "text": ""
  },
  {
    "label": "021",
    "text": "{{fun_0000000C arg=\"\"}}{{fun_0007000C arg=\"\"}}{{fun_0002000C arg=\"\"}}{{anim id=\"15\"}}Was?!?{{delay frames=\"20\"}} Meinst du wirklich?{{delay frames=\"40\"}} {{anim id=\"11\"}}Und\ndazu vielleicht den Gesichtsausdruck\nvon gerade eben{{delay frames=\"8\"}}.{{delay frames=\"8\"}}.{{delay frames=\"8\"}}.{{fun_0009000C arg=\"\"}}"
  },
  {
    "label": "022",
    "text": "{{fun_0000000C arg=\"\"}}{{fun_0005000C arg=\"\"}}{{fun_0002000C arg=\"\"}}{{fun_0004000C arg=\"\"}}{{fun_0001000C arg=\"\"}}{{fun_0003000C arg=\"\"}}{{delay frames=\"10\"}}{{anim id=\"16\"}}Oh!{{delay frames=\"8\"}} {{fun_0003000E arg=\"\"}}{{fun_00080005 arg=\"\"}}.{{delay frames=\"40\"}} Du kommst gerade\nrecht. {{delay frames=\"8\"}}Überleg mal mit.{{pageBreak}}{{anim id=\"0\"}}{{fun_00010011 arg=\"0x0100\"}} will eine neue Pose\neinstudieren, {{delay frames=\"8\"}}und ich soll ihm sagen,\nwelche am besten passt.\n{{anim id=\"21\"}}Ich schwanke zwischen drei\nverschiedenen Posen. {{delay frames=\"20\"}}Sag du mal,\nwelche am besten aussieht.{{anim id=\"0\"}}\n{{fun_0002000C arg=\"\"}}{{fun_0005000C arg=\"\"}}{{fun_0001000C arg=\"\"}}{{fun_0007000C arg=\"\"}}{{anim id=\"32\"}}Also, noch mal von vorn,\n{{fun_00010011 arg=\"0x0100\"}}. {{delay frames=\"20\"}}Zack, zack!\n\n{{fun_0002000C arg=\"\"}}{{fun_0003000C arg=\"\"}}{{fun_0001000C arg=\"\"}}{{fun_0003000C arg=\"\"}}{{anim id=\"6\"}}{{fun_000B0007 arg=\"\"}}{{size value=\"150\"}}Pose{{delay frames=\"20\"}} Nummer eins!{{fun_0009000C arg=\"\"}}{{size value=\"100\"}}"
  },
  {
    "label": "023",
    "text": "{{fun_0000000C arg=\"\"}}{{fun_0007000C arg=\"\"}}{{fun_0002000C arg=\"\"}}\n{{anim id=\"44\"}}{{delay frames=\"20\"}}{{fun_0004000D arg=\"0x01CD\"}}{{size value=\"150\"}}TA-DA!{{fun_0005000D arg=\"\"}}{{size value=\"100\"}}{{fun_0009000C arg=\"\"}}"
  },
  {
    "label": "024",
    "text": "{{fun_0000000C arg=\"\"}}{{fun_0005000C arg=\"\"}}{{fun_0002000C arg=\"\"}}{{fun_0005000C arg=\"\"}}{{fun_0001000C arg=\"\"}}{{fun_0007000C arg=\"\"}}{{delay frames=\"8\"}}{{anim id=\"21\"}}Jau. {{delay frames=\"8\"}}Weiter geht's.{{delay frames=\"40\"}}{{anim id=\"0\"}}{{pageBreak}}\n{{fun_0002000C arg=\"\"}}{{fun_0003000C arg=\"\"}}{{fun_0001000C arg=\"\"}}{{fun_0003000C arg=\"\"}}{{anim id=\"6\"}}{{fun_000B0007 arg=\"\"}}{{size value=\"150\"}}Pose{{delay frames=\"20\"}} Nummer zwei!{{fun_0009000C arg=\"\"}}{{size value=\"100\"}}"
  },
  {
    "label": "025",
    "text": "{{fun_0000000C arg=\"\"}}{{fun_0007000C arg=\"\"}}{{fun_0002000C arg=\"\"}}\n{{anim id=\"42\"}}{{size value=\"150\"}}{{fun_000B0007 arg=\"\"}}{{delay frames=\"20\"}}{{fun_0004000D arg=\"0x01CD\"}}WAHUUU!{{size value=\"100\"}}{{fun_0005000D arg=\"\"}}{{fun_0009000C arg=\"\"}}"
  },
  {
    "label": "026",
    "text": "{{fun_0000000C arg=\"\"}}{{fun_0005000C arg=\"\"}}{{fun_0002000C arg=\"\"}}{{fun_0005000C arg=\"\"}}{{fun_0001000C arg=\"\"}}{{fun_0007000C arg=\"\"}}{{delay frames=\"8\"}}{{anim id=\"21\"}}Und {{delay frames=\"8\"}}die letzte...{{pageBreak}}\n{{fun_0002000C arg=\"\"}}{{fun_0003000C arg=\"\"}}{{fun_0001000C arg=\"\"}}{{fun_0003000C arg=\"\"}}{{delay frames=\"8\"}}{{anim id=\"6\"}}{{fun_000B0007 arg=\"\"}}{{size value=\"150\"}}Pose{{delay frames=\"20\"}} Nummer drei!{{fun_0009000C arg=\"\"}}{{size value=\"100\"}}"
  },
  {
    "label": "027",
    "text": "{{fun_0000000C arg=\"\"}}{{fun_0007000C arg=\"\"}}{{fun_0002000C arg=\"\"}}\n{{anim id=\"33\"}}{{size value=\"150\"}}{{fun_000B0007 arg=\"\"}}{{delay frames=\"20\"}}{{fun_0004000D arg=\"0x01CD\"}}Nimm das!{{size value=\"100\"}}{{fun_0005000D arg=\"\"}}{{fun_0009000C arg=\"\"}}"
  },
  {
    "label": "028",
    "text": "{{fun_0000000C arg=\"\"}}{{fun_0005000C arg=\"\"}}{{fun_0002000C arg=\"\"}}{{fun_0004000C arg=\"\"}}{{fun_0001000C arg=\"\"}}{{fun_0004000C arg=\"\"}}{{delay frames=\"8\"}}Das war's. {{delay frames=\"20\"}}{{anim id=\"23\"}}Was sagt {{fun_0006000E arg=\"0x1600640065007200200045007800700065007200740065001800640069006500200045007800700065007200740069006E00\"}}?{{delay frames=\"20\"}}\nWelche Pose war am besten?{{fun_00010008 arg=\"0x1D0000001D0000001D000000\"}}\nPose 1.\nPose 2.\nPose 3."
  },
  {
    "label": "029",
    "text": "{{fun_00010009 arg=\"0x1E001F002000\"}}"
  },
  {
    "label": "030",
    "text": "{{anim id=\"15\"}}Findest du?{{delay frames=\"20\"}} {{anim id=\"2\"}}Na, so ein Zufall.{{delay frames=\"10\"}}\nIch auch!{{anim id=\"0\"}}"
  },
  {
    "label": "031",
    "text": "{{anim id=\"15\"}}Findest du?{{delay frames=\"40\"}}\n{{anim id=\"21\"}}Gut, äh,{{delay frames=\"10\"}} wenn du meinst{{delay frames=\"8\"}}.{{delay frames=\"8\"}}.{{delay frames=\"8\"}}.{{delay frames=\"20\"}}{{anim id=\"0\"}}"
  },
  {
    "label": "032",
    "text": "{{anim id=\"15\"}}{{delay frames=\"8\"}}.{{delay frames=\"8\"}}.{{delay frames=\"8\"}}.{{delay frames=\"20\"}}Ernsthaft?{{delay frames=\"40\"}} {{anim id=\"21\"}}Danke für deine\nMeinung!{{delay frames=\"20\"}} Sie ist völlig falsch, aber\ntrotzdem vielen Dank dafür!{{anim id=\"0\"}}"
  },
  {
    "label": "033",
    "text": "{{fun_0002000C arg=\"\"}}{{fun_0006000C arg=\"\"}}{{fun_0001000C arg=\"\"}}{{fun_0007000C arg=\"\"}}{{delay frames=\"8\"}}{{anim id=\"32\"}}Da hast du deinen fachmännischen\nRat, {{fun_00010011 arg=\"0x0100\"}}.{{pageBreak}}Und jetzt sag noch mal – {{delay frames=\"20\"}}{{anim id=\"23\"}}wozu\ngenau brauchst du diese Pose\njetzt?{{fun_0009000C arg=\"\"}}"
  },
  {
    "label": "034",
    "text": "{{fun_0000000C arg=\"\"}}{{fun_0007000C arg=\"\"}}{{fun_0002000C arg=\"\"}}{{delay frames=\"8\"}}{{anim id=\"17\"}}Wie bitte?!?{{delay frames=\"20\"}} Du willst mich beraten\nund kennst noch nicht mal die\nEinzelheiten,{{delay frames=\"8\"}} {{fun_00070005 arg=\"\"}}?"
  },
  {
    "label": "035",
    "text": ""
  },
  {
    "label": "036",
    "text": ""
  },
  {
    "label": "037",
    "text": ""
  },
  {
    "label": "038",
    "text": ""
  },
  {
    "label": "039",
    "text": ""
  },
  {
    "label": "040",
    "text": ""
  },
  {
    "label": "041",
    "text": "{{fun_0000000C arg=\"\"}}{{fun_0007000C arg=\"\"}}{{fun_0002000C arg=\"\"}}{{delay frames=\"8\"}}{{anim id=\"6\"}}Ich finde, du unterschätzt die\nTragweite dieser Entscheidung!{{pageBreak}}{{anim id=\"43\"}}Zwei exquisite Gerichte, {{delay frames=\"8\"}}so ähnlich\nund doch so grundverschieden...{{pageBreak}}Und beide warten nur darauf, von\nmeinen fähigen Händen zubereitet\nzu werden...{{fun_0009000C arg=\"\"}}"
  },
  {
    "label": "042",
    "text": "{{fun_0000000C arg=\"\"}}{{fun_0005000C arg=\"\"}}{{fun_0001000C arg=\"\"}}{{anim id=\"6\"}}Hör auf, dich selbst zu\nbeweihräuchern, und koch einfach\nirgendeines von beiden.\n{{anim id=\"7\"}}Es wird ohnehin beides gleich\nschmecken.{{fun_0009000C arg=\"\"}}"
  },
  {
    "label": "043",
    "text": "{{fun_0000000C arg=\"\"}}{{fun_0007000C arg=\"\"}}{{fun_0002000C arg=\"\"}}{{anim id=\"18\"}}Waaas?{{delay frames=\"20\"}} {{anim id=\"6\"}}Etwas mehr kulinarische\nKompetenz hätte ich dir schon\nzugetraut, {{fun_00010011 arg=\"0x0000\"}}!\n{{anim id=\"27\"}}Begreif doch endlich: {{delay frames=\"10\"}}Kochen ist\neine hohe Kunst! {{delay frames=\"20\"}}{{anim id=\"28\"}}Für Feingeister!{{delay frames=\"20\"}}\nFür Leute mit Esprit! {{delay frames=\"10\"}}Für...{{fun_0009000C arg=\"\"}}"
  },
  {
    "label": "044",
    "text": "{{fun_0000000C arg=\"\"}}{{fun_0005000C arg=\"\"}}{{fun_0001000C arg=\"\"}}{{anim id=\"13\"}}Argh! {{delay frames=\"10\"}}Langsam! {{delay frames=\"20\"}}Ich hab mich falsch\nausgedrückt.{{delay frames=\"10\"}} {{anim id=\"27\"}}Ich wollte sagen{{delay frames=\"8\"}}.{{delay frames=\"8\"}}.{{delay frames=\"8\"}}.{{delay frames=\"20\"}}{{pageBreak}}Da beide Gerichte sich so ähnlich\nsind, {{anim id=\"36\"}}{{delay frames=\"10\"}}lässt sich wahres Talent mit\nbeiden gleichermaßen beweisen!{{delay frames=\"20\"}}{{fun_0009000C arg=\"\"}}"
  },
  {
    "label": "045",
    "text": "{{fun_0000000C arg=\"\"}}{{fun_0007000C arg=\"\"}}{{fun_0002000C arg=\"\"}}{{delay frames=\"20\"}}{{anim id=\"11\"}}Hmmm, {{delay frames=\"10\"}}„gleichermaßen“{{delay frames=\"8\"}}.{{delay frames=\"8\"}}.{{delay frames=\"8\"}}.{{delay frames=\"30\"}}\n{{anim id=\"22\"}}Das bringt mich auf eine Idee!{{pageBreak}}{{anim id=\"44\"}}Ich koche einfach von beiden\nGerichten eine halbe Portion!{{delay frames=\"20\"}}\n{{anim id=\"1\"}}Danke, {{fun_00010011 arg=\"0x0000\"}}!{{fun_0001000B arg=\"0x01CD\"}}"
  },
  {
    "label": "046",
    "text": ""
  },
  {
    "label": "047",
    "text": "{{fun_0000000C arg=\"\"}}{{fun_0007000C arg=\"\"}}{{fun_0002000C arg=\"\"}}{{anim id=\"39\"}}Ja, ich weiß!{{delay frames=\"40\"}} {{anim id=\"6\"}}Aber wenn ich eines\ndieser Gerichte virtuos zubereite,\nbedeutet das eine Revolution!\n{{anim id=\"33\"}}{{delay frames=\"20\"}}Die {{fun_00010011 arg=\"0x0100\"}}-Küche würde die\nWelt im Sturm erobern!{{fun_0009000C arg=\"\"}}"
  },
  {
    "label": "048",
    "text": "{{fun_0000000C arg=\"\"}}{{fun_0005000C arg=\"\"}}{{fun_0001000C arg=\"\"}}{{anim id=\"2\"}}BWA HA HA! {{delay frames=\"20\"}}{{anim id=\"7\"}}In deinen Träumen\nvielleicht!{{pageBreak}}{{anim id=\"27\"}}Wie kommst du überhaupt darauf,\nbeides in einen Topf zu schmeißen?{{pageBreak}}{{anim id=\"6\"}}So was schmeckt doch separat\nschon gut! {{delay frames=\"20\"}}Da muss man doch nicht\nmehr wild rumexperimentieren!{{fun_0009000C arg=\"\"}}"
  },
  {
    "label": "049",
    "text": "{{fun_0000000C arg=\"\"}}{{fun_0007000C arg=\"\"}}{{fun_0002000C arg=\"\"}}{{anim id=\"2\"}}{{delay frames=\"20\"}}Hast du eine Ahnung, {{delay frames=\"8\"}}{{fun_00010011 arg=\"0x0000\"}}!{{pageBreak}}{{anim id=\"6\"}}Man muss seinen Horizont ständig\nerweitern und das Kochen als\nspannende Abenteuerreise sehen.\n{{anim id=\"35\"}}Oder willst du als alter Langweiler\nin die Geschichte eingehen?{{fun_0009000C arg=\"\"}}"
  },
  {
    "label": "050",
    "text": "{{fun_0000000C arg=\"\"}}{{fun_0005000C arg=\"\"}}{{fun_0001000C arg=\"\"}}{{anim id=\"18\"}}{{delay frames=\"8\"}}.{{delay frames=\"8\"}}.{{delay frames=\"8\"}}.{{delay frames=\"20\"}}Äh,{{fun_00010007 arg=\"\"}}{{anim id=\"38\"}} ja! {{delay frames=\"20\"}}Genau!{{delay frames=\"40\"}} {{anim id=\"7\"}}Hauptsache, du\nmachst mir bald was zu essen!{{delay frames=\"20\"}}\n{{fun_0003000E arg=\"\"}}{{fun_00070005 arg=\"\"}}!{{fun_0009000C arg=\"\"}}"
  },
  {
    "label": "051",
    "text": "{{fun_0000000C arg=\"\"}}{{fun_0007000C arg=\"\"}}{{fun_0002000C arg=\"\"}}{{anim id=\"6\"}}{{delay frames=\"20\"}}Ich mach dir nicht einfach nur „was\nzu essen“. {{delay frames=\"20\"}}{{anim id=\"42\"}}Ich nehme dich mit auf\neine kulinarische Expedition!{{fun_0001000B arg=\"0x01CD\"}}"
  },
  {
    "label": "052",
    "text": ""
  },
  {
    "label": "053",
    "text": "{{fun_0000000C arg=\"\"}}{{fun_0007000C arg=\"\"}}{{fun_0002000C arg=\"\"}}{{anim id=\"10\"}}Ich weiß{{delay frames=\"20\"}}.{{delay frames=\"20\"}}.{{delay frames=\"20\"}}.{{delay frames=\"40\"}} {{anim id=\"6\"}}Aber die Fertigstellung\neines dieser Gerichte wäre ein\nTriumph für die Avantgarde!{{fun_0009000C arg=\"\"}}"
  },
  {
    "label": "054",
    "text": "{{fun_0000000C arg=\"\"}}{{fun_0005000C arg=\"\"}}{{fun_0001000C arg=\"\"}}{{delay frames=\"20\"}}{{anim id=\"36\"}}Avantgarde?{{delay frames=\"20\"}} Das wird mir zu hoch.{{pageBreak}}{{fun_0002000C arg=\"\"}}{{fun_0004000C arg=\"\"}}{{fun_0001000C arg=\"\"}}{{fun_0004000C arg=\"\"}}{{anim id=\"6\"}}He, {{fun_00080005 arg=\"\"}},{{delay frames=\"10\"}} sag du ihm, was\ner kochen soll.{{fun_00010008 arg=\"0x370000003A0000003B000000\"}}\n{{fun_00130005 arg=\"0x0000\"}}...\n{{fun_00130005 arg=\"0x0100\"}}...\nBeides, aber separat!"
  },
  {
    "label": "055",
    "text": "{{fun_0002000C arg=\"\"}}{{fun_0006000C arg=\"\"}}{{fun_0001000C arg=\"\"}}{{fun_0008000C arg=\"\"}}Gehört?{{pageBreak}}{{fun_00130005 arg=\"0x0000\"}} mit dem\nGeschmack von {{fun_00130005 arg=\"0x0100\"}}\nsollst du machen."
  },
  {
    "label": "056",
    "text": "{{anim id=\"27\"}}Wenn {{fun_0006000E arg=\"0x06006400650072000600640069006500\"}} avantgardistische\n{{fun_00080005 arg=\"\"}} das sagt, kannst du nicht\nviel falsch machen damit.\n{{anim id=\"6\"}}Schließlich ist hier niemand so\navantgardistisch wie {{fun_00080005 arg=\"\"}}.{{fun_0009000C arg=\"\"}}"
  },
  {
    "label": "057",
    "text": "{{fun_0000000C arg=\"\"}}{{fun_0007000C arg=\"\"}}{{fun_0002000C arg=\"\"}}{{anim id=\"37\"}}An der Expertenmeinung von\n{{fun_00080005 arg=\"\"}} werde ich keine\nSekunde lang zweifeln!\n{{anim id=\"21\"}}{{fun_0006000E arg=\"0x0400450072000600530069006500\"}} ist für {{fun_0006000E arg=\"0x0C007300650069006E0065006E000A0069006800720065006E00\"}} guten Geschmack\nschließlich genauso bekannt wie ich\nfür meine Kochkünste!{{delay frames=\"40\"}}{{anim id=\"37\"}}{{fun_0001000B arg=\"0x01CD\"}}"
  },
  {
    "label": "058",
    "text": "{{fun_0002000C arg=\"\"}}{{fun_0006000C arg=\"\"}}{{fun_0001000C arg=\"\"}}{{fun_0008000C arg=\"\"}}Gehört?{{pageBreak}}{{fun_00130005 arg=\"0x0100\"}} mit dem\nGeschmack von {{fun_00130005 arg=\"0x0000\"}}\nsollst du machen."
  },
  {
    "label": "059",
    "text": "{{delay frames=\"8\"}}.{{delay frames=\"8\"}}.{{delay frames=\"8\"}}.{{delay frames=\"20\"}}{{anim id=\"2\"}}BWA HA HA!{{delay frames=\"30\"}} {{fun_0006000E arg=\"0x16004700750074006500720020004A0075006E00670065001A004700750074006500730020004D00E40064006300680065006E00\"}}!{{delay frames=\"10\"}}\nDu nimmst mir die Worte aus dem\nMund!{{pageBreak}}{{fun_0002000C arg=\"\"}}{{fun_0006000C arg=\"\"}}{{fun_0001000C arg=\"\"}}{{fun_0008000C arg=\"\"}}{{anim id=\"32\"}}Ernsthaft, {{fun_00010011 arg=\"0x0100\"}}, erspar mir\ndie moderne Küche und koch was\nNormales, wie jeder andere auch.\n{{anim id=\"27\"}}Ich werfe sowieso immer alles in\neinen großen Napf und rühre um,\nbevor ich mein Essen esse.\nDu siehst also – {{delay frames=\"10\"}}vergebene\nLiebesmüh.{{delay frames=\"20\"}} {{anim id=\"2\"}}{{fun_000A0007 arg=\"\"}}BWA HA HA!{{delay frames=\"40\"}}{{anim id=\"37\"}}{{fun_0001000B arg=\"0x01CD\"}}{{fun_0009000C arg=\"\"}}"
  },
  {
    "label": "060",
    "text": "{{fun_0000000C arg=\"\"}}{{fun_0007000C arg=\"\"}}{{fun_0002000C arg=\"\"}}{{anim id=\"12\"}}{{delay frames=\"8\"}}Das kann doch nicht euer Ernst\nsein,{{delay frames=\"20\"}} {{fun_00070005 arg=\"\"}}...{{fun_0005000B arg=\"0x01CD\"}}"
  },
  {
    "label": "061",
    "text": ""
  },
  {
    "label": "062",
    "text": ""
  }
]