﻿[
  {
    "label": "001",
    "text": "{{anim id=\"15\"}}Hä?{{delay frames=\"30\"}} {{anim id=\"0\"}}{{fun_00010011 arg=\"0x0100\"}} schickt mir einfach\n{{fun_0012000E arg=\"0x10000A00650069006E0065006E000800650069006E0065000600650069006E00\"}} {{fun_00030011 arg=\"0x0000\"}}?{{delay frames=\"20\"}}\nWarum?\n{{anim id=\"33\"}}Na, solange es umsonst ist...\n{{delay frames=\"20\"}}{{anim id=\"2\"}}Bwa ha ha!{{delay frames=\"30\"}}{{anim id=\"1\"}}"
  },
  {
    "label": "002",
    "text": "{{anim id=\"15\"}}Ach? {{delay frames=\"8\"}}Von {{fun_00010011 arg=\"0x0100\"}}?{{delay frames=\"32\"}}\n{{anim id=\"33\"}}Hadert wohl immer noch damit,\ndass wir aneinandergeraten sind...\nTja, {{delay frames=\"8\"}}dann darf ich mich wohl als\nden größeren Dickkopf betrachten!{{delay frames=\"20\"}}\n{{anim id=\"2\"}}Bwa ha ha!{{delay frames=\"30\"}}{{anim id=\"1\"}}"
  },
  {
    "label": "003",
    "text": "{{anim id=\"16\"}}Ah, {{fun_0008000E arg=\"0x00CD060064006500720006006400690065000600640061007300\"}} {{fun_00030011 arg=\"0x0000\"}},\n{{fun_0008000E arg=\"0x00CD0600640065006E0006006400690065000600640061007300\"}} {{fun_00010011 arg=\"0x0100\"}} von mir ausgeliehen\nhat!"
  },
  {
    "label": "004",
    "text": "{{anim id=\"16\"}}Ah! {{fun_0008000E arg=\"0x00CD08004D00650069006E000A004D00650069006E00650008004D00650069006E00\"}} {{fun_00030011 arg=\"0x0000\"}}!\nAlso war {{fun_0008000E arg=\"0x00CD0400650072000600730069006500040065007300\"}} die ganze Zeit bei\n{{fun_00010011 arg=\"0x0100\"}}!"
  },
  {
    "label": "005",
    "text": "{{anim id=\"15\"}}Mein Paket ist bei {{fun_00010011 arg=\"0x0100\"}}\ngelandet?{{pageBreak}}{{anim id=\"9\"}}Und warum ist es schon offen?{{delay frames=\"30\"}}\n{{anim id=\"8\"}}{{fun_0008000E arg=\"0x01CD0400450072000600530069006500040045007300\"}} hat es einfach aufgemacht?{{endTag}}\nIch hab's aufgemacht.\nÖh, genau so war's!"
  },
  {
    "label": "006",
    "text": "{{anim id=\"16\"}}Ah! {{delay frames=\"8\"}}Das ist die geheime Bestellung,\ndie ich bei {{fun_00010011 arg=\"0x0100\"}} aufgegeben\nhabe!\n{{anim id=\"9\"}}Moment mal...?{{delay frames=\"30\"}} {{anim id=\"7\"}}Warum ist das nicht\neingepackt? {{delay frames=\"20\"}}Hat sich {{fun_00010011 arg=\"0x0100\"}} an\nmeinem Paket vergriffen?{{endTag}}\nNein, ich war das...\nKönnte schon sein..."
  },
  {
    "label": "007",
    "text": "{{anim id=\"35\"}}Danke fürs Herschleppen,{{delay frames=\"8\"}}\n{{fun_00080005 arg=\"\"}}!"
  },
  {
    "label": "008",
    "text": "{{anim id=\"33\"}}Tja, {{fun_00080005 arg=\"\"}}, {{delay frames=\"8\"}}dank dir ist der\nStreit mit {{fun_00010011 arg=\"0x0100\"}} erledigt! Jetzt\nkann {{fun_0008000E arg=\"0x01CD10006400650072002000410072006D00650010006400690065002000410072006D00650010006400610073002000410072006D006500\"}} wieder schlafen!"
  },
  {
    "label": "009",
    "text": "{{anim id=\"9\"}}Eines frage ich mich aber..."
  },
  {
    "label": "010",
    "text": "{{anim id=\"7\"}}Das soll ja wohl offensichtlich ein\nGeschenk sein, oder?{{delay frames=\"20\"}} Warum ist es\ndann nicht eingepackt, {{delay frames=\"8\"}}hä?{{endTag}}\nNa ja, also ich...\nÄhem, genau!"
  },
  {
    "label": "011",
    "text": "{{anim id=\"35\"}}Na ja, {{delay frames=\"8\"}}dann spar ich mir das\nkräfteraubende Auspacken!{{delay frames=\"20\"}} {{anim id=\"2\"}}Bwa ha!{{delay frames=\"30\"}}{{anim id=\"1\"}}\nDanke fürs Herschleppen!"
  },
  {
    "label": "012",
    "text": "{{anim id=\"11\"}}Vielleicht hat {{fun_00010011 arg=\"0x0100\"}} einfach die\nNerven verloren und wollte sich nur\nmöglichst schnell entschuldigen...\n{{anim id=\"35\"}}Jetzt wäre es ja schon verlockend\nzu sehen, was man noch alles aus\n{{fun_0008000E arg=\"0x01CD0600690068006D0006006900680072000600690068006D00\"}} herauskitzeln kann..."
  },
  {
    "label": "013",
    "text": "{{anim id=\"17\"}}Du warst das? {{delay frames=\"20\"}}Mann, Mann, Mann!{{pageBreak}}{{anim id=\"6\"}}{{fun_0003000E arg=\"\"}}{{fun_00080005 arg=\"\"}}, {{delay frames=\"8\"}}wenn ICH dir sagen\nmuss, dass du was Falsches getan\nhast, {{delay frames=\"8\"}}dann war das echt daneben!\n{{anim id=\"27\"}}Na, wenigstens warst du ehrlich..."
  },
  {
    "label": "014",
    "text": "{{anim id=\"7\"}}Aber lass das in Zukunft bleiben!{{delay frames=\"20\"}}\nNicht jeder ist so verständnisvoll\nwie ich!"
  },
  {
    "label": "015",
    "text": "Und immerhin habe ich meinen Kram\nja bekommen..."
  },
  {
    "label": "016",
    "text": "{{anim id=\"6\"}}Aber mach das nicht noch mal,\n{{delay frames=\"20\"}}{{fun_00070005 arg=\"\"}}!"
  },
  {
    "label": "017",
    "text": "{{anim id=\"7\"}}Mann, Mann, Mann, {{delay frames=\"8\"}}wäre es zu viel\nverlangt gewesen, wenn {{fun_00010011 arg=\"0x0100\"}}\nes irgendwie eingepackt hätte?\nDu solltest auch sauer sein! {{delay frames=\"8\"}}Mit\nVerpackung wäre es bestimmt\neinfacher zu schleppen gewesen!"
  },
  {
    "label": "018",
    "text": "{{anim id=\"35\"}}Danke an {{fun_00010011 arg=\"0x0100\"}}! {{delay frames=\"20\"}}Und danke\nauch, dass du dich und das Paket\nhergeschleppt hast! {{delay frames=\"20\"}}{{anim id=\"2\"}}Bwa ha ha!{{delay frames=\"30\"}}{{anim id=\"1\"}}"
  },
  {
    "label": "019",
    "text": "{{anim id=\"9\"}}Und ich dachte schon, das gute\nStück wäre fort,{{delay frames=\"20\"}} {{fun_00070005 arg=\"\"}}!"
  },
  {
    "label": "020",
    "text": "{{anim id=\"10\"}}{{delay frames=\"60\"}}Wieder mal typisch...{{delay frames=\"20\"}} {{anim id=\"41\"}}Ich habe\nnämlich schon einen Ersatz gekauft!"
  },
  {
    "label": "021",
    "text": "{{anim id=\"27\"}}Was soll's,{{delay frames=\"8\"}} immerhin ist das Paket\nda..."
  },
  {
    "label": "022",
    "text": "{{anim id=\"17\"}}Was, {{delay frames=\"8\"}}du warst das?{{pageBreak}}{{anim id=\"6\"}}Mann, Mann, Mann, {{delay frames=\"8\"}}so was kannst\ndu doch nicht machen,{{delay frames=\"8\"}} {{fun_00080005 arg=\"\"}}!"
  },
  {
    "label": "023",
    "text": "{{anim id=\"35\"}}Na ja, {{delay frames=\"8\"}}du hast es wenigstens\nzugegeben...{{pageBreak}}{{anim id=\"26\"}}Ein bisschen komisch ist das jetzt\naber schon, {{delay frames=\"8\"}}denn der Inhalt des\nPakets war für dich gedacht...\n{{anim id=\"35\"}}{{fun_0003000E arg=\"\"}}{{fun_0002000E arg=\"\"}}{{fun_00030011 arg=\"0x0000\"}}!{{delay frames=\"30\"}}\n{{anim id=\"33\"}}Aber das weißt du ja schon!\n{{delay frames=\"20\"}}{{anim id=\"2\"}}Bwa ha ha!{{delay frames=\"30\"}}{{anim id=\"1\"}}"
  },
  {
    "label": "024",
    "text": "{{anim id=\"6\"}}Ist schon in Ordnung, {{delay frames=\"8\"}}aber du kannst\nmit dem Eigentum von anderen doch\nnicht so umgehen...\n{{anim id=\"7\"}}Was ist das für eine Welt, in der ICH\nanderen was über gutes Benehmen\nerzählen muss,{{delay frames=\"20\"}} {{fun_00070005 arg=\"\"}}!"
  },
  {
    "label": "025",
    "text": "{{anim id=\"6\"}}Man muss auch Grenzen einhalten\nkönnen! {{delay frames=\"20\"}}Merk dir das mal!"
  },
  {
    "label": "026",
    "text": "{{anim id=\"33\"}}Du wolltest wohl etwas mehr über\nmich wissen, was? {{delay frames=\"20\"}}Das hätte aber\nschiefgehen können... {{delay frames=\"20\"}}{{anim id=\"2\"}}Bwa ha ha!{{delay frames=\"30\"}}{{anim id=\"1\"}}"
  },
  {
    "label": "027",
    "text": "{{anim id=\"35\"}}Na gut, immerhin hast du's\nzugegeben, {{delay frames=\"8\"}}da will ich mal\nnicht so sein."
  },
  {
    "label": "028",
    "text": "{{anim id=\"10\"}}Na gut, immerhin hast du's\nzugegeben, {{delay frames=\"8\"}}da will ich mal\nausnahmsweise nicht so sein."
  },
  {
    "label": "029",
    "text": "{{anim id=\"7\"}}Aber lass dich nicht noch mal dabei\nerwischen!"
  },
  {
    "label": "030",
    "text": "{{anim id=\"28\"}}{{fun_0008000E arg=\"0x01CD0C004400690065007300650072000A00440069006500730065000C00440069006500730065007300\"}} {{fun_00030011 arg=\"0x0100\"}} ist\nfür deine Schlepperei und deine\nEhrlichkeit.\n{{anim id=\"6\"}}Versteh das nicht als Ermutigung,\nweiter Pakete aufzumachen,{{delay frames=\"8\"}} ja?"
  },
  {
    "label": "031",
    "text": "{{anim id=\"6\"}}Tu das nie wieder,{{delay frames=\"20\"}} {{fun_00070005 arg=\"\"}}!"
  }
]