﻿[
  {
    "label": "001",
    "text": ""
  },
  {
    "label": "002",
    "text": "{{i10_6 arg=\"0x090014000C000E00\"}}"
  },
  {
    "label": "003",
    "text": "{{i10_6 arg=\"0x090014000D000E00\"}}"
  },
  {
    "label": "004",
    "text": ""
  },
  {
    "label": "005",
    "text": "{{anim id=\"13\"}}Hier ist er nicht...{{delay frames=\"30\"}}\nUnd da auch nicht!{{pageBreak}}{{anim id=\"7\"}}Argh! {{delay frames=\"20\"}}Sag jetzt nicht, dass ich\nschon wieder meinen Einkaufszettel\nzu Hause vergessen habe!"
  },
  {
    "label": "006",
    "text": "{{anim id=\"6\"}}Hier trifft man immer wieder neue\nLeute!{{delay frames=\"20\"}} Das nervt,{{delay frames=\"20\"}} {{fun_00070005 arg=\"\"}}!"
  },
  {
    "label": "007",
    "text": "{{anim id=\"6\"}}Aha.{{delay frames=\"20\"}} {{anim id=\"0\"}}Auch unterwegs?"
  },
  {
    "label": "008",
    "text": "{{anim id=\"6\"}}Nicht ansprechen.{{delay frames=\"20\"}} Ich muss\nnachdenken, was ich alles brauche.{{pageBreak}}{{anim id=\"15\"}}Wenn du mir allerdings Hilfe beim\nTragen anbieten willst, sag ich nicht\nNein!"
  },
  {
    "label": "009",
    "text": "{{anim id=\"23\"}}Du bist den ganzen Weg zu uns\ngekommen, um einzukaufen?{{delay frames=\"30\"}}\n{{anim id=\"35\"}}Na dann, gute Schnäppchenjagd!"
  },
  {
    "label": "010",
    "text": "{{anim id=\"32\"}}Hallo!{{delay frames=\"20\"}} {{anim id=\"33\"}}Kaufst du Mitbringsel für die\nLeute daheim ein?{{delay frames=\"20\"}} {{anim id=\"2\"}}Brav. {{delay frames=\"20\"}}Bwa ha ha!"
  },
  {
    "label": "011",
    "text": ""
  },
  {
    "label": "012",
    "text": "{{fun_00020009 arg=\"0x0500060007000800\"}}"
  },
  {
    "label": "013",
    "text": "{{fun_00000009 arg=\"0x09000A00\"}}"
  },
  {
    "label": "014",
    "text": "{{fun_00000009 arg=\"0x0F001000\"}}"
  },
  {
    "label": "015",
    "text": "{{anim id=\"6\"}}Pah.{{delay frames=\"10\"}} Hier hat ja alles schon zu!{{delay frames=\"20\"}}\nUnd das ausgerechnet, wo ich ein\nbisschen Unterhaltung wollte!\n{{anim id=\"11\"}}...He. {{delay frames=\"20\"}}Das Museum müsste noch\ngeöffnet haben.{{pageBreak}}{{anim id=\"7\"}}Aber so verzweifelt, dass ich mit\ndem Uhu schwatze, bin ich dann\ndoch wieder nicht!"
  },
  {
    "label": "016",
    "text": "{{anim id=\"35\"}}Nix los um diese Zeit! {{delay frames=\"20\"}}Wenn's doch\nimmer so ruhig hier wäre!"
  }
]