﻿[
  {
    "label": "001",
    "text": "{{delay frames=\"5\"}}{{anim id=\"15\"}}{{delay frames=\"10\"}}Hm? Was gibt's denn?{{delay frames=\"20\"}}\n{{anim id=\"22\"}}{{size value=\"150\"}}Hoppla!{{size value=\"100\"}}{{pageBreak}}{{anim id=\"0\"}}Du bist doch {{fun_0006000E arg=\"0x220064006500720020004200FC0072006700650072006D00650069007300740065007200260064006900650020004200FC0072006700650072006D0065006900730074006500720069006E00\"}}!{{pageBreak}}Ich bin {{color id=\"4\"}}Gernod{{color id=\"65535\"}}.{{fun_00010007 arg=\"\"}}\nDeine Sekretärin hat mich\ngebeten, ein Festmahl zu kochen.\n{{anim id=\"1\"}}Schließlich wird heute ja das\n{{color id=\"2\"}}Herbstfest{{color id=\"65535\"}} gefeiert!{{pageBreak}}{{anim id=\"36\"}}Nur dummerweise fehlen mir die\nZutaten..."
  },
  {
    "label": "002",
    "text": "{{delay frames=\"5\"}}{{anim id=\"15\"}}{{delay frames=\"10\"}}Hm? Bist du {{delay frames=\"8\"}}{{anim id=\"23\"}}wegen des\n{{color id=\"2\"}}Herbstfestes{{color id=\"65535\"}} hier?{{pageBreak}}{{anim id=\"1\"}}Wenn du beim Festmahl\nmitspachteln möchtest, bist du\nhier richtig!\n{{anim id=\"36\"}}Oder besser, du wärst richtig, wenn\nich die nötigen Zutaten hätte!"
  },
  {
    "label": "003",
    "text": "{{anim id=\"11\"}}Ich wollte {{fun_0008000E arg=\"0x00CD0A00650069006E0065006E000800650069006E0065000600650069006E00\"}}\n{{color id=\"2\"}}{{fun_00050012 arg=\"0x00CD\"}} {{color id=\"65535\"}}machen...{{pageBreak}}{{anim id=\"10\"}}Aber das ist hier schließlich das\n{{color id=\"2\"}}Herbstfest{{color id=\"65535\"}}! Da wären frische\nZutaten aus der Region schon toll...\n{{anim id=\"43\"}}{{fun_0003000E arg=\"\"}}{{fun_0002000E arg=\"\"}}{{fun_00030011 arg=\"0x0100\"}},\n{{delay frames=\"5\"}}{{fun_0002000E arg=\"\"}}{{fun_00030011 arg=\"0x0200\"}} und\n{{fun_0002000E arg=\"\"}}{{fun_00030011 arg=\"0x0300\"}}...\n{{anim id=\"11\"}}Damit könnte ich bestimmt ein\ntolles Festmahl zaubern."
  },
  {
    "label": "004",
    "text": "{{anim id=\"9\"}}Alle warten schon aufs Essen.{{delay frames=\"20\"}}\n{{fun_0003000E arg=\"\"}}{{fun_0002000E arg=\"\"}}{{color id=\"2\"}}{{fun_00050012 arg=\"0x00CD\"}}\n{{color id=\"65535\"}}wäre jetzt genau richtig.\n{{anim id=\"43\"}}{{fun_0003000E arg=\"\"}}{{fun_0002000E arg=\"\"}}{{fun_00030011 arg=\"0x0100\"}},{{delay frames=\"5\"}}\n{{fun_0002000E arg=\"\"}}{{fun_00030011 arg=\"0x0200\"}} und\n{{fun_0002000E arg=\"\"}}{{fun_00030011 arg=\"0x0300\"}}...\nDann noch eine {{color id=\"2\"}}Geheimzutat{{color id=\"65535\"}}...\nUnd fertig ist {{fun_0008000E arg=\"0x00CD060064006500720006006400690065000600640061007300\"}} perfekte\n{{color id=\"2\"}}{{fun_00050012 arg=\"0x00CD\"}}{{color id=\"65535\"}}!\nDummerweise kann ich hier nicht\nweg... Das macht es schwierig, an\ndie Zutaten zu kommen.{{endTag}}\nHier, bitte!\nHungerhungerhunger!"
  },
  {
    "label": "005",
    "text": "{{anim id=\"13\"}}Das glaube ich gleich! {{delay frames=\"10\"}}Gubbldigubbl!\nTut mir wirklich leid!{{pageBreak}}{{anim id=\"9\"}}Aber selbst der beste Koch...{{delay frames=\"10\"}}\n{{anim id=\"44\"}}und damit meine ich MICH...{{pageBreak}}{{anim id=\"27\"}}Selbst der beste Koch ist nichts\nohne Zutaten!{{pageBreak}}{{anim id=\"22\"}}Ha, das ist es!{{delay frames=\"30\"}}{{anim id=\"0\"}} Du kannst mir doch\nsicher helfen, die nötigen Zutaten zu\nbesorgen, oder?\n{{anim id=\"1\"}}Du kannst sie entweder selbst\nsuchen oder deine Nachbarn fragen.{{pageBreak}}{{anim id=\"13\"}}Na, hilfst du mir? Bittebittebitte!\nÜberleg's dir, ja?"
  },
  {
    "label": "006",
    "text": "{{anim id=\"16\"}}Ah, bringst du mir Zutaten?"
  },
  {
    "label": "007",
    "text": "{{anim id=\"12\"}}Schade..."
  },
  {
    "label": "008",
    "text": "{{anim id=\"11\"}}Ähm{{delay frames=\"8\"}}.{{delay frames=\"8\"}}.{{delay frames=\"8\"}}.{{delay frames=\"20\"}} {{anim id=\"40\"}}Falls du vergessen hast, was\nich von dir wollte...{{pageBreak}}{{anim id=\"43\"}}{{fun_0003000E arg=\"\"}}{{fun_0002000E arg=\"\"}}{{fun_00030011 arg=\"0x0100\"}},\n{{fun_0002000E arg=\"\"}}{{fun_00030011 arg=\"0x0200\"}} und\n{{fun_0002000E arg=\"\"}}{{fun_00030011 arg=\"0x0300\"}}...\n{{anim id=\"0\"}}Für {{fun_0008000E arg=\"0x00CD0C006D00650069006E0065006E000A006D00650069006E00650008006D00650069006E00\"}} {{color id=\"2\"}}{{fun_00050012 arg=\"0x00CD\"}}{{color id=\"65535\"}}\nbrauche ich {{color id=\"2\"}}alle drei Zutaten{{color id=\"65535\"}}. {{delay frames=\"10\"}}Es\ndarf nicht eine einzige davon fehlen!\n{{anim id=\"1\"}}Wenn du mir helfen willst, musst du\nmir {{color id=\"2\"}}alle drei Zutaten{{color id=\"65535\"}} zusammen\nbringen! {{delay frames=\"10\"}}Gubbldigubbl!"
  },
  {
    "label": "009",
    "text": "{{anim id=\"3\"}}Hoho, das sind ja Zutaten von\nwirklich exquisiter Qualität!{{pageBreak}}{{anim id=\"1\"}}Damit kann ich {{fun_0008000E arg=\"0x00CD2A00650069006E0065006E0020007700690072006B006C00690063006800200074006F006C006C0065006E002600650069006E00650020007700690072006B006C00690063006800200074006F006C006C0065002600650069006E0020007700690072006B006C00690063006800200074006F006C006C0065007300\"}}\n{{color id=\"2\"}}{{fun_00050012 arg=\"0x00CD\"}}{{color id=\"65535\"}} machen!{{pageBreak}}{{anim id=\"11\"}}Kann ich dich trotzdem noch um\neinen Gefallen bitten?{{delay frames=\"10\"}}\nEs geht um eine {{color id=\"2\"}}Geheimzutat{{color id=\"65535\"}}...\n{{anim id=\"0\"}}Hast du vielleicht etwas, was\nmeinem Gericht den letzten\nKick geben kann?{{endTag}}\nWie wär's hiermit?\nNein, tut mir leid..."
  },
  {
    "label": "010",
    "text": "{{anim id=\"21\"}}Dann muss mein Gericht eben ohne\nGeheimzutat auskommen!{{fun_00010007 arg=\"\"}}\n{{anim id=\"1\"}}Also dann!{{delay frames=\"10\"}} Jetzt wird gekocht!"
  },
  {
    "label": "011",
    "text": "{{anim id=\"1\"}}Toll! Das nehme ich!{{pageBreak}}{{anim id=\"0\"}}So... {{delay frames=\"10\"}}Dann habe ich jetzt alles!"
  },
  {
    "label": "012",
    "text": "{{delay frames=\"5\"}}{{anim id=\"23\"}}{{delay frames=\"10\"}}Na, wie sieht's aus?{{anim id=\"0\"}}\nHast du etwas, das ich als geheime\nZutat nehmen könnte?{{endTag}}\nIch glaube schon!\nEher nicht..."
  },
  {
    "label": "013",
    "text": "{{anim id=\"3\"}}Dank dir ist mir der vielleicht\nbeste Salat meiner Karriere\ngelungen!\n{{anim id=\"0\"}}Die Zutaten waren schon erlesen,{{delay frames=\"10\"}}\n{{anim id=\"21\"}}aber dann noch diese Geheimzutat...\nEin wahres Gedicht!{{anim id=\"1\"}}\nAls kleines Dankeschön gebe ich dir\n{{fun_0008000E arg=\"0x00CD0C00640069006500730065006E000A00640069006500730065000C00640069006500730065007300\"}} {{fun_00030011 arg=\"0x0000\"}}!"
  },
  {
    "label": "014",
    "text": "{{anim id=\"3\"}}Dank deiner Hilfe ist mir ein äußerst\ndelikater Salat gelungen!{{pageBreak}}{{anim id=\"1\"}}Deine Zutaten haben ihn erst so\nschön lecker gemacht!{{pageBreak}}{{anim id=\"11\"}}Aber ich glaube, eine andere\nGeheimzutat hätte den Geschmack\nnoch besser abgerundet...\n{{anim id=\"37\"}}Meine Berufsehre als Koch gebietet,\ndass ich irgendwann den perfekten\nGeschmack finde!{{delay frames=\"10\"}} Gubbldigubbl!\n{{anim id=\"1\"}}Jedenfalls möchte ich mich bei dir\nmit {{fun_0008000E arg=\"0x00CD0C00640069006500730065006D000C006400690065007300650072000C00640069006500730065006D00\"}} {{fun_00030011 arg=\"0x0000\"}}\nbedanken."
  },
  {
    "label": "015",
    "text": "{{anim id=\"3\"}}Dank dir konnte ich einen wirklich,\nwirklich leckeren Salat zaubern!{{pageBreak}}{{anim id=\"1\"}}Die Zutaten, die du mir gebracht\nhast, waren vom Feinsten!{{pageBreak}}{{anim id=\"11\"}}Aber irgendwas hat gefehlt...{{delay frames=\"15\"}}\nEine geheime Zutat, die den\nGeschmack abrundet{{delay frames=\"8\"}}.{{delay frames=\"8\"}}.{{delay frames=\"8\"}}.{{delay frames=\"20\"}}{{pageBreak}}{{anim id=\"38\"}}Aber egal, ist trotzdem voll lecker!{{pageBreak}}{{anim id=\"1\"}}Nimm als Zeichen meines Dankes\n{{fun_0008000E arg=\"0x00CD0C00640069006500730065006E000A00640069006500730065000C00640069006500730065007300\"}} {{fun_00030011 arg=\"0x0000\"}}!"
  },
  {
    "label": "016",
    "text": "{{anim id=\"3\"}}Diese Suppe könnte die Krönung\nmeiner Laufbahn als Koch sein!{{pageBreak}}{{anim id=\"0\"}}Die Zutaten an sich waren schon\nhervorragend,{{delay frames=\"10\"}} {{anim id=\"21\"}}aber dann noch\ndie geheime Zutat...{{anim id=\"1\"}}\nLass mich dir zum Dank {{fun_0008000E arg=\"0x00CD0C00640069006500730065006E000A00640069006500730065000C00640069006500730065007300\"}}\n{{fun_00030011 arg=\"0x0000\"}} geben!"
  },
  {
    "label": "017",
    "text": "{{anim id=\"3\"}}Mit deiner Hilfe ist mir da ein recht\nschmackhaftes Süppchen gelungen,\nwenn ich das mal so sagen darf!\n{{anim id=\"1\"}}Ohne die tollen Zutaten, die du\nfür mich aufgetrieben hast, hätte\nich das nicht geschafft!{{pageBreak}}{{anim id=\"11\"}}Nur irgendwie denke ich, dass eine\nandere Geheimzutat noch besser\ngewesen wäre.\n{{anim id=\"37\"}}Ich werde nicht aufgeben,{{delay frames=\"15\"}} {{anim id=\"32\"}}bis ich sie\ngefunden habe!{{pageBreak}}{{anim id=\"1\"}}Hier, nimm als Belohnung {{fun_0008000E arg=\"0x00CD0C00640069006500730065006E000A00640069006500730065000C00640069006500730065007300\"}}\n{{fun_00030011 arg=\"0x0000\"}}!"
  },
  {
    "label": "018",
    "text": "{{anim id=\"3\"}}Nur mit deiner Hilfe konnte die\nSuppe so gut gelingen!{{pageBreak}}{{anim id=\"1\"}}Du hast mir wirklich nur die besten\nZutaten gebracht.{{pageBreak}}{{anim id=\"11\"}}Nur irgendwie hat mir das gewisse\nEtwas gefehlt, eine Geheimzutat\noder so...\n{{anim id=\"38\"}}Aber was soll's, lecker ist sie\nallemal!{{pageBreak}}{{anim id=\"1\"}}Dein Einsatz muss belohnt werden!\nMit {{fun_0008000E arg=\"0x00CD0A00650069006E0065006D000A00650069006E00650072000A00650069006E0065006D00\"}} {{fun_00030011 arg=\"0x0000\"}}!"
  },
  {
    "label": "019",
    "text": "{{anim id=\"3\"}}Hach, ob mir wohl jemals wieder\n{{fun_0008000E arg=\"0x00CD0C0073006F002000650069006E000E0073006F002000650069006E0065000C0073006F002000650069006E00\"}} {{color id=\"2\"}}{{fun_00050012 arg=\"0x00CD\"}}\n{{color id=\"65535\"}}gelingen wird?\n{{anim id=\"0\"}}Diese Zutaten...{{delay frames=\"10\"}}{{anim id=\"21\"}}\nDazu noch die Geheimzutat!\nSo was gibt es nicht oft!{{anim id=\"1\"}}\nVielen Dank! Ich möchte, dass du\n{{fun_0012000E arg=\"0x10000C00640069006500730065006E000A00640069006500730065000C00640069006500730065007300\"}} {{fun_00030011 arg=\"0x0000\"}}\nbekommst!"
  },
  {
    "label": "020",
    "text": "{{anim id=\"3\"}}Nur durch dich konnte {{fun_0008000E arg=\"0x00CD08006D00650069006E000A006D00650069006E00650008006D00650069006E00\"}}\n{{color id=\"2\"}}{{fun_00050012 arg=\"0x00CD\"}}{{color id=\"65535\"}} so gut\ngelingen!\n{{anim id=\"1\"}}Dein Auge für Qualität bei den\nZutaten hat diese Köstlichkeit\nmöglich gemacht!{{pageBreak}}{{anim id=\"11\"}}Allerdings hätte eine andere\nGeheimzutat wohl noch einen Tick\nbesser gepasst...\n{{anim id=\"37\"}}Aber das kann auch mein\nübertriebener Perfektionismus\nals Koch sein...\n{{anim id=\"1\"}}{{fun_0012000E arg=\"0x10000C00440069006500730065006E000A00440069006500730065000C00440069006500730065007300\"}} {{fun_00030011 arg=\"0x0000\"}} hast\ndu dir auf jeden Fall mehr als\nverdient!"
  },
  {
    "label": "021",
    "text": "{{anim id=\"3\"}}Herrlich! Nur dank dir ist mir\n{{fun_0008000E arg=\"0x00CD0C006400690065007300650072000A00640069006500730065000C00640069006500730065007300\"}} {{color id=\"2\"}}{{fun_00050012 arg=\"0x00CD\"}}{{color id=\"65535\"}} so\ngut gelungen!\n{{anim id=\"1\"}}Du hast mir nur die allerbesten\nZutaten gebracht! {{delay frames=\"15\"}}Allererste Sahne!{{pageBreak}}{{anim id=\"11\"}}Aber irgendwas hat noch gefehlt,\neine Geheimzutat, die das Ganze\nnoch ein Stückchen verfeinert...\n{{anim id=\"38\"}}Trotzdem kann sich das Ergebnis\nwirklich sehen lassen!{{pageBreak}}{{anim id=\"1\"}}Und als Dankeschön gebe ich dir\n{{fun_0012000E arg=\"0x10000C00640069006500730065006E000A00640069006500730065000C00640069006500730065007300\"}} {{fun_00030011 arg=\"0x0000\"}}!"
  },
  {
    "label": "022",
    "text": "{{anim id=\"11\"}}Weißt du...{{delay frames=\"20\"}}\n{{anim id=\"1\"}}{{delay frames=\"5\"}}Du hast wirklich ein Händchen\nfür die Zutatenwahl!{{pageBreak}}{{anim id=\"0\"}}Na, was meinst du? Als Nächstes\nwill ich eine Suppe machen...{{pageBreak}}{{anim id=\"23\"}}Willst du mir wieder mit den\nZutaten helfen?{{pageBreak}}{{anim id=\"0\"}}Zusammen könnten wir {{delay frames=\"10\"}}{{anim id=\"35\"}}den guten\nLeuten von {{fun_00050005 arg=\"\"}} einen\nkulinarischen Hochgenuss bereiten!\n{{anim id=\"21\"}}Gemeinsam wären wir unschlagbar!{{delay frames=\"20\"}}\n{{anim id=\"1\"}}Das wird echt toll, ich weiß es!{{fun_00010007 arg=\"\"}}\nWas ich brauche, ist...\n{{anim id=\"11\"}}{{fun_0003000E arg=\"\"}}{{fun_0002000E arg=\"\"}}{{fun_00030011 arg=\"0x0100\"}},\n{{fun_0002000E arg=\"\"}}{{fun_00030011 arg=\"0x0200\"}} und\n{{fun_0002000E arg=\"\"}}{{fun_00030011 arg=\"0x0300\"}}{{delay frames=\"8\"}}.{{delay frames=\"8\"}}.{{delay frames=\"8\"}}.\n{{anim id=\"1\"}}Alles klar?{{delay frames=\"15\"}} Toll, gubbldigubbl!{{delay frames=\"15\"}}\nOh, und wenn's dir nichts ausmacht,\nbring mir auch eine {{color id=\"2\"}}Geheimzutat{{color id=\"65535\"}}, ja?\nDamit zaubere ich uns {{fun_0008000E arg=\"0x00CD1400640065006E002000620065007300740065006E0012006400690065002000620065007300740065001200640061007300200062006500730074006500\"}}\n{{color id=\"2\"}}{{fun_00050012 arg=\"0x00CD\"}}{{color id=\"65535\"}}, {{fun_0008000E arg=\"0x00CD0600640065006E0006006400690065000600640061007300\"}} diese\nStadt je gesehen hat!"
  },
  {
    "label": "023",
    "text": "{{anim id=\"29\"}}{{fun_0003000E arg=\"\"}}{{fun_0001000E arg=\"\"}}{{color id=\"2\"}}{{fun_00050012 arg=\"0x00CD\"}} {{color id=\"65535\"}}ist\nfertig!{{delay frames=\"10\"}} Essen fassen!{{anim id=\"1\"}}"
  },
  {
    "label": "024",
    "text": "{{anim id=\"1\"}}Es geht nichts über eine schöne\nSuppe nach dem Salat!{{pageBreak}}{{anim id=\"11\"}}{{fun_0003000E arg=\"\"}}{{fun_0002000E arg=\"\"}}{{fun_00030011 arg=\"0x0100\"}},\n{{fun_0002000E arg=\"\"}}{{fun_00030011 arg=\"0x0200\"}} und\n{{fun_0002000E arg=\"\"}}{{fun_00030011 arg=\"0x0300\"}}...\n{{anim id=\"1\"}}Und zum Abschluss noch eine\n{{color id=\"2\"}}Geheimzutat{{color id=\"65535\"}} für {{fun_0008000E arg=\"0x00CD1A00640065006E002000700065007200660065006B00740065006E0018006400690065002000700065007200660065006B007400650018006400610073002000700065007200660065006B0074006500\"}}\n{{color id=\"2\"}}{{fun_00050012 arg=\"0x00CD\"}}{{color id=\"65535\"}}!\nBring mir die Zutaten, sobald du sie\nalle gesammelt hast!{{fun_0005000F arg=\"0x00000000\"}}\nSchon fertig!\nWird gemacht!"
  },
  {
    "label": "025",
    "text": "{{delay frames=\"5\"}}{{anim id=\"15\"}}{{delay frames=\"10\"}}Oooh! {{delay frames=\"20\"}}{{anim id=\"1\"}}Zeig schon, zeig schon..."
  },
  {
    "label": "026",
    "text": "{{anim id=\"1\"}}So, dann mach dich mal an die\nArbeit!{{pageBreak}}Du kannst die Zutaten entweder\nselbst suchen oder die Leute fragen.{{pageBreak}}{{anim id=\"1\"}}Und halt die Augen offen nach einer\nleckeren Geheimzutat!"
  },
  {
    "label": "027",
    "text": "So, wir haben jetzt also den Salat\nund die Suppe.\n{{delay frames=\"10\"}}{{anim id=\"21\"}}Fehlt noch das Hauptgericht!{{pageBreak}}{{anim id=\"0\"}}Und das Hauptgericht ist{{delay frames=\"8\"}}.{{delay frames=\"8\"}}.{{delay frames=\"8\"}}.{{delay frames=\"30\"}} {{anim id=\"33\"}}Fisch!{{pageBreak}}{{anim id=\"20\"}}Ich verstehe nicht, warum zum\n{{color id=\"2\"}}Herbstfest{{color id=\"65535\"}} alle immer so heiß auf\nTruthahn sind...\n{{anim id=\"0\"}}{{fun_0002000E arg=\"\"}}{{fun_00030011 arg=\"0x0100\"}},{{delay frames=\"10\"}}\n{{fun_0002000E arg=\"\"}}{{fun_00030011 arg=\"0x0200\"}} und\n{{fun_0002000E arg=\"\"}}{{fun_00030011 arg=\"0x0300\"}}...\nDas sind die Zutaten, die ich für das\nHauptgericht brauche.{{pageBreak}}{{anim id=\"1\"}}{{fun_0008000E arg=\"0x00CD08004D00650069006E000A004D00650069006E00650008004D00650069006E00\"}}{{color id=\"2\"}} {{fun_00050012 arg=\"0x00CD\"}}{{color id=\"65535\"}} wird\ndafür sorgen, dass niemand mehr\nnach Truthahn giert!"
  },
  {
    "label": "028",
    "text": "{{anim id=\"1\"}}Salat und Suppe hätten wir, jetzt\nkommt als Nächstes Fisch auf\nden Tisch!\n{{anim id=\"11\"}}{{fun_0003000E arg=\"\"}}{{fun_0002000E arg=\"\"}}{{fun_00030011 arg=\"0x0100\"}},\n{{fun_0002000E arg=\"\"}}{{fun_00030011 arg=\"0x0200\"}} und\n{{fun_0002000E arg=\"\"}}{{fun_00030011 arg=\"0x0300\"}}...\n{{anim id=\"1\"}}Dazu noch eine Geheimzutat, fertig\nist {{color id=\"2\"}}{{fun_0008000E arg=\"0x00CD060064006500720006006400690065000600640061007300\"}} {{fun_00050012 arg=\"0x00CD\"}}{{color id=\"65535\"}}!{{pageBreak}}Sobald du alle Zutaten hast, bring\nsie zu mir!{{fun_0005000F arg=\"0x00000000\"}}\nBitte sehr!\nSchon unterwegs!"
  },
  {
    "label": "029",
    "text": "So, das Hauptgericht hätten wir\nalso auch. Ich muss sagen, ich bin\nschon etwas erleichtert!\n{{anim id=\"1\"}}Aber wir sind noch nicht fertig, denn\nwir brauchen noch ein Dessert!{{pageBreak}}{{anim id=\"11\"}}{{fun_0003000E arg=\"\"}}{{fun_0002000E arg=\"\"}}{{fun_00030011 arg=\"0x0100\"}},\n{{fun_0002000E arg=\"\"}}{{fun_00030011 arg=\"0x0200\"}} und\n{{fun_0002000E arg=\"\"}}{{fun_00030011 arg=\"0x0300\"}}...\n{{anim id=\"1\"}}Aus diesen Zutaten mache ich\n{{fun_0008000E arg=\"0x00CD1400640065006E002000620065007300740065006E0012006400690065002000620065007300740065001200640061007300200062006500730074006500\"}} {{color id=\"2\"}}{{fun_00050012 arg=\"0x00CD\"}}\n{{color id=\"65535\"}}aller Zeiten!\n{{anim id=\"32\"}}Viel Erfolg bei der Zutatenjagd!"
  },
  {
    "label": "030",
    "text": "{{anim id=\"1\"}}Als krönenden Abschluss gibt es\n{{fun_0008000E arg=\"0x00CD0A00650069006E0065006E000800650069006E0065000600650069006E00\"}} {{color id=\"2\"}}{{fun_00050012 arg=\"0x00CD\"}}\n{{color id=\"65535\"}}als Dessert!\n{{anim id=\"11\"}}Wie war die Zutatenliste\nnoch gleich?{{pageBreak}}{{anim id=\"22\"}}Ah!{{delay frames=\"20\"}} {{fun_0003000E arg=\"\"}}{{fun_0002000E arg=\"\"}}{{fun_00030011 arg=\"0x0100\"}},\n{{fun_0002000E arg=\"\"}}{{fun_00030011 arg=\"0x0200\"}} und\n{{fun_0002000E arg=\"\"}}{{fun_00030011 arg=\"0x0300\"}}!\n{{anim id=\"1\"}}Und natürlich eine {{color id=\"2\"}}Geheimzutat{{color id=\"65535\"}}!{{pageBreak}}Lass mich wissen, wenn du alles\ngefunden hast!{{fun_0005000F arg=\"0x00000000\"}}\nSchon erledigt!\nBin gleich wieder da!"
  },
  {
    "label": "031",
    "text": "{{anim id=\"3\"}}Hach, ob mir wohl jemals wieder\n{{fun_0008000E arg=\"0x00CD0C0073006F002000650069006E000E0073006F002000650069006E0065000C0073006F002000650069006E00\"}} {{color id=\"2\"}}{{fun_00050012 arg=\"0x00CD\"}}\n{{color id=\"65535\"}}gelingen wird?\n{{anim id=\"0\"}}Diese Zutaten...{{delay frames=\"10\"}}{{anim id=\"21\"}}\nDazu noch die Geheimzutat!\nSo was gibt es nicht oft!{{anim id=\"1\"}}"
  },
  {
    "label": "032",
    "text": "{{anim id=\"3\"}}Dank deiner Hilfe ist mir wirklich\n{{fun_0008000E arg=\"0x00CD1400650069006E00200074006F006C006C00650072001400650069006E006500200074006F006C006C0065001400650069006E00200074006F006C006C0065007300\"}} {{color id=\"2\"}}{{fun_00050012 arg=\"0x00CD\"}}{{color id=\"65535\"}}\ngelungen!\n{{anim id=\"1\"}}Die Qualität der Zutaten macht\ndieses Gericht zu etwas ganz\nBesonderem!\n{{anim id=\"11\"}}Aber ich kann mir nicht helfen, ich\nwerde das Gefühl nicht los, dass es\neine noch bessere Geheimzutat gibt.\n{{anim id=\"37\"}}Eines Tages...{{delay frames=\"15\"}}\n{{anim id=\"32\"}}Eines Tages werde ich das perfekte\nGericht kreieren!"
  },
  {
    "label": "033",
    "text": "{{anim id=\"3\"}}Danke, dein Einsatz hat {{fun_0008000E arg=\"0x00CD0C00640069006500730065006E000A00640069006500730065000C00640069006500730065007300\"}}\n{{color id=\"2\"}}{{fun_00050012 arg=\"0x00CD\"}}{{color id=\"65535\"}} erst\nmöglich gemacht! {{delay frames=\"10\"}}Gubbldigubbl!\n{{anim id=\"1\"}}Du hast mir nur Zutaten von\nallerbester Qualität gebracht.{{pageBreak}}{{anim id=\"11\"}}Es hat nur irgendwie eine Kleinigkeit\ngefehlt...{{delay frames=\"20\"}} Ich weiß nicht...{{delay frames=\"20\"}} Vielleicht\neine Geheimzutat oder so...\n{{anim id=\"38\"}}Aber egal, schmecken tut's auf\njeden Fall!"
  },
  {
    "label": "034",
    "text": "{{anim id=\"34\"}}Puh!{{delay frames=\"10\"}} Es ist fast Winter und\ntrotzdem hat mich das Kochen gut\nins Schwitzen gebracht!\n{{anim id=\"1\"}}Aber wir haben alle Gänge des\nFestmahls geschafft!{{delay frames=\"10\"}} Ich bin mir\nsicher, dass alle zufrieden sind!"
  },
  {
    "label": "035",
    "text": "{{anim id=\"1\"}}Ohne dich wäre dieses Festmahl\nnicht so perfekt gelungen!{{pageBreak}}{{anim id=\"0\"}}Die Zutaten waren fantastisch, und\n{{anim id=\"21\"}}du hast mir sogar noch etwas über\nGeheimzutaten beigebracht.{{pageBreak}}{{anim id=\"1\"}}Dafür gebe ich dir jetzt zum Dank\n{{fun_0008000E arg=\"0x00CD0C00640069006500730065006E000A00640069006500730065000C00640069006500730065007300\"}} {{fun_00030011 arg=\"0x0000\"}}!"
  },
  {
    "label": "036",
    "text": "{{anim id=\"1\"}}Nur dank dir hat alles so gut\ngeklappt!{{pageBreak}}{{anim id=\"1\"}}Und das muss belohnt werden! Mit\n{{fun_0008000E arg=\"0x00CD0A00650069006E0065006D000A00650069006E00650072000A00650069006E0065006D00\"}} {{fun_00030011 arg=\"0x0000\"}}!"
  },
  {
    "label": "037",
    "text": "{{anim id=\"1\"}}Vielen Dank für deine Mühen heute!{{delay frames=\"30\"}}\nIch wünsche dir noch ein tolles\n{{color id=\"2\"}}Herbstfest{{color id=\"65535\"}}! {{delay frames=\"15\"}}{{anim id=\"32\"}}{{delay frames=\"5\"}}Bis dann!"
  },
  {
    "label": "038",
    "text": "{{anim id=\"11\"}}Du hast wirklich eine richtige\nSpürnase für Geheimzutaten...{{pageBreak}}{{anim id=\"1\"}}Ich glaube, aus dir könnte auch mal\n{{fun_0006000E arg=\"0x1E00650069006E00200074006F006C006C006500720020004B006F00630068002200650069006E006500200074006F006C006C00650020004B00F6006300680069006E00\"}} werden!"
  },
  {
    "label": "039",
    "text": "{{anim id=\"11\"}}Du hast wirklich eine richtige\nSpürnase für Geheimzutaten...{{pageBreak}}{{anim id=\"1\"}}Ich glaube, aus dir könnte auch mal\n{{fun_0006000E arg=\"0x1E00650069006E00200074006F006C006C006500720020004B006F00630068002200650069006E006500200074006F006C006C00650020004B00F6006300680069006E00\"}} werden!"
  },
  {
    "label": "040",
    "text": "{{anim id=\"1\"}}Wir müssen uns daran erinnern, dass\nwir nur so gut essen können, weil\ndie Stadt uns die Zutaten bereithält!\nFeiern wir heute und hoffen, dass\nuns {{fun_00050005 arg=\"\"}} auch nächstes Jahr\nwieder so reich beschenkt!"
  },
  {
    "label": "041",
    "text": "{{anim id=\"11\"}}Das Festmahl, das du und ich\ngemeinsam zubereitet haben...{{pageBreak}}{{anim id=\"1\"}}Ich bin mir sicher, dass es den\nBewohnern von {{fun_00050005 arg=\"\"}} richtig\ngut schmecken wird!{{delay frames=\"10\"}} Gubbldigubbl!"
  },
  {
    "label": "042",
    "text": "{{delay frames=\"5\"}}{{anim id=\"15\"}}{{delay frames=\"10\"}}Hm? {{delay frames=\"15\"}}Was ist? {{delay frames=\"20\"}}{{anim id=\"23\"}}Bist du wegen des\n{{color id=\"2\"}}Herbstfestes{{color id=\"65535\"}} hier?{{pageBreak}}{{anim id=\"1\"}}Wenn du nach dem Festplatz von\n{{fun_00050005 arg=\"\"}} suchst, dann bist du hier\ngoldrichtig!"
  },
  {
    "label": "043",
    "text": "Kommst du von auswärts,\n{{delay frames=\"8\"}}gubbldigubbl?{{pageBreak}}{{anim id=\"1\"}}Das {{color id=\"2\"}}Herbstfest{{color id=\"65535\"}} in deiner Stadt ist\nbestimmt genauso prächtig wie\ndas hier, oder?"
  },
  {
    "label": "044",
    "text": "{{anim id=\"32\"}}Ein frohes {{color id=\"2\"}}Herbstfest{{color id=\"65535\"}} wünsche ich!{{pageBreak}}{{anim id=\"0\"}}{{anim id=\"1\"}}Eine schöne Gelegenheit, für die\nAnnehmlichkeiten und Personen in\ndeinem Leben dankbar zu sein.\nDanken wir heute für {{fun_00050005 arg=\"\"}},{{delay frames=\"5\"}}\nunsere Familien{{delay frames=\"5\"}} und all unsere\nFreunde, {{delay frames=\"8\"}}gubbldigubbl!"
  },
  {
    "label": "045",
    "text": "Jetzt, wo das {{color id=\"2\"}}Herbstfest{{color id=\"65535\"}} zu Ende\nist, werde ich mich direkt auf\nnächstes Jahr vorbereiten!"
  },
  {
    "label": "046",
    "text": "Das {{color id=\"2\"}}Herbstfest{{color id=\"65535\"}} ist vorüber.{{pageBreak}}{{anim id=\"32\"}}Wir sehen uns nächstes Jahr!"
  },
  {
    "label": "047",
    "text": "Bei Festen wie diesem{{delay frames=\"10\"}} {{anim id=\"21\"}}scheint die\nZeit wie im Flug zu vergehen!{{pageBreak}}{{anim id=\"1\"}}Wir sollten auch im kommenden\nJahr weiter hart arbeiten und dann\ngemeinsam den Herbst feiern!"
  },
  {
    "label": "048",
    "text": "Deine Hilfe hat dieses {{color id=\"2\"}}Herbstfest{{color id=\"65535\"}}\nperfekt gemacht!{{pageBreak}}{{anim id=\"32\"}}Vielen Dank! Es wäre schön, wenn\ndu mir auch nächstes Jahr wieder\nhelfen würdest!"
  },
  {
    "label": "049",
    "text": "Dank dir ist das {{color id=\"2\"}}Herbstfest {{color id=\"65535\"}}\nreibungslos über die Bühne\ngegangen!\n{{anim id=\"32\"}}Vielen Dank! Ich hoffe, du wirst\nmich auch nächstes Jahr so toll\nunterstützen!"
  },
  {
    "label": "050",
    "text": "{{delay frames=\"5\"}}{{anim id=\"15\"}}Oh, ich brauche gar nicht alles, den\nRest gebe ich dir wieder!{{pageBreak}}{{anim id=\"11\"}}Hm{{delay frames=\"5\"}}.{{delay frames=\"5\"}}.{{delay frames=\"5\"}}.{{delay frames=\"30\"}} {{anim id=\"3\"}}Diese Zutaten sind ja wirklich\nspitzenmäßig!{{pageBreak}}{{anim id=\"1\"}}Damit bereitet sich ja {{fun_0008000E arg=\"0x00CD060064006500720006006400690065000600640061007300\"}}\n{{color id=\"2\"}}{{fun_00050012 arg=\"0x00CD\"}}{{color id=\"65535\"}} fast von\nallein zu!\n{{anim id=\"11\"}}Jetzt hätte ich gern nur noch\neine {{color id=\"2\"}}Geheimzutat{{color id=\"65535\"}}, so als eine Art\nSahnehäubchen...\n{{anim id=\"0\"}}Sag mal, hast du vielleicht gerade\netwas dabei, das ich als geheime\nZutat nehmen könnte?{{endTag}}\nWie wär's damit?\nNö..."
  },
  {
    "label": "051",
    "text": "{{anim id=\"1\"}}Oh! {{delay frames=\"10\"}}Das kommt gleich zu den\nanderen Zutaten!{{pageBreak}}{{anim id=\"0\"}}Na dann... Wir haben sämtliche\nZutaten..."
  },
  {
    "label": "052",
    "text": ""
  },
  {
    "label": "053",
    "text": ""
  },
  {
    "label": "054",
    "text": ""
  },
  {
    "label": "055",
    "text": ""
  },
  {
    "label": "056",
    "text": ""
  },
  {
    "label": "057",
    "text": ""
  },
  {
    "label": "058",
    "text": ""
  },
  {
    "label": "059",
    "text": ""
  },
  {
    "label": "060",
    "text": ""
  },
  {
    "label": "061",
    "text": ""
  },
  {
    "label": "062",
    "text": ""
  },
  {
    "label": "063",
    "text": ""
  },
  {
    "label": "064",
    "text": ""
  },
  {
    "label": "065",
    "text": ""
  },
  {
    "label": "066",
    "text": ""
  },
  {
    "label": "067",
    "text": ""
  },
  {
    "label": "068",
    "text": ""
  },
  {
    "label": "069",
    "text": ""
  },
  {
    "label": "070",
    "text": ""
  },
  {
    "label": "071",
    "text": ""
  },
  {
    "label": "072",
    "text": ""
  },
  {
    "label": "073",
    "text": ""
  },
  {
    "label": "074",
    "text": ""
  },
  {
    "label": "075",
    "text": ""
  },
  {
    "label": "076",
    "text": ""
  },
  {
    "label": "077",
    "text": ""
  },
  {
    "label": "078",
    "text": ""
  },
  {
    "label": "079",
    "text": ""
  },
  {
    "label": "080",
    "text": ""
  },
  {
    "label": "081",
    "text": ""
  },
  {
    "label": "082",
    "text": ""
  },
  {
    "label": "083",
    "text": "\n{{fun_00040007 arg=\"\"}}{{size value=\"150\"}}Jetzt wird gekocht!{{fun_00050007 arg=\"\"}}{{size value=\"100\"}}{{fun_00090007 arg=\"0x50000000\"}}"
  },
  {
    "label": "084",
    "text": ""
  },
  {
    "label": "085",
    "text": ""
  }
]