﻿[
  {
    "label": "001",
    "text": "{{anim id=\"4\"}}Ich liebe Insekten! {{delay frames=\"20\"}}Insekten sind die\nSchlagsahne auf meinen Erdbeeren,\nder Schokoguss auf meinem Kuchen!\nInsekten sind...{{delay frames=\"20\"}} {{anim id=\"15\"}}Oh, äh, wie bitte?{{delay frames=\"20\"}}\nIch habe dir meine Chamäleonigkeit\nnoch gar nicht vorgestellt?\n{{anim id=\"32\"}}Schmähliche Nachlässigkeit!{{delay frames=\"15\"}}\nGestatten?{{delay frames=\"15\"}} Mein Name ist {{color id=\"4\"}}Carleon{{color id=\"65535\"}}\nund ich liebe Krabbeltiere aller Art!\n{{anim id=\"1\"}}Heute findet das große {{color id=\"2\"}}Insektikus-\nTurnier{{color id=\"65535\"}} statt.{{delay frames=\"40\"}} Um Punkt {{color id=\"2\"}}9:00 Uhr{{color id=\"65535\"}}\nheißt es:{{delay frames=\"15\"}} Kescher startklar machen!"
  },
  {
    "label": "002",
    "text": "{{anim id=\"5\"}}Der Startschuss zum hiesigen,\ndiesigen, heutigen {{color id=\"2\"}}Insektikus-Turnier{{color id=\"65535\"}}\nfällt um {{color id=\"2\"}}9:00 Uhr{{color id=\"65535\"}}. {{delay frames=\"30\"}}Donnerlittchen!\n{{anim id=\"21\"}}Also,{{delay frames=\"20\"}} gedulde dich noch ein\nWeilchen, {{fun_0006000E arg=\"0x22006A0075006E0067006500720020004A00E40067006500720073006D0061006E006E0020006A0075006E006700650020004A00E40067006500720073006600720061007500\"}}!"
  },
  {
    "label": "003",
    "text": "{{anim id=\"5\"}}Das {{color id=\"2\"}}Insektikus-Turnier{{color id=\"65535\"}}!{{delay frames=\"20\"}} Ohoho!{{delay frames=\"20\"}}\nKnusprige Käf-- {{delay frames=\"10\"}}Äh, ich meine:{{delay frames=\"10\"}}\nfaszinierende Exemplare!\nIch kann's kaum erwarten!{{delay frames=\"20\"}} Du etwa?{{delay frames=\"20\"}}\nUm Punkt {{color id=\"2\"}}9:00 Uhr {{color id=\"65535\"}}geht es los.{{delay frames=\"20\"}}\nAlso, bis dahin:{{delay frames=\"20\"}} gemach,{{delay frames=\"7\"}} gemach."
  },
  {
    "label": "004",
    "text": "{{anim id=\"21\"}}Ja, ja, ein verbreitetes Phänomen.{{delay frames=\"40\"}}\n{{anim id=\"1\"}}Du kannst die Insektenjagd kaum\nabwarten, hab ich nicht recht?\n{{anim id=\"23\"}}Wer wird unser heutiger König der\nKrabbeltiere,{{delay frames=\"7\"}} Herrscher der Hirsch-\nkäfer,{{delay frames=\"7\"}} Fürst der Fliegviecher?"
  },
  {
    "label": "005",
    "text": "{{anim id=\"21\"}}Gemach, gemach.{{delay frames=\"20\"}} Ich kann deine\nUngeduld verstehen. {{delay frames=\"10\"}}Und doch...{{pageBreak}}Es geht erst um {{color id=\"2\"}}9:00 Uhr{{color id=\"65535\"}} los,{{delay frames=\"20\"}} und\ndas Gras wächst bekanntlich nicht\nschneller, wenn man daran zieht!"
  },
  {
    "label": "006",
    "text": ""
  },
  {
    "label": "007",
    "text": ""
  },
  {
    "label": "008",
    "text": "{{anim id=\"32\"}}Grüße, {{fun_0006000E arg=\"0x22006A0075006E0067006500720020004A00E40067006500720073006D0061006E006E0020006A0075006E006700650020004A00E40067006500720073006600720061007500\"}}!{{delay frames=\"40\"}}\nDer große Augenblick ist gekommen.{{delay frames=\"20\"}}\nZeit für das {{color id=\"2\"}}Insektikus-Turnier{{color id=\"65535\"}}!\n{{anim id=\"13\"}}Ich bin ja schon so aufgeregt!{{delay frames=\"20\"}}\nWar ganz schön schwer, so lange\ndarauf zu warten, stimmt's?\n{{anim id=\"23\"}}Ach so, sag mal...{{delay frames=\"40\"}}\nSoll ich dir vielleicht noch die\nInsektikus-Regeln erläutern?{{fun_0005000F arg=\"0x15002800\"}}\nDas wär super!\nNee, lass mal."
  },
  {
    "label": "009",
    "text": "{{anim id=\"32\"}}Grüße, {{fun_0006000E arg=\"0x22006A0075006E0067006500720020004A00E40067006500720073006D0061006E006E0020006A0075006E006700650020004A00E40067006500720073006600720061007500\"}}!{{delay frames=\"40\"}}\nDer große Augenblick ist gekommen.{{delay frames=\"20\"}}\nZeit für das {{color id=\"2\"}}Insektikus-Turnier{{color id=\"65535\"}}!\n{{anim id=\"1\"}}Kaum zu glauben, aber heute ist\ntatsächlich schon der letzte\nTurniertag der Saison. {{delay frames=\"40\"}}Tja, ja...\nAber gib noch mal alles, hörst du?{{delay frames=\"40\"}}\nDass ich hinterher keine Flinten\nim Korn finde, alles klar?\n{{anim id=\"23\"}}Ach so, sag mal...{{delay frames=\"40\"}}\nSoll ich dir vielleicht noch die\nInsektikus-Regeln erläutern?{{fun_0005000F arg=\"0x15002800\"}}\nDas wär super!\nNee, lass mal."
  },
  {
    "label": "010",
    "text": "{{anim id=\"1\"}}Na, wen haben wir denn da?{{delay frames=\"20\"}}\nAngehende {{fun_0006000E arg=\"0x200049006E00730065006B00740065006E0066006F007200730063006800650072002A0049006E00730065006B00740065006E0066006F0072007300630068006500720069006E006E0065006E00\"}}\nerkenne ich an ihrer Nasenspitze!\nIch bin der Gastgeber eines kleinen,\naber feinen hiesigen Wettstreits,{{delay frames=\"20\"}}\nbekannt als {{color id=\"2\"}}Insektikus-Turnier{{color id=\"65535\"}}.\n{{anim id=\"9\"}}Teilnehmen können allerdings nur\nEinwohner von {{fun_00050005 arg=\"\"}}.{{delay frames=\"20\"}}\nUnd du bist nicht von hier, richtig?\n{{anim id=\"22\"}}Allerdings...{{delay frames=\"40\"}} Du könntest mir ja\ntrotzdem Insekten bringen.{{delay frames=\"20\"}} Leckere,\nalso, ich meine: {{delay frames=\"10\"}}erlesene Insekten.\n{{anim id=\"21\"}}Dann könnte ich dir sagen, ob\nsie gut schm--{{delay frames=\"10\"}} äh, wie viele Punkte\nsie wert wären!\n{{anim id=\"1\"}}Und wenn du mit deinem Insekt den\nStadtrekord knackst, dann gebe ich\ndir einen Preis dafür. {{delay frames=\"20\"}}Na?"
  },
  {
    "label": "011",
    "text": "{{anim id=\"32\"}}Lasst die Jagd beginnen!{{delay frames=\"20\"}} Und dran\ndenken: {{delay frames=\"20\"}}Die besten Insekten\npostwendend bei mir abliefern!"
  },
  {
    "label": "012",
    "text": "{{anim id=\"41\"}}Mir fällt es wie Schuppen von den\nAugen!{{delay frames=\"40\"}} Du brauchst einen {{color id=\"2\"}}Kescher{{color id=\"65535\"}}!{{delay frames=\"30\"}}\n{{anim id=\"1\"}}Kein Kescher, keine Käfer."
  },
  {
    "label": "013",
    "text": "{{anim id=\"9\"}}Beim Barte der Königin!{{delay frames=\"10\"}}\nKein Interesse?!\n{{delay frames=\"40\"}}Nun gut, ganz wie du wünschst.\n{{anim id=\"11\"}}Bin mal gespannt, wie du mir jetzt\ndie schönsten, größten Insekten\nbringen willst..."
  },
  {
    "label": "014",
    "text": "{{anim id=\"18\"}}Oh ho ho!{{delay frames=\"10\"}} Die Juuuuugend!{{delay frames=\"20\"}}\nHör mal, da fehlen aber noch\nein paar Sternis!\n{{anim id=\"32\"}}Wenn du meinen Kescher willst,{{delay frames=\"15\"}}\ngeh und komm mit vollem\nGeldbeutel wieder!"
  },
  {
    "label": "015",
    "text": "{{anim id=\"15\"}}Was seh ich da?{{delay frames=\"40\"}} Deine Taschen\nsind ja bereits voll!{{pageBreak}}{{anim id=\"9\"}}Also hör mal.{{delay frames=\"40\"}} Wenn du meinen\nKescher willst, musst du zuerst\nPlatz für ihn schaffen."
  },
  {
    "label": "016",
    "text": "Famos!{{delay frames=\"10\"}}\nDas macht dann {{color id=\"2\"}}500 Sternis{{color id=\"65535\"}}."
  },
  {
    "label": "017",
    "text": "{{anim id=\"1\"}}Damit bist du nun hochoffiziell\ngestiefelt und gespornt.{{pageBreak}}{{anim id=\"32\"}}Auf, auf, in die weite Welt der\nInsekten!{{delay frames=\"20\"}} Schnapp sie dir und bring\nsie mir!{{delay frames=\"20\"}} Schnurstracks!"
  },
  {
    "label": "018",
    "text": ""
  },
  {
    "label": "019",
    "text": ""
  },
  {
    "label": "020",
    "text": ""
  },
  {
    "label": "021",
    "text": "{{anim id=\"1\"}}Aha, {{fun_0006000E arg=\"0x340064006500720020006A0075006E0067006500200049006E00730065006B00740065006E0066006F00720073006300680065007200380064006900650020006A0075006E0067006500200049006E00730065006B00740065006E0066006F0072007300630068006500720069006E00\"}}\nist zurück!{{delay frames=\"20\"}} Wie läuft die Jagd?{{delay frames=\"20\"}}\nSind die Insekten dir hold?{{fun_0005000F arg=\"0x00002800\"}}\nGuck mal, ich hab eins!\nNee, vergiss es."
  },
  {
    "label": "022",
    "text": "{{anim id=\"18\"}}Ei der Daus!{{delay frames=\"10\"}} Hat man Worte!{{delay frames=\"40\"}}\n{{anim id=\"12\"}}Und ich hatte solche Hoffnung{{delay frames=\"8\"}}.{{delay frames=\"8\"}}.{{delay frames=\"8\"}}.{{pageBreak}}{{anim id=\"33\"}}Aber nun.{{delay frames=\"20\"}} {{anim id=\"40\"}}Nur keine Pimpernellen!{{delay frames=\"20\"}}\nGut Ding will Weile haben.{{delay frames=\"40\"}} {{anim id=\"1\"}}Ich werde\nhier auf dich warten. {{delay frames=\"20\"}}Jawohl."
  },
  {
    "label": "023",
    "text": ""
  },
  {
    "label": "024",
    "text": "{{anim id=\"21\"}}Falls es dich interessiert...{{delay frames=\"40\"}}\nUnser momentaner Spitzenreiter...{{delay frames=\"30\"}}\nbist du!\n{{fun_0008000E arg=\"0x00CD08004400650069006E000A004400650069006E00650008004400650069006E00\"}} {{fun_00030011 arg=\"0x0000\"}}\nist {{color id=\"2\"}}{{fun_00080004 arg=\"0x0000\"}} Punkte{{color id=\"65535\"}} wert.{{delay frames=\"20\"}}\nDamit hast du die Nase vorn!"
  },
  {
    "label": "025",
    "text": "{{anim id=\"21\"}}Falls es dich interessiert...{{delay frames=\"40\"}}\nUnser momentaner Spitzenreiter...{{delay frames=\"30\"}}\nist {{fun_00010011 arg=\"0x0000\"}}!\n{{fun_0007000E arg=\"0x0400450072000600530069006500\"}} hat {{fun_0012000E arg=\"0x10002200650069006E0065006E002000770075006E0064006500720062006100720065006E001E00650069006E0065002000770075006E0064006500720062006100720065001E00650069006E002000770075006E0064006500720062006100720065007300\"}}\n{{fun_00030011 arg=\"0x0000\"}} im Wert\nvon {{color id=\"2\"}}{{fun_00080004 arg=\"0x0000\"}} Punkten {{color id=\"65535\"}}gefangen.\nDamit hat {{fun_0007000E arg=\"0x0400650072000600730069006500\"}} die Nase vorn!"
  },
  {
    "label": "026",
    "text": "{{anim id=\"11\"}}Dann wollen wir mal{{delay frames=\"8\"}}.{{delay frames=\"8\"}}.{{delay frames=\"8\"}}.{{pageBreak}}{{anim id=\"1\"}}Oh, ja,{{delay frames=\"20\"}} was für {{fun_0008000E arg=\"0x00CD1800650069006E0020006800FC006200730063006800650072001800650069006E00650020006800FC00620073006300680065001800650069006E0020006800FC00620073006300680065007300\"}}\n{{fun_00030011 arg=\"0x0000\"}}!{{pageBreak}}\n{{anim id=\"4\"}}{{fun_000B0007 arg=\"\"}}{{size value=\"200\"}}Exquisit!{{size value=\"100\"}}"
  },
  {
    "label": "027",
    "text": "{{anim id=\"11\"}}Also, mal schauen{{delay frames=\"8\"}}.{{delay frames=\"8\"}}.{{delay frames=\"8\"}}.{{pageBreak}}{{anim id=\"16\"}}{{fun_000B0007 arg=\"\"}}Da wird doch der Hundertfüßler in\nder Pfanne verrückt!{{delay frames=\"40\"}} {{fun_0008000E arg=\"0x00CD1800450069006E002000730065006C00740065006E00650072001800450069006E0065002000730065006C00740065006E0065001800450069006E002000730065006C00740065006E0065007300\"}}\n{{fun_00030011 arg=\"0x0000\"}}!\n\n{{anim id=\"4\"}}{{fun_000B0007 arg=\"\"}}{{size value=\"200\"}}Verblüffend!{{size value=\"100\"}}"
  },
  {
    "label": "028",
    "text": "{{anim id=\"11\"}}Mal sehen. {{delay frames=\"20\"}}Hmmm{{delay frames=\"8\"}}.{{delay frames=\"8\"}}.{{delay frames=\"8\"}}.{{pageBreak}}{{anim id=\"18\"}}{{fun_000B0007 arg=\"\"}}Ja, bei Tante Agathes Porzellan!{{delay frames=\"20\"}}\nDas ist doch...{{delay frames=\"40\"}} {{fun_0008000E arg=\"0x00CD1800650069006E00200073007500750075007000650072002D001A00650069006E006500200073007500750075007000650072002D001800650069006E00200073007500750075007000650072002D00\"}}\n{{fun_0008000E arg=\"0x00CD1000730065006C00740065006E00650072000E00730065006C00740065006E0065001000730065006C00740065006E0065007300\"}} {{fun_00030011 arg=\"0x0000\"}}!\n{{size value=\"100\"}}{{anim id=\"4\"}}{{fun_000B0007 arg=\"\"}}\n{{size value=\"200\"}}Vorzüglich!{{size value=\"100\"}}{{size value=\"100\"}}"
  },
  {
    "label": "029",
    "text": "{{anim id=\"1\"}}Ich würde das Insekt gerne...{{delay frames=\"20\"}}\nein wenig näher untersuchen.{{delay frames=\"20\"}}\nWäre das in Ordnung für dich?\n{{anim id=\"36\"}}Nur damit wir uns verstehen...{{delay frames=\"20\"}}\nIch würde es dann behalten.{{delay frames=\"20\"}}\n{{anim id=\"23\"}}Also, was meinst du?{{fun_0008000D arg=\"0x02CD\"}}{{fun_0005000F arg=\"0x15002800\"}}\nWeil du's bist.\nHe! Das ist meins!"
  },
  {
    "label": "030",
    "text": "{{anim id=\"21\"}}Wundervoll, ganz wundervoll!{{delay frames=\"20\"}}\nDann will ich dein Insekt doch\nmal unter die Lupe nehmen{{delay frames=\"8\"}}.{{delay frames=\"8\"}}.{{delay frames=\"8\"}}."
  },
  {
    "label": "031",
    "text": "{{anim id=\"11\"}}Hmmm...{{delay frames=\"20\"}} Tja,{{delay frames=\"10\"}} also,{{delay frames=\"10\"}} für {{fun_0008000E arg=\"0x00CD0A00650069006E0065006E000800650069006E0065000600650069006E00\"}}\n{{fun_00030011 arg=\"0x0000\"}} ist {{fun_0008000E arg=\"0x00CD0400650072000600730069006500040065007300\"}}\nnicht besonders groß geraten."
  },
  {
    "label": "032",
    "text": "{{anim id=\"11\"}}{{fun_0008000E arg=\"0x00CD2400450069006E002000610075007300670065007700610063006800730065006E00650072002400450069006E0065002000610075007300670065007700610063006800730065006E0065002400450069006E002000610075007300670065007700610063006800730065006E0065007300\"}}\n{{fun_00030011 arg=\"0x0000\"}} von\nnormaler Größe, doch, doch."
  },
  {
    "label": "033",
    "text": "{{anim id=\"16\"}}Oho! {{delay frames=\"20\"}}Ja! {{delay frames=\"20\"}}{{anim id=\"1\"}}So {{fun_0008000E arg=\"0x00CD1800650069006E0065006E002000670072006F00DF0065006E001400650069006E0065002000670072006F00DF0065001400650069006E002000670072006F00DF0065007300\"}}\n{{fun_00030011 arg=\"0x0000\"}} findet man\nnur selten.{{delay frames=\"40\"}} Ein echter Brummer!"
  },
  {
    "label": "034",
    "text": "{{anim id=\"0\"}}Sehen wir uns jetzt Farbe und Glanz\nnäher an.{{delay frames=\"40\"}} {{anim id=\"9\"}}Oh-oh.{{delay frames=\"40\"}} Tut mir leid, aber{{delay frames=\"8\"}}.{{delay frames=\"8\"}}.{{delay frames=\"8\"}}.\n{{anim id=\"40\"}}das ist bestenfalls mangelhaft."
  },
  {
    "label": "035",
    "text": "{{anim id=\"0\"}}Sehen wir uns jetzt Farbe und Glanz\nnäher an.{{delay frames=\"40\"}} {{anim id=\"21\"}}Ja, doch, doch,{{delay frames=\"20\"}} das kann\nsich sehen lassen.{{delay frames=\"20\"}} Guter Standard."
  },
  {
    "label": "036",
    "text": "{{anim id=\"0\"}}Sehen wir uns jetzt Farbe und Glanz\nnäher an.{{delay frames=\"40\"}} {{anim id=\"4\"}}Oh, Funkelalarm!{{delay frames=\"20\"}} Wie die\nFarben schillern! {{delay frames=\"40\"}}Herzerwärmend!"
  },
  {
    "label": "037",
    "text": "{{anim id=\"0\"}}Alles in allem würde ich sagen:{{delay frames=\"20\"}}{{fun_00040007 arg=\"\"}}{{anim id=\"11\"}}\n{{fun_0008000E arg=\"0x00CD0C004400650069006E0065006D000C004400650069006E00650072000C004400650069006E0065006D00\"}} {{fun_00030011 arg=\"0x0000\"}}\ngebühren...{{fun_00050007 arg=\"\"}}{{fun_00090007 arg=\"0x5A000000\"}}\n\n{{anim id=\"22\"}}{{fun_000B0007 arg=\"\"}}{{color id=\"2\"}}{{size value=\"150\"}}{{fun_00080004 arg=\"0x0000\"}} Punkte{{size value=\"100\"}}{{color id=\"65535\"}}{{size value=\"150\"}}!{{size value=\"100\"}}"
  },
  {
    "label": "038",
    "text": "{{anim id=\"12\"}}Oooch,{{delay frames=\"20\"}} tut mir wirklich leid,\n{{fun_0006000E arg=\"0x34006D00650069006E0020006A0075006E00670065007200200049006E00730065006B00740065006E0066007200650075006E00640038006D00650069006E00650020006A0075006E0067006500200049006E00730065006B00740065006E0066007200650075006E00640069006E00\"}}. {{delay frames=\"20\"}}Das\nreicht nicht ganz für den Rekord.\n{{anim id=\"0\"}}Dieses deliz--{{delay frames=\"20\"}} delikate, feingliedrige\nExemplar nehme ich dann wie\nbesprochen zu mir, nicht wahr?"
  },
  {
    "label": "039",
    "text": "{{anim id=\"9\"}}Aber keine Müdigkeit vorschützen!{{delay frames=\"20\"}}\nNoch ist nicht aller Tage Abend.{{delay frames=\"40\"}}{{anim id=\"1\"}}\nNeuer Tag bringt neue Tierchen!"
  },
  {
    "label": "040",
    "text": "{{anim id=\"9\"}}Na, Kopf hoch, {{fun_0006000E arg=\"0x0A004A0075006E00670065000A004D00E400640065006C00\"}}. {{delay frames=\"20\"}}{{anim id=\"1\"}}Eines Tages\nseh ich dich auf dem Treppchen,{{delay frames=\"20\"}} das\nsagt mir mein Chamäleon-Instinkt!"
  },
  {
    "label": "041",
    "text": "{{anim id=\"15\"}}Beim Siebenpunktigen\nKlabauterkäfer,{{delay frames=\"8\"}} das ist wunderbar!{{delay frames=\"20\"}}\nDamit ist der {{color id=\"2\"}}dritte Platz{{color id=\"65535\"}} dein!\n{{anim id=\"21\"}}Du hast Talent, das würde ich\nselbst ohne Brille erkennen. {{delay frames=\"40\"}}Und ich\nhab mindestens hundert Dioptrien!\n{{anim id=\"36\"}}Jedenfalls...{{delay frames=\"20\"}} Dieses gut aussehende\nExemplar von einem Insekt behalte\nich dann mal.{{delay frames=\"20\"}} Wie besprochen.\n{{anim id=\"35\"}}{{size value=\"150\"}}{{color id=\"5\"}}(GURRRGL! GLUCKS!)\n{{color id=\"65535\"}}{{delay frames=\"40\"}}{{size value=\"100\"}}Äh, war was?{{pageBreak}}{{anim id=\"2\"}}Hahaha, nein,{{delay frames=\"20\"}} ich käme doch niemals\nauf die Idee, dein preisgekröntes\nInsekt zu verspeisen. {{delay frames=\"40\"}}{{anim id=\"40\"}}Absurd..."
  },
  {
    "label": "042",
    "text": "{{anim id=\"15\"}}Ach du lieber Wachtelweizen!{{delay frames=\"20\"}}\nDas... {{delay frames=\"20\"}}Das ist herausragend!{{delay frames=\"20\"}}\nDamit holst du den {{color id=\"2\"}}zweiten Platz{{color id=\"65535\"}}!\n{{anim id=\"21\"}}Auf dem Gebiet des Kescher-\nschwingens bist du Experte, was?{{delay frames=\"20\"}}{{anim id=\"36\"}}\nDeinen Fang behalt ich dann mal...\n{{anim id=\"35\"}}{{size value=\"150\"}}{{color id=\"5\"}}(GURRRGL! GLUCKS!){{color id=\"65535\"}}{{size value=\"100\"}}\n{{delay frames=\"40\"}}Äh, wie bitte?{{delay frames=\"20\"}} Was sagtest du?{{pageBreak}}{{anim id=\"17\"}}Ob das Sabberfäden sind?!{{delay frames=\"20\"}} {{anim id=\"27\"}}Du hast\nvielleicht Ideen, {{anim id=\"2\"}}hahaha!{{delay frames=\"20\"}} Du warst\nwohl zu lange in der Sonne...{{delay frames=\"20\"}}{{anim id=\"1\"}}"
  },
  {
    "label": "043",
    "text": "{{anim id=\"1\"}}Ich hoffe, du bleibst weiterhin\nam Ball, {{fun_0006000E arg=\"0x24006D00650069006E0020006A0075006E00670065007200200046007200650075006E00640028006D00650069006E0020006A0075006E00670065007300200046007200E40075006C00650069006E00\"}}!"
  },
  {
    "label": "044",
    "text": ""
  },
  {
    "label": "045",
    "text": "{{anim id=\"15\"}}Donner und Doria, {{delay frames=\"20\"}}Zwist und\nZwirbel!{{delay frames=\"20\"}} Das ist Rekooord!{{delay frames=\"20\"}}\n{{color id=\"2\"}}Erster Platz{{color id=\"65535\"}}!{{delay frames=\"20\"}} Erster Platz für dich!\n{{anim id=\"3\"}}Triumphal!{{delay frames=\"20\"}} Überwältigend!{{delay frames=\"20\"}}\nGanz, ganz prächtig!{{delay frames=\"20\"}}\nMeinen Glückwunsch.\n{{anim id=\"1\"}}Dann kommen wir jetzt zu deinem\nPreis! {{delay frames=\"20\"}}{{anim id=\"36\"}}Moment, ich nehme nur\neben diese feine Kreatur an mich.\n{{anim id=\"35\"}}{{size value=\"140\"}}{{color id=\"5\"}}(SCHMURRGL! {{delay frames=\"20\"}}GLUCKS!){{color id=\"65535\"}}{{size value=\"100\"}}\n{{delay frames=\"40\"}}{{anim id=\"23\"}}Hm? {{delay frames=\"20\"}}Wie bitte?{{pageBreak}}{{anim id=\"2\"}}Mumpitz,{{delay frames=\"20\"}} ich sabbere doch nicht!{{delay frames=\"20\"}}\nMein Interesse an Insekten ist rein\nwissenschaftlicher Natur!{{delay frames=\"20\"}}{{anim id=\"1\"}}"
  },
  {
    "label": "046",
    "text": "{{anim id=\"1\"}}Ich habe einen ganz besonderen\nPreis für dich. {{delay frames=\"20\"}}Hier, nur für dich,\n{{fun_0002000E arg=\"\"}}{{fun_00030011 arg=\"0x0000\"}}!"
  },
  {
    "label": "047",
    "text": "{{anim id=\"5\"}}Ich als altes, erfahrenes Chamäleon\nsage:{{delay frames=\"40\"}} Weiter so!{{delay frames=\"20\"}} Knack bald deinen\nRekord!{{delay frames=\"20\"}} Bring mehr tolle Insekten!"
  },
  {
    "label": "048",
    "text": ""
  },
  {
    "label": "049",
    "text": "{{anim id=\"32\"}}Also, {{fun_0006000E arg=\"0x24006D00650069006E0020006A0075006E00670065007200200046007200650075006E00640028006D00650069006E0020006A0075006E00670065007300200046007200E40075006C00650069006E00\"}}.{{delay frames=\"20\"}}\nEs ist Zeit für die Siegerehrung.{{delay frames=\"20\"}}\nIch seh dich gleich im Zelt, ja?\n{{anim id=\"21\"}}Sei aber pünktlich.{{delay frames=\"20\"}} Um {{color id=\"2\"}}21:00 Uhr{{color id=\"65535\"}}\nbrechen wir im Zelt die Zelte ab,\nwenn du verstehst, was ich meine."
  },
  {
    "label": "050",
    "text": "{{anim id=\"23\"}}Na, was hast du für ein Gefühl?{{delay frames=\"40\"}}\nBist du zufrieden mit der Jagd?{{pageBreak}}{{anim id=\"5\"}}Ich verkünde die Gewinner gleich\nbei der Siegerehrung.{{delay frames=\"40\"}} Es geht sofort\nlos.{{delay frames=\"40\"}} Du kannst im Zelt warten!"
  },
  {
    "label": "051",
    "text": "{{anim id=\"5\"}}Das große Finale des {{color id=\"2\"}}Insektikus-\nTurniers {{color id=\"65535\"}}steht kurz bevor!{{pageBreak}}{{anim id=\"1\"}}Wenn du an der Siegerehrung\nteilnehmen willst, dann geh schon\nmal vor ins Zelt und warte dort."
  },
  {
    "label": "052",
    "text": "{{anim id=\"5\"}}Die Siegerehrung für das\n{{color id=\"2\"}}Insektikus-Turnier{{color id=\"65535\"}} geht gleich los!{{pageBreak}}{{anim id=\"1\"}}Wer dabei sein möchte, muss bis\n{{color id=\"2\"}}21:00 Uhr{{color id=\"65535\"}} im Zelt sein.{{delay frames=\"20\"}} Keine\nMinute später, alles klar?"
  },
  {
    "label": "053",
    "text": "{{anim id=\"1\"}}So, {{fun_0006000E arg=\"0x24006D00650069006E0020006A0075006E00670065007200200046007200650075006E00640028006D00650069006E0020006A0075006E00670065007300200046007200E40075006C00650069006E00\"}}.{{delay frames=\"20\"}} Du\nkommst doch zur Siegerehrung,\noder?\nAlle müssen sich bis spätestens\n{{color id=\"2\"}}21:00 Uhr{{color id=\"65535\"}} im Zelt versammelt\nhaben.{{delay frames=\"20\"}} Also hopp, hopp!"
  },
  {
    "label": "054",
    "text": "{{anim id=\"32\"}}Zeit für die Siegerehrung\ndes {{color id=\"2\"}}Insektikus-Turniers{{color id=\"65535\"}}!{{delay frames=\"20\"}}\n{{anim id=\"1\"}}Kommst du auch?\nWo du schon mal zu Besuch bist,\nkönntest du den Gewinnern ja auch\ngratulieren,{{delay frames=\"20\"}} was meinst du?\nDu müsstest dich nur bis spätestens\n{{color id=\"2\"}}21:00 Uhr{{color id=\"65535\"}} im Zelt einfinden.{{delay frames=\"20\"}} Du\nkannst ja drinnen warten."
  },
  {
    "label": "055",
    "text": ""
  },
  {
    "label": "056",
    "text": "{{anim id=\"18\"}}Verflixt und drübergemäht!{{delay frames=\"40\"}}\n{{anim id=\"12\"}}Oh, das schmerzt!{{delay frames=\"20\"}} Das trifft\nmich zutiefst!\n{{anim id=\"0\"}}Halt, warte mal{{delay frames=\"8\"}}.{{delay frames=\"8\"}}.{{delay frames=\"8\"}}.{{delay frames=\"20\"}} Ist das die\nMöglichkeit?!{{delay frames=\"20\"}} {{anim id=\"13\"}}Du scheinst ja gar\nkeinen Kescher zu haben!\n{{anim id=\"0\"}}Daher weht der Wind!{{delay frames=\"20\"}} Du hast\nüberhaupt nichts gefangen!{{delay frames=\"20\"}}{{anim id=\"21\"}} Wie\nauch, ohne Kescher.{{delay frames=\"20\"}} Tss..."
  },
  {
    "label": "057",
    "text": "Insektenforscher haben bei mir\neinen Stein im Brett.{{delay frames=\"20\"}} Ich mache dir\neinen Freundschaftspreis.\n{{anim id=\"23\"}}Also, wie wär's?{{delay frames=\"20\"}}\nEin Kescher für {{color id=\"2\"}}500 Sternis{{color id=\"65535\"}}?{{fun_0008000D arg=\"0x02CD\"}}{{fun_0005000F arg=\"0x15002800\"}}\nIst gekauft.\nBrauch ich nicht."
  },
  {
    "label": "058",
    "text": ""
  },
  {
    "label": "059",
    "text": "{{anim id=\"1\"}}Was für ein Turnier!{{delay frames=\"20\"}} All die Insekten!{{delay frames=\"20\"}}\nIch habe mich so richtig\nsattgegess--{{delay frames=\"20\"}}{{anim id=\"40\"}} äh, sattgesehen!{{delay frames=\"20\"}}{{anim id=\"1\"}} Hehe."
  },
  {
    "label": "060",
    "text": "{{anim id=\"1\"}}Das {{color id=\"2\"}}Insektikus-Turnier {{color id=\"65535\"}}war mal\nwieder ein voller Erfolg!"
  },
  {
    "label": "061",
    "text": "{{anim id=\"29\"}}Meinen herzlichsten Glückwunsch\nzum Sieg, {{fun_0006000E arg=\"0x24006D00650069006E0020006A0075006E00670065007200200046007200650075006E00640028006D00650069006E0020006A0075006E00670065007300200046007200E40075006C00650069006E00\"}}!{{pageBreak}}{{anim id=\"1\"}}Möge der Pokal dir deinen Triumph\nnoch lange vor Augen halten.{{delay frames=\"40\"}}\nPass gut auf ihn auf!"
  },
  {
    "label": "062",
    "text": "{{anim id=\"1\"}}Herzlichen Glückwunsch!{{delay frames=\"20\"}} Und fast\nhätte es zum Sieg gereicht.{{delay frames=\"20\"}} {{anim id=\"21\"}}Nun,\nes gibt immer ein nächstes Mal!"
  },
  {
    "label": "063",
    "text": "{{anim id=\"1\"}}Herzlichen Glückwunsch,\n{{fun_0006000E arg=\"0x24006D00650069006E0020006A0075006E00670065007200200046007200650075006E00640028006D00650069006E0020006A0075006E00670065007300200046007200E40075006C00650069006E00\"}}!{{delay frames=\"20\"}}\nDu hast alles gegeben!"
  },
  {
    "label": "064",
    "text": "{{anim id=\"23\"}}Du wirst meine Chamäleonigkeit\nbeim nächsten Mal auch wieder mit\nfeinen Krabblern erfreuen,{{anim id=\"21\"}}{{delay frames=\"40\"}} ja?"
  },
  {
    "label": "065",
    "text": "{{anim id=\"21\"}}Ich weiß,{{delay frames=\"20\"}} ich weiß.{{delay frames=\"20\"}} Es ist zum\nMäusemelken, nicht wahr?{{delay frames=\"20\"}}\nAll die glücklichen Gewinner...\n{{anim id=\"5\"}}Aber geduldige Insektenforscher\ngeben nicht auf!{{delay frames=\"20\"}} Ich hoffe, ich sehe\ndich beim nächsten Turnier!"
  },
  {
    "label": "066",
    "text": "{{anim id=\"21\"}}Deine Zeit wird kommen, gewiss!{{delay frames=\"40\"}}\n{{anim id=\"1\"}}Gib nur die Jagd nach essba--{{delay frames=\"20\"}} äh,\nessenziellen Insekten nicht auf!"
  },
  {
    "label": "067",
    "text": "{{anim id=\"1\"}}Da hast du alle anderen wahrlich\nmit Karacho überholt!{{delay frames=\"40\"}} Du kannst\nstolz auf dich sein!"
  },
  {
    "label": "068",
    "text": "{{anim id=\"1\"}}Soll ich dir den momentanen\nRekord verraten?{{delay frames=\"20\"}} In Ordnung.{{pageBreak}}Den Rekord hält {{fun_00000011 arg=\"0x0000\"}} mit\n{{fun_0012000E arg=\"0x10000A00650069006E0065006D000A00650069006E00650072000A00650069006E0065006D00\"}} {{fun_00030011 arg=\"0x0000\"}} im\nWert von {{color id=\"2\"}}{{fun_00080004 arg=\"0x0000\"}} Punkten{{color id=\"65535\"}}!"
  },
  {
    "label": "069",
    "text": "{{anim id=\"1\"}}Nur keine Müdigkeit vorschützen!{{delay frames=\"20\"}}\nAls {{fun_0006000E arg=\"0x1E00770061006800720065007200200046006F00720073006300680065007200200077006100680072006500200046006F0072007300630068006500720069006E00\"}} solltest du\nin Bälde neue Krabbeltiere jagen!"
  },
  {
    "label": "070",
    "text": "Mach dich auf die Socken,\n{{fun_0006000E arg=\"0x22006A0075006E0067006500720020004A00E40067006500720073006D0061006E006E0020006A0075006E006700650020004A00E40067006500720073006600720061007500\"}}.{{delay frames=\"20\"}} {{anim id=\"32\"}}Noch ist\nnicht aller Tage Abend!"
  },
  {
    "label": "071",
    "text": "{{anim id=\"11\"}}Hmmm{{delay frames=\"8\"}}.{{delay frames=\"8\"}}.{{delay frames=\"8\"}}. Für ein Insekt dieser\nGüteklasse kann ich dir leider\ngar nichts anbieten.\n{{anim id=\"13\"}}Tut mir wirklich leid!{{delay frames=\"40\"}} Ähm, behalten\nmuss ich es leider dennoch."
  },
  {
    "label": "072",
    "text": "{{anim id=\"16\"}}Schiefgeschniegelter Schnurrbart!{{delay frames=\"20\"}}\nDas überbietet unseren momentanen\nErstplatzierten!{{delay frames=\"40\"}} Das ist Rekooord!\n{{anim id=\"21\"}}Und was für ein wunderschönes\nExemplar du da mitgebracht hast!{{delay frames=\"20\"}}\nGanz erstaunlich!\n{{anim id=\"35\"}}{{size value=\"150\"}}{{color id=\"5\"}}(GÜRRGL! GLUCKS!){{color id=\"65535\"}}{{size value=\"100\"}}\n{{delay frames=\"40\"}}{{anim id=\"23\"}}Hm?{{delay frames=\"20\"}} Was hast du gesagt?{{pageBreak}}{{anim id=\"2\"}}Oooh, nein, ich würde doch nicht\nheimlich an deinem Insektchen\nknabbern!{{delay frames=\"20\"}} Niemals!{{delay frames=\"20\"}}{{anim id=\"1\"}}\nHab nicht solch finstere Gedanken!{{delay frames=\"20\"}}\nHier, nimm zum Tausch doch {{fun_0008000E arg=\"0x00CD0C00640069006500730065006E000A00640069006500730065000C00640069006500730065007300\"}} \n{{fun_00030011 arg=\"0x0000\"}} entgegen."
  },
  {
    "label": "073",
    "text": "{{anim id=\"1\"}}Und beim nächsten Mal hätte ich\ngerne ein noch lecke--{{delay frames=\"20\"}} äh, ich meine:\nlexikalisch interessanteres Tierchen!"
  },
  {
    "label": "074",
    "text": "{{anim id=\"1\"}}Solltest du noch weitere\nschmackige Krabbeltiere finden,{{delay frames=\"40\"}}\nweißt du ja, wo du mich findest."
  },
  {
    "label": "075",
    "text": "Wohlan, {{fun_0006000E arg=\"0x28006D00650069006E0020006B00E4006600650072006B006C0061007500620065006E0064006500720028006D00650069006E00650020006B00E4006600650072006B006C0061007500620065006E0064006500\"}}\n{{fun_0006000E arg=\"0x0C004B0075006D00700065006C0012004B0075006D00700065006C0069006E006500\"}}. {{delay frames=\"20\"}}Ich erkläre dir alles,\nwas du wissen musst.\n{{anim id=\"21\"}}Es ist gar nicht schwer,\ndas wirst du gleich merken.{{pageBreak}}Also, das Turnier endet um Schlag\n{{color id=\"2\"}}18:00 Uhr{{color id=\"65535\"}}. {{delay frames=\"20\"}}So lange hast du Zeit,\nmir deine Insekten zu bringen.\n{{anim id=\"1\"}}Als uralter Insektenkenner werde\nich deinen Fund mit Expertenblick\nbegutachten und bewerten.\nIch achte auf Seltenheit, Größe und\nGlanz und ermittle daraus die\n{{color id=\"2\"}}Punkte{{color id=\"65535\"}}, die dein Insekt verdient.\n{{anim id=\"22\"}}Kurz gesagt:{{delay frames=\"20\"}} Wer mir vor {{color id=\"2\"}}18:00 Uhr{{color id=\"65535\"}}\ndas tollste Tierchen bringt, gewinnt!{{pageBreak}}{{anim id=\"0\"}}Wenn du den ersten, zweiten oder\ndritten Platz belegst, {{anim id=\"3\"}}dann gibt es\neinen tollen Preis für dich!\n{{anim id=\"0\"}}Die Preise überreiche ich den\nglücklichen Gewinnern immer bei\nder Siegerehrung nach dem Turnier.\n{{anim id=\"21\"}}An deiner Stelle würde ich mir also\nMühe geben!{{delay frames=\"20\"}} Es winken Pokale!{{delay frames=\"20\"}}\nDie sind nicht von schlechten Eltern.\n{{anim id=\"1\"}}Nun, ich bin mir sicher, wir werden\nheute beide eine gehörige Portion\nSpaß haben, jawohl.{{pageBreak}}{{anim id=\"11\"}}Hm,{{delay frames=\"10\"}} was noch?{{pageBreak}}{{anim id=\"1\"}}Ach ja!{{delay frames=\"20\"}} Nicht vergessen:{{delay frames=\"20\"}} Neben den\nPokalen gibt es heute auch noch\nandere schnuckelige Preise.\n{{anim id=\"0\"}}Aber nur für denjenigen, der den\nRekord für den ersten Platz knackt.{{delay frames=\"20\"}}\n{{anim id=\"1\"}}Streng dich an,{{delay frames=\"10\"}} ja,{{delay frames=\"10\"}} ja!\nTschakka, tschakka!"
  },
  {
    "label": "076",
    "text": "{{anim id=\"9\"}}Oh.{{delay frames=\"20\"}} Schade eigentlich.{{delay frames=\"40\"}}\nNa gut, hier hast du dein Insekt."
  },
  {
    "label": "077",
    "text": "{{anim id=\"9\"}}Das {{color id=\"2\"}}Insektikus-Turnier{{color id=\"65535\"}} ist\nleider schon vorbei.{{pageBreak}}{{anim id=\"1\"}}Ich hoffe, du bist beim nächsten\nMal auch dabei. {{delay frames=\"20\"}}Macht Spaß!"
  },
  {
    "label": "078",
    "text": "{{anim id=\"1\"}}Beim {{color id=\"2\"}}Insektikus-Turnier{{color id=\"65535\"}} geht es\nimmer hoch her! {{delay frames=\"20\"}}Na ja, Krabbel-\ntierchen sind ja auch famos."
  },
  {
    "label": "079",
    "text": "{{anim id=\"9\"}}Hm, tut mir leid, aber{{delay frames=\"20\"}} wir mussten\ndie Siegerehrung leider absagen.{{pageBreak}}{{anim id=\"1\"}}Ich schicke den Gewinnern ihre\nPokale per Post zu, also keine\nSorge. {{delay frames=\"20\"}}Bis zum nächsten Turnier!"
  },
  {
    "label": "080",
    "text": "{{anim id=\"9\"}}Heute mussten wir die Siegerehrung\nleider, leider absagen.{{pageBreak}}{{anim id=\"1\"}}Ich schicke den Siegern ihre\nPokale mit der Post zu."
  },
  {
    "label": "081",
    "text": "{{anim id=\"4\"}}Die Siegerehrung heute war\nwahrlich schön.{{delay frames=\"20\"}} Sehr bewegend.{{pageBreak}}Das Strahlen auf den Gesichtern\nder Gewinner... {{delay frames=\"20\"}}Da ist man gerne\nGastgeber des {{color id=\"2\"}}Insektikus-Turniers{{color id=\"65535\"}}.\n{{anim id=\"35\"}}Ja, gut, die vielen schönen Insekten\ntragen natürlich auch ihren Teil\ndazu bei{{delay frames=\"20\"}}.{{delay frames=\"20\"}}.{{delay frames=\"20\"}}.\n{{anim id=\"15\"}}Ach so!{{delay frames=\"20\"}} Für den Fall, dass jemand\nnicht bei der Siegerehrung dabei\nsein konnte...{{delay frames=\"20\"}} {{anim id=\"1\"}}Keine Sorge!\nFalls derjenige etwas gewonnen\nhat, schicke ich es per Post.{{delay frames=\"20\"}}\nPostwendend!"
  },
  {
    "label": "082",
    "text": "{{anim id=\"23\"}}Na?{{delay frames=\"20\"}} Neugierig, wer das {{color id=\"2\"}}Insektikus-\nTurnier{{color id=\"65535\"}} gewonnen hat?{{pageBreak}}{{anim id=\"1\"}}Ich schicke die Pokale an die, die\nnicht bei der Siegerehrung waren,\nmit der Post raus,{{delay frames=\"40\"}} also Geduld!"
  },
  {
    "label": "083",
    "text": ""
  },
  {
    "label": "084",
    "text": "{{anim id=\"1\"}}Aha, {{fun_0006000E arg=\"0x340064006500720020006A0075006E0067006500200049006E00730065006B00740065006E0066006F00720073006300680065007200380064006900650020006A0075006E0067006500200049006E00730065006B00740065006E0066006F0072007300630068006500720069006E00\"}}\nist zurück!{{delay frames=\"20\"}} Wie läuft die Jagd?{{delay frames=\"20\"}}\nSind die Insekten dir hold?{{fun_0006000F arg=\"0x000000002800\"}}\nHier, meine Sammlung!\nGuck mal, ich hab eins!\nNee, gerade nicht so."
  },
  {
    "label": "085",
    "text": "{{anim id=\"16\"}}{{fun_000B0007 arg=\"\"}}Beim Barte der Königin!{{delay frames=\"20\"}}\nIst das die Möglichkeit?{{delay frames=\"40\"}}\nDeine Sammlung ist komplett!\n{{anim id=\"4\"}}{{fun_000B0007 arg=\"\"}}\n{{size value=\"200\"}}Wahrhaft exquisit!{{size value=\"100\"}}{{pageBreak}}{{anim id=\"1\"}}Meine Chamäleonigkeit hat da\netwas, das dir gut gefallen\ndürfte..."
  },
  {
    "label": "086",
    "text": "{{anim id=\"9\"}}Oh-oh.{{delay frames=\"40\"}} Sieht ganz so aus, als hättest\ndu gar keinen Platz dafür! {{delay frames=\"30\"}}{{anim id=\"0\"}}Komm\nbesser später noch mal, ja?"
  },
  {
    "label": "087",
    "text": "{{anim id=\"1\"}}Hierbei handelt es sich um einen\nsehr seltenen Gegenstand.{{delay frames=\"20\"}}\nHier!{{delay frames=\"40\"}} Ein {{color id=\"2\"}}goldener Kescher{{color id=\"65535\"}}.\nMöge er dir großes Käferglück\nbringen!{{delay frames=\"20\"}} Und mögen dir Insekten\ngroß und klein ins Netz gehen!"
  },
  {
    "label": "088",
    "text": ""
  },
  {
    "label": "089",
    "text": "Sonst noch irgendwelche Insekten,\ndie du mir zeigen möchtest?{{fun_0005000F arg=\"0x15002800\"}}\nJa, das hier noch.\nNö..."
  },
  {
    "label": "090",
    "text": "{{anim id=\"1\"}}In Ordnung. {{delay frames=\"20\"}}Macht ja nichts."
  },
  {
    "label": "091",
    "text": ""
  },
  {
    "label": "092",
    "text": "{{anim id=\"9\"}}Oh, das war knapp, sehr knapp!{{delay frames=\"20\"}}\nDas Problemchen ist jetzt nur\nFolgendes:\n{{anim id=\"1\"}}Für das Insekt bekommst du\ngenauso viele Punkte wie unser\naktueller Rekordhalter.\n{{anim id=\"21\"}}Aber nur einer kann auf den ersten\nPlatz kommen!{{delay frames=\"20\"}} Und wer zuerst\nkommt,{{delay frames=\"8\"}} mahlt zuerst.\n{{anim id=\"1\"}}Aber zweiter Platz klingt doch\nauch nicht schlecht,{{delay frames=\"8\"}} oder?{{pageBreak}}{{anim id=\"35\"}}Ähm,{{delay frames=\"8\"}} wenn ich jetzt bitte das\nInsekt an mich nehmen dürfte?{{delay frames=\"20\"}}\nMhhh,{{delay frames=\"8\"}} omnomnom."
  },
  {
    "label": "093",
    "text": "{{anim id=\"9\"}}Oh-oh. {{delay frames=\"20\"}}Knapp, so knapp!{{delay frames=\"20\"}} Mit dem\nInsekt würdest du eigentlich auf\nden zweiten Platz kommen.\n{{anim id=\"1\"}}Aber es hat schon jemand anders\nein Insekt eingereicht, das genauso\nviele Punkte wert ist...\n{{anim id=\"21\"}}Und wer zuerst kommt, mahlt\nzuerst.{{delay frames=\"20\"}} Damit gebührt dir also\nder dritte Platz!"
  },
  {
    "label": "094",
    "text": "{{anim id=\"9\"}}Oh-oh. Knapp, so knapp!{{delay frames=\"20\"}} Mit dem\nInsekt würdest du eigentlich auf\nden dritten Platz kommen.\n{{anim id=\"1\"}}Aber es hat schon jemand anders\nein Insekt eingereicht, das genauso\nviele Punkte wert ist...\n{{anim id=\"21\"}}Und wer zuerst kommt, mahlt\nzuerst.{{delay frames=\"20\"}}{{anim id=\"40\"}} Tut mir wirklich leid,\n{{fun_0006000E arg=\"0x22006A0075006E0067006500720020004A00E40067006500720073006D0061006E006E0020006A0075006E006700650020004A00E40067006500720073006600720061007500\"}}."
  },
  {
    "label": "095",
    "text": ""
  },
  {
    "label": "096",
    "text": "{{anim id=\"15\"}}Da brat mir doch einer 'nen\nMaikäfer!{{delay frames=\"40\"}} Damit knackst du den\nRekord für den {{color id=\"2\"}}ersten Platz{{color id=\"65535\"}}!\n{{anim id=\"3\"}}Juppheidu!{{delay frames=\"30\"}} Herzlichen Glückwunsch,\n{{fun_0006000E arg=\"0x34006D00650069006E0020006A0075006E00670065007200200046006F0072007300630068006500720066007200650075006E00640038006D00650069006E0020006A0075006E00670065007300200046006F0072007300630068006500720066007200E40075006C00650069006E00\"}}!{{pageBreak}}{{anim id=\"1\"}}Das Insekt nehme ich dann mal\nan mich... {{delay frames=\"20\"}}und verwahre es an\neinem sicheren, sicheren Ort."
  },
  {
    "label": "097",
    "text": "{{anim id=\"37\"}}Und als Preis...{{delay frames=\"15\"}} mal sehen.{{delay frames=\"15\"}} Ja!{{delay frames=\"15\"}} Da\nüberreiche ich dir {{fun_0008000E arg=\"0x00CD1E00640069006500730065006E0020006800FC00620073006300680065006E001A006400690065007300650020006800FC00620073006300680065001C0064006900650073006500730020006800FC0062007300630068006500\"}}\n{{fun_00030011 arg=\"0x0000\"}}.{{delay frames=\"15\"}} Tada!"
  },
  {
    "label": "098",
    "text": "{{anim id=\"1\"}}Wenn du einen neuen Rekord von\n{{color id=\"2\"}}80 Punkten{{color id=\"65535\"}} oder mehr erzielst,{{delay frames=\"15\"}} gebe\nich dir einen noch besseren Preis.\n{{anim id=\"35\"}}Geduld und Spucke!{{delay frames=\"20\"}} Es handelt sich\num einen Supersonderpreis!{{delay frames=\"20\"}} Nur\nbeim {{color id=\"2\"}}Insektikus-Turnier{{color id=\"65535\"}} zu haben!\nLos, los,{{delay frames=\"20\"}} schwing die Beinchen\n{{anim id=\"2\"}}und den Kescher, würde ich da\nmal sagen!{{delay frames=\"40\"}}{{anim id=\"37\"}}"
  },
  {
    "label": "099",
    "text": ""
  },
  {
    "label": "100",
    "text": "{{anim id=\"5\"}}Ach, du kriegst die Tür nicht zu!{{delay frames=\"20\"}}\nEin wahrhaft exquisites Exemplar!{{delay frames=\"20\"}}\n{{anim id=\"9\"}}Es ist bloß so{{delay frames=\"8\"}}.{{delay frames=\"8\"}}.{{delay frames=\"8\"}}.{{delay frames=\"20\"}}\nFür den ersten Platz reicht es wohl\nnicht ganz. {{anim id=\"41\"}}Da wird es mit dem\nPreis nun leider doch nichts.\n{{anim id=\"13\"}}Sorry, {{fun_0006000E arg=\"0x1A006A0075006E00670065007200200046007200650075006E0064001E006A0075006E00670065007300200046007200E40075006C00650069006E00\"}}.{{delay frames=\"20\"}}\n{{anim id=\"36\"}}Das Insekt nehme ich allerdings\nan mich, wie besprochen.\n{{anim id=\"35\"}}{{size value=\"150\"}}{{color id=\"5\"}}(BLURRBL! GLUCKER!){{color id=\"65535\"}}{{size value=\"100\"}}\n{{delay frames=\"40\"}}Äh, wie bitte?{{delay frames=\"20\"}} Hast du was gesagt?{{pageBreak}}{{anim id=\"17\"}}Ich sehe gierig und hungrig aus?!{{delay frames=\"20\"}} {{anim id=\"27\"}}Du\nhast vielleicht Ideen, {{anim id=\"2\"}}hahaha!{{delay frames=\"20\"}} Ich\nesse doch keine Krabbler, igitt...{{delay frames=\"20\"}}{{anim id=\"1\"}}"
  },
  {
    "label": "101",
    "text": "{{anim id=\"29\"}}Bei Onkel Ruperts Monokel!{{delay frames=\"20\"}}\nDas ist der erste Platz!{{delay frames=\"20\"}} Wuhuuu!{{pageBreak}}{{anim id=\"37\"}}Und als Preis...{{delay frames=\"15\"}} mal sehen.{{delay frames=\"15\"}} Ja!{{delay frames=\"15\"}} Da\nüberreiche ich dir {{fun_0008000E arg=\"0x00CD1E00640069006500730065006E0020006800FC00620073006300680065006E001A006400690065007300650020006800FC00620073006300680065001C0064006900650073006500730020006800FC0062007300630068006500\"}}\n{{fun_00030011 arg=\"0x0000\"}}.{{delay frames=\"15\"}} Tadaaa!"
  },
  {
    "label": "102",
    "text": "{{anim id=\"1\"}}Wenn du ein Insekt findest, das\n{{color id=\"2\"}}80 Punkte{{color id=\"65535\"}} oder mehr wert ist,{{delay frames=\"15\"}} gebe\nich dir einen noch besseren Preis.\n{{anim id=\"21\"}}Einen Supersonderpreis, den es\nüberhaupt nur beim {{color id=\"2\"}}Insektikus-\nTurnier{{color id=\"65535\"}} zu ergattern gibt,{{delay frames=\"20\"}} jawohl!"
  },
  {
    "label": "103",
    "text": "{{anim id=\"3\"}}Fünfarmige Flugraupe, ist das\ndenn die Möglichkeit?!{{delay frames=\"30\"}} Was für ein\nfantastisches Exemplar du da hast!\n{{anim id=\"41\"}}Aber halt!{{delay frames=\"30\"}} Oh nein!{{delay frames=\"20\"}} Ach, wie schade.{{delay frames=\"30\"}}\nUnd wie knapp, wie knapp!{{pageBreak}}{{anim id=\"21\"}}Für das Insekt bekommst du\ngenauso viele Punkte wie unser\naktueller Rekordhalter.{{delay frames=\"30\"}} Schade!\n{{anim id=\"9\"}}Wenn du nicht darüberliegst, kann\nich dir keinen schönen Preis\nübergeben.{{delay frames=\"30\"}} {{anim id=\"13\"}}Tut mir leid.\n{{anim id=\"35\"}}Das Insekt nehme ich aber gerne\nin meine Obhut,{{delay frames=\"20\"}} danke."
  },
  {
    "label": "104",
    "text": "{{anim id=\"41\"}}Ach, was für eine Schande.{{delay frames=\"30\"}}\nNein wirklich, wie knapp, wie knapp!{{pageBreak}}{{anim id=\"21\"}}Für das Insekt bekommst du\ngenauso viele Punkte wie unser\naktueller Rekordhalter.{{delay frames=\"30\"}} Schade!\n{{anim id=\"9\"}}Wenn du nicht darüberliegst, kann\nich dir keinen schönen Preis\nübergeben.{{delay frames=\"30\"}} Tut mir leid.\n{{anim id=\"35\"}}Das Insekt nehme ich aber gerne\nin meine Obhut,{{delay frames=\"20\"}} danke."
  }
]