﻿[
  {
    "label": "001",
    "text": "Ganz recht, {{anim id=\"1\"}}hier wird gegärtnert!{{pageBreak}}Und zwar nicht irgendwie drauflos,\nsondern nach echten, altehrwürdigen\nRegeln:"
  },
  {
    "label": "002",
    "text": "Du hast {{color id=\"2\"}}{{fun_00070004 arg=\"0x0500\"}} {{fun_0009000E arg=\"0x05CD0E004D0069006E007500740065006E000C004D0069006E007500740065000E004D0069006E007500740065006E00\"}}{{color id=\"65535\"}} Zeit, um dieses\nBeet hier randvoll mit hübschen\nBlumen zu bepflanzen{{delay frames=\"8\"}}, he he huff.\nFarbe, Sorte und so ein Unfug\ninteressieren mich nicht.{{delay frames=\"20\"}} Nur voll\nmuss das Beet sein!\nWenn du das hinkriegst, bekommst\ndu hübsche, glänzende Medaillen\nvon mir."
  },
  {
    "label": "003",
    "text": "Du hast {{color id=\"2\"}}{{fun_00070004 arg=\"0x0500\"}} {{fun_0009000E arg=\"0x05CD0E004D0069006E007500740065006E000C004D0069006E007500740065000E004D0069006E007500740065006E00\"}}{{color id=\"65535\"}}, um dieses Beet\nvollzupflanzen, und zwar mit Blumen\nvom Typ {{fun_00030011 arg=\"0x0000\"}}!\nWenn du das schaffst,{{delay frames=\"10\"}} bekommst du\nMedaillen von mir, he he huff."
  },
  {
    "label": "004",
    "text": "Ihr Jungspunde habt {{color id=\"2\"}}{{fun_00070004 arg=\"0x0500\"}} {{fun_0009000E arg=\"0x05CD0E004D0069006E007500740065006E000C004D0069006E007500740065000E004D0069006E007500740065006E00\"}}{{color id=\"65535\"}},\num dieses Blumenbeet da mit \nirgendwelchen Blumen zu füllen.\n{{anim id=\"15\"}}Welche Farbe?{{delay frames=\"20\"}} Welche Sorte?!?{{delay frames=\"40\"}}\n{{anim id=\"8\"}}Habe ich nicht eben „irgendwelche“\ngesagt?{{delay frames=\"20\"}} Hört ihr mir überhaupt zu?\n{{anim id=\"0\"}}Na, jedenfalls bekommt ihr\nMedaillen von mir, wenn ihr das\nschafft.{{delay frames=\"20\"}} Oder falls, {{delay frames=\"8\"}}he he huff!"
  },
  {
    "label": "005",
    "text": "Ihr habt {{color id=\"2\"}}{{fun_00070004 arg=\"0x0500\"}} {{fun_0009000E arg=\"0x05CD0E004D0069006E007500740065006E000C004D0069006E007500740065000E004D0069006E007500740065006E00\"}}{{color id=\"65535\"}}, um dieses Beet\nvollzupflanzen, {{delay frames=\"8\"}}und zwar mit Blumen\nvom Typ {{fun_00030011 arg=\"0x0000\"}}!\nWenn ihr das schafft, bekommt ihr\nMedaillen.{{delay frames=\"20\"}} Sonst nicht!"
  },
  {
    "label": "006",
    "text": "Ihr Grünschnäbel habt {{color id=\"2\"}}{{fun_00070004 arg=\"0x0500\"}} {{fun_0009000E arg=\"0x05CD0E004D0069006E007500740065006E000C004D0069006E007500740065000E004D0069006E007500740065006E00\"}}{{color id=\"65535\"}}\nZeit, um dieses Beet da mit Blumen\nvollzupflanzen.\n{{anim id=\"6\"}}Farbe und Sorte interessieren mich\nnicht.{{delay frames=\"20\"}} Ich will nur einen schönen\nBlumenteppich sehen, sonst nichts!{{pageBreak}}Wenn ihr das schafft –{{delay frames=\"8\"}} und nur,\nwenn ihr das schafft –{{delay frames=\"8\"}} bekommt ihr\nhübsche Medaillen von mir."
  },
  {
    "label": "007",
    "text": "Ihr habt {{color id=\"2\"}}{{fun_00070004 arg=\"0x0500\"}} {{fun_0009000E arg=\"0x05CD0E004D0069006E007500740065006E000C004D0069006E007500740065000E004D0069006E007500740065006E00\"}}{{color id=\"65535\"}}, um dieses Beet\nvollzupflanzen, und zwar mit Blumen\nvom Typ {{fun_00030011 arg=\"0x0000\"}}!\nWenn ihr das rechtzeitig schafft,\nbekommt ihr Medaillen von mir."
  },
  {
    "label": "008",
    "text": "Ich will hier aber kein Durcheinander\nsehen.{{delay frames=\"20\"}} Wer falsche Blumen pflanzt,\nwird das bei der Wertung merken!\nWie?{{delay frames=\"20\"}} Man kann sie ja einfach wieder\nausreißen?{{delay frames=\"40\"}}{{anim id=\"28\"}} He he huff!{{delay frames=\"20\"}} Nichts da!{{delay frames=\"40\"}}\nDas wäre ja zu einfach!"
  },
  {
    "label": "009",
    "text": "Aber Vorsicht!{{delay frames=\"20\"}} Was einmal gepflanzt\nist, bleibt auch da.{{delay frames=\"20\"}} Nichts da mit\nRausreißen!"
  },
  {
    "label": "011",
    "text": "{{anim id=\"1\"}}Übrigens...{{delay frames=\"20\"}} Wenn Blumen übrig sind,\nkann man sie von mir aus mit nach\nHause nehmen."
  },
  {
    "label": "012",
    "text": "Für falsche Blumen werden\nStrafsekunden aufgeschlagen.{{delay frames=\"20\"}}\nDa kenne ich kein Pardon!\n{{anim id=\"28\"}}Und Rausrupfen gibt's nicht,\nhe he huff!"
  },
  {
    "label": "013",
    "text": "Farbe und Sorte sind mir egal.{{delay frames=\"20\"}} Also\nnicht lange rumtüfteln, sondern das\nBeet einfach vollpflanzen!"
  },
  {
    "label": "014",
    "text": "Was denn noch?{{delay frames=\"20\"}} Frisch ans Werk!{{delay frames=\"40\"}}\n{{fun_0003000E arg=\"\"}}{{fun_0002000E arg=\"\"}}{{fun_00030011 arg=\"0x0000\"}}\npflanzen, noch {{fun_0008000E arg=\"0x00CD0A00650069006E0065006E000800650069006E0065000800650069006E007300\"}}, noch {{fun_0008000E arg=\"0x00CD0A00650069006E0065006E000800650069006E0065000800650069006E007300\"}}..."
  },
  {
    "label": "015",
    "text": "Hopp, hopp, den grünen Daumen\ngezückt und ab die Post!"
  },
  {
    "label": "016",
    "text": "Was denn noch?{{delay frames=\"20\"}} Pflanz das Beet\nrandvoll mit Blumen vom Typ\n{{fun_00030011 arg=\"0x0000\"}}.{{delay frames=\"20\"}} Klar?"
  },
  {
    "label": "018",
    "text": "Gut gemacht, Grünschnabel!{{delay frames=\"30\"}}\nDann wollen wir mal sehen,\nwas deine Gärtnerkünste taugen...{{fun_00090007 arg=\"0x5A000000\"}}"
  },
  {
    "label": "019",
    "text": "Gut gemacht, ihr Grünschnäbel!{{delay frames=\"30\"}}\nDann wollen wir mal sehen,\nwas eure Gärtnerkünste taugen...{{fun_00090007 arg=\"0x5A000000\"}}"
  },
  {
    "label": "020",
    "text": "Gut gemacht, Sprösslinge!{{delay frames=\"30\"}}\nDann wollen wir mal sehen,\nwas eure Gärtnerkünste taugen...{{fun_00090007 arg=\"0x5A000000\"}}"
  },
  {
    "label": "021",
    "text": "{{size value=\"150\"}}Aus! {{delay frames=\"20\"}}Vorbei!{{size value=\"100\"}}{{fun_00090007 arg=\"0x3C000000\"}}"
  },
  {
    "label": "022",
    "text": ""
  },
  {
    "label": "023",
    "text": "Die Zeit ist um!{{delay frames=\"60\"}}\nFür Trödelei gibt's keine Medaillen!"
  },
  {
    "label": "024",
    "text": "Es {{fun_0009000E arg=\"0x01CD0A0077006100720065006E0006007700610072000A0077006100720065006E00\"}} sogar noch {{color id=\"2\"}}{{fun_00070004 arg=\"0x0100\"}} {{fun_0009000E arg=\"0x01CD0E004D0069006E007500740065006E000C004D0069006E007500740065000E004D0069006E007500740065006E00\"}}\nund {{fun_00070004 arg=\"0x0200\"}} {{fun_0009000E arg=\"0x02CD1000530065006B0075006E00640065006E000E00530065006B0075006E00640065001000530065006B0075006E00640065006E00\"}}{{color id=\"65535\"}} übrig,{{delay frames=\"8\"}}\nhe he huff!"
  },
  {
    "label": "025",
    "text": "Aber {{color id=\"2\"}}{{fun_00070004 arg=\"0x0600\"}} falsche {{fun_0009000E arg=\"0x06CD0C0042006C0075006D0065006E000A0042006C0075006D0065000C0042006C0075006D0065006E00\"}}{{color id=\"65535\"}}...{{delay frames=\"20\"}}\nDafür gibt's Strafsekunden,\nhe he huff!\nDie muss ich dir abziehen.{{delay frames=\"20\"}} Und\nschon hast du nur noch {{color id=\"2\"}}{{fun_00070004 arg=\"0x0300\"}} {{fun_0009000E arg=\"0x03CD0E004D0069006E007500740065006E000C004D0069006E007500740065000E004D0069006E007500740065006E00\"}}\nund {{fun_00070004 arg=\"0x0400\"}} {{fun_0009000E arg=\"0x04CD1000530065006B0075006E00640065006E000E00530065006B0075006E00640065001000530065006B0075006E00640065006E00\"}}{{color id=\"65535\"}} übrig!"
  },
  {
    "label": "026",
    "text": "{{anim id=\"1\"}}Oho, kein einziger Fehler!{{delay frames=\"20\"}}\nSchade, dann kann ich ja gar keine\nStrafsekunden vergeben."
  },
  {
    "label": "027",
    "text": "Mit Strafsekunden liegt die\nZeit leider über der Begrenzung.{{pageBreak}}Darum gibt's auch keine Belohnung.{{delay frames=\"20\"}}\nAber wie man so schön sagt:{{delay frames=\"40\"}}\nNeues Spiel, neues Glück!"
  },
  {
    "label": "028",
    "text": "Bei meinem Rückenpanzer!{{delay frames=\"20\"}}\nBitte sehr,{{color id=\"2\"}}{{delay frames=\"8\"}} {{fun_00070004 arg=\"0x0000\"}} {{fun_0009000E arg=\"0x00CD12004D0065006400610069006C006C0065006E0010004D0065006400610069006C006C00650012004D0065006400610069006C006C0065006E00\"}}{{color id=\"65535\"}}!"
  },
  {
    "label": "029",
    "text": "Ich habe das schon schneller\ngesehen.{{pageBreak}}{{anim id=\"1\"}}Aber einen Bronze-Törtel war das\nallemal wert!{{delay frames=\"20\"}}{{anim id=\"0\"}} Und obendrauf gibt's\nnoch {{color id=\"2\"}}{{fun_00070004 arg=\"0x0000\"}}{{delay frames=\"10\"}} {{fun_0009000E arg=\"0x00CD12004D0065006400610069006C006C0065006E0010004D0065006400610069006C006C00650012004D0065006400610069006C006C0065006E00\"}}{{color id=\"65535\"}}!"
  },
  {
    "label": "030",
    "text": "{{anim id=\"1\"}}Gar nicht übel!{{delay frames=\"20\"}} Das war ja schon\nfast Profiklasse.{{pageBreak}}Dafür gebe ich doch gerne einen\nSilber-Törtel her.{{delay frames=\"20\"}}{{anim id=\"0\"}} Aber damit nicht\ngenug, {{delay frames=\"8\"}}hier sind noch{{color id=\"2\"}}{{delay frames=\"20\"}} {{fun_00070004 arg=\"0x0000\"}} {{fun_0009000E arg=\"0x00CD12004D0065006400610069006C006C0065006E0010004D0065006400610069006C006C00650012004D0065006400610069006C006C0065006E00\"}}{{color id=\"65535\"}}!"
  },
  {
    "label": "031",
    "text": "{{anim id=\"31\"}}Hoho!{{delay frames=\"20\"}} Das nenne ich\nSchnellgärtnern!{{pageBreak}}{{anim id=\"1\"}}Da ist der Gold-Törtel ja\nwohlverdient.{{delay frames=\"20\"}} Und weil's so schön\nwar, gibt's noch {{color id=\"2\"}}{{fun_00070004 arg=\"0x0000\"}}{{delay frames=\"10\"}} {{fun_0009000E arg=\"0x00CD12004D0065006400610069006C006C0065006E0010004D0065006400610069006C006C00650012004D0065006400610069006C006C0065006E00\"}} {{color id=\"65535\"}}dazu!"
  },
  {
    "label": "032",
    "text": ""
  },
  {
    "label": "033",
    "text": ""
  },
  {
    "label": "034",
    "text": ""
  },
  {
    "label": "035",
    "text": ""
  }
]