﻿[
  {
    "label": "001",
    "text": "{{fun_00070002 arg=\"\"}}{{fun_0000000D arg=\"0x01CD\"}}H-{{delay frames=\"4\"}}hey{{delay frames=\"4\"}}.{{delay frames=\"4\"}}.{{delay frames=\"4\"}}.\n\n{{fun_00090007 arg=\"0x14000000\"}}\n\n{{fun_00040002 arg=\"\"}}{{fun_000B0007 arg=\"\"}}{{size value=\"200\"}}WAAAH!{{size value=\"100\"}}{{delay frames=\"8\"}}\n{{fun_00090007 arg=\"0x1E000000\"}}\nBoah, {{delay frames=\"4\"}}was war denn hier los?{{delay frames=\"15\"}} {{fun_00050002 arg=\"\"}}Da\nbleibt einem ja die Pumpe stehen.{{pageBreak}}{{fun_00080002 arg=\"\"}}Ach, {{delay frames=\"4\"}}{{fun_0006000E arg=\"0x2400480065007200720020004200FC0072006700650072006D006500690073007400650072002800460072006100750020004200FC0072006700650072006D0065006900730074006500720069006E00\"}}. {{delay frames=\"20\"}}\nBuongiorno! {{delay frames=\"20\"}}Danke, dass du immer\nso nett zu meinem Bruder bist."
  },
  {
    "label": "002",
    "text": "{{fun_00070002 arg=\"\"}}{{fun_0000000D arg=\"0x01CD\"}}H-{{delay frames=\"4\"}}hey{{delay frames=\"4\"}}.{{delay frames=\"4\"}}.{{delay frames=\"4\"}}.\n\n{{fun_00090007 arg=\"0x14000000\"}}\n\n{{fun_00040002 arg=\"\"}}{{fun_000B0007 arg=\"\"}}{{size value=\"200\"}}WAAAH!{{size value=\"100\"}}{{delay frames=\"8\"}}\n{{fun_00090007 arg=\"0x2D000000\"}}\nBoah, {{delay frames=\"4\"}}da zieht's einem ja die\nBuxen aus! {{delay frames=\"15\"}}{{fun_00050002 arg=\"\"}}Das Geräusch möchte\nich nie wieder hören!{{pageBreak}}{{fun_00080002 arg=\"\"}}Okay, {{delay frames=\"8\"}}zur Sache.{{delay frames=\"15\"}} Danke, dass du\ndich immer so nett mit meinem\nkleinen Bruder rumschlägst."
  },
  {
    "label": "003",
    "text": "{{fun_00070002 arg=\"\"}}{{fun_0000000D arg=\"0x01CD\"}}H-{{delay frames=\"4\"}}hey{{delay frames=\"4\"}}.{{delay frames=\"4\"}}.{{delay frames=\"4\"}}.\n\n{{fun_00090007 arg=\"0x14000000\"}}\n\n{{fun_00040002 arg=\"\"}}{{fun_000B0007 arg=\"\"}}{{size value=\"200\"}}WAAAH!{{size value=\"100\"}}{{delay frames=\"8\"}}\n{{fun_00090007 arg=\"0x1E000000\"}}\nBoah! {{delay frames=\"4\"}}Was ist denn das für ein\nLärm?{{delay frames=\"15\"}} {{fun_00050002 arg=\"\"}}Meine armen Trommelfelle!{{pageBreak}}{{fun_00080002 arg=\"\"}}Oh, {{delay frames=\"4\"}}buongiorno,\n{{delay frames=\"4\"}}{{fun_0006000E arg=\"0x2400480065007200720020004200FC0072006700650072006D006500690073007400650072002800460072006100750020004200FC0072006700650072006D0065006900730074006500720069006E00\"}}!\nSchön, dich kennenzulernen.{{pageBreak}}{{anim id=\"0\"}}Ich bin der ältere Bruder der\nResetti-Familie. {{delay frames=\"8\"}}Mein Name ist Don.{{pageBreak}}{{fun_00080002 arg=\"\"}}Ich möchte dir danken, dass du\nmeinem Bruder seine Wutanfälle\nimmer nachsiehst."
  },
  {
    "label": "004",
    "text": "{{fun_00070002 arg=\"\"}}{{fun_0000000D arg=\"0x01CD\"}}H-{{delay frames=\"4\"}}hey{{delay frames=\"4\"}}.{{delay frames=\"4\"}}.{{delay frames=\"4\"}}.\n\n{{fun_00090007 arg=\"0x14000000\"}}\n\n{{fun_00040002 arg=\"\"}}{{fun_000B0007 arg=\"\"}}{{size value=\"200\"}}WAAAH!{{size value=\"100\"}}{{delay frames=\"8\"}}\n{{fun_00090007 arg=\"0x1E000000\"}}\nBoah! {{delay frames=\"4\"}}Was ist denn das für ein\nLärm?{{delay frames=\"15\"}} {{fun_00050002 arg=\"\"}}Meine armen Trommelfelle!{{pageBreak}}{{fun_00080002 arg=\"\"}}Oh, {{delay frames=\"4\"}}buon giorno, {{delay frames=\"4\"}}{{fun_0006000E arg=\"0x0E005300690067006E006F00720065000E005300690067006E006F0072006100\"}}!\nSchön, dich kennenzulernen.{{pageBreak}}{{anim id=\"0\"}}Ich bin der ältere Bruder der\nResetti-Familie. {{delay frames=\"8\"}}Mein Name ist Don.{{pageBreak}}{{fun_00080002 arg=\"\"}}Ich möchte dir danken, dass du\ndem Kleinen seine Wutanfälle\nimmer nachsiehst."
  },
  {
    "label": "005",
    "text": "{{anim id=\"0\"}}Der Kleine hat momentan etwas mit\nseinem Blutdruck zu kämpfen,\n{{delay frames=\"8\"}}deshalb {{fun_00020002 arg=\"\"}}nimmt er eine Auszeit{{delay frames=\"8\"}}.{{delay frames=\"8\"}}.{{delay frames=\"8\"}}.\n{{anim id=\"0\"}}Aber zum Glück hat die Familie ja\nnoch mich.{{delay frames=\"20\"}} Dann leg ich mal los.\n{{delay frames=\"15\"}}Ähem...\nDas letzte Mal, {{fun_00000005 arg=\"\"}}, scheinst\ndu das Spiel beendet zu haben, ohne\nzu speichern. {{delay frames=\"20\"}}Was war da los?{{fun_0006000F arg=\"0x000000002800\"}}\nWollte zurücksetzen.\nBatterie war leer.\nWeiß nicht mehr."
  },
  {
    "label": "006",
    "text": "{{fun_00080002 arg=\"\"}}Mit meinem Bruder ist das so{{delay frames=\"8\"}}.{{delay frames=\"8\"}}.{{delay frames=\"8\"}}.{{fun_00010007 arg=\"\"}}\n{{fun_00020002 arg=\"\"}}{{color id=\"4\"}}Resetti {{color id=\"65535\"}}schreit erst mal rum, {{delay frames=\"8\"}}ohne\n{{fun_00060002 arg=\"\"}}auf den anderen einzugehen.\n{{anim id=\"0\"}}Das hat sicher schon für so einiges\nböses Blut gesorgt.{{delay frames=\"20\"}} {{fun_00050002 arg=\"\"}}Die Familie\nbedauert das sehr.\n{{anim id=\"0\"}}Aber ich muss dir eines sagen. {{delay frames=\"20\"}}Der\nKleine ist kein schlechter Maulwurf.\n{{delay frames=\"20\"}}Also sieh es ihm nach, ja?"
  },
  {
    "label": "007",
    "text": "{{fun_00080002 arg=\"\"}}Es ist schön, dass er seine Aufgabe\nso ernst nimmt, {{delay frames=\"8\"}}aber er kann schon\netwas{{delay frames=\"15\"}} {{anim id=\"0\"}}direkt sein, nicht wahr?{{delay frames=\"20\"}} Ja.{{delay frames=\"20\"}}\n{{fun_00080002 arg=\"\"}}Er hat so viel Taktgefühl wie eine\nDampfwalze, {{fun_00020002 arg=\"\"}}und sein Mundwerk...\n{{delay frames=\"20\"}}Nun ja.\n{{fun_00080002 arg=\"\"}}Ich gebe zu, es fällt schwer, seine\nguten Seiten zu sehen.{{delay frames=\"20\"}} {{anim id=\"0\"}}Aber es gibt\nsie!{{delay frames=\"20\"}} Also nimm's ihm nicht übel."
  },
  {
    "label": "008",
    "text": "{{fun_00040002 arg=\"\"}}Ach, {{delay frames=\"4\"}}wo hab ich meinen Kopf? {{delay frames=\"15\"}}{{anim id=\"0\"}}Ich\nmuss dich ja noch streng ermahnen,{{delay frames=\"8\"}}\n{{fun_00020002 arg=\"\"}}sonst krieg ich Ärger mit dem Büro.\n{{anim id=\"0\"}}Gut, dann spitz mal die Lauscher.\n{{delay frames=\"20\"}}{{fun_00080002 arg=\"\"}}Ähem.{{delay frames=\"20\"}} ÄHEM. {{delay frames=\"8\"}}Mi-mi-mi-mi-mi.{{pageBreak}}{{anim id=\"0\"}}Äh{{delay frames=\"8\"}}.{{delay frames=\"8\"}}.{{delay frames=\"8\"}}.{{delay frames=\"20\"}} Ausschalten {{fun_00020002 arg=\"\"}}{{color id=\"2\"}}ohne zu speichern{{color id=\"65535\"}}\n{{fun_0000000D arg=\"0x00CD\"}}ist doof.{{delay frames=\"8\"}} {{fun_00050002 arg=\"\"}}Also lass es bleiben,\n{{fun_00000005 arg=\"\"}}! {{fun_00020002 arg=\"\"}}Okay?\nJa? {{delay frames=\"8\"}}Wirklich? {{delay frames=\"8\"}}Vielleicht?{{delay frames=\"20\"}} {{fun_00050002 arg=\"\"}}{{fun_0000000D arg=\"0x00CD\"}}Tu dir\neinfach selbst einen Gefallen und\nhalte dich dran.{{fun_00010007 arg=\"\"}}{{fun_00080002 arg=\"\"}} Gut,{{delay frames=\"8\"}} dann war's das.\n{{anim id=\"0\"}}Dann werde ich mich mal wieder\nverbuddeln. {{fun_00010007 arg=\"\"}}{{fun_00080002 arg=\"\"}}Sei brav und bleib\nsauber! {{fun_00050002 arg=\"\"}}{{delay frames=\"4\"}}Bis dann, arrivederci."
  },
  {
    "label": "009",
    "text": ""
  },
  {
    "label": "010",
    "text": ""
  },
  {
    "label": "011",
    "text": "{{fun_00080002 arg=\"\"}}Ach...{{delay frames=\"15\"}} Die Batterie war also ganz\nplötzlich leer, was?{{pageBreak}}{{anim id=\"0\"}}Würde es dir vielleicht etwas\nausmachen, das Teil in Zukunft\nrechtzeitig zu laden?\n{{fun_00080002 arg=\"\"}}Vielen Dank für dein Verständnis.{{delay frames=\"30\"}}\n{{fun_00050002 arg=\"\"}}Gut.{{delay frames=\"8\"}} Arrivederci."
  },
  {
    "label": "012",
    "text": "Ach, {{delay frames=\"20\"}}du hast es also vergessen{{delay frames=\"8\"}}.{{delay frames=\"8\"}}.{{delay frames=\"8\"}}.{{delay frames=\"30\"}}{{pageBreak}}{{fun_00080002 arg=\"\"}}Schon okay.{{delay frames=\"20\"}} Bei mir ist in der Birne\nauch nicht immer alles Sonnen-\nschein.{{delay frames=\"15\"}} Man wird nicht jünger, was?\nDann tut's mir leid, dass ich dich\ndeswegen angepampt habe.{{delay frames=\"20\"}}\n{{anim id=\"0\"}}Gut.{{delay frames=\"8\"}} Arrivederci!"
  },
  {
    "label": "013",
    "text": ""
  }
]