﻿[
  {
    "label": "001",
    "text": "{{anim id=\"37\"}}Heute ist irgendetwas anders an\ndir,{{delay frames=\"8\"}} {{fun_00080005 arg=\"\"}}{{delay frames=\"8\"}}.{{delay frames=\"8\"}}.{{delay frames=\"8\"}}.{{pageBreak}}{{anim id=\"39\"}}Wenn ich nicht so beschäftigt wäre, \nwürde ich vorschlagen, dass wir uns\nauf {{fun_0008000E arg=\"0x02CD0A00650069006E0065006E000800650069006E0065000600650069006E00\"}} {{fun_000E0005 arg=\"0x0200\"}} treffen.\nDann könnten wir zum Beispiel\nunsere gemeinsamen Interessen\nerkunden{{delay frames=\"8\"}}.{{delay frames=\"8\"}}.{{delay frames=\"8\"}}.{{delay frames=\"20\"}} und dergleichen."
  },
  {
    "label": "002",
    "text": "Also{{delay frames=\"8\"}}.{{delay frames=\"8\"}}.{{delay frames=\"8\"}}.{{delay frames=\"20\"}}{{anim id=\"23\"}}{{delay frames=\"5\"}} Was ist heute nur anders an\ndir?{{delay frames=\"40\"}} Du bist nicht {{fun_0006000E arg=\"0x06006400650072000600640069006500\"}} gleiche alte\n{{fun_00000005 arg=\"\"}} wie sonst!\n{{anim id=\"9\"}}Riechst du etwa anders als sonst?{{delay frames=\"20\"}}{{anim id=\"22\"}}\nOh!{{delay frames=\"20\"}} Verwendest du etwa auch die\nneue Seife aus {{fun_000E0005 arg=\"0x0000\"}}?"
  },
  {
    "label": "003",
    "text": "{{anim id=\"23\"}}Wieso läufst du heute eigentlich so\nschwungvoll, {{delay frames=\"8\"}}als ob du heimlich\n{{fun_00140005 arg=\"0x0200\"}} hörst?\nDu hast offenbar eine Extraportion\nSelbstvertrauen. {{delay frames=\"20\"}}{{anim id=\"26\"}}Deinen Gang würde\nich mir nur zu gerne abschauen!"
  },
  {
    "label": "004",
    "text": "{{anim id=\"39\"}}Weißt du, {{delay frames=\"8\"}}{{fun_00080005 arg=\"\"}}{{delay frames=\"8\"}}.{{delay frames=\"8\"}}.{{delay frames=\"8\"}}.{{delay frames=\"20\"}} Mir ist eben\netwas klar geworden.{{pageBreak}}{{anim id=\"37\"}}Es heißt doch, {{delay frames=\"8\"}}{{fun_00130005 arg=\"0x0201\"}}\nkönne man nicht alleine machen,\n{{delay frames=\"8\"}}richtig?\n{{anim id=\"1\"}}Kein Wunder, dass {{fun_0008000E arg=\"0x02CD0C006D00650069006E00650072000A006D00650069006E0065000A006D00650069006E007300\"}} immer\nmisslingt! {{delay frames=\"20\"}}Ich sollte {{fun_0008000E arg=\"0x02CD0600690068006E000600730069006500040065007300\"}} lieber mit\neiner Freundin wie dir kochen!"
  },
  {
    "label": "005",
    "text": "{{anim id=\"39\"}}Heute habe ich das Gefühl, dass ich\noffen mit dir sein kann, {{delay frames=\"8\"}}{{fun_00080005 arg=\"\"}}{{delay frames=\"8\"}}.{{delay frames=\"8\"}}.{{delay frames=\"8\"}}.{{pageBreak}}{{anim id=\"27\"}}Ich mag nicht so nett sein wie\nmanch anderer, {{delay frames=\"8\"}}und manchmal\nbin ich etwas patzig{{delay frames=\"8\"}}.{{delay frames=\"8\"}}.{{delay frames=\"8\"}}.\n{{anim id=\"26\"}}Aber du sollst wissen, dass mir\nunsere Freundschaft sehr wichtig\nist, {{delay frames=\"8\"}}{{fun_00070005 arg=\"\"}}."
  },
  {
    "label": "006",
    "text": "{{anim id=\"39\"}}Hör mir gut zu, {{delay frames=\"8\"}}{{fun_00080005 arg=\"\"}}{{delay frames=\"8\"}}.{{delay frames=\"8\"}}.{{delay frames=\"8\"}}.{{delay frames=\"20\"}} Ich bin\nja bekanntlich sehr wählerisch.{{delay frames=\"40\"}}\nBesonders in Sachen Freundschaft!\n{{fun_00020005 arg=\"\"}} und ich sind zum Beispiel\nnach langer Zeit inzwischen endlich\ndicke Freunde.\n{{anim id=\"37\"}}Aber weißt du, was?{{delay frames=\"40\"}} Du und ich!{{delay frames=\"20\"}}\nWir zwei werden allmählich auch\nrichtig dicke Freunde!"
  },
  {
    "label": "007",
    "text": "{{anim id=\"13\"}}Ich habe ganz plötzlich das\nunkontrollierbare Verlangen,\ndir etwas zu geben!\nHier, {{delay frames=\"8\"}}{{fun_00080005 arg=\"\"}}! {{delay frames=\"20\"}}Nimm das!"
  },
  {
    "label": "008",
    "text": "{{anim id=\"6\"}}Hm{{delay frames=\"8\"}}.{{delay frames=\"8\"}}.{{delay frames=\"8\"}}.{{delay frames=\"20\"}} Aus irgendeinem Grund habe\nich plötzlich das Verlangen, dir\netwas zu geben, {{delay frames=\"8\"}}{{fun_00080005 arg=\"\"}}.\nHier! {{delay frames=\"20\"}}Bitte nimm das."
  },
  {
    "label": "009",
    "text": "{{anim id=\"9\"}}Eine Stimme in meinem Kopf hat\nmir soeben gesagt, dass ich dir ein\nGeschenk geben soll{{delay frames=\"8\"}}.{{delay frames=\"8\"}}.{{delay frames=\"8\"}}.\n{{anim id=\"13\"}}Einfach so! {{delay frames=\"20\"}}Grundlos! {{delay frames=\"40\"}}Also los!{{delay frames=\"20\"}}\nNimm das, {{delay frames=\"8\"}}{{fun_00080005 arg=\"\"}}!"
  },
  {
    "label": "010",
    "text": "{{fun_0003000E arg=\"\"}}{{fun_0002000E arg=\"\"}}{{fun_00030011 arg=\"0x0000\"}}.{{delay frames=\"40\"}}\nWenn {{fun_0008000E arg=\"0x00CD0400650072000600730069006500040065007300\"}} dir nicht gefällt, verkauf\n{{fun_0008000E arg=\"0x00CD0600690068006E000600730069006500040065007300\"}} ruhig.{{delay frames=\"20\"}} Ich hab nichts dagegen."
  },
  {
    "label": "011",
    "text": "{{fun_0003000E arg=\"\"}}{{fun_0002000E arg=\"\"}}{{fun_00030011 arg=\"0x0000\"}}.{{delay frames=\"40\"}}\nIch hoffe, du hast so viel Spaß\ndamit wie ich{{delay frames=\"8\"}}.{{delay frames=\"8\"}}.{{delay frames=\"8\"}}."
  },
  {
    "label": "012",
    "text": "{{fun_0003000E arg=\"\"}}{{fun_0002000E arg=\"\"}}{{fun_00030011 arg=\"0x0000\"}}.{{delay frames=\"40\"}}\nWenn du nichts damit anfangen\nkannst, verkauf {{fun_0008000E arg=\"0x00CD0600690068006E000600730069006500040065007300\"}} einfach."
  },
  {
    "label": "013",
    "text": ""
  },
  {
    "label": "014",
    "text": "{{fun_00010009 arg=\"0x110012001300\"}}"
  },
  {
    "label": "015",
    "text": "{{fun_00010009 arg=\"0x140015001600\"}}"
  },
  {
    "label": "016",
    "text": "{{fun_00010009 arg=\"0x170018001900\"}}"
  },
  {
    "label": "017",
    "text": "{{anim id=\"15\"}}Huch!{{delay frames=\"40\"}} Was ist nur in mich gefahren?{{delay frames=\"20\"}}\n{{anim id=\"13\"}}Das wollte ich gar nicht laut sagen!"
  },
  {
    "label": "018",
    "text": "{{anim id=\"17\"}}Huch!{{delay frames=\"40\"}}\nHab ich das eben wirklich gesagt?{{delay frames=\"20\"}}\nWas ist nur in mich gefahren?"
  },
  {
    "label": "019",
    "text": "{{anim id=\"0\"}}Moment{{delay frames=\"8\"}}.{{delay frames=\"8\"}}.{{delay frames=\"8\"}}.{{delay frames=\"20\"}}{{anim id=\"19\"}} Wieso habe ich das denn\neben gesagt?{{delay frames=\"20\"}} Ach, {{delay frames=\"8\"}}was hab ich mir\ndabei wieder gedacht, {{delay frames=\"8\"}}{{fun_00080005 arg=\"\"}}?!"
  },
  {
    "label": "020",
    "text": "Oh{{delay frames=\"8\"}}.{{delay frames=\"8\"}}.{{delay frames=\"8\"}}.{{delay frames=\"20\"}}{{anim id=\"15\"}} Wieso habe ich das denn\ngesagt?{{delay frames=\"20\"}} {{anim id=\"13\"}}Das ist mir irgendwie\nso zugeflogen, {{delay frames=\"8\"}}{{fun_00070005 arg=\"\"}}!"
  },
  {
    "label": "021",
    "text": "{{anim id=\"17\"}}Huch!{{delay frames=\"40\"}} Im Ernst? {{delay frames=\"20\"}}Habe ich das eben\nlaut ausgesprochen?{{delay frames=\"20\"}} Also, es stimmt\nzwar, {{delay frames=\"8\"}}aber{{delay frames=\"8\"}}.{{delay frames=\"8\"}}.{{delay frames=\"8\"}}."
  },
  {
    "label": "022",
    "text": "{{anim id=\"0\"}}Moment{{delay frames=\"8\"}}.{{delay frames=\"8\"}}.{{delay frames=\"8\"}}.{{delay frames=\"20\"}}{{anim id=\"19\"}} Bitte sag, dass mir das\neben nicht rausgerutscht ist!{{delay frames=\"40\"}}\nEs stimmt zwar, {{delay frames=\"8\"}}aber{{delay frames=\"8\"}}.{{delay frames=\"8\"}}.{{delay frames=\"8\"}}.{{delay frames=\"20\"}}{{anim id=\"10\"}} Puh!"
  },
  {
    "label": "023",
    "text": "{{anim id=\"10\"}}Huch! {{delay frames=\"40\"}}Zum Glück ist es vorbei.{{delay frames=\"20\"}}\nIch bin zwar gerne spendabel.{{delay frames=\"20\"}}\nAber das war mir fast unheimlich..."
  },
  {
    "label": "024",
    "text": "{{anim id=\"9\"}}Das war aber gerade seltsam. {{delay frames=\"40\"}}Und\nso untypisch für mich.{{delay frames=\"20\"}} Sonst packe\nich Geschenke vorher immer ein!"
  },
  {
    "label": "025",
    "text": "{{anim id=\"9\"}}Wie kurios{{delay frames=\"8\"}}.{{delay frames=\"8\"}}.{{delay frames=\"8\"}}.{{delay frames=\"20\"}} Ich verschenke gerne\nmal das eine oder andere, {{delay frames=\"8\"}}aber das\nwar so nicht geplant, {{delay frames=\"8\"}}{{fun_00080005 arg=\"\"}}."
  },
  {
    "label": "026",
    "text": ""
  }
]