﻿[
  {
    "label": "001",
    "text": "{{anim id=\"32\"}}Sei gegrüßt, {{delay frames=\"8\"}}{{fun_0006000E arg=\"0x0E004600720065006D006400650072000C004600720065006D0064006500\"}}!{{delay frames=\"20\"}}\nResidierst du auch hier?{{delay frames=\"40\"}}\nIch bin {{fun_00010005 arg=\"\"}}.\n{{anim id=\"37\"}}Ich habe mein kostbares Hab und\nGut eingepackt und bin hierher\numgesiedelt.\n{{fun_0003000E arg=\"\"}}{{fun_00050005 arg=\"\"}} soll ja gerade groß im\nKommen sein!{{pageBreak}}{{anim id=\"9\"}}So leid es mir tut, muss ich doch\ngestehen, dass mich allmählich die\nMüdigkeit einholt{{delay frames=\"8\"}}.{{delay frames=\"8\"}}.{{delay frames=\"8\"}}.\n{{anim id=\"37\"}}Wenn du morgen wiederkämst,\nwäre ich sicher ausgeruhter.{{delay frames=\"40\"}}\nNichts für ungut!"
  },
  {
    "label": "002",
    "text": "{{anim id=\"36\"}}Oh, {{delay frames=\"8\"}}du hast mich zu einem eher\nungünstigen Zeitpunkt erwischt!{{delay frames=\"40\"}}\nIch bin gerade erst hergezogen.\n{{anim id=\"37\"}}Ich heiße übrigens {{fun_00010005 arg=\"\"}}.{{delay frames=\"40\"}}\nIch bin mir sicher, dass wir zwei\nuns blendend verstehen werden.\nWie zwei Trinkhalme {{fun_0008000E arg=\"0x00CD040069006D000C0069006E002000640065007200040069006D00\"}}\n{{fun_000E0005 arg=\"0x0000\"}} sozusagen.{{delay frames=\"20\"}}\n{{anim id=\"38\"}}Hahaha!\n{{anim id=\"13\"}}Aber heute hab ich alle Hände voll\nzu tun mit Auspacken, Einräumen\net cetera.{{delay frames=\"40\"}}{{anim id=\"37\"}} Wir sehen uns morgen, {{delay frames=\"8\"}}ja?"
  },
  {
    "label": "003",
    "text": "{{anim id=\"34\"}}Uff!{{delay frames=\"20\"}} Ist das alles ermüdend!{{delay frames=\"40\"}}\nWas ich alles noch Auspacken\nund Einräumen muss!{{delay frames=\"40\"}} Oh weh{{delay frames=\"8\"}}.{{delay frames=\"8\"}}.{{delay frames=\"8\"}}.\n{{anim id=\"17\"}}Huch! {{delay frames=\"40\"}}Wer bist denn du?!{{pageBreak}}{{anim id=\"13\"}}Oh, Verzeihung!{{delay frames=\"20\"}} Das klang etwas\nungehalten.{{delay frames=\"20\"}} Dabei will ich doch einen\nguten ersten Eindruck hinterlassen!\n{{anim id=\"37\"}}Ich bin {{fun_00010005 arg=\"\"}}. {{delay frames=\"20\"}}Und du?{{delay frames=\"40\"}}\nMoment!{{delay frames=\"20\"}} Du bist sicher {{fun_00000005 arg=\"\"}}.{{delay frames=\"20\"}}\nIch habe bereits von dir gehört.\n{{anim id=\"13\"}}Heute ist viel zu tun, {{delay frames=\"8\"}}aber morgen \nbin ich sicher weniger gestresst\nund sanft wie ein Lamm!"
  },
  {
    "label": "004",
    "text": "{{anim id=\"15\"}}Oh, {{delay frames=\"8\"}}Besuch! {{delay frames=\"40\"}}Ich grüße dich!{{pageBreak}}{{anim id=\"1\"}}Ich heiße {{fun_00010005 arg=\"\"}} und ich mache\neben meine ersten Schritte in\n{{fun_00050005 arg=\"\"}}.\n{{anim id=\"0\"}}Ich wohne gerade erst lange genug\nhier, um meine Umzugskartons\nauszupacken und mich einzuleben.\n{{anim id=\"1\"}}Es gibt viele nette Gesichter in\nder Nachbarschaft.{{delay frames=\"40\"}} Wir beide\nwerden sicher noch gute Freunde!"
  },
  {
    "label": "005",
    "text": "{{anim id=\"15\"}}Oh!{{delay frames=\"40\"}} Sei gegrüßt, {{delay frames=\"8\"}}{{fun_0006000E arg=\"0x0E004600720065006D006400650072000C004600720065006D0064006500\"}}!{{pageBreak}}Ich bin {{fun_00010005 arg=\"\"}}, {{delay frames=\"8\"}}die neue\nBürgerin hier in {{fun_00050005 arg=\"\"}}.{{pageBreak}}{{anim id=\"27\"}}Aber wenn du hier ebenfalls\nwohnst, ist dir sicher schon\nbekannt, dass ich neu bin{{delay frames=\"8\"}}.{{delay frames=\"8\"}}.{{delay frames=\"8\"}}.\n{{anim id=\"1\"}}Meinen Recherchen zufolge ziehen\nalle gebildeten, interessanten und\nkultivierten Leute hierher.\n{{anim id=\"27\"}}Da konnte ich nicht fernbleiben!\n{{delay frames=\"40\"}}Ich bin schon seit einigen Tagen hier\nund wurde noch nicht enttäuscht.\n{{anim id=\"1\"}}Wir werden sicher gute Freunde,{{delay frames=\"8\"}}\n{{fun_00080005 arg=\"\"}}. {{delay frames=\"20\"}}Komm also gerne jeden\nTag zur Visite vorbei!"
  },
  {
    "label": "006",
    "text": "{{anim id=\"16\"}}Oh!{{delay frames=\"20\"}} Ein neues Gesicht!{{delay frames=\"40\"}}\nWie schön, dich kennenzulernen!{{delay frames=\"20\"}}\nBesonders heute{{delay frames=\"8\"}}.{{delay frames=\"8\"}}.{{delay frames=\"8\"}}.\n{{anim id=\"1\"}}Als ich hergezogen bin, kannte ich\nnämlich niemanden hier!{{delay frames=\"20\"}}{{anim id=\"27\"}} Nicht mal\ngenug für eine Einzugsfeier.\n{{anim id=\"37\"}}Deshalb sorge ich immer dafür,\ndass ich möglichst schnell bei allen\nEinwohnern vorstellig werde.\nAlso,{{delay frames=\"8\"}} ich bin {{fun_00010005 arg=\"\"}}. {{delay frames=\"20\"}}{{anim id=\"1\"}}Freut mich,\ndich kennenzulernen,{{delay frames=\"8\"}} {{fun_00080005 arg=\"\"}}!"
  },
  {
    "label": "007",
    "text": "{{anim id=\"15\"}}Oh! {{delay frames=\"40\"}}Wer bist denn{{delay frames=\"8\"}}.{{delay frames=\"8\"}}.{{delay frames=\"8\"}}.{{delay frames=\"20\"}} {{anim id=\"37\"}}Moment!{{delay frames=\"20\"}}\nIch weiß genau, wer du bist.{{delay frames=\"40\"}}\n{{fun_0003000E arg=\"\"}}{{fun_00000005 arg=\"\"}}, {{delay frames=\"8\"}}stimmt's?\n{{anim id=\"37\"}}Ich wohne seit einer Woche in\n{{fun_00060005 arg=\"\"}} und habe bereits\nviel über dich gehört.\nIch habe mich schon gefragt,\nwann du endlich vorbeikommst!{{delay frames=\"40\"}}\nFreut mich!{{delay frames=\"20\"}} {{anim id=\"32\"}}Ich bin {{fun_00010005 arg=\"\"}}."
  },
  {
    "label": "008",
    "text": "{{anim id=\"1\"}}Oh, {{delay frames=\"8\"}}ein neues Gesicht!{{delay frames=\"40\"}}\nDu bist sicher erst nach\n{{fun_00060005 arg=\"\"}} gezogen, {{delay frames=\"8\"}}oder?\n{{anim id=\"27\"}}Anstrengend, {{delay frames=\"8\"}}ich weiß! {{delay frames=\"40\"}}Ich bin auch\nerst vor zwei Wochen hergezogen,\nweil es hier so schön sein soll.\n{{anim id=\"13\"}}Wie bitte?{{delay frames=\"40\"}}\nDu wohnst schon länger hier?{{delay frames=\"20\"}}\nOh{{delay frames=\"8\"}}.{{delay frames=\"8\"}}.{{delay frames=\"8\"}}.{{delay frames=\"20\"}} Wie war gleich dein Name?\n{{anim id=\"16\"}}Ach! {{delay frames=\"20\"}}DU bist {{fun_00000005 arg=\"\"}}?!{{delay frames=\"40\"}}\nAlle sprechen dauernd von dir.{{delay frames=\"20\"}}\nJetzt lerne ich dich endlich kennen!\n{{anim id=\"9\"}}Ich dachte schon, du gehst mir aus\ndem Weg.{{delay frames=\"40\"}} Wusstest du nicht, dass\nich herziehe?{{delay frames=\"40\"}} Ich dachte{{delay frames=\"8\"}}.{{delay frames=\"8\"}}.{{delay frames=\"8\"}}.\nNa ja, {{delay frames=\"8\"}}ist nicht weiter wichtig!{{delay frames=\"40\"}}\nIch bin jedenfalls {{fun_00010005 arg=\"\"}}.{{delay frames=\"20\"}}\n{{anim id=\"39\"}}Du kannst mich jederzeit besuchen!"
  },
  {
    "label": "009",
    "text": "{{anim id=\"9\"}}Oh, {{delay frames=\"8\"}}du bist sicher {{fun_00080005 arg=\"\"}}.{{delay frames=\"40\"}}\nIch wohne schon seit WOCHEN hier\nund habe oft deinen Namen gehört.\n{{anim id=\"9\"}}Der Ort scheint es dir zu verdanken,\ndass er so attraktiv geworden ist.{{delay frames=\"40\"}}\n{{anim id=\"37\"}}Deswegen bin ich auch hergezogen!\nUnd es stimmt! {{delay frames=\"20\"}}{{fun_0003000E arg=\"\"}}{{fun_00060005 arg=\"\"}}\nhat wirklich viel zu bieten.{{pageBreak}}{{anim id=\"23\"}}Bist du deshalb so beschäftigt?{{delay frames=\"20\"}}\nOder werden Neuankömmlinge hier\ngenerell nicht offiziell empfangen?\n{{anim id=\"37\"}}Ach, {{delay frames=\"8\"}}ich will es nicht persönlich\nnehmen{{delay frames=\"8\"}}.{{delay frames=\"8\"}}.{{delay frames=\"8\"}}.{{delay frames=\"20\"}} {{anim id=\"32\"}}Ich heiße {{fun_00010005 arg=\"\"}}.{{pageBreak}}{{anim id=\"36\"}}Hoffentlich muss ich auf deinen\nnächsten Besuch nicht wieder so\nlange warten!"
  },
  {
    "label": "010",
    "text": "{{anim id=\"15\"}}Oh!{{delay frames=\"20\"}} Wer bist du denn?{{delay frames=\"40\"}} Schnief{{delay frames=\"8\"}}.{{delay frames=\"8\"}}.{{delay frames=\"8\"}}.{{delay frames=\"20\"}}{{fun_000B0007 arg=\"\"}}{{anim id=\"30\"}}\nHatschi!{{delay frames=\"40\"}} Verzeihung! {{delay frames=\"20\"}}Ich bin{{delay frames=\"8\"}}.{{delay frames=\"8\"}}.{{delay frames=\"8\"}}.{{delay frames=\"20\"}}\n{{fun_000B0007 arg=\"\"}}{{anim id=\"30\"}}Hatschi!{{delay frames=\"40\"}} Ich bin {{fun_00010005 arg=\"\"}}.\nUnd du?{{delay frames=\"40\"}}{{anim id=\"30\"}} Hatschi!{{delay frames=\"40\"}} Verzeihung{{delay frames=\"8\"}}.{{delay frames=\"8\"}}.{{delay frames=\"8\"}}.{{pageBreak}}{{fun_0003000E arg=\"\"}}{{fun_00000005 arg=\"\"}}?{{delay frames=\"40\"}} Freut mich!{{delay frames=\"40\"}}\n{{anim id=\"37\"}}Ich wohne schon seit einer\nganzen Weile hier.\nSchade, dass wir uns begegnen,\nwenn ich krank bin.{{delay frames=\"40\"}} Komm lieber\nein andermal wieder!{{delay frames=\"40\"}}{{anim id=\"30\"}} {{fun_000C0007 arg=\"\"}}HATSCHI!"
  }
]