﻿[
  {
    "label": "001",
    "text": "{{anim id=\"37\"}}Kann ich dir behilflich sein,\n{{delay frames=\"8\"}}{{fun_00070005 arg=\"\"}}?"
  },
  {
    "label": "002",
    "text": "{{anim id=\"33\"}}Der Nachdruck deiner Bitte ist mir\nnicht entgangen{{delay frames=\"8\"}}.{{delay frames=\"8\"}}.{{delay frames=\"8\"}}.{{delay frames=\"16\"}} Nun, {{delay frames=\"8\"}}weswegen\nrufst du mich herbei, {{delay frames=\"8\"}}{{fun_00070005 arg=\"\"}}?"
  },
  {
    "label": "003",
    "text": "{{anim id=\"21\"}}Mir sind einige Wege des\nKennenlernens bekannt, {{delay frames=\"8\"}}doch diese\nKontaktaufnahme war mir neu{{delay frames=\"8\"}}.{{delay frames=\"8\"}}.{{delay frames=\"8\"}}."
  },
  {
    "label": "004",
    "text": "{{anim id=\"27\"}}Aus der Art, {{delay frames=\"8\"}}mich herbeizurufen,{{delay frames=\"8\"}}\nlese ich Verzweiflung.{{delay frames=\"30\"}} {{anim id=\"1\"}}Nichts, {{delay frames=\"8\"}}wofür\nman sich schämen müsste!"
  },
  {
    "label": "005",
    "text": "{{anim id=\"11\"}}Ich meine, {{delay frames=\"8\"}}Veränderungen an\nmeinem Körper zu beobachten{{delay frames=\"8\"}}.{{delay frames=\"8\"}}.{{delay frames=\"8\"}}.{{delay frames=\"20\"}}\n{{anim id=\"15\"}}Auch ist meine Garderobe neu."
  }
]