﻿[
  {
    "label": "001",
    "text": "{{anim id=\"1\"}}Hey-ho,{{delay frames=\"8\"}} ich bin {{delay frames=\"8\"}}{{fun_00010005 arg=\"\"}} und über-\nnehm Puzzleopolis!{{delay frames=\"20\"}} Will nämlich\nBürgermeisterin werden!\n{{anim id=\"33\"}}Kannste gern versuchen zu ver-\nhindern, {{delay frames=\"8\"}}{{fun_00070005 arg=\"\"}}!"
  },
  {
    "label": "002",
    "text": "Wenn ich offiziell hier die Obercoole\nbin, {{delay frames=\"8\"}}gibt's nur noch eine Dienst-\nlimousine: {{delay frames=\"20\"}}{{anim id=\"21\"}}mein Skateboard!{{pageBreak}}{{anim id=\"36\"}}Ich fahr natürlich nur mit Helm.{{delay frames=\"20\"}}\nWegen Vorbildfunktion und\nso, {{delay frames=\"8\"}}{{fun_00070005 arg=\"\"}}!"
  },
  {
    "label": "003",
    "text": "{{anim id=\"21\"}}Ich häng erst mal mit den Leuten\naus der Stadt ab und bequatsch\nmeine Pläne mit denen.{{pageBreak}}{{anim id=\"28\"}}Schon mal 'ne Vorwarnung: {{delay frames=\"20\"}}Du hast\ngegen mich kaum 'ne Chance,\n{{delay frames=\"8\"}}{{fun_00000005 arg=\"\"}}!"
  },
  {
    "label": "004",
    "text": "{{fun_00020007 arg=\"\"}}Erreiche innerhalb von {{color id=\"2\"}}2 Minuten\n{{color id=\"65535\"}}eine Zustimmung von 100 %, um\ndiese Runde zu gewinnen.{{fun_00030007 arg=\"\"}}{{delay frames=\"40\"}}"
  },
  {
    "label": "006",
    "text": "{{anim id=\"15\"}}Haste lang auf mich gewartet,\n{{delay frames=\"8\"}}{{fun_00000005 arg=\"\"}}?{{delay frames=\"20\"}} Dann lass mal\nkeine Zeit verlieren!"
  },
  {
    "label": "007",
    "text": "{{anim id=\"6\"}}Los geht's!{{delay frames=\"20\"}} Nur die Harten kommen\nins Bürgermeisteramt!"
  },
  {
    "label": "008",
    "text": ""
  },
  {
    "label": "009",
    "text": ""
  },
  {
    "label": "011",
    "text": "{{anim id=\"41\"}}Hö?{{delay frames=\"20\"}} Hab ich verloren?{{delay frames=\"30\"}} Na ja, {{delay frames=\"8\"}}im\nAnti-Aggressionsprogramm hab ich\ngerlernt, {{delay frames=\"8\"}}mit so was umzugehen."
  },
  {
    "label": "012",
    "text": "{{anim id=\"6\"}}Glückwunsch, blabla{{delay frames=\"8\"}}.{{delay frames=\"8\"}}.{{delay frames=\"8\"}}.{{delay frames=\"20\"}}\nWirst den Job toll machen,{{delay frames=\"8\"}}\n{{delay frames=\"8\"}}{{fun_00070005 arg=\"\"}}!{{pageBreak}}Hau rein,{{delay frames=\"8\"}} {{fun_00000005 arg=\"\"}}.{{delay frames=\"20\"}} Steh voll\nhinter dir, {{delay frames=\"8\"}}Gänseblümchen."
  },
  {
    "label": "013",
    "text": ""
  },
  {
    "label": "014",
    "text": ""
  },
  {
    "label": "016",
    "text": "{{anim id=\"33\"}}Hö hö hö, {{delay frames=\"8\"}}hab gewonnen!{{delay frames=\"20\"}} So macht\ndas Spaß hier, {{delay frames=\"8\"}}{{fun_00070005 arg=\"\"}}!"
  },
  {
    "label": "017",
    "text": "{{anim id=\"6\"}}Biste traurig,{{delay frames=\"8\"}} Gänseblümchen?{{delay frames=\"20\"}}\nLass dir das nich' anmerken!{{delay frames=\"20\"}} Pro-\nbier's lieber noch mal irgendwann."
  },
  {
    "label": "018",
    "text": ""
  },
  {
    "label": "019",
    "text": ""
  }
]