﻿[
  {
    "label": "001",
    "text": "{{anim id=\"37\"}}Ich habe einen Brief bekommen,\n{{fun_00080005 arg=\"\"}}.{{delay frames=\"20\"}}\nHier, {{delay frames=\"10\"}}sieh ihn dir mal an."
  },
  {
    "label": "002",
    "text": "{{anim id=\"37\"}}Sieh mal, {{fun_00080005 arg=\"\"}}.{{delay frames=\"20\"}} Dieser Brief\nhier hat mich wirklich nachdenklich\ngemacht, {{fun_00070005 arg=\"\"}}."
  },
  {
    "label": "003",
    "text": "{{fun_00010009 arg=\"0x040005000600\"}}"
  },
  {
    "label": "004",
    "text": "{{anim id=\"37\"}}Interessant, oder? {{delay frames=\"20\"}}Ich würde\nauch gern solche Briefe schreiben\nkönnen, {{fun_00070005 arg=\"\"}}."
  },
  {
    "label": "005",
    "text": "{{anim id=\"1\"}}Solche Briefe kann nicht jeder\nschreiben. {{delay frames=\"20\"}}Ich jedenfalls nicht,\n{{fun_00070005 arg=\"\"}}. {{delay frames=\"20\"}}Du vielleicht?"
  },
  {
    "label": "006",
    "text": "Faszinierend, oder? {{delay frames=\"20\"}}Seine Gedanken\nauf diese Art zu Papier zu bringen...{{delay frames=\"40\"}}\n{{anim id=\"40\"}}Ich könnte das nicht, {{fun_00070005 arg=\"\"}}."
  },
  {
    "label": "007",
    "text": "{{fun_00010009 arg=\"0x080009000A00\"}}"
  },
  {
    "label": "008",
    "text": "Dieser Brief ist wirklich interessant,\n{{fun_00080005 arg=\"\"}}.{{delay frames=\"20\"}} {{anim id=\"11\"}}Mal sehen,\nwem ich ihn als nächstes zeige."
  },
  {
    "label": "009",
    "text": "Dieser Brief ist so gut...{{delay frames=\"20\"}}\n{{anim id=\"21\"}}Jeder sollte ihn gelesen haben."
  },
  {
    "label": "010",
    "text": "Ich zeige ihn noch einigen unserer\nNachbarn. {{delay frames=\"20\"}}{{anim id=\"11\"}}Hmmm, {{delay frames=\"10\"}}wer hat es\nverdient, diesen Brief zu sehen...?"
  }
]