﻿[
  {
    "label": "001",
    "text": "{{anim id=\"35\"}}Ich bin zurzeit echt im Kaufrausch,\n{{fun_00080005 arg=\"\"}}.{{delay frames=\"20\"}} Verkaufst du mir\n{{fun_0008000E arg=\"0x00CD0C006400650069006E0065006E000A006400650069006E00650008006400650069006E00\"}} {{fun_00030011 arg=\"0x0000\"}}?{{fun_0001000A arg=\"0x04000500\"}}"
  },
  {
    "label": "002",
    "text": "{{anim id=\"6\"}}{{fun_0003000E arg=\"\"}}{{fun_00080005 arg=\"\"}}!{{delay frames=\"20\"}} Du hast {{fun_0008000E arg=\"0x00CD0A00650069006E0065006E000800650069006E0065000600650069006E00\"}}\n{{fun_00030011 arg=\"0x0000\"}}?{{delay frames=\"20\"}} Nach so\n{{fun_0008000E arg=\"0x00CD0A00650069006E0065006D000A00650069006E00650072000A00650069006E0065006D00\"}} suche ich schon lange!{{fun_00020009 arg=\"0x1B00170017001700\"}}"
  },
  {
    "label": "003",
    "text": "Hey, {{fun_00080005 arg=\"\"}}. {{delay frames=\"20\"}}Ich hab gehört, du\nhast {{fun_0008000E arg=\"0x00CD0A00650069006E0065006E000800650069006E0065000600650069006E00\"}} {{fun_00030011 arg=\"0x0000\"}}. {{delay frames=\"20\"}}\nStimmt das wirklich?{{fun_00050008 arg=\"0x2200150021002800\"}}\nIch denke schon.\nNö."
  },
  {
    "label": "004",
    "text": "{{anim id=\"23\"}}Na, wie wär's? {{delay frames=\"20\"}}Wie gesagt, ich bin\ntotal im Kaufrausch.{{delay frames=\"20\"}} An deiner\nStelle würde ich das ausnutzen.{{fun_00050008 arg=\"0x0600000007002800\"}}\nWie viele Sternis?\nLieber nicht."
  },
  {
    "label": "005",
    "text": "{{anim id=\"23\"}}Na, wie wär's? {{delay frames=\"20\"}}Du kannst doch\nbestimmt ein paar leicht\nverdiente Sternis gebrauchen?{{fun_00050008 arg=\"0x0700000008002800\"}}\nWie viele denn?\nNein danke."
  },
  {
    "label": "006",
    "text": "{{anim id=\"6\"}}Ich bin bereit, einiges dafür\nhinzulegen!{{delay frames=\"20\"}} {{anim id=\"11\"}}Mal sehen, wie viel\nmir das wert ist{{delay frames=\"8\"}}.{{delay frames=\"8\"}}.{{delay frames=\"8\"}}.{{fun_00010009 arg=\"0x09000A000B00\"}}"
  },
  {
    "label": "007",
    "text": "{{anim id=\"6\"}}Du denkst wohl, ich habe nicht\ngenug Sternis dabei, was? {{fun_00010009 arg=\"0x0B000C000D00\"}}"
  },
  {
    "label": "008",
    "text": "{{anim id=\"2\"}}Du glaubst wohl nicht, dass ich\ndir genug Sternis dafür bezahlen\nkann, was, {{fun_00080005 arg=\"\"}}?\n{{anim id=\"37\"}}Dann muss ich dich wohl auf\nandere Weise beeindrucken.{{pageBreak}}{{anim id=\"11\"}}Hmmm, ich könnte dir mein Gedicht\nüber {{fun_00100005 arg=\"0x0000\"}} widmen.{{delay frames=\"40\"}}\n{{anim id=\"36\"}}Falls es jemals fertig wird..."
  },
  {
    "label": "009",
    "text": "{{fun_000D0007 arg=\"\"}}{{anim id=\"23\"}}Also gut, was hältst du von \n{{color id=\"2\"}}{{color id=\"2\"}}{{fun_000B0004 arg=\"0x0200\"}}{{color id=\"2\"}} Sternis{{color id=\"65535\"}}, {{fun_00080005 arg=\"\"}}?{{fun_0008000D arg=\"0x02CD\"}}{{fun_00050008 arg=\"0x0E00150013002800\"}}\nKlingt gut!\nNein danke."
  },
  {
    "label": "010",
    "text": "{{fun_000D0007 arg=\"\"}}{{anim id=\"23\"}}Also gut, was hältst du von \n{{color id=\"2\"}}{{color id=\"2\"}}{{color id=\"2\"}}{{color id=\"2\"}}{{color id=\"2\"}}{{fun_000B0004 arg=\"0x0100\"}}{{color id=\"2\"}}{{color id=\"2\"}}{{color id=\"2\"}}{{color id=\"2\"}} Sternis{{color id=\"65535\"}}, {{fun_00080005 arg=\"\"}}?{{fun_0008000D arg=\"0x02CD\"}}{{fun_00050008 arg=\"0x0F00150013002800\"}}\nKlingt gut!\nNein danke."
  },
  {
    "label": "011",
    "text": "{{fun_000D0007 arg=\"\"}}{{anim id=\"23\"}}Also gut, was hältst du von \n{{color id=\"2\"}}{{color id=\"2\"}}{{color id=\"2\"}}{{color id=\"2\"}}{{fun_000B0004 arg=\"0x0400\"}}{{color id=\"2\"}}{{color id=\"2\"}}{{color id=\"2\"}} Sternis{{color id=\"65535\"}}, {{fun_00080005 arg=\"\"}}?{{fun_0008000D arg=\"0x02CD\"}}{{fun_00050008 arg=\"0x1000150013002800\"}}\nKlingt gut!\nNein danke."
  },
  {
    "label": "012",
    "text": "{{fun_000D0007 arg=\"\"}}{{anim id=\"23\"}}Also gut, was hältst du von \n{{color id=\"2\"}}{{color id=\"2\"}}{{fun_000B0004 arg=\"0x0000\"}}{{color id=\"2\"}} Sternis{{color id=\"65535\"}}, {{fun_00080005 arg=\"\"}}?{{fun_0008000D arg=\"0x02CD\"}}{{fun_00050008 arg=\"0x1100150013002800\"}}\nKlingt gut!\nNein danke."
  },
  {
    "label": "013",
    "text": "{{fun_000D0007 arg=\"\"}}{{anim id=\"23\"}}Also gut, was hältst du von \n{{color id=\"2\"}}{{color id=\"2\"}}{{color id=\"2\"}}{{fun_000B0004 arg=\"0x0300\"}}{{color id=\"2\"}}{{color id=\"2\"}} Sternis{{color id=\"65535\"}}, {{fun_00080005 arg=\"\"}}?{{fun_0008000D arg=\"0x02CD\"}}{{fun_00050008 arg=\"0x1200150013002800\"}}\nKlingt gut!\nNein danke."
  },
  {
    "label": "014",
    "text": "{{anim id=\"1\"}}Alles klar! {{delay frames=\"20\"}}Bereit für die Sternis?{{delay frames=\"20\"}}\n{{anim id=\"0\"}}Du kriegst {{color id=\"2\"}}{{fun_000B0004 arg=\"0x0200\"}}{{color id=\"65535\"}} von mir –{{delay frames=\"20\"}} und\nich {{fun_0008000E arg=\"0x00CD0C006400650069006E0065006E000A006400650069006E00650008006400650069006E00\"}} {{fun_00030011 arg=\"0x0000\"}}!"
  },
  {
    "label": "015",
    "text": "{{anim id=\"1\"}}Alles klar!{{delay frames=\"20\"}} Bereit für die Sternis?{{delay frames=\"20\"}}\n{{anim id=\"0\"}}Du kriegst {{color id=\"2\"}}{{fun_000B0004 arg=\"0x0100\"}}{{color id=\"65535\"}} von mir –{{delay frames=\"20\"}} und\nich {{fun_0008000E arg=\"0x00CD0C006400650069006E0065006E000A006400650069006E00650008006400650069006E00\"}} {{fun_00030011 arg=\"0x0000\"}}!"
  },
  {
    "label": "016",
    "text": "{{anim id=\"1\"}}Alles klar!{{delay frames=\"20\"}} Bereit für die Sternis?{{delay frames=\"20\"}}\n{{anim id=\"0\"}}Du kriegst {{color id=\"2\"}}{{fun_000B0004 arg=\"0x0400\"}}{{color id=\"65535\"}} von mir –{{delay frames=\"20\"}} und\nich {{fun_0008000E arg=\"0x00CD0C006400650069006E0065006E000A006400650069006E00650008006400650069006E00\"}} {{fun_00030011 arg=\"0x0000\"}}!"
  },
  {
    "label": "017",
    "text": "{{anim id=\"1\"}}Alles klar! {{delay frames=\"20\"}}Bereit für die Sternis?{{delay frames=\"20\"}}\n{{anim id=\"0\"}}Du kriegst {{color id=\"2\"}}{{fun_000B0004 arg=\"0x0000\"}}{{color id=\"65535\"}} von mir – {{delay frames=\"20\"}}und\nich {{fun_0008000E arg=\"0x00CD0C006400650069006E0065006E000A006400650069006E00650008006400650069006E00\"}} {{fun_00030011 arg=\"0x0000\"}}!"
  },
  {
    "label": "018",
    "text": "{{anim id=\"1\"}}Alles klar!{{delay frames=\"20\"}} Bereit für die Sternis?{{delay frames=\"20\"}}\n{{anim id=\"0\"}}Du kriegst {{color id=\"2\"}}{{fun_000B0004 arg=\"0x0300\"}}{{color id=\"65535\"}} von mir –{{delay frames=\"20\"}} und\nich {{fun_0008000E arg=\"0x00CD0C006400650069006E0065006E000A006400650069006E00650008006400650069006E00\"}} {{fun_00030011 arg=\"0x0000\"}}!"
  },
  {
    "label": "019",
    "text": "{{anim id=\"27\"}}Dann werde ich meinen Kaufrausch\nwohl woanders ausleben müssen,\n{{fun_00070005 arg=\"\"}}."
  },
  {
    "label": "020",
    "text": "{{anim id=\"1\"}}Wow, das hab ich mir aber einiges\nkosten lassen.{{delay frames=\"20\"}} Danke, {{fun_00080005 arg=\"\"}}!"
  },
  {
    "label": "021",
    "text": "{{anim id=\"44\"}}Na also!{{delay frames=\"20\"}} Das nenne ich einen erfolg-\nreichen Kaufrausch, {{fun_00080005 arg=\"\"}}!"
  },
  {
    "label": "022",
    "text": "{{anim id=\"1\"}}Hey, danke! {{delay frames=\"20\"}}Beim nächsten Mal\nwerde ich vielleicht sogar noch\nmehr Geld ausgeben, {{fun_00080005 arg=\"\"}}."
  },
  {
    "label": "023",
    "text": "{{fun_000D0007 arg=\"\"}}{{anim id=\"13\"}}Du musst mir helfen!{{delay frames=\"20\"}} Verkaufst du\nmir {{fun_0008000E arg=\"0x00CD0600640065006E0006006400690065000600640061007300\"}} {{fun_00030011 arg=\"0x0000\"}}?{{delay frames=\"20\"}}\n{{anim id=\"11\"}}Sagen wir...{{delay frames=\"20\"}} für {{color id=\"2\"}}{{color id=\"2\"}}{{fun_000B0004 arg=\"0x0100\"}}{{color id=\"2\"}} Sternis{{color id=\"65535\"}}?{{fun_0008000D arg=\"0x02CD\"}}{{fun_00050008 arg=\"0x1900150018002800\"}}\nOkay.\nNein."
  },
  {
    "label": "024",
    "text": "Du willst {{fun_0008000E arg=\"0x00CD0600690068006E000600730069006500040065007300\"}} nicht verkaufen? {{delay frames=\"20\"}}\nWar dir mein Angebot zu niedrig?{{pageBreak}}{{anim id=\"28\"}}{{fun_0008000E arg=\"0x00CD0C004400650069006E0065006E000A004400650069006E00650008004400650069006E00\"}} {{fun_00030011 arg=\"0x0000\"}}\nwerde ich jedenfalls im Auge\nbehalten.{{delay frames=\"20\"}} Irgendwann krieg ich {{fun_0008000E arg=\"0x00CD0600690068006E000600730069006500040065007300\"}}!"
  },
  {
    "label": "025",
    "text": "{{anim id=\"15\"}}Ernsthaft? {{delay frames=\"20\"}}Für {{color id=\"2\"}}{{color id=\"2\"}}{{fun_000B0004 arg=\"0x0100\"}}{{color id=\"2\"}} Sternis{{color id=\"65535\"}}?{{delay frames=\"20\"}}\n{{anim id=\"37\"}}Du willst gar nicht verhandeln?{{delay frames=\"20\"}} Du\nbist echt {{fun_0006000E arg=\"0x2000650069006E00200067007500740065007200200046007200650075006E0064002400650069006E00650020006700750074006500200046007200650075006E00640069006E00\"}}."
  },
  {
    "label": "026",
    "text": "{{anim id=\"1\"}}Ich werde gut auf {{fun_0008000E arg=\"0x00CD0C006400650069006E0065006E000A006400650069006E00650008006400650069006E00\"}}\n{{fun_00030011 arg=\"0x0000\"}} aufpassen.{{delay frames=\"20\"}}\nDanke, {{fun_00080005 arg=\"\"}}!"
  },
  {
    "label": "027",
    "text": "{{fun_000D0007 arg=\"\"}}{{anim id=\"6\"}}Ich gebe dir alle Sternis, die ich\nbei mir habe, wenn du mir {{fun_0008000E arg=\"0x00CD0600640065006E0006006400690065000600640061007300\"}}\n{{fun_00030011 arg=\"0x0000\"}} verkaufst.{{fun_00000009 arg=\"0x1C001E00\"}}"
  },
  {
    "label": "028",
    "text": "{{fun_000D0007 arg=\"\"}}{{anim id=\"11\"}}Mal sehen{{delay frames=\"5\"}}.{{delay frames=\"5\"}}.{{delay frames=\"5\"}}.{{delay frames=\"20\"}} {{anim id=\"21\"}}Ich habe hier genau\n{{color id=\"2\"}}{{color id=\"2\"}}{{fun_000B0004 arg=\"0x0300\"}}{{color id=\"2\"}} Sternis{{color id=\"65535\"}}.{{delay frames=\"20\"}} Wie sieht's aus?{{fun_0008000D arg=\"0x02CD\"}}{{fun_00050008 arg=\"0x1D00150018002800\"}}\nAbgemacht!\nNein danke."
  },
  {
    "label": "029",
    "text": "{{anim id=\"37\"}}Da hast du wirklich kein schlechtes\nGeschäft gemacht, {{fun_00080005 arg=\"\"}}."
  },
  {
    "label": "030",
    "text": "{{fun_000D0007 arg=\"\"}}{{anim id=\"11\"}}Mal sehen{{delay frames=\"5\"}}.{{delay frames=\"5\"}}.{{delay frames=\"5\"}}.{{delay frames=\"20\"}} {{anim id=\"40\"}}Oh nein, ich habe nur\n{{color id=\"2\"}}{{color id=\"2\"}}{{fun_000B0004 arg=\"0x0200\"}}{{color id=\"2\"}} Sternis {{color id=\"65535\"}}dabei.{{delay frames=\"20\"}} Ich glaube\nkaum, dass dir das reicht. {{delay frames=\"20\"}}Oder?{{fun_0008000D arg=\"0x02CD\"}}{{fun_00050008 arg=\"0x1F00150020002800\"}}\nDoch, warum nicht?\nNiemals."
  },
  {
    "label": "031",
    "text": "{{anim id=\"5\"}}Wow, wirklich? {{delay frames=\"20\"}}Du glaubst gar nicht,\nwie sehr ich mich freue, {{fun_00080005 arg=\"\"}}!"
  },
  {
    "label": "032",
    "text": "{{anim id=\"9\"}}Das hab ich mir gedacht.{{delay frames=\"20\"}} Für\n{{color id=\"2\"}}{{color id=\"2\"}}{{fun_000B0004 arg=\"0x0200\"}}{{color id=\"2\"}} Sternis{{color id=\"65535\"}} würde keiner {{fun_0008000E arg=\"0x00CD0A00650069006E0065006E000800650069006E0065000600650069006E00\"}}\n{{fun_00030011 arg=\"0x0000\"}} verkaufen.\n{{anim id=\"10\"}}Schon okay, {{fun_00080005 arg=\"\"}}.{{delay frames=\"20\"}} In Zukunft\nwerde ich einfach immer genügend\nSternis mitnehmen, {{fun_00070005 arg=\"\"}}."
  },
  {
    "label": "033",
    "text": "{{anim id=\"15\"}}Wirklich nicht? {{delay frames=\"20\"}}{{anim id=\"11\"}}Aber {{fun_00220005 arg=\"0x00CD\"}} hat\ngesagt{{delay frames=\"10\"}}.{{delay frames=\"10\"}}.{{delay frames=\"10\"}}.{{delay frames=\"40\"}}{{anim id=\"36\"}} Schon gut, dann hab ich\nmich wohl verhört, {{fun_00070005 arg=\"\"}}."
  },
  {
    "label": "034",
    "text": "{{fun_000D0007 arg=\"\"}}{{anim id=\"35\"}}Hey, dann hab ich tatsächlich\nrichtig gehört.{{delay frames=\"20\"}} Wie wär's, wenn ich\ndir {{color id=\"2\"}}{{fun_000B0004 arg=\"0x0000\"}}{{color id=\"65535\"}} {{color id=\"2\"}}Sternis {{color id=\"65535\"}}dafür anbiete?{{fun_0008000D arg=\"0x02CD\"}}{{fun_00050008 arg=\"0x2400150023002800\"}}\nAbgemacht!\nNein danke."
  },
  {
    "label": "035",
    "text": "{{anim id=\"41\"}}War dir mein Angebot zu niedrig?{{fun_00010007 arg=\"\"}}\n{{anim id=\"28\"}}Irgendwann kriege ich schon {{fun_0008000E arg=\"0x00CD0C006D00650069006E0065006E000A006D00650069006E00650008006D00650069006E00\"}}\n{{fun_0008000E arg=\"0x00CD0E0065006900670065006E0065006E000C0065006900670065006E0065000E0065006900670065006E0065007300\"}} {{fun_00030011 arg=\"0x0000\"}}."
  },
  {
    "label": "036",
    "text": "{{anim id=\"1\"}}Wow, danke, {{fun_00080005 arg=\"\"}}!{{delay frames=\"20\"}}\nHätte echt nicht gedacht, dass du\ndem Geschäft zustimmst."
  },
  {
    "label": "037",
    "text": "{{anim id=\"36\"}}Ich weiß gar nicht mehr, warum ich\n{{fun_0008000E arg=\"0x00CD0C00640069006500730065006E000A00640069006500730065000C00640069006500730065007300\"}} {{fun_00030011 arg=\"0x0000\"}} so\ndringend haben wollte...{{delay frames=\"10\"}}"
  }
]