﻿[
  {
    "label": "001",
    "text": "{{fun_00010009 arg=\"0x030004000500\"}}"
  },
  {
    "label": "002",
    "text": "{{fun_00030009 arg=\"0x080009000A000B000C00\"}}"
  },
  {
    "label": "003",
    "text": "Heute feiern wir die {{color id=\"2\"}}Nacht des\nHerbstmondes{{color id=\"65535\"}}.{{pageBreak}}{{anim id=\"1\"}}Auf der ganzen Welt sind die Leute\nfasziniert von der Schönheit des\nMondes in bestimmten Nächten!"
  },
  {
    "label": "004",
    "text": "{{anim id=\"6\"}}Die {{color id=\"2\"}}Nacht des Herbstmondes{{color id=\"65535\"}}...{{delay frames=\"20\"}} Ich\nbin mir sicher, dass heute irgendwas\nBesonderes passiert.\n{{anim id=\"15\"}}Oder ist es etwa schon passiert?{{delay frames=\"20\"}}\n{{anim id=\"6\"}}Immerhin bin ich dir begegnet!{{delay frames=\"20\"}}\n{{anim id=\"38\"}}Das ist doch auch was Besonderes!"
  },
  {
    "label": "005",
    "text": "{{fun_0001000A arg=\"0x06000700\"}}"
  },
  {
    "label": "006",
    "text": "{{anim id=\"32\"}}Heute ist die {{color id=\"2\"}}Nacht des\nHerbstmondes{{color id=\"65535\"}}!{{pageBreak}}{{anim id=\"1\"}}Für dieses Fest gibt es überall auf\nder Welt unterschiedliche Namen,\naber im Grunde feiern alle dasselbe!"
  },
  {
    "label": "007",
    "text": "{{anim id=\"6\"}}In der {{color id=\"2\"}}Nacht des Herbstmondes\n{{color id=\"65535\"}}zeigt sich der Mond von seiner\nSchokoladenseite!\n{{anim id=\"36\"}}Obwohl er eher aussieht wie ein\nriesiger runder Käse..."
  },
  {
    "label": "008",
    "text": "{{anim id=\"6\"}}Wenn ich den Mond so sehe, fühle\nich mich, als würde ich gleich eine\ngeheimnisvolle Gestalt annehmen.\n{{anim id=\"20\"}}Aaargh...{{delay frames=\"20\"}} \nVer-{{delay frames=\"20\"}}wan-{{delay frames=\"20\"}}de-{{delay frames=\"20\"}}lung!{{delay frames=\"40\"}}\n{{anim id=\"33\"}}Ich mach natürlich nur Spaß!\n{{anim id=\"37\"}}Ich bin mir sicher, dass viele unserer\nLegenden durch die geheimnisvolle\nKraft des Mondes entstanden sind."
  },
  {
    "label": "009",
    "text": "In manchen Teilen der Welt essen\ndie Leute die verrücktesten Dinge\nzu Ehren des Mondes.\n{{anim id=\"11\"}}Reiskuchen,{{delay frames=\"10\"}} Hamburger,\n{{delay frames=\"10\"}}verschiedene Nudelsorten...{{delay frames=\"20\"}} oder\nsogar {{fun_00130005 arg=\"0x0000\"}}!\n{{anim id=\"36\"}}Die Faszination für den Mond haben\ndie Leute überall gemeinsam, aber\ndie Geschmäcker sind verschieden..."
  },
  {
    "label": "010",
    "text": "{{anim id=\"21\"}}In der {{color id=\"2\"}}Nacht des Herbstmondes\n{{color id=\"65535\"}}drücken wir unsere Begeisterung für\ndie Schönheit des Mondes aus.\n{{anim id=\"11\"}}Das bringt mich auf eine Idee für\neinen neuen Feiertag{{delay frames=\"8\"}}.{{delay frames=\"8\"}}.{{delay frames=\"8\"}}.{{delay frames=\"20\"}}\n{{anim id=\"44\"}}Die „Nacht des {{fun_00010005 arg=\"\"}}“!"
  },
  {
    "label": "011",
    "text": "Wie gefällt dir die {{color id=\"2\"}}Nacht des\nHerbstmondes{{color id=\"65535\"}}?{{pageBreak}}{{anim id=\"1\"}}Ich kann jedenfalls gar nicht genug\ndavon kriegen, im Mondschein zu\nbaden, {{fun_00070005 arg=\"\"}}!"
  },
  {
    "label": "012",
    "text": "Es ist die {{color id=\"2\"}}Nacht des Herbstmondes\n{{color id=\"65535\"}}und der Mond steht ganz allein im\nRampenlicht, {{fun_00070005 arg=\"\"}}...\n{{anim id=\"36\"}}Ob ich eines Tages auch mal so\nangehimmelt werde?"
  }
]