﻿[
  {
    "label": "001",
    "text": "{{anim id=\"9\"}}Ich hab eigentlich was mit\n{{fun_00010011 arg=\"0x0100\"}} zu besprechen.{{pageBreak}}Leider kann ich {{fun_0007000E arg=\"0x0600690068006E000600730069006500\"}} nicht\nselber besuchen.{{fun_00010007 arg=\"\"}} {{anim id=\"13\"}}Ich glaube,\nich bin einfach zu schüchtern...\n{{anim id=\"37\"}}Könntest du mir vielleicht einen\nGefallen tun und {{fun_00010011 arg=\"0x0100\"}}\nhierherbringen?{{fun_0005000F arg=\"0x15002800\"}}\nAber sicher!\nNicht mein Problem."
  },
  {
    "label": "002",
    "text": "{{anim id=\"9\"}}Ich würde gerne etwas mit\n{{fun_00010011 arg=\"0x0100\"}} besprechen, aber ich\nkomme einfach nicht dazu.\nWenn ich unterwegs bin, vergesse\nich es immer, und wenn ich zu\nHause bin, fällt es mir wieder ein.\n{{anim id=\"6\"}}Also hab ich mir was überlegt.{{delay frames=\"20\"}}\nDu bringst {{fun_00010011 arg=\"0x0100\"}} einfach her,\n{{fun_00080005 arg=\"\"}}!{{delay frames=\"20\"}} Und ich warte hier!\nDu kannst dir auch ruhig {{color id=\"2\"}}eine Stunde\n{{color id=\"65535\"}}Zeit lassen, wenn du willst.{{fun_0005000F arg=\"0x15002800\"}}\nOkay, ich helfe dir.\nIst nicht meine Sache."
  },
  {
    "label": "003",
    "text": "{{anim id=\"9\"}}Ich muss dringend mit {{fun_00010011 arg=\"0x0100\"}}\nreden, aber ich kann im Moment\nleider keinen Fuß vor die Tür setzen.\n{{anim id=\"15\"}}Warum? {{delay frames=\"10\"}}Ich kann einfach nicht! {{fun_00010007 arg=\"\"}}\n{{anim id=\"27\"}}Also gut. {{delay frames=\"20\"}}Ich hab ein neues Haargel\nauf {{fun_000E0005 arg=\"0x0000\"}}-Basis benutzt.\n{{anim id=\"37\"}}Solange das nicht getrocknet ist,\nkann ich unmöglich rausgehen. {{delay frames=\"20\"}}Aber\ndu könntest {{fun_00010011 arg=\"0x0100\"}} ja herholen.{{fun_0005000F arg=\"0x15002800\"}}\nKlar, mach ich!\nNicht mein Problem."
  },
  {
    "label": "004",
    "text": "{{anim id=\"6\"}}Ich muss mich unbedingt in\nspätestens einer Stunde mit\n{{fun_00010011 arg=\"0x0100\"}} treffen, {{fun_00080005 arg=\"\"}}!\nWarum eine Stunde? {{delay frames=\"20\"}}{{anim id=\"36\"}}Weil mit einem\nZeitlimit alles dringender wirkt.\n{{fun_00010007 arg=\"\"}}{{anim id=\"6\"}}Und das hier IST dringend!\nWie wär's, wenn du {{fun_00010011 arg=\"0x0100\"}}\ninnerhalb {{color id=\"2\"}}einer Stunde{{color id=\"65535\"}} für mich\nherbringen würdest?{{fun_0005000F arg=\"0x15002800\"}}\nBin schon unterwegs!\nIst nicht meine Sache."
  },
  {
    "label": "005",
    "text": "{{anim id=\"9\"}}{{fun_00010011 arg=\"0x0100\"}} und ich scheinen uns auf\nunseren Spaziergängen durch die\nStadt ständig zu verpassen.\nVielleicht ist es besser, wenn ich\neinfach hierbleibe und du mir\n{{fun_00010011 arg=\"0x0100\"}} vorbeibringst.{{delay frames=\"20\"}} Oder?{{fun_0005000F arg=\"0x15002800\"}}\nKann ich machen!\nNicht mein Problem."
  },
  {
    "label": "006",
    "text": ""
  },
  {
    "label": "007",
    "text": "{{anim id=\"15\"}}Du hilfst mir wirklich, {{fun_00080005 arg=\"\"}}?{{fun_00010007 arg=\"\"}}\n{{anim id=\"37\"}}Versuch es bitte innerhalb\n{{color id=\"2\"}}einer Stunde{{color id=\"65535\"}}."
  },
  {
    "label": "008",
    "text": "{{anim id=\"5\"}}Danke, dass du mir hilfst,\n{{fun_00080005 arg=\"\"}}! {{fun_00010007 arg=\"\"}}{{anim id=\"37\"}}Schaffst du es\ninnerhalb {{color id=\"2\"}}einer Stunde{{color id=\"65535\"}}?"
  },
  {
    "label": "009",
    "text": "{{anim id=\"37\"}}Du bist meine Rettung, {{fun_00080005 arg=\"\"}}.{{delay frames=\"20\"}}\nEs muss aber innerhalb {{color id=\"2\"}}einer Stunde\n{{color id=\"65535\"}}sein, {{fun_00070005 arg=\"\"}}."
  },
  {
    "label": "010",
    "text": ""
  },
  {
    "label": "011",
    "text": "{{anim id=\"15\"}}Was?{{delay frames=\"20\"}} Du willst mir nicht helfen?{{fun_00010007 arg=\"\"}}\n{{anim id=\"37\"}}Schon gut. {{delay frames=\"20\"}}Heute ist einfach nicht\nmein Glückstag, {{fun_00070005 arg=\"\"}}."
  },
  {
    "label": "012",
    "text": "{{anim id=\"19\"}}Wow, das war deutlich, {{fun_00080005 arg=\"\"}}.{{fun_00010007 arg=\"\"}}\n{{anim id=\"36\"}}Keine Sorge, mir wird schon eine\nandere Möglichkeit einfallen."
  },
  {
    "label": "013",
    "text": "{{anim id=\"27\"}}Wenn du mir nicht helfen\nwillst, muss ich mir wohl\nwas anderes überlegen."
  },
  {
    "label": "014",
    "text": ""
  },
  {
    "label": "015",
    "text": ""
  },
  {
    "label": "016",
    "text": ""
  },
  {
    "label": "017",
    "text": ""
  },
  {
    "label": "018",
    "text": ""
  },
  {
    "label": "019",
    "text": ""
  }
]