﻿[
  {
    "label": "001",
    "text": "{{anim id=\"38\"}}Alles klar!{{delay frames=\"32\"}} {{anim id=\"37\"}}Gehen wir gleich los?"
  },
  {
    "label": "002",
    "text": "{{anim id=\"37\"}}Dann mal los!{{delay frames=\"32\"}} {{anim id=\"35\"}}Auf zu meinem\nPalast!"
  },
  {
    "label": "003",
    "text": "{{anim id=\"5\"}}Danke, {{fun_00080005 arg=\"\"}}!{{delay frames=\"32\"}} {{anim id=\"37\"}}Dann gehen wir\njetzt mal zu meinem Haus!"
  }
]