﻿[
  {
    "label": "001",
    "text": "{{anim id=\"15\"}}Was?{{delay frames=\"20\"}} {{anim id=\"36\"}}Du willst mich doch nur\närgern, oder, {{fun_00080005 arg=\"\"}}?"
  },
  {
    "label": "002",
    "text": "{{anim id=\"15\"}}Oh...{{delay frames=\"20\"}} Das kann man sich an die Wand\nhängen, oder, {{fun_00070005 arg=\"\"}}?{{pageBreak}}{{anim id=\"9\"}}Tut mir leid,{{delay frames=\"10\"}} aber ich wollte\neigentlich was anderes haben."
  },
  {
    "label": "003",
    "text": "{{anim id=\"15\"}}Oh! {{delay frames=\"20\"}}{{anim id=\"9\"}}Das ist viel größer, als ich\nmir das vorgestellt hatte.{{pageBreak}}{{anim id=\"36\"}}Wenn du etwas Kleineres findest,\nbring es bitte zu mir."
  },
  {
    "label": "004",
    "text": "{{anim id=\"15\"}}Oh! {{delay frames=\"20\"}}{{anim id=\"9\"}}Das ist viel kleiner als das,\nwonach ich suche.{{delay frames=\"20\"}}{{anim id=\"36\"}} Wenn es größer\nwäre, würde ich es behalten..."
  },
  {
    "label": "005",
    "text": "{{anim id=\"15\"}}Oh!{{delay frames=\"20\"}} Das ist für die Wand,{{delay frames=\"16\"}} oder,\n{{fun_00070005 arg=\"\"}}?{{delay frames=\"20\"}} {{anim id=\"9\"}}Tut mir leid, aber\ndas ist nicht das, was ich wollte.\n{{anim id=\"37\"}}Ich brauche ein Möbelstück, das\nungefähr so groß wie {{fun_0008000E arg=\"0x00CD08006D00650069006E000A006D00650069006E00650008006D00650069006E00\"}}\n{{fun_00030011 arg=\"0x0000\"}} ist."
  },
  {
    "label": "006",
    "text": "{{anim id=\"15\"}}Oh! {{delay frames=\"20\"}}Das ist aber ziemlich groß...{{delay frames=\"20\"}}\n{{anim id=\"36\"}}Hast du nicht zufällig noch etwas\nKleineres dabei?\n{{anim id=\"37\"}}Ich suche etwas, das ungefähr\ndie gleiche Größe hat wie\n{{fun_0008000E arg=\"0x00CD08006D00650069006E000A006D00650069006E00650008006D00650069006E00\"}} {{fun_00030011 arg=\"0x0000\"}}."
  },
  {
    "label": "007",
    "text": "{{anim id=\"15\"}}Oh! {{delay frames=\"20\"}}{{anim id=\"9\"}}Das ist ein bisschen klein...{{delay frames=\"20\"}}\nWenn es größer wäre, könnte ich\nmehr damit anfangen.\n{{anim id=\"36\"}}Kannst du mir bitte etwas bringen,\ndas ungefähr so groß ist wie\n{{fun_0008000E arg=\"0x00CD08006D00650069006E000A006D00650069006E00650008006D00650069006E00\"}} {{fun_00030011 arg=\"0x0000\"}}?"
  },
  {
    "label": "008",
    "text": "{{anim id=\"15\"}}Oh! {{delay frames=\"20\"}}Das...{{delay frames=\"20\"}} {{anim id=\"0\"}}Das ist ja noch {{fun_0008000E arg=\"0x00CD0600650069006E000800650069006E0065000600650069006E00\"}}\n{{fun_00030011 arg=\"0x0000\"}}!{{pageBreak}}{{anim id=\"9\"}}Die Größe stimmt ja, aber ich\nwollte eigentlich alles andere als\n{{fun_0008000E arg=\"0x00CD0A00650069006E0065006E000800650069006E0065000600650069006E00\"}} {{fun_00030011 arg=\"0x0000\"}}...\n{{anim id=\"37\"}}Aber mach dir nichts draus,\n{{fun_00080005 arg=\"\"}}!{{delay frames=\"20\"}} Versuch's einfach noch\nmal mit was anderem!"
  },
  {
    "label": "009",
    "text": "{{anim id=\"15\"}}Oh! {{delay frames=\"20\"}}Das ist zwar nett, {{delay frames=\"10\"}}{{anim id=\"19\"}}aber du\nhast mir anscheinend überhaupt\nnicht zugehört.\n{{anim id=\"9\"}}Wie soll ich dieses Ding denn auf\n{{fun_0008000E arg=\"0x00CD0C006D00650069006E0065006D000C006D00650069006E00650072000C006D00650069006E0065006D00\"}} {{fun_00030011 arg=\"0x0000\"}}\nabstellen?\n{{anim id=\"36\"}}Aber wenn du doch noch was\nPassendes findest, bring es doch\neinfach zu mir, {{fun_00080005 arg=\"\"}}!"
  },
  {
    "label": "010",
    "text": "{{anim id=\"15\"}}Oh!{{delay frames=\"20\"}} Das ist für die Wand, oder,\n{{fun_00070005 arg=\"\"}}?{{delay frames=\"20\"}} {{anim id=\"9\"}}Tut mir leid, aber\ndas ist nicht das, was ich wollte.\n{{anim id=\"36\"}}Ich brauche ein Möbelstück, mit dem\nich {{fun_0008000E arg=\"0x00CD0C006D00650069006E0065006E000A006D00650069006E00650008006D00650069006E00\"}} {{fun_00030011 arg=\"0x0000\"}}\nersetzen kann, sonst nichts."
  },
  {
    "label": "011",
    "text": "{{anim id=\"15\"}}Was? {{delay frames=\"20\"}}Damit...{{delay frames=\"20\"}}{{anim id=\"19\"}} kann ich doch nicht\n{{fun_0008000E arg=\"0x00CD0C006D00650069006E0065006E000A006D00650069006E00650008006D00650069006E00\"}} {{fun_00030011 arg=\"0x0000\"}}\nersetzen!\n{{anim id=\"9\"}}{{fun_0008000E arg=\"0x01CD0C00440069006500730065006E000A00440069006500730065000C00440069006500730065007300\"}} {{fun_00030011 arg=\"0x0100\"}} kann\nman doch nirgendwo draufstellen...{{pageBreak}}{{anim id=\"36\"}}Ich brauch irgendwas, das man auf\neinen Tisch stellen kann, {{fun_00080005 arg=\"\"}}!"
  },
  {
    "label": "012",
    "text": "{{anim id=\"15\"}}Oh? {{delay frames=\"20\"}}{{anim id=\"0\"}}Das ist ja schon wieder\n{{fun_0002000E arg=\"\"}}{{fun_00030011 arg=\"0x0000\"}}!{{pageBreak}}{{anim id=\"9\"}}Ich will {{fun_0008000E arg=\"0x00CD0600640065006E0006006400690065000600640061007300\"}} {{fun_00030011 arg=\"0x0000\"}}\ndoch nicht durch {{fun_0008000E arg=\"0x00CD1A00650069006E0065006E00200061006E0064006500720065006E001600650069006E006500200061006E0064006500720065001600650069006E00200061006E0064006500720065007300\"}}\n{{fun_00030011 arg=\"0x0000\"}} ersetzen.\n{{anim id=\"37\"}}Aber mach dir nichts draus,\n{{fun_00080005 arg=\"\"}}!{{delay frames=\"20\"}} Bring mir einfach was\nanderes vorbei!"
  },
  {
    "label": "013",
    "text": "{{anim id=\"15\"}}Was? {{delay frames=\"20\"}}{{anim id=\"9\"}}Wie soll ich mir DAS denn an\ndie Wand hängen?{{delay frames=\"20\"}} Dafür brauch ich\naber 'ne ganze Menge Klebstoff!\n{{anim id=\"36\"}}Hast du vergessen, dass ich was für\nmeine Wand suche? {{delay frames=\"20\"}}Egal, versuch's\neinfach noch mal, {{fun_00070005 arg=\"\"}}!"
  },
  {
    "label": "014",
    "text": "{{anim id=\"15\"}}Was? {{delay frames=\"20\"}}Das...{{delay frames=\"20\"}} Das ist ja noch\n{{fun_0002000E arg=\"\"}}{{fun_00030011 arg=\"0x0000\"}}!{{delay frames=\"20\"}}\n{{fun_0008000E arg=\"0x00CD100053006F002000650069006E0065006E000E0053006F002000650069006E0065000E0053006F002000650069006E007300\"}} hab ich doch schon!\n{{anim id=\"9\"}}Ich suche doch nach einem Ersatz\nfür {{fun_0008000E arg=\"0x00CD0600640065006E0006006400690065000600640061007300\"}} {{fun_00030011 arg=\"0x0000\"}} da\nan der Wand...\n{{anim id=\"37\"}}Aber mach dir nichts draus,\n{{fun_00080005 arg=\"\"}}!{{delay frames=\"20\"}} Möbel auszusuchen ist\ngar nicht so einfach!"
  },
  {
    "label": "015",
    "text": "{{anim id=\"15\"}}Oh! {{delay frames=\"20\"}}{{anim id=\"11\"}}{{delay frames=\"16\"}}Das kommt mir irgendwie\nbekannt vor{{delay frames=\"8\"}}.{{delay frames=\"8\"}}.{{delay frames=\"8\"}}.{{delay frames=\"8\"}}{{pageBreak}}{{anim id=\"16\"}}Ach, stimmt ja!{{delay frames=\"20\"}} {{anim id=\"37\"}}Genau dieses\nMöbelstück hab ich schon in meinem\nZimmer, {{fun_00070005 arg=\"\"}}!\n{{anim id=\"9\"}}Das kann und will ich nicht\nannehmen.{{delay frames=\"20\"}} Bring mir doch bitte\netwas, das ich noch NICHT habe."
  },
  {
    "label": "016",
    "text": ""
  },
  {
    "label": "017",
    "text": ""
  },
  {
    "label": "018",
    "text": "Mit {{fun_0008000E arg=\"0x01CD0C00640069006500730065006D000C006400690065007300650072000C00640069006500730065006D00\"}} {{fun_00030011 arg=\"0x0100\"}}\nwerde ich bestimmt fast so gut\nzurechtkommen wie mit dir..."
  },
  {
    "label": "019",
    "text": "Also, {{fun_0008000E arg=\"0x01CD080048006500720072000800460072006100750008006D00650069006E00\"}} {{fun_00030011 arg=\"0x0100\"}}!{{delay frames=\"20\"}}\nDann zeig ich dir doch gleich mal\ndein neues Zuhause!"
  },
  {
    "label": "020",
    "text": "{{anim id=\"1\"}}Das kleine Kerlchen scheint sich bei\nmir ja schon richtig wohlzufühlen,\n{{fun_00070005 arg=\"\"}}!"
  },
  {
    "label": "021",
    "text": "{{anim id=\"15\"}}Ah, {{delay frames=\"10\"}}{{fun_0002000E arg=\"\"}}{{fun_00030011 arg=\"0x0100\"}}?{{delay frames=\"20\"}}\n{{anim id=\"37\"}}Nicht schlecht, {{fun_00080005 arg=\"\"}}!{{delay frames=\"20\"}}\nGar nicht schlecht!"
  },
  {
    "label": "022",
    "text": "{{anim id=\"15\"}}Oh, {{delay frames=\"10\"}}{{fun_0002000E arg=\"\"}}{{fun_00030011 arg=\"0x0100\"}}?{{delay frames=\"20\"}}\n{{anim id=\"37\"}}{{fun_0008000E arg=\"0x01CD060044006500720006004400690065000600440061007300\"}} ist so schön umgestaltet, dass\n{{fun_0008000E arg=\"0x01CD0400650072000600730069006500040065007300\"}} kaum zu erkennen ist!"
  },
  {
    "label": "023",
    "text": "{{anim id=\"38\"}}Sobald ich hier ein bisschen Ruhe\nhabe, mach ich mich ans Aufbauen,\n{{fun_00070005 arg=\"\"}}."
  },
  {
    "label": "024",
    "text": "{{anim id=\"1\"}}Wenn ich zu Hause bin, mache ich\nmich sofort ans Aufstellen,\n{{fun_00070005 arg=\"\"}}."
  },
  {
    "label": "025",
    "text": "{{anim id=\"38\"}}Also gut,{{delay frames=\"10\"}} dann suchen wir doch mal\nein schönes Plätzchen dafür!"
  },
  {
    "label": "026",
    "text": "{{anim id=\"4\"}}{{delay frames=\"16\"}}Macht sich einfach nur fantastisch\nin meinem Zimmer, oder?"
  },
  {
    "label": "027",
    "text": "{{anim id=\"37\"}}Nimm als Belohnung {{fun_0008000E arg=\"0x02CD0C00640069006500730065006E000A00640069006500730065000C00640069006500730065007300\"}}\n{{fun_00030011 arg=\"0x0200\"}}.{{delay frames=\"20\"}} Ich brauche\n{{fun_0008000E arg=\"0x02CD0600690068006E000600730069006500040065007300\"}} nicht mehr, {{fun_00070005 arg=\"\"}}!"
  },
  {
    "label": "028",
    "text": "{{anim id=\"44\"}}Danke, {{fun_00080005 arg=\"\"}}!{{delay frames=\"20\"}} Du solltest am\nbesten hier einziehen, dann könntest\ndu mir jeden Tag mit so was helfen!"
  },
  {
    "label": "029",
    "text": ""
  },
  {
    "label": "030",
    "text": ""
  },
  {
    "label": "031",
    "text": "Ah, {{fun_0002000E arg=\"\"}}{{fun_00030011 arg=\"0x0100\"}}?{{delay frames=\"20\"}}\n{{anim id=\"37\"}}Ich muss schon sagen – du hast\nwirklich Geschmack!"
  },
  {
    "label": "032",
    "text": "{{anim id=\"11\"}}{{delay frames=\"16\"}}{{fun_0008000E arg=\"0x01CD0C004400690065007300650072000A00440069006500730065000C00440069006500730065007300\"}} {{fun_00030011 arg=\"0x0100\"}} sieht\naber ungewöhnlich aus...{{delay frames=\"20\"}}{{anim id=\"16\"}} Oh! {{delay frames=\"20\"}}\n{{fun_0008000E arg=\"0x01CD060044006500720006004400690065000600440061007300\"}} wurde umgestaltet, oder?"
  },
  {
    "label": "033",
    "text": "{{anim id=\"38\"}}Sobald ich hier ein bisschen Ruhe\nhabe, mach ich mich ans Aufbauen,\n{{fun_00070005 arg=\"\"}}."
  },
  {
    "label": "034",
    "text": "{{anim id=\"1\"}}Wenn ich zu Hause bin, mache ich\nmich sofort ans Aufstellen,\n{{fun_00070005 arg=\"\"}}."
  },
  {
    "label": "035",
    "text": "{{anim id=\"11\"}}{{delay frames=\"16\"}}Hmmm{{delay frames=\"8\"}}.{{delay frames=\"8\"}}.{{delay frames=\"8\"}}.{{delay frames=\"20\"}} Ich überlege gerade, wo\ndas Stück am männlichsten wirken\nwürde..."
  },
  {
    "label": "036",
    "text": "{{anim id=\"11\"}}{{delay frames=\"16\"}}Hmmm{{delay frames=\"8\"}}.{{delay frames=\"8\"}}.{{delay frames=\"8\"}}.{{delay frames=\"20\"}} {{anim id=\"37\"}}Ich muss vorm Aufbauen\nnoch ein bisschen nachdenken, also\nmach ich das später, {{fun_00070005 arg=\"\"}}."
  },
  {
    "label": "037",
    "text": "{{anim id=\"22\"}}{{delay frames=\"16\"}}Oh! {{delay frames=\"20\"}}Ich hab den perfekten Platz\ngefunden!"
  },
  {
    "label": "038",
    "text": "{{anim id=\"4\"}}{{delay frames=\"16\"}}Sieht das nicht fantastisch aus?"
  },
  {
    "label": "039",
    "text": "{{anim id=\"39\"}}Ich bin zutiefst berührt, {{delay frames=\"4\"}}dass deine\nZuneigung zu mir so unendlich\ngroß ist{{delay frames=\"4\"}}.{{delay frames=\"4\"}}.{{delay frames=\"4\"}}.{{pageBreak}}{{anim id=\"36\"}}Aber mein Haus ist leider nicht so\ngroß wie dein Herz{{delay frames=\"4\"}}.{{delay frames=\"4\"}}.{{delay frames=\"4\"}}.{{pageBreak}}{{anim id=\"1\"}}Hättest du vielleicht etwas Kleine-\nres? {{delay frames=\"20\"}}Ich brauche gar nichts Großes,{{delay frames=\"4\"}}\num an dich zu denken, {{delay frames=\"4\"}}{{fun_00070005 arg=\"\"}}{{delay frames=\"4\"}}.{{delay frames=\"4\"}}.{{delay frames=\"4\"}}."
  },
  {
    "label": "040",
    "text": ""
  },
  {
    "label": "041",
    "text": "{{anim id=\"16\"}}Moment mal! {{delay frames=\"20\"}}{{anim id=\"37\"}}Ich sollte dir eine\nBelohnung dafür geben,\n{{fun_00070005 arg=\"\"}}."
  },
  {
    "label": "042",
    "text": "{{anim id=\"38\"}}Hier, {{fun_0002000E arg=\"\"}}{{fun_00030011 arg=\"0x0200\"}}!{{delay frames=\"20\"}}\n{{anim id=\"37\"}}Ein nettes Geschenk für {{fun_0006000E arg=\"0x0A00650069006E0065006E000800650069006E006500\"}}\n{{fun_0006000E arg=\"0x1A006E0065007400740065006E00200046007200650075006E0064001C006E006500740074006500200046007200650075006E00640069006E00\"}}!{{delay frames=\"20\"}} Danke, {{fun_00080005 arg=\"\"}}!"
  },
  {
    "label": "043",
    "text": ""
  },
  {
    "label": "044",
    "text": ""
  },
  {
    "label": "045",
    "text": "{{anim id=\"16\"}}Wow!{{delay frames=\"20\"}} Unglaublich!{{delay frames=\"20\"}}\n{{fun_0003000E arg=\"\"}}{{fun_0002000E arg=\"\"}}{{fun_00030011 arg=\"0x0100\"}}!{{pageBreak}}{{anim id=\"37\"}}{{fun_0008000E arg=\"0x01CD060044006500720006004400690065000600440061007300\"}} hilft mir bestimmt dabei, neue\nChoreografien einzustudieren!"
  },
  {
    "label": "046",
    "text": "{{anim id=\"16\"}}Wow!{{delay frames=\"20\"}} {{fun_0008000E arg=\"0x01CD0600450069006E000800450069006E0065000600450069006E00\"}} {{fun_00030011 arg=\"0x0100\"}}!{{pageBreak}}{{anim id=\"36\"}}{{fun_0008000E arg=\"0x01CD060044006500720006004400690065000600440061007300\"}} gibt meinem Zimmer gleich\neine intellektuelle Note.{{delay frames=\"20\"}}\nPerfekt, {{fun_00070005 arg=\"\"}}!"
  },
  {
    "label": "047",
    "text": "{{anim id=\"16\"}}Oh!{{delay frames=\"20\"}} {{fun_0003000E arg=\"\"}}{{fun_0002000E arg=\"\"}}{{fun_00030011 arg=\"0x0100\"}}!{{pageBreak}}{{anim id=\"37\"}}Dieses kleine Insekt kann mir\nGesellschaft leisten, wenn ich mich\neinsam fühle.{{delay frames=\"20\"}} {{anim id=\"6\"}}Äh,{{delay frames=\"20\"}} {{anim id=\"35\"}}das war nur Spaß!"
  },
  {
    "label": "048",
    "text": "{{anim id=\"16\"}}Oh!{{delay frames=\"20\"}} {{fun_0003000E arg=\"\"}}{{fun_0002000E arg=\"\"}}{{fun_00030011 arg=\"0x0100\"}}!{{pageBreak}}{{anim id=\"37\"}}Na, kleines Fischlein?{{delay frames=\"20\"}} Wir werden\nbestimmt gute Freunde!{{delay frames=\"20\"}} {{anim id=\"6\"}}Bist du\nein Männlein oder ein Weiblein?{{delay frames=\"20\"}}{{anim id=\"35\"}}"
  },
  {
    "label": "049",
    "text": "{{anim id=\"16\"}}Oh!{{delay frames=\"20\"}} {{fun_0003000E arg=\"\"}}{{fun_0002000E arg=\"\"}}{{fun_00030011 arg=\"0x0100\"}}!{{pageBreak}}{{anim id=\"37\"}}Damit fühl ich mich doch gleich, als\nwär ich am Strand, {{fun_00070005 arg=\"\"}}."
  },
  {
    "label": "050",
    "text": "{{anim id=\"11\"}}{{delay frames=\"16\"}}Jetzt muss ich mir nur noch\nüberlegen, wo der perfekte\nPlatz dafür wäre{{delay frames=\"8\"}}.{{delay frames=\"8\"}}.{{delay frames=\"8\"}}."
  },
  {
    "label": "051",
    "text": "{{anim id=\"11\"}}Wo wär denn ein schönes Plätzchen\nfür {{fun_0008000E arg=\"0x01CD0C00640069006500730065006E000A00640069006500730065000C00640069006500730065007300\"}} {{fun_00030011 arg=\"0x0100\"}}{{delay frames=\"8\"}}.{{delay frames=\"8\"}}.{{delay frames=\"8\"}}.{{pageBreak}}{{anim id=\"22\"}}Ich hab's!{{delay frames=\"40\"}} {{anim id=\"37\"}}Mein neues Haustierchen\nwird sich rundum wohlfühlen!"
  },
  {
    "label": "052",
    "text": "{{anim id=\"37\"}}{{fun_0008000E arg=\"0x01CD0C004400690065007300650072000A00440069006500730065000C00440069006500730065007300\"}} {{fun_00030011 arg=\"0x0100\"}} und\nich werden bestimmt die besten\nFreunde, {{fun_00070005 arg=\"\"}}!\n{{anim id=\"36\"}}Immerhin hast DU {{fun_0008000E arg=\"0x01CD0600690068006E000600730069006500040065007300\"}} mir gebracht,{{delay frames=\"10\"}}\nund wir beide sind auch die besten\nFreunde, oder, {{fun_00080005 arg=\"\"}}?"
  },
  {
    "label": "053",
    "text": "{{anim id=\"39\"}}Hmmm, {{delay frames=\"10\"}}dann geb ich dir mal eine\nangemessene Belohnung dafür,\n{{fun_00070005 arg=\"\"}}."
  },
  {
    "label": "054",
    "text": "{{anim id=\"35\"}}Hier, {{fun_0002000E arg=\"\"}}{{fun_00030011 arg=\"0x0200\"}}!{{pageBreak}}Im Laden wirst du dir so was\nwahrscheinlich niemals leisten\nkönnen!\n{{anim id=\"38\"}}Na gut, das war vielleicht etwas\nübertrieben!{{delay frames=\"20\"}} {{anim id=\"1\"}}Aber ich bin dir\ntrotzdem sehr dankbar, {{fun_00080005 arg=\"\"}}!"
  },
  {
    "label": "055",
    "text": "{{anim id=\"39\"}}Hmmm, {{delay frames=\"10\"}}dafür sollte ich dir wohl\neine angemessene Belohnung geben,\n{{delay frames=\"8\"}}{{fun_00070005 arg=\"\"}}..."
  },
  {
    "label": "056",
    "text": "{{anim id=\"38\"}}Hier, {{fun_0002000E arg=\"\"}}{{fun_00030011 arg=\"0x0200\"}}!{{pageBreak}}{{anim id=\"37\"}}Wenn ich mal wieder zu Hause\numräume, frag ich dich wieder nach\ndeiner Hilfe, {{fun_00080005 arg=\"\"}}!"
  },
  {
    "label": "057",
    "text": "{{anim id=\"15\"}}Hey,{{delay frames=\"10\"}} das ist doch {{fun_0002000E arg=\"\"}}\n{{fun_00030011 arg=\"0x0100\"}}, oder?{{pageBreak}}{{anim id=\"21\"}}{{fun_0008000E arg=\"0x01CD0600440065006E0006004400690065000600440061007300\"}} sollte ich am besten auf einen\nTisch oder so stellen.{{pageBreak}}{{anim id=\"37\"}}Ich kann mir ja noch überlegen, wo\nich {{fun_0008000E arg=\"0x01CD0600690068006E000600730069006500040065007300\"}} draufstelle..."
  },
  {
    "label": "058",
    "text": "{{anim id=\"38\"}}Danke, {{fun_00080005 arg=\"\"}}!{{delay frames=\"20\"}} {{anim id=\"37\"}}Nimm {{fun_0008000E arg=\"0x02CD0C00640069006500730065006E000A00640069006500730065000C00640069006500730065007300\"}}\n{{fun_00030011 arg=\"0x0200\"}} als kleines\nDankeschön, {{fun_00070005 arg=\"\"}}!"
  },
  {
    "label": "059",
    "text": "{{anim id=\"39\"}}Wenn ich wieder mal Hilfe brauche...{{delay frames=\"20\"}}\nkann ich dich dann noch mal fragen,\n{{fun_00080005 arg=\"\"}}?"
  }
]