﻿[
  {
    "label": "001",
    "text": "{{anim id=\"37\"}}Mach dir nichts draus, {{delay frames=\"16\"}}{{fun_00080005 arg=\"\"}}!{{fun_00010007 arg=\"\"}}\n{{anim id=\"35\"}}Es ist ja nicht so, dass du nieman-\nden von uns gefunden hättest."
  },
  {
    "label": "002",
    "text": "{{anim id=\"36\"}}Vielleicht solltest DU dich beim\nnächsten Mal verstecken. {{delay frames=\"20\"}}{{anim id=\"1\"}}Das ist\nnicht so einfach, wie es aussieht!"
  },
  {
    "label": "003",
    "text": "{{anim id=\"37\"}}Lass dich von der Niederlage nicht\nentmutigen,{{delay frames=\"16\"}} {{fun_00080005 arg=\"\"}}. {{delay frames=\"16\"}}Manchmal\nhat man einfach kein Glück."
  }
]