﻿[
  {
    "label": "001",
    "text": ""
  },
  {
    "label": "002",
    "text": "{{fun_001F000A arg=\"0x020B000B000C000C000C000C000D000D000D000E000E000F00CD\"}}"
  },
  {
    "label": "003",
    "text": "{{fun_001F000A arg=\"0x02110011001200120012001200130013001300140014001500CD\"}}"
  },
  {
    "label": "004",
    "text": ""
  },
  {
    "label": "005",
    "text": ""
  },
  {
    "label": "006",
    "text": ""
  },
  {
    "label": "007",
    "text": ""
  },
  {
    "label": "008",
    "text": ""
  },
  {
    "label": "009",
    "text": ""
  },
  {
    "label": "010",
    "text": ""
  },
  {
    "label": "011",
    "text": "{{anim id=\"36\"}}Ich hoffe, diese leere\nAusstellungshalle ist den Leuten in\n{{fun_00050005 arg=\"\"}} nicht peinlich.\n{{anim id=\"39\"}}Ein paar gestiftete Fossilien mehr\nwären aber tatsächlich ganz nett{{delay frames=\"8\"}}.{{delay frames=\"8\"}}.{{delay frames=\"8\"}}."
  },
  {
    "label": "012",
    "text": "{{anim id=\"37\"}}Es geht zwar schleppend voran,\naber immerhin wächst unsere\nFossiliensammlung,{{delay frames=\"8\"}} {{fun_00080005 arg=\"\"}}!"
  },
  {
    "label": "013",
    "text": "{{anim id=\"37\"}}Bist du auch manchmal erstaunt,\nwie groß diese Fossilien werden,\nwenn man sie zusammensetzt?"
  },
  {
    "label": "014",
    "text": "{{anim id=\"37\"}}Schwer vorstellbar, dass diese\nKreaturen vor so langer Zeit hier\ngelebt haben,{{delay frames=\"8\"}} was, {{fun_00080005 arg=\"\"}}?"
  },
  {
    "label": "015",
    "text": "{{anim id=\"6\"}}Sieh dir das an,{{delay frames=\"8\"}} {{fun_00080005 arg=\"\"}}!{{delay frames=\"32\"}} Unsere\nFossiliensammlung ist komplett!{{pageBreak}}{{anim id=\"37\"}}So ein All-Star-Team der Fossilien\nsieht man nicht oft,{{delay frames=\"8\"}} {{fun_00070005 arg=\"\"}}!"
  },
  {
    "label": "016",
    "text": ""
  },
  {
    "label": "017",
    "text": "{{anim id=\"9\"}}Du bist bestimmt enttäuscht von\ndiesem Raum,{{delay frames=\"8\"}} {{fun_00080005 arg=\"\"}}.{{fun_00010007 arg=\"\"}} {{anim id=\"19\"}}Bis jetzt\ngibt's hier nämlich kaum Fossilien{{delay frames=\"8\"}}.{{delay frames=\"8\"}}.{{delay frames=\"8\"}}.\n{{anim id=\"0\"}}Aber wenn du schon mal hier bist,\n{{anim id=\"44\"}}kannst du ja stattdessen mich\nbewundern!"
  },
  {
    "label": "018",
    "text": "{{anim id=\"9\"}}Wir haben hier noch nicht viele\nFossilien,{{delay frames=\"16\"}} also bist du wohl nicht\nbesonders beeindruckt{{delay frames=\"8\"}}.{{delay frames=\"8\"}}.{{delay frames=\"8\"}}.\n{{anim id=\"37\"}}Aber nur Geduld! {{delay frames=\"16\"}}Wir arbeiten\ndaran,{{delay frames=\"8\"}} {{fun_00080005 arg=\"\"}}!"
  },
  {
    "label": "019",
    "text": "{{fun_0003000E arg=\"\"}}{{fun_00080005 arg=\"\"}},{{delay frames=\"16\"}} {{anim id=\"23\"}}gibt es in deiner Stadt\nauch so eine große Sammlung von\nFossilien wie bei uns?\n{{anim id=\"37\"}}In letzter Zeit ist unsere Sammlung\nziemlich gewachsen und kann sich\necht sehen lassen,{{delay frames=\"8\"}} {{fun_00070005 arg=\"\"}}."
  },
  {
    "label": "020",
    "text": "{{anim id=\"37\"}}Ich bin gespannt, welche\nFossiliensammlung als Erstes\nkomplett sein wird, {{fun_00080005 arg=\"\"}}{{delay frames=\"8\"}}.{{delay frames=\"8\"}}.{{delay frames=\"8\"}}.\n{{anim id=\"6\"}}Die in deiner Stadt oder die in\nmeiner!"
  },
  {
    "label": "021",
    "text": "{{anim id=\"44\"}}Die Fossilienausstellung in dieser\nStadt ist perfekt!{{delay frames=\"32\"}} {{anim id=\"35\"}}Sozusagen ein\nAll-Star-Team der Urzeit!\n{{anim id=\"37\"}}Das kann sich sehen lassen, oder?{{delay frames=\"32\"}}\nSieh dich in Ruhe um,{{delay frames=\"8\"}}\n{{fun_00080005 arg=\"\"}}!"
  }
]