﻿[
  {
    "label": "001",
    "text": ""
  },
  {
    "label": "002",
    "text": "{{fun_00020009 arg=\"0x080009000A000B00\"}}"
  },
  {
    "label": "003",
    "text": "{{fun_00000009 arg=\"0x0C000D00\"}}"
  },
  {
    "label": "004",
    "text": ""
  },
  {
    "label": "005",
    "text": "{{fun_00020009 arg=\"0x0E000F0010001100\"}}"
  },
  {
    "label": "006",
    "text": "{{fun_00000009 arg=\"0x12001300\"}}"
  },
  {
    "label": "007",
    "text": ""
  },
  {
    "label": "008",
    "text": "{{anim id=\"4\"}}{{delay frames=\"16\"}}{{color id=\"4\"}}K.K. {{color id=\"65535\"}}ist eine lebende Legende!{{delay frames=\"16\"}}\nEr braucht nicht mal Klamotten, um\nein Trendsetter zu sein!"
  },
  {
    "label": "009",
    "text": "{{anim id=\"44\"}}Samstagabend!{{fun_00010007 arg=\"\"}} {{anim id=\"5\"}}Bist du bereit, bis\nzum Sonnenaufgang das Tanzbein zu\nschwingen, {{fun_00070005 arg=\"\"}}?"
  },
  {
    "label": "010",
    "text": "{{fun_0003000E arg=\"\"}}{{fun_00080005 arg=\"\"}},{{delay frames=\"16\"}} {{anim id=\"23\"}}was magst du für\nMusik?{{delay frames=\"16\"}}{{anim id=\"37\"}} Ich höre zurzeit am liebsten\n{{fun_00140005 arg=\"0x0000\"}},{{delay frames=\"8\"}} {{fun_00070005 arg=\"\"}}!"
  },
  {
    "label": "011",
    "text": "{{anim id=\"36\"}}Was glaubst du, wie lange {{color id=\"4\"}}K.K.\n{{color id=\"65535\"}}geübt hat, um mit seinen Pfoten so\ngut Gitarre zu spielen?"
  },
  {
    "label": "012",
    "text": "{{anim id=\"36\"}}{{fun_0003000E arg=\"\"}}{{fun_00080005 arg=\"\"}}, du scheinst ja auch\nein echter Fan von {{color id=\"4\"}}K.K. {{color id=\"65535\"}}zu sein,{{delay frames=\"8\"}}\n{{fun_00070005 arg=\"\"}}!"
  },
  {
    "label": "013",
    "text": "{{anim id=\"36\"}}Du bist den ganzen Weg gekommen,\num {{color id=\"4\"}}K.K. {{color id=\"65535\"}}zu sehen, oder? {{delay frames=\"20\"}}{{anim id=\"37\"}}So was\nnenne ich Leidenschaft,{{delay frames=\"8\"}} {{fun_00080005 arg=\"\"}}!"
  },
  {
    "label": "014",
    "text": "{{anim id=\"36\"}}Die Leute gehen hier irgendwie mehr\naus sich heraus als sonst, findest du\nnicht auch?{{delay frames=\"20\"}} {{fun_0003000E arg=\"\"}}{{fun_00070005 arg=\"\"}}!"
  },
  {
    "label": "015",
    "text": "{{anim id=\"36\"}}Komm schon,{{delay frames=\"8\"}} nicht so schüchtern!{{delay frames=\"32\"}}\n{{anim id=\"44\"}}Lass uns zusammen tanzen!"
  },
  {
    "label": "016",
    "text": "{{anim id=\"44\"}}Tanzen wir die ganze Nacht!{{fun_00010007 arg=\"\"}}\n{{anim id=\"42\"}}Denk nicht mal dran, nach Hause zu\ngehen,{{delay frames=\"16\"}} {{fun_00080005 arg=\"\"}}!"
  },
  {
    "label": "017",
    "text": "{{anim id=\"15\"}}Oh,{{delay frames=\"8\"}} {{fun_00080005 arg=\"\"}}!{{delay frames=\"32\"}} {{anim id=\"6\"}}Im Vergleich zu\nsonst{{delay frames=\"32\"}} {{anim id=\"37\"}}siehst du richtig glücklich\nund entspannt aus!"
  },
  {
    "label": "018",
    "text": "{{anim id=\"38\"}}Feierst du heute die Nacht in\n{{fun_00050005 arg=\"\"}} durch, {{fun_00080005 arg=\"\"}}?"
  },
  {
    "label": "019",
    "text": "{{anim id=\"42\"}}Komm schon,{{delay frames=\"8\"}} {{fun_00080005 arg=\"\"}}!{{delay frames=\"32\"}} Tanzen\nwir zusammen die ganze Nacht!"
  }
]