﻿[
  {
    "label": "001",
    "text": "{{fun_0006000E arg=\"0x080043006800650072000A0043006800E80072006500\"}} \n,"
  },
  {
    "label": "002",
    "text": "Pour \n,"
  },
  {
    "label": "003",
    "text": "À mon {{fun_0006000E arg=\"0x060061006D006900080061006D0069006500\"}} \n,"
  },
  {
    "label": "004",
    "text": "Coucou \n!"
  },
  {
    "label": "005",
    "text": "Salut \n!"
  }
]