﻿[
  {
    "label": "001",
    "text": "Tu m'as envoyé une lettre\nvierge... Peut-être que tu\nn'as pas appuyé assez fort\navec ton stylo en l'écrivant ?\nÀ l'avenir, serre-le à fond et\ndonne tout ce que tu as !"
  },
  {
    "label": "002",
    "text": "Ha ha, j'ai reçu ta lettre sans\ntexte ! Tu avais abusé sur la\nmuscu et tu n'avais plus la\nforce de soulever ton stylo ?\nClassique, mais... Comment\ntu as fait pour l'adresse ?!"
  },
  {
    "label": "003",
    "text": "Ta lettre vierge, c'était une\nerreur ou une ruse pour me\nfaire sortir de chez moi ? Je\ncroyais avoir été clair : la\nrecette du jus d'épinards\nde mémé est top secrète !"
  }
]