﻿[
  {
    "label": "001",
    "text": "Ne me remercie pas pour tes\nétrennes : rien ne me fait\nplus plaisir que de te faire\nplaisir ! Une maman a bien le\ndroit de gâter {{fun_0006000E arg=\"0x120073006F006E002000700065007400690074001200730061002000700065007400690074006500\"}}\n{{fun_0006000E arg=\"0x0C00670061007200E7006F006E000A00660069006C006C006500\"}} de temps en temps !"
  },
  {
    "label": "002",
    "text": "Quand le soleil se lèvera\npour la première fois sur\ncette nouvelle année, mes\npensées seront pour toi !\nQu'elle t'apporte tout le\nbonheur que tu désires !"
  },
  {
    "label": "003",
    "text": "Je t'ai acheté un petit\nquelque chose pour la\nSaint-Valentin...\nJe voulais t'offrir du\nchocolat fait maison, mais...\nje préfère ne pas en parler !"
  },
  {
    "label": "004",
    "text": "J'espère que tu as le cœur au\nchaud en cette journée de\nSaint-Valentin !\nDe mon côté, j'ai mis tout\nmon amour dans le petit\ncadeau que je t'envoie !"
  },
  {
    "label": "005",
    "text": "Cette année, je vais régaler\nton papounet avec mon\nfameux gâteau au chocolat !\nJ'ai mis la main sur tous les\ningrédients, je n'ai plus qu'à\nla mettre à la pâte !"
  },
  {
    "label": "006",
    "text": "Aujourd'hui, c'est le grand\njour pour tous les\namoureux !\nN'aie pas peur : si tu portes\nce que je t'envoie, tout\ndevrait bien se passer !"
  },
  {
    "label": "007",
    "text": "Est-ce que la canicule te\nlaisse un peu de répit ?\n\nEssaie la tarte au citron en\ndessert : il n'y a pas mieux\npour se rafraîchir !"
  },
  {
    "label": "008",
    "text": "Quelle chaleur ! Parfois, une\npetite brise vespérale vient\nnous rappeler que l'automne\nest proche, mais la canicule\na encore de beaux jours\ndevant elle !"
  },
  {
    "label": "009",
    "text": "Tu te souviens quand je me\ndéguisais en père Noël pour\nt'offrir tes cadeaux ?\n\nTu avais des étoiles plein les\nyeux, c'était si mignon !"
  },
  {
    "label": "010",
    "text": "Tends un peu l'oreille : tu\nentends souffler le vent\nd'hiver ?\nIl apporte plein de cadeaux,\ncomme celui que tu\ntrouveras ci-joint !"
  }
]