﻿[
  {
    "label": "001",
    "text": "Merci d'avoir mis ton\njeu à jour afin d'accueillir\nAnimal Crossing: New Leaf\n- Welcome amiibo ! N'hésite\npas à consulter ce livre si tu\nas besoin d'aide ! Bon jeu !"
  },
  {
    "label": "002",
    "text": "Bienvenue dans Animal\nCrossing: New Leaf -\nWelcome amiibo ! N'hésite\npas à consulter ce livre si\ntu as besoin d'aide !\nBon jeu à toi !"
  },
  {
    "label": "003",
    "text": "Tu as réussi à t'évader\nde l'île déserte, bien joué !\nPour te féliciter, voici {{fun_0002000E arg=\"\"}}\n{{fun_00030011 arg=\"0x0000\"}}.\nDe quoi donner un air d'île\ndéserte à tes murs !"
  },
  {
    "label": "004",
    "text": "Félicitations ! Tu as terminé\ntous les niveaux faciles\nd'Évasion de l'île déserte !\nTu as bien mérité {{fun_0002000E arg=\"\"}}\n{{fun_00030011 arg=\"0x0000\"}} !"
  },
  {
    "label": "005",
    "text": "Tu progresses à pas de\ngéant à Évasion de l'île\ndéserte ! Tiens, voici {{fun_0002000E arg=\"\"}}\n{{fun_00030011 arg=\"0x0000\"}} pour\nt'encourager à continuer\ndans cette voie !"
  },
  {
    "label": "006",
    "text": "Joli travail ! Tu as fini tous\nles niveaux intermédiaires\nd'Évasion de l'île déserte !\nTu as bien mérité {{fun_0002000E arg=\"\"}}\n{{fun_00030011 arg=\"0x0000\"}}\npour te récompenser !"
  },
  {
    "label": "007",
    "text": "La survie en milieu insulaire\nn'a plus de secret pour toi !\nAccepte ce petit cadeau,\n{{fun_0002000E arg=\"\"}}{{fun_00030011 arg=\"0x0000\"}}\npour te rappeler les délices\nde la cuisine en extérieur !"
  },
  {
    "label": "008",
    "text": "Joli travail ! Tu as fini tous\nles niveaux expert d'Évasion\nde l'île déserte !\nTu as bien mérité {{fun_0002000E arg=\"\"}}\n{{fun_00030011 arg=\"0x0000\"}}\npour te récompenser !"
  },
  {
    "label": "009",
    "text": "Joli travail ! Tu as fini tous\nles niveaux d'Évasion de l'île\ndéserte, sans exception !\nTu as bien mérité {{fun_0002000E arg=\"\"}}\n{{fun_00030011 arg=\"0x0000\"}} !\nC'est un porte-bonheur !"
  },
  {
    "label": "010",
    "text": "Tu as réalisé d'excellents\nscores aux niveaux faciles\nd'Évasion de l'île déserte...\nNous t'offrons {{fun_0002000E arg=\"\"}}\n{{fun_00030011 arg=\"0x0000\"}}\nen guise de récompense !"
  },
  {
    "label": "011",
    "text": "Tu as réalisé d'excellents\nscores aux niveaux\nintermédiaires d'Évasion\nde l'île déserte... Voici {{fun_0002000E arg=\"\"}}\n{{fun_00030011 arg=\"0x0000\"}}\npour te récompenser !"
  },
  {
    "label": "012",
    "text": "Tu as réalisé d'excellents\nscores aux niveaux expert\nd'Évasion de l'île déserte...\nNous t'offrons {{fun_0002000E arg=\"\"}}\n{{fun_00030011 arg=\"0x0000\"}}\nen guise de récompense !"
  },
  {
    "label": "013",
    "text": "Tu as réalisé d'excellents\nscores dans tous les niveaux\nd'Évasion de l'île déserte...\nNous t'offrons {{fun_0002000E arg=\"\"}}\n{{fun_00030011 arg=\"0x0000\"}}\nen guise de récompense !"
  },
  {
    "label": "014",
    "text": "Merci d'avoir joué à Animal\nCrossing Puzzle League !\nNous t'offrons {{fun_0002000E arg=\"\"}}\n{{fun_00030011 arg=\"0x0000\"}} pour\nt'encourager à continuer !\nTu as tant à découvrir !"
  },
  {
    "label": "015",
    "text": "Tes prouesses dans la\nlutte pour la mairie de\nPuzzleville te valent ce\nsuperbe cadeau : {{fun_0002000E arg=\"\"}}\n{{fun_00030011 arg=\"0x0000\"}} !"
  },
  {
    "label": "016",
    "text": "Tu as fini le mode histoire\nd'Animal Crossing Puzzle\nLeague, bravo ! Tu ne diras\nsûrement pas non à {{fun_0002000E arg=\"\"}}\n{{fun_00030011 arg=\"0x0000\"}},\nhistoire de récupérer un peu."
  },
  {
    "label": "017",
    "text": "Tu as fini le mode difficile\nd'Animal Crossing Puzzle\nLeague, félicitations ! Voici\n{{fun_0002000E arg=\"\"}}{{fun_00030011 arg=\"0x0000\"}},\nseuls les virtuoses de Puzzle\nLeague en possèdent {{fun_0008000E arg=\"0x00CD040075006E00060075006E0065000000\"}} !"
  },
  {
    "label": "018",
    "text": "En hommage à ton score\nstratosphérique au mode\nMarathon d'Animal Crossing\nPuzzle League, voici de quoi\nte transformer en fée, {{fun_0002000E arg=\"\"}}\n{{fun_00030011 arg=\"0x0000\"}} !"
  },
  {
    "label": "019",
    "text": "En hommage à ton score\nsidérant au mode Chrono\nscore d'Animal Crossing\nPuzzle League, voici de quoi\nte transformer en fée, {{fun_0002000E arg=\"\"}}\n{{fun_00030011 arg=\"0x0000\"}} !"
  },
  {
    "label": "020",
    "text": "En hommage à ton score\nphénoménal au mode\nObstacles d'Animal Crossing\nPuzzle League, voici {{fun_0002000E arg=\"\"}}\n{{fun_00030011 arg=\"0x0000\"}} !"
  },
  {
    "label": "021",
    "text": "En hommage à ton score\népoustouflant au mode\nBonbons d'Animal Crossing\nPuzzle League, voici {{fun_0002000E arg=\"\"}}\n{{fun_00030011 arg=\"0x0000\"}} !"
  },
  {
    "label": "022",
    "text": "Tu as éliminé une quantité\nastronomique de blocs d'un\nseul coup à Animal Crossing\nPuzzle League ! Voici\n{{fun_0002000E arg=\"\"}}{{fun_00030011 arg=\"0x0000\"}}\npour te récompenser !"
  },
  {
    "label": "023",
    "text": "Tu as réalisé une chaîne\népoustouflante à Animal\nCrossing Puzzle League,\n{{fun_0002000E arg=\"\"}}{{fun_00030011 arg=\"0x0000\"}}\ns'impose pour te\nrécompenser !"
  }
]