﻿[
  {
    "label": "001",
    "text": "Ces temps-ci, je m'entraîne\nà écrire plus de lettres, mais\ndès que je suis face à une\npage blanche, c'est la panne.\nJe crois qu'il me faut un\ncoach, sur ce coup-là..."
  },
  {
    "label": "002",
    "text": "J'ai encore remporté un\nmarathon ! Bon, c'était assez\nbizarre, les autres coureurs\nétaient sur des espèces de\nchars... Mince, si ça se\ntrouve, j'ai gagné un défilé..."
  },
  {
    "label": "003",
    "text": "Si cette lettre te parvient,\nça signifie que je suis en\ntrain de m'ennuyer, mais\nalors d'une force...! Viens à\nma rescousse, {{fun_00000005 arg=\"\"}} !\nViiiiiite !"
  },
  {
    "label": "004",
    "text": "J'ai trouvé ce super papier à\nlettres, et j'en suis tellement\nfier que j'ai décidé de\nt'écrire. Il te plaît ?\n... Et sinon, une petite séance\nde pompes, ça te dit ?"
  },
  {
    "label": "005",
    "text": "Bon, je viens de me fixer\npour objectif de remporter\nune médaille d'or ce mois-ci.\nReste à trouver dans quelle\ndiscipline... Je te réécrirai\nquand j'en saurai plus."
  },
  {
    "label": "006",
    "text": "As-tu déjà remarqué à quel\npoint le ciel est bleu quand il\nest dégagé ? L'autre jour,\nje l'ai bien observé, après\n50 km de jogging. Je pouvais\nplus bouger, faut dire..."
  },
  {
    "label": "007",
    "text": "Je tenais à te dire que tu\ncomptes beaucoup pour moi.\nSi je suis heureux dans la vie,\nc'est grâce à toi ! Au fait, tu\npourrais passer tondre ma\npelouse, à l'occasion ?"
  },
  {
    "label": "008",
    "text": "J'ai d'étranges courbatures,\nen ce moment. Au crâne. Ça\nfait comme des coups de\nmarteau ! Si mon cerveau se\ndéveloppe trop, tu crois que\nma tête va gonfler ?!"
  },
  {
    "label": "009",
    "text": "Aujourd'hui, c'est la journée\ndes rivaux amicaux ! Je viens\nde l'inventer. Fêtons ça main\ndans la main en se faisant un\npetit tournoi de pouce de\nfer ! Je t'attends."
  },
  {
    "label": "010",
    "text": "J'ai un doute. Quelqu'un m'a\nappelé « tas de muscles »,\naujourd'hui... C'était bien un\ncompliment, hein ?!"
  }
]