﻿[
  {
    "label": "001",
    "text": "Merci pour ton aide l'autre\njour ! Tu es vraiment un{{fun_0006000E arg=\"0x000002006500\"}}\nchic {{fun_0006000E arg=\"0x080074007900700065000A00660069006C006C006500\"}} ! J'espère que ce\npetit cadeau te fera plaisir."
  },
  {
    "label": "002",
    "text": "Merci d'avoir cédé à mon\npetit caprice de l'autre jour !\nJe t'envoie ce que je n'ai pas\npu te remettre à ce moment-\nlà. C'est bon de savoir que tu\nseras toujours là pour moi !"
  },
  {
    "label": "003",
    "text": "Accepte ce petit cadeau en\nguise de remerciements pour\nton aide, l'autre jour. Le\nsimple fait de discuter avec\ntoi m'a comblée de joie !"
  }
]