﻿[
  {
    "label": "001",
    "text": "Je n'ai même pas bouclé mes\ncartons que j'ai déjà le mal\ndu pays ! Tant pis si je passe\nà côté d'une belle aventure,\nmais j'annule mon\ndéménagement. Désolé !"
  },
  {
    "label": "002",
    "text": "J'ai été sélectionné pour\nparticiper à un tournoi de\npouce de fer ! Du coup, j'ai\nbesoin de m'entraîner avec\nmon partenaire habituel.\nJe déménage plus, désolé !"
  },
  {
    "label": "003",
    "text": "Tu vas rire, mais comme la\nplupart de mes projets, mon\ndéménagement est tombé\nà l'eau. Je suis désolé pour\nla gêne occasionnée,\nHA HA HA !"
  },
  {
    "label": "004",
    "text": "Le destin m'a murmuré :\n« L'heure n'est pas venue\nde déménager ! » Si je t'ai\nfait de la peine, j'en suis\ndésolé !"
  },
  {
    "label": "005",
    "text": "Ne m'en veux pas, mais j'ai\nbeaucoup réfléchi, et je ne\npeux pas quitter cette ville\nmaintenant. Je suis désolée,\n{{fun_00000005 arg=\"\"}}..."
  },
  {
    "label": "006",
    "text": "Tu as vu tous les castings\nqui se préparent dans le\ncoin ?! C'est vraiment pas le\nmoment de déménager, ça je\nte le dis ! J'annule tout...\nCroise les doigts pour moi !"
  },
  {
    "label": "007",
    "text": "Tu vas sans doute trouver\nça soudain, mais j'ai changé\nd'avis : je ne déménage plus.\nJe suis navrée. Être adulte,\nc'est parfois très compliqué."
  },
  {
    "label": "008",
    "text": "Je viens tout juste de\nréussir à faire pousser une\nplante qui m'est très chère.\nJ'y croyais plus... Enfin voilà,\npas moyen que je déménage,\nmaintenant. Désolée !"
  }
]