﻿[
  {
    "label": "001",
    "text": "Je t'envoie le cadeau que je\nn'ai pas pu te donner plus\ntôt... Joyeux anniversaire !"
  },
  {
    "label": "002",
    "text": "Voici le présent que je n'ai\npas pu te donner plus tôt...\nOn a essayé de trouver le\ncadeau idéal, j'espère que\nça te plaira !"
  },
  {
    "label": "003",
    "text": "Joyeux anniversaire ! Je\nt'envoie le cadeau que j'ai\npas pu te donner plus tôt.\nPuisse-t-il t'aider à\nm'apprécier davantage\nencore !"
  }
]