﻿[
  {
    "label": "001",
    "text": "J'étais un peu tristounette\naprès mon déménagement,\nalors ta lettre m'a fait du\nbien ! Accepte ce petit\ncadeau en gage de ma\ngratitude."
  },
  {
    "label": "002",
    "text": "Merci pour ta lettre de\nbienvenue ! J'ai hâte de faire\nplus ample connaissance\navec toi. Ce petit cadeau\nte montrera à quel point !"
  },
  {
    "label": "003",
    "text": "Mon déménagement m'a un\npeu affectée, alors le cadeau\nque tu m'as envoyé m'a\nvraiment réconfortée.\nJ'espère que ce présent\nte fera aussi plaisir !"
  },
  {
    "label": "004",
    "text": "J'étais un peu nerveuse en\ntant que nouvelle arrivante\ndans cette ville, mais ta\nlettre m'a rassurée ! Merci\nbeaucoup et vivement qu'on\npuisse papoter !"
  },
  {
    "label": "005",
    "text": "Je viens d'emménager,\nalors je suis encore un peu\nperdue. Mais je n'ai pas à\nm'inquiéter : vu la lettre que\ntu m'as envoyée, je sais que\nles gens sont sympas ici !"
  },
  {
    "label": "006",
    "text": "Ta lettre a vraiment facilité\nmon installation dans cette\nville. Je suis contente de voir\nque les voisins sont si gentils\npar ici !"
  }
]