﻿[
  {
    "label": "001",
    "text": "Tu trouveras ci-joint le\ncadeau que je n'ai pas pu te\nremettre lors de ton anniv.\nOn l'a choisi à plusieurs,\nmais moi plus que les autres.\nJe sais que ça te plaira !"
  },
  {
    "label": "002",
    "text": "Tu croyais que j'allais\noublier de t'envoyer ton\ncadeau ? Une promesse\nest une promesse, surtout\nlorsqu'elle a été faite à {{fun_0006000E arg=\"0x06006D006F006E0004006D006100\"}}\n{{fun_0006000E arg=\"0x180072006900760061006C0020006600610076006F00720069001E0072006900760061006C00650020006600610076006F007200690074006500\"}} !"
  },
  {
    "label": "003",
    "text": "J'étais sur le point d'oublier,\nmais voici ton cadeau\nd'anniv ! Il traîne chez moi\ndepuis un bail, ça se sent un\npeu. Vois ça comme une\nvaleur ajoutée !"
  }
]