﻿[
  {
    "label": "00",
    "text": "{{wordInfo gender=\"0\" indefArticle=\"1\" defArticle=\"3\"}}megaphone"
  },
  {
    "label": "01",
    "text": "{{wordInfo gender=\"0\" indefArticle=\"1\" defArticle=\"3\"}}pencil case"
  },
  {
    "label": "02",
    "text": "{{wordInfo gender=\"0\" indefArticle=\"1\" defArticle=\"3\"}}toaster oven"
  },
  {
    "label": "03",
    "text": "{{wordInfo gender=\"0\" indefArticle=\"1\" defArticle=\"3\"}}water wing"
  },
  {
    "label": "04",
    "text": "{{wordInfo gender=\"0\" indefArticle=\"1\" defArticle=\"3\"}}paperweight"
  },
  {
    "label": "05",
    "text": "{{wordInfo gender=\"0\" indefArticle=\"1\" defArticle=\"3\"}}walking stick"
  },
  {
    "label": "06",
    "text": "{{wordInfo gender=\"0\" indefArticle=\"2\" defArticle=\"3\"}}encyclopedia"
  },
  {
    "label": "07",
    "text": "{{wordInfo gender=\"0\" indefArticle=\"1\" defArticle=\"3\"}}wall calendar"
  },
  {
    "label": "08",
    "text": "{{wordInfo gender=\"0\" indefArticle=\"1\" defArticle=\"3\"}}glasses case"
  },
  {
    "label": "09",
    "text": "{{wordInfo gender=\"0\" indefArticle=\"2\" defArticle=\"3\"}}electric razor"
  },
  {
    "label": "10",
    "text": "{{wordInfo gender=\"0\" indefArticle=\"1\" defArticle=\"3\"}}day planner"
  },
  {
    "label": "11",
    "text": "{{wordInfo gender=\"0\" indefArticle=\"1\" defArticle=\"3\"}}glockenspiel"
  },
  {
    "label": "12",
    "text": "{{wordInfo gender=\"0\" indefArticle=\"1\" defArticle=\"3\"}}baking sheet"
  },
  {
    "label": "13",
    "text": "{{wordInfo gender=\"0\" indefArticle=\"1\" defArticle=\"3\"}}screwdriver"
  },
  {
    "label": "14",
    "text": "{{wordInfo gender=\"0\" indefArticle=\"1\" defArticle=\"3\"}}stethoscope"
  },
  {
    "label": "15",
    "text": "{{wordInfo gender=\"0\" indefArticle=\"1\" defArticle=\"3\"}}space heater"
  },
  {
    "label": "16",
    "text": "{{wordInfo gender=\"0\" indefArticle=\"1\" defArticle=\"3\"}}toothbrush"
  },
  {
    "label": "17",
    "text": "{{wordInfo gender=\"0\" indefArticle=\"1\" defArticle=\"3\"}}socket wrench"
  },
  {
    "label": "18",
    "text": "{{wordInfo gender=\"0\" indefArticle=\"1\" defArticle=\"3\"}}wallet chain"
  },
  {
    "label": "19",
    "text": "{{wordInfo gender=\"0\" indefArticle=\"1\" defArticle=\"3\"}}pocket watch"
  },
  {
    "label": "20",
    "text": "{{wordInfo gender=\"0\" indefArticle=\"1\" defArticle=\"3\"}}camera case"
  },
  {
    "label": "21",
    "text": "{{wordInfo gender=\"0\" indefArticle=\"1\" defArticle=\"3\"}}mixing bowl"
  },
  {
    "label": "22",
    "text": "{{wordInfo gender=\"0\" indefArticle=\"2\" defArticle=\"3\"}}ink-jet printer"
  },
  {
    "label": "23",
    "text": "{{wordInfo gender=\"0\" indefArticle=\"1\" defArticle=\"3\"}}change jar"
  },
  {
    "label": "24",
    "text": "{{wordInfo gender=\"0\" indefArticle=\"1\" defArticle=\"3\"}}water bottle"
  },
  {
    "label": "25",
    "text": "{{wordInfo gender=\"0\" indefArticle=\"1\" defArticle=\"3\"}}fountain pen"
  },
  {
    "label": "26",
    "text": "{{wordInfo gender=\"0\" indefArticle=\"1\" defArticle=\"3\"}}rubber band"
  },
  {
    "label": "27",
    "text": "{{wordInfo gender=\"0\" indefArticle=\"1\" defArticle=\"3\"}}cotton swab"
  },
  {
    "label": "28",
    "text": "{{wordInfo gender=\"0\" indefArticle=\"1\" defArticle=\"3\"}}kaleidoscope"
  },
  {
    "label": "29",
    "text": "{{wordInfo gender=\"0\" indefArticle=\"1\" defArticle=\"3\"}}pomade tin"
  }
]