﻿[
  {
    "label": "00",
    "text": "Police"
  },
  {
    "label": "01",
    "text": "Café"
  },
  {
    "label": "02",
    "text": "Town Hall"
  },
  {
    "label": "03",
    "text": "Station"
  },
  {
    "label": "04",
    "text": "Recycler"
  },
  {
    "label": "05",
    "text": "Dock"
  },
  {
    "label": "06",
    "text": "Plaza"
  },
  {
    "label": "07",
    "text": "Sample Room 1"
  },
  {
    "label": "08",
    "text": "Fossil Display 1"
  },
  {
    "label": "09",
    "text": "Sample Room 2"
  },
  {
    "label": "10",
    "text": "Fossil Display 2"
  },
  {
    "label": "11",
    "text": "Sample Room 3"
  },
  {
    "label": "12",
    "text": "Fossil Display 3"
  },
  {
    "label": "13",
    "text": "Sample Room 4"
  },
  {
    "label": "14",
    "text": "Fossil Display 4"
  },
  {
    "label": "15",
    "text": "House"
  },
  {
    "label": "16",
    "text": "General Store"
  },
  {
    "label": "17",
    "text": "Tailor"
  },
  {
    "label": "18",
    "text": "Garden Shop"
  },
  {
    "label": "19",
    "text": "Shoe Shop"
  },
  {
    "label": "20",
    "text": "Beauty Salon"
  },
  {
    "label": "21",
    "text": "Live Venue"
  },
  {
    "label": "22",
    "text": "Realtor"
  },
  {
    "label": "23",
    "text": "Post Office"
  },
  {
    "label": "24",
    "text": "Museum"
  },
  {
    "label": "25",
    "text": "Dream Suite"
  },
  {
    "label": "26",
    "text": "Fortune-Teller"
  },
  {
    "label": "27",
    "text": "Photo Booth"
  },
  {
    "label": "28",
    "text": "Convenience Store"
  },
  {
    "label": "29",
    "text": "Supermarket"
  },
  {
    "label": "30",
    "text": "Home Center"
  },
  {
    "label": "31",
    "text": "Department Store"
  },
  {
    "label": "32",
    "text": "Main Street"
  },
  {
    "label": "33",
    "text": "Campsite"
  },
  {
    "label": "34",
    "text": "Vacant House"
  },
  {
    "label": "35",
    "text": "Campground"
  }
]