﻿[
  {
    "label": "001",
    "locale": {
      "EUde": "Sieh mal, was ich gefunden\nhab! Du magst doch solchen\nKram, oder?\n",
      "EUen": "I found this, and it reminded\nme of you. It's tough and\ncool, and the colors are nice.\n",
      "EUes": "Me he encontrado esto y me\nhe acordado de ti. Está bien\nchulo y los colores molan.\n",
      "EUfr": "De mon côté, j'ai trouvé ce\ntruc. Il est cool, solide,\nfiable... c'est tout toi !\n",
      "EUit": "Ho trovato questa cosa e\nmi ha fatto pensare a te.\nHa anche un bel colore!\n",
      "JPja": "オイラも　おかえしさせてくれ！\nなやんだりせず　チョッカンで、\nいっぱつで　コイツにきめた！\n",
      "KRko": "나도 뭔가 보답을 해야겠어!\n고민하지 않고 본능에 따라\n단번에 이걸로 정했다구!\n",
      "USen": "I found this, and it reminded\nme of you. It's tough and\ncool, and the colors are nice.\n",
      "USes": "Me he encontrado esto y me\nhe acordado de ti. Está bien\nchulo y los colores molan.\n",
      "USfr": "De mon côté, j'ai trouvé ce\ntruc. Il est cool, solide,\nfiable... c'est tout toi!\n"
    }
  },
  {
    "label": "002",
    "locale": {
      "EUde": "Ich MUSSTE dir antworten,\num diesen Briefkampf noch\ngewinnen zu können! Tadaa!\n",
      "EUen": "I'd feel like a loser if I didn't\nget you something too. This\nshould even the score!\n",
      "EUes": "Sería una gran derrota no\nmandarte algo a cambio.\nToma, ¡empate!\n",
      "EUfr": "J'aurais honte de ne pas te\nrendre la pareille. Voici de\nquoi rattraper ton avance.\n",
      "EUit": "Mi sarei sentito un perdente\nse non ti avessi preso una\ncosa anch'io. Ora siamo pari!\n",
      "JPja": "もらってばっかじゃ、\nまけたかんじが　するからな！\nオイラも　コレで　たいこうだ！\n",
      "KRko": "선물을 받고 내가 가만히 있을 줄\n알았다면 큰 오산이라구!\n내 반격을 받아라!\n",
      "USen": "I'd feel like a loser if I didn't\nget you something too. This\nshould even the score!\n",
      "USes": "Sería una gran derrota no\nmandarte algo a cambio.\nToma, ¡empate!\n",
      "USfr": "J'aurais honte de ne pas te\nrendre la pareille. Voici de\nquoi rattraper ton avance.\n"
    }
  },
  {
    "label": "003",
    "locale": {
      "EUde": "Ich weiß, was du magst,\n{{fun_0006000E arg=\"0x1800530070006F0072007400730066007200650075006E0064001C00530070006F0072007400730066007200650075006E00640069006E00\"}}. Darum bin\nich ja auch Briefweltmeister!\n",
      "EUen": "I've been paying attention to\nwhat you like, {{fun_0006000E arg=\"0x0600620072006F000E006C00610064007900620072006F00\"}}. It's\npart of my winning strategy.\n",
      "EUes": "Me he estado fijando en las\ncosas que te gustan, colega.\nEs parte de mi estrategia.\n",
      "EUfr": "Voici donc un truc en retour.\nNe tergiverse pas et prends-\nle, c'est de bonne guerre.\n",
      "EUit": "Ti ho osservato molto per\ncapire che cosa ti piace. Fa\nparte della mia strategia.\n",
      "JPja": "これは　オイラからのおかえしだ！\nライバルどうし、エンリョなんて\nなしだ、うけとってくれ！\n",
      "KRko": "이건 내가 보내는 답례품이다!\n라이벌끼리 사양하고 그런 거\n없는 거다! 어서 받아!\n",
      "USen": "I've been paying attention to\nwhat you like, {{fun_0006000E arg=\"0x0600620072006F000E006C00610064007900620072006F00\"}}. It's\npart of my winning strategy.\n",
      "USes": "Me he estado fijando en las\ncosas que te gustan, colega.\nEs parte de mi estrategia.\n",
      "USfr": "Voici donc un truc en retour.\nNe tergiverse pas et prends-\nle, c'est de bonne guerre.\n"
    }
  },
  {
    "label": "004",
    "locale": {
      "EUde": "Dein Geschenk hat mich echt\nüberrascht! Also überrasche\nich dich zurück. Da hast du's!\n",
      "EUen": "I was surprised by your\npresent, but not as surprised\nas you're gonna be! Booyah!\n",
      "EUes": "Tu regalo me dejó bastante\nsorprendido... ¡pero no tanto\ncomo lo vas a estar tú! ¡Ja!\n",
      "EUfr": "Ça m'a pris par surprise,\nbravo, mais attends de voir\nce que j'ai joint à la lettre !\n",
      "EUit": "Sono rimasto sorpreso dal\ntuo regalo, ma non tanto\nquanto lo sarai tu dal mio!\n",
      "JPja": "とつぜんだから　おどろいたよ！\nオイラも　オマエをビックリさせる\nプレゼントを　よういしたぞ！\n",
      "KRko": "갑작스러워서 놀랐다구ー!\n나도 널 깜짝 놀라게 하기 위한\n선물을 준비했다!\n",
      "USen": "I was surprised by your\npresent, but not as surprised\nas you're gonna be! Booyah!\n",
      "USes": "Tu regalo me dejó bastante\nsorprendido... ¡pero no tanto\ncomo lo vas a estar tú! ¡Ja!\n",
      "USfr": "Ça m'a pris par surprise,\nbravo, mais attends de voir\nce que j'ai joint à la lettre!\n"
    }
  },
  {
    "label": "005",
    "locale": {
      "EUde": "Ich hoffe, dass dieser Brief\nmit 'nem Geschenk kam...\nEs ist toll! Hängt es dran?!\n",
      "EUen": "This letter to you better\ncome with a gift! I hate when\nstuff gets lost in the mail!\n",
      "EUes": "Más vale que te llegue el\nregalo adjunto. Me revienta\ncuando se extravía el correo.\n",
      "EUfr": "Je comptais justement\nt'offrir quelque chose, moi\naussi. Je joins ça à ma lettre.\n",
      "EUit": "Spero proprio che il mio\nti sia arrivato sano e salvo\ninsieme a questa lettera!\n",
      "JPja": "じつは　オイラも　オマエに\nプレゼントを　よういしてたんだ！\nコイツを　うけとってくれ！\n",
      "KRko": "사실은 나도 너에게 보낼\n선물 도전장을 준비했거든!\n얍ー! 받아라!\n",
      "USen": "This letter to you better\ncome with a gift! I hate when\nstuff gets lost in the mail!\n",
      "USes": "Más vale que te llegue el\nregalo adjunto. Me revienta\ncuando se extravía el correo.\n",
      "USfr": "Je comptais justement\nt'offrir quelque chose, moi\naussi. Je joins ça à ma lettre.\n"
    }
  }
]