﻿[
  {
    "label": "001",
    "text": "げんきかー？　\nへ"
  },
  {
    "label": "002",
    "text": "えいようぶそくの　\n"
  },
  {
    "label": "003",
    "text": "キントレたりない　\nへ"
  },
  {
    "label": "004",
    "text": "キンニクつうの　\n"
  },
  {
    "label": "005",
    "text": "ふでマメな　\nへ"
  }
]