﻿[
  {
    "label": "001",
    "text": "{{anim id=\"15\"}}{{fun_0003000E arg=\"\"}}{{fun_00060007 arg=\"\"}}Oh ! {{fun_0003000E arg=\"\"}}{{fun_00080005 arg=\"\"}}{{fun_00070007 arg=\"\"}} !{{delay frames=\"30\"}}\n{{anim id=\"1\"}}C'est ouf de se croiser ici !{{delay frames=\"20\"}}\n{{fun_0003000E arg=\"\"}}{{fun_00070005 arg=\"\"}} !"
  },
  {
    "label": "002",
    "text": "{{i10_7 arg=\"0x0F000F001000100011001100\"}}"
  },
  {
    "label": "003",
    "text": "{{anim id=\"44\"}}Youhou !{{delay frames=\"40\"}} {{anim id=\"37\"}}Alors, {{fun_00080005 arg=\"\"}}, tu\nt'éclates ?{{delay frames=\"20\"}} {{fun_0003000E arg=\"\"}}{{fun_00070005 arg=\"\"}} ?"
  },
  {
    "label": "004",
    "text": "{{fun_0001000A arg=\"0x12001300\"}}"
  },
  {
    "label": "005",
    "text": "{{anim id=\"15\"}}Tiens, {{fun_00080005 arg=\"\"}} ?!{{delay frames=\"40\"}} {{anim id=\"35\"}}Prends pas la\nmouche, mais te voir ici, j'trouve ça\nlouche.{{delay frames=\"30\"}} {{fun_0003000E arg=\"\"}}{{fun_00070005 arg=\"\"}}."
  },
  {
    "label": "006",
    "text": "{{anim id=\"15\"}}Hein ?!{{delay frames=\"20\"}} {{fun_0003000E arg=\"\"}}{{fun_00080005 arg=\"\"}} ?!{{delay frames=\"30\"}} Qu'est-ce\nque tu fiches ici ?!{{delay frames=\"20\"}} {{anim id=\"37\"}}Et cherche pas à\nnoyer l'poisson,{{delay frames=\"20\"}} {{fun_00070005 arg=\"\"}}."
  },
  {
    "label": "007",
    "text": "{{anim id=\"32\"}}Salut, {{fun_00080005 arg=\"\"}} !{{delay frames=\"30\"}} {{anim id=\"0\"}}Hmm ?{{delay frames=\"20\"}} Si j'aime\nles faux cils ?{{delay frames=\"20\"}} {{anim id=\"6\"}}Attends,{{delay frames=\"15\"}} c'est des\nvrais, mes cils,{{delay frames=\"20\"}} {{fun_00070005 arg=\"\"}} !"
  },
  {
    "label": "008",
    "text": "{{anim id=\"15\"}}Hein ?! {{fun_0003000E arg=\"\"}}{{fun_00080005 arg=\"\"}} ?!{{fun_00010007 arg=\"\"}}\n{{anim id=\"26\"}}Euh{{delay frames=\"15\"}}.{{delay frames=\"15\"}}.{{delay frames=\"15\"}}.{{delay frames=\"20\"}}{{anim id=\"0\"}} Eh ouais.{{anim id=\"27\"}} L'art me touche.{{delay frames=\"20\"}} Tu\nseras {{fun_0006000E arg=\"0x0C00670065006E00740069006C001000670065006E00740069006C006C006500\"}} d'garder ça pour toi."
  },
  {
    "label": "009",
    "text": "{{anim id=\"37\"}}{{fun_0003000E arg=\"\"}}{{fun_00060007 arg=\"\"}}Hep, {{fun_00080005 arg=\"\"}}{{fun_00070007 arg=\"\"}} !{{delay frames=\"30\"}}\nOn est à court de bonbecs,{{delay frames=\"20\"}}\n{{fun_00070005 arg=\"\"}} ?"
  },
  {
    "label": "010",
    "text": "{{anim id=\"1\"}}{{fun_0003000E arg=\"\"}}{{fun_00060007 arg=\"\"}}Salut, {{fun_00080005 arg=\"\"}}{{fun_00070007 arg=\"\"}} !{{delay frames=\"30\"}}\nÇa roule pour toi ?{{pageBreak}}{{anim id=\"35\"}}J'allais te demander si tu faisais tes\ncourses, mais à l'évidence,{{delay frames=\"20\"}} t'es pas\nen train d'pêcher,{{delay frames=\"20\"}} {{fun_00070005 arg=\"\"}} !"
  },
  {
    "label": "011",
    "text": "{{anim id=\"32\"}}{{fun_0003000E arg=\"\"}}{{fun_00060007 arg=\"\"}}Hep, {{fun_00080005 arg=\"\"}}{{fun_00070007 arg=\"\"}} !{{delay frames=\"40\"}}{{anim id=\"0\"}}\nTu cherches des idées déco ?{{delay frames=\"20\"}} {{anim id=\"40\"}}Viens\npas chez moi alors, {{fun_00070005 arg=\"\"}}..."
  },
  {
    "label": "012",
    "text": "{{anim id=\"1\"}}Hello, {{fun_00080005 arg=\"\"}} !{{delay frames=\"30\"}} J'adore venir ici.{{delay frames=\"20\"}}\nC'est comme à la maison.{{delay frames=\"20\"}} En plus\ngrand.{{delay frames=\"20\"}} Et plus joli.{{delay frames=\"20\"}} {{anim id=\"12\"}}{{fun_0003000E arg=\"\"}}{{fun_00070005 arg=\"\"}}..."
  },
  {
    "label": "013",
    "text": "{{anim id=\"32\"}}Salut, {{fun_00080005 arg=\"\"}} !{{delay frames=\"30\"}}{{anim id=\"0\"}} Si j'aime les\nfleurs ?{{delay frames=\"20\"}} {{anim id=\"26\"}}Ça va pas ?!{{delay frames=\"20\"}} Tu m'as bien\nregardée,{{delay frames=\"20\"}} {{fun_00070005 arg=\"\"}} ? {{color id=\"5\"}}(Sauvée !){{color id=\"65535\"}}"
  },
  {
    "label": "014",
    "text": "{{anim id=\"1\"}}{{fun_0003000E arg=\"\"}}{{fun_00060007 arg=\"\"}}Hep, {{fun_00080005 arg=\"\"}}{{fun_00070007 arg=\"\"}} !{{pageBreak}}J'me disais aussi qu'il était temps\nd'renouveler ta garde-robe.{{delay frames=\"20\"}}{{anim id=\"0\"}} Hein ?!\nTu regardes juste ?{{delay frames=\"20\"}} {{anim id=\"19\"}}{{fun_0003000E arg=\"\"}}{{fun_00070005 arg=\"\"}}..."
  },
  {
    "label": "015",
    "text": "{{anim id=\"32\"}}{{fun_0003000E arg=\"\"}}{{fun_00060007 arg=\"\"}}Hello, {{fun_00080005 arg=\"\"}}{{fun_00070007 arg=\"\"}} !{{delay frames=\"40\"}}\n{{anim id=\"21\"}}Les bonnes affaires appartiennent\naux lève-tôt,{{delay frames=\"20\"}} {{fun_00070005 arg=\"\"}} ! {{color id=\"5\"}}(Sic.){{color id=\"65535\"}}"
  },
  {
    "label": "016",
    "text": "{{anim id=\"32\"}}Hep, {{fun_00080005 arg=\"\"}} !{{delay frames=\"40\"}}\n{{anim id=\"37\"}}C'est quoi l'programme du jour ?{{delay frames=\"20\"}}\nShopping ?{{delay frames=\"20\"}} {{fun_0003000E arg=\"\"}}{{fun_00070005 arg=\"\"}} ?"
  },
  {
    "label": "017",
    "text": "{{anim id=\"15\"}}Euh, {{fun_00080005 arg=\"\"}} ?!{{delay frames=\"20\"}} C'est une heure\npour faire les boutiques ?!{{anim id=\"0\"}}{{delay frames=\"20\"}} {{anim id=\"37\"}}T'es un\nsacré numéro,{{delay frames=\"20\"}} {{fun_00070005 arg=\"\"}} !"
  },
  {
    "label": "018",
    "text": "{{anim id=\"32\"}}{{fun_0003000E arg=\"\"}}{{fun_00060007 arg=\"\"}}{{fun_0003000E arg=\"\"}}{{fun_00080005 arg=\"\"}}{{fun_00070007 arg=\"\"}} !{{delay frames=\"40\"}}\n{{anim id=\"37\"}}On s'est mis sur son trente-et-un ?{{delay frames=\"20\"}}\nQuel tombeur, {{fun_00070005 arg=\"\"}} !"
  },
  {
    "label": "019",
    "text": "{{anim id=\"32\"}}{{fun_0003000E arg=\"\"}}{{fun_00060007 arg=\"\"}}{{fun_0003000E arg=\"\"}}{{fun_00080005 arg=\"\"}}{{fun_00070007 arg=\"\"}} !{{delay frames=\"20\"}}\n{{anim id=\"37\"}}On s'est faite toute belle ?{{delay frames=\"20\"}} Une\nvraie princesse,{{delay frames=\"20\"}} {{fun_00070005 arg=\"\"}} !"
  }
]