﻿[
  {
    "label": "001",
    "text": "{{fun_00010009 arg=\"0x09000A000B00\"}}"
  },
  {
    "label": "002",
    "text": "{{fun_00020009 arg=\"0x0C000D000E001D00\"}}"
  },
  {
    "label": "003",
    "text": "{{fun_00040009 arg=\"0x0F0010001100120013001D00\"}}"
  },
  {
    "label": "004",
    "text": "{{fun_00020009 arg=\"0x1400150016001D00\"}}"
  },
  {
    "label": "005",
    "text": "{{fun_00010009 arg=\"0x170018001900\"}}"
  },
  {
    "label": "006",
    "text": "{{fun_00010009 arg=\"0x1A001B001C00\"}}"
  },
  {
    "label": "007",
    "text": ""
  },
  {
    "label": "008",
    "text": ""
  },
  {
    "label": "009",
    "text": "{{anim id=\"6\"}}Alors, ces feux d'artifice, c'est pour\naujourd'hui ou pour demain ?!{{pageBreak}}{{anim id=\"21\"}}En tout cas, fais-moi confiance : tu\nvas pas en croire tes mirettes.{{delay frames=\"20\"}}\n{{anim id=\"37\"}}Tiens-toi {{fun_0006000E arg=\"0x080070007200EA0074000A0070007200EA0074006500\"}} !"
  },
  {
    "label": "010",
    "text": "{{anim id=\"11\"}}Voyons{{delay frames=\"15\"}}.{{delay frames=\"15\"}}.{{delay frames=\"15\"}}.{{delay frames=\"20\"}} Où s'installer pour\nprofiter au mieux du spectacle ?{{delay frames=\"20\"}}\n{{fun_0003000E arg=\"\"}}{{fun_00070005 arg=\"\"}} ?{{anim id=\"9\"}}"
  },
  {
    "label": "011",
    "text": "{{anim id=\"5\"}}Les feux d'artifice vont plus\ntarder !{{delay frames=\"20\"}} Enfin !{{delay frames=\"20\"}} {{fun_0003000E arg=\"\"}}{{fun_00070005 arg=\"\"}} !"
  },
  {
    "label": "012",
    "text": "{{anim id=\"4\"}}{{delay frames=\"20\"}}Ça gronde sévère !{{delay frames=\"20\"}} J'adore quand\nles déflagrations résonnent dans\nmon p'tit bidon !"
  },
  {
    "label": "013",
    "text": "{{anim id=\"38\"}}C'est pas trop tôt !{{delay frames=\"15\"}} Y se seront fait\ndésirer, ces feux d'artifice !{{delay frames=\"20\"}}{{anim id=\"0\"}} {{anim id=\"37\"}}Le\nshow n'en sera que meilleur !"
  },
  {
    "label": "014",
    "text": "{{anim id=\"5\"}}Hi hi !{{delay frames=\"20\"}} Quel spectacle que ces fleurs\nde feu parsemant le ciel d'été...{{delay frames=\"20\"}}{{anim id=\"0\"}}\n{{anim id=\"41\"}}{{delay frames=\"20\"}}Ouh là,{{delay frames=\"20\"}} j'ai vraiment dit ça ?{{delay frames=\"15\"}} MOI ?!"
  },
  {
    "label": "015",
    "text": "{{anim id=\"11\"}}J'me sens toute riquiqui devant ces\nfeux d'artifice{{delay frames=\"15\"}}.{{delay frames=\"15\"}}.{{delay frames=\"15\"}}.{{pageBreak}}{{anim id=\"1\"}}Ça m'donne envie d'crier d'toutes\nmes forces,{{delay frames=\"20\"}} {{fun_00070005 arg=\"\"}} !"
  },
  {
    "label": "016",
    "text": "{{anim id=\"21\"}}Les multicolores sont assez funky,\nmais les autres sont pas en reste{{delay frames=\"15\"}}.{{delay frames=\"15\"}}.{{delay frames=\"15\"}}.{{delay frames=\"20\"}}\n{{anim id=\"4\"}}Pas moyen d'les départager !"
  },
  {
    "label": "017",
    "text": "{{anim id=\"21\"}}Les chandelles, c'est cool{{delay frames=\"15\"}}.{{delay frames=\"15\"}}.{{delay frames=\"15\"}}.{{delay frames=\"20\"}} {{anim id=\"1\"}}Mais\nc'est jamais que d'la gnognotte\ncomparé à ces énormes fusées !"
  },
  {
    "label": "018",
    "text": "{{anim id=\"1\"}}Aaaah{{delay frames=\"15\"}}.{{delay frames=\"15\"}}.{{delay frames=\"15\"}}.{{delay frames=\"20\"}} L'été à {{fun_00050005 arg=\"\"}} !{{delay frames=\"20\"}} Y'a pas\nmieux !{{delay frames=\"20\"}} {{fun_0003000E arg=\"\"}}{{fun_00070005 arg=\"\"}} !"
  },
  {
    "label": "019",
    "text": "{{anim id=\"9\"}}Argh{{delay frames=\"15\"}}.{{delay frames=\"15\"}}.{{delay frames=\"15\"}}.{{delay frames=\"20\"}} j'ai la gorge sèche ! {{delay frames=\"20\"}}Ça\nm'apprendra à rester bouche bée\ntout du long...\n{{anim id=\"1\"}}J'cracherais pas sur un peu\n{{fun_000A000E arg=\"0x0600640065002000040064002700\"}}{{fun_000E0005 arg=\"0x0000\"}}, pour tout\nt'dire !{{delay frames=\"20\"}} {{fun_0003000E arg=\"\"}}{{fun_00070005 arg=\"\"}} !"
  },
  {
    "label": "020",
    "text": "{{anim id=\"15\"}}Déjà {{fun_00030004 arg=\"\"}} h {{fun_00040004 arg=\"\"}}{{delay frames=\"15\"}}.{{delay frames=\"15\"}}.{{delay frames=\"15\"}}.{{delay frames=\"20\"}}{{anim id=\"0\"}} C'est bientôt\nl'bouquet final, nan ?{{delay frames=\"20\"}}\n{{fun_0003000E arg=\"\"}}{{fun_00070005 arg=\"\"}} ?"
  },
  {
    "label": "021",
    "text": "{{anim id=\"38\"}}Yes !{{delay frames=\"20\"}} Toutes ces explosions m'ont\nrechargée à bloc !{{pageBreak}}{{anim id=\"5\"}}J'vais avoir une de ces patates,\ndemain !{{delay frames=\"20\"}} {{fun_0003000E arg=\"\"}}{{fun_00070005 arg=\"\"}} !"
  },
  {
    "label": "022",
    "text": "{{anim id=\"16\"}}Waouh !{{delay frames=\"20\"}} Celui-là, c'était quelque\nchose !{{pageBreak}}{{anim id=\"13\"}}Chuis à fond dedans comme jamais,{{delay frames=\"20\"}}\n{{fun_00070005 arg=\"\"}} !{{delay frames=\"20\"}}{{anim id=\"0\"}}"
  },
  {
    "label": "023",
    "text": "{{anim id=\"10\"}}Oh nan{{delay frames=\"15\"}}.{{delay frames=\"15\"}}.{{delay frames=\"15\"}}.{{delay frames=\"20\"}} C'est fini pour cette fois...\n{{anim id=\"0\"}}C'est triste, mais au moins, ça m'a\nregonflée à bloc,{{delay frames=\"20\"}} {{fun_00070005 arg=\"\"}} !"
  },
  {
    "label": "024",
    "text": "{{anim id=\"21\"}}J'adore ces instants, quand les feux\nd'artifice viennent tout juste de\ns'terminer.\n{{anim id=\"11\"}}Tu t'sens un peu comme une théière\nà peine retirée du feu{{delay frames=\"15\"}}.{{delay frames=\"15\"}}.{{delay frames=\"15\"}}.{{delay frames=\"20\"}} {{anim id=\"1\"}}Ça\nbouillonne encore à l'intérieur !"
  },
  {
    "label": "025",
    "text": "{{anim id=\"37\"}}Hi hi{{delay frames=\"15\"}}.{{delay frames=\"15\"}}.{{delay frames=\"15\"}}.{{delay frames=\"20\"}} Les feux d'artifice un soir\nd'été, y'a pas mieux !{{delay frames=\"20\"}} Satisfaction\ngarantie,{{delay frames=\"20\"}} {{fun_00070005 arg=\"\"}} !"
  },
  {
    "label": "026",
    "text": "{{anim id=\"10\"}}Bouh,{{delay frames=\"20\"}} c'est déjà fini{{delay frames=\"15\"}}.{{delay frames=\"15\"}}.{{delay frames=\"15\"}}.{{delay frames=\"20\"}} {{anim id=\"9\"}}J'me sens\ntoute tristoune...{{delay frames=\"20\"}} Comme si l'été\ns'terminait lui aussi,{{delay frames=\"20\"}} {{fun_00070005 arg=\"\"}}..."
  },
  {
    "label": "027",
    "text": "{{anim id=\"38\"}}C'était du lourd, ces derniers feux\nd'artifice estivaux !{{delay frames=\"20\"}} {{anim id=\"37\"}}On en a pris\nplein les yeux,{{delay frames=\"20\"}} {{fun_00070005 arg=\"\"}} !"
  },
  {
    "label": "028",
    "text": "{{anim id=\"1\"}}Y se sont pas moqués d'nous avec\nces derniers feux d'artifice de\nl'année,{{delay frames=\"20\"}} {{fun_00070005 arg=\"\"}} !\n{{anim id=\"5\"}}Pour le coup, j'vais rester encore un\npeu et regarder l'ciel retrouver peu\nà peu sa clarté habituelle !"
  },
  {
    "label": "029",
    "text": "{{anim id=\"21\"}}J'pense que j't'apprends rien, mais\nfaut appuyer sur  si tu veux lever\nl'nez pour zieuter les feux d'artifice.\n{{anim id=\"37\"}}Gaffe à pas choper d'torticolis,\nquand même, {{fun_00070005 arg=\"\"}} !"
  }
]