﻿[
  {
    "label": "001",
    "text": ""
  },
  {
    "label": "002",
    "text": "{{fun_001F000A arg=\"0x030B000B000C000C000C000C000D000D000D000E000E000F00CD\"}}"
  },
  {
    "label": "003",
    "text": "{{fun_001F000A arg=\"0x03110011001200120012001200130013001300140014001500CD\"}}"
  },
  {
    "label": "004",
    "text": ""
  },
  {
    "label": "005",
    "text": ""
  },
  {
    "label": "006",
    "text": ""
  },
  {
    "label": "007",
    "text": ""
  },
  {
    "label": "008",
    "text": ""
  },
  {
    "label": "009",
    "text": ""
  },
  {
    "label": "010",
    "text": ""
  },
  {
    "label": "011",
    "text": "{{anim id=\"21\"}}Cette partie du musée est censée\nêtre réservée aux peintures de\nmaîtres...\n{{anim id=\"27\"}}C'est sûr que pour l'instant, on peut\npas dire qu'ça saute aux yeux,{{delay frames=\"20\"}}\n{{fun_00070005 arg=\"\"}} !"
  },
  {
    "label": "012",
    "text": "{{anim id=\"27\"}}Moi, l'art, tu sais{{delay frames=\"8\"}}.{{delay frames=\"8\"}}.{{delay frames=\"8\"}}.{{delay frames=\"20\"}} {{anim id=\"37\"}}Sorti des types\nqui sont capables de dessiner\nd'jolies fleurs...\n{{anim id=\"35\"}}J'pige vraiment pas tous ces gens\nqui en font des caisses à partir de\ntrois gribouillis improbables...!"
  },
  {
    "label": "013",
    "text": "{{anim id=\"25\"}}Ouaaaah... {{delay frames=\"20\"}}j'ai du mal à rester face\nà un tableau plus d'une minute sans\nqu'ça m'assomme...\n{{anim id=\"35\"}}La puissance de l'art est vraiment\nirrésistible,{{delay frames=\"20\"}} {{fun_00070005 arg=\"\"}} !"
  },
  {
    "label": "014",
    "text": "{{anim id=\"21\"}}Apparemment, {{fun_00020005 arg=\"\"}} a été\ncarrément {{fun_0007000E arg=\"0x10007300750062006A00750067007500E90012007300750062006A00750067007500E9006500\"}} par une des\nœuvres de cette pièce !\n{{anim id=\"11\"}}D'après {{fun_0007000E arg=\"0x06006C0075006900080065006C006C006500\"}}, l'tableau en question\nest une représentation d'{{fun_0002000E arg=\"\"}}\n{{fun_000F0005 arg=\"0x0001\"}} futuriste{{delay frames=\"8\"}}.{{delay frames=\"8\"}}.{{delay frames=\"8\"}}.\n{{anim id=\"23\"}}{{fun_0003000E arg=\"\"}}{{fun_00070005 arg=\"\"}}, lequel ça peut bien\nêtre, à ton avis ?!"
  },
  {
    "label": "015",
    "text": "{{anim id=\"21\"}}Dis, tous ces trucs exposés ici...\nDoit y en avoir pour une fortune,\nnan ?\n{{anim id=\"27\"}}C'est presque une incitation au vol\nque d'les laisser comme ça, sans\nsurveillance,{{delay frames=\"20\"}} {{fun_00070005 arg=\"\"}}..."
  },
  {
    "label": "016",
    "text": ""
  },
  {
    "label": "017",
    "text": "{{anim id=\"23\"}}Qu'est-ce qu'y'a dans cette salle ?!{{delay frames=\"20\"}}\nUne expo sur l'thème... {{delay frames=\"10\"}}du vide ?{{pageBreak}}{{anim id=\"37\"}}Ah nan, y'a bien quelques tableaux,\nfinalement ! J'imagine que c'est\nqu'un début,{{delay frames=\"20\"}} {{fun_00070005 arg=\"\"}}."
  },
  {
    "label": "018",
    "text": "{{anim id=\"21\"}}À {{fun_00050005 arg=\"\"}}, l'art, c'est du sérieux.\nLa preuve : une partie du musée lui\nest spécialement dédiée !\n{{anim id=\"5\"}}J'te parie qu'd'ici peu, cette pièce\ns'ra remplie à craquer d'œuvres\nfabuleuses,{{delay frames=\"20\"}} {{fun_00070005 arg=\"\"}} !"
  },
  {
    "label": "019",
    "text": "{{anim id=\"21\"}}Toutes ces œuvres...{{delay frames=\"20\"}} Ça représente\nun sacré magot,{{delay frames=\"20\"}} {{fun_00070005 arg=\"\"}} !{{pageBreak}}{{anim id=\"37\"}}Quand j'essaie d'en contempler une,\ntout c'que j'vois, c'est une fichue\nmontagne de clochettes !"
  },
  {
    "label": "020",
    "text": "{{anim id=\"21\"}}D'après l'personnel du musée, de\nnouvelles pièces devraient arriver\nun jour ou l'autre !\n{{anim id=\"5\"}}Y'en a d'jà un bon paquet, mais ça\npeut t'faire une bonne raison pour\nrepasser nous voir,{{delay frames=\"20\"}} {{fun_00070005 arg=\"\"}} !"
  },
  {
    "label": "021",
    "text": "{{anim id=\"37\"}}À ta place, j'profiterais d'mon\npassage ici pour mater ces trucs\nsous toutes les coutures !\n{{anim id=\"21\"}}J'y connais que dalle,{{delay frames=\"30\"}} {{anim id=\"37\"}}mais j'peux\nquand même reconnaître une collec\nde ouf quand j'en vois une !"
  }
]