﻿[
  {
    "label": "001",
    "text": "{{anim id=\"15\"}}Nan mais ho !{{delay frames=\"25\"}} Faut pas t'gêner,\nsurtout !{{pageBreak}}{{anim id=\"0\"}}Oh, {{fun_0002000E arg=\"\"}}{{fun_00030011 arg=\"0x0000\"}} ?\nJ'avais complètement oublié\nqu'j'avais c'truc-là...{{delay frames=\"40\"}} {{anim id=\"23\"}}Tu {{fun_0008000E arg=\"0x00CD04006C00270006006C00610020000000\"}}veux ?{{fun_0005000F arg=\"0x15002800\"}}\nAvec plaisir !\nNon merci."
  },
  {
    "label": "002",
    "text": "{{anim id=\"36\"}}Euh{{delay frames=\"8\"}}.{{delay frames=\"8\"}}.{{delay frames=\"8\"}}.{{delay frames=\"20\"}} J't'ai p't'être dit d'faire\ncomme chez toi, mais c'était pas à\nprendre au pied d'la lettre, hein...{{anim id=\"0\"}}\n{{anim id=\"37\"}}Enfin bon, si {{fun_0008000E arg=\"0x00CD06006300650074000A00630065007400740065000000\"}} horrible\n{{fun_00030011 arg=\"0x0000\"}} t'plaît tant\nqu'ça, j'te l'offre !{{fun_0005000F arg=\"0x15002800\"}}\nSuper ! Je prends !\nBof, ça ira."
  },
  {
    "label": "003",
    "text": "{{anim id=\"15\"}}{{fun_0003000E arg=\"\"}}{{fun_0002000E arg=\"\"}}{{fun_00030011 arg=\"0x0000\"}} ?{{delay frames=\"20\"}}\nGné ?{{delay frames=\"20\"}}\n{{anim id=\"0\"}}Alors c'est là que j'l'avais {{fun_0008000E arg=\"0x00CD0A00720061006E006700E9000C00720061006E006700E90065000000\"}}...\n{{anim id=\"23\"}}T'sais quoi ?{{delay frames=\"20\"}} J'm'en sers plus du\ntout, donc si ça t'dit, j'te {{fun_0008000E arg=\"0x00CD04006C00270006006C00610020000000\"}}file !{{fun_0005000F arg=\"0x15002800\"}}\nÇa me dit !\nÇa me dit pas trop."
  },
  {
    "label": "004",
    "text": "{{anim id=\"15\"}}Ho, {{fun_00080005 arg=\"\"}} !{{delay frames=\"40\"}} {{anim id=\"6\"}}C'est pas parce\nque j't'ouvre ma porte qu't'as\nl'droit d'ouvrir mes placards !\n{{delay frames=\"8\"}}.{{delay frames=\"8\"}}.{{delay frames=\"8\"}}.{{delay frames=\"20\"}} {{anim id=\"23\"}}Mais dis-moi, {{fun_0008000E arg=\"0x00CD10006300650020006600690063006800750018006300650074007400650020006600690063006800750065000000\"}}\n{{fun_00030011 arg=\"0x0000\"}} te\nbranche ?{{fun_0005000F arg=\"0x15002800\"}}\nCarrément !\nDu tout."
  },
  {
    "label": "005",
    "text": "{{anim id=\"15\"}}Oh !{{delay frames=\"20\"}} Mais c'est mon {{fun_0008000E arg=\"0x00CD0C0061006E006300690065006E00100061006E006300690065006E006E0065000000\"}}\n{{fun_00030011 arg=\"0x0000\"}} !{{delay frames=\"20\"}} J'croyais\nm'en être débarrassée !\n{{anim id=\"21\"}}Étant donné que j'l'ai déjà\n{{fun_0008000E arg=\"0x00CD1000720065006D0070006C0061006300E9001200720065006D0070006C0061006300E90065000000\"}}, j't'en fais cadeau si ça\nt'chante !{{fun_0005000F arg=\"0x15002800\"}}\nÇa m'enchanterait !\nTu parles d'un cadeau..."
  },
  {
    "label": "006",
    "text": "{{anim id=\"37\"}}Hi hi ! J'm'en doutais.{{delay frames=\"20\"}} Tu deviens\nprévisible, {{fun_00080005 arg=\"\"}} !{{delay frames=\"20\"}}\n{{fun_0003000E arg=\"\"}}{{fun_00070005 arg=\"\"}} !"
  },
  {
    "label": "007",
    "text": "{{anim id=\"0\"}}T'en veux pas ?{{delay frames=\"20\"}} {{anim id=\"21\"}}Alors remets-moi\nça là où tu l'as trouvé,{{delay frames=\"20\"}}\n{{fun_00070005 arg=\"\"}} !"
  },
  {
    "label": "008",
    "text": "{{anim id=\"37\"}}Hi hi ! J'peux pas dire que j'te\ncomprends pas,{{delay frames=\"20\"}} {{fun_00070005 arg=\"\"}} !"
  },
  {
    "label": "009",
    "text": "{{anim id=\"38\"}}Ben voilà, c'est à toi,{{delay frames=\"20\"}} {{fun_00070005 arg=\"\"}}.{{pageBreak}}{{anim id=\"23\"}}Pourquoi tu m'regardes comme ça ?{{delay frames=\"30\"}}\n{{anim id=\"6\"}}Tu veux p't'être qu'j'te l'emballe,\naussi ?!{{delay frames=\"20\"}}{{anim id=\"37\"}}"
  },
  {
    "label": "010",
    "text": "{{anim id=\"37\"}}Ben vas-y, tu peux l'embarquer,{{delay frames=\"20\"}}\n{{fun_00070005 arg=\"\"}} !"
  },
  {
    "label": "011",
    "text": "{{anim id=\"38\"}}Cool !{{delay frames=\"20\"}} {{anim id=\"37\"}}Ben voilà, ça t'appartient,\nmaintenant,{{delay frames=\"20\"}} {{fun_00070005 arg=\"\"}} !{{delay frames=\"20\"}} Bon\ndébarras !"
  }
]