﻿[
  {
    "label": "001",
    "text": "{{anim id=\"1\"}}Cool !{{delay frames=\"20\"}} Content de pouvoir te faire\nplaisir !"
  },
  {
    "label": "002",
    "text": "{{anim id=\"1\"}}Cool.{{delay frames=\"20\"}} C'est à toi, maintenant."
  },
  {
    "label": "003",
    "text": "{{anim id=\"32\"}}OK !{{delay frames=\"20\"}} Marché conclu,{{delay frames=\"8\"}} {{fun_00070005 arg=\"\"}}."
  },
  {
    "label": "004",
    "text": "Tu as fait une affaire, {{fun_00080005 arg=\"\"}}."
  },
  {
    "label": "005",
    "text": "{{anim id=\"39\"}}Ça fait déjà un moment que ça\ntraîne ici,{{delay frames=\"20\"}} mais on voit que j'en ai\npris soin."
  },
  {
    "label": "006",
    "text": "C'est un plaisir de faire des affaires\navec toi."
  }
]