﻿[
  {
    "label": "001",
    "text": "{{anim id=\"1\"}}Je crois qu'il est temps de déterrer{{delay frames=\"20\"}}\nma{{color id=\"2\"}} capsule{{color id=\"65535\"}}. Tu veux bien aller la\nrécupérer pour moi, {{fun_00080005 arg=\"\"}} ?"
  },
  {
    "label": "002",
    "text": "{{anim id=\"1\"}}Hé hé hé{{delay frames=\"8\"}}.{{delay frames=\"8\"}}.{{delay frames=\"8\"}}.{{delay frames=\"20\"}} Je crois qu'il est temps\nde déterrer ma {{color id=\"2\"}}capsule{{color id=\"65535\"}}.{{pageBreak}}{{anim id=\"38\"}}Dis, tu voudrais bien aller la\nrécupérer pour moi, {{fun_00080005 arg=\"\"}} ?"
  },
  {
    "label": "003",
    "text": "{{anim id=\"1\"}}Dis,{{delay frames=\"20\"}} tu te souviens de ma {{color id=\"2\"}}capsule {{color id=\"65535\"}}?{{delay frames=\"20\"}}\nEh bien je suis allé la déterrer.{{pageBreak}}{{anim id=\"26\"}}Hé hé hé.{{delay frames=\"20\"}} C'était peut-être un peu\ntôt pour le faire.{{pageBreak}}Mais j'étais vraiment impatient,\n{{delay frames=\"20\"}}{{anim id=\"2\"}}comme devant un gâteau tout juste\nsorti du four, {{fun_00070005 arg=\"\"}} !"
  },
  {
    "label": "004",
    "text": "Salut {{fun_00080005 arg=\"\"}}.{{delay frames=\"20\"}} À propos de ma\n{{color id=\"2\"}}capsule{{color id=\"65535\"}}{{delay frames=\"8\"}}.{{delay frames=\"8\"}}.{{delay frames=\"8\"}}.{{pageBreak}}{{anim id=\"1\"}}Je me baladais dans le coin où elle a\nété enfouie,{{delay frames=\"20\"}} alors je l'ai déterrée.{{pageBreak}}{{anim id=\"26\"}}Je sais que je t'avais demandé de\nt'en occuper,{{delay frames=\"20\"}} alors j'espère que tu\nne m'en voudras pas, {{delay frames=\"8\"}}{{fun_00070005 arg=\"\"}}."
  }
]