﻿[
  {
    "label": "001",
    "text": "{{anim id=\"37\"}}Hum, {{delay frames=\"20\"}}{{fun_00080005 arg=\"\"}}...?{{pageBreak}}{{anim id=\"39\"}}Dis, {{delay frames=\"8\"}}ne va pas te faire des idées{{delay frames=\"8\"}}.{{delay frames=\"8\"}}.{{delay frames=\"8\"}}.\nJ'ai {{fun_0002000E arg=\"\"}}{{fun_00030011 arg=\"0x0000\"}},\nlà, {{delay frames=\"8\"}}et je voudrais bien te l'offrir."
  },
  {
    "label": "002",
    "text": "{{anim id=\"36\"}}Bon, c'est juste un truc que j'ai\nrécupéré en faisant le ménage...{{delay frames=\"20\"}}{{anim id=\"1\"}}\nMais ça a de la valeur, {{fun_00080005 arg=\"\"}} !\n{{anim id=\"36\"}}Et même s'il s'avère que ce n'est\npas le cas, il te suffira de t'en\ndébarrasser à ton tour..."
  },
  {
    "label": "003",
    "text": "{{anim id=\"16\"}}Hé ! {{delay frames=\"20\"}}{{fun_0003000E arg=\"\"}}{{fun_00080005 arg=\"\"}} !{{fun_00010007 arg=\"\"}} {{anim id=\"1\"}}Dis, c'est pas toi\nqui m'as dit que tu cherchais\n{{fun_0002000E arg=\"\"}}{{fun_00030011 arg=\"0x0000\"}} ?{{fun_00050008 arg=\"0x0500150004002800\"}}\nOui, oui, c'est moi !\nNon, du tout."
  },
  {
    "label": "004",
    "text": "{{fun_00000009 arg=\"0x06000700\"}}"
  },
  {
    "label": "005",
    "text": "{{anim id=\"5\"}}Cool !{{delay frames=\"10\"}} Voilà pour toi, alors !{{delay frames=\"10\"}} Ne me\nremercie pas, va,{{delay frames=\"15\"}} c'est normal entre\nami{{fun_0006000E arg=\"0x000002006500\"}}s !{{fun_0000000A arg=\"0x0308000900CD\"}}"
  },
  {
    "label": "006",
    "text": "{{anim id=\"9\"}}Oups, {{delay frames=\"15\"}}je dois confondre avec\nquelqu'un d'autre, alors...? {{delay frames=\"10\"}}Ah oui :\nmon papy, hi hi !{{pageBreak}}{{anim id=\"37\"}}Bon, si je trouve quelque chose\nsusceptible de t'intéresser, je te le\nferai savoir,{{delay frames=\"15\"}} {{fun_00070005 arg=\"\"}} !"
  },
  {
    "label": "007",
    "text": "{{anim id=\"36\"}}Ah ? Erreur d'aiguillage, sans doute.{{fun_00010007 arg=\"\"}} {{anim id=\"37\"}}\nBon, ben, je vais essayer de trouver\nquelqu'un que ça intéresse, alors..."
  },
  {
    "label": "008",
    "text": "{{anim id=\"1\"}}Tu es toujours si sympa avec moi,\n{{fun_00080005 arg=\"\"}} ! {{anim id=\"5\"}}Je suis ravie de\npouvoir te rendre la pareille !"
  },
  {
    "label": "009",
    "text": "{{anim id=\"9\"}}Ça te plaît, vraiment, hein ?{{delay frames=\"30\"}} Tu dis\npas ça pour me faire plaisir ?{{anim id=\"5\"}}\n{{fun_0003000E arg=\"\"}}{{fun_00070005 arg=\"\"}} !"
  },
  {
    "label": "010",
    "text": "{{anim id=\"36\"}}Hé, {{fun_00080005 arg=\"\"}}. {{delay frames=\"8\"}}Tends un peu la\nmain pour voir...{{delay frames=\"30\"}} Et hop,{{delay frames=\"15\"}} cadeau :{{delay frames=\"15\"}}\n{{fun_0002000E arg=\"\"}}{{fun_00030011 arg=\"0x0000\"}} !{{anim id=\"38\"}}"
  },
  {
    "label": "011",
    "text": "{{anim id=\"36\"}}Si c'est pas à ton goût, {{delay frames=\"15\"}}offre-le à\nquelqu'un d'autre.{{delay frames=\"20\"}} {{anim id=\"37\"}}Je serai pas\nvexée, {{delay frames=\"8\"}}promis,{{delay frames=\"15\"}} {{fun_00070005 arg=\"\"}} !"
  }
]