﻿[
  {
    "label": "001",
    "text": "{{anim id=\"1\"}}Dis-moi,{{delay frames=\"10\"}} tu voulais parler de\nquelque chose en particulier ?"
  },
  {
    "label": "002",
    "text": "{{anim id=\"23\"}}Alors, {{delay frames=\"10\"}}je peux faire quelque chose\npour toi ?"
  },
  {
    "label": "003",
    "text": "{{anim id=\"1\"}}Alors, {{delay frames=\"10\"}}que voulais-tu me dire ?"
  }
]