﻿[
  {
    "label": "001",
    "text": "{{anim id=\"5\"}}Tournoi de pêche, me voilà ! J'ai lu\ntout ce qui a été écrit sur le sujet.{{pageBreak}}Alors une chose est sûre : ce n'est\npas par manque de préparation que\nje{{delay frames=\"8\"}}.{{delay frames=\"8\"}}.{{delay frames=\"8\"}}.{{delay frames=\"20\"}}{{anim id=\"2\"}} pécherai, hi hi !"
  },
  {
    "label": "002",
    "text": "{{anim id=\"5\"}}Ah, le tournoi de pêche, enfin ! Ma\npoêle à frire ne va pas chômer, ce\nsoir !"
  },
  {
    "label": "003",
    "text": "{{anim id=\"1\"}}Peu importe que je remporte le\ntournoi de pêche ou non :{{delay frames=\"20\"}} l'essentiel,\nc'est de participer !"
  },
  {
    "label": "004",
    "text": "{{anim id=\"1\"}}C'est un temps idéal pour un tournoi\nde pêche !{{delay frames=\"20\"}} Pas de menu fretin pour\nmoi,{{delay frames=\"8\"}} mais un festin au menu !"
  },
  {
    "label": "005",
    "text": ""
  },
  {
    "label": "006",
    "text": "{{anim id=\"38\"}}Ça y est, le tournoi de pêche a\ncommencé ! {{delay frames=\"20\"}}Tremblez, poissons,\nj'entre en piste !"
  },
  {
    "label": "007",
    "text": "{{anim id=\"1\"}}Nous n'en sommes qu'au début du\ntournoi de pêche,{{delay frames=\"8\"}} mais je sens que\nça va mordre !"
  },
  {
    "label": "008",
    "text": "Je vise le premier prix aujourd'hui.{{delay frames=\"20\"}}\n{{anim id=\"21\"}}La clé du succès, c'est la patience...{{delay frames=\"20\"}}\nRester calme même quand ça mord.\n{{anim id=\"40\"}}Sans être trop prudent pour autant,\nou la proie file avec l'hameçon !{{fun_00010007 arg=\"\"}}{{anim id=\"0\"}} Il\nfaut trouver le juste milieu..."
  },
  {
    "label": "009",
    "text": "{{anim id=\"13\"}}Je ne me suis pas assez entraînée...{{fun_00010007 arg=\"\"}}\n{{anim id=\"27\"}}Ce n'est vraiment pas évident de\ntirer la ligne au bon moment !"
  },
  {
    "label": "010",
    "text": "{{anim id=\"37\"}}Alors, ça mord ? {{fun_00010007 arg=\"\"}}{{anim id=\"26\"}}Moi, vu ce qui sort\nau bout de ma ligne, je suis bonne\npour aller au magasin de recyclage !"
  },
  {
    "label": "011",
    "text": "{{anim id=\"37\"}}J'ai vu quelques grosses bêtes dans\nl'eau aujourd'hui. {{delay frames=\"40\"}}{{anim id=\"36\"}}Je ne suis pas\nprès de me baigner dans le coin !"
  },
  {
    "label": "012",
    "text": "{{anim id=\"1\"}}Quelle belle journée ! Des poissons,\nune canne à pêche... {{delay frames=\"20\"}}Je lance ma\nligne {{delay frames=\"16\"}}et que l'amorce soit avec moi !"
  },
  {
    "label": "013",
    "text": "{{anim id=\"37\"}}Le tournoi de pêche touche à sa\nfin... {{delay frames=\"20\"}}Mais il me reste suffisamment\nde temps pour battre mon record !"
  },
  {
    "label": "014",
    "text": "{{anim id=\"1\"}}J'ai mis au point la technique de\npêche ultime... {{fun_00010007 arg=\"\"}}{{anim id=\"13\"}}Le hic, c'est que je\nn'ai pas l'occasion de l'utiliser !"
  },
  {
    "label": "015",
    "text": "{{anim id=\"23\"}}La pêche a été bonne ?{{fun_00010007 arg=\"\"}} {{anim id=\"37\"}}Moi, sans\nme vanter, je n'ai pas fini de me\nrégaler de poissons !"
  },
  {
    "label": "016",
    "text": ""
  },
  {
    "label": "017",
    "text": "{{anim id=\"1\"}}Le tournoi est terminé. On va\nbientôt connaître le nom du\nvainqueur !"
  },
  {
    "label": "018",
    "text": "{{anim id=\"1\"}}La remise des prix ne va pas tarder.\n{{fun_00010007 arg=\"\"}}Peu importe ma performance, je\nsais que j'ai fait de mon mieux."
  },
  {
    "label": "019",
    "text": "{{anim id=\"1\"}}J'espère que je vais gagner un prix !\n{{fun_00010007 arg=\"\"}}J'ai une passion pour les coupes et\nles trophées !{{anim id=\"4\"}}"
  },
  {
    "label": "020",
    "text": ""
  },
  {
    "label": "021",
    "text": ""
  },
  {
    "label": "022",
    "text": "{{anim id=\"1\"}}Bien joué ! Je savais que tu ferais\nun carton,{{delay frames=\"8\"}} {{fun_00080005 arg=\"\"}}."
  },
  {
    "label": "023",
    "text": "{{anim id=\"38\"}}Félicitations !{{delay frames=\"40\"}} Tu es {{fun_0006000E arg=\"0x040075006E00060075006E006500\"}} virtuose du\nmoulinet !{{delay frames=\"20\"}} Cela dit, je ne suis pas\nétonnée pour deux sous."
  },
  {
    "label": "024",
    "text": "{{anim id=\"5\"}}Bravo !{{fun_00010007 arg=\"\"}}{{anim id=\"1\"}} On devrait fêter ton succès\nautour d'un énorme plat de poissons\nen sauce !{{delay frames=\"8\"}} {{fun_0003000E arg=\"\"}}{{fun_00070005 arg=\"\"}} !"
  },
  {
    "label": "025",
    "text": "{{anim id=\"1\"}}Je n'en espérais pas tant !{{delay frames=\"30\"}}{{anim id=\"37\"}} Toi et\nmoi parmi les trois premiers, c'est\ngénial !{{delay frames=\"30\"}} Vive nous, {{fun_00080005 arg=\"\"}} !"
  },
  {
    "label": "026",
    "text": "{{anim id=\"1\"}}Super !{{delay frames=\"20\"}} Ce trophée fera très bien\ndans ma bibliothèque !{{delay frames=\"8\"}} Juste à côté\nde tous mes livres sur les poissons !"
  },
  {
    "label": "027",
    "text": "{{anim id=\"38\"}}Je ne suis pas peu fière d'avoir\ngagné un trophée. {{delay frames=\"30\"}}{{anim id=\"37\"}}Mais pas question\nde me reposer sur mes lauriers !\n{{anim id=\"37\"}}Je vais m'offrir une mini-piscine que\nje remplirai de faux poissons pour\npouvoir m'entraîner même en hiver !"
  },
  {
    "label": "028",
    "text": "{{anim id=\"37\"}}Ne fais pas cette tête, {{fun_00080005 arg=\"\"}} !\nCe n'est que partie remise,\n{{fun_00070005 arg=\"\"}} !"
  },
  {
    "label": "029",
    "text": "{{anim id=\"5\"}}Vivement le prochain tournoi ! Je\nsuis sûre que le premier prix sera\npour toi,{{delay frames=\"8\"}} {{fun_00080005 arg=\"\"}} !"
  },
  {
    "label": "030",
    "text": "{{anim id=\"1\"}}La pêche peut être très relaxante,\nhors compétition. {{fun_00010007 arg=\"\"}}Mais en tournoi,\nle but n'est pas de se détendre !"
  },
  {
    "label": "031",
    "text": "{{anim id=\"39\"}}Dommage que tu ne sois pas ven{{fun_0006000E arg=\"0x02007500040075006500\"}}\nà la remise des prix,{{delay frames=\"8\"}} {{fun_00080005 arg=\"\"}}.{{pageBreak}}{{anim id=\"21\"}}C'était une cérémonie inoubliable,{{delay frames=\"8\"}}\n{{color id=\"4\"}}Castor{{color id=\"65535\"}} était en très grande forme !"
  },
  {
    "label": "032",
    "text": "{{anim id=\"13\"}}Tu as raté une remise des prix qu'on\nn'oubliera pas de sitôt ! {{delay frames=\"20\"}}Fais en\nsorte d'être là, la prochaine fois !"
  },
  {
    "label": "033",
    "text": "{{anim id=\"1\"}}Ce tournoi de pêche était très\ninstructif. Comment vivent les\npoissons, ce qu'ils mangent...\nEt surtout, comment sécher ses\nchaussettes en vitesse, hi hi !\n{{delay frames=\"20\"}}{{fun_0003000E arg=\"\"}}{{fun_00070005 arg=\"\"}} !"
  },
  {
    "label": "034",
    "text": "{{anim id=\"37\"}}Vivement le prochain tournoi de\npêche ! {{delay frames=\"20\"}}{{anim id=\"1\"}}J'espère que tu nous feras\nà nouveau l'honneur de ta présence !"
  },
  {
    "label": "035",
    "text": ""
  },
  {
    "label": "036",
    "text": ""
  },
  {
    "label": "037",
    "text": ""
  },
  {
    "label": "038",
    "text": ""
  },
  {
    "label": "039",
    "text": ""
  },
  {
    "label": "040",
    "text": "{{anim id=\"9\"}}Quel dommage que la cérémonie de\nremise des prix soit annulée...{{delay frames=\"20\"}} Moi\nqui me faisais une joie d'y aller !"
  },
  {
    "label": "041",
    "text": "{{anim id=\"27\"}}Oh, la cérémonie de remise des prix\na été annulée...{{fun_00010007 arg=\"\"}} {{anim id=\"37\"}}Pourvu que ça ne\ndevienne pas une habitude."
  },
  {
    "label": "042",
    "text": ""
  },
  {
    "label": "043",
    "text": "Grr{{delay frames=\"8\"}}.{{delay frames=\"8\"}}.{{delay frames=\"8\"}}. Ce poisson se paie ma tête !"
  },
  {
    "label": "044",
    "text": "Je sens que je vais remonter un\nmastodonte au bout de ma ligne !{{delay frames=\"20\"}}\nL'heure du triomphe est proche !"
  }
]