﻿[
  {
    "label": "001",
    "text": "{{anim id=\"37\"}}C'est si bon d'être au chaud quand\nil fait froid et sombre dehors !"
  },
  {
    "label": "002",
    "text": "{{anim id=\"37\"}}Rien ne vaut un bon bain bouillant\npour se réchauffer pendant les\nlongues soirées d'hiver..."
  },
  {
    "label": "003",
    "text": "{{anim id=\"37\"}}Les longues soirées d'hiver sont le\nmoment idéal pour se poser les\nquestions essentielles du sage...\n{{anim id=\"1\"}}Bon, en général, je trouve plutôt\nle sommeil que les réponses, mais\nc'est déjà ça, {{fun_00070005 arg=\"\"}} !"
  },
  {
    "label": "004",
    "text": "{{anim id=\"1\"}}Les étoiles brillent d'un éclat\nparticulier en hiver...{{delay frames=\"20\"}} Je pourrais\npasser mes nuits à les contempler !"
  },
  {
    "label": "005",
    "text": "{{anim id=\"37\"}}Il paraît que si on fait un bonhomme\nde neige pendant une nuit de pleine\nlune, il prend vie !\nEt puis quoi encore ? {{delay frames=\"20\"}}Il joue des\ncastagnettes et parle javanais ?{{delay frames=\"20\"}}\nJe vous jure, on aura tout entendu !\n{{anim id=\"36\"}}C'est n'importe quoi, non ?"
  }
]