﻿[
  {
    "label": "001",
    "text": "{{anim id=\"1\"}}Ça m'a fait plaisir de te voir !{{delay frames=\"20\"}}\nRepasse quand tu veux,\n{{fun_00070005 arg=\"\"}} !"
  },
  {
    "label": "002",
    "text": "{{anim id=\"1\"}}J'ai passé un excellent moment !"
  },
  {
    "label": "003",
    "text": "{{anim id=\"1\"}}Ça m'a fait plaisir que tu viennes,\n{{fun_00080005 arg=\"\"}}."
  },
  {
    "label": "004",
    "text": "Hein ?{{delay frames=\"20\"}} Tu t'en vas déjà ?{{delay frames=\"30\"}}{{anim id=\"39\"}} Il y a tant\nde choses dont je voulais qu'on\ndiscute !"
  },
  {
    "label": "005",
    "text": "{{anim id=\"16\"}}Quoi ?{{delay frames=\"20\"}} {{anim id=\"37\"}}Tu ne vas pas me quitter\ncomme ça, {{fun_00080005 arg=\"\"}} ?{{delay frames=\"20\"}} {{anim id=\"1\"}}Reste un\npeu, voyons !"
  },
  {
    "label": "006",
    "text": "{{anim id=\"13\"}}Une minute !{{fun_00010007 arg=\"\"}}{{anim id=\"37\"}} Tu n'as quand même\npas fait tout ce chemin pour \nrepartir aussi vite !"
  }
]