﻿[
  {
    "label": "001",
    "text": "{{anim id=\"16\"}}Oh... Tu n'as rien pour moi, si j'ai\nbien compris ?"
  },
  {
    "label": "002",
    "text": "{{anim id=\"39\"}}Hum, c'est joli, mais je ne voulais\npas quelque chose à suspendre au\nmur,{{delay frames=\"15\"}} {{fun_00070005 arg=\"\"}}."
  },
  {
    "label": "003",
    "text": "{{anim id=\"9\"}}Je suis désolée, je n'ai pas dû être\ntrès claire...{{delay frames=\"20\"}} {{anim id=\"37\"}}Je cherche quelque\nchose de plus petit que ça !{{anim id=\"38\"}}"
  },
  {
    "label": "004",
    "text": "{{anim id=\"37\"}}Je voulais quelque chose d'un peu\nmoins petit{{delay frames=\"8\"}}.{{delay frames=\"8\"}}.{{delay frames=\"8\"}}.{{fun_00010007 arg=\"\"}} {{anim id=\"5\"}}Quelque chose qui ait\nde la présence !"
  },
  {
    "label": "005",
    "text": "{{anim id=\"39\"}}Il a dû y avoir un malentendu, je\nne cherchais pas quelque chose à\nsuspendre au mur..."
  },
  {
    "label": "006",
    "text": "{{anim id=\"13\"}}C'est un peu trop imposant{{delay frames=\"8\"}}.{{delay frames=\"8\"}}.{{delay frames=\"8\"}}.{{delay frames=\"8\"}} {{anim id=\"37\"}}Il me\nfaudrait quelque chose de la taille\nd'{{fun_0002000E arg=\"\"}}{{fun_00030011 arg=\"0x0000\"}}."
  },
  {
    "label": "007",
    "text": "{{anim id=\"13\"}}Non, c'est bien trop petit{{delay frames=\"8\"}}.{{delay frames=\"8\"}}.{{delay frames=\"8\"}}.{{delay frames=\"8\"}} {{anim id=\"37\"}}Il me\nfaudrait quelque chose de la taille\nd'{{fun_0002000E arg=\"\"}}{{fun_00030011 arg=\"0x0000\"}}."
  },
  {
    "label": "008",
    "text": "{{anim id=\"37\"}}Je cherche de quoi remplacer {{fun_0002000E arg=\"\"}}\n{{fun_00030011 arg=\"0x0000\"}}...{{delay frames=\"10\"}} Mais ce\nn'est pas vraiment ça que je veux..."
  },
  {
    "label": "009",
    "text": "{{anim id=\"37\"}}J'ai du mal à imaginer ça sur\n{{fun_0001000E arg=\"\"}}{{fun_00030011 arg=\"0x0000\"}}\nde chez moi..."
  },
  {
    "label": "010",
    "text": "{{anim id=\"37\"}}Euh... Je suis censée remplacer\n{{fun_0002000E arg=\"\"}}{{fun_00030011 arg=\"0x0000\"}} par\nce truc à suspendre au mur ?"
  },
  {
    "label": "011",
    "text": "{{anim id=\"11\"}}Euh... Je voulais juste remplacer\n{{fun_0002000E arg=\"\"}}{{fun_00030011 arg=\"0x0000\"}}... {{delay frames=\"20\"}}Que\nveux-tu que je fasse de ça ?"
  },
  {
    "label": "012",
    "text": "{{anim id=\"37\"}}Je veux remplacer\n{{fun_0001000E arg=\"\"}}{{fun_00030011 arg=\"0x0000\"}}...{{pageBreak}}{{anim id=\"23\"}}Pourquoi m'apportes-tu la même\nchose ?"
  },
  {
    "label": "013",
    "text": "{{anim id=\"37\"}}Désolée...{{delay frames=\"20\"}} Je cherche plutôt quelque\nchose à suspendre au mur..."
  },
  {
    "label": "014",
    "text": "{{anim id=\"37\"}}Je voudrais juste changer\n{{fun_0001000E arg=\"\"}}{{fun_00030011 arg=\"0x0000\"}}...{{delay frames=\"10\"}} {{anim id=\"39\"}}Je\nn'ai pas besoin de la même chose...{{delay frames=\"10\"}}{{anim id=\"38\"}}"
  },
  {
    "label": "015",
    "text": "{{anim id=\"1\"}}Ce qui serait vraiment génial, ce\nserait de recevoir {{delay frames=\"15\"}}quelque chose\nque je n'ai pas déjà..."
  },
  {
    "label": "016",
    "text": ""
  },
  {
    "label": "017",
    "text": ""
  },
  {
    "label": "018",
    "text": "{{anim id=\"1\"}}Oh, comme tu es choupi, toi ! Je\nvais te submerger de câlinous\ntout doux,{{delay frames=\"8\"}} {{fun_00070005 arg=\"\"}} !"
  },
  {
    "label": "019",
    "text": "{{delay frames=\"5\"}}{{anim id=\"15\"}}Ah,{{delay frames=\"10\"}} avant toute chose,{{delay frames=\"10\"}} il faut que\nje lui trouve un coin où l'installer..."
  },
  {
    "label": "020",
    "text": "{{anim id=\"1\"}}{{fun_0012000E arg=\"0x100104004D002E0006004D006D0065000000\"}} {{fun_0003000E arg=\"\"}}{{fun_00030011 arg=\"0x0100\"}}, je\nvous souhaite la bienvenue dans ma\nmaison et dans mon cœur ! Hi hi !"
  },
  {
    "label": "021",
    "text": "{{anim id=\"1\"}}Oh ! {{delay frames=\"10\"}}{{fun_0003000E arg=\"\"}}{{fun_0002000E arg=\"\"}}{{fun_00030011 arg=\"0x0100\"}} !\nC'est exactement ce que je voulais !\nMerci, {{fun_00070005 arg=\"\"}} !"
  },
  {
    "label": "022",
    "text": "{{anim id=\"1\"}}Ah, {{fun_0002000E arg=\"\"}}{{fun_00030011 arg=\"0x0100\"}},\nformidable ! On dira ce qu'on veut,{{delay frames=\"8\"}}\nmais le recyclage,{{delay frames=\"8\"}} ça a du bon."
  },
  {
    "label": "023",
    "text": "{{anim id=\"11\"}}Voyons{{delay frames=\"8\"}}.{{delay frames=\"8\"}}.{{delay frames=\"8\"}}. Je déplace une ou deux\nbricoles ici{{delay frames=\"8\"}}, j'ajuste deux ou trois\nbidules là{{delay frames=\"8\"}}...\n... je change l'armoire de place,{{delay frames=\"8\"}} je\nrecule un chouia le lit{{delay frames=\"8\"}}.{{delay frames=\"8\"}}.{{delay frames=\"8\"}}. {{anim id=\"38\"}}Oui !{{delay frames=\"8\"}} Je sais\nexactement où je vais mettre ça !"
  },
  {
    "label": "024",
    "text": "{{anim id=\"1\"}}J'ai hâte d'être dans mon chez-moi\npour donner à cette merveille la\nplace d'honneur qui lui revient !"
  },
  {
    "label": "025",
    "text": "{{anim id=\"1\"}}On va voir ce que ça donne !"
  },
  {
    "label": "026",
    "text": "{{anim id=\"5\"}}Hé hé ! Mon intérieur se refait une\nbeauté grâce à toi, {{fun_00080005 arg=\"\"}} !"
  },
  {
    "label": "027",
    "text": "{{anim id=\"37\"}}Merci !{{delay frames=\"10\"}} Tiens, accepte {{fun_0008000E arg=\"0x02CD14006D006F006E00200061006E006300690065006E0018006D006F006E00200061006E006300690065006E006E0065000000\"}}\n{{fun_00030011 arg=\"0x0200\"}} en\néchange !"
  },
  {
    "label": "028",
    "text": "{{anim id=\"1\"}}Et merci encore !"
  },
  {
    "label": "029",
    "text": ""
  },
  {
    "label": "030",
    "text": ""
  },
  {
    "label": "031",
    "text": "{{anim id=\"16\"}}Oh, {{fun_0002000E arg=\"\"}}{{fun_00030011 arg=\"0x0100\"}} !\nSuper !"
  },
  {
    "label": "032",
    "text": "{{anim id=\"16\"}}Oh, {{fun_0002000E arg=\"\"}}{{fun_00030011 arg=\"0x0100\"}} !\nSuper ! Et vive la personnalisation !"
  },
  {
    "label": "033",
    "text": "{{anim id=\"1\"}}On n'installe pas une telle merveille\nà la légère...{{delay frames=\"20\"}} Il faut que je lui trouve\nune place qui lui fasse honneur."
  },
  {
    "label": "034",
    "text": "{{anim id=\"1\"}}Oh ! Vivement que je sois chez moi\npour parer mon intérieur de cette\nsplendeur !"
  },
  {
    "label": "035",
    "text": "{{anim id=\"11\"}}Hum... Voyons{{delay frames=\"8\"}}.{{delay frames=\"8\"}}.{{delay frames=\"8\"}}.{{delay frames=\"8\"}} Il s'agit de lui\ntrouver la place qui mettra tout\nmon intérieur en valeur..."
  },
  {
    "label": "036",
    "text": "{{anim id=\"9\"}}Oh là ! Où vais-je installer ça ?\n{{delay frames=\"10\"}}{{anim id=\"37\"}}Bah, j'ai encore le temps d'y\nréfléchir !"
  },
  {
    "label": "037",
    "text": "{{anim id=\"22\"}}Parfait ! Je vois exactement où je\nvais installer ça !"
  },
  {
    "label": "038",
    "text": "{{anim id=\"21\"}}Oh oui ! {{delay frames=\"20\"}}Ça fait son petit effet !{{anim id=\"38\"}}"
  },
  {
    "label": "039",
    "text": "{{anim id=\"18\"}}Oh !{{delay frames=\"10\"}}{{anim id=\"9\"}} Tu comptes vraiment m'offrir\nun cadeau aussi...{{delay frames=\"8\"}} énorme ?{{pageBreak}}{{anim id=\"39\"}}Je...{{delay frames=\"8\"}} Je suis navrée...{{delay frames=\"8\"}} Je sais que je\nt'avais dit que n'importe quoi me\nferait plaisir, mais...\n{{anim id=\"37\"}}Est-ce que tu penses que tu\npourrais me trouver quelque chose\nde moins... imposant, {{fun_00070005 arg=\"\"}} ?"
  },
  {
    "label": "040",
    "text": ""
  },
  {
    "label": "041",
    "text": "{{anim id=\"1\"}}Laisse-moi te récompenser pour\nm'avoir apporté ça !"
  },
  {
    "label": "042",
    "text": "{{anim id=\"1\"}}Merci du coup de main ! Voilà {{fun_0002000E arg=\"\"}}\n{{fun_00030011 arg=\"0x0200\"}}{{delay frames=\"20\"}}{{anim id=\"5\"}} pour te\nprouver ma gratitude !"
  },
  {
    "label": "043",
    "text": ""
  },
  {
    "label": "044",
    "text": ""
  },
  {
    "label": "045",
    "text": "{{delay frames=\"5\"}}{{anim id=\"16\"}}{{delay frames=\"10\"}}{{fun_0003000E arg=\"\"}}{{fun_0002000E arg=\"\"}}{{fun_00030011 arg=\"0x0100\"}} !{{delay frames=\"20\"}}\nTu as des idées de génie !{{pageBreak}}{{anim id=\"1\"}}Ce gyroïde et moi, on est faits pour\ns'entendre !"
  },
  {
    "label": "046",
    "text": "{{delay frames=\"5\"}}{{anim id=\"16\"}}{{delay frames=\"10\"}}{{fun_0003000E arg=\"\"}}{{fun_0002000E arg=\"\"}}{{fun_00030011 arg=\"0x0100\"}} !\nDe quoi ajouter cette petite touche\nchic qui manquait à mon intérieur !"
  },
  {
    "label": "047",
    "text": "{{anim id=\"5\"}}Oh, youpi !\n{{fun_0003000E arg=\"\"}}{{fun_0002000E arg=\"\"}}{{fun_00030011 arg=\"0x0100\"}} !\nComment as-tu deviné ?\n{{anim id=\"1\"}}J'avais justement l'intention de\nreprendre mes observations\nentomologiques !"
  },
  {
    "label": "048",
    "text": "{{anim id=\"5\"}}{{fun_0003000E arg=\"\"}}{{fun_0002000E arg=\"\"}}{{fun_00030011 arg=\"0x0100\"}} !{{pageBreak}}{{anim id=\"1\"}}Moi qui suis justement plongée dans\nun livre sur l'élevage des poissons,\nje nage dans le bonheur !"
  },
  {
    "label": "049",
    "text": "{{anim id=\"5\"}}{{fun_0003000E arg=\"\"}}{{fun_0002000E arg=\"\"}}{{fun_00030011 arg=\"0x0100\"}} ! Tu\nes {{fun_0006000E arg=\"0x1A0075006E00200061006D00690020006700E9006E00690061006C00200075006E006500200061006D006900650020006700E9006E00690061006C006500\"}} !{{pageBreak}}{{fun_0008000E arg=\"0x01CD040049006C00080045006C006C0065000000\"}} apportera un peu d'air marin\ndans ma chambre !"
  },
  {
    "label": "050",
    "text": "{{anim id=\"21\"}}Laisse-moi te débarrasser..."
  },
  {
    "label": "051",
    "text": "{{anim id=\"11\"}}Voyons... Où vais-je installer cette\nadorable bébête{{delay frames=\"8\"}}.{{delay frames=\"8\"}}.{{delay frames=\"8\"}}.?{{fun_00010007 arg=\"\"}}{{anim id=\"22\"}} Oh, mais bien\nsûr !{{delay frames=\"8\"}} Par ici, choupinou d'amour !"
  },
  {
    "label": "052",
    "text": "{{anim id=\"1\"}}{{fun_0012000E arg=\"0x100104004D002E0006004D006D0065000000\"}} {{fun_0003000E arg=\"\"}}{{fun_00030011 arg=\"0x0100\"}} a\nl'air de prendre rapidement ses\nmarques ! Hé hé !"
  },
  {
    "label": "053",
    "text": "{{anim id=\"39\"}}Moi aussi, j'aimerais mettre un\nsourire sur ton visage, {{fun_00080005 arg=\"\"}}...{{pageBreak}}{{anim id=\"1\"}}S'il te plaît, accepte {{fun_0008000E arg=\"0x02CD0E006300650020006A006F006C00690016006300650074007400650020006A006F006C00690065000000\"}}\n{{fun_00030011 arg=\"0x0200\"}} en guise\nde remerciement !"
  },
  {
    "label": "054",
    "text": "{{anim id=\"1\"}}Merci encore pour ton aide. {{fun_00010007 arg=\"\"}}\n{{delay frames=\"8\"}}{{anim id=\"32\"}}Je ne sais pas ce que j'aurais fait\nsans toi !"
  },
  {
    "label": "055",
    "text": "{{anim id=\"1\"}}Merci, mais tu n'auras pas affaire\nà une ingrate ! {{delay frames=\"20\"}}Laisse-moi t'offrir\n{{fun_0002000E arg=\"\"}}{{fun_00030011 arg=\"0x0200\"}} !"
  },
  {
    "label": "056",
    "text": "{{anim id=\"39\"}}C'est pour te remercier...{{delay frames=\"10\"}} {{anim id=\"1\"}}En\nespérant que tu m'aides encore\nà l'avenir !"
  },
  {
    "label": "057",
    "text": "{{anim id=\"5\"}}Formidable !{{delay frames=\"20\"}} Maintenant, il faut que\nje trouve un endroit où mettre {{fun_0008000E arg=\"0x01CD06006D006F006E0004006D0061000000\"}}\nnouve{{fun_0008000E arg=\"0x01CD04006100750006006C006C0065000000\"}} {{fun_00030011 arg=\"0x0100\"}}..."
  },
  {
    "label": "058",
    "text": "{{anim id=\"37\"}}Tiens, {{fun_00080005 arg=\"\"}}, accepte\n{{fun_0002000E arg=\"\"}}{{fun_00030011 arg=\"0x0200\"}} pour\nte remercier de ton aide précieuse !"
  },
  {
    "label": "059",
    "text": "{{anim id=\"21\"}}On ne dispose pas un si charmant\nobjet n'importe où...{{delay frames=\"20\"}} Voyons, il faut\nque je trouve l'endroit idéal..."
  }
]