﻿[
  {
    "label": "001",
    "text": "{{anim id=\"16\"}}Quoi ?{{delay frames=\"10\"}} Il y a erreur :{{delay frames=\"10\"}} j'ai déjà signé\nça."
  },
  {
    "label": "002",
    "text": "{{anim id=\"16\"}}Tu es dans la lune, ou quoi ?{{delay frames=\"10\"}}\nJ'ai déjà signé ça !"
  },
  {
    "label": "003",
    "text": "{{anim id=\"16\"}}Un instant !{{delay frames=\"10\"}} J'ai déjà signé cette\npétition, voyons, {{fun_00070005 arg=\"\"}} !"
  },
  {
    "label": "004",
    "text": "{{anim id=\"23\"}}Huh? {{delay frames=\"20\"}}A petition? Let me see.\n{{fun_00010012 arg=\"\"}}?{{pageBreak}}{{anim id=\"9\"}}{{delay frames=\"8\"}}.{{delay frames=\"8\"}}.{{delay frames=\"8\"}}.{{delay frames=\"8\"}}Hmm.{{delay frames=\"20\"}} I don't think{{delay frames=\"10\"}} this {{delay frames=\"10\"}}is for\nme.{{fun_00010007 arg=\"\"}} {{anim id=\"39\"}}My apologies, {{delay frames=\"10\"}}but I have to\ndecline for now."
  },
  {
    "label": "005",
    "text": "{{anim id=\"16\"}}What's this?{{delay frames=\"20\"}} You're collecting\nsignatures for a petition?{{delay frames=\"20\"}}\n{{fun_00010012 arg=\"\"}}?\n{{anim id=\"11\"}}It's nothing personal, but I can't\nsupport this.{{delay frames=\"20\"}} {{anim id=\"37\"}}Thanks for thinking of\nme, though."
  },
  {
    "label": "006",
    "text": "What's this you want me to sign?{{delay frames=\"20\"}}\n{{fun_00010012 arg=\"\"}}, huh?{{pageBreak}}{{delay frames=\"8\"}}.{{delay frames=\"8\"}}.{{delay frames=\"8\"}}.{{delay frames=\"8\"}}Well, {{delay frames=\"10\"}}I never sign anything without{{delay frames=\"10\"}}\nreally looking into {{delay frames=\"5\"}}the issues.{{pageBreak}}So I can't really help you right now.{{delay frames=\"10\"}}\nI'm really sorry."
  },
  {
    "label": "007",
    "text": "{{anim id=\"16\"}}C'est quoi, cette pétition ?{{delay frames=\"10\"}}\n« {{fun_00010012 arg=\"\"}} » ?{{fun_00010007 arg=\"\"}}{{anim id=\"5\"}}\nGénial !{{delay frames=\"10\"}} Où est-ce qu'on signe ?"
  },
  {
    "label": "008",
    "text": "{{anim id=\"16\"}}Tiens, une pétition... {{delay frames=\"10\"}}Et quelle est\nla cause que tu défends ?{{delay frames=\"10\"}}\n{{anim id=\"37\"}}« {{fun_00010012 arg=\"\"}} » ?\n{{anim id=\"5\"}}Super !{{delay frames=\"10\"}} C'est avec plaisir que\nje vais ajouter mon nom !"
  },
  {
    "label": "009",
    "text": "{{anim id=\"16\"}}Tu as besoin de signatures ?{{delay frames=\"10\"}} Et on\npeut savoir pour quelle pétition ?{{delay frames=\"10\"}}\n« {{fun_00010012 arg=\"\"}} » ?\n{{anim id=\"1\"}}Génial !{{delay frames=\"10\"}} Un stylo ! Qu'on me donne\nun stylo illico presto !"
  },
  {
    "label": "010",
    "text": "{{anim id=\"37\"}}Et voilà !{{pageBreak}}{{anim id=\"0\"}}Cette cause doit te remuer...{{delay frames=\"10\"}} Faire\ntout ce chemin pour quelques\nsignatures...\n{{anim id=\"1\"}}Mais c'est important d'avoir des\nconvictions !{{delay frames=\"10\"}} Continue comme ça !"
  },
  {
    "label": "011",
    "text": "{{anim id=\"37\"}}Et voilà !{{fun_00010007 arg=\"\"}}{{anim id=\"0\"}} Merci d'avoir fait ce long\nvoyage pour me permettre de\nm'associer à ta cause !\n{{anim id=\"1\"}}J'espère que cette pétition se\nnoircira d'un tas de signatures en\nun rien de temps, {{fun_00070005 arg=\"\"}} !"
  },
  {
    "label": "012",
    "text": "{{anim id=\"37\"}}Voilà, c'est signé ! {{delay frames=\"20\"}}{{anim id=\"0\"}}Tu as raison de\nt'investir autant dans cette cause.{{delay frames=\"10\"}}{{pageBreak}}Un si long voyage pour une poignée\nde signatures ! {{delay frames=\"10\"}}Ce n'est plus du zèle,\nc'est du militantisme frénétique !\n{{anim id=\"1\"}}Mais tu as tout mon soutien : le jeu\nen vaut vraiment la chandelle !{{delay frames=\"10\"}}\nBonne chance pour la suite !"
  },
  {
    "label": "013",
    "text": "{{anim id=\"5\"}}Et voilà, tu as rempli toute la\nfeuille !{{delay frames=\"10\"}} Félicitations !{{pageBreak}}{{anim id=\"1\"}}Tu dois être drôlement fi{{fun_0006000E arg=\"0x0400650072000600E80072006500\"}}, non ?{{delay frames=\"10\"}}\n{{fun_0003000E arg=\"\"}}{{fun_00070005 arg=\"\"}} !"
  },
  {
    "label": "014",
    "text": "{{anim id=\"37\"}}Voilà ! Tu as demandé, j'ai regardé,\nj'ai signé !{{delay frames=\"10\"}} Et on dirait bien que tu\nas terminé ta collecte !\n{{anim id=\"38\"}}Ces signatures en poche, tu peux\nretourner chez toi la tête haute !"
  },
  {
    "label": "015",
    "text": "{{anim id=\"37\"}}C'est bon ?{{fun_00010007 arg=\"\"}} {{anim id=\"5\"}}Eh, tu as recueilli toutes\ntes signatures, non ?{{delay frames=\"10\"}} Formidable !{{pageBreak}}{{anim id=\"1\"}}Tu n'as plus qu'à les ramener à la\npersonne qui t'a confié cette feuille.{{delay frames=\"10\"}}\nRentre bien !"
  }
]