﻿[
  {
    "label": "001",
    "text": "{{anim id=\"27\"}}Il n'y a rien du tout, ici !{{delay frames=\"10\"}} Moi qui\nvoulais du vintage, de l'usé avec\nélégance, du rétro raffiné..."
  },
  {
    "label": "002",
    "text": "{{anim id=\"23\"}}Plus rien du tout ? {{delay frames=\"10\"}}J'ai raté les\nsoldes du siècle ou quoi ?"
  },
  {
    "label": "003",
    "text": "{{anim id=\"37\"}}Oh, plus un article dans toute la\nboutique ! {{delay frames=\"10\"}}Un milliardaire fana\nd'objets recyclés est passé par là ?"
  },
  {
    "label": "004",
    "text": "{{anim id=\"23\"}}Plus qu'un article ?{{fun_00010007 arg=\"\"}}{{anim id=\"37\"}} Je te le laisse si\ntu veux, {{fun_00080005 arg=\"\"}} :{{delay frames=\"10\"}} j'ai le même à\nla maison."
  },
  {
    "label": "005",
    "text": "Oh, le dernier article en rayon... {{delay frames=\"20\"}}{{anim id=\"1\"}}Il\ndoit se sentir si seul, j'ai bien envie\nde l'acheter."
  },
  {
    "label": "006",
    "text": "{{anim id=\"13\"}}Le dernier article !{{delay frames=\"10\"}} La pénurie est à\nnos portes !{{delay frames=\"10\"}} Vite, où j'ai mis mes\nclochettes ?{{delay frames=\"10\"}} Il faut que je l'achète !\n{{anim id=\"39\"}}{{delay frames=\"8\"}}.{{delay frames=\"8\"}}.{{delay frames=\"8\"}}.{{delay frames=\"20\"}} À moins que ça soit une tactique\naussi fourbe que commerciale pour\nme faire ouvrir le porte-monnaie ?"
  },
  {
    "label": "007",
    "text": "{{anim id=\"37\"}}Ça serait pas du luxe de renflouer\nles stocks, qu'est-ce que t'en\npenses ?"
  },
  {
    "label": "008",
    "text": "{{anim id=\"1\"}}Je suis à la chasse aux bonnes\naffaires, aucune occasion n'échappe\nà ma sagacité commerciale !"
  },
  {
    "label": "009",
    "text": "{{anim id=\"37\"}}Un jour, j'ai trouvé une superbe\nlanterne ici. {{delay frames=\"10\"}}Ça a illuminé ma\njournée, sans mauvais jeu de mots."
  },
  {
    "label": "010",
    "text": "{{anim id=\"11\"}}{{delay frames=\"40\"}}Il y a tellement d'articles...\n{{anim id=\"37\"}}Je n'arriverai jamais à me décider !"
  },
  {
    "label": "011",
    "text": "{{anim id=\"37\"}}On n'a que l'embarras du choix ici !"
  },
  {
    "label": "012",
    "text": "{{anim id=\"37\"}}Je ne sais pas quoi prendre. {{delay frames=\"10\"}}Voilà ce\nque c'est de faire les boutiques sans\nune idée précise de ce qu'on veut !"
  },
  {
    "label": "013",
    "text": "{{anim id=\"37\"}}Tu es là pour acheter ou vendre ?{{delay frames=\"10\"}}\nDans les deux cas, je te souhaite\nbonne chance !"
  },
  {
    "label": "014",
    "text": "{{anim id=\"37\"}}Tout ce dont je n'ai plus besoin, je\nl'apporte ici.{{delay frames=\"10\"}} Comme ça, mes objets\nconnaissent une deuxième vie !"
  },
  {
    "label": "015",
    "text": "{{anim id=\"37\"}}Tu viens vendre quelque chose ?{{delay frames=\"10\"}}\nTiens, au fait, {{fun_0001000E arg=\"\"}}{{fun_000F0005 arg=\"0x0000\"}}\nque j'ai en trop, si je l{{fun_0008000E arg=\"0x00CD02006500020061000000\"}} vendais ici ?"
  },
  {
    "label": "016",
    "text": "{{anim id=\"37\"}}C'est rassurant de penser que nos\nvieux objets seront réutilisés par\nquelqu'un d'autre."
  },
  {
    "label": "017",
    "text": "{{anim id=\"1\"}}Hé hé, j'ai fait une sacrée affaire\naujourd'hui !"
  },
  {
    "label": "018",
    "text": "{{anim id=\"37\"}}Si je m'écoutais, j'achèterais plein\nde choses.{{delay frames=\"10\"}} Mais je vais plutôt\nécouter mon porte-monnaie."
  },
  {
    "label": "019",
    "text": "{{anim id=\"37\"}}Tu as repéré un truc ?{{delay frames=\"10\"}} Prends ton\ntemps :{{delay frames=\"10\"}} rien ne sert de flamber, il\nfaut dépenser intelligemment."
  },
  {
    "label": "020",
    "text": "{{anim id=\"1\"}}Je vais mettre des clochettes de\ncôté pour ne pas rater la prochaine\nbonne affaire !"
  },
  {
    "label": "021",
    "text": "{{anim id=\"1\"}}Oh, {{fun_0002000E arg=\"\"}}{{fun_00030011 arg=\"0x0000\"}}...{{delay frames=\"10\"}}\nC'est à toi ?{{delay frames=\"10\"}} {{fun_0008000E arg=\"0x00CD040049006C00080045006C006C0065000000\"}} m'a tapé dans\nl'œil, je te l'achèterais bien !{{fun_0005000F arg=\"0x00000000\"}}\nVendu !\nBas les pattes !"
  },
  {
    "label": "022",
    "text": "{{anim id=\"37\"}}{{fun_0003000E arg=\"\"}}{{fun_0001000E arg=\"\"}}{{fun_00030011 arg=\"0x0000\"}} que\nvoilà est à toi ?{{fun_00010007 arg=\"\"}} {{fun_0008000E arg=\"0x00CD040049006C00080045006C006C0065000000\"}} ferait très bien\nchez moi{{delay frames=\"8\"}}.{{delay frames=\"8\"}}.{{delay frames=\"8\"}}.{{delay frames=\"20\"}} Tu me l{{fun_0008000E arg=\"0x00CD02006500020061000000\"}} vends ?{{fun_0005000F arg=\"0x00000000\"}}\nBien sûr !\nPas question."
  },
  {
    "label": "023",
    "text": "{{anim id=\"37\"}}Oh, je n'arrive pas à quitter {{fun_0008000E arg=\"0x00CD0400630065000A00630065007400740065000000\"}}\njoli{{fun_0008000E arg=\"0x00CD0000020065000000\"}} {{fun_00030011 arg=\"0x0000\"}}\ndes yeux{{delay frames=\"10\"}}.{{delay frames=\"10\"}}.{{delay frames=\"10\"}}.{{delay frames=\"10\"}} Allez, j'achète !{{fun_0005000F arg=\"0x00000000\"}}\nMarché conclu !\nNon, tu n'achètes pas."
  },
  {
    "label": "024",
    "text": "{{anim id=\"13\"}}Oh, c'est bien ma veine... {{delay frames=\"10\"}}On dirait\nque cette merveille a déjà trouvé\nacquéreur..."
  },
  {
    "label": "025",
    "text": "{{anim id=\"1\"}}Allez, j'achète !"
  },
  {
    "label": "026",
    "text": "{{anim id=\"1\"}}C'est entre de bonnes mains, je vais\nl'aimer autant que tu l'aimais !"
  },
  {
    "label": "027",
    "text": "{{anim id=\"37\"}}Excuse-moi, j'aimerais acheter ça.{{fun_0009000C arg=\"\"}}"
  },
  {
    "label": "028",
    "text": "{{fun_0001000C arg=\"\"}}{{fun_0004000C arg=\"\"}}{{delay frames=\"20\"}}{{anim id=\"16\"}}Oh, suis-je bête ! {{delay frames=\"10\"}}Tu es là, je peux\nte donner les clochettes\ndirectement !"
  },
  {
    "label": "029",
    "text": "Je me tâte pour t'acheter\n{{fun_0001000E arg=\"\"}}{{fun_00030011 arg=\"0x0000\"}}...{{pageBreak}}{{fun_0008000E arg=\"0x00CD040049006C00080045006C006C0065000000\"}} est pas mal mais un peu ch{{fun_0006000E arg=\"0x0400650072000600E80072006500\"}}.\nJe ne voudrais pas me faire sonner\nles clochettes par mon banquier !{{fun_0005000F arg=\"0x00000000\"}}\nOn ne vit qu'une fois !\nÉconomise un peu..."
  },
  {
    "label": "030",
    "text": "{{anim id=\"9\"}}{{fun_0003000E arg=\"\"}}{{fun_0001000E arg=\"\"}}{{fun_00030011 arg=\"0x0000\"}} me\nfait de l'œil depuis un moment, mais\n{{fun_0008000E arg=\"0x00CD040069006C00080065006C006C0065000000\"}} viderait mon porte-monnaie !\nArgh, si seulement j'avais plus de\nclochettes sur moi !{{delay frames=\"10\"}} Si je l'achète,\nje ne pourrai pas aller à l'épicerie...{{fun_0005000F arg=\"0x00000000\"}}\nManger, c'est surfait.\nCe n'est pas raisonnable."
  },
  {
    "label": "031",
    "text": "{{anim id=\"37\"}}Dommage que ça coûte si cher...{{delay frames=\"20\"}}{{anim id=\"11\"}} Et\nsi je craquais quand même ?{{fun_0005000F arg=\"0x00000000\"}}\nFonce !\nRéfléchis encore."
  },
  {
    "label": "032",
    "text": "{{anim id=\"1\"}}Tu es la voix de la sagesse.{{delay frames=\"10\"}} Si j'en\nai vraiment envie, je pourrai\ntoujours l'acheter plus tard."
  },
  {
    "label": "033",
    "text": "{{anim id=\"11\"}}Ah, c'est vraiment tentant... {{delay frames=\"10\"}}Mais je\nne peux pas me permettre ce genre\nde folies..."
  },
  {
    "label": "034",
    "text": "{{anim id=\"40\"}}Je ne peux pas dépenser autant sans\nêtre sûre de mon achat, désolée."
  },
  {
    "label": "035",
    "text": "{{anim id=\"26\"}}C-C'est trop ! {{delay frames=\"10\"}}Je n'ai pas les\nmoyens..."
  },
  {
    "label": "036",
    "text": "{{anim id=\"37\"}}Tu as raison, il faut savoir se faire\nplaisir parfois."
  },
  {
    "label": "037",
    "text": "{{anim id=\"11\"}}Ce n'est pas donné, mais...{{delay frames=\"10\"}} Soit,\nj'achète."
  },
  {
    "label": "038",
    "text": "{{anim id=\"37\"}}Ce n'est pas faux... {{delay frames=\"10\"}}Je dois avouer\nque je le regretterais si je ne\ncraquais pas.\n{{anim id=\"38\"}}Allez, au diable l'avarice !\nJe prends !"
  },
  {
    "label": "039",
    "text": "{{anim id=\"16\"}}Waouh !{{delay frames=\"10\"}} Je m'attendais à beaucoup\nplus cher !{{delay frames=\"10\"}} Tu es sûr{{fun_0006000E arg=\"0x000002006500\"}} de ton prix ?{{delay frames=\"10\"}}\nJe vais avoir du mal à résister...{{fun_0005000F arg=\"0x00000000\"}}\nNe résiste pas.\nTu devrais y réfléchir."
  },
  {
    "label": "040",
    "text": "{{anim id=\"15\"}}Sans blague ?{{delay frames=\"10\"}} O-OK...{{fun_00010007 arg=\"\"}}{{anim id=\"37\"}} Excuse-moi,\nça avait l'air trop beau pour être\nvrai !"
  },
  {
    "label": "041",
    "text": "{{anim id=\"36\"}}Oh...{{delay frames=\"10\"}} C'est vrai.{{delay frames=\"10\"}} En plus, j'ai déjà\nplus ou moins la même chose chez\nmoi."
  },
  {
    "label": "042",
    "text": "{{anim id=\"1\"}}Banco !{{delay frames=\"10\"}} Ce serait un crime de\npasser à côté d'une telle occasion !\n{{delay frames=\"10\"}}Un crime de lèse-marché, hi hi !"
  },
  {
    "label": "043",
    "text": "{{anim id=\"15\"}}Q-Quoi ? {{delay frames=\"10\"}}Tu plaisantes, j'espère ?{{delay frames=\"10\"}}\nUn{{fun_0008000E arg=\"0x00CD0000020065000000\"}} simple {{fun_00030011 arg=\"0x0000\"}}\nà ce prix-là ?"
  },
  {
    "label": "044",
    "text": "{{anim id=\"15\"}}{{fun_0003000E arg=\"\"}}{{fun_0001000E arg=\"\"}}{{fun_00030011 arg=\"0x0000\"}}, là ?{{delay frames=\"10\"}}\n{{fun_000C0004 arg=\"0x0000\"}} clochettes ?{{pageBreak}}J'imagine que neuf, ça coûte le\ndouble, mais ça reste au-dessus de\nmes moyens, désolée."
  },
  {
    "label": "045",
    "text": "{{anim id=\"1\"}}{{fun_0003000E arg=\"\"}}{{fun_0001000E arg=\"\"}}{{fun_00030011 arg=\"0x0000\"}} est\npas mal...{{delay frames=\"10\"}} Ça fait longtemps que\nj'en cherche un{{fun_0008000E arg=\"0x00CD0000020065000000\"}} comme ça.{{fun_0005000F arg=\"0x00000000\"}}\nFais-toi plaisir !\nLaisse tomber."
  },
  {
    "label": "046",
    "text": "{{anim id=\"15\"}}Tu crois ?{{delay frames=\"10\"}} OK, je vais suivre ton\nconseil."
  },
  {
    "label": "047",
    "text": "{{anim id=\"1\"}}Toi aussi, tu penses qu'une telle\naffaire ne se représentera pas de\nsitôt ?{{delay frames=\"10\"}} Dans ce cas, j'achète !"
  },
  {
    "label": "048",
    "text": "{{anim id=\"5\"}}Ce prix défie toute concurrence !{{delay frames=\"10\"}} Je\nferais mieux d'acheter avant que ça\nme passe sous le nez !{{fun_0005000F arg=\"0x00000000\"}}\nJe t'en prie.\nÀ ta place, je..."
  },
  {
    "label": "049",
    "text": "{{anim id=\"23\"}}Ah oui ?{{delay frames=\"10\"}} Hum, tu as peut-être\nraison.{{delay frames=\"10\"}} Je vais chercher mon\nbonheur ailleurs dans ce cas."
  },
  {
    "label": "050",
    "text": "{{anim id=\"11\"}}Hmmm... {{delay frames=\"30\"}}Finalement,{{delay frames=\"10\"}} je me suis\npeut-être laissé aveugler par ce prix\nsi alléchant.\n{{anim id=\"21\"}}Je n'en ai pas vraiment besoin.\nJe passe."
  },
  {
    "label": "051",
    "text": "{{anim id=\"38\"}}Ça marche !{{delay frames=\"10\"}} Il faudrait être fou\npour laisser passer une telle\naffaire !"
  },
  {
    "label": "052",
    "text": "{{fun_0001000C arg=\"\"}}{{fun_0004000C arg=\"\"}}{{delay frames=\"20\"}}{{anim id=\"1\"}}Waouh !{{delay frames=\"10\"}} Je n'aurais jamais osé\nespérer en trouver à ce prix !{{delay frames=\"10\"}} Voilà\nce que j'appelle une affaire en or !"
  },
  {
    "label": "053",
    "text": "{{fun_0001000C arg=\"\"}}{{fun_0004000C arg=\"\"}}{{delay frames=\"20\"}}{{anim id=\"1\"}}Eh bien, je n'ai pas perdu ma\njournée !{{delay frames=\"10\"}} Je reviendrai bientôt pour\nd'autres affaires aussi juteuses !"
  },
  {
    "label": "054",
    "text": "{{fun_0001000C arg=\"\"}}{{fun_0004000C arg=\"\"}}{{delay frames=\"20\"}}{{anim id=\"1\"}}Ça, pour une affaire, c'est une\nbonne affaire !{{delay frames=\"10\"}} Et c'est grâce à toi !"
  },
  {
    "label": "055",
    "text": "{{fun_0001000C arg=\"\"}}{{fun_0004000C arg=\"\"}}{{delay frames=\"20\"}}{{anim id=\"1\"}}Les boutiques d'occasion recèlent\ndes pépites pour qui sait chiner\nmalin !"
  },
  {
    "label": "056",
    "text": "{{fun_0001000C arg=\"\"}}{{fun_0004000C arg=\"\"}}{{delay frames=\"20\"}}{{anim id=\"5\"}}Poches pleines, porte-monnaie vide,\nsourire aux lèvres :{{delay frames=\"10\"}} bref, c'est une\nséance de shopping réussie !"
  },
  {
    "label": "057",
    "text": "{{fun_0001000C arg=\"\"}}{{fun_0004000C arg=\"\"}}{{anim id=\"1\"}}Vivement que je sois à la maison\npour essayer cette petite merveille !"
  },
  {
    "label": "058",
    "text": "{{fun_0001000C arg=\"\"}}{{fun_0004000C arg=\"\"}}{{delay frames=\"20\"}}{{anim id=\"1\"}}Bon, j'ai craqué pour cette fois,\nmais il ne faut pas que ça devienne\nune habitude..."
  },
  {
    "label": "059",
    "text": "{{fun_0001000C arg=\"\"}}{{fun_0004000C arg=\"\"}}{{delay frames=\"20\"}}{{anim id=\"1\"}}Ça m'a coûté une fortune, mais je\nne regrette pas !"
  },
  {
    "label": "060",
    "text": "{{fun_0001000C arg=\"\"}}{{fun_0004000C arg=\"\"}}{{delay frames=\"20\"}}{{anim id=\"1\"}}Je sens que j'ai fait le bon choix !{{delay frames=\"10\"}}\nVoilà un achat judicieux !"
  }
]