﻿[
  {
    "label": "001",
    "text": "{{anim id=\"37\"}}Je suis ravie de faire ta\nconnaissance.{{delay frames=\"8\"}} Je m'appelle \n{{fun_00010011 arg=\"0x0000\"}} !"
  },
  {
    "label": "002",
    "text": "{{anim id=\"39\"}}Hem{{delay frames=\"8\"}}.{{delay frames=\"8\"}}.{{delay frames=\"8\"}}.{{delay frames=\"8\"}} je peux faire quelque chose\npour toi,{{delay frames=\"8\"}} {{fun_00070005 arg=\"\"}} ?"
  },
  {
    "label": "003",
    "text": "{{anim id=\"39\"}}Euh{{delay frames=\"8\"}}.{{delay frames=\"8\"}}.{{delay frames=\"8\"}}.{{delay frames=\"16\"}} j'ai fait quelque chose qu'il\nne fallait pas ?"
  },
  {
    "label": "004",
    "text": "{{anim id=\"1\"}}J'ai trop envie qu'on soit les\nmeilleur{{fun_0006000E arg=\"0x02007300040065007300\"}} ami{{fun_0006000E arg=\"0x02007300040065007300\"}} du monde,\n{{delay frames=\"8\"}}{{fun_00070005 arg=\"\"}} !"
  },
  {
    "label": "005",
    "text": "{{anim id=\"1\"}}Si j'étais pas venue ici, on se serait\njamais rencontré{{fun_0006000E arg=\"0x02007300040065007300\"}}.{{anim id=\"20\"}} Rien que d'y\npenser,{{delay frames=\"16\"}} j'en ai la chair de poule !"
  }
]