﻿[
  {
    "label": "001",
    "text": "{{anim id=\"1\"}}Tu veux me parler ? Encore ?\nHoulà,{{delay frames=\"5\"}} {{fun_00070005 arg=\"\"}} !"
  },
  {
    "label": "002",
    "text": "T'as encore envie de papoter,\n{{fun_00080005 arg=\"\"}} ? {{delay frames=\"15\"}}{{anim id=\"21\"}}Je suis toujours\npartante, {{fun_00070005 arg=\"\"}} !"
  },
  {
    "label": "003",
    "text": "Oh là là, la pipelette !{{delay frames=\"20\"}} Hi hi, c'est\npas moi qui te lancerai le premier\nboulet, comme on dit !\n{{anim id=\"32\"}}Vive les pipelettes !"
  },
  {
    "label": "004",
    "text": "{{anim id=\"23\"}}{{fun_0003000E arg=\"\"}}{{fun_00080005 arg=\"\"}} ? Je le crois pas !{{delay frames=\"30\"}}\n{{anim id=\"1\"}}T'es trop trop chou de me parler\naussi souvent,{{delay frames=\"10\"}} {{fun_00070005 arg=\"\"}} !"
  }
]