﻿[
  {
    "label": "001",
    "text": "Je suis née un {{fun_000F0004 arg=\"0x00CD\"}} {{fun_000E0004 arg=\"0x00CD\"}} !\n{{anim id=\"5\"}}C'est mon jour de l'année préféré !"
  },
  {
    "label": "002",
    "text": "{{anim id=\"1\"}}Mon anniversaire tombe le\n{{fun_000F0004 arg=\"0x00CD\"}} {{fun_000E0004 arg=\"0x00CD\"}} !{{delay frames=\"20\"}} {{fun_0003000E arg=\"\"}}{{fun_00070005 arg=\"\"}} !"
  },
  {
    "label": "003",
    "text": ""
  },
  {
    "label": "004",
    "text": "{{anim id=\"39\"}}Psst, écoute, ma croûte{{delay frames=\"8\"}}.{{delay frames=\"8\"}}.{{delay frames=\"8\"}}."
  },
  {
    "label": "005",
    "text": "{{anim id=\"1\"}}Il paraît que je saoule tout le\nmonde à dire ça !{{delay frames=\"20\"}} Tu confirmes ?!"
  },
  {
    "label": "006",
    "text": "{{anim id=\"38\"}}Oh tiens, comme m'a dit un jour une\nnoctambule qui avait trop dansé... "
  },
  {
    "label": "007",
    "text": "{{anim id=\"1\"}}C'est délire, non ?{{delay frames=\"20\"}} C'est devenu ma\npetite marque de fabrique...\n{{anim id=\"42\"}}100 % {{fun_00010005 arg=\"\"}} !"
  },
  {
    "label": "008",
    "text": ""
  },
  {
    "label": "009",
    "text": ""
  },
  {
    "label": "010",
    "text": "{{anim id=\"1\"}}Alors, quand il s'agit\n{{fun_000A000E arg=\"0x0600640065002000040064002700\"}}{{fun_00180012 arg=\"0x00CD\"}}, je suis\nhypermégadouée !!!\n{{anim id=\"5\"}}Je peux te donner des cours, si tu\nveux !"
  },
  {
    "label": "011",
    "text": "{{anim id=\"33\"}}L'art {{fun_000A000E arg=\"0x0600640065002000040064002700\"}}{{fun_00180012 arg=\"0x00CD\"}} n'a\nplus aucun secret pour moi !{{delay frames=\"20\"}} Je te\nfais une démo quand tu veux !"
  },
  {
    "label": "012",
    "text": ""
  },
  {
    "label": "013",
    "text": "Alors c'est sûr, c'est pas écrit sur\nmon front{{delay frames=\"10\"}}.{{delay frames=\"10\"}}.{{delay frames=\"10\"}}.{{delay frames=\"10\"}} {{anim id=\"33\"}}mais je suis\n{{fun_0001000E arg=\"\"}}{{fun_00160012 arg=\"0x00CD\"}} !"
  },
  {
    "label": "014",
    "text": "{{anim id=\"37\"}}Au fait, tu sais quoi ?{{delay frames=\"20\"}} {{anim id=\"33\"}}Je suis\n{{fun_0001000E arg=\"\"}}{{fun_00160012 arg=\"0x00CD\"}}{{delay frames=\"10\"}}.{{delay frames=\"10\"}}.{{delay frames=\"10\"}}.{{delay frames=\"10\"}} et\nj'en suis fière !\n{{anim id=\"16\"}}Et toi, {{fun_00080005 arg=\"\"}} ?{{delay frames=\"20\"}} Oh, allez !\nVas-y, dis !!!"
  },
  {
    "label": "015",
    "text": ""
  },
  {
    "label": "016",
    "text": "{{anim id=\"39\"}}Ze peux te confier un tout petit\nsecret, dis{{delay frames=\"10\"}}.{{delay frames=\"10\"}}.{{delay frames=\"10\"}}.{{delay frames=\"10\"}}?{{pageBreak}}{{anim id=\"3\"}}Mon grand grand rêve, ce serait de\ndevenir {{fun_00170012 arg=\"0x00CD\"}} !"
  },
  {
    "label": "017",
    "text": "{{anim id=\"43\"}}J'ai toujours rêvé de devenir\n{{fun_00170012 arg=\"0x00CD\"}}{{delay frames=\"8\"}}.{{delay frames=\"8\"}}.{{delay frames=\"8\"}}.{{pageBreak}}{{anim id=\"1\"}}Comme quoi, {{fun_00010005 arg=\"\"}} te réserve\nencore quelques surprises,{{delay frames=\"20\"}}\n{{fun_00070005 arg=\"\"}} !"
  }
]