﻿[
  {
    "label": "001",
    "text": ""
  },
  {
    "label": "002",
    "text": "{{fun_0001000A arg=\"0x0C000D00\"}}"
  },
  {
    "label": "003",
    "text": "{{fun_0001000A arg=\"0x09000A00\"}}"
  },
  {
    "label": "004",
    "text": ""
  },
  {
    "label": "005",
    "text": "{{anim id=\"1\"}}Je viens souvent ici, tu sais.\n{{delay frames=\"20\"}}C'est le magasin que je préfère,\n{{fun_00070005 arg=\"\"}} !"
  },
  {
    "label": "006",
    "text": "{{anim id=\"1\"}}J'adore venir flâner ici, c'est un\npeu ma façon à moi de méditer !{{delay frames=\"10\"}} Et\nje médite tous les jours, hi hi hi !"
  },
  {
    "label": "007",
    "text": "{{anim id=\"1\"}}Je sais pas pourquoi je m'embête\nà décorer ma maison...{{delay frames=\"20\"}} Je devrais\nemménager ici, {{fun_00070005 arg=\"\"}} !"
  },
  {
    "label": "008",
    "text": "{{anim id=\"1\"}}Niveau shopping, c'est carrément le\ntop du top, cet endroit !!!"
  },
  {
    "label": "009",
    "text": "{{anim id=\"37\"}}C'est super flatteur que tu viennes\nfaire tes courses à {{fun_00050005 arg=\"\"}}...\nMais laisses-en pour nous, hi hi !"
  },
  {
    "label": "010",
    "text": "{{anim id=\"37\"}}Genre,{{delay frames=\"10\"}} tu es venu{{fun_0006000E arg=\"0x000002006500\"}} jusqu'ici juste\npour faire tes courses ? Je suis trop\nimpressionnée, waouh !"
  },
  {
    "label": "011",
    "text": ""
  },
  {
    "label": "012",
    "text": "{{fun_00000009 arg=\"0x05000700\"}}"
  },
  {
    "label": "013",
    "text": "{{fun_00000009 arg=\"0x06000800\"}}"
  }
]