﻿[
  {
    "label": "001",
    "text": "{{anim id=\"39\"}}On m'a dit {{delay frames=\"5\"}}que t'avais {{delay frames=\"10\"}}{{fun_0002000E arg=\"\"}}\n{{fun_00030011 arg=\"0x0000\"}}{{delay frames=\"8\"}}.{{delay frames=\"8\"}}.{{delay frames=\"8\"}}.{{delay frames=\"8\"}}?{{delay frames=\"15\"}}{{anim id=\"38\"}} Ouah,\nvends-{{fun_0008000E arg=\"0x00CD04006C00650004006C0061000000\"}}-moi !!! {{delay frames=\"20\"}}Steuplaît !!!\n{{anim id=\"27\"}}Le hic, c'est que je suis pas trop\nd'humeur à marchander{{delay frames=\"8\"}}.{{delay frames=\"8\"}}.{{delay frames=\"8\"}}. Si on\njouait à un petit jeu ?!\nÇa s'appelle « négociation\nexpress » !{{delay frames=\"20\"}} {{anim id=\"37\"}}J'ai quatre cartes de\nquatre couleurs différentes{{delay frames=\"8\"}}.{{delay frames=\"8\"}}.{{delay frames=\"8\"}}.\n... sur lesquelles sont inscrits quatre\nprix différents aussi !{{delay frames=\"20\"}}{{anim id=\"29\"}} Ta mission ?{{delay frames=\"10\"}}\nEn choisir une !!!\n{{anim id=\"23\"}}{{fun_000D0007 arg=\"\"}}T'es plutôt chanceu{{fun_0006000E arg=\"0x02007800040073006500\"}}, en général ?{{delay frames=\"20\"}}{{anim id=\"38\"}}\nJe suis sûre que t'as toujours rêvé\nde devenir riche !{{delay frames=\"20\"}} Alors ?{{fun_00050008 arg=\"0x0700150002002800\"}}\nOK, on joue !\nÇa me dit rien..."
  },
  {
    "label": "002",
    "text": "{{fun_00020009 arg=\"0x080009000A000B00\"}}"
  },
  {
    "label": "003",
    "text": "{{anim id=\"5\"}}{{color id=\"2\"}}{{fun_00090004 arg=\"0x0000\"}} clochettes {{color id=\"65535\"}}! {{delay frames=\"10\"}}Super ! {{fun_00010007 arg=\"\"}}{{anim id=\"11\"}}Enfin{{delay frames=\"8\"}}.{{delay frames=\"8\"}}.{{delay frames=\"8\"}}.\npour moi, surtout !{{delay frames=\"15\"}} Hi hi !{{delay frames=\"30\"}}{{anim id=\"29\"}} J'adore\nfaire des affaires avec toi !"
  },
  {
    "label": "004",
    "text": "{{anim id=\"16\"}}{{color id=\"2\"}}{{fun_00090004 arg=\"0x0100\"}}{{color id=\"65535\"}} {{color id=\"2\"}}clochettes {{color id=\"65535\"}}!{{delay frames=\"10\"}} T'es pas dur{{fun_0006000E arg=\"0x000002006500\"}} en\naffaires, toi !{{delay frames=\"30\"}}{{anim id=\"2\"}} Trop fort ! {{delay frames=\"5\"}}Voilà ton\nargent, hi hi hi !"
  },
  {
    "label": "005",
    "text": "{{anim id=\"13\"}}Quoi ?! {{delay frames=\"10\"}}{{color id=\"2\"}}{{fun_00090004 arg=\"0x0200\"}} clochettes{{color id=\"65535\"}} ?!{{delay frames=\"20\"}}\nRappelle-moi {{delay frames=\"10\"}}QUI a eu l'idée de\njouer à ça ?!{{delay frames=\"20\"}} {{anim id=\"35\"}}Voilà tes clochettes{{delay frames=\"8\"}}.{{delay frames=\"8\"}}.{{delay frames=\"8\"}}."
  },
  {
    "label": "006",
    "text": "{{anim id=\"13\"}}Noooon ! {{delay frames=\"15\"}}Mais qu'est-ce qui m'a\npris de faire une carte à\n{{delay frames=\"10\"}}{{color id=\"2\"}}{{fun_00090004 arg=\"0x0300\"}} clochettes {{color id=\"65535\"}}?!\n{{anim id=\"27\"}}Voilà tes petites clochettes{{delay frames=\"8\"}}.{{delay frames=\"8\"}}.{{delay frames=\"8\"}}. Dis, si\non partageait les gains, dis ?{{delay frames=\"20\"}} C'était\nmon idée, ce jeu, quoi !"
  },
  {
    "label": "007",
    "text": "{{anim id=\"29\"}}Yesssss ! {{fun_00010007 arg=\"\"}}OK, {{delay frames=\"5\"}}choisis ta carte ! {{delay frames=\"20\"}}{{anim id=\"39\"}}À\ntes risques et périls{{delay frames=\"8\"}}.{{delay frames=\"8\"}}.{{delay frames=\"8\"}}. {{anim id=\"13\"}}Et aux miens\naussi !{{delay frames=\"20\"}} Maman, j'ai peur !!!{{fun_00020008 arg=\"0x0C0000000D0000000E0000000F000000\"}}\nLa rouge !\nLa bleue !\nLa jaune !\nLa verte !"
  },
  {
    "label": "008",
    "text": "{{anim id=\"27\"}}Ben, c'est tant pis pour toi ! {{delay frames=\"10\"}}{{anim id=\"35\"}}Parce\nque sur la rouge, il y avait écrit\n{{color id=\"2\"}}{{delay frames=\"10\"}}{{fun_00090004 arg=\"0x0300\"}} clochettes{{color id=\"65535\"}}, d'abord !\n{{anim id=\"33\"}}On jouera une prochaine fois{{delay frames=\"8\"}}.{{delay frames=\"8\"}}.{{delay frames=\"8\"}}. C'est\npas grave, hein !"
  },
  {
    "label": "009",
    "text": "{{anim id=\"27\"}}Ben, c'est tant pis pour toi ! {{delay frames=\"10\"}}{{anim id=\"35\"}}Parce\nque sur la bleue, il y avait écrit\n{{color id=\"2\"}}{{delay frames=\"10\"}}{{fun_00090004 arg=\"0x0300\"}} clochettes{{color id=\"65535\"}}, d'abord !\n{{anim id=\"33\"}}On jouera une prochaine fois{{delay frames=\"8\"}}.{{delay frames=\"8\"}}.{{delay frames=\"8\"}}. C'est\npas grave, hein !"
  },
  {
    "label": "010",
    "text": "{{anim id=\"27\"}}Ben, c'est tant pis pour toi ! {{delay frames=\"10\"}}{{anim id=\"35\"}}Parce\nque sur la jaune, il y avait écrit\n{{color id=\"2\"}}{{delay frames=\"10\"}}{{fun_00090004 arg=\"0x0300\"}} clochettes{{color id=\"65535\"}}, d'abord !\n{{anim id=\"33\"}}On jouera une prochaine fois{{delay frames=\"8\"}}.{{delay frames=\"8\"}}.{{delay frames=\"8\"}}. C'est\npas grave, hein !"
  },
  {
    "label": "011",
    "text": "{{anim id=\"27\"}}Ben, c'est tant pis pour toi ! {{delay frames=\"10\"}}{{anim id=\"35\"}}Parce\nque sur la verte, il y avait écrit\n{{color id=\"2\"}}{{delay frames=\"10\"}}{{fun_00090004 arg=\"0x0300\"}} clochettes{{color id=\"65535\"}}, d'abord !\n{{anim id=\"33\"}}On jouera une prochaine fois{{delay frames=\"8\"}}.{{delay frames=\"8\"}}.{{delay frames=\"8\"}}. C'est\npas grave, hein !"
  },
  {
    "label": "012",
    "text": "{{anim id=\"1\"}}Alors, tu veux connaître le prix,\nhi hi ?!{{delay frames=\"10\"}} {{anim id=\"36\"}}Sur la carte rouge,{{delay frames=\"10\"}} je lis{{delay frames=\"8\"}}.{{delay frames=\"8\"}}.{{delay frames=\"8\"}}.{{delay frames=\"8\"}}{{fun_00060009 arg=\"0x03000400040004000500050005000600\"}}"
  },
  {
    "label": "013",
    "text": "{{anim id=\"1\"}}Alors, tu veux connaître le prix,\nhi hi ?!{{delay frames=\"10\"}} {{anim id=\"36\"}}Sur la carte bleue,{{delay frames=\"10\"}} je lis{{delay frames=\"8\"}}.{{delay frames=\"8\"}}.{{delay frames=\"8\"}}.{{delay frames=\"8\"}}{{fun_00060009 arg=\"0x03000400040004000500050005000600\"}}"
  },
  {
    "label": "014",
    "text": "{{anim id=\"1\"}}Alors, tu veux connaître le prix,\nhi hi ?!{{delay frames=\"10\"}} {{anim id=\"36\"}}Sur la carte jaune,{{delay frames=\"10\"}} je lis{{delay frames=\"8\"}}.{{delay frames=\"8\"}}.{{delay frames=\"8\"}}.{{delay frames=\"8\"}}{{fun_00060009 arg=\"0x03000400040004000500050005000600\"}}"
  },
  {
    "label": "015",
    "text": "{{anim id=\"1\"}}Alors, tu veux connaître le prix,\nhi hi ?!{{delay frames=\"10\"}} {{anim id=\"36\"}}Sur la carte verte,{{delay frames=\"10\"}} je lis{{delay frames=\"8\"}}.{{delay frames=\"8\"}}.{{delay frames=\"8\"}}.{{delay frames=\"8\"}}{{fun_00060009 arg=\"0x03000400040004000500050005000600\"}}"
  },
  {
    "label": "016",
    "text": "{{anim id=\"5\"}}Qui c'est qui a fait l'affaire du\nsiècle ?!{{delay frames=\"30\"}} {{anim id=\"38\"}}Un indice :{{delay frames=\"20\"}} c'est pas toi,\n{{fun_00070005 arg=\"\"}} !"
  },
  {
    "label": "017",
    "text": "{{anim id=\"35\"}}À ce prix-là, c'est donné !{{delay frames=\"10\"}} {{delay frames=\"20\"}}{{anim id=\"2\"}}Je crois\nqu'on peut dire que c'est pas ton\njour de chance, hein ?!"
  },
  {
    "label": "018",
    "text": "{{anim id=\"27\"}}T'as eu de la chance,{{delay frames=\"10\"}} mais on\nrejouera{{delay frames=\"8\"}}.{{delay frames=\"8\"}}.{{delay frames=\"8\"}}. {{delay frames=\"30\"}}{{anim id=\"28\"}}Je me vengerai{{delay frames=\"8\"}}.{{delay frames=\"8\"}}.{{delay frames=\"8\"}}."
  },
  {
    "label": "019",
    "text": "{{anim id=\"27\"}}T'aurais pu me prévenir que c'était\nton jour de chance !{{delay frames=\"20\"}} C'est de la\ntriche, {{delay frames=\"10\"}}{{fun_00070005 arg=\"\"}}{{delay frames=\"8\"}}.{{delay frames=\"8\"}}.{{delay frames=\"8\"}}."
  }
]