﻿[
  {
    "label": "001",
    "text": "{{fun_0001000C arg=\"\"}}{{fun_0004000C arg=\"\"}}{{fun_0002000C arg=\"\"}}{{fun_0006000C arg=\"\"}}{{anim id=\"32\"}}Yo !{{delay frames=\"20\"}} Vous voilà enfin !{{fun_0009000C arg=\"\"}}"
  },
  {
    "label": "002",
    "text": "{{fun_0001000C arg=\"\"}}{{fun_0004000C arg=\"\"}}{{fun_0002000C arg=\"\"}}{{fun_0006000C arg=\"\"}}{{anim id=\"2\"}}Oh !{{delay frames=\"15\"}} Te revoilà, {{fun_00080005 arg=\"\"}} !{{delay frames=\"15\"}} Merci\nde m'avoir rendu ce service !{{delay frames=\"20\"}}{{anim id=\"1\"}}{{fun_0009000C arg=\"\"}}"
  },
  {
    "label": "003",
    "text": "{{fun_0001000C arg=\"\"}}{{fun_0004000C arg=\"\"}}{{fun_0002000C arg=\"\"}}{{fun_0006000C arg=\"\"}}{{anim id=\"38\"}}Ha ha !{{delay frames=\"8\"}} Content de vous voir !{{fun_0009000C arg=\"\"}}"
  },
  {
    "label": "004",
    "text": "{{fun_0001000C arg=\"\"}}{{fun_0004000C arg=\"\"}}{{fun_0002000C arg=\"\"}}{{fun_0006000C arg=\"\"}}{{anim id=\"27\"}}Bah alors ?!{{delay frames=\"20\"}} Fallait surtout pas vous\npresser, hein...{{pageBreak}}Encore un peu, et je venais vous\nchercher en personne,{{delay frames=\"20\"}}\n{{fun_00070005 arg=\"\"}} !{{fun_0009000C arg=\"\"}}"
  },
  {
    "label": "005",
    "text": "{{fun_0000000C arg=\"\"}}{{fun_0007000C arg=\"\"}}{{fun_0002000C arg=\"\"}}{{fun_0005000C arg=\"\"}}{{fun_0001000C arg=\"\"}}{{fun_0008000C arg=\"\"}}Salut, {{fun_00010011 arg=\"0x0000\"}}.{{delay frames=\"20\"}} {{anim id=\"23\"}}Bon{{delay frames=\"8\"}}.{{delay frames=\"8\"}}.{{delay frames=\"8\"}}.{{delay frames=\"20\"}} Qu'est-ce\nque tu veux ?{{delay frames=\"8\"}} {{anim id=\"27\"}}Je te préviens : pas\nd'autographes aujourd'hui.{{fun_0009000C arg=\"\"}}"
  },
  {
    "label": "006",
    "text": "{{fun_0000000C arg=\"\"}}{{fun_0007000C arg=\"\"}}{{fun_0002000C arg=\"\"}}{{fun_0005000C arg=\"\"}}{{fun_0001000C arg=\"\"}}{{fun_0008000C arg=\"\"}}Je t'écoute, {{fun_00010011 arg=\"0x0000\"}},{{delay frames=\"15\"}} {{anim id=\"23\"}}pourquoi\ntu m'as fait venir ?{{delay frames=\"8\"}} {{anim id=\"6\"}}Ça sent la\ncaméra cachée, cette histoire...{{fun_0009000C arg=\"\"}}"
  },
  {
    "label": "007",
    "text": "{{fun_0000000C arg=\"\"}}{{fun_0007000C arg=\"\"}}{{fun_0002000C arg=\"\"}}{{fun_0005000C arg=\"\"}}{{fun_0001000C arg=\"\"}}{{fun_0008000C arg=\"\"}}Qu'est-ce qui t'arrive, {{fun_00010011 arg=\"0x0000\"}} ?{{delay frames=\"15\"}}\nUn problème avec une nana ?{{delay frames=\"20\"}}\n{{anim id=\"36\"}}Dis-moi tout.{{fun_0009000C arg=\"\"}}"
  },
  {
    "label": "008",
    "text": ""
  },
  {
    "label": "009",
    "text": "{{fun_0000000C arg=\"\"}}{{fun_0005000C arg=\"\"}}{{anim id=\"26\"}}Bah{{delay frames=\"8\"}}.{{delay frames=\"8\"}}.{{delay frames=\"8\"}}.{{delay frames=\"20\"}} Je voulais juste te rendre ce\ntruc que tu m'avais prêté il y a un\nbail{{delay frames=\"8\"}}.{{delay frames=\"8\"}}.{{delay frames=\"8\"}}.!\n{{anim id=\"38\"}}Donc, tiens !{{delay frames=\"20\"}} Et merci,{{delay frames=\"8\"}}\n{{fun_00070005 arg=\"\"}} !{{fun_0009000C arg=\"\"}}"
  },
  {
    "label": "010",
    "text": "{{fun_0000000C arg=\"\"}}{{fun_0007000C arg=\"\"}}{{anim id=\"16\"}}Oh !{{delay frames=\"20\"}} Mon irremplaçable\n{{fun_00030011 arg=\"0x0000\"}} !{{pageBreak}}{{anim id=\"0\"}}J'étais sûr qu'on me l'avait {{fun_0008000E arg=\"0x00CD080076006F006C00E9000A0076006F006C00E90065000000\"}}...{{delay frames=\"30\"}}\n{{anim id=\"35\"}}Les fans sont prêts à tout pour\nposséder une babiole de leur idole{{delay frames=\"8\"}}.{{delay frames=\"8\"}}.{{delay frames=\"8\"}}.\n{{anim id=\"37\"}}Hé hé,{{delay frames=\"20\"}} en tout cas, je suis bien\ncontent de l'avoir {{fun_0008000E arg=\"0x00CD100072006500740072006F0075007600E900120072006500740072006F0075007600E90065000000\"}}. C'est\ncool de ta part, mec !"
  },
  {
    "label": "011",
    "text": "{{fun_0000000C arg=\"\"}}{{fun_0005000C arg=\"\"}}{{anim id=\"5\"}}J'ai une surprise pour toi !{{delay frames=\"20\"}} Indice :{{delay frames=\"20\"}}\non en a parlé pendant des heures\nl'autre jour...\n{{anim id=\"0\"}}Allez, tiens !{{fun_0009000C arg=\"\"}}"
  },
  {
    "label": "012",
    "text": "{{fun_0000000C arg=\"\"}}{{fun_0007000C arg=\"\"}}{{anim id=\"15\"}}{{fun_000B0007 arg=\"\"}}Hein ?!{{delay frames=\"20\"}}\n{{fun_0003000E arg=\"\"}}{{fun_0002000E arg=\"\"}}{{fun_00030011 arg=\"0x0000\"}} ?{{pageBreak}}Mortel !{{delay frames=\"15\"}} {{anim id=\"23\"}}Et tu me {{fun_0008000E arg=\"0x00CD04006C00650004006C0061000000\"}} donnes comme\nça, gratos ?{{delay frames=\"20\"}} {{anim id=\"35\"}}J'ai l'habitude d'être\ngâté par mes fans, mais là{{delay frames=\"8\"}}.{{delay frames=\"8\"}}.{{delay frames=\"8\"}}.\n{{anim id=\"38\"}}Boh, je vais pas me plaindre, après\ntout !{{delay frames=\"20\"}} Je prends !"
  },
  {
    "label": "013",
    "text": "{{fun_0000000C arg=\"\"}}{{fun_0005000C arg=\"\"}}Je suis tombé sur ce machin l'autre\njour, en me rendant à mon cours de\nspiroballe en apesanteur{{delay frames=\"8\"}}.{{delay frames=\"8\"}}.{{delay frames=\"8\"}}.\n{{anim id=\"1\"}}Vu qu'il cocotte à deux kilomètres,\nje me suis dit qu'il devait\nt'appartenir...{{fun_0009000C arg=\"\"}}"
  },
  {
    "label": "014",
    "text": "{{fun_0000000C arg=\"\"}}{{fun_0007000C arg=\"\"}}{{anim id=\"16\"}}{{fun_000B0007 arg=\"\"}}Oh !{{delay frames=\"20\"}} {{fun_0003000E arg=\"\"}}{{fun_0001000E arg=\"\"}}{{fun_00030011 arg=\"0x0000\"}}\nque je cherchais partout !{{delay frames=\"20\"}} {{anim id=\"1\"}}Cool !{{pageBreak}}Au fait,{{delay frames=\"20\"}} cette odeur dont tu parlais,\n{{anim id=\"44\"}}{{delay frames=\"10\"}}c'est mon eau de Cologne secrète,{{delay frames=\"15\"}}\n{{fun_00070005 arg=\"\"}} !{{anim id=\"0\"}}\n{{anim id=\"35\"}}Normalement, quiconque la sent ne\npeut s'empêcher de nourrir un\namour indéfectible à mon égard{{delay frames=\"8\"}}.{{delay frames=\"8\"}}.{{delay frames=\"8\"}}.\nLe prends pas mal, mais je suis\nsoulagé qu'elle ait eu aucun effet\nsur toi.{{delay frames=\"20\"}}{{anim id=\"28\"}} T'es pas trop mon type..."
  },
  {
    "label": "015",
    "text": "{{fun_0000000C arg=\"\"}}{{fun_0005000C arg=\"\"}}{{anim id=\"21\"}}C'est au sujet de ces mots un peu\ntordus que tu es le seul à utiliser...{{pageBreak}}{{anim id=\"23\"}}Comment dire{{delay frames=\"8\"}}.{{delay frames=\"8\"}}.{{delay frames=\"8\"}}.{{delay frames=\"20\"}} tu voudrais bien\nm'en apprendre quelques-uns ?{{pageBreak}}{{anim id=\"38\"}}Je pourrais m'en servir en compète,\npour déstabiliser l'adversaire ou me\nmotiver...{{delay frames=\"15\"}} {{fun_0003000E arg=\"\"}}{{fun_00070005 arg=\"\"}} !{{fun_0009000C arg=\"\"}}"
  },
  {
    "label": "016",
    "text": "{{fun_0000000C arg=\"\"}}{{fun_0007000C arg=\"\"}}{{anim id=\"37\"}}Je vois.{{delay frames=\"40\"}} Mon charisme sans bornes a\nfait une victime de plus...{{pageBreak}}Hé hé !{{delay frames=\"20\"}} J'en suis honoré.{{delay frames=\"20\"}} {{anim id=\"36\"}}Mais pas\nfranchement surpris.{{pageBreak}}{{anim id=\"33\"}}Ceci dit,{{delay frames=\"20\"}} ma façon de parler repose\nprincipalement sur un savant dosage\nentre stylitude et sophistitude.\n{{anim id=\"35\"}}Ce qui me paraît incompatible avec\ndes concepts tels que la sueur ou\nl'excès de testostérone{{delay frames=\"8\"}}.{{delay frames=\"8\"}}.{{delay frames=\"8\"}}.{{pageBreak}}{{anim id=\"27\"}}Autrement dit, pour utiliser des\nmots que tu comprends :{{delay frames=\"20\"}} c'est non."
  },
  {
    "label": "017",
    "text": "{{fun_0000000C arg=\"\"}}{{fun_0005000C arg=\"\"}}{{anim id=\"35\"}}{{anim id=\"1\"}}Tu devais t'y attendre, non ?{{delay frames=\"20\"}} Toi qui\nest censé être le meilleur, je ne dois\npas être le premier à te défier !\n{{anim id=\"6\"}}Mais passons aux choses sérieuses !\nMontre-moi cette main toujours\ninvaincue à la bataille de pouces !{{fun_0009000C arg=\"\"}}"
  },
  {
    "label": "018",
    "text": "{{fun_0000000C arg=\"\"}}{{fun_0007000C arg=\"\"}}{{anim id=\"40\"}}Désolé{{delay frames=\"8\"}}.{{delay frames=\"8\"}}.{{delay frames=\"8\"}}.{{delay frames=\"20\"}} mais ça va pas être\npossible,{{delay frames=\"8\"}} {{fun_00070005 arg=\"\"}}.{{pageBreak}}{{anim id=\"6\"}}Trop d'amitiés ont été détruites\npar les mains de mon{{delay frames=\"8\"}}.{{delay frames=\"8\"}}.{{delay frames=\"8\"}}.{{delay frames=\"20\"}} pouce !{{delay frames=\"20\"}} Ce\ndoigt est une véritable malédiction !\n{{anim id=\"36\"}}J'ai donc raccroché, préférant être\nidolâtré pour ma classe naturelle\nplutôt que pour cet invincible pouce."
  },
  {
    "label": "019",
    "text": ""
  },
  {
    "label": "020",
    "text": "Bon, c'est pas que je m'ennuie, mais\nun peu quand même, {{delay frames=\"8\"}}hé hé.{{pageBreak}}{{fun_0002000C arg=\"\"}}{{fun_0004000C arg=\"\"}}{{fun_0003000E arg=\"\"}}{{fun_00080005 arg=\"\"}},{{delay frames=\"20\"}} merci de t'être {{fun_0006000E arg=\"0x08006D00EA006C00E9000A006D00EA006C00E9006500\"}}\nde ce qui te regardait pas.{{delay frames=\"40\"}} À\nplus !{{delay frames=\"8\"}} {{fun_0003000E arg=\"\"}}{{fun_00070005 arg=\"\"}} !"
  },
  {
    "label": "021",
    "text": "Sur ce, je file.{{delay frames=\"15\"}} {{anim id=\"27\"}}Un jour, vous\ncomprendrez peut-être tout ce\nqu'implique la vie de célébrité...\n{{anim id=\"32\"}}Ciao."
  },
  {
    "label": "022",
    "text": "{{anim id=\"27\"}}OK, je crois que j'ai ma dose de\nbeaufitude pour aujourd'hui,{{delay frames=\"20\"}}\n{{fun_00070005 arg=\"\"}}.\n{{fun_0002000C arg=\"\"}}{{fun_0004000C arg=\"\"}}{{fun_0003000E arg=\"\"}}{{fun_00080005 arg=\"\"}},{{delay frames=\"20\"}} sympa d'avoir joué les\ntaxis.{{delay frames=\"20\"}} À pied, certes, mais tout de\nmême.{{delay frames=\"15\"}} {{anim id=\"32\"}}Bye."
  },
  {
    "label": "023",
    "text": ""
  }
]