﻿[
  {
    "label": "001",
    "text": "{{anim id=\"15\"}}Hé ! {{delay frames=\"20\"}}{{anim id=\"1\"}}{{fun_0003000E arg=\"\"}}{{fun_00000005 arg=\"\"}}\n{{fun_000A000E arg=\"0x0600640065002000040064002700\"}}{{fun_00060005 arg=\"\"}} !{{delay frames=\"30\"}}{{pageBreak}}Bonjour, bonjour ! Pour info,{{anim id=\"0\"}} c'est\nle solstice d'été aujourd'hui.{{pageBreak}}C'est le jour le plus long de l'année.{{delay frames=\"8\"}}\n{{anim id=\"21\"}}Ça me mettrait presque de bonne\nhumeur, ce soleil !{{delay frames=\"20\"}} {{anim id=\"37\"}}{{fun_0003000E arg=\"\"}}{{fun_00070005 arg=\"\"}} !"
  },
  {
    "label": "002",
    "text": "{{fun_0003000E arg=\"\"}}{{fun_00060007 arg=\"\"}}Hé ! {{delay frames=\"8\"}}{{fun_0003000E arg=\"\"}}{{fun_00000005 arg=\"\"}}{{fun_00070007 arg=\"\"}} !{{delay frames=\"30\"}}\nTu as fait tout ce chemin pour venir\nà {{fun_00050005 arg=\"\"}} ? {{delay frames=\"20\"}}{{fun_0003000E arg=\"\"}}{{fun_00070005 arg=\"\"}} !"
  },
  {
    "label": "003",
    "text": "{{anim id=\"32\"}}Oh,{{delay frames=\"8\"}} mais c'est {{fun_00000005 arg=\"\"}} !{{delay frames=\"20\"}}\n{{anim id=\"1\"}}Bonjour, bonjour !{{delay frames=\"30\"}} Fais comme chez\ntoi ! {{delay frames=\"20\"}}{{fun_0003000E arg=\"\"}}{{fun_00070005 arg=\"\"}} !\n{{anim id=\"0\"}}C'est le solstice d'été aujourd'hui,{{delay frames=\"20\"}}\n{{anim id=\"1\"}}le soleil va se coucher tard, et nous\naussi !"
  },
  {
    "label": "004",
    "text": "{{anim id=\"1\"}}Hello ! {{delay frames=\"20\"}}Comment va, {{fun_00000005 arg=\"\"}} ?{{pageBreak}}{{anim id=\"35\"}}Tu as déjà goûté à notre\n{{fun_001A0005 arg=\"0x00CD\"}}, {{fun_00070005 arg=\"\"}} ?"
  },
  {
    "label": "005",
    "text": "{{anim id=\"15\"}}Tiens, {{delay frames=\"15\"}}mais c'est {{fun_00000005 arg=\"\"}} !{{delay frames=\"30\"}}\n{{anim id=\"1\"}}Qu'est-ce qui t'amène dans ce trou\nperdu ?{{pageBreak}}{{anim id=\"0\"}}C'est le solstice d'été !{{delay frames=\"30\"}} {{anim id=\"35\"}}Le soleil\nfait des heures sup et c'est tant\nmieux pour nous ! {{delay frames=\"20\"}}{{fun_0003000E arg=\"\"}}{{fun_00070005 arg=\"\"}} !"
  },
  {
    "label": "006",
    "text": "{{anim id=\"32\"}}Hello ! {{fun_0003000E arg=\"\"}}{{fun_00000005 arg=\"\"}} {{fun_000A000E arg=\"0x0600640065002000040064002700\"}}{{fun_00060005 arg=\"\"}} !{{delay frames=\"30\"}}\n{{anim id=\"1\"}}Ça a l'air d'aller, dis-moi !\n{{delay frames=\"20\"}}{{fun_0003000E arg=\"\"}}{{fun_00070005 arg=\"\"}} !"
  },
  {
    "label": "007",
    "text": "Tiens, {{fun_00000005 arg=\"\"}} ! Tu es là en\nvisite ?{{delay frames=\"30\"}} {{anim id=\"36\"}}Ça alors, il est {{fun_00030004 arg=\"\"}} h {{fun_00040004 arg=\"\"}}...\nEh oui, c'est le solstice d'été !\n{{anim id=\"37\"}}Du soleil, du soleil, encore du soleil !{{anim id=\"0\"}}\nBon, n'empêche, j'aimerais bien\naller me coucher... {{delay frames=\"20\"}}{{fun_0003000E arg=\"\"}}{{fun_00070005 arg=\"\"}}."
  },
  {
    "label": "008",
    "text": "Content de te voir, {{fun_00000005 arg=\"\"}} !{{pageBreak}}Si tu voulais connaître {{fun_00050005 arg=\"\"}}\n« by night », tu as mal choisi ton\njour !\nDis, tu savais que le solstice d'été\nétait la journée des insomniaques ?{{delay frames=\"15\"}}{{pageBreak}}Pourquoi ? Ben, parce que le soleil\nne se couche pas, ce jour-là !{{delay frames=\"20\"}}\n{{fun_0003000E arg=\"\"}}{{fun_00070005 arg=\"\"}} !"
  },
  {
    "label": "009",
    "text": "{{anim id=\"32\"}}Tu es là, {{delay frames=\"8\"}}{{fun_00080005 arg=\"\"}} !{{fun_00010007 arg=\"\"}}\n{{anim id=\"1\"}}On va pouvoir faire la fête toute la\nnuit{{delay frames=\"15\"}} ! {{delay frames=\"20\"}}{{fun_0003000E arg=\"\"}}{{fun_00070005 arg=\"\"}} !\n{{anim id=\"35\"}}Attends...{{delay frames=\"8\"}} est-ce qu'on peut parler\nde nuit s'il fait jour ?{{delay frames=\"20\"}} Je te pose une\ncolle, hein ? {{anim id=\"2\"}}HA HA !{{delay frames=\"30\"}}{{anim id=\"37\"}}"
  },
  {
    "label": "010",
    "text": "{{anim id=\"1\"}}Hello, {{delay frames=\"8\"}}{{fun_00080005 arg=\"\"}} !{{delay frames=\"20\"}}\nTout va comme tu veux,\n{{delay frames=\"20\"}}{{fun_00070005 arg=\"\"}} ?{{pageBreak}}{{anim id=\"0\"}}La nuit ne tombe pas le jour du\nsolstice d'été !{{delay frames=\"8\"}} {{anim id=\"36\"}}Moi par contre...{{delay frames=\"15\"}}\nje tombe de sommeil."
  },
  {
    "label": "011",
    "text": "{{anim id=\"32\"}}Hé, {{delay frames=\"15\"}}tu es là aussi, {{delay frames=\"8\"}}{{fun_00080005 arg=\"\"}} !{{fun_00010007 arg=\"\"}}\n{{anim id=\"36\"}}Tu arrives à croire qu'il est {{delay frames=\"4\"}}\n{{fun_00030004 arg=\"\"}} h {{fun_00040004 arg=\"\"}}, toi ?\n{{anim id=\"21\"}}À ton avis, qui va aller se coucher\nen premier, le soleil ou moi ?{{delay frames=\"20\"}}\n{{anim id=\"2\"}}HA HA HA !{{delay frames=\"30\"}}{{anim id=\"37\"}} {{fun_0003000E arg=\"\"}}{{fun_00070005 arg=\"\"}} !"
  }
]