﻿[
  {
    "label": "001",
    "text": "{{anim id=\"28\"}}Si tu veux connaître une ville,{{delay frames=\"20\"}} visite\nses magasins, pas ses musées.{{delay frames=\"20\"}} {{anim id=\"21\"}}Tu en\napprendras bien plus, crois-moi !"
  },
  {
    "label": "002",
    "text": "Ah,{{anim id=\"37\"}} tous ces codes-barres me font\nrevivre !{{delay frames=\"20\"}} {{anim id=\"2\"}}J'ai dû être une caisse\nenregistreuse dans une autre vie..."
  },
  {
    "label": "003",
    "text": "Impossible de me décider...{{delay frames=\"30\"}} {{anim id=\"27\"}}Je vais\ntout prendre,{{delay frames=\"30\"}} ce sera plus simple."
  },
  {
    "label": "004",
    "text": "{{anim id=\"1\"}}Ce matin, je me suis dit : « Si tu\nallais faire tes courses à {{fun_00050005 arg=\"\"}},\ncomme au bon vieux temps ! »."
  },
  {
    "label": "005",
    "text": "J'essaie de ne jamais acheter{{delay frames=\"8\"}} plus\nque ce dont j'ai besoin.{{delay frames=\"15\"}}{{anim id=\"33\"}} J'essaie, j'ai\ndit !{{anim id=\"0\"}} {{anim id=\"2\"}}Je vois que tu me connais bien."
  }
]