﻿[
  {
    "label": "001",
    "text": "{{fun_0000000C arg=\"\"}}{{fun_0006000C arg=\"\"}}{{fun_0001000C arg=\"\"}}{{fun_0004000C arg=\"\"}}{{fun_0002000C arg=\"\"}}{{fun_0006000C arg=\"\"}}Salut,{{delay frames=\"8\"}} {{fun_00080005 arg=\"\"}} !{{delay frames=\"20\"}} Ça roule ?{{fun_0009000C arg=\"\"}}"
  },
  {
    "label": "002",
    "text": "{{fun_0000000C arg=\"\"}}{{fun_0006000C arg=\"\"}}{{fun_0001000C arg=\"\"}}{{fun_0004000C arg=\"\"}}{{fun_0002000C arg=\"\"}}{{fun_0006000C arg=\"\"}}{{anim id=\"1\"}}Bonjour vous deux,{{delay frames=\"20\"}} je vous\nattendais !{{delay frames=\"8\"}} {{fun_0003000E arg=\"\"}}{{fun_00070005 arg=\"\"}} !{{fun_0009000C arg=\"\"}}"
  },
  {
    "label": "003",
    "text": "{{fun_0000000C arg=\"\"}}{{fun_0006000C arg=\"\"}}{{fun_0001000C arg=\"\"}}{{fun_0004000C arg=\"\"}}{{fun_0002000C arg=\"\"}}{{fun_0006000C arg=\"\"}}{{anim id=\"1\"}}Ah,{{delay frames=\"20\"}} te revoilà, {{fun_00080005 arg=\"\"}} !{{fun_0009000C arg=\"\"}}"
  },
  {
    "label": "004",
    "text": "{{fun_0000000C arg=\"\"}}{{fun_0006000C arg=\"\"}}{{fun_0001000C arg=\"\"}}{{fun_0004000C arg=\"\"}}{{fun_0002000C arg=\"\"}}{{fun_0006000C arg=\"\"}}{{anim id=\"6\"}}Ho, toi !{{delay frames=\"8\"}} {{fun_0003000E arg=\"\"}}{{fun_00080005 arg=\"\"}} !{{delay frames=\"20\"}} Qu'est-ce qui\nt'a pris si longtemps ?{{delay frames=\"40\"}}{{anim id=\"27\"}} J'en avais\nmarre d'attendre !{{fun_0009000C arg=\"\"}}"
  },
  {
    "label": "005",
    "text": "{{fun_0000000C arg=\"\"}}{{fun_0007000C arg=\"\"}}{{fun_0001000C arg=\"\"}}{{fun_0008000C arg=\"\"}}{{fun_0002000C arg=\"\"}}{{fun_0006000C arg=\"\"}}Dis,{{delay frames=\"8\"}} {{fun_00010011 arg=\"0x0000\"}}...{{delay frames=\"40\"}} {{anim id=\"23\"}}Il paraît que tu\nvoulais me parler ?{{delay frames=\"8\"}} {{fun_0003000E arg=\"\"}}{{fun_00070005 arg=\"\"}} ?{{fun_0009000C arg=\"\"}}"
  },
  {
    "label": "006",
    "text": "{{fun_0000000C arg=\"\"}}{{fun_0007000C arg=\"\"}}{{fun_0001000C arg=\"\"}}{{fun_0008000C arg=\"\"}}{{fun_0002000C arg=\"\"}}{{fun_0006000C arg=\"\"}}{{anim id=\"27\"}}{{fun_00010011 arg=\"0x0000\"}},{{delay frames=\"20\"}} je n'ai malheureusement\npas beaucoup de temps à te\nconsacrer, j'ai un rendez-vous.{{fun_0009000C arg=\"\"}}"
  },
  {
    "label": "007",
    "text": "{{fun_0000000C arg=\"\"}}{{fun_0007000C arg=\"\"}}{{fun_0001000C arg=\"\"}}{{fun_0008000C arg=\"\"}}{{fun_0002000C arg=\"\"}}{{fun_0006000C arg=\"\"}}Alors,{{delay frames=\"8\"}} {{fun_00010011 arg=\"0x0000\"}},{{delay frames=\"40\"}} tu voulais que je\nvienne te voir ?{{delay frames=\"20\"}}{{anim id=\"23\"}} Tu avais besoin de\nquelque chose ?{{fun_0009000C arg=\"\"}}"
  },
  {
    "label": "008",
    "text": ""
  },
  {
    "label": "009",
    "text": "{{fun_0000000C arg=\"\"}}{{fun_0005000C arg=\"\"}}{{anim id=\"9\"}}Tu te souviens de ce truc que je\nt'avais emprunté{{delay frames=\"20\"}} ? En fait, ça me\nconvient pas trop,{{delay frames=\"8\"}} {{fun_00070005 arg=\"\"}}.\n{{anim id=\"0\"}}Donc je me suis dit que je ferais\nmieux de te le rendre !{{delay frames=\"40\"}} {{anim id=\"1\"}}Tiens.{{delay frames=\"20\"}} Et\nmerci à toi !{{fun_0009000C arg=\"\"}}"
  },
  {
    "label": "010",
    "text": "{{fun_0000000C arg=\"\"}}{{fun_0007000C arg=\"\"}}{{anim id=\"15\"}}Oh !{{delay frames=\"20\"}} C'est {{fun_0008000E arg=\"0x00CD1200630065002000660061006D006500750078001A00630065007400740065002000660061006D0065007500730065000000\"}}\n{{fun_00030011 arg=\"0x0000\"}} !{{pageBreak}}{{anim id=\"27\"}}Et tu dis que ça ne te convient\npas ?{{delay frames=\"20\"}} Décidément, je te trouve un\npeu borné{{delay frames=\"8\"}}.{{delay frames=\"8\"}}.{{delay frames=\"8\"}}.{{delay frames=\"40\"}}\n{{anim id=\"40\"}}Bah, peu importe, chacun sa\npersonnalité,{{delay frames=\"8\"}} {{fun_0003000E arg=\"\"}}{{fun_00070005 arg=\"\"}} !"
  },
  {
    "label": "011",
    "text": "{{fun_0000000C arg=\"\"}}{{fun_0005000C arg=\"\"}}Ce truc que tu cherchais{{delay frames=\"8\"}}.{{delay frames=\"8\"}}.{{delay frames=\"8\"}}.{{delay frames=\"20\"}} Ils le\nvendaient au marché !{{pageBreak}}Je te l'ai acheté au cas où,{{delay frames=\"20\"}} tu le\nveux ?{{delay frames=\"8\"}} {{fun_0003000E arg=\"\"}}{{fun_00070005 arg=\"\"}} ?{{fun_0009000C arg=\"\"}}"
  },
  {
    "label": "012",
    "text": "{{fun_0000000C arg=\"\"}}{{fun_0007000C arg=\"\"}}{{anim id=\"15\"}}Ouah,{{delay frames=\"8\"}} {{fun_0002000E arg=\"\"}}\n{{fun_00030011 arg=\"0x0000\"}} !{{delay frames=\"20\"}}\nJe peux vraiment l'avoir ?{{pageBreak}}{{anim id=\"5\"}}Merci, {{fun_00010011 arg=\"0x0000\"}} !{{delay frames=\"20\"}} J'en prendrai\nsoin,{{delay frames=\"8\"}} {{fun_00070005 arg=\"\"}} !"
  },
  {
    "label": "013",
    "text": "{{fun_0000000C arg=\"\"}}{{fun_0005000C arg=\"\"}}{{anim id=\"11\"}}Voilà,{{delay frames=\"20\"}} j'ai trouvé ce machin devant\nchez moi{{delay frames=\"8\"}}.{{delay frames=\"8\"}}.{{delay frames=\"8\"}}.{{pageBreak}}{{anim id=\"23\"}}Ce serait pas à toi ?{{fun_0009000C arg=\"\"}}"
  },
  {
    "label": "014",
    "text": "{{fun_0000000C arg=\"\"}}{{fun_0007000C arg=\"\"}}{{anim id=\"15\"}}Ah, {{delay frames=\"20\"}}{{fun_0002000E arg=\"\"}}{{fun_00030011 arg=\"0x0000\"}} ?{{delay frames=\"40\"}}\nMais oui, je {{fun_0012000E arg=\"0x100004006C00650004006C0061000000\"}} reconnais ! C'est à\nmoi, en effet !\n{{anim id=\"1\"}}Je me souviens t'en avoir parlé il y\na un moment{{delay frames=\"8\"}}.{{delay frames=\"8\"}}.{{delay frames=\"8\"}}.{{pageBreak}}{{anim id=\"21\"}}Waouh, {{fun_00010011 arg=\"0x0000\"}},{{delay frames=\"20\"}} tu as vraiment\nune bonne mémoire.{{pageBreak}}{{anim id=\"1\"}}Et c'est cette mémoire qui m'a\nsauvée !{{delay frames=\"40\"}} Merci,{{delay frames=\"8\"}} {{fun_00070005 arg=\"\"}} !"
  },
  {
    "label": "015",
    "text": "{{fun_0000000C arg=\"\"}}{{fun_0005000C arg=\"\"}}{{anim id=\"41\"}}Ces derniers temps, je me pose des\ntonnes de questions à propos du\nfossé des générations.\n{{anim id=\"40\"}}En d'autres termes,{{delay frames=\"20\"}} je crois que\nj'ai pris un coup de vieux.{{pageBreak}}Je n'arrive plus du tout à suivre les\nconversations des jeunes{{delay frames=\"8\"}}.{{delay frames=\"8\"}}.{{delay frames=\"8\"}}.{{pageBreak}}{{anim id=\"1\"}}Mais toi, tu connais bien la musique\net le cinéma de mon temps, non ?{{delay frames=\"20\"}}\nTu voudrais bien en discuter ?{{fun_0009000C arg=\"\"}}"
  },
  {
    "label": "016",
    "text": "{{fun_0000000C arg=\"\"}}{{fun_0007000C arg=\"\"}}{{anim id=\"15\"}}Euh !{{delay frames=\"20\"}} Tu m'as fait venir ici juste\npour que je te fasse la\nconversation ?{{delay frames=\"40\"}}\n{{anim id=\"27\"}}Tu dois te sentir vraiment seul.\n{{anim id=\"11\"}}Hmm{{delay frames=\"8\"}}.{{delay frames=\"8\"}}.{{delay frames=\"8\"}}.{{delay frames=\"20\"}} ce n'est pas que je\nn'aimerais pas te divertir, mais{{delay frames=\"8\"}}.{{delay frames=\"8\"}}.{{delay frames=\"8\"}}.\n{{anim id=\"36\"}}Je pense que tu devrais plutôt\nt'amuser avec quelqu'un de ton âge,\n{{delay frames=\"8\"}}{{fun_00070005 arg=\"\"}}."
  },
  {
    "label": "017",
    "text": "{{fun_0000000C arg=\"\"}}{{fun_0005000C arg=\"\"}}Merci pour l'autre fois !{{pageBreak}}Tu sais, quand tu m'as donné un\nverre de lait alors que je venais de\nmanger un plat vraiment très épicé.\nTu m'as sauvé la vie !{{delay frames=\"40\"}} Tu as réagi\nsi rapidement{{delay frames=\"8\"}}.{{delay frames=\"8\"}}.{{delay frames=\"8\"}}.{{pageBreak}}J'aimerais te récompenser,{{delay frames=\"8\"}}\n{{fun_00070005 arg=\"\"}} !{{fun_0009000C arg=\"\"}}"
  },
  {
    "label": "018",
    "text": "{{fun_0000000C arg=\"\"}}{{fun_0007000C arg=\"\"}}{{anim id=\"23\"}}Vraiment, une récompense ?{{delay frames=\"40\"}} {{anim id=\"40\"}}Ce\nn'est vraiment pas la peine !{{anim id=\"37\"}}{{pageBreak}}{{anim id=\"1\"}}Avoir vu ta tête toute rouge à cause\ndes épices, ça vaut toutes les\nrécompenses,{{delay frames=\"20\"}} {{fun_00010011 arg=\"0x0000\"}} !{{pageBreak}}{{anim id=\"2\"}}Je crois que je n'avais jamais autant\nri,{{delay frames=\"8\"}} {{fun_00070005 arg=\"\"}}.{{delay frames=\"40\"}}{{anim id=\"37\"}}"
  },
  {
    "label": "019",
    "text": ""
  },
  {
    "label": "020",
    "text": "Allez,{{delay frames=\"20\"}} c'est l'heure de s'en aller.{{pageBreak}}{{fun_0002000C arg=\"\"}}{{fun_0004000C arg=\"\"}}{{fun_0000000C arg=\"\"}}{{fun_0008000C arg=\"\"}}{{fun_0003000E arg=\"\"}}{{fun_00080005 arg=\"\"}},{{delay frames=\"20\"}} {{anim id=\"1\"}}merci de m'avoir\nescortée !{{delay frames=\"20\"}} C'était sympa de se\nbalader avec toi !"
  },
  {
    "label": "021",
    "text": "OK{{delay frames=\"8\"}}.{{delay frames=\"8\"}}.{{delay frames=\"8\"}}.{{delay frames=\"20\"}} Je vais rentrer chez moi,\nmaintenant.{{pageBreak}}{{fun_0002000C arg=\"\"}}{{fun_0004000C arg=\"\"}}{{fun_0000000C arg=\"\"}}{{fun_0008000C arg=\"\"}}Merci d'avoir passé un peu de\ntemps avec moi aujourd'hui.{{delay frames=\"40\"}} Je me\nsuis bien amusée,{{delay frames=\"8\"}} {{fun_00070005 arg=\"\"}}.\nAu revoir !"
  },
  {
    "label": "022",
    "text": "Très bien,{{delay frames=\"20\"}} je vais y aller.{{pageBreak}}{{fun_0002000C arg=\"\"}}{{fun_0004000C arg=\"\"}}{{fun_0000000C arg=\"\"}}{{fun_0008000C arg=\"\"}}{{fun_0003000E arg=\"\"}}{{fun_00080005 arg=\"\"}},{{delay frames=\"20\"}} merci de m'avoir\nescortée jusqu'ici !{{delay frames=\"20\"}} C'était très\nsympa,{{delay frames=\"8\"}} {{fun_00070005 arg=\"\"}} !\n{{anim id=\"35\"}}J'espère {{fun_000A000E arg=\"0x080071007500650020000600710075002700\"}}{{fun_00010011 arg=\"0x0000\"}} va bien te\nrécompenser.{{pageBreak}}{{anim id=\"1\"}}On se voit plus tard !"
  },
  {
    "label": "023",
    "text": ""
  }
]