﻿[
  {
    "label": "001",
    "text": "Quand on pêche,{{delay frames=\"8\"}} ça sert à rien de\ns'énerver.{{pageBreak}}Regarde-moi, par exemple ! Je suis\nCALME. TELLEMENT CALME !"
  },
  {
    "label": "002",
    "text": "Hmmm ?{{delay frames=\"30\"}} Ça mord pas des masses{{delay frames=\"8\"}}.{{delay frames=\"8\"}}.{{delay frames=\"8\"}}.{{delay frames=\"8\"}}\nSuis-je un si mauvais pêcheur ?\nAllez les poissons, on MORD !"
  },
  {
    "label": "003",
    "text": "Hmmm{{delay frames=\"8\"}}.{{delay frames=\"8\"}}.{{delay frames=\"8\"}}.{{delay frames=\"15\"}} Je devrais aller pêcher\nailleurs, pour voir{{delay frames=\"8\"}}.{{delay frames=\"8\"}}.{{delay frames=\"8\"}}."
  }
]