﻿[
  {
    "label": "001",
    "text": "Ooh !{{delay frames=\"20\"}} C'est toi{{delay frames=\"8\"}}.{{delay frames=\"8\"}}.{{delay frames=\"8\"}}.{{delay frames=\"10\"}} {{fun_0003000E arg=\"\"}}{{fun_00000005 arg=\"\"}},\nc'est ça ?{{pageBreak}}Quel heureux hasard que nous nous\ntrouvions tous les deux au même\nendroit, à la même heure !\nAllez, viens donc t'asseoir !"
  },
  {
    "label": "002",
    "text": "{{fun_00010009 arg=\"0x0C000D000E00\"}}"
  },
  {
    "label": "003",
    "text": "{{fun_00030009 arg=\"0x0D000E000F0010001100\"}}"
  },
  {
    "label": "004",
    "text": "Mmmm !{{delay frames=\"20\"}} Le café est toujours aussi\nbon, ici !{{pageBreak}}{{fun_0001000C arg=\"\"}}{{fun_0007000C arg=\"\"}}{{anim id=\"1\"}}{{color id=\"4\"}}Robusto {{color id=\"65535\"}}!{{delay frames=\"20\"}} Tu fais vraiment le\nmeilleur {{color id=\"2\"}}Kilimandjaro{{color id=\"65535\"}} de la ville !{{fun_0009000C arg=\"\"}}"
  },
  {
    "label": "005",
    "text": "Mmm !{{delay frames=\"20\"}} Le café est vraiment bon.\nComme d'habitude, tu me diras !{{pageBreak}}{{fun_0001000C arg=\"\"}}{{fun_0007000C arg=\"\"}}{{anim id=\"1\"}}{{color id=\"4\"}}Robusto {{color id=\"65535\"}}!{{delay frames=\"20\"}} Comment fais-tu pour\nmettre à chaque fois la parfaite\ndose de lait ? {{delay frames=\"10\"}}Ni trop, ni pas assez !{{fun_0009000C arg=\"\"}}"
  },
  {
    "label": "006",
    "text": "Mmm !{{delay frames=\"20\"}} Ah, quel délice, ce café,\ncomme d'habitude !{{pageBreak}}{{fun_0001000C arg=\"\"}}{{fun_0007000C arg=\"\"}}{{anim id=\"1\"}}{{color id=\"4\"}}Robusto {{color id=\"65535\"}}!{{delay frames=\"20\"}} Avec {{color id=\"2\"}}deux sucres{{color id=\"65535\"}},\nil est léger comme je l'aime !\nC'est parfait !{{fun_0009000C arg=\"\"}}"
  },
  {
    "label": "007",
    "text": ".{{delay frames=\"5\"}}.{{delay frames=\"5\"}}.{{delay frames=\"5\"}}{{fun_0002000C arg=\"\"}}{{fun_0005000C arg=\"\"}}{{delay frames=\"15\"}} Merci."
  },
  {
    "label": "008",
    "text": "{{fun_00010009 arg=\"0x150016001700\"}}"
  },
  {
    "label": "009",
    "text": "{{fun_00010009 arg=\"0x1F0020002300\"}}"
  },
  {
    "label": "010",
    "text": "{{fun_001A000A arg=\"0x29002A00\"}}"
  },
  {
    "label": "012",
    "text": "Oh,{{delay frames=\"10\"}} {{fun_00000005 arg=\"\"}} !{{delay frames=\"20\"}} Comme on se\nretrouve !"
  },
  {
    "label": "013",
    "text": "Oh,{{delay frames=\"10\"}} {{fun_00000005 arg=\"\"}} !{{delay frames=\"20\"}} Comment ça va,\n{{fun_0006000E arg=\"0x0A00700065007400690074000C00700065007400690074006500\"}} ?"
  },
  {
    "label": "014",
    "text": "Je te souhaite bien le bonjour,{{delay frames=\"10\"}}\n{{fun_0006000E arg=\"0x0A00700065007400690074000C00700065007400690074006500\"}}.{{fun_00010007 arg=\"\"}} Toi aussi, tu es {{fun_0006000E arg=\"0x0800760065006E0075000A00760065006E0075006500\"}} boire\nton café du matin ?"
  },
  {
    "label": "015",
    "text": "Bonjour, {{delay frames=\"10\"}}{{fun_00000005 arg=\"\"}} !{{fun_00010007 arg=\"\"}} Tu viens\nprendre un café à emporter {{delay frames=\"15\"}}ou\ntu préfères le boire ici ?\n.{{delay frames=\"5\"}}.{{delay frames=\"5\"}}.{{delay frames=\"5\"}}{{anim id=\"15\"}}{{delay frames=\"10\"}} Oh !{{delay frames=\"20\"}} {{anim id=\"0\"}}Euh... Je suis juste un client.\nSi tu veux commander,{{delay frames=\"10\"}} demande\nplutôt à {{color id=\"4\"}}Robusto{{color id=\"65535\"}}.{{delay frames=\"8\"}}{{anim id=\"2\"}} Hé, hé, houerf !{{anim id=\"1\"}}"
  },
  {
    "label": "016",
    "text": "Oh, mais c'est toi, {{delay frames=\"10\"}}{{fun_00000005 arg=\"\"}} !{{fun_00010007 arg=\"\"}}\nC'est fou, je tombe toujours sur\ntoi quand je viens ici !"
  },
  {
    "label": "017",
    "text": "Eh bien, bonjour, {{fun_0006000E arg=\"0x12006D006F006E0020007000650074006900740012006D0061002000700065007400690074006500\"}}{{delay frames=\"10\"}}\n{{fun_00000005 arg=\"\"}} !{{fun_00010007 arg=\"\"}}\nTu as déjà bu un café, aujourd'hui ?{{fun_00050008 arg=\"0x1200000013002800\"}}\nOui !\nNon, pas encore."
  },
  {
    "label": "018",
    "text": "{{anim id=\"11\"}}Oh{{delay frames=\"8\"}}.{{delay frames=\"8\"}}.{{delay frames=\"8\"}}.{{delay frames=\"20\"}} Quel dommage.{{delay frames=\"5\"}} Moi qui voulais\nt'en offrir un."
  },
  {
    "label": "019",
    "text": "{{anim id=\"1\"}}Ça tombe bien !{{delay frames=\"20\"}} Viens donc\nt'asseoir et discute un peu\navec ce vieux {{color id=\"4\"}}Tortimer{{color id=\"65535\"}} !"
  },
  {
    "label": "021",
    "text": "Même si je ne suis plus le maire,{{delay frames=\"10\"}}\nj'ai encore plein de souvenirs des\nmoments passés à {{fun_00050005 arg=\"\"}}.\nC'est pourquoi je viens parfois voir\ncomment tout le monde se porte\ntout en profitant d'un bon café.\nMais... {{delay frames=\"10\"}}je t'avoue que la raison de\nmes visites reste surtout{{delay frames=\"5\"}}{{anim id=\"35\"}} le café !"
  },
  {
    "label": "022",
    "text": "Depuis que je suis parti à la\nretraite,{{delay frames=\"10\"}} la ville a déjà tellement\nchangé !\n{{anim id=\"1\"}}C'est l'intérêt d'avoir un nouveau\nmaire. Un peu de changement ne\nfait pas de mal, après tout !"
  },
  {
    "label": "023",
    "text": "C'est agréable de profiter de l'été\ntoute l'année,{{delay frames=\"10\"}} mais le cycle des\nsaisons me manque, finalement.{{i10_16 arg=\"24\"}}"
  },
  {
    "label": "024",
    "text": "Chasser la fatigue due au printemps\navec un café bien corsé{{delay frames=\"5\"}}.{{delay frames=\"5\"}}.{{delay frames=\"5\"}}.{{delay frames=\"20\"}}{{pageBreak}}Il n'y a qu'en cette saison qu'on\npeut avoir ça !"
  },
  {
    "label": "025",
    "text": "Par exemple, il fait très chaud en ce\nmoment, hein ?{{delay frames=\"8\"}} Boire du café chaud\nen cette saison, c'est comme{{delay frames=\"5\"}}.{{delay frames=\"5\"}}.{{delay frames=\"5\"}}.\n... manger de la soupe devant un\nventilateur à pleine puissance."
  },
  {
    "label": "026",
    "text": "Rien ne réchauffe plus mon cœur\nque de boire mon café, caressé par\nle vent frais de l'automne{{delay frames=\"5\"}}.{{delay frames=\"5\"}}.{{delay frames=\"5\"}}."
  },
  {
    "label": "027",
    "text": "Tu te demandes pourquoi je viens\nalors qu'il fait aussi froid, pas vrai ?\nEh bien, tu vois, c'est comme{{delay frames=\"5\"}}.{{delay frames=\"5\"}}.{{delay frames=\"5\"}}.\n... quand tu t'enveloppes dans une\ncouverture bien chaude et que tu as\nsubitement envie d'une glace à l'eau."
  },
  {
    "label": "028",
    "text": ""
  },
  {
    "label": "029",
    "text": ""
  },
  {
    "label": "031",
    "text": "{{fun_0003000E arg=\"\"}}{{fun_00050005 arg=\"\"}} est une belle ville{{delay frames=\"5\"}}.{{delay frames=\"5\"}}.{{delay frames=\"5\"}}.{{delay frames=\"20\"}}\nMais tu sais, {{delay frames=\"5\"}}{{fun_00000005 arg=\"\"}}{{delay frames=\"5\"}}.{{delay frames=\"5\"}}.{{delay frames=\"5\"}}.{{delay frames=\"15\"}}{{anim id=\"35\"}} Mon île\nn'est pas mal non plus{{delay frames=\"5\"}}.{{delay frames=\"5\"}}.{{delay frames=\"5\"}}.{{delay frames=\"5\"}} Ouais{{delay frames=\"5\"}}.{{delay frames=\"5\"}}.{{delay frames=\"5\"}}."
  },
  {
    "label": "032",
    "text": "Au fait, je me sens un peu seul sur\nmon île,{{delay frames=\"10\"}} alors j'ai invité tous les\nhabitants de la ville !\nMais ils me répondent tous qu'ils\nsont trop occupés par leur travail.{{pageBreak}}{{fun_0001000C arg=\"\"}}{{fun_0007000C arg=\"\"}}{{delay frames=\"10\"}}Hé, {{delay frames=\"10\"}}{{color id=\"4\"}}Robusto {{color id=\"65535\"}}!{{fun_00010007 arg=\"\"}} Tu m'as l'air un peu\nfatigué. Et si tu venais te remplumer\nsur mon île ?{{fun_0009000C arg=\"\"}}"
  },
  {
    "label": "033",
    "text": "{{fun_0002000C arg=\"\"}}{{fun_0003000C arg=\"\"}}Eh bien{{delay frames=\"5\"}}.{{delay frames=\"5\"}}.{{delay frames=\"5\"}}.{{delay frames=\"5\"}}{{fun_0000000C arg=\"\"}}{{fun_0007000C arg=\"\"}} Je ne peux pas{{delay frames=\"5\"}}.{{delay frames=\"5\"}}.{{delay frames=\"5\"}}.{{delay frames=\"5\"}} J'ai du\ntravail{{delay frames=\"5\"}}.{{delay frames=\"5\"}}.{{delay frames=\"5\"}}.{{fun_0009000C arg=\"\"}}"
  },
  {
    "label": "034",
    "text": "{{fun_0001000C arg=\"\"}}{{fun_0003000C arg=\"\"}}{{delay frames=\"5\"}}.{{delay frames=\"5\"}}.{{delay frames=\"5\"}}.{{delay frames=\"10\"}} Tu vois ?"
  },
  {
    "label": "035",
    "text": "{{i10_16 arg=\"36\"}}"
  },
  {
    "label": "036",
    "text": "Le temps s'est enfin radouci, ici !{{pageBreak}}Mais si tu veux goûter à la chaleur\nde l'été avant l'heure{{delay frames=\"5\"}}.{{delay frames=\"5\"}}.{{delay frames=\"5\"}}.{{delay frames=\"20\"}}{{anim id=\"35\"}} tu es {{fun_0006000E arg=\"0x04006C00650004006C006100\"}}\n{{fun_0006000E arg=\"0x10006200690065006E00760065006E00750012006200690065006E00760065006E0075006500\"}} sur Tortiland !"
  },
  {
    "label": "037",
    "text": "Si tu crois qu'il ne sert à rien de\nvisiter mon île en plein été,{{delay frames=\"5\"}} tu te\ntrompes !\n{{anim id=\"1\"}}Tortiland regorge d'animaux, de\nplantes et de fruits qu'on ne voit\npas ici !"
  },
  {
    "label": "038",
    "text": "Il fait plus frais, depuis quelque\ntemps, tu ne trouves pas ?{{pageBreak}}Tu sais{{delay frames=\"5\"}}.{{delay frames=\"5\"}}.{{delay frames=\"5\"}}.{{delay frames=\"20\"}} si l'été te manque déjà,{{delay frames=\"10\"}} {{anim id=\"35\"}}\ntu peux toujours venir sur mon île !"
  },
  {
    "label": "039",
    "text": "Ah, la rudesse de l'hiver rend mon\nîle d'autant plus attrayante !{{pageBreak}}{{anim id=\"1\"}}Si tu ne rêves plus que de chasse\naux insectes la nuit,{{delay frames=\"10\"}}{{anim id=\"35\"}} tu peux\ntoujours faire un tour sur mon île !"
  },
  {
    "label": "041",
    "text": "{{fun_00030009 arg=\"0x2B002C002F0032003300\"}}"
  },
  {
    "label": "042",
    "text": "{{fun_00010009 arg=\"0x320033003600\"}}"
  },
  {
    "label": "043",
    "text": "Au fait,{{delay frames=\"10\"}} {{fun_00000005 arg=\"\"}} !{{delay frames=\"20\"}} Si tu as besoin\nde conseils concernant la gestion de\nla ville, je suis là pour ça !"
  },
  {
    "label": "044",
    "text": "Ça ne va pas, {{delay frames=\"10\"}}{{fun_00000005 arg=\"\"}} ?{{fun_00010007 arg=\"\"}} Tu as\nbesoin des conseils avisés du vieux\n{{color id=\"4\"}}Tortimer{{color id=\"65535\"}} ?{{fun_00050008 arg=\"0x2D0000002E002800\"}}\nOui, au secours !\nNan, je me débrouille."
  },
  {
    "label": "045",
    "text": "Hmm{{delay frames=\"5\"}}.{{delay frames=\"5\"}}.{{delay frames=\"5\"}}.{{delay frames=\"15\"}} Je vois. Si je peux te donner\nun conseil{{delay frames=\"5\"}}.{{delay frames=\"5\"}}.{{delay frames=\"5\"}}.{{pageBreak}}... c'est de ne pas oublier que la vie\nest pleine de surprises.{{delay frames=\"10\"}}{{pageBreak}}Les choses ne se passent pas\ntoujours comme tu le souhaites.\nMais c'est comme ça !\n{{anim id=\"1\"}}Tu ferais mieux de ne pas trop t'en\nfaire.{{delay frames=\"10\"}} Essaye plutôt de toujours\ndonner le meilleur de toi-même !"
  },
  {
    "label": "046",
    "text": "Ah !{{delay frames=\"10\"}} Tant mieux !{{fun_00010007 arg=\"\"}} Il faut savoir\ngarder la tête froide quand on\nest maire, pas vrai ?"
  },
  {
    "label": "047",
    "text": "{{fun_0001000C arg=\"\"}}{{fun_0007000C arg=\"\"}}Dis-moi, {{color id=\"4\"}}Robusto{{color id=\"65535\"}}.{{fun_00010007 arg=\"\"}} Que penses-tu\n{{fun_000A000E arg=\"0x0600640065002000040064002700\"}}{{fun_00000005 arg=\"\"}} ? {{fun_0006000E arg=\"0x040049006C00080045006C006C006500\"}} s'occupe bien\n{{fun_0006000E arg=\"0x0600640065002000040064002700\"}}{{fun_00060005 arg=\"\"}} ?{{fun_0009000C arg=\"\"}}"
  },
  {
    "label": "048",
    "text": "{{fun_0002000C arg=\"\"}}{{fun_0003000C arg=\"\"}}Vrou{{delay frames=\"5\"}}.{{delay frames=\"5\"}}.{{delay frames=\"5\"}}.{{delay frames=\"10\"}} {{fun_0000000C arg=\"\"}}{{fun_0007000C arg=\"\"}}Je lui suis reconnaissant de\nm'avoir permis d'ouvrir mon café{{delay frames=\"5\"}}.{{delay frames=\"5\"}}.{{delay frames=\"5\"}}.{{fun_0009000C arg=\"\"}}"
  },
  {
    "label": "049",
    "text": "{{anim id=\"2\"}}Hé, hé houerf !{{delay frames=\"20\"}} Ça me rassure !\nJe ne regrette pas d'avoir pris\nma retraite !{{anim id=\"1\"}}"
  },
  {
    "label": "050",
    "text": "{{fun_0001000C arg=\"\"}}{{fun_0007000C arg=\"\"}}{{color id=\"4\"}}Robusto{{color id=\"65535\"}}, {{delay frames=\"10\"}}tu livres le café à\ndomicile ?{{fun_0009000C arg=\"\"}}"
  },
  {
    "label": "051",
    "text": "{{fun_0001000C arg=\"\"}}{{fun_0007000C arg=\"\"}}{{color id=\"4\"}}Robusto{{color id=\"65535\"}}, {{delay frames=\"10\"}}tu vends du café par\ncorrespondance ?{{fun_0009000C arg=\"\"}}"
  },
  {
    "label": "052",
    "text": "{{fun_0002000C arg=\"\"}}{{fun_0003000C arg=\"\"}}{{delay frames=\"5\"}}.{{delay frames=\"5\"}}.{{delay frames=\"5\"}}.{{delay frames=\"5\"}}{{fun_0000000C arg=\"\"}}{{fun_0007000C arg=\"\"}} Non{{delay frames=\"5\"}}.{{delay frames=\"5\"}}.{{delay frames=\"5\"}}.{{delay frames=\"20\"}} Désolé{{delay frames=\"5\"}}.{{delay frames=\"5\"}}.{{delay frames=\"5\"}}.{{fun_0009000C arg=\"\"}}"
  },
  {
    "label": "053",
    "text": "Oh{{delay frames=\"5\"}}.{{delay frames=\"5\"}}.{{delay frames=\"5\"}}.{{delay frames=\"5\"}} Je vois.{{delay frames=\"20\"}} Quel dommage{{delay frames=\"5\"}}.{{delay frames=\"5\"}}.{{delay frames=\"5\"}}."
  },
  {
    "label": "054",
    "text": "Au fait, {{delay frames=\"5\"}}{{fun_00000005 arg=\"\"}}.{{fun_00010007 arg=\"\"}} Tu trouves\n{{fun_000A000E arg=\"0x080071007500650020000600710075002700\"}}{{fun_001C0005 arg=\"0x00CD\"}} fait suffisamment\nd'efforts pour la ville ?{{fun_00010008 arg=\"0x370000003800000039000000\"}}\nOh oui ! C'est mon idole.\nBof, sans plus.\nNan, c'est une feignasse."
  },
  {
    "label": "055",
    "text": "Oh !{{delay frames=\"15\"}} Je vois !{{fun_00010007 arg=\"\"}} Ça me fait plaisir\nque tu penses ça !{{pageBreak}}Tu sais,{{delay frames=\"10\"}} si ça se trouve, {{fun_001C0005 arg=\"0x00CD\"}}\nse fatigue trop à force de faire\ntoujours de son mieux{{delay frames=\"5\"}}.{{delay frames=\"5\"}}.{{delay frames=\"5\"}}.\nDe temps en temps, tu devrais\nl'encourager et lui dire merci pour\ntous les efforts qu'{{fun_0005000E arg=\"0x040069006C00080065006C006C006500\"}} fait !"
  },
  {
    "label": "056",
    "text": "Comment ?{{delay frames=\"15\"}} Sans plus ?{{pageBreak}}Laisse-moi te dire une chose : les\nmaires ne savent pas trop ce que\nles habitants pensent de leur travail.\nTu devrais aller voir {{fun_001C0005 arg=\"0x00CD\"}} et\nl'encourager, de temps en temps !"
  },
  {
    "label": "057",
    "text": "Vraiment{{delay frames=\"5\"}}.{{delay frames=\"5\"}}.{{delay frames=\"5\"}}.?{{delay frames=\"20\"}} Tu sais, ce n'est pas\nfacile de s'habituer à un travail\ncomme celui-ci{{delay frames=\"5\"}}.{{delay frames=\"5\"}}.{{delay frames=\"5\"}}.\nD'après moi, {{fun_001C0005 arg=\"0x00CD\"}} fait de\nson mieux pour rendre {{fun_00050005 arg=\"\"}}\nagréable à vivre.\nTu ferais mieux de l'aider {{delay frames=\"10\"}}plutôt\nque de bayer aux corneilles.\nIl faut savoir s'entraider."
  },
  {
    "label": "058",
    "text": ""
  },
  {
    "label": "059",
    "text": ""
  },
  {
    "label": "060",
    "text": ""
  }
]