﻿[
  {
    "label": "001",
    "text": "{{fun_00040007 arg=\"\"}}Qu'est-ce qui s'trame ici ? Vous\navez prévu des vacances entre\namis ?{{fun_00050007 arg=\"\"}}"
  },
  {
    "label": "002",
    "text": "{{fun_00040007 arg=\"\"}}Les histoires d'amour c'est d'jà\ncompliqué à deux{{delay frames=\"8\"}}.{{delay frames=\"8\"}}.{{delay frames=\"8\"}}.{{delay frames=\"8\"}} Alors à\nquatre, j'vous raconte pas !{{fun_00050007 arg=\"\"}}"
  },
  {
    "label": "003",
    "text": "{{fun_00040007 arg=\"\"}}Kôôa ! Euh, qui est {{fun_0006000E arg=\"0x1E006C00650020006D00650069006C006C00650075007200200061006D00690022006C00610020006D00650069006C006C006500750072006500200061006D0069006500\"}}\nde qui, au fait ?{{fun_00050007 arg=\"\"}}"
  },
  {
    "label": "004",
    "text": "{{fun_00040007 arg=\"\"}}J'connais des dizaines de millions de\nchansons ! Pas pour rien que mes\npotes me surnomment le juke-box.{{fun_00050007 arg=\"\"}}"
  },
  {
    "label": "005",
    "text": "{{fun_00040007 arg=\"\"}}Kôa ! On est trop lourds ! J'vais\ndevoir te demander de sauter,\n{{fun_00000011 arg=\"0x0100\"}}{{delay frames=\"8\"}}.{{delay frames=\"8\"}}.{{delay frames=\"8\"}}.{{delay frames=\"8\"}} Mais non, j'rigole !{{fun_00050007 arg=\"\"}}"
  },
  {
    "label": "006",
    "text": "{{fun_00040007 arg=\"\"}}On dirait bien {{fun_000A000E arg=\"0x080071007500650020000600710075002700\"}}{{fun_00000011 arg=\"0x0100\"}} en\npince pour {{fun_00000011 arg=\"0x0300\"}}{{delay frames=\"8\"}}.{{delay frames=\"8\"}}.{{delay frames=\"8\"}}.{{delay frames=\"32\"}} Alors, j'ai\njuste ?{{delay frames=\"16\"}}{{fun_00050007 arg=\"\"}}"
  },
  {
    "label": "007",
    "text": "{{fun_00040007 arg=\"\"}}Arrêtez votre manège, je sais que\ntout le monde n'a d'yeux que pour\n{{fun_00000011 arg=\"0x0100\"}} !{{fun_00050007 arg=\"\"}}"
  },
  {
    "label": "008",
    "text": "{{fun_00040007 arg=\"\"}}Hmmm{{delay frames=\"8\"}}.{{delay frames=\"8\"}}.{{delay frames=\"8\"}}.{{delay frames=\"32\"}} {{fun_00000011 arg=\"0x0100\"}} est bien\nentour{{fun_0012000E arg=\"0x0D010200E9000400E90065000000\"}}, dites-moi{{delay frames=\"8\"}}.{{delay frames=\"8\"}}.{{delay frames=\"8\"}}.{{fun_00050007 arg=\"\"}}"
  },
  {
    "label": "009",
    "text": "{{fun_00040007 arg=\"\"}}{{fun_0003000E arg=\"\"}}{{fun_00000011 arg=\"0x0300\"}} et {{fun_00000011 arg=\"0x0100\"}} ont l'air\nde fort bonne humeur... Vous avez\nrien à m'raconter ?{{fun_00050007 arg=\"\"}}"
  },
  {
    "label": "010",
    "text": "{{fun_00040007 arg=\"\"}}{{fun_0000000D arg=\"0x02CD\"}}{{delay frames=\"8\"}}.{{delay frames=\"8\"}}.{{delay frames=\"8\"}}.{{delay frames=\"8\"}} Oups. Le vent souffle fort,\naujourd'hui.{{fun_00050007 arg=\"\"}}"
  }
]