﻿[
  {
    "label": "001",
    "text": "{{delay frames=\"8\"}}.{{delay frames=\"8\"}}.{{delay frames=\"8\"}}.{{delay frames=\"8\"}} Bien, le plus important, c'est de\npréparer le café exactement comme\nle veut le client, vrou{{delay frames=\"8\"}}.{{delay frames=\"8\"}}.{{delay frames=\"8\"}}.{{delay frames=\"8\"}}"
  },
  {
    "label": "002",
    "text": "{{delay frames=\"8\"}}.{{delay frames=\"8\"}}.{{delay frames=\"8\"}}.{{delay frames=\"8\"}} Il semble que tous les clients ont\nété servis{{delay frames=\"8\"}}.{{delay frames=\"8\"}}.{{delay frames=\"8\"}}.{{delay frames=\"8\"}}{{pageBreak}}Beau travail, vrou{{delay frames=\"8\"}}.{{delay frames=\"8\"}}.{{delay frames=\"8\"}}.{{delay frames=\"8\"}} Tu vas pouvoir\nrentrer chez toi{{delay frames=\"8\"}}.{{delay frames=\"8\"}}.{{delay frames=\"8\"}}.{{delay frames=\"8\"}}"
  },
  {
    "label": "003",
    "text": "{{delay frames=\"8\"}}.{{delay frames=\"8\"}}.{{delay frames=\"8\"}}.{{delay frames=\"8\"}} Tu n'étais pas concentré{{fun_0006000E arg=\"0x000002006500\"}} sur le\ncafé aujourd'hui{{delay frames=\"8\"}}.{{delay frames=\"8\"}}.{{delay frames=\"8\"}}.{{delay frames=\"8\"}}"
  },
  {
    "label": "004",
    "text": "{{delay frames=\"8\"}}.{{delay frames=\"8\"}}.{{delay frames=\"8\"}}.{{delay frames=\"8\"}} Il semble que ton café a satisfait\nde nombreux clients{{delay frames=\"8\"}}.{{delay frames=\"8\"}}.{{delay frames=\"8\"}}.{{delay frames=\"8\"}}"
  },
  {
    "label": "005",
    "text": "{{anim id=\"21\"}}{{delay frames=\"8\"}}.{{delay frames=\"8\"}}.{{delay frames=\"8\"}}.{{delay frames=\"8\"}} Tu as préparé le café avec brio\naujourd'hui. Les clients étaient\ntrès satisfaits, vrou{{delay frames=\"8\"}}.{{delay frames=\"8\"}}.{{delay frames=\"8\"}}.{{delay frames=\"8\"}}"
  },
  {
    "label": "006",
    "text": "{{delay frames=\"8\"}}.{{delay frames=\"8\"}}.{{delay frames=\"8\"}}.{{delay frames=\"8\"}} Très bien.{{fun_00010007 arg=\"\"}} Aujourd'hui, je vais te\npayer en « {{color id=\"2\"}}grains de café \nstandard{{color id=\"65535\"}} », vrou."
  },
  {
    "label": "007",
    "text": "{{delay frames=\"8\"}}.{{delay frames=\"8\"}}.{{delay frames=\"8\"}}.{{delay frames=\"8\"}} Tu as fait du bon boulot.{{fun_00010007 arg=\"\"}} Je vais\nte payer en « {{color id=\"2\"}}grains de café de\nqualité{{color id=\"65535\"}} »."
  },
  {
    "label": "008",
    "text": "{{delay frames=\"8\"}}.{{delay frames=\"8\"}}.{{delay frames=\"8\"}}.{{delay frames=\"8\"}} Excellent travail.{{fun_00010007 arg=\"\"}} Aujourd'hui, je\nvais te payer en {{anim id=\"35\"}}« {{color id=\"2\"}}grains de café \nexcellence {{color id=\"65535\"}}»."
  },
  {
    "label": "009",
    "text": "À bientôt{{delay frames=\"8\"}}.{{delay frames=\"8\"}}.{{delay frames=\"8\"}}.{{delay frames=\"8\"}}"
  },
  {
    "label": "010",
    "text": "{{delay frames=\"8\"}}.{{delay frames=\"8\"}}.{{delay frames=\"8\"}}.{{delay frames=\"8\"}} Attends{{delay frames=\"8\"}}.{{delay frames=\"8\"}}.{{delay frames=\"8\"}}.{{delay frames=\"8\"}} J'aimerais aussi t'offrir\nceci{{delay frames=\"8\"}}.{{delay frames=\"8\"}}.{{delay frames=\"8\"}}.{{delay frames=\"8\"}}{{pageBreak}}Ce n'est pas un article de première\njeunesse, mais il pourra peut-être\nte servir{{delay frames=\"8\"}}.{{delay frames=\"8\"}}.{{delay frames=\"8\"}}.{{delay frames=\"8\"}}"
  },
  {
    "label": "011",
    "text": "{{delay frames=\"8\"}}.{{delay frames=\"8\"}}.{{delay frames=\"8\"}}.{{delay frames=\"8\"}} Attends voir,{{delay frames=\"16\"}} j'aimerais aussi\nt'offrir ceci{{delay frames=\"8\"}}.{{delay frames=\"8\"}}.{{delay frames=\"8\"}}.{{delay frames=\"8\"}}{{pageBreak}}Ça provient de la boutique{{delay frames=\"8\"}}.{{delay frames=\"8\"}}.{{delay frames=\"8\"}}.{{delay frames=\"8\"}} mais\nce n'est pas cassé{{delay frames=\"8\"}}.{{delay frames=\"8\"}}.{{delay frames=\"8\"}}.{{delay frames=\"8\"}}\nDésolé, je n'ai rien de mieux. Vrou{{delay frames=\"8\"}}.{{delay frames=\"8\"}}.{{delay frames=\"8\"}}.{{delay frames=\"8\"}}"
  },
  {
    "label": "012",
    "text": "{{delay frames=\"8\"}}.{{delay frames=\"8\"}}.{{delay frames=\"8\"}}.{{delay frames=\"8\"}} Tu sais{{delay frames=\"8\"}}.{{delay frames=\"8\"}}.{{delay frames=\"8\"}}. ça fait un moment{{delay frames=\"8\"}}.{{delay frames=\"8\"}}.{{delay frames=\"8\"}}.{{delay frames=\"8\"}} que\ntu travailles ici. L'heure est venue\npour moi de t'offrir ceci{{delay frames=\"8\"}}.{{delay frames=\"8\"}}.{{delay frames=\"8\"}}.{{delay frames=\"8\"}}"
  },
  {
    "label": "013",
    "text": "{{delay frames=\"8\"}}.{{delay frames=\"8\"}}.{{delay frames=\"8\"}}.{{delay frames=\"8\"}} Attends,{{delay frames=\"16\"}} j'aimerais t'offrir un\npetit quelque chose{{delay frames=\"8\"}}.{{delay frames=\"8\"}}.{{delay frames=\"8\"}}.{{delay frames=\"8\"}}{{pageBreak}}Un client m'a un jour montré son\ngyroïde, et c'est une vision que je\nn'ai jamais pu oublier{{delay frames=\"8\"}}.{{delay frames=\"8\"}}.{{delay frames=\"8\"}}.{{delay frames=\"8\"}}\nAlors j'ai essayé d'en fabriquer un\nmoi-même{{delay frames=\"8\"}}.{{delay frames=\"8\"}}.{{delay frames=\"8\"}}.{{delay frames=\"8\"}} Qu'est-ce que tu en\ndis, pas mal, non ? Vrou.{{delay frames=\"8\"}}.{{delay frames=\"8\"}}."
  },
  {
    "label": "014",
    "text": "Continue à faire de ton mieux{{delay frames=\"8\"}}.{{delay frames=\"8\"}}.{{delay frames=\"8\"}}."
  },
  {
    "label": "015",
    "text": "{{delay frames=\"8\"}}.{{delay frames=\"8\"}}.{{delay frames=\"8\"}}.{{delay frames=\"8\"}} J'espère que tu viendras demain\npour travailler avec moi{{delay frames=\"8\"}}.{{delay frames=\"8\"}}.{{delay frames=\"8\"}}.{{delay frames=\"8\"}}"
  },
  {
    "label": "016",
    "text": "{{delay frames=\"8\"}}.{{delay frames=\"8\"}}.{{delay frames=\"8\"}}.{{delay frames=\"8\"}} Je peux me débrouiller seul\naujourd'hui{{delay frames=\"8\"}}.{{delay frames=\"8\"}}.{{delay frames=\"8\"}}.{{delay frames=\"8\"}}\n{{delay frames=\"8\"}}.{{delay frames=\"8\"}}.{{delay frames=\"8\"}}.{{delay frames=\"8\"}} Mais merci quand même ! Vrou{{delay frames=\"8\"}}.{{delay frames=\"8\"}}.{{delay frames=\"8\"}}.{{delay frames=\"8\"}}"
  },
  {
    "label": "017",
    "text": "Tu ne peux pas travailler\nefficacement avec des poches\naussi remplies{{delay frames=\"8\"}}.{{delay frames=\"8\"}}.{{delay frames=\"8\"}}.{{delay frames=\"8\"}}{{pageBreak}}Tu devrais te débarrasser de ce qui\nne te sert pas, et revenir ici{{delay frames=\"8\"}}.{{delay frames=\"8\"}}.{{delay frames=\"8\"}}.{{delay frames=\"8\"}}"
  },
  {
    "label": "018",
    "text": "Tes poches sont bourrées de mille{{delay frames=\"16\"}}\net une choses. Tout ce barda ne te\npermettra pas d'être efficace{{delay frames=\"8\"}}.{{delay frames=\"8\"}}.{{delay frames=\"8\"}}.{{delay frames=\"8\"}}{{pageBreak}}Va faire un peu de tri, et reviens{{delay frames=\"16\"}}\nme voir après{{delay frames=\"8\"}}.{{delay frames=\"8\"}}.{{delay frames=\"8\"}}.{{delay frames=\"8\"}} Vrou{{delay frames=\"8\"}}.{{delay frames=\"8\"}}.{{delay frames=\"8\"}}.{{delay frames=\"8\"}}"
  }
]