﻿[
  {
    "label": "001",
    "text": "Ici Carla, représentante de la{{delay frames=\"12\"}}.{{delay frames=\"12\"}}.{{delay frames=\"12\"}}.{{fun_00090007 arg=\"0x1E000000\"}}{{pageBreak}}{{anim id=\"42\"}}\n{{size value=\"150\"}}{{delay frames=\"20\"}}{{fun_0009000D arg=\"\"}}BRIGADE DU{{size value=\"100\"}}{{size value=\"150\"}}{{size value=\"150\"}}{{delay frames=\"10\"}}{{size value=\"150\"}}{{fun_000B0007 arg=\"\"}} STYLE !{{size value=\"100\"}}{{fun_000A000D arg=\"\"}}"
  },
  {
    "label": "002",
    "text": "{{anim id=\"1\"}}Alors, darling{{delay frames=\"8\"}}.{{delay frames=\"8\"}}.{{delay frames=\"8\"}}.{{delay frames=\"5\"}}{{delay frames=\"15\"}} La tenue que tu as\nchoisie aujourd'hui fait-elle honneur\nau thème actuel{{delay frames=\"8\"}}.{{delay frames=\"8\"}}.{{delay frames=\"8\"}}.{{delay frames=\"5\"}}?"
  },
  {
    "label": "003",
    "text": "{{anim id=\"11\"}}Tout d'abord,{{delay frames=\"10\"}} observons l'harmonie\nde la tenue dans son ensemble{{delay frames=\"15\"}}.{{delay frames=\"15\"}}.{{delay frames=\"15\"}}.{{pageBreak}}Est-elle à la hauteur de mes\nattentes abracadabrantes ?"
  },
  {
    "label": "004",
    "text": ".{{delay frames=\"8\"}}.{{delay frames=\"8\"}}.{{delay frames=\"8\"}} Hmm,{{delay frames=\"15\"}} je dirais que c'est plutôt\nharmonieux. Aussi harmonieux que\nla pluie par un temps gris !\n{{anim id=\"27\"}}Ce que je veux dire, c'est que c'est\nharmonieux, mais sans aucune\nfantaisie. Passable, quoi{{delay frames=\"10\"}}.{{delay frames=\"10\"}}.{{delay frames=\"10\"}}."
  },
  {
    "label": "005",
    "text": "{{anim id=\"15\"}}Aaah, je comprends !{{delay frames=\"20\"}} Tu as essayé\nd'associer deux styles, darling ?{{fun_00010007 arg=\"\"}} {{anim id=\"35\"}}Tu\npenses maîtriser cette technique ?"
  },
  {
    "label": "006",
    "text": "Malheureusement{{delay frames=\"10\"}}.{{delay frames=\"10\"}}.{{delay frames=\"10\"}}.{{delay frames=\"20\"}}{{anim id=\"10\"}} le résultat ne\ncorrespond pas,{{delay frames=\"5\"}} mais pas du tout,\nau thème actuel, darling."
  },
  {
    "label": "007",
    "text": "Malheureusement{{delay frames=\"10\"}}.{{delay frames=\"10\"}}.{{delay frames=\"10\"}}.{{delay frames=\"20\"}}{{anim id=\"27\"}} aucun de ces\nstyles ne correspond au thème\nactuel, mon pauvre petit canard."
  },
  {
    "label": "008",
    "text": "Tu as un certain sens de la mode.\nDisons que tu ne me fais pas penser\nà un sac de pommes de terre.\nJ'aimerais maintenant que tu te\npenches sur le thème du jour et que\ntu crées une tenue appropriée."
  },
  {
    "label": "009",
    "text": ""
  },
  {
    "label": "010",
    "text": "{{anim id=\"11\"}}{{delay frames=\"10\"}}Darling, {{delay frames=\"15\"}}il y a quelque chose qui\ncloche dans la manière dont tu as\ncombiné les articles{{delay frames=\"8\"}}.{{delay frames=\"8\"}}.{{delay frames=\"8\"}}.\n{{anim id=\"27\"}}Un peu comme si un figurant\n{{delay frames=\"10\"}}éclipsait l'acteur principal d'un\nfilm{{delay frames=\"8\"}}.{{delay frames=\"8\"}}.{{delay frames=\"8\"}}.{{delay frames=\"15\"}} Tu comprends ?\n{{anim id=\"0\"}}Je pense que tu as l'œil,{{delay frames=\"10\"}} alors\nessaye de créer une tenue plus\nharmonieuse, s'il te plaît."
  },
  {
    "label": "011",
    "text": "{{anim id=\"6\"}}Tu sais darling,{{delay frames=\"10\"}} lorsque les éléments\nde ta tenue ne s'accordent pas,\n{{delay frames=\"10\"}}{{anim id=\"7\"}}c'est un faux-pas.\nSi tu as l'intention de mélanger les\nstyles,{{delay frames=\"10\"}} il faut faire en sorte qu'ils\nne jurent pas !"
  },
  {
    "label": "012",
    "text": "Bien,{{delay frames=\"10\"}} en ce qui concerne le thème\ndu jour, voilà ce que j'en pense...{{fun_00010007 arg=\"\"}}\nHm-hmm, c'est{{delay frames=\"10\"}}.{{delay frames=\"10\"}}.{{delay frames=\"10\"}}.{{delay frames=\"10\"}}{{anim id=\"35\"}}{{delay frames=\"15\"}} un succès !"
  },
  {
    "label": "013",
    "text": "{{anim id=\"37\"}}Comme tu as brillamment incorporé{{delay frames=\"10\"}}\nun article de ma collection, {{delay frames=\"10\"}}tu\nmérites une bonne note !"
  },
  {
    "label": "014",
    "text": "J'adore encourager les personnes\nde talent comme moi-même, alors...{{pageBreak}}{{anim id=\"37\"}}j'aimerais t'offrir {{fun_0008000E arg=\"0x00CD0400630065000A00630065007400740065000000\"}}\n{{fun_00030011 arg=\"0x0000\"}}. C'est une\nde mes créations personnelles !"
  },
  {
    "label": "015",
    "text": "{{anim id=\"0\"}}Je vois que tu es déjà bien chargé{{fun_0006000E arg=\"0x000002006500\"}},{{delay frames=\"10\"}}\nalors reviens me voir quand tu auras\nfait de la place dans tes affaires."
  },
  {
    "label": "016",
    "text": "Darling, {{delay frames=\"10\"}}ça me rassure de savoir\nque tous les habitants de cette ville\n{{delay frames=\"10\"}}ne sont pas réfractaires à la mode.\n{{anim id=\"37\"}}J'ai encore beaucoup de travail ici,\n{{delay frames=\"10\"}}mais je pense que je peux faire\nquelque chose de cette ville."
  },
  {
    "label": "017",
    "text": "{{anim id=\"37\"}}Mon travail d'observation n'a pas\nété inutile.{{pageBreak}}{{anim id=\"21\"}}J'aurais presque suffisamment\nd'idées pour ouvrir une boutique\nici !"
  },
  {
    "label": "018",
    "text": "{{anim id=\"37\"}}Avec ce que je viens d'observer,{{delay frames=\"10\"}} je\nsuis à deux doigts de prendre une\ndécision pour mon futur projet."
  },
  {
    "label": "019",
    "text": "{{anim id=\"11\"}}J'ai suffisamment observé, étudié\net analysé cette ville{{delay frames=\"8\"}}.{{delay frames=\"8\"}}.{{delay frames=\"8\"}}.{{pageBreak}}{{delay frames=\"10\"}}{{anim id=\"37\"}}Ma décision est prise, je vais y\nouvrir ma toute nouvelle boutique !{{pageBreak}}Je comprendrais tout à fait que\ncette annonce t'emplisse d'une joie\ngrotesquement exubérante, darling...\n{{anim id=\"27\"}}Mais sois {{fun_0006000E arg=\"0x0C00670065006E00740069006C001000670065006E00740069006C006C006500\"}}, va l'exprimer plus\nloin, tu veux bien ?{{pageBreak}}{{anim id=\"0\"}}Il y a un temps pour tout, et j'ai\nune boutique à ouvrir, alors les\nfans en délire devront attendre.{{delay frames=\"15\"}}\n{{anim id=\"32\"}}À bientôt dans ma boutique,\ndarling !{{fun_00010007 arg=\"\"}} {{anim id=\"1\"}}Tu seras {{fun_0006000E arg=\"0x16006D006F006E0020007000720065006D0069006500720016006D00610020007000720065006D006900E80072006500\"}}\n{{fun_0006000E arg=\"0x0C0063006C00690065006E0074000E0063006C00690065006E0074006500\"}}, c'est promis !"
  },
  {
    "label": "020",
    "text": "{{anim id=\"27\"}}{{delay frames=\"5\"}}Il est temps que je parte, j'ai autre\nchose à faire, le devoir m'appelle !{{pageBreak}}{{anim id=\"6\"}}Mais pas de laisser-aller, surtout !{{pageBreak}}{{anim id=\"27\"}}Je ne voudrais pas te retrouver\n{{fun_0006000E arg=\"0x0C006600610067006F007400E9000E006600610067006F007400E9006500\"}} comme un sac ! Mon pauvre\ncœur ne le supporterait pas.\n{{delay frames=\"5\"}}{{anim id=\"35\"}}Alors n'oublie pas, darling : de la\nclasse, toujours de la classe !\nUn jour, tu me remercieras.{{anim id=\"32\"}} Ciao !"
  },
  {
    "label": "021",
    "text": ""
  },
  {
    "label": "022",
    "text": ""
  },
  {
    "label": "023",
    "text": ""
  },
  {
    "label": "024",
    "text": "{{delay frames=\"5\"}}.{{delay frames=\"10\"}}.{{delay frames=\"10\"}}.{{delay frames=\"10\"}}{{anim id=\"10\"}}{{delay frames=\"10\"}} Darling, je ne vais pas tourner\nautour du pot.{{delay frames=\"20\"}} Ta tenue est trop\ndisparate.\n{{anim id=\"6\"}}Regarde ça, on dirait un pot-pourri\nde styles !{{fun_00010007 arg=\"\"}} Et en plus,{{delay frames=\"5\"}} elle ne\nrespecte pas le thème actuel !"
  },
  {
    "label": "025",
    "text": "{{anim id=\"6\"}}Ce n'est vraiment pas comme ça{{delay frames=\"10\"}}\nque tu feras honneur à ma création.{{fun_00010007 arg=\"\"}}\n{{anim id=\"7\"}}Allez, recommence fissa !"
  },
  {
    "label": "026",
    "text": "{{anim id=\"27\"}}C'est une catastrophe.{{fun_00010007 arg=\"\"}}\n{{anim id=\"7\"}}RECOMMENCE ! SUR-LE-CHAMP !"
  },
  {
    "label": "027",
    "text": "{{delay frames=\"5\"}}.{{delay frames=\"10\"}}.{{delay frames=\"10\"}}.{{delay frames=\"10\"}}{{anim id=\"10\"}}{{delay frames=\"10\"}} Darling, je ne vais pas tourner\nautour du pot.{{delay frames=\"20\"}} Ta tenue est trop\ndisparate.\n{{anim id=\"27\"}}Tu as mélangé{{delay frames=\"10\"}} tellement de styles\nqu'il est impossible de deviner quel\nthème tu devais respecter !"
  },
  {
    "label": "028",
    "text": "{{delay frames=\"5\"}}.{{delay frames=\"10\"}}.{{delay frames=\"10\"}}.{{delay frames=\"10\"}}{{anim id=\"10\"}}{{delay frames=\"10\"}} Darling, je ne vais pas tourner\nautour du pot.{{delay frames=\"20\"}} Ta tenue est trop\ndisparate.\nCependant, {{delay frames=\"10\"}}même si c'est la foire\ndes styles, on arrive à distinguer le\nthème principal... si je ne m'abuse{{delay frames=\"5\"}}.{{delay frames=\"5\"}}.{{delay frames=\"5\"}}.{{delay frames=\"15\"}}{{pageBreak}}{{anim id=\"0\"}}Enfin, après tout, tu n'es qu'{{fun_0006000E arg=\"0x040075006E00060075006E006500\"}}{{delay frames=\"10\"}}\nfashionista en devenir,{{delay frames=\"5\"}} et tu as\nfait de ton mieux, pas vrai ?{{pageBreak}}{{anim id=\"1\"}}Alors en guise d'encouragement,\nje vais fermer les yeux sur les\nimperfections et décréter...\n... que tu as réussi ! Bravo !"
  },
  {
    "label": "029",
    "text": "{{anim id=\"0\"}}Afin de couronner ta réussite,{{delay frames=\"10\"}}\nj'aimerais t'offrir {{fun_0008000E arg=\"0x00CD040075006E00060075006E0065000000\"}}\n{{fun_00030011 arg=\"0x0000\"}}.\nC'est un article de ma collection.{{pageBreak}}Inutile de préciser que tu as intérêt\nà le porter, et à le porter bien !{{pageBreak}}{{anim id=\"6\"}}Ne me fais pas regretter ma\nprodigalité."
  },
  {
    "label": "030",
    "text": "{{anim id=\"0\"}}Afin de couronner ta réussite,{{delay frames=\"10\"}}\nj'aimerais t'offrir {{fun_0008000E arg=\"0x00CD040075006E00060075006E0065000000\"}}\n{{fun_00030011 arg=\"0x0000\"}}.\nC'est un article de ma collection.{{pageBreak}}{{delay frames=\"5\"}}.{{delay frames=\"5\"}}.{{delay frames=\"5\"}}.{{delay frames=\"5\"}} Mais ! {{delay frames=\"15\"}}{{anim id=\"6\"}} Sapristi !{{fun_00010007 arg=\"\"}} Ton inventaire\nest plein à craquer !{{delay frames=\"8\"}} Tu fais des\nprovisions pour l'hiver, ou quoi ?{{pageBreak}}{{anim id=\"0\"}}Va vite faire un peu le tri,{{delay frames=\"10\"}} je\nt'attendrai ici, mais pas 107 ans,\nalors dépêche-toi, zou !"
  },
  {
    "label": "031",
    "text": "{{anim id=\"11\"}}Je dois dire que{{delay frames=\"10\"}}.{{delay frames=\"10\"}}.{{delay frames=\"10\"}}.{{delay frames=\"20\"}} {{anim id=\"37\"}}tu as tellement\npoussé le look {{color id=\"2\"}}sport {{color id=\"65535\"}}qu'on croirait\nune star des jeux olympiques !"
  },
  {
    "label": "032",
    "text": "{{anim id=\"11\"}}Je dois dire que{{delay frames=\"10\"}}.{{delay frames=\"10\"}}.{{delay frames=\"10\"}}.{{delay frames=\"20\"}} {{anim id=\"37\"}}tu es tellement\n{{color id=\"2\"}}mignon{{fun_0006000E arg=\"0x000004006E006500\"}}{{color id=\"65535\"}} {{delay frames=\"10\"}}qu'on te croirait tout\ndroit sorti{{fun_0006000E arg=\"0x000002006500\"}} d'un conte de fées."
  },
  {
    "label": "033",
    "text": "{{anim id=\"11\"}}Je dois dire que{{delay frames=\"10\"}}.{{delay frames=\"10\"}}.{{delay frames=\"10\"}}.{{delay frames=\"20\"}} {{anim id=\"37\"}}ton look est\nmerveilleusement {{color id=\"2\"}}folklorique {{color id=\"65535\"}}! Cette\nville n'en est que plus pittoresque !"
  },
  {
    "label": "034",
    "text": "{{anim id=\"11\"}}Je dois dire que{{delay frames=\"10\"}}.{{delay frames=\"10\"}}.{{delay frames=\"10\"}}.{{delay frames=\"20\"}} ton look est un\npeu... à côté, tu vois. Pas tout à fait\nlà. {{anim id=\"37\"}}En un mot, parfaitement {{color id=\"2\"}}décalé{{color id=\"65535\"}} !"
  },
  {
    "label": "035",
    "text": "{{anim id=\"11\"}}Je dois dire que{{delay frames=\"10\"}}.{{delay frames=\"10\"}}.{{delay frames=\"10\"}}.{{delay frames=\"20\"}} {{anim id=\"37\"}}ton style est si\n{{color id=\"2\"}}officiel {{delay frames=\"10\"}}{{color id=\"65535\"}}qu'on croirait que tu vas\nfaire une demande en mariage !"
  },
  {
    "label": "036",
    "text": "{{anim id=\"11\"}}Je dois dire que{{delay frames=\"10\"}}.{{delay frames=\"10\"}}.{{delay frames=\"10\"}}.{{delay frames=\"20\"}} {{anim id=\"37\"}}ton style est si\n{{color id=\"2\"}}luxueux {{color id=\"65535\"}}qu'on te donnerait la lune\npour un seul de tes boutons !"
  },
  {
    "label": "037",
    "text": "{{anim id=\"11\"}}Je dois dire que{{delay frames=\"10\"}}.{{delay frames=\"10\"}}.{{delay frames=\"10\"}}.{{delay frames=\"20\"}} {{anim id=\"37\"}}Ton style est\ntellement {{color id=\"2\"}}voyant{{color id=\"65535\"}}{{delay frames=\"10\"}} que le soleil\nsemble terne en comparaison !"
  },
  {
    "label": "038",
    "text": "{{anim id=\"11\"}}Je dois dire que{{delay frames=\"10\"}}.{{delay frames=\"10\"}}.{{delay frames=\"10\"}}.{{delay frames=\"20\"}}{{anim id=\"37\"}} ton style est\nsi {{color id=\"2\"}}moderne{{color id=\"65535\"}} qu'il n'existait\nprobablement pas il y a une minute !"
  },
  {
    "label": "039",
    "text": "{{anim id=\"11\"}}Je dois dire que{{delay frames=\"10\"}}.{{delay frames=\"10\"}}.{{delay frames=\"10\"}}.{{delay frames=\"20\"}} {{anim id=\"37\"}}Tu as su insuffler\nune nouvelle vie au style{{delay frames=\"10\"}} {{color id=\"2\"}}rétro {{color id=\"65535\"}}!"
  },
  {
    "label": "040",
    "text": "{{anim id=\"37\"}}Je vois que tu {{delay frames=\"10\"}}t'es plongé{{fun_0006000E arg=\"0x000002006500\"}} corps et\nâme dans un look {{color id=\"2\"}}simple {{color id=\"65535\"}}!{{pageBreak}}{{anim id=\"27\"}}Darling, {{delay frames=\"10\"}}tu sais, je préfère un style\nun peu plus personnalisé, {{delay frames=\"15\"}}mais tout\nle monde n'en est pas capable..."
  },
  {
    "label": "041",
    "text": "{{anim id=\"37\"}}Un style à la fois {{color id=\"2\"}}sport{{color id=\"65535\"}} et {{color id=\"2\"}}mignon{{color id=\"65535\"}}{{delay frames=\"8\"}}.{{delay frames=\"8\"}}.{{delay frames=\"8\"}}.{{delay frames=\"10\"}}\nL'idéal pour attirer les regards\nlors de l'entraînement !"
  },
  {
    "label": "042",
    "text": "{{anim id=\"37\"}}Un style {{color id=\"2\"}}folklorique {{color id=\"65535\"}}mais {{color id=\"2\"}}sport{{color id=\"65535\"}}{{delay frames=\"8\"}}.{{delay frames=\"8\"}}.{{delay frames=\"8\"}}.{{delay frames=\"10\"}}\nDis-moi, tu as reçu des conseils\nde grands athlètes à la retraite ?"
  },
  {
    "label": "043",
    "text": "{{anim id=\"37\"}}Un style à la fois {{color id=\"2\"}}sport{{color id=\"65535\"}} et {{color id=\"2\"}}décalé{{color id=\"65535\"}}...{{delay frames=\"10\"}}\nTu dois être du genre à vivre ta vie\nà 100 à l'heure !"
  },
  {
    "label": "044",
    "text": "{{anim id=\"27\"}}Darling, {{delay frames=\"10\"}}tu n'as pas de miroir ?\nLe look {{color id=\"2\"}}sport {{color id=\"65535\"}}et le look {{color id=\"2\"}}officiel{{color id=\"65535\"}}\nne se marient pas du tout, voyons !"
  },
  {
    "label": "045",
    "text": "{{anim id=\"37\"}}Ce look {{color id=\"2\"}}sport luxueux {{color id=\"65535\"}}est idéal{{delay frames=\"10\"}} pour\nles stars qui ne passent pas leur\ntemps sur le canapé."
  },
  {
    "label": "046",
    "text": "{{anim id=\"37\"}}Mélanger les styles{{color id=\"2\"}} sport {{color id=\"65535\"}}et {{color id=\"2\"}}voyant{{color id=\"65535\"}},\nc'est un peu comme se déguiser en\npeloton de coureurs cyclistes !"
  },
  {
    "label": "047",
    "text": "{{anim id=\"37\"}}Ton look {{color id=\"2\"}}moderne {{color id=\"65535\"}}et {{color id=\"2\"}}sport{{color id=\"65535\"}}{{delay frames=\"10\"}}\nreprésente parfaitement le\nstyle urbain."
  },
  {
    "label": "048",
    "text": "{{anim id=\"37\"}}{{color id=\"2\"}}Rétro{{color id=\"65535\"}} mais {{color id=\"2\"}}sport{{color id=\"65535\"}}{{delay frames=\"8\"}}.{{delay frames=\"8\"}}.{{delay frames=\"8\"}}.{{delay frames=\"10\"}} Le style parfait\npour les fans de sports\ntraditionnels !"
  },
  {
    "label": "049",
    "text": "{{anim id=\"37\"}}{{color id=\"2\"}}Sport{{color id=\"65535\"}} tout en restant{{color id=\"2\"}} simple{{color id=\"65535\"}}{{delay frames=\"8\"}}.{{delay frames=\"8\"}}.{{delay frames=\"8\"}}.{{delay frames=\"10\"}}\nTout à fait ce que je conseillerais\nà un adepte de yoga."
  },
  {
    "label": "050",
    "text": "{{anim id=\"37\"}}{{color id=\"2\"}}Mignon {{color id=\"65535\"}}et {{color id=\"2\"}}folklorique{{color id=\"65535\"}}{{delay frames=\"8\"}}.{{delay frames=\"8\"}}.{{delay frames=\"8\"}}.{{delay frames=\"10\"}} Tu aurais\nété parfaitement à ta place à la\ncour du roi, darling !"
  },
  {
    "label": "051",
    "text": "{{anim id=\"37\"}}Ce look {{color id=\"2\"}}mignon {{color id=\"65535\"}}et {{color id=\"2\"}}décalé{{color id=\"65535\"}}{{delay frames=\"8\"}}.{{delay frames=\"8\"}}.{{delay frames=\"8\"}}.{{delay frames=\"10\"}} C'est un\ndes rares exemples où des styles\nopposés ne jurent pas."
  },
  {
    "label": "052",
    "text": "{{anim id=\"37\"}}Oh darling ! Ce style {{color id=\"2\"}}mignon {{color id=\"65535\"}}et\n{{color id=\"2\"}}officiel{{color id=\"65535\"}}{{delay frames=\"8\"}}.{{delay frames=\"8\"}}.{{delay frames=\"8\"}}.{{delay frames=\"10\"}} Tu pourrais passer\npour {{fun_0006000E arg=\"0x0C0075006E00200072006F006900120075006E00650020007200650069006E006500\"}} légendaire !"
  },
  {
    "label": "053",
    "text": "{{anim id=\"37\"}}Ce style {{color id=\"2\"}}mignon {{color id=\"65535\"}}et {{color id=\"2\"}}luxueux\n{{color id=\"65535\"}}m'évoque les bals royaux\ndes contes de fées !"
  },
  {
    "label": "054",
    "text": "{{anim id=\"37\"}}Ce look {{color id=\"2\"}}mignon {{color id=\"65535\"}}et {{color id=\"2\"}}voyant{{color id=\"65535\"}} me fait\nme dire que « mignon » n'est pas\ntoujours synonyme de « sage » !"
  },
  {
    "label": "055",
    "text": "{{anim id=\"37\"}}{{color id=\"2\"}}Mignon {{color id=\"65535\"}}avec une touche {{color id=\"2\"}}moderne{{color id=\"65535\"}}{{delay frames=\"8\"}}.{{delay frames=\"8\"}}.{{delay frames=\"8\"}}.{{delay frames=\"10\"}}\nTe voilà {{fun_0006000E arg=\"0x0A00700061007200740069000C00700061007200740069006500\"}} pour devenir l'idole\nde la nouvelle génération !"
  },
  {
    "label": "056",
    "text": "{{anim id=\"37\"}}{{color id=\"2\"}}Rétro{{color id=\"65535\"}} et {{color id=\"2\"}}mignon{{color id=\"65535\"}}{{delay frames=\"8\"}}.{{delay frames=\"8\"}}.{{delay frames=\"8\"}}.{{delay frames=\"10\"}} Tu pourrais\npasser pour une poupée de\nporcelaine précieuse !"
  },
  {
    "label": "057",
    "text": "{{anim id=\"37\"}}{{color id=\"2\"}}Mignon {{color id=\"65535\"}}tout en restant {{color id=\"2\"}}simple{{color id=\"65535\"}}{{delay frames=\"8\"}}.{{delay frames=\"8\"}}.{{delay frames=\"8\"}}.{{delay frames=\"10\"}}\nCe style passe-partout a tout\npour plaire !"
  },
  {
    "label": "058",
    "text": "{{anim id=\"37\"}}{{color id=\"2\"}}Folklorique {{color id=\"65535\"}}et {{color id=\"2\"}}décalé{{color id=\"65535\"}}{{delay frames=\"8\"}}.{{delay frames=\"8\"}}.{{delay frames=\"8\"}}.{{delay frames=\"10\"}} Il fallait\ny penser ! Ton audace me plaît,\ndarling, c'est très réussi."
  },
  {
    "label": "059",
    "text": "{{anim id=\"37\"}}Avec ce look ultra{{color id=\"2\"}} folklorique {{color id=\"65535\"}}et\n{{color id=\"2\"}}officiel{{color id=\"65535\"}},{{delay frames=\"10\"}} j'ai failli faire la révérence\nquand je t'ai {{fun_0006000E arg=\"0x0400760075000600760075006500\"}} entrer !"
  },
  {
    "label": "060",
    "text": "{{anim id=\"37\"}}Tu as créé ce style {{color id=\"2\"}}folklorique\n{{color id=\"65535\"}}et {{color id=\"2\"}}luxueux {{color id=\"65535\"}}{{delay frames=\"10\"}}dans l'intention de\nressembler à {{fun_0006000E arg=\"0x1C0075006E002000670065006E00740069006C0068006F006D006D006500280075006E00650020006E006F0062006C0065002000640061006D006F006900730065006C006C006500\"}} ?"
  },
  {
    "label": "061",
    "text": "{{anim id=\"37\"}}Avec ce look{{color id=\"2\"}} folklorique {{color id=\"65535\"}}et {{color id=\"2\"}}voyant{{color id=\"65535\"}}{{delay frames=\"8\"}}.{{delay frames=\"8\"}}.{{delay frames=\"8\"}}.{{delay frames=\"10\"}}\nOn dirait que tu sors tout droit\ndu futur !"
  },
  {
    "label": "062",
    "text": "{{anim id=\"37\"}}{{color id=\"2\"}}Folklorique {{color id=\"65535\"}}mais {{color id=\"2\"}}moderne{{color id=\"65535\"}}{{delay frames=\"8\"}}.{{delay frames=\"8\"}}.{{delay frames=\"8\"}}.{{delay frames=\"10\"}} Un peu\ncomme si tu voulais faire croire que\nton style est le fruit du hasard."
  },
  {
    "label": "063",
    "text": "{{anim id=\"37\"}}{{color id=\"2\"}}Rétro {{color id=\"65535\"}}et {{color id=\"2\"}}folklorique{{color id=\"65535\"}}{{delay frames=\"8\"}}.{{delay frames=\"8\"}}.{{delay frames=\"8\"}}.{{delay frames=\"10\"}} Tu ferais\nbonne figure sur une photo de\nfamille des années 1900 !"
  },
  {
    "label": "064",
    "text": "{{anim id=\"37\"}}{{color id=\"2\"}}Simple{{color id=\"65535\"}} et {{color id=\"2\"}}folklorique{{color id=\"65535\"}}{{delay frames=\"8\"}}.{{delay frames=\"8\"}}.{{delay frames=\"8\"}}.{{delay frames=\"10\"}} Intemporel.\nCe style devrait servir d'inspiration\nà toutes les générations."
  },
  {
    "label": "065",
    "text": "{{anim id=\"27\"}}Oh darling, {{delay frames=\"10\"}}comment as-tu pu croire\nque mélanger les styles {{color id=\"2\"}}décalé {{color id=\"65535\"}}et\n{{color id=\"2\"}}officiel {{color id=\"65535\"}}serait une bonne idée{{delay frames=\"8\"}}.{{delay frames=\"8\"}}.{{delay frames=\"8\"}}."
  },
  {
    "label": "066",
    "text": "{{anim id=\"37\"}}Ce style {{color id=\"2\"}}décalé{{color id=\"65535\"}} et {{color id=\"2\"}}luxueux{{color id=\"65535\"}}{{delay frames=\"8\"}}.{{delay frames=\"8\"}}.{{delay frames=\"8\"}}.{{delay frames=\"10\"}} On\ndirait un bout de printemps qui\nse serait égaré par ici !"
  },
  {
    "label": "067",
    "text": "{{anim id=\"37\"}}Ce look {{color id=\"2\"}}voyant {{color id=\"65535\"}}et {{color id=\"2\"}}décalé {{color id=\"65535\"}}prouve\nque l'avenir ne sera pas aux\nstyles sages et aseptisés !"
  },
  {
    "label": "068",
    "text": "{{anim id=\"37\"}}Ce style {{color id=\"2\"}}moderne {{color id=\"65535\"}}et {{color id=\"2\"}}décalé{{color id=\"65535\"}} est la\npreuve que le rock est encore\ntotalement d'actualité !"
  },
  {
    "label": "069",
    "text": "{{anim id=\"37\"}}Mélanger {{color id=\"2\"}}rétro{{color id=\"65535\"}} et {{color id=\"2\"}}décalé{{color id=\"65535\"}}{{delay frames=\"8\"}}.{{delay frames=\"8\"}}.{{delay frames=\"8\"}}.{{delay frames=\"15\"}} Quelle\nréussite ! Tu as un sens du détail\nqui fait mouche !"
  },
  {
    "label": "070",
    "text": "{{anim id=\"27\"}}Oh darling, {{delay frames=\"10\"}}associer les looks\n{{color id=\"2\"}}simple {{color id=\"65535\"}}et {{color id=\"2\"}}décalé{{color id=\"65535\"}}{{delay frames=\"8\"}}.{{delay frames=\"8\"}}.{{delay frames=\"8\"}}. Quel faux pas !"
  },
  {
    "label": "071",
    "text": "{{anim id=\"37\"}}Ce style {{color id=\"2\"}}officiel {{color id=\"65535\"}}et {{color id=\"2\"}}luxueux{{color id=\"65535\"}}{{delay frames=\"8\"}}.{{delay frames=\"8\"}}.{{delay frames=\"8\"}}.{{delay frames=\"8\"}}\nDarling,{{delay frames=\"15\"}} c'est l'idéal pour briller\nen société en toute occasion !"
  },
  {
    "label": "072",
    "text": "{{delay frames=\"8\"}}.{{delay frames=\"8\"}}.{{delay frames=\"8\"}}.{{delay frames=\"8\"}}{{anim id=\"27\"}} Oh darling, {{delay frames=\"10\"}}quelle mouche t'a\n{{fun_0006000E arg=\"0x0A007000690071007500E9000C007000690071007500E9006500\"}} ? Mélanger les styles {{color id=\"2\"}}officiel\n{{color id=\"65535\"}}et {{color id=\"2\"}}voyant{{color id=\"65535\"}}, c'est une abomination{{delay frames=\"8\"}}.{{delay frames=\"8\"}}.{{delay frames=\"8\"}}."
  },
  {
    "label": "073",
    "text": "{{anim id=\"37\"}}{{color id=\"2\"}}Officiel{{color id=\"65535\"}}, mais {{color id=\"2\"}}moderne{{color id=\"65535\"}}{{delay frames=\"8\"}}.{{delay frames=\"8\"}}.{{delay frames=\"8\"}}.{{delay frames=\"15\"}}\nOn sent en toi la fibre de\n{{fun_0006000E arg=\"0x0E006C00270068006F006D006D00650010006C0061002000660065006D006D006500\"}} d'affaires moderne."
  },
  {
    "label": "074",
    "text": "{{anim id=\"37\"}}J'adore ce look {{color id=\"2\"}}officiel rétro {{color id=\"65535\"}}!\nCette touche nostalgique me donne\npresque la larme à l'œil."
  },
  {
    "label": "075",
    "text": "{{anim id=\"37\"}}{{color id=\"2\"}}Officiel{{color id=\"65535\"}},{{delay frames=\"10\"}} mais {{color id=\"2\"}}simple{{color id=\"65535\"}}{{delay frames=\"8\"}}.{{delay frames=\"8\"}}.{{delay frames=\"8\"}}.{{delay frames=\"15\"}}\nVoilà une tenue parfaite pour\nparaître en public !"
  },
  {
    "label": "076",
    "text": "{{anim id=\"37\"}}{{color id=\"2\"}}Luxueux {{color id=\"65535\"}}{{delay frames=\"10\"}}et {{color id=\"2\"}}voyant{{color id=\"65535\"}}{{delay frames=\"8\"}}.{{delay frames=\"8\"}}.{{delay frames=\"8\"}}.{{delay frames=\"15\"}} C'est fou la\nsynergie qui se dégage de\nl'association de ces deux styles !"
  },
  {
    "label": "077",
    "text": "{{anim id=\"37\"}}En mélangeant les styles {{color id=\"2\"}}moderne\n{{color id=\"65535\"}}et {{color id=\"2\"}}luxueux{{color id=\"65535\"}},{{delay frames=\"10\"}} tu t'es créé un look\nbien à toi !"
  },
  {
    "label": "078",
    "text": "{{anim id=\"37\"}}Darling, ce mélange {{color id=\"2\"}}rétro{{color id=\"65535\"}} et\n{{color id=\"2\"}}luxueux{{color id=\"65535\"}}...{{delay frames=\"10\"}} Une bonne fée t'a-t-elle\nfait don du chic à ta naissance ?"
  },
  {
    "label": "079",
    "text": "{{anim id=\"37\"}}Avec ce mélange {{color id=\"2\"}}simple {{color id=\"65535\"}}et {{color id=\"2\"}}luxueux{{color id=\"65535\"}},\ntu réussis à te faire remarquer sans\ntomber dans le tape-à-l'œil."
  },
  {
    "label": "080",
    "text": "{{anim id=\"37\"}}Ce mélange {{color id=\"2\"}}moderne {{color id=\"65535\"}}et {{color id=\"2\"}}voyant{{color id=\"65535\"}}...{{delay frames=\"10\"}}\nIl fallait oser, mais je vois que ce\ngenre de folie ne te fait pas peur !"
  },
  {
    "label": "081",
    "text": "{{anim id=\"37\"}}Avec ce style {{color id=\"2\"}}rétro{{color id=\"65535\"}} et {{color id=\"2\"}}voyant{{color id=\"65535\"}}...{{delay frames=\"10\"}} Tes\nchoix vestimentaires sont un tribut\nà ton grain de folie, pas vrai ?"
  },
  {
    "label": "082",
    "text": "{{anim id=\"27\"}}Oh darling, {{delay frames=\"10\"}}quelqu'un t'a forcé{{fun_0006000E arg=\"0x000002006500\"}} à\nassocier le style {{color id=\"2\"}}simple {{color id=\"65535\"}}et le style\n{{color id=\"2\"}}voyant {{color id=\"65535\"}}? C'est atroce{{delay frames=\"8\"}}.{{delay frames=\"8\"}}.{{delay frames=\"8\"}}."
  },
  {
    "label": "083",
    "text": "{{anim id=\"37\"}}Je ne me lasse pas de regarder ce\nmélange {{color id=\"2\"}}moderne {{color id=\"65535\"}}et {{color id=\"2\"}}rétro{{color id=\"65535\"}}.{{delay frames=\"10\"}} Tu\nreprésentes le passé ET le futur !"
  },
  {
    "label": "084",
    "text": "{{anim id=\"37\"}}{{color id=\"2\"}}Moderne {{color id=\"65535\"}}mais toutefois {{color id=\"2\"}}simple{{color id=\"65535\"}}.\nPour moi, il n'y a rien de plus\nréussi que ce mélange !"
  },
  {
    "label": "085",
    "text": "{{anim id=\"37\"}}Ton style {{color id=\"2\"}}rétro {{color id=\"65535\"}}et {{color id=\"2\"}}simple{{color id=\"65535\"}} me rend\nnostalgique.{{delay frames=\"10\"}} Ah, dans ma jeunesse...\nles gens s'habillaient comme toi !"
  }
]