﻿[
  {
    "label": "001",
    "text": "{{anim id=\"1\"}}Hello, {{fun_00000005 arg=\"\"}} !{{pageBreak}}Quel courage ! Tu as bravé toute\ncette neige pour visiter {{fun_00050005 arg=\"\"}} !\nC'est magnifique, {{fun_00070005 arg=\"\"}} !"
  },
  {
    "label": "002",
    "text": "{{anim id=\"37\"}}{{fun_0003000E arg=\"\"}}{{fun_00060007 arg=\"\"}}Bonjour{{fun_00070007 arg=\"\"}} !{{delay frames=\"20\"}}\nTu es bien couvert{{fun_0006000E arg=\"0x000002006500\"}}, {{fun_00000005 arg=\"\"}} ? {{delay frames=\"10\"}}Il\nfait si froid en ce moment !"
  },
  {
    "label": "003",
    "text": "{{anim id=\"37\"}}Sois {{fun_0006000E arg=\"0x16006C00650020006200690065006E00760065006E00750018006C00610020006200690065006E00760065006E0075006500\"}} à {{fun_00050005 arg=\"\"}}.{{pageBreak}}Il fait terriblement froid pour\nvoyager, mais je suis contente que\ntu sois venu{{fun_0006000E arg=\"0x000002006500\"}}, {{fun_00070005 arg=\"\"}}."
  },
  {
    "label": "004",
    "text": "{{anim id=\"15\"}}Oh, mais quelle idée, {{fun_00000005 arg=\"\"}}...{{delay frames=\"20\"}}\n{{anim id=\"37\"}}Venir ici par un temps pareil...{{pageBreak}}{{anim id=\"1\"}}Au moins, {{delay frames=\"10\"}}sache que tout\n{{fun_00050005 arg=\"\"}} est ravi de t'accueillir,\n{{fun_00070005 arg=\"\"}}."
  },
  {
    "label": "005",
    "text": "{{anim id=\"39\"}}Oh, {{fun_00000005 arg=\"\"}}... {{delay frames=\"10\"}}{{anim id=\"37\"}}Tu as fait tout ce\nchemin par ce temps glacial pour\nnous rendre visite ?\n{{anim id=\"37\"}}Quelle belle surprise... Sois {{fun_0006000E arg=\"0x04006C00650004006C006100\"}}\n{{fun_0006000E arg=\"0x10006200690065006E00760065006E00750012006200690065006E00760065006E0075006500\"}} chez nous, {{fun_00070005 arg=\"\"}}."
  },
  {
    "label": "006",
    "text": "{{anim id=\"37\"}}{{fun_0003000E arg=\"\"}}{{fun_00060007 arg=\"\"}}Bonjour{{fun_00070007 arg=\"\"}} !{{delay frames=\"10\"}}\nIl fait froid pour une visite matinale,\n{{fun_00070005 arg=\"\"}}.{{delay frames=\"20\"}}\n{{anim id=\"1\"}}Tu es vraiment très {{fun_0006000E arg=\"0x120063006F007500720061006700650075007800140063006F0075007200610067006500750073006500\"}}. {{delay frames=\"20\"}}En\ntout cas, c'est toujours un\nravissement de te voir à {{fun_00050005 arg=\"\"}}."
  },
  {
    "label": "007",
    "text": "{{anim id=\"37\"}}Bienvenue à {{fun_00050005 arg=\"\"}}, {{fun_00000005 arg=\"\"}}.{{delay frames=\"10\"}}\nIl va faire très froid cette nuit, alors\ncouvre-toi bien, {{fun_00070005 arg=\"\"}}."
  },
  {
    "label": "008",
    "text": "{{anim id=\"37\"}}Bienvenue, {{fun_00000005 arg=\"\"}}.{{pageBreak}}Notre ville n'est-elle pas\nmagnifique, {{delay frames=\"5\"}}surtout de nuit et sous\ntoute cette neige, {{fun_00070005 arg=\"\"}} ?"
  }
]