﻿[
  {
    "label": "001",
    "text": "{{anim id=\"37\"}}{{fun_0003000E arg=\"\"}}{{fun_00080005 arg=\"\"}},{{delay frames=\"10\"}} te souviens-tu que\nj'avais dit que je comptais\ndéménager ?\n{{anim id=\"39\"}}En fait,{{delay frames=\"10\"}} depuis, {{delay frames=\"10\"}}j'y ai bien réfléchi,{{delay frames=\"10\"}}\net j'en ai parlé à des amis{{delay frames=\"5\"}}.{{delay frames=\"5\"}}.{{delay frames=\"5\"}}.{{pageBreak}}{{anim id=\"13\"}}Et je pense que je ne trouverai\njamais meilleur endroit où vivre.{{delay frames=\"10\"}}\nAlors je reste ici !\n{{anim id=\"37\"}}À très bientôt en ville donc,\n{{fun_00070005 arg=\"\"}}."
  },
  {
    "label": "002",
    "text": "{{fun_00010009 arg=\"0x030004000500\"}}"
  },
  {
    "label": "003",
    "text": "{{anim id=\"37\"}}Dis, {{fun_00080005 arg=\"\"}},{{delay frames=\"20\"}} te souviens-tu que\nje comptais déménager,\n{{fun_00070005 arg=\"\"}} ?\n{{anim id=\"37\"}}Mais puisque tous mes amis,{{delay frames=\"8\"}} et\n{{fun_00000011 arg=\"0x0000\"}} en particulier,{{delay frames=\"8\"}} ont\ninsisté pour que je ne parte pas...\n{{anim id=\"1\"}}... tu seras ravi{{fun_0006000E arg=\"0x000002006500\"}} d'apprendre que\nj'ai décidé de rester ici."
  },
  {
    "label": "004",
    "text": "{{anim id=\"39\"}}Te souviens-tu que je t'avais dit que\nje quitterais bientôt la ville ?{{pageBreak}}Eh bien {{fun_00000011 arg=\"0x0000\"}} a fini par me\nconvaincre de revenir sur ma\ndécision{{delay frames=\"8\"}}.{{delay frames=\"8\"}}.{{delay frames=\"8\"}}.{{delay frames=\"20\"}} Je reste !\n{{anim id=\"9\"}}J'espère que tu en es ravi{{fun_0006000E arg=\"0x000002006500\"}}, toi\naussi, {{fun_00070005 arg=\"\"}}."
  },
  {
    "label": "005",
    "text": "{{anim id=\"1\"}}Je ne pars plus, {{fun_00080005 arg=\"\"}} ! {{delay frames=\"30\"}}Je\nt'avais dit l'autre jour que je\ncomptais déménager...\n... {{anim id=\"37\"}}mais j'ai changé d'avis, {{delay frames=\"10\"}}depuis.{{delay frames=\"30\"}}\nC'est {{fun_000A000E arg=\"0x080071007500650020000600710075002700\"}}{{fun_00000011 arg=\"0x0000\"}} a tant insisté\npour que je reste, {{delay frames=\"10\"}}que j'ai dû céder.\n{{anim id=\"1\"}}N'est-ce pas une plutôt bonne\nnouvelle, {{fun_00080005 arg=\"\"}} ?"
  }
]