﻿[
  {
    "label": "001",
    "text": "{{anim id=\"37\"}}Je crois que je vais encore faire des\nfolies{{delay frames=\"8\"}}.{{delay frames=\"8\"}}.{{delay frames=\"8\"}}.{{delay frames=\"8\"}} {{delay frames=\"8\"}}La question est : « Par quoi\nvais-je commencer ? »"
  },
  {
    "label": "002",
    "text": "{{anim id=\"17\"}}Tu ne sais pas si tu vas acheter\nquelque chose aujourd'hui, dis-tu ?{{pageBreak}}{{anim id=\"21\"}}C'est une question que je ne me suis\njamais posée, {{fun_00070005 arg=\"\"}} !"
  },
  {
    "label": "003",
    "text": "Il me faut {{fun_0002000E arg=\"\"}}{{fun_000F0005 arg=\"0x0000\"}} ! {{delay frames=\"15\"}}{{anim id=\"7\"}}\nJ'étais sûre que j'en trouverais un{{fun_0008000E arg=\"0x00CD0000020065000000\"}}\nici !"
  },
  {
    "label": "004",
    "text": "Ah{{delay frames=\"8\"}}.{{delay frames=\"8\"}}.{{delay frames=\"8\"}}.{{delay frames=\"8\"}}{{anim id=\"3\"}} Que c'est beau une boutique{{delay frames=\"8\"}}.{{delay frames=\"8\"}}.{{delay frames=\"8\"}}.{{delay frames=\"8\"}}\nN'est-ce pas, {{fun_00080005 arg=\"\"}} ?{{pageBreak}}{{anim id=\"21\"}}Même quand je n'ai plus de\nclochettes,{{delay frames=\"16\"}} je viens ici juste pour le\nplaisir des yeux..."
  },
  {
    "label": "005",
    "text": "{{anim id=\"21\"}}{{color id=\"4\"}}Méli{{color id=\"65535\"}} et {{color id=\"4\"}}Mélo {{color id=\"65535\"}}ont vraiment bien\ndécoré leur boutique.{{delay frames=\"30\"}}{{anim id=\"29\"}} C'est la plus\nbelle de tout {{fun_00050005 arg=\"\"}} !"
  }
]