﻿[
  {
    "label": "001",
    "text": "{{anim id=\"38\"}}Oh ! {{delay frames=\"20\"}}Je suis contente que tu aies pu\nvenir. Je suis sûre {{fun_000A000E arg=\"0x080071007500650020000600710075002700\"}}{{fun_00010011 arg=\"0x0000\"}}\nsera heureu{{fun_0008000E arg=\"0x00CD020078000400730065000000\"}} de te voir {{fun_0008000E arg=\"0x00CD06006C0075006900080065006C006C0065000000\"}} aussi.{{pageBreak}}{{anim id=\"28\"}}Surtout si tu lui as apporté un petit\ncadeau pour la circonstance{{delay frames=\"8\"}}.{{delay frames=\"8\"}}.{{delay frames=\"8\"}}."
  },
  {
    "label": "002",
    "text": "{{anim id=\"1\"}}Je suis contente de constater\n{{fun_000A000E arg=\"0x080071007500650020000600710075002700\"}}{{fun_00010011 arg=\"0x0000\"}} t'a invité{{fun_0006000E arg=\"0x000002006500\"}} aussi.{{delay frames=\"8\"}}{{pageBreak}}{{anim id=\"21\"}}J'adore les goûters d'anniversaire !{{delay frames=\"32\"}}\nTout le monde y est heureux et s'y\namuse. {{delay frames=\"32\"}}{{anim id=\"3\"}}Et en plus, {{delay frames=\"16\"}}il y a du gâteau !"
  },
  {
    "label": "003",
    "text": "{{anim id=\"38\"}}Oh, {{delay frames=\"16\"}}{{fun_00080005 arg=\"\"}} ! {{delay frames=\"30\"}}Quel plaisir de te\nvoir ici, {{fun_00070005 arg=\"\"}} !{{pageBreak}}{{anim id=\"36\"}}Je me doutais que tu viendrais à\nl'anniversaire {{fun_000A000E arg=\"0x0600640065002000040064002700\"}}{{fun_00010011 arg=\"0x0000\"}}.{{pageBreak}}{{anim id=\"44\"}}Maintenant que tu es là,{{delay frames=\"16\"}} la fête va\npouvoir commencer !"
  },
  {
    "label": "004",
    "text": "{{anim id=\"23\"}}Alors, {{fun_00080005 arg=\"\"}},{{delay frames=\"8\"}} quel genre de\ncadeau as-tu apporté pour \n{{fun_00010011 arg=\"0x0000\"}} ?\n{{anim id=\"11\"}}Moi, {{delay frames=\"20\"}}je ne sais jamais quoi lui\nacheter, {{delay frames=\"16\"}}alors je lui offre des fleurs\ntous les ans."
  },
  {
    "label": "005",
    "text": "{{anim id=\"23\"}}Tu as déjà donné son cadeau à\n{{fun_00010011 arg=\"0x0000\"}} ? {{delay frames=\"20\"}}Je n'ai pas vu ce que\nc'était.\n{{anim id=\"9\"}}Ah ? Tu ne l'as pas encore fait ?{{delay frames=\"30\"}} Eh\nbien qu'attends-tu ? {{delay frames=\"20\"}}Dépêche-toi !"
  },
  {
    "label": "006",
    "text": "{{anim id=\"9\"}}J'ai l'impression {{fun_000A000E arg=\"0x080071007500650020000600710075002700\"}}{{fun_00010011 arg=\"0x0000\"}} n'a\npas vraiment aimé mon cadeau,\n{{fun_00070005 arg=\"\"}}...\n{{anim id=\"12\"}}J'espère que le tien aura plus de\nsuccès..."
  },
  {
    "label": "007",
    "text": "{{anim id=\"1\"}}{{fun_00010011 arg=\"0x0000\"}} a vraiment l'air\nheureux ! {{delay frames=\"20\"}}Cela fait plaisir à voir,\n{{fun_00070005 arg=\"\"}} !\n{{anim id=\"23\"}}Penses-tu que c'est à cause des\ncadeaux qu'{{fun_0008000E arg=\"0x00CD040069006C00080065006C006C0065000000\"}} a reçus ?"
  },
  {
    "label": "008",
    "text": "{{anim id=\"38\"}}Quelle belle fête ! {{delay frames=\"30\"}}Tous ses amis\nsont réunis dans cette pièce.{{delay frames=\"20\"}} {{anim id=\"14\"}}{{delay frames=\"30\"}}Que\nc'est émouvant !{{delay frames=\"60\"}} Excuse-moi..."
  },
  {
    "label": "009",
    "text": "{{anim id=\"23\"}}Alors, dis-moi, comment {{fun_00010011 arg=\"0x0000\"}}\na-t-{{fun_0008000E arg=\"0x00CD040069006C00080065006C006C0065000000\"}} trouvé ton cadeau ?{{pageBreak}}{{fun_0008000E arg=\"0x00CD040049006C00080045006C006C0065000000\"}} l'a aimé ?{{delay frames=\"30\"}}{{anim id=\"29\"}} Oh,{{delay frames=\"8\"}} tant mieux !{{delay frames=\"20\"}} J'en\nsuis ravie !{{pageBreak}}{{anim id=\"9\"}}C'est horriblement embarrassant\nquand la personne ouvre un cadeau\net qu'elle fait une drôle de tête..."
  },
  {
    "label": "010",
    "text": "{{anim id=\"11\"}}Maintenant que j'y pense...{{delay frames=\"20\"}} Je ne\nsais même pas quel âge {{fun_00010011 arg=\"0x0000\"}}\na aujourd'hui.\n{{anim id=\"22\"}}Je sais !{{delay frames=\"20\"}} Je vais compter les bougies\nsur le gâteau !"
  },
  {
    "label": "011",
    "text": "{{anim id=\"11\"}}Certaines personnes n'aiment pas\nvieillir, {{delay frames=\"8\"}}mais moi, {{delay frames=\"16\"}}cela ne m'inquiète\npas, {{delay frames=\"8\"}}{{fun_00070005 arg=\"\"}}.\n{{anim id=\"6\"}}De toute façon,{{delay frames=\"16\"}} je ne dis jamais\nmon âge véritable quand on a\nl'impolitesse de me le demander !"
  },
  {
    "label": "012",
    "text": "{{anim id=\"1\"}}Hello !{{delay frames=\"30\"}} Nous n'avons pas encore été\nprésenté{{fun_0006000E arg=\"0x02007300040065007300\"}}, {{delay frames=\"8\"}}il me semble...{{delay frames=\"30\"}} Je suis\n{{fun_00010005 arg=\"\"}}, {{delay frames=\"20\"}}enchantée.\n{{anim id=\"37\"}}Tu es sûrement {{fun_0006000E arg=\"0x0E006E006F007500760065006100750010006E006F007500760065006C006C006500\"}} en ville,\n{{delay frames=\"8\"}}n'est-ce pas ?{{delay frames=\"30\"}} {{anim id=\"37\"}}Oh,{{delay frames=\"16\"}} {{fun_00010011 arg=\"0x0000\"}} a bien\nfait de t'inviter à son anniversaire.\n{{anim id=\"35\"}}C'est l'occasion pour toi de faire\nconnaissance avec nos voisins,{{delay frames=\"8\"}}\n{{fun_00070005 arg=\"\"}}."
  },
  {
    "label": "013",
    "text": ""
  },
  {
    "label": "014",
    "text": "{{anim id=\"23\"}}J'espère {{fun_000A000E arg=\"0x080071007500650020000600710075002700\"}}{{fun_00010011 arg=\"0x0000\"}} a apprécié\nton cadeau ?{{delay frames=\"20\"}}{{anim id=\"21\"}} Sinon, je m'en vais lui\ndire deux mots, moi, {{fun_00070005 arg=\"\"}} !\n{{anim id=\"6\"}}Je ne supporte pas les moujiks et\nautres rustauds qui font la grimace\nquand on leur tend un présent !\n{{anim id=\"8\"}}Même un cadeau modeste est offert\navec le cœur, ces pignoufs doivent\nse rentrer ça dans le crâne !"
  },
  {
    "label": "015",
    "text": "{{anim id=\"11\"}}Au fait...{{delay frames=\"8\"}} Ça lui fait quel âge,\nà {{fun_00010011 arg=\"0x0000\"}} ?{{delay frames=\"8\"}} Le temps passe si\nvite.{{delay frames=\"8\"}}.{{delay frames=\"8\"}}.{{delay frames=\"8\"}}{{anim id=\"10\"}} Et je calcule si lentement..."
  },
  {
    "label": "016",
    "text": "{{anim id=\"4\"}}Vivement mon prochain\nanniversaire !{{delay frames=\"8\"}} Ce sera une fête\ndrôle et raffinée, comme moi !\n{{anim id=\"0\"}}J'aimerais fêter mon anniversaire\ntous les jours, mais je ne peux pas :{{delay frames=\"8\"}}{{anim id=\"9\"}}\nje vieillirais beaucoup trop vite !"
  },
  {
    "label": "017",
    "text": "{{anim id=\"16\"}}Absolument !{{delay frames=\"16\"}}{{anim id=\"37\"}} Je vois que tu es bien\nrenseigné{{fun_0006000E arg=\"0x000002006500\"}} :{{delay frames=\"8\"}} aujourd'hui, c'est aussi\nl'anniversaire {{fun_000A000E arg=\"0x0600640065002000040064002700\"}}{{fun_00010011 arg=\"0x0100\"}} !\n{{anim id=\"15\"}}C'est incroyable que ça tombe le\nmême jour !{{delay frames=\"8\"}} Tu te rends compte ?{{delay frames=\"16\"}}\n{{anim id=\"11\"}}Il y avait une chance sur...\n.{{delay frames=\"8\"}}.{{delay frames=\"8\"}}.{{delay frames=\"8\"}} Alors, je retiens trois, je multiplie\npar dix puissance 13 divisé par\npi au carré...\n.{{delay frames=\"8\"}}.{{delay frames=\"8\"}}.{{delay frames=\"8\"}}\n{{anim id=\"22\"}}Une chance sur dix milliards !{{delay frames=\"8\"}}\nAu moins, {{fun_00070005 arg=\"\"}} !"
  },
  {
    "label": "018",
    "text": "{{anim id=\"21\"}}Tu sais {{fun_000A000E arg=\"0x080071007500650020000600710075002700\"}}{{fun_00010011 arg=\"0x0100\"}} fête aussi\nson anniversaire, {{fun_00070005 arg=\"\"}} ?{{pageBreak}}{{anim id=\"36\"}}Moi, je ne peux pas y aller, parce\nque je suis déjà ici et que je ne peux\npas être à deux endroits à la fois...\n{{anim id=\"9\"}}Mais {{fun_00010011 arg=\"0x0100\"}} sera sûrement très\nmalheureu{{fun_0008000E arg=\"0x01CD020078000400730065000000\"}} que je ne sois pas là...\nTu ne veux pas aller l{{fun_0008000E arg=\"0x01CD02006500020061000000\"}} consoler ?"
  }
]