﻿[
  {
    "label": "001",
    "text": "{{anim id=\"37\"}}Quoi qu'il en soit, merci,\n{{fun_00080005 arg=\"\"}}."
  },
  {
    "label": "002",
    "text": "{{anim id=\"37\"}}Quoi qu'il en soit, merci à toi,\n{{fun_00080005 arg=\"\"}}."
  },
  {
    "label": "003",
    "text": "{{anim id=\"11\"}}Je devrais te récompenser pour ton\naide, {{fun_00080005 arg=\"\"}}...{{pageBreak}}{{anim id=\"22\"}}Oh, je sais ! {{delay frames=\"30\"}}{{anim id=\"37\"}}{{delay frames=\"20\"}}Prends donc\n{{fun_0001000E arg=\"\"}}{{fun_00030011 arg=\"0x0100\"}} que je\nportais !"
  },
  {
    "label": "004",
    "text": "{{anim id=\"37\"}}Je suis certaine que cela t'ira mieux\nqu'à moi..."
  },
  {
    "label": "005",
    "text": "{{anim id=\"11\"}}Je devrais te remercier pour ton\naide, {{fun_00070005 arg=\"\"}}...{{pageBreak}}{{anim id=\"22\"}}Oh, je sais ! {{delay frames=\"30\"}}{{anim id=\"37\"}}{{delay frames=\"20\"}}Prends donc ceci.\nC'est {{fun_0002000E arg=\"\"}}{{fun_00030011 arg=\"0x0100\"}}."
  },
  {
    "label": "006",
    "text": "{{anim id=\"1\"}}C'est bien mérité !{{delay frames=\"20\"}} Et ne t'en fais\npas pour moi, {{fun_00080005 arg=\"\"}}. J'en ai\nplein d'autres, {{fun_00070005 arg=\"\"}}."
  },
  {
    "label": "007",
    "text": "{{anim id=\"37\"}}Quoi qu'il en soit, {{delay frames=\"20\"}}un grand merci à\ntoi, {{fun_00080005 arg=\"\"}}. {{delay frames=\"30\"}}Accepte ceci, en\ntémoignage de ma gratitude."
  },
  {
    "label": "008",
    "text": "{{anim id=\"11\"}}Il faut que je te remercie pour ton\naide, {{fun_00080005 arg=\"\"}}...{{pageBreak}}{{anim id=\"22\"}}Oh, je sais ! {{delay frames=\"30\"}}{{anim id=\"37\"}}{{delay frames=\"20\"}}Prends donc ceci."
  },
  {
    "label": "009",
    "text": "{{anim id=\"37\"}}Dis, {{fun_0001000E arg=\"\"}}{{fun_00030011 arg=\"0x0100\"}}\nque je te donne, prends-en soin,\nhein.\n{{fun_0008000E arg=\"0x01CD040049006C00080045006C006C0065000000\"}} est relativement rare, alors ne\n{{fun_0008000E arg=\"0x01CD04006C00650004006C0061000000\"}} perds pas."
  },
  {
    "label": "010",
    "text": "{{anim id=\"37\"}}C'est {{fun_0002000E arg=\"\"}}{{fun_00030011 arg=\"0x0100\"}}.{{delay frames=\"10\"}}\n{{fun_0008000E arg=\"0x01CD040049006C00080045006C006C0065000000\"}} sera du meilleur effet chez toi,\nj'en suis sûre."
  },
  {
    "label": "011",
    "text": "{{anim id=\"37\"}}Il est peut-être temps pour toi de\nchanger de look.{{delay frames=\"10\"}} C'est {{fun_0002000E arg=\"\"}}\n{{fun_00030011 arg=\"0x0100\"}}.\nJe suis sûre qu'{{fun_0008000E arg=\"0x01CD040069006C00080065006C006C0065000000\"}} t'ira très bien."
  },
  {
    "label": "012",
    "text": "{{anim id=\"37\"}}Tu prendras bien {{fun_0002000E arg=\"\"}}\n{{fun_00030011 arg=\"0x0100\"}} pour la\nroute, {{fun_00080005 arg=\"\"}}..."
  },
  {
    "label": "013",
    "text": ""
  },
  {
    "label": "014",
    "text": ""
  }
]