﻿[
  {
    "label": "001",
    "text": "{{anim id=\"37\"}}{{fun_0003000E arg=\"\"}}{{fun_00080005 arg=\"\"}} !{{delay frames=\"20\"}} S'il te plaît ! {{delay frames=\"30\"}}J'ai\nbesoin de ton aide ! {{delay frames=\"60\"}}Voilà,{{delay frames=\"20\"}} j'ai fait\nun pari avec {{fun_00030005 arg=\"\"}}...\n{{fun_0003000E arg=\"\"}}{{fun_0002000E arg=\"\"}}{{fun_001A0005 arg=\"0x00CD\"}} que\nje gagnerai la prochaine\ncompétition de {{fun_00110005 arg=\"0x0000\"}}.\n{{anim id=\"10\"}}Mais pour cela,{{delay frames=\"20\"}} il faudrait que je\nm'entraîne...{{pageBreak}}Et je ne connais rien de tel qu'une\npartie de cache-cache pour les\nréflexes.\nVeux-tu bien y jouer avec moi,{{delay frames=\"10\"}}\n{{fun_00080005 arg=\"\"}} ?{{fun_0008000D arg=\"0x02CD\"}}{{fun_0005000F arg=\"0x15002800\"}}\nOK ! Bonne idée !\nNon. Pas question."
  },
  {
    "label": "002",
    "text": "{{anim id=\"37\"}}Pfff...{{delay frames=\"45\"}} je crois que j'ai mangé trop\n{{fun_000A000E arg=\"0x0600640065002000040064002700\"}}{{fun_00100005 arg=\"0x0000\"}}...{{pageBreak}}Ce qui me ferait du bien maintenant,{{delay frames=\"15\"}}\nce serait un peu d'exercice !{{pageBreak}}{{anim id=\"23\"}}Oh ! {{delay frames=\"15\"}}Et si nous faisions une partie\nde cache-cache ? {{delay frames=\"20\"}}Qu'en dis-tu ?{{fun_0008000D arg=\"0x02CD\"}}{{fun_0005000F arg=\"0x15002800\"}}\nC'est moi qui cherche.\nPas aujourd'hui."
  },
  {
    "label": "003",
    "text": "{{anim id=\"39\"}}Dis,{{delay frames=\"15\"}} {{fun_00080005 arg=\"\"}}, {{delay frames=\"15\"}}j'ai une folle envie\nde faire une partie de cache-cache...{{delay frames=\"30\"}}\nPas toi,{{delay frames=\"10\"}} {{fun_00070005 arg=\"\"}} ?{{fun_0008000D arg=\"0x02CD\"}}{{fun_0005000F arg=\"0x15002800\"}}\nSi ! Bonne idée !\nPas vraiment, non."
  }
]