﻿[
  {
    "label": "001",
    "text": "{{anim id=\"32\"}}Yo, {{fun_0006000E arg=\"0x1400700027007400690074002000670061007200730012006D00610020006700720061006E0064006500\"}} ! {{delay frames=\"8\"}}Comment ça va,\nl'entraînement ?{{pageBreak}}{{anim id=\"21\"}}Perso, j'ai décidé d'ajouter une\nnouvelle corde à mon arc en\nparticipant à une course...\n{{anim id=\"33\"}}La course à la mairie de Puzzleville !{{delay frames=\"8\"}}\nEt je te préviens, j'ai pas l'intention\nde faire un faux départ !"
  },
  {
    "label": "002",
    "text": "{{anim id=\"33\"}}Quand je me tiendrai au sommet du\npodium électoral, que la médaille\nd'or politique brillera à mon cou...\n{{anim id=\"21\"}}Quand je serai maire, donc, ce sera\nt-shirt {{fun_00230005 arg=\"0x00CD\"}} pour tout\nle monde !\n{{anim id=\"38\"}}Un village, c'est comme une équipe,\nil faut un maillot ! {{delay frames=\"8\"}}Et cette équipe,\nj'en serai le capitaine !\n{{anim id=\"5\"}}Alors si vous voulez que Puzzleville\nsoit une ville de gagnants, soutenez\n{{fun_00010005 arg=\"\"}}, {{fun_00070005 arg=\"\"}} !"
  },
  {
    "label": "003",
    "text": "{{anim id=\"6\"}}Bien, mon programme est au point.{{delay frames=\"8\"}}\nPlus qu'à doper ma candidature en\nallant à la rencontre du public !\n{{anim id=\"41\"}}Enfin, des électeurs.{{delay frames=\"8\"}}.{{delay frames=\"8\"}}.{{delay frames=\"8\"}}{{anim id=\"36\"}} Bref, bonne\nchance, {{fun_00000005 arg=\"\"}}, essaie de ne pas\npaumer avant que je sois revenu !"
  },
  {
    "label": "004",
    "text": "{{fun_00020007 arg=\"\"}}Lors de ce tour, tu peux booster\nta cote de popularité en éliminant\ndes {{color id=\"2\"}}blocs bonbon{{color id=\"65535\"}}.{{fun_00030007 arg=\"\"}}{{delay frames=\"40\"}}\n{{fun_00020007 arg=\"\"}}Pour cela, tu dois éliminer des\nblocs adjacents aux {{color id=\"2\"}}blocs bonbon{{color id=\"65535\"}}.{{fun_00030007 arg=\"\"}}{{delay frames=\"40\"}}"
  },
  {
    "label": "006",
    "text": "Yo, {{fun_00000005 arg=\"\"}} ! T'es prêt{{fun_0006000E arg=\"0x000002006500\"}} pour\nle match du siècle, {{fun_0006000E arg=\"0x1400700027007400690074002000670061007200730012006D00610020006700720061006E0064006500\"}} ?"
  },
  {
    "label": "007",
    "text": "{{anim id=\"5\"}}C'est parti mon kiki, {{fun_00070005 arg=\"\"}} !"
  },
  {
    "label": "008",
    "text": ""
  },
  {
    "label": "009",
    "text": ""
  },
  {
    "label": "011",
    "text": "{{anim id=\"41\"}}Ouah, tu m'as carrément corrigé !{{delay frames=\"40\"}}\n{{anim id=\"35\"}}On se demande où tu les caches,\nmais t'as des muscles, {{fun_0006000E arg=\"0x1400700027007400690074002000670061007200730012006D00610020006700720061006E0064006500\"}} !"
  },
  {
    "label": "012",
    "text": "{{anim id=\"1\"}}Enfin, c'était un beau match,\nje suis en nage !{{pageBreak}}On échange nos maillots, comme\nd'hab ?{{delay frames=\"8\"}}.{{delay frames=\"8\"}}.{{delay frames=\"8\"}}.{{delay frames=\"8\"}} {{anim id=\"15\"}}Non ? Pourquoi pas ?"
  },
  {
    "label": "013",
    "text": ""
  },
  {
    "label": "014",
    "text": ""
  },
  {
    "label": "016",
    "text": "{{anim id=\"42\"}}C'est la danse des vainqueurs,{{delay frames=\"8\"}} qui\nparce qu'ils sont les meilleurs,{{delay frames=\"8\"}} se\nbalancent le ciboulot,{{delay frames=\"8\"}} yo{{delay frames=\"8\"}} yo !\n{{anim id=\"33\"}}J'ai gaaaaagnéééé !"
  },
  {
    "label": "017",
    "text": "{{anim id=\"33\"}}{{fun_00010005 arg=\"\"}} :{{delay frames=\"8\"}} retiens bien ce nom,\n{{fun_0006000E arg=\"0x1400700027007400690074002000670061007200730012006D00610020006700720061006E0064006500\"}}, tu n'entendras bientôt\nplus que lui !"
  },
  {
    "label": "018",
    "text": ""
  },
  {
    "label": "019",
    "text": ""
  }
]