﻿[
  {
    "label": "001",
    "text": "{{anim id=\"15\"}}Oh, bonjour ! Vous n'êtes pas\nd'ici, il me semble ?{{pageBreak}}{{anim id=\"1\"}}Dans ce cas, j'ai l'honneur de\nvous souhaiter la bienvenue à\n{{fun_00050005 arg=\"\"}} !\n{{anim id=\"0\"}}Je travaille comme secrétaire à la\nmairie mais j'ai pris ma journée afin\nde m'adonner aux joies du camping !\n{{anim id=\"5\"}}Je laisse un peu reposer les\ndossiers tout en me reposant\nmoi-même. {{delay frames=\"20\"}}{{anim id=\"1\"}}Amusez-vous bien !"
  },
  {
    "label": "002",
    "text": "{{anim id=\"15\"}}Ça alors, {{fun_0006000E arg=\"0x10004D006F006E00730069006500750072000C004D006100640061006D006500\"}} le maire !{{delay frames=\"30\"}}\n{{anim id=\"23\"}}Vous n'étiez pas à ma recherche,\nau moins ?\n{{anim id=\"9\"}}Oh, vous m'en voyez navrée !{{delay frames=\"8\"}} Il me\nsemblait pourtant vous l'avoir dit,\nmais j'ai dû oublier...\n{{anim id=\"37\"}}Aujourd'hui, j'ai pris ma journée...{{delay frames=\"8\"}}\nMais soyez tranquille, je reviens dès\ndemain !"
  },
  {
    "label": "003",
    "text": "{{anim id=\"15\"}}Ça alors, {{fun_00000005 arg=\"\"}} !{{delay frames=\"30\"}}\n{{anim id=\"23\"}}Vous n'avez pas besoin d'un service\nde la mairie, au moins ?\n{{anim id=\"9\"}}Oh, vous m'en voyez navrée !{{delay frames=\"8\"}} Il me\nsemblait pourtant l'avoir annoncé,\nmais j'ai dû oublier...\n{{anim id=\"37\"}}Aujourd'hui, j'ai pris ma journée...{{delay frames=\"8\"}}\nMais soyez tranquille, je serai à\nnouveau à la mairie demain !"
  },
  {
    "label": "004",
    "text": ""
  },
  {
    "label": "005",
    "text": ""
  },
  {
    "label": "006",
    "text": "{{fun_00030009 arg=\"0x0D000E000F0010001100\"}}"
  },
  {
    "label": "007",
    "text": "{{fun_001A000A arg=\"0x08000900\"}}"
  },
  {
    "label": "008",
    "text": "{{fun_00040009 arg=\"0x0B000D000E000F0010001100\"}}"
  },
  {
    "label": "009",
    "text": "{{fun_00040009 arg=\"0x0C000D000E000F0010001100\"}}"
  },
  {
    "label": "011",
    "text": "{{anim id=\"9\"}}Je suis désolée, j'aurais dû vous\nprévenir qu'aujourd'hui j'irais\ncamper... J'ai complètement oublié.\n{{anim id=\"21\"}}Mais je serai au bureau demain à la\npremière heure, fraîche et dispose !"
  },
  {
    "label": "012",
    "text": "{{anim id=\"9\"}}Je suis désolée, j'aurais dû prévenir\nles administrés qu'aujourd'hui j'irais\ncamper... J'ai complètement oublié.\n{{anim id=\"21\"}}Mais je serai au bureau demain à la\npremière heure, fraîche et dispose !"
  },
  {
    "label": "013",
    "text": "{{anim id=\"3\"}}Quel plaisir de se détendre ainsi,\nau cœur de la belle et souveraine\nnature !\nEt quelle joie de redécouvrir toutes\nles merveilles {{fun_000A000E arg=\"0x0600640065002000040064002700\"}}{{fun_00050005 arg=\"\"}} sous\ncet angle !"
  },
  {
    "label": "014",
    "text": "{{anim id=\"40\"}}Je n'ai jamais vraiment quitté\n{{fun_00050005 arg=\"\"}}...{{pageBreak}}{{anim id=\"43\"}}Mais voilà que je me surprends à\navoir des envies d'aventure... et de\ncaravaneries inédites !"
  },
  {
    "label": "015",
    "text": "{{anim id=\"37\"}}Tout le monde a besoin de faire\nun break de temps en temps...{{pageBreak}}{{anim id=\"43\"}}Oublier un peu le bureau, laisser\nla paperasse dans un tiroir, se\nsoulager du stress accumulé...{{pageBreak}}{{anim id=\"5\"}}Puis revenir, l'enthousiasme au\ncœur et les batteries chargées à\nbloc, pour reprendre de plus belle !"
  },
  {
    "label": "016",
    "text": "{{anim id=\"37\"}}Faites comme chez vous !{{delay frames=\"8\"}}\nMon camping-car est le\ncamping-car de mes ami{{fun_0006000E arg=\"0x000002006500\"}}s !\n{{anim id=\"0\"}}Vous pouvez même utiliser des {{color id=\"2\"}}bons\nde commerce{{color id=\"65535\"}} si vous le désirez !"
  },
  {
    "label": "017",
    "text": "{{anim id=\"23\"}}Vous ne saviez pas qu'il m'arrivait\nde porter des lunettes ?{{pageBreak}}{{anim id=\"37\"}}C'est que j'ai la vue un peu basse...{{delay frames=\"8\"}}\nMais j'utilise des verres de contact\nquand je travaille.\n{{anim id=\"21\"}}Du coup, la plupart des gens\nn'y voient que du feu !"
  }
]