﻿[
  {
    "label": "001",
    "text": "{{i10_11 arg=\"0x1007000600CD\"}}"
  },
  {
    "label": "002",
    "text": "{{i10_11 arg=\"0x100B000A00CD\"}}"
  },
  {
    "label": "003",
    "text": "{{i10_11 arg=\"0x100D000C00CD\"}}"
  },
  {
    "label": "004",
    "text": "{{i10_11 arg=\"0x100F000E00CD\"}}"
  },
  {
    "label": "005",
    "text": "{{i10_11 arg=\"0x1011001000CD\"}}"
  },
  {
    "label": "006",
    "text": "{{anim id=\"37\"}}Hé, {{fun_00060007 arg=\"\"}}{{fun_00080005 arg=\"\"}}{{fun_00070007 arg=\"\"}},\n{{delay frames=\"5\"}}tu survis malgré la pluie toi aussi,\n{{fun_00070005 arg=\"\"}} ?"
  },
  {
    "label": "007",
    "text": "{{fun_0016000A arg=\"0x0408000900CD\"}}"
  },
  {
    "label": "008",
    "text": "{{anim id=\"23\"}}Un parapluie, {{delay frames=\"8\"}}par ce temps\nmagnifique ?{{delay frames=\"20\"}} {{anim id=\"3\"}}Mais tu n'y penses\npas ! {{delay frames=\"8\"}}Quel sacrilège, {{fun_00080005 arg=\"\"}} !"
  },
  {
    "label": "009",
    "text": "{{anim id=\"23\"}}Tu ne sors pas ton parapluie par ce\ntemps ? {{delay frames=\"10\"}}Ouah, tu prends des risques\ndans la vie. {{delay frames=\"15\"}}Cool, {{fun_00070005 arg=\"\"}}."
  },
  {
    "label": "010",
    "text": "{{anim id=\"37\"}}Alors, {{fun_00080005 arg=\"\"}}, {{delay frames=\"5\"}}encore à\ngambader sous la pluie,\n{{fun_00070005 arg=\"\"}} ?"
  },
  {
    "label": "011",
    "text": "{{anim id=\"4\"}}Ô pluie,{{delay frames=\"8\"}} ma déesse adorée !\nTombe, {{delay frames=\"8\"}}tombe,{{delay frames=\"8\"}} tombe sur ma tête !{{pageBreak}}{{fun_000A0007 arg=\"\"}}{{anim id=\"17\"}}HEIN ?! {{delay frames=\"8\"}}{{fun_0003000E arg=\"\"}}{{fun_00080005 arg=\"\"}} ?! {{delay frames=\"10\"}}Euh... {{delay frames=\"5\"}}Hem.\nBon, {{delay frames=\"10\"}}on va dire que t'as rien vu,{{delay frames=\"8\"}}\nOK ?"
  },
  {
    "label": "012",
    "text": "Hé, {{delay frames=\"5\"}}{{fun_00060007 arg=\"\"}}re, {{fun_00080005 arg=\"\"}}{{fun_00070007 arg=\"\"}}.\n{{anim id=\"12\"}}{{delay frames=\"10\"}}T'as vu ça ?{{delay frames=\"8\"}} Avec cette pluie, mes\nhabits ont rétréci...\n{{anim id=\"12\"}}Ma classe légendaire en prend un\nsacré coup, {{fun_00070005 arg=\"\"}}..."
  },
  {
    "label": "013",
    "text": "{{anim id=\"5\"}}Quoi de plus merveilleux que la\npluie, {{fun_00080005 arg=\"\"}} ?{{delay frames=\"20\"}} Touche ma peau,\ncomme elle est lisse et glaireuse !\n{{anim id=\"15\"}}{{fun_000A0007 arg=\"\"}}Comment ça,{{delay frames=\"8\"}} « BEURK » ?!{{delay frames=\"15\"}} {{anim id=\"40\"}}Je vois,{{delay frames=\"8\"}}\non fait pas partie du même monde,\ndécidément, {{delay frames=\"8\"}}{{fun_00070005 arg=\"\"}}..."
  },
  {
    "label": "014",
    "text": "{{anim id=\"37\"}}Tu espères toujours passer entre\nles gouttes, {{fun_00080005 arg=\"\"}} ?{{delay frames=\"5\"}} Hé hé,\n{{fun_00070005 arg=\"\"}}."
  },
  {
    "label": "015",
    "text": "{{anim id=\"5\"}}Hé, {{fun_00080005 arg=\"\"}}. {{delay frames=\"5\"}}Toi aussi, tu aimes\nrester sous la pluie pour rendre ta\npeau plus luisante ? {{delay frames=\"8\"}}{{fun_0003000E arg=\"\"}}{{fun_00070005 arg=\"\"}} !"
  },
  {
    "label": "016",
    "text": "{{anim id=\"27\"}}Regarde un peu tes cheveux,\n{{fun_00080005 arg=\"\"}}...{{delay frames=\"20\"}} Tu n'as donc aucun\namour propre ?\n{{anim id=\"40\"}}Et non : {{delay frames=\"8\"}}la pluie n'est PAS une\nexcuse."
  },
  {
    "label": "017",
    "text": "{{anim id=\"11\"}}Dis, {{delay frames=\"5\"}}c'est quoi cette manie qu'ont\nles gens de sortir leur parapluie\ndès qu'il pleut,{{delay frames=\"8\"}} {{fun_00070005 arg=\"\"}} ?\n{{anim id=\"8\"}}Ça me met hors de moi !{{delay frames=\"8\"}} La pluie\nest excellente pour la peau.{{delay frames=\"15\"}} C'est\npourtant simple à comprendre !"
  }
]