﻿[
  {
    "label": "001",
    "text": "{{anim id=\"37\"}}{{fun_0003000E arg=\"\"}}{{fun_00060007 arg=\"\"}}Hé, c'est toi{{fun_00070007 arg=\"\"}}.{{delay frames=\"10\"}}\nJe te vois partout ce matin, dis-moi,\n{{delay frames=\"5\"}}{{fun_00070005 arg=\"\"}} ! {{delay frames=\"8\"}}Mais c'est cool."
  },
  {
    "label": "002",
    "text": "{{anim id=\"37\"}}Tu sais, {{delay frames=\"5\"}}pas la peine de se précipiter\nce matin, {{fun_00080005 arg=\"\"}}.{{delay frames=\"10\"}} On aura une\nmaxi-dose de soleil aujourd'hui.\nSi tu te précipites, tu vas suer, et la\nsueur, {{delay frames=\"8\"}}c'est l'antithèse de la classe.{{delay frames=\"15\"}}\nÉcoute le spécialiste, {{fun_00070005 arg=\"\"}}."
  },
  {
    "label": "003",
    "text": "{{anim id=\"37\"}}Eh bien, {{delay frames=\"5\"}}qui revoilà ?{{delay frames=\"8\"}} {{fun_0003000E arg=\"\"}}{{fun_00080005 arg=\"\"}} !{{delay frames=\"10\"}}\nCe solstice te rend {{fun_0006000E arg=\"0x1C0074006F007500740020006700750069006C006C006500720065007400220074006F0075007400650020006700750069006C006C00650072006500740074006500\"}},\nhein ? {{delay frames=\"15\"}}Ou c'est le fait de me voir ?"
  },
  {
    "label": "004",
    "text": "{{anim id=\"37\"}}Re, {{fun_00080005 arg=\"\"}}.{{delay frames=\"10\"}} Je t'aime bien, mais\non se voit quand même trop, là.\n{{delay frames=\"8\"}}{{fun_0003000E arg=\"\"}}{{fun_00070005 arg=\"\"}}.\n{{anim id=\"1\"}}Je sais : t'essaie d'imiter le soleil\naujourd'hui, {{delay frames=\"15\"}}en me collant aux\nbasques jusqu'au bout la nuit, hein ?"
  },
  {
    "label": "005",
    "text": "{{anim id=\"37\"}}Comme le soleil aujourd'hui, {{delay frames=\"20\"}}je te\nvois partout où je vais, {{fun_00080005 arg=\"\"}}.{{pageBreak}}{{anim id=\"9\"}}Je sais que c'est dur pour toi, mais {{delay frames=\"10\"}}\nessaie de m'oublier ne serait-ce\nqu'une journée..."
  },
  {
    "label": "006",
    "text": "{{anim id=\"37\"}}{{fun_0003000E arg=\"\"}}{{fun_00060007 arg=\"\"}}Hé, re{{fun_00070007 arg=\"\"}}.\nTu n'as pas l'impression de tourner\nen rond, {{fun_00080005 arg=\"\"}} ?\n{{anim id=\"18\"}}Qu'est-ce que tu dis ?! {{delay frames=\"8\"}}C'est MOI\nqui tourne pas rond ?! {{delay frames=\"15\"}}{{anim id=\"9\"}}Pfff, cette\njeunesse..."
  },
  {
    "label": "007",
    "text": "{{anim id=\"37\"}}{{fun_0003000E arg=\"\"}}{{fun_00060007 arg=\"\"}}Hé, encore toi{{fun_00070007 arg=\"\"}}.{{delay frames=\"20\"}}{{pageBreak}}{{anim id=\"21\"}}Bon, je pense que le soleil va quand\nmême aller se coucher finalement,{{delay frames=\"5\"}}\n{{delay frames=\"5\"}}{{fun_00070005 arg=\"\"}}. {{anim id=\"40\"}}{{delay frames=\"15\"}}Ou pas."
  },
  {
    "label": "008",
    "text": "{{anim id=\"15\"}}Ouah, {{delay frames=\"8\"}}{{fun_00030004 arg=\"\"}} h {{fun_00040004 arg=\"\"}} ?! {{delay frames=\"20\"}}On se croirait en\nplein après-midi, {{fun_00070005 arg=\"\"}} ! {{delay frames=\"5\"}}{{anim id=\"37\"}}Le\nsolstice d'été, c'est insensé. Hé hé."
  },
  {
    "label": "009",
    "text": "{{anim id=\"37\"}}Encore debout, {{fun_00080005 arg=\"\"}} ? {{delay frames=\"15\"}}Tu\nsais, le soleil ne montre pas le bon\nexemple aujourd'hui, {{fun_00070005 arg=\"\"}}."
  }
]