﻿[
  {
    "label": "001",
    "text": "{{anim id=\"37\"}}Alors, qu'est-ce que je peux faire\npour toi ?"
  },
  {
    "label": "002",
    "text": "Alors, qu'est-ce que tu racontes de\nbeau ?"
  },
  {
    "label": "003",
    "text": "T'as un truc à me dire,\n{{fun_00070005 arg=\"\"}} ?"
  }
]