﻿[
  {
    "label": "001",
    "text": "{{fun_00040009 arg=\"0x4700480049004A004B004C00\"}}"
  },
  {
    "label": "002",
    "text": "{{fun_00040009 arg=\"0x4700480049004A004B004C00\"}}"
  },
  {
    "label": "003",
    "text": "{{fun_00040009 arg=\"0x4700480049004A004B004C00\"}}"
  },
  {
    "label": "004",
    "text": "{{anim id=\"36\"}}Tiens, c'est {{fun_00030011 arg=\"0x0100\"}}.{{delay frames=\"20\"}}\nJe savais pas {{fun_000A000E arg=\"0x080071007500650020000600710075002700\"}}{{fun_00010011 arg=\"0x0000\"}} aimait\nce genre de chansons..."
  },
  {
    "label": "005",
    "text": "{{fun_00040009 arg=\"0x4700480049004A004B004C00\"}}"
  },
  {
    "label": "006",
    "text": "{{fun_00040009 arg=\"0x4700480049004A004B004C00\"}}"
  },
  {
    "label": "007",
    "text": "{{fun_00040009 arg=\"0x4700480049004A004B004C00\"}}"
  },
  {
    "label": "008",
    "text": "{{fun_00040009 arg=\"0x4700480049004A004B004C00\"}}"
  },
  {
    "label": "009",
    "text": "{{fun_00010011 arg=\"0x0000\"}} dort dans un grand lit\ncomme ça ? {{delay frames=\"30\"}}{{anim id=\"16\"}}Mais c'est une vraie\nprincesse, dis-moi !\n{{anim id=\"28\"}}Enfin, d'ici à ce que je l'appelle\nPrincesse {{fun_00010011 arg=\"0x0000\"}}, {{delay frames=\"15\"}}elle peut\ntoujours courir !"
  },
  {
    "label": "010",
    "text": "{{fun_00040009 arg=\"0x4700480049004A004B004C00\"}}"
  },
  {
    "label": "011",
    "text": "{{anim id=\"11\"}}{{delay frames=\"16\"}}Pourquoi elle a un canapé si large\nchez elle alors qu'elle vit toute\nseule ?\n{{anim id=\"22\"}}Connaissant {{fun_00010011 arg=\"0x0000\"}},{{delay frames=\"8\"}} elle l'a\nacheté pour que ses invités soient à\nl'aise.\n{{anim id=\"27\"}}Ah là là, chuis trop perspicace dans\nmon genre,{{delay frames=\"8\"}} {{fun_00070005 arg=\"\"}}."
  },
  {
    "label": "012",
    "text": "Hé,{{delay frames=\"8\"}} {{fun_00080005 arg=\"\"}},{{delay frames=\"32\"}} les chaises qu'on a\nchez soi, ça en dit long sur notre\npersonnalité,{{delay frames=\"8\"}} tu savais ?\n{{anim id=\"21\"}}Regarde la chaise {{fun_000A000E arg=\"0x0600640065002000040064002700\"}}{{fun_00010011 arg=\"0x0000\"}}{{delay frames=\"8\"}}.{{delay frames=\"8\"}}.{{delay frames=\"8\"}}.\n{{fun_0002000E arg=\"\"}}{{fun_00030011 arg=\"0x0000\"}} !{{pageBreak}}{{anim id=\"11\"}}Ça signifie qu'elle{{delay frames=\"8\"}}.{{delay frames=\"8\"}}.{{delay frames=\"8\"}}.{{delay frames=\"8\"}} euh{{delay frames=\"8\"}}.{{delay frames=\"8\"}}.{{delay frames=\"8\"}}.{{delay frames=\"8\"}} {{anim id=\"6\"}}Oh, j'en\nsais rien, mais c'est évident, quoi !{{delay frames=\"8\"}}\n{{fun_0003000E arg=\"\"}}{{fun_00070005 arg=\"\"}} !"
  },
  {
    "label": "013",
    "text": "{{fun_00040009 arg=\"0x4700480049004A004B004C00\"}}"
  },
  {
    "label": "014",
    "text": "{{anim id=\"43\"}}{{delay frames=\"16\"}}{{fun_0003000E arg=\"\"}}{{fun_0001000E arg=\"\"}}{{fun_00030011 arg=\"0x0000\"}}\n{{fun_000A000E arg=\"0x0600640065002000040064002700\"}}{{fun_00010011 arg=\"0x0000\"}}{{delay frames=\"8\"}}.{{delay frames=\"8\"}}.{{delay frames=\"8\"}}.{{delay frames=\"8\"}}{{pageBreak}}{{anim id=\"37\"}}Hé hé, c'est sûrement plein de\nvêtements de nana,{{delay frames=\"8\"}} {{fun_00070005 arg=\"\"}} !{{fun_00010007 arg=\"\"}}\n{{anim id=\"17\"}}Enfin, {{delay frames=\"8\"}}j'espère !"
  },
  {
    "label": "015",
    "text": "{{fun_00040009 arg=\"0x4700480049004A004B004C00\"}}"
  },
  {
    "label": "016",
    "text": "{{fun_00040009 arg=\"0x4700480049004A004B004C00\"}}"
  },
  {
    "label": "017",
    "text": "{{fun_0003000E arg=\"\"}}{{fun_0002000E arg=\"\"}}{{fun_00030011 arg=\"0x0000\"}} ?{{delay frames=\"16\"}} {{anim id=\"36\"}}Tu\ncrois que c'est le vêtement préféré\n{{fun_000A000E arg=\"0x0600640065002000040064002700\"}}{{fun_00010011 arg=\"0x0000\"}} ?"
  },
  {
    "label": "018",
    "text": "{{fun_00040009 arg=\"0x4700480049004A004B004C00\"}}"
  },
  {
    "label": "019",
    "text": "{{anim id=\"15\"}}Oh{{delay frames=\"8\"}}.{{delay frames=\"8\"}}.{{delay frames=\"8\"}}.{{delay frames=\"8\"}} {{fun_0002000E arg=\"\"}}{{fun_00030011 arg=\"0x0000\"}} !{{pageBreak}}{{anim id=\"36\"}}{{fun_00010011 arg=\"0x0000\"}}{{delay frames=\"8\"}} se maquille, tu crois ?{{fun_00010007 arg=\"\"}}\n{{anim id=\"27\"}}C'est la moindre des choses pour\nune nana, en même temps."
  },
  {
    "label": "020",
    "text": "J'ai vu un bouquin appelé\n{{fun_001D0005 arg=\"0x0000\"}}\nsur {{fun_0001000E arg=\"\"}}{{fun_00030011 arg=\"0x0000\"}}{{delay frames=\"8\"}}.{{delay frames=\"8\"}}.{{delay frames=\"8\"}}.\n{{anim id=\"36\"}}Sérieux,{{delay frames=\"8\"}} {{fun_00010011 arg=\"0x0000\"}} lit ce genre de\nbouquins {{delay frames=\"8\"}}ou c'est juste de la déco ?{{delay frames=\"8\"}}\n{{fun_0003000E arg=\"\"}}{{fun_00070005 arg=\"\"}} ?"
  },
  {
    "label": "021",
    "text": "{{fun_00040009 arg=\"0x4700480049004A004B004C00\"}}"
  },
  {
    "label": "022",
    "text": "{{fun_00040009 arg=\"0x4700480049004A004B004C00\"}}"
  },
  {
    "label": "023",
    "text": "{{anim id=\"15\"}}Oh,{{delay frames=\"8\"}} {{fun_00010011 arg=\"0x0000\"}} nous a préparé du\nthé,{{delay frames=\"8\"}} {{fun_00080005 arg=\"\"}} !{{pageBreak}}{{anim id=\"37\"}}C'est bien elle, ça !{{delay frames=\"32\"}} Toujours aussi\nattentionnée,{{delay frames=\"8\"}} {{fun_00070005 arg=\"\"}} !"
  },
  {
    "label": "024",
    "text": "Tiens, regarde, {{fun_00080005 arg=\"\"}} !{{delay frames=\"16\"}} {{fun_0003000E arg=\"\"}}{{fun_0002000E arg=\"\"}}\n{{fun_00030011 arg=\"0x0000\"}}{{delay frames=\"8\"}}.{{delay frames=\"8\"}}.{{delay frames=\"8\"}}.{{pageBreak}}{{anim id=\"15\"}}Bizarre d'exposer ça à la vue de\ntous, non ?{{delay frames=\"30\"}}{{anim id=\"36\"}} Sacrée {{fun_00010011 arg=\"0x0000\"}} !"
  },
  {
    "label": "025",
    "text": "{{anim id=\"15\"}}Tiens ? {{delay frames=\"16\"}}Je ne pensais pas\n{{fun_00010011 arg=\"0x0000\"}} capable d'utiliser {{fun_0002000E arg=\"\"}}\n{{fun_00030011 arg=\"0x0000\"}} !\n{{anim id=\"36\"}}Hé hé,{{delay frames=\"16\"}} si ça se trouve, c'est une\nvraie geek !{{delay frames=\"32\"}} {{anim id=\"28\"}}Ce serait incroyable\npour une nana !"
  },
  {
    "label": "026",
    "text": "{{anim id=\"1\"}}Ah,{{delay frames=\"8\"}} {{fun_0002000E arg=\"\"}}{{fun_00030011 arg=\"0x0000\"}}...{{pageBreak}}{{anim id=\"37\"}}Ça montre bien à quel point\n{{fun_00010011 arg=\"0x0000\"}} est féminine,{{delay frames=\"15\"}}{{anim id=\"21\"}} j'aime ça !"
  },
  {
    "label": "027",
    "text": "Tiens, {{fun_0001000E arg=\"\"}}{{fun_00030011 arg=\"0x0000\"}}\n{{fun_000A000E arg=\"0x0600640065002000040064002700\"}}{{fun_00010011 arg=\"0x0000\"}}.{{pageBreak}}{{anim id=\"28\"}}Je parie qu'{{fun_0012000E arg=\"0x1000040069006C00080065006C006C0065000000\"}} est plein{{fun_0012000E arg=\"0x10000000020065000000\"}} à craquer,\nla connaissant,{{delay frames=\"8\"}} {{fun_00070005 arg=\"\"}} !"
  },
  {
    "label": "028",
    "text": "{{fun_00040009 arg=\"0x4700480049004A004B004C00\"}}"
  },
  {
    "label": "029",
    "text": "{{anim id=\"15\"}}{{fun_0003000E arg=\"\"}}{{fun_0002000E arg=\"\"}}{{fun_00030011 arg=\"0x0000\"}} ?{{pageBreak}}{{anim id=\"36\"}}Sans doute utile pour peser les\ntonnes de livres qu'elle lit,\n{{delay frames=\"8\"}}{{fun_00070005 arg=\"\"}} !"
  },
  {
    "label": "030",
    "text": "{{anim id=\"15\"}}Oh, je rêve !{{delay frames=\"16\"}} C'est bien {{fun_0002000E arg=\"\"}}\n{{fun_00030011 arg=\"0x0000\"}}{{delay frames=\"8\"}}.{{delay frames=\"8\"}}.{{delay frames=\"8\"}}.{{delay frames=\"8\"}}?{{pageBreak}}{{anim id=\"36\"}}Waouh{{delay frames=\"8\"}}.{{delay frames=\"8\"}}.{{delay frames=\"8\"}}.{{delay frames=\"8\"}} Une nana qui joue aux jeux\nvidéo, {{delay frames=\"15\"}}c'est inattendu.{{pageBreak}}{{anim id=\"28\"}}Imagine, {{fun_00080005 arg=\"\"}}, {{delay frames=\"15\"}}c'est comme si\ntu me voyais jouer à la poupée !{{delay frames=\"15\"}}\nHa ha !{{delay frames=\"30\"}}{{anim id=\"0\"}} Hem."
  },
  {
    "label": "031",
    "text": "{{anim id=\"36\"}}Hé, {{fun_0002000E arg=\"\"}}{{fun_00030011 arg=\"0x0000\"}}...{{pageBreak}}{{anim id=\"21\"}}Typiquement le genre de truc que\nje m'attendais à trouver chez\n{{fun_00010011 arg=\"0x0000\"}}, {{delay frames=\"8\"}}{{fun_00070005 arg=\"\"}}."
  },
  {
    "label": "032",
    "text": "{{fun_00040009 arg=\"0x4700480049004A004B004C00\"}}"
  },
  {
    "label": "033",
    "text": "{{fun_00040009 arg=\"0x4700480049004A004B004C00\"}}"
  },
  {
    "label": "034",
    "text": "{{fun_00040009 arg=\"0x4700480049004A004B004C00\"}}"
  },
  {
    "label": "035",
    "text": "{{anim id=\"43\"}}{{delay frames=\"16\"}}{{fun_0003000E arg=\"\"}}{{fun_0002000E arg=\"\"}}{{fun_00030011 arg=\"0x0000\"}}{{delay frames=\"8\"}}.{{delay frames=\"8\"}}.{{delay frames=\"8\"}}.{{delay frames=\"32\"}}\nC'est bien le genre {{fun_000A000E arg=\"0x0600640065002000040064002700\"}}{{fun_00010011 arg=\"0x0000\"}},{{delay frames=\"8\"}}\n{{fun_00070005 arg=\"\"}}.\n{{anim id=\"37\"}}J'ai toujours pensé que c'était une\nnana très maternelle."
  },
  {
    "label": "036",
    "text": "{{anim id=\"15\"}}Oh,{{delay frames=\"8\"}} {{fun_0002000E arg=\"\"}}{{fun_00030011 arg=\"0x0000\"}} !{{pageBreak}}{{anim id=\"37\"}}Hé hé,{{delay frames=\"16\"}} c'est bien ce que je pensais{{delay frames=\"8\"}}.{{delay frames=\"8\"}}.{{delay frames=\"8\"}}.{{delay frames=\"15\"}}\n{{fun_00010011 arg=\"0x0000\"}} a un petit côté démodé !"
  },
  {
    "label": "037",
    "text": "{{fun_00040009 arg=\"0x4700480049004A004B004C00\"}}"
  },
  {
    "label": "038",
    "text": "{{fun_00040009 arg=\"0x4700480049004A004B004C00\"}}"
  },
  {
    "label": "039",
    "text": "{{fun_00040009 arg=\"0x4700480049004A004B004C00\"}}"
  },
  {
    "label": "040",
    "text": "{{anim id=\"15\"}}Hein ?{{delay frames=\"16\"}} Mais que peut bien faire\n{{fun_0002000E arg=\"\"}}{{fun_00030011 arg=\"0x0000\"}} ici ?{{pageBreak}}{{anim id=\"27\"}}Bah,{{delay frames=\"8\"}} encore une lubie {{fun_000A000E arg=\"0x0600640065002000040064002700\"}}{{fun_00010011 arg=\"0x0000\"}},{{delay frames=\"15\"}}\ninutile de se poser des questions,\n{{fun_00080005 arg=\"\"}}."
  },
  {
    "label": "041",
    "text": "{{anim id=\"15\"}}Oh,{{delay frames=\"8\"}} {{fun_0002000E arg=\"\"}}{{fun_00030011 arg=\"0x0000\"}} ?{{delay frames=\"15\"}}\nChez {{fun_00010011 arg=\"0x0000\"}} ?{{pageBreak}}{{anim id=\"9\"}}Pour les invités, j'imagine{{delay frames=\"8\"}}.{{delay frames=\"8\"}}.{{delay frames=\"8\"}}.{{delay frames=\"8\"}}?{{delay frames=\"32\"}} {{anim id=\"37\"}}Hmm,\nelle en fait pas un peu trop là,\n{{fun_00070005 arg=\"\"}} ?"
  },
  {
    "label": "042",
    "text": "{{anim id=\"37\"}}Oh, {{fun_0002000E arg=\"\"}}{{fun_00030011 arg=\"0x0000\"}}{{delay frames=\"8\"}}.{{delay frames=\"8\"}}.{{delay frames=\"8\"}}.{{fun_00010007 arg=\"\"}}\n{{anim id=\"36\"}}À croquer, {{delay frames=\"15\"}}comme {{fun_00010011 arg=\"0x0000\"}} !"
  },
  {
    "label": "043",
    "text": "Tiens, {{fun_0002000E arg=\"\"}}{{fun_00030011 arg=\"0x0000\"}}.{{delay frames=\"16\"}}\nElle joue dans un groupe,\n{{fun_00010011 arg=\"0x0000\"}} ?\n{{anim id=\"11\"}}Je devrais lui proposer de\nm'accompagner dans ma tournée{{delay frames=\"8\"}}.{{delay frames=\"8\"}}.{{delay frames=\"8\"}}."
  },
  {
    "label": "044",
    "text": "{{fun_00040009 arg=\"0x4700480049004A004B004C00\"}}"
  },
  {
    "label": "045",
    "text": ""
  },
  {
    "label": "046",
    "text": ""
  },
  {
    "label": "047",
    "text": ""
  },
  {
    "label": "048",
    "text": ""
  },
  {
    "label": "049",
    "text": ""
  },
  {
    "label": "050",
    "text": ""
  },
  {
    "label": "051",
    "text": ""
  },
  {
    "label": "052",
    "text": ""
  },
  {
    "label": "053",
    "text": ""
  },
  {
    "label": "054",
    "text": ""
  },
  {
    "label": "055",
    "text": ""
  },
  {
    "label": "056",
    "text": ""
  },
  {
    "label": "057",
    "text": ""
  },
  {
    "label": "058",
    "text": ""
  },
  {
    "label": "059",
    "text": ""
  },
  {
    "label": "060",
    "text": ""
  },
  {
    "label": "061",
    "text": ""
  },
  {
    "label": "062",
    "text": ""
  },
  {
    "label": "063",
    "text": ""
  },
  {
    "label": "064",
    "text": ""
  },
  {
    "label": "065",
    "text": ""
  },
  {
    "label": "066",
    "text": ""
  },
  {
    "label": "067",
    "text": ""
  },
  {
    "label": "068",
    "text": ""
  },
  {
    "label": "069",
    "text": ""
  },
  {
    "label": "070",
    "text": ""
  },
  {
    "label": "071",
    "text": "{{anim id=\"4\"}}{{delay frames=\"16\"}}Ça sent bon la rose{{delay frames=\"8\"}}.{{delay frames=\"8\"}}.{{delay frames=\"8\"}}.{{delay frames=\"30\"}} {{anim id=\"36\"}}et {{fun_00010011 arg=\"0x0000\"}}.\nHé hé."
  },
  {
    "label": "072",
    "text": "{{anim id=\"21\"}}Alors c'est là qu'elle habite,\n{{fun_00010011 arg=\"0x0000\"}} ?"
  },
  {
    "label": "073",
    "text": "{{anim id=\"36\"}}Hé hé,{{delay frames=\"30\"}} arrête de fixer la déco\n{{fun_000A000E arg=\"0x0600640065002000040064002700\"}}{{fun_00010011 arg=\"0x0000\"}} comme ça,\n{{fun_00080005 arg=\"\"}}.\n{{anim id=\"28\"}}Elle va finir par croire que tu veux\nlui piquer quelque chose !"
  },
  {
    "label": "074",
    "text": "{{anim id=\"15\"}}Tu sens{{delay frames=\"8\"}}.{{delay frames=\"8\"}}.{{delay frames=\"8\"}}.{{delay frames=\"8\"}}?{{delay frames=\"20\"}}{{anim id=\"11\"}}{{delay frames=\"16\"}} Y'a comme une odeur\n{{fun_000A000E arg=\"0x0600640065002000040064002700\"}}{{fun_00130005 arg=\"0x0000\"}}, non ?"
  },
  {
    "label": "075",
    "text": "{{anim id=\"32\"}}Bienvenue chez {{fun_00010011 arg=\"0x0000\"}} !{{delay frames=\"30\"}} Fais\ncomme chez toi, {{fun_00080005 arg=\"\"}} !{{pageBreak}}{{anim id=\"36\"}}Ouais, bon c'est pas à moi de dire\nça en théorie, {{delay frames=\"15\"}}mais je suis sûr\nqu'elle m'en voudra pas !"
  },
  {
    "label": "076",
    "text": "{{anim id=\"36\"}}Hé hé,{{delay frames=\"15\"}} tu penses vraiment\n{{fun_000A000E arg=\"0x080071007500650020000600710075002700\"}}{{fun_00010011 arg=\"0x0000\"}} a choisi elle-même\nsa déco ?\n{{anim id=\"35\"}}Crois-moi, {{delay frames=\"8\"}}ça sent le coach en\naménagement d'intérieur, tout ça."
  },
  {
    "label": "077",
    "text": ""
  },
  {
    "label": "078",
    "text": ""
  },
  {
    "label": "079",
    "text": ""
  },
  {
    "label": "080",
    "text": ""
  }
]