﻿[
  {
    "label": "001",
    "text": "{{anim id=\"21\"}}En {{fun_00000004 arg=\"\"}},{{delay frames=\"20\"}} les gens nés au cours de\nl'année du rat seront sous le feu des\nprojecteurs,{{delay frames=\"8\"}} {{fun_00070005 arg=\"\"}} !{{pageBreak}}{{anim id=\"37\"}}C'est-à-dire que la tendance\ngrignoteuse des rongeurs sera\nencore accentuée.\nDu coup, m'en veux pas si je\nm'attaque au poteau de ta boîte\naux lettres un jour, {{delay frames=\"32\"}}{{anim id=\"38\"}}hé hé !"
  },
  {
    "label": "002",
    "text": "{{anim id=\"37\"}}En {{fun_00000004 arg=\"\"}}, nous entrerons dans\nl'année du buffle !{{pageBreak}}{{anim id=\"35\"}}Après 12 longues années de\ntraversée du désert, les buffles\nreviennent à la mode{{delay frames=\"8\"}}.{{delay frames=\"8\"}}.{{delay frames=\"8\"}}.\n{{anim id=\"10\"}}Était-ce vraiment nécessaire...?"
  },
  {
    "label": "003",
    "text": "{{fun_00000004 arg=\"\"}} annonce le grand retour{{delay frames=\"8\"}}.{{delay frames=\"8\"}}.{{delay frames=\"8\"}}.{{delay frames=\"8\"}}\nde l'année du tigre, {{delay frames=\"8\"}}après 12 ans\nd'attente !{{pageBreak}}{{anim id=\"19\"}}.{{delay frames=\"8\"}}.{{delay frames=\"8\"}}.{{pageBreak}}{{anim id=\"0\"}}Ouais bon, t'as raison, ça me\nconcerne même pas, {{anim id=\"28\"}}{{delay frames=\"8\"}}alors quel\nintérêt ?"
  },
  {
    "label": "004",
    "text": "{{anim id=\"6\"}}En {{fun_00000004 arg=\"\"}}, nous célébrerons\nl'année du lièvre !{{pageBreak}}Tous les lapins vont bondir vers\nl'avenir, propulsés par ce moment\nde gloire éphémère.\n{{anim id=\"13\"}}Waouh ! Vite, {{fun_00080005 arg=\"\"}}, un stylo,\ndu papier !{{delay frames=\"30\"}} {{anim id=\"33\"}}Note ce que je viens de\ndire, {{delay frames=\"8\"}}c'est profond, {{fun_00070005 arg=\"\"}} !"
  },
  {
    "label": "005",
    "text": "{{anim id=\"6\"}}Hé,{{delay frames=\"8\"}} {{fun_00080005 arg=\"\"}} !{{delay frames=\"32\"}} Cette année va\npasser au triple galop, c'est moi qui\nte le dis !\n{{anim id=\"36\"}}Ben ouais,{{delay frames=\"16\"}} l'année du cheval\napproche, tu sais ? {{delay frames=\"15\"}}Galop. {{delay frames=\"15\"}}Cheval.{{delay frames=\"15\"}}\n{{anim id=\"2\"}}T'as saisi ? {{delay frames=\"8\"}}Ha ha !"
  },
  {
    "label": "006",
    "text": "{{anim id=\"33\"}}Ah, enfin{{delay frames=\"8\"}}.{{delay frames=\"8\"}}.{{delay frames=\"8\"}}.{{delay frames=\"8\"}} {{fun_00000004 arg=\"\"}} marque le retour\nde l'année du mouton.{{delay frames=\"30\"}} {{anim id=\"6\"}}C'est pas\ntrop tôt !{{pageBreak}}{{anim id=\"27\"}}Je trouve qu'une fois tous les 12\nans, ce n'est pas nous faire assez\nhonneur, mais passons."
  },
  {
    "label": "007",
    "text": "{{anim id=\"1\"}}En {{fun_00000004 arg=\"\"}}, après 12 ans d'attente,\nnous entrerons bientôt dans l'année\ndu singe{{delay frames=\"8\"}}.{{delay frames=\"8\"}}.{{delay frames=\"8\"}}.{{pageBreak}}{{anim id=\"11\"}}Bon, à part les singes, je vois pas\nqui pouvait attendre ça, à vrai dire..."
  },
  {
    "label": "008",
    "text": "{{anim id=\"37\"}}En {{fun_00000004 arg=\"\"}}, nous entrerons dans\nl'année du coq. Autant dire que\ntout ce qui a des ailes est en fête !\n{{anim id=\"16\"}}Hé, {{fun_00080005 arg=\"\"}},{{delay frames=\"32\"}} tu m'as déjà vu\nprendre mon envol tel un phénix\nmajestueux ?\n{{anim id=\"33\"}}Eh bien, cette année, tu pourrais\nbien assister à ce spectacle,\ncrois-moi, {{delay frames=\"8\"}}{{fun_00070005 arg=\"\"}} !"
  },
  {
    "label": "009",
    "text": "Tiens, ce sera l'année du chien en\n{{fun_00000004 arg=\"\"}}{{delay frames=\"8\"}}.{{delay frames=\"8\"}}.{{delay frames=\"8\"}}.{{delay frames=\"32\"}} {{anim id=\"15\"}}Hé ?! {{delay frames=\"16\"}}Mais alors c'est\nMON année, carrément !\n{{anim id=\"33\"}}Décidément, même l'astrologie\norientale a décidé que j'étais à la\nmode,{{delay frames=\"8\"}} {{fun_00070005 arg=\"\"}} !"
  },
  {
    "label": "010",
    "text": ""
  },
  {
    "label": "011",
    "text": "{{delay frames=\"8\"}}{{anim id=\"23\"}}T'as déjà fait ton premier rêve de\nl'année,{{delay frames=\"8\"}} {{fun_00080005 arg=\"\"}} ?{{pageBreak}}{{anim id=\"36\"}}Bah, t'affole pas, hein. {{delay frames=\"15\"}}C'est pas\ngrave si ça t'est pas encore arrivé,{{delay frames=\"8\"}}\n{{fun_00070005 arg=\"\"}}.\n{{delay frames=\"8\"}}.{{delay frames=\"8\"}}.{{delay frames=\"8\"}}.{{delay frames=\"8\"}} {{anim id=\"15\"}}Oh, moi ?{{delay frames=\"32\"}} {{anim id=\"37\"}}Ouais, j'ai rêvé. {{delay frames=\"15\"}}Et de\nmoi, comme toujours.{{delay frames=\"30\"}} {{anim id=\"43\"}}Qu'est-ce que\nc'était bien..."
  },
  {
    "label": "012",
    "text": "{{anim id=\"15\"}}Hein ?{{delay frames=\"16\"}} Si mes parents m'ont donné\nde l'argent de poche pour le nouvel\nan ? {{delay frames=\"15\"}}{{anim id=\"9\"}}Hélas, non.\n{{anim id=\"6\"}}J'ai beau leur expliquer que j'ai\ntoujours l'âme d'un enfant, ils ne\nveulent rien entendre."
  },
  {
    "label": "013",
    "text": "{{delay frames=\"8\"}}.{{delay frames=\"8\"}}.{{delay frames=\"8\"}}.{{delay frames=\"8\"}} {{anim id=\"23\"}}Mes bonnes résolutions pour la\nnouvelle année ?{{pageBreak}}{{anim id=\"11\"}}{{delay frames=\"16\"}}Voyons{{delay frames=\"8\"}}.{{delay frames=\"8\"}}.{{delay frames=\"8\"}}.{{delay frames=\"8\"}} {{anim id=\"6\"}}Croire en moi, arrêter de\ndouter de mon génie et de mes\ninnombrables dons, {{delay frames=\"8\"}}{{fun_00070005 arg=\"\"}} !\n{{anim id=\"27\"}}Ah, tu ne sais pas ce que j'endure,\n{{fun_00080005 arg=\"\"}}."
  },
  {
    "label": "014",
    "text": "On dit toujours qu'il faut prendre\nde bonnes résolutions au nouvel an{{delay frames=\"8\"}}.{{delay frames=\"8\"}}.{{delay frames=\"8\"}}.{{delay frames=\"15\"}}\n{{anim id=\"6\"}}Facile à dire !\n{{anim id=\"40\"}}Quand on fait jamais rien de travers\net qu'on a zéro défaut, je t'assure\nque c'est pas évident, cette affaire."
  },
  {
    "label": "015",
    "text": "{{anim id=\"37\"}}J'ai réfléchi à un truc, {{fun_00080005 arg=\"\"}}.{{delay frames=\"16\"}}{{pageBreak}}{{anim id=\"11\"}}Tout ce que tu fais le 1 janvier, tu\nle fais pour la première fois de\nl'année, en fait. {{delay frames=\"8\"}}{{fun_0003000E arg=\"\"}}{{fun_00070005 arg=\"\"}} !\n{{anim id=\"16\"}}Tiens, c'est la première fois que je\ndis « {{fun_00070005 arg=\"\"}} » cette année !{{pageBreak}}{{anim id=\"0\"}}Faudra que je note ça dans mon\nblog. {{delay frames=\"15\"}}{{anim id=\"11\"}}D'ailleurs, comment je vais\nl'appeler cette année, mon blog{{delay frames=\"8\"}}.{{delay frames=\"8\"}}.{{delay frames=\"8\"}}.{{delay frames=\"8\"}}?{{fun_00010009 arg=\"0x110012001300\"}}"
  },
  {
    "label": "016",
    "text": ""
  },
  {
    "label": "017",
    "text": "{{anim id=\"33\"}}« {{fun_00010005 arg=\"\"}}, grand héraut suprême\ndu sublimissime et ardent amour ».{{fun_00010007 arg=\"\"}}\n{{anim id=\"9\"}}Hmm,{{delay frames=\"8\"}} trop simple{{delay frames=\"8\"}}.{{delay frames=\"8\"}}.{{delay frames=\"8\"}}."
  },
  {
    "label": "018",
    "text": "« {{fun_00010005 arg=\"\"}}, ou l'Évolution\nparachevée ».{{fun_00010007 arg=\"\"}} {{anim id=\"9\"}}Hmm,{{delay frames=\"8\"}} trop\nplat{{delay frames=\"8\"}}.{{delay frames=\"8\"}}.{{delay frames=\"8\"}}."
  },
  {
    "label": "019",
    "text": "« {{fun_00010005 arg=\"\"}}, à jamais et pour\ntoujours ».{{fun_00010007 arg=\"\"}} {{anim id=\"9\"}}Non,{{delay frames=\"8\"}} trop évident{{delay frames=\"8\"}}.{{delay frames=\"8\"}}.{{delay frames=\"8\"}}."
  }
]