﻿[
  {
    "label": "001",
    "text": "Aujourd'hui, c'est le jour du\ndésherbage à {{fun_00050005 arg=\"\"}}, pas vrai,\n{{fun_00080005 arg=\"\"}} ?{{pageBreak}}{{anim id=\"21\"}}Je pense participer{{delay frames=\"8\"}}.{{delay frames=\"8\"}}.{{delay frames=\"8\"}}.{{delay frames=\"8\"}}{{anim id=\"36\"}} Enfin, je vais\nchanter et danser pour motiver les\ntroupes, hé hé."
  },
  {
    "label": "002",
    "text": "{{anim id=\"9\"}}Je plains les mauvaises herbes,\n{{fun_00080005 arg=\"\"}}.{{pageBreak}}Elles ont sûrement toutes un nom,\nmais on les appelle simplement\n« mauvaises herbes »{{delay frames=\"8\"}}.{{delay frames=\"8\"}}.{{delay frames=\"8\"}}.{{delay frames=\"8\"}}\n{{anim id=\"11\"}}C'est un peu comme mes fans. {{delay frames=\"15\"}}Les\nmédias parlent d'eux comme des\n« anonymes »{{delay frames=\"8\"}}.{{delay frames=\"8\"}}.{{delay frames=\"8\"}}.\n{{anim id=\"6\"}}On devrait les respecter un peu plus\nau lieu de chercher à les arracher à\ntout bout de champ !\n{{anim id=\"36\"}}Enfin, je parle des mauvaises\nherbes, là, bien sûr. {{delay frames=\"8\"}}Hé hé,\n{{fun_00070005 arg=\"\"}}."
  },
  {
    "label": "003",
    "text": "{{anim id=\"27\"}}C'est triste à dire, mais tout le\nmonde imagine toujours que c'est\naux autres de nettoyer la ville.\n{{anim id=\"6\"}}Enfin, c'est le boulot de tout\ncitoyen responsable, non ?{{pageBreak}}{{anim id=\"36\"}}Bien sûr, si on est une vedette, on\nbénéficie d'une dérogation spéciale."
  },
  {
    "label": "004",
    "text": "Aujourd'hui, c'est le jour du\ndésherbage à {{fun_00050005 arg=\"\"}}, pas vrai ?{{pageBreak}}{{anim id=\"44\"}}J'étais si motivé au début que j'ai\nmême commencé à nettoyer ma\nvilla !\n{{anim id=\"12\"}}Ce qui a eu pour effet immédiat de\nme démotiver pour le jour du\ndésherbage."
  },
  {
    "label": "005",
    "text": "{{anim id=\"23\"}}Je me demande s'ils ont fini\nd'arracher toutes les mauvaises\nherbes là-dehors ?\nOh moi ? {{delay frames=\"15\"}}{{anim id=\"27\"}}Je me suis dit qu'il valait\nmieux que je reste à l'intérieur pour\nne gêner personne.\n{{anim id=\"7\"}}Comment ça, {{delay frames=\"8\"}}je cherche à éviter les\ncorvées ?!"
  },
  {
    "label": "006",
    "text": "{{anim id=\"37\"}}Je suis un peu occupé à\ndépoussiérer mes disques d'or,{{delay frames=\"8\"}}\n{{fun_00070005 arg=\"\"}}.{{pageBreak}}Alors{{delay frames=\"8\"}}.{{delay frames=\"8\"}}.{{delay frames=\"8\"}}.{{delay frames=\"32\"}} {{anim id=\"36\"}}Tu peux peut-être t'occuper\ndu désherbage dehors ? {{fun_00010007 arg=\"\"}}{{anim id=\"21\"}}Cool, c'est\nsympa, {{fun_00080005 arg=\"\"}}."
  }
]