﻿[
  {
    "label": "001",
    "text": "{{anim id=\"37\"}}Merci de t'en être occupé,\n{{fun_00080005 arg=\"\"}}.{{delay frames=\"30\"}} On va la laisser sous\nterre un moment.{{pageBreak}}{{anim id=\"28\"}}Et{{delay frames=\"8\"}}.{{delay frames=\"8\"}}.{{delay frames=\"8\"}}.{{delay frames=\"8\"}} ça reste entre nous, {{delay frames=\"5\"}}OK ?"
  },
  {
    "label": "002",
    "text": "{{anim id=\"1\"}}Bien joué, {{fun_00080005 arg=\"\"}} ! {{delay frames=\"30\"}}{{anim id=\"28\"}}L'opération\n{{fun_00010005 arg=\"\"}} se déroule comme\nprévu, l'avenir est en marche !\n{{anim id=\"1\"}}Un peu de patience et nous\npourrons aller la déterrer."
  },
  {
    "label": "003",
    "text": "{{anim id=\"1\"}}Bravo, {{fun_00080005 arg=\"\"}}. {{delay frames=\"15\"}}Et surtout\nn'oublie pas où t'as enterré la\ncapsule...\n{{anim id=\"36\"}}L'intérêt c'est quand même de la\nretrouver un jour, {{delay frames=\"8\"}}hé hé !{{pageBreak}}{{anim id=\"21\"}}Mais pour l'heure, laissons-la où\nelle est un petit moment."
  }
]