﻿[
  {
    "label": "001",
    "text": "Hé,{{delay frames=\"16\"}} ça te dit une petite partie de\npêche avec moi ?"
  },
  {
    "label": "002",
    "text": "Petit poisson !{{delay frames=\"16\"}} N'aie pas peur, petit\npoisson{{delay frames=\"8\"}}.{{delay frames=\"8\"}}.{{delay frames=\"8\"}}.{{delay frames=\"15\"}} {{fun_00010005 arg=\"\"}} veut juste te\ndire bonjour !"
  },
  {
    "label": "003",
    "text": "Alors,{{delay frames=\"8\"}} quel poisson aura l'honneur\nde se laisser attraper par\n{{fun_00010005 arg=\"\"}}, aujourd'hui ?"
  }
]