﻿[
  {
    "label": "001",
    "text": ""
  },
  {
    "label": "002",
    "text": "{{fun_00020009 arg=\"0x0500060007000800\"}}"
  },
  {
    "label": "003",
    "text": "{{fun_00000009 arg=\"0x09000A00\"}}"
  },
  {
    "label": "004",
    "text": ""
  },
  {
    "label": "005",
    "text": "{{anim id=\"37\"}}Je viens souvent au magasin de\nbricolage pour stimuler ma\ncréativité, pas toi ?"
  },
  {
    "label": "006",
    "text": "Je suis venu acheter un CD, {{delay frames=\"16\"}}{{anim id=\"36\"}}mais je\nsuis sûr que je vais repartir avec\nplein d'autres trucs sous les bras !"
  },
  {
    "label": "007",
    "text": "{{anim id=\"36\"}}Quelle heure est-il{{delay frames=\"8\"}}.{{delay frames=\"8\"}}.{{delay frames=\"8\"}}.{{delay frames=\"8\"}}? {{delay frames=\"15\"}}Je perds toute\nnotion du temps dès que je mets les\npieds ici,{{delay frames=\"8\"}} {{fun_00070005 arg=\"\"}}."
  },
  {
    "label": "008",
    "text": "{{anim id=\"10\"}}{{delay frames=\"16\"}}Pfiou{{delay frames=\"8\"}}.{{delay frames=\"8\"}}.{{delay frames=\"8\"}}.{{delay frames=\"8\"}} Ce magasin est immense !{{delay frames=\"16\"}}\nChuis déjà fatigué et j'ai pas encore\ntout vu !"
  },
  {
    "label": "009",
    "text": "{{anim id=\"9\"}}Il y a un choix de malade ici !{{delay frames=\"16\"}} J'en\noublie toujours ce pour quoi je suis\nvenu à la base !"
  },
  {
    "label": "010",
    "text": "{{anim id=\"37\"}}Quel enthousiasme, {{fun_00080005 arg=\"\"}} !{{delay frames=\"32\"}}\nT'es venu{{fun_0006000E arg=\"0x000002006500\"}} à {{fun_00050005 arg=\"\"}} juste pour\nacheter une bricole, pas vrai ?"
  }
]