﻿[
  {
    "label": "001",
    "text": "{{anim id=\"9\"}}Ya know, {{fun_00080005 arg=\"\"}}{{delay frames=\"8\"}}.{{delay frames=\"8\"}}.{{delay frames=\"8\"}}.{{delay frames=\"20\"}} {{fun_0003000E arg=\"\"}}{{fun_00050005 arg=\"\"}}\nis a big town.{{delay frames=\"20\"}} You sure this is the\nright place for you, {{delay frames=\"20\"}}{{fun_00070005 arg=\"\"}}?"
  },
  {
    "label": "002",
    "text": "{{anim id=\"15\"}}Huh? {{delay frames=\"20\"}}What's up?{{delay frames=\"40\"}}{{anim id=\"37\"}} You here to hang\nout with {{fun_00240005 arg=\"\"}}, {{delay frames=\"20\"}}{{fun_00070005 arg=\"\"}}?"
  },
  {
    "label": "003",
    "text": "{{delay frames=\"8\"}}.{{delay frames=\"8\"}}.{{delay frames=\"8\"}}.{{delay frames=\"8\"}}Ya know, we seem to be catching\neach other's gazes a lot today!{{delay frames=\"40\"}}\n{{anim id=\"39\"}}It's awkward{{delay frames=\"8\"}}.{{delay frames=\"8\"}}.{{delay frames=\"8\"}}.{{fun_00070005 arg=\"\"}}."
  },
  {
    "label": "004",
    "text": "{{anim id=\"37\"}}Today's crazy cool, {{fun_00070005 arg=\"\"}}!"
  }
]