﻿[
  {
    "label": "001",
    "text": "{{anim id=\"15\"}}Hey, {{fun_00080005 arg=\"\"}}! You don't got any\n{{color id=\"2\"}}fruit{{color id=\"65535\"}}, do ya?{{pageBreak}}{{anim id=\"21\"}}My throat's gone all dry,{{delay frames=\"20\"}} and I was\nthinkin' eating some fruit might wet\nmy whistle{{delay frames=\"8\"}}.{{delay frames=\"8\"}}.{{delay frames=\"8\"}}.{{delay frames=\"20\"}}\n{{anim id=\"10\"}}But good fruit is hard to find, man{{delay frames=\"8\"}}.{{delay frames=\"8\"}}.{{delay frames=\"8\"}}.{{delay frames=\"20\"}}{{pageBreak}}{{anim id=\"0\"}}{{fun_0003000E arg=\"\"}}{{fun_00080005 arg=\"\"}}.{{delay frames=\"20\"}} {{anim id=\"23\"}}Do you think you could\nbring me a piece of fresh {{color id=\"2\"}}fruit{{color id=\"65535\"}}?{{fun_0005000F arg=\"0x15002800\"}}\nSure!\nI'm too busy."
  },
  {
    "label": "002",
    "text": "{{anim id=\"21\"}}Ya know, {{delay frames=\"20\"}}I'm always hearing about\nhow {{color id=\"2\"}}fruit{{color id=\"65535\"}} is meant to be good for \nyour skin{{delay frames=\"8\"}}.{{delay frames=\"8\"}}.{{delay frames=\"8\"}}.{{delay frames=\"20\"}} I wonder if that's true.\n{{anim id=\"9\"}}Wh-{{delay frames=\"8\"}}what?!{{delay frames=\"20\"}} I worry about stuff like\nthat too, ya know!{{delay frames=\"20\"}} Even tough girls\ncan have class!\n{{anim id=\"0\"}}So, uh{{delay frames=\"8\"}}.{{delay frames=\"8\"}}.{{delay frames=\"8\"}}.{{delay frames=\"20\"}}{{anim id=\"23\"}}can you maybe bring me\na piece of fresh {{color id=\"2\"}}fruit{{color id=\"65535\"}}, {{fun_00080005 arg=\"\"}}?{{fun_0005000F arg=\"0x15002800\"}}\nWill do!\nCan't do it."
  },
  {
    "label": "003",
    "text": "{{anim id=\"27\"}}So, uh, {{fun_00080005 arg=\"\"}}{{delay frames=\"8\"}}.{{delay frames=\"8\"}}.{{delay frames=\"8\"}}.{{delay frames=\"20\"}}when you're\ngathering {{color id=\"2\"}}fruit{{color id=\"65535\"}}, can you grab some\nfor me too?\n{{anim id=\"10\"}}Thing is, I got stung by a bee the\nother day{{delay frames=\"8\"}}.{{delay frames=\"8\"}}.{{delay frames=\"8\"}}.{{delay frames=\"20\"}} It's really had a negative\nimpact on my tree-shakin' skills.\n{{anim id=\"21\"}}I won't ask for much{{delay frames=\"8\"}}.{{delay frames=\"8\"}}.{{delay frames=\"8\"}}.{{delay frames=\"20\"}} Any kind of\n{{color id=\"2\"}}fruit{{color id=\"65535\"}} will do.{{delay frames=\"40\"}}{{anim id=\"37\"}} Sound good? {{delay frames=\"20\"}}I'm\ncountin' on ya!{{fun_0005000F arg=\"0x15002800\"}}\nLeave it to me!\nCan't right now."
  },
  {
    "label": "004",
    "text": "{{anim id=\"15\"}}Oh, right!{{delay frames=\"20\"}} I wanted to ask you \nsomething.{{anim id=\"0\"}} Ummm{{delay frames=\"8\"}}.{{delay frames=\"8\"}}.{{delay frames=\"8\"}}.{{delay frames=\"20\"}}do you think\nyou could bring me a piece of {{color id=\"2\"}}fruit{{color id=\"65535\"}}?\n{{anim id=\"37\"}}I'm cutting out candy and subbing\nin {{color id=\"2\"}}fruit{{color id=\"65535\"}}! I love it!{{pageBreak}}{{anim id=\"26\"}}But if I get it myself, I end up eating\ntoo much{{delay frames=\"8\"}}.{{delay frames=\"8\"}}.{{delay frames=\"8\"}}.{{delay frames=\"20\"}} So I always ask someone\nelse to get it for me.\n{{anim id=\"0\"}}Any kind will do!{{delay frames=\"20\"}} {{anim id=\"37\"}}One piece of fresh\n{{color id=\"2\"}}fruit{{color id=\"65535\"}}—that's all I ask.{{fun_0005000F arg=\"0x15002800\"}}\nSure thing!\nI'm too busy."
  },
  {
    "label": "005",
    "text": "{{anim id=\"12\"}}The other day I ate a totally rotten \n{{color id=\"2\"}}{{fun_00030011 arg=\"0x0000\"}}{{color id=\"65535\"}}!{{pageBreak}}{{anim id=\"10\"}}I'm still not sure how I didn't notice\ntill I ate it{{delay frames=\"8\"}}.{{delay frames=\"8\"}}.{{delay frames=\"8\"}}.{{delay frames=\"20\"}}{{anim id=\"9\"}} But I've lost confidence\nin my senses!\nYou, on the other hand{{delay frames=\"8\"}}.{{delay frames=\"8\"}}.{{delay frames=\"8\"}}.{{delay frames=\"20\"}}{{anim id=\"0\"}} Think you\ncould bring me a nice, fresh\n{{color id=\"2\"}}{{fun_00030011 arg=\"0x0000\"}}{{color id=\"65535\"}}?\n{{anim id=\"21\"}}I need a good one to get the rotten\ntaste outta my mouth!{{delay frames=\"40\"}}{{anim id=\"37\"}}{{delay frames=\"20\"}} Is that cool?{{fun_0005000F arg=\"0x15002800\"}}\nSo cool!\nNot cool!"
  },
  {
    "label": "006",
    "text": "{{anim id=\"15\"}}Oh, right!{{delay frames=\"20\"}} Yeah, I wanted to run\nsomething by you.{{anim id=\"0\"}}{{pageBreak}}So, uh{{delay frames=\"8\"}}.{{delay frames=\"8\"}}.{{delay frames=\"8\"}}.{{delay frames=\"20\"}}think you could bring me\n{{fun_0002000E arg=\"\"}}{{color id=\"2\"}}{{fun_00030011 arg=\"0x0000\"}}{{color id=\"65535\"}}?{{pageBreak}}{{anim id=\"37\"}}Lately I'm on a crazy new\n{{color id=\"2\"}}{{fun_00030011 arg=\"0x0000\"}}{{color id=\"65535\"}} kick!{{pageBreak}}{{anim id=\"21\"}}I need as many as I can get,{{delay frames=\"8\"}} so I'm\nasking everyone I know for help!{{delay frames=\"20\"}}\n{{anim id=\"37\"}}Ya feel me?{{delay frames=\"40\"}}\n{{anim id=\"0\"}}Get me {{fun_0002000E arg=\"\"}}\n{{color id=\"2\"}}{{fun_00030011 arg=\"0x0000\"}}{{color id=\"65535\"}}!{{fun_0005000F arg=\"0x15002800\"}}\nI'm on it!\nNo way!"
  },
  {
    "label": "007",
    "text": "{{anim id=\"21\"}}Oh, so get this.{{delay frames=\"8\"}} The other day I was\nvisiting a friend's town!{{delay frames=\"20\"}}{{anim id=\"37\"}} And I ate\n{{fun_0002000E arg=\"\"}}{{color id=\"2\"}}{{fun_00030011 arg=\"0x0000\"}}{{color id=\"65535\"}}!\n{{anim id=\"5\"}}Man,{{delay frames=\"20\"}} it was crazy sweet!{{delay frames=\"40\"}} There's\nnothing like it in this town! {{anim id=\"4\"}}I'd love\nto try another one{{delay frames=\"8\"}}.{{delay frames=\"8\"}}.{{delay frames=\"8\"}}.{{delay frames=\"20\"}}\n{{anim id=\"37\"}}Say, {{fun_00080005 arg=\"\"}}!{{delay frames=\"20\"}} If you find {{fun_0002000E arg=\"\"}}\n{{color id=\"2\"}}{{fun_00030011 arg=\"0x0000\"}}{{color id=\"65535\"}} anywhere,\n{{delay frames=\"8\"}}bring it to me, OK?{{fun_0005000F arg=\"0x15002800\"}}\nI'll do it!\nI don't want to."
  },
  {
    "label": "008",
    "text": "{{anim id=\"16\"}}Whoa!{{delay frames=\"20\"}} Just got this sudden urge for\n{{fun_0002000E arg=\"\"}}{{color id=\"2\"}}{{fun_00030011 arg=\"0x0000\"}}{{color id=\"65535\"}}!{{pageBreak}}{{anim id=\"0\"}}Hey, {{fun_00080005 arg=\"\"}}.{{delay frames=\"40\"}} Think you could\nhunt down a nice, plump\n{{color id=\"2\"}}{{fun_00030011 arg=\"0x0000\"}}{{color id=\"65535\"}} for me?\n{{anim id=\"37\"}}I'll give you something nice!{{delay frames=\"20\"}} OK?{{fun_0005000F arg=\"0x15002800\"}}\nSure!\nNot now."
  },
  {
    "label": "009",
    "text": "{{anim id=\"21\"}}The other day{{delay frames=\"8\"}}.{{delay frames=\"8\"}}.{{delay frames=\"8\"}}.{{delay frames=\"20\"}}{{fun_00030005 arg=\"\"}} was\neating the most delicious fruit ever.{{pageBreak}}{{anim id=\"4\"}}I had a bite, and it was just perfect.\nNothing compares!{{pageBreak}}{{anim id=\"13\"}}Man!{{delay frames=\"20\"}} I really want to have a whole\n{{color id=\"2\"}}perfect fruit {{color id=\"65535\"}}all to myself!{{pageBreak}}{{anim id=\"9\"}}Help me out, {{fun_00080005 arg=\"\"}}! {{delay frames=\"20\"}}{{anim id=\"21\"}}Bring me a\n{{color id=\"2\"}}perfect fruit{{color id=\"65535\"}}, would ya?{{fun_0005000F arg=\"0x15002800\"}}\nSure!\nSorry!"
  },
  {
    "label": "010",
    "text": "{{anim id=\"21\"}}You know how some trees make\ngood fruit and other trees make\n{{color id=\"2\"}}perfect fruit{{color id=\"65535\"}}?\n{{anim id=\"23\"}}What's the deal with that?{{delay frames=\"40\"}}{{anim id=\"0\"}} Is it the\nway the sun hits 'em?{{delay frames=\"20\"}} Is it luck?{{delay frames=\"20\"}} Is\nit all just one big bee conspiracy?{{pageBreak}}{{anim id=\"4\"}}Mmm!{{delay frames=\"20\"}} I love it when you get that\nfruit that's just flawless! I gotta\nget me some!\n{{anim id=\"0\"}}Hey, {{fun_00080005 arg=\"\"}}!{{delay frames=\"40\"}} You know your\nway around fruit, right?{{delay frames=\"20\"}} Think you \ncan find me some {{color id=\"2\"}}perfect fruit{{color id=\"65535\"}}?\n{{anim id=\"37\"}}I'll give you something for it, of\ncourse! {{delay frames=\"40\"}}Deal?{{fun_0005000F arg=\"0x15002800\"}}\nDeal!\nNo deal!"
  },
  {
    "label": "011",
    "text": ""
  },
  {
    "label": "012",
    "text": ""
  },
  {
    "label": "013",
    "text": ""
  },
  {
    "label": "014",
    "text": ""
  },
  {
    "label": "015",
    "text": "{{anim id=\"22\"}}Really?{{delay frames=\"40\"}}{{anim id=\"37\"}} Awesome! I'll be waitin' for\nya, {{delay frames=\"20\"}}{{fun_00070005 arg=\"\"}}!"
  },
  {
    "label": "016",
    "text": "{{anim id=\"29\"}}Awesome!{{delay frames=\"20\"}} You're the greatest!{{delay frames=\"70\"}}\n{{anim id=\"0\"}}I'll be waiting! {{delay frames=\"20\"}}{{fun_0003000E arg=\"\"}}{{fun_00070005 arg=\"\"}}!"
  },
  {
    "label": "017",
    "text": "{{anim id=\"38\"}}Heh{{delay frames=\"8\"}}.{{delay frames=\"8\"}}.{{delay frames=\"8\"}}.{{delay frames=\"20\"}} I knew I could count on ya! {{delay frames=\"40\"}}\n{{anim id=\"0\"}}Thanks! {{delay frames=\"20\"}}{{fun_0003000E arg=\"\"}}{{fun_00070005 arg=\"\"}}!"
  },
  {
    "label": "018",
    "text": "{{anim id=\"18\"}}What?!{{delay frames=\"40\"}} R{{delay frames=\"8\"}}.{{delay frames=\"8\"}}.{{delay frames=\"8\"}}.{{delay frames=\"20\"}}really?{{delay frames=\"20\"}} {{anim id=\"0\"}}Ah well!{{delay frames=\"20\"}}{{anim id=\"37\"}} I'll ask\nsomeone else then! {{delay frames=\"20\"}}{{fun_0003000E arg=\"\"}}{{fun_00070005 arg=\"\"}}!"
  },
  {
    "label": "019",
    "text": "{{anim id=\"15\"}}Huh? Really?{{delay frames=\"10\"}}{{pageBreak}}{{anim id=\"21\"}}Oh well{{delay frames=\"8\"}}.{{delay frames=\"8\"}}.{{delay frames=\"8\"}}.{{delay frames=\"20\"}} {{anim id=\"0\"}}Maybe next time, huh?\n{{delay frames=\"20\"}}{{fun_0003000E arg=\"\"}}{{fun_00070005 arg=\"\"}}!"
  },
  {
    "label": "020",
    "text": "{{anim id=\"9\"}}Oh, OK{{delay frames=\"8\"}}.{{delay frames=\"8\"}}.{{delay frames=\"8\"}}.{{delay frames=\"20\"}}{{anim id=\"37\"}} Never mind then.{{delay frames=\"20\"}}{{anim id=\"0\"}} I'll figure\nsomething out! {{delay frames=\"20\"}}{{fun_0003000E arg=\"\"}}{{fun_00070005 arg=\"\"}}!"
  }
]