﻿[
  {
    "label": "001",
    "text": "{{anim id=\"16\"}}Right? I think so too!{{pageBreak}}{{anim id=\"37\"}}It's decided then! I'm moving in!\n{{delay frames=\"20\"}}{{fun_0003000E arg=\"\"}}{{fun_00070005 arg=\"\"}}!"
  },
  {
    "label": "002",
    "text": "{{anim id=\"16\"}}Yeah! We're totally on the same\npage, right? That's what I thought!{{pageBreak}}{{anim id=\"0\"}}Well, since I've got your blessing{{delay frames=\"8\"}}.{{delay frames=\"8\"}}.{{delay frames=\"8\"}}.{{delay frames=\"20\"}}\nit's decided!{{delay frames=\"40\"}}{{anim id=\"37\"}} I'm gonna move here!\n{{delay frames=\"20\"}}{{fun_0003000E arg=\"\"}}{{fun_00070005 arg=\"\"}}!"
  },
  {
    "label": "003",
    "text": "{{anim id=\"16\"}}Yeah? That gives me all the\nconfidence I need!{{pageBreak}}{{anim id=\"37\"}}It's decided! I'm gonna move here!{{delay frames=\"20\"}}\n{{anim id=\"0\"}}I'm really gonna! {{delay frames=\"20\"}}{{fun_0003000E arg=\"\"}}{{fun_00070005 arg=\"\"}}!"
  },
  {
    "label": "004",
    "text": "{{anim id=\"11\"}}It would be great if it were that\neasy, but{{delay frames=\"8\"}}.{{delay frames=\"8\"}}.{{delay frames=\"8\"}}.{{fun_00010007 arg=\"\"}}{{anim id=\"0\"}}well, it's just not!{{pageBreak}}{{anim id=\"37\"}}But I'll think about it for the future,\nOK! {{delay frames=\"20\"}}{{fun_0003000E arg=\"\"}}{{fun_00070005 arg=\"\"}}!"
  },
  {
    "label": "005",
    "text": "{{anim id=\"26\"}}Heh heh! You're making me blush!{{pageBreak}}{{anim id=\"37\"}}But I feel like I still got lots to do in\nmy own town, so I guess I'm not \nready to move yet, {{delay frames=\"20\"}}{{fun_00070005 arg=\"\"}}."
  },
  {
    "label": "006",
    "text": "{{anim id=\"37\"}}Ha! I actually can't move just yet.{{fun_00010007 arg=\"\"}}\n{{anim id=\"0\"}}I'm not ready to up and leave my\nbuds in my own town, {{delay frames=\"20\"}}{{fun_00070005 arg=\"\"}}."
  },
  {
    "label": "007",
    "text": "{{anim id=\"11\"}}Hmmm{{delay frames=\"8\"}}.{{delay frames=\"8\"}}.{{delay frames=\"8\"}}.{{delay frames=\"20\"}}{{anim id=\"22\"}} We should let a game\ndecide my fate! That's pretty\nhard core, right?\n{{anim id=\"37\"}}If you win, I'll move.{{delay frames=\"40\"}}{{anim id=\"0\"}} But if I win{{delay frames=\"8\"}}.{{delay frames=\"8\"}}.{{delay frames=\"8\"}}.{{delay frames=\"20\"}}{{anim id=\"36\"}}I'll\ntake your {{fun_00030011 arg=\"0x0000\"}}\nhome as a souvenir!\n{{anim id=\"23\"}}What do ya say?{{delay frames=\"20\"}} Wanna play?{{fun_00050008 arg=\"0x190015000A002800\"}}\nOK! Let's do it!\nI'm not that into it."
  },
  {
    "label": "008",
    "text": "{{anim id=\"11\"}}If there's a worthy rival in this\ntown, I'll gladly move{{delay frames=\"8\"}}.{{delay frames=\"8\"}}.{{delay frames=\"8\"}}.{{delay frames=\"40\"}}{{anim id=\"22\"}} Hey! We\nshould play a game to decide this!\n{{anim id=\"37\"}}If you win, I'll move to this town!{{delay frames=\"40\"}}\n{{anim id=\"0\"}}But if I win, you gotta give me your\n{{fun_00030011 arg=\"0x0000\"}} for keeps!\n{{anim id=\"23\"}}How 'bout it?{{delay frames=\"20\"}} Wanna play?{{fun_00050008 arg=\"0x190015000B002800\"}}\nSure!\nMeh."
  },
  {
    "label": "009",
    "text": "{{anim id=\"11\"}}Hmmm{{delay frames=\"8\"}}.{{delay frames=\"8\"}}.{{delay frames=\"8\"}}.{{delay frames=\"20\"}}{{anim id=\"22\"}} I got it! Let's play a game\nto decide my fate!{{pageBreak}}{{anim id=\"37\"}}If you win, I'll move to this town!{{delay frames=\"40\"}}\n{{anim id=\"0\"}}But if you lose{{delay frames=\"8\"}}.{{delay frames=\"8\"}}.{{delay frames=\"8\"}}.{{delay frames=\"20\"}}I get to take your\n{{fun_00030011 arg=\"0x0000\"}} home.\n{{anim id=\"23\"}}What do you say?{{fun_00050008 arg=\"0x190015000C002800\"}}\nLet's play!\nNo way!"
  },
  {
    "label": "010",
    "text": "{{anim id=\"15\"}}Huh? Really?{{delay frames=\"40\"}}{{anim id=\"37\"}} Yeah, well{{delay frames=\"8\"}}.{{delay frames=\"8\"}}.{{delay frames=\"8\"}}.{{delay frames=\"20\"}} Maybe if I\nfeel like it, I'll end up moving here\nanyway! Look out, {{delay frames=\"20\"}}{{fun_00070005 arg=\"\"}}!"
  },
  {
    "label": "011",
    "text": "{{anim id=\"9\"}}Really?{{delay frames=\"40\"}}{{anim id=\"27\"}} Huh. I kinda thought you'd\nbe more into it, {{delay frames=\"20\"}}{{fun_00070005 arg=\"\"}}."
  },
  {
    "label": "012",
    "text": "{{anim id=\"15\"}}What? Really? {{delay frames=\"40\"}}{{anim id=\"9\"}}{{delay frames=\"8\"}}.{{delay frames=\"8\"}}.{{delay frames=\"8\"}}.{{delay frames=\"20\"}}Well, I guess I can't\nforce you into it, {{delay frames=\"20\"}}{{fun_00070005 arg=\"\"}}."
  },
  {
    "label": "013",
    "text": "{{anim id=\"37\"}}All right! {{color id=\"2\"}}Rock-paper-scissors{{color id=\"65535\"}} it is!{{fun_00120007 arg=\"0x00031B001A00\"}}"
  },
  {
    "label": "014",
    "text": "{{anim id=\"37\"}}All right!{{delay frames=\"20\"}} Let's play {{color id=\"2\"}}charades{{color id=\"65535\"}}!{{fun_00120007 arg=\"0x01011B001A00\"}}"
  },
  {
    "label": "015",
    "text": "{{anim id=\"37\"}}Yeah! This kid gets it! And I think\nthe perfect game for this would be\n{{color id=\"2\"}}Made Ya Look{{color id=\"65535\"}}! {{fun_00120007 arg=\"0x02011B001A00\"}}"
  },
  {
    "label": "016",
    "text": "{{anim id=\"37\"}}All right! That was fun!{{delay frames=\"40\"}}{{anim id=\"0\"}} OK, like we\nagreed, I'll take that sweet, sweet\n{{fun_00030011 arg=\"0x0000\"}}!"
  },
  {
    "label": "017",
    "text": "{{anim id=\"37\"}}Whoa! I haven't felt that tense in a\nlong time!{{delay frames=\"40\"}}{{anim id=\"0\"}} OK, as we agreed, I'll\ntake your {{fun_00030011 arg=\"0x0000\"}}!"
  },
  {
    "label": "018",
    "text": "{{anim id=\"37\"}}Hey! Good match, right?{{delay frames=\"40\"}}{{anim id=\"0\"}} Soooo{{delay frames=\"8\"}}.{{delay frames=\"8\"}}.{{delay frames=\"8\"}}.{{delay frames=\"20\"}}as\nwe agreed, I'll be taking your\n{{fun_00030011 arg=\"0x0000\"}} now!"
  },
  {
    "label": "019",
    "text": "{{anim id=\"37\"}}Thank you! I can't wait to brag to\nthe folks back home about my epic\nwin! {{delay frames=\"20\"}}{{fun_0003000E arg=\"\"}}{{fun_00070005 arg=\"\"}}!"
  },
  {
    "label": "020",
    "text": "{{anim id=\"37\"}}Thanks!{{delay frames=\"20\"}} This will make a nifty\nsouvenir of my trip, {{delay frames=\"20\"}}{{fun_00070005 arg=\"\"}}!"
  },
  {
    "label": "021",
    "text": "{{anim id=\"37\"}}Thanks to you, I've got an awesome\n{{fun_00060005 arg=\"\"}} memory! {{delay frames=\"20\"}}{{fun_0003000E arg=\"\"}}{{fun_00070005 arg=\"\"}}!"
  },
  {
    "label": "022",
    "text": "{{anim id=\"0\"}}Well, looks like I'm gonna be your\nnew neighbor then! You should think\nof this as a major victory!\n{{anim id=\"37\"}}Once I'm done camping, I'll go home\nand start packing. Time to get super\nexcited, {{delay frames=\"20\"}}{{fun_00070005 arg=\"\"}}!"
  },
  {
    "label": "023",
    "text": "{{anim id=\"0\"}}OK! Well, that settles it.{{delay frames=\"40\"}} Haha! I\nguess I'm moving!{{delay frames=\"40\"}}{{anim id=\"37\"}} This town won't\nknow what hit it!\n{{anim id=\"21\"}}While I'm still camping, I think I'll do\nsome recon and gather some intel\non this place, {{delay frames=\"20\"}}{{fun_00070005 arg=\"\"}}!"
  },
  {
    "label": "024",
    "text": "{{anim id=\"37\"}}Ha! I guess that's that!{{delay frames=\"40\"}} I really am\ngonna move here!{{pageBreak}}{{anim id=\"5\"}}Ho ho! Ya know, I'm actually getting\nkinda pumped, {{delay frames=\"20\"}}{{fun_00070005 arg=\"\"}}!{{anim id=\"37\"}}"
  },
  {
    "label": "025",
    "text": "{{fun_00010009 arg=\"0x0D000E000F00\"}}"
  },
  {
    "label": "026",
    "text": "{{fun_00010009 arg=\"0x100011001200\"}}"
  },
  {
    "label": "027",
    "text": "{{fun_00010009 arg=\"0x160017001800\"}}"
  },
  {
    "label": "028",
    "text": "{{fun_00000009 arg=\"0x0D000E00\"}}"
  }
]