﻿[
  {
    "label": "001",
    "text": "{{anim id=\"1\"}}{{fun_0003000E arg=\"\"}}{{fun_00060007 arg=\"\"}}Good morning, {{fun_00080005 arg=\"\"}}{{fun_00070007 arg=\"\"}}!{{delay frames=\"20\"}}\nI'm glad you decided to visit on the\n{{color id=\"2\"}}Winter Solstice{{color id=\"65535\"}}.\n{{anim id=\"25\"}}The thing is{{delay frames=\"8\"}} it's gonna be dark all\nday,{{delay frames=\"8\"}} and when it's dark, I get even\nsleepier than usual,{{delay frames=\"8\"}} {{fun_00070005 arg=\"\"}}."
  },
  {
    "label": "002",
    "text": "{{anim id=\"1\"}}Good morning and welcome!{{delay frames=\"20\"}}\nDid you know it's the {{color id=\"2\"}}Winter\nSolstice{{color id=\"65535\"}} today, {{fun_00080005 arg=\"\"}}?\n{{anim id=\"21\"}}So even though you came for a visit,\none visitor we WON'T be seeing\ntoday is the sun,{{delay frames=\"8\"}} {{fun_00070005 arg=\"\"}}."
  },
  {
    "label": "003",
    "text": "{{anim id=\"16\"}}Hey!{{delay frames=\"20\"}} It's {{fun_00080005 arg=\"\"}}!{{delay frames=\"40\"}}\n{{anim id=\"9\"}}Today's {{color id=\"2\"}}Winter Solstice{{color id=\"65535\"}} means it's\ngoing to be pitch black all day.\n{{anim id=\"3\"}}That's why I'm extra grateful that\nyou came to visit today. You're like\na ray of sunshine,{{delay frames=\"8\"}} {{fun_00070005 arg=\"\"}}. "
  },
  {
    "label": "004",
    "text": "{{anim id=\"1\"}}Hey,{{delay frames=\"20\"}} {{fun_00080005 arg=\"\"}}.\nI'm glad you came to visit us today.\nIt's the {{color id=\"2\"}}Winter Solstice{{color id=\"65535\"}}, you know.{{pageBreak}}{{anim id=\"23\"}}Is it weirding you out that it feels\nlike it's night right now?{{pageBreak}}{{anim id=\"5\"}}Don't worry. Chilling in the dark is\nsuper fun once you get used to it,{{delay frames=\"8\"}}\n{{fun_00070005 arg=\"\"}}."
  },
  {
    "label": "005",
    "text": "{{anim id=\"17\"}}This sun is totally blinding me,{{delay frames=\"8\"}}\n{{fun_00080005 arg=\"\"}}!{{delay frames=\"20\"}} I need sunscreen\nSTAT!{{pageBreak}}{{anim id=\"2\"}}I'm just kidding.{{delay frames=\"20\"}} Today's the {{color id=\"2\"}}Winter\nSolstice{{color id=\"65535\"}}, so we won't be seeing the\nsun all day,{{delay frames=\"8\"}} {{fun_00070005 arg=\"\"}}."
  },
  {
    "label": "006",
    "text": "{{anim id=\"32\"}}{{fun_0003000E arg=\"\"}}{{fun_00060007 arg=\"\"}}Hey,{{delay frames=\"8\"}} {{fun_00080005 arg=\"\"}}{{fun_00070007 arg=\"\"}}!{{delay frames=\"20\"}}\nWelcome to {{fun_00050005 arg=\"\"}}!{{pageBreak}}{{anim id=\"1\"}}Today is the {{color id=\"2\"}}Winter Solstice{{color id=\"65535\"}}, so\nit's going to be dark all day long,{{delay frames=\"8\"}}\n{{fun_00070005 arg=\"\"}}.\n{{anim id=\"2\"}}But it's nowhere near bedtime, so\ndon't change into your pajamas\njust yet, OK?"
  },
  {
    "label": "007",
    "text": "{{anim id=\"1\"}}Good to see you,{{delay frames=\"8\"}} {{fun_00080005 arg=\"\"}}!{{delay frames=\"20\"}}\nThanks for coming to visit li'l old\n{{fun_00050005 arg=\"\"}}! We love getting visitors.\n{{anim id=\"5\"}}Today's the {{color id=\"2\"}}Winter Solstice{{color id=\"65535\"}},{{delay frames=\"8\"}} so it's\nlike one loooooooong night.{{delay frames=\"20\"}} Is that\ncool or what,{{delay frames=\"8\"}} {{fun_00070005 arg=\"\"}}?"
  },
  {
    "label": "008",
    "text": "{{anim id=\"1\"}}Hi, {{fun_00080005 arg=\"\"}}.{{delay frames=\"40\"}}\n{{anim id=\"9\"}}It was dark and cold all day because\nit's the {{color id=\"2\"}}Winter Solstice{{color id=\"65535\"}}. \n{{anim id=\"3\"}}But your visit definitely made it feel\nwarmer,{{delay frames=\"8\"}} {{fun_00070005 arg=\"\"}}."
  },
  {
    "label": "009",
    "text": "{{anim id=\"32\"}}{{fun_0003000E arg=\"\"}}{{fun_00060007 arg=\"\"}}Hey,{{delay frames=\"8\"}} {{fun_00080005 arg=\"\"}}{{fun_00070007 arg=\"\"}}!{{delay frames=\"20\"}}{{delay frames=\"20\"}}\nWelcome!{{pageBreak}}{{anim id=\"19\"}}Today's the {{color id=\"2\"}}Winter Solstice{{color id=\"65535\"}}.{{delay frames=\"20\"}} And\nit's really cold,{{delay frames=\"15\"}}{{anim id=\"19\"}} so be careful you\ndon't get sick,{{delay frames=\"8\"}} OK, {{fun_00070005 arg=\"\"}}?"
  },
  {
    "label": "010",
    "text": "{{anim id=\"25\"}}Yaaawn{{delay frames=\"8\"}}.{{delay frames=\"8\"}}.{{delay frames=\"8\"}}.{{delay frames=\"8\"}} Oh, hey, {{fun_00080005 arg=\"\"}}.{{delay frames=\"20\"}}\n{{anim id=\"1\"}}Today was the {{color id=\"2\"}}Winter Solstice{{color id=\"65535\"}},\nso it was like night all day long.\n{{anim id=\"26\"}}I celebrated the holiday by taking\nlots of naps,{{delay frames=\"8\"}} {{fun_00070005 arg=\"\"}}."
  },
  {
    "label": "011",
    "text": "{{anim id=\"1\"}}Hey, {{fun_00080005 arg=\"\"}}!{{delay frames=\"40\"}}\nToday's the {{color id=\"2\"}}Winter Solstice{{color id=\"65535\"}},{{delay frames=\"20\"}} so the\nsun didn't come out at all all day.\n{{anim id=\"11\"}}It basically looked exactly like it\nlooks right now,{{delay frames=\"8\"}} {{fun_00070005 arg=\"\"}}."
  }
]