﻿[
  {
    "label": "001",
    "text": "{{anim id=\"11\"}}It's dark out{{delay frames=\"20\"}} even though it's\nmorning.{{delay frames=\"20\"}} I guess we just weren't\nmeant to understand some things."
  },
  {
    "label": "002",
    "text": "{{anim id=\"25\"}}Yaaaaawn.{{delay frames=\"8\"}}.{{delay frames=\"8\"}}.{{delay frames=\"20\"}} How am I supposed to\nunsleepify myself this morning when\nit's still dark,{{delay frames=\"8\"}} {{fun_00070005 arg=\"\"}}?"
  },
  {
    "label": "003",
    "text": "{{anim id=\"1\"}}Oh,{{delay frames=\"8\"}} it's {{fun_00080005 arg=\"\"}}.{{delay frames=\"40\"}} Good to see\nyou again,{{delay frames=\"8\"}} {{fun_00070005 arg=\"\"}}."
  },
  {
    "label": "004",
    "text": "{{anim id=\"1\"}}What are you doing up so late?{{delay frames=\"40\"}}\n{{delay frames=\"40\"}}{{anim id=\"26\"}}Oh, wait{{delay frames=\"8\"}}.{{delay frames=\"8\"}}.{{delay frames=\"8\"}}. It's still daytime, isn't it?\nA huh huh huh,{{delay frames=\"8\"}} {{fun_00070005 arg=\"\"}}!{{delay frames=\"20\"}}{{anim id=\"1\"}}"
  },
  {
    "label": "005",
    "text": "{{anim id=\"1\"}}{{fun_0003000E arg=\"\"}}{{fun_00060007 arg=\"\"}}Hey there, {{fun_00080005 arg=\"\"}}{{fun_00070007 arg=\"\"}}!{{delay frames=\"20\"}}\nThis daytime darkness is really\ncrazy,{{delay frames=\"8\"}} {{fun_00070005 arg=\"\"}}."
  },
  {
    "label": "006",
    "text": "{{anim id=\"1\"}}Hi again.{{delay frames=\"20\"}} You're just popping up\nall over the place, aren't you,{{delay frames=\"8\"}}\n{{fun_00070005 arg=\"\"}}?"
  },
  {
    "label": "007",
    "text": "{{anim id=\"32\"}}Hi again, {{fun_00080005 arg=\"\"}}!{{delay frames=\"8\"}}\n{{fun_0003000E arg=\"\"}}{{fun_00070005 arg=\"\"}}!"
  },
  {
    "label": "008",
    "text": "{{anim id=\"32\"}}Hello,{{delay frames=\"8\"}} {{fun_00080005 arg=\"\"}}.{{delay frames=\"40\"}}\n{{anim id=\"19\"}}Are you as cold as I am right now,{{delay frames=\"8\"}}\n{{fun_00070005 arg=\"\"}}?"
  },
  {
    "label": "009",
    "text": "{{anim id=\"1\"}}Look—it's {{fun_00080005 arg=\"\"}} again!{{delay frames=\"20\"}}\nIt's funny how we keep running into\neach other,{{delay frames=\"8\"}} {{fun_00070005 arg=\"\"}}."
  }
]