﻿[
  {
    "label": "001",
    "text": "{{anim id=\"15\"}}Oh,{{delay frames=\"20\"}} are you leaving?{{delay frames=\"40\"}} {{anim id=\"1\"}}Well, on a scale\nof 1 to 100,{{delay frames=\"20\"}} what score would you\ngive my place?{{fun_0001000F arg=\"0x000000000000\"}}\n100!\n50!\n10!"
  },
  {
    "label": "002",
    "text": "{{anim id=\"1\"}}Huh?{{delay frames=\"20\"}} Going home already?{{delay frames=\"40\"}} Before\nyou go,{{delay frames=\"20\"}} {{anim id=\"32\"}}tell me what you think of\nmy place!{{fun_0001000F arg=\"0x000000000000\"}}\nIt's great!\nIt's fine.\nMeh."
  },
  {
    "label": "003",
    "text": "{{anim id=\"17\"}}{{fun_000B0007 arg=\"\"}}Huh?!{{delay frames=\"20\"}} Going home already?{{delay frames=\"40\"}}\n{{anim id=\"35\"}}But we were having so much fun!{{pageBreak}}{{anim id=\"22\"}}{{fun_000B0007 arg=\"\"}}Oh, I know!{{delay frames=\"20\"}} Can I ask you something\nbefore you go?{{fun_00010007 arg=\"\"}} {{anim id=\"0\"}}What did you think{{delay frames=\"20\"}}\n{{anim id=\"23\"}}of my house?{{fun_0001000F arg=\"0x000000000000\"}}\nIt's awesome!\nIt's fine.\nMeh."
  },
  {
    "label": "004",
    "text": "{{anim id=\"3\"}}Woohoo!{{delay frames=\"20\"}} I knew you'd understand\nwhat I'm going for here, {{fun_00080005 arg=\"\"}}!{{fun_00010007 arg=\"\"}}\nWe have the same taste!"
  },
  {
    "label": "005",
    "text": "{{anim id=\"5\"}}A huh huh huh! That means I'm\ndoing pretty good!{{delay frames=\"20\"}} Thanks,{{delay frames=\"8\"}}\n{{fun_00070005 arg=\"\"}}!"
  },
  {
    "label": "006",
    "text": "{{anim id=\"12\"}}That's kind of harsh{{delay frames=\"8\"}}.{{delay frames=\"8\"}}.{{delay frames=\"8\"}}.{{delay frames=\"40\"}} I guess I'll\nhave to try and spruce the place up,{{delay frames=\"8\"}}\n{{fun_00070005 arg=\"\"}}."
  },
  {
    "label": "007",
    "text": "{{anim id=\"1\"}}A huh huh huh!{{delay frames=\"20\"}} Thanks for the\ncompliment!{{delay frames=\"40\"}} It makes me feel twice\nas tall!\n{{anim id=\"33\"}}I can't wait for the Happy Home\nAcademy{{delay frames=\"20\"}} to come judge my place\nnow,{{delay frames=\"8\"}} {{fun_00070005 arg=\"\"}}."
  },
  {
    "label": "008",
    "text": "{{anim id=\"10\"}}Oh, well.{{delay frames=\"20\"}} {{anim id=\"40\"}}But I guess that means it's\ngetting close to good, right?{{delay frames=\"20\"}}{{pageBreak}}{{anim id=\"6\"}}All right!{{delay frames=\"20\"}} I'm gonna work extra hard\nto make you love my place!"
  },
  {
    "label": "009",
    "text": "{{anim id=\"18\"}}Wow, that's pretty harsh{{delay frames=\"8\"}}.{{delay frames=\"8\"}}.{{delay frames=\"8\"}}.{{delay frames=\"20\"}}{{fun_00010007 arg=\"\"}} {{anim id=\"2\"}}Course,\nI've got pretty crazy taste!{{delay frames=\"20\"}} So I'm\ngonna take that as a compliment!{{delay frames=\"40\"}}{{anim id=\"37\"}}"
  },
  {
    "label": "010",
    "text": "{{anim id=\"16\"}}{{fun_000B0007 arg=\"\"}}Really?{{delay frames=\"20\"}} I didn't expect you to like it\nthat much.{{fun_00010007 arg=\"\"}} {{anim id=\"0\"}}So{{delay frames=\"8\"}}.{{delay frames=\"8\"}}.{{delay frames=\"8\"}}.{{delay frames=\"40\"}}{{anim id=\"1\"}}is this what your\nhouse is like?"
  },
  {
    "label": "011",
    "text": "{{anim id=\"9\"}}Oh, really?{{delay frames=\"20\"}} It's just fine?{{fun_00010007 arg=\"\"}} {{anim id=\"1\"}}Well,{{delay frames=\"20\"}} it\nseems like you had a good time\nanyway, so maybe it IS fine!"
  },
  {
    "label": "012",
    "text": "{{anim id=\"2\"}}A huh huh huh!{{delay frames=\"20\"}} Actually, hearing you\nsay that just makes me laugh,{{delay frames=\"8\"}}\n{{fun_00070005 arg=\"\"}}!{{delay frames=\"40\"}}{{anim id=\"37\"}}"
  }
]