﻿[
  {
    "label": "001",
    "text": "Do you think I'll get better faster{{delay frames=\"20\"}} if\nI take some {{color id=\"2\"}}medicine{{color id=\"65535\"}}?"
  },
  {
    "label": "002",
    "text": "I'm gonna sleep a lot today.{{delay frames=\"20\"}} But I\nthink some {{color id=\"2\"}}medicine {{color id=\"65535\"}}would help\neven more!"
  },
  {
    "label": "003",
    "text": "I heard {{color id=\"2\"}}medicine{{color id=\"65535\"}} helps colds go\naway faster."
  },
  {
    "label": "004",
    "text": "Ugh{{delay frames=\"8\"}}.{{delay frames=\"8\"}}.{{delay frames=\"8\"}}.{{delay frames=\"20\"}} Maybe I'll try some {{color id=\"2\"}}medicine{{color id=\"65535\"}}."
  },
  {
    "label": "005",
    "text": "I bet it's bitter,{{delay frames=\"20\"}} but maybe I should\ntake some {{color id=\"2\"}}medicine{{color id=\"65535\"}}{{delay frames=\"8\"}}.{{delay frames=\"8\"}}.{{delay frames=\"8\"}}.{{delay frames=\"20\"}}"
  },
  {
    "label": "006",
    "text": "{{anim id=\"13\"}}Run away before you catch my cold,\n{{fun_00080005 arg=\"\"}}!{{delay frames=\"8\"}} Run and get me some\n{{color id=\"2\"}}medicine{{color id=\"65535\"}}!"
  },
  {
    "label": "007",
    "text": "I think some {{delay frames=\"20\"}}{{color id=\"2\"}}medicine {{color id=\"65535\"}}would really\nhelp me out."
  },
  {
    "label": "008",
    "text": "You don't have any {{color id=\"2\"}}medicine{{color id=\"65535\"}},{{delay frames=\"20\"}}\ndo you?"
  },
  {
    "label": "009",
    "text": "Colds{{delay frames=\"20\"}} are the worst{{delay frames=\"8\"}}.{{delay frames=\"8\"}}.{{delay frames=\"8\"}}. I really need\nsome {{color id=\"2\"}}medicine{{color id=\"65535\"}}."
  }
]