﻿[
  {
    "label": "001",
    "text": ""
  },
  {
    "label": "002",
    "text": "{{fun_00020009 arg=\"0x080009000A000B00\"}}"
  },
  {
    "label": "003",
    "text": "{{fun_00000009 arg=\"0x0C000D00\"}}"
  },
  {
    "label": "004",
    "text": ""
  },
  {
    "label": "005",
    "text": "{{fun_00020009 arg=\"0x0E000F0010001100\"}}"
  },
  {
    "label": "006",
    "text": "{{fun_00000009 arg=\"0x12001300\"}}"
  },
  {
    "label": "007",
    "text": ""
  },
  {
    "label": "008",
    "text": "{{anim id=\"23\"}}Do you think {{color id=\"4\"}}K.K. Slider {{color id=\"65535\"}}ever gets\nnervous?{{pageBreak}}{{anim id=\"13\"}}Yeesh,{{delay frames=\"40\"}} just thinking about getting up\non stage makes me all flop sweaty."
  },
  {
    "label": "009",
    "text": "{{anim id=\"5\"}}I love live shows!{{delay frames=\"20\"}} They're a treat\nfor the ears{{delay frames=\"20\"}} and the eyes!"
  },
  {
    "label": "010",
    "text": "{{anim id=\"26\"}}I wish I were a rock star like\n{{color id=\"4\"}}K.K. Slider{{color id=\"65535\"}},{{delay frames=\"8\"}} {{fun_00070005 arg=\"\"}}."
  },
  {
    "label": "011",
    "text": "{{anim id=\"13\"}}Live music is so exciting,{{delay frames=\"20\"}} it's\nmaking me all sweaty!"
  },
  {
    "label": "012",
    "text": "{{anim id=\"1\"}}Did you come to {{fun_00050005 arg=\"\"}} today\nfor the concert?{{delay frames=\"20\"}} Now, that's worth\ntraveling for!"
  },
  {
    "label": "013",
    "text": "{{anim id=\"4\"}}The atmosphere in here is just\nincredible!"
  },
  {
    "label": "014",
    "text": "{{anim id=\"5\"}}We're gonna have a major dance\nparty tonight!{{delay frames=\"40\"}} Aw, yeah!"
  },
  {
    "label": "015",
    "text": "{{anim id=\"1\"}}I feel so cool hanging out at the\nclub."
  },
  {
    "label": "016",
    "text": "{{anim id=\"25\"}}Yaaawwwn{{delay frames=\"8\"}}.{{delay frames=\"8\"}}.{{delay frames=\"8\"}}.{{delay frames=\"20\"}} I'm kinda sleepy,{{delay frames=\"20\"}} but I\ndon't wanna go home yet.{{fun_00010007 arg=\"\"}} {{anim id=\"1\"}}I mean,{{delay frames=\"20\"}}\nwhat if I miss my favorite song?"
  },
  {
    "label": "017",
    "text": "{{anim id=\"5\"}}Even though I'm generally kinda\nopposed to exercise,{{delay frames=\"20\"}} sometimes you\njust gotta dance, you know?"
  },
  {
    "label": "018",
    "text": "{{anim id=\"5\"}}Now that you're here,{{delay frames=\"20\"}} the party\nhas officially started.{{delay frames=\"40\"}} {{anim id=\"42\"}}Yay!"
  },
  {
    "label": "019",
    "text": "{{anim id=\"1\"}}I bet the DJ is happy{{delay frames=\"20\"}} that people\nare coming in from out of town just\nto hear him spin!"
  }
]