﻿[
  {
    "label": "001",
    "text": ""
  },
  {
    "label": "002",
    "text": "{{fun_00020009 arg=\"0x0500060007000800\"}}"
  },
  {
    "label": "003",
    "text": "{{fun_00000009 arg=\"0x09000A00\"}}"
  },
  {
    "label": "004",
    "text": ""
  },
  {
    "label": "005",
    "text": "{{anim id=\"37\"}}Everything looks so good on the\nmannequins,{{delay frames=\"8\"}} doesn't it?{{delay frames=\"20\"}} I never\nknow what to buy."
  },
  {
    "label": "006",
    "text": "{{anim id=\"37\"}}I like learning about where different\nclothing styles come from.{{delay frames=\"40\"}}{{anim id=\"21\"}} It's the\nbest way to blend in on vacation."
  },
  {
    "label": "007",
    "text": "I do own a pocket guide to fashion,{{delay frames=\"8\"}}{{anim id=\"36\"}}\nbut I always have too much in my\npockets to carry it."
  },
  {
    "label": "008",
    "text": "You always try on clothes before\nyou buy them,{{delay frames=\"8\"}} right?{{delay frames=\"20\"}} The one time I\ndidn't{{delay frames=\"8\"}}.{{delay frames=\"8\"}}.{{delay frames=\"8\"}}.{{anim id=\"27\"}}{{delay frames=\"20\"}} Well,{{delay frames=\"8\"}} there are pictures."
  },
  {
    "label": "009",
    "text": "{{anim id=\"39\"}}Sometimes,{{delay frames=\"8\"}} I just want to put on\nsomething outrageous.{{fun_00010007 arg=\"\"}} {{anim id=\"21\"}}You know,{{delay frames=\"8\"}}\nlike what you wear."
  },
  {
    "label": "010",
    "text": "{{anim id=\"5\"}}I think we just sold out of our{{delay frames=\"8\"}}\n\"I love {{fun_00050005 arg=\"\"}}\"{{delay frames=\"8\"}} shirts!"
  }
]