﻿[
  {
    "label": "001",
    "text": "{{anim id=\"1\"}}{{fun_0003000E arg=\"\"}}{{fun_00060007 arg=\"\"}}Good morning{{fun_00070007 arg=\"\"}}!\n{{delay frames=\"20\"}}Can you believe it?! {{anim id=\"5\"}}The sun's going\nto stick around WAY longer today!"
  },
  {
    "label": "002",
    "text": "{{anim id=\"1\"}}{{fun_0003000E arg=\"\"}}{{fun_00060007 arg=\"\"}}Woohoo{{fun_00070007 arg=\"\"}}!\nMorning RULES today. Seriously!\nThere's no night tonight!"
  },
  {
    "label": "003",
    "text": "{{anim id=\"1\"}}Good morning! {{delay frames=\"20\"}}Actually, the best\nmorning EVER! {{delay frames=\"10\"}}{{anim id=\"3\"}}Because the sun's\nstaying up a long time today!"
  },
  {
    "label": "004",
    "text": "{{anim id=\"5\"}}Hooray for the {{color id=\"2\"}}Summer Solstice{{color id=\"65535\"}}!\nIt's like my day is twice as long\ntoday, {{fun_00080005 arg=\"\"}}. {{delay frames=\"15\"}}Sun, {{delay frames=\"5\"}}sun, {{delay frames=\"5\"}}sun!"
  },
  {
    "label": "005",
    "text": "{{anim id=\"1\"}}{{fun_0003000E arg=\"\"}}{{fun_00060007 arg=\"\"}}Good megamorning{{fun_00070007 arg=\"\"}}!\n{{delay frames=\"20\"}}{{anim id=\"5\"}}Yeah! Morning is forever, just for\ntoday, {{fun_00080005 arg=\"\"}}! I love this sun!"
  },
  {
    "label": "006",
    "text": "{{anim id=\"16\"}}I still can't believe it, {{fun_00080005 arg=\"\"}}!{{delay frames=\"20\"}}\nThe sun is never going to set today!{{delay frames=\"20\"}}\n{{anim id=\"4\"}}I love that SO much, {{fun_00070005 arg=\"\"}}."
  },
  {
    "label": "007",
    "text": "{{anim id=\"1\"}}{{fun_0003000E arg=\"\"}}{{fun_00060007 arg=\"\"}}I'm still saying good morning{{fun_00070007 arg=\"\"}}!{{delay frames=\"15\"}}\nTonight the sun is sticking around!\nKnow what that means?\n{{anim id=\"42\"}}DANCE PARTY!"
  },
  {
    "label": "008",
    "text": "{{anim id=\"3\"}}All this extra sun today makes me\nfeel like I'm on some tropical\nvacation, {{fun_00080005 arg=\"\"}}!"
  },
  {
    "label": "009",
    "text": "{{anim id=\"1\"}}{{fun_0003000E arg=\"\"}}{{fun_00060007 arg=\"\"}}Hello, hello, hello{{fun_00070007 arg=\"\"}}!{{delay frames=\"20\"}}\n{{anim id=\"32\"}}I'm still greeting the day today...{{delay frames=\"15\"}}\nbecause the sun hasn't gone down!"
  },
  {
    "label": "010",
    "text": "{{anim id=\"1\"}}{{fun_0003000E arg=\"\"}}{{fun_00060007 arg=\"\"}}Good evening? I don't think so{{fun_00070007 arg=\"\"}}!{{delay frames=\"20\"}}\n{{anim id=\"38\"}}The sun never went down!\nIsn't that awesome, {{fun_00080005 arg=\"\"}}?"
  },
  {
    "label": "011",
    "text": "{{anim id=\"1\"}}Super-duper weird, right,\n{{fun_00080005 arg=\"\"}}? {{delay frames=\"20\"}}It's late-late, but it's\nstill totally sunny out, {{fun_00070005 arg=\"\"}}."
  }
]