﻿[
  {
    "label": "001",
    "text": "{{anim id=\"37\"}}This looks like a good place to toss\naround a ball. {{anim id=\"35\"}}No buildings means no\nwindows for me to break! Hee hee!"
  },
  {
    "label": "002",
    "text": "{{anim id=\"5\"}}Looks like someone is building a\nnew house in town! {{anim id=\"37\"}}Gosh, I hope our\nnew neighbor is totally fun.\n{{anim id=\"9\"}}No-fun neighbors are, like, the pits!\nAnd {{fun_00050005 arg=\"\"}} {{anim id=\"40\"}}definitely doesn't\nneed any more no-fun neighbors!"
  },
  {
    "label": "003",
    "text": "{{anim id=\"21\"}}My house is, like, so cool. I picked\nout the colors all by myself. {{anim id=\"3\"}}They\nlook totally amazing together!\nYup. {{anim id=\"44\"}}A house like mine is fit for a\nsuperstar! {{delay frames=\"15\"}}{{anim id=\"9\"}}Anything less would be\na travesty, {{fun_00070005 arg=\"\"}}."
  },
  {
    "label": "004",
    "text": "{{anim id=\"23\"}}Do you want to spy on {{fun_00010011 arg=\"0x0000\"}}'s\nhouse too? {{anim id=\"35\"}}Good to know there's\nanother secret agent in {{fun_00050005 arg=\"\"}}!\n{{anim id=\"2\"}}Hee hee! I'm just kidding. I'm no\nspy—at least, not professionally.\n{{anim id=\"21\"}}But I do like to keep tabs on folks!"
  },
  {
    "label": "005",
    "text": "{{anim id=\"38\"}}Living in a tent is, like, totally wild!\nYou're all getting back to nature\nand stuff. {{anim id=\"29\"}}Good for you!"
  },
  {
    "label": "006",
    "text": "{{anim id=\"37\"}}It takes a good eye for design to\nfurnish a house with only one room.\n{{anim id=\"23\"}}Like, where will everything go?\n{{anim id=\"9\"}}You've really got your work cut out\nfor you, {{anim id=\"38\"}}but I know you'll do fine.\nYou're more stylish than you think!"
  },
  {
    "label": "007",
    "text": "{{anim id=\"37\"}}I pass by your place all the time\nwhen I'm out on a walk. {{anim id=\"3\"}}Your house\nlooks good from, like, every angle!\n{{anim id=\"27\"}}Do you know how difficult that is?\nI'd be a much bigger star if I didn't\nhave a good side AND a bad one."
  },
  {
    "label": "008",
    "text": "{{anim id=\"1\"}}Your house is, like, totally perfect\nfor parties! {{anim id=\"29\"}}Super spacious, so\nthere's room for a dance floor too!\nOoh! {{anim id=\"5\"}}Promise me if you ever throw\na dance party, you'll invite me!\nPinky swear, {{fun_00080005 arg=\"\"}}!"
  },
  {
    "label": "009",
    "text": "{{anim id=\"1\"}}Your house is, like, ginormous. {{anim id=\"2\"}}I\nbet you get lost in it all the time,\n{{fun_00080005 arg=\"\"}}!\n{{anim id=\"23\"}}But for reals, has anyone ever got\nlost in your house? {{anim id=\"9\"}}There could be\nfolks in the walls, {{delay frames=\"15\"}}{{fun_00070005 arg=\"\"}}!"
  },
  {
    "label": "010",
    "text": "{{anim id=\"16\"}}Whoa! {{fun_0003000E arg=\"\"}}{{fun_00000011 arg=\"0x0000\"}} actually lives in\na tent. Not a house with, like, walls.\n{{anim id=\"21\"}}But an honest-to-goodness tent!\n{{anim id=\"43\"}}{{fun_0005000E arg=\"0x080048006500270073000A0053006800650027007300\"}} got a lot of chutzpah, I'll give\n{{fun_0005000E arg=\"0x0600680069006D000600680065007200\"}} that. {{anim id=\"38\"}}Maybe {{fun_0005000E arg=\"0x0400680065000600730068006500\"}} can give me a\nlesson in bravery, {{fun_00070005 arg=\"\"}}!"
  },
  {
    "label": "011",
    "text": "{{anim id=\"37\"}}I guess {{fun_00000011 arg=\"0x0000\"}} would rather add\non to {{fun_0005000E arg=\"0x06006800690073000600680065007200\"}} house piece by piece and\nnot try to do it all at once.\n{{anim id=\"9\"}}Home renovation can be, like,\ntotally exhausting. {{anim id=\"21\"}}But {{fun_00000011 arg=\"0x0000\"}}\nneeds to get to work on {{fun_0005000E arg=\"0x06006800690073000600680065007200\"}} place!"
  },
  {
    "label": "012",
    "text": "{{delay frames=\"8\"}}{{anim id=\"37\"}}{{fun_0003000E arg=\"\"}}{{fun_00000011 arg=\"0x0000\"}}'s place is, like, the\nperfect size. Not too big, but\nnot too small!\n{{anim id=\"11\"}}If a house is too big, it's a pain to\nclean. But if it's too small, {{anim id=\"44\"}}there's\nno room for your pageant trophies!"
  },
  {
    "label": "013",
    "text": "{{anim id=\"40\"}}Ugh! I get total house envy each\ntime I look at {{fun_00000011 arg=\"0x0000\"}}'s house,\n{{fun_00070005 arg=\"\"}}.\n{{anim id=\"5\"}}I mean, can you even imagine the\ncloset space? I can, and I have. {{fun_00010007 arg=\"\"}}{{anim id=\"12\"}}So\nmuch closet space..."
  },
  {
    "label": "014",
    "text": "{{anim id=\"16\"}}{{fun_0003000E arg=\"\"}}{{fun_00000011 arg=\"0x0000\"}} must be some kind of\nsecret celebrity, living in an honest-\nto-goodness mansion!\n{{anim id=\"27\"}}There are probably paparazzi\nhiding out just waiting to snap\n{{fun_0005000E arg=\"0x06006800690073000600680065007200\"}} photo!"
  },
  {
    "label": "015",
    "text": "{{anim id=\"37\"}}Every time I go down the slope to\nthe beach, {{anim id=\"5\"}}I picture myself strutting\ndown the catwalk like a model!"
  },
  {
    "label": "016",
    "text": "{{anim id=\"33\"}}I need to keep up my status as\ntrendiest {{fun_001F0005 arg=\"0x00CD\"}} in {{fun_00050005 arg=\"\"}}!\nAnd there's only one way to do it...\n{{anim id=\"38\"}}I'll just put out a lot of things I\nrecommend at Re-Tail. {{anim id=\"29\"}}That way,\neveryone will see them!"
  },
  {
    "label": "017",
    "text": "{{anim id=\"1\"}}I totally have to see if Re-Tail can\nmake some custom goods for me.{{pageBreak}}{{anim id=\"5\"}}Can you imagine? A whole product\nline with the {{fun_00010005 arg=\"\"}} name and\nimage on them, {{fun_00070005 arg=\"\"}}!"
  },
  {
    "label": "018",
    "text": "{{anim id=\"4\"}}Train travel sounds so romantic,\ndon't you think? Just imagine—a\nnew day, a new town...\n{{anim id=\"9\"}}But I'd get too lonely traveling all\nby myself. {{fun_00010007 arg=\"\"}}{{anim id=\"16\"}}Hey! Maybe you could\ncome with me, {{fun_00080005 arg=\"\"}}!"
  },
  {
    "label": "019",
    "text": "{{anim id=\"43\"}}When I see the blue ocean, all I can\npicture is a tropical paradise!{{pageBreak}}{{anim id=\"37\"}}Sandy, white beaches and fruity\ndrinks{{delay frames=\"8\"}}.{{delay frames=\"8\"}}.{{delay frames=\"8\"}}.{{delay frames=\"8\"}}{{fun_00010007 arg=\"\"}} {{anim id=\"31\"}}Doesn't that sound, like,\ntotally relaxing?!"
  },
  {
    "label": "020",
    "text": "{{anim id=\"9\"}}My heart beats a little faster every\ntime I walk by the police station{{delay frames=\"8\"}}.{{delay frames=\"8\"}}.{{delay frames=\"8\"}}.{{delay frames=\"8\"}}\n{{anim id=\"40\"}}Not that I'm guilty of anything!"
  },
  {
    "label": "021",
    "text": "{{anim id=\"38\"}}Ahh! Just breathe in that yummers\nsmell of coffee and cream! {{anim id=\"27\"}}It's\ngonna make me droooool...\n{{anim id=\"43\"}}One of these days, I'm gonna sit\nin the café and totally get all, like,\nphilosophical with {{color id=\"4\"}}Brewster{{color id=\"65535\"}}!"
  },
  {
    "label": "022",
    "text": "{{anim id=\"38\"}}How's everything going down at the\ntown hall? I bet you have a lot of\nsmart people working for you.\n{{anim id=\"21\"}}I'm gonna be a real go-getter one\nof these days! .{{delay frames=\"8\"}}.{{delay frames=\"8\"}}.{{delay frames=\"8\"}}Just not today."
  },
  {
    "label": "023",
    "text": "{{anim id=\"11\"}}I've always got a million things to\nask {{color id=\"4\"}}Isabelle{{color id=\"65535\"}}, {{anim id=\"36\"}}but they all fly out of\nmy head when I'm at the town hall!"
  }
]