﻿[
  {
    "label": "001",
    "text": "{{anim id=\"1\"}}Hey, what do you think of my whole\nlook today?{{fun_00030008 arg=\"0x1500000016000000170000001800000019000000\"}}\nCool!\nCute!\nIt's so you.\nSubtle...\nWhat is it?!"
  },
  {
    "label": "002",
    "text": "{{anim id=\"1\"}}What do you think about the look\nI'm wearing today? {{delay frames=\"10\"}}Yeah, check out\nmy {{fun_00030011 arg=\"0x0000\"}}.\nI'm going for {{fun_0002000E arg=\"\"}}{{fun_00230005 arg=\"0x00CD\"}}\nkind of thing, like I'm a total\n{{fun_00110005 arg=\"0x0000\"}} queen!"
  },
  {
    "label": "003",
    "text": "{{anim id=\"1\"}}What do you think of this look?{{delay frames=\"20\"}}\nYeah, I'm trying to be SO very\n{{fun_00230005 arg=\"0x00CD\"}} today.\nI think my outfit would totally\nflop if it wasn't for the cute\n{{fun_00030011 arg=\"0x0000\"}} I have on!"
  },
  {
    "label": "004",
    "text": "{{anim id=\"1\"}}I'm into the whole {{fun_00230005 arg=\"0x00CD\"}}\nlook today, {{fun_00070005 arg=\"\"}}.{{pageBreak}}Think I pulled it off? {{delay frames=\"10\"}}Yeah, my\n{{fun_00030011 arg=\"0x0000\"}} is SO that."
  },
  {
    "label": "005",
    "text": "{{anim id=\"1\"}}I thought I'd rock the whole, {{delay frames=\"5\"}}uh,{{delay frames=\"5\"}}\n{{fun_00230005 arg=\"0x00CD\"}} look today.{{pageBreak}}Yeah, I just couldn't be this cool\nwithout my {{fun_00030011 arg=\"0x0000\"}}!"
  },
  {
    "label": "006",
    "text": "{{anim id=\"37\"}}Only a REAL fashionista could pull\noff this {{fun_00230005 arg=\"0x00CD\"}} look I've\ngot going on today.\n{{anim id=\"33\"}}I'm being totally serious. Check out\nmy {{fun_00030011 arg=\"0x0000\"}}. Perfect\nfor any event!"
  },
  {
    "label": "007",
    "text": "{{anim id=\"2\"}}I know! I know! You don't even\nhave to say it, {{fun_00080005 arg=\"\"}}.{{fun_00010007 arg=\"\"}}\nI'm dressed like a celebrity today!\n{{anim id=\"0\"}}Yeah, this whole {{fun_00230005 arg=\"0x00CD\"}}\nlook is perfect for me. {{delay frames=\"20\"}}{{anim id=\"4\"}}I love my\n{{fun_00030011 arg=\"0x0000\"}} SO much!"
  },
  {
    "label": "008",
    "text": "{{anim id=\"1\"}}I know! {{delay frames=\"10\"}}This look I'm wearing is\nSO {{fun_00230005 arg=\"0x00CD\"}}!{{pageBreak}}It's like {{fun_0002000E arg=\"\"}}{{fun_00130005 arg=\"0x0000\"}}-\n{{fun_00130005 arg=\"0x0000\"}} sandwich! It\nshouldn't work, but it just does!\nLook at my {{fun_00030011 arg=\"0x0000\"}}!\nHave you ever seen anything so\n{{fun_00230005 arg=\"0x00CD\"}}?"
  },
  {
    "label": "009",
    "text": "{{anim id=\"1\"}}I thought I'd try the whole, {{delay frames=\"5\"}}you\nknow, {{delay frames=\"5\"}}{{fun_00230005 arg=\"0x00CD\"}} look today.\nNot bad, huh?\n{{anim id=\"4\"}}I love my {{fun_00030011 arg=\"0x0000\"}}!\nSweeter than {{fun_00100005 arg=\"0x0000\"}},\nif you ask me!"
  },
  {
    "label": "010",
    "text": "{{anim id=\"1\"}}Good day, {{fun_0006000E arg=\"0x06007300690072000A006D006100640061006D00\"}}! {{delay frames=\"10\"}}Like my whole\n{{fun_00230005 arg=\"0x00CD\"}} look?{{pageBreak}}{{anim id=\"27\"}}Yeah, it's a little yesteryear for me,\nbut some people say this\n{{fun_00230005 arg=\"0x00CD\"}} stuff is in again.\n{{anim id=\"1\"}}That's why I'm taking my\n{{fun_00030011 arg=\"0x0000\"}} out for a\nlittle stroll today, {{fun_00070005 arg=\"\"}}!"
  },
  {
    "label": "011",
    "text": "{{anim id=\"1\"}}So, like this {{fun_00230005 arg=\"0x00CD\"}} look\nI've got going on today? Yeah,\nit's not my typical thing.\nI can pull off almost any look. But\nthe whole {{fun_00230005 arg=\"0x00CD\"}} thing\nis hard for a sparkle fest like me."
  },
  {
    "label": "012",
    "text": "{{anim id=\"1\"}}Woohoo! {{delay frames=\"10\"}}I'm wearing an actual\n{{fun_00050011 arg=\"\"}}, can you\nbelieve it? {{delay frames=\"10\"}}Yes, YOUR design!\n{{anim id=\"5\"}}You're like a fashion genius. If you\nkeep at this, you'll be a designer\nto the stars, {{fun_00080005 arg=\"\"}}!"
  },
  {
    "label": "013",
    "text": "{{anim id=\"1\"}}Don't I look fabulous? {{delay frames=\"10\"}}I'm wearing\none of {{fun_00000011 arg=\"0x0000\"}}'s own designs.{{delay frames=\"10\"}}\nI'm the luckiest girl in town!"
  },
  {
    "label": "014",
    "text": "{{anim id=\"1\"}}Can you believe it? I'm totally\nwearing a design that {{fun_00000011 arg=\"0x0000\"}}\nfrom {{fun_00020011 arg=\"0x0000\"}} made.\n{{anim id=\"3\"}}With that kind of talent, {{fun_00000011 arg=\"0x0000\"}}\nis going to go FAR. {{delay frames=\"10\"}}I can't wait to\nsee if more designs come our way!"
  },
  {
    "label": "015",
    "text": ""
  },
  {
    "label": "016",
    "text": ""
  },
  {
    "label": "017",
    "text": ""
  },
  {
    "label": "018",
    "text": ""
  },
  {
    "label": "019",
    "text": ""
  },
  {
    "label": "020",
    "text": ""
  },
  {
    "label": "021",
    "text": "Cool? {{delay frames=\"10\"}}Really? {{delay frames=\"20\"}}{{anim id=\"33\"}}Awesome! {{delay frames=\"10\"}}I knew\nI could pull that look off,\n{{fun_00070005 arg=\"\"}}!"
  },
  {
    "label": "022",
    "text": "{{anim id=\"5\"}}Cute? {{delay frames=\"10\"}}Really? {{delay frames=\"10\"}}Yay! That's totally\nwhat I was going for, {{fun_00070005 arg=\"\"}}!"
  },
  {
    "label": "023",
    "text": "{{anim id=\"28\"}}No one pulls off the \"it's so you\"\nlook better than I do.{{pageBreak}}{{anim id=\"37\"}}Well, I bet you could pull it off.{{fun_00010007 arg=\"\"}}\n{{anim id=\"28\"}}But no one else ever will!"
  },
  {
    "label": "024",
    "text": "{{anim id=\"23\"}}What? {{delay frames=\"10\"}}Subtle?{{pageBreak}}{{anim id=\"14\"}}Waaaah! {{delay frames=\"10\"}}No, take it back! {{delay frames=\"10\"}}There's\nnothing subtle about me!{{delay frames=\"20\"}}\n{{anim id=\"13\"}}Nothing, {{fun_00070005 arg=\"\"}}! Nothing!\n{{anim id=\"12\"}}Ugh, fashion takes so much out\nof me, {{fun_00080005 arg=\"\"}}."
  },
  {
    "label": "025",
    "text": "{{anim id=\"6\"}}What is it? {{delay frames=\"30\"}}{{anim id=\"7\"}}What IS it?{{pageBreak}}{{anim id=\"8\"}}What? {{delay frames=\"10\"}}Is? {{delay frames=\"10\"}}It?{{pageBreak}}{{anim id=\"43\"}}Hold on. Now that I think about it.{{delay frames=\"5\"}}.{{delay frames=\"5\"}}.{{delay frames=\"5\"}}\nI don't know either, {{fun_00070005 arg=\"\"}}!"
  }
]