﻿[
  {
    "label": "001",
    "text": "{{anim id=\"11\"}}Isn't there, like, some kind of weed-\npulling contest in town today? {{fun_00010007 arg=\"\"}}\n{{anim id=\"15\"}}Wait—{{delay frames=\"8\"}}what? {{delay frames=\"20\"}}It's not a contest?\nWell{{delay frames=\"8\"}}.{{delay frames=\"8\"}}.{{delay frames=\"8\"}}.{{delay frames=\"8\"}}{{anim id=\"39\"}}I guess that's OK. {{fun_00010007 arg=\"\"}}{{anim id=\"38\"}}As long as\neveryone has worked hard to make\nthis town a prettier place!"
  },
  {
    "label": "002",
    "text": "{{anim id=\"33\"}}I like to use my celebrity status\nto draw attention to important\ncauses, {{delay frames=\"30\"}}like the environment!\n{{anim id=\"1\"}}That's why today's event has a\nspecial place in my heart. {{delay frames=\"10\"}}{{anim id=\"39\"}}And in\nyour heart too, right, {{delay frames=\"10\"}}{{fun_00080005 arg=\"\"}}?"
  },
  {
    "label": "003",
    "text": "{{anim id=\"1\"}}I'm so happy this town is finally\ngetting a beauty makeover! {{delay frames=\"10\"}}Well,{{delay frames=\"8\"}}\nnot exactly a makeover...\n{{anim id=\"27\"}}But you know what I mean! {{delay frames=\"20\"}}When I\nmake {{fun_00050005 arg=\"\"}} a prettier place to\nlive, {{delay frames=\"8\"}}{{anim id=\"44\"}}it makes me look better too!"
  },
  {
    "label": "004",
    "text": "{{anim id=\"1\"}}Since the town is getting beautified\ntoday, {{delay frames=\"5\"}}I thought I'd give my house a\nmakeover too. {{delay frames=\"20\"}}{{anim id=\"27\"}}What a mess!"
  },
  {
    "label": "005",
    "text": "{{anim id=\"10\"}}Don't your arms get SO sore when\nyou pull weeds? {{anim id=\"27\"}}I never knew that\ngardening was such good exercise!"
  },
  {
    "label": "006",
    "text": "{{anim id=\"5\"}}Today's the big day! {{delay frames=\"10\"}}Time to pull\nall the weeds and clean up this\ntown until it sparkles!\n{{anim id=\"21\"}}If we're about to make {{fun_00050005 arg=\"\"}}\na prettier place to visit,{{delay frames=\"20\"}} {{anim id=\"37\"}}we'll, like,\nget more visitors!\n{{anim id=\"29\"}}And more visitors means more\nfriends for me! {{delay frames=\"20\"}}And for you too,\n{{fun_00080005 arg=\"\"}}!"
  }
]