﻿[
  {
    "label": "001",
    "text": "{{anim id=\"6\"}}We totally quit hiding. You never\nfound all of us.{{delay frames=\"5\"}}.{{delay frames=\"5\"}}.{{delay frames=\"5\"}}so we gave up on\nthe whole game, {{fun_00080005 arg=\"\"}}."
  },
  {
    "label": "002",
    "text": "{{anim id=\"6\"}}We are SO not hiding anymore.{{delay frames=\"10\"}}\nYou did try to seek, didn't you?{{delay frames=\"10\"}}\nWe had to stop playing!"
  },
  {
    "label": "003",
    "text": "{{anim id=\"6\"}}We stopped playing hide-and-seek,\n{{fun_00080005 arg=\"\"}}. We couldn't just wait\naround forever for you!"
  },
  {
    "label": "004",
    "text": "{{fun_00010009 arg=\"0x050006000700\"}}"
  },
  {
    "label": "005",
    "text": "{{anim id=\"6\"}}If we hide, you should keep seeking.\nEven if it's hard, {{fun_00070005 arg=\"\"}}!"
  },
  {
    "label": "006",
    "text": "{{anim id=\"9\"}}If we all go to the trouble of finding\ngood hiding places, {{delay frames=\"5\"}}you should do\nyour best to find us, {{delay frames=\"5\"}}OK?"
  },
  {
    "label": "007",
    "text": "{{anim id=\"6\"}}Next time we play, find all of us,\nOK?{{delay frames=\"10\"}} Or else we'll be standing\naround for a long time, {{fun_00080005 arg=\"\"}}!"
  }
]