﻿[
  {
    "label": "001",
    "text": "{{anim id=\"37\"}}I'm totally into a new cause right\nnow, but I'm having a hard time\ngetting the world to care!\n{{anim id=\"23\"}}Could you collect some signatures\nfrom other towns for me? You'd\nhave until the end of the day!\nYeah, just find folks who will sign\nmy {{fun_00010012 arg=\"\"}}\npetition! How about it?{{fun_0005000F arg=\"0x15002800\"}}\nFor you? Sure!\nNo way."
  },
  {
    "label": "002",
    "text": "{{anim id=\"13\"}}I'm totally obsessed with a new\ncause, {{fun_00080005 arg=\"\"}}. {{delay frames=\"10\"}}But I need your\nhelp to make the world listen!\n{{anim id=\"37\"}}I need folks from other towns to\nsign my petition. {{delay frames=\"10\"}}I've called it\n{{fun_00010012 arg=\"\"}}!\nBut you'll help, {{delay frames=\"5\"}}{{anim id=\"32\"}}right? {{delay frames=\"10\"}}You'd just\nhave to collect enough signatures\nby the end of the day, {{fun_00080005 arg=\"\"}}!{{fun_0005000F arg=\"0x15002800\"}}\nSure, I'll help you!\nNo, sorry."
  },
  {
    "label": "003",
    "text": "{{anim id=\"23\"}}Hey, you travel to other towns,\ndon't you? {{fun_00010007 arg=\"\"}}{{anim id=\"32\"}}Then you're just the {{fun_0006000E arg=\"0x06006700750079000600670061006C00\"}}\nwho can help me, {{fun_00080005 arg=\"\"}}.\n{{anim id=\"1\"}}I need signatures from folks in\nother towns for my petition.{{delay frames=\"5\"}}.{{delay frames=\"5\"}}.{{delay frames=\"5\"}}\n{{fun_00010012 arg=\"\"}}!\n{{anim id=\"13\"}}Could you round some up? It's such\nan important cause! And you'd have\nuntil the end of the day to do it!{{fun_0005000F arg=\"0x15002800\"}}\nYes, I'll do it!\nSorry, no."
  },
  {
    "label": "004",
    "text": "{{anim id=\"12\"}}No? {{delay frames=\"10\"}}Well, OK. {{delay frames=\"10\"}}Sorry I even asked,\n{{fun_00080005 arg=\"\"}}."
  },
  {
    "label": "005",
    "text": "{{anim id=\"18\"}}What? {{delay frames=\"10\"}}But it's so important!{{fun_00010007 arg=\"\"}}\n{{anim id=\"11\"}}Hmm. Maybe I need to get behind\na different cause."
  },
  {
    "label": "006",
    "text": "{{anim id=\"21\"}}I see.{{delay frames=\"5\"}}.{{delay frames=\"5\"}}.{{delay frames=\"5\"}} Well, I figured you wouldn't\nbe a big supporter, {{fun_00080005 arg=\"\"}}.{{delay frames=\"20\"}}\n{{anim id=\"27\"}}I'll do this myself, I guess."
  },
  {
    "label": "007",
    "text": "{{anim id=\"1\"}}Yay, thanks! You'll need to collect\n{{color id=\"2\"}}{{fun_00060004 arg=\"0x0000\"}} signatures{{color id=\"65535\"}} from {{color id=\"2\"}}other towns{{color id=\"65535\"}}.{{delay frames=\"30\"}}\nHere's the sheet."
  },
  {
    "label": "008",
    "text": "{{anim id=\"5\"}}Woohoo! Thanks! You'll need to\nget {{color id=\"2\"}}{{fun_00060004 arg=\"0x0000\"}}{{color id=\"65535\"}}{{color id=\"2\"}} signatures{{color id=\"65535\"}} from {{color id=\"2\"}}other towns{{color id=\"65535\"}}.{{pageBreak}}{{anim id=\"37\"}}Oh, one more thing. {{delay frames=\"10\"}}They all have\nto come from {{color id=\"2\"}}girls{{color id=\"65535\"}}. {{delay frames=\"10\"}}{{anim id=\"21\"}}Yeah, for\nthis cause? {{delay frames=\"10\"}}Definitely girls.\nHere's the sheet."
  },
  {
    "label": "009",
    "text": "{{anim id=\"32\"}}Awesome! You'll have to gather\n{{color id=\"2\"}}{{fun_00060004 arg=\"0x0000\"}}{{color id=\"65535\"}}{{color id=\"2\"}} signatures{{color id=\"65535\"}} from {{color id=\"2\"}}other towns{{color id=\"65535\"}}.{{pageBreak}}One more thing! {{delay frames=\"10\"}}They all have to\ncome from {{color id=\"2\"}}girls like me{{color id=\"65535\"}}. {{delay frames=\"10\"}}{{anim id=\"21\"}}You know,\nsorta sparkly, kinda hyper?\nHere's the sheet."
  },
  {
    "label": "010",
    "text": ""
  },
  {
    "label": "011",
    "text": "{{anim id=\"37\"}}All right. Good luck, {{fun_00080005 arg=\"\"}}!"
  },
  {
    "label": "012",
    "text": "{{anim id=\"1\"}}I can't wait to see all those\nsignatures!"
  },
  {
    "label": "013",
    "text": "{{anim id=\"1\"}}I've got high hopes, {{fun_00080005 arg=\"\"}}.{{delay frames=\"10\"}}\nI know you can do it!"
  },
  {
    "label": "014",
    "text": ""
  },
  {
    "label": "015",
    "text": ""
  },
  {
    "label": "016",
    "text": ""
  },
  {
    "label": "017",
    "text": ""
  },
  {
    "label": "018",
    "text": ""
  },
  {
    "label": "019",
    "text": ""
  },
  {
    "label": "020",
    "text": ""
  },
  {
    "label": "021",
    "text": "{{anim id=\"29\"}}Yay! That is SO off the leash!{{delay frames=\"20\"}}\nYou'll need to chase down \n{{color id=\"2\"}}{{fun_00060004 arg=\"0x0000\"}}{{color id=\"65535\"}}{{color id=\"2\"}} signatures{{color id=\"65535\"}} from {{color id=\"2\"}}other towns{{color id=\"65535\"}}.{{pageBreak}}{{anim id=\"22\"}}Oh, I almost forgot! {{delay frames=\"10\"}}They all have\nto come from {{color id=\"2\"}}dogs{{color id=\"65535\"}}. {{delay frames=\"10\"}}{{anim id=\"21\"}}Yeah, who\nelse would sign, right?\nHere's the sheet."
  },
  {
    "label": "022",
    "text": "{{anim id=\"29\"}}Well, aren't you the cat's meow!{{delay frames=\"20\"}}\nYou'll need to hunt for {{color id=\"2\"}}{{fun_00060004 arg=\"0x0000\"}}{{color id=\"65535\"}}{{color id=\"2\"}} signatures{{color id=\"65535\"}}\nfrom {{color id=\"2\"}}other towns{{color id=\"65535\"}}.{{pageBreak}}{{anim id=\"37\"}}And there's one {{delay frames=\"5\"}}more {{delay frames=\"5\"}}thing. {{delay frames=\"10\"}}They\nall have to come from {{color id=\"2\"}}cats{{color id=\"65535\"}}. {{delay frames=\"10\"}}{{anim id=\"2\"}}Yeah,\nand don't even bother with dogs!\nHere's your signature sheet,\n{{fun_00080005 arg=\"\"}}."
  },
  {
    "label": "023",
    "text": "{{anim id=\"1\"}}Look at you, all bright-eyed and\nbushy-tailed about this! {{delay frames=\"20\"}}You'll need\n{{color id=\"2\"}}{{fun_00060004 arg=\"0x0000\"}}{{color id=\"65535\"}}{{color id=\"2\"}} signatures{{color id=\"65535\"}} from {{color id=\"2\"}}other towns{{color id=\"65535\"}}.{{pageBreak}}{{anim id=\"37\"}}Hey, almost forgot! {{delay frames=\"10\"}}They all have to\ncome from {{color id=\"2\"}}squirrels{{color id=\"65535\"}}. {{delay frames=\"10\"}}No one else\nwill get behind this cause!\nHere's the sheet."
  },
  {
    "label": "024",
    "text": "{{anim id=\"1\"}}Wow, can't wait to hop to it, huh?{{delay frames=\"20\"}}\nYou'll need {{color id=\"2\"}}{{fun_00060004 arg=\"0x0000\"}}{{color id=\"65535\"}}{{color id=\"2\"}} signatures{{color id=\"65535\"}} from\n{{color id=\"2\"}}other towns{{color id=\"65535\"}}.{{pageBreak}}{{anim id=\"37\"}}Oh, one more detail. {{delay frames=\"10\"}}They all need\nto be from {{color id=\"2\"}}rabbits{{color id=\"65535\"}}. {{delay frames=\"10\"}}{{anim id=\"27\"}}Who else will\nlisten up about this?\nAll right, here's the sheet,\n{{fun_00080005 arg=\"\"}}."
  },
  {
    "label": "025",
    "text": "{{anim id=\"1\"}}Yay, thanks! Now you'll need\n{{color id=\"2\"}}{{fun_00060004 arg=\"0x0000\"}}{{color id=\"65535\"}}{{color id=\"2\"}} signatures{{color id=\"65535\"}} from {{color id=\"2\"}}other towns{{color id=\"65535\"}}.{{pageBreak}}{{anim id=\"37\"}}Oh, and all from {{color id=\"2\"}}ducks{{color id=\"65535\"}}. {{delay frames=\"10\"}}{{anim id=\"27\"}}I mean,\nwho else will flock together in\nsupport of my cause?\nHere's the sheet, {{fun_00080005 arg=\"\"}}."
  },
  {
    "label": "026",
    "text": "{{anim id=\"1\"}}Woohoo! Now you'll need to\nscamper after {{color id=\"2\"}}{{fun_00060004 arg=\"0x0000\"}}{{color id=\"65535\"}}{{color id=\"2\"}} signatures{{color id=\"65535\"}} from\n{{color id=\"2\"}}other towns{{color id=\"65535\"}}.{{pageBreak}}{{anim id=\"22\"}}Eeeek! I almost forgot! {{delay frames=\"10\"}}They all\nneed to come from {{color id=\"2\"}}mice{{color id=\"65535\"}}.{{delay frames=\"20\"}}\n{{anim id=\"21\"}}Makes sense though, right?\nOK, here's the sheet."
  },
  {
    "label": "027",
    "text": "{{anim id=\"3\"}}Yay! Now you'll need to collect\n{{color id=\"2\"}}{{fun_00060004 arg=\"0x0000\"}}{{color id=\"65535\"}}{{color id=\"2\"}} signatures{{color id=\"65535\"}} from {{color id=\"2\"}}other towns{{color id=\"65535\"}}.{{pageBreak}}{{anim id=\"13\"}}Oh, wait! {{delay frames=\"10\"}}They should all come\nfrom {{color id=\"2\"}}frogs{{color id=\"65535\"}} too. Yeah, no one else\nwill care about a cause like this!\n{{anim id=\"37\"}}Here's the signature sheet you need."
  },
  {
    "label": "028",
    "text": "{{anim id=\"5\"}}Oh, awesome! Gather {{color id=\"2\"}}{{fun_00060004 arg=\"0x0000\"}}{{color id=\"65535\"}}{{color id=\"2\"}} signatures{{color id=\"65535\"}} \nfrom {{color id=\"2\"}}other towns{{color id=\"65535\"}}.{{pageBreak}}{{anim id=\"9\"}}Hmm.{{delay frames=\"5\"}}.{{delay frames=\"5\"}}.{{delay frames=\"5\"}} Now that I think about it,\nthey all should be from {{color id=\"2\"}}horses{{color id=\"65535\"}}.{{delay frames=\"20\"}}\n{{anim id=\"40\"}}No one else would get behind this.\n{{anim id=\"37\"}}Here's your sheet, {{fun_00080005 arg=\"\"}}."
  },
  {
    "label": "029",
    "text": "{{anim id=\"0\"}}Thank you SO much. It's such a.{{delay frames=\"5\"}}.{{delay frames=\"5\"}}.{{delay frames=\"5\"}}{{anim id=\"25\"}}\nhuge issue. Now, be sure to get\n{{color id=\"2\"}}{{fun_00060004 arg=\"0x0000\"}}{{color id=\"65535\"}}{{color id=\"2\"}} signatures{{color id=\"65535\"}} from {{color id=\"2\"}}other towns{{color id=\"65535\"}}.{{pageBreak}}{{anim id=\"37\"}}Oh, one more thing. {{delay frames=\"10\"}}They all need\nto be from {{color id=\"2\"}}bears{{color id=\"65535\"}}. {{delay frames=\"10\"}}No one else\nwill really.{{delay frames=\"5\"}}.{{delay frames=\"5\"}}.{{delay frames=\"5\"}}{{anim id=\"25\"}}get it.\n{{anim id=\"37\"}}Here's your signature sheet.{{delay frames=\"10\"}}\nGood luck, {{fun_00080005 arg=\"\"}}."
  },
  {
    "label": "030",
    "text": "{{anim id=\"1\"}}Wow, you're super-duper behind\nthis, huh?{{delay frames=\"20\"}} You'll need {{color id=\"2\"}}{{fun_00060004 arg=\"0x0000\"}}{{color id=\"65535\"}}{{color id=\"2\"}} signatures{{color id=\"65535\"}}\nfrom {{color id=\"2\"}}other towns{{color id=\"65535\"}}.{{pageBreak}}{{anim id=\"37\"}}Oh, one last thing! {{delay frames=\"10\"}}The signatures\nshould ALL be from {{color id=\"2\"}}penguins{{color id=\"65535\"}}.\n{{delay frames=\"10\"}}Who else, {{delay frames=\"10\"}}{{anim id=\"42\"}}right?\nHere's the sheet, {{fun_00080005 arg=\"\"}}."
  }
]