﻿[
  {
    "label": "001",
    "text": "{{anim id=\"1\"}}Hey, I'd like you to come over to\nmy place sometime soon,\n{{fun_00080005 arg=\"\"}}.\n{{anim id=\"5\"}}I even cleaned my room for you!\nHow about it?{{fun_0005000F arg=\"0x15002800\"}}\nWell, sure!\nI can't."
  },
  {
    "label": "002",
    "text": "{{anim id=\"1\"}}Hey! I know you've totally been\ndying to get an invitation to\nmy place, {{fun_00080005 arg=\"\"}}.\n{{anim id=\"44\"}}And now consider yourself.{{delay frames=\"5\"}}.{{delay frames=\"5\"}}.{{delay frames=\"5\"}}invited!\n{{delay frames=\"30\"}}{{anim id=\"1\"}}Are you coming over sometime\nor what, {{fun_00070005 arg=\"\"}}?{{fun_0005000F arg=\"0x15002800\"}}\nWow, sure!\nUh-uh, no."
  },
  {
    "label": "003",
    "text": "{{anim id=\"1\"}}Hey, want to see what I've done\nwith my house lately? I think\nit looks pretty cool.\nI bet you will too! Want to come\nover sometime, {{fun_00070005 arg=\"\"}}?{{fun_0005000F arg=\"0x15002800\"}}\nOK.\nCan't do it."
  },
  {
    "label": "004",
    "text": "{{anim id=\"11\"}}Hmm.{{delay frames=\"5\"}}.{{delay frames=\"5\"}}.{{delay frames=\"5\"}} I'm feeling a little lonely.\nI want someone to come over\nto my place and hang out!\n{{anim id=\"3\"}}Hey, how about you? {{delay frames=\"20\"}}Yeah, right\nnow, {{fun_00070005 arg=\"\"}}!{{delay frames=\"10\"}}{{anim id=\"37\"}}{{fun_0005000F arg=\"0x15002800\"}}\nNow? OK!\nSorry, but I can't."
  },
  {
    "label": "005",
    "text": "{{anim id=\"22\"}}Oh, hey! {{delay frames=\"10\"}}I have a great idea!{{delay frames=\"10\"}}\nWhy don't you come over to my\nplace right now, {{fun_00070005 arg=\"\"}}?\n{{anim id=\"13\"}}We can talk about all sorts of stuff.{{delay frames=\"10\"}}\nYou know, like how much we love\n{{fun_00100005 arg=\"0x0000\"}}! {{delay frames=\"10\"}}And whatever!\n{{anim id=\"1\"}}How about it? {{delay frames=\"10\"}}Feel like coming\nover right now, {{fun_00080005 arg=\"\"}}?{{fun_0005000F arg=\"0x15002800\"}}\nSounds great!\nUm, no."
  },
  {
    "label": "006",
    "text": "{{anim id=\"27\"}}OK, you can't fool me. {{delay frames=\"10\"}}I know what\nyou're really after. {{delay frames=\"10\"}}You want to\npry into my personal life!\n{{anim id=\"6\"}}And you know what I say to that?{{fun_00010007 arg=\"\"}}\n{{anim id=\"2\"}}Yaaaay! {{delay frames=\"10\"}}Sounds like fun!{{pageBreak}}{{anim id=\"1\"}}Let's do it right now! {{delay frames=\"10\"}}We'll go over\nto my house and look at all\nmy stuff, {{fun_00080005 arg=\"\"}}.{{fun_0005000F arg=\"0x15002800\"}}\nYeah, fun!\nWhat? No way."
  }
]