﻿[
  {
    "label": "001",
    "text": "{{anim id=\"6\"}}If these dinosaurs still had any meat\non 'em, you better believe we'd be\nwrestling right now!"
  },
  {
    "label": "002",
    "text": "Fossils are so cool, aren't they?{{delay frames=\"40\"}}\n{{anim id=\"43\"}}They make one ruminate on the\nbrevity of life. {{delay frames=\"8\"}}{{fun_0003000E arg=\"\"}}{{fun_00070005 arg=\"\"}}."
  },
  {
    "label": "003",
    "text": "They say if you do 1,000 squats in\nfront of a fossil, it will come alive.{{pageBreak}}{{anim id=\"8\"}}{{fun_000B0007 arg=\"\"}}They totally lied!"
  },
  {
    "label": "004",
    "text": "{{anim id=\"5\"}}I'm gonna dig for fossils when I get\nback home!"
  },
  {
    "label": "005",
    "text": "{{anim id=\"43\"}}I want my home to be full of fossils\njust like this place!\n"
  }
]