﻿[
  {
    "label": "001",
    "text": "{{fun_0001000C arg=\"\"}}{{fun_0004000C arg=\"\"}}{{fun_0002000C arg=\"\"}}{{fun_0006000C arg=\"\"}}{{anim id=\"32\"}}Hey!{{delay frames=\"20\"}} Way to make it here, guys.{{fun_0009000C arg=\"\"}}"
  },
  {
    "label": "002",
    "text": "{{fun_0001000C arg=\"\"}}{{fun_0004000C arg=\"\"}}{{fun_0002000C arg=\"\"}}{{fun_0006000C arg=\"\"}}{{anim id=\"2\"}}Ha ha!{{delay frames=\"8\"}} You actually made it back!{{delay frames=\"20\"}}\nThanks for the effort, {{fun_00080005 arg=\"\"}}!{{delay frames=\"20\"}}{{anim id=\"1\"}}{{fun_0009000C arg=\"\"}}"
  },
  {
    "label": "003",
    "text": "{{fun_0001000C arg=\"\"}}{{fun_0004000C arg=\"\"}}{{fun_0002000C arg=\"\"}}{{fun_0006000C arg=\"\"}}{{anim id=\"38\"}}Yo!{{delay frames=\"8\"}} Welcome back!{{fun_0009000C arg=\"\"}}"
  },
  {
    "label": "004",
    "text": "{{fun_0001000C arg=\"\"}}{{fun_0004000C arg=\"\"}}{{fun_0002000C arg=\"\"}}{{fun_0006000C arg=\"\"}}{{anim id=\"27\"}}Hey!{{delay frames=\"20\"}} You two are late!{{pageBreak}}I got tired of waiting, so I was going\nto go get you, {{delay frames=\"8\"}}{{fun_00070005 arg=\"\"}}!{{fun_0009000C arg=\"\"}}"
  },
  {
    "label": "005",
    "text": "{{fun_0000000C arg=\"\"}}{{fun_0007000C arg=\"\"}}{{fun_0002000C arg=\"\"}}{{fun_0005000C arg=\"\"}}{{fun_0001000C arg=\"\"}}{{fun_0008000C arg=\"\"}}{{anim id=\"9\"}}Hey, {{delay frames=\"20\"}}{{fun_00010011 arg=\"0x0000\"}}{{delay frames=\"8\"}}.{{delay frames=\"8\"}}.{{delay frames=\"8\"}}.{{delay frames=\"20\"}}\nAre you mad at me? {{fun_0009000C arg=\"\"}}"
  },
  {
    "label": "006",
    "text": "{{fun_0000000C arg=\"\"}}{{fun_0007000C arg=\"\"}}{{fun_0002000C arg=\"\"}}{{fun_0005000C arg=\"\"}}{{fun_0001000C arg=\"\"}}{{fun_0008000C arg=\"\"}}{{anim id=\"34\"}}Whew! {{delay frames=\"8\"}}.{{delay frames=\"8\"}}.{{delay frames=\"8\"}}.{{delay frames=\"20\"}}I'm so tired from walking.\nI mean{{delay frames=\"8\"}}.{{delay frames=\"8\"}}.{{delay frames=\"8\"}}.{{delay frames=\"20\"}}{{delay frames=\"8\"}}{{fun_00070005 arg=\"\"}}!{{pageBreak}}{{anim id=\"23\"}}Well, what'd you need, {{fun_00010011 arg=\"0x0000\"}}?{{fun_0009000C arg=\"\"}}"
  },
  {
    "label": "007",
    "text": "{{fun_0000000C arg=\"\"}}{{fun_0007000C arg=\"\"}}{{fun_0002000C arg=\"\"}}{{fun_0005000C arg=\"\"}}{{fun_0001000C arg=\"\"}}{{fun_0008000C arg=\"\"}}{{fun_0003000E arg=\"\"}}{{fun_00010011 arg=\"0x0000\"}}!{{delay frames=\"20\"}}{{anim id=\"23\"}} You wanted to see me?{{fun_0009000C arg=\"\"}}"
  },
  {
    "label": "008",
    "text": ""
  },
  {
    "label": "009",
    "text": "{{fun_0000000C arg=\"\"}}{{fun_0005000C arg=\"\"}}{{anim id=\"26\"}}Umm{{delay frames=\"8\"}}.{{delay frames=\"8\"}}.{{delay frames=\"8\"}}.{{delay frames=\"20\"}} I just{{delay frames=\"8\"}}.{{delay frames=\"8\"}}.{{delay frames=\"8\"}}.{{delay frames=\"20\"}} It's about time I gave\nthis back to you.{{delay frames=\"20\"}} I borrowed it a \nlong time ago!{{pageBreak}}{{anim id=\"38\"}}So here!{{delay frames=\"20\"}} Thanks, {{delay frames=\"8\"}}{{fun_00070005 arg=\"\"}}!{{fun_0009000C arg=\"\"}}"
  },
  {
    "label": "010",
    "text": "{{fun_0000000C arg=\"\"}}{{fun_0007000C arg=\"\"}}{{anim id=\"15\"}}Oh!{{delay frames=\"20\"}} My {{fun_00030011 arg=\"0x0000\"}}!{{pageBreak}}I just figured you thought I had\ngiven it to you, {{fun_00010011 arg=\"0x0000\"}}!{{pageBreak}}{{anim id=\"1\"}}A huh huh huh!{{delay frames=\"20\"}}\nThanks, {{delay frames=\"8\"}}{{fun_00070005 arg=\"\"}}!"
  },
  {
    "label": "011",
    "text": "{{fun_0000000C arg=\"\"}}{{fun_0005000C arg=\"\"}}{{anim id=\"33\"}}I don't usually do this, but I found\nsomething I thought you would like.{{delay frames=\"20\"}}\nSo I bought it for you!{{delay frames=\"20\"}}{{anim id=\"1\"}}{{fun_0009000C arg=\"\"}}"
  },
  {
    "label": "012",
    "text": "{{fun_0000000C arg=\"\"}}{{fun_0007000C arg=\"\"}}{{anim id=\"15\"}}Yay!{{delay frames=\"20\"}} {{fun_0003000E arg=\"\"}}{{fun_0002000E arg=\"\"}}{{fun_00030011 arg=\"0x0000\"}}!{{pageBreak}}{{anim id=\"4\"}}This thing is so me!{{delay frames=\"40\"}}\nThanks a bunch, {{fun_00010011 arg=\"0x0000\"}}!"
  },
  {
    "label": "013",
    "text": "{{fun_0000000C arg=\"\"}}{{fun_0005000C arg=\"\"}}I found something when I was out\npower skipping the other day.{{pageBreak}}{{anim id=\"1\"}}It's gotta be yours, right?{{fun_0009000C arg=\"\"}}"
  },
  {
    "label": "014",
    "text": "{{fun_0000000C arg=\"\"}}{{fun_0007000C arg=\"\"}}{{anim id=\"15\"}}What?!{{delay frames=\"20\"}} Dude!{{delay frames=\"20\"}} {{fun_0003000E arg=\"\"}}{{fun_00070005 arg=\"\"}}!{{delay frames=\"8\"}} That's\nmy {{fun_00030011 arg=\"0x0000\"}}! {{pageBreak}}{{anim id=\"1\"}}You're, like, a detective genius for\nfiguring out it's mine.{{delay frames=\"20\"}} Thanks!"
  },
  {
    "label": "015",
    "text": "{{fun_0000000C arg=\"\"}}{{fun_0005000C arg=\"\"}}{{anim id=\"38\"}}Heh heh!{{delay frames=\"20\"}} Actually, I've just been \nnoticing you're looking a little\nwimpier than usual lately.{{pageBreak}}So I had you walk over here to get\nsome much-needed exercise!{{pageBreak}}{{anim id=\"2\"}}Pretty good plan, huh?{{delay frames=\"40\"}}{{anim id=\"1\"}}{{fun_0009000C arg=\"\"}}"
  },
  {
    "label": "016",
    "text": "{{fun_0000000C arg=\"\"}}{{fun_0007000C arg=\"\"}}{{anim id=\"18\"}}{{fun_000B0007 arg=\"\"}}What?!{{delay frames=\"20\"}} You tricked me?{{pageBreak}}{{anim id=\"12\"}}Ohhh, maaaan{{delay frames=\"8\"}}.{{delay frames=\"8\"}}.{{delay frames=\"8\"}}.{{delay frames=\"20\"}} {{delay frames=\"8\"}}{{fun_0003000E arg=\"\"}}{{fun_00070005 arg=\"\"}}!"
  },
  {
    "label": "017",
    "text": "{{fun_0000000C arg=\"\"}}{{fun_0005000C arg=\"\"}}{{anim id=\"13\"}}I need your help!{{delay frames=\"20\"}} I was doing some\nserious reps the other day lifting\nmy video recorder over my head.\nAnd I dropped it!{{delay frames=\"20\"}} And it broke!{{delay frames=\"20\"}} And \nthe {{fun_00110005 arg=\"0x0000\"}} finals are on TV!{{delay frames=\"20\"}}\nTonight!{{delay frames=\"20\"}} Will you record it for me?{{pageBreak}}{{anim id=\"41\"}}Please? {{delay frames=\"8\"}}{{fun_0003000E arg=\"\"}}{{fun_00070005 arg=\"\"}}?{{fun_0009000C arg=\"\"}}"
  },
  {
    "label": "018",
    "text": "{{fun_0000000C arg=\"\"}}{{fun_0007000C arg=\"\"}}{{anim id=\"1\"}}Oh!{{delay frames=\"20\"}} Is that all you need?{{pageBreak}}You had me worried!{{delay frames=\"20\"}}{{anim id=\"33\"}} But I got this!{{delay frames=\"20\"}}\nLeave it to me, {{delay frames=\"8\"}}{{fun_00070005 arg=\"\"}}!{{delay frames=\"20\"}} I'll\nrecord it!{{delay frames=\"20\"}}{{size value=\"75\"}} If I can figure out my machine{{delay frames=\"8\"}}.{{delay frames=\"8\"}}.{{delay frames=\"8\"}}.{{delay frames=\"20\"}}{{size value=\"100\"}}"
  },
  {
    "label": "019",
    "text": ""
  },
  {
    "label": "020",
    "text": "Well, {{fun_00010011 arg=\"0x0000\"}}{{delay frames=\"8\"}}.{{delay frames=\"8\"}}.{{delay frames=\"8\"}}.{{delay frames=\"20\"}}\nGuess we're done here.{{pageBreak}}{{anim id=\"4\"}}Heh, I need to get back to my half-\neaten {{fun_00100005 arg=\"0x0000\"}} at home.{{delay frames=\"8\"}}\n{{fun_0003000E arg=\"\"}}{{fun_00070005 arg=\"\"}}!{{anim id=\"0\"}}{{pageBreak}}{{fun_0002000C arg=\"\"}}{{fun_0003000C arg=\"\"}}And thanks, {{fun_00080005 arg=\"\"}}!{{delay frames=\"20\"}}\nMake sure to get a reward for your\ntrouble, OK?{{delay frames=\"40\"}} {{anim id=\"32\"}}See you guys later!"
  },
  {
    "label": "021",
    "text": "{{anim id=\"1\"}}So we're done here, {{fun_00010011 arg=\"0x0000\"}}?{{delay frames=\"20\"}}\n'Cause I'll get going,{{delay frames=\"8\"}} {{fun_00070005 arg=\"\"}}.{{pageBreak}}{{anim id=\"32\"}}See ya later!"
  },
  {
    "label": "022",
    "text": "{{fun_0002000C arg=\"\"}}{{fun_0003000C arg=\"\"}}Kinda looks like we're done here.{{delay frames=\"20\"}}\nRight, {{fun_00080005 arg=\"\"}}?{{pageBreak}}{{fun_0002000C arg=\"\"}}{{fun_0005000C arg=\"\"}}{{fun_0003000E arg=\"\"}}{{fun_00010011 arg=\"0x0000\"}},{{delay frames=\"20\"}} I really need to get\nhome and grab some grub,{{delay frames=\"20\"}}{{anim id=\"12\"}} 'cause\nI'm starving! {{delay frames=\"8\"}}{{fun_0003000E arg=\"\"}}{{fun_00070005 arg=\"\"}}!"
  },
  {
    "label": "023",
    "text": ""
  }
]