﻿[
  {
    "label": "001",
    "text": "{{anim id=\"44\"}}It's finally the day of the {{color id=\"2\"}}Fishing\nTourney{{color id=\"65535\"}}!{{delay frames=\"30\"}} {{anim id=\"5\"}}Today I'm gonna fish a bit,\nand then fish some more! {{anim id=\"2\"}}GAHAHA!"
  },
  {
    "label": "002",
    "text": "{{delay frames=\"16\"}}I wish the {{color id=\"2\"}}Fishing Tourney {{color id=\"65535\"}}would\nhurry up and start already.{{pageBreak}}{{anim id=\"1\"}}I'm anxious to catch a bunch of fish\nand blow away the competition!"
  },
  {
    "label": "003",
    "text": "{{anim id=\"37\"}}Today's the big {{color id=\"2\"}}Fishing Tourney{{color id=\"65535\"}}!{{delay frames=\"30\"}}\n{{anim id=\"36\"}}I'm just going to warn you though—{{delay frames=\"20\"}}\ndon't get in my way, all right?!"
  },
  {
    "label": "004",
    "text": "{{anim id=\"37\"}}Today is the {{color id=\"2\"}}Fishing Tourney{{color id=\"65535\"}}!{{delay frames=\"30\"}}\n{{anim id=\"36\"}}Well,{{delay frames=\"8\"}} even though we both know I'm\ngonna win,{{delay frames=\"20\"}} you shouldn't give up!"
  },
  {
    "label": "005",
    "text": ""
  },
  {
    "label": "006",
    "text": "{{anim id=\"37\"}}The {{color id=\"2\"}}Fishing Tourney {{color id=\"65535\"}}has just begun!{{pageBreak}}{{anim id=\"6\"}}I'm not going to panic.{{delay frames=\"20\"}} I'm just\ngonna keep hauling in fish!{{pageBreak}}{{anim id=\"35\"}}Look out! I'm goin' for the gold!{{delay frames=\"30\"}}\n{{anim id=\"2\"}}GAHAHA!{{delay frames=\"30\"}}{{anim id=\"1\"}}"
  },
  {
    "label": "007",
    "text": "The {{color id=\"2\"}}Fishing Tourney {{color id=\"65535\"}}has just begun,\nbut {{anim id=\"33\"}}I'm already off to a great start!{{delay frames=\"30\"}}\n{{anim id=\"1\"}}The fish are really biting today!\n{{anim id=\"36\"}}Don't get mad at me if there aren't\nany fish left for you to catch 'cause\nI already took 'em all!{{delay frames=\"20\"}} {{anim id=\"2\"}}GAHAHA!{{delay frames=\"30\"}}{{anim id=\"1\"}}"
  },
  {
    "label": "008",
    "text": "Are you after a trophy{{delay frames=\"8\"}} too?!{{pageBreak}}{{anim id=\"36\"}}I'll let you get the silver one!{{delay frames=\"20\"}}\nThat gold one is mine!{{delay frames=\"20\"}} {{anim id=\"2\"}}GAHAHA!{{delay frames=\"30\"}}{{anim id=\"1\"}}"
  },
  {
    "label": "009",
    "text": "{{anim id=\"23\"}}How goes the fishing?{{delay frames=\"30\"}} {{anim id=\"6\"}}You won't\nwin if all you're catching are small\nfry, you know?\n{{anim id=\"36\"}}Either way, I don't see how you can\nwin against me!{{delay frames=\"20\"}} {{anim id=\"2\"}}GAHAHA!{{delay frames=\"30\"}}{{anim id=\"1\"}}"
  },
  {
    "label": "010",
    "text": "{{anim id=\"11\"}}{{delay frames=\"16\"}}Is it better to patiently stay in the\nsame spot, or should you try a\nbunch of different spots{{delay frames=\"8\"}}.{{delay frames=\"8\"}}.{{delay frames=\"8\"}}.{{delay frames=\"8\"}}?\n{{anim id=\"21\"}}I think everyone has their own way\nof doing things!{{pageBreak}}{{anim id=\"6\"}}I'll just say this:{{delay frames=\"20\"}} if you don't see a\nfish's shadow,{{delay frames=\"8\"}} then there ain't a\nfish to catch! {{anim id=\"2\"}}GAHAHA!"
  },
  {
    "label": "011",
    "text": "{{anim id=\"23\"}}Hmmm?{{delay frames=\"8\"}} You don't look like you're\nfeeling the pressure at all!{{pageBreak}}{{anim id=\"13\"}}Whoa,{{delay frames=\"8\"}} don't tell me you already\ncaught something big?!{{pageBreak}}{{anim id=\"16\"}}Oh!{{delay frames=\"8\"}} That's right!{{delay frames=\"20\"}} I just remembered\nsomething I have to do!{{pageBreak}}{{anim id=\"6\"}}I don't have time to stand around\nshooting the breeze with you!{{delay frames=\"20\"}}\n{{anim id=\"32\"}}See ya!{{delay frames=\"20\"}} {{fun_0003000E arg=\"\"}}{{fun_00070005 arg=\"\"}}!"
  },
  {
    "label": "012",
    "text": "When you cast your line into the\nwater,{{delay frames=\"20\"}} are you paying attention\n{{anim id=\"21\"}}to the way the water's flowing?\nOr{{anim id=\"21\"}} are you watching the way the\nfish's shadow's facing?{{delay frames=\"20\"}}{{pageBreak}}{{anim id=\"36\"}}I suppose it's kind of rude to lecture\nyou on the basics, huh?{{delay frames=\"20\"}} {{anim id=\"2\"}}GAHAHA!{{delay frames=\"30\"}}{{anim id=\"1\"}}"
  },
  {
    "label": "013",
    "text": "{{anim id=\"9\"}}The {{color id=\"2\"}}Fishing Tourney {{color id=\"65535\"}}is gonna end\npretty soon, ya know?{{pageBreak}}{{anim id=\"36\"}}Are you sure you have time\nto waste chatting with me?!"
  },
  {
    "label": "014",
    "text": "{{anim id=\"21\"}}The {{color id=\"2\"}}Fishing Tourney {{color id=\"65535\"}}is comin' to a\nclose real soon!{{delay frames=\"30\"}} {{anim id=\"36\"}}I know I'll be the\nwinner, but don't give up! {{anim id=\"2\"}}GAHAHA!"
  },
  {
    "label": "015",
    "text": "{{anim id=\"6\"}}The {{color id=\"2\"}}Fishing Tourney {{color id=\"65535\"}}is almost over!{{delay frames=\"30\"}}\n{{anim id=\"36\"}}Sure you don't wanna catch one last\nbig fish before it's over?"
  },
  {
    "label": "016",
    "text": ""
  },
  {
    "label": "017",
    "text": "{{anim id=\"37\"}}The {{color id=\"2\"}}Fishing Tourney {{color id=\"65535\"}}is over!{{delay frames=\"15\"}}\nNow we gotta wait for the\nawards ceremony!{{pageBreak}}{{anim id=\"36\"}}Of course, I'll be the one standing\nin the center of the podium, but you\ncan still enjoy it!{{delay frames=\"20\"}} {{anim id=\"2\"}}GAHAHA!{{delay frames=\"30\"}}{{anim id=\"1\"}}"
  },
  {
    "label": "018",
    "text": "{{anim id=\"38\"}}The {{color id=\"2\"}}Fishing Tourney {{color id=\"65535\"}}is all over!{{delay frames=\"20\"}}\n{{anim id=\"37\"}}I'm looking forward to the awards\nceremony and my trophy! {{anim id=\"2\"}}GAHAHA!"
  },
  {
    "label": "019",
    "text": "{{anim id=\"37\"}}The {{color id=\"2\"}}Fishing Tourney {{color id=\"65535\"}}is over!{{delay frames=\"20\"}} {{anim id=\"23\"}}Do you\nthink you did well enough to stand\non the podium with me?{{delay frames=\"30\"}} {{anim id=\"2\"}}GAHAHA!"
  },
  {
    "label": "020",
    "text": ""
  },
  {
    "label": "021",
    "text": ""
  },
  {
    "label": "022",
    "text": "{{anim id=\"36\"}}Guess I lost this time!{{delay frames=\"20\"}} You did\npretty well!{{pageBreak}}{{anim id=\"6\"}}Next time I won't hold back,{{delay frames=\"30\"}}\n{{anim id=\"35\"}}so brace yourself,{{delay frames=\"20\"}} {{fun_00070005 arg=\"\"}}!"
  },
  {
    "label": "023",
    "text": "{{anim id=\"41\"}}I didn't think I'd lose to you!{{delay frames=\"15\"}}\nGuess I let my guard down!{{delay frames=\"30\"}}\n{{anim id=\"6\"}}I'm not gonna lose next time!"
  },
  {
    "label": "024",
    "text": "{{anim id=\"9\"}}Hmmm. This pains me to admit, but\nyou won this round against me!{{delay frames=\"30\"}}\n{{anim id=\"38\"}}Congratulations, {{fun_00080005 arg=\"\"}}!"
  },
  {
    "label": "025",
    "text": "{{anim id=\"36\"}}Sorry, {{fun_00080005 arg=\"\"}}!{{delay frames=\"20\"}} Guess I musta\naccidentally released my true\nfishing powers!{{delay frames=\"20\"}} {{anim id=\"2\"}}GAHAHA!{{delay frames=\"30\"}}{{anim id=\"1\"}}"
  },
  {
    "label": "026",
    "text": "{{anim id=\"35\"}}Heh heh. I really showed you what's\nwhat,{{delay frames=\"8\"}} {{fun_00080005 arg=\"\"}}!{{delay frames=\"20\"}} {{anim id=\"36\"}}I guess I don't\nknow my own strength.{{delay frames=\"30\"}} {{anim id=\"2\"}}GAHAHA!{{delay frames=\"30\"}}{{anim id=\"1\"}}"
  },
  {
    "label": "027",
    "text": "{{anim id=\"35\"}}Heh heh! {{delay frames=\"8\"}}I won!{{pageBreak}}{{anim id=\"37\"}}It's only natural, 'cause in my case,{{delay frames=\"15\"}}\neven if I don't do anything, the fish\njust jump into my arms!\n{{anim id=\"36\"}}Don't hate me for it!{{delay frames=\"20\"}} {{anim id=\"2\"}}GAHAHA!{{delay frames=\"30\"}}{{anim id=\"1\"}}"
  },
  {
    "label": "028",
    "text": "So{{delay frames=\"15\"}}{{anim id=\"23\"}} you didn't get an award?{{delay frames=\"30\"}}\n{{anim id=\"36\"}}Were you running around so much\nthat you scared the fish away?"
  },
  {
    "label": "029",
    "text": "{{anim id=\"9\"}}{{fun_0003000E arg=\"\"}}{{fun_00080005 arg=\"\"}},{{delay frames=\"20\"}} I heard you didn't win\nanything this tourney.{{pageBreak}}{{anim id=\"38\"}}Just means you gotta try harder\nnext time, so do that! {{anim id=\"2\"}}GAHAHA!"
  },
  {
    "label": "030",
    "text": "{{anim id=\"38\"}}Don't get too down on yourself,\n{{fun_00080005 arg=\"\"}}!{{delay frames=\"30\"}} {{anim id=\"37\"}}You can aim for a\nprize the next time around!"
  },
  {
    "label": "031",
    "text": "{{anim id=\"1\"}}The {{color id=\"2\"}}Fishing Tourney {{color id=\"65535\"}}awards\nceremony is already totally\nover,{{delay frames=\"8\"}} {{fun_00080005 arg=\"\"}}!\nNext time make sure you\nparticipate{{anim id=\"33\"}} so you can see me\ngetting my trophy,{{delay frames=\"20\"}} {{anim id=\"2\"}}GAHAHA!{{delay frames=\"30\"}}{{anim id=\"1\"}}"
  },
  {
    "label": "032",
    "text": "{{anim id=\"9\"}}You didn't make it in time!{{delay frames=\"30\"}}\n{{anim id=\"36\"}}The {{color id=\"2\"}}Fishing Tourney {{color id=\"65535\"}}awards\nceremony is already over!"
  },
  {
    "label": "033",
    "text": "{{anim id=\"21\"}}It was a peaceful yet fierce\n{{color id=\"2\"}}Fishing Tourney{{color id=\"65535\"}}!{{pageBreak}}{{anim id=\"36\"}}It's a tough balance. If you carry on\ntoo much,{{delay frames=\"15\"}} the fish'll all swim away!{{delay frames=\"20\"}}\n{{anim id=\"2\"}}GAHAHA!{{delay frames=\"30\"}}{{anim id=\"1\"}}"
  },
  {
    "label": "034",
    "text": "{{anim id=\"1\"}}The {{color id=\"2\"}}Fishing Tourney {{color id=\"65535\"}}gets me so\nfired up!{{delay frames=\"20\"}} I'm gonna do my best\nnext time too!"
  },
  {
    "label": "035",
    "text": ""
  },
  {
    "label": "036",
    "text": ""
  },
  {
    "label": "037",
    "text": ""
  },
  {
    "label": "038",
    "text": ""
  },
  {
    "label": "039",
    "text": ""
  },
  {
    "label": "040",
    "text": "{{anim id=\"6\"}}I can't believe there isn't an award\nceremony for the Fishing Tourney\nthis time around! Lame!"
  },
  {
    "label": "041",
    "text": "{{anim id=\"6\"}}I heard the ceremony was canceled!{{delay frames=\"30\"}}\n{{anim id=\"9\"}}I wonder if there weren't enough\npeople this time around."
  },
  {
    "label": "042",
    "text": ""
  },
  {
    "label": "043",
    "text": "Hmph.{{delay frames=\"15\"}} I think I'm gonna catch\nsomethin' really huge!"
  },
  {
    "label": "044",
    "text": "Come on,{{delay frames=\"15\"}} let it be a big one{{delay frames=\"8\"}}.{{delay frames=\"8\"}}.{{delay frames=\"8\"}}."
  }
]