﻿[
  {
    "label": "001",
    "text": "{{anim id=\"15\"}}Oh, {{delay frames=\"15\"}}are you leaving already?!{{pageBreak}}{{anim id=\"1\"}}So {{delay frames=\"8\"}}what do you think of my room?{{delay frames=\"30\"}}\nDo you enjoy it? How cool is it?{{fun_0001000F arg=\"0x150000002800\"}}\nIt's awesome!\nIt's fine.\nIt's not so great."
  },
  {
    "label": "002",
    "text": "{{anim id=\"15\"}}Oh, {{delay frames=\"15\"}}are you heading for home then?{{pageBreak}}{{anim id=\"1\"}}So {{delay frames=\"8\"}}what do you think of my room?{{delay frames=\"20\"}}\nDoesn't it look great?!{{fun_0001000F arg=\"0x150000002800\"}}\nIt's awesome!\nIt's fine.\nIt's not so great."
  },
  {
    "label": "003",
    "text": "{{anim id=\"15\"}}Hey, {{delay frames=\"8\"}}are you going home already?!{{pageBreak}}{{anim id=\"0\"}}Before you do go,{{delay frames=\"8\"}} can you tell me\nwhat you think of my place? {{anim id=\"1\"}}Tell me\nthat it's great!{{fun_0001000F arg=\"0x150000002800\"}}\nIt's awesome!\nIt's fine.\nIt's not so great."
  },
  {
    "label": "004",
    "text": "{{anim id=\"2\"}}GAHAHA! {{delay frames=\"8\"}}You really think so?!{{delay frames=\"20\"}}\n{{anim id=\"1\"}}You can praise me all you want,{{delay frames=\"8\"}}\nbut there's nothing I can give you!\n{{anim id=\"37\"}}Well, {{delay frames=\"8\"}}I'm glad you understand my\ngood taste! {{delay frames=\"20\"}}{{anim id=\"2\"}}GAHAHA!{{delay frames=\"30\"}}{{anim id=\"1\"}}"
  },
  {
    "label": "005",
    "text": "{{anim id=\"0\"}}Whoa, {{delay frames=\"15\"}}I guess you're not the type to\nsay things just to be nice, huh?{{delay frames=\"20\"}}\n{{anim id=\"1\"}}Well, good enough! {{delay frames=\"20\"}}{{anim id=\"2\"}}GAHAHA!{{delay frames=\"30\"}}{{anim id=\"1\"}}"
  },
  {
    "label": "006",
    "text": "{{anim id=\"18\"}}What did you say?{{delay frames=\"8\"}}{{anim id=\"6\"}} How dare you{{delay frames=\"8\"}}.{{delay frames=\"8\"}}.{{delay frames=\"8\"}}.{{delay frames=\"20\"}}\n{{color id=\"5\"}}{{anim id=\"15\"}}Wait. {{delay frames=\"15\"}}{{anim id=\"11\"}}Calm down{{delay frames=\"8\"}} and just relax!{{color id=\"65535\"}}{{pageBreak}}{{anim id=\"1\"}}You're pretty outspoken, huh?!{{delay frames=\"20\"}}\nWell, {{delay frames=\"8\"}}everyone has their own ideas, {{delay frames=\"20\"}}\nam I right?! {{anim id=\"2\"}}GAHAHA!{{delay frames=\"30\"}}{{anim id=\"1\"}}"
  },
  {
    "label": "007",
    "text": "{{anim id=\"1\"}}Heh. {{delay frames=\"15\"}}{{anim id=\"26\"}}You don't have to be so nice,\nyou know! {{fun_0003000E arg=\"\"}}{{fun_00070005 arg=\"\"}}!"
  },
  {
    "label": "008",
    "text": "{{anim id=\"11\"}}I see{{delay frames=\"8\"}}.{{delay frames=\"8\"}}.{{delay frames=\"8\"}}.{{delay frames=\"15\"}} {{anim id=\"0\"}}That's one pretty sobering\nopinion there."
  },
  {
    "label": "009",
    "text": "{{anim id=\"6\"}}Hmm{{delay frames=\"8\"}}.{{delay frames=\"8\"}}.{{delay frames=\"8\"}}.{{delay frames=\"15\"}} Well, that's pretty harsh!{{delay frames=\"8\"}}{{pageBreak}}{{anim id=\"7\"}}How would you like it if I went to\nyour house and said it was bad?!{{delay frames=\"8\"}}\n{{anim id=\"8\"}}Yeah, I bet you wouldn't like that!"
  },
  {
    "label": "010",
    "text": "{{anim id=\"27\"}}Hey now, {{delay frames=\"15\"}}you're being way too nice,\ndon't you think?{{delay frames=\"20\"}} {{anim id=\"6\"}}Well, stop being so\nconsiderate of others!\nAw, man,{{delay frames=\"8\"}} you're just{{delay frames=\"8\"}}.{{delay frames=\"8\"}}.{{delay frames=\"8\"}}.{{delay frames=\"20\"}}{{anim id=\"1\"}}such a nice\nperson! {{fun_0003000E arg=\"\"}}{{fun_00070005 arg=\"\"}}!"
  },
  {
    "label": "011",
    "text": "{{anim id=\"1\"}}Heh! {{delay frames=\"8\"}}Thanks!{{fun_00010007 arg=\"\"}} {{anim id=\"9\"}}I know my place isn't\nalways the best. {{anim id=\"0\"}}Just you wait and\nsee what I've got in store for it!\n{{anim id=\"1\"}}I'll show you how amazing my room\ncan really be when I put in a little\neffort!{{delay frames=\"20\"}} {{anim id=\"2\"}}GAHAHA!{{delay frames=\"30\"}}{{anim id=\"1\"}}"
  },
  {
    "label": "012",
    "text": "{{anim id=\"2\"}}GAHAHA!{{delay frames=\"20\"}} {{anim id=\"1\"}}No mercy there, huh?{{pageBreak}}{{anim id=\"28\"}}Well, I like that you're so honest.{{delay frames=\"15\"}}{{pageBreak}}{{anim id=\"1\"}}I may just surprise you someday.{{delay frames=\"15\"}}\nSo give it a loooong look,{{delay frames=\"8\"}} {{anim id=\"37\"}}because\nit'll all change soon, {{delay frames=\"20\"}}{{fun_00070005 arg=\"\"}}!"
  }
]