﻿[
  {
    "label": "001",
    "text": "{{anim id=\"16\"}}Ah!{{delay frames=\"20\"}} {{anim id=\"1\"}}Now, that's the {{fun_00080005 arg=\"\"}} we\nall know and love!{{delay frames=\"8\"}} {{anim id=\"21\"}}I knew you'd say\nit'd be all right!\n{{anim id=\"23\"}}So when should we do it?{{fun_00010007 arg=\"\"}} {{anim id=\"37\"}}When's\nthe best time to visit you after,\nlet's say, {{color id=\"2\"}}{{fun_00100004 arg=\"0x00CD\"}}{{color id=\"65535\"}} {{color id=\"2\"}}{{fun_00180005 arg=\"0x00CD\"}}{{color id=\"65535\"}}?"
  },
  {
    "label": "002",
    "text": "{{anim id=\"38\"}}Great!{{fun_00010007 arg=\"\"}} {{anim id=\"37\"}}Now we've just gotta figure\nout the minor details!{{pageBreak}}{{anim id=\"0\"}}You probably wanna get ready, so{{delay frames=\"8\"}}.{{delay frames=\"8\"}}.{{delay frames=\"8\"}}.{{fun_00010007 arg=\"\"}}\n{{anim id=\"37\"}}Let me know when it's convenient\nfor you after {{color id=\"2\"}}{{fun_00100004 arg=\"0x00CD\"}}:30{{color id=\"65535\"}} {{color id=\"2\"}}{{fun_00180005 arg=\"0x00CD\"}}{{color id=\"65535\"}}!"
  },
  {
    "label": "003",
    "text": "{{delay frames=\"8\"}}.{{delay frames=\"8\"}}.{{delay frames=\"8\"}}.{{delay frames=\"8\"}}{{anim id=\"16\"}}Oh!{{delay frames=\"30\"}} {{anim id=\"36\"}}I didn't realize it was already\ngetting so late! {{anim id=\"9\"}}I've gotta sleep now,{{delay frames=\"20\"}}\nso let's do this some other time!"
  },
  {
    "label": "004",
    "text": "{{anim id=\"15\"}}Oh,{{delay frames=\"8\"}} you changed your mind then?{{delay frames=\"30\"}}\n{{anim id=\"9\"}}That's too bad, but, hm, oh well{{delay frames=\"8\"}}.{{delay frames=\"8\"}}.{{delay frames=\"8\"}}.{{fun_00010007 arg=\"\"}}\n{{anim id=\"37\"}}OK,{{delay frames=\"8\"}} I'll see you later, {{delay frames=\"20\"}}{{fun_00070005 arg=\"\"}}."
  },
  {
    "label": "005",
    "text": "{{anim id=\"15\"}}Huh?!{{delay frames=\"30\"}} {{anim id=\"36\"}}That's a little too soon, don't\nyou think?!{{fun_00010007 arg=\"\"}} {{anim id=\"9\"}}Sorry, {{delay frames=\"20\"}}but let's meet up\na bit later!"
  },
  {
    "label": "006",
    "text": "{{anim id=\"21\"}}Right on!{{delay frames=\"20\"}} So then we'll meet up at\n{{color id=\"2\"}}{{fun_00100004 arg=\"0x01CD\"}} {{color id=\"2\"}}{{color id=\"2\"}}{{fun_00180005 arg=\"0x01CD\"}}{{color id=\"2\"}}{{color id=\"2\"}}{{color id=\"65535\"}}, right?{{pageBreak}}{{anim id=\"38\"}}I can't wait!{{delay frames=\"20\"}} {{fun_0003000E arg=\"\"}}{{fun_00070005 arg=\"\"}}!"
  },
  {
    "label": "007",
    "text": "{{anim id=\"21\"}}Excellent!{{delay frames=\"20\"}} That's perfect for me!{{delay frames=\"20\"}}{{pageBreak}}See you at {{color id=\"2\"}}{{anim id=\"37\"}}{{fun_00100004 arg=\"0x01CD\"}}:{{color id=\"2\"}}{{color id=\"2\"}}{{fun_00110004 arg=\"0x02CD\"}} {{color id=\"2\"}}{{fun_00180005 arg=\"0x01CD\"}}{{color id=\"2\"}}{{color id=\"65535\"}}!{{delay frames=\"30\"}}\n{{anim id=\"35\"}}Remember to clean!{{delay frames=\"20\"}} {{fun_0003000E arg=\"\"}}{{fun_00070005 arg=\"\"}}!"
  },
  {
    "label": "008",
    "text": "{{anim id=\"9\"}}Hey now{{delay frames=\"8\"}}.{{delay frames=\"8\"}}.{{delay frames=\"8\"}}.{{delay frames=\"40\"}} There's no way THAT\ntime would ever fly with me{{delay frames=\"8\"}}.{{delay frames=\"8\"}}.{{delay frames=\"8\"}}.{{pageBreak}}{{anim id=\"6\"}}Pick a time that's a bit earlier\nin the day,{{delay frames=\"8\"}} {{fun_00070005 arg=\"\"}}!"
  }
]