﻿[
  {
    "label": "001",
    "text": "{{anim id=\"1\"}}So remember, I'll be at\nyour place at {{color id=\"2\"}}{{fun_00100004 arg=\"0x01CD\"}} {{color id=\"2\"}}{{fun_00180005 arg=\"0x01CD\"}}{{color id=\"2\"}}{{color id=\"65535\"}}!{{delay frames=\"20\"}}\n{{anim id=\"36\"}}Don't go anywhere, OK?"
  },
  {
    "label": "002",
    "text": "{{anim id=\"1\"}}Remember,{{delay frames=\"8\"}} I'll be at your place\nat {{color id=\"2\"}}{{fun_00100004 arg=\"0x01CD\"}}:{{fun_00110004 arg=\"0x02CD\"}} {{color id=\"2\"}}{{fun_00180005 arg=\"0x01CD\"}}{{color id=\"2\"}}{{color id=\"65535\"}}, all right?{{delay frames=\"30\"}}\n{{anim id=\"21\"}}I'm looking forward to it!"
  }
]