﻿[
  {
    "label": "001",
    "text": "{{size value=\"75\"}}{{fun_0007000D arg=\"\"}}Thar {{fun_0007000D arg=\"\"}}be {{fun_0007000D arg=\"\"}}some {{fun_0007000D arg=\"\"}}things {{fun_0007000D arg=\"\"}}that {{fun_0007000D arg=\"\"}}ev{{fun_0007000D arg=\"\"}}'ry {{fun_0007000D arg=\"\"}}dad {{fun_0007000D arg=\"\"}}should\n{{fun_0007000D arg=\"\"}}just {{fun_0007000D arg=\"\"}}know, {{fun_0007000D arg=\"\"}}things {{fun_0007000D arg=\"\"}}that {{fun_0007000D arg=\"\"}}make {{fun_0007000D arg=\"\"}}yer {{fun_0007000D arg=\"\"}}girl {{fun_0007000D arg=\"\"}}yer {{fun_0007000D arg=\"\"}}pal, {{fun_0007000D arg=\"\"}}yer \n{{fun_0007000D arg=\"\"}}boy {{fun_0007000D arg=\"\"}}yer {{fun_0007000D arg=\"\"}}bro.{{pageBreak}}{{fun_0007000D arg=\"\"}}I'm {{fun_0007000D arg=\"\"}}talk{{fun_0007000D arg=\"\"}}in' {{fun_0007000D arg=\"\"}}'bout {{fun_0007000D arg=\"\"}}stuff {{fun_0007000D arg=\"\"}}like {{fun_0007000D arg=\"\"}}the {{fun_0007000D arg=\"\"}}pull-{{fun_0007000D arg=\"\"}}me-{{fun_0007000D arg=\"\"}}fin{{fun_0007000D arg=\"\"}}ger \n{{fun_0007000D arg=\"\"}}trick, {{fun_0007000D arg=\"\"}}stuff {{fun_0007000D arg=\"\"}}that {{fun_0007000D arg=\"\"}}helps {{fun_0007000D arg=\"\"}}'em {{fun_0007000D arg=\"\"}}not {{fun_0007000D arg=\"\"}}grow {{fun_0007000D arg=\"\"}}up {{fun_0007000D arg=\"\"}}too\n{{fun_0007000D arg=\"\"}}quick.{{size value=\"100\"}}"
  },
  {
    "label": "002",
    "text": "{{size value=\"75\"}}{{fun_0007000D arg=\"\"}}Now {{fun_0007000D arg=\"\"}}that {{fun_0007000D arg=\"\"}}I'm {{fun_0007000D arg=\"\"}}a {{fun_0007000D arg=\"\"}}dad, {{fun_0007000D arg=\"\"}}I {{fun_0007000D arg=\"\"}}thinks {{fun_0007000D arg=\"\"}}a{{fun_0007000D arg=\"\"}}bout {{fun_0007000D arg=\"\"}}dad {{fun_0007000D arg=\"\"}}things. \n{{fun_0007000D arg=\"\"}}I {{fun_0007000D arg=\"\"}}won{{fun_0007000D arg=\"\"}}der {{fun_0007000D arg=\"\"}}if {{fun_0007000D arg=\"\"}}me {{fun_0007000D arg=\"\"}}girl {{fun_0007000D arg=\"\"}}likes {{fun_0007000D arg=\"\"}}when {{fun_0007000D arg=\"\"}}I {{fun_0007000D arg=\"\"}}sings.{{pageBreak}}{{fun_0007000D arg=\"\"}}She {{fun_0007000D arg=\"\"}}al{{fun_0007000D arg=\"\"}}ways {{fun_0007000D arg=\"\"}}chuckles, {{fun_0007000D arg=\"\"}}and {{fun_0007000D arg=\"\"}}then {{fun_0007000D arg=\"\"}}she {{fun_0007000D arg=\"\"}}rolls {{fun_0007000D arg=\"\"}}her {{fun_0007000D arg=\"\"}}eyes.\n{{fun_0007000D arg=\"\"}}I {{fun_0007000D arg=\"\"}}guess {{fun_0007000D arg=\"\"}}that's {{fun_0007000D arg=\"\"}}good. {{fun_0007000D arg=\"\"}}Don't {{fun_0007000D arg=\"\"}}want {{fun_0007000D arg=\"\"}}her {{fun_0007000D arg=\"\"}}to {{fun_0007000D arg=\"\"}}date \n{{fun_0007000D arg=\"\"}}sing{{fun_0007000D arg=\"\"}}er {{fun_0007000D arg=\"\"}}guys.{{size value=\"100\"}}"
  },
  {
    "label": "003",
    "text": "{{size value=\"75\"}}{{fun_0007000D arg=\"\"}}When {{fun_0007000D arg=\"\"}}business {{fun_0007000D arg=\"\"}}be {{fun_0007000D arg=\"\"}}slow, {{fun_0007000D arg=\"\"}}I {{fun_0007000D arg=\"\"}}toss {{fun_0007000D arg=\"\"}}soap {{fun_0007000D arg=\"\"}}in {{fun_0007000D arg=\"\"}}the {{fun_0007000D arg=\"\"}}wa{{fun_0007000D arg=\"\"}}ter,\n{{fun_0007000D arg=\"\"}}takes {{fun_0007000D arg=\"\"}}an {{fun_0007000D arg=\"\"}}ice-{{fun_0007000D arg=\"\"}}cold {{fun_0007000D arg=\"\"}}bath {{fun_0007000D arg=\"\"}}right {{fun_0007000D arg=\"\"}}there {{fun_0007000D arg=\"\"}}(wish {{fun_0007000D arg=\"\"}}it {{fun_0007000D arg=\"\"}}were\n{{fun_0007000D arg=\"\"}}hot{{fun_0007000D arg=\"\"}}ter!){{pageBreak}}{{fun_0007000D arg=\"\"}}Suds{{fun_0007000D arg=\"\"}}y! {{fun_0007000D arg=\"\"}}Scrubs{{fun_0007000D arg=\"\"}}y! {{fun_0007000D arg=\"\"}}Loo{{fun_0007000D arg=\"\"}}fah! {{fun_0007000D arg=\"\"}}Then {{fun_0007000D arg=\"\"}}sham{{fun_0007000D arg=\"\"}}poo {{fun_0007000D arg=\"\"}}squirts! \n{{fun_0007000D arg=\"\"}}Me {{fun_0007000D arg=\"\"}}wife's {{fun_0007000D arg=\"\"}}plan {{fun_0007000D arg=\"\"}}to {{fun_0007000D arg=\"\"}}clean {{fun_0007000D arg=\"\"}}'er {{fun_0007000D arg=\"\"}}man—{{fun_0007000D arg=\"\"}}even {{fun_0007000D arg=\"\"}}if {{fun_0007000D arg=\"\"}}it {{fun_0007000D arg=\"\"}}hurts!{{size value=\"100\"}}"
  },
  {
    "label": "004",
    "text": "{{size value=\"75\"}}{{fun_0007000D arg=\"\"}}It {{fun_0007000D arg=\"\"}}goes {{fun_0007000D arg=\"\"}}\"Red {{fun_0007000D arg=\"\"}}sky {{fun_0007000D arg=\"\"}}at {{fun_0007000D arg=\"\"}}night, {{fun_0007000D arg=\"\"}}sail{{fun_0007000D arg=\"\"}}ors {{fun_0007000D arg=\"\"}}take {{fun_0007000D arg=\"\"}}de{{fun_0007000D arg=\"\"}}light.\"\n{{fun_0007000D arg=\"\"}}'Tis {{fun_0007000D arg=\"\"}}a {{fun_0007000D arg=\"\"}}verse {{fun_0007000D arg=\"\"}}most {{fun_0007000D arg=\"\"}}old {{fun_0007000D arg=\"\"}}salts {{fun_0007000D arg=\"\"}}hold {{fun_0007000D arg=\"\"}}ta {{fun_0007000D arg=\"\"}}be {{fun_0007000D arg=\"\"}}true.{{pageBreak}}{{fun_0007000D arg=\"\"}}But {{fun_0007000D arg=\"\"}}me, {{fun_0007000D arg=\"\"}}I {{fun_0007000D arg=\"\"}}be {{fun_0007000D arg=\"\"}}diff'{{fun_0007000D arg=\"\"}}rent. {{fun_0007000D arg=\"\"}}I {{fun_0007000D arg=\"\"}}gots {{fun_0007000D arg=\"\"}}me {{fun_0007000D arg=\"\"}}own {{fun_0007000D arg=\"\"}}truth. \n{{fun_0007000D arg=\"\"}}When {{fun_0007000D arg=\"\"}}it {{fun_0007000D arg=\"\"}}comes {{fun_0007000D arg=\"\"}}ta {{fun_0007000D arg=\"\"}}sky {{fun_0007000D arg=\"\"}}hue, {{fun_0007000D arg=\"\"}}I {{fun_0007000D arg=\"\"}}pre{{fun_0007000D arg=\"\"}}fers {{fun_0007000D arg=\"\"}}it {{fun_0007000D arg=\"\"}}blue!{{size value=\"100\"}}"
  },
  {
    "label": "005",
    "text": "{{size value=\"75\"}}{{fun_0007000D arg=\"\"}}A {{fun_0007000D arg=\"\"}}cap{{fun_0007000D arg=\"\"}}tain's {{fun_0007000D arg=\"\"}}on{{fun_0007000D arg=\"\"}}ly {{fun_0007000D arg=\"\"}}as {{fun_0007000D arg=\"\"}}good {{fun_0007000D arg=\"\"}}as {{fun_0007000D arg=\"\"}}his {{fun_0007000D arg=\"\"}}crew. {{fun_0007000D arg=\"\"}}With {{fun_0007000D arg=\"\"}}a \n{{fun_0007000D arg=\"\"}}crew {{fun_0007000D arg=\"\"}}like {{fun_0007000D arg=\"\"}}mine {{fun_0007000D arg=\"\"}}there's {{fun_0007000D arg=\"\"}}so {{fun_0007000D arg=\"\"}}much {{fun_0007000D arg=\"\"}}we {{fun_0007000D arg=\"\"}}can {{fun_0007000D arg=\"\"}}do!{{pageBreak}}{{fun_0007000D arg=\"\"}}Me {{fun_0007000D arg=\"\"}}mum {{fun_0007000D arg=\"\"}}runs {{fun_0007000D arg=\"\"}}the {{fun_0007000D arg=\"\"}}gal{{fun_0007000D arg=\"\"}}ley. {{fun_0007000D arg=\"\"}}Me {{fun_0007000D arg=\"\"}}wife {{fun_0007000D arg=\"\"}}be {{fun_0007000D arg=\"\"}}me {{fun_0007000D arg=\"\"}}first \n{{fun_0007000D arg=\"\"}}mate. {{fun_0007000D arg=\"\"}}Me {{fun_0007000D arg=\"\"}}girl {{fun_0007000D arg=\"\"}}be {{fun_0007000D arg=\"\"}}the {{fun_0007000D arg=\"\"}}ad{{fun_0007000D arg=\"\"}}mir{{fun_0007000D arg=\"\"}}al, {{fun_0007000D arg=\"\"}}makes {{fun_0007000D arg=\"\"}}me {{fun_0007000D arg=\"\"}}ship \n{{fun_0007000D arg=\"\"}}great!{{size value=\"100\"}}"
  },
  {
    "label": "006",
    "text": "{{size value=\"75\"}}{{fun_0007000D arg=\"\"}}Once {{fun_0007000D arg=\"\"}}got {{fun_0007000D arg=\"\"}}lost {{fun_0007000D arg=\"\"}}out {{fun_0007000D arg=\"\"}}at {{fun_0007000D arg=\"\"}}sea, {{fun_0007000D arg=\"\"}}could {{fun_0007000D arg=\"\"}}not {{fun_0007000D arg=\"\"}}find {{fun_0007000D arg=\"\"}}me {{fun_0007000D arg=\"\"}}way \n{{fun_0007000D arg=\"\"}}in. {{fun_0007000D arg=\"\"}}Kapp'n,{{fun_0007000D arg=\"\"}} he {{fun_0007000D arg=\"\"}}were {{fun_0007000D arg=\"\"}}scared! {{fun_0007000D arg=\"\"}}Kapp'n, {{fun_0007000D arg=\"\"}}un{{fun_0007000D arg=\"\"}}pre{{fun_0007000D arg=\"\"}}pared!\n{{fun_0007000D arg=\"\"}}Fu{{fun_0007000D arg=\"\"}}ture {{fun_0007000D arg=\"\"}}looked {{fun_0007000D arg=\"\"}}grim!{{pageBreak}}{{fun_0007000D arg=\"\"}}Me {{fun_0007000D arg=\"\"}}daugh{{fun_0007000D arg=\"\"}}ter {{fun_0007000D arg=\"\"}}saved {{fun_0007000D arg=\"\"}}the {{fun_0007000D arg=\"\"}}day, {{fun_0007000D arg=\"\"}}brushed {{fun_0007000D arg=\"\"}}her {{fun_0007000D arg=\"\"}}teeth \n{{fun_0007000D arg=\"\"}}so {{fun_0007000D arg=\"\"}}clean. {{fun_0007000D arg=\"\"}}She {{fun_0007000D arg=\"\"}}stood {{fun_0007000D arg=\"\"}}a{{fun_0007000D arg=\"\"}}shore! {{fun_0007000D arg=\"\"}}She {{fun_0007000D arg=\"\"}}smiled {{fun_0007000D arg=\"\"}}so {{fun_0007000D arg=\"\"}}big!\n{{fun_0007000D arg=\"\"}}Fol{{fun_0007000D arg=\"\"}}lowed {{fun_0007000D arg=\"\"}}me {{fun_0007000D arg=\"\"}}the {{fun_0007000D arg=\"\"}}gleam!{{size value=\"100\"}}"
  },
  {
    "label": "007",
    "text": "{{size value=\"75\"}}{{fun_0007000D arg=\"\"}}When {{fun_0007000D arg=\"\"}}I {{fun_0007000D arg=\"\"}}were {{fun_0007000D arg=\"\"}}a {{fun_0007000D arg=\"\"}}hatch{{fun_0007000D arg=\"\"}}ling {{fun_0007000D arg=\"\"}}and {{fun_0007000D arg=\"\"}}things {{fun_0007000D arg=\"\"}}didn't {{fun_0007000D arg=\"\"}}go \n{{fun_0007000D arg=\"\"}}well, {{fun_0007000D arg=\"\"}}I {{fun_0007000D arg=\"\"}}could {{fun_0007000D arg=\"\"}}hide {{fun_0007000D arg=\"\"}}there {{fun_0007000D arg=\"\"}}in{{fun_0007000D arg=\"\"}}side, {{fun_0007000D arg=\"\"}}in{{fun_0007000D arg=\"\"}}side {{fun_0007000D arg=\"\"}}me {{fun_0007000D arg=\"\"}}shell.{{pageBreak}}{{fun_0007000D arg=\"\"}}Now {{fun_0007000D arg=\"\"}}I {{fun_0007000D arg=\"\"}}be {{fun_0007000D arg=\"\"}}grow'd {{fun_0007000D arg=\"\"}}up. {{fun_0007000D arg=\"\"}}Me {{fun_0007000D arg=\"\"}}shell's {{fun_0007000D arg=\"\"}}kinda {{fun_0007000D arg=\"\"}}small{{fun_0007000D arg=\"\"}}ish.\n{{fun_0007000D arg=\"\"}}Don't {{fun_0007000D arg=\"\"}}fit {{fun_0007000D arg=\"\"}}me, {{fun_0007000D arg=\"\"}}and {{fun_0007000D arg=\"\"}}it {{fun_0007000D arg=\"\"}}be {{fun_0007000D arg=\"\"}}needin' {{fun_0007000D arg=\"\"}}a {{fun_0007000D arg=\"\"}}pol{{fun_0007000D arg=\"\"}}ish.{{size value=\"100\"}}"
  },
  {
    "label": "008",
    "text": "{{size value=\"75\"}}{{fun_0007000D arg=\"\"}}Sail {{fun_0007000D arg=\"\"}}with {{fun_0007000D arg=\"\"}}me! {{fun_0007000D arg=\"\"}}We'll {{fun_0007000D arg=\"\"}}have {{fun_0007000D arg=\"\"}}the {{fun_0007000D arg=\"\"}}time {{fun_0007000D arg=\"\"}}o' {{fun_0007000D arg=\"\"}}our {{fun_0007000D arg=\"\"}}lives! \n{{fun_0007000D arg=\"\"}}It {{fun_0007000D arg=\"\"}}be {{fun_0007000D arg=\"\"}}true! {{fun_0007000D arg=\"\"}}Me {{fun_0007000D arg=\"\"}}and {{fun_0007000D arg=\"\"}}you! {{fun_0007000D arg=\"\"}}Start {{fun_0007000D arg=\"\"}}the {{fun_0007000D arg=\"\"}}high {{fun_0007000D arg=\"\"}}fives!{{pageBreak}}{{fun_0007000D arg=\"\"}}We'll {{fun_0007000D arg=\"\"}}go {{fun_0007000D arg=\"\"}}far! {{fun_0007000D arg=\"\"}}Ain't {{fun_0007000D arg=\"\"}}no {{fun_0007000D arg=\"\"}}car {{fun_0007000D arg=\"\"}}can {{fun_0007000D arg=\"\"}}outdo {{fun_0007000D arg=\"\"}}us {{fun_0007000D arg=\"\"}}this {{fun_0007000D arg=\"\"}}time!\n{{fun_0007000D arg=\"\"}}Ev'{{fun_0007000D arg=\"\"}}ry{{fun_0007000D arg=\"\"}}one {{fun_0007000D arg=\"\"}}knows, {{fun_0007000D arg=\"\"}}ship {{fun_0007000D arg=\"\"}}like {{fun_0007000D arg=\"\"}}this {{fun_0007000D arg=\"\"}}goes {{fun_0007000D arg=\"\"}}well {{fun_0007000D arg=\"\"}}past \n{{fun_0007000D arg=\"\"}}this {{fun_0007000D arg=\"\"}}rhyme!{{size value=\"100\"}}"
  },
  {
    "label": "009",
    "text": "{{size value=\"75\"}}{{fun_0007000D arg=\"\"}}Kapp'n {{fun_0007000D arg=\"\"}}be {{fun_0007000D arg=\"\"}}like {{fun_0007000D arg=\"\"}}a {{fun_0007000D arg=\"\"}}bar{{fun_0007000D arg=\"\"}}ber {{fun_0007000D arg=\"\"}}ye {{fun_0007000D arg=\"\"}}tells {{fun_0007000D arg=\"\"}}yer {{fun_0007000D arg=\"\"}}woes {{fun_0007000D arg=\"\"}}to. \n{{fun_0007000D arg=\"\"}}Good {{fun_0007000D arg=\"\"}}list{{fun_0007000D arg=\"\"}}en{{fun_0007000D arg=\"\"}}er {{fun_0007000D arg=\"\"}}like {{fun_0007000D arg=\"\"}}that, {{fun_0007000D arg=\"\"}}ev'{{fun_0007000D arg=\"\"}}ry{{fun_0007000D arg=\"\"}}one {{fun_0007000D arg=\"\"}}goes {{fun_0007000D arg=\"\"}}to!{{pageBreak}}{{fun_0007000D arg=\"\"}}I {{fun_0007000D arg=\"\"}}may {{fun_0007000D arg=\"\"}}not {{fun_0007000D arg=\"\"}}cut {{fun_0007000D arg=\"\"}}yer {{fun_0007000D arg=\"\"}}hair, {{fun_0007000D arg=\"\"}}but {{fun_0007000D arg=\"\"}}I'll {{fun_0007000D arg=\"\"}}hear {{fun_0007000D arg=\"\"}}ye {{fun_0007000D arg=\"\"}}out—\n{{fun_0007000D arg=\"\"}}soon {{fun_0007000D arg=\"\"}}as {{fun_0007000D arg=\"\"}}I {{fun_0007000D arg=\"\"}}be {{fun_0007000D arg=\"\"}}done {{fun_0007000D arg=\"\"}}sing{{fun_0007000D arg=\"\"}}in', {{fun_0007000D arg=\"\"}}ye {{fun_0007000D arg=\"\"}}wee {{fun_0007000D arg=\"\"}}sea {{fun_0007000D arg=\"\"}}trout!{{size value=\"100\"}}"
  },
  {
    "label": "010",
    "text": "{{size value=\"75\"}}{{fun_0007000D arg=\"\"}}Saw {{fun_0007000D arg=\"\"}}me {{fun_0007000D arg=\"\"}}a {{fun_0007000D arg=\"\"}}krak{{fun_0007000D arg=\"\"}}en {{fun_0007000D arg=\"\"}}fight{{fun_0007000D arg=\"\"}}in' {{fun_0007000D arg=\"\"}}a {{fun_0007000D arg=\"\"}}big {{fun_0007000D arg=\"\"}}sea {{fun_0007000D arg=\"\"}}snake.\n{{fun_0007000D arg=\"\"}}(Might {{fun_0007000D arg=\"\"}}have {{fun_0007000D arg=\"\"}}just {{fun_0007000D arg=\"\"}}been {{fun_0007000D arg=\"\"}}some {{fun_0007000D arg=\"\"}}sea{{fun_0007000D arg=\"\"}}weed; {{fun_0007000D arg=\"\"}}could{{fun_0007000D arg=\"\"}}n't \n{{fun_0007000D arg=\"\"}}see {{fun_0007000D arg=\"\"}}well.){{pageBreak}}{{fun_0007000D arg=\"\"}}I {{fun_0007000D arg=\"\"}}knows {{fun_0007000D arg=\"\"}}what {{fun_0007000D arg=\"\"}}ye {{fun_0007000D arg=\"\"}}be {{fun_0007000D arg=\"\"}}think{{fun_0007000D arg=\"\"}}in': {{fun_0007000D arg=\"\"}}\"Ye{{fun_0007000D arg=\"\"}}ah, {{fun_0007000D arg=\"\"}}ye{{fun_0007000D arg=\"\"}}ah, {{fun_0007000D arg=\"\"}}ye{{fun_0007000D arg=\"\"}}ah, \n{{fun_0007000D arg=\"\"}}ye{{fun_0007000D arg=\"\"}}ah.\" {{fun_0007000D arg=\"\"}}But {{fun_0007000D arg=\"\"}}I {{fun_0007000D arg=\"\"}}swear {{fun_0007000D arg=\"\"}}it {{fun_0007000D arg=\"\"}}be {{fun_0007000D arg=\"\"}}true! {{fun_0007000D arg=\"\"}}(Far {{fun_0007000D arg=\"\"}}as {{fun_0007000D arg=\"\"}}I {{fun_0007000D arg=\"\"}}can {{fun_0007000D arg=\"\"}}tell.){{size value=\"100\"}}"
  }
]