﻿[
  {
    "label": "001",
    "text": "{{anim id=\"26\"}}Oh dear. {{delay frames=\"5\"}}Pardon me..."
  },
  {
    "label": "002",
    "text": "{{anim id=\"13\"}}Hoo! {{delay frames=\"5\"}}I'm a bit of a night owl.\nDrowsy in the daytime, you see!"
  },
  {
    "label": "003",
    "text": "{{anim id=\"1\"}}Hoo! I welcome you to\nthe {{fun_0004000E arg=\"\"}}{{fun_00050005 arg=\"\"}} Museum."
  },
  {
    "label": "004",
    "text": "{{delay frames=\"20\"}}Welcome to the\n{{fun_0004000E arg=\"\"}}{{fun_00050005 arg=\"\"}} Museum."
  },
  {
    "label": "005",
    "text": "Take your time...{{delay frames=\"10\"}} Do look around..."
  },
  {
    "label": "006",
    "text": "{{anim id=\"1\"}}Our museum is second to none, may\nI humbly say. {{delay frames=\"10\"}}Brimming with fish!{{delay frames=\"5\"}}\nChock full of fossils!\nAnd blessed with every work of art!{{delay frames=\"10\"}}\n{{anim id=\"3\"}}Yes, the {{fun_00050005 arg=\"\"}} museum is\nextraordinary. {{delay frames=\"5\"}}Hootie hoo!"
  },
  {
    "label": "007",
    "text": "{{anim id=\"1\"}}Our collections are quite extensive.{{delay frames=\"10\"}}\nOur exhibits, exemplary.{{delay frames=\"10\"}}\nDo enjoy yourself thoroughly!"
  },
  {
    "label": "008",
    "text": "{{anim id=\"1\"}}Our insect exhibit is unparalleled!\nVisitors do, {{delay frames=\"5\"}}shall I say, {{delay frames=\"5\"}}swarm\nhere from all over to see it.\nPlease enjoy the collection, and\nthen spread, {{delay frames=\"5\"}}if I dare, {{delay frames=\"5\"}}the buzz."
  },
  {
    "label": "009",
    "text": "{{anim id=\"1\"}}Our aquarium is truly outstanding!\nIndeed, {{delay frames=\"5\"}}we reel in visitors from\nfar and wide.\nSo please be sure to enjoy our\nfascinating fish. I think you'll\nget along, {{delay frames=\"5\"}}if I may, {{delay frames=\"5\"}}swimmingly."
  },
  {
    "label": "010",
    "text": "{{anim id=\"1\"}}Our fossil collection is especially\nsuperb, you know. {{delay frames=\"10\"}}The exhibit here\nis anything but dry and dusty!\nYou couldn't see more dinosaurs,{{delay frames=\"5\"}}\nin fact, {{delay frames=\"5\"}}without a time machine.\nSo please enjoy them all."
  },
  {
    "label": "011",
    "text": "{{anim id=\"1\"}}Our art galleries, {{delay frames=\"5\"}}if I may say, {{delay frames=\"5\"}}are\nthe very picture of perfection.{{delay frames=\"10\"}}\nYes, the collection is complete!\nSo peruse the portraits. {{delay frames=\"5\"}}Ambulate\nthrough the galleries. {{delay frames=\"5\"}}It's all a feast\nfor the eyes, {{delay frames=\"5\"}}so please {{delay frames=\"5\"}}indulge!"
  },
  {
    "label": "012",
    "text": "{{anim id=\"1\"}}Our museum is nearly full. {{delay frames=\"5\"}}It brims\nwith fish, {{delay frames=\"5\"}}and I wouldn't say it's\ninfested with insects, {{delay frames=\"5\"}}but it's close.\nYet if it's portraits or fossils you\nseek, {{delay frames=\"5\"}}those exhibits are nearing\ncompletion too. Enjoy them all."
  },
  {
    "label": "013",
    "text": "{{anim id=\"1\"}}Our museum is filling up, I'll have\nyou know. {{delay frames=\"5\"}}Yes, we've been\nfeathering this nest quite nicely.\nSo if you're in the mood for this or\nthat, you'll be sure to find it.{{delay frames=\"5\"}}\nVisitors always leave quite satisfied."
  },
  {
    "label": "014",
    "text": "{{anim id=\"1\"}}Our collection is still growing,\nbut you'll be delighted, {{delay frames=\"5\"}}I'm sure,{{delay frames=\"5\"}}\nat what we have.\nThis museum is like a chick taking\nits first steps. How far we will go!\nWalk with us, {{delay frames=\"5\"}}won't you? Hoo!"
  },
  {
    "label": "015",
    "text": "You'll find our collections are\ncoming along nicely, {{delay frames=\"5\"}}though we\ndo have a long way to go.\nStill, I implore you to sift through\nthe empty spaces of our museum.{{delay frames=\"5\"}}\nWhat discovery awaits you! Hoo!"
  },
  {
    "label": "016",
    "text": "Is there anything we don't have?{{delay frames=\"10\"}}\nAny collection left incomplete?{{delay frames=\"10\"}}\nAny exhibit less than exhaustive?\nWell, {{delay frames=\"5\"}}to tell the truth, {{delay frames=\"5\"}}we have\nabsolutely nothing at the moment.{{delay frames=\"10\"}}\nBut we have heart. So {{delay frames=\"5\"}}welcome!"
  },
  {
    "label": "017",
    "text": ""
  },
  {
    "label": "018",
    "text": "{{anim id=\"1\"}}Also, don't neglect our shop on\nthe second floor. {{delay frames=\"5\"}}I think you'll\nfind it quite exquisite!"
  },
  {
    "label": "019",
    "text": "{{anim id=\"1\"}}Also, don't overlook our personal\nexhibit rooms and museum gift shop\non the second floor!"
  },
  {
    "label": "020",
    "text": "{{anim id=\"1\"}}Also, we are currently featuring\nthe {{fun_00070012 arg=\"0x00CD\"}} exhibit\non the second floor. {{delay frames=\"5\"}}Do see it!"
  },
  {
    "label": "021",
    "text": "Also, we have two personal exhibits\non the second floor.{{pageBreak}}The {{fun_00070012 arg=\"0x00CD\"}} and\n{{fun_00070012 arg=\"0x01CD\"}} exhibits\nare both delightful! Hoo!"
  },
  {
    "label": "022",
    "text": "Also, we have three personal\nexhibits on the second floor.{{pageBreak}}The {{fun_00070012 arg=\"0x00CD\"}} and\n{{fun_00070012 arg=\"0x01CD\"}} exhibits\nare both delightful.\nI think the {{fun_00070012 arg=\"0x02CD\"}}\nexhibit is wonderful as well.{{delay frames=\"5\"}}\nPlease enjoy them all! Hoo!"
  },
  {
    "label": "023",
    "text": "Also, we have four personal exhibits\non the second floor.{{pageBreak}}The {{fun_00070012 arg=\"0x00CD\"}} and\n{{fun_00070012 arg=\"0x01CD\"}} exhibits\nare both delightful.\nI think the {{fun_00070012 arg=\"0x02CD\"}}\nand {{fun_00070012 arg=\"0x03CD\"}} exhibits\nare excellent too. {{delay frames=\"5\"}}Enjoy them all!"
  },
  {
    "label": "024",
    "text": "{{anim id=\"15\"}}{{delay frames=\"15\"}}Hoo! {{delay frames=\"10\"}}Aren't you our new mayor?"
  },
  {
    "label": "025",
    "text": "{{anim id=\"1\"}}I am {{color id=\"4\"}}Blathers{{color id=\"65535\"}}, the director of this\nmuseum. It is my honor, {{delay frames=\"5\"}}entirely,{{delay frames=\"5\"}}\nto make your acquaintance.\nOur museum exhibits the very best\nin archaeology, {{delay frames=\"5\"}}the natural sciences,{{delay frames=\"5\"}}\nand art—fine and otherwise.\n{{anim id=\"15\"}}Hoo! {{delay frames=\"20\"}}{{anim id=\"9\"}}There I go again. You'll find\nthat each time I open my beak,\n10 words fall out when two will do.\n{{anim id=\"41\"}}I do apologize. I've been trying to\nget better, but when I have a\nthought that takes flight...!\n{{anim id=\"21\"}}Never mind. Let me start over\nwith, {{delay frames=\"5\"}}hoo, {{delay frames=\"5\"}}fewer words.{{pageBreak}}{{anim id=\"0\"}}This museum exhibits {{color id=\"2\"}}insects{{color id=\"65535\"}},{{delay frames=\"5\"}} {{color id=\"2\"}}fish{{color id=\"65535\"}},{{delay frames=\"5\"}}\n{{color id=\"2\"}}assessed fossils{{color id=\"65535\"}}, {{delay frames=\"5\"}}and {{color id=\"2\"}}artwork{{color id=\"65535\"}}.{{pageBreak}}{{anim id=\"1\"}}The reason? {{delay frames=\"5\"}}To make {{fun_00050005 arg=\"\"}}\nas great as it can be."
  },
  {
    "label": "026",
    "text": "{{anim id=\"0\"}}That's it {{delay frames=\"5\"}}in a nutshell. {{delay frames=\"10\"}}You see?{{delay frames=\"5\"}}\nShort. {{delay frames=\"5\"}}I have done it! {{delay frames=\"5\"}}I have made\nmyself more than concise. Hoo!\n{{anim id=\"1\"}}Now then, an addendum for you!\nOur second floor has a shop and is\nreserved for guest exhibits."
  },
  {
    "label": "027",
    "text": "{{anim id=\"9\"}}But here is our problem. We are\ncurrently exhibiting...{{delay frames=\"20\"}}nothing.{{pageBreak}}{{anim id=\"36\"}}Heh. Hoo. It's a tad embarrassing.{{fun_00010007 arg=\"\"}}\n{{anim id=\"1\"}}But perhaps you can help?{{delay frames=\"10\"}}\nHootie hoo! {{delay frames=\"5\"}}You can!\nIf you donate your precious finds\nto the museum, I would be eternally\ngrateful, as would all of {{fun_00050005 arg=\"\"}}."
  },
  {
    "label": "028",
    "text": ""
  },
  {
    "label": "029",
    "text": "{{anim id=\"1\"}}We are open all day {{delay frames=\"5\"}}and all night,{{delay frames=\"5\"}}\nso stop by anytime! Hoo!"
  },
  {
    "label": "030",
    "text": ""
  },
  {
    "label": "031",
    "text": "{{anim id=\"1\"}}We are open all day, all night, and\nevery day of the year. {{delay frames=\"10\"}}Indeed, {{delay frames=\"5\"}}the\n{{fun_00050005 arg=\"\"}} museum never sleeps!"
  },
  {
    "label": "032",
    "text": "{{delay frames=\"8\"}}.{{delay frames=\"8\"}}.{{delay frames=\"8\"}}.{{delay frames=\"8\"}}{{anim id=\"15\"}}{{delay frames=\"10\"}}Huh?{{delay frames=\"20\"}} {{anim id=\"11\"}}It doesn't seem you have\nanything on your person that we\ncan accept at the moment{{delay frames=\"8\"}}.{{delay frames=\"8\"}}.{{delay frames=\"8\"}}.\n{{anim id=\"0\"}}We take bugs, fish, sea creatures,\nofficial {{color id=\"4\"}}Blathers{{color id=\"65535\"}}-assessed fossils,\nand works of art.\n{{anim id=\"37\"}}If you have any of those that our\nmuseum is currently lacking...{{anim id=\"1\"}}we'd\nabsolutely love the donation!"
  },
  {
    "label": "033",
    "text": "Hmm? {{delay frames=\"10\"}}{{anim id=\"1\"}}Hoo! {{delay frames=\"5\"}}How may I be of\nservice?{{fun_0006000F arg=\"0x000000000000\"}}\nMake a donation!\nAssess a fossil!\nNothing..."
  },
  {
    "label": "034",
    "text": "{{anim id=\"1\"}}How may I be of service?{{fun_0005000F arg=\"0x00000000\"}}\nAssess a fossil!\nNothing..."
  },
  {
    "label": "035",
    "text": "{{anim id=\"1\"}}How may I be of service?{{fun_0006000F arg=\"0x000000000000\"}}\nMake a donation!\nAssess a fossil!\nNothing..."
  },
  {
    "label": "036",
    "text": "{{anim id=\"1\"}}How may I be of service?{{fun_0005000F arg=\"0x00000000\"}}\nAssess a fossil!\nNothing..."
  },
  {
    "label": "037",
    "text": "{{delay frames=\"5\"}}{{anim id=\"22\"}}{{delay frames=\"15\"}}Oh, {{fun_00000005 arg=\"\"}}!{{delay frames=\"20\"}} I have something\n{{anim id=\"1\"}}to discuss with you! Hoo!{{pageBreak}}{{anim id=\"29\"}}We have filled all our permanent\nexhibits, thanks to the philanthropy\nof all who live in {{fun_00050005 arg=\"\"}}!\n{{anim id=\"1\"}}Such a spirit of giving has made\nour halls complete!{{fun_00010007 arg=\"\"}} {{anim id=\"0\"}}As such, I will\nno longer ask for donations.\n{{anim id=\"37\"}}But I wouldn't mind assessing a\nrogue fossil now and then,{{delay frames=\"8\"}} so feel\nfree to continue bringing those by.\n{{anim id=\"0\"}}Well then, {{delay frames=\"5\"}}how may I be of service?{{fun_0005000F arg=\"0x00000000\"}}\nAssess a fossil!\nNothing..."
  },
  {
    "label": "038",
    "text": "{{anim id=\"23\"}}May I offer any further assistance?{{fun_0006000F arg=\"0x000000000000\"}}\nMake a donation!\nAssess a fossil!\nNothing..."
  },
  {
    "label": "039",
    "text": "{{anim id=\"23\"}}May I offer any further assistance?{{fun_0005000F arg=\"0x00000000\"}}\nAssess a fossil!\nNothing..."
  },
  {
    "label": "040",
    "text": "{{anim id=\"1\"}}Then please enjoy the rest of\nyour visit! "
  },
  {
    "label": "041",
    "text": "{{anim id=\"1\"}}What would you like to donate?"
  },
  {
    "label": "042",
    "text": "{{delay frames=\"5\"}}{{anim id=\"15\"}}{{delay frames=\"15\"}}Oh! My apologies! {{delay frames=\"10\"}}I cannot accept\nany donations at this moment.{{pageBreak}}Our town is currently being visited!{{delay frames=\"10\"}}\nI must stand vigil solely to serve\nthe needs of visitors who wander in.\n{{anim id=\"1\"}}Can you make your donation at\nanother time? Hoo! I thank you for\nyour patience, {{fun_00000005 arg=\"\"}}. "
  },
  {
    "label": "043",
    "text": "{{anim id=\"1\"}}Hoo? {{delay frames=\"5\"}}You've changed your mind?{{delay frames=\"10\"}}\nNext time then."
  },
  {
    "label": "044",
    "text": ""
  },
  {
    "label": "045",
    "text": "{{delay frames=\"5\"}}{{anim id=\"18\"}}{{size value=\"75\"}}{{delay frames=\"15\"}}Eeek!{{size value=\"100\"}}{{size value=\"75\"}}{{size value=\"75\"}}{{size value=\"75\"}}{{delay frames=\"5\"}} A bug{{size value=\"75\"}}{{delay frames=\"5\"}}{{size value=\"75\"}}.{{delay frames=\"5\"}}.{{delay frames=\"5\"}}.{{size value=\"75\"}}{{delay frames=\"5\"}}{{size value=\"75\"}}!{{size value=\"100\"}}{{delay frames=\"20\"}}\n{{anim id=\"15\"}}{{delay frames=\"20\"}}Ah,{{delay frames=\"15\"}} I beg{{anim id=\"13\"}} your pardon!{{delay frames=\"20\"}}\n{{size value=\"75\"}}I just{{delay frames=\"5\"}} don't like handling these things much!\n{{size value=\"100\"}}{{anim id=\"11\"}}Well{{delay frames=\"8\"}}.{{delay frames=\"8\"}}.{{delay frames=\"8\"}}.{{delay frames=\"20\"}} Mmm. Hoo hoo,{{delay frames=\"15\"}}\n{{fun_0002000E arg=\"\"}}{{fun_00030011 arg=\"0x0000\"}}{{delay frames=\"5\"}}.{{delay frames=\"5\"}}.{{delay frames=\"5\"}}.{{pageBreak}}{{anim id=\"9\"}}This {{fun_00030011 arg=\"0x0000\"}} here\nreminds me vaguely of when I was\nbut a chick in my mother's nest...{{fun_00080007 arg=\"0x28000000\"}}\n{{anim id=\"15\"}}{{delay frames=\"5\"}}Oh!{{delay frames=\"15\"}} I'm so sorry!{{delay frames=\"20\"}} {{anim id=\"26\"}}I was about to get\nrather carried away there!{{pageBreak}}{{anim id=\"0\"}}Anyhoo, I promise we will take good\ncare of this critter{{delay frames=\"5\"}}.{{delay frames=\"5\"}}.{{delay frames=\"5\"}}.{{pageBreak}}{{anim id=\"1\"}}We'll display it later with a more\ndetailed description, so please\ncome back to see it.\nThank you very much!"
  },
  {
    "label": "046",
    "text": "{{delay frames=\"5\"}}{{anim id=\"15\"}}{{delay frames=\"15\"}}Hoo hoo{{delay frames=\"5\"}}.{{delay frames=\"5\"}}.{{delay frames=\"5\"}}.{{delay frames=\"15\"}} {{fun_0003000E arg=\"\"}}{{fun_0002000E arg=\"\"}}\n{{fun_00030011 arg=\"0x0000\"}}, is it?{{pageBreak}}{{anim id=\"1\"}}The {{fun_00030011 arg=\"0x0000\"}}{{delay frames=\"15\"}}\nreminds me of a time when I was\nstill in my baby feathers{{delay frames=\"5\"}}.{{delay frames=\"5\"}}.{{delay frames=\"5\"}}.{{fun_00080007 arg=\"0x28000000\"}}\n{{anim id=\"15\"}}{{delay frames=\"5\"}}Ah!{{delay frames=\"15\"}} I beg your pardon!{{delay frames=\"20\"}} {{anim id=\"26\"}}I was about\nto go on a tangent there!{{pageBreak}}{{anim id=\"0\"}}Anyhoo, I promise we will take\ngood care of it here{{delay frames=\"5\"}}.{{delay frames=\"5\"}}.{{delay frames=\"5\"}}.{{pageBreak}}{{anim id=\"1\"}}We'll display it later with a detailed\ndescription, so please come back to\nsee it anytime you'd like.\nThank you very much!"
  },
  {
    "label": "047",
    "text": "{{delay frames=\"5\"}}{{anim id=\"15\"}}{{delay frames=\"15\"}}Oh hoo hoo{{delay frames=\"5\"}}.{{delay frames=\"5\"}}.{{delay frames=\"5\"}}.{{delay frames=\"15\"}} {{fun_0003000E arg=\"\"}}{{fun_0002000E arg=\"\"}}\n{{fun_00030011 arg=\"0x0000\"}}, is it?{{pageBreak}}{{anim id=\"1\"}}The {{fun_00030011 arg=\"0x0000\"}}{{delay frames=\"15\"}}\nreminds me of a time when my dear\nmother tucked me under her wing{{delay frames=\"5\"}}.{{delay frames=\"5\"}}.{{delay frames=\"5\"}}.{{fun_00080007 arg=\"0x28000000\"}}\n{{anim id=\"15\"}}{{delay frames=\"5\"}}Ah!{{delay frames=\"15\"}} I beg your pardon!{{delay frames=\"20\"}} {{anim id=\"26\"}}I was but a\nhair away from getting distracted!{{pageBreak}}{{anim id=\"0\"}}Anyhoo, I promise we will take good\ncare of it here{{delay frames=\"5\"}}.{{delay frames=\"5\"}}.{{delay frames=\"5\"}}.{{pageBreak}}{{anim id=\"1\"}}We'll display it later with a detailed\ndescription, so please come back to\nsee it whenever you'd like.\nThank you very much!"
  },
  {
    "label": "048",
    "text": "{{anim id=\"16\"}}Hoo hoo! {{delay frames=\"20\"}}Why, that must be {{fun_0002000E arg=\"\"}}\n{{fun_00030011 arg=\"0x0000\"}}, if I'm not\nentirely mistaken! {{delay frames=\"10\"}}{{anim id=\"21\"}}Yes, surely!"
  },
  {
    "label": "049",
    "text": "{{anim id=\"16\"}}Hoo! {{delay frames=\"20\"}}Unless I'm mistaken, that is\n{{fun_0002000E arg=\"\"}}{{fun_00030011 arg=\"0x0000\"}}!{{delay frames=\"20\"}}\n{{anim id=\"21\"}}Indeed! {{delay frames=\"5\"}}What joy! {{delay frames=\"5\"}}It is!"
  },
  {
    "label": "050",
    "text": "{{anim id=\"16\"}}What? {{delay frames=\"20\"}}Hoo hoo! What luck!{{delay frames=\"5\"}} Is that\n{{fun_0002000E arg=\"\"}}{{fun_00030011 arg=\"0x0000\"}}?{{delay frames=\"10\"}}\n{{anim id=\"21\"}}Yes, {{delay frames=\"5\"}}undoubtedly!"
  },
  {
    "label": "051",
    "text": "Well,{{delay frames=\"10\"}} we shall take very good care\nof this, you have my word{{delay frames=\"5\"}}.{{delay frames=\"5\"}}.{{delay frames=\"5\"}}.{{pageBreak}}{{anim id=\"1\"}}We'll display it later with a detailed\ndescription, so please come back to\nsee it at any time.\nThank you very much!"
  },
  {
    "label": "052",
    "text": "{{anim id=\"16\"}}Hoo! {{delay frames=\"20\"}}Oh! My word, isn't that\n{{fun_0002000E arg=\"\"}}{{fun_00030011 arg=\"0x0000\"}}...?{{delay frames=\"30\"}}{{fun_00080007 arg=\"0x2D000000\"}}"
  },
  {
    "label": "053",
    "text": "{{fun_000B0007 arg=\"\"}}{{anim id=\"18\"}}{{size value=\"150\"}}Hoo!{{size value=\"100\"}}{{fun_00090007 arg=\"0x1E000000\"}}"
  },
  {
    "label": "054",
    "text": "{{anim id=\"13\"}}Oh dear! {{delay frames=\"10\"}}Upon closer examination,\nI have grave news to share with\nyou, {{fun_00000005 arg=\"\"}}! {{delay frames=\"20\"}}It's a fake!\nWhy, it's as clear as the difference\nbetween {{fun_00100005 arg=\"0x0100\"}} and\n{{fun_00100005 arg=\"0x0200\"}}! {{delay frames=\"10\"}}Shocking!\n{{anim id=\"0\"}}I'm sorry to say I must turn down\nthis most generous donation.{{delay frames=\"10\"}}\nHoo, yes, {{delay frames=\"5\"}}I must give it back."
  },
  {
    "label": "055",
    "text": ""
  },
  {
    "label": "056",
    "text": "{{anim id=\"16\"}}What? {{delay frames=\"20\"}}Could it be? You're donating\nthe {{fun_00030011 arg=\"0x0000\"}}?"
  },
  {
    "label": "057",
    "text": "{{anim id=\"11\"}}Let me just see here...{{delay frames=\"30\"}}\nHmmm. {{delay frames=\"20\"}}Well... {{delay frames=\"10\"}}Oh...!{{delay frames=\"10\"}}{{anim id=\"22\"}}{{delay frames=\"20\"}}\nHoo hoo!"
  },
  {
    "label": "058",
    "text": "After some consideration, I declare\nit to be {{fun_0002000E arg=\"\"}}{{fun_00030011 arg=\"0x0000\"}}!{{delay frames=\"10\"}}{{anim id=\"21\"}}\nYes, without a doubt."
  },
  {
    "label": "059",
    "text": "Oh my! {{delay frames=\"10\"}}{{anim id=\"21\"}}Upon examination, it's most\ncertainly {{fun_0002000E arg=\"\"}}{{fun_00030011 arg=\"0x0000\"}}!"
  },
  {
    "label": "060",
    "text": "Eureka! {{delay frames=\"10\"}}{{anim id=\"21\"}}Yes, most certainly.{{delay frames=\"10\"}}\nIt's {{fun_0002000E arg=\"\"}}{{fun_00030011 arg=\"0x0000\"}}!"
  },
  {
    "label": "061",
    "text": "{{anim id=\"1\"}}I will be most delighted to accept\nyour donation. {{delay frames=\"10\"}}Thank you!"
  },
  {
    "label": "062",
    "text": "{{anim id=\"15\"}}Oh! {{delay frames=\"5\"}}This has already been donated!{{delay frames=\"10\"}}\nI must return this to you. {{delay frames=\"5\"}}{{anim id=\"1\"}}But you\nhave my deepest gratitude!"
  },
  {
    "label": "063",
    "text": "{{anim id=\"1\"}}I'm very glad to accept your\ndonation."
  },
  {
    "label": "064",
    "text": "{{anim id=\"1\"}}You have my thanks. {{delay frames=\"20\"}}Hoo, if only\nwe had the other pieces, {{delay frames=\"5\"}}this\nfine creature would be complete!"
  },
  {
    "label": "065",
    "text": "{{delay frames=\"5\"}}{{anim id=\"22\"}}{{delay frames=\"40\"}}Hoo hoo!{{delay frames=\"15\"}} This means{{delay frames=\"5\"}}.{{delay frames=\"5\"}}.{{delay frames=\"5\"}}.{{delay frames=\"5\"}}!{{delay frames=\"20\"}} {{anim id=\"3\"}}Yes, oh my!\nThe {{fun_000C0012 arg=\"0x00CD\"}}{{delay frames=\"10\"}} is at\nlast complete!\n{{anim id=\"1\"}}Ahhh{{delay frames=\"5\"}}.{{delay frames=\"5\"}}.{{delay frames=\"5\"}}.{{delay frames=\"10\"}} The {{fun_000C0012 arg=\"0x00CD\"}}\nis surely an amazing creature!{{pageBreak}}{{anim id=\"43\"}}You know, when it comes to the\n{{fun_000C0012 arg=\"0x00CD\"}},{{delay frames=\"10\"}} what I love\nmost is how{{delay frames=\"5\"}}.{{delay frames=\"5\"}}.{{delay frames=\"5\"}}.{{delay frames=\"20\"}}{{delay frames=\"5\"}}{{anim id=\"15\"}}\nAh!{{delay frames=\"15\"}} I'm so sorry!{{delay frames=\"20\"}} {{anim id=\"26\"}}My mind started\nto race with thoughts of the\n{{fun_000C0012 arg=\"0x00CD\"}}!\n{{anim id=\"0\"}}Anyhoo, I promise we will take\nexcellent care of it here{{delay frames=\"5\"}}.{{delay frames=\"5\"}}.{{delay frames=\"5\"}}.{{pageBreak}}{{anim id=\"1\"}}We'll add a detailed description as\nwell, so please go take a look at the{{delay frames=\"5\"}}\n{{fun_000C0012 arg=\"0x00CD\"}} display soon!"
  },
  {
    "label": "066",
    "text": "...{{delay frames=\"10\"}}Hmm? {{delay frames=\"10\"}}Hoo? {{delay frames=\"10\"}}But you have no\nunknown fossils for me to inspect.{{pageBreak}}{{anim id=\"0\"}}Sadly, {{anim id=\"40\"}}I cannot assess that which\nneeds no assessing.{{fun_00010007 arg=\"\"}} {{anim id=\"2\"}}Hoo! {{delay frames=\"5\"}}A bit of\nmuseum humor. {{delay frames=\"5\"}}So rich. {{delay frames=\"5\"}}Hoo hoo!"
  },
  {
    "label": "067",
    "text": "{{anim id=\"1\"}}Hoo! What would you like\nme to assess?"
  },
  {
    "label": "068",
    "text": "Hoo? {{delay frames=\"10\"}}{{anim id=\"9\"}}No? {{delay frames=\"10\"}}Well, never mind.\nI respect your decision entirely."
  },
  {
    "label": "069",
    "text": "{{anim id=\"1\"}}Here. Let me give this back to you,\nwe already have it in the museum."
  },
  {
    "label": "070",
    "text": "{{anim id=\"1\"}}We don't have this fossil in our\ncollection. Would you consider\ndonating it, {{fun_00000005 arg=\"\"}}?{{fun_0008000D arg=\"0x02CD\"}}{{fun_0005000F arg=\"0x00000000\"}}\nOK, donated!\nSorry, no."
  },
  {
    "label": "071",
    "text": "{{anim id=\"1\"}}Hoo! Wonderful! {{delay frames=\"5\"}}I'll add it to\nour collection!"
  },
  {
    "label": "072",
    "text": "{{anim id=\"9\"}}Ah, yes. {{delay frames=\"10\"}}Well then, {{delay frames=\"5\"}}here you go."
  },
  {
    "label": "073",
    "text": "{{anim id=\"15\"}}Hold on! {{delay frames=\"10\"}}Was this possibly...?{{delay frames=\"20\"}}\nCould it perhaps be...?{{delay frames=\"20\"}}\nHas the dream finally come {{delay frames=\"5\"}}true?\n{{anim id=\"22\"}}{{delay frames=\"15\"}}Yes! The museum's collections are\ncompletely, thoroughly complete!{{fun_00010007 arg=\"\"}}\n{{anim id=\"29\"}}Hoo! Simply stupendous!\n{{anim id=\"5\"}}No town can boast of a bigger or\nbetter collection than the one here\nin {{fun_00050005 arg=\"\"}}.\n{{anim id=\"1\"}}Oh, the generosity that made this\npossible! My thanks to you and\nall who supported this dream.\n{{anim id=\"3\"}}You have my deepest gratitude.\nAnd may ALL who love this place\nas much as you know it too.\nFor a museum is only as great as its\npatrons, and people like you have\nmade it a most magnificent place!"
  },
  {
    "label": "074",
    "text": "{{anim id=\"16\"}}Hoo hoo! {{delay frames=\"20\"}}This is the last of what\nwe need for the aquarium!{{pageBreak}}{{anim id=\"29\"}}How wonderful! We can now call\nour aquarium complete. {{delay frames=\"10\"}}Thank you\nfrom the depths of my heart!"
  },
  {
    "label": "075",
    "text": "{{anim id=\"16\"}}Hoo hoo! {{delay frames=\"20\"}}I can barely believe it.{{delay frames=\"20\"}}\nThat's all we needed!{{pageBreak}}{{anim id=\"29\"}}Our insect exhibit is complete!{{delay frames=\"10\"}}\nOh, how my heart flutters just to\nimagine it.\n{{anim id=\"18\"}}Ick!{{delay frames=\"16\"}} {{anim id=\"36\"}}Perhaps flutters is the wrong\nword for it!{{delay frames=\"16\"}} {{anim id=\"13\"}}More like SHUDDERS!{{delay frames=\"16\"}}\n{{anim id=\"10\"}}But,{{delay frames=\"8\"}} I'll manage, I suppose.\n{{anim id=\"6\"}}It is for the greatest good and the\nsake of our museum,{{delay frames=\"8\"}} {{anim id=\"21\"}}so you have\nmy deepest thanks!"
  },
  {
    "label": "076",
    "text": "{{anim id=\"16\"}}Hoo hoo! {{delay frames=\"20\"}}No, it cannot be!{{delay frames=\"10\"}}\nBut it is! {{delay frames=\"20\"}}With that,{{delay frames=\"10\"}} our art\ncollection is finally complete!\n{{anim id=\"29\"}}Oh, now our gallery is the very\nportrait of perfection! {{delay frames=\"10\"}}I thank you\nfor being a champion of art!"
  },
  {
    "label": "077",
    "text": "{{anim id=\"16\"}}Hoo hoo! {{delay frames=\"20\"}}You did it! As of now,{{delay frames=\"10\"}} our\nlittle fossil collection is complete!{{delay frames=\"20\"}}\nHard to believe...{{delay frames=\"10\"}}but true!{{pageBreak}}{{anim id=\"29\"}}Oh, and if I may be a little dated,\nmay I just say that I really {{delay frames=\"16\"}}dig{{delay frames=\"16\"}}\nyour devotion to fossils?\n{{anim id=\"1\"}}Because I most certainly do.\nThanks for your commitment."
  },
  {
    "label": "078",
    "text": "{{anim id=\"1\"}}We certainly hope you'll keep up\nthe good work!"
  },
  {
    "label": "079",
    "text": "{{anim id=\"45\"}}H{{size value=\"75\"}}ooooo...{{size value=\"100\"}}{{delay frames=\"25\"}}{{anim id=\"25\"}}{{delay frames=\"120\"}}{{anim id=\"15\"}}{{fun_00090007 arg=\"0x96000000\"}}\n{{anim id=\"18\"}}{{delay frames=\"5\"}}WHO?!{{fun_00090007 arg=\"0x2D000000\"}}"
  },
  {
    "label": "081",
    "text": "{{anim id=\"10\"}}Hoooo... {{delay frames=\"20\"}}Hmm...{{endTag}}\nWhat's wrong?\nHey, hello?!"
  },
  {
    "label": "082",
    "text": "...{{delay frames=\"10\"}}Oh!{{anim id=\"15\"}}{{fun_00090007 arg=\"0x2D000000\"}}"
  },
  {
    "label": "083",
    "text": "Why, Mayor! {{delay frames=\"10\"}}I was just trying my\nbest to solve a dilemma. But I must\nadmit, I'm fairly stuck.\nOh! {{anim id=\"22\"}}May I ask your thoughts on\nthe matter?"
  },
  {
    "label": "084",
    "text": "{{anim id=\"0\"}}Though our collection has grown,\nour museum just isn't drawing the\nattendance I hoped for.\nI know the very thing that will bring\nmore visitors, of course.{{fun_00010007 arg=\"\"}}\n{{anim id=\"22\"}}The museum must be remodeled!\n{{anim id=\"1\"}}We have a second floor that is going\nunused at the moment. It would\nbe perfect for something fresh!\nOh yes, what we need is an exhibit\nspace where everyone in {{fun_00060005 arg=\"\"}}\ncan display what THEY want!"
  },
  {
    "label": "085",
    "text": "{{anim id=\"9\"}}Now {{delay frames=\"5\"}}my dilemma:{{delay frames=\"20\"}} As the director\nhere, I have big dreams for our\nmuseum{{delay frames=\"8\"}}.{{delay frames=\"8\"}}.{{delay frames=\"8\"}}.{{delay frames=\"10\"}}but no Bells.\n{{anim id=\"40\"}}I don't have the funds to remodel\nthe museum.{{fun_00010007 arg=\"\"}}{{anim id=\"0\"}} But, Mayor,{{delay frames=\"8\"}} this place\nis a public service, so perhaps{{delay frames=\"8\"}}.{{delay frames=\"8\"}}.{{delay frames=\"8\"}}.\nmaybe we could have this added to\nthe list of {{color id=\"2\"}}public works projects{{color id=\"65535\"}} for\nthe town?\n{{anim id=\"21\"}}Would you consider making this a\npriority for {{fun_00050005 arg=\"\"}}?{{delay frames=\"8\"}} As mayor,\nyou can make this dream come true!\n{{anim id=\"1\"}}I'll tell your secretary, {{color id=\"4\"}}Isabelle{{color id=\"65535\"}},\nin case you'd like to help out.{{delay frames=\"20\"}}\n{{anim id=\"21\"}}My thanks in advance, Mayor.{{fun_0000000D arg=\"0x06CD\"}}"
  },
  {
    "label": "086",
    "text": ""
  },
  {
    "label": "087",
    "text": ""
  },
  {
    "label": "088",
    "text": ""
  },
  {
    "label": "089",
    "text": ""
  },
  {
    "label": "091",
    "text": "Why, Mayor! {{delay frames=\"10\"}}How fortuitous I\nshould see you right now! Hoo!{{pageBreak}}{{anim id=\"13\"}}For I am once again flummoxed,\npossibly even vexed, {{delay frames=\"5\"}}by a problem!{{fun_00010007 arg=\"\"}}\n{{anim id=\"0\"}}If anyone can help, it's you."
  },
  {
    "label": "092",
    "text": "This time my dilemma involves a\nfriend. {{delay frames=\"10\"}}{{anim id=\"21\"}}Truth be told, an old\nacquaintance named {{color id=\"4\"}}Brewster{{color id=\"65535\"}}.\nHe is a master coffee brewer.{{delay frames=\"8\"}}\n{{anim id=\"12\"}}But this fellow has no place where\nhe can put his skills to use!\n{{anim id=\"11\"}}So why not open a café here in\n{{fun_00050005 arg=\"\"}}? Visitors would love it.{{fun_00010007 arg=\"\"}}\n{{anim id=\"1\"}}Imagine, {{delay frames=\"5\"}}if I may say, {{delay frames=\"5\"}}the good buzz!"
  },
  {
    "label": "093",
    "text": "{{anim id=\"0\"}}Of course, {{anim id=\"37\"}}we now come to the\nproblem. I cannot ever hope to\nbuild a café on my own.\n{{anim id=\"21\"}}I'm sure my friend would delight all\nof {{fun_00050005 arg=\"\"}}. I can vouch for his\nskills as a conjurer of coffee.\n{{anim id=\"10\"}}But I can't say abracadabra and\nmake this dream a reality.{{delay frames=\"10\"}}\nHoo, what to do..."
  },
  {
    "label": "094",
    "text": "{{anim id=\"16\"}}Of course, the answer is standing\nright before me. {{fun_00010007 arg=\"\"}}{{anim id=\"1\"}}You, Mayor!{{delay frames=\"5\"}}\nYou have the power, hoo.\nA {{color id=\"2\"}}café{{color id=\"65535\"}} would benefit {{fun_00050005 arg=\"\"}}!{{delay frames=\"10\"}}\nIn fact, what sort of town doesn't\nhave a proper coffeemonger?\n{{anim id=\"1\"}}Yes, I'm firmly convinced. {{delay frames=\"10\"}}I'll\nbe sure to share this plan with\nyour secretary, {{color id=\"4\"}}Isabelle{{color id=\"65535\"}}.\nThe fate of the café, {{delay frames=\"5\"}}indeed, {{delay frames=\"5\"}}of my\ngood friend too, {{delay frames=\"5\"}}is in your hands,\nMayor. {{delay frames=\"10\"}}My thanks in advance.{{fun_0000000D arg=\"0x06CD\"}}"
  },
  {
    "label": "095",
    "text": ""
  },
  {
    "label": "096",
    "text": ""
  },
  {
    "label": "097",
    "text": ""
  },
  {
    "label": "098",
    "text": ""
  },
  {
    "label": "099",
    "text": ""
  },
  {
    "label": "101",
    "text": "{{delay frames=\"5\"}}{{anim id=\"16\"}}{{delay frames=\"10\"}}Hoo hoot!{{delay frames=\"20\"}} {{anim id=\"1\"}}Oh, several things, I see!{{fun_00010007 arg=\"\"}}\n{{fun_00040007 arg=\"\"}}{{anim id=\"11\"}}{{delay frames=\"5\"}}Let's take a look, shall we{{delay frames=\"10\"}}.{{delay frames=\"10\"}}.{{delay frames=\"10\"}}.{{delay frames=\"20\"}}?{{fun_00050007 arg=\"\"}}{{fun_00090007 arg=\"0x1E000000\"}}"
  },
  {
    "label": "102",
    "text": "{{delay frames=\"5\"}}{{anim id=\"38\"}}{{delay frames=\"10\"}}Yes!{{fun_00010007 arg=\"\"}} {{anim id=\"1\"}}We will gladly take these off\nyour hands!"
  },
  {
    "label": "103",
    "text": "\n{{delay frames=\"20\"}}{{anim id=\"18\"}}{{delay frames=\"20\"}}{{size value=\"150\"}}HOO!{{size value=\"100\"}}{{pageBreak}}{{size value=\"150\"}}{{size value=\"100\"}}{{delay frames=\"5\"}}{{anim id=\"9\"}}.{{delay frames=\"5\"}}.{{delay frames=\"5\"}}.{{delay frames=\"5\"}}I'm afraid fake art has worked its\nway into the mixture of donations\nyou just gave me{{delay frames=\"5\"}}.{{delay frames=\"5\"}}.{{delay frames=\"5\"}}.\n{{anim id=\"0\"}}I'm so terribly sorry, but you do\nunderstand{{delay frames=\"10\"}} we can't display fakes{{delay frames=\"5\"}}.{{delay frames=\"5\"}}.{{delay frames=\"5\"}}.{{pageBreak}}{{anim id=\"1\"}}We'll gladly accept the remaining\nitems for our collection, though!"
  },
  {
    "label": "104",
    "text": "\n{{delay frames=\"20\"}}{{anim id=\"18\"}}{{delay frames=\"20\"}}{{size value=\"150\"}}HOO-WHAT?!{{size value=\"100\"}}{{pageBreak}}{{size value=\"150\"}}{{size value=\"100\"}}{{delay frames=\"5\"}}{{anim id=\"9\"}}.{{delay frames=\"5\"}}.{{delay frames=\"5\"}}.{{delay frames=\"5\"}}I'm afraid all of these are works\nof a nasty impostor{{delay frames=\"5\"}}.{{delay frames=\"5\"}}.{{delay frames=\"5\"}}.{{pageBreak}}I'm so terribly sorry, but you do\nunderstand{{delay frames=\"10\"}} we can't display fakes.{{delay frames=\"10\"}}\nWe therefore must pass on these."
  },
  {
    "label": "105",
    "text": "{{anim id=\"0\"}}.{{delay frames=\"5\"}}.{{delay frames=\"5\"}}.{{delay frames=\"5\"}}{{anim id=\"15\"}}{{delay frames=\"10\"}}Ah,{{delay frames=\"20\"}} there's no need for you to\npull them all out!{{delay frames=\"20\"}} {{anim id=\"1\"}}I'll handle the\nrest from here! Hoot hoo!"
  },
  {
    "label": "106",
    "text": "Also,{{delay frames=\"10\"}} you're donating multiples of\nthe same item, but we only need\none,{{delay frames=\"8\"}} {{anim id=\"21\"}}so you may keep the extra."
  },
  {
    "label": "107",
    "text": "{{delay frames=\"5\"}}.{{delay frames=\"5\"}}.{{delay frames=\"5\"}}.{{delay frames=\"5\"}}{{anim id=\"15\"}}{{delay frames=\"10\"}}What's this?{{delay frames=\"15\"}}\nCould it be{{delay frames=\"5\"}}.{{delay frames=\"5\"}}.{{delay frames=\"5\"}}.?{{pageBreak}}{{anim id=\"16\"}}Hootie hoo!{{delay frames=\"20\"}} It seems a number of\nour collections have been completed\nin one fell swoop with your help!\n{{anim id=\"29\"}}What a grand happenstance!{{delay frames=\"10\"}}\n{{anim id=\"3\"}}Nothing makes me happier than\nseeing a finished collection!\n{{anim id=\"1\"}}Don't fret. We'll take good care of\nyour wonderful donations!{{pageBreak}}Thank you once again for all\nyour support and generosity!"
  },
  {
    "label": "108",
    "text": ""
  },
  {
    "label": "109",
    "text": "We pride ourselves in exhibiting all\ndonations in a timely manner.{{fun_00010007 arg=\"\"}}\n{{anim id=\"1\"}}Thank you very much!"
  },
  {
    "label": "111",
    "text": "{{delay frames=\"5\"}}{{anim id=\"16\"}}{{delay frames=\"10\"}}Ooh hoo!{{delay frames=\"20\"}} {{anim id=\"1\"}}More than one, I see!{{fun_00010007 arg=\"\"}}\n{{fun_00040007 arg=\"\"}}{{anim id=\"11\"}}{{delay frames=\"5\"}}Let's take a closer look{{delay frames=\"10\"}}.{{delay frames=\"10\"}}.{{delay frames=\"10\"}}.{{delay frames=\"20\"}}{{fun_00050007 arg=\"\"}}{{fun_00090007 arg=\"0x1E000000\"}}"
  },
  {
    "label": "112",
    "text": "{{anim id=\"18\"}}Hoo hoo!{{delay frames=\"20\"}} All of these are rare\nfossils not yet found in our\nmuseum's collection{{delay frames=\"10\"}}.{{delay frames=\"10\"}}.{{delay frames=\"10\"}}.\n{{anim id=\"3\"}}What a surprise!{{delay frames=\"20\"}} You have a knack\nfor finding fossils, don't you?{{pageBreak}}{{anim id=\"0\"}}I'm {{anim id=\"21\"}}incredibly jealous{{delay frames=\"10\"}}.{{delay frames=\"10\"}}.{{delay frames=\"10\"}}.{{delay frames=\"15\"}} {{anim id=\"11\"}}I hope I can\nconvince you to donate them for\n{{fun_00050005 arg=\"\"}}'s cultural development{{delay frames=\"10\"}}.{{delay frames=\"10\"}}.{{delay frames=\"10\"}}.\n{{anim id=\"0\"}}In the meantime, {{delay frames=\"10\"}}I shall return\nthese to you{{delay frames=\"10\"}}.{{delay frames=\"10\"}}.{{delay frames=\"10\"}}. Do think about\ndonating them, though! Hoo!"
  },
  {
    "label": "113",
    "text": "{{anim id=\"18\"}}Hoo hoo!{{delay frames=\"20\"}} I do believe I've found\nsomething that's not yet part of\nour museum's collection{{delay frames=\"10\"}}.{{delay frames=\"10\"}}.{{delay frames=\"10\"}}.\n{{anim id=\"3\"}}It's really most stunning!{{delay frames=\"20\"}} I believe\nyou have a natural talent for fossils!{{pageBreak}}{{anim id=\"0\"}}I'm {{anim id=\"21\"}}rather jealous{{delay frames=\"10\"}}.{{delay frames=\"10\"}}.{{delay frames=\"10\"}}.{{delay frames=\"15\"}} {{anim id=\"11\"}}I hope I can\nperhaps convince you to assist with\n{{fun_00050005 arg=\"\"}}'s cultural education{{delay frames=\"10\"}}.{{delay frames=\"10\"}}.{{delay frames=\"10\"}}.\n{{anim id=\"0\"}}In the meantime,{{delay frames=\"10\"}} I shall return\nthese to you{{delay frames=\"10\"}}.{{delay frames=\"10\"}}.{{delay frames=\"10\"}}. Do think about\ndonating, though! Hoo hoot!"
  },
  {
    "label": "114",
    "text": "{{anim id=\"3\"}}Well, well{{delay frames=\"8\"}}.{{delay frames=\"8\"}}.{{delay frames=\"8\"}}.{{delay frames=\"20\"}} All of these are simply\nquite splendid!{{delay frames=\"8\"}} In fact,{{delay frames=\"8\"}} our museum\nalready has these fossils on display!\n{{anim id=\"0\"}}If only {{anim id=\"11\"}}I had the funds,\nI'd buy them for my own\npersonal collection{{delay frames=\"8\"}}.{{delay frames=\"8\"}}.{{delay frames=\"8\"}}.\n{{anim id=\"1\"}}I suppose some dreams aren't\nmeant to come true every day.{{delay frames=\"5\"}}\nFor now, I'll give these back to you."
  },
  {
    "label": "115",
    "text": ""
  }
]