﻿[
  {
    "label": "001",
    "text": "{{fun_0000000C arg=\"\"}}{{fun_0005000C arg=\"\"}}{{fun_0001000C arg=\"\"}}{{fun_0004000C arg=\"\"}}{{anim id=\"37\"}}You're here just in time, {{fun_00080005 arg=\"\"}}.{{delay frames=\"20\"}}\n{{fun_00010011 arg=\"0x0100\"}} was about to tell me\nsomething that's been on her mind!{{fun_0009000C arg=\"\"}}"
  },
  {
    "label": "002",
    "text": "{{fun_0000000C arg=\"\"}}{{fun_0007000C arg=\"\"}}{{fun_0002000C arg=\"\"}}{{fun_0004000C arg=\"\"}}{{anim id=\"10\"}}{{delay frames=\"30\"}}Well, I didn't mean for everyone in\ntown to know about it. {{delay frames=\"20\"}}But as long\nas you're here, {{fun_00080005 arg=\"\"}}.{{delay frames=\"5\"}}.{{delay frames=\"5\"}}.{{delay frames=\"5\"}}{{fun_00050008 arg=\"0x030015000A002800\"}}\nI'm curious!\nIt's your business."
  },
  {
    "label": "003",
    "text": "{{fun_0001000C arg=\"\"}}{{fun_0007000C arg=\"\"}}{{fun_0002000C arg=\"\"}}{{anim id=\"9\"}}OK, fine.{{delay frames=\"5\"}}.{{delay frames=\"5\"}}.{{delay frames=\"5\"}} I'm trying to become\nperfect at {{fun_00120005 arg=\"0x0301\"}}. {{delay frames=\"20\"}}But\nit's not going very well.{{fun_0009000C arg=\"\"}}"
  },
  {
    "label": "004",
    "text": "{{fun_0000000C arg=\"\"}}{{fun_0005000C arg=\"\"}}{{fun_0002000C arg=\"\"}}{{fun_0005000C arg=\"\"}}{{fun_0001000C arg=\"\"}}{{anim id=\"37\"}}I'm sure you can do anything\nyou put your mind to, {{fun_00010011 arg=\"0x0100\"}}!{{fun_0009000C arg=\"\"}}"
  },
  {
    "label": "005",
    "text": "{{fun_0000000C arg=\"\"}}{{fun_0007000C arg=\"\"}}{{anim id=\"6\"}}Easy for you to say. {{delay frames=\"20\"}}I bet you're\na natural at {{fun_00120005 arg=\"0x0301\"}}.{{pageBreak}}{{anim id=\"27\"}}Anyway, there's more to it.\nI'm trying to.{{delay frames=\"5\"}}.{{delay frames=\"5\"}}.{{delay frames=\"5\"}}impress someone.{{fun_0009000C arg=\"\"}}"
  },
  {
    "label": "006",
    "text": "{{fun_0000000C arg=\"\"}}{{fun_0005000C arg=\"\"}}{{anim id=\"33\"}}Well, {{delay frames=\"8\"}}you're right.{{delay frames=\"16\"}} I doubt there's\nanyone better in town than me\nat {{fun_00120005 arg=\"0x0301\"}}, {{delay frames=\"8\"}}but I.{{delay frames=\"5\"}}.{{delay frames=\"5\"}}.{{delay frames=\"5\"}}\n{{anim id=\"17\"}}Wait—{{delay frames=\"5\"}}WHAT did you say? {{delay frames=\"20\"}}You're\ntrying to impress someone?{{delay frames=\"20\"}}\n{{anim id=\"13\"}}Who is it, {{fun_00010011 arg=\"0x0100\"}}? {{delay frames=\"10\"}}Tell us!{{fun_0009000C arg=\"\"}}"
  },
  {
    "label": "007",
    "text": "{{fun_0000000C arg=\"\"}}{{fun_0007000C arg=\"\"}}{{fun_00000009 arg=\"0x08000900\"}}"
  },
  {
    "label": "008",
    "text": "{{fun_0001000C arg=\"\"}}{{fun_0003000C arg=\"\"}}{{fun_0002000C arg=\"\"}}{{fun_0003000C arg=\"\"}}{{anim id=\"26\"}}A good friend. {{delay frames=\"20\"}}And that's all I'm\ngoing to say about it."
  },
  {
    "label": "009",
    "text": "{{anim id=\"19\"}}{{delay frames=\"20\"}}No one you know. {{delay frames=\"20\"}}{{anim id=\"9\"}}And I think\nthat's all I'm going to say\nabout it.{{delay frames=\"5\"}}.{{delay frames=\"5\"}}.{{delay frames=\"5\"}}OK?"
  },
  {
    "label": "010",
    "text": "{{anim id=\"37\"}}Thanks, {{fun_00080005 arg=\"\"}}. {{delay frames=\"20\"}}At least I can\ncount on you to be thoughtful.{{delay frames=\"5\"}}.{{delay frames=\"5\"}}.{{delay frames=\"5\"}}\n{{anim id=\"19\"}}{{delay frames=\"20\"}}unlike some others."
  },
  {
    "label": "011",
    "text": ""
  },
  {
    "label": "012",
    "text": ""
  },
  {
    "label": "013",
    "text": ""
  },
  {
    "label": "014",
    "text": ""
  },
  {
    "label": "015",
    "text": ""
  },
  {
    "label": "016",
    "text": "{{fun_0000000C arg=\"\"}}{{fun_0005000C arg=\"\"}}{{fun_0002000C arg=\"\"}}{{fun_0004000C arg=\"\"}}{{fun_0003000C arg=\"\"}}{{fun_0001000C arg=\"\"}}{{fun_0004000C arg=\"\"}}{{fun_0003000C arg=\"\"}}{{anim id=\"1\"}}Oh, {{fun_00080005 arg=\"\"}}! {{delay frames=\"10\"}}I was just about to\ntell {{fun_00010011 arg=\"0x0100\"}} about the right\nway to serve dessert!{{fun_0009000C arg=\"\"}}"
  },
  {
    "label": "017",
    "text": "{{fun_0000000C arg=\"\"}}{{fun_0007000C arg=\"\"}}{{anim id=\"39\"}}You.{{delay frames=\"5\"}}.{{delay frames=\"5\"}}.{{delay frames=\"5\"}}do eat dessert, right,\n{{fun_00080005 arg=\"\"}}?{{fun_0009000C arg=\"\"}}{{fun_00020008 arg=\"0x12001500120015001800280018002800\"}}\nAll the time!\nSometimes.\nRarely.\nNever!"
  },
  {
    "label": "018",
    "text": "{{fun_0009000C arg=\"\"}}{{anim id=\"27\"}}Well then, you'll be interested in\nmy dessert wisdom too, {{fun_00080005 arg=\"\"}}.{{fun_0009000C arg=\"\"}}"
  },
  {
    "label": "019",
    "text": "{{fun_0000000C arg=\"\"}}{{fun_0007000C arg=\"\"}}{{fun_0001000C arg=\"\"}}{{fun_0007000C arg=\"\"}}{{anim id=\"21\"}}OK, so when I'm serving some\n{{fun_00100005 arg=\"0x0201\"}} to friends.{{delay frames=\"5\"}}.{{delay frames=\"5\"}}.{{delay frames=\"5\"}}{{fun_0009000C arg=\"\"}}"
  },
  {
    "label": "020",
    "text": "{{fun_0000000C arg=\"\"}}{{fun_0005000C arg=\"\"}}{{fun_0002000C arg=\"\"}}{{fun_0005000C arg=\"\"}}{{fun_0001000C arg=\"\"}}{{fun_0007000C arg=\"\"}}{{anim id=\"33\"}}Yes, {{delay frames=\"8\"}}you should serve only 1 dish\nof {{fun_00100005 arg=\"0x0201\"}}. {{delay frames=\"20\"}}But with\nmultiple spoons.{{fun_0009000C arg=\"\"}}"
  },
  {
    "label": "021",
    "text": "{{fun_0000000C arg=\"\"}}{{fun_0007000C arg=\"\"}}{{anim id=\"23\"}}One dish? {{delay frames=\"20\"}}You've got to be joking.{{delay frames=\"10\"}}{{anim id=\"9\"}}\nWho wants to share dessert?{{fun_0009000C arg=\"\"}}"
  },
  {
    "label": "022",
    "text": "{{fun_0000000C arg=\"\"}}{{fun_0005000C arg=\"\"}}{{anim id=\"9\"}}That's the most important thing!{{delay frames=\"20\"}}\nDessert brings people together.{{pageBreak}}{{anim id=\"27\"}}And there's nothing that creates\na bond better than sharing a single\nserving of {{fun_00100005 arg=\"0x0201\"}}!{{fun_0009000C arg=\"\"}}"
  },
  {
    "label": "023",
    "text": "{{fun_0000000C arg=\"\"}}{{fun_0007000C arg=\"\"}}Uh.{{delay frames=\"5\"}}.{{delay frames=\"5\"}}.{{delay frames=\"5\"}}I guess I'll try it. {{delay frames=\"10\"}}{{anim id=\"13\"}}I just hope\nmy guests don't think I'm just\nbeing cheap."
  },
  {
    "label": "024",
    "text": "{{fun_0000000C arg=\"\"}}{{fun_0005000C arg=\"\"}}{{fun_0001000A arg=\"0x19001A00\"}}"
  },
  {
    "label": "025",
    "text": "{{anim id=\"17\"}}What, {{delay frames=\"8\"}}not a fan of dessert?{{delay frames=\"16\"}} {{anim id=\"13\"}}But I\nthought all boys liked dessert!{{delay frames=\"20\"}}\nI mean, don't they? {{delay frames=\"10\"}}Am I wrong?!{{fun_0009000C arg=\"\"}}"
  },
  {
    "label": "026",
    "text": "{{anim id=\"17\"}}What, {{delay frames=\"8\"}}don't you like sweets? {{delay frames=\"16\"}}{{anim id=\"13\"}}But I\nthought we girls all love dessert?{{delay frames=\"20\"}}\nWait—am I wrong? {{delay frames=\"10\"}}Totally wrong?!{{fun_0009000C arg=\"\"}}"
  },
  {
    "label": "027",
    "text": "{{fun_0000000C arg=\"\"}}{{fun_0007000C arg=\"\"}}{{anim id=\"37\"}}Well, I like dessert, {{fun_00080005 arg=\"\"}}.{{delay frames=\"20\"}}\nMaybe I'll invite you over for\n{{fun_00100005 arg=\"0x0300\"}} sometime, {{delay frames=\"5\"}}{{anim id=\"32\"}}OK?"
  },
  {
    "label": "028",
    "text": ""
  },
  {
    "label": "029",
    "text": ""
  },
  {
    "label": "030",
    "text": "{{fun_0000000C arg=\"\"}}{{fun_0005000C arg=\"\"}}{{anim id=\"9\"}}You shouldn't make your ice-cream\ncake in the shape of {{fun_0002000E arg=\"\"}}\n{{fun_000F0005 arg=\"0x0201\"}}, {{fun_00010011 arg=\"0x0100\"}}!{{fun_0009000C arg=\"\"}}"
  },
  {
    "label": "031",
    "text": "{{fun_0000000C arg=\"\"}}{{fun_0007000C arg=\"\"}}{{anim id=\"27\"}}Why not? {{delay frames=\"20\"}}It seems like a fun idea\nfor a cake.{{fun_0009000C arg=\"\"}}"
  },
  {
    "label": "032",
    "text": "{{fun_0000000C arg=\"\"}}{{fun_0005000C arg=\"\"}}{{anim id=\"13\"}}Cakes should be round! {{delay frames=\"10\"}}Or square!{{delay frames=\"10\"}}\nNever shaped otherwise! {{delay frames=\"20\"}}And not\nlike {{fun_0002000E arg=\"\"}}{{fun_000F0005 arg=\"0x0201\"}}!{{fun_0009000C arg=\"\"}}"
  },
  {
    "label": "033",
    "text": "{{fun_0000000C arg=\"\"}}{{fun_0007000C arg=\"\"}}{{anim id=\"15\"}}I can't believe you have such a\nstrong opinion about cakes.{{fun_0009000C arg=\"\"}}"
  },
  {
    "label": "034",
    "text": "{{fun_0000000C arg=\"\"}}{{fun_0005000C arg=\"\"}}{{anim id=\"7\"}}Well, I can't believe you'd make a\ncake in some weird shape!{{delay frames=\"20\"}} That\nmakes us even!"
  }
]