﻿[
  {
    "label": "001",
    "text": "{{anim id=\"15\"}}Oh!{{delay frames=\"8\"}} What are you doing here?{{delay frames=\"60\"}}\nJust visiting? {{delay frames=\"8\"}}{{anim id=\"37\"}}Me too!{{delay frames=\"8\"}} What a\ncoincidence!"
  },
  {
    "label": "002",
    "text": "{{i10_7 arg=\"0x160016001500150016001600\"}}"
  },
  {
    "label": "003",
    "text": "{{i10_7 arg=\"0x160016001500150016001600\"}}"
  },
  {
    "label": "004",
    "text": ""
  },
  {
    "label": "005",
    "text": ""
  },
  {
    "label": "006",
    "text": "{{fun_00050009 arg=\"0x1700180019001A001B001C001D00\"}}"
  },
  {
    "label": "007",
    "text": "{{fun_00050009 arg=\"0x1700180019001A001B001E001F00\"}}"
  },
  {
    "label": "008",
    "text": "That's right!{{delay frames=\"8\"}} The fabulous Ms.\n{{fun_00010005 arg=\"\"}} is moving to your\ntown! {{anim id=\"44\"}}{{delay frames=\"8\"}}{{fun_0003000E arg=\"\"}}{{fun_00070005 arg=\"\"}}!\n{{anim id=\"11\"}}All that's left to do is select a\nsuitable packing outfit.{{delay frames=\"30\"}} {{anim id=\"2\"}}And pack,{{delay frames=\"8\"}}\nI suppose."
  },
  {
    "label": "009",
    "text": "{{anim id=\"39\"}}Funny story...{{delay frames=\"8\"}}a little birdie—{{delay frames=\"8\"}}or some\nkind of ghost,{{delay frames=\"8\"}} I couldn't tell—{{delay frames=\"8\"}}asked\nme to move here.\n{{anim id=\"21\"}}I was looking for a change anyway,{{delay frames=\"8\"}}\nso it seemed like the perfect\nopportunity. {{delay frames=\"8\"}}{{fun_0003000E arg=\"\"}}{{fun_00070005 arg=\"\"}}!\n{{anim id=\"33\"}}Well, {{delay frames=\"8\"}}I'm sure we'll have many\nother occasions to exchange\npleasantries. {{delay frames=\"8\"}}Ta-ta!"
  },
  {
    "label": "010",
    "text": "{{anim id=\"37\"}}Oh,{{delay frames=\"8\"}} it's you! {{delay frames=\"8\"}}What's up?{{fun_0006000F arg=\"0x000000000000\"}}\nLet's talk.\nYou should move here!\nNever mind."
  },
  {
    "label": "011",
    "text": "{{anim id=\"15\"}}Never mind? {{delay frames=\"8\"}}You came all the way\nover here to see me, {{delay frames=\"8\"}}didn't you?{{delay frames=\"20\"}}{{anim id=\"6\"}}\nI expect some banter!"
  },
  {
    "label": "012",
    "text": ""
  },
  {
    "label": "013",
    "text": ""
  },
  {
    "label": "014",
    "text": ""
  },
  {
    "label": "015",
    "text": ""
  },
  {
    "label": "016",
    "text": ""
  },
  {
    "label": "017",
    "text": ""
  },
  {
    "label": "018",
    "text": ""
  },
  {
    "label": "019",
    "text": ""
  },
  {
    "label": "021",
    "text": "{{anim id=\"32\"}}Oh,{{delay frames=\"8\"}} hello. {{delay frames=\"8\"}}This is a lovely town\nyou've got here.{{delay frames=\"8\"}} {{fun_0003000E arg=\"\"}}{{fun_00070005 arg=\"\"}}!{{pageBreak}}{{anim id=\"36\"}}Yes{{delay frames=\"4\"}}.{{delay frames=\"4\"}}.{{delay frames=\"4\"}}.I'd hardly change a thing if\nI were mayor. Just a few dozen\nultra-minor details here and there{{delay frames=\"4\"}}.{{delay frames=\"4\"}}.{{delay frames=\"4\"}}."
  },
  {
    "label": "022",
    "text": "{{anim id=\"15\"}}Oh,{{delay frames=\"20\"}} hello.{{anim id=\"0\"}} {{anim id=\"37\"}}{{delay frames=\"8\"}}Do you live here?{{delay frames=\"8\"}}\nWell!{{delay frames=\"8\"}} It's a pleasure to visit.\n{{fun_0003000E arg=\"\"}}{{fun_00070005 arg=\"\"}}!\nNow,{{delay frames=\"8\"}} there's no need to make\na fuss over me.{{delay frames=\"8\"}} {{anim id=\"44\"}}You can just treat\nme like a regular citizen{{delay frames=\"4\"}}.{{delay frames=\"4\"}}.{{delay frames=\"4\"}}."
  },
  {
    "label": "023",
    "text": "{{anim id=\"10\"}}Ooh.{{delay frames=\"8\"}} My shoulders are killing me.{{delay frames=\"8\"}}\nNext time,{{delay frames=\"8\"}} I'm hiring a chauffeur."
  },
  {
    "label": "024",
    "text": "{{anim id=\"23\"}}Excuse me, {{delay frames=\"8\"}}can you tell me where\nto find this campground's spa\nservice?{{pageBreak}}{{anim id=\"2\"}}{{fun_0003000E arg=\"\"}}{{fun_00070005 arg=\"\"}}!{{delay frames=\"8\"}} I'm joking.{{delay frames=\"40\"}}\n{{delay frames=\"4\"}}.{{delay frames=\"4\"}}.{{delay frames=\"4\"}}.{{anim id=\"11\"}}Unless there really is a\nspa service{{delay frames=\"4\"}}.{{delay frames=\"4\"}}.{{delay frames=\"4\"}}."
  },
  {
    "label": "025",
    "text": "{{anim id=\"37\"}}I can't even believe how well one\ncan live out of a car these days.{{delay frames=\"8\"}}\nIsn't it fabulous?{{delay frames=\"8\"}} {{fun_0003000E arg=\"\"}}{{fun_00070005 arg=\"\"}}!"
  },
  {
    "label": "026",
    "text": "{{anim id=\"33\"}}Please don't question my driving\nor parking skills. {{delay frames=\"8\"}}You couldn't begin\nto understand the level I'm on."
  },
  {
    "label": "027",
    "text": "{{anim id=\"40\"}}I never thought of myself as the\ncamping type{{delay frames=\"4\"}}.{{delay frames=\"4\"}}.{{delay frames=\"4\"}}.{{pageBreak}}{{anim id=\"36\"}}But {{delay frames=\"8\"}}then again, {{delay frames=\"8\"}}I never realized that\nI could camp in such style!"
  },
  {
    "label": "028",
    "text": "{{anim id=\"23\"}}Why did I come to this town{{delay frames=\"8\"}}\nspecifically? {{fun_0003000E arg=\"\"}}{{fun_00070005 arg=\"\"}}?{{pageBreak}}{{anim id=\"43\"}}Oh,{{delay frames=\"8\"}} I don't know. {{delay frames=\"8\"}}To see the\nsights, {{delay frames=\"8\"}}to taste the flavors{{delay frames=\"4\"}}.{{delay frames=\"4\"}}.{{delay frames=\"4\"}}.{{delay frames=\"8\"}}\nWhy does anyone do anything?"
  },
  {
    "label": "029",
    "text": "{{anim id=\"37\"}}I'm not one of those people who\nneeds to get a new car every\nfive minutes, {{delay frames=\"8\"}}you know.\n{{anim id=\"21\"}}I've been perfectly happy with\nmy vehicle for years!{{pageBreak}}Now, {{delay frames=\"8\"}}my shoes, {{delay frames=\"8\"}}on the other hand{{delay frames=\"4\"}}.{{delay frames=\"4\"}}.{{delay frames=\"4\"}}."
  },
  {
    "label": "030",
    "text": "{{anim id=\"39\"}}Don't look too closely at anything\nin here.{{delay frames=\"8\"}} I haven't been tidying up\nto my usual standards{{delay frames=\"4\"}}.{{delay frames=\"4\"}}.{{delay frames=\"4\"}}."
  },
  {
    "label": "031",
    "text": "{{anim id=\"9\"}}I bet you're wondering why I\ndecided to visit your town,{{delay frames=\"8\"}}\naren't you?\n{{anim id=\"11\"}}Well,{{delay frames=\"8\"}} it's funny{{delay frames=\"4\"}}.{{delay frames=\"4\"}}.{{delay frames=\"4\"}}. I just started\ndriving,{{delay frames=\"8\"}} and it was almost like\nI was on autopilot!\n{{anim id=\"40\"}}I didn't check a map or even think\nabout where I was going. {{delay frames=\"8\"}}Isn't\nthat bizarre?\n{{anim id=\"3\"}}I suppose it's destiny, {{delay frames=\"8\"}}isn't it?{{delay frames=\"8\"}}\n{{fun_0003000E arg=\"\"}}{{fun_00070005 arg=\"\"}}!"
  }
]