﻿[
  {
    "label": "001",
    "text": "{{anim id=\"37\"}}Hey there, {{delay frames=\"8\"}}{{fun_00080005 arg=\"\"}}. {{delay frames=\"8\"}}Have you\nheard?{{delay frames=\"8\"}} {{anim id=\"3\"}}Today is {{color id=\"2\"}}Festivale{{color id=\"65535\"}}!{{pageBreak}}{{anim id=\"5\"}}Shake it to the left{{fun_000A0007 arg=\"\"}},{{delay frames=\"16\"}} shake it to the\nright,{{fun_000A0007 arg=\"\"}}{{delay frames=\"16\"}} shake it in the streets of\n{{fun_00050005 arg=\"\"}} {{delay frames=\"8\"}}all through the {{fun_000B0007 arg=\"\"}}night!"
  },
  {
    "label": "002",
    "text": "{{anim id=\"23\"}}Have you seen all the {{color id=\"2\"}}feathers{{color id=\"65535\"}}\nfloating around today?{{delay frames=\"8\"}} {{anim id=\"22\"}}You can\ncollect them right out of the sky!\nIf you have any extras,{{delay frames=\"8\"}} or you want\nto trade, {{delay frames=\"8\"}}{{anim id=\"21\"}}just come see me.{{delay frames=\"8\"}}\n{{fun_0003000E arg=\"\"}}{{fun_00070005 arg=\"\"}}!"
  },
  {
    "label": "003",
    "text": ""
  },
  {
    "label": "004",
    "text": ""
  },
  {
    "label": "005",
    "text": "{{anim id=\"21\"}}Looking sharp,{{delay frames=\"8\"}} {{fun_00080005 arg=\"\"}}. {{delay frames=\"8\"}}You\nreally know how to get into the\ngroove of {{color id=\"2\"}}Festivale{{color id=\"65535\"}}!\nNow let's see if you've got the\nmoves to match{{delay frames=\"8\"}}.{{delay frames=\"8\"}}.{{delay frames=\"8\"}}.{{delay frames=\"32\"}} DANCE OFF!{{anim id=\"44\"}}{{delay frames=\"80\"}}{{anim id=\"42\"}}{{delay frames=\"80\"}}{{anim id=\"44\"}}{{delay frames=\"80\"}}{{anim id=\"0\"}}"
  },
  {
    "label": "006",
    "text": "That's what I like to see{{anim id=\"29\"}}{{delay frames=\"8\"}}.{{delay frames=\"8\"}}.{{delay frames=\"8\"}}.{{delay frames=\"8\"}}everyone\ndressing up and having fun.\n{{fun_0003000E arg=\"\"}}{{fun_00070005 arg=\"\"}}, looking good!"
  },
  {
    "label": "007",
    "text": "{{anim id=\"5\"}}Shake it like a{{delay frames=\"8\"}}.{{delay frames=\"8\"}}.{{delay frames=\"8\"}}.{{delay frames=\"8\"}}common object that\nis frequently shaken vigorously!{{pageBreak}}{{anim id=\"13\"}}Am I getting too old for this\nholiday?"
  },
  {
    "label": "008",
    "text": "{{anim id=\"6\"}}Lighten up,{{delay frames=\"8\"}} {{fun_00080005 arg=\"\"}}.{{delay frames=\"16\"}} Today is\n{{color id=\"2\"}}Festivale{{color id=\"65535\"}}! {{anim id=\"5\"}}{{delay frames=\"8\"}}Turn up the\n{{fun_00140005 arg=\"0x0000\"}} and dance!"
  },
  {
    "label": "009",
    "text": "Admit it,{{delay frames=\"8\"}} {{fun_00080005 arg=\"\"}}. {{delay frames=\"8\"}}I'm the best\ndancer you've seen.{{delay frames=\"8\"}}{{anim id=\"42\"}} {{fun_0003000E arg=\"\"}}{{fun_00070005 arg=\"\"}}!"
  },
  {
    "label": "010",
    "text": "I don't like dancing{{delay frames=\"8\"}}.{{delay frames=\"8\"}}.{{delay frames=\"8\"}}.{{delay frames=\"8\"}}{{anim id=\"3\"}} I LOVE it!{{delay frames=\"16\"}}"
  },
  {
    "label": "011",
    "text": "{{anim id=\"31\"}}Today's the day to dance like\nyou've got ants in your pants! {{delay frames=\"8\"}}{{anim id=\"29\"}}So\njump ON it,{{delay frames=\"8\"}} {{fun_00080005 arg=\"\"}}!"
  },
  {
    "label": "012",
    "text": "{{anim id=\"1\"}}Happy {{color id=\"2\"}}Festivale{{color id=\"65535\"}}, {{delay frames=\"8\"}}{{fun_00080005 arg=\"\"}}! The\nday is young{{delay frames=\"8\"}}.{{delay frames=\"8\"}}.{{delay frames=\"8\"}}.{{delay frames=\"8\"}} Let's get this party\nstarted!"
  },
  {
    "label": "013",
    "text": "{{anim id=\"5\"}}{{fun_0003000E arg=\"\"}}{{fun_00070005 arg=\"\"}}, {{delay frames=\"8\"}}I'm just getting\nstarted. {{delay frames=\"8\"}}Think you can keep up?"
  },
  {
    "label": "014",
    "text": "{{anim id=\"9\"}}All this dancing is wearing me out{{delay frames=\"8\"}}.{{delay frames=\"8\"}}.{{delay frames=\"8\"}}.{{delay frames=\"8\"}}{{fun_00010007 arg=\"\"}}\nPsych!{{delay frames=\"16\"}}{{anim id=\"44\"}} I can keep rocking out until \nthe breaka breaka dawn!"
  },
  {
    "label": "015",
    "text": ""
  },
  {
    "label": "016",
    "text": ""
  },
  {
    "label": "017",
    "text": ""
  },
  {
    "label": "018",
    "text": ""
  },
  {
    "label": "019",
    "text": ""
  },
  {
    "label": "020",
    "text": ""
  },
  {
    "label": "021",
    "text": "{{anim id=\"9\"}}I'm sure I'm missing out on a great\ndance party{{delay frames=\"8\"}}.{{delay frames=\"8\"}}.{{delay frames=\"8\"}}.{{delay frames=\"8\"}}but I just can't find\nthe right outfit. {{fun_0003000E arg=\"\"}}{{fun_00070005 arg=\"\"}}{{delay frames=\"8\"}}.{{delay frames=\"8\"}}.{{delay frames=\"8\"}}.{{delay frames=\"8\"}}"
  },
  {
    "label": "022",
    "text": "{{anim id=\"4\"}}I can hear the music from in here{{delay frames=\"8\"}}.{{delay frames=\"8\"}}.{{delay frames=\"8\"}}.{{delay frames=\"8\"}}\n{{anim id=\"23\"}}What do you think, {{delay frames=\"8\"}}{{fun_00080005 arg=\"\"}}?{{delay frames=\"8\"}}\nShould I head out and dance?"
  },
  {
    "label": "023",
    "text": "{{anim id=\"13\"}}I want to go join in all the fun,{{delay frames=\"8\"}} but I\ndon't know what to wear.{{delay frames=\"8\"}}{{pageBreak}}{{anim id=\"9\"}}I never thought I'd say this, {{delay frames=\"8\"}}but I\nhave too many clothes. {{delay frames=\"8\"}}{{anim id=\"17\"}}Wait—{{delay frames=\"8\"}}I take\nit back!"
  },
  {
    "label": "024",
    "text": "{{fun_0001000A arg=\"0x1D001E00\"}}"
  },
  {
    "label": "025",
    "text": "{{anim id=\"11\"}}Seems like there's a big party going\non out there. {{delay frames=\"16\"}}{{anim id=\"23\"}}{{fun_0003000E arg=\"\"}}{{fun_00070005 arg=\"\"}}, what\nam I doing in here?"
  },
  {
    "label": "026",
    "text": "{{anim id=\"1\"}}Morning, {{delay frames=\"8\"}}{{fun_00080005 arg=\"\"}}.{{delay frames=\"8\"}} I'm just\ngetting ready for {{color id=\"2\"}}Festivale{{color id=\"65535\"}}.{{delay frames=\"16\"}}\n{{anim id=\"3\"}}{{fun_0003000E arg=\"\"}}{{fun_00070005 arg=\"\"}},{{delay frames=\"8\"}} it's so fun!"
  },
  {
    "label": "027",
    "text": "{{anim id=\"15\"}}I almost forgot{{delay frames=\"8\"}}.{{delay frames=\"8\"}}.{{delay frames=\"8\"}}.{{delay frames=\"8\"}}today is {{color id=\"2\"}}Festivale{{color id=\"65535\"}}!{{delay frames=\"8\"}}\n{{anim id=\"29\"}}I'm saving my dance moves for\nwhen the party heats up tonight."
  },
  {
    "label": "028",
    "text": "{{anim id=\"29\"}}It's so fun to hear the kids out\npartying and dancing.{{pageBreak}}{{anim id=\"27\"}}If they're still going at 3 a.m.,{{delay frames=\"8\"}} I may\nbe slightly less enthusiastic{{delay frames=\"8\"}}.{{delay frames=\"8\"}}.{{delay frames=\"8\"}}.{{delay frames=\"8\"}}"
  },
  {
    "label": "029",
    "text": "You want to see my dance moves?\nAll right, buckle your seat belt{{delay frames=\"8\"}}.{{delay frames=\"8\"}}.{{delay frames=\"8\"}}.{{delay frames=\"20\"}}\n{{anim id=\"44\"}}{{delay frames=\"16\"}}{{fun_0003000E arg=\"\"}}{{fun_00070005 arg=\"\"}}!"
  },
  {
    "label": "030",
    "text": "{{anim id=\"23\"}}You want to see my dance moves?{{delay frames=\"8\"}}\nWhy? {{delay frames=\"8\"}}So you can copy them?{{delay frames=\"8\"}}{{anim id=\"40\"}} Sorry,{{delay frames=\"8\"}}\nsister.{{delay frames=\"8\"}} You'll have to wait."
  },
  {
    "label": "031",
    "text": ""
  },
  {
    "label": "032",
    "text": "{{anim id=\"15\"}}Oh,{{delay frames=\"8\"}} wow, {{delay frames=\"8\"}}is that really {{fun_0002000E arg=\"\"}}\n{{fun_00030011 arg=\"0x0000\"}}?{{pageBreak}}{{anim id=\"23\"}}Any chance you'd be willing to trade\nfor my {{fun_00030011 arg=\"0x0100\"}}?{{fun_0005000F arg=\"0x15002800\"}}\nDeal!\nNo way."
  },
  {
    "label": "033",
    "text": "{{anim id=\"16\"}}{{fun_0003000E arg=\"\"}}{{fun_00070005 arg=\"\"}}, {{delay frames=\"8\"}}you've managed to\nfind {{fun_0002000E arg=\"\"}}{{fun_00030011 arg=\"0x0000\"}}!{{pageBreak}}{{anim id=\"23\"}}How about trading for my\n{{fun_00030011 arg=\"0x0100\"}}?{{fun_0005000F arg=\"0x15002800\"}}\nSounds good.\nNo way!"
  },
  {
    "label": "034",
    "text": "{{anim id=\"38\"}}Yesss! {{anim id=\"29\"}}{{delay frames=\"16\"}}I've always wanted one of\nthese."
  },
  {
    "label": "035",
    "text": "{{anim id=\"3\"}}Wonderful!{{delay frames=\"8\"}} I'm glad we could work\nout a trade that makes us both\nhappy."
  },
  {
    "label": "036",
    "text": "{{anim id=\"1\"}}Thanks, {{fun_00080005 arg=\"\"}}! I'm so glad we\nran into each other."
  },
  {
    "label": "037",
    "text": "This is great! {{delay frames=\"16\"}}Now I'll be able to\ncomplete my collection. {{anim id=\"38\"}}{{delay frames=\"8\"}}Thank you!"
  },
  {
    "label": "038",
    "text": "Well, {{delay frames=\"8\"}}{{anim id=\"27\"}}that doesn't seem very much\nin the spirit of {{color id=\"2\"}}Festivale{{color id=\"65535\"}},{{delay frames=\"8\"}} but\nwhatever{{delay frames=\"8\"}}.{{delay frames=\"8\"}}.{{delay frames=\"8\"}}.{{delay frames=\"8\"}}"
  },
  {
    "label": "039",
    "text": "Ah,{{delay frames=\"8\"}} that's too bad. {{delay frames=\"8\"}}{{anim id=\"39\"}}Well, {{delay frames=\"8\"}}{{fun_00050005 arg=\"\"}}\nis filled with fun stuff today{{delay frames=\"8\"}}.{{delay frames=\"8\"}}.{{delay frames=\"8\"}}.{{delay frames=\"8\"}}\nMaybe I can find another one."
  },
  {
    "label": "040",
    "text": ""
  },
  {
    "label": "041",
    "text": ""
  },
  {
    "label": "042",
    "text": "{{anim id=\"23\"}}So, {{delay frames=\"8\"}}{{fun_00080005 arg=\"\"}}{{delay frames=\"8\"}}.{{delay frames=\"8\"}}.{{delay frames=\"8\"}}.{{delay frames=\"8\"}}are you interested\nin a friendly game?{{pageBreak}}{{anim id=\"36\"}}If you win, {{delay frames=\"8\"}}I'll give you one of my\npremium feathers.{{pageBreak}}{{anim id=\"28\"}}But if I win, {{delay frames=\"8\"}}then I get to take one\nof yours!{{pageBreak}}{{anim id=\"29\"}}{{fun_0003000E arg=\"\"}}{{fun_00070005 arg=\"\"}}, {{delay frames=\"8\"}}it'll be fun!{{delay frames=\"8\"}} What do\nyou say?{{fun_0005000F arg=\"0x15002800\"}}\nLet's do it!\nNot right now."
  },
  {
    "label": "043",
    "text": "{{anim id=\"22\"}}In the mood for a little game,{{delay frames=\"8\"}}\n{{fun_00080005 arg=\"\"}}?{{pageBreak}}{{anim id=\"21\"}}It's simple. {{delay frames=\"8\"}}I choose the game. {{delay frames=\"8\"}}If you\nwin, {{delay frames=\"8\"}}I'll give you one of my precious\nfeathers.\n{{anim id=\"1\"}}But if I win, {{delay frames=\"8\"}}then I get to take one\nof yours.{{pageBreak}}{{anim id=\"36\"}}You're fair game,{{delay frames=\"8\"}} I promise.{{delay frames=\"16\"}} {{anim id=\"13\"}}Um,{{delay frames=\"8\"}} I\nmeant to say IT'S a fair game. {{delay frames=\"16\"}}Heh.{{delay frames=\"16\"}}\nSo, {{delay frames=\"8\"}}what do you say?{{fun_0005000F arg=\"0x15002800\"}}\nSure!\nNot right now."
  },
  {
    "label": "044",
    "text": "{{anim id=\"36\"}}No problem. {{delay frames=\"8\"}}Let me know if you\nchange your mind, {{delay frames=\"8\"}}OK?"
  },
  {
    "label": "045",
    "text": "{{anim id=\"37\"}}{{fun_0003000E arg=\"\"}}{{fun_00070005 arg=\"\"}}, {{delay frames=\"8\"}}oh well. {{delay frames=\"8\"}}Maybe we\ncan play later."
  },
  {
    "label": "046",
    "text": "{{anim id=\"29\"}}Great!{{delay frames=\"8\"}} I choose {{color id=\"2\"}}rock-paper-scissors{{color id=\"65535\"}}.{{fun_00120007 arg=\"0x00013B003C00\"}}"
  },
  {
    "label": "047",
    "text": "{{anim id=\"36\"}}{{fun_0003000E arg=\"\"}}{{fun_00070005 arg=\"\"}}! {{delay frames=\"8\"}}Let's play {{color id=\"2\"}}c{{color id=\"65535\"}}{{color id=\"2\"}}harades{{color id=\"65535\"}}\nfor feathers.{{fun_00120007 arg=\"0x01013B003C00\"}}"
  },
  {
    "label": "048",
    "text": "{{anim id=\"11\"}}OK,{{delay frames=\"16\"}} we'll play {{anim id=\"21\"}}{{color id=\"2\"}}Made Ya Look{{color id=\"65535\"}}!{{delay frames=\"8\"}}{{fun_00120007 arg=\"0x02013B003C00\"}}"
  },
  {
    "label": "049",
    "text": "{{anim id=\"21\"}}Congratulations, {{delay frames=\"8\"}}{{fun_00080005 arg=\"\"}}! {{delay frames=\"16\"}}It's\n{{fun_0002000E arg=\"\"}}{{fun_00030011 arg=\"0x0100\"}}, {{delay frames=\"8\"}}just\nfor you."
  },
  {
    "label": "050",
    "text": "{{anim id=\"15\"}}{{fun_0003000E arg=\"\"}}{{fun_00070005 arg=\"\"}}, {{delay frames=\"8\"}}good game. {{delay frames=\"8\"}}Take\nyour {{fun_00030011 arg=\"0x0100\"}}{{delay frames=\"8\"}}.{{delay frames=\"8\"}}.{{delay frames=\"8\"}}.{{delay frames=\"8\"}}{{anim id=\"21\"}} You\nwon fair and square."
  },
  {
    "label": "051",
    "text": "{{anim id=\"1\"}}Thanks for playing. {{delay frames=\"8\"}}And thanks for\nyour {{fun_00030011 arg=\"0x0000\"}}{{delay frames=\"8\"}} too.{{delay frames=\"8\"}}\n{{fun_0003000E arg=\"\"}}{{fun_00070005 arg=\"\"}}!"
  },
  {
    "label": "052",
    "text": "{{anim id=\"21\"}}Good game.{{delay frames=\"8\"}} In a way, {{delay frames=\"8\"}}we're both\nwinners.{{delay frames=\"8\"}} But more literally, {{anim id=\"33\"}}{{delay frames=\"8\"}}I just\nwon your {{fun_00030011 arg=\"0x0000\"}}."
  },
  {
    "label": "053",
    "text": "It was only a feather{{delay frames=\"8\"}}.{{delay frames=\"8\"}}.{{delay frames=\"8\"}}.{{delay frames=\"8\"}}{{anim id=\"14\"}}but I loved it\nso!{{delay frames=\"8\"}}"
  },
  {
    "label": "054",
    "text": "{{anim id=\"6\"}}This isn't over{{delay frames=\"8\"}}.{{delay frames=\"8\"}}.{{delay frames=\"8\"}}.{{delay frames=\"8\"}}"
  },
  {
    "label": "055",
    "text": "{{anim id=\"37\"}}Let's play again sometime, {{delay frames=\"8\"}}OK?{{delay frames=\"8\"}}\nMaybe you can win back what\nyou've lost."
  },
  {
    "label": "056",
    "text": "{{anim id=\"9\"}}Sorry, {{delay frames=\"8\"}}{{fun_00080005 arg=\"\"}}.{{delay frames=\"8\"}} I hope you're not\ntoo disappointed."
  },
  {
    "label": "057",
    "text": ""
  },
  {
    "label": "058",
    "text": ""
  },
  {
    "label": "059",
    "text": "{{fun_00000009 arg=\"0x31003200\"}}"
  },
  {
    "label": "060",
    "text": "{{fun_00000009 arg=\"0x33003400\"}}"
  }
]