﻿[
  {
    "label": "001",
    "text": "{{anim id=\"37\"}}I'd like to look at another room,\nas long as I'm here, {{fun_00080005 arg=\"\"}}."
  },
  {
    "label": "002",
    "text": "{{anim id=\"15\"}}A room that's blocked off?{{delay frames=\"30\"}}\n{{anim id=\"37\"}}How intriguing, {{fun_00070005 arg=\"\"}}.{{delay frames=\"5\"}}.{{delay frames=\"5\"}}.{{delay frames=\"5\"}}"
  },
  {
    "label": "003",
    "text": "{{anim id=\"37\"}}I see you haven't completely\ngotten everything in order yet.{{delay frames=\"20\"}}\nThat's fine, {{fun_00080005 arg=\"\"}}."
  },
  {
    "label": "004",
    "text": "{{anim id=\"11\"}}Furniture.{{delay frames=\"5\"}}.{{delay frames=\"5\"}}.{{delay frames=\"5\"}}facing the wall? {{delay frames=\"20\"}}Hmm.\nVery clever. {{delay frames=\"10\"}}{{anim id=\"28\"}}That should help keep\nyour secrets, {{fun_00070005 arg=\"\"}}!"
  },
  {
    "label": "005",
    "text": "{{anim id=\"11\"}}It seems that all the comforts of\nhome are.{{delay frames=\"5\"}}.{{delay frames=\"5\"}}.{{delay frames=\"5\"}}incomplete. {{delay frames=\"20\"}}{{anim id=\"21\"}}You know,\na bed, {{delay frames=\"5\"}}chair, {{delay frames=\"5\"}}table, {{delay frames=\"5\"}}and storage?\nA home without all the comforts\nis like {{fun_000E0005 arg=\"0x0200\"}} without a\nglass. {{delay frames=\"20\"}}{{anim id=\"40\"}}You just can't enjoy it."
  },
  {
    "label": "006",
    "text": "{{anim id=\"37\"}}I see you've made yourself very\ncomfortable in here, {{fun_00080005 arg=\"\"}}.{{delay frames=\"20\"}}\nIt's so inviting.\nWhy, I could easily move in here.{{delay frames=\"20\"}}\n{{anim id=\"1\"}}It would be like a home away from\nhome, {{fun_00070005 arg=\"\"}}!"
  },
  {
    "label": "007",
    "text": "{{anim id=\"11\"}}How fascinating.{{delay frames=\"5\"}}.{{delay frames=\"5\"}}.{{delay frames=\"5\"}} There's not a\nsingle thing on any of your\nwalls, {{fun_00070005 arg=\"\"}}.\n{{anim id=\"27\"}}Well, Chic {{fun_0004000E arg=\"\"}}{{fun_001F0005 arg=\"0x00CD\"}} Monthly\nsays a blank wall is as dull as\nan empty floor.\n{{anim id=\"1\"}}Honestly, {{delay frames=\"5\"}}I don't think I agree. {{delay frames=\"5\"}}But\nit's worth thinking about,\n{{fun_00080005 arg=\"\"}}."
  },
  {
    "label": "008",
    "text": "{{anim id=\"1\"}}Incredible, {{fun_00080005 arg=\"\"}}! {{delay frames=\"10\"}}You have so\nmany rare things in here! {{delay frames=\"10\"}}Where\nDID you find it all, {{fun_00070005 arg=\"\"}}?"
  },
  {
    "label": "009",
    "text": "{{anim id=\"1\"}}Well,{{delay frames=\"8\"}} {{fun_00080005 arg=\"\"}}, {{delay frames=\"8\"}}who knew that\nyou had such expensive taste.{{pageBreak}}{{anim id=\"2\"}}I wouldn't be surprised to find a\nbejeweled {{fun_000F0005 arg=\"0x0200\"}} and a\nfancy {{fun_000F0005 arg=\"0x0300\"}} in here!"
  },
  {
    "label": "010",
    "text": "{{anim id=\"15\"}}You have almost nothing in here!{{delay frames=\"20\"}}\n{{anim id=\"37\"}}What ARE you spending your\nBells on, {{delay frames=\"8\"}}{{fun_00080005 arg=\"\"}}?{{pageBreak}}I bet you're buying lots of gifts,{{delay frames=\"8\"}}\naren't you? {{delay frames=\"20\"}}{{anim id=\"1\"}}Great!{{fun_00010007 arg=\"\"}} {{anim id=\"28\"}}As long as\nthey're not for {{fun_00030005 arg=\"\"}}, {{delay frames=\"8\"}}OK?"
  },
  {
    "label": "011",
    "text": "{{anim id=\"11\"}}It's so crowded in here.{{delay frames=\"5\"}}.{{delay frames=\"5\"}}.{{delay frames=\"5\"}} This isn't\njust a storage room, is it?"
  },
  {
    "label": "012",
    "text": "{{anim id=\"37\"}}If there's one thing I've learned\nabout you from this room,\n{{fun_00080005 arg=\"\"}}.{{delay frames=\"5\"}}.{{delay frames=\"5\"}}.{{delay frames=\"5\"}}\n{{anim id=\"1\"}}It's that you've really got your\nown sense of style, {{fun_00070005 arg=\"\"}}!"
  }
]