﻿[
  {
    "label": "001",
    "text": "{{fun_0000000C arg=\"\"}}{{fun_0006000C arg=\"\"}}{{fun_0001000C arg=\"\"}}{{fun_0004000C arg=\"\"}}{{fun_0002000C arg=\"\"}}{{fun_0006000C arg=\"\"}}{{anim id=\"1\"}}All right!{{delay frames=\"16\"}} I'm glad you both could\nmake it.{{fun_0009000C arg=\"\"}}"
  },
  {
    "label": "002",
    "text": "{{fun_0000000C arg=\"\"}}{{fun_0006000C arg=\"\"}}{{fun_0001000C arg=\"\"}}{{fun_0004000C arg=\"\"}}{{fun_0002000C arg=\"\"}}{{fun_0006000C arg=\"\"}}{{anim id=\"16\"}}Thanks for tracking down\n{{fun_00010011 arg=\"0x0100\"}} for me,{{delay frames=\"8\"}} {{fun_00080005 arg=\"\"}}.{{fun_0009000C arg=\"\"}}"
  },
  {
    "label": "003",
    "text": "{{fun_0000000C arg=\"\"}}{{fun_0006000C arg=\"\"}}{{fun_0001000C arg=\"\"}}{{fun_0004000C arg=\"\"}}{{fun_0002000C arg=\"\"}}{{fun_0006000C arg=\"\"}}{{anim id=\"35\"}}Glad you made it back, {{delay frames=\"8\"}}{{fun_00080005 arg=\"\"}}!{{fun_0009000C arg=\"\"}}"
  },
  {
    "label": "004",
    "text": "{{fun_0000000C arg=\"\"}}{{fun_0006000C arg=\"\"}}{{fun_0001000C arg=\"\"}}{{fun_0004000C arg=\"\"}}{{fun_0002000C arg=\"\"}}{{fun_0006000C arg=\"\"}}{{anim id=\"6\"}}You took your sweet time on this\nassignment,{{delay frames=\"8\"}} eh,{{delay frames=\"8\"}} {{fun_00080005 arg=\"\"}}?{{pageBreak}}{{anim id=\"27\"}}Oh well. {{delay frames=\"8\"}}The important thing is you\nfound {{fun_00010011 arg=\"0x0100\"}}.{{delay frames=\"16\"}} {{anim id=\"28\"}}Now{{delay frames=\"8\"}} down to\nbusiness{{delay frames=\"8\"}}.{{delay frames=\"8\"}}.{{delay frames=\"8\"}}.{{delay frames=\"8\"}}{{fun_0009000C arg=\"\"}}"
  },
  {
    "label": "005",
    "text": "{{fun_0000000C arg=\"\"}}{{fun_0007000C arg=\"\"}}{{fun_0001000C arg=\"\"}}{{fun_0008000C arg=\"\"}}{{fun_0002000C arg=\"\"}}{{fun_0006000C arg=\"\"}}{{anim id=\"25\"}}Yawn{{delay frames=\"8\"}}.{{delay frames=\"8\"}}.{{delay frames=\"8\"}}.{{delay frames=\"8\"}} I was daydreaming about a\nreally great nap. {{delay frames=\"16\"}}Is this urgent?{{delay frames=\"16\"}}\n{{fun_0003000E arg=\"\"}}{{fun_00070005 arg=\"\"}}?{{fun_0009000C arg=\"\"}}"
  },
  {
    "label": "006",
    "text": "{{fun_0000000C arg=\"\"}}{{fun_0007000C arg=\"\"}}{{fun_0001000C arg=\"\"}}{{fun_0008000C arg=\"\"}}{{fun_0002000C arg=\"\"}}{{fun_0006000C arg=\"\"}}{{anim id=\"9\"}}What's this all about, {{delay frames=\"8\"}}{{fun_00010011 arg=\"0x0000\"}}? I\nhope it doesn't take long.{{pageBreak}}{{anim id=\"13\"}}My stomach is scheduled to meet\nwith {{fun_0002000E arg=\"\"}}{{fun_00100005 arg=\"0x0000\"}} five\nminutes from now!{{fun_0009000C arg=\"\"}}"
  },
  {
    "label": "007",
    "text": "{{fun_0000000C arg=\"\"}}{{fun_0007000C arg=\"\"}}{{fun_0001000C arg=\"\"}}{{fun_0008000C arg=\"\"}}{{fun_0002000C arg=\"\"}}{{fun_0006000C arg=\"\"}}{{anim id=\"1\"}}Let me guess{{delay frames=\"8\"}}.{{delay frames=\"8\"}}.{{delay frames=\"8\"}}.{{delay frames=\"8\"}}{{anim id=\"22\"}}you prepared my\nfavorite dinner for me, didn't you,{{delay frames=\"8\"}}\n{{fun_00010011 arg=\"0x0000\"}}?{{fun_0009000C arg=\"\"}}"
  },
  {
    "label": "008",
    "text": ""
  },
  {
    "label": "009",
    "text": "{{fun_0000000C arg=\"\"}}{{fun_0005000C arg=\"\"}}{{fun_0001000C arg=\"\"}}{{fun_0008000C arg=\"\"}}{{fun_0002000C arg=\"\"}}{{fun_0006000C arg=\"\"}}{{anim id=\"39\"}}Well, {{delay frames=\"8\"}}I feel bad for bothering you,{{delay frames=\"8\"}}\nbut I just had to return this item\nI've been borrowing.\n{{anim id=\"13\"}}It's awful when you've been meaning\nto do something forever but you \nkeep forgetting!{{fun_0009000C arg=\"\"}}"
  },
  {
    "label": "010",
    "text": "{{fun_0000000C arg=\"\"}}{{fun_0007000C arg=\"\"}}{{fun_0001000C arg=\"\"}}{{fun_0008000C arg=\"\"}}{{anim id=\"16\"}}Wow,{{delay frames=\"8\"}} that is mine! {{delay frames=\"16\"}}I completely\nforgot about it.{{pageBreak}}Well, {{delay frames=\"8\"}}I'm grateful, {{delay frames=\"8\"}}{{anim id=\"28\"}}but a serving of\n{{fun_00130005 arg=\"0x0000\"}} would make me\neven grateful-er{{delay frames=\"8\"}}.{{delay frames=\"8\"}}.{{delay frames=\"8\"}}.{{delay frames=\"8\"}}"
  },
  {
    "label": "011",
    "text": "{{fun_0000000C arg=\"\"}}{{fun_0005000C arg=\"\"}}{{fun_0001000C arg=\"\"}}{{fun_0008000C arg=\"\"}}{{fun_0002000C arg=\"\"}}{{fun_0006000C arg=\"\"}}{{anim id=\"36\"}}This won't take long.{{delay frames=\"16\"}} I just found\nsomething I thought you'd like\nwhile I was out shopping.\nSo{{delay frames=\"8\"}}{{anim id=\"33\"}} I bought it for you.{{delay frames=\"16\"}} Here!{{fun_0009000C arg=\"\"}}"
  },
  {
    "label": "012",
    "text": "{{fun_0000000C arg=\"\"}}{{fun_0007000C arg=\"\"}}{{fun_0001000C arg=\"\"}}{{fun_0008000C arg=\"\"}}{{anim id=\"38\"}}Yeah! {{delay frames=\"16\"}}That's probably exactly the\nthing I've been wanting. {{delay frames=\"16\"}}{{fun_0003000E arg=\"\"}}{{fun_0002000E arg=\"\"}}\n{{fun_00030011 arg=\"0x0000\"}}!\n{{anim id=\"43\"}}To be honest, {{delay frames=\"8\"}}I don't remember\nwhat exactly I wanted, {{delay frames=\"8\"}}but this is\ngreat!\n{{anim id=\"3\"}}{{fun_0003000E arg=\"\"}}{{fun_00070005 arg=\"\"}}!{{delay frames=\"16\"}} Thank you, {{delay frames=\"8\"}}\n{{fun_00010011 arg=\"0x0000\"}}!"
  },
  {
    "label": "013",
    "text": "{{fun_0000000C arg=\"\"}}{{fun_0005000C arg=\"\"}}{{fun_0001000C arg=\"\"}}{{fun_0008000C arg=\"\"}}{{fun_0002000C arg=\"\"}}{{fun_0006000C arg=\"\"}}{{anim id=\"39\"}}Well,{{delay frames=\"8\"}} I found this in front of my\nhouse the other day.{{pageBreak}}{{anim id=\"23\"}}Isn't it yours?{{delay frames=\"16\"}} I think I've seen you\ncarrying it around {{fun_00050005 arg=\"\"}},{{delay frames=\"8\"}}\n{{fun_00010011 arg=\"0x0100\"}}.{{fun_0009000C arg=\"\"}}"
  },
  {
    "label": "014",
    "text": "{{fun_0007000C arg=\"\"}}{{fun_0001000C arg=\"\"}}{{fun_0008000C arg=\"\"}}{{anim id=\"17\"}}No way!{{delay frames=\"16\"}} It's my long-lost\n{{fun_00030011 arg=\"0x0000\"}}!{{anim id=\"14\"}} {{delay frames=\"16\"}}You found\nit for me.\n{{anim id=\"4\"}}Aww, {{delay frames=\"8\"}}you're the best, {{delay frames=\"8\"}}{{fun_00010011 arg=\"0x0000\"}}.{{delay frames=\"16\"}}\nThank you!"
  },
  {
    "label": "015",
    "text": "{{fun_0000000C arg=\"\"}}{{fun_0005000C arg=\"\"}}{{fun_0001000C arg=\"\"}}{{fun_0008000C arg=\"\"}}{{fun_0002000C arg=\"\"}}{{fun_0006000C arg=\"\"}}{{anim id=\"26\"}}Well, {{delay frames=\"8\"}}it really seems silly now that I\nthink about it, {{delay frames=\"8\"}}but I had to tell you\nabout this dream I had.\n{{anim id=\"43\"}}You were on a space mission to find\nthe best-tasting {{fun_00100005 arg=\"0x0000\"}}\nin the universe.\n{{anim id=\"6\"}}That's not really happening, {{delay frames=\"8\"}}right?{{delay frames=\"16\"}}\nI mean,{{delay frames=\"8\"}} I know it's not. {{delay frames=\"16\"}}{{anim id=\"13\"}}But you're\nnot moving or anything, {{delay frames=\"8\"}}are you?{{fun_0009000C arg=\"\"}}"
  },
  {
    "label": "016",
    "text": "{{fun_0000000C arg=\"\"}}{{fun_0007000C arg=\"\"}}{{fun_0001000C arg=\"\"}}{{fun_0008000C arg=\"\"}}{{fun_0002000C arg=\"\"}}{{fun_0006000C arg=\"\"}}{{anim id=\"38\"}}Hah! {{delay frames=\"16\"}}That would be pretty cool of\nme, if I do say so myself.{{pageBreak}}{{anim id=\"23\"}}But what if there really is yummy\nfood out in space? {{delay frames=\"16\"}}{{anim id=\"11\"}}Saturn's rings\ncould be made from rock candy!\n{{anim id=\"40\"}}Sorry,{{delay frames=\"8\"}} {{fun_00010011 arg=\"0x0000\"}}.{{delay frames=\"8\"}} I'll be sad to say\ngood-bye to you, {{delay frames=\"8\"}}{{anim id=\"35\"}}but outer space is\ncalling me{{delay frames=\"8\"}}.{{delay frames=\"8\"}}.{{delay frames=\"8\"}}.{{delay frames=\"8\"}}"
  },
  {
    "label": "017",
    "text": "{{fun_0000000C arg=\"\"}}{{fun_0005000C arg=\"\"}}{{fun_0001000C arg=\"\"}}{{fun_0008000C arg=\"\"}}{{fun_0002000C arg=\"\"}}{{fun_0006000C arg=\"\"}}{{anim id=\"39\"}}Sorry to bother you, {{delay frames=\"8\"}}{{fun_00010011 arg=\"0x0100\"}},{{delay frames=\"8\"}}\nbut I thought you could help me\nchange a lightbulb.\n{{anim id=\"6\"}}Of course,{{delay frames=\"8\"}} right when you two got\nhere, {{delay frames=\"8\"}}the light came back on all by\nitself!\n{{anim id=\"1\"}}Hey, {{delay frames=\"8\"}}at least we got to say hi to\neach other. {{delay frames=\"16\"}}{{fun_0003000E arg=\"\"}}{{fun_00070005 arg=\"\"}}?{{fun_0009000C arg=\"\"}}"
  },
  {
    "label": "018",
    "text": "{{fun_0000000C arg=\"\"}}{{fun_0007000C arg=\"\"}}{{fun_0001000C arg=\"\"}}{{fun_0008000C arg=\"\"}}{{fun_0002000C arg=\"\"}}{{fun_0006000C arg=\"\"}}{{anim id=\"1\"}}No worries, {{delay frames=\"8\"}}{{fun_00010011 arg=\"0x0000\"}}.{{delay frames=\"16\"}} I'll come\nover and magically fix your lights\nanytime.\n{{anim id=\"28\"}}As long as there's some\n{{fun_00130005 arg=\"0x0000\"}} in it for me{{delay frames=\"8\"}}.{{delay frames=\"8\"}}.{{delay frames=\"8\"}}.{{delay frames=\"8\"}}"
  },
  {
    "label": "019",
    "text": ""
  },
  {
    "label": "020",
    "text": "{{fun_0000000C arg=\"\"}}{{fun_0007000C arg=\"\"}}{{fun_0001000C arg=\"\"}}{{fun_0007000C arg=\"\"}}{{fun_0002000C arg=\"\"}}{{fun_0003000C arg=\"\"}}{{anim id=\"35\"}}Well,{{delay frames=\"8\"}} I have a nummy bowl of\n{{fun_00100005 arg=\"0x0000\"}} at home that's\ncalling my name, {{delay frames=\"8\"}}so I'm leaving now.\n{{anim id=\"32\"}}Great to see you guys.{{delay frames=\"16\"}}\n{{fun_0003000E arg=\"\"}}{{fun_00070005 arg=\"\"}}!"
  },
  {
    "label": "021",
    "text": "{{fun_0000000C arg=\"\"}}{{fun_0007000C arg=\"\"}}{{fun_0001000C arg=\"\"}}{{fun_0007000C arg=\"\"}}{{fun_0002000C arg=\"\"}}{{fun_0005000C arg=\"\"}}{{anim id=\"11\"}}Just so we're on the same page,{{delay frames=\"32\"}}{{anim id=\"23\"}}\nyou're not about to serve any food,{{delay frames=\"8\"}}\nright?\n{{anim id=\"27\"}}Okeydoke.{{delay frames=\"8\"}} I suppose I'd better\nget going.{{delay frames=\"16\"}} {{anim id=\"1\"}}Bye-bye, {{delay frames=\"8\"}}{{fun_00010011 arg=\"0x0000\"}}!"
  },
  {
    "label": "022",
    "text": "{{fun_0000000C arg=\"\"}}{{fun_0007000C arg=\"\"}}{{fun_0001000C arg=\"\"}}{{fun_0007000C arg=\"\"}}{{fun_0002000C arg=\"\"}}{{fun_0003000C arg=\"\"}}{{anim id=\"10\"}}Well, {{delay frames=\"8\"}}this has been fun,{{delay frames=\"8\"}} even though\nthere was less food eating than I\nwould have ideally liked.\n{{anim id=\"37\"}}See you soon!{{delay frames=\"16\"}} {{fun_0003000E arg=\"\"}}{{fun_00070005 arg=\"\"}}!"
  },
  {
    "label": "023",
    "text": ""
  }
]