﻿[
  {
    "label": "001",
    "text": "{{anim id=\"15\"}}You changed your mind? That's\nnot very nice when I'm feeling\nso awful, {{fun_00070005 arg=\"\"}}!"
  },
  {
    "label": "002",
    "text": "{{anim id=\"6\"}}This is no time to kid around,\n{{fun_00080005 arg=\"\"}}. I'm sick!"
  },
  {
    "label": "003",
    "text": "{{anim id=\"9\"}}Why would you toy with me at\na time like this?"
  },
  {
    "label": "004",
    "text": "{{anim id=\"9\"}}Don't be awful.{{delay frames=\"5\"}}.{{delay frames=\"5\"}}.{{delay frames=\"5\"}} I feel awful enough\nalready, {{fun_00070005 arg=\"\"}}!"
  },
  {
    "label": "005",
    "text": "{{anim id=\"6\"}}Please don't toy with me like\nthat, {{fun_00080005 arg=\"\"}}. I feel terrible."
  },
  {
    "label": "006",
    "text": "{{anim id=\"9\"}}But.{{delay frames=\"5\"}}.{{delay frames=\"5\"}}.{{delay frames=\"5\"}}didn't you say you had\nsomething for me.{{delay frames=\"5\"}}.{{delay frames=\"5\"}}.{{delay frames=\"5\"}}?"
  },
  {
    "label": "007",
    "text": "{{anim id=\"10\"}}So tired.{{delay frames=\"5\"}}.{{delay frames=\"5\"}}.{{delay frames=\"5\"}} Can't you help.{{delay frames=\"5\"}}.{{delay frames=\"5\"}}.{{delay frames=\"5\"}}?"
  },
  {
    "label": "008",
    "text": "{{anim id=\"6\"}}You got my hopes up.{{delay frames=\"5\"}}.{{delay frames=\"5\"}}.{{delay frames=\"5\"}}"
  },
  {
    "label": "009",
    "text": "{{anim id=\"9\"}}But I thought.{{delay frames=\"5\"}}.{{delay frames=\"5\"}}.{{delay frames=\"5\"}}? Ugh, I'm just\nSO sick.{{delay frames=\"5\"}}.{{delay frames=\"5\"}}.{{delay frames=\"5\"}}"
  }
]