﻿[
  {
    "label": "001",
    "text": "{{anim id=\"15\"}}Ohmigosh!{{delay frames=\"8\"}} PLEASE tell me it's true.{{pageBreak}}{{anim id=\"23\"}}Is there a way that I,{{delay frames=\"8\"}} {{fun_00010005 arg=\"\"}},{{delay frames=\"8\"}} can\nbecome the champion of all things\nPuzzle League?"
  },
  {
    "label": "002",
    "text": "{{anim id=\"29\"}}Awesome!{{delay frames=\"16\"}}{{anim id=\"21\"}} I've really needed a \nplatform to spread the word about\nthe benefits of {{fun_00120005 arg=\"0x0000\"}}.\n{{anim id=\"1\"}}This would be the PERFECT way\nto get my message out there.{{pageBreak}}I mean,{{delay frames=\"20\"}}{{anim id=\"33\"}} who's not going to listen\nto a puzzling champion?{{delay frames=\"40\"}}"
  },
  {
    "label": "003",
    "text": "{{anim id=\"37\"}}Oh! I better get some people to\ncheer me on.{{delay frames=\"20\"}} {{anim id=\"44\"}}I'm nothing without an\naudience!"
  },
  {
    "label": "004",
    "text": "{{fun_00020007 arg=\"\"}}To win this round, you need to\nearn a 100% approval rating within\n{{color id=\"2\"}}2 minutes{{color id=\"65535\"}}.{{fun_00030007 arg=\"\"}}{{delay frames=\"40\"}}"
  },
  {
    "label": "006",
    "text": "{{anim id=\"32\"}}{{fun_0003000E arg=\"\"}}{{fun_00000005 arg=\"\"}}!{{delay frames=\"16\"}} So...you ready?"
  },
  {
    "label": "007",
    "text": "{{anim id=\"5\"}}My big moment is finally here!{{delay frames=\"25\"}}\n{{anim id=\"26\"}}I mean...{{delay frames=\"30\"}}let's just have fun."
  },
  {
    "label": "008",
    "text": ""
  },
  {
    "label": "009",
    "text": ""
  },
  {
    "label": "011",
    "text": "{{anim id=\"41\"}}Huh?{{delay frames=\"20\"}} What a total letdown!{{delay frames=\"20\"}}"
  },
  {
    "label": "012",
    "text": "{{anim id=\"0\"}}Well, {{delay frames=\"4\"}}it's not like losing is a big deal,\nright{{delay frames=\"8\"}}.{{delay frames=\"8\"}}.{{delay frames=\"8\"}}.?{{delay frames=\"20\"}}\n{{color id=\"5\"}}I've better things to do anyway{{delay frames=\"8\"}}.{{delay frames=\"8\"}}.{{delay frames=\"8\"}}.{{color id=\"65535\"}}\n{{anim id=\"1\"}}Well, congratulations! Let me know\nif you ever need some advice. I DID\nalmost win, {{delay frames=\"8\"}}{{fun_00000005 arg=\"\"}}!"
  },
  {
    "label": "013",
    "text": ""
  },
  {
    "label": "014",
    "text": ""
  },
  {
    "label": "016",
    "text": "{{anim id=\"38\"}}No way! I won?{{delay frames=\"16\"}} This is, like, the\nmost amazing day ever."
  },
  {
    "label": "017",
    "text": "{{anim id=\"5\"}}Yay!{{delay frames=\"8\"}} Soon the whole world will be\nshouting my name!{{delay frames=\"16\"}}{{pageBreak}}{{anim id=\"26\"}}They'll travel from near and far {{delay frames=\"8\"}}just\nto meet the brave leader of the \nPuzzle League!"
  },
  {
    "label": "018",
    "text": ""
  },
  {
    "label": "019",
    "text": ""
  }
]