﻿[
  {
    "label": "001",
    "text": "{{anim id=\"15\"}}Oh!{{delay frames=\"20\"}} Did you have this spot reserved\nor something? {{delay frames=\"40\"}}{{anim id=\"9\"}}{{size value=\"75\"}}Sorry{{delay frames=\"8\"}}.{{delay frames=\"8\"}}.{{delay frames=\"8\"}}.{{size value=\"100\"}}"
  },
  {
    "label": "002",
    "text": "{{i10_7 arg=\"0x0C000C000B000B000C000C00\"}}"
  },
  {
    "label": "003",
    "text": "{{i10_7 arg=\"0x0C000C000B000B000C000C00\"}}"
  },
  {
    "label": "004",
    "text": ""
  },
  {
    "label": "005",
    "text": ""
  },
  {
    "label": "006",
    "text": "{{fun_00030009 arg=\"0x0D000E000F0010001100\"}}"
  },
  {
    "label": "007",
    "text": "{{fun_00030009 arg=\"0x0D000E000F0010001100\"}}"
  },
  {
    "label": "008",
    "text": ""
  },
  {
    "label": "009",
    "text": ""
  },
  {
    "label": "011",
    "text": "{{anim id=\"37\"}}It's real nice that they're letting us\nuse the campground here.{{pageBreak}}Because this is probably the nicest\nplace I've ever stayed. {{delay frames=\"20\"}}{{anim id=\"9\"}}I feel like I\nmight be {{size value=\"75\"}}messing it up just by being here{{delay frames=\"4\"}}.{{delay frames=\"4\"}}.{{delay frames=\"4\"}}.{{size value=\"100\"}}"
  },
  {
    "label": "012",
    "text": "{{anim id=\"6\"}}Hey!{{delay frames=\"8\"}} Are you a citizen of this town?{{delay frames=\"40\"}}\n{{delay frames=\"4\"}}.{{delay frames=\"4\"}}.{{delay frames=\"4\"}}.{{anim id=\"13\"}}My mistake. {{delay frames=\"8\"}}How rude of me.{{delay frames=\"8\"}}\n{{size value=\"75\"}}I'm so sorry{{delay frames=\"4\"}}.{{delay frames=\"4\"}}.{{delay frames=\"4\"}}{{delay frames=\"8\"}}.{{size value=\"100\"}}"
  },
  {
    "label": "013",
    "text": "{{anim id=\"33\"}}You know the best part of camping\nout like this?{{delay frames=\"8\"}} Firing up the grill!{{pageBreak}}Yep, {{delay frames=\"8\"}}I'm a real hot dog with the\ntongs in my hand, {{delay frames=\"8\"}}lemme tell ya.{{delay frames=\"8\"}}\n{{anim id=\"13\"}}{{size value=\"75\"}}Wait, {{delay frames=\"8\"}}that didn't come out right{{delay frames=\"4\"}}.{{delay frames=\"4\"}}.{{delay frames=\"4\"}}.{{size value=\"100\"}}"
  },
  {
    "label": "014",
    "text": "{{anim id=\"21\"}}You know,{{delay frames=\"8\"}} if I hadn't become a\npolice officer,{{delay frames=\"8\"}} I would have been\na cook.{{delay frames=\"8\"}} I love cooking!\n{{anim id=\"40\"}}Never did get the hang of cleaning\nup after myself,{{delay frames=\"8\"}} though..."
  },
  {
    "label": "015",
    "text": "{{anim id=\"21\"}}Yeah, {{delay frames=\"8\"}}I usually camp all by myself.{{delay frames=\"8\"}}\nI just like to get away from it all\nand be alone, you know{{delay frames=\"4\"}}.{{delay frames=\"4\"}}.{{delay frames=\"4\"}}.\nOh. {{delay frames=\"20\"}}{{anim id=\"13\"}}Present company excluded,{{delay frames=\"8\"}}\nof course. {{delay frames=\"8\"}}{{size value=\"75\"}}Oh, Booker{{delay frames=\"4\"}}.{{delay frames=\"4\"}}.{{delay frames=\"4\"}}. Why can't\nyou keep your mouth shut?{{size value=\"100\"}}"
  },
  {
    "label": "016",
    "text": "{{anim id=\"37\"}}Don't tell anyone, {{delay frames=\"8\"}}but I actually\nlike going out on patrol.{{pageBreak}}{{anim id=\"33\"}}You get some fresh air,{{delay frames=\"8\"}} a little\nwalk{{delay frames=\"4\"}}.{{delay frames=\"4\"}}.{{delay frames=\"4\"}}. It hardly feels like working.{{delay frames=\"20\"}}\nI'd do it for free!\n{{delay frames=\"4\"}}.{{delay frames=\"4\"}}.{{delay frames=\"4\"}}.{{anim id=\"9\"}}I hope they keep paying me{{delay frames=\"4\"}}.{{delay frames=\"4\"}}.{{delay frames=\"4\"}}."
  },
  {
    "label": "017",
    "text": "{{anim id=\"40\"}}I'm not too obsessed with my\ncamper or anything. {{delay frames=\"8\"}}I've just\nmade a few upgrades{{delay frames=\"4\"}}.{{delay frames=\"4\"}}.{{delay frames=\"4\"}}.\n{{anim id=\"37\"}}But I suppose you don't want to\nhear about the modified wiring\nharness and carburetor jets{{delay frames=\"4\"}}.{{delay frames=\"4\"}}.{{delay frames=\"4\"}}.{{delay frames=\"30\"}}{{anim id=\"9\"}} {{size value=\"75\"}}Do you?{{size value=\"100\"}}"
  }
]