﻿[
  {
    "label": "001",
    "text": "{{anim id=\"16\"}}Whoa! {{delay frames=\"8\"}}Like,{{delay frames=\"8\"}} are you camping out\nhere too, {{delay frames=\"8\"}}maaaan?{{delay frames=\"30\"}} {{anim id=\"21\"}}Groovy.{{pageBreak}}Yeah, {{delay frames=\"8\"}}{{anim id=\"3\"}}I just go where the wind\nblows, {{delay frames=\"8\"}}ya dig?{{delay frames=\"8\"}} It's the only\nway to live, {{delay frames=\"8\"}}maaaan."
  },
  {
    "label": "002",
    "text": "{{i10_7 arg=\"0x0C000C000B000B000C000C00\"}}"
  },
  {
    "label": "003",
    "text": "{{i10_7 arg=\"0x0C000C000B000B000C000C00\"}}"
  },
  {
    "label": "004",
    "text": ""
  },
  {
    "label": "005",
    "text": ""
  },
  {
    "label": "006",
    "text": "{{fun_00030009 arg=\"0x0D000E000F0010001100\"}}"
  },
  {
    "label": "007",
    "text": "{{fun_00030009 arg=\"0x0D000E000F0010001100\"}}"
  },
  {
    "label": "008",
    "text": ""
  },
  {
    "label": "009",
    "text": ""
  },
  {
    "label": "011",
    "text": "{{anim id=\"37\"}}Oh, {{delay frames=\"8\"}}man. {{anim id=\"43\"}}{{delay frames=\"8\"}}Ma{{delay frames=\"8\"}}a{{delay frames=\"8\"}}a{{delay frames=\"8\"}}a{{delay frames=\"8\"}}a{{delay frames=\"8\"}}n.{{delay frames=\"8\"}} Can I tell you\nsomething?{{delay frames=\"8\"}} I, {{delay frames=\"8\"}}like,{{delay frames=\"8\"}} totally dig the\nvibe of this camp.{{delay frames=\"8\"}} Toooootally."
  },
  {
    "label": "012",
    "text": "{{anim id=\"23\"}}Hey,{{delay frames=\"8\"}} man. {{delay frames=\"8\"}}Do you, {{delay frames=\"8\"}}like,{{delay frames=\"8\"}} live in this\ntown?{{delay frames=\"8\"}} It's a pretty far-out place.{{delay frames=\"8\"}}\nHope it's cool for me to crash here."
  },
  {
    "label": "013",
    "text": "That face when you find fresh\nscallops on the beach{{delay frames=\"4\"}}.{{delay frames=\"4\"}}.{{delay frames=\"4\"}}.\n{{anim id=\"3\"}}Mmm, {{delay frames=\"8\"}}mmmm!\n{{anim id=\"4\"}}Maaaan,{{delay frames=\"8\"}} the umami flavor is just,{{delay frames=\"8\"}}\nlike,{{delay frames=\"8\"}} out of this world{{delay frames=\"4\"}}.{{delay frames=\"4\"}}.{{delay frames=\"4\"}}.like,{{delay frames=\"30\"}}{{anim id=\"22\"}} space\numami or something. {{delay frames=\"8\"}}Whoaaaa{{delay frames=\"4\"}}.{{delay frames=\"4\"}}.{{delay frames=\"4\"}}."
  },
  {
    "label": "014",
    "text": "{{anim id=\"9\"}}Do you think there's,{{delay frames=\"8\"}} like,{{delay frames=\"8\"}} such\nthing as too many scallops?{{pageBreak}}Like, {{delay frames=\"8\"}}when you eat too many\nscallops and you get all sweaty?{{delay frames=\"8\"}}\n{{anim id=\"13\"}}The dreaded scallop sweats{{delay frames=\"4\"}}.{{delay frames=\"4\"}}.{{delay frames=\"4\"}}."
  },
  {
    "label": "015",
    "text": "{{anim id=\"21\"}}Camping is a blast,{{delay frames=\"8\"}} but it's a little\nlight on the scallops. {{delay frames=\"8\"}}You know what\nI mean?{{delay frames=\"8\"}}{{anim id=\"40\"}} Maaaan."
  },
  {
    "label": "016",
    "text": "I dig traveling like this.{{delay frames=\"8\"}} But nothing\nharshes my mellow faster than\ngetting lost, {{delay frames=\"8\"}}maaaan.\n{{anim id=\"21\"}}That's why I got this GPS thing. {{delay frames=\"8\"}}It\ntotally drives the van for me!{{delay frames=\"30\"}}\n{{delay frames=\"4\"}}.{{delay frames=\"4\"}}.{{delay frames=\"4\"}}.{{anim id=\"13\"}}Doesn't it?"
  },
  {
    "label": "017",
    "text": "{{anim id=\"23\"}}Does my hair look all right, {{delay frames=\"8\"}}maaan?{{delay frames=\"30\"}}{{anim id=\"33\"}}\nI like to look good when I fly my\nfreak flag,{{delay frames=\"8\"}} you know?"
  }
]