﻿[
  {
    "label": "001",
    "text": "{{anim id=\"16\"}}Hey! What's that you have there?\n{{fun_0003000E arg=\"\"}}{{fun_0002000E arg=\"\"}}{{fun_00030011 arg=\"0x0000\"}}?{{pageBreak}}{{anim id=\"6\"}}I've been looking everywhere\nfor just such an item!{{pageBreak}}{{anim id=\"9\"}}Do you think I could have yours?{{fun_00010007 arg=\"\"}}\n{{anim id=\"6\"}}Not for free! {{delay frames=\"10\"}}I'd give you my\n{{fun_00030011 arg=\"0x0100\"}} for it.{{fun_00050008 arg=\"0x0500150004002800\"}}\nOK, let's trade!\nNo, thanks."
  },
  {
    "label": "002",
    "text": "{{anim id=\"6\"}}Well, {{fun_00080005 arg=\"\"}}, I see you have\n{{fun_0002000E arg=\"\"}}{{fun_00030011 arg=\"0x0000\"}}.{{delay frames=\"5\"}}.{{delay frames=\"5\"}}.{{delay frames=\"5\"}}\nI so want to be the owner.\n{{anim id=\"23\"}}Can we do a trade? How about.{{delay frames=\"5\"}}.{{delay frames=\"5\"}}.{{delay frames=\"5\"}}\nI read my {{fun_000F0005 arg=\"0x0000\"}} poem?{{delay frames=\"10\"}}\n{{anim id=\"37\"}}I just wrote it!\n{{anim id=\"12\"}}Wait, no. It's not good enough yet.{{fun_00010007 arg=\"\"}}\n{{anim id=\"0\"}}Oh, how about I give you my\n{{fun_00030011 arg=\"0x0100\"}}?{{fun_00050008 arg=\"0x0800150007002800\"}}\nLet's trade!\nNo way."
  },
  {
    "label": "003",
    "text": "{{anim id=\"37\"}}So I've got an item that is SO\nyou, {{fun_00080005 arg=\"\"}}. It's totally got\nyour name written all over it.\n{{anim id=\"33\"}}Yep, my {{fun_00030011 arg=\"0x0100\"}}!{{delay frames=\"10\"}}\nYou want? I bet you do!{{pageBreak}}{{anim id=\"6\"}}But on one condition. {{delay frames=\"10\"}}You give me\nyour {{fun_00030011 arg=\"0x0000\"}}!{{fun_00050008 arg=\"0x0B0015000A002800\"}}\nWow, OK!\nNo way."
  },
  {
    "label": "004",
    "text": "{{anim id=\"9\"}}Well, I guess it makes sense that\nyou'd want to keep an item like\nthat, {{fun_00080005 arg=\"\"}}. {{delay frames=\"10\"}}Thanks, anyway."
  },
  {
    "label": "005",
    "text": "{{anim id=\"15\"}}What? {{delay frames=\"10\"}}Really? {{delay frames=\"20\"}}{{anim id=\"1\"}}You totally just\nmade my day, {{fun_00080005 arg=\"\"}}!"
  },
  {
    "label": "006",
    "text": "{{anim id=\"37\"}}Thank you, {{fun_00080005 arg=\"\"}}!{{delay frames=\"16\"}} Now I've\nfound the missing piece of my\nheart!{{delay frames=\"8\"}} {{fun_0003000E arg=\"\"}}{{fun_00070005 arg=\"\"}}!"
  },
  {
    "label": "007",
    "text": "{{anim id=\"12\"}}Oh, fine.{{delay frames=\"5\"}}.{{delay frames=\"5\"}}.{{delay frames=\"5\"}} My poems are terrible,\nand I can't trade to save my life.{{delay frames=\"10\"}}\nWell, I'll just be over here. {{delay frames=\"10\"}}Moping.{{fun_0003000B arg=\"0x01CD\"}}"
  },
  {
    "label": "008",
    "text": "{{anim id=\"15\"}}Seriously? You'll trade? {{delay frames=\"10\"}}Great!"
  },
  {
    "label": "009",
    "text": "{{anim id=\"1\"}}Wow, {{delay frames=\"5\"}}thanks a lot, {{fun_00080005 arg=\"\"}}!"
  },
  {
    "label": "010",
    "text": "{{anim id=\"15\"}}What? {{delay frames=\"10\"}}No way? {{delay frames=\"5\"}}Not interested?{{delay frames=\"10\"}}\n{{anim id=\"9\"}}I thought I totally got you,\n{{fun_00080005 arg=\"\"}}. {{delay frames=\"10\"}}Hmm. {{delay frames=\"5\"}}Guess I don't."
  },
  {
    "label": "011",
    "text": "{{anim id=\"1\"}}Great! I knew you couldn't resist.{{fun_00010007 arg=\"\"}}\nSo, your {{fun_00030011 arg=\"0x0000\"}}\nfor my {{fun_00030011 arg=\"0x0100\"}}.{{delay frames=\"5\"}}.{{delay frames=\"5\"}}."
  },
  {
    "label": "012",
    "text": "{{anim id=\"37\"}}That was just about the best trade\nI've done all week, {{fun_00080005 arg=\"\"}}!"
  }
]