﻿[
  {
    "label": "001",
    "text": "{{anim id=\"15\"}}Whoa, {{fun_00080005 arg=\"\"}}!{{delay frames=\"20\"}} Cool!{{delay frames=\"10\"}}\n{{anim id=\"37\"}}You've come to see {{fun_00010011 arg=\"0x0000\"}}\ntoo,{{delay frames=\"5\"}} huh, {{fun_00070005 arg=\"\"}}?"
  },
  {
    "label": "002",
    "text": "{{anim id=\"1\"}}{{fun_0003000E arg=\"\"}}{{fun_00060007 arg=\"\"}}Hey there{{fun_00070007 arg=\"\"}}.{{delay frames=\"10\"}}\nSo {{delay frames=\"5\"}}{{fun_00010011 arg=\"0x0000\"}} has a pretty great\nhouse, {{delay frames=\"5\"}}right, {{fun_00080005 arg=\"\"}}?"
  },
  {
    "label": "003",
    "text": "{{anim id=\"15\"}}Oh, {{delay frames=\"5\"}}hey! {{delay frames=\"10\"}}Didn't think I'd see you\nhere in {{fun_00010011 arg=\"0x0000\"}}'s place...{{delay frames=\"20\"}}\n{{anim id=\"36\"}}So,{{delay frames=\"10\"}} uh,{{delay frames=\"10\"}} hi, {{fun_00080005 arg=\"\"}}."
  }
]