﻿[
  {
    "label": "001",
    "text": "It's me,{{delay frames=\"16\"}} {{fun_00080005 arg=\"\"}}!{{fun_00080007 arg=\"0x96000000\"}}"
  },
  {
    "label": "002",
    "text": "Please come out if you're there,{{delay frames=\"16\"}}\n{{fun_00080005 arg=\"\"}}!{{fun_00080007 arg=\"0x96000000\"}}"
  },
  {
    "label": "003",
    "text": "Helloooo?{{delay frames=\"16\"}}\nAre you there, {{fun_00080005 arg=\"\"}}?!{{fun_00080007 arg=\"0x96000000\"}}"
  },
  {
    "label": "004",
    "text": "You're there, right,{{delay frames=\"8\"}} {{fun_00080005 arg=\"\"}}?{{delay frames=\"32\"}}\nIt's me,{{delay frames=\"16\"}} {{fun_00010005 arg=\"\"}}!{{fun_00080007 arg=\"0x96000000\"}}"
  },
  {
    "label": "005",
    "text": "Maybe you're taking a nap?{{delay frames=\"32\"}}\nOh well.{{delay frames=\"16\"}} I guess I'll just go home{{delay frames=\"8\"}}.{{delay frames=\"8\"}}.{{delay frames=\"8\"}}.{{delay frames=\"8\"}}{{fun_00080007 arg=\"0x96000000\"}}"
  },
  {
    "label": "006",
    "text": "{{anim id=\"37\"}}Sorry for disturbing you,{{delay frames=\"16\"}}\n{{fun_00080005 arg=\"\"}}."
  },
  {
    "label": "007",
    "text": "{{anim id=\"1\"}}Excuse me,{{delay frames=\"8\"}} {{fun_00070005 arg=\"\"}}!"
  },
  {
    "label": "008",
    "text": "{{anim id=\"32\"}}Hey,{{delay frames=\"16\"}} {{fun_00080005 arg=\"\"}}!\n"
  },
  {
    "label": "009",
    "text": "{{anim id=\"17\"}}Whoa!{{delay frames=\"16\"}} Is there a cockroach living\nwith you or something,{{delay frames=\"16\"}} {{fun_00080005 arg=\"\"}}?{{pageBreak}}{{anim id=\"9\"}}Uhhh,{{delay frames=\"16\"}} sorry, but I've gotta leave,{{delay frames=\"8\"}}\n{{fun_00070005 arg=\"\"}}."
  },
  {
    "label": "010",
    "text": ""
  },
  {
    "label": "011",
    "text": "{{anim id=\"37\"}}I was passing by,{{delay frames=\"16\"}} so I thought I'd\ndrop by for a bit,{{delay frames=\"8\"}} {{fun_00070005 arg=\"\"}}."
  },
  {
    "label": "012",
    "text": "{{anim id=\"36\"}}Sorry for the surprise.{{delay frames=\"32\"}} I was just\nwalking around the neighborhood,\nand I got the urge to say hi{{delay frames=\"8\"}}.{{delay frames=\"8\"}}.{{delay frames=\"8\"}}.{{delay frames=\"8\"}}"
  },
  {
    "label": "013",
    "text": "{{anim id=\"39\"}}I'm sorry for barging in,{{delay frames=\"32\"}} {{fun_00080005 arg=\"\"}}.{{delay frames=\"16\"}}\nI just dropped by because I felt like\nseeing you and saying hey."
  },
  {
    "label": "014",
    "text": "{{anim id=\"15\"}}Hm? {{delay frames=\"16\"}}What is this...?{{delay frames=\"32\"}} {{anim id=\"4\"}}{{delay frames=\"16\"}}Your room\nsmells like lavender{{delay frames=\"8\"}}.{{delay frames=\"8\"}}.{{delay frames=\"8\"}}.{{delay frames=\"8\"}} Or is it just\nme who smells that{{delay frames=\"8\"}}.{{delay frames=\"8\"}}.{{delay frames=\"8\"}}.{{delay frames=\"8\"}}?"
  },
  {
    "label": "015",
    "text": "{{anim id=\"37\"}}Huh!{{delay frames=\"16\"}} {{fun_0003000E arg=\"\"}}{{fun_00080005 arg=\"\"}},{{delay frames=\"8\"}} your room looks\nnice! {{anim id=\"21\"}}It's got that special X factor\nthat makes it stand out! {{anim id=\"33\"}}{{delay frames=\"16\"}}Like me!"
  },
  {
    "label": "016",
    "text": "{{anim id=\"36\"}}Heh heh heh{{delay frames=\"8\"}}.{{delay frames=\"8\"}}.{{delay frames=\"8\"}}.{{delay frames=\"8\"}} So this is how your\nroom usually looks,{{delay frames=\"16\"}} huh?"
  },
  {
    "label": "017",
    "text": "{{anim id=\"37\"}}Please be yourself.{{delay frames=\"32\"}} I want to see\nhow you usually act in your natural\nhabitat,{{delay frames=\"16\"}} {{fun_00080005 arg=\"\"}}."
  },
  {
    "label": "018",
    "text": "{{anim id=\"6\"}}It's hard to believe I'm actually in\n{{fun_00080005 arg=\"\"}}'s room{{delay frames=\"8\"}}.{{delay frames=\"8\"}}.{{delay frames=\"8\"}}.{{delay frames=\"8\"}}{{anim id=\"38\"}} Hah ha!{{delay frames=\"16\"}} It feels\nkinda weird!"
  },
  {
    "label": "019",
    "text": ""
  },
  {
    "label": "020",
    "text": ""
  },
  {
    "label": "021",
    "text": "{{anim id=\"37\"}}I brought you a little gift.{{delay frames=\"16\"}}\n{{fun_0003000E arg=\"\"}}{{fun_0002000E arg=\"\"}}{{fun_00030011 arg=\"0x0000\"}}!"
  },
  {
    "label": "022",
    "text": "{{anim id=\"37\"}}Oh yeah{{delay frames=\"4\"}}.{{delay frames=\"4\"}}.{{delay frames=\"4\"}}.{{delay frames=\"4\"}}I brought you something!\n{{fun_0003000E arg=\"\"}}{{fun_0002000E arg=\"\"}}{{anim id=\"1\"}}{{fun_00030011 arg=\"0x0000\"}}!"
  },
  {
    "label": "023",
    "text": "{{anim id=\"39\"}}Actually{{delay frames=\"8\"}}.{{delay frames=\"8\"}}.{{delay frames=\"8\"}}.{{delay frames=\"8\"}}there's something I\nbrought over for you,{{delay frames=\"8\"}} {{fun_00080005 arg=\"\"}}.\n{{anim id=\"37\"}}{{fun_0003000E arg=\"\"}}{{fun_0002000E arg=\"\"}}{{fun_00030011 arg=\"0x0000\"}}!{{delay frames=\"32\"}}\nYup, you're psyched!{{delay frames=\"16\"}} {{anim id=\"21\"}}I can tell.{{delay frames=\"16\"}}\nWell, {{anim id=\"38\"}}enjoy!"
  },
  {
    "label": "024",
    "text": "{{anim id=\"37\"}}I brought you{{delay frames=\"16\"}} a present today.\nIt's {{fun_0002000E arg=\"\"}}{{fun_00030011 arg=\"0x0000\"}}.{{delay frames=\"16\"}}\n{{anim id=\"3\"}}No special reason. Just because."
  },
  {
    "label": "025",
    "text": "{{anim id=\"37\"}}I'm not sure if you'll like it or not,{{delay frames=\"16\"}}\nbut I felt like bringing you a cool\nlittle {{fun_00030011 arg=\"0x0000\"}}!{{delay frames=\"8\"}}\nPlease take it!"
  },
  {
    "label": "026",
    "text": "{{anim id=\"37\"}}Oh, that's right!{{delay frames=\"16\"}} I brought you\n{{fun_0002000E arg=\"\"}}{{fun_00030011 arg=\"0x0000\"}}\nas a little gift,{{delay frames=\"8\"}} {{fun_00070005 arg=\"\"}}."
  },
  {
    "label": "027",
    "text": ""
  },
  {
    "label": "028",
    "text": ""
  },
  {
    "label": "029",
    "text": ""
  },
  {
    "label": "030",
    "text": ""
  },
  {
    "label": "031",
    "text": "Well{{delay frames=\"8\"}}.{{delay frames=\"8\"}}.{{delay frames=\"8\"}}.{{delay frames=\"8\"}}I should probably get going.{{delay frames=\"16\"}}\n{{fun_0003000E arg=\"\"}}{{fun_00080005 arg=\"\"}}? {{anim id=\"36\"}}Sorry for showing up\nwithout any notice.\n{{anim id=\"37\"}}Next time{{delay frames=\"8\"}} why don't you visit my\nplace instead?{{delay frames=\"8\"}} We can have tea and\nfancy cakes! {{fun_0003000E arg=\"\"}}{{fun_00070005 arg=\"\"}}!"
  },
  {
    "label": "032",
    "text": "{{anim id=\"9\"}}I don't really want to,{{delay frames=\"16\"}} but I should\nprobably get going{{delay frames=\"8\"}}.{{delay frames=\"8\"}}.{{delay frames=\"8\"}}.{{delay frames=\"8\"}}{{pageBreak}}{{anim id=\"37\"}}Sorry if I surprised you today.{{delay frames=\"32\"}}\nI hope you come by and visit\nmy place next,{{delay frames=\"8\"}} {{fun_00080005 arg=\"\"}}!"
  },
  {
    "label": "033",
    "text": "{{anim id=\"36\"}}Well,{{delay frames=\"8\"}} I'd feel bad if I stayed here for\ntoo long.{{delay frames=\"16\"}} I'll head back home now{{delay frames=\"8\"}}.{{delay frames=\"8\"}}.{{delay frames=\"8\"}}.{{delay frames=\"8\"}}{{pageBreak}}{{anim id=\"37\"}}I'm looking forward to having you\nstop by my house next time you\nfeel like visiting,{{delay frames=\"8\"}} {{fun_00070005 arg=\"\"}}!"
  },
  {
    "label": "034",
    "text": "{{anim id=\"16\"}}Hold on,{{delay frames=\"8\"}} {{fun_00080005 arg=\"\"}}!{{delay frames=\"16\"}}\nAre you going out now?{{pageBreak}}{{anim id=\"37\"}}If so,{{delay frames=\"8\"}} I'd better leave as well.{{delay frames=\"32\"}}\n{{anim id=\"38\"}}Thanks for having me over today!"
  },
  {
    "label": "035",
    "text": "{{anim id=\"15\"}}Oh,{{delay frames=\"8\"}} are you going somewhere,{{delay frames=\"8\"}}\n{{fun_00080005 arg=\"\"}}?{{pageBreak}}{{anim id=\"37\"}}If that's the case,{{delay frames=\"16\"}} I'd probably\nbetter leave as well.{{delay frames=\"32\"}} {{anim id=\"32\"}}See ya!"
  },
  {
    "label": "036",
    "text": "{{anim id=\"15\"}}Oh,{{delay frames=\"16\"}} are you going out,{{delay frames=\"8\"}} {{fun_00080005 arg=\"\"}}?{{pageBreak}}{{anim id=\"37\"}}If so,{{delay frames=\"16\"}} I'd best leave as well.{{delay frames=\"32\"}}\n{{anim id=\"32\"}}Hopefully I'll see you later!"
  },
  {
    "label": "037",
    "text": ""
  },
  {
    "label": "038",
    "text": ""
  },
  {
    "label": "039",
    "text": ""
  },
  {
    "label": "040",
    "text": ""
  }
]