﻿[
  {
    "label": "001",
    "text": "—Stylist {{fun_00010005 arg=\"\"}}"
  },
  {
    "label": "002",
    "text": "From {{fun_00010005 arg=\"\"}}"
  },
  {
    "label": "003",
    "text": "Be bold! —{{fun_00010005 arg=\"\"}}"
  },
  {
    "label": "004",
    "text": "—Fairy godfather {{fun_00010005 arg=\"\"}}"
  },
  {
    "label": "005",
    "text": "—Stylist {{fun_00010005 arg=\"\"}}"
  },
  {
    "label": "006",
    "text": "Is this real? —{{fun_00010005 arg=\"\"}}"
  },
  {
    "label": "007",
    "text": "—Decorator {{fun_00010005 arg=\"\"}}"
  },
  {
    "label": "008",
    "text": "-Design master {{fun_00010005 arg=\"\"}}"
  },
  {
    "label": "009",
    "text": "From {{fun_00010005 arg=\"\"}}"
  },
  {
    "label": "010",
    "text": "Thanks, from {{fun_00010005 arg=\"\"}}"
  }
]