﻿[
  {
    "label": "001",
    "text": "With love, {{fun_00010005 arg=\"\"}}"
  },
  {
    "label": "002",
    "text": "With love, {{fun_00010005 arg=\"\"}}"
  },
  {
    "label": "003",
    "text": "With love, {{fun_00010005 arg=\"\"}}"
  },
  {
    "label": "004",
    "text": "From {{fun_00010005 arg=\"\"}}"
  },
  {
    "label": "005",
    "text": "From {{fun_00010005 arg=\"\"}}"
  },
  {
    "label": "006",
    "text": "From {{fun_00010005 arg=\"\"}}"
  },
  {
    "label": "007",
    "text": "From {{fun_00010005 arg=\"\"}}"
  },
  {
    "label": "008",
    "text": "From {{fun_00010005 arg=\"\"}}"
  },
  {
    "label": "009",
    "text": "From {{fun_00010005 arg=\"\"}}"
  }
]