﻿[
  {
    "label": "001",
    "text": "Your friend, {{fun_00010005 arg=\"\"}}"
  },
  {
    "label": "002",
    "text": "Sincerely, {{fun_00010005 arg=\"\"}}"
  },
  {
    "label": "003",
    "text": "Your friend, {{fun_00010005 arg=\"\"}}"
  }
]