﻿[
  {
    "label": "001",
    "locale": {
      "EUde": "Dein {{fun_00010005 arg=\"\"}}",
      "EUen": "Sobbing, {{fun_00010005 arg=\"\"}}",
      "EUes": "Con pena, {{fun_00010005 arg=\"\"}}",
      "EUfr": "Tristement, {{fun_00010005 arg=\"\"}}",
      "EUit": "Con tristezza, {{fun_00010005 arg=\"\"}}",
      "JPja": "むせびなく　{{fun_00010005 arg=\"\"}}",
      "KRko": "목 놓아 흐느끼는 {{fun_00010005 arg=\"\"}}",
      "USen": "Sobbing, {{fun_00010005 arg=\"\"}}",
      "USes": "Con pena, {{fun_00010005 arg=\"\"}}",
      "USfr": "Tristement, {{fun_00010005 arg=\"\"}}"
    }
  },
  {
    "label": "002",
    "locale": {
      "EUde": "Traurig, {{fun_00010005 arg=\"\"}}",
      "EUen": "Tears streaming, {{fun_00010005 arg=\"\"}}",
      "EUes": "Con dolor, {{fun_00010005 arg=\"\"}}",
      "EUfr": "Stoïquement, {{fun_00010005 arg=\"\"}}",
      "EUit": "Piangente, {{fun_00010005 arg=\"\"}}",
      "JPja": "かたふるわす　{{fun_00010005 arg=\"\"}}",
      "KRko": "떨리는 어깨로 {{fun_00010005 arg=\"\"}}",
      "USen": "Tears streaming, {{fun_00010005 arg=\"\"}}",
      "USes": "Con dolor, {{fun_00010005 arg=\"\"}}",
      "USfr": "Stoïquement, {{fun_00010005 arg=\"\"}}"
    }
  },
  {
    "label": "003",
    "locale": {
      "EUde": "Denk an mich! {{fun_00010005 arg=\"\"}}",
      "EUen": "No looking back, {{fun_00010005 arg=\"\"}}",
      "EUes": "Tu amigo, {{fun_00010005 arg=\"\"}}",
      "EUfr": "{{fun_00010005 arg=\"\"}}, star courageuse",
      "EUit": "Malinconico, {{fun_00010005 arg=\"\"}}",
      "JPja": "ふりむかない　{{fun_00010005 arg=\"\"}}より",
      "KRko": "뒤돌아보지 않는 {{fun_00010005 arg=\"\"}} 씀",
      "USen": "No looking back, {{fun_00010005 arg=\"\"}}",
      "USes": "Tu amigo, {{fun_00010005 arg=\"\"}}",
      "USfr": "{{fun_00010005 arg=\"\"}}, star courageuse"
    }
  },
  {
    "label": "004",
    "locale": {
      "EUde": "Unter Tränen, {{fun_00010005 arg=\"\"}}",
      "EUen": "Sniffling tears, {{fun_00010005 arg=\"\"}}",
      "EUes": "Entre lágrimas, {{fun_00010005 arg=\"\"}}",
      "EUfr": "{{fun_00010005 arg=\"\"}}, star résignée",
      "EUit": "Sniff sniff, {{fun_00010005 arg=\"\"}}",
      "JPja": "なみだこらえる　{{fun_00010005 arg=\"\"}}",
      "KRko": "울음을 참으며 {{fun_00010005 arg=\"\"}}",
      "USen": "Sniffling tears, {{fun_00010005 arg=\"\"}}",
      "USes": "Entre lágrimas, {{fun_00010005 arg=\"\"}}",
      "USfr": "{{fun_00010005 arg=\"\"}}, star résignée"
    }
  },
  {
    "label": "005",
    "locale": {
      "EUde": "Hoffnungsvoll, {{fun_00010005 arg=\"\"}}",
      "EUen": "Moving forward, {{fun_00010005 arg=\"\"}}",
      "EUes": "A la aventura, {{fun_00010005 arg=\"\"}}",
      "EUfr": "Sans regrets, {{fun_00010005 arg=\"\"}}",
      "EUit": "Mi mancherai, {{fun_00010005 arg=\"\"}}",
      "JPja": "あるきだす　{{fun_00010005 arg=\"\"}}",
      "KRko": "한 걸음 내딛으며 {{fun_00010005 arg=\"\"}}",
      "USen": "Moving forward, {{fun_00010005 arg=\"\"}}",
      "USes": "A la aventura, {{fun_00010005 arg=\"\"}}",
      "USfr": "Sans regrets, {{fun_00010005 arg=\"\"}}"
    }
  },
  {
    "label": "006",
    "locale": {
      "EUde": "Untröstlich, {{fun_00010005 arg=\"\"}}",
      "EUen": "From {{fun_00010005 arg=\"\"}}",
      "EUes": "Tu amigo, {{fun_00010005 arg=\"\"}}",
      "EUfr": "Ta star à jamais, {{fun_00010005 arg=\"\"}}",
      "EUit": "Sempre tuo, {{fun_00010005 arg=\"\"}}",
      "JPja": "{{fun_00010005 arg=\"\"}}でした",
      "KRko": "{{fun_00010005 arg=\"\"}} 보냄",
      "USen": "From {{fun_00010005 arg=\"\"}}",
      "USes": "Tu amigo, {{fun_00010005 arg=\"\"}}",
      "USfr": "Ta star à jamais, {{fun_00010005 arg=\"\"}}"
    }
  }
]