﻿[
  {
    "label": "001",
    "locale": {
      "EUde": "Von Nintendo",
      "EUen": "From Nintendo",
      "EUes": "De Nintendo",
      "EUfr": "Nintendo",
      "EUit": "Da Nintendo",
      "JPja": "ニンテンドーより",
      "KRko": "닌텐도 드림",
      "USen": "From Nintendo",
      "USes": "De Nintendo",
      "USfr": "Nintendo"
    }
  }
]