﻿[
  {
    "label": "001",
    "locale": {
      "EUde": "—Superstar {{fun_00010005 arg=\"\"}}",
      "EUen": "—Supporting star {{fun_00010005 arg=\"\"}}",
      "EUes": "De la famosa {{fun_00010005 arg=\"\"}}",
      "EUfr": "--{{fun_00010005 arg=\"\"}}, la star ",
      "EUit": "Dalla tua fan {{fun_00010005 arg=\"\"}}",
      "JPja": "わきやくの　{{fun_00010005 arg=\"\"}}より",
      "KRko": "조연 {{fun_00010005 arg=\"\"}}{{fun_000E000E arg=\"0x020074C7020000AC\"}} 보냄",
      "USen": "—Supporting star {{fun_00010005 arg=\"\"}}",
      "USes": "De la famosa {{fun_00010005 arg=\"\"}}",
      "USfr": "--{{fun_00010005 arg=\"\"}}, la star "
    }
  },
  {
    "label": "002",
    "locale": {
      "EUde": "Von deiner {{fun_00010005 arg=\"\"}}",
      "EUen": "From your pal, {{fun_00010005 arg=\"\"}}",
      "EUes": "De tu amiga {{fun_00010005 arg=\"\"}}",
      "EUfr": "{{fun_00010005 arg=\"\"}}, the best ",
      "EUit": "Dalla mitica {{fun_00010005 arg=\"\"}}",
      "JPja": "FROM　{{fun_00010005 arg=\"\"}}",
      "KRko": "FROM {{fun_00010005 arg=\"\"}}",
      "USen": "From your pal, {{fun_00010005 arg=\"\"}}",
      "USes": "De tu amiga {{fun_00010005 arg=\"\"}}",
      "USfr": "{{fun_00010005 arg=\"\"}}, the best "
    }
  },
  {
    "label": "003",
    "locale": {
      "EUde": "Wuhuu! —{{fun_00010005 arg=\"\"}}",
      "EUen": "Amazing, right? —{{fun_00010005 arg=\"\"}}",
      "EUes": "Besos, {{fun_00010005 arg=\"\"}}",
      "EUfr": "Bisou bisou --{{fun_00010005 arg=\"\"}} ",
      "EUit": "Ti piacerebbe!!! {{fun_00010005 arg=\"\"}}",
      "JPja": "どうだろ？　{{fun_00010005 arg=\"\"}}でした！",
      "KRko": "어떨까? {{fun_00010005 arg=\"\"}}{{fun_000E000E arg=\"0x040074C7C8C5020000C6\"}}습니다!",
      "USen": "Amazing, right? —{{fun_00010005 arg=\"\"}}",
      "USes": "Besos, {{fun_00010005 arg=\"\"}}",
      "USfr": "Bisou bisou --{{fun_00010005 arg=\"\"}} "
    }
  }
]