﻿[
  {
    "label": "001",
    "locale": {
      "EUde": "Dein alter Freund {{fun_00010005 arg=\"\"}}",
      "EUen": "Your old pal, {{fun_00010005 arg=\"\"}}",
      "EUes": "Tu viejo amigo, {{fun_00010005 arg=\"\"}}",
      "EUfr": "Ton pote, {{fun_00010005 arg=\"\"}}.",
      "EUit": "Il tuo amichetto, {{fun_00010005 arg=\"\"}}",
      "JPja": "よろしくぅ！　{{fun_00010005 arg=\"\"}}より",
      "KRko": "잘 부탁해! {{fun_00010005 arg=\"\"}}{{fun_000E000E arg=\"0x04003CC75CB802005CB8\"}}부터",
      "USen": "Your old pal, {{fun_00010005 arg=\"\"}}",
      "USes": "Tu viejo amigo, {{fun_00010005 arg=\"\"}}",
      "USfr": "Ton pote, {{fun_00010005 arg=\"\"}}."
    }
  },
  {
    "label": "002",
    "locale": {
      "EUde": "Danke! Dein {{fun_00010005 arg=\"\"}}",
      "EUen": "Thanks! {{fun_00010005 arg=\"\"}}",
      "EUes": "¡Gracias! {{fun_00010005 arg=\"\"}}",
      "EUfr": "À bientôt ! {{fun_00010005 arg=\"\"}}",
      "EUit": "Grazie! {{fun_00010005 arg=\"\"}}",
      "JPja": "たのんだよぉ　{{fun_00010005 arg=\"\"}}より",
      "KRko": "너만 믿을게에, {{fun_00010005 arg=\"\"}} 보냄",
      "USen": "Thanks! {{fun_00010005 arg=\"\"}}",
      "USes": "¡Gracias! {{fun_00010005 arg=\"\"}}",
      "USfr": "À bientôt! {{fun_00010005 arg=\"\"}}"
    }
  },
  {
    "label": "003",
    "locale": {
      "EUde": "Dein Vergangenheits-Ich",
      "EUen": "Sincerely, Past Me",
      "EUes": "Atentamente, tu yo pasado",
      "EUfr": "À plus ! Signé : le vieux moi.",
      "EUit": "Tanti saluti, il tuo io passato",
      "JPja": "かこのボクより",
      "KRko": "과거의 내가",
      "USen": "Sincerely, Past Me",
      "USes": "Atentamente, tu yo pasado",
      "USfr": "À plus! Signé : le vieux moi."
    }
  },
  {
    "label": "004",
    "locale": {
      "EUde": "{{fun_00010005 arg=\"\"}}, dein altes Ich",
      "EUen": "Your former self, {{fun_00010005 arg=\"\"}}",
      "EUes": "Tu yo más joven, {{fun_00010005 arg=\"\"}}",
      "EUfr": "Ton ancien toi, {{fun_00010005 arg=\"\"}}.",
      "EUit": "Il tuo io passato, {{fun_00010005 arg=\"\"}}",
      "JPja": "だいじにしてねぇ？　{{fun_00010005 arg=\"\"}}",
      "KRko": "소중히 해줘어, {{fun_00010005 arg=\"\"}} 보냄",
      "USen": "Your former self, {{fun_00010005 arg=\"\"}}",
      "USes": "Tu yo más joven, {{fun_00010005 arg=\"\"}}",
      "USfr": "Ton ancien toi, {{fun_00010005 arg=\"\"}}."
    }
  },
  {
    "label": "005",
    "locale": {
      "EUde": "Dein {{fun_00010005 arg=\"\"}}",
      "EUen": "From Past {{fun_00010005 arg=\"\"}}",
      "EUes": "{{fun_0003000E arg=\"\"}}{{fun_00010005 arg=\"\"}} del pasado",
      "EUfr": "Le {{fun_00010005 arg=\"\"}} du passé",
      "EUit": "Dal passato {{fun_00010005 arg=\"\"}}",
      "JPja": "むかしの　{{fun_00010005 arg=\"\"}}より",
      "KRko": "과거의 {{fun_00010005 arg=\"\"}}{{fun_000E000E arg=\"0x04003CC75CB802005CB8\"}}부터",
      "USen": "From Past {{fun_00010005 arg=\"\"}}",
      "USes": "{{fun_0003000E arg=\"\"}}{{fun_00010005 arg=\"\"}} del pasado",
      "USfr": "Le {{fun_00010005 arg=\"\"}} du passé"
    }
  },
  {
    "label": "006",
    "locale": {
      "EUde": "Von {{fun_00010005 arg=\"\"}}",
      "EUen": "From {{fun_00010005 arg=\"\"}}",
      "EUes": "{{fun_00010005 arg=\"\"}}",
      "EUfr": "Signé : {{fun_00010005 arg=\"\"}}",
      "EUit": "Da {{fun_00010005 arg=\"\"}} con allegria!",
      "JPja": "なつかしいかなぁ？　{{fun_00010005 arg=\"\"}}",
      "KRko": "반가우려나아? {{fun_00010005 arg=\"\"}} 보냄",
      "USen": "From {{fun_00010005 arg=\"\"}}",
      "USes": "{{fun_00010005 arg=\"\"}}",
      "USfr": "Signé : {{fun_00010005 arg=\"\"}}"
    }
  },
  {
    "label": "007",
    "locale": {
      "EUde": "{{fun_00010005 arg=\"\"}}, dein jüngeres Ich",
      "EUen": "Young {{fun_00010005 arg=\"\"}}",
      "EUes": "El joven {{fun_00010005 arg=\"\"}}",
      "EUfr": "{{fun_00010005 arg=\"\"}} (du passé)",
      "EUit": "Il giovane {{fun_00010005 arg=\"\"}}",
      "JPja": "ちょっとおさない　{{fun_00010005 arg=\"\"}}",
      "KRko": "조금 어린 {{fun_00010005 arg=\"\"}}{{fun_000E000E arg=\"0x04003CC75CB802005CB8\"}}부터",
      "USen": "Young {{fun_00010005 arg=\"\"}}",
      "USes": "El joven {{fun_00010005 arg=\"\"}}",
      "USfr": "{{fun_00010005 arg=\"\"}} (du passé)"
    }
  },
  {
    "label": "008",
    "locale": {
      "EUde": "Dein alter Freund {{fun_00010005 arg=\"\"}}",
      "EUen": "Your pal, Past {{fun_00010005 arg=\"\"}}",
      "EUes": "Tu amigo, {{fun_00010005 arg=\"\"}} pasado",
      "EUfr": "{{fun_00010005 arg=\"\"}} (en plus jeune)",
      "EUit": "Il tuo amico, {{fun_00010005 arg=\"\"}}",
      "JPja": "たのんだよぉ！　{{fun_00010005 arg=\"\"}}より",
      "KRko": "너만 믿을게! From {{fun_00010005 arg=\"\"}}",
      "USen": "Your pal, Past {{fun_00010005 arg=\"\"}}",
      "USes": "Tu amigo, {{fun_00010005 arg=\"\"}} pasado",
      "USfr": "{{fun_00010005 arg=\"\"}} (en plus jeune)"
    }
  },
  {
    "label": "009",
    "locale": {
      "EUde": "Dein {{fun_00010005 arg=\"\"}} von früher",
      "EUen": "{{fun_00010005 arg=\"\"}} of the Past",
      "EUes": "{{fun_00010005 arg=\"\"}} del pasado",
      "EUfr": "{{fun_00010005 arg=\"\"}}, surgit du passé",
      "EUit": "{{fun_00010005 arg=\"\"}} dal passato",
      "JPja": "よろしくぅ～　{{fun_00010005 arg=\"\"}}より",
      "KRko": "잘 부탁해～ {{fun_00010005 arg=\"\"}}{{fun_000E000E arg=\"0x04003CC75CB802005CB8\"}}부터",
      "USen": "{{fun_00010005 arg=\"\"}} of the Past",
      "USes": "{{fun_00010005 arg=\"\"}} del pasado",
      "USfr": "{{fun_00010005 arg=\"\"}}, surgit du passé"
    }
  },
  {
    "label": "010",
    "locale": {
      "EUde": "Dein Vergangenheits-Ich",
      "EUen": "Sincerely, Past Me",
      "EUes": "Atentamente, tu yo pasado",
      "EUfr": "À bientôt, Moi du passé",
      "EUit": "Tanti saluti, il tuo io passato",
      "JPja": "かこの　{{fun_00010005 arg=\"\"}}より",
      "KRko": "과거의 {{fun_00010005 arg=\"\"}}{{fun_000E000E arg=\"0x04003CC75CB802005CB8\"}}부터",
      "USen": "Sincerely, Past Me",
      "USes": "Atentamente, tu yo pasado",
      "USfr": "À bientôt, Moi du passé"
    }
  },
  {
    "label": "011",
    "locale": {
      "EUde": "Dein früherer {{fun_00010005 arg=\"\"}}",
      "EUen": "Yours truly, Past Me",
      "EUes": "Atentamente, tu yo pasado",
      "EUfr": "Salut ! L'ancien moi",
      "EUit": "Con affetto, il tuo io passato",
      "JPja": "かこのボクより",
      "KRko": "과거의 내가",
      "USen": "Yours truly, Past Me",
      "USes": "Atentamente, tu yo pasado",
      "USfr": "Salut! L'ancien moi"
    }
  },
  {
    "label": "012",
    "locale": {
      "EUde": "Von mir",
      "EUen": "From Past Me",
      "EUes": "Tu yo pasado",
      "EUfr": "De la part de l'ancien moi",
      "EUit": "Dal tuo io passato",
      "JPja": "オシャレにきてねぇ　ボクより",
      "KRko": "멋지게 입기를 바라는 내가 보냄",
      "USen": "From Past Me",
      "USes": "Tu yo pasado",
      "USfr": "De la part de l'ancien moi"
    }
  },
  {
    "label": "013",
    "locale": {
      "EUde": "Von deinem {{fun_00010005 arg=\"\"}}",
      "EUen": "Your pal, Past {{fun_00010005 arg=\"\"}}",
      "EUes": "Tu amigo, {{fun_00010005 arg=\"\"}}",
      "EUfr": "Merci ! Signé : {{fun_00010005 arg=\"\"}}",
      "EUit": "Dal passato, {{fun_00010005 arg=\"\"}}",
      "JPja": "ヒミツだからねぇ　{{fun_00010005 arg=\"\"}}",
      "KRko": "비밀이야아, {{fun_00010005 arg=\"\"}}{{fun_000E000E arg=\"0x04003CC75CB802005CB8\"}}부터",
      "USen": "Your pal, Past {{fun_00010005 arg=\"\"}}",
      "USes": "Tu amigo, {{fun_00010005 arg=\"\"}}",
      "USfr": "Merci! Signé : {{fun_00010005 arg=\"\"}}"
    }
  },
  {
    "label": "014",
    "locale": {
      "EUde": "Dein Kumpel {{fun_00010005 arg=\"\"}}",
      "EUen": "Your buddy, {{fun_00010005 arg=\"\"}}",
      "EUes": "Tu compi, {{fun_00010005 arg=\"\"}}",
      "EUfr": "Merci à toi ! {{fun_00010005 arg=\"\"}}",
      "EUit": "Saluti e baci, {{fun_00010005 arg=\"\"}}",
      "JPja": "またやろうねぇ　{{fun_00010005 arg=\"\"}}より",
      "KRko": "또 부탁할게, {{fun_00010005 arg=\"\"}} 보냄",
      "USen": "Your buddy, {{fun_00010005 arg=\"\"}}",
      "USes": "Tu compi, {{fun_00010005 arg=\"\"}}",
      "USfr": "Merci à toi! {{fun_00010005 arg=\"\"}}"
    }
  },
  {
    "label": "015",
    "locale": {
      "EUde": "Dein lieber {{fun_00010005 arg=\"\"}}",
      "EUen": "Your friend, {{fun_00010005 arg=\"\"}}",
      "EUes": "Tu amigo, {{fun_00010005 arg=\"\"}}",
      "EUfr": "Merci encore. {{fun_00010005 arg=\"\"}}.",
      "EUit": "Il tuo amicone, {{fun_00010005 arg=\"\"}}",
      "JPja": "またやろぉ～！　{{fun_00010005 arg=\"\"}}より",
      "KRko": "또 부탁할게～! {{fun_00010005 arg=\"\"}} 보냄",
      "USen": "Your friend, {{fun_00010005 arg=\"\"}}",
      "USes": "Tu amigo, {{fun_00010005 arg=\"\"}}",
      "USfr": "Merci encore. {{fun_00010005 arg=\"\"}}."
    }
  }
]