﻿[
  {
    "label": "001",
    "text": "{{fun_0001000C arg=\"\"}}{{fun_0008000C arg=\"\"}}{{fun_0002000C arg=\"\"}}{{fun_0006000C arg=\"\"}}{{fun_0000000C arg=\"\"}}{{fun_0005000C arg=\"\"}}{{fun_0001000C arg=\"\"}}{{anim id=\"13\"}}Aiutooo!{{delay frames=\"20\"}} Una sosia!!!{{fun_0009000C arg=\"\"}}"
  },
  {
    "label": "002",
    "text": "{{fun_0000000C arg=\"\"}}{{fun_0007000C arg=\"\"}}{{fun_0002000C arg=\"\"}}{{anim id=\"7\"}}Smettila di scherzare!{{delay frames=\"8\"}}\nSei tu la copiona!!!{{fun_0009000C arg=\"\"}}"
  },
  {
    "label": "003",
    "text": "{{fun_0000000C arg=\"\"}}{{fun_0005000C arg=\"\"}}{{fun_0001000C arg=\"\"}}{{anim id=\"7\"}}Cooosa?!{{delay frames=\"20\"}} Hai un bel coraggio a dire\ncerte cose!{{anim id=\"0\"}}{{fun_0002000C arg=\"\"}}{{fun_0003000C arg=\"\"}}{{fun_0001000C arg=\"\"}}{{fun_0003000C arg=\"\"}}{{delay frames=\"8\"}}{{anim id=\"16\"}}{{delay frames=\"8\"}} {{fun_0003000E arg=\"\"}}{{fun_00080005 arg=\"\"}}!{{delay frames=\"40\"}}{{anim id=\"0\"}}{{delay frames=\"20\"}}{{fun_0002000C arg=\"\"}}{{fun_0004000C arg=\"\"}}{{fun_0001000C arg=\"\"}}{{fun_0004000C arg=\"\"}}{{delay frames=\"8\"}}{{anim id=\"13\"}}\nTirami fuori da questa storia!{{delay frames=\"20\"}}\nUn'altra me è comparsa dal nulla!{{delay frames=\"40\"}}\nÈ un'impostina{{delay frames=\"8\"}}.{{delay frames=\"8\"}}.{{delay frames=\"8\"}}.{{delay frames=\"20\"}} un'impostata{{delay frames=\"8\"}}.{{delay frames=\"8\"}}.{{delay frames=\"8\"}}.{{delay frames=\"20\"}}\nun'impostale{{delay frames=\"8\"}}.{{delay frames=\"8\"}}.{{delay frames=\"8\"}}.{{delay frames=\"20\"}} un'impostora, ecco!{{anim id=\"9\"}}{{fun_0009000C arg=\"\"}}"
  },
  {
    "label": "004",
    "text": "{{fun_0000000C arg=\"\"}}{{fun_0007000C arg=\"\"}}{{fun_0002000C arg=\"\"}}{{delay frames=\"8\"}}{{anim id=\"15\"}}Non farti ingannare, {{fun_00080005 arg=\"\"}}!{{delay frames=\"40\"}}\n{{anim id=\"13\"}}Io sono quella vera!{{delay frames=\"20\"}} Lei è{{delay frames=\"8\"}}.{{delay frames=\"8\"}}.{{delay frames=\"8\"}}.\nl'impostora!{{delay frames=\"20\"}} Si vede, no?!{{delay frames=\"40\"}}{{anim id=\"9\"}}{{fun_0009000C arg=\"\"}}"
  },
  {
    "label": "005",
    "text": ""
  },
  {
    "label": "006",
    "text": "{{fun_0001000C arg=\"\"}}{{fun_0008000C arg=\"\"}}{{fun_0002000C arg=\"\"}}{{fun_0006000C arg=\"\"}}{{fun_0000000C arg=\"\"}}{{fun_0005000C arg=\"\"}}{{fun_0001000C arg=\"\"}}{{anim id=\"6\"}}Ehi! Smettila di copiarmi!{{fun_0009000C arg=\"\"}}"
  },
  {
    "label": "007",
    "text": "{{fun_0000000C arg=\"\"}}{{fun_0007000C arg=\"\"}}{{fun_0002000C arg=\"\"}}{{anim id=\"6\"}}No! {{delay frames=\"20\"}}Sei TU che devi smetterla\ndi copiare ME!{{fun_0009000C arg=\"\"}}"
  },
  {
    "label": "008",
    "text": ""
  },
  {
    "label": "009",
    "text": "{{fun_0000000C arg=\"\"}}{{fun_0005000C arg=\"\"}}{{fun_0001000C arg=\"\"}}{{anim id=\"8\"}}TU sei l'impostina{{delay frames=\"8\"}}.{{delay frames=\"8\"}}.{{delay frames=\"8\"}}.{{delay frames=\"20\"}} l'impostata{{delay frames=\"8\"}}.{{delay frames=\"8\"}}.{{delay frames=\"8\"}}.{{delay frames=\"20\"}}\nl'impostora!{{delay frames=\"40\"}} La sosia!{{delay frames=\"20\"}} Chiamala\nun po' come ti pare!{{anim id=\"6\"}}{{fun_0009000C arg=\"\"}}"
  },
  {
    "label": "010",
    "text": "{{fun_0000000C arg=\"\"}}{{fun_0007000C arg=\"\"}}{{fun_0002000C arg=\"\"}}{{anim id=\"8\"}}No, TU sei la mia fotocopia!{{delay frames=\"40\"}}{{anim id=\"6\"}}{{fun_0009000C arg=\"\"}}"
  },
  {
    "label": "011",
    "text": ""
  },
  {
    "label": "012",
    "text": "{{fun_0000000C arg=\"\"}}{{fun_0005000C arg=\"\"}}{{fun_0001000C arg=\"\"}}{{anim id=\"13\"}}Insomma!{{delay frames=\"20\"}} Mi stai facendo impazzire!{{delay frames=\"40\"}}{{anim id=\"9\"}}{{fun_0009000C arg=\"\"}}"
  },
  {
    "label": "013",
    "text": "{{fun_0000000C arg=\"\"}}{{fun_0007000C arg=\"\"}}{{fun_0002000C arg=\"\"}}{{anim id=\"7\"}}Sei TU che stai facendo\nimpazzire ME!!!{{fun_0009000C arg=\"\"}}"
  },
  {
    "label": "014",
    "text": ""
  },
  {
    "label": "015",
    "text": ""
  },
  {
    "label": "016",
    "text": "{{fun_0000000C arg=\"\"}}{{fun_0006000C arg=\"\"}}{{fun_0001000C arg=\"\"}}{{anim id=\"21\"}}{{delay frames=\"8\"}}.{{delay frames=\"8\"}}.{{delay frames=\"8\"}}.{{delay frames=\"20\"}}{{delay frames=\"8\"}} Beh, perché non chiediamo\na qualcuno di dirci cosa ne pensa?{{delay frames=\"40\"}}{{anim id=\"0\"}}{{pageBreak}}{{fun_0002000C arg=\"\"}}{{fun_0004000C arg=\"\"}}{{fun_0001000C arg=\"\"}}{{fun_0004000C arg=\"\"}}{{delay frames=\"8\"}}{{anim id=\"6\"}}Ehi tu, {{fun_00080005 arg=\"\"}}!{{delay frames=\"40\"}} Tu sai dire chi\ndi noi due è quella falsa, vero? {{fun_0005000F arg=\"0x00000000\"}}\nMa certo!\n..."
  },
  {
    "label": "017",
    "text": "{{anim id=\"37\"}}OK!{{delay frames=\"40\"}}{{anim id=\"0\"}} Allora, dai questo asciugamano\nalla sosia{{delay frames=\"8\"}}.{{delay frames=\"8\"}}.{{delay frames=\"8\"}}.{{delay frames=\"20\"}} Volevo dire,\nall'impostora!"
  },
  {
    "label": "018",
    "text": "{{anim id=\"21\"}}E quando l'impostora si pulirà\nla faccia,{{delay frames=\"8\"}} vedremo come stanno\nle cose!{{fun_0009000C arg=\"\"}}"
  },
  {
    "label": "019",
    "text": "{{fun_0000000C arg=\"\"}}{{fun_0007000C arg=\"\"}}{{fun_0002000C arg=\"\"}}{{delay frames=\"8\"}}{{anim id=\"16\"}}Mmmh{{delay frames=\"8\"}}.{{delay frames=\"8\"}}.{{delay frames=\"8\"}}.{{delay frames=\"20\"}} Buona idea, impostora!\n{{anim id=\"37\"}}Ora staremo a vedere!{{delay frames=\"20\"}}{{pageBreak}}Procedi pure, {{fun_00080005 arg=\"\"}}!{{delay frames=\"8\"}}\nVoglio sbugiardare questa\ntipetta il prima possibile!"
  },
  {
    "label": "020",
    "text": "{{anim id=\"17\"}}{{delay frames=\"20\"}}Cosa?!{{delay frames=\"20\"}} Non lo sai?{{fun_0009000C arg=\"\"}}"
  },
  {
    "label": "021",
    "text": "{{fun_0000000C arg=\"\"}}{{fun_0007000C arg=\"\"}}{{fun_0002000C arg=\"\"}}{{delay frames=\"8\"}}{{anim id=\"13\"}}{{delay frames=\"20\"}}Oh! {{delay frames=\"20\"}}Svegliati però!{{delay frames=\"40\"}}{{anim id=\"9\"}}"
  },
  {
    "label": "022",
    "text": ""
  },
  {
    "label": "023",
    "text": "{{fun_0000000C arg=\"\"}}{{fun_0006000C arg=\"\"}}{{anim id=\"12\"}}Oh{{delay frames=\"8\"}}.{{delay frames=\"8\"}}.{{delay frames=\"8\"}}.{{delay frames=\"20\"}} dai. {{delay frames=\"8\"}}Che facciamo?{{delay frames=\"20\"}}\n{{fun_0002000C arg=\"\"}}{{fun_0003000C arg=\"\"}}{{fun_0001000C arg=\"\"}}{{fun_0003000C arg=\"\"}}{{delay frames=\"20\"}}{{anim id=\"9\"}}{{fun_0003000E arg=\"\"}}{{fun_00080005 arg=\"\"}}, {{delay frames=\"15\"}}non hai nessuna idea?{{fun_0005000F arg=\"0x00000000\"}}\nMmmh...\nCalmati!"
  },
  {
    "label": "024",
    "text": "{{anim id=\"11\"}}Che facciamo{{delay frames=\"8\"}}.{{delay frames=\"8\"}}.{{delay frames=\"8\"}}.{{delay frames=\"20\"}}{{fun_0009000C arg=\"\"}}"
  },
  {
    "label": "025",
    "text": "{{fun_0000000C arg=\"\"}}{{fun_0007000C arg=\"\"}}{{fun_0002000C arg=\"\"}}{{anim id=\"10\"}}Che brutta storia{{delay frames=\"8\"}}.{{delay frames=\"8\"}}.{{delay frames=\"8\"}}.{{fun_0009000C arg=\"\"}}"
  },
  {
    "label": "026",
    "text": "{{anim id=\"13\"}}Calmarmi???{{delay frames=\"20\"}} E cosa dovrei fare\nper calmarmi?! {{delay frames=\"40\"}}{{anim id=\"9\"}}{{fun_0009000C arg=\"\"}}"
  },
  {
    "label": "027",
    "text": "{{fun_0000000C arg=\"\"}}{{fun_0007000C arg=\"\"}}{{fun_0002000C arg=\"\"}}{{anim id=\"13\"}}Giusto!{{delay frames=\"40\"}} Questa è un'emergenza!{{delay frames=\"40\"}}{{anim id=\"9\"}}{{fun_0009000C arg=\"\"}}"
  },
  {
    "label": "028",
    "text": "{{fun_0000000C arg=\"\"}}{{fun_0005000C arg=\"\"}}{{delay frames=\"8\"}}.{{delay frames=\"8\"}}.{{delay frames=\"8\"}}.{{delay frames=\"20\"}}{{anim id=\"16\"}} Oh!{{delay frames=\"20\"}} Ecco!{{delay frames=\"20\"}} Ho capito!{{delay frames=\"20\"}}\nSo cosa devi fare!{{delay frames=\"20\"}}{{pageBreak}}{{anim id=\"0\"}}{{fun_0003000E arg=\"\"}}{{fun_00080005 arg=\"\"}}, fammi il favore,\nliberati di una cosa che hai in tasca.{{delay frames=\"8\"}}\nPoi ci riproviamo, {{delay frames=\"20\"}}{{fun_00070005 arg=\"\"}}!"
  },
  {
    "label": "029",
    "text": ""
  },
  {
    "label": "030",
    "text": "{{fun_0000000C arg=\"\"}}{{fun_0006000C arg=\"\"}}{{fun_0001000C arg=\"\"}}{{fun_0004000C arg=\"\"}}{{fun_0002000C arg=\"\"}}{{fun_0004000C arg=\"\"}}{{fun_0001000C arg=\"\"}}{{anim id=\"13\"}}{{fun_0003000E arg=\"\"}}{{fun_00080005 arg=\"\"}},{{delay frames=\"15\"}} tu sai chi di noi due\nè l'impostina, quella falsa, la sosia,{{delay frames=\"10\"}}\nverooo?!{{fun_0005000F arg=\"0x00000000\"}}\nCerto che sì!\nMh, forse..."
  },
  {
    "label": "031",
    "text": "{{anim id=\"22\"}}{{delay frames=\"8\"}}.{{delay frames=\"8\"}}.{{delay frames=\"8\"}}.{{delay frames=\"20\"}} OK!{{delay frames=\"8\"}} Non è che per caso hai\nun asciugamano, eh?!{{delay frames=\"8\"}}{{anim id=\"21\"}} Ottimo!{{delay frames=\"20\"}}{{pageBreak}}Allora, dai l'asciugamano a chi\npensi che sia l'impost{{delay frames=\"8\"}}.{{delay frames=\"8\"}}.{{delay frames=\"8\"}}.{{delay frames=\"20\"}} la sosia!"
  },
  {
    "label": "032",
    "text": "{{anim id=\"37\"}}Quando si passerà l'asciugamano\nsulla faccia, vedremo come stanno\nle cose! {{delay frames=\"20\"}}Conto su di te!{{fun_0009000C arg=\"\"}}"
  },
  {
    "label": "033",
    "text": "{{fun_0000000C arg=\"\"}}{{fun_0007000C arg=\"\"}}{{fun_0002000C arg=\"\"}}{{delay frames=\"8\"}}{{anim id=\"16\"}}Mmmh{{delay frames=\"8\"}}.{{delay frames=\"8\"}}.{{delay frames=\"8\"}}.{{delay frames=\"20\"}} Buona idea!\n{{anim id=\"37\"}}Basta con le ciance!{{delay frames=\"20\"}}{{pageBreak}}Forza, {{fun_00080005 arg=\"\"}}!{{delay frames=\"8\"}} Voglio mandarla\nvia di qui in men che non si dica!"
  },
  {
    "label": "034",
    "text": "{{anim id=\"17\"}}{{delay frames=\"20\"}}Eh?!{{delay frames=\"20\"}} Non lo sai?{{fun_0009000C arg=\"\"}}"
  },
  {
    "label": "035",
    "text": "{{fun_0000000C arg=\"\"}}{{fun_0007000C arg=\"\"}}{{fun_0002000C arg=\"\"}}{{delay frames=\"8\"}}{{anim id=\"13\"}}{{delay frames=\"20\"}}Mamma mia,{{delay frames=\"20\"}} e ora come facciamo?{{delay frames=\"40\"}}{{anim id=\"9\"}}"
  },
  {
    "label": "036",
    "text": ""
  },
  {
    "label": "037",
    "text": "{{fun_0000000C arg=\"\"}}{{fun_0005000C arg=\"\"}}{{fun_0002000C arg=\"\"}}{{fun_0005000C arg=\"\"}}{{fun_0001000C arg=\"\"}}{{fun_0003000C arg=\"\"}}{{anim id=\"15\"}}{{delay frames=\"8\"}}.{{delay frames=\"8\"}}.{{delay frames=\"8\"}}.{{delay frames=\"20\"}} Eh?{{delay frames=\"8\"}} Tu pensi che sia io?{{delay frames=\"8\"}} Pensi\nche sia quell'impostata\ndell'impostora?{{pageBreak}}{{anim id=\"27\"}}OK, va bene!{{delay frames=\"8\"}} Poche storie e dammi\nquell'asciugamano allora!"
  },
  {
    "label": "038",
    "text": "{{anim id=\"35\"}}Pronti{{delay frames=\"8\"}}.{{delay frames=\"8\"}}.{{delay frames=\"8\"}}.?{{delay frames=\"20\"}} Attenzione.{{delay frames=\"20\"}}{{anim id=\"0\"}} Eeeeee{{delay frames=\"8\"}}.{{delay frames=\"8\"}}.{{delay frames=\"8\"}}.{{delay frames=\"20\"}}"
  },
  {
    "label": "039",
    "text": ""
  },
  {
    "label": "040",
    "text": "{{fun_0002000C arg=\"\"}}{{fun_0003000C arg=\"\"}}{{fun_0001000C arg=\"\"}}{{delay frames=\"8\"}}.{{delay frames=\"8\"}}.{{delay frames=\"8\"}}.{{delay frames=\"20\"}}{{anim id=\"23\"}} Eh?{{delay frames=\"20\"}} Ci lasci qui così?"
  },
  {
    "label": "041",
    "text": "{{fun_0002000C arg=\"\"}}{{fun_0003000C arg=\"\"}}{{fun_0001000C arg=\"\"}}{{delay frames=\"8\"}}.{{delay frames=\"8\"}}.{{delay frames=\"8\"}}.{{delay frames=\"20\"}}{{anim id=\"9\"}} L'asciugamano, {{delay frames=\"10\"}}per favore!"
  },
  {
    "label": "042",
    "text": ""
  },
  {
    "label": "043",
    "text": "{{fun_0000000C arg=\"\"}}{{fun_0007000C arg=\"\"}}{{fun_0001000C arg=\"\"}}{{fun_0007000C arg=\"\"}}{{fun_0002000C arg=\"\"}}{{delay frames=\"8\"}}{{anim id=\"15\"}}Ecco! {{delay frames=\"20\"}}Lo sapevo!{{delay frames=\"20\"}} Impostora!{{delay frames=\"40\"}}{{anim id=\"0\"}}{{pageBreak}}{{fun_0002000C arg=\"\"}}{{fun_0004000C arg=\"\"}}{{fun_0000000C arg=\"\"}}{{fun_0007000C arg=\"\"}}{{fun_0002000C arg=\"\"}}{{fun_0004000C arg=\"\"}}{{delay frames=\"8\"}}{{fun_0003000E arg=\"\"}}{{fun_00080005 arg=\"\"}}!{{delay frames=\"20\"}}\nSei un fenomeno, {{delay frames=\"20\"}}{{fun_00070005 arg=\"\"}}!{{delay frames=\"8\"}}{{fun_0009000C arg=\"\"}}"
  },
  {
    "label": "044",
    "text": "{{fun_0000000C arg=\"\"}}{{fun_0005000C arg=\"\"}}{{fun_0002000C arg=\"\"}}{{fun_0005000C arg=\"\"}}{{delay frames=\"8\"}}{{anim id=\"16\"}}Se n'è andata{{delay frames=\"8\"}}.{{delay frames=\"8\"}}.{{delay frames=\"8\"}}.{{delay frames=\"20\"}}{{anim id=\"29\"}} Fantastico!{{delay frames=\"40\"}} Ora non\nabbiamo più brutte copie tra i piedi!{{anim id=\"0\"}}{{pageBreak}}{{fun_0000000C arg=\"\"}}{{fun_0008000C arg=\"\"}}{{fun_0002000C arg=\"\"}}{{fun_0003000C arg=\"\"}}{{delay frames=\"8\"}}{{anim id=\"14\"}}Ehi, {{delay frames=\"8\"}}grazie, {{fun_00080005 arg=\"\"}}!{{delay frames=\"40\"}} Sono{{delay frames=\"8\"}}.{{delay frames=\"8\"}}.{{delay frames=\"8\"}}.{{delay frames=\"20\"}} \ncommossa!{{delay frames=\"40\"}}{{anim id=\"0\"}}{{anim id=\"15\"}} Oh!{{delay frames=\"8\"}} Ma certo!{{delay frames=\"40\"}}{{anim id=\"37\"}} Ti meriti\nuna ricompensa: {{color id=\"2\"}}la mia foto{{color id=\"65535\"}}!"
  },
  {
    "label": "045",
    "text": "{{anim id=\"1\"}}Eh eh eh{{delay frames=\"8\"}}.{{delay frames=\"8\"}}.{{delay frames=\"8\"}}.{{delay frames=\"20\"}} Questo oggetto è il mio\nportafortuna! E solo le persone\nspeciali possono ottenerlo.\n{{anim id=\"0\"}}Il pesce d'aprile potrebbe colpire\nancora{{delay frames=\"8\"}}.{{delay frames=\"8\"}}.{{delay frames=\"8\"}}.{{delay frames=\"20\"}} Immagino siano in molti a\nsubire i tiri mancini degli impostori!\n{{anim id=\"21\"}}Se incontri persone che hanno a\nche fare con la loro copia, dagli\nuna mano, eh! {{delay frames=\"20\"}}{{anim id=\"37\"}}{{fun_0003000E arg=\"\"}}{{fun_00070005 arg=\"\"}}!"
  },
  {
    "label": "046",
    "text": "{{anim id=\"1\"}}Eh eh eh{{delay frames=\"8\"}}.{{delay frames=\"8\"}}.{{delay frames=\"8\"}}.{{delay frames=\"20\"}} Questo qui è un regalo\nvero! Non tutti possono averlo!{{pageBreak}}Grazie mille! {{delay frames=\"20\"}}{{fun_0003000E arg=\"\"}}{{fun_00070005 arg=\"\"}}!"
  },
  {
    "label": "047",
    "text": "{{anim id=\"1\"}}Eh eh eh! {{delay frames=\"8\"}}.{{delay frames=\"8\"}}.{{delay frames=\"8\"}}.{{delay frames=\"20\"}} Questo qui è un regalo\nmolto speciale! Non è un falso!{{delay frames=\"20\"}}\nNon lo do mica a chiunque, sai!{{pageBreak}}{{anim id=\"0\"}}A proposito, ora che ci penso,{{delay frames=\"8\"}}\nhai aiutato tutti in città, giusto?\n{{anim id=\"29\"}}Bene!{{delay frames=\"20\"}} Sei l'orgoglio{{delay frames=\"20\"}} di {{fun_00050005 arg=\"\"}}!{{delay frames=\"40\"}}{{anim id=\"37\"}}\n{{anim id=\"1\"}}Contiamo sempre su di te in caso\ndi bisogno, {{delay frames=\"20\"}}{{fun_00070005 arg=\"\"}}!"
  },
  {
    "label": "048",
    "text": ""
  },
  {
    "label": "049",
    "text": "{{fun_0004000C arg=\"\"}}{{delay frames=\"30\"}}{{anim id=\"8\"}}Io non sono l'impostora{{delay frames=\"8\"}}.{{delay frames=\"8\"}}.{{delay frames=\"8\"}}.{{delay frames=\"20\"}} Insomma!{{delay frames=\"40\"}}{{anim id=\"6\"}}{{fun_0009000C arg=\"\"}}"
  },
  {
    "label": "050",
    "text": "{{fun_0000000C arg=\"\"}}{{fun_0005000C arg=\"\"}}{{fun_0001000C arg=\"\"}}{{fun_0003000C arg=\"\"}}{{fun_0002000C arg=\"\"}}{{fun_0005000C arg=\"\"}}{{fun_0001000C arg=\"\"}}{{delay frames=\"8\"}}{{anim id=\"24\"}}{{fun_0003000E arg=\"\"}}{{fun_00080005 arg=\"\"}}!{{delay frames=\"20\"}}\nDavvero non lo sapevi?{{fun_0009000C arg=\"\"}}"
  },
  {
    "label": "051",
    "text": "{{fun_0000000C arg=\"\"}}{{fun_0005000C arg=\"\"}}{{fun_0001000C arg=\"\"}}{{fun_0003000C arg=\"\"}}{{delay frames=\"8\"}}{{anim id=\"10\"}}Mamma mia,{{delay frames=\"8\"}} pensavo che mi\nconoscessi meglio.{{delay frames=\"8\"}}{{anim id=\"11\"}} Noi due{{delay frames=\"8\"}}.{{delay frames=\"8\"}}.{{delay frames=\"8\"}}.{{delay frames=\"20\"}}\ndobbiamo farci una chiacchierata!\n{{anim id=\"37\"}}Beh, ad ogni modo{{delay frames=\"8\"}}.{{delay frames=\"8\"}}.{{delay frames=\"8\"}}.{{delay frames=\"20\"}} La questione\ndell'impostore{{delay frames=\"8\"}}.{{delay frames=\"8\"}}.{{delay frames=\"8\"}}.{{delay frames=\"20\"}} è risolta!{{delay frames=\"20\"}}\nNe riparliamo dopo, {{delay frames=\"20\"}}{{fun_00070005 arg=\"\"}}!"
  },
  {
    "label": "052",
    "text": "{{fun_0000000C arg=\"\"}}{{fun_0005000C arg=\"\"}}{{fun_0001000C arg=\"\"}}{{fun_0003000C arg=\"\"}}{{anim id=\"36\"}}Massì.{{delay frames=\"40\"}}{{anim id=\"0\"}} Nessun problema!{{pageBreak}}{{anim id=\"21\"}}Non puoi che migliorare d'ora in poi.\nTroverai tutti gli impostori.{{delay frames=\"20\"}}\nTieni gli occhi aperti, {{delay frames=\"20\"}}{{fun_00070005 arg=\"\"}}!"
  },
  {
    "label": "053",
    "text": ""
  },
  {
    "label": "054",
    "text": "{{fun_0000000C arg=\"\"}}{{fun_0005000C arg=\"\"}}{{fun_0001000C arg=\"\"}}{{fun_0003000C arg=\"\"}}{{anim id=\"16\"}}Oh?!{{delay frames=\"20\"}} Te ne vai?{{fun_0009000C arg=\"\"}}"
  },
  {
    "label": "055",
    "text": "{{fun_0000000C arg=\"\"}}{{fun_0007000C arg=\"\"}}{{fun_0002000C arg=\"\"}}{{fun_0003000C arg=\"\"}}{{anim id=\"9\"}}Ma dove vai?!"
  },
  {
    "label": "056",
    "text": "{{fun_0000000C arg=\"\"}}{{fun_0005000C arg=\"\"}}{{fun_0001000C arg=\"\"}}{{fun_0004000C arg=\"\"}}{{fun_0002000C arg=\"\"}}{{fun_0004000C arg=\"\"}}{{fun_0001000C arg=\"\"}}{{delay frames=\"20\"}}{{anim id=\"16\"}}Oh bene, {{delay frames=\"20\"}}sei tornat{{fun_0006000E arg=\"0x02006F0002006100\"}}!{{delay frames=\"20\"}}\n{{anim id=\"13\"}}Presto, dai l'asciugamano\na chi pensi sia l'impostora!{{delay frames=\"40\"}}{{anim id=\"9\"}}{{fun_0009000C arg=\"\"}}"
  },
  {
    "label": "057",
    "text": "{{fun_0000000C arg=\"\"}}{{fun_0007000C arg=\"\"}}{{fun_0002000C arg=\"\"}}{{fun_0003000C arg=\"\"}}{{anim id=\"1\"}}Mi raccomando!"
  },
  {
    "label": "058",
    "text": ""
  },
  {
    "label": "059",
    "text": "{{fun_0000000C arg=\"\"}}{{fun_0005000C arg=\"\"}}{{fun_0001000C arg=\"\"}}{{fun_0008000C arg=\"\"}}{{fun_0002000C arg=\"\"}}{{fun_0006000C arg=\"\"}}{{fun_0001000C arg=\"\"}}{{anim id=\"6\"}}{{fun_0003000E arg=\"\"}}{{fun_00010005 arg=\"\"}} sono io!{{delay frames=\"20\"}} Ma certo,\nil mio compleanno è il giorno\n{{color id=\"2\"}}{{fun_000F0004 arg=\"0x00CD\"}} {{fun_000E0004 arg=\"0x00CD\"}}{{color id=\"65535\"}}!{{fun_0009000C arg=\"\"}}"
  },
  {
    "label": "060",
    "text": "{{fun_0000000C arg=\"\"}}{{fun_0007000C arg=\"\"}}{{fun_0002000C arg=\"\"}}{{anim id=\"15\"}}Ehi!{{delay frames=\"20\"}} Non diciamo sciocchezze!{{pageBreak}}Il mio compleanno è il giorno\n{{color id=\"2\"}}{{fun_000F0004 arg=\"0x01CD\"}} {{fun_000E0004 arg=\"0x01CD\"}}{{color id=\"65535\"}}!{{delay frames=\"40\"}}{{anim id=\"6\"}} Chi non la racconta\ngiusta sei tu!{{fun_0009000C arg=\"\"}}"
  },
  {
    "label": "061",
    "text": ""
  },
  {
    "label": "062",
    "text": ""
  },
  {
    "label": "063",
    "text": "{{fun_0000000C arg=\"\"}}{{fun_0005000C arg=\"\"}}{{fun_0001000C arg=\"\"}}{{fun_0008000C arg=\"\"}}{{fun_0002000C arg=\"\"}}{{fun_0006000C arg=\"\"}}{{delay frames=\"8\"}}.{{delay frames=\"8\"}}.{{delay frames=\"8\"}}.{{delay frames=\"20\"}}{{anim id=\"7\"}} Hai un bel coraggio, eh!{{delay frames=\"40\"}}{{pageBreak}}{{anim id=\"21\"}}Quando si chiede {{fun_0010000E arg=\"\"}} {{fun_00010005 arg=\"\"}}\nqual è la sua {{color id=\"2\"}}massima {{color id=\"65535\"}}preferita,{{delay frames=\"8\"}}\nla risposta è una sola!"
  },
  {
    "label": "064",
    "text": "{{anim id=\"33\"}}{{delay frames=\"8\"}}.{{delay frames=\"8\"}}.{{delay frames=\"8\"}}.{{delay frames=\"20\"}} Ecco!{{delay frames=\"40\"}} Ma cosa ne sai tu?!{{delay frames=\"20\"}}\n{{anim id=\"6\"}}Sei tu l'impostora! Impostoraaa!{{fun_0009000C arg=\"\"}}"
  },
  {
    "label": "065",
    "text": "{{fun_0000000C arg=\"\"}}{{fun_0007000C arg=\"\"}}{{fun_0002000C arg=\"\"}}{{anim id=\"18\"}}Cosa?!{{delay frames=\"20\"}} Proprio non ci siamo!{{delay frames=\"40\"}}{{anim id=\"6\"}}\nTutti sanno che la mia {{color id=\"2\"}}massima{{color id=\"65535\"}} è{{delay frames=\"8\"}}.{{delay frames=\"8\"}}.{{delay frames=\"8\"}}.{{delay frames=\"8\"}}"
  },
  {
    "label": "066",
    "text": "{{anim id=\"33\"}}{{delay frames=\"8\"}}.{{delay frames=\"8\"}}.{{delay frames=\"8\"}}.{{delay frames=\"20\"}} Visto?!{{delay frames=\"40\"}} È ovvio che sei tu\nl'impostora!{{fun_0009000C arg=\"\"}}"
  },
  {
    "label": "067",
    "text": ""
  },
  {
    "label": "068",
    "text": ""
  },
  {
    "label": "069",
    "text": "{{fun_0000000C arg=\"\"}}{{fun_0005000C arg=\"\"}}{{fun_0001000C arg=\"\"}}{{fun_0008000C arg=\"\"}}{{fun_0002000C arg=\"\"}}{{fun_0006000C arg=\"\"}}{{delay frames=\"8\"}}{{anim id=\"7\"}}{{delay frames=\"8\"}}.{{delay frames=\"8\"}}.{{delay frames=\"8\"}}.{{delay frames=\"20\"}} OK.{{delay frames=\"10\"}} Qual è l'abilità speciale\ndi {{fun_00010005 arg=\"\"}}?{{delay frames=\"40\"}} Vediamo se lo sai!{{fun_0009000C arg=\"\"}}"
  },
  {
    "label": "070",
    "text": "{{fun_0000000C arg=\"\"}}{{fun_0007000C arg=\"\"}}{{fun_0002000C arg=\"\"}}{{anim id=\"15\"}}Abilità speciale?{{delay frames=\"40\"}}{{anim id=\"33\"}} Beh, direi che\n{{fun_00010005 arg=\"\"}} se la cava bene a{{delay frames=\"8\"}}.{{delay frames=\"8\"}}.{{delay frames=\"8\"}}.{{delay frames=\"20\"}}\n{{color id=\"2\"}}{{fun_00180012 arg=\"0x01CD\"}}{{color id=\"65535\"}}!{{fun_0009000C arg=\"\"}}"
  },
  {
    "label": "071",
    "text": "{{fun_0000000C arg=\"\"}}{{fun_0005000C arg=\"\"}}{{fun_0001000C arg=\"\"}}{{anim id=\"27\"}}Ecco!{{delay frames=\"20\"}} Questa è la prova!{{delay frames=\"8\"}} Tutti\nsanno che {{fun_00010005 arg=\"\"}} è imbattibile\na{{delay frames=\"8\"}}.{{delay frames=\"8\"}}.{{delay frames=\"8\"}}.{{delay frames=\"20\"}}{{anim id=\"0\"}} {{color id=\"2\"}}{{fun_00180012 arg=\"0x00CD\"}}{{color id=\"65535\"}}!\n{{anim id=\"6\"}}Tu sei l'impostora!{{fun_0009000C arg=\"\"}}"
  },
  {
    "label": "072",
    "text": "{{fun_0000000C arg=\"\"}}{{fun_0007000C arg=\"\"}}{{fun_0002000C arg=\"\"}}{{anim id=\"10\"}}Mmmh{{delay frames=\"8\"}}.{{delay frames=\"8\"}}.{{delay frames=\"8\"}}.{{delay frames=\"20\"}}{{delay frames=\"20\"}} Non pronunciare mai il mio\nnome e \"{{color id=\"2\"}}{{fun_00180012 arg=\"0x00CD\"}}{{color id=\"65535\"}}\"\nnella stessa frase, impostora!\n{{anim id=\"7\"}}Solo un'impostora può fare\nuna cosa del genere!{{fun_0009000C arg=\"\"}}"
  },
  {
    "label": "073",
    "text": ""
  },
  {
    "label": "074",
    "text": ""
  },
  {
    "label": "075",
    "text": "{{fun_0000000C arg=\"\"}}{{fun_0005000C arg=\"\"}}{{fun_0001000C arg=\"\"}}{{fun_0008000C arg=\"\"}}{{fun_0002000C arg=\"\"}}{{fun_0006000C arg=\"\"}}{{fun_0001000C arg=\"\"}}{{anim id=\"7\"}}OK,{{delay frames=\"20\"}} allora pensi di sapere anche\ncom'è la mia famiglia?{{fun_0009000C arg=\"\"}}"
  },
  {
    "label": "076",
    "text": "{{fun_0000000C arg=\"\"}}{{fun_0007000C arg=\"\"}}{{fun_0002000C arg=\"\"}}{{anim id=\"15\"}}Famiglia?!{{delay frames=\"40\"}}{{anim id=\"44\"}}{{delay frames=\"20\"}} Ma certo!{{delay frames=\"8\"}} Io sono{{delay frames=\"8\"}}.{{delay frames=\"8\"}}.{{delay frames=\"8\"}}.{{delay frames=\"20\"}}\n{{fun_0001000E arg=\"\"}}{{color id=\"2\"}}{{fun_00160012 arg=\"0x01CD\"}}{{color id=\"65535\"}}!{{fun_0009000C arg=\"\"}}"
  },
  {
    "label": "077",
    "text": "{{fun_0000000C arg=\"\"}}{{fun_0005000C arg=\"\"}}{{fun_0001000C arg=\"\"}}{{anim id=\"15\"}}Neanche per sogno!{{delay frames=\"40\"}}\nSolo io, {{anim id=\"42\"}}{{delay frames=\"20\"}}{{fun_00010005 arg=\"\"}}, sono{{delay frames=\"8\"}}.{{delay frames=\"8\"}}.{{delay frames=\"8\"}}.{{delay frames=\"20\"}}\n{{fun_0001000E arg=\"\"}}{{color id=\"2\"}}{{fun_00160012 arg=\"0x00CD\"}}{{color id=\"65535\"}}!{{delay frames=\"8\"}}\n{{anim id=\"6\"}}Tu sei solo un'impostora!{{fun_0009000C arg=\"\"}}"
  },
  {
    "label": "078",
    "text": "{{fun_0000000C arg=\"\"}}{{fun_0007000C arg=\"\"}}{{fun_0002000C arg=\"\"}}{{anim id=\"17\"}}Quando è troppo è troppo{{delay frames=\"8\"}}.{{delay frames=\"8\"}}.{{delay frames=\"8\"}}.{{delay frames=\"20\"}}{{anim id=\"7\"}}\nLe tue parole ti tradiscono e\ndimostrano che sei un'impostora!{{fun_0009000C arg=\"\"}}"
  },
  {
    "label": "079",
    "text": ""
  },
  {
    "label": "080",
    "text": ""
  },
  {
    "label": "081",
    "text": "{{fun_0000000C arg=\"\"}}{{fun_0005000C arg=\"\"}}{{fun_0001000C arg=\"\"}}{{fun_0008000C arg=\"\"}}{{fun_0002000C arg=\"\"}}{{fun_0006000C arg=\"\"}}{{fun_0001000C arg=\"\"}}{{delay frames=\"8\"}}{{anim id=\"7\"}}OK!{{delay frames=\"20\"}} Qual è il sogno di {{fun_00010005 arg=\"\"}}?{{delay frames=\"8\"}}{{anim id=\"27\"}}\nIl mio è diventare\n{{fun_0002000E arg=\"\"}}{{color id=\"2\"}}{{fun_00170012 arg=\"0x00CD\"}}{{color id=\"65535\"}}!\n{{anim id=\"6\"}}Visto che tu sei l'impostora,\nimmagino che non ne avrai idea!{{fun_0009000C arg=\"\"}}"
  },
  {
    "label": "082",
    "text": "{{fun_0000000C arg=\"\"}}{{fun_0007000C arg=\"\"}}{{fun_0002000C arg=\"\"}}{{anim id=\"7\"}}Aspetta!{{delay frames=\"20\"}} Quale pensi che sia\nil sogno di {{fun_00010005 arg=\"\"}}?{{pageBreak}}Diventare\n{{fun_0002000E arg=\"\"}}{{color id=\"2\"}}{{fun_00170012 arg=\"0x00CD\"}}{{color id=\"65535\"}}{{delay frames=\"8\"}}.{{delay frames=\"8\"}}.{{delay frames=\"8\"}}.?{{delay frames=\"8\"}}\nMa va!{{pageBreak}}{{delay frames=\"8\"}}{{anim id=\"21\"}}Ho detto l'altro giorno\nche il mio è diventare\n{{fun_0002000E arg=\"\"}}{{color id=\"2\"}}{{fun_00170012 arg=\"0x01CD\"}}{{color id=\"65535\"}}!\n{{anim id=\"6\"}}{{delay frames=\"20\"}}Questa è la prova!{{delay frames=\"8\"}} Ti abbiamo\nscoperta, impostora!{{fun_0009000C arg=\"\"}}"
  },
  {
    "label": "083",
    "text": ""
  },
  {
    "label": "084",
    "text": ""
  },
  {
    "label": "085",
    "text": ""
  },
  {
    "label": "086",
    "text": ""
  },
  {
    "label": "087",
    "text": ""
  },
  {
    "label": "088",
    "text": ""
  },
  {
    "label": "089",
    "text": ""
  },
  {
    "label": "090",
    "text": ""
  }
]