﻿[
  {
    "label": "001",
    "text": "{{anim id=\"3\"}}Ehi, {{delay frames=\"40\"}}eccoci qui!{{delay frames=\"20\"}} {{fun_0003000E arg=\"\"}}{{fun_00070005 arg=\"\"}}!{{delay frames=\"40\"}}{{anim id=\"37\"}}"
  },
  {
    "label": "002",
    "text": "{{anim id=\"15\"}}Su, entra!{{delay frames=\"10\"}} Puoi tenere le scarpe,\nse proprio vuoi, {{delay frames=\"20\"}}{{fun_00070005 arg=\"\"}}!{{delay frames=\"40\"}}{{anim id=\"37\"}}"
  },
  {
    "label": "003",
    "text": "{{anim id=\"5\"}}Ahahah!{{delay frames=\"20\"}} Non c'è niente\ndi meglio che tornare a casa!{{delay frames=\"40\"}}\nDai, entra, {{delay frames=\"20\"}}{{fun_00070005 arg=\"\"}}!"
  },
  {
    "label": "004",
    "text": "{{anim id=\"32\"}}Benvenut{{fun_0006000E arg=\"0x02006F0002006100\"}} nel mio covo!{{delay frames=\"40\"}} Ahahah!\n{{delay frames=\"20\"}}{{fun_0003000E arg=\"\"}}{{fun_00070005 arg=\"\"}}!"
  },
  {
    "label": "005",
    "text": "{{anim id=\"32\"}}Oh, ciao!{{delay frames=\"40\"}} Qui siamo in anticipo,\n{{delay frames=\"20\"}}{{fun_00070005 arg=\"\"}}!"
  },
  {
    "label": "006",
    "text": "{{anim id=\"32\"}}Ehi!{{delay frames=\"40\"}} Non pensavo saresti\nvenut{{fun_0006000E arg=\"0x02006F0002006100\"}} davvero, {{delay frames=\"20\"}}{{fun_00070005 arg=\"\"}}!"
  },
  {
    "label": "007",
    "text": "{{anim id=\"32\"}}Oh!{{delay frames=\"10\"}} Sei tu! Non mi dispiace che\ntu sia qui, {{delay frames=\"20\"}}{{fun_00070005 arg=\"\"}}!"
  },
  {
    "label": "008",
    "text": "{{anim id=\"32\"}}Ben arrivat{{fun_0006000E arg=\"0x02006F0002006100\"}}!{{delay frames=\"40\"}} Forza, entra,\n{{fun_00070005 arg=\"\"}}!"
  },
  {
    "label": "009",
    "text": "{{anim id=\"32\"}}Beh, ciao!{{delay frames=\"40\"}} Ero qui che ti aspettavo,\n{{delay frames=\"20\"}}{{fun_00070005 arg=\"\"}}!"
  }
]