﻿[
  {
    "label": "001",
    "text": "{{anim id=\"15\"}}Eh?{{delay frames=\"20\"}} Anche tu sei venut{{fun_0006000E arg=\"0x02006F0002006100\"}} a visitare\nquesta città?{{pageBreak}}{{anim id=\"5\"}}Io qui ho trovato un angolino\ncomodo comodo{{delay frames=\"8\"}}.{{delay frames=\"8\"}}.{{delay frames=\"8\"}}.{{delay frames=\"20\"}} Mi manca solo\nuno stagno per pescare!{{delay frames=\"20\"}} {{anim id=\"2\"}}Niuk niuk!"
  },
  {
    "label": "002",
    "text": "{{i10_7 arg=\"0x0C000C000B000B000C000C00\"}}"
  },
  {
    "label": "003",
    "text": "{{i10_7 arg=\"0x0C000C000B000B000C000C00\"}}"
  },
  {
    "label": "004",
    "text": ""
  },
  {
    "label": "005",
    "text": ""
  },
  {
    "label": "006",
    "text": "{{fun_00030009 arg=\"0x0D000E000F0010001100\"}}"
  },
  {
    "label": "007",
    "text": "{{fun_00030009 arg=\"0x0D000E000F0010001100\"}}"
  },
  {
    "label": "008",
    "text": ""
  },
  {
    "label": "009",
    "text": ""
  },
  {
    "label": "011",
    "text": "{{anim id=\"16\"}}Ehi,{{delay frames=\"8\"}} ciao!{{delay frames=\"20\"}}\n{{anim id=\"21\"}}Mi sono piazzato su questa piazzola\ne chi mi scolla più!{{pageBreak}}{{anim id=\"5\"}}Che pacchia questo posto!{{delay frames=\"20\"}}\n{{anim id=\"2\"}}Niuk niuk!"
  },
  {
    "label": "012",
    "text": "{{anim id=\"23\"}}Tu vivi qui?{{delay frames=\"20\"}} {{anim id=\"1\"}}Beh, ora ci sono\nanch'io e per un po' mi dovrai\nsopportare!{{delay frames=\"20\"}} Niuk niuk!"
  },
  {
    "label": "013",
    "text": "Quando non c'è un torneo di pesca,{{delay frames=\"8\"}}\n{{anim id=\"21\"}}mi giro tutti i campeggi dei dintorni.{{delay frames=\"20\"}}\nAltrimenti,{{delay frames=\"8\"}} sai che noia!"
  },
  {
    "label": "014",
    "text": "Devo ammettere che in campeggio\n{{anim id=\"43\"}}è bello accendere il barbecue{{delay frames=\"4\"}}\ne arrostire un po' di salmone{{delay frames=\"8\"}}.{{delay frames=\"8\"}}.{{delay frames=\"8\"}}.\n{{anim id=\"5\"}}Ma se posso scegliere...{{delay frames=\"20\"}} preferisco\nil sushi!{{delay frames=\"20\"}} Niente batte il pesce crudo\ncon il riso!{{delay frames=\"20\"}} {{anim id=\"2\"}}Niuk niuk niuuuk!"
  },
  {
    "label": "015",
    "text": "Ehi,{{delay frames=\"8\"}} {{anim id=\"23\"}}sai che sono un autentico\nestimatore del pesce?{{pageBreak}}{{anim id=\"0\"}}La cosa triste è che{{delay frames=\"8\"}}.{{delay frames=\"8\"}}.{{delay frames=\"8\"}}.{{delay frames=\"20\"}}\n{{anim id=\"10\"}}non sono un gran pescatore!{{pageBreak}}{{anim id=\"13\"}}Non riesco a concentrarmi{{delay frames=\"8\"}}.{{delay frames=\"8\"}}.{{delay frames=\"8\"}}.{{delay frames=\"20\"}}\n{{anim id=\"9\"}}Continuo a pensare a quant'è buono\nil pesce e non concludo niente!"
  },
  {
    "label": "016",
    "text": "{{anim id=\"21\"}}Avrai sicuramente sentito dire{{delay frames=\"8\"}}\nche il pesce fa bene alla memoria.{{delay frames=\"20\"}}\n{{anim id=\"23\"}}Ma tu che ne pensi?\n{{anim id=\"39\"}}Ehm,{{delay frames=\"8\"}} scusa{{delay frames=\"8\"}}.{{delay frames=\"8\"}}.{{delay frames=\"8\"}}.{{delay frames=\"30\"}} {{anim id=\"26\"}}Come hai detto\nche ti chiami?"
  },
  {
    "label": "017",
    "text": "Lo stesso tipo di pesce\n{{anim id=\"21\"}}può avere un sapore diverso{{delay frames=\"8\"}}\na seconda di dove lo peschi.\n{{anim id=\"5\"}}E in questa città è proprio \ndelizioso!{{delay frames=\"20\"}} Niuk niuk!"
  }
]