﻿[
  {
    "label": "001",
    "text": "{{anim id=\"5\"}}Mi piacerebbe nuotare\ncome un pesce.{{delay frames=\"20\"}}\nSarebbe un vero spasso!"
  },
  {
    "label": "002",
    "text": "{{anim id=\"9\"}}Che fame! {{delay frames=\"20\"}}Tutti questi pesci\nmi mettono un certo appetito,\n{{delay frames=\"8\"}}{{fun_00070005 arg=\"\"}}."
  },
  {
    "label": "003",
    "text": "{{anim id=\"4\"}}Ah ah ah!{{delay frames=\"20\"}} Stavo pensando\nche quando racconti un segreto\na un pesce...{{pageBreak}}... puoi dirgli: \"Acqua in bocca!\""
  },
  {
    "label": "004",
    "text": "{{anim id=\"17\"}}{{fun_000B0007 arg=\"\"}}Aaah!{{delay frames=\"40\"}}{{fun_00010007 arg=\"\"}} {{anim id=\"9\"}}Oh, {{delay frames=\"20\"}}scusa.{{delay frames=\"40\"}} Qui dentro è\ncosì buio{{delay frames=\"20\"}} che per un attimo\nti ho scambiato per una piovra!"
  },
  {
    "label": "005",
    "text": "{{anim id=\"25\"}}Fissare i pesci{{delay frames=\"20\"}} nell'acquario\nmi sta facendo venire un sonno..."
  }
]