﻿[
  {
    "label": "001",
    "text": "{{anim id=\"13\"}}Uffaaa!{{delay frames=\"20\"}} Mi hai trovato!"
  },
  {
    "label": "002",
    "text": "{{anim id=\"17\"}}{{fun_000B0007 arg=\"\"}}Caspitina!{{delay frames=\"20\"}} Mi hai trovato!"
  },
  {
    "label": "003",
    "text": "{{anim id=\"17\"}}{{fun_000B0007 arg=\"\"}}Ehi!{{delay frames=\"20\"}} Mi hai beccato!{{delay frames=\"20\"}}\n{{anim id=\"13\"}}Come hai fatto a trovare un mago\ndel nascondino come me?"
  },
  {
    "label": "004",
    "text": "{{delay frames=\"8\"}}.{{delay frames=\"8\"}}.{{delay frames=\"8\"}}.{{delay frames=\"8\"}}{{anim id=\"1\"}} Comunque hai perso lo stesso.{{delay frames=\"20\"}}\nIl tempo è già scaduto!{{fun_00010007 arg=\"\"}} Peccato,{{delay frames=\"8\"}}\n{{fun_00070005 arg=\"\"}}."
  }
]