﻿[
  {
    "label": "001",
    "text": "Ma... Guarisco prima se mangio\nun valanga di {{fun_00100005 arg=\"0x0000\"}}{{delay frames=\"20\"}}\no se prendo la {{color id=\"2\"}}medicina{{color id=\"65535\"}}?"
  },
  {
    "label": "002",
    "text": "Oggi mi faccio una bella dormita.{{delay frames=\"20\"}}\nMa penso che anche un po'\ndi {{color id=\"2\"}}medicina {{color id=\"65535\"}}potrebbe farmi bene!"
  },
  {
    "label": "003",
    "text": "Ho sentito dire che la {{color id=\"2\"}}medicina\n{{color id=\"65535\"}}serve per guarire più in fretta...\nAnche un pisolino però aiuta!"
  },
  {
    "label": "004",
    "text": "Oh{{delay frames=\"8\"}}.{{delay frames=\"8\"}}.{{delay frames=\"8\"}}.{{delay frames=\"20\"}} Quasi quasi prendo\nla {{color id=\"2\"}}medicina{{color id=\"65535\"}}."
  },
  {
    "label": "005",
    "text": "A me piacciono i dolci... non le cose\namare!!!{{delay frames=\"20\"}} Ma adesso è meglio che\nprenda la {{color id=\"2\"}}medicina{{color id=\"65535\"}}{{delay frames=\"8\"}}.{{delay frames=\"8\"}}.{{delay frames=\"8\"}}.{{delay frames=\"20\"}}"
  },
  {
    "label": "006",
    "text": "{{anim id=\"13\"}}Scappa prima che ti attacchi\nil raffreddore, {{fun_00080005 arg=\"\"}}!{{delay frames=\"8\"}} Quando\ntorni però portami la {{color id=\"2\"}}medicina{{color id=\"65535\"}}!"
  },
  {
    "label": "007",
    "text": "Mi sa proprio che un po'\ndi {{color id=\"2\"}}medicina{{color id=\"65535\"}}{{delay frames=\"20\"}} mi farà bene!"
  },
  {
    "label": "008",
    "text": "Non hai una {{color id=\"2\"}}medicina{{color id=\"65535\"}},{{delay frames=\"20\"}} vero?"
  },
  {
    "label": "009",
    "text": "Questo raffreddore{{delay frames=\"20\"}} è davvero\nuna tragedia{{delay frames=\"8\"}}.{{delay frames=\"8\"}}.{{delay frames=\"8\"}}. Aiutooooo!\nHo bisogno della {{color id=\"2\"}}medicina{{color id=\"65535\"}}."
  }
]