﻿[
  {
    "label": "001",
    "text": "{{anim id=\"1\"}}Ehi, guarda, ho creato una {{color id=\"2\"}}capsula\ndel tempo{{color id=\"65535\"}}.{{delay frames=\"20\"}}\n{{anim id=\"11\"}}Ora forse dovrei seppellirla{{delay frames=\"8\"}}.{{delay frames=\"8\"}}.{{delay frames=\"8\"}}.\n{{anim id=\"13\"}}Solo che, se lo faccio io,{{delay frames=\"20\"}} finirò\nper cedere alla tentazione di\ndissotterrarla di nuovo!\n{{anim id=\"22\"}}Che ideona!{{delay frames=\"40\"}} Magari potresti\nsotterrarla tu per me!{{delay frames=\"20\"}} {{anim id=\"23\"}}Che ne dici,\n{{fun_00080005 arg=\"\"}}?{{fun_0005000F arg=\"0x15002800\"}}\nCerto!\nNon posso!"
  },
  {
    "label": "002",
    "text": "{{anim id=\"23\"}}Sai cos'è una {{color id=\"2\"}}capsula del tempo{{color id=\"65535\"}},{{delay frames=\"20\"}}\n{{fun_00080005 arg=\"\"}}?{{fun_00010007 arg=\"\"}}{{anim id=\"0\"}} È un mezzo per\ncomunicare con il tuo io futuro.\nEcco cosa devi fare:{{delay frames=\"20\"}} {{anim id=\"21\"}}metti qualche\noggetto{{delay frames=\"20\"}} o una lettera{{delay frames=\"20\"}} in una capsula{{delay frames=\"20\"}}\ne poi seppelliscila nel terreno.\n{{anim id=\"1\"}}Dopo un po' di tempo,{{delay frames=\"20\"}} ti basterà\ndissotterrare la capsula e\nrecupererai i tuoi tesori!\n{{anim id=\"0\"}}Guarda caso, ne ho appena fatta\nuna con le mie mani.{{delay frames=\"20\"}}{{anim id=\"9\"}} Peccato che\nora sia troppo stanco per scavare!\n{{fun_0003000E arg=\"\"}}{{fun_00080005 arg=\"\"}},{{delay frames=\"8\"}}{{anim id=\"23\"}} mi faresti un favorone?\nPuoi seppellire tu la mia {{color id=\"2\"}}capsula\ndel tempo{{color id=\"65535\"}} da qualche parte?{{fun_0005000F arg=\"0x15002800\"}}\nCerto, come no!\nNo, mi dispiace."
  },
  {
    "label": "003",
    "text": "{{anim id=\"1\"}}Ho appena creato una {{color id=\"2\"}}capsula\ndel tempo{{color id=\"65535\"}} contenente i miei averi\npiù preziosi!{{delay frames=\"20\"}} Ora dovrei seppellirla...\n{{anim id=\"43\"}}Separarmi dai miei tesori è più\ndifficile di quanto pensassi{{delay frames=\"8\"}}.{{delay frames=\"8\"}}.{{delay frames=\"8\"}}.{{delay frames=\"20\"}}\n{{anim id=\"12\"}}Mi mancheranno tanto!{{delay frames=\"20\"}} Sigh, sigh!\nSono troppo giù di morale per\nseppellire la capsula.{{delay frames=\"20\"}} Ti prego,\nfallo tu per me!{{fun_0005000F arg=\"0x15002800\"}}\nOK!\nAdesso non posso."
  },
  {
    "label": "004",
    "text": "{{anim id=\"5\"}}Mitico!\n{{delay frames=\"20\"}}Sapevo di poter contare su di te!"
  },
  {
    "label": "005",
    "text": "{{anim id=\"5\"}}Fantastico!{{delay frames=\"8\"}} Grazie!{{delay frames=\"40\"}} {{anim id=\"1\"}}Ecco la mia\ncapsula del tempo,{{delay frames=\"8\"}} {{fun_00070005 arg=\"\"}}."
  },
  {
    "label": "006",
    "text": "{{anim id=\"38\"}}Grazie mille!{{delay frames=\"20\"}} Ecco, tieni, questa è\nla mia capsula del tempo!"
  },
  {
    "label": "007",
    "text": "{{anim id=\"9\"}}Davvero?{{delay frames=\"20\"}} Che peccato{{delay frames=\"8\"}}.{{delay frames=\"8\"}}.{{delay frames=\"8\"}}."
  },
  {
    "label": "008",
    "text": "{{anim id=\"1\"}}Per ora tieni la capsula del tempo\ndove conservi le tue lettere.{{delay frames=\"20\"}}{{pageBreak}}Assicurati di seppellirla in un posto\n{{delay frames=\"8\"}}in cui io non riesca a trovarla.{{pageBreak}}{{anim id=\"39\"}}Mi raccomando: non aprirla\nse non vuoi farmi arrabbiare,\n{{delay frames=\"8\"}}{{fun_00070005 arg=\"\"}}!"
  },
  {
    "label": "009",
    "text": "{{anim id=\"9\"}}Ti ricordi della capsula del tempo\nche ti avevo chiesto di seppellire?{{fun_00010007 arg=\"\"}}\nPotresti ridarmela?{{pageBreak}}Mi sembra chiaro che tu non hai\nalcuna intenzione di seppellirla,{{delay frames=\"8\"}}\nquindi lo faccio da me."
  },
  {
    "label": "010",
    "text": "{{anim id=\"18\"}}{{fun_000B0007 arg=\"\"}}Cooosa?!{{delay frames=\"20\"}} Hai perso la mia\ncapsula del tempo?!{{pageBreak}}{{anim id=\"12\"}}Caspitina!{{delay frames=\"40\"}} Ci avevo messo una vita\na costruirla{{delay frames=\"8\"}}.{{delay frames=\"8\"}}.{{delay frames=\"8\"}}."
  },
  {
    "label": "011",
    "text": "{{anim id=\"18\"}}Aspetta un attimo... Ma... è aperta!{{delay frames=\"20\"}}\nE così non solo non l'hai seppellita,{{delay frames=\"20\"}}\nma l'hai addirittura aperta!{{delay frames=\"20\"}}\n{{anim id=\"12\"}}Mi hai davvero deluso{{delay frames=\"8\"}}.{{delay frames=\"8\"}}.{{delay frames=\"8\"}}."
  },
  {
    "label": "012",
    "text": "Mi sa che te la stai prendendo\ntroppo comoda con la mia\ncapsula del tempo, {{fun_00080005 arg=\"\"}}!{{delay frames=\"20\"}}\n{{anim id=\"9\"}}Beh,{{delay frames=\"20\"}} vorrà dire che ci penserò io\na seppellirla!"
  },
  {
    "label": "013",
    "text": "{{anim id=\"9\"}}Eh?{{delay frames=\"8\"}} Ma questa non è la mia\ncapsula del tempo!"
  },
  {
    "label": "014",
    "text": "{{anim id=\"5\"}}Evviva!{{delay frames=\"20\"}} Ecco la mia vecchia amica\ncapsula! Che bello rivederti!{{pageBreak}}{{anim id=\"15\"}}Cooosa?!{{delay frames=\"20\"}} Ma{{delay frames=\"8\"}}.{{delay frames=\"8\"}}.{{delay frames=\"8\"}}.{{delay frames=\"40\"}} è aperta!{{delay frames=\"8\"}}{{anim id=\"23\"}} L'hai\naperta tu, {{fun_00080005 arg=\"\"}}?{{pageBreak}}{{anim id=\"12\"}}Come hai potuto fare una cosa\ndel genere?{{delay frames=\"20\"}} Da te non me lo\nsarei mai aspettato,{{delay frames=\"8\"}} {{fun_00070005 arg=\"\"}}."
  },
  {
    "label": "015",
    "text": "{{anim id=\"5\"}}Evvai!{{delay frames=\"20\"}} Ecco la mia vecchia amica\ncapsula! Come stai piccolina?{{pageBreak}}{{anim id=\"15\"}}Eh?{{delay frames=\"20\"}} Perché è vuota?{{fun_00010007 arg=\"\"}} {{anim id=\"9\"}}Aspetta\nun attimo,{{delay frames=\"20\"}} sei stat{{fun_0006000E arg=\"0x02006F0002006100\"}} tu,\n{{fun_00080005 arg=\"\"}}?\n{{anim id=\"12\"}}Caspitina!{{delay frames=\"20\"}} Come hai potuto fare\nquesto a una povera capsula del\ntempo indifesa?{{delay frames=\"20\"}} Che cattiveria!"
  },
  {
    "label": "016",
    "text": "{{anim id=\"5\"}}Urrà!{{delay frames=\"20\"}} Che bello rivedere la mia\ncapsula del tempo!{{pageBreak}}{{anim id=\"1\"}}Non mi ricordo nemmeno più cosa\nci avevo messo dentro.{{delay frames=\"40\"}} È ora di\ndare una sbirciatina!"
  },
  {
    "label": "017",
    "text": "{{anim id=\"5\"}}Evviva!\n{{fun_0008000E arg=\"0x00CD0C0049006C0020006D0069006F000C004C00610020006D00690061000000\"}}{{delay frames=\"20\"}} {{fun_00030011 arg=\"0x0000\"}}{{delay frames=\"20\"}}\n{{anim id=\"4\"}}è invecchiat{{fun_0008000E arg=\"0x00CD02006F00020061000000\"}} alla perfezione!{{pageBreak}}{{anim id=\"15\"}}{{fun_000B0007 arg=\"\"}}E qui dentro c'è anche una lettera!"
  },
  {
    "label": "018",
    "text": "Mi ero dimenticato di aver messo\n{{fun_0002000E arg=\"\"}}{{fun_00030011 arg=\"0x0000\"}} qui\ndentro! {{delay frames=\"40\"}}{{anim id=\"26\"}}Che memoria corta!\n{{anim id=\"16\"}}{{fun_000B0007 arg=\"\"}}Ehi, ma c'è anche una lettera qui!{{delay frames=\"20\"}}\nAvevo dimenticato anche questo!"
  },
  {
    "label": "019",
    "text": "{{anim id=\"15\"}}{{fun_000B0007 arg=\"\"}}È {{fun_0008000E arg=\"0x00CD0C0069006C0020006D0069006F000C006C00610020006D00690061000000\"}} {{fun_00030011 arg=\"0x0000\"}}!{{delay frames=\"40\"}}\n{{anim id=\"14\"}}Pensavo non ci saremmo mai più\nrivisti!\n{{anim id=\"0\"}}Oh,{{delay frames=\"20\"}} ma qui dentro c'è anche\nuna lettera,{{delay frames=\"8\"}} {{fun_00070005 arg=\"\"}}."
  },
  {
    "label": "020",
    "text": "{{anim id=\"21\"}}Roba degna di un poeta!{{delay frames=\"40\"}}\n{{anim id=\"1\"}}Il mio vecchio io ci sapeva fare\ncon le parole."
  },
  {
    "label": "021",
    "text": "{{anim id=\"1\"}}Prendi questo!{{delay frames=\"8\"}} È il mio modo\ndi ringraziarti, {{fun_00080005 arg=\"\"}}!"
  },
  {
    "label": "022",
    "text": "{{anim id=\"37\"}}Oh!{{delay frames=\"20\"}} Mi stavo quasi dimenticando\ndi darti questo piccolo segno della\nmia riconoscenza!"
  },
  {
    "label": "023",
    "text": "{{anim id=\"1\"}}Volevo farti un regalino,{{delay frames=\"20\"}} ma sembra\nche tu abbia le tasche piene.{{delay frames=\"20\"}} Te lo\nmanderò per posta,{{delay frames=\"8\"}} {{fun_00070005 arg=\"\"}}."
  },
  {
    "label": "024",
    "text": "{{anim id=\"1\"}}È {{fun_0002000E arg=\"\"}}{{fun_00030011 arg=\"0x0100\"}}!{{pageBreak}}Chiederò a te anche la prossima\nvolta che vorrò seppellire una\ncapsula del tempo,{{delay frames=\"8\"}} {{fun_00070005 arg=\"\"}}."
  },
  {
    "label": "025",
    "text": "{{anim id=\"9\"}}Oh...{{delay frames=\"20\"}} Ma allora...{{delay frames=\"20\"}} che fine ha fatto\nla mia capsula del tempo?"
  },
  {
    "label": "026",
    "text": "{{anim id=\"16\"}}{{fun_000B0007 arg=\"\"}}Evviva!{{delay frames=\"20\"}} Hai trovato la mia capsula\ndel tempo!{{fun_00010007 arg=\"\"}} {{anim id=\"1\"}}Stavo proprio pensando\ndi dissotterrarla,{{delay frames=\"8\"}} {{fun_00070005 arg=\"\"}}.\n{{anim id=\"9\"}}Ehi, ma...{{delay frames=\"20\"}} È aperta!{{delay frames=\"20\"}} {{anim id=\"23\"}}Sei stat{{fun_0006000E arg=\"0x02006F0002006100\"}} tu,\n{{fun_00080005 arg=\"\"}}?{{fun_00010007 arg=\"\"}} {{anim id=\"12\"}}Come hai potuto?{{delay frames=\"20\"}}\nChe vergogna,{{delay frames=\"8\"}} {{fun_00070005 arg=\"\"}}."
  },
  {
    "label": "027",
    "text": "{{anim id=\"16\"}}{{fun_000B0007 arg=\"\"}}Urrààà!{{delay frames=\"20\"}} Hai trovato la mia capsula\ndel tempo!{{fun_00010007 arg=\"\"}} {{anim id=\"1\"}}Stavo proprio pensando\ndi dissotterrarla,{{delay frames=\"8\"}} {{fun_00070005 arg=\"\"}}.\n{{anim id=\"9\"}}Ehi, ma...{{delay frames=\"20\"}} È vuota!{{delay frames=\"20\"}} {{anim id=\"23\"}}Sei stato tu,\n{{fun_00080005 arg=\"\"}}?{{fun_00010007 arg=\"\"}} {{anim id=\"12\"}}La mia povera\ncapsula...{{delay frames=\"8\"}} {{fun_0003000E arg=\"\"}}{{fun_00070005 arg=\"\"}}..."
  },
  {
    "label": "028",
    "text": "{{anim id=\"16\"}}{{fun_000B0007 arg=\"\"}}Evvaiii!{{delay frames=\"20\"}} Hai trovato la mia capsula\ndel tempo!{{fun_00010007 arg=\"\"}}\n{{anim id=\"1\"}}Beh, diamo un po' un'occhiatina!"
  },
  {
    "label": "029",
    "text": "{{anim id=\"3\"}}Ehi!{{delay frames=\"20\"}} {{fun_0008000E arg=\"0x00CD0C0049006C0020006D0069006F000C004C00610020006D00690061000000\"}} {{fun_00030011 arg=\"0x0000\"}}!{{delay frames=\"20\"}}\nChe bello rivedersi!{{delay frames=\"20\"}} Toh, guarda!{{delay frames=\"20\"}}\nC'è anche una lettera!"
  },
  {
    "label": "030",
    "text": "{{anim id=\"16\"}}{{fun_000B0007 arg=\"\"}}Uau!{{delay frames=\"20\"}} {{fun_0003000E arg=\"\"}}{{fun_0002000E arg=\"\"}}{{fun_00030011 arg=\"0x0000\"}}!{{delay frames=\"20\"}}\nMe n'ero del tutto dimenticato!{{delay frames=\"20\"}}\n{{anim id=\"1\"}}E c'è anche una lettera! Che bello!"
  },
  {
    "label": "031",
    "text": "{{anim id=\"5\"}}Mitico!\n{{fun_0003000E arg=\"\"}}{{fun_0002000E arg=\"\"}}{{fun_00030011 arg=\"0x0000\"}}!{{delay frames=\"40\"}}\nÈ un regalo del mio vecchio io!{{pageBreak}}{{anim id=\"29\"}}Ohhh,{{delay frames=\"20\"}} e sembra anche che il mio\nvecchio io mi abbia scritto\nuna lettera!"
  },
  {
    "label": "032",
    "text": "{{anim id=\"4\"}}Ah ah ah!{{delay frames=\"20\"}} Il mio vecchio io era\ndavvero un tipo in gamba!"
  },
  {
    "label": "033",
    "text": "{{anim id=\"1\"}}Ehi, ho un regalino per te in segno\ndella mia riconoscenza!"
  },
  {
    "label": "034",
    "text": "{{anim id=\"22\"}}{{fun_000B0007 arg=\"\"}}Trovato!{{delay frames=\"40\"}} Ti darò un regalino come\nsegno della mia riconoscenza!{{fun_00010007 arg=\"\"}}\n{{anim id=\"1\"}}Tieni, è per te!"
  },
  {
    "label": "035",
    "text": "{{anim id=\"3\"}}Grazie, {{fun_00080005 arg=\"\"}}!{{delay frames=\"40\"}} Se non l'avessi\ntrovata tu, {{delay frames=\"20\"}}non l'avrei mai più\nrivista!{{pageBreak}}{{anim id=\"1\"}}Ho un regalo per te, ma lo\nfarò recapitare direttamente\na casa tua."
  },
  {
    "label": "036",
    "text": "{{anim id=\"39\"}}Promettimi che avrai cura di {{fun_0008000E arg=\"0x01CD0C00710075006500730074006F000C007100750065007300740061000000\"}}\n{{fun_00030011 arg=\"0x0100\"}},{{delay frames=\"20\"}} OK,{{delay frames=\"20\"}}\n{{fun_00070005 arg=\"\"}}?"
  },
  {
    "label": "037",
    "text": ""
  },
  {
    "label": "038",
    "text": ""
  },
  {
    "label": "039",
    "text": ""
  },
  {
    "label": "040",
    "text": ""
  },
  {
    "label": "041",
    "text": ""
  },
  {
    "label": "042",
    "text": ""
  },
  {
    "label": "043",
    "text": ""
  },
  {
    "label": "044",
    "text": ""
  },
  {
    "label": "045",
    "text": ""
  },
  {
    "label": "046",
    "text": ""
  },
  {
    "label": "047",
    "text": ""
  },
  {
    "label": "048",
    "text": ""
  },
  {
    "label": "049",
    "text": ""
  },
  {
    "label": "050",
    "text": "{{anim id=\"13\"}}Ma cosa ti è saltato in mente?{{delay frames=\"20\"}} Non\npuoi aprire le capsule del tempo\naltrui come ti pare e piace!{{delay frames=\"20\"}}\nVa contro le regole.\n{{anim id=\"6\"}}Sgrunt,{{delay frames=\"20\"}} dalla a me e basta,{{delay frames=\"8\"}}\n{{fun_00070005 arg=\"\"}}."
  },
  {
    "label": "051",
    "text": "{{anim id=\"9\"}}Non farlo mai più,{{delay frames=\"20\"}} {{fun_00080005 arg=\"\"}}."
  },
  {
    "label": "052",
    "text": "{{anim id=\"18\"}}{{fun_000B0007 arg=\"\"}}Cosa?!{{delay frames=\"20\"}} Questa capsula del tempo\nè vuota!{{fun_00010007 arg=\"\"}} {{anim id=\"12\"}}Che delusione,\n{{delay frames=\"8\"}}{{fun_00070005 arg=\"\"}}."
  },
  {
    "label": "053",
    "text": "{{anim id=\"23\"}}Per mille sonnellini!{{delay frames=\"20\"}} La capsula del\ntempo è aperta{{delay frames=\"20\"}} e vuota?{{pageBreak}}{{fun_0003000E arg=\"\"}}{{fun_00080005 arg=\"\"}}, che tristezza vedere\ncome l'hanno conciata!"
  }
]