﻿[
  {
    "label": "001",
    "text": "OK, {{fun_00010005 arg=\"\"}},{{delay frames=\"8\"}} devi concentrarti\nse vuoi acchiappare qualche bel\npesciolone.{{delay frames=\"8\"}} Concentratiii!"
  },
  {
    "label": "002",
    "text": "Speriamo di prendere qualcosa\ndi delizioso! Ho già l'acquolina\nin bocca!"
  },
  {
    "label": "003",
    "text": "Se abbocca un pesce,{{delay frames=\"8\"}} dici che è\nmeglio farlo alla griglia o metterlo\nin un acquario?\nChe scelta difficile!"
  },
  {
    "label": "004",
    "text": "{{fun_00010009 arg=\"0x050006000700\"}}"
  },
  {
    "label": "005",
    "text": "Stasera mi sa che per cena\nci sarà pesce alla griglia,{{delay frames=\"8\"}}\n{{fun_00070005 arg=\"\"}}!"
  },
  {
    "label": "006",
    "text": "Stasera pesce al cartoccio!\nPancia mia fatti capanna,{{delay frames=\"8\"}}\n{{fun_00070005 arg=\"\"}}!"
  },
  {
    "label": "007",
    "text": "Oggi ho proprio voglia\ndi sushi,{{delay frames=\"8\"}} {{fun_00070005 arg=\"\"}}!"
  }
]