﻿[
  {
    "label": "001",
    "text": ""
  },
  {
    "label": "002",
    "text": "{{fun_001F000A arg=\"0x00070007000500050005000500050005000500090009000C00CD\"}}"
  },
  {
    "label": "003",
    "text": "{{fun_001F000A arg=\"0x000700070006000600060006000600060006000A000A000D00CD\"}}"
  },
  {
    "label": "004",
    "text": ""
  },
  {
    "label": "005",
    "text": "{{fun_00000009 arg=\"0x15001600\"}}"
  },
  {
    "label": "006",
    "text": "{{fun_00000009 arg=\"0x17001800\"}}"
  },
  {
    "label": "007",
    "text": "{{fun_00020009 arg=\"0x0E000F0013001400\"}}"
  },
  {
    "label": "008",
    "text": ""
  },
  {
    "label": "009",
    "text": "{{fun_00010009 arg=\"0x100015001600\"}}"
  },
  {
    "label": "010",
    "text": "{{fun_00010009 arg=\"0x100017001800\"}}"
  },
  {
    "label": "011",
    "text": ""
  },
  {
    "label": "012",
    "text": "{{fun_00020009 arg=\"0x1000110015001600\"}}"
  },
  {
    "label": "013",
    "text": "{{fun_00020009 arg=\"0x1000110017001800\"}}"
  },
  {
    "label": "014",
    "text": "Non vedo l'ora che riempiano\nquesta sala di pesci.{{delay frames=\"20\"}} Sarà\ncome stare dal pescivendolo!\n{{anim id=\"2\"}}Scherzo.{{delay frames=\"20\"}} {{color id=\"4\"}}Blatero{{color id=\"65535\"}} darebbe di matto\nse mi pappassi uno dei suoi\nesemplari!"
  },
  {
    "label": "015",
    "text": "{{anim id=\"36\"}}L'acquario è vuoto{{delay frames=\"8\"}}.{{delay frames=\"8\"}}.{{delay frames=\"8\"}}.{{fun_00010007 arg=\"\"}} {{anim id=\"21\"}}Sarebbe\nperfetto per una nuotatina,{{delay frames=\"20\"}} ma {{anim id=\"9\"}}io\nvolevo vedere qualche pesciolino!"
  },
  {
    "label": "016",
    "text": "{{anim id=\"18\"}}Caspitina! Chissà quanti pesci\nci sono qui?!{{delay frames=\"40\"}} Adesso{{delay frames=\"20\"}} li conto tutti!{{pageBreak}}1,{{delay frames=\"20\"}} 2,{{delay frames=\"20\"}} 3,{{delay frames=\"20\"}} 4,{{delay frames=\"20\"}} 5...{{delay frames=\"20\"}} {{anim id=\"18\"}}{{fun_000B0007 arg=\"\"}}Uffa!{{fun_00010007 arg=\"\"}} {{anim id=\"13\"}}Continuo\na perdere il conto! Si può sapere\nperché non stanno fermi un attimo?"
  },
  {
    "label": "017",
    "text": "{{anim id=\"1\"}}Questo acquario {{delay frames=\"20\"}}è l'orgoglio\ndi {{fun_00050005 arg=\"\"}}!{{pageBreak}}{{anim id=\"21\"}}Ci troverai ogni specie di pesce\no di creatura marina dei dintorni!{{pageBreak}}{{anim id=\"3\"}}Sono così felice{{delay frames=\"20\"}} di abitare qui,\n{{delay frames=\"8\"}}{{fun_00070005 arg=\"\"}}. Quanti pesci!\n{{anim id=\"36\"}}Ehm, mi sta venendo una fame..."
  },
  {
    "label": "018",
    "text": ""
  },
  {
    "label": "019",
    "text": "{{anim id=\"4\"}}Questo posto sarà un vero spasso{{delay frames=\"8\"}}\nnon appena lo riempiranno di pesci!"
  },
  {
    "label": "020",
    "text": "{{anim id=\"21\"}}Mi piacerebbe donare qualche\nesemplare.{{delay frames=\"40\"}} Peccato{{delay frames=\"20\"}}{{anim id=\"41\"}} che sia più\nbravo a mangiare che a pescare!"
  },
  {
    "label": "021",
    "text": "Chissà a cosa {{anim id=\"23\"}}pensano\ni pesci quando mi vedono...?!{{pageBreak}}{{anim id=\"2\"}}Secondo me diranno:{{delay frames=\"20\"}} \"Ma perché{{delay frames=\"8\"}}\nquello usa le zampe invece\ndi nuotare? Che faticaccia!\"."
  },
  {
    "label": "022",
    "text": "{{anim id=\"43\"}}Questi pesci sembrano delle star\ndel cinema con tutti questi riflettori\npuntati contro!{{pageBreak}}{{anim id=\"16\"}}Ah, deve essere questo il loro\nsegreto!{{delay frames=\"20\"}}{{anim id=\"42\"}}{{delay frames=\"20\"}} È tutta una questione\ndi illuminazione!"
  },
  {
    "label": "023",
    "text": "{{anim id=\"33\"}}Il nostro acquario è enorme!{{delay frames=\"40\"}}\nNon è il più bello che ci sia?{{pageBreak}}{{anim id=\"18\"}}Cosa dici?!{{delay frames=\"20\"}} Ce n'è uno anche\nnella tua città?{{fun_00010007 arg=\"\"}} {{anim id=\"12\"}}Caspitina{{delay frames=\"8\"}}.{{delay frames=\"8\"}}.{{delay frames=\"8\"}}.{{delay frames=\"20\"}}\nE io che pensavo fossimo speciali!"
  },
  {
    "label": "024",
    "text": "{{anim id=\"6\"}}Qui non si nuota, OK?{{fun_00010007 arg=\"\"}} {{anim id=\"1\"}}È una regola\ndi {{fun_00050005 arg=\"\"}},{{delay frames=\"8\"}} {{fun_00070005 arg=\"\"}}."
  }
]