﻿[
  {
    "label": "001",
    "text": ""
  },
  {
    "label": "002",
    "text": "{{fun_00020009 arg=\"0x0500060007000800\"}}"
  },
  {
    "label": "003",
    "text": "{{fun_00000009 arg=\"0x09000A00\"}}"
  },
  {
    "label": "004",
    "text": ""
  },
  {
    "label": "005",
    "text": "{{anim id=\"1\"}}Non ci crederai mai...{{fun_00010007 arg=\"\"}}\n{{anim id=\"2\"}}Ma io sono uno con il pollice verde!{{pageBreak}}L'altro ieri ho piantato perfino\nun albero di {{fun_00130005 arg=\"0x0000\"}}!\nNon vedo l'ora che dia i suoi frutti!"
  },
  {
    "label": "006",
    "text": "{{anim id=\"21\"}}Adoro il giardinaggio! Soprattutto\npiantare gli alberi da frutto!{{pageBreak}}{{anim id=\"33\"}}Con la frutta ci faccio sempre\nchili e chili di marmellata!"
  },
  {
    "label": "007",
    "text": "{{anim id=\"1\"}}Mi piacerebbe piantare qualche\nfiore vicino a casa mia.{{fun_00010007 arg=\"\"}} {{anim id=\"11\"}}Mmmh{{delay frames=\"8\"}}.{{delay frames=\"8\"}}.{{delay frames=\"8\"}}.{{delay frames=\"20\"}}\nNon ho ancora deciso di che colore!"
  },
  {
    "label": "008",
    "text": "{{anim id=\"23\"}}Hai il pollice verde, {{fun_00080005 arg=\"\"}}?{{fun_00010007 arg=\"\"}}\n{{anim id=\"4\"}}Allora spero proprio che pianterai\nun sacco di alberi da frutto!"
  },
  {
    "label": "009",
    "text": "{{anim id=\"23\"}}Ci sai fare con il giardinaggio,\n{{fun_00080005 arg=\"\"}}?{{delay frames=\"20\"}} Hai già piantato\nun bel po' di alberi da frutto?\n{{anim id=\"5\"}}Sono un ottimo investimento\ne poi con i frutti puoi farci\nquintali di marmellata!"
  },
  {
    "label": "010",
    "text": "{{anim id=\"43\"}}Il giardinaggio rilassa il corpo\ne la mente! Adoro le piante!{{pageBreak}}{{anim id=\"4\"}}Soprattutto gli alberi da frutto!{{delay frames=\"20\"}}\nEvviva le scorpacciate di frutta!"
  }
]