﻿[
  {
    "label": "001",
    "text": "{{anim id=\"1\"}}I fossili{{delay frames=\"8\"}} non parlano, ma {{anim id=\"5\"}}se li ascolti\ncon il cuore,{{delay frames=\"8\"}} potrai sentire{{delay frames=\"3\"}} messaggi\nprovenienti dal passato!"
  },
  {
    "label": "002",
    "text": "Mi piacerebbe fare una mia mostra\npersonale un giorno!{{delay frames=\"20\"}} {{anim id=\"5\"}}La mia {{delay frames=\"8\"}}sarebbe\ndi libri, però, non di vecchie ossa!"
  },
  {
    "label": "003",
    "text": "{{anim id=\"1\"}}Ultimamente {{delay frames=\"8\"}}adoooro i fossili.\n{{delay frames=\"20\"}}E ho deciso di visitare diverse città\nper ammirarli e studiarli."
  },
  {
    "label": "004",
    "text": "{{anim id=\"5\"}}Io adoooro la paleontologia. Punto!{{delay frames=\"20\"}}\nPotrei guardare i fossili per giorni\ne giorni. {{delay frames=\"10\"}}Non mi stuferei mai!"
  },
  {
    "label": "005",
    "text": "{{anim id=\"5\"}}C'è qualcosa di intrigante nello\nstare qui a guardare questi reperti\ndel passato. Li trovo molto chic!"
  }
]