﻿[
  {
    "label": "001",
    "text": "{{fun_0001000C arg=\"\"}}{{anim id=\"1\"}}Salut, {{fun_00080005 arg=\"\"}}.{{delay frames=\"20\"}} Je suis contente\nche tu sia tornat{{fun_0006000E arg=\"0x02006F0002006100\"}}!{{fun_0002000C arg=\"\"}}{{fun_0006000C arg=\"\"}}{{fun_0009000C arg=\"\"}}"
  },
  {
    "label": "002",
    "text": "{{fun_0001000C arg=\"\"}}{{anim id=\"1\"}}Sei tornat{{fun_0006000E arg=\"0x02006F0002006100\"}}!{{delay frames=\"20\"}} E, a quanto pare,\nnon sei da sola!{{fun_0002000C arg=\"\"}}{{fun_0006000C arg=\"\"}}{{fun_0009000C arg=\"\"}}"
  },
  {
    "label": "003",
    "text": "{{fun_0001000C arg=\"\"}}{{anim id=\"1\"}}Oh, bien.{{delay frames=\"20\"}} Ero certissima che saresti\ntornat{{fun_0006000E arg=\"0x02006F0002006100\"}} presto.{{fun_0002000C arg=\"\"}}{{fun_0006000C arg=\"\"}}{{fun_0009000C arg=\"\"}}"
  },
  {
    "label": "004",
    "text": "{{fun_0001000C arg=\"\"}}{{anim id=\"1\"}}Meno male!{{delay frames=\"40\"}} Non ti vedevo tornare\ne{{delay frames=\"8\"}} temevo ti fosse successo\nqualcosa.{{fun_0002000C arg=\"\"}}{{fun_0006000C arg=\"\"}}{{fun_0009000C arg=\"\"}}"
  },
  {
    "label": "005",
    "text": "{{fun_0007000C arg=\"\"}}{{fun_0001000C arg=\"\"}}{{fun_0008000C arg=\"\"}}{{anim id=\"13\"}}Che mi vuoi dire?{{delay frames=\"20\"}} La tua richiesta\nsembrava urgentissimissima,\n{{fun_00010011 arg=\"0x0000\"}}!{{fun_0009000C arg=\"\"}}"
  },
  {
    "label": "006",
    "text": "{{fun_0000000C arg=\"\"}}{{fun_0007000C arg=\"\"}}{{fun_0001000C arg=\"\"}}{{fun_0008000C arg=\"\"}}{{fun_0002000C arg=\"\"}}{{anim id=\"1\"}}Sono venuta suuubito, {{fun_00010011 arg=\"0x0000\"}}.\n{{delay frames=\"20\"}}Cosa posso fare per te?\nDimmi tutto!{{fun_0009000C arg=\"\"}}"
  },
  {
    "label": "007",
    "text": "{{fun_0000000C arg=\"\"}}{{fun_0007000C arg=\"\"}}{{fun_0001000C arg=\"\"}}{{fun_0008000C arg=\"\"}}{{fun_0002000C arg=\"\"}}{{anim id=\"32\"}}Che piaaacere vederti,{{delay frames=\"8\"}} {{fun_00010011 arg=\"0x0000\"}}!\n{{delay frames=\"20\"}}{{anim id=\"37\"}}Dimmi pure cosa posso fare per te!{{fun_0009000C arg=\"\"}}"
  },
  {
    "label": "008",
    "text": ""
  },
  {
    "label": "009",
    "text": "{{fun_0000000C arg=\"\"}}{{fun_0005000C arg=\"\"}}{{fun_0001000C arg=\"\"}}{{anim id=\"36\"}}Excuse-moi per averti chiamata\nper una sciocchezza,{{delay frames=\"8\"}} ma volevo\nrestituirti questa cosa.{{anim id=\"1\"}}{{fun_0009000C arg=\"\"}}"
  },
  {
    "label": "010",
    "text": "{{fun_0000000C arg=\"\"}}{{fun_0007000C arg=\"\"}}{{fun_0002000C arg=\"\"}}{{anim id=\"16\"}}Oh, de rien!{{delay frames=\"40\"}}{{anim id=\"37\"}} Spero ti sia servita.{{delay frames=\"20\"}}\nSe ne hai di nuovo bisogno posso\nportartela in qualsiasi momento."
  },
  {
    "label": "011",
    "text": "{{fun_0000000C arg=\"\"}}{{fun_0005000C arg=\"\"}}{{fun_0001000C arg=\"\"}}{{anim id=\"1\"}}In realtà,{{delay frames=\"8\"}} ti ho chiamata perché\navrei una cosina da darti,\n{{fun_00010011 arg=\"0x0100\"}}.{{delay frames=\"20\"}} Una cosina cariiina!{{fun_0009000C arg=\"\"}}"
  },
  {
    "label": "012",
    "text": "{{fun_0000000C arg=\"\"}}{{fun_0007000C arg=\"\"}}{{fun_0002000C arg=\"\"}}{{anim id=\"16\"}}Oh, {{fun_0002000E arg=\"\"}}{{fun_00030011 arg=\"0x0000\"}}!{{delay frames=\"40\"}}\n{{anim id=\"1\"}}La soluzione perfetta per il mio\nproblemino. {{delay frames=\"20\"}}Tu es la meilleure!{{delay frames=\"20\"}}"
  },
  {
    "label": "013",
    "text": "{{fun_0000000C arg=\"\"}}{{fun_0005000C arg=\"\"}}{{fun_0001000C arg=\"\"}}{{anim id=\"36\"}}Excuse-moi per la chiamata\nimprovvisa.{{delay frames=\"20\"}} {{anim id=\"37\"}}Ieri mentre pulivo\nho trovato questo.\nC'è scritto \"Proprietà di {{fun_00010011 arg=\"0x0100\"}}\"\ne ho pensato di restituirti questo\noggettino il prima possibile.{{fun_0009000C arg=\"\"}}"
  },
  {
    "label": "014",
    "text": "{{fun_0000000C arg=\"\"}}{{fun_0007000C arg=\"\"}}{{fun_0002000C arg=\"\"}}{{anim id=\"15\"}}Oh!{{delay frames=\"20\"}} {{fun_0012000E arg=\"0x10000C0049006C0020006D0069006F000C004C00610020006D00690061000000\"}} {{fun_00030011 arg=\"0x0000\"}}!{{fun_00010007 arg=\"\"}}\n{{anim id=\"37\"}}Mi chiedevo dove l'avessi mess{{fun_0012000E arg=\"0x100002006F00020061000000\"}}.\nMerci, merci, merci!\n{{anim id=\"1\"}}Meno male che ci ho scritto il mio\nnome{{delay frames=\"8\"}} e che tu ci vedi bene! Starò\npiù attenta in futuro, {{fun_00070005 arg=\"\"}}."
  },
  {
    "label": "015",
    "text": "{{fun_0000000C arg=\"\"}}{{fun_0005000C arg=\"\"}}{{fun_0001000C arg=\"\"}}{{anim id=\"1\"}}{{fun_00010011 arg=\"0x0100\"}},{{delay frames=\"8\"}} ho letto un libro\nfantastique!{{delay frames=\"20\"}} Devo prestartelo.\n\"{{fun_001D0005 arg=\"0x0000\"}}\".{{delay frames=\"40\"}}\nNon è un titolo charmant?\n{{delay frames=\"20\"}}Non vedo l'ora di parlarne\ncon te quando l'avrai finito.{{fun_0009000C arg=\"\"}}"
  },
  {
    "label": "016",
    "text": "{{fun_0000000C arg=\"\"}}{{fun_0007000C arg=\"\"}}{{fun_0002000C arg=\"\"}}{{anim id=\"38\"}}Uaaau,{{delay frames=\"8\"}} magnifique!{{anim id=\"5\"}} Lo adooorerò!\n{{delay frames=\"20\"}}Comincio a leggerlo appena torno\nnel mio pied-à-terre, {{fun_00070005 arg=\"\"}}."
  },
  {
    "label": "017",
    "text": "{{fun_0000000C arg=\"\"}}{{fun_0005000C arg=\"\"}}{{fun_0001000C arg=\"\"}}{{anim id=\"37\"}}Excuse-moi per averti disturbata,\n{{delay frames=\"8\"}}ma{{delay frames=\"8\"}}.{{delay frames=\"8\"}}.{{delay frames=\"8\"}}. ricordi il cruciverba che\nmi hai mandato?\n{{anim id=\"13\"}}Non riesco a risolvere l'ultima\ndefinizione.{{delay frames=\"20\"}} Il 32 orizzontale!{{fun_0009000C arg=\"\"}}"
  },
  {
    "label": "018",
    "text": "{{fun_0000000C arg=\"\"}}{{fun_0007000C arg=\"\"}}{{fun_0002000C arg=\"\"}}{{anim id=\"16\"}}Oh,{{delay frames=\"8\"}} tutto qui?{{delay frames=\"40\"}}{{anim id=\"37\"}} La prossima volta\nallegherò anche la soluzione, allora!{{pageBreak}}Vediamo{{delay frames=\"8\"}}.{{delay frames=\"8\"}}.{{delay frames=\"8\"}}. era il cruciverba per chi\npratica {{fun_00110005 arg=\"0x0000\"}}?{{fun_00010007 arg=\"\"}} Controllo\nle soluzioni e ti faccio sapere.{{pageBreak}}{{anim id=\"13\"}}Ma la prossima volta,{{delay frames=\"8\"}} chiedimi\naiuto prima!{{delay frames=\"20\"}} Ooodio pensarti qui\na rimuginare su cose del genere...{{delay frames=\"40\"}}{{anim id=\"0\"}}"
  },
  {
    "label": "019",
    "text": ""
  },
  {
    "label": "020",
    "text": "{{fun_0003000C arg=\"\"}}{{delay frames=\"40\"}}{{anim id=\"1\"}}Merci per avermi accompagnata,\n{{fun_00080005 arg=\"\"}}.{{delay frames=\"20\"}} {{fun_0005000C arg=\"\"}}{{fun_0006000C arg=\"\"}}È stato bello stare\navec toi, {{fun_00010011 arg=\"0x0000\"}}.{{delay frames=\"20\"}} {{anim id=\"32\"}}A bientôt!"
  },
  {
    "label": "021",
    "text": "{{fun_0003000C arg=\"\"}}{{anim id=\"1\"}}Excuse-moi,{{delay frames=\"8\"}} ma ora devo andare.\nHo lasciato i biscotti in forno!{{delay frames=\"20\"}}\n{{fun_0005000C arg=\"\"}}A bientôt, {{fun_00070005 arg=\"\"}}!"
  },
  {
    "label": "022",
    "text": "{{fun_0003000C arg=\"\"}}{{anim id=\"1\"}}Ora tolgo il disturbo.{{delay frames=\"20\"}} A bientôt!{{delay frames=\"20\"}}{{fun_0005000C arg=\"\"}}\nAu revoir, {{fun_00010011 arg=\"0x0000\"}}.{{delay frames=\"20\"}}\n{{anim id=\"32\"}}E buona giornata a tout le monde!"
  },
  {
    "label": "023",
    "text": ""
  }
]