﻿[
  {
    "label": "001",
    "text": "{{anim id=\"37\"}}Allora,{{delay frames=\"10\"}} questa volta{{delay frames=\"10\"}} {{fun_00080005 arg=\"\"}}\nè {{fun_0006000E arg=\"0x180069006C002000760069006E006300690074006F00720065001A006C0061002000760069006E006300690074007200690063006500\"}}!{{delay frames=\"20\"}} {{anim id=\"29\"}}Complimenti!{{delay frames=\"40\"}}{{anim id=\"37\"}}{{pageBreak}}Per festeggiare la tua vittoria,\n{{delay frames=\"10\"}}più tardi ti manderemo\nun premio delizioso!"
  },
  {
    "label": "002",
    "text": "{{anim id=\"5\"}}Ho sempre pensato che{{delay frames=\"10\"}} tu fossi\neccezionale,{{delay frames=\"5\"}} {{fun_00080005 arg=\"\"}}!{{fun_00010007 arg=\"\"}} {{anim id=\"21\"}}E ora\nvedo che non mi sbagliavo affatto!{{anim id=\"37\"}}\n{{anim id=\"0\"}}Ti ringraziamo {{delay frames=\"10\"}}per aver giocato\ncon noi, merci!{{delay frames=\"10\"}} {{anim id=\"37\"}}Ti manderemo\na casa un regalino,{{delay frames=\"15\"}} {{fun_00070005 arg=\"\"}}!"
  },
  {
    "label": "003",
    "text": "{{anim id=\"37\"}}Che vittoria{{delay frames=\"10\"}} schiacciante,\n{{delay frames=\"5\"}}{{fun_00080005 arg=\"\"}}!{{pageBreak}}{{anim id=\"0\"}}Aspettati di ricevere{{delay frames=\"10\"}} {{anim id=\"1\"}}un bel premio\nnella tua cassetta delle lettere\npiù tardi!"
  }
]