﻿[
  {
    "label": "001",
    "text": ""
  },
  {
    "label": "002",
    "text": "{{fun_001F000A arg=\"0x010B000B001000100010001000100010001000100010000D00CD\"}}"
  },
  {
    "label": "003",
    "text": "{{fun_001F000A arg=\"0x010C000C001100110011001100110011001100110011000E00CD\"}}"
  },
  {
    "label": "004",
    "text": ""
  },
  {
    "label": "005",
    "text": ""
  },
  {
    "label": "006",
    "text": ""
  },
  {
    "label": "007",
    "text": "{{anim id=\"1\"}}Adoooro guardare gli insetti mentre\nmangiano.{{delay frames=\"20\"}} Ho notato che le farfalle\nsono le più educate a tavola."
  },
  {
    "label": "008",
    "text": "{{anim id=\"23\"}}Anche tu adooori osservare\ngli insetti?{{delay frames=\"20\"}}{{anim id=\"1\"}} Sono cooosì affascinanti!\n{{delay frames=\"20\"}}È un viaggio in un altro mondo."
  },
  {
    "label": "009",
    "text": "{{anim id=\"37\"}}D'estate, non esco mai senza\nil retino e la lente d'ingrandimento.\nGli insetti non hanno scampo!"
  },
  {
    "label": "010",
    "text": "{{anim id=\"9\"}}Catturare gli insetti è mooolto\ndifficile.{{fun_00010007 arg=\"\"}} È per questo che vengo\nspesso qui ad osservarli.{{pageBreak}}{{anim id=\"37\"}}Se riesco a capire meglio le loro\nabitudini, sarà très facile acciuffarli!"
  },
  {
    "label": "011",
    "text": "{{anim id=\"1\"}}Spero che il museo arricchisca\npresto la sua collezione.{{pageBreak}}Gli insetti rari sono mooolto difficili\nda catturare, ma bellissimissimi\nda vedere!"
  },
  {
    "label": "012",
    "text": "Ho catturato un insetto, ma non so\nbene di che specie sia.{{delay frames=\"8\"}} Speravo di\ntrovarne uno uguale qui per capire...\n... ma niente, non c'è.{{delay frames=\"20\"}} Che peccato!"
  },
  {
    "label": "013",
    "text": "{{anim id=\"3\"}}Sono cooosì contenta che il museo\nabbia tutti gli insetti possibili\ne immaginabili!{{delay frames=\"20\"}} È fantastique!"
  },
  {
    "label": "014",
    "text": "{{anim id=\"1\"}}Gli insetti qui sono bellissimissimi!{{delay frames=\"20\"}}\nSpero di avere una collezione\nsimile anch'io un giorno."
  },
  {
    "label": "015",
    "text": "{{i10_16 arg=\"6\"}}"
  },
  {
    "label": "016",
    "text": "{{i10_16 arg=\"8\"}}"
  },
  {
    "label": "017",
    "text": "{{i10_16 arg=\"10\"}}"
  }
]