﻿[
  {
    "label": "001",
    "text": ""
  },
  {
    "label": "002",
    "text": "{{fun_00020009 arg=\"0x0500060007000800\"}}"
  },
  {
    "label": "003",
    "text": "{{fun_00000009 arg=\"0x09000A00\"}}"
  },
  {
    "label": "004",
    "text": ""
  },
  {
    "label": "005",
    "text": "{{anim id=\"1\"}}Puoi trovare molti altri articoli\nin vendita al piano superiore.{{delay frames=\"20\"}}{{pageBreak}}{{anim id=\"5\"}}Prenditi tutto il tempo necessario\nper lo shopping. {{delay frames=\"15\"}}Sai,{{delay frames=\"8\"}} la fretta è\ncattiva consigliera negli acquisti."
  },
  {
    "label": "006",
    "text": "{{anim id=\"9\"}}Sto spendendo un pochettino\ntroppo di recente{{delay frames=\"8\"}}.{{delay frames=\"8\"}}.{{delay frames=\"8\"}}.{{fun_00010007 arg=\"\"}} {{anim id=\"13\"}}Forse dovrei\nadottare{{delay frames=\"10\"}} uno stile di vita più sobrio."
  },
  {
    "label": "007",
    "text": "{{anim id=\"21\"}}Con tutta questa strabiliaaante\nvarietà di prodotti,{{delay frames=\"8\"}} è davvero\ndifficile decidere cosa acquistare."
  },
  {
    "label": "008",
    "text": "{{anim id=\"1\"}}Quando hai dei dubbi su che cosa\nscegliere,{{delay frames=\"10\"}} chiedi pure!{{delay frames=\"10\"}} Sarò\nfelicissimissima di darti una mano.\n{{anim id=\"0\"}}Così poi {{delay frames=\"10\"}}{{anim id=\"37\"}}tu potrai aiutare me{{delay frames=\"5\"}}\na decidere!"
  },
  {
    "label": "009",
    "text": "{{anim id=\"37\"}}Ho come l'impressione che tu sia\n{{fun_0006000E arg=\"0x160075006E0020007600650074006500720061006E006F00180075006E00610020007600650074006500720061006E006100\"}} dei grandi magazzini.{{delay frames=\"10\"}}\nHo ragione,{{delay frames=\"8\"}} {{fun_00080005 arg=\"\"}}?\n{{anim id=\"5\"}}Se non ci sei ancora andat{{fun_0006000E arg=\"0x02006F0002006100\"}},\ndai un'occhiata anche\nal piano superiore!"
  },
  {
    "label": "010",
    "text": "Per caso {{anim id=\"23\"}}sei alla ricerca di\nun souvenir della nostra città?{{pageBreak}}{{anim id=\"1\"}}In tal caso, controlla anche al piano\nsuperiore,{{delay frames=\"20\"}} sono certa che troverai\nqualcosa di tuo gradimento.{{anim id=\"38\"}}"
  }
]