﻿[
  {
    "label": "001",
    "text": ""
  },
  {
    "label": "002",
    "text": "{{fun_00020009 arg=\"0x0500060007000800\"}}"
  },
  {
    "label": "003",
    "text": "{{fun_00000009 arg=\"0x09000A00\"}}"
  },
  {
    "label": "004",
    "text": ""
  },
  {
    "label": "005",
    "text": "{{anim id=\"37\"}}Non so mai cosa comprare,\nma vedere gli abiti sui manichini\nspesso mi aiuta a decidere."
  },
  {
    "label": "006",
    "text": "{{anim id=\"37\"}}{{anim id=\"21\"}}Mi piace sapere tutto della moda.\nCosa è in, cosa è out, da dove viene\nuno stile, com'è nato... Tutto!"
  },
  {
    "label": "007",
    "text": "Ho il pied-à-terre pieno di riviste\ned enciclopedie sulla moda...{{pageBreak}}{{anim id=\"9\"}}Ma quando è il momento di\ncomprare mi sembra di non\nsaperne mai abbastanza!"
  },
  {
    "label": "008",
    "text": "Tu provi sempre i vestiti prima\ndi comprarli,{{delay frames=\"8\"}} vero?{{delay frames=\"20\"}}{{pageBreak}}{{anim id=\"33\"}}Questa è la prima regola da seguire\nse vuoi acquistare qualcosa che\nti stia verameeente bene!"
  },
  {
    "label": "009",
    "text": "{{anim id=\"21\"}}Sai, vorrei avere il tuo coraggio...{{fun_00010007 arg=\"\"}}\ne vestirmi ignorando completamente\nle ultime tendenze della moda!"
  },
  {
    "label": "010",
    "text": "{{anim id=\"5\"}}Ultimamente mi sono comprata\nuna maglietta con su scritto\n\"J'aime {{fun_00050005 arg=\"\"}}\". Te la consiglio!"
  }
]