﻿[
  {
    "label": "001",
    "text": "{{fun_00000009 arg=\"0x09000A00\"}}"
  },
  {
    "label": "002",
    "text": "{{anim id=\"37\"}}Non sto più nella pelle\ndall'impazienza, {{fun_00070005 arg=\"\"}}!{{pageBreak}}{{anim id=\"5\"}}Non vedo l'ora che faccia buio!{{delay frames=\"10\"}}\nLe stelle sembreranno una pioggia di\ndiamanti nel cielo!"
  },
  {
    "label": "003",
    "text": "{{fun_00000009 arg=\"0x2D002E00\"}}"
  },
  {
    "label": "004",
    "text": "{{anim id=\"3\"}}Che storia! {{delay frames=\"10\"}}Guarda che arcobaleno!\nOltre ai soliti sette colori, oggi c'è\nanche il color {{fun_000E0005 arg=\"0x0000\"}}!\n{{anim id=\"36\"}}Dici che ho le travi?!{{delay frames=\"5\"}} O si diceva\n\"traveggole\"?"
  },
  {
    "label": "005",
    "text": "{{anim id=\"5\"}}Che storia! Un arcobaleno doppio!\n{{delay frames=\"10\"}}È come bere {{fun_000E0005 arg=\"0x0000\"}} e\n{{fun_000E0005 arg=\"0x0100\"}} allo stesso tempo!"
  },
  {
    "label": "006",
    "text": "{{anim id=\"1\"}}Fa freddino oggi, eh? {{delay frames=\"10\"}}Ti immagini\nse si congelasse il cielo? {{delay frames=\"20\"}}{{anim id=\"29\"}}Uau!\nSarebbe da paura, {{fun_00070005 arg=\"\"}}!"
  },
  {
    "label": "007",
    "text": "{{fun_00000009 arg=\"0x0B000C00\"}}"
  },
  {
    "label": "008",
    "text": "{{fun_00020009 arg=\"0x0D000E000F001000\"}}"
  },
  {
    "label": "009",
    "text": "{{anim id=\"1\"}}Hai visto che cielo, {{fun_00080005 arg=\"\"}}?{{delay frames=\"20\"}}\nNon c'è nemmeno una nuvola!\nStasera sarà uno spettacolo lassù!{{delay frames=\"20\"}}\n{{anim id=\"5\"}}Le stelle si metteranno a ballare\nnel cielo, {{fun_00070005 arg=\"\"}}!"
  },
  {
    "label": "010",
    "text": "{{anim id=\"1\"}}È una giornata così stratosferica\nche vorrei non finisse mai. {{fun_00010007 arg=\"\"}}{{anim id=\"17\"}}Ma,\naspetta!{{delay frames=\"10\"}} Che fine farebbe la notte?\n{{anim id=\"13\"}}No, non voglio perdermi il cielo\nstasera!{{delay frames=\"20\"}} Con tutte quelle stelle,\nsembrerà la pista di una discoteca!"
  },
  {
    "label": "011",
    "text": "{{anim id=\"32\"}}Ehi, ciaaao!{{delay frames=\"5\"}} Hai visto che spettacolo\nquella coperta di stelle?{{delay frames=\"20\"}} Mi fa venire\nvoglia di avvolgermici dentro!\n{{anim id=\"1\"}}Vale la pena morire di freddo\nper vedere questo spettacolo\nstupefacente, {{fun_00070005 arg=\"\"}}!"
  },
  {
    "label": "012",
    "text": "{{anim id=\"5\"}}Ma hai visto?{{delay frames=\"5\"}} È arrivata l'aurora!\nSe ne sta lì, per farsi ammirare\nda tutti noi!\n{{anim id=\"16\"}}È come se ci fosse una tenda di luce\nin cielo! {{delay frames=\"10\"}}Se avessi una cosa così a\ncasa mia, sarei l'invidia di tutti!"
  },
  {
    "label": "013",
    "text": "{{anim id=\"5\"}}In giornate come questa, mi viene\nsempre voglia di bere un bicchiere\ndi {{fun_000E0005 arg=\"0x0000\"}}!"
  },
  {
    "label": "014",
    "text": "{{anim id=\"37\"}}Non importa che tempo faccia,\nio esco sempre vestita in modo\nsupertrendy.\n{{anim id=\"33\"}}Una bellezza come me che regala\nalla città stile ed eleganza...\nCosa vuoi di più, {{fun_00070005 arg=\"\"}}?"
  },
  {
    "label": "015",
    "text": "{{anim id=\"3\"}}Oggi è una giornata perfetta\nper {{fun_00120005 arg=\"0x0000\"}}!\n{{delay frames=\"10\"}}Non trovi, {{fun_00080005 arg=\"\"}}?"
  },
  {
    "label": "016",
    "text": "{{i10_8 arg=\"0x30003000120013001400150016001700\"}}"
  },
  {
    "label": "017",
    "text": ""
  },
  {
    "label": "018",
    "text": "{{fun_00010009 arg=\"0x1C001D001E00\"}}"
  },
  {
    "label": "019",
    "text": "{{i10_11 arg=\"0x101F002000CD\"}}"
  },
  {
    "label": "020",
    "text": "{{i10_11 arg=\"0x1023002400CD\"}}"
  },
  {
    "label": "021",
    "text": "{{fun_00010009 arg=\"0x250026002700\"}}"
  },
  {
    "label": "022",
    "text": "{{fun_00000009 arg=\"0x28002900\"}}"
  },
  {
    "label": "023",
    "text": "{{fun_00000009 arg=\"0x2A002B00\"}}"
  },
  {
    "label": "024",
    "text": ""
  },
  {
    "label": "025",
    "text": "{{anim id=\"3\"}}Adoro le giornate di sole!\nPosso fare sfilate all'aperto per\nla gioia dei miei fan, {{fun_00070005 arg=\"\"}}!"
  },
  {
    "label": "026",
    "text": "{{anim id=\"1\"}}Quando il sole brilla così.{{delay frames=\"5\"}}.{{delay frames=\"5\"}}.{{delay frames=\"5\"}} beh.{{delay frames=\"5\"}}.{{delay frames=\"5\"}}.{{delay frames=\"5\"}}\n{{anim id=\"42\"}}come si fa a non ballare come\nuna pazza, {{fun_00070005 arg=\"\"}}?"
  },
  {
    "label": "027",
    "text": "{{anim id=\"1\"}}Che giornata stratosferica!{{delay frames=\"10\"}}\nMi sto ricaricando di energia\nper andare a ballare, {{fun_00070005 arg=\"\"}}!"
  },
  {
    "label": "028",
    "text": "{{anim id=\"27\"}}Giornata nuvolosa, eh?\n{{delay frames=\"20\"}}Niente paura.{{delay frames=\"5\"}}.{{delay frames=\"5\"}}.{{delay frames=\"5\"}} {{anim id=\"33\"}}Ci sono qui io\na risplendere, {{fun_00070005 arg=\"\"}}!"
  },
  {
    "label": "029",
    "text": "{{anim id=\"37\"}}Cioè, ma mi vedi con una gonna\ngrande e a sbuffo come quelle\nnuvole lì, {{fun_00070005 arg=\"\"}}?"
  },
  {
    "label": "030",
    "text": "{{anim id=\"1\"}}Visto che il tempo è così così,\nnon trovi sia una giornata perfetta\nper fare shopping, {{fun_00080005 arg=\"\"}}?"
  },
  {
    "label": "031",
    "text": "{{anim id=\"5\"}}La pioggia è uno spettacolo!\n{{delay frames=\"20\"}}Mi rovina la pettinatura, ma mi\nfa sentire liberaaaaa e feliceee!\n{{anim id=\"4\"}}Adoro anche il suo rumore!"
  },
  {
    "label": "032",
    "text": "{{fun_00000009 arg=\"0x21002200\"}}"
  },
  {
    "label": "033",
    "text": "{{anim id=\"13\"}}Aiutooo! {{delay frames=\"10\"}}Devo provare la mia\nnuova coreografia, ma con tutto\nquesto fango, come faccio?"
  },
  {
    "label": "034",
    "text": "{{anim id=\"1\"}}Senti che ritmo la pioggia!{{delay frames=\"10\"}}\nSembra quasi un DJ che mette\nmusica {{fun_00140005 arg=\"0x0000\"}}!"
  },
  {
    "label": "035",
    "text": "{{anim id=\"5\"}}Cioè, sai cosa sarebbe galattico?\nRiuscire a fare una coreografia\nal ritmo della pioggia, {{fun_00070005 arg=\"\"}}!"
  },
  {
    "label": "036",
    "text": "{{anim id=\"13\"}}Che storia! Se continua a piovere\ncosì, mi toccherà tornare a casa\na nuoto. {{fun_0003000E arg=\"\"}}{{fun_00070005 arg=\"\"}}!"
  },
  {
    "label": "037",
    "text": "{{anim id=\"1\"}}Mi è appena finito in bocca\nun fiocco di neve che sapeva\ndi {{fun_00100005 arg=\"0x0000\"}}! Che storia!"
  },
  {
    "label": "038",
    "text": "{{anim id=\"1\"}}Ma tu lo sapevi che ogni fiocco\ndi neve è diverso da tutti gli altri,\n{{fun_00070005 arg=\"\"}}?{{pageBreak}}{{anim id=\"13\"}}Ne ho visto uno che era una via di\nmezzo tra {{fun_0002000E arg=\"\"}}{{fun_000F0005 arg=\"0x0000\"}}\ne {{fun_0002000E arg=\"\"}}{{fun_000F0005 arg=\"0x0100\"}}."
  },
  {
    "label": "039",
    "text": "{{anim id=\"1\"}}Quando fa freddo, {{delay frames=\"20\"}}adoro restare\na casa a leggere un buon libro.{{delay frames=\"5\"}}.{{delay frames=\"5\"}}.{{delay frames=\"5\"}}{{pageBreak}}{{anim id=\"22\"}}Trovato! {{delay frames=\"10\"}}Oggi ho deciso che finirò\n\"{{fun_001D0005 arg=\"0x0000\"}}\",\n{{fun_00070005 arg=\"\"}}!"
  },
  {
    "label": "040",
    "text": "{{anim id=\"1\"}}Quanta neve! {{delay frames=\"10\"}}Non riuscirò mai\nad assaggiare tutti questi fiocchi!\nProviamo con questo.{{delay frames=\"5\"}}.{{delay frames=\"5\"}}.{{delay frames=\"5\"}}\n{{anim id=\"5\"}}Mmmh, sa di {{fun_00100005 arg=\"0x0000\"}}!\nE questo.{{delay frames=\"5\"}}.{{delay frames=\"5\"}}.{{delay frames=\"5\"}}?\nOooh, sa di {{fun_00100005 arg=\"0x0100\"}}!\nE questo.{{delay frames=\"5\"}}.{{delay frames=\"5\"}}.{{delay frames=\"5\"}}?{{delay frames=\"20\"}} {{anim id=\"17\"}}Che schifo!\n{{delay frames=\"20\"}}Sa di {{fun_00130005 arg=\"0x0200\"}}\ncon la muffa!"
  },
  {
    "label": "041",
    "text": "{{anim id=\"1\"}}Se continua a nevicare così\ntanto, domani la città sarà\nricoperta di neve!\n{{anim id=\"35\"}}E lo sai cosa significa, vero?{{delay frames=\"30\"}}\n{{anim id=\"44\"}}Battaglia di palle di neveee!"
  },
  {
    "label": "042",
    "text": "{{anim id=\"5\"}}Uau! La città si è tinta di rosa con\ntutti questi petali di fiori di ciliegio\nche danzano nel vento.\n{{anim id=\"29\"}}Immagina un video musicale con me\nricoperta di petali, sarebbe \nsuperartistico, {{fun_00070005 arg=\"\"}}!"
  },
  {
    "label": "043",
    "text": "{{anim id=\"5\"}}Tutti questi petali ondeggianti\nmi fanno venire voglia di ballare,\n{{fun_00080005 arg=\"\"}}!\n{{anim id=\"13\"}}Aspetta un po'! {{delay frames=\"10\"}}Ma se continuano\na cadere così, presto non resterà\npiù nemmeno un fiore!{{pageBreak}}Non potremmo riattaccarli\ncon un po' di colla, {{fun_00070005 arg=\"\"}}?"
  },
  {
    "label": "044",
    "text": ""
  },
  {
    "label": "045",
    "text": "{{anim id=\"3\"}}Che storia! Non sembra\nuna pioggia di diamanti\nanche a te, {{fun_00070005 arg=\"\"}}?{{pageBreak}}Magari riuscissi a prenderne\nuno a zampe nude!"
  },
  {
    "label": "046",
    "text": "{{anim id=\"43\"}}Cioè, mi chiedevo... se esprimo\nun desiderio ammirando una stella\ncadente, pensi che si avveri?\nSarebbe favoloso,{{delay frames=\"5\"}} {{fun_00070005 arg=\"\"}}!{{pageBreak}}{{anim id=\"21\"}}Premi  verso l'alto,{{delay frames=\"10\"}} così puoi\nvedere il cielo e tenere d'occhio\nle stelle cadenti, {{fun_00080005 arg=\"\"}}.\n{{anim id=\"29\"}}Sai che grande occasione?!\n{{delay frames=\"10\"}}Premi  quando ne vedi una{{delay frames=\"5\"}} ed\nesprimi un desiderio!\n{{anim id=\"28\"}}Non si può mai sapere cosa succede\nse si esprime un desiderio quando\ncade una stella, {{fun_00070005 arg=\"\"}}!"
  },
  {
    "label": "047",
    "text": ""
  },
  {
    "label": "048",
    "text": "{{i10_7 arg=\"0x310031003100320032003200\"}}"
  },
  {
    "label": "049",
    "text": "{{fun_00010009 arg=\"0x19001A001B00\"}}"
  },
  {
    "label": "050",
    "text": "{{fun_00010009 arg=\"0x0D000E000F00\"}}"
  }
]