﻿[
  {
    "label": "001",
    "text": "{{anim id=\"1\"}}Non pensi che 'sto acquario sia,\ntipo, il massimo?{{pageBreak}}{{anim id=\"43\"}}Prova a immaginare... i pesci che\nnuotano felici, mentre io sorseggio\n{{fun_0002000E arg=\"\"}}{{fun_000E0005 arg=\"0x0000\"}}{{delay frames=\"10\"}}.{{delay frames=\"10\"}}.{{delay frames=\"10\"}}.\n{{anim id=\"5\"}}Non trovi che sia assolutamente\nchic? Voglio che la mia casa abbia\nun bel tocco di stile, {{delay frames=\"15\"}}{{fun_00070005 arg=\"\"}}!"
  },
  {
    "label": "002",
    "text": "{{anim id=\"1\"}}Allora? {{delay frames=\"3\"}}Cosa ne pensi di questo\nstrabiliante pezzo artistico che\nho scelto per la mia casa?\n{{anim id=\"4\"}}Ho pensato che se guardo ogni\ngiorno una bella cosa, io stessa\npotrei diventare più bella!\n{{anim id=\"5\"}}Te lo consiglio! {{delay frames=\"10\"}}Tutti dovrebbero\navere qualche opera d'arte a casa!"
  },
  {
    "label": "003",
    "text": "{{anim id=\"1\"}}Adoro avere a casa una piantina!{{delay frames=\"20\"}}{{pageBreak}}{{anim id=\"23\"}}Ti ricordi se {{fun_0002000E arg=\"\"}}{{fun_001F0005 arg=\"0x00CD\"}}\npotrebbe mangiarne le foglie?\n{{anim id=\"2\"}}Non lo ricordo mai! {{fun_0003000E arg=\"\"}}{{fun_00070005 arg=\"\"}}!"
  },
  {
    "label": "004",
    "text": "{{anim id=\"1\"}}Per migliorare il senso del ritmo,\nla cosa migliore è ascoltare, tipo,\nun sacco di musica!{{pageBreak}}{{anim id=\"5\"}}E poi quando trovo una canzone\nche mi piace, mi diverto una cifra!"
  },
  {
    "label": "005",
    "text": "{{anim id=\"1\"}}Guardo spesso le trasmissioni\nmusicali in TV, per me è molto\nimportante, sai...\n{{anim id=\"13\"}}Devo tenere d'occhio le mie rivali.{{pageBreak}}{{anim id=\"44\"}}Un giorno mi presenterò a\nun festival musicale e sbaraglierò\ntutte, vedrai! {{fun_0003000E arg=\"\"}}{{fun_00070005 arg=\"\"}}!"
  },
  {
    "label": "006",
    "text": "{{anim id=\"1\"}}Credo che le vere star debbano\nsapere scrivere i testi da sé.{{pageBreak}}{{anim id=\"38\"}}Quindi devo arricchire il mio\ncurriculum!{{anim id=\"44\"}} Per questo prendo\nlezioni di musica!"
  },
  {
    "label": "007",
    "text": "{{anim id=\"23\"}}Anche tu pensi che per raggiungere\nla popolarità dovrei sapere almeno\ncucinare? Io credo di sì.\n{{anim id=\"13\"}}Penso che, per prima cosa,{{delay frames=\"10\"}} mi\ndedicherò all'acquisto di tutti\ngli oggettini più utili{{delay frames=\"8\"}}.{{delay frames=\"8\"}}.{{delay frames=\"8\"}}.{{delay frames=\"8\"}}\n{{anim id=\"27\"}}Poi, magari, proverò a cucinare!"
  },
  {
    "label": "008",
    "text": "{{anim id=\"1\"}}Quest{{fun_0008000E arg=\"0x00CD02006F00020061000000\"}} {{fun_00030011 arg=\"0x0000\"}}{{delay frames=\"10\"}}\nè di una comodità tale che, tipo,{{delay frames=\"10\"}}\nci passerei l'intera giornata.\n{{anim id=\"27\"}}Non c'è sveglia che tenga,{{delay frames=\"10\"}} infatti\nsono sempre in ritardo!\n{{fun_0003000E arg=\"\"}}{{delay frames=\"15\"}}{{fun_00070005 arg=\"\"}}!"
  },
  {
    "label": "009",
    "text": "{{anim id=\"13\"}}Io mi muovo tanto durante il sonno\ne quindi ho paura di dormire nei letti\npiccoli!{{delay frames=\"8\"}} E se, tipo, cado giù?!\n{{anim id=\"1\"}}Così, ho deciso che per dormire\nassolutamente rilassata, mi serviva\n{{fun_0002000E arg=\"\"}}{{fun_00030011 arg=\"0x0000\"}}{{delay frames=\"10\"}}!"
  },
  {
    "label": "010",
    "text": "{{anim id=\"1\"}}Conosco un metodo infallibile\nper rilassarsi e staccare!{{pageBreak}}Basta sedersi in poltrona\ncon {{fun_0002000E arg=\"\"}}{{fun_00100005 arg=\"0x0000\"}}\na portata di mano. È il massimooo!"
  },
  {
    "label": "011",
    "text": "{{anim id=\"1\"}}Dopo un'intera giornata in giro,\ntornare a casa e spaparanzarsi\nsu questo divano è meraviglioso!\n{{anim id=\"27\"}}Il problema è che potresti ritrovarti\nil giorno dopo ancora lì! {{anim id=\"2\"}}Ah ah ah!{{delay frames=\"40\"}}\nForse è davvero troooppo comodo!{{anim id=\"37\"}}"
  },
  {
    "label": "012",
    "text": "{{anim id=\"4\"}}Questa sedia è, tipo, assolutamente\nperfetta per me, non trovi?!{{pageBreak}}{{anim id=\"1\"}}Posso restarci seduta per taaanto\ntempo e non accorgermene neanche!"
  },
  {
    "label": "013",
    "text": "{{anim id=\"1\"}}Cioè, ma hai visto il mio insettuccio,\n{{fun_00070005 arg=\"\"}}?\nNon ho ancora deciso il nome...\n{{anim id=\"11\"}}Vorrei trovarne uno davvero carino.{{pageBreak}}.{{delay frames=\"10\"}}.{{delay frames=\"10\"}}.{{delay frames=\"10\"}}{{anim id=\"22\"}} Ci sono!{{delay frames=\"20\"}} Userò il nome\ndi qualcuno che rispetto.\n{{delay frames=\"15\"}}Posso chiamarlo{{delay frames=\"5\"}} \"{{fun_00080005 arg=\"\"}}\"?!"
  },
  {
    "label": "014",
    "text": "{{anim id=\"13\"}}È allucinante: riesco a mettere\nla casa a soqquadro nel giro\ndi cinque minuti!\n{{anim id=\"1\"}}Ho pensato che dovrei essere più\norganizzata, quindi ho comprato{{delay frames=\"10\"}}\nquest{{fun_0008000E arg=\"0x00CD02006F00020061000000\"}} {{fun_00030011 arg=\"0x0000\"}}."
  },
  {
    "label": "015",
    "text": "{{anim id=\"1\"}}Mi piace una cifra l'aroma del caffè,\ne a te? {{anim id=\"13\"}}I bambini, però, non\ndovrebbero berlo! Dico davvero!"
  },
  {
    "label": "016",
    "text": "{{anim id=\"1\"}}Quando sono triste, guardo\nil mio giroide e mi torna il sorriso!{{pageBreak}}{{anim id=\"5\"}}È la mia fonte di ispirazione!{{delay frames=\"10\"}}\nVoglio essere una di quelle star\nche rendono felici tutti i loro fan!"
  },
  {
    "label": "017",
    "text": "{{anim id=\"33\"}}Tutti in città sanno che detto moda,\nsi ispirano a me!{{anim id=\"27\"}} Non posso certo\ndeluderli, eh!\n{{anim id=\"38\"}}Per questo ho deciso di usare casa\nmia come un museo di stile!\n{{anim id=\"29\"}}Tengo tutti i capi in bella mostra!"
  },
  {
    "label": "018",
    "text": "{{anim id=\"37\"}}Lo sapevo che ti avrebbe incuriosit{{fun_0006000E arg=\"0x02006F0002006100\"}}\n{{fun_0008000E arg=\"0x00CD0C0069006C0020006D0069006F000C006C00610020006D00690061000000\"}} {{fun_00030011 arg=\"0x0000\"}}!\nÈ davvero spettacolare!\n{{anim id=\"43\"}}Non è che abbia proprio capito\na che serva, eh... {{anim id=\"35\"}}Ma sta troppo\nbene qui a casa mia! {{anim id=\"2\"}}Eh eh eh!"
  },
  {
    "label": "019",
    "text": "{{fun_0003000E arg=\"\"}}{{fun_00080005 arg=\"\"}}, proprio perché sei tu,\nho deciso di svelarti un mio segreto\ntroppo assurdo{{delay frames=\"8\"}}.{{delay frames=\"8\"}}.{{delay frames=\"8\"}}.{{delay frames=\"8\"}}{{pageBreak}}{{anim id=\"5\"}}Ogni giorno, mi metto davanti\n{{fun_0008000E arg=\"0x00CD0C0061006C0020006D0069006F00100061006C006C00610020006D00690061000000\"}} {{fun_00030011 arg=\"0x0000\"}}{{delay frames=\"30\"}}\ne controllo le mie espressioni!\n{{anim id=\"21\"}}Mi serve per trovare il mio profilo\nmigliore e poi{{anim id=\"44\"}} devo essere pronta\nper i primissimi piani, {{fun_00070005 arg=\"\"}}!"
  },
  {
    "label": "020",
    "text": "{{anim id=\"37\"}}Ehiii!{{delay frames=\"20\"}}\n{{anim id=\"27\"}}Non c'è bisogno di fare quella faccia\nstupita solo perché ho una libreria!{{pageBreak}}{{anim id=\"33\"}}Guarda che ce li ho pure io i libri!\n{{anim id=\"1\"}}Solo che {{delay frames=\"10\"}}forse sono tutti, tipo,{{delay frames=\"5\"}}\ndi moda... ma che importa?!"
  },
  {
    "label": "021",
    "text": "{{anim id=\"13\"}}Oh, {{delay frames=\"10\"}}scusa tanto!{{delay frames=\"20\"}} Fa' finta\nche quest{{fun_0008000E arg=\"0x00CD02006F00020061000000\"}} {{fun_00030011 arg=\"0x0000\"}}\nsia assolutamente invisibile, OK?\n{{anim id=\"27\"}}Mi era venuto in mente di fare\nuna bella pulizia,{{delay frames=\"10\"}} ma poi me ne sono\ndimenticata!"
  },
  {
    "label": "022",
    "text": "{{anim id=\"1\"}}Forse starai pensando che i fossili{{delay frames=\"10\"}}\nnon c'entrino molto con un tipo\ncome me, cioè, con il mio stile!\n{{anim id=\"38\"}}Ma considera quanto sembro più\nmeravigliosa e trendy accanto\na una roba tanto allucinante!"
  },
  {
    "label": "023",
    "text": "{{anim id=\"43\"}}Credo che organizzerò\nqualcosa per utilizzare\nquest{{fun_0008000E arg=\"0x00CD02006F00020061000000\"}} {{fun_00030011 arg=\"0x0000\"}}.\n{{anim id=\"40\"}}Che barba gli incontri tutti tè\ne pasticcini... {{anim id=\"2\"}}farò qualcosa\ndi più divertente e trendy!"
  },
  {
    "label": "024",
    "text": "{{anim id=\"39\"}}{{fun_0003000E arg=\"\"}}{{fun_00080005 arg=\"\"}}, stavi guardando\n{{fun_0008000E arg=\"0x00CD0C0069006C0020006D0069006F000C006C00610020006D00690061000000\"}} {{fun_00030011 arg=\"0x0000\"}}?{{fun_00010007 arg=\"\"}}\n{{anim id=\"21\"}}Ti capisco troppo.\n{{anim id=\"37\"}}Poi mess{{fun_0008000E arg=\"0x00CD02006F00020061000000\"}} in bella mostra\n{{anim id=\"3\"}}e in un bel posticino strategico,\novvio che mi invidi, cioè!"
  },
  {
    "label": "025",
    "text": "{{anim id=\"37\"}}Cioè, quanto è fantastico il mio\ncomputer?!{{fun_00010007 arg=\"\"}}\n{{anim id=\"22\"}}Stavo pensando di aprire un blog!\n{{anim id=\"1\"}}Sono strasicura che i miei fan\nsarebbero troppo felici di potersi\ntenere aggiornati sulle mie attività!\n{{anim id=\"4\"}}Potrei scrivere come mi vesto,\ncosa mangio, giorno per giorno...{{delay frames=\"10\"}}\nSarei famosissima! {{delay frames=\"20\"}}{{fun_0003000E arg=\"\"}}{{fun_00070005 arg=\"\"}}!"
  },
  {
    "label": "026",
    "text": "{{anim id=\"3\"}}I fiori sono in grado di ravvivare\nuna casa! Cioè, {{anim id=\"39\"}}un po' come me!\nRendo belli tutti i posti in cui vado!"
  },
  {
    "label": "027",
    "text": "{{anim id=\"43\"}}Sai quando fai un bagno, tipo,\ntroooppo caldo e ti senti tutt{{fun_0006000E arg=\"0x02006F0002006100\"}}\nrintronat{{fun_0006000E arg=\"0x02006F0002006100\"}}?\n{{anim id=\"1\"}}Devi provare assolutamente\na mettere la testa nel frigorifero, {{anim id=\"21\"}}\nvedrai quanto ti sentirai meglio!"
  },
  {
    "label": "028",
    "text": "{{anim id=\"1\"}}Mi piace tenere a casa qualcosa\nper fare uno spuntino,{{delay frames=\"5\"}}{{anim id=\"13\"}} sai, soffro\ndi attacchi di fame allucinanti!\n{{anim id=\"5\"}}Per essere sempre al massimo,{{delay frames=\"5\"}}\nfaccio {{anim id=\"16\"}}tanti piccoli pasti durante\nil giorno! Sono troooppo avanti!"
  },
  {
    "label": "029",
    "text": "{{anim id=\"9\"}}Cioè, non so proprio perché\nio abbia una bilancia!{{pageBreak}}{{anim id=\"37\"}}La uso soltanto per pesare\nle valigie quando viaggio!"
  },
  {
    "label": "030",
    "text": "{{anim id=\"27\"}}Mi capita di stare alzata\ntutta la notte per giocare\ncon {{fun_0001000E arg=\"\"}}{{fun_00030011 arg=\"0x0000\"}}.\n{{anim id=\"2\"}}Con dei giochi da urlo così\nche mi aspettano, il sonno\ndiventa secondario!"
  },
  {
    "label": "031",
    "text": "{{anim id=\"1\"}}{{fun_0008000E arg=\"0x00CD0C0049006C0020006D0069006F000C004C00610020006D00690061000000\"}} {{fun_00030011 arg=\"0x0000\"}}\nè adorabile, vero? {{anim id=\"4\"}}Un sacco\nmorbid{{fun_0008000E arg=\"0x00CD02006F00020061000000\"}} e teneros{{fun_0008000E arg=\"0x00CD02006F00020061000000\"}}, {{fun_00070005 arg=\"\"}}!"
  },
  {
    "label": "032",
    "text": "{{anim id=\"1\"}}Con {{fun_0008000E arg=\"0x00CD0C0069006C0020006D0069006F000C006C00610020006D00690061000000\"}} {{fun_00030011 arg=\"0x0000\"}}\nmi comporto come se fosse\nun vero membro della famiglia.\n{{anim id=\"2\"}}A volte mi viene da pensare che,\ntipo, ci assomigliamo!"
  },
  {
    "label": "033",
    "text": "{{anim id=\"1\"}}Secondo me, tenere in camera\nquest{{fun_0008000E arg=\"0x00CD02006F00020061000000\"}} {{fun_00030011 arg=\"0x0000\"}}\nè il massimo,{{anim id=\"9\"}}{{delay frames=\"8\"}} ma ho un problemino...\n{{anim id=\"27\"}}... Mi rilassa troppo! {{anim id=\"38\"}}{{delay frames=\"8\"}}Cioè,\nio ho bisogno di tensione costante\ne brividi nella mia vita, capisci?"
  },
  {
    "label": "034",
    "text": "{{anim id=\"1\"}}Esatto, ho in casa mia\n{{fun_0002000E arg=\"\"}}{{fun_00030011 arg=\"0x0000\"}}!\nDivertente, no?\nCioè... {{delay frames=\"15\"}}{{anim id=\"27\"}}Se non altro, correre\ndentro a una ruota ti mantiene\nin forma. Non sei d'accordo?"
  },
  {
    "label": "035",
    "text": "{{anim id=\"9\"}}Penso di dovermi dare da fare\nper capire meglio i miei fan\npiù giovani, tipo,{{delay frames=\"8\"}}{{anim id=\"21\"}} come pensano, no?\n{{anim id=\"38\"}}Ecco perché ho comprato questi\nmobili! Così capirò come si sentono\ni miei fan di ultima generazione!"
  },
  {
    "label": "036",
    "text": "{{anim id=\"35\"}}So cosa stai pensando:{{delay frames=\"8\"}} {{fun_00010005 arg=\"\"}}\nsembra svampita, ma la sua casa\nè arredata con una cura pazzesca!\n{{anim id=\"27\"}}Che vuoi farci? Noi star siamo\ntutte così, cioè, particolari!\n{{anim id=\"4\"}}Adoro le contraddizioni!"
  },
  {
    "label": "037",
    "text": "{{anim id=\"38\"}}Avere a casa quest{{fun_0008000E arg=\"0x00CD02006F00020061000000\"}}\n{{fun_00030011 arg=\"0x0000\"}} mi fa\nsentire un sacco combattiva!\n{{anim id=\"21\"}}Mi sento carica come una vera\nlottatrice, cioè... non so se\nmi spiego!{{fun_00010007 arg=\"\"}} {{anim id=\"31\"}}Forza {{fun_00010005 arg=\"\"}}!!!"
  },
  {
    "label": "038",
    "text": "{{anim id=\"1\"}}Mi sono resa conto che avere a casa\n{{fun_0002000E arg=\"\"}}{{fun_00030011 arg=\"0x0000\"}}\nè da urlo!\nOltre a essere utile per il wrestling,\nè ideale per schiacciare i pisolini!"
  },
  {
    "label": "039",
    "text": "{{anim id=\"37\"}}Da quando ho installato la piscina,\n{{anim id=\"5\"}}l'acustica è diventata una cosa\ntroppo assurda!{{anim id=\"44\"}} Ideale per cantare!"
  },
  {
    "label": "040",
    "text": "{{anim id=\"6\"}}Sembri sorpres{{fun_0006000E arg=\"0x02006F0002006100\"}} perché ho\n{{fun_0002000E arg=\"\"}}{{fun_00030011 arg=\"0x0000\"}}!{{pageBreak}}{{anim id=\"23\"}}Altrimenti come pensi che potrei\nlavarmi i capelli ogni giorno\ne due volte la domenica?\n{{anim id=\"12\"}}Sì, lo ammetto{{delay frames=\"8\"}}.{{delay frames=\"8\"}}.{{delay frames=\"8\"}}.{{delay frames=\"8\"}} Sono un po'\nfissata con la cura del corpo!"
  },
  {
    "label": "041",
    "text": "{{anim id=\"2\"}}Trovi strano che io abbia\n{{fun_0002000E arg=\"\"}}{{fun_00030011 arg=\"0x0000\"}} qui?\n{{anim id=\"7\"}}Non osare giudicarmi per questo!\nOrmai ho deciso: userò questo\noggetto per creare un'opera d'arte!"
  },
  {
    "label": "042",
    "text": "{{anim id=\"1\"}}La frutta rinfresca l'ambiente, cioè,\nnon lo sapevi?!{{delay frames=\"8\"}} {{anim id=\"5\"}}Mi fa anche sentire\nun sacco in forma!"
  },
  {
    "label": "043",
    "text": "{{anim id=\"44\"}}Per essere una superstar\nnon basta saper cantare!{{pageBreak}}{{anim id=\"21\"}}Ecco perché ho comprato questa\nchitarra troppo trendy.{{delay frames=\"8\"}}\n{{anim id=\"31\"}}Arrivo, mondo!"
  },
  {
    "label": "044",
    "text": "{{anim id=\"5\"}}Non pensi anche tu che i cestini\nper i rifiuti siano, tipo, un'invenzione\ntroppo utile?!\n{{anim id=\"23\"}}Una cosa non ti serve più?{{fun_00010007 arg=\"\"}}\n{{anim id=\"38\"}}E che problema c'è?! Buttala\nnel cestino! Semplice, ma efficace!"
  },
  {
    "label": "045",
    "text": ""
  },
  {
    "label": "046",
    "text": ""
  },
  {
    "label": "047",
    "text": ""
  },
  {
    "label": "048",
    "text": ""
  },
  {
    "label": "049",
    "text": ""
  },
  {
    "label": "050",
    "text": ""
  }
]