﻿[
  {
    "label": "001",
    "text": "{{anim id=\"1\"}}Che novità ci sono {{fun_0010000E arg=\"\"}} {{fun_00050005 arg=\"\"}},\n{{fun_00080005 arg=\"\"}}? {{anim id=\"13\"}}Eddai! Cioè, voglio\ntroppo sapere se ci sono gossip!\nVabbè{{delay frames=\"15\"}}.{{delay frames=\"15\"}}.{{delay frames=\"15\"}}.{{delay frames=\"15\"}} non ti va di parlare.{{fun_00010007 arg=\"\"}} {{anim id=\"16\"}}A-ha!\nTi ho capito! Hai un segreto!\n{{anim id=\"2\"}}Sputa il rospo, {{fun_00070005 arg=\"\"}}!"
  },
  {
    "label": "002",
    "text": "{{anim id=\"9\"}}Pover{{fun_0008000E arg=\"0x00CD02006F00020061000000\"}} piccol{{fun_0008000E arg=\"0x00CD02006F00020061000000\"}} {{fun_00010011 arg=\"0x0000\"}}!\nSi è buscat{{fun_0008000E arg=\"0x00CD02006F00020061000000\"}} un brutto raffreddore!{{delay frames=\"8\"}}\n{{anim id=\"10\"}}Sai che barba a letto tutto il giorno!\n{{anim id=\"37\"}}Cioè, è ovvio che spero che\n{{fun_00010011 arg=\"0x0000\"}} si riprenda superpresto!"
  },
  {
    "label": "003",
    "text": "{{anim id=\"38\"}}Aaah!!! Ho sentito dire una cosa\nallucinante! {{delay frames=\"8\"}}Pare {{anim id=\"5\"}}che sia in arrivo\nqualcuno di nuovo!!!\n{{anim id=\"21\"}}Significa una nuova persona in giro!\n{{anim id=\"43\"}}Chissà che tipo sarà, {{fun_00070005 arg=\"\"}}?"
  },
  {
    "label": "004",
    "text": "{{anim id=\"1\"}}Senti, {{fun_00080005 arg=\"\"}}!\n{{anim id=\"23\"}}È vero che c'è qualcuno di nuovo\nin città? Chi è?! Vi siete incontrati?\nMA!{{fun_00010007 arg=\"\"}}{{anim id=\"13\"}} Mica è più trendy di me? Devi\nassolutamente curiosare un po' e\ndirmi cos'hai scoperto!"
  },
  {
    "label": "005",
    "text": "{{anim id=\"37\"}}Hai già incontrato {{fun_00010011 arg=\"0x0000\"}}?\nS'è appena trasferit{{fun_0007000E arg=\"0x02006F0002006100\"}}!{{pageBreak}}{{anim id=\"9\"}}Cioè, ero troppo preoccupata che\npotesse rubarmi la scena, capisci?!\nPer la novità... sai?\n{{anim id=\"38\"}}Invece {{fun_00010011 arg=\"0x0000\"}} è un sacco carin{{fun_0007000E arg=\"0x02006F0002006100\"}},\n{{fun_00070005 arg=\"\"}}!"
  },
  {
    "label": "006",
    "text": "{{anim id=\"13\"}}L'altro giorno, ho incontrato\n{{fun_00010011 arg=\"0x0000\"}} e sai che mi ha detto?!\nChe vuole andare via dalla città!\n{{anim id=\"9\"}}Cioè, io spero che {{fun_00010011 arg=\"0x0000\"}} mi\nstesse prendendo in giro! Dico... chi\nmai andrebbe via da qui?!"
  },
  {
    "label": "007",
    "text": "Ciaaao, {{fun_00080005 arg=\"\"}}.{{anim id=\"10\"}}{{fun_00010007 arg=\"\"}} {{anim id=\"37\"}}Non fare caso\na me. Sono solo tipo... presa male\nperché {{fun_00010011 arg=\"0x0000\"}} se ne va!\nNon sa ancora dove vuole andare,\nperò. {{anim id=\"12\"}}Cioè, che batosta allucinante!\nSono troppo triste!"
  },
  {
    "label": "008",
    "text": "{{anim id=\"13\"}}{{fun_0003000E arg=\"\"}}{{fun_00010011 arg=\"0x0000\"}} trasloca! Scommetto\nche qualche talent scout l'ha notat{{fun_0007000E arg=\"0x02006F0002006100\"}}\ne va via per quello.\n{{anim id=\"12\"}}Com'è possibile che io non sia stata\nnotata, invece? {{anim id=\"37\"}}Vabbè, dimentica\n{{fun_00010011 arg=\"0x0000\"}}!{{delay frames=\"8\"}} {{anim id=\"44\"}}Io sono più trendy!"
  }
]