﻿[
  {
    "label": "001",
    "text": "{{fun_00040009 arg=\"0x46004700480049004A004B00\"}}"
  },
  {
    "label": "002",
    "text": "{{anim id=\"43\"}}Ho sempre pensato che\n{{fun_0010000E arg=\"\"}} {{fun_00010011 arg=\"0x0000\"}} interessasse di più\nlo sport dell'arte, {{delay frames=\"30\"}}{{anim id=\"16\"}}e invece!\n{{anim id=\"38\"}}{{fun_0012000E arg=\"0x10000C0049006C002000730075006F000C004C00610020007300750061000000\"}} {{fun_00030011 arg=\"0x0000\"}} è,\n{{delay frames=\"5\"}}tipo, {{delay frames=\"5\"}}impressionante. {{delay frames=\"10\"}}{{anim id=\"5\"}}Rende questa\ncasa assolutamente fantastica!"
  },
  {
    "label": "003",
    "text": "{{anim id=\"1\"}}Spero che {{fun_00010011 arg=\"0x0000\"}} si prenda cura\nper bene di{{delay frames=\"5\"}} questo{{anim id=\"4\"}} esemplare\ndi {{fun_00030011 arg=\"0x0000\"}}!\n{{anim id=\"21\"}}Qualcuno dovrebbe dirgli che\nalle piante si dà acqua, {{delay frames=\"20\"}}{{anim id=\"2\"}}non frullati\nproteici!"
  },
  {
    "label": "004",
    "text": "{{fun_00040009 arg=\"0x46004700480049004A004B00\"}}"
  },
  {
    "label": "005",
    "text": "{{anim id=\"38\"}}{{fun_00010011 arg=\"0x0000\"}} mi ha detto {{delay frames=\"5\"}}che gli piace\nallenarsi guardando dei video{{delay frames=\"5\"}}\n{{fun_0012000E arg=\"0x10000E00730075006C002000730075006F001200730075006C006C00610020007300750061000000\"}} {{fun_00030011 arg=\"0x0000\"}}.\n{{anim id=\"11\"}}Se mi chiedessero di apparire per\nun video sportivo,{{delay frames=\"5\"}}{{fun_00010007 arg=\"\"}} vorrei che\nil titolo fosse qualcosa tipo...\n\"L'allenamento ipermegaextratrendy\ndi {{fun_00010005 arg=\"\"}}, {{delay frames=\"5\"}}{{fun_00070005 arg=\"\"}}!\""
  },
  {
    "label": "006",
    "text": "{{fun_00040009 arg=\"0x46004700480049004A004B00\"}}"
  },
  {
    "label": "007",
    "text": "{{anim id=\"21\"}}Ora che so che {{fun_00010011 arg=\"0x0000\"}} ha \n{{fun_0002000E arg=\"\"}}{{fun_00030011 arg=\"0x0000\"}},{{delay frames=\"5\"}}{{anim id=\"29\"}}\ngli potrò insegnare a cucinare!"
  },
  {
    "label": "008",
    "text": "{{anim id=\"11\"}}Ho sempre pensato che {{fun_00010011 arg=\"0x0000\"}}\nsi allenasse{{delay frames=\"5\"}} nel sonno. {{delay frames=\"10\"}}Altrimenti\ndove lo trova il tempo?\n{{anim id=\"40\"}}Ma penso che non riuscirebbe a fare\nneanche una flessione su{{delay frames=\"5\"}}{{anim id=\"37\"}} quest{{fun_0012000E arg=\"0x100002006F00020061000000\"}}\n{{fun_00030011 arg=\"0x0000\"}}!"
  },
  {
    "label": "009",
    "text": "{{anim id=\"43\"}}Non so perché, ma ho sempre\nimmaginato che {{fun_00010011 arg=\"0x0000\"}} {{delay frames=\"5\"}}avesse\n{{fun_0002000E arg=\"\"}}{{fun_00030011 arg=\"0x0000\"}} simile.\nCioè, {{delay frames=\"5\"}}{{anim id=\"3\"}}ha assolutamente bisogno\ndi spazio per potere fare qualche\nesercizio nel sonno,{{delay frames=\"5\"}} {{fun_00070005 arg=\"\"}}!"
  },
  {
    "label": "010",
    "text": "{{anim id=\"23\"}}Perché {{fun_00010011 arg=\"0x0000\"}} ha\n{{fun_0002000E arg=\"\"}}{{fun_00030011 arg=\"0x0000\"}}? {{delay frames=\"10\"}}Cioè,\nnon sta seduto neanche un attimo!\n{{anim id=\"16\"}}Oooh, {{delay frames=\"5\"}}ci sono! {{delay frames=\"20\"}}Deve darl{{fun_0012000E arg=\"0x100002006F00020061000000\"}} a me!{{delay frames=\"5\"}}\nAdoro sdraiarmi a spizzicare\n{{fun_0002000E arg=\"\"}}{{fun_00100005 arg=\"0x0000\"}}!"
  },
  {
    "label": "011",
    "text": "{{anim id=\"37\"}}{{fun_0008000E arg=\"0x00CD0C00510075006500730074006F000C005100750065007300740061000000\"}} {{fun_00030011 arg=\"0x0000\"}}\nsembra, tipo, il posto perfetto\nper stare seduti a bere del tè.\n{{anim id=\"23\"}}Pensi che {{fun_00010011 arg=\"0x0000\"}} mi inviterà\nmai {{delay frames=\"5\"}}per un tè?{{fun_00010007 arg=\"\"}} {{anim id=\"36\"}}Non credo proprio!"
  },
  {
    "label": "012",
    "text": "{{fun_00040009 arg=\"0x46004700480049004A004B00\"}}"
  },
  {
    "label": "013",
    "text": "{{anim id=\"37\"}}{{fun_00010011 arg=\"0x0000\"}} parlava di un compagno\ndi allenamento tostissimo.{{pageBreak}}{{anim id=\"16\"}}Che storia, no? Chissà se si riferiva\n{{fun_0012000E arg=\"0x10000C0061006C002000730075006F00100061006C006C00610020007300750061000000\"}} {{fun_00030011 arg=\"0x0000\"}}?!"
  },
  {
    "label": "014",
    "text": "{{fun_00040009 arg=\"0x46004700480049004A004B00\"}}"
  },
  {
    "label": "015",
    "text": "{{anim id=\"1\"}}{{fun_0008000E arg=\"0x00CD0C00510075006500730074006F000C005100750065007300740061000000\"}} {{fun_00030011 arg=\"0x0000\"}} non\nè niente male! {{delay frames=\"15\"}}Nel caffè metterà\nle proteine al posto {{anim id=\"2\"}}{{delay frames=\"5\"}}del latte?!"
  },
  {
    "label": "016",
    "text": "{{anim id=\"11\"}}Chissà{{delay frames=\"5\"}} se ha mai pensato di allenarsi\n{{fun_0008000E arg=\"0x00CD140063006F006E00200069006C002000730075006F00140063006F006E0020006C00610020007300750061000000\"}} {{fun_00030011 arg=\"0x0000\"}}?!{{fun_00010007 arg=\"\"}}\n{{anim id=\"2\"}}Sarebbe molto buffo da vedere!"
  },
  {
    "label": "017",
    "text": "{{anim id=\"1\"}}Temo proprio che {{fun_00010011 arg=\"0x0000\"}} pensi\nche {{fun_0001000E arg=\"\"}}{{fun_00030011 arg=\"0x0000\"}}\nlo faccia apparire{{delay frames=\"15\"}} trendy...{{pageBreak}}{{anim id=\"29\"}}Credo lo porterò in giro a fare\nshopping per fargli vedere cosa\nè davvero trendy,{{delay frames=\"5\"}} {{fun_00070005 arg=\"\"}}!"
  },
  {
    "label": "018",
    "text": "{{fun_00040009 arg=\"0x46004700480049004A004B00\"}}"
  },
  {
    "label": "019",
    "text": "{{fun_00040009 arg=\"0x46004700480049004A004B00\"}}"
  },
  {
    "label": "020",
    "text": "{{anim id=\"1\"}}{{fun_00010011 arg=\"0x0000\"}} avrà le biografie di tutti\ni culturisti mai esistiti al mondo{{delay frames=\"5\"}}\n{{fun_0012000E arg=\"0x10000E00730075006C002000730075006F001200730075006C006C00610020007300750061000000\"}} {{fun_00030011 arg=\"0x0000\"}}!"
  },
  {
    "label": "021",
    "text": "{{anim id=\"21\"}}Mi pare incoraggiante sapere che,\nse volesse, potrebbe fare le pulizie{{delay frames=\"5\"}}\n{{fun_0008000E arg=\"0x00CD140063006F006E00200069006C002000730075006F00140063006F006E0020006C00610020007300750061000000\"}} {{fun_00030011 arg=\"0x0000\"}}!\n{{anim id=\"2\"}}Cioè, a meno che{{delay frames=\"5\"}} non sia un regalo\ne non abbia idea di come si usi!"
  },
  {
    "label": "022",
    "text": "{{anim id=\"23\"}}Secondo te per cosa usa{{delay frames=\"5\"}}\n{{fun_0008000E arg=\"0x00CD0C00710075006500730074006F000C007100750065007300740061000000\"}} {{fun_00030011 arg=\"0x0000\"}}?{{pageBreak}}{{anim id=\"37\"}}Forse, tipo, sbriciola i fossili{{delay frames=\"10\"}}\n{{anim id=\"27\"}}e li mette{{delay frames=\"5\"}} nei suoi frullati proteici?!"
  },
  {
    "label": "023",
    "text": "{{anim id=\"21\"}}{{fun_0008000E arg=\"0x00CD0C00510075006500730074006F000C005100750065007300740061000000\"}} {{fun_00030011 arg=\"0x0000\"}}\ndi {{fun_00010011 arg=\"0x0000\"}} è,{{delay frames=\"5\"}} tipo, {{delay frames=\"5\"}}pesante\nin modo allucinante, non è normale!\n{{anim id=\"37\"}}Ho sentito dire che è di acciaio,{{delay frames=\"5\"}}{{anim id=\"27\"}}\ncosì può fare sollevamento pesi\nmentre beve il tè la mattina!{{delay frames=\"10\"}}"
  },
  {
    "label": "024",
    "text": "{{anim id=\"16\"}}Secondo me ha messo 'sta roba qui\nper scioccare la gente! {{delay frames=\"10\"}}Beh,\n{{anim id=\"2\"}}è proprio un tipo buffo!!!"
  },
  {
    "label": "025",
    "text": "{{anim id=\"9\"}}Spero che {{fun_00010011 arg=\"0x0000\"}} usi con cura{{delay frames=\"5\"}}\n{{fun_0012000E arg=\"0x10000C0069006C002000730075006F000C006C00610020007300750061000000\"}} {{fun_00030011 arg=\"0x0000\"}}.{{delay frames=\"20\"}}\nÈ così fragile...\n{{anim id=\"23\"}}Ti immagini se dovesse scrivere\nuna e-mail quando è arrabbiato?\n{{delay frames=\"15\"}}{{anim id=\"16\"}}Spaccherebbe tutto con un dito!"
  },
  {
    "label": "026",
    "text": "{{anim id=\"38\"}}{{fun_00010011 arg=\"0x0000\"}} avrà messo in vista\nquest{{fun_0012000E arg=\"0x100002006F00020061000000\"}} {{fun_00030011 arg=\"0x0000\"}}{{delay frames=\"5\"}}\nper dare il benvenuto agli ospiti.\n{{anim id=\"4\"}}Che carino!"
  },
  {
    "label": "027",
    "text": "{{anim id=\"9\"}}{{fun_00010011 arg=\"0x0000\"}} ha detto che usa\n{{fun_0012000E arg=\"0x10000C0069006C002000730075006F000C006C00610020007300750061000000\"}} {{fun_00030011 arg=\"0x0000\"}}\nper rinfrescarsi dopo l'allenamento.\n{{anim id=\"6\"}}Terrà lo sportello aperto per ore!{{delay frames=\"10\"}}\n{{anim id=\"27\"}}Cioè,{{delay frames=\"5\"}} è troppo uno spreco!"
  },
  {
    "label": "028",
    "text": "{{anim id=\"1\"}}Accipicchia, mi viene l'acquolina\nin bocca solo guardando\n{{fun_0008000E arg=\"0x00CD0C00710075006500730074006F000C007100750065007300740061000000\"}} {{fun_00030011 arg=\"0x0000\"}}.\n{{anim id=\"29\"}}Deve essere assolutamente\nnutriente e fare un sacco bene,\nse l{{fun_0008000E arg=\"0x00CD02006F00020061000000\"}} mangia persino lui!"
  },
  {
    "label": "029",
    "text": "{{fun_00040009 arg=\"0x46004700480049004A004B00\"}}"
  },
  {
    "label": "030",
    "text": "{{anim id=\"5\"}}È fantastico che anche lui abbia\n{{fun_0002000E arg=\"\"}}{{fun_00030011 arg=\"0x0000\"}}!{{delay frames=\"10\"}}\nGli piaceranno i giochi di lotta!\nBeh,{{delay frames=\"5\"}}{{anim id=\"29\"}} piacciono una cifra anche a me!{{delay frames=\"10\"}}\nRicordami di sfidarlo {{delay frames=\"5\"}}un giorno\no l'altro!"
  },
  {
    "label": "031",
    "text": "{{fun_00040009 arg=\"0x46004700480049004A004B00\"}}"
  },
  {
    "label": "032",
    "text": "{{fun_00040009 arg=\"0x46004700480049004A004B00\"}}"
  },
  {
    "label": "033",
    "text": "{{fun_00040009 arg=\"0x46004700480049004A004B00\"}}"
  },
  {
    "label": "034",
    "text": "{{fun_00040009 arg=\"0x46004700480049004A004B00\"}}"
  },
  {
    "label": "035",
    "text": "{{fun_00040009 arg=\"0x46004700480049004A004B00\"}}"
  },
  {
    "label": "036",
    "text": "{{fun_00040009 arg=\"0x46004700480049004A004B00\"}}"
  },
  {
    "label": "037",
    "text": "{{anim id=\"1\"}}Ovviamente {{fun_00010011 arg=\"0x0000\"}} ha\n{{fun_0002000E arg=\"\"}}{{fun_00030011 arg=\"0x0000\"}}!{{delay frames=\"5\"}}\n{{anim id=\"29\"}}Sarà la cosa che usa di più!"
  },
  {
    "label": "038",
    "text": "{{anim id=\"1\"}}Ovviamente {{fun_00010011 arg=\"0x0000\"}} ha\n{{fun_0002000E arg=\"\"}}{{fun_00030011 arg=\"0x0000\"}}!{{delay frames=\"5\"}}\n{{anim id=\"29\"}}Sarà la cosa che usa di più!"
  },
  {
    "label": "039",
    "text": "{{anim id=\"13\"}}Nooo! {{delay frames=\"10\"}}Fermi tutti!{{delay frames=\"10\"}}\n{{fun_0003000E arg=\"\"}}{{fun_0002000E arg=\"\"}}{{fun_00030011 arg=\"0x0000\"}}\na casa di {{fun_00010011 arg=\"0x0000\"}}?!\n{{anim id=\"27\"}}Cioè, {{delay frames=\"10\"}}non sarà mica un qualche\nVIP in incognito,{{delay frames=\"10\"}} {{fun_00070005 arg=\"\"}}?!"
  },
  {
    "label": "040",
    "text": "{{fun_00040009 arg=\"0x46004700480049004A004B00\"}}"
  },
  {
    "label": "041",
    "text": "{{anim id=\"23\"}}Chissà se avranno fatto notare {{fun_0010000E arg=\"\"}}\n{{fun_00010011 arg=\"0x0000\"}} {{delay frames=\"5\"}}che ha in bella mostra\n{{fun_0002000E arg=\"\"}}{{fun_00030011 arg=\"0x0000\"}}?!\nMah{{delay frames=\"8\"}}.{{delay frames=\"8\"}}.{{delay frames=\"8\"}}.{{delay frames=\"8\"}}{{anim id=\"27\"}} forse,{{delay frames=\"5\"}} tipo,{{delay frames=\"5\"}} qualcuno pensa\nche sia una cosa da macho..."
  },
  {
    "label": "042",
    "text": "{{fun_00040009 arg=\"0x46004700480049004A004B00\"}}"
  },
  {
    "label": "043",
    "text": "{{fun_00040009 arg=\"0x46004700480049004A004B00\"}}"
  },
  {
    "label": "044",
    "text": "{{fun_00040009 arg=\"0x46004700480049004A004B00\"}}"
  },
  {
    "label": "045",
    "text": ""
  },
  {
    "label": "046",
    "text": ""
  },
  {
    "label": "047",
    "text": ""
  },
  {
    "label": "048",
    "text": ""
  },
  {
    "label": "049",
    "text": ""
  },
  {
    "label": "050",
    "text": ""
  },
  {
    "label": "051",
    "text": ""
  },
  {
    "label": "052",
    "text": ""
  },
  {
    "label": "053",
    "text": ""
  },
  {
    "label": "054",
    "text": ""
  },
  {
    "label": "055",
    "text": ""
  },
  {
    "label": "056",
    "text": ""
  },
  {
    "label": "057",
    "text": ""
  },
  {
    "label": "058",
    "text": ""
  },
  {
    "label": "059",
    "text": ""
  },
  {
    "label": "060",
    "text": ""
  },
  {
    "label": "061",
    "text": ""
  },
  {
    "label": "062",
    "text": ""
  },
  {
    "label": "063",
    "text": ""
  },
  {
    "label": "064",
    "text": ""
  },
  {
    "label": "065",
    "text": ""
  },
  {
    "label": "066",
    "text": ""
  },
  {
    "label": "067",
    "text": ""
  },
  {
    "label": "068",
    "text": ""
  },
  {
    "label": "069",
    "text": ""
  },
  {
    "label": "070",
    "text": "{{anim id=\"1\"}}Adoro come {{fun_00010011 arg=\"0x0000\"}} ha arredato\nla sua casa!{{delay frames=\"8\"}}{{anim id=\"3\"}} Abbiamo assolutamente\ngli stessi gusti!"
  },
  {
    "label": "071",
    "text": "{{anim id=\"1\"}}{{fun_00010011 arg=\"0x0000\"}} ce l'ha messa tutta\nper rendere la sua casa accogliente,{{delay frames=\"5\"}}\nè proprio carina, non trovi?"
  },
  {
    "label": "072",
    "text": "{{anim id=\"1\"}}Dimmi se vedi qualcosa di trendy\nin giro. {{anim id=\"5\"}}Voglio essere certa di avere\nvisto tutte le cose di {{fun_00010011 arg=\"0x0000\"}}!"
  },
  {
    "label": "073",
    "text": "{{anim id=\"37\"}}Mi sembra di conoscerlo molto\nmeglio, {{delay frames=\"8\"}}{{anim id=\"35\"}}ora che ho visto {{delay frames=\"5\"}}come\nha arredato la sua casa!"
  },
  {
    "label": "074",
    "text": "{{anim id=\"37\"}}Non dirlo {{fun_0010000E arg=\"\"}} {{fun_00010011 arg=\"0x0000\"}}, {{delay frames=\"5\"}}ma credo\n{{anim id=\"35\"}}che potrei rubacchiargli qualche\nidea per l'arredamento di casa mia!"
  },
  {
    "label": "075",
    "text": "{{anim id=\"1\"}}Niente male, qui!{{delay frames=\"8\"}} {{anim id=\"29\"}}Ricordami di\nprendere degli appunti, {{delay frames=\"10\"}}così posso\nricreare qualcosa di simile anch'io!"
  }
]