﻿[
  {
    "label": "001",
    "text": "{{anim id=\"21\"}}Cioè, c'è un unico problema con\n'sto sole che splende tutto il giorno!{{delay frames=\"10\"}}\nBisogna evitare le scottature!\n{{anim id=\"15\"}}Tipo che{{delay frames=\"5\"}} fanno troppo male!"
  },
  {
    "label": "002",
    "text": "{{anim id=\"11\"}}Chissà quanto riuscirei a stare\nsveglia{{delay frames=\"10\"}} se il sole decidesse di non\ntramontare mai?!\n{{anim id=\"5\"}}Beh, ovviamente, a oltranza!{{delay frames=\"5\"}}\nCioè, dormire è da bambini!"
  },
  {
    "label": "003",
    "text": "{{anim id=\"5\"}}Il sole ha deciso di non tramontare{{delay frames=\"10\"}}\nperché sa quanto sono scintillante!\n{{anim id=\"15\"}}Vuole competere con me!\n{{anim id=\"2\"}}Beh,{{delay frames=\"5\"}} fai pure,{{delay frames=\"5\"}} signor Sole! {{delay frames=\"10\"}}Vediamo\nchi brilla di più oggi!"
  },
  {
    "label": "004",
    "text": "{{anim id=\"1\"}}Ora che è arrivato il solstizio,{{delay frames=\"5\"}}\ndevo troppo entrare in modalità\n{{fun_00010005 arg=\"\"}} d'estate! {{delay frames=\"10\"}}{{anim id=\"31\"}}Evvaiii!!!"
  },
  {
    "label": "005",
    "text": "{{anim id=\"29\"}}Ora è ufficialmente ESTATE!{{delay frames=\"15\"}}\nQuesto significa{{delay frames=\"10\"}} che finalmente\nposso sfoggiare i miei vestiti estivi!\n{{anim id=\"38\"}}Vedrai che moda da urlo che tirerò\nfuori!{{delay frames=\"15\"}} {{anim id=\"3\"}}Resterai a bocca aperta,{{delay frames=\"5\"}}\n{{fun_00070005 arg=\"\"}}!"
  }
]