﻿[
  {
    "label": "001",
    "text": "{{anim id=\"1\"}}Ehi, ma qui dentro ci sono dei pesci!{{fun_00010007 arg=\"\"}}\n{{anim id=\"35\"}}Sei sicur{{fun_0006000E arg=\"0x02006F0002006100\"}} che non sia un'insalatiera,\n{{fun_00070005 arg=\"\"}}?"
  },
  {
    "label": "002",
    "text": "{{anim id=\"1\"}}Allucinante! Hai in casa\n{{fun_0002000E arg=\"\"}}{{fun_00030011 arg=\"0x0000\"}}?!{{delay frames=\"10\"}}\nChe {{fun_0006000E arg=\"0x080075006F006D006F000A0064006F006E006E006100\"}} di cultura!"
  },
  {
    "label": "003",
    "text": "{{anim id=\"21\"}}Ma guarda.{{delay frames=\"5\"}}.{{delay frames=\"5\"}}.{{delay frames=\"5\"}} 'St{{fun_0008000E arg=\"0x00CD02006F00020061000000\"}} qui è\n{{fun_0002000E arg=\"\"}}{{fun_00030011 arg=\"0x0000\"}}!{{delay frames=\"10\"}} Cioè,\nle piante sono rilassanti una cifra."
  },
  {
    "label": "004",
    "text": "{{anim id=\"23\"}}Allora, sei fier{{fun_0006000E arg=\"0x02006F0002006100\"}} {{fun_0008000E arg=\"0x00CD0E00640065006C002000740075006F001200640065006C006C00610020007400750061000000\"}}\n{{fun_00030011 arg=\"0x0000\"}}?{{pageBreak}}{{anim id=\"5\"}}I mobili che ti fanno venire\nvoglia di ballare mi piacciono\nuna cifra!"
  },
  {
    "label": "005",
    "text": "{{anim id=\"16\"}}Sconvolgente! Vorrei tanto\n{{fun_0002000E arg=\"\"}}{{fun_00030011 arg=\"0x0000\"}} così!{{fun_00010007 arg=\"\"}}\n{{anim id=\"1\"}}Ci guarderei {{delay frames=\"5\"}}i reality {{delay frames=\"5\"}}tutto il giorno!"
  },
  {
    "label": "006",
    "text": "{{anim id=\"16\"}}Cioè, veramente {{fun_0008000E arg=\"0x00CD04006C006F0004006C0061000000\"}} suoni?{{delay frames=\"30\"}} {{anim id=\"37\"}}Evvai,\nposso dire che ho {{fun_0006000E arg=\"0x100075006E00200061006D00690063006F00100075006E00270061006D00690063006100\"}} che\nsuona {{fun_0001000E arg=\"\"}}{{fun_00030011 arg=\"0x0000\"}}!"
  },
  {
    "label": "007",
    "text": "{{anim id=\"5\"}}Bello il tocco casalingo che dai con\n{{fun_0008000E arg=\"0x00CD0C00710075006500730074006F000C007100750065007300740061000000\"}} {{fun_00030011 arg=\"0x0000\"}}!\nSei troppo avanti, {{fun_00070005 arg=\"\"}}!"
  },
  {
    "label": "008",
    "text": "{{anim id=\"1\"}}Sai che i letti piccoli vanno di moda\nquest'anno?! {{delay frames=\"10\"}}E tu, {{fun_00080005 arg=\"\"}}, hai\n{{fun_0002000E arg=\"\"}}{{fun_00030011 arg=\"0x0000\"}}! Uau!"
  },
  {
    "label": "009",
    "text": "{{anim id=\"1\"}}Un lettone da paura!{{delay frames=\"20\"}}\n{{fun_0003000E arg=\"\"}}{{fun_0001000E arg=\"\"}}{{fun_00030011 arg=\"0x0000\"}} è\nun signor letto, {{fun_00070005 arg=\"\"}}!"
  },
  {
    "label": "010",
    "text": "{{anim id=\"5\"}}Spaziale! Che gusto per il design.{{delay frames=\"10\"}}\nHai {{fun_0002000E arg=\"\"}}{{fun_00030011 arg=\"0x0000\"}}\nda fare invidia a tutta {{fun_00050005 arg=\"\"}}."
  },
  {
    "label": "011",
    "text": "{{anim id=\"1\"}}Vorrei ballare come una matta su\nquest{{fun_0008000E arg=\"0x00CD02006F00020061000000\"}} {{fun_00030011 arg=\"0x0000\"}}!{{delay frames=\"10\"}}\nDimmi che non sono la prima!"
  },
  {
    "label": "012",
    "text": "{{anim id=\"1\"}}Cioè, {{fun_0002000E arg=\"\"}}{{fun_00030011 arg=\"0x0000\"}}\nè un must al giorno d'oggi,\n{{fun_00080005 arg=\"\"}}. {{delay frames=\"10\"}}Versatilissim{{fun_0008000E arg=\"0x00CD02006F00020061000000\"}}!"
  },
  {
    "label": "013",
    "text": "{{anim id=\"15\"}}Allucinante! Ma tu sei {{fun_0006000E arg=\"0x1A0075006E006F0020006400690020007100750065006C006C0069001A0075006E00610020006400690020007100750065006C006C006500\"}}\nfissat{{fun_0006000E arg=\"0x0200690002006500\"}} con le cose organiche? {{fun_00010007 arg=\"\"}}{{anim id=\"1\"}}Ma\nallora sei troppo \"in\", {{fun_00070005 arg=\"\"}}."
  },
  {
    "label": "014",
    "text": "{{anim id=\"1\"}}Cioè, 'sti cosi sono troppo utili. Io\nci terrei tutti i miei trucchi! Quest{{fun_0008000E arg=\"0x00CD02006F00020061000000\"}}\n{{fun_00030011 arg=\"0x0000\"}} è da paura!"
  },
  {
    "label": "015",
    "text": "{{anim id=\"16\"}}Troppo bello! Hai davvero\n{{fun_0002000E arg=\"\"}}{{fun_00030011 arg=\"0x0000\"}}?{{fun_00010007 arg=\"\"}}\n{{anim id=\"1\"}}Che sofisticat{{fun_0006000E arg=\"0x02006F0002006100\"}}!"
  },
  {
    "label": "016",
    "text": "{{anim id=\"1\"}}Anche a te piacciono i giroidi?{{delay frames=\"10\"}}\nIo li tiro fuori quando organizzo\nle feste. Non sai che effettone!"
  },
  {
    "label": "017",
    "text": "{{anim id=\"5\"}}Usi i vestiti per decorare la stanza?{{delay frames=\"10\"}}\nSei lo stile fatto persona!"
  },
  {
    "label": "018",
    "text": "{{anim id=\"1\"}}Ah, dei giochi! {{delay frames=\"10\"}}Scommetto che tutti\ni tuoi amici ti invidiano quest{{fun_0008000E arg=\"0x00CD02006F00020061000000\"}}\n{{fun_00030011 arg=\"0x0000\"}}."
  },
  {
    "label": "019",
    "text": "{{anim id=\"5\"}}Ma allora siamo proprio uguali, io e\nte. {{delay frames=\"10\"}}{{fun_0003000E arg=\"\"}}{{fun_0002000E arg=\"\"}}{{fun_00030011 arg=\"0x0000\"}}\nè essenziale anche per me."
  },
  {
    "label": "020",
    "text": "{{anim id=\"1\"}}Ti rispetto troppo, {{fun_00080005 arg=\"\"}}.\n{{fun_0008000E arg=\"0x00CD0C0049006C002000740075006F000C004C00610020007400750061000000\"}} {{fun_00030011 arg=\"0x0000\"}}\nfa davvero impressione!"
  },
  {
    "label": "021",
    "text": "{{anim id=\"23\"}}Ma come? {{delay frames=\"10\"}}Non capisco. {{delay frames=\"10\"}}Perché\ntieni {{fun_0002000E arg=\"\"}}{{fun_00030011 arg=\"0x0000\"}}\ncosì in giro, {{fun_00080005 arg=\"\"}}?\n{{anim id=\"28\"}}Oh, {{delay frames=\"5\"}}piove dal soffitto? {{delay frames=\"5\"}}Mmmh...\nQuesto non è molto trendy."
  },
  {
    "label": "022",
    "text": "{{anim id=\"1\"}}{{fun_0003000E arg=\"\"}}{{fun_0002000E arg=\"\"}}{{fun_00030011 arg=\"0x0000\"}}!{{delay frames=\"10\"}}\nChe trendy! I fossili sono classici\nche non passano mai di moda!"
  },
  {
    "label": "023",
    "text": "{{anim id=\"3\"}}Sconvolgente! {{delay frames=\"10\"}}Un set da tè! {{delay frames=\"10\"}}Avere in\ncasa {{fun_0002000E arg=\"\"}}{{fun_00030011 arg=\"0x0000\"}}\nnon è mica da tutti!"
  },
  {
    "label": "024",
    "text": "{{anim id=\"37\"}}Interessante la scelta di tenere\nquesto coso, {{delay frames=\"5\"}}ehm,{{delay frames=\"5\"}} così in bella\nmostra, {{fun_00080005 arg=\"\"}}.\nAvere {{fun_0002000E arg=\"\"}}{{fun_00030011 arg=\"0x0000\"}}\nin mezzo ai mobili è una scelta\ncoraggiosa, che io apprezzo."
  },
  {
    "label": "025",
    "text": "{{anim id=\"1\"}}{{fun_0003000E arg=\"\"}}{{fun_0002000E arg=\"\"}}{{fun_00030011 arg=\"0x0000\"}} così\nin bella vista nella stanza fa molto\ncyber-chic, {{fun_00080005 arg=\"\"}}.\nOrmai {{delay frames=\"5\"}}non ti sto {{delay frames=\"5\"}}più dietro..."
  },
  {
    "label": "026",
    "text": "{{anim id=\"11\"}}Che cariiiiinoooo.{{delay frames=\"5\"}}.{{delay frames=\"5\"}}.{{delay frames=\"5\"}}\nMa che bella composizione!{{delay frames=\"20\"}}\n{{anim id=\"1\"}}Certo che è un po' minimalista."
  },
  {
    "label": "027",
    "text": "{{anim id=\"33\"}}Allora non sono l'unica a pensare\nche il frigo sia il mobile più \"in\"\ndi una stanza!\nE quest{{fun_0008000E arg=\"0x00CD02006F00020061000000\"}} {{fun_00030011 arg=\"0x0000\"}}\nè proprio il punto focale di tutto\nl'arredamento, {{fun_00080005 arg=\"\"}}!"
  },
  {
    "label": "028",
    "text": "{{anim id=\"1\"}}Oooh! E così usi del cibo per\ndecorare la stanza, {{fun_00070005 arg=\"\"}}?\n.{{delay frames=\"5\"}}.{{delay frames=\"5\"}}.{{delay frames=\"5\"}} Certo che ho una fame adesso...\n{{anim id=\"13\"}}Ma non posso mangiare\n{{fun_0002000E arg=\"\"}}{{fun_00030011 arg=\"0x0000\"}}\nproprio ora! Stasera vado a ballare!"
  },
  {
    "label": "029",
    "text": "{{anim id=\"23\"}}Perché hai bisogno di una bilancia,\n{{fun_00080005 arg=\"\"}}? {{delay frames=\"20\"}}Ah, so perché hai\n{{fun_0002000E arg=\"\"}}{{fun_00030011 arg=\"0x0000\"}}.\n{{anim id=\"1\"}}Per misurare il tuo stile!{{fun_00010007 arg=\"\"}}\n{{anim id=\"33\"}}Beh, ma non te lo devo certo dire\nio...{{delay frames=\"10\"}} Tu hai stile a tonnellate!"
  },
  {
    "label": "030",
    "text": "{{anim id=\"16\"}}Anche a te piacciono i videogiochi,\n{{fun_00080005 arg=\"\"}}? {{fun_00010007 arg=\"\"}}{{anim id=\"2\"}}A me una cifra. A volte\nla mia vita mi sembra un videogioco!"
  },
  {
    "label": "031",
    "text": "{{anim id=\"4\"}}Cioè, che dooooolceeeee! {{delay frames=\"10\"}}Adoro\n{{fun_0008000E arg=\"0x00CD0C00710075006500730074006F000C007100750065007300740061000000\"}} {{fun_00030011 arg=\"0x0000\"}}!{{pageBreak}}{{anim id=\"1\"}}Ma allora sei {{fun_0006000E arg=\"0x160075006E002000740065006E00650072006F006E006500180075006E0061002000740065006E00650072006F006E006100\"}},\n{{fun_00080005 arg=\"\"}}!"
  },
  {
    "label": "032",
    "text": "{{anim id=\"3\"}}Che amore! Anche a te piace\nrannicchiarti sotto le coperte con\n{{fun_0002000E arg=\"\"}}{{fun_00030011 arg=\"0x0000\"}}?\nIo lo adoro, soprattutto quando\nfuori piove, {{fun_00070005 arg=\"\"}}."
  },
  {
    "label": "033",
    "text": "{{anim id=\"16\"}}Cioè, troppo spirituale! {{delay frames=\"10\"}}Se avessi\n{{fun_0002000E arg=\"\"}}{{fun_00030011 arg=\"0x0000\"}}\nin casa mediterei tutto il giorno!"
  },
  {
    "label": "034",
    "text": "{{anim id=\"4\"}}Che carino! {{delay frames=\"10\"}}Vorrei strapazzarlo\nper bene, {{fun_00080005 arg=\"\"}}! {{delay frames=\"10\"}}Me lo porterei\nin discoteca tutti i sabati!"
  },
  {
    "label": "035",
    "text": "{{anim id=\"1\"}}Questa roba è troppo progressiva!\n{{fun_0003000E arg=\"\"}}{{fun_0002000E arg=\"\"}}{{fun_00030011 arg=\"0x0000\"}}\nin casa.{{delay frames=\"5\"}}.{{delay frames=\"5\"}}.{{delay frames=\"5\"}}? {{delay frames=\"10\"}}Ormai è d'obbligo!"
  },
  {
    "label": "036",
    "text": "{{anim id=\"37\"}}Che gusti raffinati, {{fun_00080005 arg=\"\"}}.{{delay frames=\"20\"}}\n{{fun_0003000E arg=\"\"}}{{fun_0002000E arg=\"\"}}{{fun_00030011 arg=\"0x0000\"}}\nfa tanto esotico, {{fun_00070005 arg=\"\"}}."
  },
  {
    "label": "037",
    "text": "{{anim id=\"15\"}}Nooo! {{delay frames=\"10\"}}Davvero tieni\n{{fun_0002000E arg=\"\"}}{{fun_00030011 arg=\"0x0000\"}}\nin casa, {{fun_00080005 arg=\"\"}}?\n{{anim id=\"18\"}}Ti sei dat{{fun_0006000E arg=\"0x02006F0002006100\"}} alle gare sportive\ne non ce l'avevi mai detto,\n{{fun_00070005 arg=\"\"}}?"
  },
  {
    "label": "038",
    "text": "{{anim id=\"15\"}}Ma dai, {{fun_00080005 arg=\"\"}}!? {{delay frames=\"10\"}}Hai messo qui\n{{fun_0008000E arg=\"0x00CD0C00710075006500730074006F000C007100750065007300740061000000\"}} {{fun_00030011 arg=\"0x0000\"}}\nperché vuoi sfidarmi?\n{{anim id=\"37\"}}Dammi il tempo di riscaldarmi\ne ti darò del filo da torcere,\n{{fun_00070005 arg=\"\"}}!"
  },
  {
    "label": "039",
    "text": "{{anim id=\"1\"}}No! {{delay frames=\"10\"}}Ma veramente?! {{delay frames=\"10\"}}Hai davvero\n{{fun_0002000E arg=\"\"}}{{fun_00030011 arg=\"0x0000\"}}?{{pageBreak}}La prossima volta che vengo a\ntrovarti mi metterò in tenuta\nda spiaggia, {{fun_00070005 arg=\"\"}}!"
  },
  {
    "label": "040",
    "text": "{{anim id=\"1\"}}Oooh! Comodissimo! A casa tua\nper fare il bagno non bisogna\nnemmeno andare in... bagno.\nCon {{fun_0002000E arg=\"\"}}{{fun_00030011 arg=\"0x0000\"}}\ncosì tra gli altri mobili,{{delay frames=\"20\"}} si fa\nprestissimo!"
  },
  {
    "label": "041",
    "text": "{{anim id=\"1\"}}{{fun_0003000E arg=\"\"}}{{fun_0002000E arg=\"\"}}{{fun_00030011 arg=\"0x0000\"}} così\nin bella mostra... {{anim id=\"23\"}}Ma è una scultura,\nvero?{{delay frames=\"30\"}}\n{{anim id=\"21\"}}Ma quante ne so?! E so che anche tu\nti interessi di arte contemporanea,\n{{fun_00070005 arg=\"\"}}!"
  },
  {
    "label": "042",
    "text": "{{anim id=\"1\"}}{{fun_0003000E arg=\"\"}}{{fun_0002000E arg=\"\"}}{{fun_00030011 arg=\"0x0000\"}}\ncome quest{{fun_0012000E arg=\"0x100002006F00020061000000\"}} è troppo irresistibile.{{delay frames=\"30\"}}{{pageBreak}}{{anim id=\"3\"}}La vita è spettacolare,\nse si arreda con gusto!"
  },
  {
    "label": "043",
    "text": "{{anim id=\"1\"}}Immagino che sarai, tipo, un genio\ncon {{fun_0001000E arg=\"\"}}{{fun_00030011 arg=\"0x0000\"}}.{{delay frames=\"30\"}}{{anim id=\"27\"}}\nAnch'io vorrei tanto saper suonare.\n{{anim id=\"44\"}}Le star più da urlo sanno cantare\ne suonare!!!"
  },
  {
    "label": "044",
    "text": "{{anim id=\"9\"}}Alcuni pensano che la pattumiera\nsia, tipo, disgustosa.{{delay frames=\"20\"}}{{anim id=\"1\"}} Secondo me\nè un sacco comoda ed economica!\n{{anim id=\"21\"}}Cioè, grazie alla pattumiera non devi\npagare nessuno per liberarti di ciò\nche non ti serve.\nPuoi fare tutto da sol{{fun_0006000E arg=\"0x02006F0002006100\"}},\n{{fun_00070005 arg=\"\"}}!"
  },
  {
    "label": "045",
    "text": ""
  },
  {
    "label": "046",
    "text": ""
  },
  {
    "label": "047",
    "text": ""
  },
  {
    "label": "048",
    "text": ""
  },
  {
    "label": "049",
    "text": ""
  },
  {
    "label": "050",
    "text": ""
  }
]