﻿[
  {
    "label": "001",
    "text": "{{anim id=\"13\"}}Ho una voglia matta di {{color id=\"2\"}}frutta{{color id=\"65535\"}}!"
  },
  {
    "label": "002",
    "text": "{{anim id=\"9\"}}Sto morendo di fame! Ma non\ndovevi portarmi un po' di {{color id=\"2\"}}frutta{{color id=\"65535\"}}?"
  },
  {
    "label": "003",
    "text": "{{anim id=\"10\"}}È da un sacco che vorrei assaggiare\n{{fun_0002000E arg=\"\"}}{{color id=\"2\"}}{{fun_00030011 arg=\"0x0000\"}}{{color id=\"65535\"}}!{{pageBreak}}{{anim id=\"5\"}}Ho fretta di mangiare la frutta.\nPotrei farla fritta. {{delay frames=\"10\"}}Viva la frutta\nfritta in fretta, {{fun_00070005 arg=\"\"}}!"
  },
  {
    "label": "004",
    "text": "Ma non dovevi portarmi\nun {{color id=\"2\"}}frutto perfetto{{color id=\"65535\"}}?{{pageBreak}}{{anim id=\"13\"}}{{fun_0003000E arg=\"\"}}{{fun_00080005 arg=\"\"}}, {{delay frames=\"10\"}}{{delay frames=\"10\"}}non te ne sarai mica\ndimenticat{{fun_0006000E arg=\"0x02006F0002006100\"}}? Sbrigati, ti prego!\nHo già l'acquolina in bocca!"
  },
  {
    "label": "005",
    "text": "{{anim id=\"16\"}}Ti ricordi della frutta che ti avevo\nchiesto?{{delay frames=\"20\"}} Alla fine l'ho comprata\nsu Internet. {{delay frames=\"10\"}}{{anim id=\"37\"}}Beh, grazie comunque!"
  },
  {
    "label": "006",
    "text": "{{anim id=\"5\"}}Che storia! Non sai da quanto\naspettavo questo momento,\n{{fun_00070005 arg=\"\"}}!"
  },
  {
    "label": "007",
    "text": "{{anim id=\"5\"}}Evviva, sei riuscit{{fun_0006000E arg=\"0x02006F0002006100\"}} a trovare quello\nche ti avevo chiesto, {{fun_00070005 arg=\"\"}}!"
  },
  {
    "label": "008",
    "text": "{{anim id=\"5\"}}Mitico! Finalmente potrò togliermi\nla voglia di frutta, {{fun_00070005 arg=\"\"}}!"
  },
  {
    "label": "009",
    "text": "{{anim id=\"18\"}}Cosa? {{delay frames=\"10\"}}Ma allora a me proprio\nnon ci pensi, {{fun_00070005 arg=\"\"}}!"
  },
  {
    "label": "010",
    "text": "{{anim id=\"9\"}}Cosa? {{delay frames=\"10\"}}Non hai niente di niente\nper me, {{fun_00070005 arg=\"\"}}?"
  },
  {
    "label": "011",
    "text": "{{anim id=\"1\"}}Uau! Che bontà!"
  },
  {
    "label": "012",
    "text": "{{anim id=\"1\"}}Mmmh, senti che buon profumo!"
  },
  {
    "label": "013",
    "text": "{{anim id=\"1\"}}Mi brontola già lo stomaco,\n{{fun_00080005 arg=\"\"}}!"
  },
  {
    "label": "014",
    "text": "{{anim id=\"23\"}}Ma è davvero quello che ti\nho chiesto? {{delay frames=\"10\"}}{{anim id=\"1\"}}Beh, proviamo subito!{{delay frames=\"10\"}}\nPancia mia, fatti capanna!"
  },
  {
    "label": "015",
    "text": "{{anim id=\"2\"}}Spero tu abbia trovato la frutta\nche volevo!{{delay frames=\"10\"}} E ora, sotto coi\ndenti, {{fun_00070005 arg=\"\"}}."
  },
  {
    "label": "016",
    "text": "{{anim id=\"23\"}}Oh! È davvero la frutta dei miei\nsogni? {{delay frames=\"30\"}}{{anim id=\"1\"}}Non vedo l'ora di scoprirlo!"
  },
  {
    "label": "017",
    "text": ""
  },
  {
    "label": "018",
    "text": ""
  },
  {
    "label": "019",
    "text": ""
  },
  {
    "label": "020",
    "text": "{{anim id=\"17\"}}È addirittura meglio di quanto\npensassi, {{fun_00000005 arg=\"\"}}!{{delay frames=\"20\"}}\nUau, che {{fun_00030011 arg=\"0x0200\"}}!"
  },
  {
    "label": "021",
    "text": "{{anim id=\"3\"}}Non c'è {{fun_00030011 arg=\"0x0200\"}}\nmigliore di quest{{fun_0008000E arg=\"0x02CD02006F00020061000000\"}}!\nHa un sapore megadelizioso!"
  },
  {
    "label": "022",
    "text": "{{anim id=\"4\"}}È di una bontà indescrivibile!\nViva {{fun_0001000E arg=\"\"}}{{fun_00030011 arg=\"0x0200\"}}!"
  },
  {
    "label": "023",
    "text": "{{anim id=\"15\"}}Non riesco a crederci, {{fun_00080005 arg=\"\"}}!\nHa proprio un sapore spaziale!"
  },
  {
    "label": "024",
    "text": "{{anim id=\"4\"}}Mmmh! {{delay frames=\"20\"}}Che bontà! {{delay frames=\"10\"}}Mi sento già\nscoppiare di energia, {{fun_00070005 arg=\"\"}}!"
  },
  {
    "label": "025",
    "text": "{{anim id=\"21\"}}Mmmh! Che bontà!"
  },
  {
    "label": "026",
    "text": "{{anim id=\"1\"}}Che delizia {{delay frames=\"10\"}}quest{{fun_0008000E arg=\"0x02CD02006F00020061000000\"}}\n{{fun_00030011 arg=\"0x0200\"}}!"
  },
  {
    "label": "027",
    "text": "{{anim id=\"1\"}}Mmmh! Mamma mia, che sapore che\nha, {{fun_00080005 arg=\"\"}}! {{delay frames=\"10\"}}Potrei mangiarne\nuna tonnellata!"
  },
  {
    "label": "028",
    "text": "{{anim id=\"23\"}}Ehi, ma... cosa?! Puah! Ma questo\nfrutto è bacato! {{fun_00010007 arg=\"\"}}{{anim id=\"13\"}}Che schifo!\nMa sei ammattit{{fun_0006000E arg=\"0x02006F0002006100\"}}, {{fun_00070005 arg=\"\"}}?{{fun_0004000B arg=\"0x03CD\"}}"
  },
  {
    "label": "029",
    "text": "{{anim id=\"15\"}}Bleah! Questo frutto è bacato!{{fun_00010007 arg=\"\"}}\n{{anim id=\"6\"}}Si può sapere perché mi hai dato\n'sta schifezza?!{{fun_0004000B arg=\"0x03CD\"}}"
  },
  {
    "label": "030",
    "text": "{{anim id=\"9\"}}Se mangiassi questa roba.{{delay frames=\"5\"}}.{{delay frames=\"5\"}}.{{delay frames=\"5\"}} \nFinirei per rompermi la mandibola!\nE poi addio al mio sorriso da diva!"
  },
  {
    "label": "031",
    "text": "{{anim id=\"16\"}}Ehi! {{delay frames=\"20\"}}Non posso mangiare questa\ntorta! {{delay frames=\"20\"}}L'hanno fatta apposta\nper te, {{fun_00080005 arg=\"\"}}!"
  },
  {
    "label": "032",
    "text": "{{anim id=\"27\"}}Veramente io ti avevo chiesto\ndella frutta! {{delay frames=\"10\"}}Questo, {{delay frames=\"5\"}}ehm, {{delay frames=\"5\"}}coso\nmangiatelo tu!"
  },
  {
    "label": "033",
    "text": "{{anim id=\"27\"}}Ma scusa, cioè, questo ti sembra\nun frutto? {{delay frames=\"10\"}}Io gli insetti non li mangio\nmica! Che schifo!"
  },
  {
    "label": "034",
    "text": "{{anim id=\"1\"}}Grazie una cifra, ma io volevo\ndella frutta, {{fun_00080005 arg=\"\"}}!"
  },
  {
    "label": "035",
    "text": ""
  },
  {
    "label": "036",
    "text": ""
  },
  {
    "label": "037",
    "text": "{{anim id=\"4\"}}Evvai! {{fun_00010007 arg=\"\"}}{{anim id=\"5\"}}Che sapore sconvolgente,\n{{fun_00070005 arg=\"\"}}!"
  },
  {
    "label": "038",
    "text": "{{anim id=\"1\"}}Uau! {{delay frames=\"10\"}}Che gusto allucinante!{{fun_00010007 arg=\"\"}}\nMi fa impazzire!"
  },
  {
    "label": "039",
    "text": "{{anim id=\"15\"}}Uau!{{fun_00010007 arg=\"\"}} {{anim id=\"5\"}}Ma è di una bontà spaziale!\nChe {{fun_00030011 arg=\"0x0200\"}}!"
  },
  {
    "label": "040",
    "text": "{{anim id=\"15\"}}Uau! Ma come fa ad avere un gusto\ncosì stupefacente? {{delay frames=\"30\"}}{{anim id=\"4\"}}Adoro quest{{fun_0008000E arg=\"0x02CD02006F00020061000000\"}}\n{{fun_00030011 arg=\"0x0200\"}}!"
  },
  {
    "label": "041",
    "text": "{{anim id=\"5\"}}Mmmh! Che sapore! Quest{{fun_0008000E arg=\"0x02CD02006F00020061000000\"}}\n{{fun_00030011 arg=\"0x0200\"}} è meglio\ndi una serata in discoteca!"
  },
  {
    "label": "042",
    "text": "{{anim id=\"4\"}}Che delizia! Ma come fa ad esistere\n{{fun_0002000E arg=\"\"}}{{fun_00030011 arg=\"0x0200\"}} con\nun sapore così?"
  },
  {
    "label": "043",
    "text": "{{anim id=\"2\"}}Evviva! {{delay frames=\"20\"}}Questo frutto è squisito.{{delay frames=\"30\"}}\n{{anim id=\"5\"}}Ho un'orchestra nella pancia!"
  },
  {
    "label": "044",
    "text": "{{anim id=\"21\"}}Sì, sì, proprio delizioso. {{delay frames=\"20\"}}{{anim id=\"37\"}}Ma era\nquesto il frutto che volevo? {{delay frames=\"10\"}}Boh,\nnon mi ricordo.{{delay frames=\"5\"}}.{{delay frames=\"5\"}}.{{delay frames=\"5\"}} Buono, {{delay frames=\"5\"}}comunque!"
  },
  {
    "label": "045",
    "text": "{{anim id=\"2\"}}Ah! Che botta di energia! A dirla\ntutta, non mi ricordo più se volevo\nproprio questo frutto. Buono, però!"
  },
  {
    "label": "046",
    "text": "Ma, secondo te, io ti avevo chiesto\nquesto frutto?{{delay frames=\"20\"}} {{anim id=\"40\"}}Naaah! {{fun_00010007 arg=\"\"}}Vuoi sapere\nse mi piace lo stesso? {{delay frames=\"20\"}}{{anim id=\"1\"}}ECCOME!"
  },
  {
    "label": "047",
    "text": "{{anim id=\"16\"}}Bleah! {{delay frames=\"10\"}}Ma questo frutto è marcio\ne bacato!{{delay frames=\"10\"}} Che schifo! {{delay frames=\"10\"}}{{anim id=\"13\"}}'Sta cosa\nè immangiabile, {{fun_00070005 arg=\"\"}}!{{fun_0002000B arg=\"0x03CD\"}}"
  },
  {
    "label": "048",
    "text": "{{anim id=\"23\"}}Cosa? Ma sei ammattit{{fun_0006000E arg=\"0x02006F0002006100\"}}? {{anim id=\"6\"}}Questo\nfrutto è marcio! {{delay frames=\"10\"}}Ma, dico, mi hai\nscambiato per una fogna?!{{fun_0002000B arg=\"0x03CD\"}}"
  },
  {
    "label": "049",
    "text": "{{anim id=\"9\"}}Vabbè, sarà anche un frutto...{{delay frames=\"10\"}}\nMa non posso addentarlo\ncosì com'è! {{delay frames=\"10\"}}No, grazie, {{fun_00080005 arg=\"\"}}."
  },
  {
    "label": "050",
    "text": "{{anim id=\"16\"}}Cosa? La tua torta? {{delay frames=\"20\"}}No, quella è\nper te, {{fun_00080005 arg=\"\"}}.\nGrazie comunque un sacchissimo!"
  },
  {
    "label": "051",
    "text": "{{anim id=\"11\"}}Fammi pensare...{{fun_00010007 arg=\"\"}}\nQuesto è un pesce, {{delay frames=\"10\"}}non un frutto.\n{{anim id=\"40\"}}No, non ci posso fare le spremute!"
  },
  {
    "label": "052",
    "text": "{{anim id=\"15\"}}Cooosa? Ma questo non è un frutto!\n{{delay frames=\"10\"}}Che schifo! {{fun_00010007 arg=\"\"}}{{anim id=\"9\"}}Quando lo mastichi,\ndeve essere croccante e viscido!"
  },
  {
    "label": "053",
    "text": "{{anim id=\"1\"}}Grazie per l'offerta, ma 'sta cosa\nnon sa abbastanza di frutta per me."
  },
  {
    "label": "054",
    "text": ""
  },
  {
    "label": "055",
    "text": ""
  },
  {
    "label": "056",
    "text": "{{anim id=\"2\"}}Grazie mille! {{delay frames=\"20\"}}Mi hai resa troppo\nfelice! {{delay frames=\"20\"}}{{anim id=\"1\"}}Ecco, prendi, quest{{fun_0008000E arg=\"0x01CD02006F00020061000000\"}}\n{{fun_00030011 arg=\"0x0100\"}} è per te!"
  },
  {
    "label": "057",
    "text": "{{anim id=\"5\"}}Grazie! Ti sei meritat{{fun_0006000E arg=\"0x02006F0002006100\"}} un regalo!{{delay frames=\"20\"}}\nTieni, {{fun_00080005 arg=\"\"}}, prendi quest{{fun_0008000E arg=\"0x01CD02006F00020061000000\"}}\n{{fun_00030011 arg=\"0x0100\"}}!"
  },
  {
    "label": "058",
    "text": "{{anim id=\"1\"}}Grazie per la frutta! {{delay frames=\"20\"}}Ecco, prendi\nquest{{fun_0008000E arg=\"0x01CD02006F00020061000000\"}} {{fun_00030011 arg=\"0x0100\"}}!{{delay frames=\"10\"}}\nÈ un pensierino, {{fun_00070005 arg=\"\"}}."
  },
  {
    "label": "059",
    "text": "{{anim id=\"5\"}}Visto che mi hai fatto un favorone,\nper sdebitarmi ti darò{{delay frames=\"20\"}} quest{{fun_0008000E arg=\"0x01CD02006F00020061000000\"}}\n{{fun_00030011 arg=\"0x0100\"}}!"
  },
  {
    "label": "060",
    "text": "{{anim id=\"1\"}}Volevo darti questo per ringraziarti.\nSpero che ti piaccia un sacco.\nÈ {{fun_0002000E arg=\"\"}}{{fun_00030011 arg=\"0x0100\"}}!"
  },
  {
    "label": "061",
    "text": "{{anim id=\"1\"}}Grazie per avermi portato\nla frutta, {{fun_00080005 arg=\"\"}}. {{delay frames=\"10\"}}Ecco, prendi\nquest{{fun_0008000E arg=\"0x01CD02006F00020061000000\"}} {{fun_00030011 arg=\"0x0100\"}}!"
  },
  {
    "label": "062",
    "text": "{{anim id=\"1\"}}Non so proprio come ringraziarti.\n{{delay frames=\"10\"}}Tieni, prendi questo regalino.\nÈ {{fun_0002000E arg=\"\"}}{{fun_00030011 arg=\"0x0100\"}}!"
  },
  {
    "label": "063",
    "text": "{{anim id=\"1\"}}Voglio sdebitarmi con te.\n{{delay frames=\"30\"}}Ecco, {{delay frames=\"5\"}}prendi! {{delay frames=\"10\"}}È solo un pensierino!\nÈ {{fun_0002000E arg=\"\"}}{{fun_00030011 arg=\"0x0100\"}}."
  },
  {
    "label": "064",
    "text": ""
  },
  {
    "label": "065",
    "text": ""
  },
  {
    "label": "066",
    "text": "{{anim id=\"16\"}}Aspetta! {{delay frames=\"10\"}}Come posso ringraziarti?\n{{fun_00010007 arg=\"\"}}Trovato! Ho qui un regalino per te!\nÈ {{fun_0002000E arg=\"\"}}{{fun_00030011 arg=\"0x0100\"}}!"
  },
  {
    "label": "067",
    "text": "{{anim id=\"1\"}}Grazie per aver esaudito il mio\ndesiderio! Ecco, tieni, prendi quest{{fun_0008000E arg=\"0x01CD02006F00020061000000\"}}\n{{fun_00030011 arg=\"0x0100\"}}! È per te!"
  },
  {
    "label": "068",
    "text": "{{anim id=\"1\"}}Cioè, sei stat{{fun_0006000E arg=\"0x02006F0002006100\"}} così allucinante che\ndevo darti per forza quest{{fun_0008000E arg=\"0x01CD02006F00020061000000\"}}\n{{fun_00030011 arg=\"0x0100\"}}!"
  },
  {
    "label": "069",
    "text": "{{anim id=\"5\"}}Un frutto così buono deve fruttarti\nqualcosa! {{delay frames=\"10\"}}Ecco qui il tuo premio:\n{{fun_0002000E arg=\"\"}}{{fun_00030011 arg=\"0x0100\"}}!"
  },
  {
    "label": "070",
    "text": "{{anim id=\"5\"}}Ti meriti troppo una ricompensa per\nessere stat{{fun_0006000E arg=\"0x02006F0002006100\"}} così carin{{fun_0006000E arg=\"0x02006F0002006100\"}}! {{delay frames=\"10\"}}Tieni\nquest{{fun_0008000E arg=\"0x01CD02006F00020061000000\"}} {{fun_00030011 arg=\"0x0100\"}}!"
  },
  {
    "label": "071",
    "text": "{{anim id=\"1\"}}Ecco, tieni! {{delay frames=\"10\"}}Visto che mi hai portato\nquesto frutto stratosferico, prendi\nquest{{fun_0008000E arg=\"0x01CD02006F00020061000000\"}} {{fun_00030011 arg=\"0x0100\"}}!"
  },
  {
    "label": "072",
    "text": "{{anim id=\"1\"}}Ti sei meritat{{fun_0006000E arg=\"0x02006F0002006100\"}} un bel premio,\n{{fun_00080005 arg=\"\"}}! {{delay frames=\"10\"}}Ecco qui.{{delay frames=\"10\"}} Ti regalo\nquest{{fun_0008000E arg=\"0x01CD02006F00020061000000\"}} {{fun_00030011 arg=\"0x0100\"}}!"
  },
  {
    "label": "073",
    "text": "{{anim id=\"37\"}}Per un frutto così buono, {{delay frames=\"20\"}}ti meriti\nqualcosa da urlo anche tu!{{pageBreak}}{{fun_0003000E arg=\"\"}}{{fun_0002000E arg=\"\"}}{{fun_00030011 arg=\"0x0100\"}} tutt{{fun_0008000E arg=\"0x01CD02006F00020061000000\"}}\ntu{{fun_0008000E arg=\"0x01CD02006F00020061000000\"}}!"
  },
  {
    "label": "074",
    "text": "{{anim id=\"1\"}}Per ringraziarti della delizia che\nmi hai portato, ho qui un regalo per\nte! È {{fun_0002000E arg=\"\"}}{{fun_00030011 arg=\"0x0100\"}}!"
  },
  {
    "label": "075",
    "text": "{{anim id=\"37\"}}Che bontà quel frutto!{{pageBreak}}Lo vuoi un regalo? {{delay frames=\"10\"}}Tieni, ecco qui\n{{fun_0002000E arg=\"\"}}{{fun_00030011 arg=\"0x0100\"}} tutt{{fun_0008000E arg=\"0x01CD02006F00020061000000\"}}\nper te!"
  },
  {
    "label": "076",
    "text": ""
  },
  {
    "label": "077",
    "text": ""
  },
  {
    "label": "078",
    "text": "{{anim id=\"5\"}}Ah.{{delay frames=\"5\"}}.{{delay frames=\"5\"}}.{{delay frames=\"5\"}} Che gusto stratosferico.\n{{delay frames=\"10\"}}Grazie una cifra. Ora sono piena!"
  },
  {
    "label": "079",
    "text": "{{anim id=\"5\"}}Mi sento come una vera regina.\nSai com'è: mangiare frutta raffinata\ncome questa... {{fun_0003000E arg=\"\"}}{{fun_00070005 arg=\"\"}}!"
  },
  {
    "label": "080",
    "text": "{{anim id=\"1\"}}Grazie grazissime, {{fun_00080005 arg=\"\"}}!"
  },
  {
    "label": "081",
    "text": "{{anim id=\"1\"}}Evviva, {{fun_00080005 arg=\"\"}}, veramente\ntroppo buono, {{fun_00070005 arg=\"\"}}!"
  },
  {
    "label": "082",
    "text": "{{anim id=\"1\"}}Grazie, grazie, grazie, {{fun_00080005 arg=\"\"}}!"
  },
  {
    "label": "083",
    "text": "{{anim id=\"1\"}}Grazie davvero, {{fun_00080005 arg=\"\"}}."
  },
  {
    "label": "084",
    "text": "{{anim id=\"1\"}}Grazie dell'aiuto, {{fun_00080005 arg=\"\"}}."
  },
  {
    "label": "085",
    "text": "{{anim id=\"1\"}}Grazie della frutta, {{fun_00080005 arg=\"\"}}."
  },
  {
    "label": "086",
    "text": "{{anim id=\"6\"}}Ma stai scherzando?!\nUna megadiva come me che\nmangia quella roba, {{fun_00070005 arg=\"\"}}?"
  },
  {
    "label": "087",
    "text": "{{anim id=\"6\"}}Stai pur sicur{{fun_0006000E arg=\"0x02006F0002006100\"}} che questa me la\nlego al dito, {{fun_00080005 arg=\"\"}}!"
  },
  {
    "label": "088",
    "text": "{{anim id=\"1\"}}Spero che la prossima volta\nmi porterai qualcosa di\ncommestibile, {{fun_00070005 arg=\"\"}}."
  },
  {
    "label": "089",
    "text": "{{anim id=\"1\"}}Grazie comunque, {{fun_00070005 arg=\"\"}}!"
  },
  {
    "label": "090",
    "text": "{{anim id=\"1\"}}Beh, grazie per.{{delay frames=\"5\"}}.{{delay frames=\"5\"}}.{{delay frames=\"5\"}} ehm.{{delay frames=\"5\"}}.{{delay frames=\"5\"}}.{{delay frames=\"5\"}}\naverci provato, {{fun_00080005 arg=\"\"}}."
  },
  {
    "label": "091",
    "text": "{{anim id=\"9\"}}Mmmh.{{delay frames=\"5\"}}.{{delay frames=\"5\"}}.{{delay frames=\"5\"}} ci sono sapori che\npreferisco non scoprire!"
  },
  {
    "label": "092",
    "text": "{{anim id=\"1\"}}Senti, tienitela tu questa\nroba! {{fun_0003000E arg=\"\"}}{{fun_00070005 arg=\"\"}}!"
  },
  {
    "label": "093",
    "text": ""
  },
  {
    "label": "094",
    "text": ""
  },
  {
    "label": "095",
    "text": "{{anim id=\"5\"}}Grazie mille per avermi portato\nquesto frutto!"
  },
  {
    "label": "096",
    "text": "{{anim id=\"5\"}}Che storia! È quasi come se un genio\navesse esaudito un mio desiderio!"
  },
  {
    "label": "097",
    "text": "{{anim id=\"5\"}}Che storia! Mi hai fatto un regalo\ndavvero troppo straordinario,\n{{fun_00080005 arg=\"\"}}!"
  },
  {
    "label": "098",
    "text": "{{anim id=\"1\"}}Che bontà galattica! {{delay frames=\"10\"}}Ma allora\nogni tanto i sogni si avverano!"
  },
  {
    "label": "099",
    "text": "{{anim id=\"1\"}}Grazie una cifra!"
  },
  {
    "label": "100",
    "text": "{{anim id=\"1\"}}Grazie un sacco, {{fun_00080005 arg=\"\"}}!"
  },
  {
    "label": "101",
    "text": "{{anim id=\"1\"}}Grazie per la frutta.{{delay frames=\"5\"}}.{{delay frames=\"5\"}}.{{delay frames=\"5\"}} La prossima\nvolta, però, magari portami quello\nche ti chiedo,{{delay frames=\"10\"}} OK, {{fun_00080005 arg=\"\"}}?"
  },
  {
    "label": "102",
    "text": "{{anim id=\"1\"}}Grazie, {{fun_00080005 arg=\"\"}}! {{delay frames=\"5\"}}La prossima\n{{delay frames=\"5\"}}volta, comunque, portami il frutto\nche ti avevo chiesto, per favore!"
  },
  {
    "label": "103",
    "text": "{{anim id=\"1\"}}Grazie! {{delay frames=\"20\"}}Solo una cosa, però:\nla prossima volta cerca di portarmi\nil frutto che ti chiedo, {{delay frames=\"5\"}}OK?"
  },
  {
    "label": "104",
    "text": "{{anim id=\"1\"}}Senti, {{delay frames=\"5\"}}la prossima volta... {{delay frames=\"10\"}}magari\ncerca di portarmi proprio il frutto\nche ti chiedo{{delay frames=\"10\"}}. Grazie comunque!"
  },
  {
    "label": "105",
    "text": "{{anim id=\"6\"}}Cercherò di far finta che questo\ndisgustoso episodio non sia mai\naccaduto, {{fun_00070005 arg=\"\"}}."
  },
  {
    "label": "106",
    "text": "{{anim id=\"6\"}}Spero solo di riuscire a togliermi\nquesto saporaccio schifoso che mi è\nrimasto in bocca, {{fun_00070005 arg=\"\"}}.{{delay frames=\"5\"}}.{{delay frames=\"5\"}}.{{delay frames=\"5\"}}"
  },
  {
    "label": "107",
    "text": ""
  },
  {
    "label": "108",
    "text": "{{anim id=\"15\"}}È troppa roba! Non ce la faccio!{{fun_00010007 arg=\"\"}}\n{{anim id=\"2\"}}Grazie comunque, {{fun_00070005 arg=\"\"}}!"
  },
  {
    "label": "109",
    "text": "{{anim id=\"1\"}}Uau, sei davvero gentile,\nma un frutto solo basta e avanza,\n{{fun_00070005 arg=\"\"}}!"
  },
  {
    "label": "110",
    "text": "{{anim id=\"15\"}}{{fun_0003000E arg=\"\"}}{{fun_0002000E arg=\"\"}}{{color id=\"2\"}}{{fun_00030011 arg=\"0x0200\"}}{{color id=\"65535\"}}?!{{delay frames=\"20\"}}\nEd è davvero solo per me?{{delay frames=\"10\"}}\nChe cosa supermegaextrafavolosa!"
  },
  {
    "label": "111",
    "text": "{{anim id=\"5\"}}Questo profumo è inconfondibile!\nÈ {{fun_0002000E arg=\"\"}}{{color id=\"2\"}}{{fun_00030011 arg=\"0x0200\"}}{{color id=\"65535\"}}!{{delay frames=\"20\"}}\nA me, {{delay frames=\"5\"}}a me,{{delay frames=\"5\"}} a me!"
  },
  {
    "label": "112",
    "text": "{{anim id=\"5\"}}Che sorpresa da urlo!\n{{fun_0003000E arg=\"\"}}{{fun_0002000E arg=\"\"}}{{color id=\"2\"}}{{fun_00030011 arg=\"0x0200\"}}{{color id=\"65535\"}}!{{delay frames=\"10\"}}\nSei troppo {{fun_0006000E arg=\"0x160069006C0020006D00690067006C0069006F007200650016006C00610020006D00690067006C0069006F0072006500\"}}, {{delay frames=\"5\"}}{{fun_00080005 arg=\"\"}}!"
  },
  {
    "label": "113",
    "text": "{{anim id=\"1\"}}Grazie una cifra per avermi portato\nquest{{fun_0008000E arg=\"0x02CD02006F00020061000000\"}} {{color id=\"2\"}}{{fun_00030011 arg=\"0x0200\"}}{{color id=\"65535\"}}!\nÈ strabuon{{fun_0008000E arg=\"0x02CD02006F00020061000000\"}}!"
  },
  {
    "label": "114",
    "text": ""
  },
  {
    "label": "115",
    "text": "{{anim id=\"4\"}}Che bontà! {{delay frames=\"5\"}}Troppo una delizia.{{fun_00010007 arg=\"\"}}\n{{anim id=\"27\"}}Voglio dire, non è il massimo in\nassoluto, ma ci va molto vicino!\n{{anim id=\"38\"}}Ecco qualcosa per ringraziarti!\n{{fun_0003000E arg=\"\"}}{{fun_0002000E arg=\"\"}}{{fun_00030011 arg=\"0x0100\"}}!\nPrego!"
  },
  {
    "label": "116",
    "text": "{{anim id=\"37\"}}Beh, credo che dovrò aspettare\nancora per un frutto perfetto!{{pageBreak}}{{anim id=\"38\"}}Ma grazie comunque per quello\nche mi hai portato,{{delay frames=\"5\"}} {{fun_00080005 arg=\"\"}}!"
  }
]