﻿[
  {
    "label": "001",
    "text": "{{anim id=\"38\"}}Ciaaao, {{delay frames=\"20\"}}{{fun_00080005 arg=\"\"}}!{{delay frames=\"30\"}}\nTi ricordi di me? {{delay frames=\"15\"}}{{anim id=\"44\"}}Sono io, l'unica\ne inimitabile {{fun_00010005 arg=\"\"}}!{{pageBreak}}{{anim id=\"1\"}}Mi sono appena trasferita qui\n{{fun_0010000E arg=\"\"}} {{delay frames=\"10\"}}{{fun_00050005 arg=\"\"}}! Scusa il disordine,\n{{delay frames=\"5\"}}ma devo ancora sistemare tutto!\nPerché non ritorni a trovarmi\ndomani con più calma?\n{{anim id=\"13\"}}Cioè, adesso sono troppo stressata!"
  },
  {
    "label": "002",
    "text": "Non voglio comprare niente, grazie.{{fun_00010007 arg=\"\"}}\n{{anim id=\"2\"}}Ah ah, scherzo! Ci conosciamo già!\nTi ricordi?{{delay frames=\"15\"}} Sono io, {{fun_00010005 arg=\"\"}}!\n{{anim id=\"37\"}}Sei venut{{fun_0006000E arg=\"0x02006F0002006100\"}} a darmi una mano con\ngli scatoloni? {{delay frames=\"15\"}}{{anim id=\"4\"}}Che carin{{fun_0006000E arg=\"0x02006F0002006100\"}}!{{delay frames=\"20\"}} {{anim id=\"21\"}}Non ce n'è\n{{delay frames=\"5\"}}bisogno, grazie! Ce la faccio da sola!\n{{anim id=\"43\"}}Anzi, ho quasi finito.\n{{delay frames=\"15\"}}{{anim id=\"37\"}}Perché non ripassi più tardi?\nCosì facciamo due chiacchiere!"
  },
  {
    "label": "003",
    "text": "{{anim id=\"32\"}}Benvenut{{fun_0006000E arg=\"0x02006F0002006100\"}} nel regno del disordine!{{fun_00010007 arg=\"\"}}\n{{anim id=\"16\"}}Sbaglio o tu sei {{delay frames=\"15\"}}{{fun_00080005 arg=\"\"}}?{{delay frames=\"20\"}}{{anim id=\"5\"}}\nMa certo!{{delay frames=\"15\"}} Che storia rivederti!\n{{anim id=\"37\"}}Sai, mi sono appena trasferita qui!{{delay frames=\"15\"}}\nÈ troppo allucinante 'sta cosa!\nVedrai, diventeremo grandi amic{{fun_0006000E arg=\"0x02006900040068006500\"}}!"
  },
  {
    "label": "004",
    "text": "{{anim id=\"29\"}}Ma io ti conosco!{{delay frames=\"15\"}}\nTu non sei {{delay frames=\"10\"}}{{fun_00080005 arg=\"\"}}? {{delay frames=\"15\"}}Chi sono io?\nLa supertrendy {{delay frames=\"10\"}}{{fun_00010005 arg=\"\"}}!\n{{anim id=\"37\"}}Mi sono appena trasferita in città.{{delay frames=\"20\"}}\nNon mi dire che anche tu abiti\nda queste parti?!{{delay frames=\"20\"}} Che storia!\n{{delay frames=\"10\"}}{{anim id=\"3\"}}Allucinante 'sta cosa! Vedrai,\nci divertiremo un sacco insieme!"
  },
  {
    "label": "005",
    "text": "{{anim id=\"16\"}}Non ci credo! {{delay frames=\"10\"}}{{fun_0003000E arg=\"\"}}{{fun_00080005 arg=\"\"}}, sei tu?{{delay frames=\"40\"}}\n{{anim id=\"37\"}}Ti ricordi di me? {{delay frames=\"15\"}}{{anim id=\"5\"}}Sono {{fun_00010005 arg=\"\"}}.\n{{delay frames=\"15\"}}Ci siamo conosciut{{fun_0006000E arg=\"0x0200690002006500\"}} tempo fa!{{delay frames=\"40\"}}\n{{anim id=\"29\"}}Tieniti forte, non crederai alle\ntue orecchie: {{delay frames=\"5\"}}adesso abito qui!{{delay frames=\"15\"}}\n{{delay frames=\"5\"}}Te lo giuro! {{delay frames=\"10\"}}Che storia, eh?\nAdesso che siamo vicin{{fun_0006000E arg=\"0x0200690002006500\"}}, {{delay frames=\"15\"}}{{anim id=\"35\"}}potrò\nonorarti della mia presenza\nogni volta che vuoi!"
  },
  {
    "label": "006",
    "text": "{{anim id=\"29\"}}Era ora che ci incontrassimo!\n{{delay frames=\"15\"}}Cioè, dico, ti ricordi di me?{{delay frames=\"15\"}}\n{{anim id=\"38\"}}Sono {{delay frames=\"5\"}}{{fun_00010005 arg=\"\"}}, e chi sennò?\n{{anim id=\"1\"}}Mi sono appena trasferita qui!{{delay frames=\"15\"}}\nOra che siamo vicin{{fun_0006000E arg=\"0x0200690002006500\"}}, {{anim id=\"2\"}}potrò venire\na prendere il caffè da te!\nSe poi, {{delay frames=\"10\"}}{{anim id=\"39\"}}magari, mi offri anche un po'\ndi {{fun_00100005 arg=\"0x0000\"}}, non ti dico\ncerto di no! È troppo buon{{fun_0008000E arg=\"0x00CD02006F00020061000000\"}}!"
  },
  {
    "label": "007",
    "text": "{{anim id=\"29\"}}Che storia! {{delay frames=\"10\"}}Eccoti qui, {{delay frames=\"20\"}}{{fun_00080005 arg=\"\"}}!{{fun_00010007 arg=\"\"}}\n{{anim id=\"9\"}}Come{{delay frames=\"8\"}}.{{delay frames=\"8\"}}.{{delay frames=\"8\"}}.{{delay frames=\"8\"}}? Non ti ricordi di me?{{delay frames=\"15\"}}\nSono io, {{fun_00010005 arg=\"\"}}!\n{{anim id=\"1\"}}Mi sono trasferita qui una settimana\nfa {{anim id=\"21\"}}e ti stavo cercando dappertutto!\n{{anim id=\"16\"}}Lo sai? Siamo vicin{{fun_0006000E arg=\"0x0200690002006500\"}}! {{delay frames=\"20\"}}Che storia!\n{{anim id=\"42\"}}Non vedo l'ora di farmi una serata\nin discoteca in tua compagnia!\nSarà supermegagalattico!"
  },
  {
    "label": "008",
    "text": "{{anim id=\"5\"}}Ehi, {{delay frames=\"10\"}}{{fun_00080005 arg=\"\"}}!{{delay frames=\"20\"}} Eccoti finalmente!\nEro troppo{{delay frames=\"10\"}} convinta che abitassi\nin questa città.{{delay frames=\"10\"}} {{anim id=\"29\"}}Che storia!\n{{anim id=\"27\"}}Ormai sto qui già da un bel pezzo,\n{{delay frames=\"10\"}}ma non ti avevo ancora visto!{{delay frames=\"15\"}}\n{{anim id=\"9\"}}Sai, cominciavo a preoccuparmi...\n{{anim id=\"44\"}}Ora che vivo {{fun_0010000E arg=\"\"}} {{fun_00050005 arg=\"\"}},\npotremo fare un sacco di cose\nspaziali insieme! Troppo forte!"
  },
  {
    "label": "009",
    "text": "{{anim id=\"32\"}}Quanto tempo!{{delay frames=\"20\"}}\n{{anim id=\"27\"}}Non ti sarai mica dimenticat{{fun_0006000E arg=\"0x02006F0002006100\"}}\ndella supertrendy {{delay frames=\"10\"}}{{fun_00010005 arg=\"\"}}?\n{{anim id=\"38\"}}Lo sai che adesso abito qui?{{delay frames=\"15\"}}\nEh sì, e pure da un bel pezzo ormai!\n{{anim id=\"29\"}}Questa città è troppo da urlo!"
  },
  {
    "label": "010",
    "text": "E{{delay frames=\"5\"}}E{{delay frames=\"5\"}}E{{delay frames=\"5\"}}C-{{delay frames=\"10\"}}{{anim id=\"20\"}}{{fun_000B0007 arg=\"\"}}CIÙÙÙÙÙÙÙÙÙÙ!{{delay frames=\"50\"}}{{anim id=\"0\"}}\nUff! {{anim id=\"32\"}}Oh, ciao, {{fun_00080005 arg=\"\"}}!\n{{anim id=\"37\"}}Ti ricordi di me?{{delay frames=\"10\"}} Sono {{fun_00010005 arg=\"\"}}!\n{{anim id=\"38\"}}Ci siamo conosciut{{fun_0006000E arg=\"0x0200690002006500\"}} dove abitavo\nprima! Beh, {{delay frames=\"10\"}}ora vivo {{fun_0010000E arg=\"\"}} {{fun_00050005 arg=\"\"}}!{{delay frames=\"15\"}}\n{{anim id=\"21\"}}Che città da urlo! È supertrendy!\n{{anim id=\"39\"}}Peccato che ci sia 'sto brutto virus\nin giro: mi sono presa il raffreddore!{{delay frames=\"15\"}}{{anim id=\"1\"}}\nMagari ripassa quando starò meglio!"
  },
  {
    "label": "011",
    "text": "{{anim id=\"32\"}}Ehi!{{delay frames=\"10\"}} Ciaaao, {{fun_00080005 arg=\"\"}}!{{delay frames=\"20\"}}\n{{anim id=\"37\"}}Sei venut{{fun_0006000E arg=\"0x02006F0002006100\"}} a vedere dove vivo?\n{{delay frames=\"30\"}}{{anim id=\"29\"}}Questa città è fantastica!\n{{anim id=\"3\"}}Che storia, eh? Vieni a trovarmi\nogni volta che ti va! {{delay frames=\"15\"}}Qui da me\nsarai sempre {{fun_0006000E arg=\"0x180069006C002000620065006E00760065006E00750074006F0018006C0061002000620065006E00760065006E00750074006100\"}}!"
  },
  {
    "label": "012",
    "text": "{{anim id=\"32\"}}Ehi, {{delay frames=\"20\"}}{{fun_00080005 arg=\"\"}}!{{delay frames=\"20\"}} Sei venut{{fun_0006000E arg=\"0x02006F0002006100\"}} a darmi\nuna mano con il trasloco? \nSei davvero {{delay frames=\"5\"}}{{anim id=\"3\"}}troooppo carin{{fun_0006000E arg=\"0x02006F0002006100\"}}!\n{{anim id=\"9\"}}Ti va un po' di {{fun_00100005 arg=\"0x0000\"}}?{{delay frames=\"10\"}}\n{{anim id=\"12\"}}Ah no, è vero, non ne ho più!{{pageBreak}}{{anim id=\"37\"}}Aspetta che mi sia sistemata{{delay frames=\"15\"}}{{anim id=\"38\"}}\ne usciremo a mangiare qualcosina\ninsieme! {{anim id=\"3\"}}Sarà troppo spaziale!"
  },
  {
    "label": "013",
    "text": "{{anim id=\"32\"}}Oh, {{delay frames=\"10\"}}ciao, {{delay frames=\"15\"}}{{fun_00080005 arg=\"\"}}!{{delay frames=\"10\"}}\n{{anim id=\"37\"}}Grazie della visita, {{delay frames=\"20\"}}{{anim id=\"12\"}}scusami\nper questo disordine allucinante!\n{{anim id=\"37\"}}Puoi venirmi a trovare quando ti va,{{delay frames=\"15\"}}\nprima però fammi finire di svuotare\ngli scatoloni, OK?"
  },
  {
    "label": "014",
    "text": "{{anim id=\"16\"}}Ciaaao, {{delay frames=\"20\"}}{{fun_00080005 arg=\"\"}}!{{delay frames=\"20\"}}\n{{anim id=\"3\"}}Che spettacolo rivederti! {{delay frames=\"10\"}}Sei venut{{fun_0006000E arg=\"0x02006F0002006100\"}}\na trovarmi?! Stratosferico!\n{{anim id=\"37\"}}Ora che mi sono sistemata,\nmi rimboccherò le maniche{{anim id=\"29\"}}\nper rendere la città supertrendy!\n{{anim id=\"38\"}}Scommetto che anche tu mi darai\nuna mano! Vedrai, {{fun_00050005 arg=\"\"}}\ndiventerà megagalattica!"
  },
  {
    "label": "015",
    "text": "{{anim id=\"16\"}}Ciaaao, {{delay frames=\"20\"}}{{fun_00080005 arg=\"\"}}!{{delay frames=\"20\"}}\nCioè, dico, sono{{anim id=\"38\"}} troppo contenta\ndi essermi trasferita {{fun_0010000E arg=\"\"}} {{fun_00050005 arg=\"\"}}.\n{{delay frames=\"15\"}}Questo posto aveva bisogno di me!\n{{anim id=\"44\"}}Diventerò la ballerina più quotata\ndell'intera città, me lo sento!\n{{delay frames=\"10\"}}Non vedo l'ora di andare a fare\nquattro salti con te in discoteca!{{anim id=\"5\"}}\nSaremo {{fun_0006000E arg=\"0x220069006C002000720065002000650020006C006100200072006500670069006E00610012006C006500200072006500670069006E006500\"}} della pista!"
  },
  {
    "label": "016",
    "text": "{{anim id=\"23\"}}Eh? {{delay frames=\"20\"}}Sei davvero tu, {{fun_00080005 arg=\"\"}}?{{fun_00010007 arg=\"\"}}\n{{anim id=\"38\"}}Hai sentito in giro che mi sono\ntrasferita qui {{fun_0010000E arg=\"\"}} {{fun_00050005 arg=\"\"}}?\n{{anim id=\"21\"}}Beh, è tutto vero! {{delay frames=\"30\"}}Lo so, lo so:\ndeve essere allucinante avere\nuna star come vicina di casa!\n{{anim id=\"29\"}}Grazie per la visita! Vedrai,{{delay frames=\"10\"}}\nci divertiremo una cifra noi due!"
  },
  {
    "label": "017",
    "text": "{{anim id=\"16\"}}Ciaaao, {{delay frames=\"20\"}}{{fun_00080005 arg=\"\"}}!{{delay frames=\"20\"}}\nTi sono mancata un sacco?{{delay frames=\"15\"}}\n{{anim id=\"37\"}}Tranquill{{fun_0006000E arg=\"0x02006F0002006100\"}},{{delay frames=\"15\"}} adesso vivo qui!\nSarò arrivata almeno una settimana\nfa! {{anim id=\"1\"}}Che storia, eh? {{delay frames=\"15\"}}{{fun_00070005 arg=\"\"}}!{{delay frames=\"15\"}}{{anim id=\"3\"}}\nDevi troppo venire a trovarmi!\nFaremo delle chiacchierate spaziali,\nanzi no, stratosferiche, anzi no,\nmegagalattiche!"
  },
  {
    "label": "018",
    "text": "{{anim id=\"29\"}}Uau, {{delay frames=\"15\"}}{{fun_00080005 arg=\"\"}}, sei proprio tu!\nCioè... saranno passati, {{delay frames=\"5\"}}tipo, {{delay frames=\"5\"}}secoli!{{delay frames=\"30\"}}\n{{anim id=\"38\"}}Indovina un po'? {{delay frames=\"15\"}}Adesso abito qui!\n{{anim id=\"5\"}}Che storia rivederti!\n{{delay frames=\"15\"}}Mi sembra di aver fatto un tuffo\nnel passato! Allucinante 'sta cosa!"
  },
  {
    "label": "019",
    "text": "{{anim id=\"32\"}}Da quanto tempo, {{delay frames=\"20\"}}{{fun_00080005 arg=\"\"}}!{{fun_00010007 arg=\"\"}}\n{{anim id=\"35\"}}Non sei, tipo, stracontent{{fun_0006000E arg=\"0x02006F0002006100\"}}\ndi rivedermi?{{delay frames=\"15\"}} Che storia!\nSai, mi sono trasferita qui un po'\ndi tempo fa! {{anim id=\"3\"}}Rivederti mi riporta\nindietro nel tempo!{{delay frames=\"15\"}}\nChe storia allucinante!{{delay frames=\"10\"}}\nVienimi a trovare ogni volta\nche ti va! Ci conto!"
  },
  {
    "label": "020",
    "text": "{{anim id=\"16\"}}Uau! {{delay frames=\"15\"}}{{fun_0006000E arg=\"0x120049006C002000660061006D006F0073006F0012004C0061002000660061006D006F0073006100\"}} {{delay frames=\"20\"}}{{fun_00080005 arg=\"\"}}!{{delay frames=\"20\"}}\nChe storia trovarti qui!\n{{anim id=\"4\"}}Il mondo è piccolo, eh?\n{{anim id=\"2\"}}Ma no, {{delay frames=\"10\"}}non ho intenzione di aprire\nun negozio di scatoloni!{{delay frames=\"20\"}} Sono solo\nnel bel mezzo di un trasloco!\n{{anim id=\"21\"}}Adesso abito qui. {{delay frames=\"15\"}}Torna a trovarmi\ndopo che mi sarò sistemata, {{anim id=\"5\"}}così\nci faremo due chiacchiere, {{delay frames=\"15\"}}OK?"
  },
  {
    "label": "021",
    "text": "{{anim id=\"32\"}}Ehi, {{fun_00080005 arg=\"\"}}!{{delay frames=\"20\"}}\n{{anim id=\"35\"}}Sorpres{{fun_0006000E arg=\"0x02006F0002006100\"}} di vedermi qui?{{delay frames=\"15\"}}\nMi sono appena trasferita in città!\n{{anim id=\"27\"}}Casa mia è un disastro allucinante\nadesso! Ti va di ripassare con più\ncalma un altro giorno? Grazie!"
  },
  {
    "label": "022",
    "text": "{{anim id=\"32\"}}Come va, {{delay frames=\"20\"}}{{fun_00080005 arg=\"\"}}?{{delay frames=\"20\"}}\nSono secoli che non ci vedevamo!\n{{anim id=\"23\"}}Sapevi che adesso abito qui?\n{{anim id=\"38\"}}Che storia, eh? {{delay frames=\"20\"}}Di' pure a tutti\nche{{delay frames=\"10\"}}{{anim id=\"44\"}} {{fun_00010005 arg=\"\"}}, la grande star,\nè arrivata {{fun_0010000E arg=\"\"}} {{fun_00050005 arg=\"\"}}!"
  },
  {
    "label": "023",
    "text": "{{anim id=\"32\"}}{{fun_0003000E arg=\"\"}}{{fun_00080005 arg=\"\"}}!{{delay frames=\"15\"}}\nSorpres{{fun_0006000E arg=\"0x02006F0002006100\"}} di vedermi qui?{{delay frames=\"15\"}}{{anim id=\"38\"}}\nMi sono trasferita in città tempo fa!\n{{anim id=\"44\"}}Vedrai, diventerò la stella più\nsfavillante di {{fun_00050005 arg=\"\"}}!{{pageBreak}}{{anim id=\"38\"}}Fossi in te, mi comprerei già\nun bel paio di occhiali da sole\nper non restare accecat{{fun_0006000E arg=\"0x02006F0002006100\"}}!"
  }
]