﻿[
  {
    "label": "001",
    "text": "Allora è vero, {{fun_00010011 arg=\"0x0000\"}} ha\n{{fun_0002000E arg=\"\"}}{{fun_00030011 arg=\"0x0000\"}},\n{{delay frames=\"8\"}}{{fun_00070005 arg=\"\"}}!\n{{anim id=\"11\"}}Spero che non ci faccia\nuno spuntino!{{pageBreak}}{{anim id=\"18\"}}{{fun_000B0007 arg=\"\"}}Ah {{delay frames=\"20\"}}{{fun_000B0007 arg=\"\"}}ah ah ah!{{delay frames=\"40\"}}{{anim id=\"40\"}} Non voglio nemmeno\npensarci!"
  },
  {
    "label": "002",
    "text": "{{fun_00040009 arg=\"0x380039003A003B003C003D00\"}}"
  },
  {
    "label": "003",
    "text": "{{fun_00040009 arg=\"0x380039003A003B003C003D00\"}}"
  },
  {
    "label": "004",
    "text": "{{anim id=\"43\"}}Oh, ma è \"{{fun_00030011 arg=\"0x0100\"}}\"!\nAdoro questo pezzo!\nHa buon gusto per la musica!{{pageBreak}}Che altro ci si poteva aspettare\nda lui, {{delay frames=\"8\"}}{{fun_00070005 arg=\"\"}}?"
  },
  {
    "label": "005",
    "text": "{{anim id=\"21\"}}Hai presente quei tipi che stanno\nsempre da qualcuno a vedere\nla TV? {{pageBreak}}{{anim id=\"2\"}}Beh{{delay frames=\"8\"}}.{{delay frames=\"8\"}}.{{delay frames=\"8\"}}.{{delay frames=\"20\"}} Io sono uno di quelli!{{delay frames=\"40\"}}{{anim id=\"37\"}}"
  },
  {
    "label": "006",
    "text": "Qui c'è\n{{fun_0002000E arg=\"\"}}{{fun_00030011 arg=\"0x0000\"}}, ma\n{{anim id=\"23\"}}{{fun_00010011 arg=\"0x0000\"}} l{{fun_0008000E arg=\"0x00CD02006F00020061000000\"}} saprà suonare?\n{{anim id=\"11\"}}Forse ha un talento nascosto,\nchi può dirlo.{{pageBreak}}{{anim id=\"15\"}}O magari è un professionista e noi\nnon ne eravamo a conoscenza!"
  },
  {
    "label": "007",
    "text": "{{fun_00040009 arg=\"0x380039003A003B003C003D00\"}}"
  },
  {
    "label": "008",
    "text": "{{anim id=\"19\"}}{{delay frames=\"20\"}}Secondo me sbava mentre dorme{{delay frames=\"8\"}}.{{delay frames=\"8\"}}.{{delay frames=\"8\"}}."
  },
  {
    "label": "009",
    "text": "Uau, non ha badato a spese\nper il suo letto, eh?{{pageBreak}}{{anim id=\"21\"}}Sembra che si tratti proprio bene\nquando c'è di mezzo il riposo,\n{{delay frames=\"8\"}}{{fun_00070005 arg=\"\"}}!"
  },
  {
    "label": "010",
    "text": "Quest{{fun_0008000E arg=\"0x00CD02006F00020061000000\"}} {{fun_00030011 arg=\"0x0000\"}}\nsembra davvero comod{{fun_0008000E arg=\"0x00CD02006F00020061000000\"}}{{delay frames=\"8\"}}.{{delay frames=\"8\"}}.{{delay frames=\"8\"}}.{{pageBreak}}{{anim id=\"2\"}}Perfetto per i pisolini dopo pranzo!\nAhahah!{{delay frames=\"40\"}}{{anim id=\"37\"}}"
  },
  {
    "label": "011",
    "text": "{{fun_00040009 arg=\"0x380039003A003B003C003D00\"}}"
  },
  {
    "label": "012",
    "text": "{{fun_00040009 arg=\"0x380039003A003B003C003D00\"}}"
  },
  {
    "label": "013",
    "text": "Ehi! {{fun_00010011 arg=\"0x0000\"}} ha\n{{fun_0002000E arg=\"\"}}{{fun_00030011 arg=\"0x0000\"}}.{{pageBreak}}{{anim id=\"21\"}}Ed è anche molto amichevole!{{pageBreak}}{{anim id=\"1\"}}Magari {{fun_00010011 arg=\"0x0000\"}} ha un talento\nparticolare per allevare insetti,\n{{delay frames=\"8\"}}{{fun_00070005 arg=\"\"}}!"
  },
  {
    "label": "014",
    "text": "{{anim id=\"11\"}}Una parte di me vorrebbe guardare\n{{fun_0008000E arg=\"0x00CD0E006E0065006C002000730075006F0012006E0065006C006C00610020007300750061000000\"}} {{fun_00030011 arg=\"0x0000\"}},\nma l'altra parte non è convinta.\n{{anim id=\"36\"}}Ho un po' paura di cosa potrei\ntrovare lì dentro, {{delay frames=\"8\"}}{{fun_00070005 arg=\"\"}}."
  },
  {
    "label": "015",
    "text": "{{fun_00040009 arg=\"0x380039003A003B003C003D00\"}}"
  },
  {
    "label": "016",
    "text": "{{fun_00010011 arg=\"0x0000\"}} una volta mi ha detto\nche per lui i giroidi vengono\ndallo spazio!\n{{anim id=\"11\"}}Ammetto che sia un mistero come\nsiano finiti in questa casa,\nma se vengono dallo spazio{{delay frames=\"8\"}}.{{delay frames=\"8\"}}.{{delay frames=\"8\"}}.{{pageBreak}}{{anim id=\"9\"}}... questo non vorrebbe dire che\n{{fun_00010011 arg=\"0x0000\"}} è una creatura aliena?"
  },
  {
    "label": "017",
    "text": "{{anim id=\"1\"}}Quest{{fun_0008000E arg=\"0x00CD02006F00020061000000\"}} {{fun_00030011 arg=\"0x0000\"}}\ndeve essere il capo che indossa\npiù spesso.\nLa prossima volta che gliel{{fun_0008000E arg=\"0x00CD02006F00020061000000\"}} vedo\naddosso, gli chiedo come mai {{fun_0008000E arg=\"0x00CD060067006C00690004006C0065000000\"}}\npiace tanto, {{delay frames=\"8\"}}{{fun_00070005 arg=\"\"}}."
  },
  {
    "label": "018",
    "text": "{{anim id=\"1\"}}Ha {{fun_0002000E arg=\"\"}}{{fun_00030011 arg=\"0x0000\"}}!\nGrande! Possiamo venire qui\na giocare!\n{{anim id=\"35\"}}Più tardi lo sfido.{{fun_00010007 arg=\"\"}}\n{{anim id=\"2\"}}Vincerò a occhi chiusi!{{delay frames=\"40\"}}{{anim id=\"37\"}}"
  },
  {
    "label": "019",
    "text": "{{fun_00040009 arg=\"0x380039003A003B003C003D00\"}}"
  },
  {
    "label": "020",
    "text": "{{fun_00040009 arg=\"0x380039003A003B003C003D00\"}}"
  },
  {
    "label": "021",
    "text": "{{fun_00040009 arg=\"0x380039003A003B003C003D00\"}}"
  },
  {
    "label": "022",
    "text": "{{anim id=\"13\"}}Voglio pure io\n{{fun_0002000E arg=\"\"}}{{fun_00030011 arg=\"0x0000\"}} così!{{pageBreak}}{{anim id=\"21\"}}{{fun_00010011 arg=\"0x0000\"}} ha avuto fortuna\na trovarl{{fun_0008000E arg=\"0x00CD02006F00020061000000\"}}! {{delay frames=\"40\"}}{{anim id=\"1\"}}Forse sa dove scavare!"
  },
  {
    "label": "023",
    "text": "{{anim id=\"27\"}}Non ci credo! Ha\n{{fun_0002000E arg=\"\"}}{{fun_00030011 arg=\"0x0000\"}}?!{{pageBreak}}{{anim id=\"6\"}}Allora perché mi chiede sempre\ndi fargli del tè?"
  },
  {
    "label": "024",
    "text": "{{anim id=\"11\"}}Secondo me ci deve essere un modo\nper scaldare la tavoletta\ndi {{fun_0002000E arg=\"\"}}{{fun_00030011 arg=\"0x0000\"}}...\n{{anim id=\"40\"}}Non ci vorrà mica un genio per\ninventare una cosa del genere.{{pageBreak}}{{anim id=\"4\"}}A me poi non serve veramente...\nAnzi, ammetto che quel brivido\nimprovviso mi piace, {{delay frames=\"8\"}}{{fun_00070005 arg=\"\"}}!"
  },
  {
    "label": "025",
    "text": "Davvero non credevo che avesse\n{{fun_0002000E arg=\"\"}}{{fun_00030011 arg=\"0x0000\"}}.{{pageBreak}}{{anim id=\"23\"}}Cosa se ne fa?{{delay frames=\"40\"}}{{anim id=\"35\"}} Secondo me l{{fun_0008000E arg=\"0x00CD02006F00020061000000\"}} usa\nper metterci le foto di\ntutti gli spuntini che fa."
  },
  {
    "label": "026",
    "text": "{{anim id=\"1\"}}Quest{{fun_0008000E arg=\"0x00CD02006F00020061000000\"}} {{fun_00030011 arg=\"0x0000\"}}\nè qualcosa che non mi sarei mai\naspettato di trovare qui.\n{{anim id=\"11\"}}Ho però sentito che molti fiori\nsono in realtà commestibili{{delay frames=\"8\"}}.{{delay frames=\"8\"}}.{{delay frames=\"8\"}}.{{pageBreak}}{{anim id=\"13\"}}Credi che finirà per mangiarsel{{fun_0008000E arg=\"0x00CD02006F00020061000000\"}},\n{{delay frames=\"8\"}}{{fun_00070005 arg=\"\"}}?"
  },
  {
    "label": "027",
    "text": "{{fun_00040009 arg=\"0x380039003A003B003C003D00\"}}"
  },
  {
    "label": "028",
    "text": "{{fun_00040009 arg=\"0x380039003A003B003C003D00\"}}"
  },
  {
    "label": "029",
    "text": "{{anim id=\"11\"}}Il fatto che abbia\n{{fun_0002000E arg=\"\"}}{{fun_00030011 arg=\"0x0000\"}}\nche cosa vuol dire?{{delay frames=\"20\"}}\n{{anim id=\"11\"}}L{{fun_0008000E arg=\"0x00CD02006F00020061000000\"}} userà per pesare le valigie?\nNon mi è mai sembrato un gran\nviaggiatore, però!{{delay frames=\"40\"}}{{anim id=\"37\"}}"
  },
  {
    "label": "030",
    "text": "{{anim id=\"1\"}}{{fun_0003000E arg=\"\"}}{{fun_0002000E arg=\"\"}}{{fun_00030011 arg=\"0x0000\"}}? {{delay frames=\"20\"}}\nSono invidiosissimo!{{pageBreak}}{{anim id=\"21\"}}Certo, c'era da aspettarselo.{{delay frames=\"20\"}}{{anim id=\"36\"}}\nLa passione per i videogame\ndi {{fun_00010011 arg=\"0x0000\"}} non ha eguali."
  },
  {
    "label": "031",
    "text": "{{fun_0003000E arg=\"\"}}{{fun_0002000E arg=\"\"}}{{fun_00030011 arg=\"0x0000\"}}?{{delay frames=\"20\"}}\n{{anim id=\"15\"}}È pure più soffice di un biscotto\nappena sfornato!\n{{anim id=\"0\"}}{{delay frames=\"40\"}}{{anim id=\"36\"}}Ah ah! Ammiro la sua capacità\ndi rimanere un bambino semplice,\n{{delay frames=\"8\"}}{{fun_00070005 arg=\"\"}}."
  },
  {
    "label": "032",
    "text": "{{fun_0003000E arg=\"\"}}{{fun_0002000E arg=\"\"}}{{fun_00030011 arg=\"0x0000\"}}?{{delay frames=\"20\"}}\n{{anim id=\"23\"}}Dormirà con quest{{fun_0008000E arg=\"0x00CD02006F00020061000000\"}} per\nproteggersi dai mostri? {{pageBreak}}{{anim id=\"0\"}}{{anim id=\"36\"}}Perché, insomma, se ha bisogno\ndi una guardia del corpo{{delay frames=\"8\"}}.{{delay frames=\"8\"}}.{{delay frames=\"8\"}}.{{delay frames=\"20\"}}\n{{delay frames=\"8\"}}{{fun_0003000E arg=\"\"}}{{fun_00070005 arg=\"\"}}!"
  },
  {
    "label": "033",
    "text": "{{fun_00040009 arg=\"0x380039003A003B003C003D00\"}}"
  },
  {
    "label": "034",
    "text": "{{fun_00040009 arg=\"0x380039003A003B003C003D00\"}}"
  },
  {
    "label": "035",
    "text": "{{anim id=\"1\"}}Ha {{fun_0002000E arg=\"\"}}{{fun_00030011 arg=\"0x0000\"}}!{{pageBreak}}{{anim id=\"2\"}}Ah ah! Che mocciosetto,\n{{delay frames=\"8\"}}{{fun_00070005 arg=\"\"}}!{{delay frames=\"40\"}}{{anim id=\"37\"}}"
  },
  {
    "label": "036",
    "text": "{{fun_00040009 arg=\"0x380039003A003B003C003D00\"}}"
  },
  {
    "label": "037",
    "text": "{{anim id=\"11\"}}Ero elettrizzato al solo pensiero\ndi venire qui e poi ho visto{{delay frames=\"8\"}}.{{delay frames=\"8\"}}.{{delay frames=\"8\"}}.{{delay frames=\"40\"}}\n{{anim id=\"18\"}}{{fun_000B0007 arg=\"\"}}quest{{fun_0008000E arg=\"0x00CD02006F00020061000000\"}} {{fun_00030011 arg=\"0x0000\"}}!{{pageBreak}}{{anim id=\"13\"}}Ho appena sentito il gong iniziale!{{pageBreak}}{{anim id=\"16\"}}{{fun_000B0007 arg=\"\"}}{{size value=\"150\"}}{{color id=\"5\"}}{{size value=\"150\"}}{{color id=\"5\"}}Ding diiiiiiing!{{color id=\"5\"}}{{size value=\"150\"}}{{color id=\"65535\"}}{{size value=\"100\"}}"
  },
  {
    "label": "038",
    "text": "{{anim id=\"1\"}}Il tappetino da boxe\ndi {{fun_00010011 arg=\"0x0000\"}} è fenomenale!{{pageBreak}}{{anim id=\"38\"}}Chissà se prima o poi organizzeremo\nil torneo della città di {{fun_00050005 arg=\"\"}}\nin questa casa, {{delay frames=\"8\"}}{{fun_00070005 arg=\"\"}}!"
  },
  {
    "label": "039",
    "text": "{{anim id=\"11\"}}{{fun_0003000E arg=\"\"}}{{fun_0002000E arg=\"\"}}{{fun_00030011 arg=\"0x0000\"}}?\nUn po' piccolin{{fun_0008000E arg=\"0x00CD02006F00020061000000\"}}, ma forse va bene\nper fare qualche bracciata.\n{{anim id=\"8\"}}Dai! Vai con quelle gambe! Tieni\nsu quel bacino!{{delay frames=\"40\"}}{{anim id=\"0\"}}{{pageBreak}}{{anim id=\"33\"}}Eh eh, sono un allenatore\nsuperbravissimo, vero?"
  },
  {
    "label": "040",
    "text": "{{fun_00010011 arg=\"0x0000\"}} usa\n{{fun_0002000E arg=\"\"}}{{fun_00030011 arg=\"0x0000\"}}?{{pageBreak}}{{anim id=\"35\"}}La prossima volta vengo qui\ndopo essermi allenato!"
  },
  {
    "label": "041",
    "text": "{{fun_00040009 arg=\"0x380039003A003B003C003D00\"}}"
  },
  {
    "label": "042",
    "text": "{{fun_00040009 arg=\"0x380039003A003B003C003D00\"}}"
  },
  {
    "label": "043",
    "text": "{{fun_00040009 arg=\"0x380039003A003B003C003D00\"}}"
  },
  {
    "label": "044",
    "text": "{{fun_00040009 arg=\"0x380039003A003B003C003D00\"}}"
  },
  {
    "label": "045",
    "text": ""
  },
  {
    "label": "046",
    "text": ""
  },
  {
    "label": "047",
    "text": ""
  },
  {
    "label": "048",
    "text": ""
  },
  {
    "label": "049",
    "text": ""
  },
  {
    "label": "050",
    "text": ""
  },
  {
    "label": "051",
    "text": ""
  },
  {
    "label": "052",
    "text": ""
  },
  {
    "label": "053",
    "text": ""
  },
  {
    "label": "054",
    "text": ""
  },
  {
    "label": "055",
    "text": ""
  },
  {
    "label": "056",
    "text": "{{anim id=\"21\"}}Casa di {{fun_00010011 arg=\"0x0000\"}} non è niente\nmale.{{delay frames=\"40\"}} Ma la mia è ancora meglio,\n{{delay frames=\"8\"}}{{fun_00070005 arg=\"\"}}!"
  },
  {
    "label": "057",
    "text": "Di certo, capisci bene i suoi gusti!"
  },
  {
    "label": "058",
    "text": "{{anim id=\"1\"}}Dovresti venire da me e paragonare\ncasa mia e quella di {{fun_00010011 arg=\"0x0000\"}},\n{{delay frames=\"8\"}}{{fun_00070005 arg=\"\"}}!"
  },
  {
    "label": "059",
    "text": "Visto che siamo qui, {{anim id=\"32\"}}possiamo\nsfidarci in qualche sport\nche si gioca in tre!\n{{anim id=\"11\"}}Uhm{{delay frames=\"8\"}}.{{delay frames=\"8\"}}.{{delay frames=\"8\"}}.{{delay frames=\"20\"}}\nUh{{delay frames=\"8\"}}.{{delay frames=\"8\"}}.{{delay frames=\"8\"}}.{{pageBreak}}{{anim id=\"13\"}}Uhm, non mi viene in mente nulla!"
  },
  {
    "label": "060",
    "text": "{{anim id=\"23\"}}Vieni spesso a casa di {{fun_00010011 arg=\"0x0000\"}},\n{{delay frames=\"8\"}}{{fun_00070005 arg=\"\"}}?{{pageBreak}}{{anim id=\"0\"}}Io no,{{delay frames=\"40\"}}{{anim id=\"1\"}} però mi piace. Sembra\nconfortevole!"
  },
  {
    "label": "061",
    "text": "{{anim id=\"5\"}}Ho voglia di fare un torneo\ndi {{fun_00110005 arg=\"0x0000\"}}!{{pageBreak}}{{anim id=\"40\"}}Ma non posso organizzarlo qui,\n{{anim id=\"2\"}}o {{fun_00010011 arg=\"0x0000\"}} andrà su tutte le furie!{{delay frames=\"40\"}}{{anim id=\"37\"}}"
  }
]