﻿[
  {
    "label": "001",
    "text": "{{i10_16 arg=\"27\"}}"
  },
  {
    "label": "002",
    "text": "{{anim id=\"1\"}}La città di {{fun_00050005 arg=\"\"}} è fortunata\nad avere me come guardiano!{{pageBreak}}Contro i miei muscolazzi,\ni piantagrane non hanno futuro!"
  },
  {
    "label": "003",
    "text": "{{anim id=\"23\"}}Eh? Anche tu vuoi che partecipi\na qualche evento sportivo?{{anim id=\"35\"}} Eh eh,\ni miei muscoli sono molto richiesti.\nProprio l'altro giorno un tizio mi ha\nchiesto di iscrivermi a un torneo \ndi {{fun_00110005 arg=\"0x0000\"}}...\nPurtroppo, {{anim id=\"40\"}}gli ho dovuto dire di no.\nHo un'agenda fitta di allenamenti...\nIl corpo umano ha milioni di muscoli!\n{{fun_0003000E arg=\"\"}}{{fun_00080005 arg=\"\"}}, ti dirò che mi\nè dispiaciuto spezzargli il cuore\nin quel modo{{delay frames=\"8\"}}.{{delay frames=\"8\"}}.{{delay frames=\"8\"}}.{{delay frames=\"20\"}}{{delay frames=\"40\"}}{{anim id=\"37\"}}"
  },
  {
    "label": "004",
    "text": "{{anim id=\"34\"}}Correre, correre e ancora correre!\nFino allo sfinimento.{{pageBreak}}{{anim id=\"43\"}}A volte quando penso di non poter\npiù fare un altro passo,{{delay frames=\"40\"}} sono invaso\nda una scarica di energia.\n{{anim id=\"0\"}}{{anim id=\"44\"}}Un vero spettacolo.{{fun_00010007 arg=\"\"}}\n{{anim id=\"4\"}}Mi piace proprio quel momento!"
  },
  {
    "label": "005",
    "text": "{{anim id=\"1\"}}Hai visto il torneo di {{fun_00110005 arg=\"0x0000\"}}\nin televisione l'altra sera?{{fun_00050008 arg=\"0x370015003A002800\"}}\nCertamente!\nOh, no! Non l'ho visto."
  },
  {
    "label": "006",
    "text": "{{fun_00000009 arg=\"0x42004A00\"}}"
  },
  {
    "label": "007",
    "text": "{{anim id=\"33\"}}Ogni {{fun_00090005 arg=\"\"}} esercito i miei\nmuscoli interni. Ho già ottenuto\ngrandi risultati!\n{{delay frames=\"8\"}}.{{delay frames=\"8\"}}.{{delay frames=\"8\"}}.{{delay frames=\"20\"}}{{anim id=\"23\"}} Non noti cambiamenti?{{fun_00010007 arg=\"\"}} Ovvio!{{anim id=\"2\"}}\nI muscoli interni sono{{delay frames=\"8\"}}.{{delay frames=\"8\"}}.{{delay frames=\"8\"}}.{{delay frames=\"20\"}} interni.\nNon si vedono mica, {{delay frames=\"8\"}}{{fun_00070005 arg=\"\"}}!{{delay frames=\"40\"}}{{anim id=\"37\"}}"
  },
  {
    "label": "008",
    "text": "Senti qua! Ieri credo di aver\nraggiunto un nuovo livello\ndi conoscenza atletico-metafisica.\n{{anim id=\"43\"}}Facevo i miei esercizi, quando\nho visto tutto bianco. Oltre la luce,\nc'era {{fun_00020005 arg=\"\"}} che fluttuava{{delay frames=\"8\"}}.{{delay frames=\"8\"}}.{{delay frames=\"8\"}}.{{pageBreak}}{{anim id=\"21\"}}Un'esperienza unica! Avevo quasi\nle vertigini, la testa era leggera, ero\nlì ma anche da qualche altra parte...{{pageBreak}}{{anim id=\"11\"}}Mmmh... Forse ero solo stordito\nper aver fatto tutti quegli esercizi\ndi seguito, {{delay frames=\"8\"}}{{fun_00070005 arg=\"\"}}!"
  },
  {
    "label": "009",
    "text": "{{anim id=\"11\"}}Cos'è questa storia che ho sentito\nsulle vere signore, {{fun_00080005 arg=\"\"}}?{{pageBreak}}{{anim id=\"13\"}}È vero che non amano sudare?\nNon sanno cosa si perdono,\n{{delay frames=\"8\"}}{{fun_00070005 arg=\"\"}}!"
  },
  {
    "label": "010",
    "text": "{{anim id=\"27\"}}Diciamolo, {{fun_00080005 arg=\"\"}}, a volte\nl'unica cosa da fare è lasciarsi\nandare e urlare a più non posso.\n{{anim id=\"6\"}}Forza! Urliamo insieme!\nPronti{{delay frames=\"8\"}}.{{delay frames=\"8\"}}.{{delay frames=\"8\"}}.{{delay frames=\"20\"}} Partenza{{delay frames=\"8\"}}.{{delay frames=\"8\"}}.{{delay frames=\"8\"}}.{{delay frames=\"20\"}}"
  },
  {
    "label": "011",
    "text": "{{anim id=\"9\"}}Ho sentito che i ragazzi dal cuore\ntenero hanno molto successo\ncon le ragazze. È vero?!\n{{anim id=\"13\"}}Ma che vuol dire avere il cuore\ntenero? Dovrei mettermi\na parlare con i fiori o le coccinelle?!\n{{anim id=\"6\"}}{{fun_000A0007 arg=\"\"}}Non lo so! Non lo capisco!{{delay frames=\"40\"}}\n{{anim id=\"8\"}}{{fun_000B0007 arg=\"\"}}{{size value=\"150\"}}Non lo capisco!{{size value=\"100\"}}"
  },
  {
    "label": "012",
    "text": "È il momento del quiz!{{delay frames=\"20\"}}\n{{anim id=\"23\"}}Cosa faresti se avessi un milione\ndi stelline?{{fun_00030008 arg=\"0x6100000062000000630000006400000065000000\"}}\nLo metterei in banca!\nFarei spese pazze!\nMangerei cibo di lusso!\nFarei beneficenza!\nPagherei il mutuo!"
  },
  {
    "label": "013",
    "text": "{{anim id=\"9\"}}Uhm{{delay frames=\"8\"}}.{{delay frames=\"8\"}}.{{delay frames=\"8\"}}.{{delay frames=\"20\"}} Gliene ho proprio dette\nquattro a quel tipo lì!{{pageBreak}}{{anim id=\"1\"}}E la terra che mi è rimasta addosso\nmi fa sentire così bene!{{pageBreak}}{{anim id=\"33\"}}Era da tanto che non mi sbucciavo\nle ginocchia come oggi,\n{{delay frames=\"8\"}}{{fun_00070005 arg=\"\"}}!"
  },
  {
    "label": "014",
    "text": "{{anim id=\"21\"}}Quando sono ricoperto di fango\ndalla testa ai piedi, so di aver dato\nil 100% di me!{{pageBreak}}{{anim id=\"40\"}}Non ci si può allenare sperando\ndi non sporcarsi, {{delay frames=\"8\"}}{{fun_00070005 arg=\"\"}}!{{pageBreak}}{{anim id=\"33\"}}Dovresti fare un po' di piegamenti\ncon me sotto la pioggia battente\nper capire di che parlo!"
  },
  {
    "label": "015",
    "text": "{{anim id=\"1\"}}Ho comprato un sacchetto di\npatatine e sopra c'era la faccia di\nquesto campione di {{fun_00110005 arg=\"0x0000\"}}...{{pageBreak}}{{anim id=\"43\"}}Anche io voglio diventare\ncosì famoso da finire su\nun sacchetto di patatine{{delay frames=\"8\"}}.{{delay frames=\"8\"}}.{{delay frames=\"8\"}}."
  },
  {
    "label": "016",
    "text": "{{fun_00010009 arg=\"0x680069006A00\"}}"
  },
  {
    "label": "017",
    "text": ""
  },
  {
    "label": "018",
    "text": ""
  },
  {
    "label": "019",
    "text": ""
  },
  {
    "label": "020",
    "text": ""
  },
  {
    "label": "021",
    "text": ""
  },
  {
    "label": "022",
    "text": ""
  },
  {
    "label": "023",
    "text": ""
  },
  {
    "label": "024",
    "text": ""
  },
  {
    "label": "025",
    "text": ""
  },
  {
    "label": "026",
    "text": ""
  },
  {
    "label": "027",
    "text": "{{fun_00000009 arg=\"0x1C001F00\"}}"
  },
  {
    "label": "028",
    "text": "{{anim id=\"5\"}}In primavera è bellissimo conoscere\npersone nuove, {{anim id=\"0\"}}{{fun_00080005 arg=\"\"}}!{{pageBreak}}{{anim id=\"23\"}}Tu hai già incontrato qualcuno\ndi speciale?{{fun_00000008 arg=\"0x1D0015001E000000\"}}\nA frotte!\nNon ancora."
  },
  {
    "label": "029",
    "text": "{{anim id=\"15\"}}Uau!{{pageBreak}}{{anim id=\"2\"}}Se fosse primavera tutto l'anno,\navrei così tanti amici che\ndimenticherei i loro nomi!{{anim id=\"37\"}}"
  },
  {
    "label": "030",
    "text": "{{anim id=\"2\"}}Non ti demoralizzare! L'importante\nè uscire e creare delle occasioni\nper parlare con la gente.{{delay frames=\"40\"}}{{anim id=\"37\"}}{{pageBreak}}{{anim id=\"9\"}}Mmmh{{delay frames=\"8\"}}.{{delay frames=\"8\"}}.{{delay frames=\"8\"}}.{{delay frames=\"20\"}} Nessuno si è trasferito\nqui di recente?"
  },
  {
    "label": "031",
    "text": "{{anim id=\"1\"}}Ciao, {{fun_00080005 arg=\"\"}}! Ho visto\n{{fun_00020005 arg=\"\"}} un attimo fa.{{pageBreak}}Camminava tranquillamente\nper strada e canticchiava qualcosa.{{pageBreak}}{{anim id=\"3\"}}Ah, la primavera è una stagione\nmagica. Sembrano tutti così felici,\n{{delay frames=\"8\"}}{{fun_00070005 arg=\"\"}}!"
  },
  {
    "label": "032",
    "text": "{{fun_00010009 arg=\"0x210022002300\"}}"
  },
  {
    "label": "033",
    "text": "{{anim id=\"34\"}}Fa caldissimo. Sudo come non mai!{{pageBreak}}{{anim id=\"1\"}}Ma il sudore è il più grande amico\ndegli atleti, quindi non mi lamento.{{pageBreak}}{{anim id=\"38\"}}L'importante è bere tanto per non\ndisidratarsi, {{delay frames=\"8\"}}{{fun_00070005 arg=\"\"}}!"
  },
  {
    "label": "034",
    "text": "{{anim id=\"9\"}}Uff{{delay frames=\"8\"}}.{{delay frames=\"8\"}}.{{delay frames=\"8\"}}.{{delay frames=\"20\"}} Sono stato punto\nda una zanzara!{{pageBreak}}{{anim id=\"6\"}}Mi si è posata addosso e poi {{fun_000B0007 arg=\"\"}}zac!\nMi ha punto.{{fun_00010007 arg=\"\"}} {{anim id=\"41\"}}Che prurito!{{pageBreak}}{{anim id=\"40\"}}Ma in fondo non mi dispiace.{{delay frames=\"40\"}}\n{{anim id=\"26\"}}Le punture di zanzara fanno\nmolto estate, {{delay frames=\"8\"}}{{fun_00070005 arg=\"\"}}!"
  },
  {
    "label": "035",
    "text": "{{i10_13 arg=\"0x21002B002B002C002C002C002D002D00\"}}"
  },
  {
    "label": "036",
    "text": "{{fun_00000009 arg=\"0x25002600\"}}"
  },
  {
    "label": "037",
    "text": "{{anim id=\"1\"}}Farai molto sport quest'autunno?{{pageBreak}}{{anim id=\"23\"}}Sapevi che in questa stagione\nho un debole anche per il cibo\ne i libri?{{pageBreak}}{{anim id=\"6\"}}Ancora non sono riuscito a trovare\nun modo per fare tutto insieme!{{delay frames=\"40\"}}{{pageBreak}}{{anim id=\"5\"}}Vorrei poter mangiare e leggere\nmentre corro la maratona\ndella città!{{pageBreak}}{{anim id=\"33\"}}Sarebbe assolutamente fantastico...{{delay frames=\"20\"}}\no magari no... Avrei sempre mal\ndi pancia e il fiato corto!{{delay frames=\"20\"}}"
  },
  {
    "label": "038",
    "text": "{{anim id=\"32\"}}Mi piace allenarmi durante\nl'autunno!{{pageBreak}}{{anim id=\"5\"}}Gli esercizi che faccio mentre\ncadono le foglie hanno un qualcosa\nin più!"
  },
  {
    "label": "039",
    "text": "{{fun_00000009 arg=\"0x28002900\"}}"
  },
  {
    "label": "040",
    "text": "{{anim id=\"20\"}}Quando fa così freddo, sento\ni muscoli che si congelano{{delay frames=\"8\"}}.{{delay frames=\"8\"}}.{{delay frames=\"8\"}}."
  },
  {
    "label": "041",
    "text": "Ieri ho toccato la maniglia\ndella porta di casa e{{delay frames=\"8\"}}.{{delay frames=\"8\"}}.{{delay frames=\"8\"}}.{{delay frames=\"20\"}}{{pageBreak}}{{anim id=\"18\"}}{{fun_000B0007 arg=\"\"}}{{size value=\"150\"}}Bzzzzzzzz!{{delay frames=\"40\"}}{{pageBreak}}{{size value=\"100\"}}Ho preso la scossa!{{delay frames=\"40\"}}{{anim id=\"8\"}} Che brutta\nsensazione!{{pageBreak}}{{anim id=\"9\"}}Non c'è proprio nulla da fare.{{delay frames=\"40\"}}\n{{anim id=\"12\"}}L'elettricità statica rimarrà\nsempre il mio punto debole!"
  },
  {
    "label": "042",
    "text": ""
  },
  {
    "label": "043",
    "text": "{{anim id=\"15\"}}Uau! Sei in formissima.{{pageBreak}}{{anim id=\"5\"}}Questo vuol dire che ti sei mess{{fun_0006000E arg=\"0x02006F0002006100\"}}\na fare sport all'aria aperta. Bene,\ncontinua così, {{delay frames=\"8\"}}{{fun_00070005 arg=\"\"}}!"
  },
  {
    "label": "044",
    "text": "{{anim id=\"15\"}}Ti trovo proprio bene, {{fun_00080005 arg=\"\"}}!{{pageBreak}}{{anim id=\"21\"}}Ora fai anche tu parte del club\ndegli sportivi che amano allenarsi\nall'aria aperta, {{anim id=\"1\"}}{{delay frames=\"8\"}}{{fun_00070005 arg=\"\"}}!"
  },
  {
    "label": "045",
    "text": "{{anim id=\"17\"}}{{fun_000B0007 arg=\"\"}}Uau! Sembri proprio in forma,\n{{fun_00080005 arg=\"\"}}!{{pageBreak}}{{anim id=\"2\"}}Hai il tipico aspetto di chi ha\npassato tutta l'estate fuori\nad allenarsi!{{delay frames=\"40\"}}{{anim id=\"37\"}}"
  },
  {
    "label": "046",
    "text": ""
  },
  {
    "label": "047",
    "text": ""
  },
  {
    "label": "048",
    "text": "{{fun_00020009 arg=\"0x3100320033003400\"}}"
  },
  {
    "label": "049",
    "text": "{{anim id=\"1\"}}Qualche giorno fa ho parlato\ncon {{fun_00040005 arg=\"0x00CD\"}}. Sembrava\nun po' abbacchiat{{fun_0007000E arg=\"0x02006F0002006100\"}}...\n{{anim id=\"21\"}}{{fun_0007000E arg=\"0x060047006C00690004004C006500\"}} ho consigliato di iscriversi\na un torneo di {{fun_00110005 arg=\"0x0000\"}}.\n{{anim id=\"35\"}}Sono un genio, eh?{{pageBreak}}{{anim id=\"1\"}}Ovviamente il risultato finale\ndipenderà dal suo impegno!{{delay frames=\"40\"}} {{anim id=\"2\"}}Mica\nposso competere io al posto suo!{{delay frames=\"40\"}}{{anim id=\"37\"}}"
  },
  {
    "label": "050",
    "text": "{{anim id=\"33\"}}L'altro giorno ho aiutato {{fun_00040005 arg=\"0x00CD\"}}\na portare dei pacchi pesanti.{{pageBreak}}{{anim id=\"2\"}}Ogni occasione è buona per allenare\ni bicipiti, {{delay frames=\"8\"}}{{fun_00070005 arg=\"\"}}!{{delay frames=\"40\"}}{{anim id=\"37\"}}"
  },
  {
    "label": "051",
    "text": "{{anim id=\"33\"}}Ieri ho beccato {{fun_00040005 arg=\"0x00CD\"}}\nche si aggirava furtivamente\nper la città con dei presunti gioielli!{{pageBreak}}{{anim id=\"41\"}}Solo che alla fine non erano\naltro che delle biglie{{delay frames=\"8\"}}.{{delay frames=\"8\"}}.{{delay frames=\"8\"}}.{{pageBreak}}{{anim id=\"27\"}}A volte mi faccio prendere la mano\nmentre sono di pattuglia..."
  },
  {
    "label": "052",
    "text": "{{anim id=\"21\"}}L'altro giorno ho passato tutta\nla mattinata a cercare\n{{fun_0002000E arg=\"\"}}{{fun_000F0005 arg=\"0x0000\"}}.\n{{fun_00040005 arg=\"0x00CD\"}} mi aveva detto di averl{{fun_0012000E arg=\"0x020002006F00020061000000\"}}\npers{{fun_0012000E arg=\"0x020002006F00020061000000\"}} e ho perlustrato tutta la città\nper trovargliel{{fun_0012000E arg=\"0x020002006F00020061000000\"}}.\n{{anim id=\"12\"}}Alla fine era a casa sua!\n{{anim id=\"40\"}}Che posso dire... Capita."
  },
  {
    "label": "053",
    "text": ""
  },
  {
    "label": "054",
    "text": ""
  },
  {
    "label": "055",
    "text": "{{anim id=\"15\"}}{{fun_000B0007 arg=\"\"}}Davvero?{{pageBreak}}{{anim id=\"13\"}}Non dirmi com'è finito, io devo\nancora vederlo. Non voglio sapere\nnulla!{{fun_00000008 arg=\"0x3800000039000000\"}}\nHa vinto...\nHo le labbra cucite!"
  },
  {
    "label": "056",
    "text": "{{anim id=\"18\"}}{{fun_000B0007 arg=\"\"}}Zitt{{fun_0006000E arg=\"0x02006F0002006100\"}}! Non parlare! {{size value=\"150\"}}{{delay frames=\"20\"}}{{fun_000B0007 arg=\"\"}}Basta!{{size value=\"100\"}}"
  },
  {
    "label": "057",
    "text": "{{anim id=\"10\"}}Grazie! {{fun_00010007 arg=\"\"}}{{anim id=\"1\"}}Lo apprezzo molto,\n{{delay frames=\"8\"}}{{fun_00070005 arg=\"\"}}!"
  },
  {
    "label": "058",
    "text": "{{anim id=\"23\"}}No? Non l'hai visto?{{delay frames=\"40\"}} {{anim id=\"35\"}}\nAllora ti dico chi ha vinto{{delay frames=\"8\"}}.{{delay frames=\"8\"}}.{{delay frames=\"8\"}}.{{fun_00000008 arg=\"0x3B0000003C000000\"}}\nNo, non farlo!\nDai, dimmi tutto!"
  },
  {
    "label": "059",
    "text": "{{anim id=\"15\"}}{{fun_000B0007 arg=\"\"}}{{size value=\"150\"}}Come no?{{delay frames=\"8\"}}{{fun_000B0007 arg=\"\"}} Devo dirtelo!{{pageBreak}}{{size value=\"100\"}}{{anim id=\"2\"}}Ahah! Scherzavo, non ti direi mai\nche ha vinto... Uhuhuh... Mi diverto\ntroppo!{{delay frames=\"40\"}}{{anim id=\"37\"}}"
  },
  {
    "label": "060",
    "text": "{{anim id=\"27\"}}Come scusa? Avresti dovuto dirmi\ndi stare zitto... Così sarebbe stato\ndivertente.\n{{anim id=\"13\"}}Ora hai rovinato tutto,\n{{delay frames=\"8\"}}{{fun_00070005 arg=\"\"}}!"
  },
  {
    "label": "061",
    "text": ""
  },
  {
    "label": "062",
    "text": ""
  },
  {
    "label": "063",
    "text": ""
  },
  {
    "label": "064",
    "text": ""
  },
  {
    "label": "065",
    "text": ""
  },
  {
    "label": "066",
    "text": "{{anim id=\"1\"}}Vediamo{{delay frames=\"8\"}}.{{delay frames=\"8\"}}.{{delay frames=\"8\"}}.{{delay frames=\"20\"}} Se tu fossi\n{{fun_0006000E arg=\"0x1A0075006E002000630061006C0063006900610074006F00720065001E0075006E0061002000630061006C0063006900610074007200690063006500\"}}, in che ruolo\nvorresti giocare?{{fun_00020008 arg=\"0x43000000440000004500000046000000\"}}\nIn attacco!\nIn difesa!\nIn porta!\nFarei l'arbitro."
  },
  {
    "label": "067",
    "text": "{{anim id=\"15\"}}{{fun_000B0007 arg=\"\"}}In attacco?!{{delay frames=\"40\"}}{{anim id=\"0\"}} Capisco, a te piace\nfinire il lavoro!{{pageBreak}}{{anim id=\"38\"}}Immagino che tu metta passione\nin tutto ciò che fai, {{delay frames=\"8\"}}{{fun_00070005 arg=\"\"}}!"
  },
  {
    "label": "068",
    "text": "{{anim id=\"15\"}}{{fun_000B0007 arg=\"\"}}In difesa?!{{delay frames=\"40\"}}{{anim id=\"0\"}} Quindi sei {{fun_0006000E arg=\"0x0E0075006E0020007400690070006F00100075006E00610020007400690070006100\"}}\nprotettiv{{fun_0006000E arg=\"0x02006F0002006100\"}} che tiene d'occhio\ntutta la situazione{{delay frames=\"8\"}}.{{delay frames=\"8\"}}.{{delay frames=\"8\"}}.\n{{anim id=\"21\"}}Immagino che sarai calm{{fun_0006000E arg=\"0x02006F0002006100\"}}, razionale\ne distaccat{{fun_0006000E arg=\"0x02006F0002006100\"}} in tutto, {{delay frames=\"8\"}}{{fun_00070005 arg=\"\"}}!"
  },
  {
    "label": "069",
    "text": "{{anim id=\"18\"}}{{fun_000B0007 arg=\"\"}}In porta?!{{fun_00010007 arg=\"\"}} {{anim id=\"11\"}}Quindi vuoi essere\n{{fun_0006000E arg=\"0x0E006C00270075006E00690063006F000E006C00270075006E00690063006100\"}} in campo a poter toccare\nla palla con le mani.\n{{anim id=\"1\"}}Immagino che tu sia il tipo\ndi persona che ama distinguersi,\n{{delay frames=\"8\"}}{{fun_00070005 arg=\"\"}}!"
  },
  {
    "label": "070",
    "text": "{{anim id=\"15\"}}{{fun_000B0007 arg=\"\"}}L'arbitro?!{{fun_00010007 arg=\"\"}} {{anim id=\"6\"}}Allora decidi!{{delay frames=\"40\"}}\nChe cartellino mi mostri?{{fun_00010008 arg=\"0x470000004800000049000000\"}}\nCartellino giallo!\nCartellino rosso!\nCartellino blu!"
  },
  {
    "label": "071",
    "text": "Un cartellino giallo? {{anim id=\"3\"}}Che bello!\nMi piace sapere che posso fare\nancora un errore, {{delay frames=\"8\"}}{{fun_00070005 arg=\"\"}}!"
  },
  {
    "label": "072",
    "text": "{{anim id=\"18\"}}{{fun_000B0007 arg=\"\"}}Un cartellino rosso?!{{fun_00010007 arg=\"\"}}{{anim id=\"12\"}} Per tutti\ni crampi ai polpacci, devo\nlasciare il campo{{delay frames=\"8\"}}.{{delay frames=\"8\"}}.{{delay frames=\"8\"}}."
  },
  {
    "label": "073",
    "text": "{{anim id=\"23\"}}Un cartellino blu? Ehi, non ci sono\ncartellini blu nel calcio!{{pageBreak}}{{anim id=\"35\"}}Non sai nulla di questo sport,\neh {{fun_00080005 arg=\"\"}}?"
  },
  {
    "label": "074",
    "text": "{{anim id=\"1\"}}Vediamo, {{fun_00080005 arg=\"\"}}. Se giocassi\na baseball, che ruolo vorresti avere?{{fun_00020008 arg=\"0x4C0000004F0000004B00000050000000\"}}\nVorrei lanciare!\nVorrei ricevere!\nVorrei battere!\nFarei da manager!"
  },
  {
    "label": "075",
    "text": "Vorresti stare in battuta?{{pageBreak}}{{anim id=\"2\"}}BUM! Fammi un fuoricampo!{{delay frames=\"40\"}}{{anim id=\"37\"}}"
  },
  {
    "label": "076",
    "text": "{{anim id=\"35\"}}Quindi puoi lanciare la palla come\nvuoi, eh?{{delay frames=\"40\"}}{{anim id=\"7\"}} OK! Fammi vedere.\nChe tiro mi fai?{{fun_00000008 arg=\"0x4D0000004E000000\"}}\nUna palla veloce!\nUna palla curva!"
  },
  {
    "label": "077",
    "text": "{{anim id=\"15\"}}{{fun_000A0007 arg=\"\"}}Una palla veloce?!{{pageBreak}}{{anim id=\"2\"}}Lo sapevo! Vai dritt{{fun_0006000E arg=\"0x02006F0002006100\"}} al sodo!\nMi piace!{{delay frames=\"40\"}}{{anim id=\"37\"}}"
  },
  {
    "label": "078",
    "text": "{{anim id=\"18\"}}{{fun_000B0007 arg=\"\"}}Una palla curva?!{{pageBreak}}{{anim id=\"36\"}}Ti piace lasciare gli altri nel dubbio,\neh? OK, OK, {{delay frames=\"8\"}}{{fun_00070005 arg=\"\"}}."
  },
  {
    "label": "079",
    "text": "{{anim id=\"15\"}}Vuoi essere {{fun_0006000E arg=\"0x1A0069006C00200072006900630065007600690074006F00720065001C006C006100200072006900630065007600690074007200690063006500\"}}?!{{pageBreak}}{{anim id=\"21\"}}Di certo sai incassare bene\ni colpi che ti tiro!{{pageBreak}}{{anim id=\"2\"}}Forse è per questo che mi piace\naverti intorno, {{delay frames=\"8\"}}{{fun_00070005 arg=\"\"}}!{{delay frames=\"40\"}}{{anim id=\"37\"}}"
  },
  {
    "label": "080",
    "text": "{{anim id=\"18\"}}{{fun_000B0007 arg=\"\"}}Vuoi essere {{fun_0006000E arg=\"0x040069006C0004006C006100\"}} manager?!{{fun_00010007 arg=\"\"}}{{anim id=\"0\"}} Dimmi{{delay frames=\"8\"}}.{{delay frames=\"8\"}}.{{delay frames=\"8\"}}.{{delay frames=\"20\"}}\n{{anim id=\"23\"}}Come sarebbe la tua squadra?{{fun_00010008 arg=\"0x510000005200000053000000\"}}\nFortissima!\nDivertente!\nElegante!"
  },
  {
    "label": "081",
    "text": "{{anim id=\"21\"}}Certo!{{delay frames=\"40\"}}{{anim id=\"1\"}} {{fun_0006000E arg=\"0x040055006E00060055006E006100\"}} brav{{fun_0006000E arg=\"0x02006F0002006100\"}} manager mette\ninsieme una squadra fortissima!{{pageBreak}}{{anim id=\"5\"}}Naturalmente io sarei il tuo primo\nlanciatore, vero? Vero,\n{{fun_00070005 arg=\"\"}}?"
  },
  {
    "label": "082",
    "text": "{{anim id=\"22\"}}Giusto!{{delay frames=\"40\"}}{{anim id=\"1\"}} Lo sport è anche\ndivertimento, no?{{pageBreak}}{{anim id=\"2\"}}Saresti proprio {{fun_0006000E arg=\"0x040075006E00060075006E006100\"}} manager saggi{{fun_0006000E arg=\"0x02006F0002006100\"}}!{{delay frames=\"40\"}}{{anim id=\"37\"}}"
  },
  {
    "label": "083",
    "text": "{{anim id=\"9\"}}Una squadra elegante?{{delay frames=\"40\"}}{{anim id=\"12\"}} Ho appena\nperso ogni interesse nello sport{{delay frames=\"8\"}}.{{delay frames=\"8\"}}.{{delay frames=\"8\"}}."
  },
  {
    "label": "084",
    "text": ""
  },
  {
    "label": "085",
    "text": ""
  },
  {
    "label": "086",
    "text": ""
  },
  {
    "label": "087",
    "text": "{{fun_00010009 arg=\"0x580059005A00\"}}"
  },
  {
    "label": "088",
    "text": "{{anim id=\"31\"}}{{delay frames=\"15\"}}{{fun_000B0007 arg=\"\"}}{{size value=\"150\"}}Domani è un nuovo\ngiorno!{{size value=\"100\"}}{{delay frames=\"40\"}}{{anim id=\"37\"}}"
  },
  {
    "label": "089",
    "text": "{{anim id=\"31\"}}{{delay frames=\"15\"}}{{fun_000B0007 arg=\"\"}}{{size value=\"150\"}}La vera felicità sa\ndi {{fun_001A0005 arg=\"0x00CD\"}}!{{size value=\"100\"}}{{delay frames=\"40\"}}{{anim id=\"37\"}}"
  },
  {
    "label": "090",
    "text": "{{size value=\"100\"}}{{anim id=\"31\"}}{{delay frames=\"15\"}}{{fun_000B0007 arg=\"\"}}{{size value=\"150\"}}Ho le orecchie\ndi {{fun_0002000E arg=\"\"}}{{fun_001F0005 arg=\"0x00CD\"}}!{{size value=\"100\"}}{{size value=\"100\"}}{{delay frames=\"40\"}}{{anim id=\"37\"}}"
  },
  {
    "label": "091",
    "text": "{{fun_00000009 arg=\"0x5C005D00\"}}"
  },
  {
    "label": "092",
    "text": "{{anim id=\"2\"}}Ah ah! Va meglio, vero?{{delay frames=\"40\"}}{{anim id=\"37\"}}"
  },
  {
    "label": "093",
    "text": "{{anim id=\"23\"}}Hai urlato come volevi?{{delay frames=\"40\"}}\n{{anim id=\"33\"}}Magari se rinforzi gli addominali\nandrà meglio, {{delay frames=\"8\"}}{{fun_00070005 arg=\"\"}}!"
  },
  {
    "label": "094",
    "text": ""
  },
  {
    "label": "095",
    "text": ""
  },
  {
    "label": "096",
    "text": ""
  },
  {
    "label": "097",
    "text": "{{anim id=\"27\"}}Metteresti tutti i soldi in banca?\nAmmiro la tua forza di volontà!"
  },
  {
    "label": "098",
    "text": "{{anim id=\"5\"}}Ah! Spenderesti tutto e subito, eh?{{pageBreak}}{{anim id=\"1\"}}Io non ci penserei due volte e mi\ncomprerei pesi, panche e macchine\nper farmi la mia palestra personale!\n{{anim id=\"9\"}}Chissà se un milione di stelline\nbasterebbe..."
  },
  {
    "label": "099",
    "text": "{{anim id=\"43\"}}Ottima scelta{{delay frames=\"8\"}}.{{delay frames=\"8\"}}.{{delay frames=\"8\"}}.{{delay frames=\"20\"}} Io mi mangerei\nquintali di {{fun_00130005 arg=\"0x0000\"}}!{{pageBreak}}{{anim id=\"2\"}}Nel caso, mi inviteresti a pranzo,\n{{fun_00070005 arg=\"\"}}, vero?{{delay frames=\"40\"}}{{anim id=\"37\"}}"
  },
  {
    "label": "100",
    "text": "{{anim id=\"29\"}}Sei davvero una persona generosa!{{pageBreak}}{{anim id=\"40\"}}Sappi, però, che non ti giudico\nmale se ti tieni qualcosina per te!{{anim id=\"1\"}}"
  },
  {
    "label": "101",
    "text": "{{anim id=\"9\"}}Molto responsabile! Ma davvero\nnon hai sogni da realizzare,\n{{delay frames=\"8\"}}{{fun_00070005 arg=\"\"}}?"
  },
  {
    "label": "102",
    "text": ""
  },
  {
    "label": "103",
    "text": ""
  },
  {
    "label": "104",
    "text": "{{anim id=\"32\"}}Sei pront{{fun_0006000E arg=\"0x02006F0002006100\"}} per la mia sfida\ndi scioglilingua?{{fun_00010007 arg=\"\"}} Si inizia!{{pageBreak}}Sotto un uscio tutto liscio\ncadde a striscio un grosso guscio!{{fun_00080007 arg=\"0x0A000000\"}}{{pageBreak}}Sotto un uscio tutto liscio\ncadde a striscio un grosso guscio!{{fun_00080007 arg=\"0x0A000000\"}}{{pageBreak}}Sotto un uscio tutto liscio\ncadde a striscio un grosso guscio!{{fun_00080007 arg=\"0x0A000000\"}}{{pageBreak}}Sotto un uscio tutto liscio\ncadde a striscio un grosso guscio!{{fun_00080007 arg=\"0x14000000\"}}{{pageBreak}}{{anim id=\"38\"}}Benissimo!{{fun_00010007 arg=\"\"}} {{anim id=\"40\"}}Ora rispondi a questa\ndomanda:{{delay frames=\"60\"}} quante volte\nho pronunciato la \"s\"?{{fun_00080008 arg=\"0x6B0000006C0000006D0000006E0000006F002800\"}}\n32 volte.\n28 volte.\n24 volte.\n18 volte.\nNon lo so!"
  },
  {
    "label": "105",
    "text": "{{anim id=\"32\"}}È il momento di una sfida\ncon gli scioglilingua!{{fun_00010007 arg=\"\"}}{{anim id=\"6\"}} Si parte!{{pageBreak}}Palla rossa,\npalla blu,\npalla gialla!{{fun_00080007 arg=\"0x0A000000\"}}\nPalla rossa,\npalla blu,\npalla gialla!{{fun_00080007 arg=\"0x0A000000\"}}\nPalla rossa,\npalla blu,\npalla gialla!{{fun_00080007 arg=\"0x0A000000\"}}\nPalla rossa,\npalla blu,\npalla gialla!{{fun_00080007 arg=\"0x14000000\"}}\n{{anim id=\"38\"}}Tutto qua!{{fun_00010007 arg=\"\"}}{{anim id=\"21\"}} Ora dimmi...{{delay frames=\"60\"}}\n{{anim id=\"23\"}}Quante volte ho ripetuto la parola\n\"palla\"?{{fun_00080008 arg=\"0x6C0000006B0000006D0000006E0000006F002800\"}}\n15 volte!\n12 volte!\n10 volte!\n9 volte!\nDecisamente troppe!"
  },
  {
    "label": "106",
    "text": "{{anim id=\"32\"}}Eccoti qua! È il momento di una\ngara di scioglilingua!{{fun_00010007 arg=\"\"}} {{anim id=\"6\"}}Via!{{pageBreak}}Tre strette stecche\nin tre strette tasche stanno!{{fun_00080007 arg=\"0x0A000000\"}}{{pageBreak}}Tre strette stecche\nin tre strette tasche stanno!{{fun_00080007 arg=\"0x0A000000\"}}{{pageBreak}}Tre strette stecche\nin tre strette tasche stanno!{{fun_00080007 arg=\"0x0A000000\"}}{{pageBreak}}Tre strette stecche\nin tre strette tasche stanno!{{fun_00080007 arg=\"0x14000000\"}}{{pageBreak}}{{anim id=\"38\"}}Finito!{{fun_00010007 arg=\"\"}} {{anim id=\"40\"}}Ora la parte difficile{{delay frames=\"8\"}}.{{delay frames=\"8\"}}.{{delay frames=\"8\"}}.{{delay frames=\"20\"}}{{delay frames=\"60\"}}\n{{anim id=\"23\"}}Quante volte ho detto la lettera \"t\"?{{fun_00080008 arg=\"0x6C0000006B0000006D0000006E0000006F002800\"}}\n44 volte!\n40 volte!\n33 volte!\n30 volte!\n4972 volte?"
  },
  {
    "label": "107",
    "text": "{{anim id=\"18\"}}{{fun_000B0007 arg=\"\"}}Uau!{{delay frames=\"20\"}} Esatto, {{fun_00080005 arg=\"\"}}!{{pageBreak}}{{anim id=\"5\"}}Hai vinto!"
  },
  {
    "label": "108",
    "text": "{{anim id=\"41\"}}Oh! C'eri quasi, ma non hai\nindovinato!"
  },
  {
    "label": "109",
    "text": "{{anim id=\"12\"}}Ohhhhh{{delay frames=\"8\"}}.{{delay frames=\"8\"}}.{{delay frames=\"8\"}}.{{delay frames=\"20\"}} Risposta sbagliata,\n{{delay frames=\"8\"}}{{fun_00070005 arg=\"\"}}!"
  },
  {
    "label": "110",
    "text": "{{anim id=\"40\"}}No, sbagliato!{{pageBreak}}{{anim id=\"27\"}}Non ci sei andat{{fun_0006000E arg=\"0x02006F0002006100\"}} nemmeno vicin{{fun_0006000E arg=\"0x02006F0002006100\"}},\n{{delay frames=\"8\"}}{{fun_00070005 arg=\"\"}}!"
  },
  {
    "label": "111",
    "text": "{{anim id=\"18\"}}{{fun_000B0007 arg=\"\"}}Ma stavi dormendo?!{{fun_00010007 arg=\"\"}} {{anim id=\"27\"}}Non ti sei\nproprio impegnat{{fun_0006000E arg=\"0x02006F0002006100\"}}, {{delay frames=\"8\"}}{{fun_00070005 arg=\"\"}}!"
  },
  {
    "label": "112",
    "text": ""
  },
  {
    "label": "113",
    "text": ""
  },
  {
    "label": "114",
    "text": ""
  },
  {
    "label": "115",
    "text": ""
  },
  {
    "label": "116",
    "text": "A fine mese si festeggia {{color id=\"2\"}}Halloween{{color id=\"65535\"}}.{{pageBreak}}{{anim id=\"35\"}}A proposito, sai una cosa?{{delay frames=\"40\"}} Il numero\n{{color id=\"2\"}}1{{delay frames=\"8\"}}0{{delay frames=\"8\"}}3{{delay frames=\"8\"}}1 {{color id=\"65535\"}}è associato a maschere e\ncopricapi importanti.{{delay frames=\"20\"}}{{pageBreak}}{{anim id=\"11\"}}Magari il numero ha a che fare\ncon il prezzo di una maschera o\ndi un copricapo che devi comprare?\n{{anim id=\"2\"}}Se al negozio di {{color id=\"4\"}}Bice {{color id=\"65535\"}}trovi uno\ndi questi articoli al prezzo di\n{{color id=\"2\"}}1031 stelline{{color id=\"65535\"}}, compralo al volo!{{delay frames=\"40\"}}{{anim id=\"37\"}}"
  }
]