﻿[
  {
    "label": "001",
    "text": "{{anim id=\"9\"}}Ho una voglia matta di allenarmi,\noggi!{{pageBreak}}{{anim id=\"27\"}}Se però non pulisco prima,{{delay frames=\"20\"}}\nnon avrò mai lo spazio per farlo\ncome si deve{{delay frames=\"8\"}}.{{delay frames=\"8\"}}.{{delay frames=\"8\"}}.{{pageBreak}}{{anim id=\"38\"}}Però, a pensarci bene, si fa\ntantissimo esercizio con\nle pulizie!{{pageBreak}}{{delay frames=\"20\"}}Ehi, ti andrebbe di passare più tardi\nper controllare se ho finito?"
  },
  {
    "label": "002",
    "text": "{{anim id=\"1\"}}Questi scatoloni sono così\npesanti!{{delay frames=\"40\"}} Forse non avrei dovuto\nmetterci tutta quella sabbia{{delay frames=\"8\"}}.{{delay frames=\"8\"}}.{{delay frames=\"8\"}}.{{delay frames=\"20\"}}\n{{anim id=\"2\"}}... ma dovevo riempire in qualche\nmodo il mio amato sacco da boxe!{{delay frames=\"40\"}}{{anim id=\"37\"}}"
  },
  {
    "label": "003",
    "text": "{{i10_7 arg=\"0x050005000500050006000600\"}}"
  },
  {
    "label": "004",
    "text": ""
  },
  {
    "label": "005",
    "text": "{{anim id=\"10\"}}Penso che passerò tutto il giorno\na fare le pulizie.{{fun_00010007 arg=\"\"}} {{anim id=\"1\"}}Potremmo vederci\ndomani. Ti va, {{delay frames=\"8\"}}{{fun_00070005 arg=\"\"}}?"
  },
  {
    "label": "006",
    "text": "{{anim id=\"9\"}}Sono lentissimo a fare le pulizie!{{delay frames=\"20\"}}\nHo cominciato stamattina e non\nho ancora finito!\n{{anim id=\"12\"}}Chissà se riuscirò a mettere via\nla scopa prima dell'alba di domani!{{pageBreak}}Altrimenti mi toccherà saltare\nun'altra giornata intera\ndi allenamenti, {{delay frames=\"20\"}}{{fun_00070005 arg=\"\"}}."
  }
]