﻿[
  {
    "label": "001",
    "text": "{{anim id=\"32\"}}Ehi, facciamo un gioco! Io lo\nchiamo.{{delay frames=\"8\"}}.{{delay frames=\"8\"}}.{{delay frames=\"20\"}} {{color id=\"2\"}}il prezzo è nelle carte{{color id=\"65535\"}}.\nOra ti spiego come funziona.{{pageBreak}}{{anim id=\"21\"}}Ho un mazzo di carte numerate\nda 1 a 8.{{fun_00010007 arg=\"\"}} Io ne pesco una e tu\nindovini il numero sulla carta.\n{{anim id=\"5\"}}Se ci vai vicino, ti vendo\n{{fun_0008000E arg=\"0x00CD0C0069006C0020006D0069006F000C006C00610020006D00690061000000\"}} {{fun_00030011 arg=\"0x0000\"}}\na buon prezzo!\n{{anim id=\"35\"}}Altrimenti, dovrai comprarl{{fun_0008000E arg=\"0x00CD02006F00020061000000\"}}\na un prezzo maggiorato.\n{{fun_000D0007 arg=\"\"}}{{anim id=\"38\"}}Tutto chiaro? {{anim id=\"1\"}}Pront{{fun_0006000E arg=\"0x02006F0002006100\"}}?{{fun_00050008 arg=\"0x0800150002002800\"}}\nCerto, iniziamo!\nOra non posso."
  },
  {
    "label": "002",
    "text": "{{anim id=\"9\"}}Oh, che peccato! Questo gioco\nè così divertente{{delay frames=\"8\"}}.{{delay frames=\"8\"}}.{{delay frames=\"8\"}}."
  },
  {
    "label": "003",
    "text": "{{anim id=\"1\"}}OK!{{delay frames=\"20\"}} Vediamo qual è la mia carta!\n{{fun_00010007 arg=\"\"}}{{anim id=\"6\"}}È quella con il numero{{delay frames=\"8\"}}.{{delay frames=\"8\"}}.{{delay frames=\"8\"}}.{{delay frames=\"60\"}} {{anim id=\"32\"}}{{fun_00060004 arg=\"0x0400\"}}!{{pageBreak}}{{anim id=\"15\"}}Cosa??? Hai indovinato?{{pageBreak}}{{anim id=\"29\"}}Uau! Congratulazioni!{{pageBreak}}{{anim id=\"1\"}}Come premio, ti regalo {{fun_0008000E arg=\"0x00CD0C0069006C0020006D0069006F000C006C00610020006D00690061000000\"}}\n{{fun_00030011 arg=\"0x0000\"}}{{delay frames=\"20\"}},\n{{delay frames=\"8\"}}{{fun_00070005 arg=\"\"}}!"
  },
  {
    "label": "004",
    "text": "{{anim id=\"1\"}}OK!{{delay frames=\"20\"}} Vediamo qual è la mia carta!\n{{fun_00010007 arg=\"\"}}{{anim id=\"6\"}}È quella con il numero{{delay frames=\"8\"}}.{{delay frames=\"8\"}}.{{delay frames=\"8\"}}.{{delay frames=\"60\"}} {{anim id=\"32\"}}{{fun_00060004 arg=\"0x0400\"}}!{{pageBreak}}{{anim id=\"17\"}}{{fun_000B0007 arg=\"\"}}Ah! Ci sei andat{{fun_0006000E arg=\"0x02006F0002006100\"}} vicin{{fun_0006000E arg=\"0x02006F0002006100\"}}! Il tuo\nintuito non ti ha tradit{{fun_0006000E arg=\"0x02006F0002006100\"}}!{{pageBreak}}{{anim id=\"1\"}}Vista la tua bravura, ti faccio\nun prezzo speciale di {{color id=\"2\"}}{{fun_00090004 arg=\"0x0000\"}} {{fun_0009000E arg=\"0x00CD10007300740065006C006C0069006E00650010007300740065006C006C0069006E00610010007300740065006C006C0069006E006500\"}}{{color id=\"65535\"}},{{delay frames=\"8\"}}\n{{fun_00070005 arg=\"\"}}!"
  },
  {
    "label": "005",
    "text": "{{anim id=\"1\"}}OK!{{delay frames=\"20\"}} Vediamo qual è la mia carta!\n{{fun_00010007 arg=\"\"}}{{anim id=\"6\"}}È quella con il numero{{delay frames=\"8\"}}.{{delay frames=\"8\"}}.{{delay frames=\"8\"}}.{{delay frames=\"60\"}} {{anim id=\"32\"}}{{fun_00060004 arg=\"0x0400\"}}!{{pageBreak}}{{anim id=\"11\"}}Non ci sei andat{{fun_0006000E arg=\"0x02006F0002006100\"}} né troppo vicin{{fun_0006000E arg=\"0x02006F0002006100\"}},\nné troppo lontan{{fun_0006000E arg=\"0x02006F0002006100\"}}.{{delay frames=\"8\"}} Bene!{{pageBreak}}{{anim id=\"1\"}}Considerando il tuo risultato,\nti faccio un prezzo di {{color id=\"2\"}}{{color id=\"2\"}}{{fun_00090004 arg=\"0x0100\"}}\n{{color id=\"2\"}}{{fun_0009000E arg=\"0x01CD10007300740065006C006C0069006E00650010007300740065006C006C0069006E00610010007300740065006C006C0069006E006500\"}}{{color id=\"65535\"}}, {{delay frames=\"8\"}}{{fun_00070005 arg=\"\"}}!"
  },
  {
    "label": "006",
    "text": "{{anim id=\"1\"}}OK!{{delay frames=\"20\"}} Vediamo qual è la mia carta!\n{{fun_00010007 arg=\"\"}}{{anim id=\"6\"}}È quella con il numero{{delay frames=\"8\"}}.{{delay frames=\"8\"}}.{{delay frames=\"8\"}}.{{delay frames=\"60\"}} {{anim id=\"32\"}}{{fun_00060004 arg=\"0x0400\"}}!{{pageBreak}}{{anim id=\"11\"}}Mmmhhh... Direi che non ci sei\nandat{{fun_0006000E arg=\"0x02006F0002006100\"}} vicin{{fun_0006000E arg=\"0x02006F0002006100\"}}, anzi!{{pageBreak}}{{anim id=\"40\"}}Sono cose che capitano!{{delay frames=\"20\"}}\n{{anim id=\"1\"}}Non mi resta che venderti l'articolo\na un prezzo di {{color id=\"2\"}}{{fun_00090004 arg=\"0x0200\"}} {{color id=\"2\"}}{{fun_0009000E arg=\"0x02CD10007300740065006C006C0069006E00650010007300740065006C006C0069006E00610010007300740065006C006C0069006E006500\"}}{{color id=\"2\"}}{{color id=\"65535\"}}!"
  },
  {
    "label": "007",
    "text": "{{anim id=\"1\"}}OK!{{delay frames=\"20\"}} Vediamo qual è la mia carta!\n{{fun_00010007 arg=\"\"}}{{anim id=\"6\"}}È quella con il numero{{delay frames=\"8\"}}.{{delay frames=\"8\"}}.{{delay frames=\"8\"}}.{{delay frames=\"60\"}} {{anim id=\"32\"}}{{fun_00060004 arg=\"0x0400\"}}!{{pageBreak}}{{anim id=\"2\"}}Ah ah ah! Hai completamente\nsbagliato! Mi viene troppo\nda ridere!{{delay frames=\"40\"}}{{anim id=\"37\"}}{{pageBreak}}{{anim id=\"35\"}}Potrei quasi chiederti tutti i soldi\nche hai. Facciamo {{color id=\"2\"}}{{fun_00090004 arg=\"0x0300\"}} {{color id=\"2\"}}{{fun_0009000E arg=\"0x03CD10007300740065006C006C0069006E00650010007300740065006C006C0069006E00610010007300740065006C006C0069006E006500\"}}{{color id=\"2\"}}{{color id=\"65535\"}},\n{{delay frames=\"8\"}}{{fun_00070005 arg=\"\"}}!"
  },
  {
    "label": "008",
    "text": "{{fun_00060009 arg=\"0x0A000B000C000D000E000F0010001100\"}}"
  },
  {
    "label": "009",
    "text": ""
  },
  {
    "label": "010",
    "text": "{{anim id=\"11\"}}Vediamo... Prendo{{delay frames=\"8\"}}.{{delay frames=\"8\"}}.{{delay frames=\"8\"}}.{{delay frames=\"40\"}}\n{{anim id=\"21\"}}Prendo questa carta!{{pageBreak}}{{anim id=\"1\"}}Dimmi, secondo te che numero\nc'è sulla carta che ho pescato?{{fun_000A0008 arg=\"0x07000600060006000500050004000300\"}}\n8\n1"
  },
  {
    "label": "011",
    "text": "{{anim id=\"11\"}}Vediamo... Prendo{{delay frames=\"8\"}}.{{delay frames=\"8\"}}.{{delay frames=\"8\"}}.{{delay frames=\"40\"}}\n{{anim id=\"21\"}}Prendo questa carta!{{pageBreak}}{{anim id=\"1\"}}Dimmi, secondo te che numero\nc'è sulla carta che ho pescato?{{fun_000A0008 arg=\"0x06000600060005000500040003000400\"}}\n8\n1"
  },
  {
    "label": "012",
    "text": "{{anim id=\"11\"}}Vediamo... Prendo{{delay frames=\"8\"}}.{{delay frames=\"8\"}}.{{delay frames=\"8\"}}.{{delay frames=\"40\"}}\n{{anim id=\"21\"}}Prendo questa carta!{{pageBreak}}{{anim id=\"1\"}}Dimmi, secondo te che numero\nc'è sulla carta che ho pescato?{{fun_000A0008 arg=\"0x06000600050005000400030004000500\"}}\n8\n1"
  },
  {
    "label": "013",
    "text": "{{anim id=\"11\"}}Vediamo... Prendo{{delay frames=\"8\"}}.{{delay frames=\"8\"}}.{{delay frames=\"8\"}}.{{delay frames=\"40\"}}\n{{anim id=\"21\"}}Prendo questa carta!{{pageBreak}}{{anim id=\"1\"}}Dimmi, secondo te che numero\nc'è sulla carta che ho pescato?{{fun_000A0008 arg=\"0x06000600050004000300040005000600\"}}\n8\n1"
  },
  {
    "label": "014",
    "text": "{{anim id=\"11\"}}Vediamo... Prendo{{delay frames=\"8\"}}.{{delay frames=\"8\"}}.{{delay frames=\"8\"}}.{{delay frames=\"40\"}}\n{{anim id=\"21\"}}Prendo questa carta!{{pageBreak}}{{anim id=\"1\"}}Dimmi, secondo te che numero\nc'è sulla carta che ho pescato?{{fun_000A0008 arg=\"0x06000500040003000400050006000600\"}}\n8\n1"
  },
  {
    "label": "015",
    "text": "{{anim id=\"11\"}}Vediamo... Prendo{{delay frames=\"8\"}}.{{delay frames=\"8\"}}.{{delay frames=\"8\"}}.{{delay frames=\"40\"}}\n{{anim id=\"21\"}}Prendo questa carta!{{pageBreak}}{{anim id=\"1\"}}Dimmi, secondo te che numero\nc'è sulla carta che ho pescato?{{fun_000A0008 arg=\"0x05000400030004000500060006000600\"}}\n8\n1"
  },
  {
    "label": "016",
    "text": "{{anim id=\"11\"}}Vediamo... Prendo{{delay frames=\"8\"}}.{{delay frames=\"8\"}}.{{delay frames=\"8\"}}.{{delay frames=\"40\"}}\n{{anim id=\"21\"}}Prendo questa carta!{{pageBreak}}{{anim id=\"1\"}}Dimmi, secondo te che numero\nc'è sulla carta che ho pescato?{{fun_000A0008 arg=\"0x04000300040005000500060006000600\"}}\n8\n1"
  },
  {
    "label": "017",
    "text": "{{anim id=\"11\"}}Vediamo... Prendo{{delay frames=\"8\"}}.{{delay frames=\"8\"}}.{{delay frames=\"8\"}}.{{delay frames=\"40\"}}\n{{anim id=\"21\"}}Prendo questa carta!{{pageBreak}}{{anim id=\"1\"}}Dimmi, secondo te che numero\nc'è sulla carta che ho pescato?{{fun_000A0008 arg=\"0x03000400050005000600060006000700\"}}\n8\n1"
  },
  {
    "label": "018",
    "text": ""
  },
  {
    "label": "019",
    "text": "{{anim id=\"21\"}}È stato un piacere giocare con te!{{delay frames=\"40\"}}\n{{anim id=\"38\"}}Segui sempre il tuo intuito nella\nvita! Ti servirà!"
  },
  {
    "label": "020",
    "text": "{{anim id=\"1\"}}Magari chissà... La prossima volta\nche giochi potresti indovinare\nil numero esatto!"
  },
  {
    "label": "021",
    "text": "{{anim id=\"1\"}}Dovremmo giocare di nuovo\nqualche altra volta!"
  },
  {
    "label": "022",
    "text": "{{anim id=\"6\"}}Dovresti allenare un po' il tuo\nintuito! Al momento è proprio\nfuori forma."
  },
  {
    "label": "023",
    "text": "{{anim id=\"27\"}}Mi dispiace per te{{delay frames=\"8\"}}.{{delay frames=\"8\"}}.{{delay frames=\"8\"}}.{{delay frames=\"40\"}} Se vuoi posso\naiutarti ad allenare il tuo intuito.\nPosso fare anche quello, io."
  }
]