﻿[
  {
    "label": "001",
    "text": "{{fun_0003000E arg=\"\"}}{{fun_00060007 arg=\"\"}}Ehi, {{delay frames=\"8\"}}{{fun_00000005 arg=\"\"}}{{fun_00070007 arg=\"\"}}!{{fun_00010007 arg=\"\"}}\nNon stancarti troppo!\n{{delay frames=\"20\"}}{{fun_0003000E arg=\"\"}}{{fun_00070005 arg=\"\"}}!"
  },
  {
    "label": "002",
    "text": "Con questo tempo è facile scivolare\ne farsi male.{{delay frames=\"30\"}} Fai attenzione,\ncapito?! {{fun_0003000E arg=\"\"}}{{fun_00070005 arg=\"\"}}!"
  },
  {
    "label": "003",
    "text": "Che vento tira, eh, {{delay frames=\"20\"}}{{fun_00000005 arg=\"\"}}?\n{{fun_0003000E arg=\"\"}}{{fun_00070005 arg=\"\"}}?"
  },
  {
    "label": "004",
    "text": "{{fun_0003000E arg=\"\"}}{{fun_00060007 arg=\"\"}}Ehi, {{delay frames=\"8\"}}{{fun_00000005 arg=\"\"}}{{fun_00070007 arg=\"\"}}!{{delay frames=\"30\"}}\n{{anim id=\"1\"}}Ti stai divertendo,{{delay frames=\"20\"}} {{fun_00070005 arg=\"\"}}?"
  },
  {
    "label": "005",
    "text": "Questa neve non sembra volere\nsmettere{{delay frames=\"8\"}}.{{delay frames=\"8\"}}.{{delay frames=\"8\"}}. {{fun_0003000E arg=\"\"}}{{fun_00070005 arg=\"\"}}."
  },
  {
    "label": "006",
    "text": "Ehi, {{delay frames=\"30\"}}{{fun_00000005 arg=\"\"}}!{{fun_00010007 arg=\"\"}}\nFa un freddo pazzesco! Brrr!\n{{fun_0003000E arg=\"\"}}{{fun_00070005 arg=\"\"}}!"
  }
]