﻿[
  {
    "label": "001",
    "text": "Ehi, ti ho mai detto quand'è\nil mio compleanno?{{pageBreak}}{{anim id=\"1\"}}È il giorno {{color id=\"2\"}}{{fun_000F0004 arg=\"0x00CD\"}} {{fun_000E0004 arg=\"0x00CD\"}}{{color id=\"65535\"}}!{{delay frames=\"30\"}}\n{{anim id=\"35\"}}Non dimenticartelo, chiaro?\nRicordatelo sempre!{{delay frames=\"20\"}} {{fun_0003000E arg=\"\"}}{{fun_00070005 arg=\"\"}}!"
  },
  {
    "label": "002",
    "text": "Non voglio che te lo dimentichi,\nperciò te lo dirò.{{delay frames=\"15\"}} {{anim id=\"33\"}}Il mio compleanno\nè il giorno {{color id=\"2\"}}{{fun_000F0004 arg=\"0x00CD\"}} {{fun_000E0004 arg=\"0x00CD\"}}{{color id=\"65535\"}}.{{delay frames=\"20\"}}\nIo sono del segno {{fun_0002000E arg=\"\"}}{{fun_0003000E arg=\"\"}}{{fun_000C0005 arg=\"\"}}!\n{{anim id=\"1\"}}Ricordatelo, capito?"
  },
  {
    "label": "003",
    "text": ""
  },
  {
    "label": "004",
    "text": "{{anim id=\"37\"}}La mia {{color id=\"2\"}}massima {{color id=\"65535\"}}funziona\nin tutte le situazioni!{{delay frames=\"30\"}} {{anim id=\"0\"}}È{{delay frames=\"8\"}}.{{delay frames=\"8\"}}.{{delay frames=\"8\"}}."
  },
  {
    "label": "005",
    "text": "{{anim id=\"43\"}}Il mio modo di pensare,{{delay frames=\"8\"}} agire,{{delay frames=\"8\"}}\nparlare{{delay frames=\"8\"}} e persino mangiare{{delay frames=\"8\"}}.{{delay frames=\"8\"}}.{{delay frames=\"8\"}}.{{delay frames=\"20\"}} {{anim id=\"21\"}}Penso\nche quella {{color id=\"2\"}}massima {{color id=\"65535\"}}esprima tutto!"
  },
  {
    "label": "006",
    "text": "{{anim id=\"23\"}}Tu ce l'hai una {{color id=\"2\"}}massima {{color id=\"65535\"}}che\nti piace troppo?{{delay frames=\"30\"}} {{anim id=\"37\"}}La mia è{{delay frames=\"8\"}}.{{delay frames=\"8\"}}.{{delay frames=\"8\"}}.{{delay frames=\"8\"}}"
  },
  {
    "label": "007",
    "text": "{{anim id=\"1\"}}Che ne pensi?{{delay frames=\"20\"}}\nTroppo forte, vero?!"
  },
  {
    "label": "008",
    "text": ""
  },
  {
    "label": "009",
    "text": ""
  },
  {
    "label": "010",
    "text": "{{anim id=\"1\"}}Ho piena fiducia nelle mie\ncapacità quando si parla di\n{{color id=\"2\"}}{{fun_00180012 arg=\"0x00CD\"}}{{color id=\"65535\"}}.{{delay frames=\"30\"}}{{pageBreak}}Sono davvero un mago!"
  },
  {
    "label": "011",
    "text": "Ho un sacco di difetti, ma il mio\npregio migliore{{anim id=\"37\"}} è che sono troppo\nforte a {{color id=\"2\"}}{{fun_00180012 arg=\"0x00CD\"}}{{color id=\"65535\"}}{{delay frames=\"8\"}}.{{delay frames=\"8\"}}.{{delay frames=\"8\"}}."
  },
  {
    "label": "012",
    "text": ""
  },
  {
    "label": "013",
    "text": "{{anim id=\"23\"}}Eh?{{delay frames=\"8\"}} Vuoi sapere se ho fratelli?{{delay frames=\"30\"}}{{pageBreak}}{{anim id=\"0\"}}Sono {{fun_0001000E arg=\"\"}}{{color id=\"2\"}}{{fun_00160012 arg=\"0x00CD\"}}{{color id=\"65535\"}},\nma {{anim id=\"1\"}}a te che interessa?"
  },
  {
    "label": "014",
    "text": "Sono {{anim id=\"1\"}}{{fun_0001000E arg=\"\"}}{{color id=\"2\"}}{{fun_00160012 arg=\"0x00CD\"}}{{color id=\"65535\"}}!{{delay frames=\"30\"}}\nSei sorpres{{fun_0006000E arg=\"0x02006F0002006100\"}}?{{delay frames=\"20\"}} No, eh?\n{{anim id=\"2\"}}AHAHAH!"
  },
  {
    "label": "015",
    "text": ""
  },
  {
    "label": "016",
    "text": "Ho sempre sognato di diventare{{anim id=\"21\"}}{{delay frames=\"8\"}}\n{{fun_0002000E arg=\"\"}}{{color id=\"2\"}}{{fun_00170012 arg=\"0x00CD\"}}{{color id=\"65535\"}}.{{delay frames=\"20\"}}\n{{anim id=\"38\"}}Forse un giorno succederà!"
  },
  {
    "label": "017",
    "text": "Il mio sogno è diventare{{anim id=\"1\"}}\n{{fun_0002000E arg=\"\"}}{{color id=\"2\"}}{{fun_00170012 arg=\"0x00CD\"}}{{color id=\"65535\"}}!{{delay frames=\"30\"}}{{pageBreak}}{{anim id=\"32\"}}E farò vedere a tutti che ne sono\ncapace! Basta lavorare sodo e\nmetterci l'impegno! {{anim id=\"2\"}}AHAHAH!"
  }
]