﻿[
  {
    "label": "001",
    "text": "{{anim id=\"35\"}}Scavare buche è un istinto animale!{{delay frames=\"30\"}}\nShhh! {{anim id=\"36\"}}Sto lavorando a dei tunnel\nsegreti. {{delay frames=\"30\"}}{{anim id=\"2\"}}AHAHAH!{{anim id=\"1\"}}"
  },
  {
    "label": "002",
    "text": "{{anim id=\"35\"}}Ho l'istinto di un predatore!{{delay frames=\"30\"}}\n{{anim id=\"37\"}}Rincorrere gli insetti\nè naturale per me!"
  },
  {
    "label": "003",
    "text": "{{anim id=\"35\"}}La pesca è un hobby adatto a me.{{delay frames=\"30\"}}\n{{anim id=\"37\"}}È uno sport solitario dove si sente\nsolo il rumore dell'acqua..."
  },
  {
    "label": "004",
    "text": "{{anim id=\"35\"}}Ricorda! Si dice orticoltura, non\ngiardinaggio!{{delay frames=\"30\"}} {{anim id=\"37\"}}Sto preparando\nun'aiuola da paura. Vedrai che roba!"
  },
  {
    "label": "005",
    "text": "{{anim id=\"36\"}}L'era in cui gli uomini non usavano\nmai l'ombrello è finita da un pezzo."
  }
]