﻿[
  {
    "label": "001",
    "text": "{{anim id=\"21\"}}{{fun_0003000E arg=\"\"}}{{fun_0002000E arg=\"\"}}{{fun_00030011 arg=\"0x0000\"}},\neh{{delay frames=\"8\"}}.{{delay frames=\"8\"}}.{{delay frames=\"8\"}}.?{{delay frames=\"20\"}} La sua presenza già cambia\nparecchio l'atmosfera della stanza.\n{{anim id=\"37\"}}Non credo però che {{fun_00010011 arg=\"0x0000\"}}\ntenga un pesce per questo motivo.\nVedrai che è solo una coincidenza!"
  },
  {
    "label": "002",
    "text": "{{anim id=\"21\"}}Quando uno passa tanto tempo\na casa come {{fun_00010011 arg=\"0x0000\"}}, è logico\nche voglia avere quadri sulle pareti!\n{{anim id=\"37\"}}Non importa se autentici o no.\nL'importante è avere qualcosa da\nguardare! {{anim id=\"2\"}}AHAHAH!{{delay frames=\"20\"}} {{fun_0003000E arg=\"\"}}{{fun_00070005 arg=\"\"}}!"
  },
  {
    "label": "003",
    "text": "{{fun_00040009 arg=\"0x3C003D003E003F0040004100\"}}"
  },
  {
    "label": "004",
    "text": "{{fun_00040009 arg=\"0x3C003D003E003F0040004100\"}}"
  },
  {
    "label": "005",
    "text": "{{anim id=\"21\"}}Io gliel'ho detto {{fun_0010000E arg=\"\"}} {{fun_00010011 arg=\"0x0000\"}}\ndi smettere di parlare alla TV,\nma non serve{{delay frames=\"8\"}}.{{delay frames=\"8\"}}.{{delay frames=\"8\"}}.{{delay frames=\"20\"}}\nLui non solo continua, {{anim id=\"6\"}}ma mi ha\nanche detto: \"Smetti pure tu!\".{{delay frames=\"40\"}} {{anim id=\"1\"}}Che\ntipo! È troppo un grande!{{delay frames=\"15\"}} {{anim id=\"2\"}}AHAHAH!{{delay frames=\"30\"}}{{anim id=\"1\"}}"
  },
  {
    "label": "006",
    "text": "{{anim id=\"21\"}}Mmmh{{delay frames=\"8\"}}.{{delay frames=\"8\"}}.{{delay frames=\"8\"}}.{{delay frames=\"20\"}} Ma guarda qua che\n{{fun_00030011 arg=\"0x0000\"}}. Forte, eh?{{pageBreak}}{{delay frames=\"15\"}}{{anim id=\"27\"}}Spero proprio che il nostro amico\nnon voglia avviare una carriera\nmusicale.{{pageBreak}}{{delay frames=\"8\"}}.{{delay frames=\"8\"}}.{{delay frames=\"8\"}}.{{delay frames=\"20\"}} Detto tra noi, non ce lo vedo\nproprio!{{delay frames=\"8\"}} {{anim id=\"2\"}}AHAHAH!{{anim id=\"1\"}}"
  },
  {
    "label": "007",
    "text": "{{anim id=\"21\"}}Forse non sembra, ma {{fun_00010011 arg=\"0x0000\"}}\nsi destreggia abbastanza bene\ntra i fornelli!{{pageBreak}}{{anim id=\"37\"}}Hai visto che cos'ha qua?\n{{fun_0003000E arg=\"\"}}{{fun_0002000E arg=\"\"}}{{fun_00030011 arg=\"0x0000\"}}!{{delay frames=\"20\"}}\nVuoi altre prove,{{delay frames=\"8\"}} {{fun_00070005 arg=\"\"}}?"
  },
  {
    "label": "008",
    "text": "{{anim id=\"21\"}}{{fun_00010011 arg=\"0x0000\"}} mi diceva che quando\nviaggia preferisce prendere una\ncamera con il letto piccolo{{delay frames=\"8\"}}.{{delay frames=\"8\"}}.{{delay frames=\"8\"}}.{{delay frames=\"20\"}}\n{{anim id=\"36\"}}Secondo me, almeno per casa sua\ndovrebbe comprarsi un letto più\ngrandino! {{anim id=\"2\"}}AHAHAH!{{delay frames=\"20\"}} {{fun_0003000E arg=\"\"}}{{fun_00070005 arg=\"\"}}!{{delay frames=\"40\"}}{{anim id=\"37\"}}"
  },
  {
    "label": "009",
    "text": "{{anim id=\"21\"}}Ah, che bel lettone! Scommetto\nche ci si dorme troppo bene!{{pageBreak}}{{anim id=\"27\"}}Perlomeno{{delay frames=\"8\"}}.{{delay frames=\"8\"}}.{{delay frames=\"8\"}}.{{delay frames=\"20\"}} il padrone di casa\nnon rischia di ruzzolare per terra\nalle due di notte!"
  },
  {
    "label": "010",
    "text": "{{fun_00040009 arg=\"0x3C003D003E003F0040004100\"}}"
  },
  {
    "label": "011",
    "text": "{{fun_00040009 arg=\"0x3C003D003E003F0040004100\"}}"
  },
  {
    "label": "012",
    "text": "{{fun_00040009 arg=\"0x3C003D003E003F0040004100\"}}"
  },
  {
    "label": "013",
    "text": "{{fun_00040009 arg=\"0x3C003D003E003F0040004100\"}}"
  },
  {
    "label": "014",
    "text": "{{fun_00040009 arg=\"0x3C003D003E003F0040004100\"}}"
  },
  {
    "label": "015",
    "text": "{{anim id=\"15\"}}Capperi!{{delay frames=\"20\"}} Guarda cosa c'è qui!\n{{fun_0003000E arg=\"\"}}{{fun_0002000E arg=\"\"}}{{fun_00030011 arg=\"0x0000\"}}!{{pageBreak}}{{anim id=\"21\"}}Viste le giornate noiose che passa\n{{fun_00010011 arg=\"0x0000\"}}{{delay frames=\"8\"}}.{{delay frames=\"8\"}}.{{delay frames=\"8\"}}.{{delay frames=\"20\"}} almeno il caffè lo terrà\nsveglio! {{delay frames=\"20\"}}{{anim id=\"2\"}}AHAHAH!{{anim id=\"1\"}}{{delay frames=\"15\"}} {{fun_0003000E arg=\"\"}}{{fun_00070005 arg=\"\"}}!"
  },
  {
    "label": "016",
    "text": "{{anim id=\"11\"}}Toh,{{delay frames=\"20\"}} {{fun_0002000E arg=\"\"}}{{fun_00030011 arg=\"0x0000\"}}!{{pageBreak}}{{anim id=\"37\"}}Beh,{{delay frames=\"8\"}} del resto i giroidi sono proprio\ninteressanti!{{delay frames=\"20\"}} E questo sembra\nsuperinteressante!{{delay frames=\"15\"}} {{fun_0003000E arg=\"\"}}{{fun_00070005 arg=\"\"}}!"
  },
  {
    "label": "017",
    "text": "{{fun_00040009 arg=\"0x3C003D003E003F0040004100\"}}"
  },
  {
    "label": "018",
    "text": "{{fun_00040009 arg=\"0x3C003D003E003F0040004100\"}}"
  },
  {
    "label": "019",
    "text": "{{fun_00040009 arg=\"0x3C003D003E003F0040004100\"}}"
  },
  {
    "label": "020",
    "text": "{{anim id=\"21\"}}Tempo fa, {{fun_00010011 arg=\"0x0000\"}} mi aveva\nconsigliato un libro intitolato\n\"{{fun_001D0005 arg=\"0x0000\"}}\"{{delay frames=\"8\"}}.{{delay frames=\"8\"}}.{{delay frames=\"8\"}}.{{delay frames=\"20\"}}\n{{anim id=\"27\"}}Di solito leggo un po' di tutto,\nma ti giuro che quel libro era a dir\npoco illeggibile! Troppo brutto!\n{{anim id=\"11\"}}Non riuscivo a capire se era un libro\nserio o comico{{delay frames=\"8\"}}.{{delay frames=\"8\"}}.{{delay frames=\"8\"}}.{{delay frames=\"20\"}} {{anim id=\"9\"}}Se ci ripenso,\nancora non capisco!{{delay frames=\"20\"}} {{fun_0003000E arg=\"\"}}{{fun_00070005 arg=\"\"}}!"
  },
  {
    "label": "021",
    "text": "{{fun_00040009 arg=\"0x3C003D003E003F0040004100\"}}"
  },
  {
    "label": "022",
    "text": "{{anim id=\"37\"}}Certo che avere in casa{{delay frames=\"8\"}}\n{{fun_0002000E arg=\"\"}}{{fun_00030011 arg=\"0x0000\"}}\nè proprio da radical chic!\n{{anim id=\"21\"}}Secondo me, {{fun_00010011 arg=\"0x0000\"}} vuole fare\nla figura dell'intellettuale a cui non\nimporta nulla dei soldi!{{delay frames=\"20\"}} {{anim id=\"2\"}}AHAHAH!{{anim id=\"1\"}}"
  },
  {
    "label": "023",
    "text": "{{fun_00040009 arg=\"0x3C003D003E003F0040004100\"}}"
  },
  {
    "label": "024",
    "text": "{{anim id=\"21\"}}La dislocazione dei bagni in casa\nè una cosa molto personale.\n{{anim id=\"1\"}}Ognuno trova la sua soluzione!\n{{anim id=\"36\"}}Come? Dici che non sta bene\nparlare di queste cose,{{delay frames=\"20\"}}\n{{fun_00070005 arg=\"\"}}?{{delay frames=\"40\"}}{{anim id=\"37\"}}"
  },
  {
    "label": "025",
    "text": "{{anim id=\"10\"}}Ah, {{fun_00010011 arg=\"0x0000\"}}{{delay frames=\"8\"}}.{{delay frames=\"8\"}}.{{delay frames=\"8\"}}.{{delay frames=\"20\"}} Ora si è messo\nin testa di crearsi un sito personale!{{pageBreak}}{{anim id=\"13\"}}Secondo me non sa neanche\ncos'è un virus!{{delay frames=\"15\"}}{{anim id=\"2\"}} AHAHAH!{{anim id=\"1\"}}{{delay frames=\"40\"}}{{anim id=\"9\"}}"
  },
  {
    "label": "026",
    "text": "{{fun_00040009 arg=\"0x3C003D003E003F0040004100\"}}"
  },
  {
    "label": "027",
    "text": "{{anim id=\"21\"}}Solo perché {{fun_00010011 arg=\"0x0000\"}} ha in casa\n{{fun_0002000E arg=\"\"}}{{fun_00030011 arg=\"0x0000\"}},{{delay frames=\"8\"}}\nnon vuol dire che sappia cucinare!\n{{anim id=\"11\"}}Penso che l'unica cosa che sappia\nfare{{delay frames=\"8\"}}.{{delay frames=\"8\"}}.{{delay frames=\"8\"}}.{{delay frames=\"20\"}}{{fun_00010007 arg=\"\"}}{{anim id=\"35\"}} siano i cereali nel latte\nfreddo!{{pageBreak}}{{anim id=\"27\"}}Non che siano cattivi, ma diciamo\nche non mi autoinviterei per cena!\n{{anim id=\"2\"}}AHAHAH!{{delay frames=\"20\"}} {{fun_0003000E arg=\"\"}}{{fun_00070005 arg=\"\"}}!"
  },
  {
    "label": "028",
    "text": "{{fun_00040009 arg=\"0x3C003D003E003F0040004100\"}}"
  },
  {
    "label": "029",
    "text": "{{fun_00040009 arg=\"0x3C003D003E003F0040004100\"}}"
  },
  {
    "label": "030",
    "text": "{{fun_00040009 arg=\"0x3C003D003E003F0040004100\"}}"
  },
  {
    "label": "031",
    "text": "{{fun_00040009 arg=\"0x3C003D003E003F0040004100\"}}"
  },
  {
    "label": "032",
    "text": "{{anim id=\"9\"}}{{fun_0003000E arg=\"\"}}{{fun_0002000E arg=\"\"}}{{fun_00030011 arg=\"0x0000\"}},\neh{{delay frames=\"8\"}}.{{delay frames=\"8\"}}.{{delay frames=\"8\"}}.?{{delay frames=\"20\"}} {{anim id=\"21\"}}Ah!{{delay frames=\"20\"}} Forse ho capito...{{pageBreak}}Anch'io una volta ho ricevuto una\ncosa del genere in regalo...{{delay frames=\"8\"}} E come\nsi fa a buttar via un regalo?\n{{anim id=\"21\"}}Anche se non ti piace,{{delay frames=\"8\"}} dopo un po'\ndiventa parte del... mobilio!\n{{delay frames=\"15\"}}{{anim id=\"2\"}}AHAHAH!{{anim id=\"1\"}}"
  },
  {
    "label": "033",
    "text": "{{anim id=\"21\"}}Dai, troppo forte!{{delay frames=\"20\"}} {{fun_00010011 arg=\"0x0000\"}} ha\n{{fun_0002000E arg=\"\"}}{{fun_00030011 arg=\"0x0000\"}}!{{delay frames=\"20\"}}\n{{anim id=\"37\"}}Sembra anche ben curat{{fun_0012000E arg=\"0x100002006F00020061000000\"}}!\n{{anim id=\"5\"}}Evvai! Qualcun altro in città che è\nfissato coi bonsai!{{delay frames=\"20\"}} {{fun_0003000E arg=\"\"}}{{fun_00070005 arg=\"\"}}!"
  },
  {
    "label": "034",
    "text": "{{fun_00040009 arg=\"0x3C003D003E003F0040004100\"}}"
  },
  {
    "label": "035",
    "text": "{{anim id=\"21\"}}Ehi{{delay frames=\"8\"}}.{{delay frames=\"8\"}}.{{delay frames=\"8\"}}.{{delay frames=\"20\"}} Forse non serve che te lo dica,\nma non parlare {{fun_0010000E arg=\"\"}} {{fun_00010011 arg=\"0x0000\"}} di\nquest{{fun_0012000E arg=\"0x100002006F00020061000000\"}} {{fun_00030011 arg=\"0x0000\"}}!\n{{anim id=\"9\"}}Non vorrei che si mettesse a parlare\nper ore e ore della sua infanzia\ncome al solito,{{delay frames=\"20\"}} {{fun_00070005 arg=\"\"}}."
  },
  {
    "label": "036",
    "text": "{{anim id=\"21\"}}{{fun_0003000E arg=\"\"}}{{fun_0002000E arg=\"\"}}{{fun_00030011 arg=\"0x0000\"}},\neh{{delay frames=\"8\"}}.{{delay frames=\"8\"}}.{{delay frames=\"8\"}}.?{{delay frames=\"20\"}} Però, {{fun_00010011 arg=\"0x0000\"}} ci sa fare\ncoi mobili!\n{{anim id=\"37\"}}Devo dire che questo oggettino\nè speciale! E bravo, amico mio!"
  },
  {
    "label": "037",
    "text": "{{fun_00040009 arg=\"0x3C003D003E003F0040004100\"}}"
  },
  {
    "label": "038",
    "text": "{{fun_00040009 arg=\"0x3C003D003E003F0040004100\"}}"
  },
  {
    "label": "039",
    "text": "{{fun_00040009 arg=\"0x3C003D003E003F0040004100\"}}"
  },
  {
    "label": "040",
    "text": "{{fun_00040009 arg=\"0x3C003D003E003F0040004100\"}}"
  },
  {
    "label": "041",
    "text": "{{fun_00040009 arg=\"0x3C003D003E003F0040004100\"}}"
  },
  {
    "label": "042",
    "text": "{{fun_00040009 arg=\"0x3C003D003E003F0040004100\"}}"
  },
  {
    "label": "043",
    "text": "{{fun_00040009 arg=\"0x3C003D003E003F0040004100\"}}"
  },
  {
    "label": "044",
    "text": "{{fun_00040009 arg=\"0x3C003D003E003F0040004100\"}}"
  },
  {
    "label": "045",
    "text": ""
  },
  {
    "label": "046",
    "text": ""
  },
  {
    "label": "047",
    "text": ""
  },
  {
    "label": "048",
    "text": ""
  },
  {
    "label": "049",
    "text": ""
  },
  {
    "label": "050",
    "text": ""
  },
  {
    "label": "051",
    "text": ""
  },
  {
    "label": "052",
    "text": ""
  },
  {
    "label": "053",
    "text": ""
  },
  {
    "label": "054",
    "text": ""
  },
  {
    "label": "055",
    "text": ""
  },
  {
    "label": "056",
    "text": ""
  },
  {
    "label": "057",
    "text": ""
  },
  {
    "label": "058",
    "text": ""
  },
  {
    "label": "059",
    "text": ""
  },
  {
    "label": "060",
    "text": "{{anim id=\"21\"}}Visto che {{fun_00010011 arg=\"0x0000\"}} passa così\ntanto tempo a casa,{{anim id=\"37\"}} l'ha arredata\nbene!{{delay frames=\"20\"}} {{anim id=\"2\"}}AHAHAH! {{fun_0003000E arg=\"\"}}{{fun_00070005 arg=\"\"}}!"
  },
  {
    "label": "061",
    "text": "{{anim id=\"15\"}}Attent{{fun_0006000E arg=\"0x02006F0002006100\"}}! Se tocchi qualcosa che\nnon dovresti toccare,{{anim id=\"21\"}} {{fun_00010011 arg=\"0x0000\"}}\nti sbrana{{delay frames=\"8\"}}.{{delay frames=\"8\"}}.{{delay frames=\"8\"}}.{{delay frames=\"20\"}}"
  },
  {
    "label": "062",
    "text": "{{anim id=\"21\"}}I discorsi li porta via il vento.\nI mobili, invece, riflettono eccome\nil carattere di un individuo.\n{{anim id=\"36\"}}Questi mobili riflettono il carattere\ndi {{fun_00010011 arg=\"0x0000\"}} in maniera più che\ncristallina!{{delay frames=\"20\"}} {{fun_0003000E arg=\"\"}}{{fun_00070005 arg=\"\"}}!{{delay frames=\"40\"}}{{anim id=\"37\"}}"
  },
  {
    "label": "063",
    "text": "{{anim id=\"21\"}}Questo posto odora di chiuso{{delay frames=\"8\"}}.{{delay frames=\"8\"}}.{{delay frames=\"8\"}}.{{delay frames=\"20\"}}\n{{anim id=\"15\"}}Secondo me{{delay frames=\"40\"}} {{anim id=\"13\"}}il nostro amico non\napre mai le finestre!{{delay frames=\"20\"}} {{fun_0003000E arg=\"\"}}{{fun_00070005 arg=\"\"}}!{{delay frames=\"40\"}}{{anim id=\"9\"}}"
  },
  {
    "label": "064",
    "text": "{{anim id=\"35\"}}{{fun_00010011 arg=\"0x0000\"}}{{delay frames=\"8\"}}.{{delay frames=\"8\"}}.{{delay frames=\"8\"}}.{{delay frames=\"20\"}} mi pare un po'\na disagio!{{pageBreak}}{{anim id=\"37\"}}Secondo me non è abituato\na ricevere visite!{{delay frames=\"20\"}} {{anim id=\"2\"}}AHAHAH!{{delay frames=\"30\"}}{{anim id=\"37\"}}"
  },
  {
    "label": "065",
    "text": "{{anim id=\"37\"}}L'ultima volta che l'ho vista,\nquesta casa era molto peggio!{{pageBreak}}{{anim id=\"27\"}}Peggio di così, dici? Eh, sì!\nÈ possibile!{{delay frames=\"15\"}} Si sa che al peggio\nnon c'è mai fine!{{delay frames=\"40\"}} {{anim id=\"2\"}}AHAHAH!{{delay frames=\"30\"}}{{anim id=\"37\"}}"
  }
]