﻿[
  {
    "label": "001",
    "text": "{{anim id=\"15\"}}Ah, {{fun_00080005 arg=\"\"}}...{{delay frames=\"20\"}} {{anim id=\"9\"}}Quando sei\npassat{{fun_0006000E arg=\"0x02006F0002006100\"}} qualche giorno fa, non\npotevo parlarti...{{delay frames=\"20\"}} Stavo malissimo!\n{{anim id=\"5\"}}Grazie alla {{color id=\"2\"}}medicina{{color id=\"65535\"}} che mi ha dato\n{{fun_00000011 arg=\"0x0000\"}},{{delay frames=\"8\"}} ora sono una roccia!{{delay frames=\"20\"}}"
  },
  {
    "label": "002",
    "text": "{{anim id=\"15\"}}Senti, {{fun_00080005 arg=\"\"}}...{{delay frames=\"20\"}}\n{{anim id=\"26\"}}Mi vergogno un po' per come\nti ho trattat{{fun_0006000E arg=\"0x02006F0002006100\"}} qualche giorno fa!\n{{anim id=\"38\"}}Ma ora sono come nuovo!\nL'influenza è solo un brutto ricordo!{{delay frames=\"20\"}}{{pageBreak}}{{anim id=\"1\"}}{{fun_0003000E arg=\"\"}}{{fun_00000011 arg=\"0x0000\"}}{{delay frames=\"8\"}} mi ha portato\nuna {{color id=\"2\"}}medicina {{color id=\"65535\"}}strepitosa.{{delay frames=\"20\"}} Mi ha\nrimesso in sesto! {{delay frames=\"20\"}}{{fun_0003000E arg=\"\"}}{{fun_00070005 arg=\"\"}}!"
  },
  {
    "label": "003",
    "text": "{{anim id=\"15\"}}Ah, {{fun_00080005 arg=\"\"}},{{delay frames=\"20\"}} {{anim id=\"36\"}}scusa per\naverti trattato a pesci in faccia\nquando sei passat{{fun_0006000E arg=\"0x02006F0002006100\"}} giorni fa.\n{{anim id=\"5\"}}Ho bevuto una caraffa e mezzo\ndi {{fun_000E0005 arg=\"0x0000\"}}, ho suonato\nl'ukulele per tre ore e per magia...\n{{delay frames=\"8\"}}... mi sono sentito subito meglio!\n{{anim id=\"38\"}}Che storia!{{delay frames=\"20\"}} Quando mi ammalerò\ndi nuovo, saprò cosa fare!"
  },
  {
    "label": "004",
    "text": "Qualche giorno fa {{delay frames=\"8\"}}ho preso\nl'influenza{{delay frames=\"20\"}}... Meno male che poi ho\nricevuto una visita da {{fun_00000011 arg=\"0x0000\"}}.\n{{anim id=\"26\"}}{{delay frames=\"16\"}}Sì, {{fun_00000011 arg=\"0x0000\"}} mi ha portato\nuna {{color id=\"2\"}}medicina {{color id=\"65535\"}}ogni giorno finché\nnon mi sono sentito meglio.{{delay frames=\"20\"}}\nForse penserai che esagero, ma\nmi sono commosso a tal punto che\nmi sono quasi messo a piangere.{{pageBreak}}{{anim id=\"21\"}}Ecco,{{delay frames=\"20\"}} QUESTA è vera amicizia,\n{{delay frames=\"20\"}}{{fun_00070005 arg=\"\"}}!"
  },
  {
    "label": "005",
    "text": "{{anim id=\"9\"}}Cavoli, qualche giorno fa stavo\ncosì male che pensavo\ndi lasciarci le penne.{{pageBreak}}{{anim id=\"11\"}}{{delay frames=\"16\"}}Ma poi {{fun_00000011 arg=\"0x0000\"}} mi ha portato\nuna {{color id=\"2\"}}medicina {{color id=\"65535\"}}al giorno{{delay frames=\"20\"}}\ne mi ha salvato.{{pageBreak}}{{anim id=\"6\"}}Quando parlo di amicizia,{{delay frames=\"30\"}}\n{{anim id=\"35\"}}ecco, parlo di gesti come\nquesto!{{delay frames=\"20\"}} {{fun_0003000E arg=\"\"}}{{fun_00070005 arg=\"\"}}!"
  },
  {
    "label": "006",
    "text": "{{delay frames=\"8\"}}.{{delay frames=\"8\"}}.{{delay frames=\"8\"}}.{{delay frames=\"8\"}}{{anim id=\"5\"}} Evvai!{{delay frames=\"30\"}} Che forte la sensazione{{delay frames=\"8\"}}\ndi poter saltare e giocare e ballare!{{pageBreak}}{{anim id=\"36\"}}Eh sì,{{delay frames=\"8\"}} fino a ieri ero bloccato\na letto.{{fun_00010007 arg=\"\"}} {{anim id=\"9\"}}Non si vede?{{delay frames=\"20\"}} Sono ancora\ntutto pallido in faccia...\n{{anim id=\"26\"}}{{delay frames=\"16\"}}Questa volta ho fatto il bravo\ne ho preso una {{color id=\"2\"}}medicina{{color id=\"65535\"}}.{{pageBreak}}{{anim id=\"37\"}}Ne avevo comprato una scorta,{{delay frames=\"20\"}}\nper sicurezza, sai?! {{fun_0003000E arg=\"\"}}{{delay frames=\"20\"}}{{fun_00070005 arg=\"\"}}!"
  }
]