﻿[
  {
    "label": "001",
    "text": "{{size value=\"75\"}}{{fun_0007000D arg=\"\"}}Non {{fun_0007000D arg=\"\"}}sa{{fun_0007000D arg=\"\"}}reb{{fun_0007000D arg=\"\"}}be {{fun_0007000D arg=\"\"}}bel{{fun_0007000D arg=\"\"}}lo {{fun_0007000D arg=\"\"}}but{{fun_0007000D arg=\"\"}}ta{{fun_0007000D arg=\"\"}}re {{fun_0007000D arg=\"\"}}via {{fun_0007000D arg=\"\"}}lo {{fun_0007000D arg=\"\"}}stress?\n{{fun_0007000D arg=\"\"}}Co{{fun_0007000D arg=\"\"}}me {{fun_0007000D arg=\"\"}}spaz{{fun_0007000D arg=\"\"}}za{{fun_0007000D arg=\"\"}}tu{{fun_0007000D arg=\"\"}}ra, {{fun_0007000D arg=\"\"}}nel {{fun_0007000D arg=\"\"}}ce{{fun_0007000D arg=\"\"}}sti{{fun_0007000D arg=\"\"}}no, {{fun_0007000D arg=\"\"}}yes.\n{{fun_0007000D arg=\"\"}}Nel {{fun_0007000D arg=\"\"}}ce{{fun_0007000D arg=\"\"}}sti{{fun_0007000D arg=\"\"}}no, {{fun_0007000D arg=\"\"}}yes.{{size value=\"100\"}}"
  },
  {
    "label": "002",
    "text": "{{size value=\"75\"}}{{fun_0007000D arg=\"\"}}Tut{{fun_0007000D arg=\"\"}}ti {{fun_0007000D arg=\"\"}}a{{fun_0007000D arg=\"\"}}ma{{fun_0007000D arg=\"\"}}no{{fun_0007000D arg=\"\"}} il{{fun_0007000D arg=\"\"}} vas{{fun_0007000D arg=\"\"}}to {{fun_0007000D arg=\"\"}}blu {{fun_0007000D arg=\"\"}}mar.\n{{fun_0007000D arg=\"\"}}Ma {{fun_0007000D arg=\"\"}}ques{{fun_0007000D arg=\"\"}}to {{fun_0007000D arg=\"\"}}lu{{fun_0007000D arg=\"\"}}po {{fun_0007000D arg=\"\"}}di {{fun_0007000D arg=\"\"}}mar, {{fun_0007000D arg=\"\"}}chi {{fun_0007000D arg=\"\"}}lo {{fun_0007000D arg=\"\"}}po{{fun_0007000D arg=\"\"}}trà {{fun_0007000D arg=\"\"}}amar?\n{{fun_0007000D arg=\"\"}}Chi {{fun_0007000D arg=\"\"}}lo {{fun_0007000D arg=\"\"}}po{{fun_0007000D arg=\"\"}}trà {{fun_0007000D arg=\"\"}}amar?{{size value=\"100\"}}"
  },
  {
    "label": "003",
    "text": "{{size value=\"75\"}}{{fun_0007000D arg=\"\"}}Ho {{fun_0007000D arg=\"\"}}vis{{fun_0007000D arg=\"\"}}to {{fun_0007000D arg=\"\"}}un {{fun_0007000D arg=\"\"}}sacco {{fun_0007000D arg=\"\"}}di {{fun_0007000D arg=\"\"}}albe {{fun_0007000D arg=\"\"}}e {{fun_0007000D arg=\"\"}}tra{{fun_0007000D arg=\"\"}}mon{{fun_0007000D arg=\"\"}}ti.\n{{fun_0007000D arg=\"\"}}E {{fun_0007000D arg=\"\"}}al{{fun_0007000D arg=\"\"}}tret{{fun_0007000D arg=\"\"}}tan{{fun_0007000D arg=\"\"}}ti {{fun_0007000D arg=\"\"}}spe{{fun_0007000D arg=\"\"}}ro {{fun_0007000D arg=\"\"}}di {{fun_0007000D arg=\"\"}}ve{{fun_0007000D arg=\"\"}}der{{fun_0007000D arg=\"\"}}ne, {{fun_0007000D arg=\"\"}}sì.\n{{fun_0007000D arg=\"\"}}Di {{fun_0007000D arg=\"\"}}ve{{fun_0007000D arg=\"\"}}der{{fun_0007000D arg=\"\"}}ne, {{fun_0007000D arg=\"\"}}sì.{{size value=\"100\"}}"
  },
  {
    "label": "004",
    "text": "{{size value=\"75\"}}{{fun_0007000D arg=\"\"}}Non {{fun_0007000D arg=\"\"}}ti {{fun_0007000D arg=\"\"}}pre{{fun_0007000D arg=\"\"}}oc{{fun_0007000D arg=\"\"}}cu{{fun_0007000D arg=\"\"}}pa{{fun_0007000D arg=\"\"}}re {{fun_0007000D arg=\"\"}}se {{fun_0007000D arg=\"\"}}sei {{fun_0007000D arg=\"\"}}cal{{fun_0007000D arg=\"\"}}vo.{{fun_0007000D arg=\"\"}}\n{{fun_0007000D arg=\"\"}}Basta {{fun_0007000D arg=\"\"}}che {{fun_0007000D arg=\"\"}}il cer{{fun_0007000D arg=\"\"}}vel{{fun_0007000D arg=\"\"}}lo {{fun_0007000D arg=\"\"}}sia {{fun_0007000D arg=\"\"}}sa{{fun_0007000D arg=\"\"}}no {{fun_0007000D arg=\"\"}}e {{fun_0007000D arg=\"\"}}sal{{fun_0007000D arg=\"\"}}vo{{fun_0007000D arg=\"\"}}.\n{{fun_0007000D arg=\"\"}}Sano {{fun_0007000D arg=\"\"}}e {{fun_0007000D arg=\"\"}}sal{{fun_0007000D arg=\"\"}}vo.{{size value=\"100\"}}"
  },
  {
    "label": "005",
    "text": "{{size value=\"75\"}}{{fun_0007000D arg=\"\"}}Se {{fun_0007000D arg=\"\"}}af{{fun_0007000D arg=\"\"}}fon{{fun_0007000D arg=\"\"}}dia{{fun_0007000D arg=\"\"}}mo, {{fun_0007000D arg=\"\"}}non {{fun_0007000D arg=\"\"}}ti {{fun_0007000D arg=\"\"}}preoc{{fun_0007000D arg=\"\"}}cu{{fun_0007000D arg=\"\"}}par,\n{{fun_0007000D arg=\"\"}}il {{fun_0007000D arg=\"\"}}mio {{fun_0007000D arg=\"\"}}gu{{fun_0007000D arg=\"\"}}scio {{fun_0007000D arg=\"\"}}può{{fun_0007000D arg=\"\"}} far {{fun_0007000D arg=\"\"}}da {{fun_0007000D arg=\"\"}}sal{{fun_0007000D arg=\"\"}}va{{fun_0007000D arg=\"\"}}gen{{fun_0007000D arg=\"\"}}te,\n{{fun_0007000D arg=\"\"}}da {{fun_0007000D arg=\"\"}}sal{{fun_0007000D arg=\"\"}}va{{fun_0007000D arg=\"\"}}gen{{fun_0007000D arg=\"\"}}te.{{size value=\"100\"}}"
  },
  {
    "label": "006",
    "text": "{{size value=\"75\"}}{{fun_0007000D arg=\"\"}}Tut{{fun_0007000D arg=\"\"}}to {{fun_0007000D arg=\"\"}}il {{fun_0007000D arg=\"\"}}dì {{fun_0007000D arg=\"\"}}passo {{fun_0007000D arg=\"\"}}a {{fun_0007000D arg=\"\"}}na{{fun_0007000D arg=\"\"}}vi{{fun_0007000D arg=\"\"}}ga{{fun_0007000D arg=\"\"}}re.\n{{fun_0007000D arg=\"\"}}Non {{fun_0007000D arg=\"\"}}su {{fun_0007000D arg=\"\"}}In{{fun_0007000D arg=\"\"}}ter{{fun_0007000D arg=\"\"}}net, {{fun_0007000D arg=\"\"}}ma, {{fun_0007000D arg=\"\"}}nel {{fun_0007000D arg=\"\"}}va{{fun_0007000D arg=\"\"}}sto {{fun_0007000D arg=\"\"}}ma{{fun_0007000D arg=\"\"}}re,\n{{fun_0007000D arg=\"\"}}nel {{fun_0007000D arg=\"\"}}va{{fun_0007000D arg=\"\"}}sto {{fun_0007000D arg=\"\"}}ma{{fun_0007000D arg=\"\"}}re.{{size value=\"100\"}}"
  },
  {
    "label": "007",
    "text": "{{size value=\"75\"}}{{fun_0007000D arg=\"\"}}An{{fun_0007000D arg=\"\"}}che {{fun_0007000D arg=\"\"}}se {{fun_0007000D arg=\"\"}}t'ha {{fun_0007000D arg=\"\"}}mol{{fun_0007000D arg=\"\"}}la{{fun_0007000D arg=\"\"}}to {{fun_0007000D arg=\"\"}}e {{fun_0007000D arg=\"\"}}non {{fun_0007000D arg=\"\"}}sai {{fun_0007000D arg=\"\"}}per{{fun_0007000D arg=\"\"}}ché,\n{{fun_0007000D arg=\"\"}}tri{{fun_0007000D arg=\"\"}}ste {{fun_0007000D arg=\"\"}}non {{fun_0007000D arg=\"\"}}es{{fun_0007000D arg=\"\"}}ser {{fun_0007000D arg=\"\"}}dai, {{fun_0007000D arg=\"\"}}Remo {{fun_0007000D arg=\"\"}}è {{fun_0007000D arg=\"\"}}qui {{fun_0007000D arg=\"\"}}per {{fun_0007000D arg=\"\"}}te.\n{{fun_0007000D arg=\"\"}}Remo {{fun_0007000D arg=\"\"}}è {{fun_0007000D arg=\"\"}}qui {{fun_0007000D arg=\"\"}}per {{fun_0007000D arg=\"\"}}te.{{size value=\"100\"}}"
  },
  {
    "label": "008",
    "text": "{{size value=\"75\"}}{{fun_0007000D arg=\"\"}}I {{fun_0007000D arg=\"\"}}ce{{fun_0007000D arg=\"\"}}tri{{fun_0007000D arg=\"\"}}oli {{fun_0007000D arg=\"\"}}so{{fun_0007000D arg=\"\"}}no {{fun_0007000D arg=\"\"}}buo{{fun_0007000D arg=\"\"}}ni {{fun_0007000D arg=\"\"}}a {{fun_0007000D arg=\"\"}}fet{{fun_0007000D arg=\"\"}}te.\n{{fun_0007000D arg=\"\"}}Pur{{fun_0007000D arg=\"\"}}trop{{fun_0007000D arg=\"\"}}po {{fun_0007000D arg=\"\"}}fan{{fun_0007000D arg=\"\"}}no {{fun_0007000D arg=\"\"}}fa{{fun_0007000D arg=\"\"}}re {{fun_0007000D arg=\"\"}}tan{{fun_0007000D arg=\"\"}}te {{fun_0007000D arg=\"\"}}puz{{fun_0007000D arg=\"\"}}zet{{fun_0007000D arg=\"\"}}te.{{fun_0007000D arg=\"\"}}\nTan{{fun_0007000D arg=\"\"}}te {{fun_0007000D arg=\"\"}}puz{{fun_0007000D arg=\"\"}}zet{{fun_0007000D arg=\"\"}}te.{{size value=\"100\"}}"
  },
  {
    "label": "009",
    "text": "{{size value=\"75\"}}{{fun_0007000D arg=\"\"}}Di {{fun_0007000D arg=\"\"}}so{{fun_0007000D arg=\"\"}}li{{fun_0007000D arg=\"\"}}to {{fun_0007000D arg=\"\"}}can{{fun_0007000D arg=\"\"}}to {{fun_0007000D arg=\"\"}}di {{fun_0007000D arg=\"\"}}quel{{fun_0007000D arg=\"\"}}lo {{fun_0007000D arg=\"\"}}che {{fun_0007000D arg=\"\"}}mi {{fun_0007000D arg=\"\"}}vien,\n{{fun_0007000D arg=\"\"}}ma {{fun_0007000D arg=\"\"}}cer{{fun_0007000D arg=\"\"}}ti {{fun_0007000D arg=\"\"}}ar{{fun_0007000D arg=\"\"}}go{{fun_0007000D arg=\"\"}}menti {{fun_0007000D arg=\"\"}}non {{fun_0007000D arg=\"\"}}van{{fun_0007000D arg=\"\"}}no {{fun_0007000D arg=\"\"}}ben...\n{{fun_0007000D arg=\"\"}}non {{fun_0007000D arg=\"\"}}van{{fun_0007000D arg=\"\"}}no {{fun_0007000D arg=\"\"}}ben!{{size value=\"100\"}}"
  },
  {
    "label": "010",
    "text": "{{size value=\"75\"}}{{fun_0007000D arg=\"\"}}Da un {{fun_0007000D arg=\"\"}}bel {{fun_0007000D arg=\"\"}}sogno {{fun_0007000D arg=\"\"}}mi {{fun_0007000D arg=\"\"}}son {{fun_0007000D arg=\"\"}}do{{fun_0007000D arg=\"\"}}vu{{fun_0007000D arg=\"\"}}to {{fun_0007000D arg=\"\"}}sve{{fun_0007000D arg=\"\"}}gliar...\n{{fun_0007000D arg=\"\"}}Sta{{fun_0007000D arg=\"\"}}not{{fun_0007000D arg=\"\"}}te {{fun_0007000D arg=\"\"}}in quel {{fun_0007000D arg=\"\"}}so{{fun_0007000D arg=\"\"}}gno {{fun_0007000D arg=\"\"}}vo{{fun_0007000D arg=\"\"}}glio {{fun_0007000D arg=\"\"}}tor{{fun_0007000D arg=\"\"}}nar.\n{{fun_0007000D arg=\"\"}}Oh sì,{{fun_0007000D arg=\"\"}} ci voglio{{fun_0007000D arg=\"\"}} proprio {{fun_0007000D arg=\"\"}}tor{{fun_0007000D arg=\"\"}}nar!{{size value=\"100\"}}"
  }
]