﻿[
  {
    "label": "001",
    "text": "{{anim id=\"38\"}}Giro girotondo! {{delay frames=\"20\"}}{{fun_0006000E arg=\"0x100055006E0020006E0075006F0076006F00120055006E00610020006E0075006F0076006100\"}}\namichett{{fun_0006000E arg=\"0x02006F0002006100\"}} è venut{{fun_0006000E arg=\"0x02006F0002006100\"}} a giocare\ncon me!{{delay frames=\"20\"}}{{pageBreak}}Giochiamo al supermercato!\nIo faccio la cliente, {{delay frames=\"20\"}}quindi tu\nmi devi vendere qualcosa, occhei?"
  },
  {
    "label": "002",
    "text": ""
  },
  {
    "label": "003",
    "text": "{{anim id=\"1\"}}Giochiamo al supermercato!{{delay frames=\"20\"}}\nFacciamo che io sono la cliente,\nocchei?! E tu mi vendi qualcosa."
  },
  {
    "label": "004",
    "text": "Ehi, amichett{{fun_0006000E arg=\"0x02006F0002006100\"}}!{{delay frames=\"20\"}} Ricordati che\nstiamo giocando al supermercato!{{pageBreak}}{{anim id=\"1\"}}Vorrei dei fiori profumati,\nun po' di frutta fresca\ne del pesce, occhei?!"
  },
  {
    "label": "005",
    "text": ""
  },
  {
    "label": "006",
    "text": "Giro girotondo! Mi hai portato tante\ncose buone!{{fun_00010007 arg=\"\"}} {{anim id=\"38\"}}Allora, oggi il tuo\nsupermercato è aperto?!{{fun_0005000F arg=\"0x15002800\"}}\nSiamo aperti!\nSiamo chiusi."
  },
  {
    "label": "007",
    "text": "{{delay frames=\"5\"}}{{anim id=\"18\"}}{{delay frames=\"10\"}}.{{delay frames=\"5\"}}.{{delay frames=\"5\"}}.{{delay frames=\"20\"}} {{anim id=\"9\"}}Ma allora non siamo {{fun_0006000E arg=\"0x0A0061006D006900630069000C0061006D006900630068006500\"}}...{{delay frames=\"30\"}}\n{{anim id=\"14\"}}Sei...{{delay frames=\"40\"}} sei cattiv{{fun_0006000E arg=\"0x02006F0002006100\"}}!"
  },
  {
    "label": "008",
    "text": "{{anim id=\"3\"}}HIP HIP URRÀ!{{fun_00010007 arg=\"\"}}\n{{anim id=\"11\"}}Occhei. Allora vorrei{{delay frames=\"8\"}}.{{delay frames=\"8\"}}.{{delay frames=\"8\"}}.{{delay frames=\"40\"}} vorrei{{delay frames=\"8\"}}.{{delay frames=\"8\"}}.{{delay frames=\"8\"}}."
  },
  {
    "label": "009",
    "text": ""
  },
  {
    "label": "010",
    "text": "{{anim id=\"31\"}}Vorrei {{fun_0012000E arg=\"0x10000C0069006C002000740075006F000C006C00610020007400750061000000\"}}\n{{fun_00030011 arg=\"0x0000\"}}!{{delay frames=\"20\"}}\nTi prego, ti prego, ti preeego!\nTi darò {{color id=\"2\"}}{{fun_000C0004 arg=\"0x0000\"}} {{fun_0009000E arg=\"0x00CD10007300740065006C006C0069006E00650010007300740065006C006C0069006E00610010007300740065006C006C0069006E006500\"}}{{color id=\"65535\"}}!\nGiurin giurello.{{fun_0008000D arg=\"0x02CD\"}}{{fun_0005000F arg=\"0x15002800\"}}\nAffare fatto!\nNo, non ci sto!"
  },
  {
    "label": "011",
    "text": "Voglio tutto, tutto e tutto!{{delay frames=\"20\"}}{{pageBreak}}Ti prego!{{delay frames=\"20\"}} Ti prego, ti preeego!{{delay frames=\"20\"}}\nPosso? Ti darò {{color id=\"2\"}}{{fun_000C0004 arg=\"0x0000\"}} {{fun_0009000E arg=\"0x00CD10007300740065006C006C0069006E00650010007300740065006C006C0069006E00610010007300740065006C006C0069006E006500\"}}{{color id=\"65535\"}}!\nGiurin giurello!{{fun_0008000D arg=\"0x02CD\"}}{{fun_0005000F arg=\"0x15002800\"}}\nAffare fatto!\nNo, non ci sto!"
  },
  {
    "label": "012",
    "text": ""
  },
  {
    "label": "013",
    "text": "{{anim id=\"3\"}}GIRO GIROTONDO!{{delay frames=\"15\"}} Grazie\namichett{{fun_0006000E arg=\"0x02006F0002006100\"}}!{{fun_00010007 arg=\"\"}} Mi sono divertita\ntanto, tanto!{{pageBreak}}Spero che giocheremo presto\nal supermercato un'altra volta!"
  },
  {
    "label": "014",
    "text": "{{delay frames=\"5\"}}{{anim id=\"19\"}}{{delay frames=\"10\"}}.{{delay frames=\"5\"}}.{{delay frames=\"5\"}}{{delay frames=\"5\"}}.{{fun_00010007 arg=\"\"}} Hai le tasche piene! Non\nc'è più posto per altri soldi!{{pageBreak}}Io non so tante cose sui soldi.\nPapà però li mette sempre\nnello {{color id=\"2\"}}{{delay frames=\"20\"}}Stellomat{{color id=\"65535\"}}... o come si chiama."
  },
  {
    "label": "015",
    "text": ""
  }
]