﻿[
  {
    "label": "001",
    "text": "{{anim id=\"1\"}}Ieri era il Dì della marmotta.{{delay frames=\"10\"}} È già\npassato!{{fun_00010007 arg=\"\"}} {{anim id=\"5\"}}Spero che l'anno prossimo\nci divertiremo ancora di più!"
  },
  {
    "label": "002",
    "text": "{{anim id=\"1\"}}Sono certa che, adesso che abbiamo\nfesteggiato il Dì della marmotta,\nci aspetta una primavera fuffissima!"
  },
  {
    "label": "003",
    "text": "{{anim id=\"5\"}}L'inizio di una nuova stagione\nè sempre un momento elettrizzante!"
  },
  {
    "label": "004",
    "text": "{{anim id=\"1\"}}{{fun_0003000E arg=\"\"}}{{fun_00050005 arg=\"\"}} sta per entrare\nnella primavera.{{delay frames=\"8\"}} Non è piacevole\nvisitare una città in questo periodo?"
  },
  {
    "label": "005",
    "text": "La primavera è ormai alle porte,\nma fa ancora un po' freschino qui\n{{fun_0010000E arg=\"\"}} {{fun_00050005 arg=\"\"}}.{{delay frames=\"15\"}} Buon divertimento!"
  },
  {
    "label": "006",
    "text": "{{anim id=\"1\"}}Spero che ti divertirai oggi\na festeggiare insieme ai nostri\ncittadini! Loro ne sono entusiasti!{{anim id=\"38\"}}"
  },
  {
    "label": "007",
    "text": ""
  },
  {
    "label": "008",
    "text": ""
  },
  {
    "label": "009",
    "text": ""
  },
  {
    "label": "010",
    "text": ""
  },
  {
    "label": "011",
    "text": "{{anim id=\"16\"}}Accifuffoli,{{delay frames=\"20\"}} {{anim id=\"1\"}}quanta strada hai fatto\nper arrivare fino a qui!{{delay frames=\"10\"}} Grazie per\nessere venut{{fun_0006000E arg=\"0x02006F0002006100\"}} a festeggiare con noi!\n{{anim id=\"37\"}}Oggi verrà predetto il giorno\nin cui arriverà la primavera. In altre\nparole, è il {{color id=\"2\"}}Dì della marmotta{{color id=\"65535\"}}!"
  },
  {
    "label": "012",
    "text": "{{anim id=\"1\"}}Spero tanto che ti divertirai\na festeggiare il Dì della marmotta\nalla maniera di {{fun_00050005 arg=\"\"}}!"
  },
  {
    "label": "013",
    "text": "{{anim id=\"1\"}}Ho preparato un regalino speciale\nper il Dì della marmotta.{{pageBreak}}{{anim id=\"37\"}}Quando avrai abbastanza spazio\nnelle tue tasche, ripassa da me!"
  },
  {
    "label": "014",
    "text": "{{anim id=\"1\"}}Ho preparato un regalino speciale\nper il Dì della marmotta.{{delay frames=\"10\"}}\n{{anim id=\"38\"}}Vuoi vedere di cosa si tratta?"
  },
  {
    "label": "015",
    "text": "{{anim id=\"1\"}}È un {{color id=\"2\"}}modellino di Resetti{{color id=\"65535\"}}!{{fun_00010007 arg=\"\"}}\nNon è un oggetto azzeccatissimo\nper celebrare il Dì della marmotta?"
  },
  {
    "label": "016",
    "text": "{{anim id=\"16\"}}Oh!{{delay frames=\"20\"}} {{anim id=\"1\"}}I miei {{color id=\"2\"}}regali speciali\nper il{{color id=\"65535\"}}{{color id=\"2\"}}{{color id=\"2\"}} {{color id=\"2\"}}Dì della marmotta{{color id=\"65535\"}}, dici?{{delay frames=\"10\"}}\nLi distribuirò per tutta la giornata.\n{{anim id=\"37\"}}Torna da me quando avrai\nabbastanza spazio nelle tue tasche!"
  },
  {
    "label": "017",
    "text": "{{anim id=\"16\"}}Accifuffoli!{{delay frames=\"20\"}} {{anim id=\"37\"}}Vuoi dire che non ti ho\nancora dato il mio {{color id=\"2\"}}regalo speciale\nper il {{color id=\"65535\"}}{{color id=\"2\"}}Dì della marmotta{{color id=\"65535\"}}?!\n{{anim id=\"38\"}}Beh, allora...{{delay frames=\"10\"}} Ecco qua!\nSpero che ti piaccia!"
  },
  {
    "label": "018",
    "text": ""
  },
  {
    "label": "019",
    "text": ""
  },
  {
    "label": "020",
    "text": ""
  },
  {
    "label": "021",
    "text": "{{anim id=\"1\"}}Oh, hello, {{fun_00000005 arg=\"\"}}.{{delay frames=\"30\"}} Today's the\nday we guess when spring will arrive\nin {{fun_00050005 arg=\"\"}}.{{delay frames=\"15\"}} It's {{color id=\"2\"}}Groundhog Day{{color id=\"65535\"}}!"
  },
  {
    "label": "022",
    "text": "{{anim id=\"1\"}}I do hope spring gets here soon!"
  },
  {
    "label": "023",
    "text": "{{anim id=\"1\"}}I've prepared a little something\nto celebrate {{color id=\"2\"}}Groundhog Day{{color id=\"65535\"}}.{{delay frames=\"10\"}}\n{{anim id=\"38\"}}Would you like to see, maybe?"
  },
  {
    "label": "024",
    "text": "{{anim id=\"1\"}}It's a {{color id=\"2\"}}Resetti model{{color id=\"65535\"}}!{{fun_00010007 arg=\"\"}}\n{{anim id=\"5\"}}I can't think of a better way to\nreally celebrate {{color id=\"2\"}}Groundhog Day{{color id=\"65535\"}}!"
  },
  {
    "label": "025",
    "text": "{{anim id=\"1\"}}Oh, Mayor!{{delay frames=\"20\"}} Today's the day we try\nto guess when spring will arrive.{{delay frames=\"15\"}}\nIt's {{color id=\"2\"}}Groundhog Day{{color id=\"65535\"}}!"
  },
  {
    "label": "026",
    "text": "{{anim id=\"1\"}}Today would be a nice day for a\nwalk around town as you try to\nguess when spring will arrive!"
  },
  {
    "label": "027",
    "text": "{{anim id=\"1\"}}I've prepared a little something\nto celebrate {{color id=\"2\"}}Groundhog Day{{color id=\"65535\"}}.{{pageBreak}}{{anim id=\"37\"}}Do stop by when you've made a bit\nof room in your pockets!"
  },
  {
    "label": "028",
    "text": "{{anim id=\"1\"}}That's why I've prepared a special\nlittle something to really celebrate\n{{color id=\"2\"}}Groundhog Day{{color id=\"65535\"}}!"
  },
  {
    "label": "029",
    "text": "{{anim id=\"1\"}}It's a {{color id=\"2\"}}Resetti model{{color id=\"65535\"}}!{{fun_00010007 arg=\"\"}}\nPlease take it in celebration of our\ntown's {{color id=\"2\"}}Groundhog Day{{color id=\"65535\"}}!"
  },
  {
    "label": "030",
    "text": ""
  },
  {
    "label": "031",
    "text": "{{anim id=\"1\"}}Even though spring might still be a\nways away,{{delay frames=\"15\"}} I feel like if you close\nyour eyes and listen carefully...{{delay frames=\"8\"}}\nyou can hear the pitter-patter of\nfootsteps of the new season\nhurrying to arrive!"
  },
  {
    "label": "032",
    "text": "{{anim id=\"1\"}}Mayor,{{delay frames=\"10\"}} I think all of the residents\nhad a good time today!{{pageBreak}}{{anim id=\"3\"}}I believe we'll get an amazing spring\nin {{fun_00050005 arg=\"\"}} this year too!{{delay frames=\"8\"}}{{anim id=\"37\"}}"
  },
  {
    "label": "033",
    "text": "{{anim id=\"1\"}}I hope today is a fun {{color id=\"2\"}}Groundhog Day{{color id=\"65535\"}}\nfor everyone! Why wouldn't it be?"
  },
  {
    "label": "034",
    "text": "{{anim id=\"37\"}}I'm not really sure about all the\ndetails,{{delay frames=\"8\"}} but apparently today is\n\"mole fortune-telling day.\"\nIt's where the moles guess the\ncoming of spring, or something\nlike that.\n{{anim id=\"21\"}}You're supposed to ask a mole when\nthe cold winter will come to an end.{{pageBreak}}{{anim id=\"11\"}}I wonder if moles are really capable\nof knowing such things{{delay frames=\"10\"}}.{{delay frames=\"10\"}}.{{delay frames=\"10\"}}.{{pageBreak}}{{anim id=\"1\"}}I bet the moles just watch the\nweather report on TV!"
  },
  {
    "label": "035",
    "text": "{{anim id=\"1\"}}I hope spring comes to {{fun_00050005 arg=\"\"}}\nreally soon!"
  }
]