﻿[
  {
    "label": "001",
    "text": "Ah, benvenut{{fun_0006000E arg=\"0x02006F0002006100\"}}!"
  },
  {
    "label": "002",
    "text": "{{anim id=\"1\"}}Grazie! E torni presto a trovarci!"
  },
  {
    "label": "003",
    "text": "Prego, dia pure un'occhiata\nagli articoli esposti."
  },
  {
    "label": "004",
    "text": "Lei ha proprio l'aria di una persona\nche ama camminare. {{delay frames=\"20\"}}Beh, si trova\nnel posto giusto!"
  },
  {
    "label": "005",
    "text": "{{anim id=\"1\"}}Abbiamo scarpe, calze e calzini\nper tutti i tipi di piedi! Lunghi\ne corti, larghi e stretti!"
  },
  {
    "label": "006",
    "text": "{{delay frames=\"8\"}}.{{delay frames=\"8\"}}.{{delay frames=\"8\"}}.{{delay frames=\"8\"}}{{fun_000B0007 arg=\"\"}}{{anim id=\"15\"}}{{delay frames=\"15\"}} UAU!{{delay frames=\"20\"}} Ma lei... è il sindaco!{{delay frames=\"15\"}}\nQui!{{delay frames=\"20\"}} Nel mio negozio!\nMa che piacere vederla!\nIo sono {{color id=\"4\"}}Sciuscià{{color id=\"65535\"}}...{{fun_00010007 arg=\"\"}} e questo è\nil mio negozietto di calzature.{{anim id=\"1\"}}\n{{delay frames=\"10\"}}Prego, dia pure un'occhiata in giro."
  },
  {
    "label": "007",
    "text": "{{delay frames=\"8\"}}.{{delay frames=\"8\"}}.{{delay frames=\"8\"}}.{{delay frames=\"8\"}}{{anim id=\"15\"}}{{delay frames=\"15\"}} UAU!{{delay frames=\"20\"}}\n{{fun_0006000E arg=\"0x040055006E00060055006E006100\"}} {{fun_0006000E arg=\"0x0A006E0075006F0076006F000A006E0075006F0076006100\"}} cliente!{{pageBreak}}{{anim id=\"0\"}}Ha bisogno di scarpe o calzini? Sì?\nBeh, questo negozio fa al caso suo.\nSe le serve il mio aiuto, mi chiami!"
  },
  {
    "label": "008",
    "text": "{{delay frames=\"8\"}}.{{delay frames=\"8\"}}.{{delay frames=\"8\"}}.{{delay frames=\"8\"}}{{fun_000B0007 arg=\"\"}}{{anim id=\"15\"}}{{delay frames=\"15\"}} UAU!{{delay frames=\"20\"}} Ma lei... è il capo!{{delay frames=\"15\"}} {{anim id=\"23\"}}Ah, no...\nIl sindaco!?{{delay frames=\"15\"}}{{anim id=\"0\"}} Ad ogni modo...\nLei è qui! Nel mio negozio!!!\nIo sono {{color id=\"4\"}}Sciuscià{{color id=\"65535\"}}... {{fun_00010007 arg=\"\"}}e questo è\nil mio negozietto di calzature.{{anim id=\"1\"}}\n{{delay frames=\"10\"}}Prego, dia pure un'occhiata in giro."
  },
  {
    "label": "009",
    "text": "{{delay frames=\"8\"}}.{{delay frames=\"8\"}}.{{delay frames=\"8\"}}.{{delay frames=\"8\"}}{{anim id=\"15\"}}{{delay frames=\"15\"}} UAU!{{delay frames=\"20\"}}\n{{fun_0006000E arg=\"0x040055006E00060055006E006100\"}} {{fun_0006000E arg=\"0x0A006E0075006F0076006F000A006E0075006F0076006100\"}} cliente!{{pageBreak}}{{anim id=\"0\"}}Ha bisogno di scarpe o calzini? Sì?\nBeh, questo negozio fa al caso suo.\nSe le serve il mio aiuto, mi chiami!"
  },
  {
    "label": "010",
    "text": "Qualcosa ha catturato\nla sua attenzione?"
  },
  {
    "label": "011",
    "text": "Ah, {{fun_0002000E arg=\"\"}}{{fun_00030011 arg=\"0x0000\"}}!{{fun_00010007 arg=\"\"}}\nE così le piace lo stile\n{{fun_00230005 arg=\"0x00CD\"}}, eh?"
  },
  {
    "label": "012",
    "text": "Oh, {{fun_0002000E arg=\"\"}}{{fun_00030011 arg=\"0x0000\"}}.{{fun_00010007 arg=\"\"}}\nLo stile {{fun_00230005 arg=\"0x00CD\"}} fa proprio\nper lei!"
  },
  {
    "label": "013",
    "text": "Uau, {{fun_0002000E arg=\"\"}}{{fun_00030011 arg=\"0x0000\"}}!{{fun_00010007 arg=\"\"}}\nPiace anche a me lo stile\n{{fun_00230005 arg=\"0x00CD\"}}!"
  },
  {
    "label": "014",
    "text": "Ah, {{fun_0002000E arg=\"\"}}{{fun_00030011 arg=\"0x0000\"}}.{{fun_00010007 arg=\"\"}}\nLo stile {{fun_00230005 arg=\"0x00CD\"}} è sempre\nuna buona scelta!"
  },
  {
    "label": "015",
    "text": "Ah, {{fun_0002000E arg=\"\"}}{{fun_00030011 arg=\"0x0000\"}}.{{fun_00010007 arg=\"\"}}\nChe stile {{fun_00230005 arg=\"0x00CD\"}}!"
  },
  {
    "label": "016",
    "text": "Benissimo, allora fanno\n{{color id=\"2\"}}{{fun_000C0004 arg=\"0x0000\"}} stelline{{color id=\"65535\"}}.{{delay frames=\"15\"}}\nProcede con l'acquisto?{{fun_0008000D arg=\"0x02CD\"}}{{fun_0005000F arg=\"0x15002800\"}}\nSì, ecco qua!\nNo, grazie."
  },
  {
    "label": "017",
    "text": "Cambiato idea? Nessun problema!"
  },
  {
    "label": "018",
    "text": "{{fun_0006000E arg=\"0x140049006C0020007300690067006E006F007200650014004C00610020007300690067006E006F0072006100\"}} sembra un po' a corto\ndi stelline. {{delay frames=\"40\"}}{{anim id=\"34\"}}Dura la recessione, {{delay frames=\"20\"}}eh?{{delay frames=\"20\"}}\n{{size value=\"75\"}}Sigh{{delay frames=\"12\"}}.{{delay frames=\"12\"}}.{{delay frames=\"12\"}}.{{size value=\"100\"}}"
  },
  {
    "label": "019",
    "text": "{{delay frames=\"15\"}}{{anim id=\"15\"}}{{delay frames=\"15\"}}Oh, no!{{delay frames=\"15\"}} Purtroppo non ha più\nspazio per portare altri oggetti!"
  },
  {
    "label": "020",
    "text": "{{anim id=\"44\"}}Ah, adoro il suono della mia cassa!\n{{delay frames=\"50\"}}Ahem, la ringrazio per l'acquisto."
  },
  {
    "label": "021",
    "text": "{{anim id=\"1\"}}Una scelta eccellente!"
  },
  {
    "label": "022",
    "text": "Ripongo le scarpe che stava\nportando prima tra le sue\ncose, va bene?"
  },
  {
    "label": "023",
    "text": "{{anim id=\"1\"}}Cosa ne pensa? Ma soprattutto,\ncosa ne pensano i suoi piedi?{{fun_00010007 arg=\"\"}}\nIl prezzo{{delay frames=\"10\"}} è di {{color id=\"2\"}}{{fun_000C0004 arg=\"0x0000\"}} stelline{{color id=\"65535\"}}.{{fun_0008000D arg=\"0x02CD\"}}{{fun_0006000F arg=\"0x150015002800\"}}\nCompro!\nCompro e tengo ai piedi!\nNon mi interessa."
  },
  {
    "label": "024",
    "text": ""
  },
  {
    "label": "025",
    "text": ""
  },
  {
    "label": "026",
    "text": "Il prezzo è di {{color id=\"2\"}}{{fun_000C0004 arg=\"0x0000\"}} stelline{{color id=\"65535\"}}.{{delay frames=\"15\"}}\nLe interessa?{{fun_00010007 arg=\"\"}} Prima forse\n{{anim id=\"1\"}}vorrebbe fare una prova?{{fun_0008000D arg=\"0x02CD\"}}{{fun_0006000F arg=\"0x150000002800\"}}\nCompro!\nMeglio fare una prova.\nNon mi interessa."
  },
  {
    "label": "027",
    "text": ""
  },
  {
    "label": "028",
    "text": ""
  },
  {
    "label": "029",
    "text": "{{anim id=\"1\"}}Grazie, grazie davvero!{{delay frames=\"20\"}} Visto che\nancora non aveva niente ai piedi...\n{{delay frames=\"10\"}}ha fatto la scelta giusta!"
  },
  {
    "label": "030",
    "text": "Può provare le scarpe,{{delay frames=\"10\"}} ma non\ncalze o calzini.{{fun_00010007 arg=\"\"}} Sono terribilmente\nspiacente!"
  }
]