﻿[
  {
    "label": "001",
    "text": "{{size value=\"75\"}}{{fun_0007000D arg=\"\"}}Mia {{fun_0007000D arg=\"\"}}fi{{fun_0007000D arg=\"\"}}glia {{fun_0007000D arg=\"\"}}è {{fun_0007000D arg=\"\"}}la {{fun_0007000D arg=\"\"}}lu{{fun_0007000D arg=\"\"}}ce {{fun_0007000D arg=\"\"}}dei {{fun_0007000D arg=\"\"}}miei{{fun_0007000D arg=\"\"}} occhi.\n{{fun_0007000D arg=\"\"}}Il {{fun_0007000D arg=\"\"}}mio{{fun_0007000D arg=\"\"}} van{{fun_0007000D arg=\"\"}}to{{fun_0007000D arg=\"\"}} e {{fun_0007000D arg=\"\"}}il {{fun_0007000D arg=\"\"}}mio {{fun_0007000D arg=\"\"}}or{{fun_0007000D arg=\"\"}}go{{fun_0007000D arg=\"\"}}glio.{{pageBreak}}{{fun_0007000D arg=\"\"}}Qua{{fun_0007000D arg=\"\"}}ndo {{fun_0007000D arg=\"\"}}uscì {{fun_0007000D arg=\"\"}}dalla {{fun_0007000D arg=\"\"}}pan{{fun_0007000D arg=\"\"}}cia {{fun_0007000D arg=\"\"}}di {{fun_0007000D arg=\"\"}}mam{{fun_0007000D arg=\"\"}}mà {{fun_0007000D arg=\"\"}}la {{fun_0007000D arg=\"\"}}pri{{fun_0007000D arg=\"\"}}ma\n{{fun_0007000D arg=\"\"}}pa{{fun_0007000D arg=\"\"}}rola {{fun_0007000D arg=\"\"}}che {{fun_0007000D arg=\"\"}}pro{{fun_0007000D arg=\"\"}}nun{{fun_0007000D arg=\"\"}}ciò {{fun_0007000D arg=\"\"}}fu...{{fun_0007000D arg=\"\"}} \"gam{{fun_0007000D arg=\"\"}}be{{fun_0007000D arg=\"\"}}ret{{fun_0007000D arg=\"\"}}to\"!\n{{size value=\"100\"}}"
  },
  {
    "label": "002",
    "text": "{{size value=\"75\"}}{{fun_0007000D arg=\"\"}}Tut{{fun_0007000D arg=\"\"}}ti{{fun_0007000D arg=\"\"}} so{{fun_0007000D arg=\"\"}}gna{{fun_0007000D arg=\"\"}}m {{fun_0007000D arg=\"\"}}che{{fun_0007000D arg=\"\"}} le{{fun_0007000D arg=\"\"}} don{{fun_0007000D arg=\"\"}}ne {{fun_0007000D arg=\"\"}}ca{{fun_0007000D arg=\"\"}}dan {{fun_0007000D arg=\"\"}}ai {{fun_0007000D arg=\"\"}}no{{fun_0007000D arg=\"\"}}stri{{fun_0007000D arg=\"\"}}\npiedi, {{fun_0007000D arg=\"\"}} ma...{{fun_0007000D arg=\"\"}} la{{fun_0007000D arg=\"\"}} ve{{fun_0007000D arg=\"\"}}do {{fun_0007000D arg=\"\"}}du{{fun_0007000D arg=\"\"}}ra.{{pageBreak}}{{fun_0007000D arg=\"\"}}Le {{fun_0007000D arg=\"\"}}pupe {{fun_0007000D arg=\"\"}}non{{fun_0007000D arg=\"\"}} amano{{fun_0007000D arg=\"\"}} cadere{{fun_0007000D arg=\"\"}} e {{fun_0007000D arg=\"\"}}fa{{fun_0007000D arg=\"\"}}rsi {{fun_0007000D arg=\"\"}}mal.\n{{fun_0007000D arg=\"\"}}Lo{{fun_0007000D arg=\"\"}}ro {{fun_0007000D arg=\"\"}}vogliono {{fun_0007000D arg=\"\"}}solo {{fun_0007000D arg=\"\"}}amare {{fun_0007000D arg=\"\"}}ed {{fun_0007000D arg=\"\"}}es{{fun_0007000D arg=\"\"}}sere{{fun_0007000D arg=\"\"}} a{{fun_0007000D arg=\"\"}}ma{{fun_0007000D arg=\"\"}}te!{{size value=\"100\"}}"
  },
  {
    "label": "003",
    "text": "{{size value=\"75\"}}{{fun_0007000D arg=\"\"}}Un {{fun_0007000D arg=\"\"}}gior{{fun_0007000D arg=\"\"}}no {{fun_0007000D arg=\"\"}}io, {{fun_0007000D arg=\"\"}}in {{fun_0007000D arg=\"\"}}ri{{fun_0007000D arg=\"\"}}va {{fun_0007000D arg=\"\"}}al {{fun_0007000D arg=\"\"}}ma{{fun_0007000D arg=\"\"}}re{{fun_0007000D arg=\"\"}} io,\n{{fun_0007000D arg=\"\"}}chie{{fun_0007000D arg=\"\"}}si {{fun_0007000D arg=\"\"}}a {{fun_0007000D arg=\"\"}}mia {{fun_0007000D arg=\"\"}}mo{{fun_0007000D arg=\"\"}}glie{{fun_0007000D arg=\"\"}} di {{fun_0007000D arg=\"\"}}spo{{fun_0007000D arg=\"\"}}sar{{fun_0007000D arg=\"\"}}mi.{{pageBreak}}{{fun_0007000D arg=\"\"}}Ri{{fun_0007000D arg=\"\"}}spo{{fun_0007000D arg=\"\"}}se {{fun_0007000D arg=\"\"}}\"Sì\" {{fun_0007000D arg=\"\"}}e {{fun_0007000D arg=\"\"}}da {{fun_0007000D arg=\"\"}}quel {{fun_0007000D arg=\"\"}}dì {{fun_0007000D arg=\"\"}}siamo {{fun_0007000D arg=\"\"}}uniti {{fun_0007000D arg=\"\"}}tanto {{fun_0007000D arg=\"\"}}co{{fun_0007000D arg=\"\"}}sì.\n{{fun_0007000D arg=\"\"}}Più {{fun_0007000D arg=\"\"}}uniti {{fun_0007000D arg=\"\"}}della {{fun_0007000D arg=\"\"}}moz{{fun_0007000D arg=\"\"}}zarella {{fun_0007000D arg=\"\"}}dei {{fun_0007000D arg=\"\"}}supplì.{{size value=\"100\"}}"
  },
  {
    "label": "004",
    "text": "{{size value=\"75\"}}{{fun_0007000D arg=\"\"}}Ca{{fun_0007000D arg=\"\"}}pel{{fun_0007000D arg=\"\"}}li {{fun_0007000D arg=\"\"}}sco{{fun_0007000D arg=\"\"}}mpi{{fun_0007000D arg=\"\"}}glia{{fun_0007000D arg=\"\"}}ti {{fun_0007000D arg=\"\"}}dal {{fun_0007000D arg=\"\"}}ven{{fun_0007000D arg=\"\"}}to,\n{{fun_0007000D arg=\"\"}}acca{{fun_0007000D arg=\"\"}}rez{{fun_0007000D arg=\"\"}}za{{fun_0007000D arg=\"\"}}ti {{fun_0007000D arg=\"\"}}dal {{fun_0007000D arg=\"\"}}mar. Oh, {{fun_0007000D arg=\"\"}}che bei ca{{fun_0007000D arg=\"\"}}pel{{fun_0007000D arg=\"\"}}li!{{pageBreak}}{{fun_0007000D arg=\"\"}}Quando {{fun_0007000D arg=\"\"}}la {{fun_0007000D arg=\"\"}}piog{{fun_0007000D arg=\"\"}}gia {{fun_0007000D arg=\"\"}}ver{{fun_0007000D arg=\"\"}}rà {{fun_0007000D arg=\"\"}}e {{fun_0007000D arg=\"\"}}i {{fun_0007000D arg=\"\"}}capelli {{fun_0007000D arg=\"\"}}bagne{{fun_0007000D arg=\"\"}}rà,\n{{fun_0007000D arg=\"\"}}lei {{fun_0007000D arg=\"\"}}sarà {{fun_0007000D arg=\"\"}}la {{fun_0007000D arg=\"\"}}più bella{{fun_0007000D arg=\"\"}} ragazza {{fun_0007000D arg=\"\"}}del{{fun_0007000D arg=\"\"}}la {{fun_0007000D arg=\"\"}}nostra {{fun_0007000D arg=\"\"}}cit{{fun_0007000D arg=\"\"}}tà!{{size value=\"100\"}}"
  },
  {
    "label": "005",
    "text": "{{size value=\"75\"}}{{fun_0007000D arg=\"\"}}Mi {{fun_0007000D arg=\"\"}}son {{fun_0007000D arg=\"\"}}mes{{fun_0007000D arg=\"\"}}so {{fun_0007000D arg=\"\"}}la {{fun_0007000D arg=\"\"}}tu{{fun_0007000D arg=\"\"}}ta {{fun_0007000D arg=\"\"}}e {{fun_0007000D arg=\"\"}}le {{fun_0007000D arg=\"\"}}scar{{fun_0007000D arg=\"\"}}pe\n{{fun_0007000D arg=\"\"}}e mi {{fun_0007000D arg=\"\"}}son {{fun_0007000D arg=\"\"}}al{{fun_0007000D arg=\"\"}}le{{fun_0007000D arg=\"\"}}na{{fun_0007000D arg=\"\"}}to {{fun_0007000D arg=\"\"}}co{{fun_0007000D arg=\"\"}}me {{fun_0007000D arg=\"\"}}un {{fun_0007000D arg=\"\"}}cam{{fun_0007000D arg=\"\"}}pion!{{pageBreak}}{{fun_0007000D arg=\"\"}}Ma {{fun_0007000D arg=\"\"}}quando {{fun_0007000D arg=\"\"}}ho {{fun_0007000D arg=\"\"}}aper{{fun_0007000D arg=\"\"}}to {{fun_0007000D arg=\"\"}}i {{fun_0007000D arg=\"\"}}miei {{fun_0007000D arg=\"\"}}occhi, {{fun_0007000D arg=\"\"}}che {{fun_0007000D arg=\"\"}}stupore,\n{{fun_0007000D arg=\"\"}}che {{fun_0007000D arg=\"\"}}sorpresa! {{fun_0007000D arg=\"\"}}Stavo {{fun_0007000D arg=\"\"}}giocando {{fun_0007000D arg=\"\"}}a {{fun_0007000D arg=\"\"}}nascondino {{fun_0007000D arg=\"\"}}con\n{{fun_0007000D arg=\"\"}}i {{fun_0007000D arg=\"\"}}bimbi {{fun_0007000D arg=\"\"}}del {{fun_0007000D arg=\"\"}}mio {{fun_0007000D arg=\"\"}}vi{{fun_0007000D arg=\"\"}}cino...{{size value=\"100\"}}"
  },
  {
    "label": "006",
    "text": "{{size value=\"75\"}}{{fun_0007000D arg=\"\"}}U{{fun_0007000D arg=\"\"}}na {{fun_0007000D arg=\"\"}}vi{{fun_0007000D arg=\"\"}}ta {{fun_0007000D arg=\"\"}}sen{{fun_0007000D arg=\"\"}}za {{fun_0007000D arg=\"\"}}ce{{fun_0007000D arg=\"\"}}trio{{fun_0007000D arg=\"\"}}li? {{fun_0007000D arg=\"\"}}Senza {{fun_0007000D arg=\"\"}}maio{{fun_0007000D arg=\"\"}}nese?{{fun_0007000D arg=\"\"}}\n{{fun_0007000D arg=\"\"}}Vi{{fun_0007000D arg=\"\"}}ta {{fun_0007000D arg=\"\"}}sen{{fun_0007000D arg=\"\"}}za {{fun_0007000D arg=\"\"}}pre{{fun_0007000D arg=\"\"}}te{{fun_0007000D arg=\"\"}}se...{{pageBreak}}{{fun_0007000D arg=\"\"}}I {{fun_0007000D arg=\"\"}}ce{{fun_0007000D arg=\"\"}}trio{{fun_0007000D arg=\"\"}}li {{fun_0007000D arg=\"\"}}di {{fun_0007000D arg=\"\"}}mia {{fun_0007000D arg=\"\"}}mamma {{fun_0007000D arg=\"\"}}hanno {{fun_0007000D arg=\"\"}}tanta {{fun_0007000D arg=\"\"}}ma{{fun_0007000D arg=\"\"}}io{{fun_0007000D arg=\"\"}}ne{{fun_0007000D arg=\"\"}}se!\n{{fun_0007000D arg=\"\"}}Prova{{fun_0007000D arg=\"\"}}li, {{fun_0007000D arg=\"\"}}pro{{fun_0007000D arg=\"\"}}va{{fun_0007000D arg=\"\"}}li {{fun_0007000D arg=\"\"}}e {{fun_0007000D arg=\"\"}}re{{fun_0007000D arg=\"\"}}si{{fun_0007000D arg=\"\"}}ster {{fun_0007000D arg=\"\"}}più{{fun_0007000D arg=\"\"}} non {{fun_0007000D arg=\"\"}}po{{fun_0007000D arg=\"\"}}trai! {{size value=\"100\"}}"
  },
  {
    "label": "007",
    "text": "{{size value=\"75\"}}{{fun_0007000D arg=\"\"}}L'al{{fun_0007000D arg=\"\"}}ba {{fun_0007000D arg=\"\"}}e {{fun_0007000D arg=\"\"}}il {{fun_0007000D arg=\"\"}}tra{{fun_0007000D arg=\"\"}}monto {{fun_0007000D arg=\"\"}}pos{{fun_0007000D arg=\"\"}}so{{fun_0007000D arg=\"\"}}no {{fun_0007000D arg=\"\"}}ab{{fun_0007000D arg=\"\"}}bagliar,\n{{fun_0007000D arg=\"\"}}ma {{fun_0007000D arg=\"\"}}sono {{fun_0007000D arg=\"\"}}meglio {{fun_0007000D arg=\"\"}}di {{fun_0007000D arg=\"\"}}nu{{fun_0007000D arg=\"\"}}bi {{fun_0007000D arg=\"\"}}e tem{{fun_0007000D arg=\"\"}}po{{fun_0007000D arg=\"\"}}ral!{{pageBreak}}{{fun_0007000D arg=\"\"}}Amo {{fun_0007000D arg=\"\"}}dormir {{fun_0007000D arg=\"\"}}quando {{fun_0007000D arg=\"\"}}pio{{fun_0007000D arg=\"\"}}ve {{fun_0007000D arg=\"\"}}e {{fun_0007000D arg=\"\"}}nuota{{fun_0007000D arg=\"\"}}re {{fun_0007000D arg=\"\"}}sotto\n{{fun_0007000D arg=\"\"}}il {{fun_0007000D arg=\"\"}}sole. {{fun_0007000D arg=\"\"}}Non {{fun_0007000D arg=\"\"}}temer, {{fun_0007000D arg=\"\"}}non {{fun_0007000D arg=\"\"}}temer, {{fun_0007000D arg=\"\"}}non {{fun_0007000D arg=\"\"}}mi {{fun_0007000D arg=\"\"}}offendo\n{{fun_0007000D arg=\"\"}}se {{fun_0007000D arg=\"\"}}mi {{fun_0007000D arg=\"\"}}chia{{fun_0007000D arg=\"\"}}mi {{fun_0007000D arg=\"\"}}pigron!{{size value=\"100\"}}"
  },
  {
    "label": "008",
    "text": "{{size value=\"75\"}}{{fun_0007000D arg=\"\"}}Mia {{fun_0007000D arg=\"\"}}mo{{fun_0007000D arg=\"\"}}glie, {{fun_0007000D arg=\"\"}}sai, {{fun_0007000D arg=\"\"}}o{{fun_0007000D arg=\"\"}}do{{fun_0007000D arg=\"\"}}ra {{fun_0007000D arg=\"\"}}di{{fun_0007000D arg=\"\"}} pansé{{fun_0007000D arg=\"\"}}.\n{{fun_0007000D arg=\"\"}}Ro{{fun_0007000D arg=\"\"}}se {{fun_0007000D arg=\"\"}}e {{fun_0007000D arg=\"\"}}bian{{fun_0007000D arg=\"\"}}co{{fun_0007000D arg=\"\"}}spin. {{fun_0007000D arg=\"\"}}Ah, {{fun_0007000D arg=\"\"}}che {{fun_0007000D arg=\"\"}}pro{{fun_0007000D arg=\"\"}}fu{{fun_0007000D arg=\"\"}}min!{{pageBreak}}{{fun_0007000D arg=\"\"}}Per {{fun_0007000D arg=\"\"}}conqui{{fun_0007000D arg=\"\"}}sta{{fun_0007000D arg=\"\"}}r {{fun_0007000D arg=\"\"}}il {{fun_0007000D arg=\"\"}}mio {{fun_0007000D arg=\"\"}}cuor, {{fun_0007000D arg=\"\"}}lei {{fun_0007000D arg=\"\"}}non {{fun_0007000D arg=\"\"}}deve {{fun_0007000D arg=\"\"}}fa{{fun_0007000D arg=\"\"}}ticar!\n{{fun_0007000D arg=\"\"}}Più{{fun_0007000D arg=\"\"}} pro{{fun_0007000D arg=\"\"}}fum, {{fun_0007000D arg=\"\"}}più {{fun_0007000D arg=\"\"}}pro{{fun_0007000D arg=\"\"}}fum {{fun_0007000D arg=\"\"}}e {{fun_0007000D arg=\"\"}}io {{fun_0007000D arg=\"\"}}sì... {{fun_0007000D arg=\"\"}}la{{fun_0007000D arg=\"\"}} adorerò!{{size value=\"100\"}}"
  },
  {
    "label": "009",
    "text": "{{size value=\"75\"}}{{fun_0007000D arg=\"\"}}Io {{fun_0007000D arg=\"\"}}na{{fun_0007000D arg=\"\"}}vi{{fun_0007000D arg=\"\"}}go {{fun_0007000D arg=\"\"}}da {{fun_0007000D arg=\"\"}}molti {{fun_0007000D arg=\"\"}}anni {{fun_0007000D arg=\"\"}}ormai\n{{fun_0007000D arg=\"\"}}e {{fun_0007000D arg=\"\"}}non {{fun_0007000D arg=\"\"}}c'è {{fun_0007000D arg=\"\"}}porto {{fun_0007000D arg=\"\"}}in {{fun_0007000D arg=\"\"}}cui {{fun_0007000D arg=\"\"}}non {{fun_0007000D arg=\"\"}}at{{fun_0007000D arg=\"\"}}trac{{fun_0007000D arg=\"\"}}cai.{{pageBreak}}{{fun_0007000D arg=\"\"}}Ma {{fun_0007000D arg=\"\"}}se {{fun_0007000D arg=\"\"}}ti {{fun_0007000D arg=\"\"}}spo{{fun_0007000D arg=\"\"}}si {{fun_0007000D arg=\"\"}}e {{fun_0007000D arg=\"\"}}ti {{fun_0007000D arg=\"\"}}fa{{fun_0007000D arg=\"\"}}i {{fun_0007000D arg=\"\"}}una {{fun_0007000D arg=\"\"}}bella {{fun_0007000D arg=\"\"}}fa{{fun_0007000D arg=\"\"}}mi{{fun_0007000D arg=\"\"}}glio{{fun_0007000D arg=\"\"}}la, {{fun_0007000D arg=\"\"}}più\n{{fun_0007000D arg=\"\"}}non {{fun_0007000D arg=\"\"}}puoi, {{fun_0007000D arg=\"\"}}no {{fun_0007000D arg=\"\"}}non {{fun_0007000D arg=\"\"}}puoi {{fun_0007000D arg=\"\"}}parti{{fun_0007000D arg=\"\"}}re {{fun_0007000D arg=\"\"}}e {{fun_0007000D arg=\"\"}}andar per mar!{{size value=\"100\"}}"
  },
  {
    "label": "010",
    "text": "{{size value=\"75\"}}{{fun_0007000D arg=\"\"}}La{{fun_0007000D arg=\"\"}} mia {{fun_0007000D arg=\"\"}}testa, {{fun_0007000D arg=\"\"}}sai, {{fun_0007000D arg=\"\"}}è {{fun_0007000D arg=\"\"}}un {{fun_0007000D arg=\"\"}}po' {{fun_0007000D arg=\"\"}}brulla {{fun_0007000D arg=\"\"}}ormai.{{fun_0007000D arg=\"\"}}\n{{fun_0007000D arg=\"\"}}Poco {{fun_0007000D arg=\"\"}}da {{fun_0007000D arg=\"\"}}pet{{fun_0007000D arg=\"\"}}tinar, {{fun_0007000D arg=\"\"}}poco {{fun_0007000D arg=\"\"}}da {{fun_0007000D arg=\"\"}}sfoggiar!{{pageBreak}}{{fun_0007000D arg=\"\"}}Se {{fun_0007000D arg=\"\"}}i {{fun_0007000D arg=\"\"}}capelli {{fun_0007000D arg=\"\"}}tor{{fun_0007000D arg=\"\"}}ne{{fun_0007000D arg=\"\"}}ran {{fun_0007000D arg=\"\"}}io {{fun_0007000D arg=\"\"}}li {{fun_0007000D arg=\"\"}}sa{{fun_0007000D arg=\"\"}}luterò, {{fun_0007000D arg=\"\"}}li {{fun_0007000D arg=\"\"}}arriccerò,\n{{fun_0007000D arg=\"\"}}li {{fun_0007000D arg=\"\"}}liscerò {{fun_0007000D arg=\"\"}}e{{fun_0007000D arg=\"\"}} poi {{fun_0007000D arg=\"\"}}li {{fun_0007000D arg=\"\"}}coc{{fun_0007000D arg=\"\"}}co{{fun_0007000D arg=\"\"}}le{{fun_0007000D arg=\"\"}}rò!{{size value=\"100\"}}"
  }
]