﻿[
  {
    "label": "001",
    "text": "{{anim id=\"23\"}}Il mio lavoro, {{delay frames=\"8\"}}ti piace?{{delay frames=\"30\"}}\n{{anim id=\"21\"}}Ah, sì. Abbinamento sublime.\nSento dentro tanta sicurezza."
  },
  {
    "label": "002",
    "text": "{{anim id=\"33\"}}Armonia...{{delay frames=\"15\"}} è pace.{{delay frames=\"20\"}}\nPace...{{delay frames=\"15\"}} è unità.{{delay frames=\"20\"}}\nUnità...{{delay frames=\"15\"}} è armonia.{{delay frames=\"20\"}}\n{{anim id=\"0\"}}Ho detto questo a Capo Nook.{{delay frames=\"20\"}}\nLui ha detto: \"Sparisci!\""
  },
  {
    "label": "003",
    "text": "Noi lavoriamo con armonia!{{delay frames=\"30\"}}\n{{anim id=\"3\"}}Tu sarai felice.{{delay frames=\"8\"}}\nAvrai tanta felicità nel cuore.{{delay frames=\"30\"}}"
  },
  {
    "label": "004",
    "text": "{{anim id=\"37\"}}Ciao. Grazie. Sì?{{pageBreak}}Vuoi nuova carta da parati?{{delay frames=\"8\"}}\nNuovi tappeti?{{delay frames=\"30\"}}\n{{anim id=\"23\"}}{{color id=\"2\"}}3000 stelline{{color id=\"65535\"}}, affare fatto?{{fun_0008000D arg=\"0x02CD\"}}{{fun_0005000F arg=\"0x15002800\"}}\nAffare fatto!\nNo, grazie."
  },
  {
    "label": "005",
    "text": "{{anim id=\"37\"}}Io{{delay frames=\"8\"}} mi chiamo {{color id=\"4\"}}Sahara{{color id=\"65535\"}},\npoiché questo è il nome mio.\nArrivo da terre lontane... lontane.\n{{anim id=\"0\"}}Ho tanta carta da parati per\nincartare i muri. {{anim id=\"21\"}}Tanti tappeti\nper tappezzare i pavimenti.{{delay frames=\"15\"}}\n{{anim id=\"0\"}}{{anim id=\"23\"}}{{color id=\"2\"}}3000 stelline{{color id=\"65535\"}}, affare fatto?{{fun_0008000D arg=\"0x02CD\"}}{{fun_0005000F arg=\"0x15002800\"}}\n... Affare fatto!\nNo, grazie."
  },
  {
    "label": "006",
    "text": "{{anim id=\"40\"}}Tristi sono le tue parole.{{anim id=\"0\"}}{{delay frames=\"20\"}}\nProssima volta forse sì, {{delay frames=\"8\"}}no?"
  },
  {
    "label": "007",
    "text": "{{anim id=\"15\"}}Oh, {{delay frames=\"8\"}}che sfortuna tu hai!{{delay frames=\"20\"}}\n{{anim id=\"9\"}}Non abbastanza soldi tu hai!{{pageBreak}}{{anim id=\"0\"}}Voglio {{color id=\"2\"}}3000 stelline{{color id=\"65535\"}}{{delay frames=\"15\"}} e niente di\nmeno.{{delay frames=\"20\"}} Allora parleremo ancora\npiù avanti."
  },
  {
    "label": "008",
    "text": "{{anim id=\"15\"}}Ah,{{delay frames=\"8\"}} non va bene!{{delay frames=\"20\"}}\n{{anim id=\"21\"}}Devi avere più spazio.{{delay frames=\"20\"}}\nSpazio per cose!\n{{anim id=\"37\"}}Ne riparliamo, sì?{{delay frames=\"20\"}}\nPrima fai pulizia."
  },
  {
    "label": "009",
    "text": "{{anim id=\"15\"}}Ah,{{delay frames=\"8\"}} così non può essere!{{delay frames=\"20\"}}\n{{anim id=\"21\"}}Devi avere più spazio.{{delay frames=\"20\"}}\nPiù spazio per più cose!\n{{anim id=\"37\"}}Noi ne riparliamo, no?{{delay frames=\"20\"}}\nPrima fai spazio per {{color id=\"2\"}}due {{color id=\"65535\"}}cose."
  },
  {
    "label": "010",
    "text": "{{anim id=\"1\"}}Ah, bellezza!{{pageBreak}}Viaggiamo verso il tuo palazzo.{{delay frames=\"8\"}}\n{{anim id=\"37\"}}In fretta!"
  },
  {
    "label": "011",
    "text": "{{anim id=\"16\"}}Ah!{{delay frames=\"20\"}}\n{{anim id=\"37\"}}Sì, grazie. Ciao.{{delay frames=\"8\"}}{{pageBreak}}{{anim id=\"0\"}}Vuoi cambiare carta da parati?{{delay frames=\"8\"}}\nVuoi cambiare tappeto? Sì!{{delay frames=\"30\"}}\n{{anim id=\"23\"}}{{color id=\"2\"}}3000 stelline{{color id=\"65535\"}}, accetti?{{fun_0008000D arg=\"0x02CD\"}}{{fun_0005000F arg=\"0x15002800\"}}\nAccetto!\nNo, grazie."
  },
  {
    "label": "012",
    "text": "{{anim id=\"15\"}}Ah, {{delay frames=\"8\"}}è già arrivata questa ora!{{delay frames=\"20\"}}\n{{anim id=\"25\"}}Ho stanchezza. Sì.{{delay frames=\"15\"}} Voglio dormire.{{anim id=\"45\"}}\nCome sabbia nel deserto.{{delay frames=\"8\"}}\n{{anim id=\"0\"}}{{fun_000A0007 arg=\"\"}}Io devo andare.\nVeloce!"
  },
  {
    "label": "013",
    "text": "{{anim id=\"40\"}}Improvvisamente non ci sei più!{{delay frames=\"8\"}}\nGrande, grande sorpresa.{{fun_00010007 arg=\"\"}}\n{{anim id=\"23\"}}Forse un problema?{{fun_0005000F arg=\"0x15002800\"}}\nNo, nessun problema.\nSì, devo andare ora."
  },
  {
    "label": "014",
    "text": "Dispiacere. Grosso dispiacere."
  },
  {
    "label": "015",
    "text": "{{anim id=\"38\"}}Sì. Bene bene.{{delay frames=\"20\"}}\n{{anim id=\"1\"}}Parole come queste e sorrido.{{delay frames=\"20\"}}\nAndiamo ora. In fretta!"
  },
  {
    "label": "016",
    "text": "{{anim id=\"16\"}}Ahhh!{{delay frames=\"20\"}}\n{{anim id=\"0\"}}Aspettare! Si prega aspettare!"
  },
  {
    "label": "017",
    "text": "{{anim id=\"15\"}}Ah,{{delay frames=\"8\"}} cosa succede?{{delay frames=\"15\"}}\n{{anim id=\"23\"}}Qualcos'altro da fare?{{endTag}}\nNo, non preoccuparti.\nScusa, devo andare!"
  },
  {
    "label": "018",
    "text": "{{anim id=\"43\"}}Io ho viaggiato ovunque.{{delay frames=\"15\"}}\nTutti i paesi del mondo.{{pageBreak}}Ho collezione di carta da parati\ntroppo rara, {{delay frames=\"8\"}}tappeti belli ed esotici!{{delay frames=\"8\"}}"
  },
  {
    "label": "019",
    "text": "{{anim id=\"43\"}}La mia merce è di qualità!{{pageBreak}}{{delay frames=\"15\"}}Carta da parati di principi e re.{{delay frames=\"20\"}}\n{{anim id=\"21\"}}Tappeti di grandi VIP!"
  },
  {
    "label": "020",
    "text": "{{anim id=\"1\"}}Belle decorazioni, bell'umore!{{delay frames=\"20\"}}\n{{anim id=\"32\"}}Io dico questo, sempre."
  },
  {
    "label": "021",
    "text": "{{anim id=\"21\"}}Tante lune ho visto.\n{{delay frames=\"15\"}}Tante persone ho conosciuto.{{pageBreak}}Il futuro attende {{color id=\"4\"}}Sahara{{color id=\"65535\"}}."
  },
  {
    "label": "022",
    "text": "{{anim id=\"13\"}}{{fun_000B0007 arg=\"\"}}STOP! {{delay frames=\"20\"}}Ora fermati,{{delay frames=\"8\"}} non procedere!{{delay frames=\"20\"}}\nQuanto ancora dovremo vagare?{{delay frames=\"20\"}}\n{{anim id=\"9\"}}I miei zoccoli gridano dolore!\n{{anim id=\"0\"}}Qui si spreca tempo.{{delay frames=\"15\"}}\nFacciamo {{delay frames=\"8\"}}un'altra volta?"
  },
  {
    "label": "023",
    "text": ""
  },
  {
    "label": "024",
    "text": "{{anim id=\"1\"}}Ahhhh!{{delay frames=\"8\"}}\nQuesto è il tuo palazzo?{{pageBreak}}{{anim id=\"5\"}}OH! Vedo l'armonia{{delay frames=\"8\"}} di questa\nstanza!\nHo qui la cosa giusta!{{delay frames=\"15\"}} {{anim id=\"0\"}}Sì{{delay frames=\"8\"}}.{{delay frames=\"8\"}}.{{delay frames=\"8\"}}. Sì!"
  },
  {
    "label": "025",
    "text": ""
  },
  {
    "label": "026",
    "text": "{{anim id=\"15\"}}Oh, {{delay frames=\"8\"}}che sfortuna tu hai!{{delay frames=\"20\"}}\n{{anim id=\"9\"}}Non abbastanza soldi tu hai!{{pageBreak}}{{anim id=\"0\"}}{{color id=\"2\"}}3000 stelline{{color id=\"65535\"}}{{delay frames=\"15\"}} e niente di meno io\nvoglio.{{delay frames=\"20\"}} Allora parleremo ancora\npiù avanti."
  },
  {
    "label": "027",
    "text": "{{anim id=\"15\"}}Ah,{{delay frames=\"8\"}} non va bene!{{delay frames=\"20\"}}\n{{anim id=\"21\"}}Devi avere più spazio.{{delay frames=\"20\"}}\nSpazio per cose!\n{{anim id=\"37\"}}Ne riparliamo, sì?{{delay frames=\"20\"}}\nPrima fai pulizia."
  },
  {
    "label": "028",
    "text": "{{anim id=\"15\"}}Ah,{{delay frames=\"8\"}} così non può essere!{{delay frames=\"20\"}}\n{{anim id=\"21\"}}Devi avere più spazio.{{delay frames=\"20\"}}\nPiù spazio per più cose!\n{{anim id=\"37\"}}Noi ne riparliamo, no?{{delay frames=\"20\"}}\nPrima devi far spazio per {{color id=\"2\"}}due {{color id=\"65535\"}}cose."
  },
  {
    "label": "029",
    "text": "Ora accetterò il pagamento{{delay frames=\"8\"}}\ncoi tuoi soldi.{{pageBreak}}{{color id=\"2\"}}3000 stelline{{color id=\"65535\"}}, grazie. Sì, va bene."
  },
  {
    "label": "030",
    "text": "Adesso {{anim id=\"21\"}}{{delay frames=\"4\"}}la mia opera inizia!{{delay frames=\"20\"}}\n{{anim id=\"1\"}}Tu aspetterai fuori.\nSarà breve.{{delay frames=\"8\"}} Molte grazie."
  },
  {
    "label": "031",
    "text": ""
  },
  {
    "label": "032",
    "text": "{{anim id=\"3\"}}È finito! {{delay frames=\"4\"}}Il passato è finito!{{delay frames=\"20\"}}\nÈ arrivato il futuro!{{delay frames=\"30\"}}{{anim id=\"37\"}}"
  },
  {
    "label": "033",
    "text": "{{anim id=\"3\"}}È finito!{{delay frames=\"4\"}} Il passato è finito!{{delay frames=\"20\"}}\nÈ arrivato il futuro!{{delay frames=\"30\"}}{{anim id=\"37\"}}{{pageBreak}}Il futuro non ha bisogno di questo,\nquindi prendilo con te."
  },
  {
    "label": "034",
    "text": "{{anim id=\"22\"}}Ispirazione! Ti sorprende come\npioggia nel deserto.{{delay frames=\"8\"}}\nAccogli ispirazione nel tuo cuore!{{delay frames=\"20\"}}"
  },
  {
    "label": "035",
    "text": "{{anim id=\"1\"}}La mia visione del futuro.\nOra è tua.{{delay frames=\"8\"}}\nTi piace, no?"
  },
  {
    "label": "036",
    "text": "{{anim id=\"1\"}}La tua reggia è come nuova,\n{{fun_0006000E arg=\"0x0400520065000C0052006500670069006E006100\"}} {{fun_0003000E arg=\"\"}}{{fun_00000005 arg=\"\"}}.{{delay frames=\"8\"}}\nOra sei tu al potere."
  },
  {
    "label": "037",
    "text": "{{anim id=\"39\"}}La mia visione del futuro.\nCrescerà nel tuo giardino.\n{{anim id=\"0\"}}Tu innaffiala!"
  },
  {
    "label": "038",
    "text": "{{anim id=\"33\"}}Armonia...{{delay frames=\"15\"}} è pace.{{delay frames=\"20\"}}\nPace...{{delay frames=\"15\"}} è unità.{{delay frames=\"20\"}}\nUnità...{{delay frames=\"15\"}} è armonia.{{delay frames=\"20\"}}\n{{anim id=\"0\"}}Ho detto questo a Capo Nook...{{delay frames=\"20\"}}\nLui ha detto: \"Sparisci!\""
  },
  {
    "label": "039",
    "text": ""
  },
  {
    "label": "040",
    "text": "{{anim id=\"37\"}}Io{{delay frames=\"8\"}} mi chiamo {{color id=\"4\"}}Sahara{{color id=\"65535\"}},\npoiché questo è il nome mio.\nArrivo da terre lontane... lontane.\n{{anim id=\"0\"}}Ho tanta carta da parati\nper incartare i muri. {{anim id=\"21\"}}Tanti\ntappeti per tappezzare i pavimenti.{{delay frames=\"15\"}}\n{{color id=\"2\"}}3000 stelline {{color id=\"65535\"}}è per comprare, ma tu\n{{anim id=\"1\"}}sei occupat{{fun_0006000E arg=\"0x02006F0002006100\"}} {{delay frames=\"20\"}}come sabbia nel vento,\nvero? Noi parliamo più tardi.{{delay frames=\"8\"}}"
  },
  {
    "label": "041",
    "text": "{{anim id=\"37\"}}Sì, grazie. Ciao.{{pageBreak}}Tu vuoi nuova carta da parati?{{delay frames=\"8\"}}\nE nuovi tappeti?{{delay frames=\"30\"}}{{pageBreak}}{{color id=\"2\"}}3000 stelline {{color id=\"65535\"}}per comprare, ma tu\nsei occupat{{fun_0006000E arg=\"0x02006F0002006100\"}} {{delay frames=\"20\"}}come sabbia nel vento,\nvero? Noi parliamo dopo."
  },
  {
    "label": "042",
    "text": "{{anim id=\"16\"}}Ah!{{delay frames=\"20\"}}\n{{anim id=\"37\"}}Sì, grazie. Ciao.{{delay frames=\"8\"}}\nSono pronto ora.{{pageBreak}}{{anim id=\"15\"}}Ah, ma tu pront{{fun_0006000E arg=\"0x02006F0002006100\"}} non sei.{{delay frames=\"30\"}}\nPer favore, noi parliamo dopo.{{delay frames=\"8\"}}"
  },
  {
    "label": "043",
    "text": ""
  },
  {
    "label": "044",
    "text": ""
  },
  {
    "label": "045",
    "text": ""
  },
  {
    "label": "046",
    "text": "{{anim id=\"37\"}}Io{{delay frames=\"8\"}} mi chiamo {{color id=\"4\"}}Sahara{{color id=\"65535\"}},\npoiché questo è il nome mio.\nArrivo da terre lontane... lontane.\n{{anim id=\"0\"}}Forse ti cambio il tappeto.\nAnche la carta da parati.{{delay frames=\"20\"}}\n{{color id=\"2\"}}3000 stelline{{color id=\"65535\"}} è da pagare,{{anim id=\"40\"}} ma...{{delay frames=\"20\"}} eh...{{pageBreak}}{{anim id=\"27\"}}Casa tua{{delay frames=\"30\"}} è una tenda{{delay frames=\"8\"}}.{{delay frames=\"8\"}}.{{delay frames=\"8\"}}.{{pageBreak}}Questo non è buono per me.\nTanto non buono. Io non posso\naiutare la tua tenda. Sono triste.{{pageBreak}}Forse parliamo dopo.\nQuando casa tua è più grande."
  },
  {
    "label": "047",
    "text": "{{anim id=\"1\"}}Case, {{delay frames=\"4\"}}loro crescono come noi.{{delay frames=\"20\"}}\n{{anim id=\"2\"}}Fai crescere te stess{{fun_0006000E arg=\"0x02006F0002006100\"}}!\nFai crescere la tua casa!"
  },
  {
    "label": "048",
    "text": "{{anim id=\"1\"}}Parlami più tardi, giusto?{{delay frames=\"30\"}}\nCi diremo tante cose."
  }
]