﻿[
  {
    "label": "001",
    "text": "{{anim id=\"9\"}}Ciao di nuovo, {{fun_00080005 arg=\"\"}}.\nPensi che smetterà di nevicare\npresto, {{fun_00070005 arg=\"\"}}?"
  },
  {
    "label": "002",
    "text": "{{anim id=\"37\"}}Sembra proprio che tutta questa\nneve non ti faccia nemmeno\nun baffo, {{fun_00070005 arg=\"\"}}!"
  },
  {
    "label": "003",
    "text": "{{anim id=\"37\"}}Di nuovo ciao, {{fun_00080005 arg=\"\"}}. La neve\nrilassa anche te, {{fun_00070005 arg=\"\"}}?"
  },
  {
    "label": "004",
    "text": "{{anim id=\"37\"}}Ciao di nuovo, {{fun_00080005 arg=\"\"}}.{{delay frames=\"10\"}}\nQuesto freddo mi ha fatto venire\nvoglia di {{fun_00130005 arg=\"0x0000\"}}."
  },
  {
    "label": "005",
    "text": "{{anim id=\"37\"}}{{fun_0003000E arg=\"\"}}{{fun_00060007 arg=\"\"}}Sei tu{{fun_00070007 arg=\"\"}}!\nTi piace giocare nella neve,\n{{fun_00080005 arg=\"\"}}? Attent{{fun_0006000E arg=\"0x02006F0002006100\"}} a non cadere."
  },
  {
    "label": "006",
    "text": "{{anim id=\"9\"}}Ho cinque strati di vestiti, ed ho\nancora freddo. {{delay frames=\"10\"}}Mmmh, {{delay frames=\"5\"}}forse mi sta\nvenendo la febbre, {{fun_00080005 arg=\"\"}}!"
  },
  {
    "label": "007",
    "text": "{{anim id=\"9\"}}La neve ricopre proprio tutto...{{delay frames=\"10\"}}\nPurtroppo anche le mie camelie,\n{{fun_00070005 arg=\"\"}}."
  }
]