﻿[
  {
    "label": "001",
    "text": "{{anim id=\"11\"}}Nel mese di dicembre,{{delay frames=\"8\"}} non riesco\na pensare ad altro che al Giorno\ndei giocattoli. {{delay frames=\"16\"}}{{anim id=\"29\"}}{{fun_0003000E arg=\"\"}}{{fun_00070005 arg=\"\"}}!"
  },
  {
    "label": "002",
    "text": "{{anim id=\"43\"}}So che è ancora un po' presto,\n{{delay frames=\"8\"}}ma non riesco a smettere di pensare\nal Giorno dei giocattoli.{{delay frames=\"16\"}}\n{{anim id=\"4\"}}I regali, {{delay frames=\"8\"}}l'atmosfera festosa,\nl'emozione...{{delay frames=\"16\"}} Non vedo l'ora!"
  },
  {
    "label": "003",
    "text": "{{anim id=\"43\"}}Sai,{{delay frames=\"8\"}} non nuoce prepararsi\nin anticipo per il Giorno\ndei giocattoli.{{delay frames=\"16\"}}{{pageBreak}}{{anim id=\"35\"}}Soprattutto se si è una renna che\ndistribuisce regali. {{anim id=\"28\"}}{{color id=\"4\"}}Jingle{{color id=\"65535\"}}{{delay frames=\"8\"}}, so che\nmi stai ascoltando{{delay frames=\"8\"}}.{{delay frames=\"8\"}}.{{delay frames=\"8\"}}."
  },
  {
    "label": "004",
    "text": "{{anim id=\"29\"}}Mancano due settimane al {{color id=\"2\"}}Giorno\ndei giocattoli{{color id=\"65535\"}}! {{delay frames=\"16\"}}Ho ancora tempo {{delay frames=\"8\"}}{{anim id=\"28\"}}per\nscegliermi un bel regalo,{{delay frames=\"8\"}} {{fun_00080005 arg=\"\"}}!"
  },
  {
    "label": "005",
    "text": "{{anim id=\"39\"}}So che non vedi l'ora che arrivi\nil Giorno dei giocattoli,{{delay frames=\"8\"}} {{fun_00080005 arg=\"\"}}{{delay frames=\"8\"}}.{{delay frames=\"8\"}}.{{delay frames=\"8\"}}.{{delay frames=\"8\"}}{{pageBreak}}{{anim id=\"9\"}}Mi raccomando, non ti ridurre\nall'ultimo minuto per comprare\ni regali... {{delay frames=\"16\"}}{{anim id=\"21\"}}Organizzati in anticipo!"
  },
  {
    "label": "006",
    "text": "Sta per arrivare il {{color id=\"2\"}}Giorno\ndei giocattoli{{color id=\"65535\"}}... {{anim id=\"23\"}}Hai qualche\nprogramma?\n{{anim id=\"16\"}}Oh! {{delay frames=\"16\"}}No, {{delay frames=\"8\"}}non devi comprarmi nulla,\nnon preoccuparti. {{delay frames=\"16\"}}{{anim id=\"6\"}}È {{color id=\"4\"}}Jingle {{color id=\"65535\"}}che\nmi deve portare dei regali!"
  },
  {
    "label": "007",
    "text": "Siamo quasi arrivati al {{color id=\"2\"}}Giorno\ndei giocattoli{{color id=\"65535\"}}{{delay frames=\"8\"}}.{{delay frames=\"8\"}}.{{delay frames=\"8\"}}.{{delay frames=\"8\"}}{{anim id=\"23\"}} Come festeggeranno\ni cittadini di {{fun_00050005 arg=\"\"}}?\n{{anim id=\"28\"}}Ma soprattutto, {{delay frames=\"8\"}}che tipo di regali\nchiederanno? {{delay frames=\"15\"}}Sono curiosissima{{delay frames=\"8\"}}.{{delay frames=\"8\"}}.{{delay frames=\"8\"}}.{{delay frames=\"8\"}}"
  },
  {
    "label": "008",
    "text": "{{anim id=\"23\"}}Ti va di incontrarci per il {{color id=\"2\"}}Giorno\ndei giocattoli {{color id=\"65535\"}}di quest'anno,{{delay frames=\"8\"}}\n{{fun_00080005 arg=\"\"}}?{{delay frames=\"16\"}}\nA proposito, {{anim id=\"1\"}}{{delay frames=\"8\"}}che regalo chiederai\na {{color id=\"4\"}}Jingle{{color id=\"65535\"}}?"
  },
  {
    "label": "009",
    "text": "Se per il Giorno dei giocattoli{{color id=\"2\"}} {{color id=\"65535\"}}non\nriceverò quello che ho chiesto{{delay frames=\"8\"}}.{{delay frames=\"8\"}}.{{delay frames=\"8\"}}.{{delay frames=\"8\"}}{{fun_000B0007 arg=\"\"}}\n{{anim id=\"7\"}}{{size value=\"150\"}}NON SARÒ FELICE.{{size value=\"100\"}}\n{{anim id=\"1\"}}{{size value=\"100\"}}Meglio che non dica altro.{{size value=\"100\"}}"
  },
  {
    "label": "010",
    "text": "{{anim id=\"4\"}}Sono emozionatissima{{delay frames=\"8\"}}.{{delay frames=\"8\"}}.{{delay frames=\"8\"}}.{{delay frames=\"8\"}} Finalmente\ndomani è il {{color id=\"2\"}}Giorno dei giocattoli{{color id=\"65535\"}}!\n{{anim id=\"5\"}}{{fun_0003000E arg=\"\"}}{{fun_00070005 arg=\"\"}}!"
  },
  {
    "label": "011",
    "text": "{{anim id=\"11\"}}Le calze sono appese,{{delay frames=\"8\"}} i regali\nimpacchettati e gli alberi decorati.{{delay frames=\"32\"}}\n{{anim id=\"38\"}}Pronti per il Giorno dei giocattoli!"
  },
  {
    "label": "012",
    "text": "{{anim id=\"43\"}}Chissà cosa riceverò per questo\nGiorno dei giocattoli... {{delay frames=\"16\"}}{{anim id=\"38\"}}Ancora\nun po' di pazienza e lo scoprirò!"
  },
  {
    "label": "013",
    "text": ""
  },
  {
    "label": "014",
    "text": ""
  },
  {
    "label": "015",
    "text": ""
  },
  {
    "label": "016",
    "text": ""
  },
  {
    "label": "017",
    "text": ""
  },
  {
    "label": "018",
    "text": ""
  },
  {
    "label": "019",
    "text": ""
  },
  {
    "label": "020",
    "text": ""
  },
  {
    "label": "021",
    "text": "Spero tanto che quest'anno\n{{color id=\"4\"}}Jingle {{color id=\"65535\"}}mi porti un {{color id=\"2\"}}mobile{{color id=\"65535\"}}."
  },
  {
    "label": "022",
    "text": "Spero tanto che quest'anno\n{{color id=\"4\"}}Jingle {{color id=\"65535\"}}mi porti un {{color id=\"2\"}}tappeto{{color id=\"65535\"}}."
  },
  {
    "label": "023",
    "text": "Spero tanto che quest'anno\n{{color id=\"4\"}}Jingle {{color id=\"65535\"}}mi porti della {{color id=\"2\"}}carta da parati{{color id=\"65535\"}}."
  },
  {
    "label": "024",
    "text": "Spero tanto che quest'anno\n{{color id=\"4\"}}Jingle {{color id=\"65535\"}}mi porti un {{color id=\"2\"}}elettrodomestico{{color id=\"65535\"}}."
  },
  {
    "label": "025",
    "text": "Spero tanto che quest'anno\n{{color id=\"4\"}}Jingle {{color id=\"65535\"}}mi porti uno {{color id=\"2\"}}strumento\nmusicale{{color id=\"65535\"}}."
  },
  {
    "label": "026",
    "text": "Spero tanto che quest'anno\n{{color id=\"4\"}}Jingle {{color id=\"65535\"}}mi porti una {{color id=\"2\"}}pianta{{color id=\"65535\"}}."
  },
  {
    "label": "027",
    "text": "Spero tanto che quest'anno\n{{color id=\"4\"}}Jingle {{color id=\"65535\"}}mi porti dei {{color id=\"2\"}}vestiti{{color id=\"65535\"}}."
  },
  {
    "label": "028",
    "text": "Spero tanto che quest'anno\n{{color id=\"4\"}}Jingle {{color id=\"65535\"}}mi porti una {{color id=\"2\"}}bambola{{color id=\"65535\"}}."
  },
  {
    "label": "029",
    "text": "Spero tanto che quest'anno\n{{color id=\"4\"}}Jingle {{color id=\"65535\"}}mi porti un {{color id=\"2\"}}giocattolo{{color id=\"65535\"}}."
  },
  {
    "label": "030",
    "text": "Spero tanto che quest'anno\n{{color id=\"4\"}}Jingle {{color id=\"65535\"}}mi porti {{color id=\"2\"}}qualcosa\nda mangiare{{color id=\"65535\"}}."
  },
  {
    "label": "031",
    "text": "Spero tanto che quest'anno\n{{color id=\"4\"}}Jingle {{color id=\"65535\"}}mi porti una {{color id=\"2\"}}lampada{{color id=\"65535\"}}."
  },
  {
    "label": "032",
    "text": "Spero tanto che quest'anno\n{{color id=\"4\"}}Jingle {{color id=\"65535\"}}mi porti un {{color id=\"2\"}}ombrello{{color id=\"65535\"}}."
  },
  {
    "label": "033",
    "text": ""
  },
  {
    "label": "034",
    "text": ""
  },
  {
    "label": "035",
    "text": ""
  },
  {
    "label": "036",
    "text": ""
  },
  {
    "label": "037",
    "text": "{{anim id=\"16\"}}Ah!{{delay frames=\"16\"}} Quasi dimenticavo.{{delay frames=\"16\"}} Sai di che\ncolore voglio il regalo di {{color id=\"4\"}}Jingle{{color id=\"65535\"}}\nquest'anno?{{delay frames=\"15\"}} {{color id=\"2\"}}{{fun_0003000E arg=\"\"}}{{fun_00020012 arg=\"\"}}{{color id=\"65535\"}}!"
  },
  {
    "label": "038",
    "text": "{{anim id=\"43\"}}Ah, a proposito di Giorno\ndei giocattoli{{delay frames=\"8\"}}.{{delay frames=\"8\"}}.{{delay frames=\"8\"}}.{{delay frames=\"8\"}} Spero tanto che\nnevichi. {{delay frames=\"16\"}}{{anim id=\"4\"}}Sarebbe meraviglioso!"
  },
  {
    "label": "039",
    "text": "{{anim id=\"6\"}}Sai, non è da tutti riuscire a vestirsi\nda Babbo Natale senza sembrare\nridicoli.\nMa sulla persona giusta, {{delay frames=\"8\"}}ad esempio,{{delay frames=\"32\"}}\ndiciamo, {{anim id=\"36\"}}BABBO NATALE,{{delay frames=\"15\"}} quei\nvestiti fanno persino figura!"
  },
  {
    "label": "040",
    "text": "{{anim id=\"1\"}}Ah, a proposito di Giorno\ndei giocattoli{{delay frames=\"8\"}}.{{delay frames=\"8\"}}.{{delay frames=\"8\"}}.{{delay frames=\"8\"}} Quello di quest'anno\nsarà il migliore di sempre.{{delay frames=\"16\"}}\n{{anim id=\"31\"}}Urrà! {{delay frames=\"16\"}}Viva,{{delay frames=\"8\"}} viva,{{delay frames=\"8\"}} V{{delay frames=\"2\"}}I{{delay frames=\"2\"}}V{{delay frames=\"2\"}}A{{delay frames=\"2\"}} {{fun_000B0007 arg=\"\"}}{{anim id=\"38\"}}il Giorno\ndei giocattoli! {{delay frames=\"50\"}}{{anim id=\"15\"}}Ops,{{delay frames=\"8\"}} scusa.{{delay frames=\"16\"}} {{anim id=\"13\"}}Sai,\nda giovane ero cheerleader."
  }
]