﻿[
  {
    "label": "001",
    "text": "{{anim id=\"9\"}}Sbaglio o dovevi mostrarmi\nla lista con le firme, {{fun_00080005 arg=\"\"}}?"
  },
  {
    "label": "002",
    "text": "{{anim id=\"26\"}}Non mi aspettavo davvero così\ntanti consensi per la mia petizione.{{delay frames=\"5\"}}.{{delay frames=\"5\"}}.{{delay frames=\"5\"}}{{pageBreak}}Sei riuscit{{fun_0006000E arg=\"0x02006F0002006100\"}} a far conoscere\nin giro la mia petizione\n\"{{fun_00010012 arg=\"\"}}\"!\n{{anim id=\"1\"}}Tieni, ti sei dat{{fun_0006000E arg=\"0x02006F0002006100\"}} da fare\ncosì tanto che meriti\nuna ricompensa, {{fun_00080005 arg=\"\"}}."
  },
  {
    "label": "003",
    "text": "{{anim id=\"37\"}}Sono così contenta che tutta questa\ngente abbia deciso di appoggiare\n\"{{fun_00010012 arg=\"\"}}\"!\nPetizione dopo petizione,{{delay frames=\"5\"}}{{anim id=\"35\"}} stiamo\nrendendo la nostra città un luogo\nmigliore!\nEcco qua. Il tuo aiuto è stato\npreziosissimo e meriti un regalo,\n{{fun_00080005 arg=\"\"}}!"
  },
  {
    "label": "004",
    "text": "{{anim id=\"29\"}}Ma è meraviglioso! {{delay frames=\"10\"}}Non credevo\nche tanta gente fosse\ndalla nostra parte, {{fun_00080005 arg=\"\"}}!\n{{anim id=\"38\"}}Ora tutti sanno che\n\"{{fun_00010012 arg=\"\"}}\"\nè una questione molto importante!\n{{anim id=\"40\"}}Non ce l'avrei fatta senza di te.{{delay frames=\"5\"}}.{{delay frames=\"5\"}}.{{delay frames=\"5\"}}\nEccoti un piccolo premio\nper tutti i tuoi sforzi!"
  },
  {
    "label": "005",
    "text": "{{anim id=\"37\"}}È {{fun_0002000E arg=\"\"}}{{fun_00030011 arg=\"0x0000\"}}!{{pageBreak}}Spero che in futuro sarai\ndispost{{fun_0006000E arg=\"0x02006F0002006100\"}} ad aiutarmi\ncon altre petizioni, {{fun_00080005 arg=\"\"}}.\nVoglio dire, se la gente\nsi è interessata\n{{fun_0010000E arg=\"\"}} \"{{fun_00010012 arg=\"\"}}\".{{delay frames=\"5\"}}.{{delay frames=\"5\"}}.{{delay frames=\"5\"}}\n{{anim id=\"33\"}}... la prossima volta possiamo\npuntare ancora più in alto,\n{{fun_00080005 arg=\"\"}}!"
  },
  {
    "label": "006",
    "text": "{{anim id=\"37\"}}È {{fun_0002000E arg=\"\"}}{{fun_00030011 arg=\"0x0000\"}}!{{pageBreak}}{{anim id=\"1\"}}Mi piacerebbe molto\nlavorare di nuovo con te\nper altre cause, {{fun_00080005 arg=\"\"}}.\nInsomma, se persino\n\"{{fun_00010012 arg=\"\"}}\"\nha destato tanto interesse.{{delay frames=\"5\"}}.{{delay frames=\"5\"}}.{{delay frames=\"5\"}}\n{{anim id=\"33\"}}... vuol dire che la gente pende\ndalle nostre labbra, {{fun_00080005 arg=\"\"}}!"
  },
  {
    "label": "007",
    "text": "{{anim id=\"1\"}}È {{fun_0002000E arg=\"\"}}{{fun_00030011 arg=\"0x0000\"}}!{{pageBreak}}{{anim id=\"39\"}}Mi farebbe infinitamente piacere\nse tu volessi aiutarmi a raccogliere\nfirme anche in futuro, {{fun_00080005 arg=\"\"}}.\nSe perfino QUESTA petizione\nsi è rivelata un successo.{{delay frames=\"5\"}}.{{delay frames=\"5\"}}.{{delay frames=\"5\"}}{{pageBreak}}{{anim id=\"33\"}}... chissà cosa succederebbe\nse ne presentassimo una ancora\npiù importante, {{fun_00070005 arg=\"\"}}!"
  }
]