﻿[
  {
    "label": "001",
    "text": "{{anim id=\"37\"}}D'ora in avanti la mia salute è\nnelle tue mani.{{delay frames=\"5\"}}.{{delay frames=\"5\"}}.{{delay frames=\"5\"}} Dovrai tenermi\nd'occhio giorno e notte!"
  },
  {
    "label": "002",
    "text": "{{anim id=\"37\"}}D'ora in poi conterò su di te quando\nmi servirà della {{color id=\"2\"}}medicina{{color id=\"65535\"}}. Addio,\nstarnuti!{{delay frames=\"15\"}} {{fun_0003000E arg=\"\"}}{{fun_00070005 arg=\"\"}}!"
  },
  {
    "label": "003",
    "text": "{{anim id=\"37\"}}Ora so che potrò contare su di te\nogni volta che sarò malata.{{delay frames=\"5\"}}.{{delay frames=\"5\"}}.{{delay frames=\"5\"}}\nSarai {{fun_0006000E arg=\"0x220069006C0020006D0069006F00200069006E006600650072006D00690065007200650022006C00610020006D0069006100200069006E006600650072006D006900650072006100\"}} personale!"
  }
]