﻿[
  {
    "label": "001",
    "text": "{{anim id=\"35\"}}Che bello! Sono contenta che tu\nabbia accettato.{{delay frames=\"10\"}} Andiamo in piazza\nper cercare altri giocatori!{{fun_00080007 arg=\"0x58020000\"}}"
  },
  {
    "label": "002",
    "text": "{{anim id=\"37\"}}Benissimo! Adesso cerchiamo\naltri giocatori e poi troviamoci\nin piazza, {{fun_00070005 arg=\"\"}}!{{fun_00080007 arg=\"0x58020000\"}}"
  },
  {
    "label": "003",
    "text": "{{anim id=\"10\"}}Ah, finalmente qualcuno ha\naccettato!{{delay frames=\"20\"}} Spero di convincere\nanche altri. {{anim id=\"37\"}}Andiamo in piazza!{{fun_00080007 arg=\"0x58020000\"}}"
  },
  {
    "label": "004",
    "text": "{{anim id=\"15\"}}Aspetta.{{delay frames=\"5\"}}.{{delay frames=\"5\"}}.{{delay frames=\"5\"}} È già quest'ora?!{{fun_00010007 arg=\"\"}}\n{{anim id=\"27\"}}So che è stata una mia idea,\nma devo rimandare a un'altra volta."
  }
]