﻿[
  {
    "label": "001",
    "text": "{{anim id=\"23\"}}Perché non stai cercando chi è\nancora nascosto, {{fun_00080005 arg=\"\"}}?{{delay frames=\"10\"}}\nNon vorrai mica perdere..."
  },
  {
    "label": "002",
    "text": "{{anim id=\"37\"}}Continua a cercare!\n{{anim id=\"36\"}}A meno che tu ti sia già dat{{fun_0006000E arg=\"0x02006F0002006100\"}}\nper vint{{fun_0006000E arg=\"0x02006F0002006100\"}}, {{fun_00080005 arg=\"\"}}..."
  },
  {
    "label": "003",
    "text": "{{anim id=\"6\"}}Trova chi è ancora nascosto,\n{{fun_00080005 arg=\"\"}}, oppure perderai!"
  },
  {
    "label": "004",
    "text": "{{anim id=\"9\"}}Oh, {{delay frames=\"5\"}}mi dispiace, {{fun_00080005 arg=\"\"}}.{{delay frames=\"5\"}}.{{delay frames=\"5\"}}.{{delay frames=\"5\"}}\nNon hai fatto in tempo a trovare\ntutti i giocatori nascosti.\n{{anim id=\"27\"}}Questo significa che vinciamo noi,\n{{fun_00070005 arg=\"\"}}. {{delay frames=\"10\"}}{{anim id=\"37\"}}Dai, la prossima\nvolta sarai più fortunat{{fun_0006000E arg=\"0x02006F0002006100\"}}!"
  }
]