﻿[
  {
    "label": "001",
    "text": "{{anim id=\"9\"}}Scusa, {{fun_00080005 arg=\"\"}}, {{delay frames=\"8\"}}ma adesso\nvorrei stare un po' da sola.{{pageBreak}}{{anim id=\"11\"}}Non è successo niente. {{delay frames=\"8\"}}È solo\nche ho tanti pensieri per la testa.{{delay frames=\"16\"}}\nMagari parliamo un'altra volta.{{fun_0005000B arg=\"0x03CD\"}}"
  },
  {
    "label": "002",
    "text": "Mi dispiace molto,{{delay frames=\"8\"}} {{fun_00080005 arg=\"\"}},{{delay frames=\"8\"}}\nma adesso non posso parlare con te.\n{{anim id=\"23\"}}Potremmo rimandare a più tardi?\n{{anim id=\"6\"}}Mi sono appena ricordata che\ndevo sbrigare alcune faccende\nche non possono più aspettare!{{fun_0005000B arg=\"0x03CD\"}}"
  },
  {
    "label": "003",
    "text": "{{anim id=\"9\"}}Ascolta, {{fun_00080005 arg=\"\"}}...{{delay frames=\"8\"}} so che hai\nvoglia di parlare,{{delay frames=\"8\"}} ma adesso\nnon è proprio il momento giusto.\n{{anim id=\"7\"}}E... no, {{delay frames=\"8\"}}non ho intenzione\ndi spiegarti perché!{{fun_0005000B arg=\"0x03CD\"}}"
  }
]