﻿[
  {
    "label": "001",
    "text": "{{anim id=\"1\"}}Ciao!{{delay frames=\"30\"}}\n{{anim id=\"23\"}}Forse ti sembrerà strano\ntrovarmi qui, vero?\n{{anim id=\"0\"}}La verità è che{{delay frames=\"8\"}}.{{delay frames=\"8\"}}.{{delay frames=\"8\"}}.{{delay frames=\"20\"}}{{delay frames=\"8\"}} {{anim id=\"37\"}}ho intenzione\ndi correre anch'io per la carica\ndi sindaco di Puzzleopoli!"
  },
  {
    "label": "002",
    "text": "{{anim id=\"11\"}}Dopotutto, è già un bel po'{{delay frames=\"8\"}} che\nmi impegno a sostituire il sindaco\nquando è via{{delay frames=\"8\"}}.{{delay frames=\"8\"}}.{{delay frames=\"8\"}}.\n{{anim id=\"0\"}}Inoltre,{{delay frames=\"8\"}} ormai sono diventata\nun'esperta di procedure\nper i lavori pubblici...{{delay frames=\"20\"}}\n{{anim id=\"21\"}}... e credo che nessuno si impegni\na favore della città come me.{{delay frames=\"16\"}} {{anim id=\"6\"}}Sarò\nun grande sindaco,{{delay frames=\"8\"}} ne sono certa!{{delay frames=\"20\"}}\n{{anim id=\"15\"}}Accifuffoli!{{delay frames=\"30\"}} {{anim id=\"26\"}}Scusami,{{delay frames=\"40\"}} mi sono\nlasciata trasportare\ndall'entusiasmo{{delay frames=\"8\"}}.{{delay frames=\"8\"}}.{{delay frames=\"8\"}}."
  },
  {
    "label": "003",
    "text": "Bene,{{delay frames=\"8\"}} {{anim id=\"37\"}}ora vado a fare un giro\nin città per vedere{{delay frames=\"8\"}} se gli abitanti\nsono pronti a sostenermi!\n{{anim id=\"32\"}}Arrivederci a presto,{{delay frames=\"8\"}} spero!"
  },
  {
    "label": "004",
    "text": "{{fun_00020007 arg=\"\"}}In questo quadro, oltre ai {{color id=\"2\"}}pannelli\ndolcetto{{color id=\"65535\"}} appariranno dei {{color id=\"2\"}}blocchi{{color id=\"65535\"}}!{{fun_00030007 arg=\"\"}}{{delay frames=\"40\"}}"
  },
  {
    "label": "006",
    "text": "{{fun_0003000E arg=\"\"}}{{fun_00000005 arg=\"\"}},{{delay frames=\"8\"}}{{anim id=\"23\"}} hai finito\ncon i preparativi?"
  },
  {
    "label": "007",
    "text": "{{anim id=\"21\"}}Bene,{{delay frames=\"8\"}}{{anim id=\"32\"}} allora partiamo!"
  },
  {
    "label": "008",
    "text": ""
  },
  {
    "label": "009",
    "text": ""
  },
  {
    "label": "011",
    "text": "{{anim id=\"41\"}}Oh, accifuffoli!{{delay frames=\"8\"}} Ho perso!{{delay frames=\"40\"}}\n{{anim id=\"37\"}}{{fun_0003000E arg=\"\"}}{{fun_00000005 arg=\"\"}}, {{delay frames=\"8\"}}{{anim id=\"37\"}}sei davvero in gamba!"
  },
  {
    "label": "012",
    "text": "{{anim id=\"36\"}}Sono sicura {{delay frames=\"16\"}}{{anim id=\"5\"}}che farai del tuo meglio\ncome sindaco{{delay frames=\"8\"}} e che baderai anche\nalle mie necessità,{{delay frames=\"8\"}} eh eh!\n{{anim id=\"21\"}}Io mi impegnerò a sostenerti come\nsegretaria!{{delay frames=\"16\"}} {{anim id=\"1\"}}Mi raccomando,\nmetticela tutta!"
  },
  {
    "label": "013",
    "text": ""
  },
  {
    "label": "014",
    "text": ""
  },
  {
    "label": "016",
    "text": "{{anim id=\"38\"}}Ah!{{delay frames=\"30\"}}\n{{anim id=\"3\"}}Ho vinto io!{{delay frames=\"8\"}} Fuffissimo!{{delay frames=\"40\"}}{{anim id=\"37\"}}"
  },
  {
    "label": "017",
    "text": "Se vuoi, {{fun_00000005 arg=\"\"}},{{delay frames=\"16\"}} puoi farmi\ntu da segretari{{fun_0006000E arg=\"0x02006F0002006100\"}}...{{delay frames=\"20\"}} Il posto si è\nliberato,{{delay frames=\"8\"}} {{anim id=\"1\"}}ah ah ah!{{delay frames=\"20\"}}"
  },
  {
    "label": "018",
    "text": ""
  },
  {
    "label": "019",
    "text": ""
  }
]