﻿[
  {
    "label": "001",
    "text": "{{anim id=\"37\"}}Ehi! {{delay frames=\"5\"}}Stai facendo bisboccia\n{{fun_0010000E arg=\"\"}} {{fun_00050005 arg=\"\"}}? {{delay frames=\"5\"}}Io te lo auguro,\npoi vedi tu che fare, {{fun_00070005 arg=\"\"}}!"
  },
  {
    "label": "002",
    "text": "{{anim id=\"37\"}}{{fun_0003000E arg=\"\"}}{{fun_00060007 arg=\"\"}}Ehi, {{fun_00000005 arg=\"\"}}{{fun_00070007 arg=\"\"}}.{{pageBreak}}Che ne dici della nostra {{fun_00050005 arg=\"\"}}?\nSecondo me ti piace, è ovvio,\n{{fun_00070005 arg=\"\"}}!"
  },
  {
    "label": "003",
    "text": "{{anim id=\"1\"}}Ehi. {{delay frames=\"5\"}}Ma tu sei {{fun_00000005 arg=\"\"}}.{{fun_0001000A arg=\"0x09000A00\"}}"
  },
  {
    "label": "004",
    "text": "{{anim id=\"37\"}}{{fun_0003000E arg=\"\"}}{{fun_00060007 arg=\"\"}}Ehi! {{delay frames=\"5\"}}Ti ho beccat{{fun_0006000E arg=\"0x02006F0002006100\"}}, {{fun_00080005 arg=\"\"}}{{fun_00070007 arg=\"\"}}!{{delay frames=\"10\"}}\nCome te la passi, {{fun_00070005 arg=\"\"}}?"
  },
  {
    "label": "005",
    "text": "{{fun_0016000A arg=\"0x0207000200CD\"}}"
  },
  {
    "label": "006",
    "text": "{{fun_0016000A arg=\"0x0108000200CD\"}}"
  },
  {
    "label": "007",
    "text": "{{anim id=\"40\"}}Ma sì, {{delay frames=\"5\"}}lo sapevo che eri tu. {{delay frames=\"10\"}}Nessuno\nha la tua classe nel portare la canna\nda pesca, {{fun_00080005 arg=\"\"}}. {{delay frames=\"5\"}}Salve!"
  },
  {
    "label": "008",
    "text": "{{anim id=\"40\"}}Ma certo, {{delay frames=\"5\"}}lo sapevo che eri tu.{{delay frames=\"10\"}}\nNessuno sa far volteggiare il retino\ncome fai tu, {{fun_00080005 arg=\"\"}}. {{delay frames=\"5\"}}Hola!"
  },
  {
    "label": "009",
    "text": "{{anim id=\"23\"}}Dai, {{delay frames=\"5\"}}ammettilo che {{fun_00050005 arg=\"\"}} ti\npiace da matti! {{delay frames=\"10\"}}{{anim id=\"21\"}}Ma sì, te lo leggo\nnegli occhi, {{fun_00080005 arg=\"\"}}!"
  },
  {
    "label": "010",
    "text": "Lo sai {{delay frames=\"5\"}}che ogni volta che ti vedo...\n{{anim id=\"21\"}}Eccoti qua, {{fun_00080005 arg=\"\"}}!"
  }
]