﻿[
  {
    "label": "001",
    "text": "Basta, è ora che la smetta di\nsalutare tutti con il solito\n\"{{fun_0003000E arg=\"\"}}{{fun_00060007 arg=\"\"}}Ehi, hola{{fun_00070007 arg=\"\"}}\".\nPerché non mi consigli un saluto\nsupertosto che mi faccia fare\nbella figura con todos, {{fun_00080005 arg=\"\"}}?{{fun_00050008 arg=\"0x0400150003002800\"}}\nMa certo!\nSono a corto di idee..."
  },
  {
    "label": "002",
    "text": "Ho proprio bisogno di vivacizzare\nil mio saluto, {{fun_00080005 arg=\"\"}}. Ho chiuso\ncon \"{{fun_0003000E arg=\"\"}}{{fun_00060007 arg=\"\"}}Ehi, ehilà, hola{{fun_00070007 arg=\"\"}}\".\n{{anim id=\"23\"}}Me ne potresti consigliare uno?{{delay frames=\"10\"}}\nDai, por favor! {{delay frames=\"5\"}}Qualcosa di speciale\nche sia perfetto per me?{{delay frames=\"5\"}}{{fun_00050008 arg=\"0x0400150003002800\"}}\nMa certo!\nSono a corto di idee..."
  },
  {
    "label": "003",
    "text": "Non mi dire che ti piace quello che\nuso sempre, {{fun_00080005 arg=\"\"}}? {{delay frames=\"10\"}}{{anim id=\"37\"}}Beh, allora\ncontinuerò a usarlo per un po'..."
  },
  {
    "label": "004",
    "text": "{{anim id=\"37\"}}Lo sapevo che potevo contare\nsu di te, {{fun_00070005 arg=\"\"}}."
  },
  {
    "label": "005",
    "text": "{{anim id=\"37\"}}Mmmh, \"{{fun_00060007 arg=\"\"}}{{fun_00070007 arg=\"\"}}\"...{{fun_00010007 arg=\"\"}}\n\"{{fun_00060007 arg=\"\"}}{{fun_00070007 arg=\"\"}}\"...{{fun_00010007 arg=\"\"}}\nChe te ne pare, amig{{fun_0006000E arg=\"0x02006F0002006100\"}}?{{fun_0008000D arg=\"0x02CD\"}}{{fun_00050008 arg=\"0x0700150006002800\"}}\nFantastico!\nNon funziona..."
  },
  {
    "label": "006",
    "text": "Non ti piace? {{delay frames=\"5\"}}OK, ho capito,\n{{fun_00080005 arg=\"\"}}. {{delay frames=\"5\"}}Riprova, dai!"
  },
  {
    "label": "007",
    "text": "{{fun_00010009 arg=\"0x080009000A00\"}}"
  },
  {
    "label": "008",
    "text": "{{anim id=\"1\"}}Uaaauuu, \"{{fun_00060007 arg=\"\"}}{{fun_00070007 arg=\"\"}}\"...{{delay frames=\"10\"}}\nMa come ho fatto a non pensarci\nio?!{{delay frames=\"10\"}} Gracias di cuore, {{fun_00080005 arg=\"\"}}!"
  },
  {
    "label": "009",
    "text": "{{anim id=\"37\"}}OK, {{delay frames=\"5\"}}\"{{fun_00060007 arg=\"\"}}{{fun_00070007 arg=\"\"}}\"...?{{delay frames=\"10\"}}\nMa certo, {{delay frames=\"5\"}}mi cambierà la vita!{{delay frames=\"5\"}}\n{{anim id=\"1\"}}Gracias, {{fun_00080005 arg=\"\"}}!"
  },
  {
    "label": "010",
    "text": "{{anim id=\"37\"}}Allora...{{delay frames=\"5\"}}\"{{fun_00060007 arg=\"\"}}{{fun_00070007 arg=\"\"}}\"?{{delay frames=\"10\"}}\nMa come avrò fatto a non pensarci,\n{{fun_00080005 arg=\"\"}}!?{{delay frames=\"10\"}} {{anim id=\"1\"}}Muchas gracias!"
  }
]