﻿[
  {
    "label": "001",
    "text": "{{anim id=\"21\"}}Ehm{{delay frames=\"4\"}}.{{delay frames=\"4\"}}.{{delay frames=\"4\"}}.{{delay frames=\"4\"}} Salve! Io sono {{fun_00010005 arg=\"\"}}!{{delay frames=\"32\"}}\n{{anim id=\"6\"}}Non pensavo che ce l'avrei fatta{{delay frames=\"4\"}}.{{delay frames=\"4\"}}.{{delay frames=\"4\"}}.{{delay frames=\"4\"}}{{pageBreak}}{{anim id=\"15\"}}Cosa? {{delay frames=\"32\"}}{{anim id=\"37\"}}Ah, stavo facendo le prove\ndel discorso che pronuncerò quando\nsalirò sul podio del vincitore!"
  },
  {
    "label": "002",
    "text": "{{anim id=\"6\"}}Il torneo di pesca di {{fun_00050005 arg=\"\"}}{{delay frames=\"8\"}}.{{delay frames=\"8\"}}.{{delay frames=\"8\"}}.\n{{delay frames=\"8\"}}sta per cominciare!{{fun_00010007 arg=\"\"}}\n{{anim id=\"35\"}}Sei pront{{fun_0006000E arg=\"0x02006F0002006100\"}},{{delay frames=\"8\"}} {{fun_00080005 arg=\"\"}}?"
  },
  {
    "label": "003",
    "text": "{{anim id=\"6\"}}Finalmente, il torneo di pesca\ndi {{fun_00050005 arg=\"\"}} sta per iniziare.{{fun_00010007 arg=\"\"}}\n{{anim id=\"33\"}}Non sarà facile battermi oggi!"
  },
  {
    "label": "004",
    "text": "Quando prendi un pesciotto,{{delay frames=\"16\"}}\nportalo a {{color id=\"4\"}}Castore{{color id=\"65535\"}}.{{delay frames=\"8\"}} OK, {{delay frames=\"8\"}}{{fun_00080005 arg=\"\"}}?{{pageBreak}}{{anim id=\"37\"}}Lui è l'organizzatore del torneo.{{delay frames=\"8\"}}\nLo sai, no?!{{delay frames=\"8\"}} {{fun_0003000E arg=\"\"}}{{fun_00070005 arg=\"\"}}?"
  },
  {
    "label": "005",
    "text": ""
  },
  {
    "label": "006",
    "text": "{{anim id=\"6\"}}Il torneo di pesca di {{fun_00050005 arg=\"\"}}\nè finalmente iniziato!{{pageBreak}}{{anim id=\"37\"}}La pesca è uno sport in cui ti rilassi\ne assapori il trascorrere del tempo.{{delay frames=\"32\"}}\n{{anim id=\"35\"}}Passa una bella giornata!"
  },
  {
    "label": "007",
    "text": "I pesci abboccano?{{delay frames=\"16\"}} {{anim id=\"23\"}}Ne hai già preso\nqualcuno,{{delay frames=\"8\"}} {{fun_00080005 arg=\"\"}}?{{pageBreak}}{{anim id=\"37\"}}Beh,{{delay frames=\"16\"}} abbiamo appena iniziato!{{delay frames=\"32\"}}\nNon aver fretta e divertiti!"
  },
  {
    "label": "008",
    "text": "Il torneo di pesca termina alle 18.{{fun_00010007 arg=\"\"}}\n{{anim id=\"37\"}}Dovresti dedicare tutto il tempo\nalla pesca{{delay frames=\"8\"}}.{{delay frames=\"8\"}}.{{delay frames=\"8\"}}.{{delay frames=\"32\"}} {{anim id=\"6\"}}No, ehm,{{delay frames=\"8\"}} fai come vuoi!"
  },
  {
    "label": "009",
    "text": "{{anim id=\"23\"}}Hai già preso un bel pescione,{{delay frames=\"8\"}}\n{{fun_00080005 arg=\"\"}}?{{fun_00010007 arg=\"\"}} {{anim id=\"15\"}}Cosa? {{delay frames=\"8\"}}Oh, io? {{anim id=\"36\"}}Beh,\nquesta è un'informazione riservata!{{delay frames=\"16\"}}\nDopotutto,{{delay frames=\"8\"}} oggi tu sei {{anim id=\"35\"}}{{fun_0006000E arg=\"0x0C0075006E0020006D0069006F000E0075006E00610020006D0069006100\"}}\nrivale, no?"
  },
  {
    "label": "010",
    "text": "{{anim id=\"9\"}}Che odorino! Mi sento le mani{{delay frames=\"8\"}}.{{delay frames=\"8\"}}.{{delay frames=\"8\"}}.\n{{delay frames=\"8\"}}tutte pesciose."
  },
  {
    "label": "011",
    "text": "{{anim id=\"9\"}}Detto tra noi{{delay frames=\"8\"}}.{{delay frames=\"8\"}}.{{delay frames=\"8\"}}.{{delay frames=\"8\"}} la pesca\nnon è proprio il mio forte, ma...\nqui lo dico e qui lo nego!{{delay frames=\"8\"}}"
  },
  {
    "label": "012",
    "text": "{{anim id=\"5\"}}Che bello,{{delay frames=\"8\"}} {{fun_00070005 arg=\"\"}}!\n{{delay frames=\"16\"}}Oggi gli abitanti di {{fun_00050005 arg=\"\"}}\nsono uniti più che mai!{{pageBreak}}{{anim id=\"6\"}}Questa armonia riempie di passione\nil mio corazón{{delay frames=\"8\"}}.{{delay frames=\"8\"}}.{{delay frames=\"8\"}}.{{delay frames=\"8\"}}"
  },
  {
    "label": "013",
    "text": "{{anim id=\"6\"}}Dai,{{delay frames=\"16\"}} il torneo finirà tra poco,\n{{delay frames=\"8\"}}{{fun_00080005 arg=\"\"}}!{{pageBreak}}{{anim id=\"39\"}}Voglio pescare un bel pesciotto che\nlasci senza parole il nostro amico\n{{color id=\"4\"}}Castore{{color id=\"65535\"}}{{delay frames=\"8\"}}.{{delay frames=\"8\"}}.{{delay frames=\"8\"}}.{{delay frames=\"8\"}}"
  },
  {
    "label": "014",
    "text": "{{fun_0003000E arg=\"\"}}{{fun_00080005 arg=\"\"}},{{delay frames=\"16\"}} {{anim id=\"23\"}}hai fatto del tuo\nmeglio?{{fun_00010007 arg=\"\"}} {{anim id=\"35\"}}Metticela sempre tutta\ne non avrai mai rimpianti nella vita!"
  },
  {
    "label": "015",
    "text": "Resta ancora un po' di tempo!{{fun_00010007 arg=\"\"}}\n{{anim id=\"6\"}}Non mollare{{delay frames=\"8\"}}.{{delay frames=\"8\"}}.{{delay frames=\"8\"}}.{{delay frames=\"32\"}}{{anim id=\"35\"}} Divertiamoci\na pescare fino alla fine!"
  },
  {
    "label": "016",
    "text": ""
  },
  {
    "label": "017",
    "text": "{{anim id=\"37\"}}Il torneo di pesca è finito!{{delay frames=\"32\"}} Tra poco\nparteciperemo alla cerimonia\ndi premiazione,{{delay frames=\"8\"}} {{fun_00070005 arg=\"\"}}!"
  },
  {
    "label": "018",
    "text": "{{anim id=\"9\"}}Mi chiedo se sia il caso di venire\nalla cerimonia di premiazione\nvestito così{{delay frames=\"8\"}}.{{delay frames=\"8\"}}.{{delay frames=\"8\"}}.{{delay frames=\"8\"}}?!\n{{anim id=\"6\"}}Forse dovrei fare un salto a casa\n{{anim id=\"35\"}}a mettermi qualcosa di attillato\nper l'occasione?"
  },
  {
    "label": "019",
    "text": "{{anim id=\"38\"}}Evvai!{{fun_00010007 arg=\"\"}}\n{{delay frames=\"8\"}}.{{delay frames=\"8\"}}.{{delay frames=\"8\"}}.{{delay frames=\"8\"}}{{anim id=\"9\"}} No, \"Evvai\" non funziona.{{pageBreak}}{{anim id=\"11\"}}{{delay frames=\"16\"}}Devo pensare a un'esclamazione\npiù tosta per quando salirò\nsul podio del vincitore{{delay frames=\"4\"}}.{{delay frames=\"4\"}}.{{delay frames=\"4\"}}.{{delay frames=\"4\"}}"
  },
  {
    "label": "020",
    "text": ""
  },
  {
    "label": "021",
    "text": ""
  },
  {
    "label": "022",
    "text": "{{anim id=\"29\"}}Ah,{{delay frames=\"16\"}} allora hai vinto un premio\nnel torneo di pesca?!\n{{delay frames=\"32\"}}Complimenti,{{delay frames=\"8\"}} {{fun_00080005 arg=\"\"}}!"
  },
  {
    "label": "023",
    "text": "{{anim id=\"38\"}}Complimenti per il premio\nnel torneo di pesca!{{delay frames=\"32\"}} {{anim id=\"36\"}}Nella pesca,\nmi batti alla grande,{{delay frames=\"8\"}} {{fun_00080005 arg=\"\"}}!"
  },
  {
    "label": "024",
    "text": "{{anim id=\"29\"}}Complimenti,{{delay frames=\"8\"}} {{fun_00080005 arg=\"\"}}!{{pageBreak}}{{anim id=\"37\"}}Hai fatto un figurone al torneo\ndi pesca oggi. Sono ancora allibito,\n{{delay frames=\"8\"}}{{fun_00070005 arg=\"\"}}!"
  },
  {
    "label": "025",
    "text": "{{anim id=\"37\"}}A quanto pare, ho ottenuto\nun risultato migliore del tuo\nin questo torneo, eh,{{delay frames=\"8\"}} {{fun_00080005 arg=\"\"}}?!"
  },
  {
    "label": "026",
    "text": "{{anim id=\"9\"}}Scusa {{delay frames=\"32\"}}{{anim id=\"35\"}}per averti stracciato\nnel torneo di pesca, {{fun_00080005 arg=\"\"}}!"
  },
  {
    "label": "027",
    "text": "{{anim id=\"37\"}}Oggi ho avuto molta fortuna,{{delay frames=\"8\"}}\n{{fun_00080005 arg=\"\"}}. {{anim id=\"9\"}}Non te la prendere\ncosì, dai,{{delay frames=\"8\"}} {{fun_00070005 arg=\"\"}}!"
  },
  {
    "label": "028",
    "text": "{{anim id=\"9\"}}Mi dispiace,{{delay frames=\"8\"}} {{fun_00080005 arg=\"\"}}.{{delay frames=\"32\"}}\nNon hai vinto nessun premio\nnel torneo di pesca, vero?!\n{{anim id=\"6\"}}Per tirarti un po' su di morale,\n{{delay frames=\"32\"}}{{anim id=\"44\"}}ti farò uno dei miei fenomenali\nballetti!"
  },
  {
    "label": "029",
    "text": "{{anim id=\"6\"}}Vedrai che{{delay frames=\"32\"}} {{anim id=\"35\"}}la prossima volta sarai\ntu a salire sul podio del vincitore\ndel torneo di pesca{{delay frames=\"8\"}}.{{delay frames=\"8\"}}.{{delay frames=\"8\"}}.{{delay frames=\"8\"}}{{pageBreak}}{{anim id=\"37\"}}Dai, {{delay frames=\"16\"}}non ti abbattere.\nFallo per me,{{delay frames=\"8\"}} {{fun_00080005 arg=\"\"}}!"
  },
  {
    "label": "030",
    "text": "{{anim id=\"9\"}}{{fun_0003000E arg=\"\"}}{{fun_00080005 arg=\"\"}}, mi dispiace per\n{{delay frames=\"16\"}}il risultato del torneo di pesca{{delay frames=\"8\"}}.{{delay frames=\"8\"}}.{{delay frames=\"8\"}}.{{delay frames=\"8\"}}{{pageBreak}}{{anim id=\"37\"}}Non ti preoccupare,{{delay frames=\"16\"}} la prossima\nvolta sarai tu a salire sul podio\ndel vincitore,{{delay frames=\"8\"}} {{fun_00070005 arg=\"\"}}!"
  },
  {
    "label": "031",
    "text": "{{anim id=\"37\"}}La cerimonia di premiazione è finita,\n{{delay frames=\"16\"}}{{fun_00080005 arg=\"\"}}!{{pageBreak}}{{anim id=\"36\"}}Il mio corazón batte ancora\nall'impazzata! Ero tesissimo per\nla proclamazione del vincitore.\n{{anim id=\"0\"}}Se vuoi sapere come mi sento\nin questo momento,{{delay frames=\"16\"}} dovrai\npartecipare alla prossima edizione!"
  },
  {
    "label": "032",
    "text": "{{anim id=\"36\"}}Sei in ritardo, {{fun_00080005 arg=\"\"}}!\n{{delay frames=\"32\"}}La cerimonia di premiazione del\ntorneo è finita, {{delay frames=\"8\"}}{{fun_00070005 arg=\"\"}}!\n{{anim id=\"37\"}}Secondo me,{{delay frames=\"16\"}} dovresti partecipare\nanche tu la prossima volta!{{pageBreak}}{{anim id=\"35\"}}Eh eh eh! Potresti assistere\nalla mia gloriosa ascesa\nal podio del vincitore!"
  },
  {
    "label": "033",
    "text": "Il torneo di pesca è finito!{{pageBreak}}{{anim id=\"6\"}}Questo evento è un ottimo modo\nper far socializzare gli abitanti\ndella città{{delay frames=\"8\"}}.{{delay frames=\"8\"}}.{{delay frames=\"8\"}}.{{delay frames=\"8\"}}\n{{anim id=\"37\"}}È emozionante vedere quante nuove\namicizie nascono durante il torneo!{{delay frames=\"32\"}}\n{{anim id=\"35\"}}Più emozionante che vincere!"
  },
  {
    "label": "034",
    "text": "{{anim id=\"10\"}}{{delay frames=\"16\"}}Fiuuu{{delay frames=\"8\"}}.{{delay frames=\"8\"}}.{{delay frames=\"8\"}}.{{delay frames=\"8\"}} Alla fine il torneo di pesca\nè finito, eh?!{{delay frames=\"32\"}}{{pageBreak}}Oh, sorbole, che stanchezza{{delay frames=\"8\"}}.{{delay frames=\"8\"}}.{{delay frames=\"8\"}}.{{delay frames=\"8\"}}\n{{anim id=\"35\"}}Stanotte dormirò come un sasso!\n{{delay frames=\"32\"}}{{delay frames=\"8\"}}.{{delay frames=\"8\"}}.{{delay frames=\"8\"}}.{{delay frames=\"8\"}}{{anim id=\"13\"}} Oh! Come mi puzzano le mani! "
  },
  {
    "label": "035",
    "text": ""
  },
  {
    "label": "036",
    "text": ""
  },
  {
    "label": "037",
    "text": ""
  },
  {
    "label": "038",
    "text": ""
  },
  {
    "label": "039",
    "text": ""
  },
  {
    "label": "040",
    "text": "{{fun_0003000E arg=\"\"}}{{fun_00080005 arg=\"\"}},{{delay frames=\"8\"}} lo sapevi?{{fun_00010007 arg=\"\"}}\n{{anim id=\"9\"}}La cerimonia di premiazione del\ntorneo di pesca è stata annullata!\n{{anim id=\"11\"}}{{delay frames=\"16\"}}Che disdetta! Avevo fatto\nuna faticaccia per imparare\na memoria il mio discorso{{delay frames=\"8\"}}.{{delay frames=\"8\"}}.{{delay frames=\"8\"}}.{{delay frames=\"8\"}}"
  },
  {
    "label": "041",
    "text": "{{anim id=\"9\"}}Purtroppo{{delay frames=\"8\"}}.{{delay frames=\"8\"}}.{{delay frames=\"8\"}}.{{delay frames=\"8\"}} la cerimonia di\npremiazione è stata annullata\nall'improvviso.\n{{anim id=\"36\"}}Vorrà dire che dovrò aspettare\nla prossima volta per declamare\nil mio discorso,{{delay frames=\"8\"}} {{fun_00070005 arg=\"\"}}."
  },
  {
    "label": "042",
    "text": ""
  },
  {
    "label": "043",
    "text": "Di solito prendo molti pesci{{delay frames=\"8\"}}.{{delay frames=\"8\"}}.{{delay frames=\"8\"}}.{{delay frames=\"32\"}}\nma oggi sono troppo impegnato\na riflettere sulla mia vita!"
  },
  {
    "label": "044",
    "text": "Mi sento in armonia con la natura{{delay frames=\"8\"}}.{{delay frames=\"8\"}}.{{delay frames=\"8\"}}.\n{{delay frames=\"32\"}}E anche il mio corazón è più\nossigenato che mai!"
  }
]