﻿[
  {
    "label": "001",
    "text": "{{anim id=\"15\"}}Eh?{{delay frames=\"32\"}} {{anim id=\"36\"}}Ti piace prendermi in giro,\n{{delay frames=\"16\"}}vero, {{fun_00080005 arg=\"\"}}?"
  },
  {
    "label": "002",
    "text": "{{anim id=\"15\"}}Ah{{delay frames=\"4\"}}.{{delay frames=\"4\"}}.{{delay frames=\"4\"}}.{{delay frames=\"4\"}} Mi hai portato qualcosa da\nappendere al muro, {{delay frames=\"8\"}}{{fun_00070005 arg=\"\"}}...{{pageBreak}}{{anim id=\"9\"}}Mi dispiace,{{delay frames=\"16\"}} ma non è esattamente\nquello che cercavo.{{delay frames=\"32\"}} Mi serviva{{anim id=\"37\"}}\ntutta un'altra cosa!"
  },
  {
    "label": "003",
    "text": "{{anim id=\"15\"}}Oh? {{delay frames=\"32\"}}{{anim id=\"9\"}}Uau, questo affare è{{delay frames=\"4\"}}.{{delay frames=\"4\"}}.{{delay frames=\"4\"}}.{{delay frames=\"4\"}} è.{{delay frames=\"4\"}}.{{delay frames=\"4\"}}.\n{{delay frames=\"4\"}}è mucho più grande di quanto\npensassi.\n{{anim id=\"36\"}}Se fosse un po' più piccolo,{{delay frames=\"16\"}} magari\nandrebbe anche bene, ma così{{delay frames=\"4\"}}.{{delay frames=\"4\"}}.{{delay frames=\"4\"}}.{{delay frames=\"4\"}}"
  },
  {
    "label": "004",
    "text": "{{anim id=\"15\"}}Oh? {{delay frames=\"32\"}}{{anim id=\"9\"}}Questo affare{{delay frames=\"4\"}}.{{delay frames=\"4\"}}.{{delay frames=\"4\"}}.{{delay frames=\"4\"}} è mucho\npiù piccolo di quanto pensassi.{{pageBreak}}{{anim id=\"36\"}}Se fosse stato almeno un po' più\ngrande, l'avrei preso,{{delay frames=\"16\"}} ma così{{delay frames=\"4\"}}.{{delay frames=\"4\"}}.{{delay frames=\"4\"}}.{{delay frames=\"4\"}}"
  },
  {
    "label": "005",
    "text": "{{anim id=\"15\"}}Oh{{delay frames=\"4\"}}.{{delay frames=\"4\"}}.{{delay frames=\"4\"}}.{{delay frames=\"4\"}} Che ci faccio con qualcosa da\nappendere al muro, {{delay frames=\"8\"}}{{fun_00070005 arg=\"\"}}?\n{{anim id=\"9\"}}Scusa, ma non mi serve.\nVorrei {{anim id=\"37\"}}un {{color id=\"2\"}}mobile{{color id=\"65535\"}} da appoggiare\na terra, grande più o meno come\n{{fun_0001000E arg=\"\"}}{{fun_00030011 arg=\"0x0000\"}}."
  },
  {
    "label": "006",
    "text": "{{anim id=\"15\"}}Oh? {{delay frames=\"32\"}}{{anim id=\"9\"}}Beh, ma{{delay frames=\"4\"}}.{{delay frames=\"4\"}}.{{delay frames=\"4\"}}.{{delay frames=\"4\"}} è più grande\ndi quanto pensassi.{{pageBreak}}{{anim id=\"36\"}}Se non fosse così grande,\nmi farebbe comodo, ma{{delay frames=\"4\"}}.{{delay frames=\"4\"}}.{{delay frames=\"4\"}}.{{delay frames=\"4\"}}{{pageBreak}}{{anim id=\"37\"}}Per darti un'idea, mi serve\nqualcosa grande più o meno come\n{{fun_0001000E arg=\"\"}}{{fun_00030011 arg=\"0x0000\"}}!"
  },
  {
    "label": "007",
    "text": "{{anim id=\"15\"}}Eh? {{delay frames=\"32\"}}{{anim id=\"9\"}}Questo affare{{delay frames=\"4\"}}.{{delay frames=\"4\"}}.{{delay frames=\"4\"}}.{{delay frames=\"4\"}} è più piccolo\ndi quanto pensassi.{{pageBreak}}{{anim id=\"36\"}}Se fosse appena un po' più\ngrande,{{delay frames=\"16\"}} forse lo terrei, ma{{delay frames=\"4\"}}.{{delay frames=\"4\"}}.{{delay frames=\"4\"}}.{{delay frames=\"4\"}}{{pageBreak}}{{anim id=\"37\"}}Al momento, me ne serve uno\ngrande più o meno come\n{{fun_0001000E arg=\"\"}}{{fun_00030011 arg=\"0x0000\"}}{{delay frames=\"4\"}}.{{delay frames=\"4\"}}.{{delay frames=\"4\"}}.{{delay frames=\"4\"}}"
  },
  {
    "label": "008",
    "text": "{{anim id=\"15\"}}Oh? {{delay frames=\"32\"}}{{anim id=\"0\"}}Questo mobile è{{delay frames=\"8\"}}.{{delay frames=\"8\"}}.{{delay frames=\"8\"}}.\n{{delay frames=\"8\"}}è {{fun_0008000E arg=\"0x00CD100075006E00200061006C00740072006F00100075006E00270061006C007400720061000000\"}} {{fun_00030011 arg=\"0x0000\"}}!{{pageBreak}}{{anim id=\"9\"}}Con le misure ci siamo, ma io volevo\nqualcosa di diverso{{delay frames=\"8\"}}.{{delay frames=\"8\"}}.{{delay frames=\"8\"}}.{{delay frames=\"8\"}}{{pageBreak}}{{anim id=\"15\"}}Ma non ti demoralizzare,{{delay frames=\"8\"}}\n{{fun_00080005 arg=\"\"}}!{{delay frames=\"32\"}} {{anim id=\"37\"}}Tirati su e riproviamo.\nAnzi{{delay frames=\"8\"}}.{{delay frames=\"8\"}}.{{delay frames=\"8\"}}. riprova!"
  },
  {
    "label": "009",
    "text": "{{anim id=\"15\"}}Oh? {{delay frames=\"16\"}}Niente male{{delay frames=\"8\"}}.{{delay frames=\"8\"}}.{{delay frames=\"8\"}}.{{delay frames=\"32\"}} {{anim id=\"19\"}}Ma mi sa che\nnon mi sono spiegato bene.{{pageBreak}}{{anim id=\"9\"}}Questo mobile non può stare sopra\n{{fun_0001000E arg=\"\"}}{{fun_00030011 arg=\"0x0000\"}}{{delay frames=\"8\"}}.{{delay frames=\"8\"}}.{{delay frames=\"8\"}}.{{delay frames=\"8\"}}{{pageBreak}}{{anim id=\"36\"}}Va bene, noi non ci abbattiamo e ci\nriproviamo, vero?! E quando dico\n\"noi\", intendo \"tu\". OK,{{delay frames=\"16\"}} {{fun_00080005 arg=\"\"}}?"
  },
  {
    "label": "010",
    "text": "{{anim id=\"15\"}}Ah{{delay frames=\"4\"}}.{{delay frames=\"4\"}}.{{delay frames=\"4\"}}.{{delay frames=\"4\"}} Questo mobile si appende al\nmuro,{{delay frames=\"16\"}} giusto, {{delay frames=\"8\"}}{{fun_00070005 arg=\"\"}}?\n{{anim id=\"9\"}}Beh, mi dispiace,{{delay frames=\"16\"}} ma non mi serve.\n{{anim id=\"36\"}}Ne voglio uno per sostituire\n{{fun_0001000E arg=\"\"}}{{fun_00030011 arg=\"0x0000\"}}.\n{{delay frames=\"16\"}}Solo questo, nient'altro!"
  },
  {
    "label": "011",
    "text": "{{anim id=\"15\"}}Questo oggetto{{delay frames=\"8\"}}.{{delay frames=\"8\"}}.{{delay frames=\"8\"}}.{{delay frames=\"32\"}}{{anim id=\"19\"}} non mi fa\nimpazzire. Non può sostituire\n{{fun_0001000E arg=\"\"}}{{fun_00030011 arg=\"0x0000\"}}.{{delay frames=\"16\"}}\n{{anim id=\"9\"}}Vedi... Non puedo mettere\n{{fun_0002000E arg=\"\"}}{{fun_00030011 arg=\"0x0100\"}}\nsopra un mobile{{delay frames=\"8\"}}.{{delay frames=\"8\"}}.{{delay frames=\"8\"}}.{{delay frames=\"8\"}}{{pageBreak}}{{anim id=\"36\"}}Mi serve qualcosa da sistemare,\nad esempio, sopra un tavolo.\nCapito,{{delay frames=\"16\"}} {{fun_00080005 arg=\"\"}}?"
  },
  {
    "label": "012",
    "text": "{{anim id=\"15\"}}Oh? {{delay frames=\"32\"}}{{anim id=\"0\"}}Mi hai portato{{delay frames=\"8\"}}.{{delay frames=\"8\"}}.{{delay frames=\"8\"}}.{{delay frames=\"8\"}} {{fun_0008000E arg=\"0x00CD100075006E00200061006C00740072006F00100075006E00270061006C007400720061000000\"}}\n{{fun_00030011 arg=\"0x0000\"}}?{{pageBreak}}{{anim id=\"9\"}}Voglio qualcosa che mi faccia\ndimenticare lo stile vecchio e noioso\n{{fun_0008000E arg=\"0x00CD0E00640065006C0020006D0069006F001200640065006C006C00610020006D00690061000000\"}} {{fun_00030011 arg=\"0x0000\"}}{{delay frames=\"8\"}}.{{delay frames=\"8\"}}.{{delay frames=\"8\"}}.{{delay frames=\"8\"}}\n{{anim id=\"15\"}}Non ti sentire in colpa,{{delay frames=\"8\"}} {{fun_00080005 arg=\"\"}}!\n{{delay frames=\"32\"}}{{anim id=\"37\"}}Sono sicuro che, se ti impegni,\nce la puoi fare! Vamos!"
  },
  {
    "label": "013",
    "text": "{{anim id=\"15\"}}Eh? {{delay frames=\"16\"}}E come pensi{{delay frames=\"32\"}} {{anim id=\"9\"}}che io riesca\nad attaccare questo affare al muro?{{pageBreak}}{{anim id=\"36\"}}Mi serve qualcosa para decorar\nla parete! OK, {{delay frames=\"8\"}}{{fun_00070005 arg=\"\"}}?"
  },
  {
    "label": "014",
    "text": "{{anim id=\"15\"}}Eh? {{delay frames=\"32\"}}Questo mobile è{{delay frames=\"8\"}}.{{delay frames=\"8\"}}.{{delay frames=\"8\"}}.{{delay frames=\"8\"}}\n{{fun_0002000E arg=\"\"}}{{fun_00030011 arg=\"0x0000\"}}.\nNon volevo certo un doppione!\n{{anim id=\"9\"}}Speravo di sostituire\nquell{{fun_0008000E arg=\"0x00CD02006F00020061000000\"}} che ho già en mi casa{{delay frames=\"8\"}}.{{delay frames=\"8\"}}.{{delay frames=\"8\"}}.{{delay frames=\"8\"}}{{pageBreak}}{{anim id=\"15\"}}Ma non te la prendere,{{delay frames=\"8\"}} {{fun_00080005 arg=\"\"}}!\n{{delay frames=\"32\"}}{{anim id=\"37\"}}Scegliere i mobili giusti non è certo\nuna passeggiata!"
  },
  {
    "label": "015",
    "text": "{{anim id=\"15\"}}Ma... {{delay frames=\"32\"}}{{anim id=\"11\"}}{{delay frames=\"16\"}}Mi sembra di aver già visto\nquesto mobile{{delay frames=\"8\"}}.{{delay frames=\"8\"}}.{{delay frames=\"8\"}}.{{delay frames=\"8\"}}{{pageBreak}}{{anim id=\"16\"}}Ah, giusto!{{delay frames=\"32\"}} {{anim id=\"37\"}}Ne ho uno uguale\nidentico a casa mia,{{delay frames=\"8\"}} {{fun_00070005 arg=\"\"}}!{{pageBreak}}{{anim id=\"9\"}}Scusa, ma non posso accettare.{{delay frames=\"32\"}}\nSe possibile, preferirei un mobile\ndiverso da quelli che ho già{{delay frames=\"8\"}}.{{delay frames=\"8\"}}.{{delay frames=\"8\"}}.{{delay frames=\"8\"}}"
  },
  {
    "label": "016",
    "text": ""
  },
  {
    "label": "017",
    "text": ""
  },
  {
    "label": "018",
    "text": "Penso che io e {{fun_0008000E arg=\"0x01CD0C00710075006500730074006F000C007100750065007300740061000000\"}} incantevole\n{{fun_00030011 arg=\"0x0100\"}}{{delay frames=\"15\"}}\nandremo d'amore e d'accordo{{delay frames=\"8\"}}.{{delay frames=\"8\"}}.{{delay frames=\"8\"}}.{{delay frames=\"32\"}}\n{{anim id=\"2\"}}Forse perfino più di noi due!"
  },
  {
    "label": "019",
    "text": "{{delay frames=\"8\"}}{{fun_0008000E arg=\"0x01CD0A0053006500F1006F0072000C0053006500F1006F00720061000000\"}} {{fun_00030011 arg=\"0x0100\"}},{{delay frames=\"20\"}}\nmi permetta di mostrarle la sua\nnuova casetta{{delay frames=\"8\"}}.{{delay frames=\"8\"}}.{{delay frames=\"8\"}}."
  },
  {
    "label": "020",
    "text": "{{anim id=\"16\"}}Sorbole{{delay frames=\"5\"}}.{{delay frames=\"5\"}}.{{delay frames=\"5\"}}.{{delay frames=\"20\"}}{{anim id=\"1\"}} È così a suo agio,\nche sembra sia qui da anni,\n{{delay frames=\"8\"}}{{fun_00070005 arg=\"\"}}!"
  },
  {
    "label": "021",
    "text": "{{anim id=\"15\"}}Ah, {{delay frames=\"16\"}}{{fun_0002000E arg=\"\"}}{{fun_00030011 arg=\"0x0100\"}}?{{delay frames=\"32\"}}\n{{anim id=\"37\"}}Ottima scelta. Proprio\nniente male, {{fun_00080005 arg=\"\"}}."
  },
  {
    "label": "022",
    "text": "{{anim id=\"15\"}}Oh, {{fun_0002000E arg=\"\"}}{{delay frames=\"16\"}}{{fun_00030011 arg=\"0x0100\"}}?{{delay frames=\"32\"}}\n{{anim id=\"37\"}}Uau, questo mobile è restaurato\ncosì bene che è irriconoscibile!"
  },
  {
    "label": "023",
    "text": "{{anim id=\"38\"}}Quando ho tempo, proverò\na vedere dove sta meglio,\n{{delay frames=\"8\"}}{{fun_00070005 arg=\"\"}}."
  },
  {
    "label": "024",
    "text": "{{anim id=\"1\"}}Appena arrivo a casa, cercherò\nil posto dove sta meglio,\n{{delay frames=\"8\"}}{{fun_00070005 arg=\"\"}}."
  },
  {
    "label": "025",
    "text": "{{anim id=\"38\"}}Vediamo se riesco a trovare\nil posto ideale per questo mobile!"
  },
  {
    "label": "026",
    "text": "{{anim id=\"4\"}}{{delay frames=\"16\"}}Perfetto, vero? Sono un mago\ndell'arredamento, non trovi?"
  },
  {
    "label": "027",
    "text": "{{anim id=\"37\"}}{{fun_0008000E arg=\"0x02CD0C00510075006500730074006F000C005100750065007300740061000000\"}} {{fun_00030011 arg=\"0x0200\"}}\nnon mi serve più. Te {{fun_0008000E arg=\"0x02CD04006C006F0004006C0061000000\"}} regalo,\n{{delay frames=\"8\"}}{{fun_00070005 arg=\"\"}}!"
  },
  {
    "label": "028",
    "text": "{{anim id=\"44\"}}Gracias, {{fun_00080005 arg=\"\"}}!{{delay frames=\"32\"}} Che ne diresti\ndi venire a vivere da me e\ndi aiutarmi tutti i giorni?"
  },
  {
    "label": "029",
    "text": ""
  },
  {
    "label": "030",
    "text": ""
  },
  {
    "label": "031",
    "text": "E così alla fine hai trovato\n{{fun_0002000E arg=\"\"}}{{fun_00030011 arg=\"0x0100\"}}, eh?{{delay frames=\"32\"}}\n{{anim id=\"37\"}}Una scelta maravillosa, direi!"
  },
  {
    "label": "032",
    "text": "{{anim id=\"11\"}}{{delay frames=\"16\"}}Mmmh, piuttosto originale{{delay frames=\"8\"}}.{{delay frames=\"8\"}}.{{delay frames=\"8\"}}.{{delay frames=\"8\"}}\nÈ {{fun_0002000E arg=\"\"}}{{fun_00030011 arg=\"0x0100\"}},\nvero?{{fun_00010007 arg=\"\"}} {{anim id=\"16\"}}Oh, ecco! {{delay frames=\"8\"}}È {{fun_0008000E arg=\"0x01CD200073007400610074006F0020007200650073007400610075007200610074006F00200073007400610074006100200072006500730074006100750072006100740061000000\"}}!"
  },
  {
    "label": "033",
    "text": "{{anim id=\"38\"}}Quando ho tempo, troverò\nil posto dove sta meglio,\n{{delay frames=\"8\"}}{{fun_00070005 arg=\"\"}}."
  },
  {
    "label": "034",
    "text": "{{anim id=\"1\"}}Appena arrivo a casa, posizionerò\nil mio nuovo gioiellino,\n{{delay frames=\"8\"}}{{fun_00070005 arg=\"\"}}!"
  },
  {
    "label": "035",
    "text": "{{anim id=\"11\"}}{{delay frames=\"16\"}}Mmmh{{delay frames=\"8\"}}.{{delay frames=\"8\"}}.{{delay frames=\"8\"}}.{{delay frames=\"8\"}} Mi chiedo dove potrebbe\nandare, per dare un ulteriore\ntocco di machosità alla casa..."
  },
  {
    "label": "036",
    "text": "{{anim id=\"11\"}}{{delay frames=\"16\"}}Mmmh{{delay frames=\"8\"}}.{{delay frames=\"8\"}}.{{delay frames=\"8\"}}.{{delay frames=\"32\"}} {{anim id=\"37\"}}Mi serve un po' di tempo\nper riflettere prima di posizionare\nquesta meraviglia, {{delay frames=\"8\"}}{{fun_00070005 arg=\"\"}}."
  },
  {
    "label": "037",
    "text": "{{anim id=\"22\"}}{{delay frames=\"16\"}}Oh, trovato!"
  },
  {
    "label": "038",
    "text": "{{anim id=\"4\"}}{{delay frames=\"16\"}}Non è la posizione ottimale?"
  },
  {
    "label": "039",
    "text": "{{anim id=\"39\"}}Sorbole,{{delay frames=\"8\"}} è bello vedere che\nhai pensato in grande per\nil sottoscritto,{{delay frames=\"8\"}} querid{{fun_0006000E arg=\"0x02006F0002006100\"}}...{{delay frames=\"20\"}}\n{{anim id=\"37\"}}... ma così è troppo!{{delay frames=\"20\"}} {{anim id=\"23\"}}Non avresti\nqualcosa di mas pequeño?{{delay frames=\"20\"}}\n{{anim id=\"1\"}}Basta un ricordino{{delay frames=\"8\"}}, {{fun_00070005 arg=\"\"}}!{{delay frames=\"20\"}}"
  },
  {
    "label": "040",
    "text": ""
  },
  {
    "label": "041",
    "text": "{{anim id=\"16\"}}Oh, aspetta! {{delay frames=\"32\"}}{{anim id=\"37\"}}Voglio ringraziarti per\nil tuo aiuto, {{delay frames=\"8\"}}{{fun_00070005 arg=\"\"}}."
  },
  {
    "label": "042",
    "text": "{{anim id=\"38\"}}È {{fun_0002000E arg=\"\"}}{{fun_00030011 arg=\"0x0200\"}}!{{delay frames=\"32\"}}\n{{anim id=\"37\"}}Un regalo speciale per {{fun_0006000E arg=\"0x0C0069006C0020006D0069006F000C006C00610020006D0069006100\"}}\n{{fun_0006000E arg=\"0x0A0061006D00690067006F000A0061006D00690067006100\"}} speciale!{{delay frames=\"16\"}} Gracias, {{fun_00080005 arg=\"\"}}!"
  },
  {
    "label": "043",
    "text": ""
  },
  {
    "label": "044",
    "text": ""
  },
  {
    "label": "045",
    "text": "{{anim id=\"16\"}}Oh, uau!{{delay frames=\"15\"}} Non ci posso credere, è\n{{fun_0002000E arg=\"\"}}{{fun_00030011 arg=\"0x0100\"}}!{{pageBreak}}{{anim id=\"37\"}}Adesso i miei allenamenti di\ndanza avranno un ritmo tutto\nnuovo!"
  },
  {
    "label": "046",
    "text": "{{anim id=\"16\"}}Ho capito!{{delay frames=\"15\"}} Hai trovato\n{{fun_0002000E arg=\"\"}}{{fun_00030011 arg=\"0x0100\"}}, eh?{{pageBreak}}{{anim id=\"36\"}}Mmmh, sì, {{delay frames=\"16\"}}potrebbe contribuire a\ndare alla casa un'aria intellettuale.\nPerfetto, {{delay frames=\"8\"}}{{fun_00070005 arg=\"\"}}!"
  },
  {
    "label": "047",
    "text": "{{anim id=\"16\"}}Oh!{{delay frames=\"15\"}} {{fun_0003000E arg=\"\"}}{{fun_0002000E arg=\"\"}}{{fun_00030011 arg=\"0x0100\"}}!{{pageBreak}}{{anim id=\"37\"}}Con questo insettuccio in giro,{{delay frames=\"16\"}}\nnon mi sentirò mai più solo!\nLo quiero già! Ehm,{{delay frames=\"32\"}} {{anim id=\"35\"}}sto scherzando!"
  },
  {
    "label": "048",
    "text": "{{anim id=\"16\"}}Oh!{{delay frames=\"15\"}} {{fun_0003000E arg=\"\"}}{{fun_0002000E arg=\"\"}}{{fun_00030011 arg=\"0x0100\"}}!{{pageBreak}}{{anim id=\"37\"}}Salve Señor Pesce!{{delay frames=\"16\"}} Saremo amici\nper le pinne, ti va? {{anim id=\"16\"}}Aspetta,{{delay frames=\"32\"}} {{anim id=\"37\"}}ma sei\nun chico o una chica? È importante!"
  },
  {
    "label": "049",
    "text": "{{anim id=\"16\"}}Oh!{{delay frames=\"15\"}} {{fun_0003000E arg=\"\"}}{{fun_0002000E arg=\"\"}}{{fun_00030011 arg=\"0x0100\"}}!{{pageBreak}}{{anim id=\"37\"}}Ora mi sembrerà di essere sempre\nin riva al mare, {{delay frames=\"8\"}}{{fun_00070005 arg=\"\"}}."
  },
  {
    "label": "050",
    "text": "{{anim id=\"11\"}}{{delay frames=\"16\"}}E ora scegliamo un bel nome!{{delay frames=\"32\"}}\n{{anim id=\"35\"}}Oooh, che ne dici di \"{{fun_00000005 arg=\"\"}}\"?{{delay frames=\"32\"}}\n{{anim id=\"38\"}}Scherzo! {{delay frames=\"8\"}}Ah ah ah!"
  },
  {
    "label": "051",
    "text": "{{anim id=\"11\"}}{{delay frames=\"16\"}}E ora troviamo un posticino per\n{{fun_0008000E arg=\"0x01CD0C00710075006500730074006F000C007100750065007300740061000000\"}} {{fun_00030011 arg=\"0x0100\"}}\nspeciale{{delay frames=\"8\"}}.{{delay frames=\"8\"}}.{{delay frames=\"8\"}}.\n{{anim id=\"16\"}}Certo! Ho trovato! {{delay frames=\"15\"}}Così potremo\nsempre guardarci intensamente\nnegli ojos!"
  },
  {
    "label": "052",
    "text": "{{anim id=\"37\"}}Io e {{fun_0008000E arg=\"0x01CD0C00710075006500730074006F000C007100750065007300740061000000\"}} {{fun_00030011 arg=\"0x0100\"}}\ndiventeremo amiconi, {{delay frames=\"8\"}}{{fun_00070005 arg=\"\"}}!{{pageBreak}}{{anim id=\"36\"}}Dopotutto è un tuo regalo e noi...\nsiamo amiconi, vero, {{fun_00080005 arg=\"\"}}?"
  },
  {
    "label": "053",
    "text": "{{anim id=\"39\"}}Mmmh, {{delay frames=\"16\"}}ora ti darò un regalino\nper ringraziarti, {{delay frames=\"8\"}}{{fun_00070005 arg=\"\"}}."
  },
  {
    "label": "054",
    "text": "{{anim id=\"35\"}}È {{fun_0002000E arg=\"\"}}{{fun_00030011 arg=\"0x0200\"}}{{delay frames=\"32\"}}\n{{fun_0008000E arg=\"0x02CD160061007000700061007200740065006E00750074006F00160061007000700061007200740065006E007500740061000000\"}} al tuo amicone\nqui presente!\n{{anim id=\"36\"}}Se {{fun_0008000E arg=\"0x02CD04006C006F0004006C0061000000\"}} portassi in un negozio,\nme {{fun_0008000E arg=\"0x02CD04006C006F0004006C0061000000\"}} pagherebbero fior di stelline...\n{{delay frames=\"32\"}}quindi sgancia el dinero!\n{{anim id=\"38\"}}Sto scherzando!\n{{delay frames=\"32\"}}{{anim id=\"1\"}}Ti sono molto grato,{{delay frames=\"8\"}} {{fun_00080005 arg=\"\"}}!"
  },
  {
    "label": "055",
    "text": "{{anim id=\"39\"}}Mmmh... {{delay frames=\"16\"}}Beh, immagino\ndi doverti dare qualcosa\nin segno di gratitudine, vero?"
  },
  {
    "label": "056",
    "text": "{{anim id=\"38\"}}È {{fun_0002000E arg=\"\"}}{{fun_00030011 arg=\"0x0200\"}}!{{pageBreak}}{{anim id=\"37\"}}Se mai riarrederò la mia casa,\ndi sicuro chiederò aiuto a te,\n{{delay frames=\"8\"}}{{fun_00080005 arg=\"\"}}!"
  },
  {
    "label": "057",
    "text": "{{anim id=\"15\"}}Uau,{{delay frames=\"8\"}} sbaglio o è\n{{fun_0002000E arg=\"\"}}{{fun_00030011 arg=\"0x0100\"}}?{{pageBreak}}{{anim id=\"21\"}}Il posto in cui starebbe meglio\nè senza dubbio sopra un tavolo\no qualcosa del genere, non trovi?\n{{anim id=\"37\"}}Beh,{{delay frames=\"15\"}} ci penso un altro pochino\ne poi decido{{delay frames=\"8\"}}.{{delay frames=\"8\"}}.{{delay frames=\"8\"}}."
  },
  {
    "label": "058",
    "text": "{{anim id=\"38\"}}Gracias,{{delay frames=\"10\"}} {{fun_00080005 arg=\"\"}}!{{delay frames=\"32\"}} {{anim id=\"37\"}}Prendi {{fun_0008000E arg=\"0x02CD0C00710075006500730074006F000C007100750065007300740061000000\"}}\n{{fun_00030011 arg=\"0x0200\"}} come\nringraziamento,{{delay frames=\"8\"}} {{fun_00070005 arg=\"\"}}!"
  },
  {
    "label": "059",
    "text": "{{anim id=\"39\"}}Se dovessi avere ancora bisogno{{delay frames=\"8\"}}.{{delay frames=\"8\"}}.{{delay frames=\"8\"}}.\n{{delay frames=\"20\"}}posso chiederti di nuovo aiuto.\nVero, {{fun_00080005 arg=\"\"}}?"
  }
]