﻿[
  {
    "label": "001",
    "text": "{{anim id=\"15\"}}Cosa? {{delay frames=\"30\"}}{{anim id=\"9\"}}Non farmi entusiasmare\ninutilmente, {{fun_00070005 arg=\"\"}}."
  },
  {
    "label": "002",
    "text": "{{anim id=\"36\"}}Eheh, sì, molto divertente...{{delay frames=\"10\"}}\nTi piace proprio prendermi in giro,\nvero, {{fun_00080005 arg=\"\"}}?"
  },
  {
    "label": "003",
    "text": "{{anim id=\"15\"}}Hai preso un insetto per me?{{delay frames=\"10\"}}\n{{anim id=\"37\"}}Fantastico, {{fun_00070005 arg=\"\"}}!"
  },
  {
    "label": "004",
    "text": "{{anim id=\"5\"}}Ehi, ma hai catturato un insetto\nper me!{{delay frames=\"32\"}} {{anim id=\"37\"}}Gracias, {{fun_00080005 arg=\"\"}}!"
  },
  {
    "label": "005",
    "text": "{{anim id=\"16\"}}Non ci credo! Volevo tanto\n{{fun_0002000E arg=\"\"}}{{fun_00030011 arg=\"0x0000\"}}!"
  },
  {
    "label": "006",
    "text": "{{anim id=\"16\"}}Oh? {{fun_0003000E arg=\"\"}}{{fun_0001000E arg=\"\"}}{{fun_00030011 arg=\"0x0000\"}}\nche ti avevo chiesto? {{delay frames=\"10\"}}Uaaauuu!"
  },
  {
    "label": "007",
    "text": "{{anim id=\"16\"}}Oh!? {{fun_0003000E arg=\"\"}}{{fun_0002000E arg=\"\"}}{{fun_00030011 arg=\"0x0000\"}}?\n{{delay frames=\"10\"}}Che storia!"
  },
  {
    "label": "008",
    "text": "{{anim id=\"15\"}}Oh, è {{fun_0002000E arg=\"\"}}{{fun_00030011 arg=\"0x0000\"}}!\nFantastico! Muchas gracias!"
  },
  {
    "label": "009",
    "text": "{{anim id=\"16\"}}Uau, {{fun_0002000E arg=\"\"}}{{fun_00030011 arg=\"0x0000\"}}!{{delay frames=\"30\"}}\n{{anim id=\"5\"}}Non ci posso credere,\n{{fun_00070005 arg=\"\"}}!"
  },
  {
    "label": "010",
    "text": "{{anim id=\"16\"}}Ehi, {{fun_00080005 arg=\"\"}}, ma è davvero\n{{fun_0002000E arg=\"\"}}{{fun_00030011 arg=\"0x0000\"}}?{{delay frames=\"20\"}}\n{{anim id=\"1\"}}Ottimo lavoro, {{fun_00070005 arg=\"\"}}!"
  },
  {
    "label": "011",
    "text": "{{anim id=\"18\"}}Ma sul serio!? Hai davvero preso\n{{fun_0002000E arg=\"\"}}{{fun_00030011 arg=\"0x0000\"}}?{{delay frames=\"20\"}}\n{{anim id=\"37\"}}È un insetto raro e di valore!"
  },
  {
    "label": "012",
    "text": "{{anim id=\"18\"}}Urca, ma è proprio\n{{fun_0002000E arg=\"\"}}{{fun_00030011 arg=\"0x0000\"}}?\n{{delay frames=\"20\"}}{{anim id=\"13\"}}Ed è per me, {{fun_00070005 arg=\"\"}}?"
  },
  {
    "label": "013",
    "text": "{{anim id=\"15\"}}Oh! Hai preso un bel pesciotto per\nme?{{delay frames=\"10\"}} Grande, {{fun_00070005 arg=\"\"}}!"
  },
  {
    "label": "014",
    "text": "{{anim id=\"37\"}}Accipicchia, questo bel pesce tutto\nper me?!{{delay frames=\"10\"}} Gracias, {{fun_00070005 arg=\"\"}}."
  },
  {
    "label": "015",
    "text": "{{anim id=\"18\"}}Sorbole! Come hai fatto a prendere\n{{fun_0002000E arg=\"\"}}{{fun_00030011 arg=\"0x0000\"}}?{{delay frames=\"20\"}}\n{{anim id=\"35\"}}Sei {{fun_0006000E arg=\"0x0E0075006E0020007600650072006F00100075006E00610020007600650072006100\"}} professionista!"
  },
  {
    "label": "016",
    "text": "{{anim id=\"18\"}}Ah, ce l'hai fatta a prendere\n{{fun_0002000E arg=\"\"}}{{fun_00030011 arg=\"0x0000\"}}!?\n{{delay frames=\"20\"}}Da non credere, {{fun_00070005 arg=\"\"}}!"
  },
  {
    "label": "017",
    "text": "{{anim id=\"15\"}}Ehi, {{fun_0002000E arg=\"\"}}{{fun_00030011 arg=\"0x0000\"}}!{{delay frames=\"30\"}}\n{{anim id=\"37\"}}Muchas gracias per questo\nbel pesciottone, {{fun_00070005 arg=\"\"}}."
  },
  {
    "label": "018",
    "text": "{{anim id=\"15\"}}Ma cos'è quello?\n{{fun_0003000E arg=\"\"}}{{fun_0002000E arg=\"\"}}{{fun_00030011 arg=\"0x0000\"}}?{{delay frames=\"30\"}}{{anim id=\"37\"}}\nGracias, {{fun_00080005 arg=\"\"}}!"
  },
  {
    "label": "019",
    "text": "{{anim id=\"16\"}}Che storia! Mi hai trovato\n{{fun_0002000E arg=\"\"}}{{fun_00030011 arg=\"0x0000\"}}!?{{delay frames=\"30\"}}\n{{anim id=\"5\"}}Non ci credo, {{fun_00070005 arg=\"\"}}!"
  },
  {
    "label": "020",
    "text": "{{anim id=\"16\"}}Ma dici sul serio? Hai preso\n{{fun_0002000E arg=\"\"}}{{fun_00030011 arg=\"0x0000\"}}?\n{{anim id=\"1\"}}Che {{fun_0006000E arg=\"0x1000630061006D00700069006F006E0065001600630061006D00700069006F006E006500730073006100\"}}, {{fun_00080005 arg=\"\"}}!"
  },
  {
    "label": "021",
    "text": "{{anim id=\"18\"}}No no, non ci credo! Hai preso\n{{fun_0002000E arg=\"\"}}{{fun_00030011 arg=\"0x0000\"}}?\nÈ un pesce così raro, {{fun_00070005 arg=\"\"}}!"
  },
  {
    "label": "022",
    "text": "{{anim id=\"18\"}}Oh, {{fun_0002000E arg=\"\"}}{{fun_00030011 arg=\"0x0000\"}}?{{delay frames=\"30\"}}\n{{anim id=\"13\"}}Per me? {{delay frames=\"10\"}}Roba da matti! Evviva!"
  },
  {
    "label": "023",
    "text": "{{anim id=\"37\"}}Eccoti qua un pensierino per\ndimostrarti la mia gratitudine,\n{{fun_00070005 arg=\"\"}}."
  },
  {
    "label": "024",
    "text": "{{anim id=\"1\"}}Ti darò questo per dimostrarti\nche mi hai fatto proprio contento.\nGracias, {{fun_00070005 arg=\"\"}}."
  },
  {
    "label": "025",
    "text": "{{anim id=\"1\"}}Un regalino per dimostrarti\nla mia riconoscenza."
  },
  {
    "label": "026",
    "text": "{{anim id=\"9\"}}Mi sa che non ho nulla di bello\nper ricambiare il tuo regalo.{{delay frames=\"10\"}}\nBeh, {{anim id=\"1\"}}forse {{delay frames=\"5\"}}questo, {{fun_00070005 arg=\"\"}}."
  },
  {
    "label": "027",
    "text": "{{anim id=\"37\"}}Ecco una cosetta per te, amic{{fun_0006000E arg=\"0x02006F0002006100\"}},\n{{fun_00070005 arg=\"\"}}. Prendila, dai!"
  },
  {
    "label": "028",
    "text": "{{anim id=\"1\"}}Ecco qua! Non è nulla di speciale,\nma mi fa piacere farti un regalo!"
  },
  {
    "label": "029",
    "text": "{{anim id=\"37\"}}Non deve essere stato facile\nda prendere. Tieni, ti regalo questo,\n{{fun_00070005 arg=\"\"}}."
  },
  {
    "label": "030",
    "text": "{{anim id=\"9\"}}Temo di non avere nulla per\nricompensarti, {{fun_00070005 arg=\"\"}}.{{delay frames=\"10\"}}\nMa prendi almeno questo regalino."
  },
  {
    "label": "031",
    "text": "Cosa ti posso regalare per mostrarti\nche ti sono grato? {{delay frames=\"10\"}}{{delay frames=\"20\"}}{{anim id=\"35\"}}Che ne dici di\nquesto pensierino, {{fun_00070005 arg=\"\"}}?"
  },
  {
    "label": "032",
    "text": "{{anim id=\"9\"}}Non riuscirò mai a dirti quanto mi\nhai reso contento, {{fun_00070005 arg=\"\"}}.{{delay frames=\"10\"}}\nMa ti prego, {{delay frames=\"5\"}}prendi questo regalino."
  },
  {
    "label": "033",
    "text": "{{fun_0003000E arg=\"\"}}{{fun_0002000E arg=\"\"}}{{fun_00030011 arg=\"0x0100\"}}!{{fun_00010007 arg=\"\"}}\n{{anim id=\"37\"}}Non olviderò mai il tuo aiuto,\nma tu non olvidar questo regalito!"
  },
  {
    "label": "034",
    "text": "{{fun_0003000E arg=\"\"}}{{fun_0002000E arg=\"\"}}{{fun_00030011 arg=\"0x0100\"}}!{{fun_00010007 arg=\"\"}}\n{{anim id=\"1\"}}Spero che il mio regalito sia per te\nuna bella ricompensa,{{delay frames=\"8\"}} {{fun_00070005 arg=\"\"}}!"
  },
  {
    "label": "035",
    "text": ""
  },
  {
    "label": "036",
    "text": "{{anim id=\"36\"}}Come? Ti sei dimenticat{{fun_0006000E arg=\"0x02006F0002006100\"}}?\nSpero tanto che troverai\n{{fun_0002000E arg=\"\"}}{{fun_00030011 arg=\"0x0000\"}}!"
  },
  {
    "label": "037",
    "text": "Non ho perso la speranza. Voglio\n{{fun_0002000E arg=\"\"}}{{fun_00030011 arg=\"0x0000\"}}.\nNon ti dimenticare, {{fun_00080005 arg=\"\"}}!"
  },
  {
    "label": "038",
    "text": "{{anim id=\"23\"}}L'hai già dimenticato? Ma dai!\nAvevi promesso che mi avresti\nportato una {{color id=\"2\"}}farfalla{{color id=\"65535\"}}!"
  },
  {
    "label": "039",
    "text": "{{anim id=\"23\"}}Ehi, ma ti sei dimenticat{{fun_0006000E arg=\"0x02006F0002006100\"}} cosa\nti avevo chiesto?!{{pageBreak}}Vorrei che mi trovassi uno {{color id=\"2\"}}scarabeo{{color id=\"65535\"}}\ndi qualsiasi tipo. Unica condizione:\ndeve avere un corno."
  },
  {
    "label": "040",
    "text": "{{anim id=\"23\"}}Ti sei dimenticat{{fun_0006000E arg=\"0x02006F0002006100\"}}? Avevi detto che\nmi avresti portato un {{color id=\"2\"}}coleottero{{color id=\"65535\"}}."
  },
  {
    "label": "041",
    "text": "{{anim id=\"23\"}}Non ti sarai mica dimenticat{{fun_0006000E arg=\"0x02006F0002006100\"}} della\nmia richiesta, vero? Vorrei che mi\nportassi una {{color id=\"2\"}}cicala{{color id=\"65535\"}}."
  },
  {
    "label": "042",
    "text": "{{anim id=\"23\"}}Non ti sarai mica dimenticat{{fun_0006000E arg=\"0x02006F0002006100\"}}\nquello che ti avevo chiesto?\nDai, portami una {{color id=\"2\"}}libellula{{color id=\"65535\"}}!"
  },
  {
    "label": "043",
    "text": "{{anim id=\"9\"}}Ma come, ti sei dimenticat{{fun_0006000E arg=\"0x02006F0002006100\"}}? Vorrei\ntanto {{fun_0002000E arg=\"\"}}{{fun_00030011 arg=\"0x0000\"}}.\nPotresti vedere che si può fare?"
  },
  {
    "label": "044",
    "text": "{{anim id=\"37\"}}Sai, {{fun_00080005 arg=\"\"}}, dovresti trovarmi\n{{fun_0002000E arg=\"\"}}{{fun_00030011 arg=\"0x0000\"}}.\nNon è facile, lo so."
  },
  {
    "label": "045",
    "text": "{{anim id=\"23\"}}Non dirmi che ti sei dimenticat{{fun_0006000E arg=\"0x02006F0002006100\"}}!\nVorrei tanto che tu mi portassi\nun {{color id=\"2\"}}pesce di fiume{{color id=\"65535\"}}."
  },
  {
    "label": "046",
    "text": "{{anim id=\"23\"}}Ti sei dimenticato di quello che ti\navevo chiesto? Mi avevi promesso\nun {{color id=\"2\"}}pesce di mare{{color id=\"65535\"}}!"
  }
]