﻿[
  {
    "label": "001",
    "text": "{{anim id=\"34\"}}{{delay frames=\"16\"}}Non mi sento bene oggi.\nForse ho un po' di febbre."
  },
  {
    "label": "002",
    "text": "{{anim id=\"9\"}}Il termometro segna 36,9 ℃{{delay frames=\"8\"}}.{{delay frames=\"8\"}}.{{delay frames=\"8\"}}.{{delay frames=\"8\"}}\nPuah, non è niente di grave{{delay frames=\"8\"}}.{{delay frames=\"8\"}}.{{delay frames=\"8\"}}.{{delay frames=\"32\"}}\n{{anim id=\"35\"}}Che sia... febbre d'amore?{{delay frames=\"16\"}}"
  },
  {
    "label": "003",
    "text": "{{anim id=\"34\"}}Mi sa che ho un po' di febbre.\n{{delay frames=\"16\"}}Oh, spero di non ammalarmi{{delay frames=\"8\"}}.{{delay frames=\"8\"}}.{{delay frames=\"8\"}}.{{delay frames=\"8\"}}"
  },
  {
    "label": "004",
    "text": "{{anim id=\"20\"}}Coff coff{{delay frames=\"4\"}}.{{delay frames=\"4\"}}.{{delay frames=\"4\"}}.{{delay frames=\"32\"}} {{anim id=\"9\"}}Mi sto prendendo\nun raffreddore. Speriamo non\nsia qualcosa di peggio!"
  },
  {
    "label": "005",
    "text": "{{anim id=\"20\"}}Coff coff{{delay frames=\"4\"}}.{{delay frames=\"4\"}}.{{delay frames=\"4\"}}.{{delay frames=\"4\"}}{{delay frames=\"32\"}} {{anim id=\"9\"}}Oggi sono esausto.\n{{delay frames=\"16\"}}Non ho nemmeno la forza\ndi ballare{{delay frames=\"8\"}}.{{delay frames=\"8\"}}.{{delay frames=\"8\"}}.{{delay frames=\"8\"}}"
  },
  {
    "label": "006",
    "text": "{{anim id=\"20\"}}Mi sento raffreddato.{{delay frames=\"16\"}} Che ne diresti\ndi riscaldarmi con un bell'abbraaa{{delay frames=\"4\"}}.{{delay frames=\"4\"}}.{{delay frames=\"4\"}}.\n{{anim id=\"30\"}}Eeecciùùù!"
  },
  {
    "label": "007",
    "text": "{{anim id=\"20\"}}{{delay frames=\"16\"}}Coff coff!{{delay frames=\"32\"}} {{anim id=\"9\"}}Come vedi,\nho un gran bisogno di riposo{{delay frames=\"8\"}}.{{delay frames=\"8\"}}.{{delay frames=\"8\"}}.{{delay frames=\"8\"}}"
  },
  {
    "label": "008",
    "text": "{{anim id=\"20\"}}Uffa{{delay frames=\"8\"}}.{{delay frames=\"8\"}}.{{delay frames=\"8\"}}.{{delay frames=\"8\"}} come sto male{{delay frames=\"8\"}}.{{delay frames=\"8\"}}.{{delay frames=\"8\"}}.{{delay frames=\"32\"}} {{anim id=\"19\"}}Mentre sono\nmalato{{delay frames=\"8\"}}.{{delay frames=\"8\"}}.{{delay frames=\"8\"}}.{{delay frames=\"8\"}} {{anim id=\"9\"}}potresti prenderti cura\ndei fiori di {{fun_00050005 arg=\"\"}} al posto mio?"
  },
  {
    "label": "009",
    "text": "{{anim id=\"34\"}}Pensavo fosse febbre d'amore,\nma sta peggiorando{{delay frames=\"8\"}}.{{delay frames=\"8\"}}.{{delay frames=\"8\"}}.{{delay frames=\"8\"}}{{pageBreak}}{{anim id=\"20\"}}Uh,{{delay frames=\"16\"}} mi gira la testa{{delay frames=\"8\"}}.{{delay frames=\"8\"}}.{{delay frames=\"8\"}}.{{delay frames=\"8\"}} Potrei\nsvenire{{delay frames=\"8\"}}.{{delay frames=\"8\"}}.{{delay frames=\"8\"}}.{{delay frames=\"8\"}} {{anim id=\"25\"}}Oh, sì, sto per svenire{{delay frames=\"8\"}}.{{delay frames=\"8\"}}.{{delay frames=\"8\"}}.{{delay frames=\"8\"}}"
  }
]