﻿[
  {
    "label": "001",
    "text": "{{anim id=\"32\"}}Ehilà,{{delay frames=\"8\"}} {{fun_00080005 arg=\"\"}}.{{pageBreak}}{{anim id=\"37\"}}Ho seguito il consiglio che mi hai\ndato quando ero in campeggio\n{{delay frames=\"16\"}}e mi sono trasferito {{fun_0010000E arg=\"\"}} {{fun_00060005 arg=\"\"}}!{{delay frames=\"32\"}}\n{{anim id=\"35\"}}Ti dispiace? {{anim id=\"36\"}}Ad ogni modo,{{delay frames=\"16\"}} ormai\nsono qui e non puoi far altro che{{delay frames=\"8\"}}.{{delay frames=\"8\"}}.{{delay frames=\"8\"}}.\n{{delay frames=\"8\"}}{{anim id=\"38\"}}accettarlo!\n{{anim id=\"37\"}}Sono molto emozionato all'idea\ndi vivere nella tua stessa ciudad,\n{{delay frames=\"8\"}}{{fun_00080005 arg=\"\"}}!"
  },
  {
    "label": "002",
    "text": "{{anim id=\"1\"}}Ti aspettavo,{{delay frames=\"8\"}} {{fun_00080005 arg=\"\"}}!{{pageBreak}}{{anim id=\"0\"}}Ti ricordi?{{delay frames=\"32\"}} Ero in campeggio\n{{delay frames=\"16\"}}e tu mi hai proposto di venire\na vivere qui.\n{{delay frames=\"8\"}}{{anim id=\"37\"}}Mi sono voluto fidare di te\ne ho deciso di trasferirmi\n{{fun_0010000E arg=\"\"}} {{fun_00060005 arg=\"\"}},{{delay frames=\"8\"}} {{fun_00070005 arg=\"\"}}!{{pageBreak}}{{anim id=\"36\"}}Da oggi{{delay frames=\"8\"}} sono ufficialmente\nun abitante della tua città{{delay frames=\"8\"}}.{{delay frames=\"8\"}}.{{delay frames=\"8\"}}.\n{{delay frames=\"32\"}}{{anim id=\"38\"}}Sono muy feliz,{{delay frames=\"8\"}} {{fun_00080005 arg=\"\"}}!"
  },
  {
    "label": "003",
    "text": "{{anim id=\"32\"}}Ehi, {{fun_00080005 arg=\"\"}}!{{delay frames=\"32\"}} Sai, mi sono\ntrasferito in città proprio oggi!{{pageBreak}}{{anim id=\"11\"}}{{delay frames=\"16\"}}Ero venuto in campeggio qui per\nconoscere le pupe del luogo\ne allora non pensavo di traslocare{{delay frames=\"8\"}}.{{delay frames=\"8\"}}.{{delay frames=\"8\"}}.{{delay frames=\"8\"}}{{pageBreak}}{{anim id=\"6\"}}Ma quello che mi hai detto tu e\nla bellezza delle signorine locali\nmi hanno convinto,{{delay frames=\"8\"}} {{fun_00070005 arg=\"\"}}!{{pageBreak}}{{anim id=\"36\"}}Mi sto ancora ambientando,{{delay frames=\"16\"}} ma{{delay frames=\"8\"}}.{{delay frames=\"8\"}}.{{delay frames=\"8\"}}.{{delay frames=\"32\"}}\n{{anim id=\"38\"}}sono molto contento di essere\nqui e di trovarti in gran forma!"
  },
  {
    "label": "004",
    "text": "{{anim id=\"32\"}}Ehi, {{fun_00080005 arg=\"\"}}!{{pageBreak}}{{anim id=\"37\"}}Mi hai detto tante cosas fabulosas\nsu questa città{{delay frames=\"16\"}} e non ho resistito!\nMi sono trasferito {{fun_0010000E arg=\"\"}} {{fun_00060005 arg=\"\"}}!{{delay frames=\"32\"}}\n{{anim id=\"35\"}}Spero che non ti dispiaccia!\n{{anim id=\"36\"}}Comunque sia,{{delay frames=\"16\"}} ora vivo qui e non\nho nessuna intenzione di andarmene!\n{{anim id=\"37\"}}Sono muy contento di vivere\nnella tua città,{{delay frames=\"8\"}} {{fun_00080005 arg=\"\"}}!"
  },
  {
    "label": "005",
    "text": "{{anim id=\"1\"}}Ti stavo aspettando,{{delay frames=\"8\"}} {{fun_00080005 arg=\"\"}}!{{pageBreak}}{{anim id=\"0\"}}Ti ricordi?{{delay frames=\"32\"}} Quando ci siamo visti\n{{fun_0010000E arg=\"\"}} {{fun_00020011 arg=\"0x0000\"}}, {{delay frames=\"16\"}}tu mi hai suggerito\ndi trasferirmi qui al più presto!{{delay frames=\"8\"}}\n{{anim id=\"37\"}}Beh, ti annuncio che{{delay frames=\"16\"}} l'ho fatto e da\noggi sono ufficialmente un abitante\ndi {{fun_00060005 arg=\"\"}}, {{delay frames=\"8\"}}{{fun_00070005 arg=\"\"}}!{{pageBreak}}{{anim id=\"36\"}}Porterò una ventata di eleganza,\nvedrai{{delay frames=\"8\"}}.{{delay frames=\"8\"}}.{{delay frames=\"8\"}}.{{delay frames=\"32\"}} {{anim id=\"38\"}}E, se vuoi, posso aiutarti\na rifarti il guardaroba,{{delay frames=\"8\"}} {{fun_00080005 arg=\"\"}}!"
  },
  {
    "label": "006",
    "text": "{{anim id=\"32\"}}Ehi,{{delay frames=\"8\"}} {{fun_00080005 arg=\"\"}}!{{delay frames=\"32\"}} Sono molto feliz\ndi annunciarti che da oggi abito qui!{{pageBreak}}{{anim id=\"11\"}}{{delay frames=\"16\"}}Ti ho raccontato che mi trovavo\nmale {{fun_0010000E arg=\"\"}} {{fun_00020011 arg=\"0x0000\"}} e tu mi hai\nparlato molto bene della tua città{{delay frames=\"8\"}}.{{delay frames=\"8\"}}.{{delay frames=\"8\"}}.\n{{anim id=\"37\"}}Le tue parole sono state la scintilla\nche ha acceso la mia voglia\ndi trasferirmi qui,{{delay frames=\"16\"}} {{fun_00070005 arg=\"\"}}!{{pageBreak}}{{anim id=\"36\"}}Sto ancora mettendo a posto\nle mie cose{{delay frames=\"8\"}}.{{delay frames=\"8\"}}.{{delay frames=\"8\"}}.{{delay frames=\"32\"}} {{anim id=\"38\"}}ma non vedo l'ora\ndi ambientarmi e conoscere tutti!"
  },
  {
    "label": "007",
    "text": "Ehi,{{delay frames=\"8\"}} {{fun_00080005 arg=\"\"}}!{{delay frames=\"32\"}} Ti ricordi di me?{{pageBreak}}{{anim id=\"36\"}}Ci siamo conosciuti tempo fa\nmentre ero in campeggio qui,\n{{delay frames=\"8\"}}{{fun_00070005 arg=\"\"}}!{{pageBreak}}{{anim id=\"39\"}}Mi hai detto delle cose bellissime\nsu {{fun_00060005 arg=\"\"}} e ho deciso\ndi trasferirmi{{delay frames=\"8\"}}.{{delay frames=\"8\"}}.{{delay frames=\"8\"}}.{{delay frames=\"8\"}}\n{{anim id=\"37\"}}Beh,{{delay frames=\"16\"}} ora viviamo nella stessa città!\nMi sento elettrizzato solo all'idea!\nTu no,{{delay frames=\"8\"}} {{fun_00080005 arg=\"\"}}?"
  },
  {
    "label": "008",
    "text": "{{anim id=\"32\"}}Ehi,{{delay frames=\"8\"}} {{fun_00080005 arg=\"\"}}!{{delay frames=\"32\"}}\nSono io,{{delay frames=\"16\"}} {{fun_00010005 arg=\"\"}}! Ti ricordi?{{pageBreak}}{{anim id=\"36\"}}Non dirmi che non mi riconosci?!{{delay frames=\"32\"}}\nMi hai invitato a trasferirmi qui{{delay frames=\"16\"}}\nquando sono venuto in campeggio!\n{{anim id=\"0\"}}Non ci ho pensato due volte!\nHo fatto i bagagli e sono partito\nalla volta di {{fun_00060005 arg=\"\"}}!\n{{anim id=\"37\"}}Eh già...{{delay frames=\"8\"}} adesso vivo qui.{{delay frames=\"16\"}} Vieni pure\na trovarmi quando vuoi,{{delay frames=\"8\"}} {{fun_00080005 arg=\"\"}}!"
  },
  {
    "label": "009",
    "text": "Ehi,{{delay frames=\"8\"}} {{fun_00080005 arg=\"\"}}!{{pageBreak}}{{anim id=\"39\"}}Ricordi quando ci incontrammo\nin campeggio{{delay frames=\"8\"}}.{{delay frames=\"8\"}}.{{delay frames=\"8\"}}.{{delay frames=\"8\"}} e tu mi invitasti\na trasferirmi in questa città?\n{{anim id=\"36\"}}Ebbene sì{{delay frames=\"8\"}}.{{delay frames=\"8\"}}.{{delay frames=\"8\"}}. l'ho fatto e sono\nmuy feliz della mia decisione.\nQui mi sento a casa!\n{{anim id=\"21\"}}Sì,{{delay frames=\"8\"}} d'ora in poi saremo inseparabili!{{delay frames=\"30\"}}\n{{anim id=\"35\"}}Conto su di te,{{delay frames=\"8\"}} {{fun_0006000E arg=\"0x0C0076006900630069006E006F000C0076006900630069006E006100\"}}!"
  },
  {
    "label": "010",
    "text": "Ehi,{{delay frames=\"8\"}} {{fun_00080005 arg=\"\"}}!{{delay frames=\"32\"}}\nTi ricordi di me?{{pageBreak}}{{anim id=\"36\"}}Ci siamo conosciuti un po' di tempo\nfa {{fun_0010000E arg=\"\"}} {{fun_00020011 arg=\"0x0000\"}}!{{delay frames=\"16\"}}{{pageBreak}}{{anim id=\"39\"}}Mi suggeristi di trasferirmi\n{{fun_0010000E arg=\"\"}} {{fun_00060005 arg=\"\"}}{{delay frames=\"8\"}}.{{delay frames=\"8\"}}.{{delay frames=\"8\"}}.{{delay frames=\"8\"}} {{anim id=\"38\"}}e io l'ho fatto!\nAh, ah, ah!\n{{anim id=\"37\"}}Ad ogni modo,{{delay frames=\"16\"}} ora siamo\nconcittadini!{{delay frames=\"32\"}} E io sono\ncontentissimo,{{delay frames=\"8\"}} {{fun_00080005 arg=\"\"}}!"
  },
  {
    "label": "011",
    "text": "{{anim id=\"32\"}}Ehi,{{delay frames=\"8\"}} {{fun_00080005 arg=\"\"}}!{{delay frames=\"32\"}}\nSono io,{{delay frames=\"16\"}} {{fun_00010005 arg=\"\"}}!\n{{anim id=\"36\"}}Non dirmi che non ti ricordi di me?!\n{{delay frames=\"32\"}}Ci siamo incontrati {{fun_0010000E arg=\"\"}} {{fun_00020011 arg=\"0x0000\"}}{{delay frames=\"16\"}}\ne tu mi hai invitato nella tua città!\nDai, non è passato tanto tempo!\n{{anim id=\"0\"}}È proprio per merito tuo che ora\nabito qui {{fun_0010000E arg=\"\"}} {{fun_00060005 arg=\"\"}}, sai?!{{pageBreak}}{{anim id=\"37\"}}Comunque, {{delay frames=\"8\"}}adesso siamo vicini.\n{{delay frames=\"16\"}}Vieni pure a trovarmi quando vuoi,\n{{delay frames=\"8\"}}{{fun_00080005 arg=\"\"}}!"
  },
  {
    "label": "012",
    "text": "Ehi,{{delay frames=\"8\"}} {{fun_00080005 arg=\"\"}}!{{pageBreak}}{{anim id=\"39\"}}Ricordi quando eravamo\n{{fun_0010000E arg=\"\"}} {{fun_00020011 arg=\"0x0000\"}}{{delay frames=\"15\"}} e tu mi proponesti\ndi trasferirmi qui?!{{delay frames=\"20\"}} Beh, l'ho fatto!\n{{anim id=\"36\"}}È bellissimo avere una casetta in\ncui tornare dopo una dura giornata\ndi addominali e appuntamenti{{delay frames=\"8\"}}.{{delay frames=\"8\"}}.{{delay frames=\"8\"}}.{{delay frames=\"8\"}}\n{{anim id=\"21\"}}Beh,{{delay frames=\"8\"}} ora siamo concittadini!\n{{delay frames=\"30\"}}{{anim id=\"35\"}}Conto sul tuo aiuto,{{delay frames=\"8\"}} {{fun_0006000E arg=\"0x0C0076006900630069006E006F000C0076006900630069006E006100\"}}!"
  },
  {
    "label": "013",
    "text": "{{anim id=\"32\"}}Ehi,{{delay frames=\"8\"}} {{fun_00080005 arg=\"\"}}!{{delay frames=\"32\"}}\nSono io,{{delay frames=\"16\"}} {{fun_00010005 arg=\"\"}}!{{pageBreak}}{{anim id=\"36\"}}No,{{delay frames=\"8\"}} non sono venuto in campeggio{{delay frames=\"8\"}}.{{delay frames=\"8\"}}.{{delay frames=\"8\"}}.{{delay frames=\"8\"}}\nMi sono trasferito. Ora vivo qui!{{pageBreak}}{{anim id=\"39\"}}L'ho deciso dopo aver parlato con\nte{{delay frames=\"8\"}}.{{delay frames=\"8\"}}.{{delay frames=\"8\"}}.{{delay frames=\"32\"}} Ricordi? Quella volta sì che\nero in vacanza!\n{{anim id=\"43\"}}{{delay frames=\"16\"}}Il tempo vola!{{delay frames=\"16\"}} Ne è passato un bel\npo' da allora{{delay frames=\"8\"}}.{{delay frames=\"8\"}}.{{delay frames=\"8\"}}.{{delay frames=\"8\"}} {{anim id=\"15\"}}Beh,{{delay frames=\"32\"}} {{anim id=\"37\"}}mi fa molto\npiacere rivederti,{{delay frames=\"8\"}} {{fun_00080005 arg=\"\"}}!"
  },
  {
    "label": "014",
    "text": "{{anim id=\"32\"}}Ehi,{{delay frames=\"8\"}} {{fun_00080005 arg=\"\"}}!{{delay frames=\"32\"}}\nSono io,{{delay frames=\"16\"}} quel simpaticone\ndi {{fun_00010005 arg=\"\"}}!\n{{anim id=\"39\"}}Le tue parole mi hanno convinto\ne mi sono trasferito qui.{{delay frames=\"32\"}} Ricordi\nil giorno in cui ne abbiamo parlato?\n{{anim id=\"43\"}}{{delay frames=\"16\"}}È passato un bel po' di tempo{{delay frames=\"8\"}}.{{delay frames=\"8\"}}.{{delay frames=\"8\"}}.\n{{anim id=\"15\"}}Oh!{{delay frames=\"32\"}} Ma mi fa un gran piacere\nrivederti,{{delay frames=\"8\"}} {{fun_00080005 arg=\"\"}}!"
  },
  {
    "label": "015",
    "text": "{{anim id=\"16\"}}Ah,{{delay frames=\"8\"}} {{fun_00080005 arg=\"\"}}!{{delay frames=\"32\"}}\n{{anim id=\"1\"}}Sono io,{{delay frames=\"16\"}} quella sagoma\ndi {{fun_00010005 arg=\"\"}}!\n{{anim id=\"13\"}}No!{{delay frames=\"16\"}} Questa volta non sono venuto\nin campeggio{{delay frames=\"4\"}}.{{delay frames=\"4\"}}.{{delay frames=\"4\"}}.{{delay frames=\"4\"}} Adesso vivo qui!{{pageBreak}}{{anim id=\"36\"}}Eri stat{{fun_0006000E arg=\"0x02006F0002006100\"}} tu a propormelo{{delay frames=\"8\"}}.{{delay frames=\"8\"}}.{{delay frames=\"8\"}}.{{delay frames=\"8\"}}{{pageBreak}}Ma non ti sei accort{{fun_0006000E arg=\"0x02006F0002006100\"}} che ero\narrivato, vero?{{delay frames=\"16\"}} Non è molto carino\nda parte tua! No, per niente!\n{{anim id=\"9\"}}Ormai è un po' che abito qui{{delay frames=\"8\"}}.{{delay frames=\"8\"}}.{{delay frames=\"8\"}}.{{delay frames=\"32\"}}\n{{anim id=\"37\"}}Mah, pazienza,{{delay frames=\"8\"}} mi fa comunque\npiacere rivederti,{{delay frames=\"8\"}} {{fun_00070005 arg=\"\"}}!"
  },
  {
    "label": "016",
    "text": "{{anim id=\"16\"}}Ah,{{delay frames=\"8\"}} {{fun_00080005 arg=\"\"}}!{{delay frames=\"32\"}}\n{{anim id=\"1\"}}Sono io,{{delay frames=\"16\"}} quel giocherellone\ndi {{fun_00010005 arg=\"\"}}!\nHo seguito il tuo consiglio e mi sono\ntrasferito in questa città!{{pageBreak}}{{anim id=\"36\"}}Eri stat{{fun_0006000E arg=\"0x02006F0002006100\"}} tu a propormi di\ntraslocare{{delay frames=\"8\"}}.{{delay frames=\"8\"}}.{{delay frames=\"8\"}}.{{delay frames=\"8\"}} ma non ti sei accorto\nche l'ho fatto davvero!\n{{delay frames=\"16\"}}Non è carino da parte tua!\n{{anim id=\"9\"}}È da un po' che sono qui{{delay frames=\"8\"}}.{{delay frames=\"8\"}}.{{delay frames=\"8\"}}.{{delay frames=\"32\"}} {{anim id=\"37\"}}Vabbè,\n{{delay frames=\"8\"}}è bello rivederti,{{delay frames=\"8\"}} {{fun_00070005 arg=\"\"}}!"
  },
  {
    "label": "017",
    "text": "{{anim id=\"20\"}}Coff coff!\n{{delay frames=\"60\"}}{{anim id=\"9\"}}Tu sei{{delay frames=\"8\"}}.{{delay frames=\"8\"}}.{{delay frames=\"8\"}}.{{delay frames=\"8\"}} {{fun_00080005 arg=\"\"}}, vero?{{pageBreak}}Come mi avevi consigliato\nquando ci siamo visti in campeggio,\nmi sono trasferito qui{{delay frames=\"8\"}}.{{delay frames=\"8\"}}.{{delay frames=\"8\"}}.{{delay frames=\"8\"}}\nMa appena arrivato,{{delay frames=\"32\"}} mi sono preso\nuna brutta tosse{{delay frames=\"4\"}}.{{delay frames=\"4\"}}.{{delay frames=\"4\"}}.{{delay frames=\"4\"}} {{anim id=\"20\"}}Coff coff!{{delay frames=\"60\"}}{{anim id=\"9\"}}{{pageBreak}}Non vorrei attaccartela{{delay frames=\"8\"}}.{{delay frames=\"8\"}}.{{delay frames=\"8\"}}.{{delay frames=\"8\"}}\nVediamoci di nuovo quando mi\nsentirò meglio{{delay frames=\"8\"}}.{{delay frames=\"8\"}}.{{delay frames=\"8\"}}. OK?!"
  },
  {
    "label": "018",
    "text": "{{anim id=\"20\"}}Coff coff!{{delay frames=\"60\"}}\n{{anim id=\"9\"}}Tu sei{{delay frames=\"8\"}}.{{delay frames=\"8\"}}.{{delay frames=\"8\"}}.{{delay frames=\"8\"}} {{fun_00080005 arg=\"\"}}, vero?{{pageBreak}}Mi sono trasferito qui\nproprio come mi avevi consigliato{{delay frames=\"8\"}}.{{delay frames=\"8\"}}.{{delay frames=\"8\"}}.{{delay frames=\"8\"}}{{pageBreak}}Ma appena arrivato,{{delay frames=\"32\"}} mi sono preso\nuna tosse terribile{{delay frames=\"4\"}}.{{delay frames=\"4\"}}.{{delay frames=\"4\"}}.{{delay frames=\"4\"}}{{anim id=\"20\"}} Coff coff!{{pageBreak}}{{delay frames=\"60\"}}{{anim id=\"9\"}}Non vorrei attaccartela{{delay frames=\"8\"}}.{{delay frames=\"8\"}}.{{delay frames=\"8\"}}.{{delay frames=\"8\"}}\nVediamoci di nuovo quando\nstarò meglio{{delay frames=\"8\"}}.{{delay frames=\"8\"}}.{{delay frames=\"8\"}}. Está bien?"
  },
  {
    "label": "019",
    "text": "{{anim id=\"32\"}}Ehilà,{{delay frames=\"16\"}} sono {{fun_00010005 arg=\"\"}}!{{pageBreak}}{{anim id=\"0\"}}Un po' di tempo fa,{{delay frames=\"8\"}} sono venuto\n{{fun_0010000E arg=\"\"}} {{fun_00060005 arg=\"\"}} in campeggio\n{{delay frames=\"16\"}}{{fun_0011000E arg=\"\"}} {{fun_00000011 arg=\"0x0000\"}} mi ha invitato qui.\nBeh, ho accettato il suo invito\ne ora abito qui!{{pageBreak}}{{anim id=\"37\"}}Sono un cittadino di {{fun_00060005 arg=\"\"}}\na tutti gli effetti!{{delay frames=\"32\"}} Piacere di\nconoscerti,{{delay frames=\"8\"}} {{fun_00070005 arg=\"\"}}!"
  },
  {
    "label": "020",
    "text": "{{anim id=\"32\"}}Ehi,{{delay frames=\"16\"}} io mi chiamo {{fun_00010005 arg=\"\"}}.{{pageBreak}}{{anim id=\"0\"}}Tempo fa sono venuto qui in\ncampeggio e sono diventato\nmolto amico di {{fun_00000011 arg=\"0x0000\"}}{{delay frames=\"8\"}}.{{delay frames=\"8\"}}.{{delay frames=\"8\"}}.\n{{anim id=\"26\"}}{{delay frames=\"16\"}}Mi aveva consigliato di venire a\nvivere {{fun_0010000E arg=\"\"}} {{fun_00060005 arg=\"\"}} e io{{delay frames=\"8\"}}.{{delay frames=\"8\"}}.{{delay frames=\"8\"}}.\n{{anim id=\"37\"}}l'ho fatto! Piacere di conoscerti!"
  },
  {
    "label": "021",
    "text": "{{anim id=\"32\"}}Ehi,{{delay frames=\"16\"}} mi chiamo {{fun_00010005 arg=\"\"}}.\n{{delay frames=\"32\"}}Sono un viaggiatore solitario,\nma molto passionale!\n{{anim id=\"0\"}}Tempo fa sono venuto in questa\nciudad in campeggio e ho fatto\namicizia con {{fun_00000011 arg=\"0x0000\"}}{{delay frames=\"8\"}}{{delay frames=\"8\"}}.{{delay frames=\"8\"}}.{{delay frames=\"8\"}}.\n{{anim id=\"35\"}}Mentre parlavamo, mi ha proposto\ndi venire a vivere qui.{{delay frames=\"32\"}}\n{{anim id=\"4\"}}I suoi occhi mi hanno ipnotizzato{{delay frames=\"8\"}}.{{delay frames=\"8\"}}.{{delay frames=\"8\"}}.\n{{anim id=\"37\"}}Questo è il motivo per cui mi sono\ntrasferito!{{delay frames=\"32\"}} Tanto piacere\ndi conoscerti, {{delay frames=\"8\"}}{{fun_00070005 arg=\"\"}}!"
  },
  {
    "label": "022",
    "text": "{{anim id=\"32\"}}Ehilà!{{delay frames=\"16\"}} Io sono {{fun_00010005 arg=\"\"}}!{{pageBreak}}{{anim id=\"0\"}}Tempo fa,{{delay frames=\"8\"}} quando ero ancora\n{{fun_0010000E arg=\"\"}} {{fun_00020011 arg=\"0x0000\"}}, ho incontrato\n{{fun_00000011 arg=\"0x0000\"}}{{delay frames=\"16\"}} e mi ha invitato qui{{delay frames=\"8\"}}.{{delay frames=\"8\"}}.{{delay frames=\"8\"}}.{{delay frames=\"8\"}}\nNon ci ho pensato due volte e mi\nsono trasferito in un baleno!{{pageBreak}}{{anim id=\"37\"}}Da oggi{{delay frames=\"8\"}} sono un abitante\nnuovo di zecca di {{fun_00060005 arg=\"\"}}.\n{{delay frames=\"32\"}}Tanto piacere,{{delay frames=\"8\"}} {{fun_00070005 arg=\"\"}}!"
  },
  {
    "label": "023",
    "text": "{{anim id=\"32\"}}Ehi! Io sono {{fun_00010005 arg=\"\"}}!{{pageBreak}}{{anim id=\"0\"}}Tempo fa ho fatto amicizia con\n{{fun_00000011 arg=\"0x0000\"}} {{fun_0010000E arg=\"\"}} {{fun_00020011 arg=\"0x0000\"}}{{delay frames=\"8\"}}.{{delay frames=\"8\"}}.{{delay frames=\"8\"}}.{{pageBreak}}{{anim id=\"26\"}}{{delay frames=\"16\"}}Mi ha consigliato di trasferirmi qui\n{{fun_0010000E arg=\"\"}} {{fun_00060005 arg=\"\"}}{{delay frames=\"32\"}} {{anim id=\"37\"}}e io mi sono\nprecipitato! {{fun_0003000E arg=\"\"}}{{fun_00070005 arg=\"\"}}!"
  },
  {
    "label": "024",
    "text": "{{anim id=\"32\"}}Ehi,{{delay frames=\"16\"}} io mi chiamo {{fun_00010005 arg=\"\"}}!{{delay frames=\"32\"}}\n{{anim id=\"1\"}}Sono un viaggiatore tutto muscoli.{{pageBreak}}{{anim id=\"0\"}}L'altro giorno,{{delay frames=\"8\"}} quando ero\n{{fun_0010000E arg=\"\"}} {{fun_00020011 arg=\"0x0000\"}},{{delay frames=\"16\"}} ho conosciuto\n{{fun_00000011 arg=\"0x0000\"}} e abbiamo parlato{{delay frames=\"8\"}}.{{delay frames=\"8\"}}.{{delay frames=\"8\"}}.\n{{anim id=\"35\"}}Mi ha proposto di trasferirmi qui!{{delay frames=\"32\"}}\n{{anim id=\"4\"}}Sai, i suoi occhi erano così\nconvincenti che{{delay frames=\"8\"}}.{{delay frames=\"8\"}}.{{delay frames=\"8\"}}.\n... non ce l'ho fatta a dire di no!\n{{anim id=\"37\"}}Ebbene sì, ahora abito aquí.{{delay frames=\"32\"}} Piacere\ndi conoscerti,{{delay frames=\"8\"}} {{fun_00070005 arg=\"\"}}!"
  },
  {
    "label": "025",
    "text": "{{anim id=\"32\"}}Ehi,{{delay frames=\"16\"}} io mi chiamo {{fun_00010005 arg=\"\"}}!{{pageBreak}}{{anim id=\"0\"}}Quando sono venuto in campeggio\n{{fun_0010000E arg=\"\"}} {{fun_00060005 arg=\"\"}},{{delay frames=\"16\"}} ho conosciuto\n{{fun_00000011 arg=\"0x0000\"}} e abbiamo parlato{{delay frames=\"8\"}}.{{delay frames=\"8\"}}.{{delay frames=\"8\"}}.{{delay frames=\"8\"}}\nIn men che non si dica, mi ha\nconvinto a venire a vivere qui!{{pageBreak}}{{anim id=\"37\"}}Sì,{{delay frames=\"8\"}} adesso sono un abitante di\n{{fun_00060005 arg=\"\"}} a tutti gli effetti!{{delay frames=\"32\"}} È un\npiacere conoscerti,{{delay frames=\"8\"}} {{fun_00070005 arg=\"\"}}!"
  },
  {
    "label": "026",
    "text": "{{anim id=\"32\"}}Ehi!{{delay frames=\"16\"}} Io mi chiamo {{fun_00010005 arg=\"\"}}!{{pageBreak}}{{anim id=\"0\"}}Ero aquí in campeggio tempo fa e\nho fatto amicizia con {{fun_00000011 arg=\"0x0000\"}}{{delay frames=\"8\"}}.{{delay frames=\"8\"}}.{{delay frames=\"8\"}}.\n{{anim id=\"26\"}}{{delay frames=\"16\"}}Mi ha parlato tanto di {{fun_00060005 arg=\"\"}}!{{delay frames=\"32\"}}\n{{anim id=\"37\"}}E, affascinato dai suoi racconti,\nho deciso di trasferirmici.\nTanto piacere, {{fun_00070005 arg=\"\"}}!"
  },
  {
    "label": "027",
    "text": "{{anim id=\"32\"}}Ehilà,{{delay frames=\"16\"}} io mi chiamo {{fun_00010005 arg=\"\"}}!{{delay frames=\"32\"}}\n{{anim id=\"39\"}}Sono un viaggiatore solitario,\nma molto amichevole!\n{{anim id=\"0\"}}Tempo fa, ero qui in campeggio\ne sono diventato amicone di\n{{fun_00000011 arg=\"0x0000\"}}. Abbiamo parlato tanto!{{delay frames=\"32\"}}\n{{anim id=\"4\"}}{{delay frames=\"16\"}}Il suo viso buffo mi ha totalmente\nconquistato{{delay frames=\"8\"}}.{{delay frames=\"8\"}}.{{delay frames=\"8\"}}.{{anim id=\"37\"}} ed è per merito suo\nche oggi vivo qui! Che storia, eh?!{{delay frames=\"32\"}}\nComunque sia, tanto piacere\ndi conoscerti,{{delay frames=\"8\"}} {{fun_00070005 arg=\"\"}}!"
  },
  {
    "label": "028",
    "text": "{{anim id=\"32\"}}Ehi,{{delay frames=\"16\"}} io mi chiamo {{fun_00010005 arg=\"\"}}!{{pageBreak}}{{anim id=\"10\"}}E sì, prima che tu me lo chieda,\nsono {{fun_0002000E arg=\"\"}}{{fun_001F0005 arg=\"0x00CD\"}}. Mettiamo\nsubito le cose in chiaro, OK?\n{{anim id=\"0\"}}Comunque, quando ero\n{{fun_0010000E arg=\"\"}} {{fun_00020011 arg=\"0x0000\"}},{{delay frames=\"16\"}} ho conosciuto\n{{fun_00000011 arg=\"0x0000\"}} e siamo diventati amici{{delay frames=\"8\"}}.{{delay frames=\"8\"}}.{{delay frames=\"8\"}}.{{delay frames=\"8\"}}\nPer questo ahora {{fun_00010005 arg=\"\"}}\n{{fun_0001000E arg=\"\"}}{{fun_001F0005 arg=\"0x00CD\"}} vive qui!{{pageBreak}}{{anim id=\"37\"}}Sono onorato di fare\nla tua conoscenza,{{delay frames=\"8\"}} {{fun_00070005 arg=\"\"}}!"
  },
  {
    "label": "029",
    "text": "{{anim id=\"32\"}}Ehi!{{delay frames=\"16\"}} Io mi chiamo {{fun_00010005 arg=\"\"}}!{{pageBreak}}{{anim id=\"0\"}}Ho fatto amicizia con {{fun_00000011 arg=\"0x0000\"}}\nmentre visitavo {{fun_0010000E arg=\"\"}} {{fun_00020011 arg=\"0x0000\"}}\nqualche tempo fa{{delay frames=\"8\"}}.{{delay frames=\"8\"}}.{{delay frames=\"8\"}}.\n{{anim id=\"26\"}}{{delay frames=\"16\"}}Abbiamo parlato di tante cose e mi\nha cantato le lodi di {{fun_00060005 arg=\"\"}}.\n{{delay frames=\"32\"}}{{anim id=\"37\"}}È per questo che ora vivo qui!\nBeh, come dice il proverbio:\n\"Moglie e buoi dei paesi che vuoi!\".\nTanto piacere di conoscerti!"
  },
  {
    "label": "030",
    "text": "{{anim id=\"32\"}}Ehi,{{delay frames=\"16\"}} io mi chiamo {{fun_00010005 arg=\"\"}}!{{delay frames=\"32\"}}\nSono un viaggiatore sentimentale.\n{{anim id=\"0\"}}Eh, più o meno!\n{{anim id=\"1\"}}Ad ogni modo, l'altro giorno ero\n{{fun_0010000E arg=\"\"}} {{fun_00020011 arg=\"0x0000\"}}{{delay frames=\"16\"}} e ho conosciuto\n{{fun_00000011 arg=\"0x0000\"}}{{delay frames=\"8\"}}.{{delay frames=\"8\"}}.{{delay frames=\"8\"}}.\n{{anim id=\"39\"}}Mi ha chiesto se volevo venire a\nvivere {{fun_0010000E arg=\"\"}} {{fun_00050005 arg=\"\"}}.{{pageBreak}}{{anim id=\"4\"}}{{delay frames=\"16\"}}La sua voce suadente mi ha\ndel tutto ipnotizzato{{delay frames=\"8\"}}.{{delay frames=\"8\"}}.{{delay frames=\"8\"}}. {{anim id=\"37\"}}E senza quasi\naccorgermene ho traslocato qui!\n{{delay frames=\"32\"}}Che storia, eh?! Sembra un film!\nTanto piacere di conoscerti,\n{{delay frames=\"8\"}}{{fun_00070005 arg=\"\"}}!"
  },
  {
    "label": "031",
    "text": "{{anim id=\"15\"}}Oh?{{delay frames=\"16\"}} È la prima volta che ci\nincontriamo, vero?\n{{delay frames=\"32\"}}{{anim id=\"37\"}}Io mi chiamo {{fun_00010005 arg=\"\"}}!{{pageBreak}}{{anim id=\"26\"}}Quando sono venuto in campeggio\nqui,{{delay frames=\"16\"}} ho conosciuto {{fun_00000011 arg=\"0x0000\"}} che\nmi ha invitato,{{delay frames=\"8\"}} {{fun_00070005 arg=\"\"}}.\nPer merito suo ora abito in città!\n{{anim id=\"37\"}}Ma basta parlare di me{{delay frames=\"8\"}}.{{delay frames=\"8\"}}.{{delay frames=\"8\"}}.{{delay frames=\"8\"}}{{anim id=\"15\"}} OK?\n{{anim id=\"0\"}}Ah,{{delay frames=\"16\"}} tu ti chiami {{fun_00000005 arg=\"\"}}, eh?{{anim id=\"0\"}}\nSì, ormai è un bel po' che vivo qui{{delay frames=\"8\"}}.{{delay frames=\"8\"}}.{{delay frames=\"8\"}}.\n{{delay frames=\"32\"}}e mi trovo benissimo!\n{{anim id=\"37\"}}Beh,{{delay frames=\"16\"}} tanto piacere,{{delay frames=\"8\"}} {{fun_00080005 arg=\"\"}}!"
  },
  {
    "label": "032",
    "text": "{{anim id=\"15\"}}Oh? Noi non ci conosciamo, vero?!\n{{delay frames=\"32\"}}{{anim id=\"37\"}}Io sono {{fun_00010005 arg=\"\"}}!{{pageBreak}}{{anim id=\"26\"}}Adesso vivo qui perché tempo fa,\n{{fun_0010000E arg=\"\"}} {{fun_00020011 arg=\"0x0000\"}},{{delay frames=\"16\"}} {{fun_00000011 arg=\"0x0000\"}} mi ha\ninvitato a trasferirmi,{{delay frames=\"8\"}} {{fun_00070005 arg=\"\"}}.\n{{anim id=\"37\"}}Ma basta parlare di me{{delay frames=\"8\"}}.{{delay frames=\"8\"}}.{{delay frames=\"8\"}}.{{delay frames=\"8\"}}{{anim id=\"15\"}} OK?\n{{anim id=\"0\"}}Ah,{{delay frames=\"16\"}} tu ti chiami {{fun_00000005 arg=\"\"}}, eh?{{anim id=\"0\"}}{{pageBreak}}Sì, ormai è un bel po' che vivo qui{{delay frames=\"8\"}}.{{delay frames=\"8\"}}.{{delay frames=\"8\"}}.\n{{delay frames=\"32\"}}e mi trovo benissimo!\n{{anim id=\"37\"}}Beh,{{delay frames=\"16\"}} tanto piacere,{{delay frames=\"8\"}} {{fun_00080005 arg=\"\"}}!"
  },
  {
    "label": "033",
    "text": "{{anim id=\"15\"}}Oh{{delay frames=\"8\"}}.{{delay frames=\"8\"}}.{{delay frames=\"8\"}}.{{delay frames=\"8\"}} {{anim id=\"36\"}}Penso che ci siano ancora in\ncittà alcuni abitanti{{delay frames=\"8\"}} con cui non ho\nmai parlato,{{delay frames=\"8\"}} {{fun_00070005 arg=\"\"}}!\n{{anim id=\"37\"}}Io mi chiamo {{fun_00010005 arg=\"\"}}!\nPiacere di conoscerti!{{pageBreak}}{{anim id=\"26\"}}Tempo fa,{{delay frames=\"8\"}} campeggiavo qui e ho\nfatto amicizia con {{fun_00000011 arg=\"0x0000\"}}.\nMi ha invitato a trasferirmi{{delay frames=\"8\"}}.{{delay frames=\"8\"}}.{{delay frames=\"8\"}}.{{delay frames=\"8\"}}\n{{anim id=\"0\"}}Beh, ormai ne è passato di tempo,\nma io ho accettato l'invito e sono\nvenuto a vivere qui{{delay frames=\"8\"}}.{{delay frames=\"8\"}}.{{delay frames=\"8\"}}.\n{{delay frames=\"32\"}}{{anim id=\"1\"}}Comunque, è sempre un piacere\nfare nuove conoscenze!"
  },
  {
    "label": "034",
    "text": "{{anim id=\"15\"}}Oh{{delay frames=\"8\"}}.{{delay frames=\"8\"}}.{{delay frames=\"8\"}}.{{delay frames=\"8\"}} {{anim id=\"36\"}}Penso che ci siano ancora in\ncittà alcuni abitanti{{delay frames=\"8\"}} con cui non ho\nmai parlato,{{delay frames=\"8\"}} {{fun_00070005 arg=\"\"}}!\n{{anim id=\"37\"}}Io sono {{fun_00010005 arg=\"\"}}! {{anim id=\"39\"}}Tempo fa,\n{{delay frames=\"16\"}}proprio mentre stavo pensando\ndi lasciare {{fun_00020011 arg=\"0x0000\"}}{{delay frames=\"8\"}}.{{delay frames=\"8\"}}.{{delay frames=\"8\"}}.{{delay frames=\"8\"}}{{pageBreak}}... mi hanno proposto di venire a\nvivere {{fun_0010000E arg=\"\"}} {{fun_00050005 arg=\"\"}}{{delay frames=\"8\"}}.{{delay frames=\"8\"}}.{{delay frames=\"8\"}}.{{pageBreak}}{{anim id=\"0\"}}È successo secoli fa{{delay frames=\"8\"}}.{{delay frames=\"8\"}}.{{delay frames=\"8\"}}. e il merito\nè tutto di {{fun_00000011 arg=\"0x0000\"}}!{{fun_00010007 arg=\"\"}} {{delay frames=\"32\"}}{{anim id=\"1\"}}Comunque,\n{{delay frames=\"16\"}}è un piacere conoscerti finalmente!"
  },
  {
    "label": "035",
    "text": "{{anim id=\"30\"}}Eccciùùù! {{delay frames=\"16\"}}{{anim id=\"9\"}}Noi non ci conosciamo,{{delay frames=\"16\"}}\nvero? No, non credo proprio{{delay frames=\"8\"}}.{{delay frames=\"8\"}}.{{delay frames=\"8\"}}.{{delay frames=\"8\"}}{{pageBreak}}Io sono{{delay frames=\"8\"}}.{{delay frames=\"8\"}}.{{delay frames=\"8\"}}.{{delay frames=\"8\"}} {{fun_00010005 arg=\"\"}}.{{delay frames=\"32\"}} Tempo fa,{{delay frames=\"8\"}}\nsono stato in campeggio\n{{fun_0010000E arg=\"\"}} {{fun_00060005 arg=\"\"}}{{delay frames=\"16\"}}{{delay frames=\"8\"}}.{{delay frames=\"8\"}}.{{delay frames=\"8\"}}.{{delay frames=\"8\"}}\nHo conosciuto {{fun_00000011 arg=\"0x0000\"}} e mi ha\nchiesto{{delay frames=\"8\"}}.{{delay frames=\"8\"}}.{{delay frames=\"8\"}}.{{delay frames=\"8\"}} se volevo dare una svolta\nalla mia vita e trasferirmi qui, ma{{delay frames=\"8\"}}.{{delay frames=\"8\"}}.{{delay frames=\"8\"}}.{{delay frames=\"8\"}}\n... appena sono arrivato ho preso\nil raffreddore{{delay frames=\"4\"}}.{{delay frames=\"4\"}}.{{delay frames=\"4\"}}.{{delay frames=\"4\"}}{{anim id=\"30\"}} ECCCIÙÙÙ!{{pageBreak}}{{anim id=\"9\"}}Mi dispiacerebbe se ti ammalassi\nanche tu! Vediamoci di nuovo\nquando sarò guarito."
  },
  {
    "label": "036",
    "text": "{{anim id=\"30\"}}Ecciùùù!{{delay frames=\"32\"}} {{delay frames=\"8\"}}.{{delay frames=\"8\"}}.{{delay frames=\"8\"}}.{{delay frames=\"8\"}}{{anim id=\"9\"}} Noi non ci conosciamo,{{delay frames=\"16\"}}\nvero?{{delay frames=\"32\"}} Io mi chiamo{{delay frames=\"8\"}}.{{delay frames=\"8\"}}.{{delay frames=\"8\"}}.{{delay frames=\"8\"}} {{fun_00010005 arg=\"\"}}.{{pageBreak}}{{fun_0012000E arg=\"0x0D000E0055006E0020007400690070006F00100055006E006100200074006900700061000000\"}} di nome {{fun_00000011 arg=\"0x0000\"}}\nmi ha proposto di venire a vivere\nqui e io ho accettato{{delay frames=\"8\"}}.{{delay frames=\"8\"}}.{{delay frames=\"8\"}}.\nMa appena arrivato,\nho preso il raffreddore{{delay frames=\"4\"}}.{{delay frames=\"4\"}}.{{delay frames=\"4\"}}.{{delay frames=\"4\"}}{{anim id=\"30\"}} Ecciùùù!{{pageBreak}}{{anim id=\"9\"}}Non vorrei mai attaccartelo!\nQuindi, rivediamoci per fare due\nchiacchiere quando starò meglio{{delay frames=\"8\"}}.{{delay frames=\"8\"}}.{{delay frames=\"8\"}}."
  },
  {
    "label": "037",
    "text": "{{anim id=\"32\"}}Ehi,{{delay frames=\"8\"}} io mi chiamo {{fun_00010005 arg=\"\"}}!{{pageBreak}}{{anim id=\"0\"}}Tempo fa,{{delay frames=\"8\"}} mentre campeggiavo\n{{fun_0010000E arg=\"\"}} {{fun_00060005 arg=\"\"}},{{delay frames=\"16\"}} uno degli abitanti\nmi ha chiesto di trasferirmi qui.{{pageBreak}}{{anim id=\"37\"}}E io l'ho fatto{{delay frames=\"8\"}}.{{delay frames=\"8\"}}.{{delay frames=\"8\"}}.{{delay frames=\"32\"}} {{anim id=\"23\"}}Ma indovina un po'?\n{{anim id=\"6\"}}Ho scoperto che chi mi ha invitato\nora non abita più in questa città!{{delay frames=\"32\"}}\n{{anim id=\"27\"}}Mi sento un po'{{delay frames=\"8\"}}.{{delay frames=\"8\"}}.{{delay frames=\"8\"}}.{{delay frames=\"32\"}} turlupinato!\n{{anim id=\"39\"}}Ma, dopotutto, qui ho trovato\ntanti buoni amici{{delay frames=\"8\"}}.{{delay frames=\"8\"}}.{{delay frames=\"8\"}}.{{delay frames=\"32\"}}\nSì, era destino! {{anim id=\"37\"}}Che ti piaccia o no,\nora sono un abitante di {{fun_00060005 arg=\"\"}}!\n{{delay frames=\"32\"}}Qua la mano,{{delay frames=\"8\"}} {{fun_00070005 arg=\"\"}}!"
  },
  {
    "label": "038",
    "text": "{{anim id=\"32\"}}Ehilà,{{delay frames=\"8\"}} salve! Io sono {{fun_00010005 arg=\"\"}}!{{pageBreak}}{{anim id=\"0\"}}Tempo fa,{{delay frames=\"8\"}} un abitante di {{fun_00020011 arg=\"0x0000\"}}\nmi ha parlato benissimo di questa\ncittà e mi ha invitato a trasferirmi.\n{{anim id=\"37\"}}Questo è il motivo per cui\nora ho casa qui{{delay frames=\"8\"}}.{{delay frames=\"8\"}}.{{delay frames=\"8\"}}.{{delay frames=\"32\"}} {{anim id=\"23\"}}Ma sai una cosa?\n{{anim id=\"6\"}}Quell'abitante si è volatilizzato!{{delay frames=\"32\"}}\n{{anim id=\"27\"}}Ma ti sembra possibile?!\n{{anim id=\"39\"}}Però, se non mi fossi trasferito,\nnon ti avrei mai incontrat{{fun_0006000E arg=\"0x02006F0002006100\"}}{{delay frames=\"8\"}}.{{delay frames=\"8\"}}.{{delay frames=\"8\"}}.{{delay frames=\"32\"}}\nEra destino {{anim id=\"37\"}}e ora sono contentone\ndi abitare{{delay frames=\"16\"}} {{fun_0010000E arg=\"\"}} {{fun_00060005 arg=\"\"}}!{{delay frames=\"32\"}}\nTanto piacere,{{delay frames=\"8\"}} {{fun_00070005 arg=\"\"}}!"
  },
  {
    "label": "039",
    "text": "{{anim id=\"32\"}}Ehilà,{{delay frames=\"16\"}} io sono {{fun_00010005 arg=\"\"}}!{{pageBreak}}{{anim id=\"0\"}}Tempo fa, ero qui in campeggio{{delay frames=\"8\"}}\ne ho conosciuto un abitante\ndella città{{delay frames=\"16\"}}{{delay frames=\"8\"}}.{{delay frames=\"8\"}}.{{delay frames=\"8\"}}.\n{{anim id=\"26\"}}Mi ha parlato così bene del posto\nche mi ha convinto a trasferirmi,\n{{delay frames=\"8\"}}{{fun_00070005 arg=\"\"}}. {{anim id=\"37\"}}Ed ora eccomi qua!\n{{anim id=\"9\"}}Ma sai, quell'abitante ha traslocato!\n{{anim id=\"37\"}}Oh beh, all'inizio ero arrabbiato.{{delay frames=\"32\"}}\n{{anim id=\"35\"}}Ora voglio solo trovare nuovi amici!"
  },
  {
    "label": "040",
    "text": "{{anim id=\"32\"}}Hola!{{delay frames=\"16\"}} Io mi chiamo {{fun_00010005 arg=\"\"}}!{{pageBreak}}{{anim id=\"0\"}}Tempo fa{{delay frames=\"8\"}} ho incontrato un abitante\ndi {{fun_00020011 arg=\"0x0000\"}}{{delay frames=\"8\"}}.{{delay frames=\"8\"}}.{{delay frames=\"8\"}}.{{pageBreak}}{{anim id=\"26\"}}Era molto gentile e mi ha convinto\na trasferirmi {{fun_0010000E arg=\"\"}} {{fun_00050005 arg=\"\"}},\n{{delay frames=\"8\"}}{{fun_00070005 arg=\"\"}}.\n{{anim id=\"37\"}}È per questo motivo che ora vivo\nqui{{delay frames=\"8\"}}.{{delay frames=\"8\"}}.{{delay frames=\"8\"}}.{{delay frames=\"32\"}} {{anim id=\"9\"}}Ma,{{delay frames=\"16\"}} quell'abitante ha cambiato\ncittà! Incredibile, no?!\n{{anim id=\"37\"}}Non ti preoccupare, però, io non me\nne vado. Sono qui per restare!\n{{delay frames=\"32\"}}{{anim id=\"1\"}}Tanto piacere di conoscerti!"
  },
  {
    "label": "041",
    "text": "{{anim id=\"15\"}}Uau,{{delay frames=\"16\"}} sbaglio o questa è la prima\nvolta che ci incontriamo?\n{{delay frames=\"32\"}}{{anim id=\"0\"}}Io sono {{fun_00010005 arg=\"\"}}!{{pageBreak}}{{anim id=\"26\"}}{{delay frames=\"16\"}}Ero venuto in campeggio qui tempo\nfa e un abitante molto gentile mi\nha convinto a trasferirmi in città{{delay frames=\"8\"}}.{{delay frames=\"8\"}}.{{delay frames=\"8\"}}.{{pageBreak}}{{anim id=\"9\"}}Ma ora quell'abitante non vive più\nda queste parti. Quando l'ho saputo\nsono rimasto a bocca aperta!\n{{anim id=\"36\"}}Il tempo svolazza, eh?!{{delay frames=\"32\"}} In effetti ne\nè passato un bel po'{{delay frames=\"8\"}}.{{delay frames=\"8\"}}.{{delay frames=\"8\"}}.{{delay frames=\"32\"}} {{anim id=\"37\"}}Comunque\nsia,{{delay frames=\"16\"}} tanto piacere,{{delay frames=\"8\"}} {{fun_00070005 arg=\"\"}}!"
  },
  {
    "label": "042",
    "text": "{{anim id=\"15\"}}Oh,{{delay frames=\"16\"}} noi non ci conosciamo, vero?!\n{{delay frames=\"32\"}}{{anim id=\"0\"}}Io mi chiamo {{fun_00010005 arg=\"\"}}!{{pageBreak}}{{anim id=\"26\"}}Quando ero {{fun_0010000E arg=\"\"}} {{fun_00020011 arg=\"0x0000\"}}{{delay frames=\"16\"}} mi hanno\nparlato bene di questo posto e mi\nè venuta voglia di trasferirmici{{delay frames=\"8\"}}.{{delay frames=\"8\"}}.{{delay frames=\"8\"}}.{{pageBreak}}{{anim id=\"9\"}}Ma chi mi ha convinto{{delay frames=\"8\"}} non abita più\nqui!{{delay frames=\"16\"}} È strano, ma non importa.\nIo sono venuto per restare!{{pageBreak}}{{anim id=\"36\"}}Il tempo sorvola!{{delay frames=\"32\"}} E ha sorvolato\nmolto da quando sono qui{{delay frames=\"8\"}}.{{delay frames=\"8\"}}.{{delay frames=\"8\"}}.{{delay frames=\"32\"}} {{anim id=\"37\"}}Ad ogni\nmodo,{{delay frames=\"16\"}} tanto piacere,{{delay frames=\"8\"}} {{fun_00070005 arg=\"\"}}!"
  },
  {
    "label": "043",
    "text": "Oh,{{delay frames=\"16\"}} a quanto pare ci sono abitanti\nche ancora non conosco!\n{{delay frames=\"32\"}}{{anim id=\"37\"}}Io sono {{fun_00010005 arg=\"\"}}!\nTempo fa,{{delay frames=\"8\"}} mentre ero in campeggio\nqui, mi hanno proposto di venirci\na vivere{{delay frames=\"8\"}}.{{delay frames=\"8\"}}.{{delay frames=\"8\"}}.\n{{anim id=\"9\"}}Ma lo sai?! Chi mi ha invitato ha\ncambiato città! Ti rendi conto?{{pageBreak}}{{anim id=\"0\"}}Ma ne è passata di acqua sotto\ni ponti da allora{{delay frames=\"8\"}}.{{delay frames=\"8\"}}.{{delay frames=\"8\"}}.{{delay frames=\"32\"}} {{anim id=\"37\"}}Basta rimuginare\nora! Tanto piacere,{{delay frames=\"8\"}} {{fun_00070005 arg=\"\"}}!"
  },
  {
    "label": "044",
    "text": "Oh,{{delay frames=\"16\"}} a quanto pare non avevo ancora\nincontrato proprio tutti tutti.{{delay frames=\"32\"}}\n{{anim id=\"37\"}}Io sono {{fun_00010005 arg=\"\"}}! Tanto piacere!\nMentre visitavo {{fun_00020011 arg=\"0x0000\"}},\nho incontrato un abitante di qui\nche mi ha invitato a trasferirmi{{delay frames=\"8\"}}.{{delay frames=\"8\"}}.{{delay frames=\"8\"}}.\n{{anim id=\"9\"}}Io l'ho fatto, ma quell'abitante ha\nlevato le tende e non abita più qui.\nIncredibile!\n{{anim id=\"0\"}}Ma il passato è passato{{delay frames=\"8\"}}.{{delay frames=\"8\"}}.{{delay frames=\"8\"}}.{{delay frames=\"32\"}} no?!\n{{anim id=\"37\"}}Spero solo che{{delay frames=\"8\"}} non decida di\nandartene anche tu,{{delay frames=\"8\"}} {{fun_00070005 arg=\"\"}}!"
  },
  {
    "label": "045",
    "text": "{{anim id=\"20\"}}Coff coff!{{delay frames=\"60\"}} {{anim id=\"9\"}}Noi due non ci\nconosciamo, dico bene?!{{pageBreak}}Io mi chiamo{{delay frames=\"8\"}}.{{delay frames=\"8\"}}.{{delay frames=\"8\"}}.{{delay frames=\"8\"}} {{fun_00010005 arg=\"\"}}!{{delay frames=\"32\"}}{{pageBreak}}Tempo fa{{delay frames=\"8\"}} ero in campeggio qui\n{{fun_0010000E arg=\"\"}} {{fun_00060005 arg=\"\"}} e mi stavo divertendo\nun sacco{{delay frames=\"16\"}}{{delay frames=\"8\"}}.{{delay frames=\"8\"}}.{{delay frames=\"8\"}}.{{delay frames=\"8\"}}{{pageBreak}}... quando un abitante della città\nmi ha proposto di trasferirmi.{{pageBreak}}Io l'ho fatto{{delay frames=\"8\"}}.{{delay frames=\"8\"}}.{{delay frames=\"8\"}}. ma dopo aver dato\nun'occhiata in giro,{{delay frames=\"32\"}} ho scoperto\n{{anim id=\"19\"}}che quell'abitante non vive più qui{{delay frames=\"8\"}}.{{delay frames=\"8\"}}.{{delay frames=\"8\"}}.{{delay frames=\"8\"}}\n{{anim id=\"6\"}}E, come se non fosse abbastanza,{{delay frames=\"16\"}}\nmi sono preso la tosse{{delay frames=\"4\"}}.{{delay frames=\"4\"}}.{{delay frames=\"4\"}}.{{delay frames=\"32\"}} {{anim id=\"20\"}}Coff coff!{{delay frames=\"60\"}}{{pageBreak}}{{anim id=\"9\"}}Mi dispiacerebbe attaccartela{{delay frames=\"8\"}}.{{delay frames=\"8\"}}.{{delay frames=\"8\"}}.{{delay frames=\"8\"}}\nVediamoci di nuovo quando starò\nmeglio{{delay frames=\"8\"}}.{{delay frames=\"8\"}}.{{delay frames=\"8\"}}."
  },
  {
    "label": "046",
    "text": "{{anim id=\"20\"}}Coff coff! {{delay frames=\"8\"}}{{anim id=\"9\"}}Non mi sembra\ndi conoscerti,{{delay frames=\"16\"}} o sbaglio?{{pageBreak}}Beh, io mi chiamo{{delay frames=\"8\"}}.{{delay frames=\"8\"}}.{{delay frames=\"8\"}}.{{delay frames=\"8\"}} {{fun_00010005 arg=\"\"}}!{{pageBreak}}Tempo fa, quando ancora abitavo\n{{fun_0010000E arg=\"\"}} {{fun_00020011 arg=\"0x0000\"}},{{delay frames=\"16\"}} volevo trasferirmi,\nma non sapevo bene dove{{delay frames=\"8\"}}.{{delay frames=\"8\"}}.{{delay frames=\"8\"}}.\nQualcuno mi consigliò di venire qui\ne io ho seguito quel suggerimento{{delay frames=\"8\"}}.{{delay frames=\"8\"}}.{{delay frames=\"8\"}}.{{pageBreak}}Ma,{{delay frames=\"8\"}} dopo aver cercato ovunque,{{delay frames=\"32\"}}\n{{anim id=\"19\"}}ho scoperto che quel qualcuno\nnon vive più in questa ciudad{{delay frames=\"8\"}}.{{delay frames=\"8\"}}.{{delay frames=\"8\"}}.\n{{anim id=\"6\"}}Poi ha cominciato a piovere\nsul bagnato e{{delay frames=\"16\"}} ho preso la tosse{{delay frames=\"4\"}}.{{delay frames=\"4\"}}.{{delay frames=\"4\"}}.\n{{delay frames=\"32\"}}{{anim id=\"20\"}}Coff coff!{{pageBreak}}{{anim id=\"9\"}}Non voglio che ti ammali anche tu{{delay frames=\"8\"}}.{{delay frames=\"8\"}}.{{delay frames=\"8\"}}.{{delay frames=\"8\"}}\nVediamoci di nuovo quando sarò\ntornato in forma smagliante{{delay frames=\"8\"}}.{{delay frames=\"8\"}}.{{delay frames=\"8\"}}."
  },
  {
    "label": "047",
    "text": "{{anim id=\"32\"}}Hola,{{delay frames=\"8\"}} {{fun_00080005 arg=\"\"}}!{{delay frames=\"32\"}}\nSono io,{{delay frames=\"16\"}} {{fun_00010005 arg=\"\"}}!{{pageBreak}}{{anim id=\"0\"}}Tempo fa,{{delay frames=\"8\"}} mentre ero in campeggio\n{{fun_0010000E arg=\"\"}} {{fun_00060005 arg=\"\"}}, ho conosciuto\n{{fun_00000011 arg=\"0x0000\"}} e abbiamo legato{{delay frames=\"8\"}}.{{delay frames=\"8\"}}.{{delay frames=\"8\"}}.{{delay frames=\"8\"}}\n{{anim id=\"37\"}}Mi ha invitato a venire a vivere qui\ne io ho accettato subito.{{pageBreak}}{{anim id=\"44\"}}Da oggi,{{delay frames=\"8\"}} sono un abitante\ndi {{fun_00060005 arg=\"\"}} in piena regola!\n{{delay frames=\"32\"}}{{anim id=\"1\"}}Diventeremo amiconi,{{delay frames=\"8\"}} {{fun_00080005 arg=\"\"}}!"
  },
  {
    "label": "048",
    "text": "{{anim id=\"32\"}}Hola,{{delay frames=\"8\"}} {{fun_00080005 arg=\"\"}}!{{delay frames=\"32\"}} Sono io,\nquel muscolosone di{{delay frames=\"16\"}} {{fun_00010005 arg=\"\"}}!{{pageBreak}}{{anim id=\"0\"}}Tempo fa,{{delay frames=\"8\"}} {{fun_0010000E arg=\"\"}} {{fun_00020011 arg=\"0x0000\"}},{{delay frames=\"16\"}} ho\nincontrato {{fun_00000011 arg=\"0x0000\"}}{{delay frames=\"16\"}} che mi ha\nsuggerito di trasferirmi qui{{delay frames=\"8\"}}.{{delay frames=\"8\"}}.{{delay frames=\"8\"}}.{{delay frames=\"8\"}}\n{{anim id=\"37\"}}Mi ha parlato così bene di\n{{fun_00060005 arg=\"\"}} che non ho potuto fare\naltro che seguire il suo consiglio!\n{{anim id=\"44\"}}Ora,{{delay frames=\"8\"}} sono un cittadino con tanto\ndi timbro e marca da bollo, sai?!\n{{delay frames=\"32\"}}{{anim id=\"1\"}}Diventeremo amiconi,{{delay frames=\"8\"}} {{fun_00080005 arg=\"\"}}!"
  },
  {
    "label": "049",
    "text": "{{anim id=\"16\"}}Oh,{{delay frames=\"8\"}} {{fun_00080005 arg=\"\"}}!{{delay frames=\"32\"}}\n{{anim id=\"37\"}}Sono io,{{delay frames=\"16\"}} {{fun_00010005 arg=\"\"}}!{{pageBreak}}{{anim id=\"0\"}}Quando ero venuto in campeggio\nqui,{{delay frames=\"16\"}} ho conosciuto {{fun_0008000E arg=\"0x00CD180075006E00200063006900740074006100640069006E006F001A0075006E006100200063006900740074006100640069006E0061000000\"}} di\nnome {{fun_00000011 arg=\"0x0000\"}}{{delay frames=\"8\"}}.{{delay frames=\"8\"}}.{{delay frames=\"8\"}}.{{delay frames=\"8\"}}\n{{anim id=\"26\"}}{{delay frames=\"16\"}}Ha provato in tutti i modi a\nconvincermi a traslocare e, come\nvedi, ce l'ha fatta,{{delay frames=\"8\"}} {{fun_00070005 arg=\"\"}}.{{pageBreak}}{{anim id=\"44\"}}Questo è il motivo per cui vivo qui!\n{{delay frames=\"32\"}}{{anim id=\"37\"}}Spero che diventeremo amici per\nla pelle,{{delay frames=\"8\"}} {{fun_00080005 arg=\"\"}}!"
  },
  {
    "label": "050",
    "text": "{{anim id=\"16\"}}Oh,{{delay frames=\"8\"}} {{fun_00080005 arg=\"\"}}!{{delay frames=\"32\"}}\n{{anim id=\"37\"}}Sono io,{{delay frames=\"16\"}} {{fun_00010005 arg=\"\"}}!{{pageBreak}}{{anim id=\"0\"}}Tempo fa, {{fun_0010000E arg=\"\"}} {{fun_00020011 arg=\"0x0000\"}},{{delay frames=\"16\"}} ho\nconosciuto {{fun_00000011 arg=\"0x0000\"}}{{delay frames=\"8\"}}.{{delay frames=\"8\"}}.{{delay frames=\"8\"}}.{{delay frames=\"8\"}}{{pageBreak}}{{anim id=\"26\"}}{{delay frames=\"16\"}}Ha fatto di tutto per convincermi\na traslocare qui,{{delay frames=\"8\"}} {{fun_00070005 arg=\"\"}}...\n{{anim id=\"44\"}}E alla fine ce l'ha fatta!{{delay frames=\"32\"}}\n{{anim id=\"37\"}}Questa è la nostra occasione\nper diventare amiconi,{{delay frames=\"8\"}} {{fun_00080005 arg=\"\"}}.\nNon sprechiamola!"
  },
  {
    "label": "051",
    "text": "{{anim id=\"32\"}}Hola,{{delay frames=\"8\"}} {{fun_00080005 arg=\"\"}}!{{delay frames=\"32\"}}\nSono io,{{delay frames=\"16\"}} {{fun_00010005 arg=\"\"}}!{{pageBreak}}{{anim id=\"26\"}}{{delay frames=\"16\"}}Ero qui in campeggio tempo fa e ho\nconosciuto {{fun_00000011 arg=\"0x0000\"}}. Mi ha subito\ninvitato a trasferirmi in città.\n{{anim id=\"0\"}}Per qualche ragione,{{delay frames=\"16\"}} mi ha convinto\ne sono venuto a vivere qui!{{pageBreak}}{{anim id=\"37\"}}Spero che diventeremo\namiconi,{{delay frames=\"8\"}} {{fun_00080005 arg=\"\"}}!"
  },
  {
    "label": "052",
    "text": "{{anim id=\"32\"}}Hola,{{delay frames=\"8\"}} {{fun_00080005 arg=\"\"}}!{{delay frames=\"32\"}} Sono io,\nquel simpaticone di{{delay frames=\"16\"}} {{fun_00010005 arg=\"\"}}!{{pageBreak}}{{anim id=\"26\"}}{{delay frames=\"16\"}}Quando ero ancora {{fun_0010000E arg=\"\"}} {{fun_00020011 arg=\"0x0000\"}},\n{{delay frames=\"16\"}}ho conosciuto {{fun_00000011 arg=\"0x0000\"}} che mi ha\nconsigliato di trasferirmi qui.\n{{anim id=\"0\"}}E, a quanto pare, ha stuzzicato\nla mia curiosidad perché ora sono\nun nuovo abitante di {{fun_00050005 arg=\"\"}}!\n{{anim id=\"37\"}}Scusa per non essere venuto\na salutarti prima!{{delay frames=\"16\"}} Spero che\nci vedremo spesso,{{delay frames=\"8\"}} {{fun_00080005 arg=\"\"}}!"
  },
  {
    "label": "053",
    "text": "{{anim id=\"15\"}}Oh,{{delay frames=\"8\"}} guarda chi c'è... {{fun_0003000E arg=\"\"}}{{fun_00080005 arg=\"\"}}!{{delay frames=\"32\"}}\n{{anim id=\"37\"}}Sono io,{{delay frames=\"16\"}} {{fun_00010005 arg=\"\"}}!{{pageBreak}}{{anim id=\"0\"}}{{fun_0003000E arg=\"\"}}{{fun_0010000E arg=\"\"}} {{fun_00050005 arg=\"\"}},{{delay frames=\"16\"}} c'è qualcuno che\nsi chiama {{fun_00000011 arg=\"0x0000\"}}, giusto?{{pageBreak}}{{anim id=\"39\"}}Quando ero in campeggio,{{delay frames=\"16\"}} mi ha\nparlato molto bene di questa città\ne io mi sono fatto convincere!\n{{anim id=\"0\"}}Mi sono trasferito subito qui, ma\nda allora ne è passato di tempo{{delay frames=\"8\"}}.{{delay frames=\"8\"}}.{{delay frames=\"8\"}}.{{pageBreak}}{{delay frames=\"32\"}}{{anim id=\"37\"}}Comunque,{{delay frames=\"16\"}} mi fa piacere rivederti,\n{{delay frames=\"8\"}}{{fun_00080005 arg=\"\"}}!"
  },
  {
    "label": "054",
    "text": "{{anim id=\"15\"}}Ehilà, {{fun_00080005 arg=\"\"}}!{{delay frames=\"32\"}} {{anim id=\"37\"}}Sono io,\nquel bellimbusto di{{delay frames=\"16\"}} {{fun_00010005 arg=\"\"}}!{{pageBreak}}{{anim id=\"0\"}}{{fun_0003000E arg=\"\"}}{{fun_0010000E arg=\"\"}} {{fun_00050005 arg=\"\"}},{{delay frames=\"16\"}} c'è qualcuno che\nsi chiama {{fun_00000011 arg=\"0x0000\"}}, vero?!{{pageBreak}}{{anim id=\"39\"}}Quando abitavo {{fun_0010000E arg=\"\"}} {{fun_00020011 arg=\"0x0000\"}},\n{{delay frames=\"16\"}}mi ha convinto a trasferirmi qui...\ned eccomi in città!\n{{anim id=\"0\"}}Comunque, ormai è da un po'\nche vivo qui.{{delay frames=\"32\"}} {{anim id=\"37\"}}Mi fa molto piacere\n{{delay frames=\"16\"}}rivederti,{{delay frames=\"8\"}} {{fun_00080005 arg=\"\"}}!"
  },
  {
    "label": "055",
    "text": "{{anim id=\"20\"}}Coff coff{{delay frames=\"8\"}}.{{delay frames=\"8\"}}.{{delay frames=\"8\"}}.{{delay frames=\"8\"}}{{anim id=\"9\"}} Tu sei {{fun_00000005 arg=\"\"}},\ndico bene?{{pageBreak}}Ero qui in campeggio un po'\ndi tempo fa{{delay frames=\"8\"}}.{{delay frames=\"8\"}}.{{delay frames=\"8\"}}.{{pageBreak}}... e {{fun_0008000E arg=\"0x00CD100075006E00200063006500720074006F00120075006E0061002000630065007200740061000000\"}} {{fun_00000011 arg=\"0x0000\"}} mi ha\nconvinto{{delay frames=\"8\"}}.{{delay frames=\"8\"}}.{{delay frames=\"8\"}}.{{delay frames=\"8\"}} a venire a vivere\nnella vostra città{{delay frames=\"8\"}}.{{delay frames=\"8\"}}.{{delay frames=\"8\"}}.{{delay frames=\"8\"}}\n{{anim id=\"19\"}}Ma,{{delay frames=\"8\"}} appena sono arrivato{{delay frames=\"8\"}}.{{delay frames=\"8\"}}.{{delay frames=\"8\"}}.{{delay frames=\"8\"}}\nho preso una brutta tosse{{delay frames=\"4\"}}.{{delay frames=\"4\"}}.{{delay frames=\"4\"}}.\n{{delay frames=\"4\"}}{{anim id=\"20\"}}Coff coff!{{delay frames=\"60\"}}{{pageBreak}}{{anim id=\"9\"}}Mi dispiacerebbe se ti ammalassi\nanche tu{{delay frames=\"8\"}}.{{delay frames=\"8\"}}.{{delay frames=\"8\"}}.{{delay frames=\"8\"}} Rivediamoci quando\nstarò meglio{{delay frames=\"8\"}}.{{delay frames=\"8\"}}.{{delay frames=\"8\"}}."
  },
  {
    "label": "056",
    "text": "{{anim id=\"20\"}}Coff coff{{delay frames=\"8\"}}.{{delay frames=\"8\"}}.{{delay frames=\"8\"}}.{{delay frames=\"8\"}}{{anim id=\"9\"}} Oh, hola, tu sei\n{{fun_00000005 arg=\"\"}}, giusto?{{pageBreak}}Tempo fa, quando ero\n{{fun_0010000E arg=\"\"}} {{fun_00020011 arg=\"0x0000\"}}{{delay frames=\"8\"}}.{{delay frames=\"8\"}}.{{delay frames=\"8\"}}.{{delay frames=\"8\"}}{{pageBreak}}... ho conosciuto {{fun_00000011 arg=\"0x0000\"}} che\nmi ha convinto a lasciare tutto\ne a trasferirmi qui in città{{delay frames=\"8\"}}.{{delay frames=\"8\"}}.{{delay frames=\"8\"}}.\n{{anim id=\"19\"}}Ma appena sono arrivato{{delay frames=\"8\"}}.{{delay frames=\"8\"}}.{{delay frames=\"8\"}}.{{delay frames=\"8\"}}\nmi sono preso una tosse spaziale{{delay frames=\"4\"}}.{{delay frames=\"4\"}}.{{delay frames=\"4\"}}.{{delay frames=\"4\"}}{{pageBreak}}{{anim id=\"20\"}}Coff coff!{{delay frames=\"60\"}}{{anim id=\"9\"}} Non voglio che ti ammali\nanche tu{{delay frames=\"8\"}}.{{delay frames=\"8\"}}.{{delay frames=\"8\"}}.{{delay frames=\"8\"}} Rivediamoci quando\nmi sarò rimesso in forma{{delay frames=\"8\"}}.{{delay frames=\"8\"}}.{{delay frames=\"8\"}}.{{delay frames=\"8\"}}"
  },
  {
    "label": "057",
    "text": "{{anim id=\"32\"}}Ehi,{{delay frames=\"8\"}} {{fun_00080005 arg=\"\"}}!{{delay frames=\"32\"}} Sono io,\nquel rubacuori di {{delay frames=\"16\"}}{{fun_00010005 arg=\"\"}}!{{pageBreak}}{{anim id=\"0\"}}Tempo fa,{{delay frames=\"8\"}} mentre campeggiavo\n{{fun_0010000E arg=\"\"}} {{fun_00060005 arg=\"\"}},{{delay frames=\"20\"}} un abitante mi ha\nparlato benissimo di questa città.\n{{anim id=\"37\"}}Le sue parole mi hanno colpito\ne mi sono trasferito subito, {{anim id=\"23\"}}ma\nindovina com'è andata a finire?\n{{anim id=\"11\"}}{{delay frames=\"16\"}}Ho scoperto che quell'abitante\nha lasciato la città{{delay frames=\"8\"}}.{{delay frames=\"8\"}}.{{delay frames=\"8\"}}.{{delay frames=\"32\"}}\n{{anim id=\"6\"}}E io che speravo di fare amicizia!\n{{anim id=\"36\"}}Comunque sia, se non mi fossi\ntrasferito,{{delay frames=\"32\"}} non ti avrei mai\nconosciut{{fun_0006000E arg=\"0x02006F0002006100\"}}, quindi sono muy feliz!\n{{anim id=\"37\"}}Essere un cittadino {{delay frames=\"16\"}}di {{fun_00060005 arg=\"\"}}\na tutti gli effetti mi piace un sacco\ne anche tu non sei male,{{delay frames=\"8\"}} {{fun_00080005 arg=\"\"}}!"
  },
  {
    "label": "058",
    "text": "{{anim id=\"32\"}}Hola,{{delay frames=\"8\"}} {{fun_00080005 arg=\"\"}}!{{delay frames=\"32\"}} Sono io,\nquella sagoma di{{delay frames=\"16\"}} {{fun_00010005 arg=\"\"}}!{{pageBreak}}{{anim id=\"0\"}}Tempo addietro,{{delay frames=\"8\"}} quando ero\n{{fun_0010000E arg=\"\"}} {{fun_00020011 arg=\"0x0000\"}},{{delay frames=\"8\"}} qualcuno mi ha\npersuaso a trasferirmi qui.{{pageBreak}}{{anim id=\"37\"}}Le sue parole erano così convincenti\nche ho ceduto,{{delay frames=\"32\"}} {{anim id=\"23\"}}ma sai com'è andata\na finire?{{pageBreak}}{{anim id=\"11\"}}Ho sentito dire che quell'abitante\nse l'è svignata e non vive più qui{{delay frames=\"8\"}}.{{delay frames=\"8\"}}.{{delay frames=\"8\"}}.\n{{delay frames=\"32\"}}{{anim id=\"6\"}}Ti rendi conto? Non è terribile?!\n{{anim id=\"36\"}}Ma tutto sommato ora che mi\nsono trasferito, posso passare\nun sacco di tempo con te.\n{{anim id=\"37\"}}Essere un abitante{{delay frames=\"16\"}} di {{fun_00060005 arg=\"\"}}\nin piena regola mi riempie di gioia.\n{{anim id=\"38\"}}Sei content{{fun_0006000E arg=\"0x02006F0002006100\"}} anche tu,{{delay frames=\"8\"}} {{fun_00080005 arg=\"\"}}?"
  },
  {
    "label": "059",
    "text": "{{anim id=\"16\"}}Oh,{{delay frames=\"8\"}} {{fun_00080005 arg=\"\"}}!{{delay frames=\"32\"}}\n{{anim id=\"37\"}}Sono io,{{delay frames=\"16\"}} {{fun_00010005 arg=\"\"}}!{{pageBreak}}{{anim id=\"0\"}}Quando ero in campeggio qui\nun po' di tempo fa,{{delay frames=\"16\"}} ho conosciuto\nun abitante molto gentile{{delay frames=\"8\"}}.{{delay frames=\"8\"}}.{{delay frames=\"8\"}}.{{pageBreak}}{{anim id=\"26\"}}In men che non si dica, mi ha\nconvinto a trasferirmi in città,\n{{delay frames=\"8\"}}{{fun_00070005 arg=\"\"}}.\n{{anim id=\"6\"}}Io ora sono qui, ma quell'abitante\nnon c'è più! Sì, ha traslocato.\nCosì, puff, senza dirmi nulla!{{pageBreak}}{{anim id=\"37\"}}Beh,{{delay frames=\"16\"}} io però non me ne vado!\nSpero che avremo tante occasioni\nper stare insieme d'ora in poi!"
  },
  {
    "label": "060",
    "text": "{{anim id=\"16\"}}Ah,{{delay frames=\"8\"}} {{fun_00080005 arg=\"\"}}!{{delay frames=\"32\"}} {{anim id=\"37\"}}Sono io\nquel buontempone di{{delay frames=\"16\"}} {{fun_00010005 arg=\"\"}}!{{pageBreak}}{{anim id=\"0\"}}Un po' di tempo fa, quando ero\n{{fun_0010000E arg=\"\"}} {{fun_00020011 arg=\"0x0000\"}},{{delay frames=\"16\"}} ho conosciuto\nun abitante di qui molto gentile{{delay frames=\"8\"}}.{{delay frames=\"8\"}}.{{delay frames=\"8\"}}.{{pageBreak}}{{anim id=\"26\"}}Mi ha parlato benissimo di questa\ncittà e mi ha convinto in men che\nnon si dica a trasferirmi!\n{{anim id=\"0\"}}Infatti, eccomi qua{{delay frames=\"8\"}}.{{delay frames=\"8\"}}.{{delay frames=\"8\"}}.{{delay frames=\"32\"}}\n{{anim id=\"6\"}}Ma quell'abitante, a quanto pare,\nnon c'è più!\n{{anim id=\"37\"}}Io, comunque, non mi muovo.\nSono qui e ci resto! Mi sento\nproprio a casa mia, {{fun_00070005 arg=\"\"}}!"
  },
  {
    "label": "061",
    "text": "{{anim id=\"32\"}}Hola,{{delay frames=\"8\"}} {{fun_00080005 arg=\"\"}}!{{delay frames=\"32\"}} Sono io,\nquel chiacchierone di{{delay frames=\"16\"}} {{fun_00010005 arg=\"\"}}!{{pageBreak}}{{anim id=\"0\"}}Tempo fa,{{delay frames=\"16\"}} mi hanno parlato bene\ndi questa città e io mi ci sono\ntrasferito,{{delay frames=\"8\"}} {{fun_00070005 arg=\"\"}}!\n{{anim id=\"9\"}}Ma, chi mi ha convinto a fare\nil grande passo non vive più qui{{delay frames=\"8\"}}.{{delay frames=\"8\"}}.{{delay frames=\"8\"}}.{{delay frames=\"8\"}}{{pageBreak}}{{anim id=\"36\"}}Uau, il tempo svolazza, eh?!{{delay frames=\"32\"}} Ne è\npassato da allora{{delay frames=\"8\"}}.{{delay frames=\"8\"}}.{{delay frames=\"8\"}}. {{delay frames=\"32\"}}{{anim id=\"37\"}}Comunque sia,\n{{delay frames=\"16\"}}vieni a trovarmi,{{delay frames=\"16\"}} {{fun_00080005 arg=\"\"}}!"
  },
  {
    "label": "062",
    "text": "{{anim id=\"32\"}}Hola,{{delay frames=\"8\"}} {{fun_00080005 arg=\"\"}}!{{delay frames=\"32\"}} Sono io,\nquell'espansivone di{{delay frames=\"16\"}} {{fun_00010005 arg=\"\"}}!{{pageBreak}}{{anim id=\"0\"}}Tempo fa, quando ero\n{{fun_0010000E arg=\"\"}} {{fun_00020011 arg=\"0x0000\"}},{{delay frames=\"16\"}} qualcuno mi ha\nconvinto a trasferirmi qui.\n{{anim id=\"9\"}}Ma quel qualcuno, ora non vive più\nin questa ciudad e mi ha lasciato\nsolo soletto{{delay frames=\"8\"}}.{{delay frames=\"8\"}}.{{delay frames=\"8\"}}. {{anim id=\"6\"}}Ti sembra possibile?!\n{{anim id=\"36\"}}Uau, il tempo fila via veloce, eh?!{{delay frames=\"32\"}}\nOrmai è un po' che abito qui e spero\ntanto {{anim id=\"37\"}}di vederti più spesso!"
  },
  {
    "label": "063",
    "text": "{{anim id=\"16\"}}Oh,{{delay frames=\"8\"}} {{fun_00080005 arg=\"\"}}!{{delay frames=\"32\"}} {{anim id=\"5\"}}Sono io,\nquel fantasioso di {{delay frames=\"16\"}}{{fun_00010005 arg=\"\"}}!{{pageBreak}}{{anim id=\"26\"}}Quando ero in campeggio qui,\n{{delay frames=\"16\"}}qualcuno mi ha invitato a\ntrasferirmi in città in pianta stabile.\n{{anim id=\"9\"}}Io l'ho fatto, ma quel qualcuno ha\nlevato le tende e mi ha lasciato qui\nda solo come{{delay frames=\"8\"}}.{{delay frames=\"8\"}}.{{delay frames=\"8\"}}. una pianta stabile.\n{{anim id=\"11\"}}Oh beh, è passato tanto tempo{{delay frames=\"8\"}}.{{delay frames=\"8\"}}.{{delay frames=\"8\"}}.{{delay frames=\"32\"}}\n{{anim id=\"37\"}}Spero almeno{{delay frames=\"16\"}} di vederti in giro\npiù spesso,{{delay frames=\"8\"}} {{fun_00080005 arg=\"\"}}!"
  },
  {
    "label": "064",
    "text": "{{anim id=\"16\"}}Oh,{{delay frames=\"8\"}} {{fun_00080005 arg=\"\"}}!{{delay frames=\"32\"}} {{anim id=\"5\"}}Sono io,\nquell'elegantone di {{delay frames=\"16\"}}{{fun_00010005 arg=\"\"}}!{{pageBreak}}{{anim id=\"26\"}}Qualcuno mi ha convinto a\ntrasferirmi qui {{fun_0010000E arg=\"\"}} {{fun_00050005 arg=\"\"}}...{{pageBreak}}{{anim id=\"37\"}}Io ho lasciato la mia città,\n{{fun_00020011 arg=\"0x0000\"}},{{delay frames=\"20\"}} e quel qualcuno non\nabita più qui!{{pageBreak}}{{anim id=\"11\"}}{{delay frames=\"16\"}}Comunque è passato tanto tempo{{delay frames=\"8\"}}.{{delay frames=\"8\"}}.{{delay frames=\"8\"}}.{{delay frames=\"32\"}}\n{{anim id=\"37\"}}Spero{{delay frames=\"16\"}} di rivederti in giro presto,\n{{delay frames=\"8\"}}{{fun_00080005 arg=\"\"}}. Adios!"
  },
  {
    "label": "065",
    "text": "{{anim id=\"20\"}}Coff coff!{{delay frames=\"60\"}} {{anim id=\"9\"}}Ehi,{{delay frames=\"16\"}} ma tu sei\n{{fun_00080005 arg=\"\"}}? Lo sapevo!{{pageBreak}}Sai, qualcuno mi ha parlato bene di\nquesta città{{delay frames=\"8\"}}.{{delay frames=\"8\"}}.{{delay frames=\"8\"}}.{{delay frames=\"8\"}} Io gli ho dato\nascolto{{delay frames=\"8\"}}.{{delay frames=\"8\"}}.{{delay frames=\"8\"}}. ed eccomi qua!\nMa quando mi sono messo a cercare\nquel qualcuno, ho scoperto che\nnon abita più qui{{delay frames=\"8\"}}.{{delay frames=\"8\"}}.{{delay frames=\"8\"}}.\n{{anim id=\"6\"}}E come se non bastasse,{{delay frames=\"16\"}} mi sono\npreso{{delay frames=\"8\"}}.{{delay frames=\"8\"}}.{{delay frames=\"8\"}}.{{delay frames=\"8\"}} una tosse coi fiocchi{{delay frames=\"4\"}}.{{delay frames=\"4\"}}.{{delay frames=\"4\"}}.{{delay frames=\"4\"}}\n{{anim id=\"20\"}}Coff coff!{{delay frames=\"60\"}}{{anim id=\"9\"}}\nNon voglio che ti ammali anche tu{{delay frames=\"8\"}}.{{delay frames=\"8\"}}.{{delay frames=\"8\"}}.{{delay frames=\"8\"}}\nRivediamoci quando sarò di\nnuovo in forma smagliante{{delay frames=\"8\"}}.{{delay frames=\"8\"}}.{{delay frames=\"8\"}}."
  },
  {
    "label": "066",
    "text": "{{anim id=\"20\"}}Coff coff!{{delay frames=\"60\"}} {{anim id=\"9\"}}Ehi, ma tu sei{{delay frames=\"16\"}}\n{{fun_00080005 arg=\"\"}}? Sììì, lo dicevo io!{{pageBreak}}L'altro giorno {{fun_0010000E arg=\"\"}} {{fun_00020011 arg=\"0x0000\"}}{{delay frames=\"8\"}}.{{delay frames=\"8\"}}.{{delay frames=\"8\"}}.{{delay frames=\"8\"}}\nstavo pensando dove avrei potuto\ntrasferirmi{{delay frames=\"8\"}}.{{delay frames=\"8\"}}.{{delay frames=\"8\"}}.{{pageBreak}}... e qualcuno mi ha consigliato\ndi venire in questa città{{delay frames=\"8\"}}.{{delay frames=\"8\"}}.{{delay frames=\"8\"}}.{{delay frames=\"8\"}} Mi sono\nlasciato convincere{{delay frames=\"8\"}}.{{delay frames=\"8\"}}.{{delay frames=\"8\"}}.{{pageBreak}}Arrivato qui, ho cercato ovunque,\nma{{delay frames=\"8\"}}.{{delay frames=\"8\"}}.{{delay frames=\"8\"}}. ho scoperto che quel qualcuno\nha levato le tende{{delay frames=\"8\"}}.{{delay frames=\"8\"}}.{{delay frames=\"8\"}}.\nE a peggiorare le cose{{delay frames=\"8\"}}.{{delay frames=\"8\"}}.{{delay frames=\"8\"}}.{{delay frames=\"8\"}} ci si è\nmessa anche questa tosse{{delay frames=\"4\"}}.{{delay frames=\"4\"}}.{{delay frames=\"4\"}}.{{delay frames=\"4\"}}\n{{anim id=\"20\"}}Coff coff!{{delay frames=\"60\"}}{{pageBreak}}{{anim id=\"9\"}}Non voglio che la prendi anche tu{{delay frames=\"8\"}}.{{delay frames=\"8\"}}.{{delay frames=\"8\"}}.{{delay frames=\"8\"}}\nRivediamoci quando sarò di nuovo\nsuperpimpante{{delay frames=\"8\"}}.{{delay frames=\"8\"}}.{{delay frames=\"8\"}}."
  },
  {
    "label": "067",
    "text": "{{anim id=\"35\"}}Hola, {{delay frames=\"8\"}}{{fun_00080005 arg=\"\"}}!{{pageBreak}}{{anim id=\"23\"}}Ti ricordi di me?{{delay frames=\"20\"}} {{anim id=\"21\"}}Quando sono stato\nall'area per camper mi hai invitato\na traslocare in questa città!\n{{anim id=\"37\"}}E io ti ho preso sul serio,{{delay frames=\"8\"}} perciò\nadesso vivo aquí {{fun_0010000E arg=\"\"}} {{fun_0003000E arg=\"\"}}{{fun_00060005 arg=\"\"}}!{{pageBreak}}{{anim id=\"36\"}}Insomma,{{delay frames=\"8\"}} da oggi siamo\nconcittadini{{delay frames=\"8\"}}.{{delay frames=\"8\"}}.{{delay frames=\"8\"}}.{{delay frames=\"32\"}} {{anim id=\"38\"}}Facciamo\nfiesta, {{delay frames=\"8\"}}{{fun_00080005 arg=\"\"}}!"
  },
  {
    "label": "068",
    "text": "{{anim id=\"32\"}}Hola,{{delay frames=\"8\"}} {{fun_00080005 arg=\"\"}}!{{delay frames=\"32\"}}\nSono io, {{delay frames=\"16\"}}{{fun_00010005 arg=\"\"}}!{{pageBreak}}{{anim id=\"15\"}}Non mi dire che ti sei scordat{{fun_0006000E arg=\"0x02006F0002006100\"}}!{{delay frames=\"20\"}}\nAll'area per camper mi avevi\ninvitato a vivere qui,{{delay frames=\"8\"}} te recuerdi?\n{{anim id=\"33\"}}Adesso anche io sono un abitante\ndi {{fun_00060005 arg=\"\"}},{{delay frames=\"8\"}} {{fun_00070005 arg=\"\"}}!{{pageBreak}}{{anim id=\"38\"}}Mi casa es tu casa!{{delay frames=\"20\"}} Passa quando\nvuoi,{{delay frames=\"8\"}} {{fun_00080005 arg=\"\"}}.{{delay frames=\"20\"}} Ci facciamo\nun panino caciotta e caviale!"
  },
  {
    "label": "069",
    "text": "{{anim id=\"32\"}}Hola,{{delay frames=\"8\"}} {{fun_00080005 arg=\"\"}}!{{delay frames=\"20\"}} Sono io,{{delay frames=\"8\"}}\n{{fun_00010005 arg=\"\"}}!{{pageBreak}}{{anim id=\"39\"}}Mi sono trasferito qui{{delay frames=\"8\"}}.{{delay frames=\"8\"}}.{{delay frames=\"8\"}}.{{delay frames=\"20\"}} perché\nmi avevi invitato tu quando ci siamo\nbeccati all'area per camper,{{delay frames=\"8\"}} ricordi?\n{{anim id=\"43\"}}Come vola il tempo...{{delay frames=\"20\"}} ne è passato\nun sacco{{delay frames=\"8\"}}.{{delay frames=\"8\"}}.{{delay frames=\"8\"}}. {{anim id=\"38\"}}ma sono muy feliz\ndi rivederti, {{delay frames=\"8\"}}{{fun_00070005 arg=\"\"}}!"
  },
  {
    "label": "070",
    "text": "{{anim id=\"30\"}}Eccciùùù!{{delay frames=\"60\"}}\n{{anim id=\"9\"}}Hola{{delay frames=\"8\"}}.{{delay frames=\"8\"}}.{{delay frames=\"8\"}}.{{delay frames=\"20\"}} Sei {{fun_00080005 arg=\"\"}},{{delay frames=\"8\"}} vero?{{pageBreak}}All'area per camper mi avevi\ninvitato a vivere qui{{delay frames=\"8\"}}.{{delay frames=\"8\"}}.{{delay frames=\"8\"}}.{{delay frames=\"8\"}} e non me\nlo sono fatto ripetere due volte!\n{{anim id=\"10\"}}Però appena arrivato mi sono preso\nil raffreddore{{delay frames=\"8\"}}.{{delay frames=\"8\"}}.{{delay frames=\"8\"}}.{{delay frames=\"20\"}} {{anim id=\"30\"}}Eccciùùù!{{anim id=\"9\"}}{{delay frames=\"60\"}}{{pageBreak}}{{anim id=\"9\"}}Non voglio contagiarti...{{delay frames=\"20\"}} e non voglio\nfarmi vedere coi capelli spettinati!{{delay frames=\"20\"}}\n{{anim id=\"12\"}}Torna quando sto meglio,{{delay frames=\"8\"}} por favor!"
  },
  {
    "label": "071",
    "text": "{{anim id=\"32\"}}Hola,{{delay frames=\"16\"}} sono {{fun_00010005 arg=\"\"}}!{{pageBreak}}{{anim id=\"0\"}}Tempo fa, {{delay frames=\"8\"}}all'area per camper\nsono stato invitato a vivere aquí{{delay frames=\"8\"}}.{{delay frames=\"8\"}}.{{delay frames=\"8\"}}.{{delay frames=\"20\"}}\n{{anim id=\"37\"}}E non ci ho pensato due volte!\n{{anim id=\"43\"}}Ho stirato i miei vestiti attillati,{{delay frames=\"8\"}}\nli ho messi in buste protettive di\nplastica,{{delay frames=\"8\"}} ho preso i tubetti di gel{{delay frames=\"8\"}}.{{delay frames=\"8\"}}.{{delay frames=\"8\"}}.{{delay frames=\"20\"}}\n{{delay frames=\"8\"}}.{{delay frames=\"8\"}}.{{delay frames=\"8\"}}.{{delay frames=\"20\"}} {{anim id=\"33\"}}Insomma,{{delay frames=\"8\"}} da oggi anche io sono\ncittadino di {{fun_00060005 arg=\"\"}}!{{delay frames=\"20\"}} {{anim id=\"1\"}}Encantado\ndi ritrovarti qui, {{delay frames=\"8\"}}{{fun_00070005 arg=\"\"}}!"
  },
  {
    "label": "072",
    "text": "{{anim id=\"32\"}}Hola,{{delay frames=\"8\"}} sono {{fun_00010005 arg=\"\"}} e il mio\ncorazón batte per i viaggi!{{pageBreak}}{{anim id=\"0\"}}Mentre ero all'area per camper,{{delay frames=\"8\"}}\nho fatto amicizia con qualcuno\ndella ciudad{{delay frames=\"8\"}}.{{delay frames=\"8\"}}.{{delay frames=\"8\"}}.\n{{anim id=\"21\"}}Mi ha chiesto:{{delay frames=\"8\"}} \"Perché non vieni\na vivere qui?!\"{{delay frames=\"20\"}} {{anim id=\"4\"}}{{delay frames=\"16\"}}A un invito così\ncaliente,{{delay frames=\"8\"}} non ho potuto dire di no!\n{{anim id=\"38\"}}È per questo{{delay frames=\"8\"}} che ora sono qui!{{delay frames=\"20\"}}\nRivediamoci presto, {{delay frames=\"8\"}}{{fun_00070005 arg=\"\"}}!"
  },
  {
    "label": "073",
    "text": "{{anim id=\"15\"}}Hola{{delay frames=\"8\"}}.{{delay frames=\"8\"}}.{{delay frames=\"8\"}}.{{delay frames=\"8\"}}{{anim id=\"27\"}} A quanto pare non avevo\nancora incontrato tutti!{{delay frames=\"20\"}} {{anim id=\"37\"}}Encantado,{{delay frames=\"8\"}}\nsono {{fun_00010005 arg=\"\"}}!\nQualche tempo fa, {{delay frames=\"8\"}}mentre ero\nall'area per camper,{{delay frames=\"16\"}} qualcuno\nmi ha invitato a vivere aquí{{delay frames=\"8\"}}.{{delay frames=\"8\"}}.{{delay frames=\"8\"}}.{{delay frames=\"8\"}}\n{{anim id=\"21\"}}Ormai è una storia vecchia{{delay frames=\"8\"}}.{{delay frames=\"8\"}}.{{delay frames=\"8\"}}.{{delay frames=\"20\"}}\n{{anim id=\"1\"}}Ma spero che diventeremo amig{{fun_0006000E arg=\"0x04006F007300040061007300\"}},{{delay frames=\"8\"}}\nio e te,{{delay frames=\"8\"}} {{fun_00070005 arg=\"\"}}!"
  },
  {
    "label": "074",
    "text": "{{anim id=\"30\"}}Eccciùùù!{{delay frames=\"40\"}} {{anim id=\"9\"}}Hola{{delay frames=\"8\"}}.{{delay frames=\"8\"}}.{{delay frames=\"8\"}}.{{delay frames=\"20\"}} È la prima volta\nche ci vediamo,{{delay frames=\"8\"}} vero?{{delay frames=\"20\"}} Encantado,{{delay frames=\"8\"}}\n{{anim id=\"37\"}}sono {{fun_00010005 arg=\"\"}}.\n{{anim id=\"0\"}}Giorni fa ero all'area per camper\n{{anim id=\"21\"}}e qualcuno mi ha invitato a vivere\naquí,{{delay frames=\"8\"}} {{fun_00070005 arg=\"\"}}{{delay frames=\"8\"}}.{{delay frames=\"8\"}}.{{delay frames=\"8\"}}.\n{{delay frames=\"8\"}}.{{delay frames=\"8\"}}.{{delay frames=\"8\"}}.{{delay frames=\"20\"}} {{anim id=\"27\"}}Ma appena arrivato,{{delay frames=\"8\"}} mi sono\npreso il raffreddore{{delay frames=\"8\"}}.{{delay frames=\"8\"}}.{{delay frames=\"8\"}}.{{delay frames=\"20\"}} {{anim id=\"30\"}}Eccciùùù!{{pageBreak}}{{anim id=\"9\"}}Non voglio contagiarti{{delay frames=\"8\"}}.{{delay frames=\"8\"}}.{{delay frames=\"8\"}}.{{delay frames=\"8\"}} e non voglio\nfarmi vedere spettinato!{{delay frames=\"20\"}} Torna\nquando sto meglio,{{delay frames=\"8\"}} por favor{{delay frames=\"8\"}}.{{delay frames=\"8\"}}.{{delay frames=\"8\"}}."
  },
  {
    "label": "075",
    "text": "{{anim id=\"32\"}}Hola, {{delay frames=\"8\"}}{{fun_00080005 arg=\"\"}}!{{delay frames=\"20\"}}\n{{anim id=\"37\"}}Ci siamo visti all'area per camper,{{delay frames=\"8\"}}\nverdad?{{delay frames=\"40\"}} Sono io,{{delay frames=\"8\"}} {{fun_00010005 arg=\"\"}}!{{pageBreak}}{{anim id=\"0\"}}Mentre ero lì,{{delay frames=\"8\"}} qualcuno mi ha\ninvitato a trasferirmi in questa\ncittà,{{delay frames=\"8\"}} {{fun_00070005 arg=\"\"}}{{delay frames=\"8\"}}.{{delay frames=\"8\"}}.{{delay frames=\"8\"}}.\n{{anim id=\"37\"}}E così, eccomi qui!{{delay frames=\"16\"}} {{anim id=\"44\"}}Da oggi, {{delay frames=\"8\"}}anche\nio abito {{fun_0010000E arg=\"\"}} {{fun_00060005 arg=\"\"}}!{{delay frames=\"20\"}}\n{{anim id=\"1\"}}Diventiamo amigos, {{delay frames=\"8\"}}{{fun_00080005 arg=\"\"}}!"
  },
  {
    "label": "076",
    "text": "{{anim id=\"16\"}}Hola, {{delay frames=\"8\"}}{{fun_00080005 arg=\"\"}}!{{delay frames=\"20\"}}\n{{anim id=\"37\"}}Sono io,{{delay frames=\"8\"}} {{fun_00010005 arg=\"\"}}!{{pageBreak}}{{anim id=\"0\"}}Un po' di tempo fa,{{delay frames=\"8\"}} all'area\nper camper,{{delay frames=\"8\"}} qualcuno mi ha\nconvinto {{anim id=\"37\"}}a trasferirmi qui!\n{{anim id=\"44\"}}Arrriba!{{delay frames=\"20\"}} E così eccomi qui!{{delay frames=\"20\"}}\n{{anim id=\"1\"}}Da paura, {{delay frames=\"8\"}}{{fun_00080005 arg=\"\"}}!"
  },
  {
    "label": "077",
    "text": "{{anim id=\"32\"}}Hola, {{delay frames=\"8\"}}{{fun_00080005 arg=\"\"}}!{{delay frames=\"20\"}}\nSono io,{{delay frames=\"8\"}} {{fun_00010005 arg=\"\"}}!{{pageBreak}}{{anim id=\"0\"}}Tempo fa, all'area per camper,\n{{anim id=\"21\"}}qualcuno mi ha invitato a vivere\naquí{{delay frames=\"8\"}}.{{delay frames=\"8\"}}.{{delay frames=\"8\"}}.\n{{anim id=\"11\"}}Ormai è una storia vecchia,{{delay frames=\"8\"}}\nè passato un po' di tempo.{{pageBreak}}{{anim id=\"37\"}}Mi spiace non averti salutato\nprima,{{delay frames=\"8\"}} ma adesso diventiamo\namigos, {{delay frames=\"8\"}}{{fun_00080005 arg=\"\"}}!"
  },
  {
    "label": "078",
    "text": "{{anim id=\"30\"}}Eccciùùù!{{anim id=\"9\"}}{{delay frames=\"60\"}}\n{{anim id=\"9\"}}Hola{{delay frames=\"8\"}}.{{delay frames=\"8\"}}.{{delay frames=\"8\"}}.{{delay frames=\"20\"}} Sei {{fun_00080005 arg=\"\"}},{{delay frames=\"8\"}} verdad?{{pageBreak}}{{anim id=\"21\"}}All'area per camper mi hanno\ninvitato a vivere qui{{delay frames=\"8\"}}.{{delay frames=\"8\"}}.{{delay frames=\"8\"}}.{{delay frames=\"8\"}} e non me\nlo sono fatto ripetere due volte!\n{{anim id=\"20\"}}Però,{{delay frames=\"8\"}} appena arrivato mi sono\npreso un raffreddorone{{delay frames=\"8\"}}.{{delay frames=\"8\"}}.{{delay frames=\"8\"}}.{{delay frames=\"20\"}} {{anim id=\"30\"}}Eccciùùù!{{anim id=\"9\"}}{{delay frames=\"40\"}}{{pageBreak}}{{anim id=\"9\"}}Non voglio contagiarti{{delay frames=\"8\"}}.{{delay frames=\"8\"}}.{{delay frames=\"8\"}}.{{delay frames=\"8\"}} e non voglio\nfarmi vedere coi capelli spettinati!\nTorna quando sto meglio{{delay frames=\"8\"}}.{{delay frames=\"8\"}}.{{delay frames=\"8\"}}."
  }
]