﻿[
  {
    "label": "001",
    "text": "{{anim id=\"18\"}}Uh,{{delay frames=\"16\"}} che paura!{{delay frames=\"32\"}}{{anim id=\"9\"}} Ah, sei tu!{{delay frames=\"16\"}}\nChe ti è successo in faccia?\nStai bene,{{delay frames=\"8\"}} {{fun_00070005 arg=\"\"}}?{{fun_00010009 arg=\"0x040005000600\"}}"
  },
  {
    "label": "002",
    "text": "{{anim id=\"15\"}}Eh?{{delay frames=\"16\"}} Che ti è successo? {{delay frames=\"32\"}}{{anim id=\"36\"}}La tua faccia\nha qualcosa di strano{{delay frames=\"8\"}}.{{delay frames=\"8\"}}.{{delay frames=\"8\"}}.{{delay frames=\"8\"}}{{fun_00010009 arg=\"0x040005000600\"}}"
  },
  {
    "label": "003",
    "text": "{{anim id=\"23\"}}Sei tu, {{fun_00080005 arg=\"\"}}?{{delay frames=\"32\"}}\n{{anim id=\"9\"}}Hai un aspetto molto selvaggio{{delay frames=\"8\"}}.{{delay frames=\"8\"}}.{{delay frames=\"8\"}}.{{delay frames=\"8\"}}{{fun_00010009 arg=\"0x040005000600\"}}"
  },
  {
    "label": "004",
    "text": "Sembri un po' divers{{fun_0006000E arg=\"0x02006F0002006100\"}} dal solito...{{delay frames=\"32\"}}\n{{anim id=\"37\"}}Stai cercando di cambiare look?"
  },
  {
    "label": "005",
    "text": "{{anim id=\"37\"}}Eh eh eh{{delay frames=\"8\"}}.{{delay frames=\"8\"}}.{{delay frames=\"8\"}}.\n{{delay frames=\"8\"}}Ho capito cosa ti è successo!\nTi hanno punto le api, giusto?!\n{{anim id=\"36\"}}Che ti serva da lezione per\nla prossima volta. Scuotere\ngli alberi in quel modo è pericoloso!"
  },
  {
    "label": "006",
    "text": "{{fun_0000000A arg=\"0x0307000800CD\"}}"
  },
  {
    "label": "007",
    "text": "{{fun_001B000A arg=\"0x010009000800\"}}"
  },
  {
    "label": "008",
    "text": "{{anim id=\"37\"}}Non è niente, dai!{{delay frames=\"32\"}} La {{color id=\"2\"}}medicina{{color id=\"65535\"}} che\ntrovi da {{color id=\"4\"}}Marco {{color id=\"65535\"}}e {{color id=\"4\"}}Mirco{{color id=\"65535\"}}{{delay frames=\"8\"}} è fantastica\nper le punture delle api!"
  },
  {
    "label": "009",
    "text": "{{anim id=\"9\"}}Sono certo{{delay frames=\"16\"}} che ti riprenderai\npresto{{delay frames=\"8\"}}.{{delay frames=\"8\"}}.{{delay frames=\"8\"}}.{{delay frames=\"8\"}}{{pageBreak}}{{anim id=\"37\"}}Se vuoi velocizzare la guarigione,{{delay frames=\"20\"}}\nprendi questa!"
  },
  {
    "label": "010",
    "text": "{{anim id=\"37\"}}È la {{color id=\"2\"}}medicina{{color id=\"65535\"}}!{{delay frames=\"16\"}} Se la prendi,\nguarirai in men che non si dica,{{delay frames=\"8\"}}\n{{fun_00070005 arg=\"\"}}!"
  }
]