﻿[
  {
    "label": "001",
    "text": "{{anim id=\"9\"}}Scusami,{{delay frames=\"16\"}} ma... pensi che potresti\ndissotterrare la {{color id=\"2\"}}capsula del tempo\n{{color id=\"65535\"}}che hai sotterrato per me?\n{{anim id=\"39\"}}{{delay frames=\"16\"}}Dopo che ti ho chiesto di\nsotterrarla mi sono sentito\nun po' sciocco{{delay frames=\"8\"}}.{{delay frames=\"8\"}}.{{delay frames=\"8\"}}.{{delay frames=\"8\"}}\n{{anim id=\"23\"}}OK, ti ricordi dove l'hai nascosta,\nvero?{{delay frames=\"32\"}} {{anim id=\"35\"}}Non mi deludere,{{delay frames=\"16\"}} {{fun_00080005 arg=\"\"}}!"
  },
  {
    "label": "002",
    "text": "{{anim id=\"16\"}}Ehilà, {{fun_00080005 arg=\"\"}}!{{delay frames=\"32\"}} {{anim id=\"9\"}}Ti ricordi\nla {{color id=\"2\"}}capsula del tempo {{color id=\"65535\"}}che hai\nsotterrato{{delay frames=\"8\"}}.{{delay frames=\"8\"}}.{{delay frames=\"8\"}}.{{delay frames=\"8\"}}?\nPotresti andare a riprendermela?\nCi ho ripensato e ho capito che\nè stata una stupidaggine{{delay frames=\"8\"}}.{{delay frames=\"8\"}}.{{delay frames=\"8\"}}.{{delay frames=\"8\"}}{{pageBreak}}Scusa se te lo dico solo adesso{{delay frames=\"8\"}}.{{delay frames=\"8\"}}.{{delay frames=\"8\"}}.{{delay frames=\"32\"}}\n{{anim id=\"6\"}}Tu sei l'unic{{fun_0006000E arg=\"0x02006F0002006100\"}} che sa dov'è!{{delay frames=\"16\"}}\n{{anim id=\"38\"}}Conto su di te, {{fun_00080005 arg=\"\"}}!"
  },
  {
    "label": "003",
    "text": "{{anim id=\"9\"}}Ricordi la {{color id=\"2\"}}capsula del tempo {{color id=\"65535\"}}che\nti avevo chiesto di sotterrare?{{pageBreak}}{{anim id=\"26\"}}Mi è sembrata tutta un'enorme\nstupidaggine e sono andato a\ndissotterrarla,{{delay frames=\"8\"}} {{fun_00070005 arg=\"\"}}.\n{{anim id=\"37\"}}Eri stat{{fun_0006000E arg=\"0x02006F0002006100\"}} così gentile ad aiutarmi a\nsotterrarla e ho pensato di dirti che\nme la sono andata a riprendere!"
  },
  {
    "label": "004",
    "text": "{{anim id=\"37\"}}Per caso ho ritrovato la {{color id=\"2\"}}capsula del\ntempo {{color id=\"65535\"}}{{delay frames=\"16\"}}che avevi sotterrato per me\n{{delay frames=\"16\"}}e me la sono ripresa,{{delay frames=\"8\"}} {{fun_00070005 arg=\"\"}}.\n{{anim id=\"9\"}}Mi dispiace molto averti fatto fare\ntanto lavoro per niente{{delay frames=\"8\"}}.{{delay frames=\"8\"}}.{{delay frames=\"8\"}}.{{delay frames=\"8\"}}"
  }
]