﻿[
  {
    "label": "001",
    "text": "받기만 해서는\n미안하잖아.\n나도 선물 보낸다.\n"
  },
  {
    "label": "002",
    "text": "나도 질 순 없지!\n아껴 뒀던 이 녀석을\n선물하겠어.\n"
  },
  {
    "label": "003",
    "text": "실은 나도\n너한테 줄 선물을\n몰래 준비했었어!\n"
  },
  {
    "label": "004",
    "text": "모처럼이니까 큰맘 먹고\n너한테 딱 어울릴 만한\n선물을 준비했지.\n"
  },
  {
    "label": "005",
    "text": "내 선물을 받아줘.\n니 취향에 맞을지 어떨지는\n잘 모르겠다.\n"
  }
]