﻿[
  {
    "label": "001",
    "text": "물론 평소 같았으면 트레이닝이\n최우선이었겠지만 가끔 이렇게\n편지를 쓰는 것도 나쁘지 않군.\n"
  },
  {
    "label": "002",
    "text": "마침 근육통이 있었는데\n집에서 얌전히 편지를 쓰니까\n아픈 것도 좀 덜하고 좋다ー\n"
  },
  {
    "label": "003",
    "text": "편지를 몇 번이나 고쳐 썼더니\n손에 욱신욱신 근육통이 생겨서\n기분 최고야!\n"
  },
  {
    "label": "004",
    "text": "근육 운동과 편지 쓰기,\n둘 중에 뭐가 더 쉽냐고 묻는다면\n그야 물론 근육 운동이지ー!\n"
  },
  {
    "label": "005",
    "text": "이걸 읽고 있을 너를 생각하며\n편지를 쓰고 있자니\n왠지 기분이 엄청 업된다ー!\n"
  },
  {
    "label": "006",
    "text": "편지라는 게, 평소에는\n직접 말하지 못하던 것들도\n쓸 수 있는 거였구나ー?\n"
  },
  {
    "label": "007",
    "text": "뭘 쓸지 고민하다가\n근육 운동을 했어야 할 시간을\n그냥 보내 버렸지 뭐냐ー!\n"
  },
  {
    "label": "008",
    "text": "이렇게 직접 편지를 써보니\n나 같은 터프가이에게\n의외로 잘 어울리는 일 같아ー!\n"
  },
  {
    "label": "009",
    "text": "내가 직접 답장을 쓰려는데\n내용을 생각하는 시간이 생각보다\n길어서 깜짝 놀라는 중이다ー\n"
  },
  {
    "label": "010",
    "text": "답장으로 뭘 쓸까 고민하다 보니\n머릿속이 온통 하얗게\n되어 버렸지 뭐냐ー?\n"
  }
]