﻿[
  {
    "label": "001",
    "text": "근데 뭘 쓰면 좋을지\n생각하는 사이에\n해가 지고 말았지 뭐냐!\n"
  },
  {
    "label": "002",
    "text": "나도 꽤 경우 있는 사람이라는 걸\n증명하기 위해서 제대로 된\n답장을 쓰기로 했어!\n"
  },
  {
    "label": "003",
    "text": "떠드는 것도 좋지만 가끔은\n차분하게 편지를 쓰는 것도\n나쁘지 않네!\n"
  },
  {
    "label": "004",
    "text": "마음만 가지고는 제대로 된\n편지를 쓸 수 없다는 걸\n절절히 깨달았어.\n"
  },
  {
    "label": "005",
    "text": "너의 편지를 받았더니\n의욕이 마구 샘솟아서\n답장이 저절로 써져!\n"
  },
  {
    "label": "006",
    "text": "맞춤법이 틀리면 어쩌나\n자꾸 걱정이 돼서\n좀처럼 문장이 잘 안 써져.\n"
  },
  {
    "label": "007",
    "text": "내가 한참 날리던 시절에는\n이렇게 편지를 쓰게 될 거라고\n상상도 못 했었는데!\n"
  },
  {
    "label": "008",
    "text": "평소에 말로 하기 힘든 것도\n편지를 쓰다 보면 왠지\n아무렇지도 않게 쓰게 돼.\n"
  },
  {
    "label": "009",
    "text": "뭘 쓸까 생각하다 보면\n점점 머릿속이 복잡해져!\n닥치는 대로 마구 써야지!\n"
  },
  {
    "label": "010",
    "text": "마침 너한테 딱 어울리는\n편지지가 있길래\n단숨에 답장을 쓰기로 했어! \n"
  }
]