﻿[
  {
    "label": "001",
    "text": "Hey, \n!"
  },
  {
    "label": "002",
    "text": "Hilf mir, \n!"
  },
  {
    "label": "003",
    "text": "An mein Zukunfts-Ich!"
  },
  {
    "label": "004",
    "text": "An die Zukunfts-{{fun_00010005 arg=\"\"}}!"
  },
  {
    "label": "005",
    "text": "An {{fun_00010005 arg=\"\"}}!"
  },
  {
    "label": "006",
    "text": "Zukunfts-{{fun_00010005 arg=\"\"}}:"
  },
  {
    "label": "007",
    "text": "Wuhuu, {{fun_00010005 arg=\"\"}}!"
  },
  {
    "label": "008",
    "text": "Für die Zukunfts-{{fun_00010005 arg=\"\"}}!"
  },
  {
    "label": "009",
    "text": "An mein Zukunfts-Ich!"
  },
  {
    "label": "010",
    "text": "An mein motiviertes Ich!"
  },
  {
    "label": "011",
    "text": "An die Diva, also mich!"
  },
  {
    "label": "012",
    "text": "An mein Glitzer-Selbst!"
  },
  {
    "label": "013",
    "text": "Wie geht's, \n?"
  },
  {
    "label": "014",
    "text": "Danke schön, \n!"
  },
  {
    "label": "015",
    "text": "Danke, \n!"
  }
]