﻿[
  {
    "label": "001",
    "text": "Salut \n,"
  },
  {
    "label": "002",
    "text": "Hello \n,"
  },
  {
    "label": "003",
    "text": "Pour \n."
  },
  {
    "label": "004",
    "text": "Salut \n,"
  },
  {
    "label": "005",
    "text": "Bonjour \n,"
  }
]