﻿[
  {
    "label": "001",
    "text": "{{fun_0006000E arg=\"0x080043006800650072000A0043006800E80072006500\"}} fan,"
  },
  {
    "label": "002",
    "text": "{{fun_0006000E arg=\"0x080043006800650072000A0043006800E80072006500\"}} \n,"
  },
  {
    "label": "003",
    "text": "{{fun_0006000E arg=\"0x080043006800650072000A0043006800E80072006500\"}} fan,"
  },
  {
    "label": "004",
    "text": "{{fun_0006000E arg=\"0x080043006800650072000A0043006800E80072006500\"}} \n,"
  },
  {
    "label": "005",
    "text": "{{fun_0006000E arg=\"0x080043006800650072000A0043006800E80072006500\"}} fan,"
  },
  {
    "label": "006",
    "text": "Hé, \n,"
  },
  {
    "label": "007",
    "text": "Hé, \n,"
  },
  {
    "label": "008",
    "text": "{{fun_0006000E arg=\"0x080043006800650072000A0043006800E80072006500\"}} \n,"
  },
  {
    "label": "009",
    "text": "{{fun_0006000E arg=\"0x080043006800650072000A0043006800E80072006500\"}} \n,"
  }
]