﻿[
  {
    "label": "001",
    "text": "{{fun_0006000E arg=\"0x16004D006F006E002000730061007500760065007500720016004D006100200073006100750076006500750073006500\"}} !"
  },
  {
    "label": "002",
    "text": "{{fun_0006000E arg=\"0x080043006800650072000A0043006800E80072006500\"}} \n,"
  },
  {
    "label": "003",
    "text": "Pour : \n"
  }
]