﻿[
  {
    "label": "001",
    "text": "Mon très cher \n,"
  },
  {
    "label": "002",
    "text": "Mon très cher \n,"
  },
  {
    "label": "003",
    "text": "Mon très cher \n,"
  },
  {
    "label": "004",
    "text": "Très cher \n,"
  },
  {
    "label": "005",
    "text": "Très cher \n,"
  },
  {
    "label": "006",
    "text": "Très cher \n,"
  },
  {
    "label": "007",
    "text": "Mon cher \n,"
  },
  {
    "label": "008",
    "text": "Mon cher \n,"
  },
  {
    "label": "009",
    "text": "Mon cher \n,"
  }
]