﻿[
  {
    "label": "001",
    "text": "{{fun_0006000E arg=\"0x10004D006F006E002000630068006500720010004D006100200063006800E80072006500\"}} \n,"
  },
  {
    "label": "002",
    "text": "{{fun_0006000E arg=\"0x10004D006F006E002000630068006500720010004D006100200063006800E80072006500\"}} \n,"
  },
  {
    "label": "003",
    "text": "{{fun_0006000E arg=\"0x10004D006F006E002000630068006500720010004D006100200063006800E80072006500\"}} \n,"
  }
]