﻿[
  {
    "label": "001",
    "text": "Elige dónde quieres acampar."
  },
  {
    "label": "002",
    "text": "Mueve {{color id=\"6\"}}{{fun_00060004 arg=\"0x0000\"}}{{color id=\"65535\"}} casill{{fun_0009000E arg=\"0x00CD000002006100040061007300\"}}."
  },
  {
    "label": "003",
    "text": "Elige a qué casilla te desplazas."
  },
  {
    "label": "004",
    "text": "Elige dónde lanzas el anzuelo."
  },
  {
    "label": "005",
    "text": "{{fun_00060004 arg=\"0x0000\"}}"
  },
  {
    "label": "006",
    "text": " Explorar"
  },
  {
    "label": "007",
    "text": " Mover aquí"
  },
  {
    "label": "008",
    "text": " Mapa"
  },
  {
    "label": "009",
    "text": " Atrás"
  },
  {
    "label": "010",
    "text": ""
  },
  {
    "label": "011",
    "text": "{{fun_00010011 arg=\"0x0000\"}}"
  },
  {
    "label": "012",
    "text": "{{i20_3}}"
  },
  {
    "label": "013",
    "text": "×{{fun_00060004 arg=\"0x0000\"}}"
  },
  {
    "label": "014",
    "text": "×{{fun_00060004 arg=\"0x0000\"}}"
  },
  {
    "label": "015",
    "text": "×{{fun_00060004 arg=\"0x0000\"}}"
  },
  {
    "label": "016",
    "text": "¡Clasificación actualizada!"
  },
  {
    "label": "018",
    "text": "Resultados"
  },
  {
    "label": "019",
    "text": "Días sobrantes"
  },
  {
    "label": "020",
    "text": "Explorado"
  },
  {
    "label": "021",
    "text": "Bonificación por raciones"
  },
  {
    "label": "022",
    "text": "{{fun_00080004 arg=\"0x0000\"}} %"
  },
  {
    "label": "023",
    "text": "{{fun_00070004 arg=\"0x0000\"}} {{fun_0009000E arg=\"0x00CD000006006400ED00610008006400ED0061007300\"}}"
  },
  {
    "label": "024",
    "text": "Total"
  },
  {
    "label": "025",
    "text": "{{fun_00070004 arg=\"0x0000\"}}"
  },
  {
    "label": "026",
    "text": "{{fun_000B0004 arg=\"0x0000\"}}"
  },
  {
    "label": "027",
    "text": "No has logrado escapar..."
  },
  {
    "label": "028",
    "text": "¡Has logrado\nescapar!"
  },
  {
    "label": "030",
    "text": "{{fun_000B0004 arg=\"0x0000\"}}"
  },
  {
    "label": "031",
    "text": "Objetivo"
  },
  {
    "label": "032",
    "text": "{{fun_000B0004 arg=\"0x0000\"}}"
  },
  {
    "label": "033",
    "text": "{{fun_00080004 arg=\"0x0000\"}}"
  },
  {
    "label": "034",
    "text": "¡{{fun_00070004 arg=\"0x0000\"}} victorias seguidas!"
  },
  {
    "label": "036",
    "text": "¡No hay provisiones para hoy!"
  },
  {
    "label": "037",
    "text": "{{fun_00010011 arg=\"0x0000\"}} necesita reposo."
  },
  {
    "label": "038",
    "text": "¡Escapa en {{fun_00070004 arg=\"0x0000\"}} dí{{fun_0009000E arg=\"0x00CD000002006100040061007300\"}}!"
  },
  {
    "label": "039",
    "text": "¡Es el turno de {{fun_00010011 arg=\"0x0000\"}}!"
  },
  {
    "label": "040",
    "text": "¡Qued{{fun_0009000E arg=\"0x00CD000002006100040061006E00\"}} {{fun_00070004 arg=\"0x0000\"}} dí{{fun_0009000E arg=\"0x00CD000002006100040061007300\"}}!"
  },
  {
    "label": "041",
    "text": "¡Último día!"
  },
  {
    "label": "043",
    "text": "{{size value=\"130\"}}Último día{{size value=\"100\"}}"
  },
  {
    "label": "044",
    "text": "Raciones: {{size value=\"120\"}}{{fun_00070004 arg=\"0x0000\"}}{{size value=\"100\"}} dí{{fun_0009000E arg=\"0x00CD000002006100040061007300\"}}"
  },
  {
    "label": "045",
    "text": "Busca {{size value=\"120\"}}{{fun_00060004 arg=\"0x0000\"}}{{size value=\"100\"}}"
  },
  {
    "label": "046",
    "text": "¡Faltan raciones!"
  },
  {
    "label": "047",
    "text": ""
  },
  {
    "label": "048",
    "text": "Qued{{fun_0009000E arg=\"0x00CD000002006100040061006E00\"}} {{fun_00070004 arg=\"0x0000\"}} dí{{fun_0009000E arg=\"0x00CD000002006100040061007300\"}}"
  },
  {
    "label": "049",
    "text": "{{fun_00070004 arg=\"0x0000\"}} {{fun_0009000E arg=\"0x00CD000006006400ED00610008006400ED0061007300\"}}"
  },
  {
    "label": "050",
    "text": "-"
  },
  {
    "label": "051",
    "text": "Puntuación"
  },
  {
    "label": "052",
    "text": "¿7?"
  }
]