﻿[
  {
    "label": "001",
    "text": "{{fun_0003000E arg=\"\"}}{{i20_0}}"
  },
  {
    "label": "002",
    "text": "No tienes herramientas."
  },
  {
    "label": "003",
    "text": "No tienes materiales."
  },
  {
    "label": "004",
    "text": "Faltan materiales para\nfabricar herramientas."
  },
  {
    "label": "005",
    "text": "-1"
  },
  {
    "label": "006",
    "text": ""
  },
  {
    "label": "007",
    "text": ""
  },
  {
    "label": "008",
    "text": "{{fun_00060004 arg=\"0x0000\"}}"
  },
  {
    "label": "009",
    "text": "Inventario"
  },
  {
    "label": "010",
    "text": "¡Manos a la obra!"
  },
  {
    "label": "011",
    "text": "Fabricar"
  },
  {
    "label": "012",
    "text": "-{{fun_00060004 arg=\"0x0000\"}}"
  },
  {
    "label": "025",
    "text": ""
  },
  {
    "label": "026",
    "text": ""
  },
  {
    "label": "027",
    "text": ""
  },
  {
    "label": "028",
    "text": "Aceptar"
  },
  {
    "label": "029",
    "text": "Te permite conseguir raciones\npescando en casillas adyacentes\nal agua en donde se vean peces."
  },
  {
    "label": "030",
    "text": "Aumenta tus posibilidades de\nahuyentar alimañas silvestres."
  },
  {
    "label": "031",
    "text": "Aumenta tus posibilidades\nde conseguir miel de panal\nsin sufrir picaduras."
  },
  {
    "label": "032",
    "text": "Te permite rellenar trampas\npara evitar caer en ellas."
  },
  {
    "label": "033",
    "text": "Además de pescar, te permite\nlanzar el sedal para coger\nmateriales de casillas distantes."
  },
  {
    "label": "034",
    "text": "Te protege de las alimañas\nsilvestres e incluso las puede\nahuyentar de las casillas\nque tengas delante."
  },
  {
    "label": "035",
    "text": "Te protege de las abejas.\nAdemás, te permite despejar\nla niebla y coger materiales\nde casillas cercanas."
  },
  {
    "label": "036",
    "text": "Te permite extraer materiales\nde las trampas que encuentres\ny enterrar las tuyas propias."
  },
  {
    "label": "037",
    "text": "Además de pescar, te permite\nlanzar el sedal para coger\nmateriales de casillas distantes."
  },
  {
    "label": "038",
    "text": "Te protege de las alimañas\nsilvestres e incluso las puede\nahuyentar de las casillas que\ntengas delante."
  },
  {
    "label": "039",
    "text": "Te protege de las abejas.\nAdemás, te permite despejar\nla niebla y coger materiales\nde casillas cercanas."
  },
  {
    "label": "040",
    "text": "Te permite extraer materiales\nde las trampas que encuentres\ny enterrar las tuyas propias."
  }
]