﻿[
  {
    "label": "0",
    "text": "ani\naño\ncum\ndia\ndía\nfel"
  },
  {
    "label": "1",
    "text": "afe\namo\ncar\ncel\ncua\ncuá\ndar\ndes\ndoy\nenv\nfie\njun\nmas\nmás\nmuc\nreg\nsop\nsie\ntar\nvel"
  },
  {
    "label": "2",
    "text": "adi\ncha\ncon\nhas\nlue\nmi\nmí\nme\nnos\npro\npró\nsal\nte\nti\ntu\ntú\nun\nyo"
  }
]