﻿[
  {
    "label": "00",
    "text": "hacer fotos"
  },
  {
    "label": "01",
    "text": "montar en bicicleta"
  },
  {
    "label": "02",
    "text": "ver telenovelas"
  },
  {
    "label": "03",
    "text": "tocar el tambor"
  },
  {
    "label": "04",
    "text": "comer pistachos"
  },
  {
    "label": "05",
    "text": "bailar claqué"
  },
  {
    "label": "06",
    "text": "observar el cielo"
  },
  {
    "label": "07",
    "text": "cuidar del jardín"
  },
  {
    "label": "08",
    "text": "practicar yoga"
  },
  {
    "label": "09",
    "text": "pasear de noche"
  },
  {
    "label": "10",
    "text": "comer pizza"
  },
  {
    "label": "11",
    "text": "gastar bromas"
  },
  {
    "label": "12",
    "text": "leer tebeos"
  },
  {
    "label": "13",
    "text": "ir al cine"
  },
  {
    "label": "14",
    "text": "hacer pesas"
  },
  {
    "label": "15",
    "text": "resolver acertijos"
  },
  {
    "label": "16",
    "text": "dormir la siesta"
  },
  {
    "label": "17",
    "text": "jugar a las cartas"
  },
  {
    "label": "18",
    "text": "montar maquetas"
  },
  {
    "label": "19",
    "text": "hacer galletas"
  }
]