﻿[
  {
    "label": "00",
    "text": "{{wordInfo gender=\"1\" indefArticle=\"0\" defArticle=\"3\"}}atún con tomate"
  },
  {
    "label": "01",
    "text": "{{wordInfo gender=\"2\" indefArticle=\"2\" defArticle=\"4\"}}ensalada de pasta"
  },
  {
    "label": "02",
    "text": "{{wordInfo gender=\"1\" indefArticle=\"1\" defArticle=\"3\"}}falafel"
  },
  {
    "label": "03",
    "text": "{{wordInfo gender=\"2\" indefArticle=\"2\" defArticle=\"4\"}}paella"
  },
  {
    "label": "04",
    "text": "{{wordInfo gender=\"1\" indefArticle=\"1\" defArticle=\"3\"}}botillo"
  },
  {
    "label": "05",
    "text": "{{wordInfo gender=\"1\" indefArticle=\"1\" defArticle=\"3\"}}arroz tres delicias"
  },
  {
    "label": "06",
    "text": "{{wordInfo gender=\"2\" indefArticle=\"2\" defArticle=\"4\"}}fabada"
  },
  {
    "label": "07",
    "text": "{{wordInfo gender=\"1\" indefArticle=\"0\" defArticle=\"3\"}}cebiche"
  },
  {
    "label": "08",
    "text": "{{wordInfo gender=\"1\" indefArticle=\"0\" defArticle=\"3\"}}queso feta"
  },
  {
    "label": "09",
    "text": "{{wordInfo gender=\"1\" indefArticle=\"1\" defArticle=\"3\"}}pastel de verduras"
  },
  {
    "label": "10",
    "text": "{{wordInfo gender=\"1\" indefArticle=\"1\" defArticle=\"3\"}}bacalao al pilpil"
  },
  {
    "label": "11",
    "text": "{{wordInfo gender=\"2\" indefArticle=\"2\" defArticle=\"4\"}}tosta de tomate"
  },
  {
    "label": "12",
    "text": "{{wordInfo gender=\"1\" indefArticle=\"0\" defArticle=\"3\"}}guacamole"
  },
  {
    "label": "13",
    "text": "{{wordInfo gender=\"1\" indefArticle=\"0\" defArticle=\"3\"}}queso en aceite"
  },
  {
    "label": "14",
    "text": "{{wordInfo gender=\"2\" indefArticle=\"2\" defArticle=\"4\"}}ensalada mixta"
  },
  {
    "label": "15",
    "text": "{{wordInfo gender=\"2\" indefArticle=\"2\" defArticle=\"4\"}}quiche"
  },
  {
    "label": "16",
    "text": "{{wordInfo gender=\"1\" indefArticle=\"0\" defArticle=\"3\"}}chucrut"
  },
  {
    "label": "17",
    "text": "{{wordInfo gender=\"2\" indefArticle=\"2\" defArticle=\"4\"}}menestra"
  },
  {
    "label": "18",
    "text": "{{wordInfo gender=\"1\" indefArticle=\"0\" defArticle=\"3\"}}yakisoba"
  },
  {
    "label": "19",
    "text": "{{wordInfo gender=\"2\" indefArticle=\"0\" defArticle=\"4\"}}musaca"
  },
  {
    "label": "20",
    "text": "{{wordInfo gender=\"2\" indefArticle=\"2\" defArticle=\"4\"}}sopa de letras"
  },
  {
    "label": "21",
    "text": "{{wordInfo gender=\"2\" indefArticle=\"2\" defArticle=\"4\"}}quesadilla"
  },
  {
    "label": "22",
    "text": "{{wordInfo gender=\"2\" indefArticle=\"2\" defArticle=\"4\"}}sopa de marisco"
  },
  {
    "label": "23",
    "text": "{{wordInfo gender=\"2\" indefArticle=\"2\" defArticle=\"4\"}}fondue de queso"
  },
  {
    "label": "24",
    "text": "{{wordInfo gender=\"1\" indefArticle=\"1\" defArticle=\"3\"}}solomillo"
  },
  {
    "label": "25",
    "text": "{{wordInfo gender=\"1\" indefArticle=\"0\" defArticle=\"3\"}}jamón serrano"
  },
  {
    "label": "26",
    "text": "{{wordInfo gender=\"2\" indefArticle=\"2\" defArticle=\"4\"}}merluza"
  },
  {
    "label": "27",
    "text": "{{wordInfo gender=\"1\" indefArticle=\"1\" defArticle=\"3\"}}cordon bleu"
  },
  {
    "label": "28",
    "text": "{{wordInfo gender=\"1\" indefArticle=\"1\" defArticle=\"3\"}}tabulé"
  },
  {
    "label": "29",
    "text": "{{wordInfo gender=\"2\" indefArticle=\"2\" defArticle=\"4\"}}sopa de pollo"
  },
  {
    "label": "30",
    "text": "{{wordInfo gender=\"2\" indefArticle=\"2\" defArticle=\"4\"}}empanada"
  },
  {
    "label": "31",
    "text": "{{wordInfo gender=\"1\" indefArticle=\"1\" defArticle=\"3\"}}potaje"
  },
  {
    "label": "32",
    "text": "{{wordInfo gender=\"2\" indefArticle=\"2\" defArticle=\"4\"}}jambalaya"
  },
  {
    "label": "33",
    "text": "{{wordInfo gender=\"1\" indefArticle=\"0\" defArticle=\"3\"}}hígado encebollado"
  },
  {
    "label": "34",
    "text": "{{wordInfo gender=\"1\" indefArticle=\"1\" defArticle=\"3\"}}estofado"
  },
  {
    "label": "35",
    "text": "{{wordInfo gender=\"2\" indefArticle=\"2\" defArticle=\"4\"}}pizza barbacoa"
  },
  {
    "label": "36",
    "text": "{{wordInfo gender=\"2\" indefArticle=\"2\" defArticle=\"4\"}}mariscada"
  },
  {
    "label": "37",
    "text": "{{wordInfo gender=\"2\" indefArticle=\"2\" defArticle=\"4\"}}pizza margarita"
  },
  {
    "label": "38",
    "text": "{{wordInfo gender=\"1\" indefArticle=\"1\" defArticle=\"3\"}}cocido"
  },
  {
    "label": "39",
    "text": "{{wordInfo gender=\"1\" indefArticle=\"1\" defArticle=\"3\"}}pisto"
  },
  {
    "label": "40",
    "text": "{{wordInfo gender=\"2\" indefArticle=\"2\" defArticle=\"4\"}}tortilla de patatas"
  },
  {
    "label": "41",
    "text": "{{wordInfo gender=\"2\" indefArticle=\"2\" defArticle=\"4\"}}tortilla francesa"
  },
  {
    "label": "42",
    "text": "{{wordInfo gender=\"1\" indefArticle=\"1\" defArticle=\"3\"}}pimiento relleno"
  },
  {
    "label": "43",
    "text": "{{wordInfo gender=\"1\" indefArticle=\"1\" defArticle=\"3\"}}gratén de patatas"
  },
  {
    "label": "44",
    "text": "{{wordInfo gender=\"1\" indefArticle=\"1\" defArticle=\"3\"}}besugo asado"
  },
  {
    "label": "45",
    "text": "{{wordInfo gender=\"2\" indefArticle=\"2\" defArticle=\"4\"}}crema de puerros"
  },
  {
    "label": "46",
    "text": "{{wordInfo gender=\"1\" indefArticle=\"1\" defArticle=\"3\"}}filete empanado"
  },
  {
    "label": "47",
    "text": "{{wordInfo gender=\"1\" indefArticle=\"1\" defArticle=\"3\"}}sanjacobo"
  },
  {
    "label": "48",
    "text": "{{wordInfo gender=\"1\" indefArticle=\"1\" defArticle=\"3\"}}salmorejo"
  },
  {
    "label": "49",
    "text": "{{wordInfo gender=\"2\" indefArticle=\"2\" defArticle=\"4\"}}vichyssoise"
  },
  {
    "label": "50",
    "text": "{{wordInfo gender=\"2\" indefArticle=\"2\" defArticle=\"4\"}}sopa juliana"
  },
  {
    "label": "51",
    "text": "{{wordInfo gender=\"1\" indefArticle=\"1\" defArticle=\"3\"}}rollito de salmón"
  },
  {
    "label": "52",
    "text": "{{wordInfo gender=\"1\" indefArticle=\"1\" defArticle=\"3\"}}sándwich mixto"
  },
  {
    "label": "53",
    "text": "{{wordInfo gender=\"2\" indefArticle=\"2\" defArticle=\"4\"}}sopa de pescado"
  },
  {
    "label": "54",
    "text": "{{wordInfo gender=\"1\" indefArticle=\"0\" defArticle=\"3\"}}salmón ahumado"
  },
  {
    "label": "55",
    "text": "{{wordInfo gender=\"2\" indefArticle=\"2\" defArticle=\"4\"}}ensaladilla"
  },
  {
    "label": "56",
    "text": "{{wordInfo gender=\"1\" indefArticle=\"0\" defArticle=\"3\"}}sushi"
  },
  {
    "label": "57",
    "text": "{{wordInfo gender=\"1\" indefArticle=\"0\" defArticle=\"3\"}}risotto"
  },
  {
    "label": "58",
    "text": "{{wordInfo gender=\"1\" indefArticle=\"1\" defArticle=\"3\"}}chuletón"
  },
  {
    "label": "59",
    "text": "{{wordInfo gender=\"1\" indefArticle=\"1\" defArticle=\"3\"}}bollo preñao"
  }
]