﻿[
  {
    "label": "00",
    "text": ""
  },
  {
    "label": "01",
    "text": ""
  },
  {
    "label": "02",
    "text": ""
  },
  {
    "label": "03",
    "text": ""
  },
  {
    "label": "04",
    "text": ""
  },
  {
    "label": "05",
    "text": ""
  },
  {
    "label": "06",
    "text": ""
  },
  {
    "label": "07",
    "text": ""
  },
  {
    "label": "08",
    "text": ""
  },
  {
    "label": "09",
    "text": ""
  },
  {
    "label": "10",
    "text": ""
  },
  {
    "label": "11",
    "text": "tiranosaurio"
  },
  {
    "label": "12",
    "text": "triceratops"
  },
  {
    "label": "13",
    "text": "mamut"
  },
  {
    "label": "14",
    "text": "anquilosaurio"
  },
  {
    "label": "15",
    "text": "apatosaurio"
  },
  {
    "label": "16",
    "text": "dimetrodonte"
  },
  {
    "label": "17",
    "text": "iguanodonte"
  },
  {
    "label": "18",
    "text": "tigre dientes de sable"
  },
  {
    "label": "19",
    "text": "paquicefalosaurio"
  },
  {
    "label": "20",
    "text": "parasaurio"
  },
  {
    "label": "21",
    "text": "diplodocus"
  },
  {
    "label": "22",
    "text": "plesiosaurio"
  },
  {
    "label": "23",
    "text": "estegosaurio"
  },
  {
    "label": "24",
    "text": "pteranodonte"
  },
  {
    "label": "25",
    "text": "ictiosaurio"
  },
  {
    "label": "26",
    "text": "velocirraptor"
  },
  {
    "label": "27",
    "text": "estiracosaurio"
  },
  {
    "label": "28",
    "text": "espinosaurio"
  },
  {
    "label": "29",
    "text": "brontoterio"
  },
  {
    "label": "30",
    "text": "archelon"
  }
]