﻿[
  {
    "label": "001",
    "text": "{{anim id=\"15\"}}ねぇ！{{delay frames=\"40\"}}\nアンタが　{{fun_00030011 arg=\"0x0000\"}}を\n{{ruby charSpan=\"1\" value=\"も\"}}持ってるって{{ruby charSpan=\"1\" value=\"はなし\"}}話、{{delay frames=\"8\"}}マジだったんだね！\n{{anim id=\"13\"}}いいなぁ！{{delay frames=\"20\"}}\nそれ{{delay frames=\"8\"}}・{{delay frames=\"8\"}}・{{delay frames=\"8\"}}・{{delay frames=\"20\"}}{{ruby charSpan=\"1\" value=\"か\"}}買おうと{{ruby charSpan=\"1\" value=\"おも\"}}思うと　なぜか\nいつも　{{ruby charSpan=\"1\" value=\"う\"}}売り{{ruby charSpan=\"1\" value=\"き\"}}切れてるんだよね！{{delay frames=\"40\"}}{{anim id=\"9\"}}\n{{fun_000D0007 arg=\"\"}}{{anim id=\"15\"}}そうだ、{{delay frames=\"8\"}}ねぇ！{{delay frames=\"40\"}}\n{{anim id=\"23\"}}それ　ウチに　{{ruby charSpan=\"1\" value=\"う\"}}売ってくれない？{{delay frames=\"40\"}}\n{{anim id=\"37\"}}{{color id=\"2\"}}{{fun_000B0004 arg=\"0x0000\"}}ベル{{color id=\"65535\"}}{{delay frames=\"8\"}}　{{ruby charSpan=\"1\" value=\"だ\"}}出すよ！{{fun_00050008 arg=\"0x1000150005002800\"}}\nいいよ\nこれはダメ・・・"
  },
  {
    "label": "002",
    "text": "{{anim id=\"15\"}}ね！　{{delay frames=\"20\"}}アンタさ！{{delay frames=\"40\"}}\n{{fun_00030011 arg=\"0x0000\"}}を\n{{ruby charSpan=\"1\" value=\"も\"}}持ってるって、ホントかい？\n{{anim id=\"11\"}}ウチさ{{delay frames=\"8\"}}・{{delay frames=\"8\"}}・{{delay frames=\"8\"}}・{{delay frames=\"20\"}}\n{{ruby charSpan=\"2\" value=\"つうはん\"}}通販で　それのニセモノ\nつかまされたこと　あるんだよね\n{{anim id=\"22\"}}{{delay frames=\"20\"}}そうだ！{{delay frames=\"40\"}}\n{{anim id=\"37\"}}ねぇ、{{delay frames=\"8\"}}その　{{fun_00030011 arg=\"0x0000\"}}\nウチに　{{ruby charSpan=\"1\" value=\"う\"}}売ってくれない？\n{{fun_000D0007 arg=\"\"}}{{anim id=\"21\"}}このままじゃ　{{ruby charSpan=\"2\" value=\"えんぎ\"}}縁起{{ruby charSpan=\"1\" value=\"わる\"}}悪いしね、{{delay frames=\"8\"}}\n{{ruby charSpan=\"2\" value=\"ほんもの\"}}本物でゲン{{ruby charSpan=\"1\" value=\"なお\"}}直し　したいんだよ！{{delay frames=\"40\"}}\n{{anim id=\"23\"}}{{color id=\"2\"}}{{fun_000B0004 arg=\"0x0000\"}}ベル{{color id=\"65535\"}}で{{delay frames=\"8\"}}　どう？{{fun_00050008 arg=\"0x1000150005002800\"}}\nいいよ\n{{ruby charSpan=\"1\" value=\"う\"}}売らないよ"
  },
  {
    "label": "003",
    "text": "{{anim id=\"35\"}}ふふふ{{delay frames=\"8\"}}・{{delay frames=\"8\"}}・{{delay frames=\"8\"}}・{{delay frames=\"20\"}}やっぱりね！{{delay frames=\"40\"}}\nエモノのにおいは　アンタから\nしてたってワケだ！\n{{anim id=\"42\"}}{{delay frames=\"20\"}}アンタ{{delay frames=\"8\"}}・{{delay frames=\"8\"}}・{{delay frames=\"8\"}}・{{delay frames=\"20\"}}\n{{fun_00030011 arg=\"0x0000\"}}　{{ruby charSpan=\"1\" value=\"も\"}}持ってるだろ！{{delay frames=\"40\"}}\nもう{{ruby charSpan=\"1\" value=\"に\"}}逃がさないよ！\n{{anim id=\"0\"}}まぁ　{{ruby charSpan=\"1\" value=\"よう\"}}要するに、\nその　{{fun_00030011 arg=\"0x0000\"}}を\n{{ruby charSpan=\"1\" value=\"う\"}}売ってくれないかって　{{ruby charSpan=\"1\" value=\"はなし\"}}話さ！\n{{fun_000D0007 arg=\"\"}}{{anim id=\"23\"}}{{color id=\"2\"}}{{fun_000B0004 arg=\"0x0000\"}}ベル{{color id=\"65535\"}}で、どうだい？{{fun_00050008 arg=\"0x1000150005002800\"}}\nいいよー\nムリ・・・"
  },
  {
    "label": "004",
    "text": ""
  },
  {
    "label": "005",
    "text": "{{fun_00020009 arg=\"0x0600060006000A00\"}}"
  },
  {
    "label": "006",
    "text": "{{fun_00010009 arg=\"0x070008000900\"}}"
  },
  {
    "label": "007",
    "text": "{{anim id=\"10\"}}ちぇ～っ！{{delay frames=\"20\"}}\nやっぱダメか！\n\n{{anim id=\"27\"}}あ～あ！{{delay frames=\"20\"}}\nどっかで　{{ruby charSpan=\"1\" value=\"やす\"}}安く\n{{ruby charSpan=\"1\" value=\"て\"}}手に{{ruby charSpan=\"1\" value=\"はい\"}}入らないかな！　{{delay frames=\"20\"}}{{fun_00070005 arg=\"\"}}！"
  },
  {
    "label": "008",
    "text": "{{anim id=\"41\"}}あ、やっぱり？{{delay frames=\"40\"}}\nだよねぇ{{delay frames=\"8\"}}・{{delay frames=\"8\"}}・{{delay frames=\"8\"}}・{{delay frames=\"20\"}}\n\n{{anim id=\"36\"}}いいんだ！{{delay frames=\"20\"}}\nダメ{{ruby charSpan=\"1\" value=\"もと\"}}元で　{{ruby charSpan=\"1\" value=\"い\"}}言ってみただけだから！{{delay frames=\"20\"}}\n{{ruby charSpan=\"1\" value=\"き\"}}気にしないで！　{{delay frames=\"20\"}}{{fun_00070005 arg=\"\"}}！{{delay frames=\"40\"}}{{anim id=\"37\"}}"
  },
  {
    "label": "009",
    "text": "{{delay frames=\"8\"}}・{{delay frames=\"8\"}}・{{delay frames=\"8\"}}・{{delay frames=\"20\"}}{{anim id=\"15\"}}あっ、{{delay frames=\"8\"}}もしかして\nアンタの　{{ruby charSpan=\"2\" value=\"だいじ\"}}大事なモンだったかい？\n\n{{anim id=\"37\"}}だったら{{delay frames=\"8\"}}・{{delay frames=\"8\"}}・{{delay frames=\"8\"}}・{{delay frames=\"20\"}}ごめんよ！{{delay frames=\"10\"}}\nもう　{{ruby charSpan=\"1\" value=\"い\"}}言わないよ！　{{delay frames=\"20\"}}{{fun_00070005 arg=\"\"}}！"
  },
  {
    "label": "010",
    "text": "{{anim id=\"15\"}}そ、そんなこと{{ruby charSpan=\"1\" value=\"い\"}}言わずに{{delay frames=\"8\"}}・{{delay frames=\"8\"}}・{{delay frames=\"8\"}}・{{delay frames=\"20\"}}\n{{anim id=\"13\"}}{{color id=\"2\"}}{{fun_000B0004 arg=\"0x0000\"}}ベル{{color id=\"65535\"}}って　けっこう\nいい{{ruby charSpan=\"2\" value=\"ねだん\"}}値段だと　{{ruby charSpan=\"1\" value=\"おも\"}}思うよ？{{delay frames=\"40\"}}　{{anim id=\"9\"}}ね！{{fun_0008000D arg=\"0x02CD\"}}{{fun_00050008 arg=\"0x0B00150006002800\"}}\nしょうがないなぁ\n{{ruby charSpan=\"1\" value=\"う\"}}売りません"
  },
  {
    "label": "011",
    "text": "{{fun_00000009 arg=\"0x0C000E00\"}}"
  },
  {
    "label": "012",
    "text": "{{anim id=\"10\"}}あー、ドキドキした！{{delay frames=\"20\"}}\n{{ruby charSpan=\"1\" value=\"う\"}}売ってもらえないのかと　{{ruby charSpan=\"1\" value=\"おも\"}}思ったよ！\n\n{{anim id=\"37\"}}そいじゃ、さっそく\nくださいな！"
  },
  {
    "label": "013",
    "text": "{{anim id=\"5\"}}むふふふ{{delay frames=\"8\"}}・{{delay frames=\"8\"}}・{{delay frames=\"8\"}}・{{delay frames=\"20\"}}やったね！{{delay frames=\"40\"}}\n「{{fun_00030011 arg=\"0x0000\"}}・クラブ」とか\n{{ruby charSpan=\"1\" value=\"つく\"}}作っちゃおっかな！　{{delay frames=\"20\"}}{{fun_00070005 arg=\"\"}}！"
  },
  {
    "label": "014",
    "text": "{{anim id=\"19\"}}{{delay frames=\"20\"}}な、{{delay frames=\"8\"}}なんか\nシブった{{ruby charSpan=\"1\" value=\"い\"}}言い{{ruby charSpan=\"1\" value=\"かた\"}}方だね{{delay frames=\"8\"}}・{{delay frames=\"8\"}}・{{delay frames=\"8\"}}・{{delay frames=\"20\"}}\n{{anim id=\"9\"}}もしかして　いわくつき、{{delay frames=\"8\"}}とか？\n{{anim id=\"11\"}}う～ん{{delay frames=\"8\"}}・{{delay frames=\"8\"}}・{{delay frames=\"8\"}}・{{delay frames=\"20\"}}{{fun_00010007 arg=\"\"}}{{anim id=\"9\"}}ごめん！{{delay frames=\"20\"}}\nなんか　{{ruby charSpan=\"2\" value=\"むり\"}}無理やりっぽいし、\n{{ruby charSpan=\"2\" value=\"こんかい\"}}今回は　やめとくわ！　{{delay frames=\"20\"}}{{fun_00070005 arg=\"\"}}！"
  },
  {
    "label": "015",
    "text": ""
  },
  {
    "label": "016",
    "text": "{{fun_00000009 arg=\"0x11001300\"}}"
  },
  {
    "label": "017",
    "text": "{{anim id=\"16\"}}えっ！{{delay frames=\"20\"}}　ほんとに？{{delay frames=\"40\"}}\nほんとに　いいのかい？{{fun_0008000D arg=\"0x02CD\"}}{{delay frames=\"10\"}}{{fun_00060008 arg=\"0x130015001500000012002800\"}}\nまいどあり！\nタダであげる\nやっぱだめ"
  },
  {
    "label": "018",
    "text": "{{anim id=\"41\"}}{{delay frames=\"20\"}}なんだよ～！{{delay frames=\"20\"}}\n{{ruby charSpan=\"1\" value=\"わる\"}}悪い{{ruby charSpan=\"2\" value=\"じょうだん\"}}冗談は　やめてよ！\n\n{{anim id=\"10\"}}あ～あ{{delay frames=\"8\"}}・{{delay frames=\"8\"}}・{{delay frames=\"8\"}}・{{delay frames=\"20\"}}\nやっぱ　{{ruby charSpan=\"2\" value=\"じみち\"}}地道に　{{ruby charSpan=\"1\" value=\"さが\"}}探すしか\n{{ruby charSpan=\"1\" value=\"みち\"}}道はないかな、{{delay frames=\"20\"}}{{fun_00070005 arg=\"\"}}"
  },
  {
    "label": "019",
    "text": "{{anim id=\"29\"}}うわ～、やったー！{{delay frames=\"40\"}}\n{{anim id=\"37\"}}そんじゃ　さっそく{{ruby charSpan=\"1\" value=\"たの\"}}頼むよ！"
  },
  {
    "label": "020",
    "text": "{{anim id=\"42\"}}{{delay frames=\"20\"}}ふふふ{{delay frames=\"8\"}}・{{delay frames=\"8\"}}・{{delay frames=\"8\"}}・{{delay frames=\"20\"}}{{ruby charSpan=\"2\" value=\"ひがん\"}}悲願{{ruby charSpan=\"2\" value=\"たっせい\"}}達成ー！{{delay frames=\"40\"}}\n{{anim id=\"37\"}}ありがと　{{fun_00080005 arg=\"\"}}、{{delay frames=\"8\"}}\n{{ruby charSpan=\"2\" value=\"むり\"}}無理{{ruby charSpan=\"1\" value=\"い\"}}言って　{{ruby charSpan=\"1\" value=\"わる\"}}悪かったね！{{delay frames=\"20\"}}　{{fun_00070005 arg=\"\"}}！"
  },
  {
    "label": "021",
    "text": "{{anim id=\"15\"}}はっ？{{delay frames=\"40\"}}\nえ{{delay frames=\"8\"}}・{{delay frames=\"8\"}}・{{delay frames=\"8\"}}・{{delay frames=\"20\"}}マジで？"
  },
  {
    "label": "022",
    "text": "{{fun_0001000A arg=\"0x17001800\"}}"
  },
  {
    "label": "023",
    "text": "{{anim id=\"14\"}}あ、{{ruby charSpan=\"2\" value=\"あにき\"}}兄貴～！{{delay frames=\"20\"}}\n{{ruby charSpan=\"2\" value=\"おとこまえ\"}}男前っす！{{delay frames=\"20\"}}　あざーす！{{delay frames=\"20\"}}\n{{fun_00070005 arg=\"\"}}！{{delay frames=\"40\"}}{{anim id=\"37\"}}{{fun_0001000B arg=\"0x01CD\"}}"
  },
  {
    "label": "024",
    "text": "{{anim id=\"14\"}}あ、{{ruby charSpan=\"2\" value=\"あねき\"}}姉貴～！{{delay frames=\"20\"}}\nマジ{{ruby charSpan=\"2\" value=\"めがみ\"}}女神っす！{{delay frames=\"20\"}}　あざーす！{{delay frames=\"20\"}}\n{{fun_00070005 arg=\"\"}}！{{delay frames=\"40\"}}{{anim id=\"37\"}}{{fun_0001000B arg=\"0x01CD\"}}"
  },
  {
    "label": "025",
    "text": ""
  },
  {
    "label": "026",
    "text": ""
  }
]