﻿[
  {
    "label": "001",
    "text": "{{anim id=\"9\"}}あのさ{{delay frames=\"8\"}}・{{delay frames=\"8\"}}・{{delay frames=\"8\"}}・{{delay frames=\"20\"}}ウチって\nよく　「{{fun_00070005 arg=\"\"}}」って\n{{ruby charSpan=\"1\" value=\"い\"}}言っちゃうじゃん？\n{{anim id=\"21\"}}この　{{ruby charSpan=\"1\" value=\"くち\"}}口ぐせ、{{delay frames=\"8\"}}なんか\nウチの　キャラじゃないような\n{{ruby charSpan=\"1\" value=\"き\"}}気がしてるんだよね！\n{{anim id=\"23\"}}{{ruby charSpan=\"1\" value=\"か\"}}変えた{{ruby charSpan=\"1\" value=\"ほう\"}}方が　いいと{{ruby charSpan=\"1\" value=\"おも\"}}思う？{{fun_00050008 arg=\"0x0400150003002800\"}}\n{{ruby charSpan=\"1\" value=\"か\"}}変えちゃいなよ\n{{ruby charSpan=\"2\" value=\"ひつよう\"}}必要なし"
  },
  {
    "label": "002",
    "text": "{{anim id=\"9\"}}{{ruby charSpan=\"1\" value=\"じつ\"}}実はさ{{delay frames=\"8\"}}・{{delay frames=\"8\"}}・{{delay frames=\"8\"}}・{{delay frames=\"20\"}}\n{{ruby charSpan=\"1\" value=\"お\"}}折り{{ruby charSpan=\"1\" value=\"い\"}}入って　アンタに、\n{{ruby charSpan=\"2\" value=\"そうだん\"}}相談が　あるんだよ\n{{anim id=\"21\"}}ウチって、{{delay frames=\"8\"}}\nなにかと「{{fun_00070005 arg=\"\"}}」って\n{{ruby charSpan=\"1\" value=\"い\"}}言っちゃうクセが　あるだろ？\n{{anim id=\"10\"}}こないだ　{{fun_00020005 arg=\"\"}}に\nキャラじゃないって\n{{ruby charSpan=\"1\" value=\"い\"}}言われたんだよね{{delay frames=\"8\"}}・{{delay frames=\"8\"}}・{{delay frames=\"8\"}}・{{delay frames=\"20\"}}\n{{anim id=\"23\"}}ねぇ　{{fun_00080005 arg=\"\"}}、\n{{ruby charSpan=\"1\" value=\"か\"}}変えた{{ruby charSpan=\"1\" value=\"ほう\"}}方が　いいと{{ruby charSpan=\"1\" value=\"おも\"}}思う？　{{delay frames=\"20\"}}{{fun_00070005 arg=\"\"}}？{{fun_00050008 arg=\"0x0400150003002800\"}}\n{{ruby charSpan=\"1\" value=\"か\"}}変えよう！\n{{ruby charSpan=\"1\" value=\"き\"}}気にしなくていい"
  },
  {
    "label": "003",
    "text": "{{anim id=\"15\"}}あっ、そぉ？{{delay frames=\"40\"}}\n{{anim id=\"21\"}}アンタが　そう　{{ruby charSpan=\"1\" value=\"い\"}}言うんなら\n{{delay frames=\"8\"}}・{{delay frames=\"8\"}}・{{delay frames=\"8\"}}・{{delay frames=\"20\"}}{{anim id=\"37\"}}いっか！"
  },
  {
    "label": "004",
    "text": "{{anim id=\"41\"}}うっ{{delay frames=\"8\"}}・{{delay frames=\"8\"}}・{{delay frames=\"8\"}}・{{delay frames=\"20\"}}やっぱり！\n\n\n{{anim id=\"37\"}}よし！{{delay frames=\"20\"}}\nそいじゃ　{{ruby charSpan=\"1\" value=\"あたら\"}}新しいの{{ruby charSpan=\"1\" value=\"かんが\"}}考えてよ！{{delay frames=\"20\"}}\nどんなのが　いい？"
  },
  {
    "label": "005",
    "text": "{{delay frames=\"8\"}}・{{delay frames=\"8\"}}・{{delay frames=\"8\"}}・{{delay frames=\"20\"}}「{{fun_00070005 arg=\"\"}}」！{{delay frames=\"20\"}}\n{{anim id=\"23\"}}で、いいかい？{{fun_0008000D arg=\"0x02CD\"}}{{fun_00050008 arg=\"0x0700150006002800\"}}\nオッケー\nちがうよ！"
  },
  {
    "label": "006",
    "text": "{{anim id=\"15\"}}えっ、ごめん！{{delay frames=\"40\"}}\n{{anim id=\"0\"}}{{ruby charSpan=\"1\" value=\"き\"}}聞き{{ruby charSpan=\"2\" value=\"まちが\"}}間違えたかな、\n{{anim id=\"23\"}}もう{{ruby charSpan=\"2\" value=\"いっかい\"}}一回　{{ruby charSpan=\"1\" value=\"い\"}}言ってもらえる？"
  },
  {
    "label": "007",
    "text": "{{fun_00000009 arg=\"0x08000900\"}}"
  },
  {
    "label": "008",
    "text": "{{anim id=\"37\"}}ふふふ　いいじゃん！{{delay frames=\"20\"}}\nひびきとか、なんとなく\nウチっぽいかも！"
  },
  {
    "label": "009",
    "text": "{{anim id=\"22\"}}「{{fun_00070005 arg=\"\"}}」かぁ{{delay frames=\"8\"}}・{{delay frames=\"8\"}}・{{delay frames=\"8\"}}・{{delay frames=\"40\"}}\n{{anim id=\"37\"}}うん、いいじゃん！{{delay frames=\"20\"}}\n{{ruby charSpan=\"3\" value=\"ふんいき\"}}雰囲気とか　ウチっぽいかも！"
  },
  {
    "label": "010",
    "text": "{{fun_00010009 arg=\"0x0B000C000D00\"}}"
  },
  {
    "label": "011",
    "text": "{{anim id=\"5\"}}へへ{{delay frames=\"8\"}}・{{delay frames=\"8\"}}・{{delay frames=\"8\"}}・\n{{delay frames=\"20\"}}{{ruby charSpan=\"1\" value=\"き\"}}気にして　{{ruby charSpan=\"1\" value=\"そん\"}}損しちゃった！{{delay frames=\"20\"}}\nありがとね！　{{delay frames=\"20\"}}{{fun_00070005 arg=\"\"}}！"
  },
  {
    "label": "012",
    "text": "{{anim id=\"5\"}}アンタに　{{ruby charSpan=\"1\" value=\"い\"}}言ってもらえて\n{{ruby charSpan=\"2\" value=\"あんしん\"}}安心したよ！{{delay frames=\"20\"}}　ありがと！\n{{delay frames=\"20\"}}{{fun_00070005 arg=\"\"}}！"
  },
  {
    "label": "013",
    "text": "{{anim id=\"5\"}}つまんないことに\n{{ruby charSpan=\"1\" value=\"つ\"}}付き{{ruby charSpan=\"1\" value=\"あ\"}}合わせちゃって、ごめん！{{delay frames=\"40\"}}\nおかげで　スッキリした！　{{delay frames=\"20\"}}{{fun_00070005 arg=\"\"}}！"
  },
  {
    "label": "014",
    "text": "{{fun_00010009 arg=\"0x0F0010001100\"}}"
  },
  {
    "label": "015",
    "text": "{{anim id=\"5\"}}そいじゃ、{{delay frames=\"8\"}}ありがたく\n{{ruby charSpan=\"1\" value=\"つか\"}}使わせてもらうね！　{{delay frames=\"20\"}}{{fun_00070005 arg=\"\"}}！"
  },
  {
    "label": "016",
    "text": "{{anim id=\"5\"}}そんじゃあ　これから、\nビシッと　{{ruby charSpan=\"1\" value=\"つか\"}}使わせてもらうね！{{delay frames=\"20\"}}\n{{fun_00070005 arg=\"\"}}！"
  },
  {
    "label": "017",
    "text": "{{anim id=\"5\"}}ここ{{ruby charSpan=\"2\" value=\"いちばん\"}}一番の　{{ruby charSpan=\"1\" value=\"き\"}}決めゼリフで\n{{ruby charSpan=\"1\" value=\"つか\"}}使えそう{{delay frames=\"8\"}}・{{delay frames=\"8\"}}・{{delay frames=\"8\"}}・{{delay frames=\"20\"}}ありがと！\n{{delay frames=\"20\"}}{{fun_00070005 arg=\"\"}}！"
  }
]