﻿[
  {
    "label": "001",
    "text": "{{anim id=\"11\"}}{{ruby charSpan=\"2\" value=\"さいきん\"}}最近　でかいイベントが\nないけど{{delay frames=\"8\"}}・{{delay frames=\"8\"}}・{{delay frames=\"8\"}}・{{delay frames=\"20\"}}{{anim id=\"37\"}}まぁ\nこんな{{ruby charSpan=\"2\" value=\"じき\"}}時期も　いいもんだよね\n{{anim id=\"0\"}}「お{{ruby charSpan=\"1\" value=\"まつ\"}}祭りごとには　{{ruby charSpan=\"2\" value=\"ぜんりょく\"}}全力で{{ruby charSpan=\"2\" value=\"さんか\"}}参加」{{delay frames=\"20\"}}ってのが\nウチの　{{ruby charSpan=\"2\" value=\"しんじょう\"}}信条だからさ！{{delay frames=\"40\"}}{{anim id=\"27\"}}\n{{ruby charSpan=\"1\" value=\"つづ\"}}続くと{{delay frames=\"8\"}}・{{delay frames=\"8\"}}・{{delay frames=\"8\"}}・{{delay frames=\"20\"}}もたないもん！\n{{anim id=\"37\"}}{{ruby charSpan=\"1\" value=\"つぎ\"}}次の　イベントのために、\n{{ruby charSpan=\"2\" value=\"たいりょく\"}}体力　たくわえておかないとね！\n{{delay frames=\"20\"}}{{fun_00070005 arg=\"\"}}！"
  },
  {
    "label": "002",
    "text": "{{anim id=\"37\"}}でかい{{ruby charSpan=\"1\" value=\"まつ\"}}祭りが　ない{{ruby charSpan=\"1\" value=\"ひ\"}}日は、{{delay frames=\"8\"}}\n{{ruby charSpan=\"2\" value=\"じぶん\"}}自分の　しゅみを　マンキツするんだ！\n\n{{anim id=\"15\"}}これって　あれかな{{delay frames=\"8\"}}・{{delay frames=\"8\"}}・{{delay frames=\"8\"}}・{{delay frames=\"20\"}}\n{{anim id=\"35\"}}{{ruby charSpan=\"2\" value=\"しごと\"}}仕事と　プライベートを\n{{ruby charSpan=\"1\" value=\"わ\"}}分けるってヤツ！\n{{anim id=\"2\"}}まぁ、{{delay frames=\"10\"}}{{ruby charSpan=\"1\" value=\"まつ\"}}祭りの{{ruby charSpan=\"1\" value=\"ほう\"}}方も\n{{ruby charSpan=\"2\" value=\"かんぜん\"}}完全に　しゅみ{{ruby charSpan=\"1\" value=\"はい\"}}入ってるけどね！\n{{delay frames=\"20\"}}{{fun_00070005 arg=\"\"}}！{{delay frames=\"40\"}}{{anim id=\"37\"}}"
  },
  {
    "label": "003",
    "text": "{{anim id=\"25\"}}ふぁ～あ{{delay frames=\"8\"}}・{{delay frames=\"8\"}}・{{delay frames=\"8\"}}・{{delay frames=\"20\"}}{{ruby charSpan=\"2\" value=\"へいわ\"}}平和だなぁ{{fun_00010007 arg=\"\"}}\n{{anim id=\"9\"}}こう　{{ruby charSpan=\"2\" value=\"へいわ\"}}平和だと\nぼーっとしちゃって　ダメだね！\n{{anim id=\"27\"}}デカいイベントの　{{ruby charSpan=\"1\" value=\"まえ\"}}前は{{delay frames=\"20\"}}\n{{ruby charSpan=\"2\" value=\"れんぞく\"}}連続で　{{ruby charSpan=\"2\" value=\"てつや\"}}徹夜しても　{{ruby charSpan=\"2\" value=\"へいき\"}}平気なくらい\nサエてんだけどな！　{{delay frames=\"20\"}}{{fun_00070005 arg=\"\"}}！"
  },
  {
    "label": "004",
    "text": "{{anim id=\"16\"}}そういや、{{ruby charSpan=\"2\" value=\"こんど\"}}今度の　{{ruby charSpan=\"2\" value=\"どよう\"}}土曜は\n{{color id=\"2\"}}つり{{ruby charSpan=\"2\" value=\"たいかい\"}}大会{{color id=\"65535\"}}じゃないか！\n\n{{anim id=\"11\"}}そろそろ、{{delay frames=\"8\"}}つりざおに　{{ruby charSpan=\"1\" value=\"がん\"}}願かけて\nお{{ruby charSpan=\"1\" value=\"そな\"}}供え　しといたほうがいいかな？\n{{delay frames=\"20\"}}{{fun_00070005 arg=\"\"}}？"
  },
  {
    "label": "005",
    "text": "{{anim id=\"23\"}}ねぇ　{{fun_00080005 arg=\"\"}}、\n{{ruby charSpan=\"2\" value=\"あした\"}}明日の　{{color id=\"2\"}}つり{{ruby charSpan=\"2\" value=\"たいかい\"}}大会{{color id=\"65535\"}}　{{ruby charSpan=\"1\" value=\"で\"}}出る？\n\n{{anim id=\"27\"}}この{{ruby charSpan=\"1\" value=\"むら\"}}村のヤツって、\n{{ruby charSpan=\"1\" value=\"つ\"}}釣りだけは　{{ruby charSpan=\"2\" value=\"いよう\"}}異様に　うまいからさ\n{{delay frames=\"8\"}}・{{delay frames=\"8\"}}・{{delay frames=\"8\"}}・{{delay frames=\"20\"}}{{anim id=\"0\"}}ちょっと　ビビってんだよ\n{{anim id=\"36\"}}まぁ{{delay frames=\"8\"}}　お{{ruby charSpan=\"1\" value=\"まつ\"}}祭りごとだし、\n{{ruby charSpan=\"2\" value=\"けっきょく\"}}結局は　{{ruby charSpan=\"1\" value=\"で\"}}出ると　{{ruby charSpan=\"1\" value=\"おも\"}}思うけどね！\n{{delay frames=\"20\"}}{{fun_00070005 arg=\"\"}}！{{delay frames=\"40\"}}{{anim id=\"0\"}}"
  },
  {
    "label": "006",
    "text": "{{anim id=\"16\"}}そういや{{delay frames=\"8\"}}・{{delay frames=\"8\"}}・{{delay frames=\"8\"}}・{{delay frames=\"20\"}}\n{{ruby charSpan=\"2\" value=\"こんど\"}}今度の　{{ruby charSpan=\"2\" value=\"どよう\"}}土曜は\n{{color id=\"2\"}}ムシとり{{ruby charSpan=\"2\" value=\"たいかい\"}}大会{{color id=\"65535\"}}じゃないか！\n{{anim id=\"11\"}}そろそろ　あみに　{{ruby charSpan=\"1\" value=\"がん\"}}願かけて{{delay frames=\"20\"}}\nお{{ruby charSpan=\"1\" value=\"そな\"}}供え　しといたほうが　いいかな～？\n{{delay frames=\"20\"}}{{fun_00070005 arg=\"\"}}？"
  },
  {
    "label": "007",
    "text": "{{anim id=\"23\"}}ねぇ　{{fun_00080005 arg=\"\"}}、{{delay frames=\"8\"}}\n{{ruby charSpan=\"2\" value=\"あした\"}}明日の　{{color id=\"2\"}}ムシとり{{ruby charSpan=\"2\" value=\"たいかい\"}}大会{{color id=\"65535\"}}　{{ruby charSpan=\"1\" value=\"で\"}}出る？\n\n{{anim id=\"27\"}}この{{ruby charSpan=\"1\" value=\"むら\"}}村のヤツって、\nムシとりだけは　{{ruby charSpan=\"2\" value=\"いよう\"}}異様に　うまいからさ\n{{delay frames=\"8\"}}・{{delay frames=\"8\"}}・{{delay frames=\"8\"}}・{{delay frames=\"20\"}}{{anim id=\"37\"}}ちょっと　ビビってんだよ\n{{anim id=\"36\"}}まぁ　お{{ruby charSpan=\"1\" value=\"まつ\"}}祭りごとだし、\n{{ruby charSpan=\"2\" value=\"けっきょく\"}}結局　{{ruby charSpan=\"1\" value=\"で\"}}出ると{{ruby charSpan=\"1\" value=\"おも\"}}思うけどね！\n{{delay frames=\"20\"}}{{fun_00070005 arg=\"\"}}！{{delay frames=\"40\"}}{{anim id=\"0\"}}"
  },
  {
    "label": "008",
    "text": "{{anim id=\"15\"}}あっ、そうだ！{{delay frames=\"40\"}}\n{{anim id=\"0\"}}{{fun_00080005 arg=\"\"}}{{delay frames=\"20\"}}　アンタ\nダンスの{{ruby charSpan=\"2\" value=\"れんしゅう\"}}練習とか　してる？\n{{anim id=\"9\"}}だって　もうすぐ　{{color id=\"2\"}}カーニバル{{color id=\"65535\"}}じゃん！{{delay frames=\"40\"}}\n{{anim id=\"21\"}}1{{ruby charSpan=\"2\" value=\"にちじゅう\"}}日中　{{ruby charSpan=\"1\" value=\"おど\"}}踊らなきゃ　いけないんだから、\n{{ruby charSpan=\"2\" value=\"たいりょく\"}}体力　つけとかないと！\n{{anim id=\"5\"}}{{ruby charSpan=\"2\" value=\"した\"}}仕立て{{ruby charSpan=\"1\" value=\"や\"}}屋に　{{ruby charSpan=\"1\" value=\"かざ\"}}飾ってある\n{{ruby charSpan=\"2\" value=\"いしょう\"}}衣装とか{{ruby charSpan=\"1\" value=\"み\"}}見ると、{{delay frames=\"10\"}}\n{{ruby charSpan=\"2\" value=\"きあ\"}}気合い{{ruby charSpan=\"1\" value=\"はい\"}}入るよ！　{{delay frames=\"20\"}}{{fun_00070005 arg=\"\"}}！"
  },
  {
    "label": "009",
    "text": "{{anim id=\"15\"}}ねぇ！{{delay frames=\"20\"}}\nアンタ　もう　{{ruby charSpan=\"2\" value=\"ようい\"}}用意した？{{delay frames=\"20\"}}\n{{ruby charSpan=\"2\" value=\"あした\"}}明日の　{{color id=\"2\"}}カーニバル{{color id=\"65535\"}}の{{ruby charSpan=\"1\" value=\"ふく\"}}服！\n{{anim id=\"35\"}}むふふ{{delay frames=\"8\"}}・{{delay frames=\"8\"}}・{{delay frames=\"8\"}}・{{delay frames=\"20\"}}{{ruby charSpan=\"1\" value=\"たの\"}}楽しみだね～！{{delay frames=\"40\"}}\nみんなで　{{ruby charSpan=\"1\" value=\"おど\"}}踊りまくろ！　{{delay frames=\"20\"}}{{fun_00070005 arg=\"\"}}！"
  },
  {
    "label": "010",
    "text": "{{anim id=\"38\"}}もうすぐ　{{color id=\"2\"}}イースター{{color id=\"65535\"}}の　お{{ruby charSpan=\"1\" value=\"まつ\"}}祭りだね！{{delay frames=\"40\"}}\n{{anim id=\"0\"}}{{ruby charSpan=\"2\" value=\"ひろば\"}}広場に　でかいウサギが　やってきて、\nみんなで　たまごを　{{ruby charSpan=\"1\" value=\"た\"}}食べまくるのさ！\n{{anim id=\"23\"}}でも{{delay frames=\"8\"}}・{{delay frames=\"8\"}}・{{delay frames=\"8\"}}・{{delay frames=\"20\"}}あれって　{{ruby charSpan=\"2\" value=\"けっきょく\"}}結局、\n{{ruby charSpan=\"2\" value=\"なにもの\"}}何者なんだろ？\n\n{{anim id=\"1\"}}まぁ{{delay frames=\"20\"}}　{{ruby charSpan=\"1\" value=\"ねん\"}}年に{{ruby charSpan=\"2\" value=\"いちど\"}}一度の\nお{{ruby charSpan=\"2\" value=\"やくそく\"}}約束だし、{{ruby charSpan=\"1\" value=\"き\"}}来てくれりゃ\n{{ruby charSpan=\"1\" value=\"だれ\"}}誰だっていいか！　{{delay frames=\"20\"}}{{fun_00070005 arg=\"\"}}！"
  },
  {
    "label": "011",
    "text": "{{anim id=\"21\"}}それにしても、\n{{ruby charSpan=\"2\" value=\"あした\"}}明日は　{{color id=\"2\"}}イースター{{color id=\"65535\"}}かぁ{{delay frames=\"8\"}}・{{delay frames=\"8\"}}・{{delay frames=\"8\"}}・{{delay frames=\"40\"}}\n{{anim id=\"37\"}}やっと　{{ruby charSpan=\"1\" value=\"はる\"}}春が　{{ruby charSpan=\"1\" value=\"く\"}}来るんだね！\n{{anim id=\"5\"}}{{ruby charSpan=\"2\" value=\"とうみん\"}}冬眠みたいな　{{ruby charSpan=\"2\" value=\"せいかつ\"}}生活で\nなまった　この{{ruby charSpan=\"1\" value=\"からだ\"}}体を、\nたたき{{ruby charSpan=\"1\" value=\"お\"}}起こすぞ！　{{delay frames=\"20\"}}{{fun_00070005 arg=\"\"}}！"
  },
  {
    "label": "012",
    "text": "{{anim id=\"22\"}}そうだ！{{delay frames=\"40\"}}\nいよいよ　{{ruby charSpan=\"2\" value=\"こんど\"}}今度の{{ruby charSpan=\"3\" value=\"にちようび\"}}日曜日から\n{{fun_00000004 arg=\"\"}}{{ruby charSpan=\"1\" value=\"ねん\"}}年の　{{color id=\"2\"}}{{ruby charSpan=\"2\" value=\"はなび\"}}花火{{ruby charSpan=\"2\" value=\"たいかい\"}}大会{{color id=\"65535\"}}が　{{ruby charSpan=\"1\" value=\"はじ\"}}始まるんだよ！\n{{anim id=\"23\"}}アンタは　{{ruby charSpan=\"1\" value=\"いえ\"}}家で　ゆっくりする{{ruby charSpan=\"1\" value=\"は\"}}派？{{delay frames=\"20\"}}\nそれとも　{{ruby charSpan=\"1\" value=\"そと\"}}外で　ワイワイ{{ruby charSpan=\"1\" value=\"み\"}}見る{{ruby charSpan=\"1\" value=\"は\"}}派？\n\n{{anim id=\"11\"}}ウチはね{{delay frames=\"10\"}}・{{delay frames=\"10\"}}・{{delay frames=\"10\"}}・{{delay frames=\"40\"}}\n{{anim id=\"37\"}}まぁ、{{ruby charSpan=\"2\" value=\"とうじつ\"}}当日になってみなきゃ\nわかんないね！　{{delay frames=\"20\"}}{{fun_00070005 arg=\"\"}}！"
  },
  {
    "label": "013",
    "text": "{{anim id=\"15\"}}そういえばさ！{{delay frames=\"40\"}}\n{{anim id=\"0\"}}{{ruby charSpan=\"2\" value=\"あした\"}}明日の　{{color id=\"2\"}}{{ruby charSpan=\"2\" value=\"はなび\"}}花火{{ruby charSpan=\"2\" value=\"たいかい\"}}大会{{color id=\"65535\"}}、どうする？\n\n{{anim id=\"21\"}}これが　{{ruby charSpan=\"1\" value=\"こ\"}}来なきゃ、\n{{ruby charSpan=\"1\" value=\"なつ\"}}夏は　{{ruby charSpan=\"1\" value=\"はじ\"}}始まらないからね！{{delay frames=\"40\"}}\n{{anim id=\"5\"}}ハッキリ{{ruby charSpan=\"1\" value=\"い\"}}言って　ウチは{{ruby charSpan=\"1\" value=\"も\"}}燃えてるよ！"
  },
  {
    "label": "014",
    "text": "{{anim id=\"9\"}}あ～あ！{{delay frames=\"40\"}}\nそれにしても、{{color id=\"2\"}}{{ruby charSpan=\"2\" value=\"はなび\"}}花火{{ruby charSpan=\"2\" value=\"たいかい\"}}大会{{color id=\"65535\"}}って\nどうして　{{ruby charSpan=\"3\" value=\"にちようび\"}}日曜日　だけなんだろ？\n{{anim id=\"27\"}}{{ruby charSpan=\"2\" value=\"まいにち\"}}毎日　やってくれたって{{delay frames=\"20\"}}\nウチは　{{ruby charSpan=\"1\" value=\"み\"}}見に{{ruby charSpan=\"1\" value=\"い\"}}行くのにさ！　{{delay frames=\"20\"}}{{fun_00070005 arg=\"\"}}！"
  },
  {
    "label": "015",
    "text": "{{anim id=\"22\"}}ねぇ！{{delay frames=\"40\"}}\nいよいよ{{ruby charSpan=\"2\" value=\"あした\"}}明日は\nこの{{ruby charSpan=\"1\" value=\"なつ\"}}夏　{{ruby charSpan=\"2\" value=\"さいご\"}}最後の、{{color id=\"2\"}}{{ruby charSpan=\"2\" value=\"はなび\"}}花火{{ruby charSpan=\"2\" value=\"たいかい\"}}大会{{color id=\"65535\"}}だね！\n{{anim id=\"21\"}}これで　{{ruby charSpan=\"2\" value=\"みおさ\"}}見納めかと\n{{ruby charSpan=\"1\" value=\"おも\"}}思うと{{delay frames=\"8\"}}・{{delay frames=\"8\"}}・{{delay frames=\"8\"}}・{{delay frames=\"20\"}}さみしいような\nホッとしたような\n{{anim id=\"1\"}}{{ruby charSpan=\"1\" value=\"なに\"}}何は　ともあれ、\n{{ruby charSpan=\"2\" value=\"きあ\"}}気合い　{{ruby charSpan=\"1\" value=\"い\"}}入れないとね！\n{{delay frames=\"20\"}}{{fun_00070005 arg=\"\"}}！"
  },
  {
    "label": "016",
    "text": "{{anim id=\"15\"}}あっ、そうだ{{delay frames=\"8\"}}・{{delay frames=\"8\"}}・{{delay frames=\"8\"}}・{{delay frames=\"20\"}}\n{{anim id=\"37\"}}そろそろ　{{color id=\"2\"}}{{ruby charSpan=\"1\" value=\"くさ\"}}草むしり{{color id=\"65535\"}}の　{{ruby charSpan=\"2\" value=\"じき\"}}時期じゃん！\n\n{{anim id=\"21\"}}{{ruby charSpan=\"2\" value=\"えんげい\"}}園芸{{ruby charSpan=\"1\" value=\"てん\"}}店の　あの　{{ruby charSpan=\"1\" value=\"にい\"}}兄さんが\n{{ruby charSpan=\"2\" value=\"しゅさい\"}}主催して　くれてるんだよね！\n\n{{anim id=\"36\"}}ちょっと　{{ruby charSpan=\"1\" value=\"たよ\"}}頼りなさそうだけど{{delay frames=\"8\"}}・{{delay frames=\"8\"}}・{{delay frames=\"8\"}}・{{delay frames=\"20\"}}\nまぁ、{{ruby charSpan=\"2\" value=\"ほんばん\"}}本番に　{{ruby charSpan=\"2\" value=\"きたい\"}}期待しとくか！\n{{delay frames=\"20\"}}{{fun_00070005 arg=\"\"}}！{{delay frames=\"20\"}}{{anim id=\"37\"}}"
  },
  {
    "label": "017",
    "text": "{{anim id=\"15\"}}そういや　{{ruby charSpan=\"2\" value=\"あした\"}}明日は{{delay frames=\"10\"}}\n{{color id=\"2\"}}{{ruby charSpan=\"1\" value=\"くさ\"}}草むしり{{color id=\"65535\"}}の{{ruby charSpan=\"1\" value=\"ひ\"}}日だね！{{delay frames=\"40\"}}\n{{anim id=\"21\"}}{{ruby charSpan=\"1\" value=\"あさ\"}}朝{{ruby charSpan=\"1\" value=\"はや\"}}早いし　{{ruby charSpan=\"1\" value=\"いま\"}}今のうちに　{{ruby charSpan=\"2\" value=\"じゅんび\"}}準備しとかなきゃ！\n{{anim id=\"0\"}}え？{{delay frames=\"10\"}}　{{ruby charSpan=\"1\" value=\"なに\"}}何を　{{ruby charSpan=\"2\" value=\"じゅんび\"}}準備するかって？{{delay frames=\"40\"}}\n{{anim id=\"27\"}}そりゃアンタ、ぼうしとか\n{{ruby charSpan=\"2\" value=\"べんとう\"}}弁当とかだよ！\n{{anim id=\"21\"}}1{{ruby charSpan=\"1\" value=\"にち\"}}日がかりで　この　{{fun_00050005 arg=\"\"}}{{ruby charSpan=\"1\" value=\"むら\"}}村を\nキレイにするんだ{{delay frames=\"8\"}}・{{delay frames=\"8\"}}・{{delay frames=\"8\"}}・{{delay frames=\"20\"}}{{anim id=\"6\"}}はっきり{{ruby charSpan=\"1\" value=\"い\"}}言って\n{{ruby charSpan=\"4\" value=\"たいりょくしょうぶ\"}}体力勝負だよ！　{{delay frames=\"20\"}}{{fun_00070005 arg=\"\"}}！"
  },
  {
    "label": "018",
    "text": "{{anim id=\"15\"}}あっ、そうだ！{{delay frames=\"40\"}}\n{{anim id=\"0\"}}アンタ{{delay frames=\"10\"}}　{{color id=\"2\"}}ハロウィン{{color id=\"65535\"}}の{{ruby charSpan=\"2\" value=\"じゅんび\"}}準備は\n{{ruby charSpan=\"1\" value=\"すす\"}}進んでる？\n{{anim id=\"21\"}}ちゃんと　オバケの{{ruby charSpan=\"2\" value=\"かっこう\"}}格好するか\n{{delay frames=\"8\"}}・{{delay frames=\"8\"}}・{{delay frames=\"8\"}}・{{delay frames=\"20\"}}{{anim id=\"9\"}}そうでなくても、せめて\n{{color id=\"2\"}}アメ{{color id=\"65535\"}}ちゃんくらいは　{{ruby charSpan=\"1\" value=\"か\"}}買っときなよ？\n{{anim id=\"36\"}}あの{{ruby charSpan=\"1\" value=\"ひ\"}}日だけは、\nイタズラされて　ベソかいても\n{{ruby charSpan=\"1\" value=\"たす\"}}助けて　あげられないからね！{{delay frames=\"40\"}}{{anim id=\"0\"}}"
  },
  {
    "label": "019",
    "text": "{{anim id=\"15\"}}{{ruby charSpan=\"2\" value=\"あした\"}}明日は　{{color id=\"2\"}}ハロウィン{{color id=\"65535\"}}だね！{{delay frames=\"40\"}}\n{{anim id=\"23\"}}{{ruby charSpan=\"2\" value=\"まいとし\"}}毎年　{{ruby charSpan=\"1\" value=\"おも\"}}思うけど{{delay frames=\"8\"}}・{{delay frames=\"8\"}}・{{delay frames=\"8\"}}・{{delay frames=\"20\"}}\n{{color id=\"4\"}}パンプキング{{color id=\"65535\"}}ってのは　{{ruby charSpan=\"2\" value=\"なにもの\"}}何者なんだろ？\n{{anim id=\"11\"}}{{ruby charSpan=\"2\" value=\"やくしゃ\"}}役者さんかと　{{ruby charSpan=\"1\" value=\"おも\"}}思ってたけど、{{delay frames=\"20\"}}{{ruby charSpan=\"2\" value=\"けっきょく\"}}結局\n{{ruby charSpan=\"1\" value=\"だれ\"}}誰も　{{ruby charSpan=\"1\" value=\"よ\"}}呼んでないっていうし{{delay frames=\"20\"}}・{{delay frames=\"20\"}}・{{delay frames=\"20\"}}・{{delay frames=\"40\"}}\n{{anim id=\"19\"}}まさか？\n{{anim id=\"13\"}}あー　やだやだ！{{delay frames=\"20\"}}\nこわい{{ruby charSpan=\"1\" value=\"こと\"}}事　{{ruby charSpan=\"1\" value=\"かんが\"}}考えちゃった！{{delay frames=\"40\"}}\nともかく　{{color id=\"2\"}}アメ{{color id=\"65535\"}}ちゃん　{{ruby charSpan=\"2\" value=\"じゅんび\"}}準備しとこ！{{delay frames=\"40\"}}{{anim id=\"9\"}}"
  },
  {
    "label": "020",
    "text": "{{anim id=\"15\"}}ねぇ！{{delay frames=\"40\"}}　{{ruby charSpan=\"2\" value=\"こんど\"}}今度の　{{ruby charSpan=\"3\" value=\"もくようび\"}}木曜日って\n{{color id=\"2\"}}ハーベストフェスティバル{{color id=\"65535\"}}だろ？{{delay frames=\"40\"}}\n{{anim id=\"37\"}}{{ruby charSpan=\"1\" value=\"たの\"}}楽しみだよね～！\n{{anim id=\"21\"}}なんてったって、あの\nシェフ・{{color id=\"4\"}}フランクリン{{color id=\"65535\"}}の\n{{ruby charSpan=\"2\" value=\"りょうり\"}}料理が　{{ruby charSpan=\"1\" value=\"た\"}}食べられるんだから！\n{{anim id=\"5\"}}{{ruby charSpan=\"2\" value=\"とうじつ\"}}当日になって　あわてないように、\n{{ruby charSpan=\"1\" value=\"いま\"}}今のうちから　{{ruby charSpan=\"2\" value=\"しょくざい\"}}食材\n{{ruby charSpan=\"1\" value=\"あつ\"}}集めておかなきゃね！　{{delay frames=\"20\"}}{{fun_00070005 arg=\"\"}}"
  },
  {
    "label": "021",
    "text": "{{anim id=\"15\"}}そういや、{{delay frames=\"8\"}}{{ruby charSpan=\"2\" value=\"あした\"}}明日の\n{{color id=\"2\"}}ハーベストフェスティバル{{color id=\"65535\"}}は\nアンタ　どうするの？\n{{anim id=\"11\"}}{{ruby charSpan=\"1\" value=\"た\"}}食べる{{ruby charSpan=\"1\" value=\"がわ\"}}側で　{{ruby charSpan=\"1\" value=\"い\"}}行くのか、\n{{ruby charSpan=\"2\" value=\"りょうり\"}}料理を{{ruby charSpan=\"1\" value=\"つく\"}}作る{{ruby charSpan=\"1\" value=\"がわ\"}}側で　{{ruby charSpan=\"1\" value=\"い\"}}行くのか{{delay frames=\"8\"}}・{{delay frames=\"8\"}}・{{delay frames=\"8\"}}・{{delay frames=\"20\"}}\n{{anim id=\"9\"}}ウチも　{{ruby charSpan=\"1\" value=\"まよ\"}}迷ってるんだ！\n{{anim id=\"21\"}}まぁ　どっちにしろ\n{{ruby charSpan=\"2\" value=\"しょくざい\"}}食材は　{{ruby charSpan=\"2\" value=\"よゆう\"}}余裕のある{{ruby charSpan=\"1\" value=\"いま\"}}今のうちに\n{{ruby charSpan=\"1\" value=\"あつ\"}}集めといたほうが　いいよね！　{{delay frames=\"20\"}}{{fun_00070005 arg=\"\"}}！"
  },
  {
    "label": "022",
    "text": "{{anim id=\"21\"}}あと　ちょっとで\n{{ruby charSpan=\"2\" value=\"ことし\"}}今年が　{{ruby charSpan=\"1\" value=\"お\"}}終わるんだね{{delay frames=\"8\"}}・{{delay frames=\"8\"}}・{{delay frames=\"8\"}}・{{delay frames=\"20\"}}\n\n{{anim id=\"13\"}}あ～、なんか　{{ruby charSpan=\"1\" value=\"はや\"}}早いなあ！{{delay frames=\"40\"}}\n{{color id=\"2\"}}カウントダウン{{color id=\"65535\"}}の　イベントまでに\nやり{{ruby charSpan=\"1\" value=\"のこ\"}}残したことないか　{{ruby charSpan=\"1\" value=\"しら\"}}調べとかなきゃ！\n{{anim id=\"6\"}}よし！{{delay frames=\"40\"}}\nそうと{{ruby charSpan=\"1\" value=\"き\"}}決まったら　{{ruby charSpan=\"1\" value=\"も\"}}燃えてきたよ！{{delay frames=\"40\"}}\n{{anim id=\"7\"}}やるぞー！{{delay frames=\"20\"}}　{{fun_00070005 arg=\"\"}}！"
  },
  {
    "label": "023",
    "text": "{{anim id=\"15\"}}いよいよ　{{ruby charSpan=\"2\" value=\"あした\"}}明日は\n{{color id=\"2\"}}カウントダウン{{color id=\"65535\"}}か{{delay frames=\"8\"}}・{{delay frames=\"8\"}}・{{delay frames=\"8\"}}・{{delay frames=\"20\"}}\n\n{{anim id=\"21\"}}まぁ、この{{ruby charSpan=\"1\" value=\"ご\"}}期におよんで\n{{ruby charSpan=\"1\" value=\"なに\"}}何ができる　わけでもないもんね！{{delay frames=\"40\"}}\n{{anim id=\"37\"}}ハラをくくって　{{ruby charSpan=\"2\" value=\"さんか\"}}参加しよ！\n{{anim id=\"5\"}}{{ruby charSpan=\"2\" value=\"いっしょ\"}}一緒に　さわいで\n{{ruby charSpan=\"1\" value=\"あたら\"}}新しい{{ruby charSpan=\"1\" value=\"とし\"}}年を　お{{ruby charSpan=\"1\" value=\"むか\"}}迎えするんだ！\n{{delay frames=\"20\"}}{{fun_00070005 arg=\"\"}}！"
  },
  {
    "label": "024",
    "text": "{{anim id=\"37\"}}どんなに　つっぱってるヤツでも、\nクリスマスって　{{ruby charSpan=\"2\" value=\"ことば\"}}言葉には\n{{ruby charSpan=\"1\" value=\"う\"}}浮かれちゃうんだから　{{ruby charSpan=\"3\" value=\"ふしぎ\"}}不思議さ！\n{{anim id=\"5\"}}かくいう　ウチも{{delay frames=\"8\"}}・{{delay frames=\"8\"}}・{{delay frames=\"8\"}}・{{delay frames=\"20\"}}\nうれしさを　かくしきれないよ！{{delay frames=\"20\"}}\n{{fun_00070005 arg=\"\"}}！"
  },
  {
    "label": "025",
    "text": "{{anim id=\"37\"}}さぁて{{delay frames=\"8\"}}・{{delay frames=\"8\"}}・{{delay frames=\"8\"}}・{{delay frames=\"20\"}}{{ruby charSpan=\"2\" value=\"あした\"}}明日は　いよいよ\n{{color id=\"2\"}}クリスマスイブ{{color id=\"65535\"}}だ！{{delay frames=\"20\"}}\n{{ruby charSpan=\"2\" value=\"じゅんび\"}}準備{{ruby charSpan=\"2\" value=\"たいそう\"}}体操　しとかなきゃね！\n{{anim id=\"35\"}}{{ruby charSpan=\"2\" value=\"ことし\"}}今年こそ　サンタの{{ruby charSpan=\"2\" value=\"しょうたい\"}}正体、\n{{ruby charSpan=\"1\" value=\"あば\"}}暴いてやるんだい！{{delay frames=\"20\"}}　{{fun_00070005 arg=\"\"}}！"
  }
]