﻿[
  {
    "label": "001",
    "text": "{{anim id=\"21\"}}{{ruby charSpan=\"2\" value=\"へや\"}}部屋の　{{ruby charSpan=\"1\" value=\"すい\"}}水そうには\n{{ruby charSpan=\"1\" value=\"こころ\"}}心を　{{ruby charSpan=\"1\" value=\"お\"}}落ち{{ruby charSpan=\"1\" value=\"つ\"}}着ける　{{ruby charSpan=\"2\" value=\"こうか\"}}効果アリって\n{{ruby charSpan=\"1\" value=\"き\"}}聞いたことあるよ\n{{anim id=\"36\"}}そこに　{{fun_00030011 arg=\"0x0000\"}}を\n{{ruby charSpan=\"1\" value=\"およ\"}}泳がせちゃうのが、{{fun_00010011 arg=\"0x0000\"}}\nらしいけどね！　{{delay frames=\"20\"}}{{fun_00070005 arg=\"\"}}！"
  },
  {
    "label": "002",
    "text": "{{anim id=\"21\"}}{{fun_00010011 arg=\"0x0000\"}}のヤツ、\n{{ruby charSpan=\"2\" value=\"ゆうめい\"}}有名な{{ruby charSpan=\"2\" value=\"かいが\"}}絵画を　{{ruby charSpan=\"1\" value=\"か\"}}買ったって\nよろこんでたけど{{delay frames=\"8\"}}・{{delay frames=\"8\"}}・{{delay frames=\"8\"}}・{{delay frames=\"20\"}}\n{{anim id=\"37\"}}アイツに、{{ruby charSpan=\"1\" value=\"え\"}}絵をかざるような\nハデな　シュミがあったなんて\n{{ruby charSpan=\"1\" value=\"おどろ\"}}驚きだよ！　{{delay frames=\"20\"}}{{fun_00070005 arg=\"\"}}！"
  },
  {
    "label": "003",
    "text": "{{anim id=\"21\"}}ウチも　{{fun_00010011 arg=\"0x0000\"}}も、\n「いやし」って　{{ruby charSpan=\"2\" value=\"ことば\"}}言葉には\n{{ruby charSpan=\"1\" value=\"よわ\"}}弱くってさ！\n{{anim id=\"37\"}}{{fun_00030011 arg=\"0x0000\"}}みたいな\nいやし{{ruby charSpan=\"2\" value=\"しょくぶつ\"}}植物には、{{ruby charSpan=\"2\" value=\"みりょく\"}}魅力を\n{{ruby charSpan=\"1\" value=\"かん\"}}感じちゃうよね！　{{delay frames=\"20\"}}{{fun_00070005 arg=\"\"}}！"
  },
  {
    "label": "004",
    "text": "{{anim id=\"37\"}}{{ruby charSpan=\"1\" value=\"いま\"}}今かかってる　この{{ruby charSpan=\"1\" value=\"きょく\"}}曲って{{delay frames=\"8\"}}・{{delay frames=\"8\"}}・{{delay frames=\"8\"}}・{{delay frames=\"20\"}}\n{{fun_00030011 arg=\"0x0100\"}}、{{delay frames=\"8\"}}だろ？\n\n{{anim id=\"5\"}}なんだか　{{fun_00010011 arg=\"0x0000\"}}らしいや！\n{{delay frames=\"20\"}}{{fun_00070005 arg=\"\"}}！"
  },
  {
    "label": "005",
    "text": "{{anim id=\"21\"}}こないだ　{{fun_00010011 arg=\"0x0000\"}}から\nおすすめの　テレビ{{ruby charSpan=\"2\" value=\"ばんぐみ\"}}番組を\n{{ruby charSpan=\"1\" value=\"おし\"}}教えて　もらったんだけどさ{{delay frames=\"8\"}}・{{delay frames=\"8\"}}・{{delay frames=\"8\"}}・{{delay frames=\"20\"}}\n{{anim id=\"36\"}}{{ruby charSpan=\"2\" value=\"いがい\"}}意外と　マニアックな{{ruby charSpan=\"2\" value=\"ばんぐみ\"}}番組が\n{{ruby charSpan=\"1\" value=\"おお\"}}多くて　びっくりしたよ！　{{delay frames=\"20\"}}{{fun_00070005 arg=\"\"}}！"
  },
  {
    "label": "006",
    "text": "{{anim id=\"21\"}}{{fun_00010011 arg=\"0x0000\"}}のヤツ、{{delay frames=\"8\"}}\n{{fun_00030011 arg=\"0x0000\"}}を\nモノにするって　{{ruby charSpan=\"2\" value=\"きあ\"}}気合い{{ruby charSpan=\"1\" value=\"はい\"}}入ってたけど{{delay frames=\"8\"}}・{{delay frames=\"8\"}}・{{delay frames=\"8\"}}・{{delay frames=\"20\"}}\n{{anim id=\"37\"}}まだ　{{ruby charSpan=\"1\" value=\"つづ\"}}続けてるのかな？\n{{delay frames=\"20\"}}{{fun_00070005 arg=\"\"}}？"
  },
  {
    "label": "007",
    "text": "{{anim id=\"37\"}}{{fun_00010011 arg=\"0x0000\"}}ってね、{{delay frames=\"8\"}}\nキッチン{{ruby charSpan=\"2\" value=\"かんけい\"}}関係の　{{ruby charSpan=\"2\" value=\"どうぐ\"}}道具に\nものすごい　くわしいんだよ！\n{{anim id=\"21\"}}こないだなんか、\n{{fun_00030011 arg=\"0x0000\"}}のことで\n1{{ruby charSpan=\"2\" value=\"じかん\"}}時間くらい　{{ruby charSpan=\"1\" value=\"はな\"}}話しこんじゃった！\n{{anim id=\"5\"}}アイツの{{ruby charSpan=\"1\" value=\"はなし\"}}話は　ハデじゃないけど、\nいつも　{{ruby charSpan=\"2\" value=\"さんこう\"}}参考になるよ！　{{delay frames=\"20\"}}{{fun_00070005 arg=\"\"}}！"
  },
  {
    "label": "008",
    "text": "{{anim id=\"11\"}}そういや　{{fun_00010011 arg=\"0x0000\"}}のヤツ、{{delay frames=\"8\"}}\n{{ruby charSpan=\"1\" value=\"おお\"}}大きなベッドは　{{ruby charSpan=\"1\" value=\"ひろ\"}}広すぎて\n{{ruby charSpan=\"1\" value=\"ねむ\"}}眠れないって　{{ruby charSpan=\"1\" value=\"い\"}}言ってたっけ{{delay frames=\"8\"}}・{{delay frames=\"8\"}}・{{delay frames=\"8\"}}・{{delay frames=\"20\"}}\n{{anim id=\"21\"}}ま、アイツのことだから\n{{ruby charSpan=\"2\" value=\"ねぞう\"}}寝相{{ruby charSpan=\"1\" value=\"わる\"}}悪くて　ベッドから\n{{ruby charSpan=\"1\" value=\"お\"}}落ちたりは　しないんだろうな、{{delay frames=\"20\"}}{{fun_00070005 arg=\"\"}}"
  },
  {
    "label": "009",
    "text": "{{fun_00040009 arg=\"0x46004700480049004A004B00\"}}"
  },
  {
    "label": "010",
    "text": "{{anim id=\"21\"}}でかいソファに　{{ruby charSpan=\"1\" value=\"ね\"}}寝っころがるより、\n{{fun_00010011 arg=\"0x0000\"}}は　{{ruby charSpan=\"2\" value=\"ひとり\"}}一人がけに\nちゃんと　{{ruby charSpan=\"1\" value=\"すわ\"}}座るイメージだよね\n{{anim id=\"36\"}}こういうこと　{{ruby charSpan=\"1\" value=\"い\"}}言うと、\nアイツ　{{ruby charSpan=\"2\" value=\"ふくざつ\"}}複雑な{{ruby charSpan=\"1\" value=\"かお\"}}顔するから\nナイショだけどさ！　{{delay frames=\"20\"}}{{fun_00070005 arg=\"\"}}！{{delay frames=\"20\"}}{{anim id=\"37\"}}"
  },
  {
    "label": "011",
    "text": "{{fun_00040009 arg=\"0x46004700480049004A004B00\"}}"
  },
  {
    "label": "012",
    "text": "{{fun_00040009 arg=\"0x46004700480049004A004B00\"}}"
  },
  {
    "label": "013",
    "text": "{{anim id=\"21\"}}{{fun_00010011 arg=\"0x0000\"}}が\n{{fun_00030011 arg=\"0x0000\"}}\n{{ruby charSpan=\"1\" value=\"か\"}}飼ってるなんて、すっごい　{{ruby charSpan=\"2\" value=\"いがい\"}}意外！\n{{anim id=\"9\"}}むしろ　アイツ、{{delay frames=\"8\"}}\nムシは　ニガテな{{ruby charSpan=\"1\" value=\"ほう\"}}方じゃ\nなかったっけ？　{{delay frames=\"20\"}}{{fun_00070005 arg=\"\"}}？"
  },
  {
    "label": "014",
    "text": "{{anim id=\"21\"}}{{ruby charSpan=\"1\" value=\"なか\"}}中　{{ruby charSpan=\"1\" value=\"み\"}}見たことは　ないけどさ、\n{{fun_00010011 arg=\"0x0000\"}}の　{{ruby charSpan=\"2\" value=\"しゅうのう\"}}収納{{ruby charSpan=\"2\" value=\"かぐ\"}}家具って\nせいとん　されてそうだよね\n{{anim id=\"43\"}}そういう　{{ruby charSpan=\"2\" value=\"せいかく\"}}性格って、\nちょっと　うらやましいな！　{{delay frames=\"20\"}}{{fun_00070005 arg=\"\"}}！"
  },
  {
    "label": "015",
    "text": "{{fun_00040009 arg=\"0x46004700480049004A004B00\"}}"
  },
  {
    "label": "016",
    "text": "{{anim id=\"11\"}}この{{ruby charSpan=\"2\" value=\"へや\"}}部屋に\n{{fun_00030011 arg=\"0x0000\"}}\n{{delay frames=\"8\"}}・{{delay frames=\"8\"}}・{{delay frames=\"8\"}}・{{delay frames=\"20\"}}{{anim id=\"37\"}}まぁ　アイツらしいか！\n{{anim id=\"36\"}}{{fun_00010011 arg=\"0x0000\"}}の　シュミって、{{delay frames=\"8\"}}\nときどき　ビミョーに\nナナメ{{ruby charSpan=\"1\" value=\"うえ\"}}上　いってるもんね！　{{delay frames=\"20\"}}{{fun_00070005 arg=\"\"}}！{{delay frames=\"40\"}}{{anim id=\"37\"}}"
  },
  {
    "label": "017",
    "text": "{{anim id=\"37\"}}あのさ、{{fun_00010011 arg=\"0x0000\"}}の\n{{ruby charSpan=\"1\" value=\"き\"}}着てる{{ruby charSpan=\"1\" value=\"ふく\"}}服って{{delay frames=\"8\"}}・{{delay frames=\"8\"}}・{{delay frames=\"8\"}}・{{delay frames=\"20\"}}{{ruby charSpan=\"1\" value=\"じつ\"}}実は\nそんなに　{{ruby charSpan=\"2\" value=\"じみ\"}}地味でも　ないんだよ！\n{{anim id=\"21\"}}どんな　ハデな{{ruby charSpan=\"1\" value=\"ふく\"}}服でも\nアイツが{{ruby charSpan=\"1\" value=\"き\"}}着ると　とたんに\n{{ruby charSpan=\"1\" value=\"お\"}}落ち{{ruby charSpan=\"1\" value=\"つ\"}}着いちゃうんだって！　{{delay frames=\"20\"}}{{fun_00070005 arg=\"\"}}！"
  },
  {
    "label": "018",
    "text": "{{fun_00040009 arg=\"0x46004700480049004A004B00\"}}"
  },
  {
    "label": "019",
    "text": "{{anim id=\"21\"}}そーいや　{{fun_00010011 arg=\"0x0000\"}}のヤツ、{{delay frames=\"8\"}}\n{{ruby charSpan=\"2\" value=\"まいあさ\"}}毎朝　{{ruby charSpan=\"1\" value=\"かがみ\"}}鏡にむかって\n{{ruby charSpan=\"1\" value=\"かお\"}}顔{{ruby charSpan=\"2\" value=\"たいそう\"}}体操してるって　{{ruby charSpan=\"1\" value=\"い\"}}言ってたっけ{{delay frames=\"8\"}}・{{delay frames=\"8\"}}・{{delay frames=\"8\"}}・{{delay frames=\"20\"}}\n{{anim id=\"37\"}}{{ruby charSpan=\"2\" value=\"こうか\"}}効果が　{{ruby charSpan=\"1\" value=\"で\"}}出てるようなら\nウチも　{{ruby charSpan=\"1\" value=\"おし\"}}教えてもらおっと！\n{{delay frames=\"20\"}}{{fun_00070005 arg=\"\"}}！"
  },
  {
    "label": "020",
    "text": "{{anim id=\"21\"}}{{ruby charSpan=\"1\" value=\"ひと\"}}人の　{{ruby charSpan=\"2\" value=\"せいかく\"}}性格ってさ、{{delay frames=\"8\"}}\n{{ruby charSpan=\"1\" value=\"いえ\"}}家の　{{ruby charSpan=\"1\" value=\"ほん\"}}本だなを　{{ruby charSpan=\"1\" value=\"み\"}}見れば\n{{ruby charSpan=\"2\" value=\"いっぱつ\"}}一発で　わかるんだって！\n{{anim id=\"37\"}}{{fun_00010011 arg=\"0x0000\"}}なんか　さすがだね！{{delay frames=\"20\"}}\n50{{ruby charSpan=\"2\" value=\"おんじゅん\"}}音順に　{{ruby charSpan=\"1\" value=\"なら\"}}並べるなんて、\n{{ruby charSpan=\"1\" value=\"なみ\"}}並の{{ruby charSpan=\"1\" value=\"こま\"}}細かさじゃ　できないよ！　{{delay frames=\"20\"}}{{fun_00070005 arg=\"\"}}！"
  },
  {
    "label": "021",
    "text": "{{anim id=\"37\"}}{{fun_00010011 arg=\"0x0000\"}}って　けっこう\n{{ruby charSpan=\"1\" value=\"なん\"}}何にでも　のめり{{ruby charSpan=\"1\" value=\"こ\"}}込んじゃう\nタイプなんだよね\n{{anim id=\"36\"}}そうじ　してる{{ruby charSpan=\"1\" value=\"とき\"}}時とか、\n{{ruby charSpan=\"2\" value=\"しゅうちゅう\"}}集中しすぎてて　ちょっと\nコワいもん！　{{delay frames=\"20\"}}{{fun_00070005 arg=\"\"}}！{{delay frames=\"40\"}}{{anim id=\"37\"}}"
  },
  {
    "label": "022",
    "text": "{{anim id=\"21\"}}{{fun_00010011 arg=\"0x0000\"}}が　{{ruby charSpan=\"1\" value=\"い\"}}言ってたんだけど\n{{delay frames=\"8\"}}・{{delay frames=\"8\"}}・{{delay frames=\"8\"}}・{{delay frames=\"20\"}}かせきは　お{{ruby charSpan=\"1\" value=\"まも\"}}守りとしても\n{{ruby charSpan=\"1\" value=\"つか\"}}使えるって、ホント？\n{{anim id=\"11\"}}う～ん{{delay frames=\"8\"}}・{{delay frames=\"8\"}}・{{delay frames=\"8\"}}・{{delay frames=\"20\"}}\n{{ruby charSpan=\"1\" value=\"い\"}}言われれば　そんな{{ruby charSpan=\"1\" value=\"き\"}}気が\nしないでもないけど、{{delay frames=\"20\"}}{{fun_00070005 arg=\"\"}}"
  },
  {
    "label": "023",
    "text": "{{anim id=\"21\"}}{{fun_00010011 arg=\"0x0000\"}}が　{{ruby charSpan=\"1\" value=\"も\"}}持ってる\n{{fun_00030011 arg=\"0x0000\"}}{{delay frames=\"8\"}}・{{delay frames=\"8\"}}・{{delay frames=\"8\"}}・{{delay frames=\"20\"}}\n{{ruby charSpan=\"1\" value=\"はや\"}}早く　おひろめ　してくんないかな？"
  },
  {
    "label": "024",
    "text": "{{fun_00040009 arg=\"0x46004700480049004A004B00\"}}"
  },
  {
    "label": "025",
    "text": "{{fun_00040009 arg=\"0x46004700480049004A004B00\"}}"
  },
  {
    "label": "026",
    "text": "{{anim id=\"33\"}}こういっちゃ　なんだけど、\n{{fun_00010011 arg=\"0x0000\"}}の　{{ruby charSpan=\"1\" value=\"はな\"}}花の　{{ruby charSpan=\"2\" value=\"せんせい\"}}先生は\nウチなんだよ！\n{{anim id=\"21\"}}「これでいいか？」って\n{{ruby charSpan=\"1\" value=\"き\"}}聞いてくるから、うんうん\nうなずいてる　だけだけどね！　{{delay frames=\"20\"}}{{fun_00070005 arg=\"\"}}！"
  },
  {
    "label": "027",
    "text": "{{fun_00040009 arg=\"0x46004700480049004A004B00\"}}"
  },
  {
    "label": "028",
    "text": "{{fun_00040009 arg=\"0x46004700480049004A004B00\"}}"
  },
  {
    "label": "029",
    "text": "{{fun_00040009 arg=\"0x46004700480049004A004B00\"}}"
  },
  {
    "label": "030",
    "text": "{{anim id=\"11\"}}{{fun_00010011 arg=\"0x0000\"}}って　{{ruby charSpan=\"1\" value=\"むかし\"}}昔は、\nその{{ruby charSpan=\"1\" value=\"みち\"}}道で　うでをならした\nゲーマーだったらしい{{delay frames=\"8\"}}・{{delay frames=\"8\"}}・{{delay frames=\"8\"}}・{{delay frames=\"20\"}}\n{{anim id=\"21\"}}じゃなきゃ　{{ruby charSpan=\"2\" value=\"ふつう\"}}普通、{{ruby charSpan=\"1\" value=\"いえ\"}}家のなかに\n{{fun_00030011 arg=\"0x0000\"}}なんて\nあるわけ　ないもんね！　{{delay frames=\"20\"}}{{fun_00070005 arg=\"\"}}！"
  },
  {
    "label": "031",
    "text": "{{fun_00040009 arg=\"0x46004700480049004A004B00\"}}"
  },
  {
    "label": "032",
    "text": "{{fun_00040009 arg=\"0x46004700480049004A004B00\"}}"
  },
  {
    "label": "033",
    "text": "{{anim id=\"37\"}}そんなことより、{{fun_00010011 arg=\"0x0000\"}}の\nぼんさいの　うでまえは\nちょっとしたモンだよね！\n{{anim id=\"21\"}}あの{{ruby charSpan=\"1\" value=\"わか\"}}若さで\n{{fun_00030011 arg=\"0x0000\"}}を　{{ruby charSpan=\"1\" value=\"そだ\"}}育ててるとは\n{{ruby charSpan=\"1\" value=\"たい\"}}大したもんだよ！　{{delay frames=\"20\"}}{{fun_00070005 arg=\"\"}}！"
  },
  {
    "label": "034",
    "text": "{{fun_00040009 arg=\"0x46004700480049004A004B00\"}}"
  },
  {
    "label": "035",
    "text": "{{anim id=\"21\"}}{{fun_00010011 arg=\"0x0000\"}}の{{ruby charSpan=\"2\" value=\"へや\"}}部屋に\n{{fun_00030011 arg=\"0x0000\"}}なんか\n{{ruby charSpan=\"1\" value=\"お\"}}置いてあると{{delay frames=\"8\"}}・{{delay frames=\"8\"}}・{{delay frames=\"8\"}}・{{delay frames=\"20\"}}ドキっとしちゃうな\n{{anim id=\"27\"}}アイツの　{{ruby charSpan=\"1\" value=\"ひと\"}}人の{{ruby charSpan=\"1\" value=\"よ\"}}好さに　{{ruby charSpan=\"1\" value=\"つ\"}}付け{{ruby charSpan=\"1\" value=\"こ\"}}込んで\nめんどう　{{ruby charSpan=\"1\" value=\"お\"}}起こすやつは、\n{{ruby charSpan=\"1\" value=\"おお\"}}多いからね！　{{delay frames=\"20\"}}{{fun_00070005 arg=\"\"}}！"
  },
  {
    "label": "036",
    "text": "{{fun_00040009 arg=\"0x46004700480049004A004B00\"}}"
  },
  {
    "label": "037",
    "text": "{{anim id=\"10\"}}{{fun_00010011 arg=\"0x0000\"}}の{{ruby charSpan=\"2\" value=\"へや\"}}部屋に\n{{fun_00030011 arg=\"0x0000\"}}が　あるなんて\n{{delay frames=\"8\"}}・{{delay frames=\"8\"}}・{{delay frames=\"8\"}}・{{delay frames=\"20\"}}ちょっと　コワイな\n{{anim id=\"21\"}}ウラで　{{ruby charSpan=\"1\" value=\"かく\"}}隠れて\n{{ruby charSpan=\"2\" value=\"れんしゅう\"}}練習するのとか、\nすごい　{{ruby charSpan=\"2\" value=\"とくい\"}}得意そうだもん！　{{delay frames=\"20\"}}{{fun_00070005 arg=\"\"}}！"
  },
  {
    "label": "038",
    "text": "{{anim id=\"9\"}}{{delay frames=\"8\"}}・{{delay frames=\"8\"}}・{{delay frames=\"8\"}}・{{delay frames=\"20\"}}この{{ruby charSpan=\"2\" value=\"へや\"}}部屋に\n{{fun_00030011 arg=\"0x0000\"}}が\n{{ruby charSpan=\"1\" value=\"お\"}}置いてあるんだろ？\n{{anim id=\"11\"}}{{fun_00010011 arg=\"0x0000\"}}のヤツ{{delay frames=\"8\"}}・{{delay frames=\"8\"}}・{{delay frames=\"8\"}}・{{delay frames=\"20\"}}\nえいきょう　されやすいから\n{{ruby charSpan=\"2\" value=\"しんぱい\"}}心配だよ、{{delay frames=\"20\"}}{{fun_00070005 arg=\"\"}}"
  },
  {
    "label": "039",
    "text": "{{anim id=\"21\"}}{{fun_00010011 arg=\"0x0000\"}}が　{{ruby charSpan=\"1\" value=\"なに\"}}何をしようと、\nウチはおどろかないよ{{delay frames=\"8\"}}・{{delay frames=\"8\"}}・{{delay frames=\"8\"}}・{{delay frames=\"20\"}}{{anim id=\"6\"}}アイツの{{ruby charSpan=\"2\" value=\"こうどう\"}}行動は\nいつだって　{{ruby charSpan=\"1\" value=\"すじ\"}}筋が　{{ruby charSpan=\"1\" value=\"とお\"}}通ってるからね！\n{{anim id=\"37\"}}いきなり　{{fun_00030011 arg=\"0x0000\"}}が\n{{ruby charSpan=\"2\" value=\"へや\"}}部屋に{{ruby charSpan=\"1\" value=\"お\"}}置いてあっても、\nなんか　{{ruby charSpan=\"2\" value=\"りゆう\"}}理由があるのさ！　{{delay frames=\"20\"}}{{fun_00070005 arg=\"\"}}！"
  },
  {
    "label": "040",
    "text": "{{fun_00040009 arg=\"0x46004700480049004A004B00\"}}"
  },
  {
    "label": "041",
    "text": "{{fun_00040009 arg=\"0x46004700480049004A004B00\"}}"
  },
  {
    "label": "042",
    "text": "{{fun_00040009 arg=\"0x46004700480049004A004B00\"}}"
  },
  {
    "label": "043",
    "text": "{{fun_00040009 arg=\"0x46004700480049004A004B00\"}}"
  },
  {
    "label": "044",
    "text": "{{fun_00040009 arg=\"0x46004700480049004A004B00\"}}"
  },
  {
    "label": "045",
    "text": ""
  },
  {
    "label": "046",
    "text": ""
  },
  {
    "label": "047",
    "text": ""
  },
  {
    "label": "048",
    "text": ""
  },
  {
    "label": "049",
    "text": ""
  },
  {
    "label": "050",
    "text": ""
  },
  {
    "label": "051",
    "text": ""
  },
  {
    "label": "052",
    "text": ""
  },
  {
    "label": "053",
    "text": ""
  },
  {
    "label": "054",
    "text": ""
  },
  {
    "label": "055",
    "text": ""
  },
  {
    "label": "056",
    "text": ""
  },
  {
    "label": "057",
    "text": ""
  },
  {
    "label": "058",
    "text": ""
  },
  {
    "label": "059",
    "text": ""
  },
  {
    "label": "060",
    "text": ""
  },
  {
    "label": "061",
    "text": ""
  },
  {
    "label": "062",
    "text": ""
  },
  {
    "label": "063",
    "text": ""
  },
  {
    "label": "064",
    "text": ""
  },
  {
    "label": "065",
    "text": ""
  },
  {
    "label": "066",
    "text": ""
  },
  {
    "label": "067",
    "text": ""
  },
  {
    "label": "068",
    "text": ""
  },
  {
    "label": "069",
    "text": ""
  },
  {
    "label": "070",
    "text": "{{anim id=\"37\"}}この{{ruby charSpan=\"1\" value=\"うち\"}}家の　ニオイ{{delay frames=\"8\"}}・{{delay frames=\"8\"}}・{{delay frames=\"8\"}}・{{delay frames=\"20\"}}\nほんと　{{fun_00010011 arg=\"0x0000\"}}って\n{{ruby charSpan=\"1\" value=\"かん\"}}感じだな～！　{{delay frames=\"20\"}}{{fun_00070005 arg=\"\"}}！"
  },
  {
    "label": "071",
    "text": "{{anim id=\"21\"}}ふんふん{{delay frames=\"20\"}}　なかなか\n{{ruby charSpan=\"2\" value=\"きょうみ\"}}興味{{ruby charSpan=\"1\" value=\"ぶか\"}}深い　{{ruby charSpan=\"2\" value=\"かぐ\"}}家具が\n{{ruby charSpan=\"1\" value=\"お\"}}置いてあるね{{delay frames=\"8\"}}・{{delay frames=\"8\"}}・{{delay frames=\"8\"}}・{{delay frames=\"20\"}}{{fun_00070005 arg=\"\"}}！"
  },
  {
    "label": "072",
    "text": "{{anim id=\"35\"}}ふふふ{{delay frames=\"8\"}}・{{delay frames=\"8\"}}・{{delay frames=\"8\"}}・{{delay frames=\"20\"}}この{{ruby charSpan=\"2\" value=\"へや\"}}部屋は　もう\n{{ruby charSpan=\"2\" value=\"かんせい\"}}完成{{ruby charSpan=\"1\" value=\"けい\"}}形なのかな？　{{delay frames=\"20\"}}{{fun_00070005 arg=\"\"}}？"
  },
  {
    "label": "073",
    "text": "{{anim id=\"21\"}}どんなに　おなじみの\n{{ruby charSpan=\"2\" value=\"かぐ\"}}家具を　{{ruby charSpan=\"1\" value=\"お\"}}置いても{{delay frames=\"8\"}}・{{delay frames=\"8\"}}・{{delay frames=\"8\"}}・{{delay frames=\"20\"}}{{anim id=\"37\"}}やっぱり\n{{ruby charSpan=\"1\" value=\"す\"}}住んでるヤツの　{{ruby charSpan=\"2\" value=\"せいかく\"}}性格、{{ruby charSpan=\"1\" value=\"で\"}}出るね！"
  },
  {
    "label": "074",
    "text": "{{anim id=\"21\"}}ふふん{{delay frames=\"8\"}}・{{delay frames=\"8\"}}・{{delay frames=\"8\"}}・{{delay frames=\"20\"}}\n{{fun_00010011 arg=\"0x0000\"}}らしく、ちゃんと\nそうじ　してるじゃん？"
  },
  {
    "label": "075",
    "text": "{{anim id=\"26\"}}へへ{{delay frames=\"8\"}}・{{delay frames=\"8\"}}・{{delay frames=\"8\"}}・{{delay frames=\"20\"}}\n{{ruby charSpan=\"1\" value=\"ひと\"}}人んちに　おジャマすると\nやっぱ　{{ruby charSpan=\"1\" value=\"う\"}}浮き{{ruby charSpan=\"1\" value=\"あし\"}}足だっちゃうね、{{delay frames=\"20\"}}{{fun_00070005 arg=\"\"}}"
  },
  {
    "label": "076",
    "text": ""
  },
  {
    "label": "077",
    "text": ""
  },
  {
    "label": "078",
    "text": ""
  },
  {
    "label": "079",
    "text": ""
  },
  {
    "label": "080",
    "text": ""
  },
  {
    "label": "081",
    "text": ""
  },
  {
    "label": "082",
    "text": ""
  },
  {
    "label": "083",
    "text": ""
  },
  {
    "label": "084",
    "text": ""
  }
]