﻿[
  {
    "label": "001",
    "text": "{{delay frames=\"20\"}}・{{delay frames=\"20\"}}・{{delay frames=\"20\"}}・{{delay frames=\"40\"}}{{anim id=\"37\"}}はぁ！{{delay frames=\"40\"}}\n{{ruby charSpan=\"1\" value=\"き\"}}効いてるような{{ruby charSpan=\"1\" value=\"き\"}}気が　してきたよ！{{delay frames=\"40\"}}\nサンキュー！　{{delay frames=\"20\"}}{{fun_00070005 arg=\"\"}}！"
  },
  {
    "label": "002",
    "text": "{{delay frames=\"20\"}}・{{delay frames=\"20\"}}・{{delay frames=\"20\"}}・{{delay frames=\"40\"}}{{anim id=\"9\"}}まずっ！{{delay frames=\"40\"}}\n{{anim id=\"10\"}}いつ{{ruby charSpan=\"1\" value=\"の\"}}飲んでも　なれないね\n{{delay frames=\"8\"}}・{{delay frames=\"8\"}}・{{delay frames=\"8\"}}・{{delay frames=\"20\"}}この{{ruby charSpan=\"1\" value=\"あじ\"}}味は！\n{{anim id=\"37\"}}でもなんか　{{ruby charSpan=\"2\" value=\"げんき\"}}元気わいてきた！{{delay frames=\"20\"}}\nサンキュー！　{{delay frames=\"20\"}}{{fun_00070005 arg=\"\"}}！"
  },
  {
    "label": "003",
    "text": "{{delay frames=\"20\"}}・{{delay frames=\"20\"}}・{{delay frames=\"20\"}}・{{delay frames=\"40\"}}{{anim id=\"37\"}}へへへ！{{delay frames=\"20\"}}\nなんだい　じっと{{ruby charSpan=\"1\" value=\"み\"}}見て！{{delay frames=\"40\"}}\n{{anim id=\"39\"}}{{ruby charSpan=\"1\" value=\"て\"}}照れるじゃないか{{delay frames=\"8\"}}・{{delay frames=\"8\"}}・{{delay frames=\"8\"}}・{{delay frames=\"20\"}}\n{{anim id=\"0\"}}でも、なんか\n{{ruby charSpan=\"1\" value=\"き\"}}効いてる　{{ruby charSpan=\"1\" value=\"き\"}}気がするよ！{{delay frames=\"20\"}}\n{{anim id=\"37\"}}サンキュー！{{delay frames=\"20\"}}　{{fun_00070005 arg=\"\"}}！"
  },
  {
    "label": "004",
    "text": "{{delay frames=\"20\"}}・{{delay frames=\"20\"}}・{{delay frames=\"20\"}}・{{delay frames=\"40\"}}{{anim id=\"9\"}}ふー！{{delay frames=\"40\"}}\n{{anim id=\"21\"}}こういうのって　のど{{ruby charSpan=\"1\" value=\"いた\"}}痛くても\n{{ruby charSpan=\"1\" value=\"の\"}}飲めるね{{delay frames=\"8\"}}・{{delay frames=\"8\"}}・{{delay frames=\"8\"}}・{{delay frames=\"20\"}}{{ruby charSpan=\"3\" value=\"ふしぎ\"}}不思議だ！\n{{anim id=\"37\"}}でも、ちょっと\n{{ruby charSpan=\"2\" value=\"げんき\"}}元気になったかも{{delay frames=\"8\"}}・{{delay frames=\"8\"}}・{{delay frames=\"8\"}}・{{delay frames=\"20\"}}{{fun_00070005 arg=\"\"}}！"
  },
  {
    "label": "005",
    "text": "{{delay frames=\"20\"}}・{{delay frames=\"20\"}}・{{delay frames=\"20\"}}・{{delay frames=\"40\"}}{{anim id=\"9\"}}げふっ！{{fun_00010007 arg=\"\"}}\n{{anim id=\"18\"}}あ！　{{delay frames=\"20\"}}{{ruby charSpan=\"1\" value=\"ちが\"}}違うよ！{{delay frames=\"40\"}}\n{{ruby charSpan=\"1\" value=\"いま\"}}今のは　カゼが{{ruby charSpan=\"1\" value=\"なお\"}}治った{{ruby charSpan=\"1\" value=\"おと\"}}音だよっ！\n{{anim id=\"13\"}}わ～！{{delay frames=\"30\"}}　{{ruby charSpan=\"1\" value=\"は\"}}恥ずかしい！{{delay frames=\"20\"}}\n{{delay frames=\"20\"}}{{fun_00070005 arg=\"\"}}！{{delay frames=\"40\"}}{{anim id=\"9\"}}"
  },
  {
    "label": "006",
    "text": "{{delay frames=\"20\"}}・{{delay frames=\"20\"}}・{{delay frames=\"20\"}}・{{delay frames=\"40\"}}{{anim id=\"9\"}}ふぃ～！{{delay frames=\"40\"}}\n{{anim id=\"21\"}}なんだか　{{ruby charSpan=\"1\" value=\"あじ\"}}味わかんないや{{delay frames=\"8\"}}・{{delay frames=\"8\"}}・{{delay frames=\"8\"}}・{{delay frames=\"20\"}}\n\n{{anim id=\"37\"}}でも、ありがとう　{{fun_00080005 arg=\"\"}}！\nきっと　{{ruby charSpan=\"2\" value=\"げんき\"}}元気になるよ！{{delay frames=\"20\"}}　{{fun_00070005 arg=\"\"}}！"
  },
  {
    "label": "007",
    "text": "{{delay frames=\"20\"}}・{{delay frames=\"20\"}}・{{delay frames=\"20\"}}・{{delay frames=\"40\"}}{{anim id=\"9\"}}うえ{{fun_00010007 arg=\"\"}}\n{{anim id=\"20\"}}{{delay frames=\"20\"}}まずい{{delay frames=\"8\"}}・{{delay frames=\"8\"}}・{{delay frames=\"8\"}}・{{delay frames=\"20\"}}けど{{delay frames=\"8\"}}・{{delay frames=\"8\"}}・{{delay frames=\"8\"}}・{{delay frames=\"10\"}}\n{{ruby charSpan=\"1\" value=\"き\"}}効きそうな{{ruby charSpan=\"1\" value=\"あじ\"}}味{{delay frames=\"8\"}}・{{delay frames=\"8\"}}・{{delay frames=\"8\"}}・{{delay frames=\"20\"}}{{fun_00070005 arg=\"\"}}"
  },
  {
    "label": "008",
    "text": "{{anim id=\"20\"}}うう{{delay frames=\"8\"}}・{{delay frames=\"8\"}}・{{delay frames=\"8\"}}・{{delay frames=\"40\"}}\nめんどうかけて、{{delay frames=\"8\"}}ごめんよ{{delay frames=\"8\"}}・{{delay frames=\"8\"}}・{{delay frames=\"8\"}}・{{delay frames=\"20\"}}"
  },
  {
    "label": "009",
    "text": "{{anim id=\"20\"}}うう{{delay frames=\"8\"}}・{{delay frames=\"8\"}}・{{delay frames=\"8\"}}・{{delay frames=\"40\"}}\nありがとね{{delay frames=\"8\"}}・{{delay frames=\"8\"}}・{{delay frames=\"8\"}}・{{delay frames=\"20\"}}{{fun_00070005 arg=\"\"}}"
  }
]