﻿[
  {
    "label": "001",
    "text": "{{anim id=\"15\"}}ちょっと　{{fun_00080005 arg=\"\"}}！{{delay frames=\"40\"}}\n{{anim id=\"9\"}}{{ruby charSpan=\"1\" value=\"なに\"}}何　ひとりで、すずしい{{ruby charSpan=\"1\" value=\"かお\"}}顔\nしてんのさ！\n{{anim id=\"13\"}}アンタが　{{ruby charSpan=\"1\" value=\"み\"}}見つけてくれないから、\nウチ　ずっとあそこで\n{{ruby charSpan=\"1\" value=\"かく\"}}隠れてたんだよ！{{delay frames=\"40\"}}{{anim id=\"9\"}}"
  },
  {
    "label": "002",
    "text": "{{anim id=\"15\"}}{{fun_00080005 arg=\"\"}}？{{delay frames=\"40\"}}\nアンタ　どこ{{ruby charSpan=\"1\" value=\"い\"}}行ってたんだい？\n\n{{anim id=\"6\"}}かくれんぼ　{{ruby charSpan=\"1\" value=\"お\"}}終わるなら、\nそう　{{ruby charSpan=\"1\" value=\"い\"}}言ってよね！{{delay frames=\"20\"}}\n{{anim id=\"6\"}}アンタのこと　ずっと{{ruby charSpan=\"1\" value=\"ま\"}}待ってたんだから！"
  },
  {
    "label": "003",
    "text": "{{anim id=\"15\"}}ちょっと　{{fun_00080005 arg=\"\"}}！{{delay frames=\"40\"}}\n{{delay frames=\"8\"}}・{{delay frames=\"8\"}}・{{delay frames=\"8\"}}・{{delay frames=\"20\"}}{{anim id=\"7\"}}{{ruby charSpan=\"1\" value=\"おそ\"}}遅いよっ！{{delay frames=\"10\"}}\nどんだけ{{ruby charSpan=\"1\" value=\"ま\"}}待ったと　{{ruby charSpan=\"1\" value=\"おも\"}}思ってんだい？！\n{{anim id=\"6\"}}オニがいない　かくれんぼ　ほど\nむなしいもんは　ないよ！"
  },
  {
    "label": "004",
    "text": "{{fun_00010009 arg=\"0x050006000700\"}}"
  },
  {
    "label": "005",
    "text": "{{anim id=\"10\"}}かくれんぼで　オニが\n{{ruby charSpan=\"1\" value=\"さが\"}}探さないなんて{{delay frames=\"8\"}}・{{delay frames=\"8\"}}・{{delay frames=\"8\"}}・{{delay frames=\"20\"}}いくらなんでも\nひどい　{{ruby charSpan=\"2\" value=\"しう\"}}仕打ちだよ、{{delay frames=\"20\"}}{{fun_00070005 arg=\"\"}}{{fun_0003000B arg=\"0x01CD\"}}"
  },
  {
    "label": "006",
    "text": "{{anim id=\"10\"}}はぁ{{delay frames=\"8\"}}・{{delay frames=\"8\"}}・{{delay frames=\"8\"}}・{{delay frames=\"20\"}}{{ruby charSpan=\"2\" value=\"きょう\"}}今日こそはって\n{{ruby charSpan=\"2\" value=\"きあ\"}}気合い　{{ruby charSpan=\"1\" value=\"い\"}}入れてたのが\nアダになったな、{{delay frames=\"20\"}}{{fun_00070005 arg=\"\"}}{{fun_0003000B arg=\"0x01CD\"}}"
  },
  {
    "label": "007",
    "text": "{{anim id=\"12\"}}オニになったやつは、\n{{ruby charSpan=\"2\" value=\"せきにん\"}}責任　{{ruby charSpan=\"2\" value=\"じゅうだい\"}}重大ってこと{{delay frames=\"8\"}}・{{delay frames=\"8\"}}・{{delay frames=\"8\"}}・{{delay frames=\"20\"}}\n{{ruby charSpan=\"1\" value=\"おぼ\"}}覚えておいて！　{{delay frames=\"20\"}}{{fun_00070005 arg=\"\"}}！{{fun_0003000B arg=\"0x01CD\"}}"
  }
]