﻿[
  {
    "label": "001",
    "text": "{{fun_0001000C arg=\"\"}}{{fun_0008000C arg=\"\"}}{{delay frames=\"20\"}}{{anim id=\"16\"}}わぁ！{{delay frames=\"20\"}}\nさっそく　{{ruby charSpan=\"1\" value=\"き\"}}来てくれたんだね！{{delay frames=\"40\"}}{{anim id=\"0\"}}{{delay frames=\"20\"}}\n{{fun_0001000C arg=\"\"}}{{fun_0003000C arg=\"\"}}{{anim id=\"1\"}}{{fun_00080005 arg=\"\"}}！{{delay frames=\"20\"}}　ありがとう！{{fun_0009000C arg=\"\"}}"
  },
  {
    "label": "002",
    "text": "{{fun_0001000C arg=\"\"}}{{fun_0008000C arg=\"\"}}{{delay frames=\"20\"}}{{anim id=\"32\"}}あっ！{{delay frames=\"20\"}}　いらっしゃーい！{{delay frames=\"20\"}}\n{{ruby charSpan=\"1\" value=\"ま\"}}待ってたよ！{{fun_0009000C arg=\"\"}}"
  },
  {
    "label": "003",
    "text": "{{fun_0001000C arg=\"\"}}{{fun_0008000C arg=\"\"}}{{delay frames=\"20\"}}{{anim id=\"15\"}}おっ！{{delay frames=\"20\"}}　すごい　すごい！{{delay frames=\"40\"}}{{anim id=\"0\"}}\n{{fun_00080005 arg=\"\"}}ってば、{{ruby charSpan=\"2\" value=\"ほんとう\"}}本当に\n{{ruby charSpan=\"1\" value=\"つ\"}}連れてきて　くれたんだ！{{fun_0009000C arg=\"\"}}"
  },
  {
    "label": "004",
    "text": "{{fun_0001000C arg=\"\"}}{{fun_0008000C arg=\"\"}}{{delay frames=\"20\"}}{{anim id=\"15\"}}やっと{{ruby charSpan=\"1\" value=\"き\"}}来た！{{delay frames=\"40\"}}\n{{anim id=\"13\"}}もう！{{delay frames=\"20\"}}　{{ruby charSpan=\"2\" value=\"ふたり\"}}二人して　{{ruby charSpan=\"1\" value=\"おそ\"}}遅いよー！{{delay frames=\"20\"}}\nあきらめるとこだったよ！{{delay frames=\"40\"}}{{anim id=\"9\"}}\n{{anim id=\"0\"}}でも{{delay frames=\"8\"}}・{{delay frames=\"8\"}}・{{delay frames=\"8\"}}・{{delay frames=\"20\"}}{{anim id=\"37\"}}いらっしゃい！{{fun_0009000C arg=\"\"}}"
  },
  {
    "label": "005",
    "text": "{{fun_0000000C arg=\"\"}}{{fun_0007000C arg=\"\"}}{{fun_0001000C arg=\"\"}}{{fun_0008000C arg=\"\"}}{{fun_0002000C arg=\"\"}}{{fun_0006000C arg=\"\"}}{{anim id=\"32\"}}オーッス　{{fun_00010011 arg=\"0x0000\"}}！{{delay frames=\"40\"}}\n{{anim id=\"0\"}}{{ruby charSpan=\"1\" value=\"き\"}}来たぞー！\n\n{{anim id=\"1\"}}わざわざ　{{fun_00080005 arg=\"\"}}を\nよこすなんて{{delay frames=\"8\"}}・{{delay frames=\"8\"}}・{{delay frames=\"8\"}}・{{delay frames=\"20\"}}オマエ{{delay frames=\"8\"}}　やるなー！{{delay frames=\"40\"}}\n{{anim id=\"23\"}}{{ruby charSpan=\"1\" value=\"なん\"}}何の　{{ruby charSpan=\"2\" value=\"しょうぶ\"}}勝負だ？！{{fun_0009000C arg=\"\"}}"
  },
  {
    "label": "006",
    "text": "{{fun_0000000C arg=\"\"}}{{fun_0007000C arg=\"\"}}{{fun_0001000C arg=\"\"}}{{fun_0008000C arg=\"\"}}{{fun_0002000C arg=\"\"}}{{fun_0006000C arg=\"\"}}{{delay frames=\"20\"}}{{anim id=\"32\"}}オーッス、{{fun_00010011 arg=\"0x0000\"}}！{{delay frames=\"20\"}}\n{{ruby charSpan=\"2\" value=\"きょう\"}}今日は　{{ruby charSpan=\"1\" value=\"なん\"}}何の　{{ruby charSpan=\"2\" value=\"しょうぶ\"}}勝負だ？\n\n{{anim id=\"5\"}}オイラは　もう、\nじゅんびばんたんで　{{ruby charSpan=\"1\" value=\"き\"}}来たぞー！{{fun_0009000C arg=\"\"}}"
  },
  {
    "label": "007",
    "text": "{{fun_0000000C arg=\"\"}}{{fun_0007000C arg=\"\"}}{{fun_0001000C arg=\"\"}}{{fun_0008000C arg=\"\"}}{{fun_0002000C arg=\"\"}}{{fun_0006000C arg=\"\"}}{{anim id=\"32\"}}たのもー！{{delay frames=\"20\"}}\n{{ruby charSpan=\"1\" value=\"き\"}}来たぞ！　{{fun_00010011 arg=\"0x0000\"}}！\n\nこういうことも　あろうかと{{ruby charSpan=\"1\" value=\"おも\"}}思って\n{{ruby charSpan=\"2\" value=\"きのう\"}}昨日　よけいに\nイメトレ　しておいたんだー！\n{{anim id=\"23\"}}で？{{delay frames=\"20\"}}　どうやって　{{ruby charSpan=\"2\" value=\"しょうぶ\"}}勝負する？{{fun_0009000C arg=\"\"}}"
  },
  {
    "label": "008",
    "text": ""
  },
  {
    "label": "009",
    "text": "{{fun_0000000C arg=\"\"}}{{fun_0005000C arg=\"\"}}{{fun_0001000C arg=\"\"}}{{delay frames=\"8\"}}{{anim id=\"21\"}}まぁまぁ　{{fun_00010011 arg=\"0x0100\"}}、\nちょっと　{{ruby charSpan=\"1\" value=\"お\"}}落ち{{ruby charSpan=\"1\" value=\"つ\"}}着いてよ！{{delay frames=\"20\"}}\n{{anim id=\"37\"}}{{ruby charSpan=\"2\" value=\"きょう\"}}今日は　そんな {{ruby charSpan=\"1\" value=\"はなし\"}}話じゃないんだ！\n{{anim id=\"0\"}}{{ruby charSpan=\"1\" value=\"じつ\"}}実は、{{ruby charSpan=\"1\" value=\"だれ\"}}誰から{{ruby charSpan=\"1\" value=\"か\"}}借りたか\nわかんなくなった　{{ruby charSpan=\"1\" value=\"もの\"}}物があってさ！{{delay frames=\"40\"}}\n{{anim id=\"23\"}}これ　アンタのじゃない？{{fun_0009000C arg=\"\"}}"
  },
  {
    "label": "010",
    "text": "{{fun_0000000C arg=\"\"}}{{fun_0007000C arg=\"\"}}{{fun_0002000C arg=\"\"}}{{delay frames=\"8\"}}・{{delay frames=\"8\"}}・{{delay frames=\"8\"}}・{{delay frames=\"20\"}}{{anim id=\"15\"}}あっ？！{{delay frames=\"20\"}}\nたしかに　これは、{{delay frames=\"8\"}}\nオイラのだ！\n{{anim id=\"2\"}}って　いうか、\nかしてたことすら　わすれてたぞー！{{delay frames=\"40\"}}{{anim id=\"37\"}}\n\n{{anim id=\"15\"}}もしかして、\n{{ruby charSpan=\"1\" value=\"よう\"}}用って　これだけか？{{delay frames=\"40\"}}\n{{delay frames=\"8\"}}・{{delay frames=\"8\"}}・{{delay frames=\"8\"}}・{{delay frames=\"20\"}}{{anim id=\"1\"}}なーんだ！"
  },
  {
    "label": "011",
    "text": "{{fun_0000000C arg=\"\"}}{{fun_0005000C arg=\"\"}}{{fun_0001000C arg=\"\"}}{{delay frames=\"8\"}}{{anim id=\"36\"}}まぁまぁ、そんな\nコーフンしないで　{{ruby charSpan=\"1\" value=\"き\"}}聞いてよ！{{delay frames=\"40\"}}\n{{anim id=\"0\"}}{{ruby charSpan=\"2\" value=\"こんかい\"}}今回は　そういう{{ruby charSpan=\"1\" value=\"はなし\"}}話じゃ　ないんだ！\n{{anim id=\"35\"}}{{ruby charSpan=\"1\" value=\"じつ\"}}実はさ{{delay frames=\"8\"}}・{{delay frames=\"8\"}}・{{delay frames=\"8\"}}・{{delay frames=\"20\"}}\nアンタに　{{ruby charSpan=\"1\" value=\"たの\"}}頼まれてた、{{delay frames=\"20\"}}アレ！{{delay frames=\"40\"}}\n{{ruby charSpan=\"1\" value=\"て\"}}手に　{{ruby charSpan=\"1\" value=\"はい\"}}入ったんだ！{{fun_0009000C arg=\"\"}}"
  },
  {
    "label": "012",
    "text": "{{fun_0000000C arg=\"\"}}{{fun_0007000C arg=\"\"}}{{fun_0002000C arg=\"\"}}{{anim id=\"15\"}}えっ？！{{delay frames=\"20\"}}　マジで？！{{delay frames=\"40\"}}\n{{anim id=\"3\"}}{{delay frames=\"8\"}}・{{delay frames=\"8\"}}・{{delay frames=\"8\"}}・{{delay frames=\"20\"}}おーっ！{{delay frames=\"20\"}}\n{{ruby charSpan=\"2\" value=\"ほんもの\"}}本物だ！{{delay frames=\"20\"}}　スッゲー！{{delay frames=\"40\"}}{{anim id=\"37\"}}\n{{anim id=\"13\"}}オイラの　{{ruby charSpan=\"1\" value=\"はなし\"}}話\n{{ruby charSpan=\"1\" value=\"おぼ\"}}覚えて　くれてたなんて、{{delay frames=\"20\"}}\nオマエ{{delay frames=\"8\"}}・{{delay frames=\"8\"}}・{{delay frames=\"8\"}}・{{delay frames=\"20\"}}いいヤツだなー！{{delay frames=\"40\"}}{{anim id=\"0\"}}"
  },
  {
    "label": "013",
    "text": "{{fun_0000000C arg=\"\"}}{{fun_0005000C arg=\"\"}}{{fun_0001000C arg=\"\"}}{{delay frames=\"8\"}}{{anim id=\"27\"}}まぁ、ちょっと　{{ruby charSpan=\"1\" value=\"お\"}}落ち{{ruby charSpan=\"1\" value=\"つ\"}}着いてよ！{{delay frames=\"20\"}}\n{{ruby charSpan=\"2\" value=\"きょう\"}}今日は　そんな{{ruby charSpan=\"2\" value=\"りゆう\"}}理由で\n{{ruby charSpan=\"1\" value=\"よ\"}}呼んだんじゃ　ないんだから！\n{{anim id=\"0\"}}これ{{delay frames=\"8\"}}・{{delay frames=\"8\"}}・{{delay frames=\"8\"}}・{{delay frames=\"20\"}}\n{{anim id=\"23\"}}{{ruby charSpan=\"1\" value=\"みち\"}}道に　{{ruby charSpan=\"1\" value=\"お\"}}落ちてたんだけど、{{delay frames=\"20\"}}\n{{fun_00010011 arg=\"0x0100\"}}の　だろ？{{fun_0009000C arg=\"\"}}"
  },
  {
    "label": "014",
    "text": "{{fun_0000000C arg=\"\"}}{{fun_0007000C arg=\"\"}}{{fun_0002000C arg=\"\"}}{{delay frames=\"8\"}}・{{delay frames=\"8\"}}・{{delay frames=\"8\"}}・{{delay frames=\"20\"}}{{anim id=\"15\"}}げっ？！{{delay frames=\"20\"}}\nこの　{{fun_00030011 arg=\"0x0000\"}}、{{delay frames=\"20\"}}\nたしかに　オイラのだぞ！\n{{anim id=\"13\"}}{{ruby charSpan=\"2\" value=\"さんぽ\"}}散歩の　とちゅうで\nどっか{{ruby charSpan=\"1\" value=\"い\"}}行っちゃって　アセってたけど\n{{delay frames=\"8\"}}・{{delay frames=\"8\"}}・{{delay frames=\"8\"}}・{{delay frames=\"20\"}}{{anim id=\"0\"}}オマエが　{{ruby charSpan=\"1\" value=\"ひろ\"}}拾ってくれたのか？\n{{anim id=\"5\"}}スゲー　{{ruby charSpan=\"1\" value=\"たす\"}}助かった！{{delay frames=\"20\"}}\nサンキュー！"
  },
  {
    "label": "015",
    "text": "{{fun_0000000C arg=\"\"}}{{fun_0005000C arg=\"\"}}{{fun_0001000C arg=\"\"}}{{delay frames=\"8\"}}{{anim id=\"15\"}}ちょ、ちょっと　{{ruby charSpan=\"1\" value=\"お\"}}落ち{{ruby charSpan=\"1\" value=\"つ\"}}着いてよ！{{delay frames=\"20\"}}\n{{ruby charSpan=\"2\" value=\"こんかい\"}}今回は　{{ruby charSpan=\"2\" value=\"しょうぶ\"}}勝負とか\nそういう{{ruby charSpan=\"1\" value=\"はなし\"}}話じゃ　ないんだから！\n{{anim id=\"35\"}}{{ruby charSpan=\"1\" value=\"じつ\"}}実はさ{{delay frames=\"8\"}}・{{delay frames=\"8\"}}・{{delay frames=\"8\"}}・{{delay frames=\"20\"}}\nこないだ　アンタが　{{ruby charSpan=\"1\" value=\"い\"}}言ってた{{ruby charSpan=\"1\" value=\"ほん\"}}本、\n{{ruby charSpan=\"1\" value=\"よ\"}}読んだんだ！\n{{anim id=\"44\"}}「{{delay frames=\"20\"}}{{fun_000F0005 arg=\"0x0000\"}}たいそうの　すべて」！{{delay frames=\"40\"}}\n{{anim id=\"1\"}}けっこう　{{ruby charSpan=\"2\" value=\"おもしろ\"}}面白かった！{{fun_0009000C arg=\"\"}}"
  },
  {
    "label": "016",
    "text": "{{fun_0000000C arg=\"\"}}{{fun_0007000C arg=\"\"}}{{fun_0002000C arg=\"\"}}{{anim id=\"16\"}}おおー！　ついに　{{ruby charSpan=\"1\" value=\"よ\"}}読んだのか！{{delay frames=\"40\"}}\n{{anim id=\"0\"}}{{fun_000F0005 arg=\"0x0000\"}}の　{{ruby charSpan=\"1\" value=\"うご\"}}動きが\nどんだけすごいか　わかっただろ？\n{{anim id=\"5\"}}よーし！{{delay frames=\"20\"}}　このイキオイで\n「{{fun_000F0005 arg=\"0x0000\"}}たいそう」を\n{{fun_00050005 arg=\"\"}}{{ruby charSpan=\"1\" value=\"むら\"}}村の　{{ruby charSpan=\"2\" value=\"めいぶつ\"}}名物にするぞ！{{delay frames=\"20\"}}{{anim id=\"37\"}}"
  },
  {
    "label": "017",
    "text": "{{fun_0000000C arg=\"\"}}{{fun_0005000C arg=\"\"}}{{fun_0001000C arg=\"\"}}{{delay frames=\"8\"}}{{anim id=\"37\"}}あはは！{{delay frames=\"20\"}}\nコーフンしてるとこ　{{ruby charSpan=\"1\" value=\"わる\"}}悪いけど、\n{{ruby charSpan=\"2\" value=\"こんかい\"}}今回は　そんな{{ruby charSpan=\"1\" value=\"はなし\"}}話じゃないんだ！\n{{anim id=\"6\"}}あのさ{{delay frames=\"8\"}}・{{delay frames=\"8\"}}・{{delay frames=\"8\"}}・{{delay frames=\"20\"}}{{ruby charSpan=\"2\" value=\"こんど\"}}今度　{{ruby charSpan=\"3\" value=\"しょうてんがい\"}}商店街に\n{{fun_00110005 arg=\"0x0000\"}}の　ジムができるって\nウワサ　{{ruby charSpan=\"1\" value=\"き\"}}聞いたんだけど！\n{{anim id=\"23\"}}ホントなの？{{fun_0009000C arg=\"\"}}"
  },
  {
    "label": "018",
    "text": "{{fun_0000000C arg=\"\"}}{{fun_0007000C arg=\"\"}}{{fun_0002000C arg=\"\"}}{{anim id=\"16\"}}えっ？！{{delay frames=\"20\"}}\n{{fun_00110005 arg=\"0x0000\"}}　のジム？！{{delay frames=\"40\"}}\n{{anim id=\"1\"}}いいなー！{{delay frames=\"20\"}}　それ！\n{{anim id=\"11\"}}でも{{delay frames=\"8\"}}・{{delay frames=\"8\"}}・{{delay frames=\"8\"}}・{{delay frames=\"20\"}}\nそんな{{ruby charSpan=\"1\" value=\"はなし\"}}話　オイラは\n{{ruby charSpan=\"1\" value=\"き\"}}聞いたことないぞー？\n{{anim id=\"13\"}}{{fun_00060005 arg=\"\"}}{{ruby charSpan=\"1\" value=\"むら\"}}村　{{fun_00110005 arg=\"0x0000\"}}の{{ruby charSpan=\"1\" value=\"かい\"}}会\n{{ruby charSpan=\"2\" value=\"かいちょう\"}}会長の　オイラぬきに、\n{{ruby charSpan=\"1\" value=\"はなし\"}}話　{{ruby charSpan=\"1\" value=\"すす\"}}進むわけないし{{delay frames=\"8\"}}・{{delay frames=\"8\"}}・{{delay frames=\"8\"}}・{{delay frames=\"20\"}}{{anim id=\"6\"}}デマだよ！{{delay frames=\"20\"}}\n{{anim id=\"5\"}}でも　ジムはいいな！{{delay frames=\"20\"}}\nみんなに　しょめい　たのんだら、\nさんせい　してくれるかな？"
  },
  {
    "label": "019",
    "text": ""
  },
  {
    "label": "020",
    "text": "{{anim id=\"37\"}}でも、{{ruby charSpan=\"2\" value=\"ようじ\"}}用事がすんで\nスッキリしたな！{{anim id=\"0\"}}\n\n{{fun_0002000C arg=\"\"}}{{fun_0004000C arg=\"\"}}{{delay frames=\"20\"}}{{anim id=\"37\"}}{{fun_00080005 arg=\"\"}}も　サンキュー！{{delay frames=\"20\"}}\nオマエが　よびにきてくれて\n{{ruby charSpan=\"1\" value=\"たす\"}}助かったぞ！{{anim id=\"0\"}}\n{{fun_0001000C arg=\"\"}}{{fun_0008000C arg=\"\"}}{{fun_0002000C arg=\"\"}}{{fun_0005000C arg=\"\"}}それじゃあ、オイラは{{delay frames=\"8\"}}・{{delay frames=\"8\"}}・{{delay frames=\"8\"}}・{{delay frames=\"20\"}}\n{{anim id=\"23\"}}もう、{{ruby charSpan=\"1\" value=\"かえ\"}}帰っていいよな？\n\n{{anim id=\"32\"}}じゃーな！{{delay frames=\"20\"}}　{{fun_00070005 arg=\"\"}}！"
  },
  {
    "label": "021",
    "text": "{{anim id=\"1\"}}はぁ{{delay frames=\"8\"}}・{{delay frames=\"8\"}}・{{delay frames=\"8\"}}・{{delay frames=\"20\"}}{{ruby charSpan=\"2\" value=\"しょうぶ\"}}勝負だと{{ruby charSpan=\"1\" value=\"おも\"}}思って\n{{ruby charSpan=\"2\" value=\"きあ\"}}気合い　{{ruby charSpan=\"1\" value=\"い\"}}入れてたから、\nなんか　ガクッときた！{{anim id=\"0\"}}\n{{fun_0002000C arg=\"\"}}{{fun_0004000C arg=\"\"}}{{delay frames=\"20\"}}{{anim id=\"1\"}}{{fun_00080005 arg=\"\"}}も　{{ruby charSpan=\"2\" value=\"やくしゃ\"}}役者だなー！{{delay frames=\"20\"}}\nよびに{{ruby charSpan=\"1\" value=\"き\"}}来たときの　オマエ、\nスッゲーしんけんで　だまされたぞ！{{anim id=\"0\"}}\n{{fun_0001000C arg=\"\"}}{{fun_0008000C arg=\"\"}}{{fun_0002000C arg=\"\"}}{{fun_0005000C arg=\"\"}}{{anim id=\"37\"}}そんじゃ、{{delay frames=\"8\"}}もう\nオイラ　{{ruby charSpan=\"1\" value=\"かえ\"}}帰っていいよな？\n\n{{anim id=\"32\"}}じゃーな！　{{delay frames=\"20\"}}{{fun_00070005 arg=\"\"}}！"
  },
  {
    "label": "022",
    "text": "{{anim id=\"38\"}}それにしても{{delay frames=\"8\"}}・{{delay frames=\"8\"}}・{{delay frames=\"8\"}}・{{delay frames=\"20\"}}\n{{fun_00080005 arg=\"\"}}が　よびに{{ruby charSpan=\"1\" value=\"き\"}}来たから\n{{ruby charSpan=\"2\" value=\"かんぜん\"}}完全に　{{ruby charSpan=\"2\" value=\"しょうぶ\"}}勝負だと　{{ruby charSpan=\"1\" value=\"おも\"}}思ったのにな{{anim id=\"0\"}}\n{{fun_0001000C arg=\"\"}}{{fun_0003000C arg=\"\"}}{{fun_0002000C arg=\"\"}}{{fun_0004000C arg=\"\"}}{{delay frames=\"20\"}}{{anim id=\"1\"}}{{fun_00080005 arg=\"\"}}も　{{ruby charSpan=\"1\" value=\"い\"}}言ってくれれば\nいいのに{{delay frames=\"8\"}}・{{delay frames=\"8\"}}・{{delay frames=\"8\"}}・{{delay frames=\"20\"}}\nすっかり　だまされたよ！{{anim id=\"0\"}}\n{{fun_0001000C arg=\"\"}}{{fun_0008000C arg=\"\"}}{{fun_0002000C arg=\"\"}}{{fun_0005000C arg=\"\"}}{{ruby charSpan=\"2\" value=\"しょうぶ\"}}勝負じゃないなら、\nもう　{{ruby charSpan=\"1\" value=\"かえ\"}}帰っていいんだよな？\n\n{{anim id=\"32\"}}じゃーな！　{{delay frames=\"20\"}}{{fun_00070005 arg=\"\"}}！"
  },
  {
    "label": "023",
    "text": ""
  }
]