﻿[
  {
    "label": "001",
    "text": "{{anim id=\"21\"}}{{ruby charSpan=\"1\" value=\"そと\"}}外じゃ　ギャーギャーさわいでるヤツも、\nここにくると　{{ruby charSpan=\"1\" value=\"きゅう\"}}急にしおらしく\nなっちゃうから　{{ruby charSpan=\"3\" value=\"ふしぎ\"}}不思議さ\n{{anim id=\"23\"}}やっぱ、\n{{color id=\"4\"}}{{color id=\"4\"}}マスター{{color id=\"4\"}}{{color id=\"65535\"}}の　{{ruby charSpan=\"2\" value=\"むごん\"}}無言の{{ruby charSpan=\"2\" value=\"あつりょく\"}}圧力が\n{{ruby charSpan=\"1\" value=\"き\"}}効いてんのかな？　{{delay frames=\"20\"}}{{fun_00070005 arg=\"\"}}？"
  },
  {
    "label": "002",
    "text": "{{anim id=\"21\"}}{{ruby charSpan=\"3\" value=\"きんようび\"}}金曜日は　カフェでゆっくり\n1{{ruby charSpan=\"2\" value=\"しゅうかん\"}}週間の　{{ruby charSpan=\"2\" value=\"はんせい\"}}反省をするって\n{{ruby charSpan=\"1\" value=\"き\"}}決めてるんだ\n{{anim id=\"37\"}}まぁ　{{delay frames=\"20\"}}いつも　まったりしちゃって{{delay frames=\"20\"}}\n{{ruby charSpan=\"2\" value=\"はんせい\"}}反省なんか　できたためし\nないけどさ、{{delay frames=\"20\"}}{{fun_00070005 arg=\"\"}}"
  },
  {
    "label": "003",
    "text": "{{anim id=\"21\"}}{{ruby charSpan=\"2\" value=\"きょう\"}}今日は　カフェで、\n{{ruby charSpan=\"3\" value=\"にちようび\"}}日曜日を　どう{{ruby charSpan=\"1\" value=\"す\"}}過ごすか\n{{ruby charSpan=\"2\" value=\"さくせん\"}}作戦たてるんだ！\n{{anim id=\"37\"}}まずは　コーヒーを{{ruby charSpan=\"1\" value=\"の\"}}飲んで\nリラックスして{{delay frames=\"20\"}}・{{delay frames=\"20\"}}・{{delay frames=\"20\"}}・{{delay frames=\"40\"}}{{anim id=\"9\"}}って、{{delay frames=\"20\"}}いつも\nここで　{{ruby charSpan=\"2\" value=\"まんぞく\"}}満足しちゃうんだけどさ"
  },
  {
    "label": "004",
    "text": "{{anim id=\"37\"}}{{ruby charSpan=\"3\" value=\"にちようび\"}}日曜日に　ここに{{ruby charSpan=\"1\" value=\"く\"}}来ると、\nいろんなヤツと　ゆっくり{{ruby charSpan=\"1\" value=\"はな\"}}話せて\n{{ruby charSpan=\"2\" value=\"おもしろ\"}}面白いんだよね\n{{anim id=\"21\"}}まぁ{{delay frames=\"20\"}}　あんまり　さわぐと\n{{color id=\"4\"}}マスター{{color id=\"65535\"}}から　{{ruby charSpan=\"2\" value=\"むごん\"}}無言の{{ruby charSpan=\"2\" value=\"あつりょく\"}}圧力が\nかかるけどさ、{{delay frames=\"20\"}}{{fun_00070005 arg=\"\"}}"
  },
  {
    "label": "005",
    "text": "{{anim id=\"1\"}}{{ruby charSpan=\"1\" value=\"あさ\"}}朝の　{{ruby charSpan=\"1\" value=\"お\"}}起き{{ruby charSpan=\"1\" value=\"ぬ\"}}抜けに\n{{color id=\"4\"}}{{color id=\"4\"}}マスター{{color id=\"4\"}}{{color id=\"65535\"}}のコーヒーを　{{ruby charSpan=\"1\" value=\"の\"}}飲むって、\n{{ruby charSpan=\"2\" value=\"さいこう\"}}最高だよね\n{{anim id=\"10\"}}ホントは　{{ruby charSpan=\"2\" value=\"まいあさ\"}}毎朝\n{{ruby charSpan=\"1\" value=\"かよ\"}}通いたいけど{{delay frames=\"8\"}}・{{delay frames=\"8\"}}・{{delay frames=\"8\"}}・{{delay frames=\"20\"}}ウチ\n{{ruby charSpan=\"1\" value=\"あさ\"}}朝　{{ruby charSpan=\"1\" value=\"よわ\"}}弱いからな、{{delay frames=\"20\"}}{{fun_00070005 arg=\"\"}}"
  },
  {
    "label": "006",
    "text": "{{anim id=\"1\"}}{{ruby charSpan=\"3\" value=\"まっぴるま\"}}真昼間から　こんなとこで\nゆっくり　コーヒー{{ruby charSpan=\"1\" value=\"の\"}}飲んでるなんて\n{{delay frames=\"8\"}}・{{delay frames=\"8\"}}・{{delay frames=\"8\"}}・{{delay frames=\"20\"}}{{ruby charSpan=\"2\" value=\"さいこう\"}}最高の　ぜいたくだよね\n{{anim id=\"21\"}}みんなが　{{ruby charSpan=\"1\" value=\"そと\"}}外で\nあくせく　{{ruby charSpan=\"1\" value=\"はたら\"}}働いてる{{ruby charSpan=\"2\" value=\"じかん\"}}時間ってのも\n{{ruby charSpan=\"2\" value=\"だいじ\"}}大事な　ポイントさ、{{delay frames=\"20\"}}{{fun_00070005 arg=\"\"}}"
  },
  {
    "label": "007",
    "text": "{{anim id=\"25\"}}ふぁ～あ{{delay frames=\"20\"}}・{{delay frames=\"20\"}}・{{delay frames=\"20\"}}・{{delay frames=\"40\"}}\nまったりしてたら　なんだか\n{{ruby charSpan=\"1\" value=\"ねむ\"}}眠たく　なってきちゃったな\n{{anim id=\"0\"}}{{ruby charSpan=\"2\" value=\"きょう\"}}今日の{{ruby charSpan=\"2\" value=\"ゆうはん\"}}夕飯　{{ruby charSpan=\"1\" value=\"なに\"}}何にしよう？\n{{delay frames=\"20\"}}・{{delay frames=\"20\"}}・{{delay frames=\"20\"}}・{{delay frames=\"40\"}}{{anim id=\"21\"}}あと　もう1{{ruby charSpan=\"1\" value=\"ぱい\"}}杯\n{{ruby charSpan=\"1\" value=\"の\"}}飲んだら　{{ruby charSpan=\"1\" value=\"かんが\"}}考えよ、{{delay frames=\"20\"}}{{fun_00070005 arg=\"\"}}"
  },
  {
    "label": "008",
    "text": "{{anim id=\"1\"}}{{ruby charSpan=\"1\" value=\"かんが\"}}考えごとが　ある{{ruby charSpan=\"1\" value=\"よる\"}}夜は、\nここに{{ruby charSpan=\"1\" value=\"く\"}}来るって　{{ruby charSpan=\"1\" value=\"き\"}}決めてるんだよ\n\n{{anim id=\"21\"}}{{ruby charSpan=\"1\" value=\"いえ\"}}家にいると　どうしても\n{{ruby charSpan=\"1\" value=\"ほか\"}}他のことが　{{ruby charSpan=\"1\" value=\"き\"}}気になっちゃうからさ、{{delay frames=\"20\"}}\n{{fun_00070005 arg=\"\"}}"
  },
  {
    "label": "009",
    "text": "{{anim id=\"1\"}}{{color id=\"4\"}}マスター{{color id=\"65535\"}}の　コーヒーは\n{{ruby charSpan=\"2\" value=\"よふ\"}}夜更かし{{ruby charSpan=\"2\" value=\"こうか\"}}効果　バツグンだよ\n\n{{anim id=\"21\"}}ただし{{delay frames=\"8\"}}・{{delay frames=\"8\"}}・{{delay frames=\"8\"}}・{{delay frames=\"20\"}}\n{{ruby charSpan=\"2\" value=\"いちど\"}}一度{{ruby charSpan=\"1\" value=\"の\"}}飲むと、{{ruby charSpan=\"1\" value=\"あさ\"}}朝まで\n{{ruby charSpan=\"1\" value=\"ねむ\"}}眠れないけどね！　{{delay frames=\"20\"}}{{fun_00070005 arg=\"\"}}！"
  },
  {
    "label": "010",
    "text": "{{anim id=\"1\"}}ウチのコーヒーは　いつも、\n{{color id=\"2\"}}ブルーマウンテン{{color id=\"65535\"}}ってヤツだよ\n\n{{anim id=\"0\"}}いいニオイが　{{ruby charSpan=\"1\" value=\"う\"}}売りの\nけっこう　{{ruby charSpan=\"2\" value=\"きちょう\"}}貴重な\nコーヒーなんだって\n{{anim id=\"37\"}}まぁ{{delay frames=\"20\"}}　さっき{{color id=\"4\"}}マスター{{color id=\"65535\"}}に\n{{ruby charSpan=\"1\" value=\"おし\"}}教えて　もらったんだけどね、{{delay frames=\"20\"}}{{fun_00070005 arg=\"\"}}"
  },
  {
    "label": "011",
    "text": "{{anim id=\"1\"}}ウチのコーヒーは　いつも、\n{{color id=\"2\"}}モカ{{color id=\"65535\"}}ってヤツさ！\n\n{{anim id=\"0\"}}{{ruby charSpan=\"1\" value=\"あじ\"}}味の{{ruby charSpan=\"1\" value=\"ちが\"}}違いとか　よくわかんないけど、\nいいニオイがして　{{ruby charSpan=\"1\" value=\"す\"}}好きなんだ\n　\n{{anim id=\"37\"}}まぁ　くわしい{{ruby charSpan=\"1\" value=\"はなし\"}}話は\n{{color id=\"4\"}}マスター{{color id=\"65535\"}}に　{{ruby charSpan=\"1\" value=\"き\"}}聞いて、{{delay frames=\"20\"}}{{fun_00070005 arg=\"\"}}"
  },
  {
    "label": "012",
    "text": "{{anim id=\"1\"}}ウチのコーヒーは　いつも、\n{{color id=\"2\"}}キリマン{{color id=\"65535\"}}ってヤツさ！\n\n{{anim id=\"0\"}}ほんとは「{{color id=\"2\"}}キリマンジャロ{{color id=\"65535\"}}」って\n{{ruby charSpan=\"2\" value=\"なまえ\"}}名前だけど{{delay frames=\"8\"}}・{{delay frames=\"8\"}}・{{delay frames=\"8\"}}・{{delay frames=\"20\"}}ツウは\nこう　{{ruby charSpan=\"1\" value=\"よ\"}}呼ぶんだよ\n{{anim id=\"37\"}}まぁ{{delay frames=\"20\"}}　{{color id=\"4\"}}マスター{{color id=\"65535\"}}からの\n{{ruby charSpan=\"1\" value=\"う\"}}受け{{ruby charSpan=\"1\" value=\"う\"}}売りだけどね、{{delay frames=\"20\"}}{{fun_00070005 arg=\"\"}}"
  },
  {
    "label": "013",
    "text": "{{anim id=\"1\"}}ウチのコーヒーは　いつも、\n{{color id=\"4\"}}マスター{{color id=\"65535\"}}オリジナルの　{{color id=\"2\"}}ブレンド{{color id=\"65535\"}}さ！\n\n{{anim id=\"21\"}}コーヒー　{{ruby charSpan=\"1\" value=\"の\"}}飲み{{ruby charSpan=\"1\" value=\"な\"}}慣れてない、\nウチみたいな{{ruby charSpan=\"1\" value=\"ひと\"}}人{{ruby charSpan=\"1\" value=\"む\"}}向けに\n{{ruby charSpan=\"1\" value=\"の\"}}飲みやすく　{{ruby charSpan=\"1\" value=\"やさ\"}}優しくしてもらったんだ\n{{anim id=\"37\"}}まぁ{{delay frames=\"20\"}}　くわしい{{ruby charSpan=\"1\" value=\"こと\"}}事は\n{{color id=\"4\"}}マスター{{color id=\"65535\"}}に{{ruby charSpan=\"1\" value=\"き\"}}聞いてよ、{{delay frames=\"20\"}}{{fun_00070005 arg=\"\"}}"
  },
  {
    "label": "014",
    "text": "{{anim id=\"1\"}}やっぱり　コーヒーのミルクは\n{{color id=\"2\"}}たっぷり{{color id=\"65535\"}}めが　{{ruby charSpan=\"1\" value=\"す\"}}好きだな\n　\n{{anim id=\"21\"}}ミルクか　コーヒーか\nわかんないくらいの、\n{{ruby charSpan=\"1\" value=\"やさ\"}}優しい{{ruby charSpan=\"1\" value=\"あじ\"}}味が　{{ruby charSpan=\"2\" value=\"さいこう\"}}最高！　{{delay frames=\"20\"}}{{fun_00070005 arg=\"\"}}！"
  },
  {
    "label": "015",
    "text": "{{anim id=\"1\"}}やっぱり　コーヒーのミルクは\n{{color id=\"2\"}}そこそこ{{color id=\"65535\"}}が　いいよね\n\n{{anim id=\"21\"}}コーヒーの{{ruby charSpan=\"1\" value=\"なか\"}}中に　きれいな\nうずができるくらいが　{{ruby charSpan=\"2\" value=\"さいこう\"}}最高さ、\n{{delay frames=\"20\"}}{{fun_00070005 arg=\"\"}}"
  },
  {
    "label": "016",
    "text": "{{anim id=\"1\"}}やっぱり　コーヒーのミルクは\n{{color id=\"2\"}}ちょっぴり{{color id=\"65535\"}}が　いいよね\n\n{{anim id=\"21\"}}コーヒーの{{ruby charSpan=\"1\" value=\"あじ\"}}味が\nやわらかくなる　{{ruby charSpan=\"2\" value=\"ていど\"}}程度の\nひかえめな{{ruby charSpan=\"1\" value=\"りょう\"}}量が、{{delay frames=\"20\"}}{{ruby charSpan=\"2\" value=\"さいこう\"}}最高！　{{delay frames=\"20\"}}{{fun_00070005 arg=\"\"}}！"
  },
  {
    "label": "017",
    "text": "{{anim id=\"1\"}}やっぱり　コーヒーには\nミルクを　{{color id=\"2\"}}{{ruby charSpan=\"1\" value=\"い\"}}入れない{{color id=\"65535\"}}のが　いいよね\n\n{{anim id=\"21\"}}ようは　ブラックってヤツさ\n{{delay frames=\"8\"}}・{{delay frames=\"8\"}}・{{delay frames=\"8\"}}・{{delay frames=\"20\"}}{{ruby charSpan=\"2\" value=\"おとな\"}}大人の{{ruby charSpan=\"1\" value=\"あじ\"}}味だよ、{{delay frames=\"20\"}}{{fun_00070005 arg=\"\"}}"
  },
  {
    "label": "018",
    "text": "{{anim id=\"37\"}}ウチは　しびれるくらい\n{{ruby charSpan=\"1\" value=\"あま\"}}甘いコーヒーが　{{ruby charSpan=\"1\" value=\"す\"}}好きだから、\n{{ruby charSpan=\"2\" value=\"さとう\"}}砂糖は　{{color id=\"2\"}}3{{ruby charSpan=\"1\" value=\"こ\"}}個{{color id=\"65535\"}}{{ruby charSpan=\"1\" value=\"い\"}}入れるんだ\n{{anim id=\"21\"}}これ{{ruby charSpan=\"2\" value=\"いじょう\"}}以上でも　これ{{ruby charSpan=\"2\" value=\"いか\"}}以下でも\nだめなんだよ、{{delay frames=\"20\"}}{{fun_00070005 arg=\"\"}}"
  },
  {
    "label": "019",
    "text": "{{anim id=\"37\"}}ウチは　ちょっと{{ruby charSpan=\"1\" value=\"あま\"}}甘めの\nコーヒーが　{{ruby charSpan=\"1\" value=\"す\"}}好きだから、\n{{ruby charSpan=\"2\" value=\"さとう\"}}砂糖は　{{color id=\"2\"}}2{{ruby charSpan=\"1\" value=\"こ\"}}個{{color id=\"65535\"}}{{ruby charSpan=\"1\" value=\"い\"}}入れるんだ\n{{anim id=\"21\"}}「すごアマ　チョイにが」が\nウチの　コーヒーのお{{ruby charSpan=\"2\" value=\"やくそく\"}}約束さ！\n{{delay frames=\"20\"}}{{fun_00070005 arg=\"\"}}！"
  },
  {
    "label": "020",
    "text": "{{anim id=\"37\"}}ウチは　ちょっぴり\n{{ruby charSpan=\"1\" value=\"にが\"}}苦めのコーヒーが　{{ruby charSpan=\"1\" value=\"す\"}}好きだから、{{delay frames=\"20\"}}\n{{ruby charSpan=\"2\" value=\"さとう\"}}砂糖は　{{color id=\"2\"}}1{{ruby charSpan=\"1\" value=\"こ\"}}個{{color id=\"65535\"}}だけ{{ruby charSpan=\"1\" value=\"い\"}}入れるんだ\n{{anim id=\"21\"}}ブラックより　{{ruby charSpan=\"2\" value=\"ぜったい\"}}絶対\nおいしいと{{ruby charSpan=\"1\" value=\"おも\"}}思うよ、{{delay frames=\"20\"}}{{fun_00070005 arg=\"\"}}"
  },
  {
    "label": "021",
    "text": "{{anim id=\"21\"}}ウチは　とにかく\n{{ruby charSpan=\"1\" value=\"にが\"}}苦いのが　{{ruby charSpan=\"1\" value=\"す\"}}好きだから、{{delay frames=\"20\"}}\nコーヒーに　{{ruby charSpan=\"2\" value=\"さとう\"}}砂糖は　{{color id=\"2\"}}{{ruby charSpan=\"1\" value=\"い\"}}入れない{{color id=\"65535\"}}んだ\n{{anim id=\"35\"}}クックック{{delay frames=\"8\"}}・{{delay frames=\"8\"}}・{{delay frames=\"8\"}}・{{delay frames=\"20\"}}\nブラック・{{fun_00010005 arg=\"\"}}は\n{{ruby charSpan=\"2\" value=\"おとな\"}}大人の{{ruby charSpan=\"1\" value=\"あじ\"}}味で　できてんのさ、{{delay frames=\"20\"}}{{fun_00070005 arg=\"\"}}"
  },
  {
    "label": "022",
    "text": ""
  },
  {
    "label": "023",
    "text": ""
  },
  {
    "label": "024",
    "text": ""
  },
  {
    "label": "025",
    "text": ""
  },
  {
    "label": "026",
    "text": "{{anim id=\"21\"}}でも　{{ruby charSpan=\"3\" value=\"ふしぎ\"}}不思議だよね、{{delay frames=\"20\"}}\nこどもの{{ruby charSpan=\"1\" value=\"ころ\"}}頃　コーヒーなんて\nただの　{{ruby charSpan=\"1\" value=\"くろ\"}}黒い{{ruby charSpan=\"2\" value=\"えきたい\"}}液体だったじゃん？\n{{anim id=\"23\"}}アンタは　いつから、\nコーヒー　{{ruby charSpan=\"1\" value=\"の\"}}飲めるようになった？{{fun_000A0008 arg=\"0x1D001E001E001F001F00200021002200\"}}\n{{ruby charSpan=\"1\" value=\"う\"}}生まれてすぐ\nつい{{ruby charSpan=\"2\" value=\"さいきん\"}}最近"
  },
  {
    "label": "027",
    "text": "{{anim id=\"35\"}}{{color id=\"4\"}}マスター{{color id=\"65535\"}}ってさ{{delay frames=\"8\"}}・{{delay frames=\"8\"}}・{{delay frames=\"8\"}}・{{delay frames=\"20\"}}\nこの{{ruby charSpan=\"1\" value=\"みせ\"}}店のなかの　{{ruby charSpan=\"2\" value=\"かいわ\"}}会話なら、\n{{ruby charSpan=\"2\" value=\"ぜんぶ\"}}全部　{{ruby charSpan=\"1\" value=\"き\"}}聞こえてるって　{{ruby charSpan=\"1\" value=\"はなし\"}}話だよ\n{{anim id=\"21\"}}ウチらが　ここで\nどんな　{{ruby charSpan=\"3\" value=\"ないしょばなし\"}}内緒話しても、{{delay frames=\"20\"}}\n{{ruby charSpan=\"2\" value=\"ぜんぶ\"}}全部　わかっちゃうらしい\n{{anim id=\"0\"}}{{ruby charSpan=\"1\" value=\"たと\"}}例えばさ{{delay frames=\"8\"}}・{{delay frames=\"8\"}}・{{delay frames=\"8\"}}・{{delay frames=\"20\"}}{{fun_00010009 arg=\"0x230026002900\"}}"
  },
  {
    "label": "028",
    "text": "{{i10_16 arg=\"46\"}}"
  },
  {
    "label": "029",
    "text": "{{anim id=\"15\"}}えっ！{{delay frames=\"20\"}}\nミルクの{{ruby charSpan=\"1\" value=\"か\"}}代わりに　コーヒー？{{delay frames=\"40\"}}\n{{delay frames=\"8\"}}・{{delay frames=\"8\"}}・{{delay frames=\"8\"}}・{{delay frames=\"20\"}}{{anim id=\"9\"}}{{ruby charSpan=\"2\" value=\"じょうだん\"}}冗談は　やめてよ！\n{{anim id=\"36\"}}でもさ、{{delay frames=\"20\"}}\n{{ruby charSpan=\"1\" value=\"みせ\"}}店で　となりに{{ruby charSpan=\"1\" value=\"すわ\"}}座った　こどもが\nブラック{{ruby charSpan=\"1\" value=\"たの\"}}頼んだら　びっくりするよね\n{{anim id=\"21\"}}そんな{{ruby charSpan=\"2\" value=\"こども\"}}子供の　となりで\n{{ruby charSpan=\"1\" value=\"あま\"}}甘いコーヒーとか　{{ruby charSpan=\"1\" value=\"の\"}}飲むわけには\nいかないよ{{delay frames=\"8\"}}・{{delay frames=\"8\"}}・{{delay frames=\"8\"}}・{{delay frames=\"20\"}}{{anim id=\"37\"}}{{ruby charSpan=\"2\" value=\"おとな\"}}大人として！"
  },
  {
    "label": "030",
    "text": "{{anim id=\"38\"}}あー、わかるわかる{{delay frames=\"20\"}}\n{{ruby charSpan=\"1\" value=\"せ\"}}背のびして　{{ruby charSpan=\"1\" value=\"おぼ\"}}覚えた\n{{ruby charSpan=\"3\" value=\"ししゅんき\"}}思春期の　{{ruby charSpan=\"1\" value=\"あじ\"}}味ってヤツね！\n{{anim id=\"36\"}}{{ruby charSpan=\"1\" value=\"にが\"}}苦かったけど　がんばって\nおいしいふりとか　したりしてね！\n\n{{anim id=\"21\"}}カッコつけるのを\n{{ruby charSpan=\"2\" value=\"そつぎょう\"}}卒業した{{ruby charSpan=\"1\" value=\"ころ\"}}頃に{{delay frames=\"20\"}}　なんとなく\n{{ruby charSpan=\"1\" value=\"の\"}}飲めるようになるから、{{ruby charSpan=\"3\" value=\"ふしぎ\"}}不思議さ"
  },
  {
    "label": "031",
    "text": "{{anim id=\"16\"}}おっ！{{delay frames=\"20\"}}\nなかなか　{{ruby charSpan=\"1\" value=\"おそ\"}}遅いね！\n\n{{anim id=\"21\"}}まぁ　でも、こどもの{{ruby charSpan=\"1\" value=\"ころ\"}}頃\nホントに　おいしいコーヒーに\n{{ruby charSpan=\"1\" value=\"あ\"}}会える{{ruby charSpan=\"3\" value=\"かのうせい\"}}可能性って　{{ruby charSpan=\"1\" value=\"ひく\"}}低いからさ\n{{anim id=\"37\"}}まずい　コーヒーの{{ruby charSpan=\"1\" value=\"あじ\"}}味で\nデビューするより　{{ruby charSpan=\"1\" value=\"しあわ\"}}幸せかもよ、{{delay frames=\"20\"}}{{fun_00070005 arg=\"\"}}"
  },
  {
    "label": "032",
    "text": "{{anim id=\"15\"}}もしかして、\n{{color id=\"4\"}}マスター{{color id=\"65535\"}}のコーヒーが　{{ruby charSpan=\"1\" value=\"はじ\"}}初めて？{{delay frames=\"40\"}}\n{{anim id=\"1\"}}ラッキーじゃん！\n{{anim id=\"21\"}}ここの、レベル{{ruby charSpan=\"1\" value=\"たか\"}}高いからさ\nいきなり　{{ruby charSpan=\"1\" value=\"した\"}}舌が　こえちゃって\n{{ruby charSpan=\"1\" value=\"ほか\"}}他のはもう　{{ruby charSpan=\"1\" value=\"の\"}}飲めないかもよ！　{{delay frames=\"20\"}}{{fun_00070005 arg=\"\"}}！"
  },
  {
    "label": "033",
    "text": "{{anim id=\"21\"}}まぁ{{delay frames=\"20\"}}　そんなもんか！{{delay frames=\"40\"}}\nコーヒーって、いつの{{ruby charSpan=\"1\" value=\"ま\"}}間にか\n{{ruby charSpan=\"1\" value=\"の\"}}飲めるように　なるんだよね\n{{anim id=\"36\"}}{{ruby charSpan=\"1\" value=\"はや\"}}早く　{{ruby charSpan=\"1\" value=\"の\"}}飲めるようになりたくて\nがんばってた{{ruby charSpan=\"1\" value=\"ころ\"}}頃が\nなんだか　なつかしいよ{{delay frames=\"40\"}}{{anim id=\"0\"}}\n{{anim id=\"1\"}}コーヒーが　{{ruby charSpan=\"2\" value=\"ほんとう\"}}本当に\nおいしいって　{{ruby charSpan=\"1\" value=\"おも\"}}思えたのは{{delay frames=\"20\"}}\n{{color id=\"4\"}}マスター{{color id=\"65535\"}}の　おかげかも、{{delay frames=\"20\"}}{{fun_00070005 arg=\"\"}}"
  },
  {
    "label": "034",
    "text": "{{anim id=\"15\"}}えっ！{{delay frames=\"10\"}}　そうなの？{{delay frames=\"40\"}}\nもしかして　まだちょっと\nニガテだったりするの？\n{{anim id=\"21\"}}{{color id=\"4\"}}マスター{{color id=\"65535\"}}に　{{ruby charSpan=\"2\" value=\"そうだん\"}}相談したら、\nきっと{{ruby charSpan=\"2\" value=\"いろいろ\"}}色々　{{ruby charSpan=\"1\" value=\"の\"}}飲みやすいの\n{{ruby charSpan=\"2\" value=\"けんきゅう\"}}研究してくれるよ！\n{{anim id=\"35\"}}クールに{{ruby charSpan=\"1\" value=\"み\"}}見えて、\nコーヒーを　{{ruby charSpan=\"1\" value=\"の\"}}飲ませるためなら\nオニにもなる　{{ruby charSpan=\"1\" value=\"ひと\"}}人だからさ！　{{delay frames=\"20\"}}{{fun_00070005 arg=\"\"}}！"
  },
  {
    "label": "035",
    "text": "{{anim id=\"37\"}}{{color id=\"5\"}}マスターの　コーヒーって{{delay frames=\"20\"}}\n{{ruby charSpan=\"2\" value=\"せかい\"}}世界{{ruby charSpan=\"1\" value=\"いち\"}}一おいしいよね！{{anim id=\"0\"}}\n{{color id=\"65535\"}}\n{{fun_0001000C arg=\"\"}}{{fun_0007000C arg=\"\"}}{{delay frames=\"16\"}}{{anim id=\"32\"}}ね！　{{color id=\"4\"}}マスター{{color id=\"65535\"}}！\n{{ruby charSpan=\"1\" value=\"き\"}}聞こえた？{{fun_0009000C arg=\"\"}}"
  },
  {
    "label": "036",
    "text": "{{delay frames=\"8\"}}・{{delay frames=\"8\"}}・{{delay frames=\"8\"}}・{{delay frames=\"20\"}}{{fun_0009000C arg=\"\"}}"
  },
  {
    "label": "037",
    "text": "{{fun_0001000C arg=\"\"}}{{fun_0003000C arg=\"\"}}{{delay frames=\"20\"}}{{anim id=\"16\"}}ほら！{{delay frames=\"20\"}}\n{{color id=\"4\"}}マスター{{color id=\"65535\"}}、すごい　{{ruby charSpan=\"1\" value=\"て\"}}照れてる！{{fun_00010007 arg=\"\"}}\n{{anim id=\"9\"}}え？{{delay frames=\"20\"}}　わかんない？\n{{anim id=\"21\"}}じっと{{ruby charSpan=\"1\" value=\"み\"}}見てると　わかるんだって！{{delay frames=\"20\"}}\n{{anim id=\"37\"}}{{ruby charSpan=\"1\" value=\"いま\"}}今なんか　もう、\nデレデレだよ！　{{delay frames=\"20\"}}{{fun_00070005 arg=\"\"}}！"
  },
  {
    "label": "038",
    "text": "{{anim id=\"9\"}}{{color id=\"5\"}}あれっ？{{delay frames=\"20\"}}\n{{ruby charSpan=\"2\" value=\"きょう\"}}今日のコーヒー、ちょっと\nいまいちかも？{{anim id=\"0\"}}{{color id=\"65535\"}}\n{{fun_0001000C arg=\"\"}}{{fun_0007000C arg=\"\"}}{{delay frames=\"16\"}}{{anim id=\"32\"}}ね！　{{color id=\"4\"}}マスター{{color id=\"65535\"}}！\n{{ruby charSpan=\"1\" value=\"き\"}}聞こえた？{{fun_0009000C arg=\"\"}}"
  },
  {
    "label": "039",
    "text": "{{delay frames=\"8\"}}・{{delay frames=\"8\"}}・{{delay frames=\"8\"}}・{{delay frames=\"20\"}}{{fun_0009000C arg=\"\"}}"
  },
  {
    "label": "040",
    "text": "{{fun_0001000C arg=\"\"}}{{fun_0003000C arg=\"\"}}{{delay frames=\"20\"}}{{anim id=\"16\"}}ほら！{{delay frames=\"20\"}}\n{{color id=\"4\"}}マスター{{color id=\"65535\"}}、すごい　{{ruby charSpan=\"1\" value=\"なや\"}}悩んでる！{{fun_00010007 arg=\"\"}}\n{{anim id=\"9\"}}え？{{delay frames=\"20\"}}　わかんない？\n{{anim id=\"6\"}}{{ruby charSpan=\"1\" value=\"み\"}}見てると　わかるんだって！{{delay frames=\"20\"}}\n{{ruby charSpan=\"1\" value=\"いま\"}}今なんか　すっごい\nギクシャクしてるもん！{{anim id=\"0\"}}\n{{fun_0001000C arg=\"\"}}{{fun_0007000C arg=\"\"}}{{anim id=\"37\"}}ごめん{{color id=\"4\"}}マスター{{color id=\"65535\"}}！\n{{ruby charSpan=\"1\" value=\"いま\"}}今のウソだよ！{{delay frames=\"20\"}}　おいしいよ！\n{{delay frames=\"20\"}}{{fun_00070005 arg=\"\"}}！"
  },
  {
    "label": "041",
    "text": "{{anim id=\"37\"}}{{color id=\"5\"}}この{{ruby charSpan=\"1\" value=\"みせ\"}}店の　BGMって　シャレてんね！{{delay frames=\"20\"}}\nこれって　ジャズってヤツかな？{{anim id=\"0\"}}{{color id=\"65535\"}}{{color id=\"5\"}}\n{{color id=\"65535\"}}\n{{fun_0001000C arg=\"\"}}{{fun_0007000C arg=\"\"}}{{delay frames=\"16\"}}{{anim id=\"32\"}}ね！{{delay frames=\"20\"}}　{{color id=\"4\"}}マスター{{color id=\"65535\"}}！{{delay frames=\"20\"}}\n{{ruby charSpan=\"1\" value=\"き\"}}聞こえた？{{fun_0009000C arg=\"\"}}"
  },
  {
    "label": "042",
    "text": "{{delay frames=\"8\"}}・{{delay frames=\"8\"}}・{{delay frames=\"8\"}}・{{delay frames=\"20\"}}ジャズ　じゃないです{{fun_0009000C arg=\"\"}}"
  },
  {
    "label": "043",
    "text": "{{fun_0001000C arg=\"\"}}{{fun_0003000C arg=\"\"}}{{delay frames=\"20\"}}{{anim id=\"16\"}}うわっ！{{delay frames=\"20\"}}\n{{color id=\"4\"}}マスター{{color id=\"65535\"}}が　しゃべった！{{delay frames=\"40\"}}\nしかも　ジャズじゃないらしい！\n{{anim id=\"13\"}}{{ruby charSpan=\"1\" value=\"は\"}}恥ずかしー！　{{delay frames=\"20\"}}{{fun_00070005 arg=\"\"}}！"
  },
  {
    "label": "044",
    "text": ""
  },
  {
    "label": "045",
    "text": ""
  },
  {
    "label": "046",
    "text": "{{anim id=\"21\"}}{{ruby charSpan=\"2\" value=\"はるさき\"}}春先って、なんでか　{{ruby charSpan=\"2\" value=\"とつぜん\"}}突然\nコーヒーが　{{ruby charSpan=\"1\" value=\"の\"}}飲みたくなるんだよね{{anim id=\"0\"}}\n\n{{fun_0001000C arg=\"\"}}{{fun_0007000C arg=\"\"}}{{delay frames=\"16\"}}{{anim id=\"32\"}}ねぇ　{{color id=\"4\"}}マスター{{color id=\"65535\"}}、\n{{ruby charSpan=\"1\" value=\"まえ\"}}前{{ruby charSpan=\"1\" value=\"い\"}}言ってた　{{ruby charSpan=\"1\" value=\"はる\"}}春のブレンド{{ruby charSpan=\"1\" value=\"めい\"}}名{{delay frames=\"8\"}}・{{delay frames=\"8\"}}・{{delay frames=\"8\"}}・{{delay frames=\"20\"}}\n{{ruby charSpan=\"2\" value=\"けっきょく\"}}結局　{{ruby charSpan=\"1\" value=\"なに\"}}何にしたの？{{fun_0009000C arg=\"\"}}"
  },
  {
    "label": "047",
    "text": "{{anim id=\"21\"}}{{ruby charSpan=\"1\" value=\"なつ\"}}夏って、なぜか　{{ruby charSpan=\"2\" value=\"とつぜん\"}}突然\nホットコーヒーが　{{ruby charSpan=\"1\" value=\"の\"}}飲みたくなるんだよね{{anim id=\"0\"}}\n\n{{fun_0001000C arg=\"\"}}{{fun_0007000C arg=\"\"}}{{delay frames=\"16\"}}{{anim id=\"32\"}}ねぇ　{{color id=\"4\"}}マスター{{color id=\"65535\"}}、\n{{ruby charSpan=\"1\" value=\"まえ\"}}前{{ruby charSpan=\"1\" value=\"い\"}}言ってた{{delay frames=\"20\"}}　{{ruby charSpan=\"1\" value=\"なつ\"}}夏のブレンド{{ruby charSpan=\"1\" value=\"めい\"}}名{{delay frames=\"8\"}}・{{delay frames=\"8\"}}・{{delay frames=\"8\"}}・{{delay frames=\"20\"}}\n{{ruby charSpan=\"2\" value=\"けっきょく\"}}結局　{{ruby charSpan=\"1\" value=\"なに\"}}何にしたの？{{fun_0009000C arg=\"\"}}"
  },
  {
    "label": "048",
    "text": "{{anim id=\"21\"}}{{ruby charSpan=\"1\" value=\"あき\"}}秋って、{{delay frames=\"20\"}}なぜか　{{ruby charSpan=\"2\" value=\"とつぜん\"}}突然\nコーヒーが　{{ruby charSpan=\"1\" value=\"の\"}}飲みたくなるんだよね{{anim id=\"0\"}}\n\n{{fun_0001000C arg=\"\"}}{{fun_0007000C arg=\"\"}}{{delay frames=\"16\"}}{{anim id=\"32\"}}ねぇ　{{color id=\"4\"}}マスター{{color id=\"65535\"}}、\n{{ruby charSpan=\"1\" value=\"まえ\"}}前{{ruby charSpan=\"1\" value=\"い\"}}言ってた{{delay frames=\"20\"}}　{{ruby charSpan=\"1\" value=\"あき\"}}秋のブレンド{{ruby charSpan=\"1\" value=\"めい\"}}名{{delay frames=\"8\"}}・{{delay frames=\"8\"}}・{{delay frames=\"8\"}}・{{delay frames=\"20\"}}\n{{ruby charSpan=\"2\" value=\"けっきょく\"}}結局　{{ruby charSpan=\"1\" value=\"なに\"}}何にしたの？{{fun_0009000C arg=\"\"}}"
  },
  {
    "label": "049",
    "text": "{{anim id=\"21\"}}{{ruby charSpan=\"1\" value=\"ふゆ\"}}冬って、{{ruby charSpan=\"1\" value=\"なに\"}}何かと{{ruby charSpan=\"2\" value=\"りゆう\"}}理由つけては\nコーヒーが　{{ruby charSpan=\"1\" value=\"の\"}}飲みたくなるんだよね{{anim id=\"0\"}}\n\n{{fun_0001000C arg=\"\"}}{{fun_0007000C arg=\"\"}}{{delay frames=\"16\"}}{{anim id=\"32\"}}ねぇ　{{color id=\"4\"}}マスター{{color id=\"65535\"}}\n{{ruby charSpan=\"1\" value=\"まえ\"}}前{{ruby charSpan=\"1\" value=\"い\"}}言ってた、{{ruby charSpan=\"1\" value=\"ふゆ\"}}冬のブレンド{{ruby charSpan=\"1\" value=\"めい\"}}名\n{{ruby charSpan=\"2\" value=\"けっきょく\"}}結局　{{ruby charSpan=\"1\" value=\"なに\"}}何にしたの？{{fun_0009000C arg=\"\"}}"
  },
  {
    "label": "050",
    "text": "{{fun_00010009 arg=\"0x330035003700\"}}"
  },
  {
    "label": "051",
    "text": "{{delay frames=\"8\"}}・{{delay frames=\"8\"}}・{{delay frames=\"8\"}}・{{delay frames=\"20\"}}{{fun_0009000C arg=\"\"}}"
  },
  {
    "label": "052",
    "text": "{{anim id=\"41\"}}{{ruby charSpan=\"1\" value=\"なん\"}}何だ～！{{delay frames=\"20\"}}\nやっぱり　ヒミツか！\n\n{{anim id=\"9\"}}ヒミツの{{ruby charSpan=\"1\" value=\"とき\"}}時は　いいブレンドが\nできてるって　ウワサ、\n{{ruby charSpan=\"1\" value=\"しん\"}}信じちゃうからね！　{{delay frames=\"20\"}}{{fun_00070005 arg=\"\"}}！"
  },
  {
    "label": "053",
    "text": "{{delay frames=\"8\"}}・{{delay frames=\"8\"}}・{{delay frames=\"8\"}}・{{delay frames=\"20\"}}{{fun_001E0005 arg=\"0x00CD\"}}コーヒー　です{{fun_0009000C arg=\"\"}}"
  },
  {
    "label": "054",
    "text": "{{anim id=\"18\"}}えっ？！{{delay frames=\"20\"}}\nそのまんまじゃん！\n\n{{anim id=\"9\"}}まぁ　{{color id=\"4\"}}マスター{{color id=\"65535\"}}が{{ruby charSpan=\"1\" value=\"き\"}}決めたんなら\nなんか　{{ruby charSpan=\"2\" value=\"りゆう\"}}理由が　ありそうだけどさ！{{delay frames=\"20\"}}\n{{fun_00070005 arg=\"\"}}！"
  },
  {
    "label": "055",
    "text": "{{delay frames=\"8\"}}・{{delay frames=\"8\"}}・{{delay frames=\"8\"}}・{{delay frames=\"20\"}}{{fun_001E0005 arg=\"0x00CD\"}}のあらし　です{{fun_0009000C arg=\"\"}}"
  },
  {
    "label": "056",
    "text": "{{anim id=\"17\"}}えっ？！{{delay frames=\"20\"}}\n{{ruby charSpan=\"1\" value=\"なに\"}}何があったの　{{color id=\"4\"}}マスター{{color id=\"65535\"}}？！{{delay frames=\"40\"}}\nあれ{{ruby charSpan=\"1\" value=\"くる\"}}狂っちゃうの？　{{delay frames=\"20\"}}{{fun_00070005 arg=\"\"}}！"
  },
  {
    "label": "057",
    "text": ""
  }
]