﻿[
  {
    "label": "001",
    "text": "{{anim id=\"32\"}}よっ！{{delay frames=\"8\"}}　{{ruby charSpan=\"2\" value=\"そんちょう\"}}村長さん！{{delay frames=\"40\"}}\nえへへ{{delay frames=\"8\"}}・{{delay frames=\"8\"}}・{{delay frames=\"8\"}}・{{delay frames=\"20\"}}なんか　この{{ruby charSpan=\"1\" value=\"よ\"}}呼び{{ruby charSpan=\"1\" value=\"かた\"}}方\nかたくるしくって　はずかしーな\n{{anim id=\"0\"}}でも　ウチら、マジでアンタのこと\n{{ruby charSpan=\"1\" value=\"たの\"}}楽しみに　{{ruby charSpan=\"1\" value=\"ま\"}}待ってたんだ！{{delay frames=\"40\"}}\n{{anim id=\"37\"}}まぁ　ひとつ　よろしく{{ruby charSpan=\"1\" value=\"たの\"}}頼むね！\n{{delay frames=\"8\"}}・{{delay frames=\"8\"}}・{{delay frames=\"8\"}}・{{delay frames=\"20\"}}{{anim id=\"15\"}}っと、こりゃ　ゴメン！{{delay frames=\"20\"}}\n{{ruby charSpan=\"1\" value=\"ひ\"}}引き{{ruby charSpan=\"1\" value=\"と\"}}留めちゃったね！{{delay frames=\"40\"}}\n{{anim id=\"0\"}}{{color id=\"2\"}}{{ruby charSpan=\"2\" value=\"やくば\"}}役場{{color id=\"65535\"}}に{{ruby charSpan=\"1\" value=\"い\"}}行くんだろ？　\n{{anim id=\"37\"}}また　{{ruby charSpan=\"2\" value=\"ようじ\"}}用事が{{ruby charSpan=\"1\" value=\"す\"}}済んだら\nみんなと　{{ruby charSpan=\"1\" value=\"はなし\"}}話してやってよ！　{{delay frames=\"20\"}}{{fun_00070005 arg=\"\"}}！"
  },
  {
    "label": "002",
    "text": "{{anim id=\"15\"}}うん？{{delay frames=\"20\"}}　{{color id=\"2\"}}{{ruby charSpan=\"2\" value=\"やくば\"}}役場{{color id=\"65535\"}}に　{{ruby charSpan=\"1\" value=\"い\"}}行くんでしょ？{{delay frames=\"40\"}}\n{{anim id=\"0\"}}まさか　{{ruby charSpan=\"1\" value=\"まよ\"}}迷ってんじゃないよね？{{delay frames=\"20\"}}\n{{fun_00070005 arg=\"\"}}？"
  },
  {
    "label": "003",
    "text": "{{anim id=\"37\"}}みんな　アンタと　{{ruby charSpan=\"1\" value=\"はな\"}}話したがってるからさ！\n{{ruby charSpan=\"1\" value=\"よう\"}}用が　{{ruby charSpan=\"1\" value=\"す\"}}済んだら、\nつきあってやってよ！{{delay frames=\"20\"}}　{{fun_00070005 arg=\"\"}}！"
  },
  {
    "label": "004",
    "text": "{{anim id=\"15\"}}うん？{{delay frames=\"40\"}}　なにしてんだい？{{delay frames=\"40\"}}\nまずは　{{color id=\"2\"}}{{ruby charSpan=\"2\" value=\"やくば\"}}役場{{color id=\"65535\"}}で\n{{ruby charSpan=\"2\" value=\"ようじ\"}}用事があるんじゃ　ないの？{{delay frames=\"20\"}}　{{fun_00070005 arg=\"\"}}？"
  },
  {
    "label": "005",
    "text": "{{anim id=\"32\"}}ヤッホー、{{ruby charSpan=\"2\" value=\"そんちょう\"}}村長さん！{{delay frames=\"20\"}}\n{{ruby charSpan=\"2\" value=\"ながたび\"}}長旅　お{{ruby charSpan=\"1\" value=\"つか\"}}疲れ！\n\n{{anim id=\"0\"}}ウチ　{{fun_00010005 arg=\"\"}}っていうんだ！{{delay frames=\"20\"}}\nさっきも、{{ruby charSpan=\"1\" value=\"えき\"}}駅で　お{{ruby charSpan=\"2\" value=\"でむか\"}}出迎えに\n{{ruby charSpan=\"2\" value=\"さんか\"}}参加してたよ！\n{{anim id=\"1\"}}ウチら、マジで　アンタのこと\n{{ruby charSpan=\"1\" value=\"たの\"}}楽しみに　{{ruby charSpan=\"1\" value=\"ま\"}}待ってたからさ{{delay frames=\"8\"}}・{{delay frames=\"8\"}}・{{delay frames=\"8\"}}・{{delay frames=\"20\"}}\n{{ruby charSpan=\"1\" value=\"あ\"}}会えて　うれしいよ！\n{{anim id=\"0\"}}この　{{fun_00050005 arg=\"\"}}{{ruby charSpan=\"1\" value=\"むら\"}}村のこと\nよろしく{{ruby charSpan=\"1\" value=\"たの\"}}頼んだよ！{{delay frames=\"20\"}}　{{fun_00070005 arg=\"\"}}！"
  },
  {
    "label": "006",
    "text": "{{anim id=\"16\"}}あっ！{{delay frames=\"20\"}}\nアンタ{{delay frames=\"8\"}}・{{delay frames=\"8\"}}・{{delay frames=\"8\"}}・{{delay frames=\"20\"}}{{ruby charSpan=\"1\" value=\"あたら\"}}新しい　{{ruby charSpan=\"2\" value=\"そんちょう\"}}村長さんだね？\n\n{{anim id=\"5\"}}{{ruby charSpan=\"1\" value=\"はじ\"}}初めましてー！{{delay frames=\"40\"}}\nアンタのことは　{{ruby charSpan=\"1\" value=\"いま\"}}今、\n{{ruby charSpan=\"2\" value=\"むらじゅう\"}}村中で　{{ruby charSpan=\"2\" value=\"わだい\"}}話題さ！\n{{anim id=\"0\"}}ウチ　{{fun_00010005 arg=\"\"}}っていうんだ！{{delay frames=\"20\"}}\n{{fun_00050005 arg=\"\"}}{{ruby charSpan=\"1\" value=\"むら\"}}村のこと、これから\nよろしく{{ruby charSpan=\"1\" value=\"たの\"}}頼むね！{{delay frames=\"20\"}}　{{fun_00070005 arg=\"\"}}！"
  },
  {
    "label": "007",
    "text": "{{anim id=\"16\"}}あっ！\nアンタ　{{ruby charSpan=\"2\" value=\"そんちょう\"}}村長さんだろ？{{fun_00010007 arg=\"\"}}\n{{anim id=\"37\"}}やっぱり！{{delay frames=\"20\"}}　ウワサは　{{ruby charSpan=\"1\" value=\"き\"}}聞いてるよ！\n{{anim id=\"0\"}}ウチ、{{fun_00010005 arg=\"\"}}っていうんだ！{{delay frames=\"20\"}}\n{{ruby charSpan=\"2\" value=\"でむか\"}}出迎えには　{{ruby charSpan=\"2\" value=\"さんか\"}}参加できなかったんだけど、\nこんなに{{ruby charSpan=\"1\" value=\"はや\"}}早くアンタに{{ruby charSpan=\"1\" value=\"あ\"}}会えて　ラッキー！\n{{anim id=\"37\"}}{{fun_00050005 arg=\"\"}}{{ruby charSpan=\"1\" value=\"むら\"}}村を　もっと\n{{ruby charSpan=\"1\" value=\"く\"}}暮らしやすくするために、\nがんばってね！{{delay frames=\"20\"}}　{{fun_00070005 arg=\"\"}}！"
  },
  {
    "label": "008",
    "text": "{{anim id=\"16\"}}あっ！{{delay frames=\"20\"}}　{{ruby charSpan=\"2\" value=\"そんちょう\"}}村長みっけ！{{delay frames=\"40\"}}\n{{anim id=\"37\"}}へへへ{{delay frames=\"8\"}}・{{delay frames=\"8\"}}・{{delay frames=\"8\"}}・{{delay frames=\"20\"}}{{ruby charSpan=\"1\" value=\"はじ\"}}初めまして！{{delay frames=\"20\"}}\nウチ　{{fun_00010005 arg=\"\"}}！\n{{anim id=\"0\"}}なんで　アンタが\nこの　{{fun_00050005 arg=\"\"}}{{ruby charSpan=\"1\" value=\"むら\"}}村に　{{ruby charSpan=\"1\" value=\"き\"}}来たのか\nいろいろ　ウワサ{{ruby charSpan=\"1\" value=\"た\"}}立ってるけど{{delay frames=\"8\"}}・{{delay frames=\"8\"}}・{{delay frames=\"8\"}}・\n{{anim id=\"21\"}}まぁ　この{{ruby charSpan=\"1\" value=\"むら\"}}村を　いい{{ruby charSpan=\"2\" value=\"ばしょ\"}}場所にするためなら\n{{ruby charSpan=\"2\" value=\"きょうりょく\"}}協力　するからさ！{{delay frames=\"20\"}}\n{{anim id=\"0\"}}{{ruby charSpan=\"1\" value=\"たよ\"}}頼ってくれて　{{ruby charSpan=\"1\" value=\"かま\"}}構わないよ！\n{{anim id=\"37\"}}これから　よろしく！{{delay frames=\"20\"}}\n{{fun_00070005 arg=\"\"}}！"
  },
  {
    "label": "009",
    "text": "{{anim id=\"16\"}}あっ？！{{delay frames=\"20\"}}\nアンタ　もしかして{{delay frames=\"8\"}}・{{delay frames=\"8\"}}・{{delay frames=\"8\"}}・{{delay frames=\"20\"}}\n{{anim id=\"0\"}}{{ruby charSpan=\"1\" value=\"あたら\"}}新しい　{{ruby charSpan=\"2\" value=\"そんちょう\"}}村長さん？\n{{anim id=\"3\"}}わ～！{{delay frames=\"8\"}}　やっと{{ruby charSpan=\"1\" value=\"はな\"}}話せたよ！{{delay frames=\"20\"}}\nずっと　タイミング{{ruby charSpan=\"1\" value=\"のが\"}}逃しちゃってさ、\nモヤモヤしてたんだ！\n{{anim id=\"0\"}}ウチは　{{fun_00010005 arg=\"\"}}！{{delay frames=\"40\"}}\nこの{{ruby charSpan=\"1\" value=\"むら\"}}村に{{ruby charSpan=\"1\" value=\"かん\"}}関しちゃ　アンタの{{ruby charSpan=\"1\" value=\"せん\"}}先パイだから\nなんでも{{ruby charSpan=\"1\" value=\"き\"}}聞いてくれて　{{ruby charSpan=\"1\" value=\"かま\"}}構わないよ\n{{anim id=\"37\"}}これから　よろしく！{{delay frames=\"20\"}}\n{{fun_00070005 arg=\"\"}}！"
  },
  {
    "label": "010",
    "text": "{{anim id=\"16\"}}おっ！{{delay frames=\"8\"}}　アンタだね？{{delay frames=\"20\"}}\n{{ruby charSpan=\"1\" value=\"あたら\"}}新しく　この{{ruby charSpan=\"1\" value=\"むら\"}}村に\n{{ruby charSpan=\"2\" value=\"ひっこ\"}}引越して{{ruby charSpan=\"1\" value=\"き\"}}来たって　ヤツは？\n{{anim id=\"37\"}}{{ruby charSpan=\"1\" value=\"はじ\"}}初めまして！{{delay frames=\"20\"}}\nウチは　{{fun_00010005 arg=\"\"}}だよ！\n\n{{anim id=\"0\"}}わからないことが　あったら\nなんでも　{{ruby charSpan=\"1\" value=\"き\"}}聞いてくれて　{{ruby charSpan=\"1\" value=\"かま\"}}構わないよ！{{delay frames=\"20\"}}\n{{anim id=\"37\"}}これから　よろしく！{{delay frames=\"20\"}}　{{fun_00070005 arg=\"\"}}！"
  },
  {
    "label": "011",
    "text": "{{anim id=\"16\"}}あっ！{{delay frames=\"20\"}}\n{{ruby charSpan=\"2\" value=\"しんい\"}}新入り　{{ruby charSpan=\"2\" value=\"はっけん\"}}発見！{{fun_00010007 arg=\"\"}}\n{{anim id=\"37\"}}{{ruby charSpan=\"1\" value=\"はじ\"}}初めまして、ウワサ　{{ruby charSpan=\"1\" value=\"き\"}}聞いてるよ！\n{{anim id=\"21\"}}ウチは　{{fun_00010005 arg=\"\"}}さ！{{delay frames=\"20\"}}\nこれから　よろしく{{ruby charSpan=\"1\" value=\"たの\"}}頼むよ！{{delay frames=\"20\"}}　{{fun_00070005 arg=\"\"}}！"
  },
  {
    "label": "012",
    "text": "ああ！{{delay frames=\"20\"}}\nもしかして{{delay frames=\"8\"}}・{{delay frames=\"8\"}}・{{delay frames=\"8\"}}・{{delay frames=\"20\"}}{{ruby charSpan=\"1\" value=\"あたら\"}}新しく　この{{ruby charSpan=\"1\" value=\"むら\"}}村に\n{{ruby charSpan=\"1\" value=\"こ\"}}越してきたって{{ruby charSpan=\"1\" value=\"ひと\"}}人？\n{{anim id=\"37\"}}{{ruby charSpan=\"1\" value=\"はじ\"}}初めまして！{{delay frames=\"20\"}}　ウチ　{{fun_00010005 arg=\"\"}}！{{delay frames=\"40\"}}\n{{anim id=\"0\"}}なれないことも　あると{{ruby charSpan=\"1\" value=\"おも\"}}思うけど、\n{{ruby charSpan=\"1\" value=\"なん\"}}何かあったら　ウチに　{{ruby charSpan=\"1\" value=\"い\"}}言いな！\n{{anim id=\"21\"}}とりあえずは　アンタより\nこの{{ruby charSpan=\"1\" value=\"むら\"}}村のこと　くわしいはずだからさ、\n{{ruby charSpan=\"1\" value=\"ちから\"}}力に　なってやるよ！{{delay frames=\"20\"}}　{{fun_00070005 arg=\"\"}}！"
  },
  {
    "label": "013",
    "text": ""
  },
  {
    "label": "014",
    "text": ""
  },
  {
    "label": "015",
    "text": ""
  },
  {
    "label": "016",
    "text": ""
  },
  {
    "label": "017",
    "text": ""
  },
  {
    "label": "018",
    "text": ""
  },
  {
    "label": "019",
    "text": "{{anim id=\"32\"}}よっ！{{delay frames=\"8\"}}　{{ruby charSpan=\"2\" value=\"そんちょう\"}}村長さん！{{delay frames=\"40\"}}\nえへへ{{delay frames=\"8\"}}・{{delay frames=\"8\"}}・{{delay frames=\"8\"}}・{{delay frames=\"20\"}}なんか　この{{ruby charSpan=\"1\" value=\"よ\"}}呼び{{ruby charSpan=\"1\" value=\"かた\"}}方\nかたくるしくって　はずかしーな\n{{anim id=\"0\"}}でも　ウチら、マジでアンタのこと\n{{ruby charSpan=\"1\" value=\"たの\"}}楽しみに　{{ruby charSpan=\"1\" value=\"ま\"}}待ってたんだ！{{delay frames=\"40\"}}\n{{anim id=\"37\"}}まぁ　ひとつ　よろしく{{ruby charSpan=\"1\" value=\"たの\"}}頼むね！"
  },
  {
    "label": "020",
    "text": "{{anim id=\"32\"}}よっ！{{delay frames=\"8\"}}　{{ruby charSpan=\"2\" value=\"そんちょう\"}}村長さん！{{delay frames=\"40\"}}\nえへへ{{delay frames=\"8\"}}・{{delay frames=\"8\"}}・{{delay frames=\"8\"}}・{{delay frames=\"20\"}}なんか　この{{ruby charSpan=\"1\" value=\"よ\"}}呼び{{ruby charSpan=\"1\" value=\"かた\"}}方\nかたくるしくって　はずかしーな\n{{anim id=\"0\"}}でも　ウチら、マジでアンタのこと\n{{ruby charSpan=\"1\" value=\"たの\"}}楽しみに　{{ruby charSpan=\"1\" value=\"ま\"}}待ってたんだ！{{delay frames=\"40\"}}\n{{anim id=\"37\"}}まぁ　ひとつ　よろしく{{ruby charSpan=\"1\" value=\"たの\"}}頼むね！"
  },
  {
    "label": "021",
    "text": "{{anim id=\"15\"}}うん？{{delay frames=\"20\"}}\nどーしたんだい？{{delay frames=\"40\"}}\n{{anim id=\"0\"}}いろいろ{{ruby charSpan=\"2\" value=\"てつづ\"}}手続き　あるんだろ？\n{{anim id=\"27\"}}はやいとこ　{{color id=\"2\"}}{{ruby charSpan=\"2\" value=\"やくば\"}}役場{{color id=\"65535\"}}に{{ruby charSpan=\"1\" value=\"い\"}}行って\n{{ruby charSpan=\"1\" value=\"す\"}}済ましちゃいなよ、{{delay frames=\"20\"}}{{fun_00070005 arg=\"\"}}"
  },
  {
    "label": "022",
    "text": "{{anim id=\"15\"}}うん？　どうした？{{delay frames=\"40\"}}\n{{anim id=\"0\"}}アンタ　まだ{{ruby charSpan=\"1\" value=\"いえ\"}}家\n{{ruby charSpan=\"1\" value=\"き\"}}決まってないんだろ？\n{{anim id=\"21\"}}{{ruby charSpan=\"1\" value=\"えき\"}}駅の{{ruby charSpan=\"1\" value=\"む\"}}向こうの　{{color id=\"2\"}}たぬきハウジング{{color id=\"65535\"}}って\n{{ruby charSpan=\"1\" value=\"みせ\"}}店に　{{ruby charSpan=\"1\" value=\"い\"}}行くと、いろいろ\nめんどう{{ruby charSpan=\"1\" value=\"み\"}}見てくれるよ！{{delay frames=\"20\"}}　{{fun_00070005 arg=\"\"}}！"
  },
  {
    "label": "023",
    "text": "{{anim id=\"15\"}}うん？{{delay frames=\"40\"}}\nもしかして　{{ruby charSpan=\"2\" value=\"とち\"}}土地{{ruby charSpan=\"1\" value=\"さが\"}}探してる？\n\n{{anim id=\"0\"}}ウチの{{ruby charSpan=\"1\" value=\"いえ\"}}家の　{{ruby charSpan=\"2\" value=\"きんじょ\"}}近所も　けっこう\nおススメだけど{{delay frames=\"8\"}}・{{delay frames=\"8\"}}・{{delay frames=\"8\"}}・{{delay frames=\"20\"}}{{anim id=\"37\"}}まぁ、{{ruby charSpan=\"2\" value=\"いろいろ\"}}色々{{ruby charSpan=\"1\" value=\"み\"}}見て\nしっかり　{{ruby charSpan=\"1\" value=\"き\"}}決めるんだよ！　{{delay frames=\"20\"}}{{fun_00070005 arg=\"\"}}！"
  },
  {
    "label": "024",
    "text": "{{anim id=\"15\"}}うん？{{delay frames=\"20\"}}\n{{ruby charSpan=\"1\" value=\"す\"}}住む{{ruby charSpan=\"2\" value=\"ばしょ\"}}場所　{{ruby charSpan=\"1\" value=\"き\"}}決まったって？{{delay frames=\"40\"}}\n{{anim id=\"37\"}}そりゃー　よかった！\n{{anim id=\"0\"}}その{{ruby charSpan=\"1\" value=\"あし\"}}足で　とっとと\n{{color id=\"2\"}}{{ruby charSpan=\"2\" value=\"やくば\"}}役場{{color id=\"65535\"}}に{{ruby charSpan=\"1\" value=\"い\"}}行って、{{ruby charSpan=\"2\" value=\"ほうこく\"}}報告しておいで！{{delay frames=\"20\"}}\n{{fun_00070005 arg=\"\"}}！"
  },
  {
    "label": "025",
    "text": ""
  },
  {
    "label": "026",
    "text": ""
  },
  {
    "label": "027",
    "text": ""
  },
  {
    "label": "028",
    "text": ""
  },
  {
    "label": "029",
    "text": ""
  },
  {
    "label": "030",
    "text": ""
  },
  {
    "label": "031",
    "text": ""
  },
  {
    "label": "032",
    "text": "{{fun_001A000A arg=\"0x2A002B00\"}}"
  },
  {
    "label": "033",
    "text": "{{anim id=\"15\"}}あっ、そうだ！{{delay frames=\"20\"}}\nアンタ　ついに\n{{ruby charSpan=\"1\" value=\"いえ\"}}家　{{ruby charSpan=\"1\" value=\"か\"}}買ったんだって？\n{{anim id=\"37\"}}やったね！{{delay frames=\"20\"}}\nこれで　この{{ruby charSpan=\"1\" value=\"むら\"}}村で　{{ruby charSpan=\"2\" value=\"せいかつ\"}}生活していく\nアンタの{{ruby charSpan=\"1\" value=\"しろ\"}}城が　できたってわけだ！\n{{anim id=\"0\"}}まぁ　お{{ruby charSpan=\"1\" value=\"かね\"}}金の{{ruby charSpan=\"1\" value=\"ほう\"}}方は　ゆっくり\n{{ruby charSpan=\"2\" value=\"ようい\"}}用意するとしてさ{{delay frames=\"8\"}}・{{delay frames=\"8\"}}・{{delay frames=\"8\"}}・{{delay frames=\"8\"}}とりあえずは\n{{ruby charSpan=\"2\" value=\"せいかつ\"}}生活に　{{ruby charSpan=\"2\" value=\"ひつよう\"}}必要なモンとか　そろえたら？\n{{anim id=\"37\"}}{{ruby charSpan=\"1\" value=\"えき\"}}駅の{{ruby charSpan=\"1\" value=\"む\"}}向こうにある　{{color id=\"2\"}}{{ruby charSpan=\"3\" value=\"しょうてんがい\"}}商店街{{color id=\"65535\"}}なら\n{{ruby charSpan=\"2\" value=\"いろいろ\"}}色々　{{ruby charSpan=\"1\" value=\"う\"}}売ってるし、\n{{ruby charSpan=\"1\" value=\"い\"}}行ってみる{{ruby charSpan=\"2\" value=\"かち\"}}価値　ありだよ！{{fun_0012000A arg=\"0x44004500460047004800\"}}"
  },
  {
    "label": "034",
    "text": "{{anim id=\"15\"}}ねぇ、{{ruby charSpan=\"1\" value=\"し\"}}知ってるかい？{{delay frames=\"40\"}}\n{{anim id=\"37\"}}この{{ruby charSpan=\"1\" value=\"むら\"}}村の　{{ruby charSpan=\"1\" value=\"き\"}}木になってる　フルーツは\n{{ruby charSpan=\"2\" value=\"かって\"}}勝手にとっても　{{ruby charSpan=\"3\" value=\"だいじょうぶ\"}}大丈夫なんだよ！\n{{anim id=\"21\"}}リサイクルショップの　{{color id=\"2\"}}{{ruby charSpan=\"1\" value=\"アール\"}}R・パーカーズ{{color id=\"65535\"}}に\n{{ruby charSpan=\"1\" value=\"も\"}}持って{{ruby charSpan=\"1\" value=\"い\"}}行けば　{{ruby charSpan=\"1\" value=\"か\"}}買い{{ruby charSpan=\"1\" value=\"と\"}}取ってくれるし\n{{delay frames=\"8\"}}・{{delay frames=\"8\"}}・{{delay frames=\"8\"}}・{{delay frames=\"20\"}}{{ruby charSpan=\"1\" value=\"た\"}}食べてもおいしいよ！\n{{anim id=\"15\"}}え？{{delay frames=\"20\"}}　とり{{ruby charSpan=\"1\" value=\"かた\"}}方？{{delay frames=\"40\"}}\n{{anim id=\"0\"}}フルーツがなってる　{{ruby charSpan=\"1\" value=\"き\"}}木に{{ruby charSpan=\"1\" value=\"む\"}}向かってさ！{{delay frames=\"40\"}}\n{{ruby charSpan=\"1\" value=\"き\"}}木がゆれて{{delay frames=\"8\"}}　{{ruby charSpan=\"2\" value=\"かんたん\"}}簡単に　{{ruby charSpan=\"1\" value=\"お\"}}落とせるよ！\n{{anim id=\"37\"}}{{ruby charSpan=\"1\" value=\"ひろ\"}}拾う{{ruby charSpan=\"1\" value=\"とき\"}}時は　！{{fun_00010007 arg=\"\"}}\n{{anim id=\"21\"}}{{ruby charSpan=\"1\" value=\"お\"}}落ちてるモンは　なんでもで　{{ruby charSpan=\"1\" value=\"ひろ\"}}拾えるから{{delay frames=\"8\"}}\nはずかしがらずに　やってみな！\n{{anim id=\"15\"}}そうそう！　{{color id=\"2\"}}{{color id=\"2\"}}{{ruby charSpan=\"1\" value=\"アール\"}}R{{color id=\"2\"}}・パーカーズ{{color id=\"65535\"}}は\n{{ruby charSpan=\"2\" value=\"すなはま\"}}砂浜に　{{ruby charSpan=\"1\" value=\"お\"}}落ちてる　{{ruby charSpan=\"1\" value=\"かい\"}}貝なんかも\n{{ruby charSpan=\"1\" value=\"か\"}}買い{{ruby charSpan=\"1\" value=\"と\"}}取ってくれるからね！\n{{anim id=\"37\"}}こづかい　かせぎには\nもってこいなんだよ！{{delay frames=\"20\"}}　{{fun_00070005 arg=\"\"}}！"
  },
  {
    "label": "035",
    "text": "{{anim id=\"27\"}}{{ruby charSpan=\"2\" value=\"ひっこ\"}}引越した　{{ruby charSpan=\"2\" value=\"ちょくご\"}}直後って{{delay frames=\"8\"}}・{{delay frames=\"8\"}}・{{delay frames=\"8\"}}・{{delay frames=\"20\"}}\nもらい{{ruby charSpan=\"1\" value=\"もの\"}}物やら　なんやらで\nいらない{{ruby charSpan=\"1\" value=\"もの\"}}物が　いっぱい　{{ruby charSpan=\"1\" value=\"で\"}}出るだろ？\n{{anim id=\"21\"}}そういうのって、ほっとくと\n{{ruby charSpan=\"2\" value=\"かくじつ\"}}確実に　タンスのこやしに\nなっちゃうから　{{ruby charSpan=\"3\" value=\"ふしぎ\"}}不思議さ！\n{{anim id=\"37\"}}{{ruby charSpan=\"2\" value=\"さいきん\"}}最近ウチは、いらないと{{ruby charSpan=\"1\" value=\"おも\"}}思ったら\nリサイクルショップの　{{color id=\"2\"}}{{color id=\"2\"}}{{ruby charSpan=\"1\" value=\"アール\"}}R{{color id=\"2\"}}・パーカーズ{{color id=\"65535\"}}に\n{{ruby charSpan=\"1\" value=\"う\"}}売るように　してるんだ！\n{{anim id=\"0\"}}{{ruby charSpan=\"2\" value=\"かぐ\"}}家具だろ？{{delay frames=\"20\"}}　{{ruby charSpan=\"1\" value=\"ふく\"}}服だろ？{{delay frames=\"40\"}}\n{{anim id=\"21\"}}フルーツ、{{delay frames=\"20\"}}サカナ、{{delay frames=\"20\"}}かせき{{delay frames=\"8\"}}・{{delay frames=\"8\"}}・{{delay frames=\"8\"}}・{{delay frames=\"20\"}}とにかく、\nたいていのモンは　{{ruby charSpan=\"1\" value=\"か\"}}買い{{ruby charSpan=\"1\" value=\"と\"}}取ってくれるし！\n{{anim id=\"5\"}}{{ruby charSpan=\"2\" value=\"へや\"}}部屋が　{{ruby charSpan=\"2\" value=\"かたづ\"}}片付いて、\nおまけに　こづかいも　{{ruby charSpan=\"1\" value=\"はい\"}}入ってくるし！\nほんと　おススメだよ！　{{delay frames=\"20\"}}{{fun_00070005 arg=\"\"}}！"
  },
  {
    "label": "036",
    "text": "{{anim id=\"37\"}}この{{ruby charSpan=\"1\" value=\"むら\"}}村での　{{ruby charSpan=\"1\" value=\"たの\"}}楽しみは、\nなにも{{delay frames=\"8\"}}・{{delay frames=\"8\"}}・{{delay frames=\"8\"}}・{{delay frames=\"20\"}}{{ruby charSpan=\"1\" value=\"いえ\"}}家を\n{{ruby charSpan=\"1\" value=\"た\"}}建てるばっかりじゃないよ！\n{{anim id=\"21\"}}まず　{{ruby charSpan=\"1\" value=\"つ\"}}釣り！{{delay frames=\"20\"}}\n{{color id=\"2\"}}つりざお{{color id=\"65535\"}}が　あれば　サカナが{{ruby charSpan=\"1\" value=\"つ\"}}釣れる！\n\n{{anim id=\"37\"}}そんで　ムシとり！{{delay frames=\"20\"}}\n{{anim id=\"0\"}}ああ、{{delay frames=\"8\"}}これには　{{color id=\"2\"}}あみ{{color id=\"65535\"}}が\n{{ruby charSpan=\"2\" value=\"ひつよう\"}}必要だね！\n{{anim id=\"15\"}}そうそう、\n{{ruby charSpan=\"2\" value=\"ひつよう\"}}必要っていや　{{color id=\"2\"}}スコップ{{color id=\"65535\"}}だ！{{delay frames=\"20\"}}\n{{anim id=\"37\"}}これは　{{ruby charSpan=\"1\" value=\"あな\"}}穴を{{ruby charSpan=\"1\" value=\"ほ\"}}掘るのに{{ruby charSpan=\"1\" value=\"つか\"}}使うのさ！\n{{anim id=\"21\"}}もう　{{ruby charSpan=\"1\" value=\"き\"}}気が{{ruby charSpan=\"1\" value=\"つ\"}}付いてるかも　しれないけど\n{{delay frames=\"8\"}}・{{delay frames=\"8\"}}・{{delay frames=\"8\"}}・{{delay frames=\"20\"}}{{anim id=\"37\"}}あやしい{{ruby charSpan=\"1\" value=\"じるし\"}}印を　{{ruby charSpan=\"1\" value=\"み\"}}見つけたら\n{{color id=\"2\"}}スコップ{{color id=\"65535\"}}で　{{ruby charSpan=\"1\" value=\"ほ\"}}掘ってみな！\n{{anim id=\"5\"}}ビックリするようなものが\n{{ruby charSpan=\"1\" value=\"う\"}}埋まってるからさ！\n\n{{anim id=\"0\"}}ま、そんな{{ruby charSpan=\"1\" value=\"ふう\"}}風にして　{{ruby charSpan=\"1\" value=\"て\"}}手に{{ruby charSpan=\"1\" value=\"い\"}}入れたものは\nリサイクルの{{ruby charSpan=\"1\" value=\"みせ\"}}店　{{color id=\"2\"}}{{ruby charSpan=\"1\" value=\"アール\"}}R・パーカーズ{{color id=\"65535\"}}に{{ruby charSpan=\"1\" value=\"う\"}}売ると\nいいお{{ruby charSpan=\"1\" value=\"かね\"}}金に　なるんだよ{{fun_0001000A arg=\"0x2C002D00\"}}"
  },
  {
    "label": "037",
    "text": "{{anim id=\"15\"}}あっ！{{delay frames=\"8\"}}　そうだ！{{delay frames=\"20\"}}\nアンタに　{{ruby charSpan=\"1\" value=\"み\"}}見てもらいたい　ものが\nあるんだよ！{{fun_000D0007 arg=\"\"}}"
  },
  {
    "label": "038",
    "text": "{{anim id=\"15\"}}ところで　アンタ、{{delay frames=\"15\"}}\nどの{{ruby charSpan=\"1\" value=\"あた\"}}辺りに　{{ruby charSpan=\"2\" value=\"ひっこ\"}}引越したんだい？{{fun_00010008 arg=\"0x3D0000003E0000003F000000\"}}\nこの{{ruby charSpan=\"1\" value=\"あた\"}}辺り\nそっちのほう\nあっちのほう"
  },
  {
    "label": "039",
    "text": "{{anim id=\"15\"}}あっ、そうだ！{{delay frames=\"20\"}}\n{{ruby charSpan=\"2\" value=\"きょう\"}}今日は　まだ　{{color id=\"2\"}}{{ruby charSpan=\"3\" value=\"けいじばん\"}}掲示板{{color id=\"65535\"}}を\nチェックしてなかった！\n{{anim id=\"23\"}}{{fun_00000005 arg=\"\"}}、アンタ　{{ruby charSpan=\"1\" value=\"み\"}}見た？{{delay frames=\"20\"}}\n{{color id=\"2\"}}{{ruby charSpan=\"2\" value=\"えきまえ\"}}駅前の{{ruby charSpan=\"3\" value=\"けいじばん\"}}掲示板{{color id=\"65535\"}}！{{fun_00010008 arg=\"0x410000004200000043000000\"}}\n{{ruby charSpan=\"1\" value=\"み\"}}見た！\nまだこれから\nなにソレ？"
  },
  {
    "label": "040",
    "text": "{{anim id=\"37\"}}ねぇ　{{fun_00000005 arg=\"\"}}！{{delay frames=\"20\"}}\n{{ruby charSpan=\"2\" value=\"ひっこ\"}}引越しの{{ruby charSpan=\"2\" value=\"きねん\"}}記念に　ウチと\nツーショットで　{{ruby charSpan=\"2\" value=\"しゃしん\"}}写真　{{ruby charSpan=\"1\" value=\"と\"}}撮らせてあげる！\n{{anim id=\"0\"}}{{ruby charSpan=\"1\" value=\"むずか\"}}難しいことは　ないだろ？{{delay frames=\"20\"}}\nとを　{{ruby charSpan=\"2\" value=\"どうじ\"}}同時に{{ruby charSpan=\"1\" value=\"お\"}}押すと　カメラが{{ruby charSpan=\"2\" value=\"きどう\"}}起動して\n{{ruby charSpan=\"2\" value=\"しゃしん\"}}写真が　{{ruby charSpan=\"1\" value=\"と\"}}撮れるんだから！\n{{anim id=\"21\"}}{{ruby charSpan=\"1\" value=\"と\"}}撮った{{ruby charSpan=\"2\" value=\"しゃしん\"}}写真は\n{{color id=\"2\"}}ニンテンドー3DSカメラ{{color id=\"65535\"}}で{{delay frames=\"4\"}}\nいつでも　{{ruby charSpan=\"2\" value=\"みかえ\"}}見返すことが　できるよ\n{{anim id=\"37\"}}バシバシ　{{ruby charSpan=\"2\" value=\"しゃしん\"}}写真を{{ruby charSpan=\"1\" value=\"と\"}}撮って、\nいろんな{{ruby charSpan=\"1\" value=\"ひと\"}}人に　{{ruby charSpan=\"2\" value=\"じまん\"}}自慢しちゃいな！{{delay frames=\"20\"}}\n{{fun_00070005 arg=\"\"}}！"
  },
  {
    "label": "041",
    "text": "そうそう　アンタ、\n{{anim id=\"23\"}}セーブのやり{{ruby charSpan=\"1\" value=\"かた\"}}方は　{{ruby charSpan=\"1\" value=\"おぼ\"}}覚えてる？\n\n{{anim id=\"21\"}}うんうん、\n{{color id=\"2\"}}START{{color id=\"65535\"}}を{{ruby charSpan=\"1\" value=\"お\"}}押して\n〔{{color id=\"2\"}}セーブして{{ruby charSpan=\"1\" value=\"お\"}}終わる{{color id=\"65535\"}}〕だよね！\n{{anim id=\"37\"}}〔{{color id=\"2\"}}セーブして{{ruby charSpan=\"1\" value=\"つづ\"}}続ける{{color id=\"65535\"}}〕{{delay frames=\"8\"}}\nっていうのも　あるから\nそっちでも　いいんだけどさ！\n{{anim id=\"0\"}}まぁ　とにかくセーブしないと{{delay frames=\"8\"}}\nそれまでの　{{ruby charSpan=\"3\" value=\"できごと\"}}出来事や{{ruby charSpan=\"1\" value=\"おも\"}}思い{{ruby charSpan=\"1\" value=\"で\"}}出を\n{{ruby charSpan=\"2\" value=\"きろく\"}}記録できないから　{{ruby charSpan=\"1\" value=\"き\"}}気を{{ruby charSpan=\"1\" value=\"つ\"}}付けな！\n{{anim id=\"6\"}}{{ruby charSpan=\"1\" value=\"とく\"}}特に　ゲームをやめるときは{{delay frames=\"8\"}}\n{{ruby charSpan=\"1\" value=\"かなら\"}}必ず{{delay frames=\"4\"}}〔{{color id=\"2\"}}セーブして{{ruby charSpan=\"1\" value=\"お\"}}終わる{{color id=\"65535\"}}〕で\n{{ruby charSpan=\"1\" value=\"お\"}}終わること{{delay frames=\"8\"}}・{{delay frames=\"8\"}}・{{delay frames=\"8\"}}・{{delay frames=\"20\"}}{{anim id=\"37\"}}いいね！"
  },
  {
    "label": "042",
    "text": "{{anim id=\"21\"}}これから　{{ruby charSpan=\"2\" value=\"そんちょう\"}}村長としてやってく\nアンタに　ひとつ、ためになることを\n{{ruby charSpan=\"1\" value=\"おし\"}}教えてあげるよ\n{{anim id=\"6\"}}いいかい{{delay frames=\"8\"}}・{{delay frames=\"8\"}}・{{delay frames=\"8\"}}・{{delay frames=\"20\"}}\n{{ruby charSpan=\"2\" value=\"きあ\"}}気合いで　{{ruby charSpan=\"1\" value=\"ま\"}}負けちゃ　ダメだよ！\n\n{{anim id=\"27\"}}この{{ruby charSpan=\"1\" value=\"むら\"}}村は　どーいうわけか\n{{ruby charSpan=\"1\" value=\"か\"}}変わったヤツばっかり　{{ruby charSpan=\"1\" value=\"あつ\"}}集まっててさ{{delay frames=\"8\"}}・{{delay frames=\"8\"}}・{{delay frames=\"8\"}}・{{delay frames=\"20\"}}\n{{ruby charSpan=\"1\" value=\"はじ\"}}初めてのヤツは　みんな　ビビっちゃうんだ\n{{anim id=\"37\"}}まぁ　みんな、\n{{ruby charSpan=\"1\" value=\"ね\"}}根は　いいヤツだからさ！{{delay frames=\"20\"}}\nよろしく{{ruby charSpan=\"1\" value=\"たの\"}}頼むよ！\n{{anim id=\"15\"}}あ、それと！{{delay frames=\"20\"}}\n{{ruby charSpan=\"2\" value=\"やくば\"}}役場で　{{color id=\"2\"}}{{ruby charSpan=\"1\" value=\"く\"}}暮らしのアドバイス{{color id=\"65535\"}}\nってヤツを　{{ruby charSpan=\"1\" value=\"おし\"}}教えてもらえるんだ！\n{{anim id=\"21\"}}まぁ　いくら{{ruby charSpan=\"2\" value=\"そんちょう\"}}村長っていっても\nアンタは　{{ruby charSpan=\"2\" value=\"しんまい\"}}新米なんだからさ、\n{{ruby charSpan=\"1\" value=\"は\"}}恥ずかしがらずに　{{ruby charSpan=\"1\" value=\"き\"}}聞くといいよ！"
  },
  {
    "label": "043",
    "text": "{{anim id=\"21\"}}これから　この{{ruby charSpan=\"1\" value=\"むら\"}}村で\nがんばってく　アンタに　ひとつ、\nためになることを　{{ruby charSpan=\"1\" value=\"おし\"}}教えてあげるよ\n{{anim id=\"6\"}}いいかい{{delay frames=\"8\"}}・{{delay frames=\"8\"}}・{{delay frames=\"8\"}}・{{delay frames=\"20\"}}\n{{ruby charSpan=\"2\" value=\"きあ\"}}気合いで　{{ruby charSpan=\"1\" value=\"ま\"}}負けちゃダメだよ！\n\n{{anim id=\"27\"}}この{{ruby charSpan=\"1\" value=\"むら\"}}村は　どーいうわけか\n{{ruby charSpan=\"1\" value=\"か\"}}変わったヤツばっかり　{{ruby charSpan=\"1\" value=\"あつ\"}}集まっててさ{{delay frames=\"8\"}}・{{delay frames=\"8\"}}・{{delay frames=\"8\"}}・{{delay frames=\"20\"}}\n{{ruby charSpan=\"1\" value=\"はじ\"}}初めてのヤツは　みんな　ビビっちゃうんだ\n{{anim id=\"37\"}}まぁ　みんな、\n{{ruby charSpan=\"1\" value=\"ね\"}}根は　いいヤツだからさ！{{delay frames=\"20\"}}\nよろしく{{ruby charSpan=\"1\" value=\"たの\"}}頼むよ！\n{{anim id=\"15\"}}あ、それと！{{delay frames=\"20\"}}\n{{ruby charSpan=\"2\" value=\"やくば\"}}役場で「{{ruby charSpan=\"1\" value=\"く\"}}暮らしのアドバイス」\nってヤツを　{{ruby charSpan=\"1\" value=\"おし\"}}教えてもらえるんだ！\n{{anim id=\"21\"}}まぁ　{{ruby charSpan=\"1\" value=\"まわ\"}}周りに{{ruby charSpan=\"1\" value=\"き\"}}聞けるようなヤツが\nいなかったら、{{ruby charSpan=\"1\" value=\"は\"}}恥ずかしがらずに\n{{ruby charSpan=\"1\" value=\"き\"}}聞くといいよ！　{{delay frames=\"20\"}}{{fun_00070005 arg=\"\"}}！"
  },
  {
    "label": "044",
    "text": "{{anim id=\"37\"}}{{ruby charSpan=\"2\" value=\"やすもの\"}}安物でいいから　ひと{{ruby charSpan=\"1\" value=\"とお\"}}通り、\nこういう{{ruby charSpan=\"2\" value=\"どうぐ\"}}道具を　そろえておくと\nいいかもね！{{delay frames=\"20\"}}　{{fun_00070005 arg=\"\"}}！"
  },
  {
    "label": "045",
    "text": "{{anim id=\"21\"}}{{ruby charSpan=\"1\" value=\"おんな\"}}女だからって　エンリョすることはないよ！{{delay frames=\"40\"}}\n{{anim id=\"37\"}}{{ruby charSpan=\"1\" value=\"うで\"}}腕さえよければ　だれでも\n{{ruby charSpan=\"2\" value=\"しゅやく\"}}主役になれるんだからね！\n{{anim id=\"0\"}}とりあえず　ひと{{ruby charSpan=\"1\" value=\"とお\"}}通り、\nこういう{{ruby charSpan=\"2\" value=\"どうぐ\"}}道具を　そろえておくことを\nおススメするよ！{{delay frames=\"20\"}}　{{fun_00070005 arg=\"\"}}！"
  },
  {
    "label": "046",
    "text": "{{anim id=\"37\"}}どーだい　この{{ruby charSpan=\"1\" value=\"ふく\"}}服？\n{{anim id=\"0\"}}こないだ　{{ruby charSpan=\"2\" value=\"じもと\"}}地元の{{ruby charSpan=\"2\" value=\"ともだち\"}}友達から\n{{ruby charSpan=\"1\" value=\"おく\"}}送られて　きたんだけど{{delay frames=\"8\"}}・{{delay frames=\"8\"}}・{{delay frames=\"8\"}}・{{delay frames=\"20\"}}\n{{anim id=\"23\"}}{{ruby charSpan=\"2\" value=\"にあ\"}}似合ってると　{{ruby charSpan=\"1\" value=\"おも\"}}思う？{{fun_000A0008 arg=\"0x2F003000300031003100320032003300\"}}\nすごく{{ruby charSpan=\"2\" value=\"にあ\"}}似合う！\nぜんぜん{{ruby charSpan=\"2\" value=\"にあ\"}}似合わない"
  },
  {
    "label": "047",
    "text": "{{anim id=\"16\"}}そ、そう？{{delay frames=\"40\"}}\n{{anim id=\"26\"}}へへ{{delay frames=\"8\"}}・{{delay frames=\"8\"}}・{{delay frames=\"8\"}}・{{delay frames=\"20\"}}よかった！{{delay frames=\"20\"}}\nちょっと　ビクビクしてたんだ！\n{{anim id=\"0\"}}{{ruby charSpan=\"1\" value=\"じつ\"}}実は　その{{ruby charSpan=\"2\" value=\"ともだち\"}}友達、\n{{ruby charSpan=\"2\" value=\"じもと\"}}地元で　{{ruby charSpan=\"1\" value=\"みせ\"}}店を　{{ruby charSpan=\"1\" value=\"はじ\"}}始めたらしくってさ{{delay frames=\"8\"}}・{{delay frames=\"8\"}}・{{delay frames=\"8\"}}・\nセール{{ruby charSpan=\"1\" value=\"ひん\"}}品の　あまり　なんだって！{{fun_001B000A arg=\"0x010034003B00\"}}"
  },
  {
    "label": "048",
    "text": "{{anim id=\"16\"}}おっ！{{delay frames=\"20\"}}\nそこそこ　{{ruby charSpan=\"2\" value=\"にあ\"}}似合ってる？{{delay frames=\"40\"}}\n{{anim id=\"37\"}}あーよかった！\n{{anim id=\"21\"}}{{ruby charSpan=\"1\" value=\"じつ\"}}実は　ダサいんじゃないかと\nドキドキしてたんだ！{{fun_001B000A arg=\"0x010034003B00\"}}"
  },
  {
    "label": "049",
    "text": "{{anim id=\"37\"}}ふーん、{{delay frames=\"8\"}}まあまあって{{ruby charSpan=\"1\" value=\"かん\"}}感じ？{{pageBreak}}{{anim id=\"0\"}}まあいいや！{{delay frames=\"20\"}}\nせっかく　{{ruby charSpan=\"2\" value=\"きが\"}}着替えたんだし{{delay frames=\"8\"}}\n{{anim id=\"37\"}}このまま　{{ruby charSpan=\"1\" value=\"き\"}}着とくとするよ！{{fun_001B000A arg=\"0x010034003B00\"}}"
  },
  {
    "label": "050",
    "text": "{{anim id=\"9\"}}え～、やっぱり？{{delay frames=\"40\"}}\n{{anim id=\"10\"}}やっぱ　ウチの{{ruby charSpan=\"2\" value=\"じもと\"}}地元の　{{ruby charSpan=\"3\" value=\"ようひんてん\"}}洋品店で\n{{ruby charSpan=\"1\" value=\"か\"}}買ったものじゃ　{{ruby charSpan=\"2\" value=\"しょうぶ\"}}勝負できないか{{delay frames=\"8\"}}・{{delay frames=\"8\"}}・{{delay frames=\"8\"}}・{{fun_001B000A arg=\"0x010034003C00\"}}"
  },
  {
    "label": "051",
    "text": "{{anim id=\"18\"}}えーっ！{{delay frames=\"40\"}}\nそ、そんなに　ひどい？\n\n{{anim id=\"13\"}}ううう{{delay frames=\"8\"}}・{{delay frames=\"8\"}}・{{delay frames=\"8\"}}・{{delay frames=\"20\"}}どうしよう！\n{{ruby charSpan=\"2\" value=\"こんど\"}}今度、これ{{ruby charSpan=\"1\" value=\"き\"}}着て　{{ruby charSpan=\"3\" value=\"しょうてんがい\"}}商店街に\n{{ruby charSpan=\"1\" value=\"い\"}}行こうと{{ruby charSpan=\"1\" value=\"おも\"}}思ってたのに！{{fun_000E0007 arg=\"\"}}{{fun_001B000A arg=\"0x010037003C00\"}}"
  },
  {
    "label": "052",
    "text": "{{anim id=\"22\"}}そうだ！{{delay frames=\"20\"}}\nもう　1{{ruby charSpan=\"1\" value=\"ちゃく\"}}着あるから\nアンタ　もらってやってよ！\n{{anim id=\"0\"}}まぁ　モノは　{{ruby charSpan=\"1\" value=\"わる\"}}悪くないし、\n{{ruby charSpan=\"2\" value=\"ひっこ\"}}引越し{{ruby charSpan=\"1\" value=\"いわ\"}}祝いってことで{{delay frames=\"8\"}}・{{delay frames=\"8\"}}・{{delay frames=\"8\"}}・{{delay frames=\"20\"}}{{anim id=\"37\"}}いいだろ！{{fun_000F0007 arg=\"\"}}{{fun_0001000A arg=\"0x35003600\"}}"
  },
  {
    "label": "053",
    "text": "{{anim id=\"37\"}}{{ruby charSpan=\"1\" value=\"した\"}}下{{ruby charSpan=\"2\" value=\"がめん\"}}画面のから　{{ruby charSpan=\"1\" value=\"も\"}}持ち{{ruby charSpan=\"2\" value=\"ものらん\"}}物欄を{{ruby charSpan=\"1\" value=\"ひら\"}}開いて、{{delay frames=\"15\"}}\n{{ruby charSpan=\"2\" value=\"いまわた\"}}今渡した　{{fun_00030011 arg=\"0x0000\"}}を\n{{ruby charSpan=\"1\" value=\"えら\"}}選んで　{{delay frames=\"8\"}}{{color id=\"2\"}}みにつける{{color id=\"65535\"}}と、{{ruby charSpan=\"2\" value=\"きが\"}}着替えられるよ！{{delay frames=\"20\"}}\n{{anim id=\"35\"}}{{ruby charSpan=\"2\" value=\"おとこまえ\"}}男前は　どんな{{ruby charSpan=\"1\" value=\"ふく\"}}服{{ruby charSpan=\"1\" value=\"き\"}}着ても\n{{ruby charSpan=\"1\" value=\"さま\"}}様になるって　{{ruby charSpan=\"1\" value=\"い\"}}言うだろ！{{delay frames=\"20\"}}\nとりあえず、やってごらん！\n{{anim id=\"0\"}}{{delay frames=\"8\"}}・{{delay frames=\"8\"}}・{{delay frames=\"8\"}}・{{delay frames=\"20\"}}{{anim id=\"16\"}}あ！{{delay frames=\"20\"}}　ちなみに、\nすごい　{{ruby charSpan=\"3\" value=\"きほんてき\"}}基本的な{{ruby charSpan=\"1\" value=\"はなし\"}}話だけどさ！\n\n{{anim id=\"21\"}}{{ruby charSpan=\"1\" value=\"ふく\"}}服の{{ruby charSpan=\"2\" value=\"なまえ\"}}名前の　{{ruby charSpan=\"2\" value=\"さいご\"}}最後に\n{{color id=\"2\"}}N{{color id=\"65535\"}}がついてたら　ノースリーブ、\n{{color id=\"2\"}}L{{color id=\"65535\"}}がついてたら　{{ruby charSpan=\"1\" value=\"なが\"}}長そでだからね！\n{{anim id=\"37\"}}{{ruby charSpan=\"1\" value=\"まめ\"}}豆{{ruby charSpan=\"2\" value=\"ちしき\"}}知識として　{{ruby charSpan=\"1\" value=\"おぼ\"}}覚えておいて！\n{{delay frames=\"20\"}}{{fun_00070005 arg=\"\"}}！"
  },
  {
    "label": "054",
    "text": "{{ruby charSpan=\"1\" value=\"した\"}}下{{ruby charSpan=\"2\" value=\"がめん\"}}画面のから　{{ruby charSpan=\"1\" value=\"も\"}}持ち{{ruby charSpan=\"2\" value=\"ものらん\"}}物欄を{{ruby charSpan=\"1\" value=\"ひら\"}}開いて、{{delay frames=\"8\"}}\n{{ruby charSpan=\"2\" value=\"いまわた\"}}今渡した　{{fun_00030011 arg=\"0x0000\"}}を\n{{ruby charSpan=\"1\" value=\"えら\"}}選んで、{{delay frames=\"8\"}}{{color id=\"2\"}}みにつける{{color id=\"65535\"}}と{{delay frames=\"8\"}}・{{delay frames=\"8\"}}・{{delay frames=\"8\"}}・{{ruby charSpan=\"2\" value=\"きが\"}}着替えれるよ！\n{{anim id=\"35\"}}{{ruby charSpan=\"1\" value=\"なん\"}}何でも　{{ruby charSpan=\"1\" value=\"き\"}}着こなしてこそ\nオシャレっ{{ruby charSpan=\"1\" value=\"こ\"}}子さ！{{delay frames=\"20\"}}\nとりあえず　やってごらん！\n{{anim id=\"0\"}}{{delay frames=\"8\"}}・{{delay frames=\"8\"}}・{{delay frames=\"8\"}}・{{delay frames=\"20\"}}{{anim id=\"16\"}}あ！{{delay frames=\"20\"}}　ちなみに、\nすごい　{{ruby charSpan=\"3\" value=\"きほんてき\"}}基本的な{{ruby charSpan=\"1\" value=\"はなし\"}}話だけどさ！\n\n{{anim id=\"21\"}}{{ruby charSpan=\"1\" value=\"ふく\"}}服の{{ruby charSpan=\"2\" value=\"なまえ\"}}名前の　{{ruby charSpan=\"2\" value=\"さいご\"}}最後に\n{{color id=\"2\"}}N{{color id=\"65535\"}}がついてたら　ノースリーブ、\n{{color id=\"2\"}}L{{color id=\"65535\"}}がついてたら　{{ruby charSpan=\"1\" value=\"なが\"}}長そでだからね！\n{{anim id=\"37\"}}{{ruby charSpan=\"1\" value=\"まめ\"}}豆{{ruby charSpan=\"2\" value=\"ちしき\"}}知識として　{{ruby charSpan=\"1\" value=\"おぼ\"}}覚えておいて！\n{{delay frames=\"20\"}}{{fun_00070005 arg=\"\"}}！"
  },
  {
    "label": "055",
    "text": "{{fun_0001000A arg=\"0x38003900\"}}"
  },
  {
    "label": "056",
    "text": "{{anim id=\"22\"}}そうだ！{{delay frames=\"20\"}}\nこの{{ruby charSpan=\"1\" value=\"ふく\"}}服　アンタに　あげちゃう！\n\n{{anim id=\"37\"}}{{ruby charSpan=\"2\" value=\"おとこまえ\"}}男前は　{{ruby charSpan=\"1\" value=\"なに\"}}何{{ruby charSpan=\"1\" value=\"き\"}}着ても\n{{ruby charSpan=\"1\" value=\"さま\"}}様になるっていうだろ！{{delay frames=\"20\"}}\nチャレンジしてみなよ！{{fun_00100007 arg=\"\"}}"
  },
  {
    "label": "057",
    "text": "{{anim id=\"22\"}}そうだ！{{delay frames=\"20\"}}\nこの{{ruby charSpan=\"1\" value=\"ふく\"}}服　アンタにあげちゃう！\n\n{{anim id=\"37\"}}どんな{{ruby charSpan=\"1\" value=\"ふく\"}}服でも　{{ruby charSpan=\"1\" value=\"き\"}}着こなしてこそ\n{{ruby charSpan=\"1\" value=\"しん\"}}真のオシャレっ{{ruby charSpan=\"1\" value=\"こ\"}}子って　やつさ！{{delay frames=\"20\"}}\nチャレンジしてみなよ！{{fun_00100007 arg=\"\"}}"
  },
  {
    "label": "058",
    "text": "{{ruby charSpan=\"1\" value=\"した\"}}下{{ruby charSpan=\"2\" value=\"がめん\"}}画面のから{{delay frames=\"8\"}}\n{{ruby charSpan=\"1\" value=\"も\"}}持ち{{ruby charSpan=\"2\" value=\"ものらん\"}}物欄を{{ruby charSpan=\"1\" value=\"ひら\"}}開いて{{delay frames=\"8\"}}・{{delay frames=\"8\"}}・{{delay frames=\"8\"}}・{{pageBreak}}{{anim id=\"37\"}}{{ruby charSpan=\"2\" value=\"いまわた\"}}今渡した　{{fun_00030011 arg=\"0x0000\"}}を\n{{ruby charSpan=\"1\" value=\"えら\"}}選んで、{{delay frames=\"8\"}}{{color id=\"2\"}}みにつける{{color id=\"65535\"}}と{{delay frames=\"8\"}}　{{ruby charSpan=\"2\" value=\"きが\"}}着替えることが\nできるからね！\n{{anim id=\"0\"}}{{delay frames=\"8\"}}・{{delay frames=\"8\"}}・{{delay frames=\"8\"}}・{{delay frames=\"20\"}}{{anim id=\"16\"}}あ！{{delay frames=\"20\"}}　ちなみに、\nすごい　{{ruby charSpan=\"3\" value=\"きほんてき\"}}基本的な{{ruby charSpan=\"1\" value=\"はなし\"}}話だけどさ！\n\n{{anim id=\"21\"}}{{ruby charSpan=\"1\" value=\"ふく\"}}服の{{ruby charSpan=\"2\" value=\"なまえ\"}}名前の　{{ruby charSpan=\"2\" value=\"さいご\"}}最後に\n{{color id=\"2\"}}N{{color id=\"65535\"}}がついてたら　ノースリーブ、\n{{color id=\"2\"}}L{{color id=\"65535\"}}がついてたら　{{ruby charSpan=\"1\" value=\"なが\"}}長そでだからね！\n{{anim id=\"37\"}}{{ruby charSpan=\"1\" value=\"まめ\"}}豆{{ruby charSpan=\"2\" value=\"ちしき\"}}知識として　{{ruby charSpan=\"1\" value=\"おぼ\"}}覚えておいて！\n{{delay frames=\"20\"}}{{fun_00070005 arg=\"\"}}！"
  },
  {
    "label": "059",
    "text": "ああ、アンタもし　{{ruby charSpan=\"1\" value=\"ふく\"}}服{{ruby charSpan=\"1\" value=\"さが\"}}探してんなら{{delay frames=\"8\"}}\n{{ruby charSpan=\"3\" value=\"しょうてんがい\"}}商店街の　{{color id=\"2\"}}エイブルシスターズ{{color id=\"65535\"}}っていう{{delay frames=\"8\"}}\n{{ruby charSpan=\"2\" value=\"した\"}}仕立て{{ruby charSpan=\"1\" value=\"や\"}}屋が　いいよ！\n{{anim id=\"0\"}}{{delay frames=\"8\"}}・{{delay frames=\"8\"}}・{{delay frames=\"8\"}}・{{delay frames=\"20\"}}{{anim id=\"16\"}}あ！{{delay frames=\"20\"}}　ちなみに、\nすごい　{{ruby charSpan=\"3\" value=\"きほんてき\"}}基本的な{{ruby charSpan=\"1\" value=\"はなし\"}}話だけどさ！\n\n{{anim id=\"21\"}}{{ruby charSpan=\"1\" value=\"ふく\"}}服の{{ruby charSpan=\"2\" value=\"なまえ\"}}名前の　{{ruby charSpan=\"2\" value=\"さいご\"}}最後に\n{{color id=\"2\"}}N{{color id=\"65535\"}}がついてたら　ノースリーブ、\n{{color id=\"2\"}}L{{color id=\"65535\"}}がついてたら　{{ruby charSpan=\"1\" value=\"なが\"}}長そでだからね！\n{{anim id=\"37\"}}{{ruby charSpan=\"1\" value=\"まめ\"}}豆{{ruby charSpan=\"2\" value=\"ちしき\"}}知識として　{{ruby charSpan=\"1\" value=\"おぼ\"}}覚えておいて！\n{{delay frames=\"20\"}}{{fun_00070005 arg=\"\"}}！"
  },
  {
    "label": "060",
    "text": "ああ、アンタもし　{{ruby charSpan=\"1\" value=\"ふく\"}}服{{ruby charSpan=\"1\" value=\"さが\"}}探してんなら{{delay frames=\"8\"}}\n{{ruby charSpan=\"3\" value=\"しょうてんがい\"}}商店街の　{{color id=\"2\"}}エイブルシスターズ{{color id=\"65535\"}}っていう{{delay frames=\"8\"}}\n{{ruby charSpan=\"2\" value=\"した\"}}仕立て{{ruby charSpan=\"1\" value=\"や\"}}屋が　いいよ！\n{{anim id=\"37\"}}{{ruby charSpan=\"2\" value=\"まいにち\"}}毎日　{{ruby charSpan=\"1\" value=\"しな\"}}品ぞろえが　{{ruby charSpan=\"1\" value=\"か\"}}変わるし、{{delay frames=\"8\"}}\nきっと　{{ruby charSpan=\"2\" value=\"じぶん\"}}自分にピッタリのが\n{{ruby charSpan=\"1\" value=\"み\"}}見つかるよ！\n{{anim id=\"0\"}}{{delay frames=\"8\"}}・{{delay frames=\"8\"}}・{{delay frames=\"8\"}}・{{delay frames=\"20\"}}{{anim id=\"16\"}}あ！{{delay frames=\"20\"}}　ちなみに、\nすごい　{{ruby charSpan=\"3\" value=\"きほんてき\"}}基本的な{{ruby charSpan=\"1\" value=\"はなし\"}}話だけどさ！\n\n{{anim id=\"21\"}}{{ruby charSpan=\"1\" value=\"ふく\"}}服の{{ruby charSpan=\"2\" value=\"なまえ\"}}名前の　{{ruby charSpan=\"2\" value=\"さいご\"}}最後に\n{{color id=\"2\"}}N{{color id=\"65535\"}}がついてたら　ノースリーブ、\n{{color id=\"2\"}}L{{color id=\"65535\"}}がついてたら　{{ruby charSpan=\"1\" value=\"なが\"}}長そでだからね！\n{{anim id=\"37\"}}{{ruby charSpan=\"1\" value=\"まめ\"}}豆{{ruby charSpan=\"2\" value=\"ちしき\"}}知識として　{{ruby charSpan=\"1\" value=\"おぼ\"}}覚えておいて！\n{{delay frames=\"20\"}}{{fun_00070005 arg=\"\"}}！"
  },
  {
    "label": "061",
    "text": "{{anim id=\"0\"}}へぇ　この{{ruby charSpan=\"1\" value=\"あた\"}}辺り？{{delay frames=\"40\"}}\n{{anim id=\"37\"}}いいとこ　{{ruby charSpan=\"1\" value=\"み\"}}見つかって\nよかったね！"
  },
  {
    "label": "062",
    "text": "{{anim id=\"0\"}}へぇ　そっちにしたんだ？{{delay frames=\"40\"}}\n{{anim id=\"37\"}}いいとこ　{{ruby charSpan=\"1\" value=\"み\"}}見つかって\nよかったね！　"
  },
  {
    "label": "063",
    "text": "ふ～ん　あっちのほうか{{delay frames=\"8\"}}・{{delay frames=\"8\"}}・{{delay frames=\"8\"}}・{{delay frames=\"40\"}}\n{{anim id=\"37\"}}まぁ、いいとこ　みつかって\nよかったね！"
  },
  {
    "label": "064",
    "text": "{{anim id=\"0\"}}{{ruby charSpan=\"2\" value=\"いちおう\"}}一応　ポストついてるんだろ？{{delay frames=\"20\"}}\nこれで、アンタに　{{ruby charSpan=\"2\" value=\"てがみ\"}}手紙{{ruby charSpan=\"1\" value=\"か\"}}書いても\n{{anim id=\"37\"}}ちゃんと　{{ruby charSpan=\"1\" value=\"とど\"}}届くね！\n{{anim id=\"0\"}}{{ruby charSpan=\"1\" value=\"ちか\"}}近いうちに　{{ruby charSpan=\"2\" value=\"てがみ\"}}手紙\n{{ruby charSpan=\"1\" value=\"か\"}}書いてみるし、{{ruby charSpan=\"1\" value=\"たの\"}}楽しみにしてて！\n\n{{anim id=\"22\"}}あ！{{delay frames=\"20\"}}\nっていうか、アンタも{{ruby charSpan=\"1\" value=\"か\"}}書きなよ！\n\n{{anim id=\"0\"}}{{color id=\"2\"}}{{ruby charSpan=\"3\" value=\"しょうてんがい\"}}商店街の{{ruby charSpan=\"1\" value=\"みせ\"}}店{{color id=\"65535\"}}で　{{color id=\"2\"}}びんせん{{color id=\"65535\"}}を{{ruby charSpan=\"1\" value=\"か\"}}買ってさ、\n{{ruby charSpan=\"1\" value=\"だ\"}}出すときは　{{color id=\"2\"}}{{ruby charSpan=\"3\" value=\"ゆうびんきょく\"}}郵便局{{color id=\"65535\"}}に\n{{ruby charSpan=\"1\" value=\"も\"}}持っていくんだ\n{{anim id=\"6\"}}でも{{delay frames=\"8\"}}・{{delay frames=\"8\"}}・{{delay frames=\"8\"}}・{{delay frames=\"20\"}}{{ruby charSpan=\"2\" value=\"ないよう\"}}内容には　{{ruby charSpan=\"1\" value=\"き\"}}気をつけな！{{delay frames=\"40\"}}\n{{anim id=\"21\"}}この{{ruby charSpan=\"1\" value=\"むら\"}}村じゃ　{{ruby charSpan=\"1\" value=\"ひと\"}}人から{{ruby charSpan=\"1\" value=\"き\"}}来た{{ruby charSpan=\"2\" value=\"てがみ\"}}手紙は\n{{ruby charSpan=\"1\" value=\"み\"}}見せびらかして　なんぼなんだ！\n{{anim id=\"27\"}}{{ruby charSpan=\"1\" value=\"へん\"}}変なこと　{{ruby charSpan=\"1\" value=\"か\"}}書くと、\n{{ruby charSpan=\"1\" value=\"いた\"}}痛い{{ruby charSpan=\"1\" value=\"め\"}}目{{ruby charSpan=\"1\" value=\"み\"}}見るのは　アンタだからね！{{delay frames=\"20\"}}\n{{fun_00070005 arg=\"\"}}！"
  },
  {
    "label": "065",
    "text": "{{anim id=\"13\"}}くっそー！　{{ruby charSpan=\"2\" value=\"でおく\"}}出遅れた！\n{{ruby charSpan=\"1\" value=\"あたら\"}}新しい　{{ruby charSpan=\"1\" value=\"か\"}}書き{{ruby charSpan=\"1\" value=\"こ\"}}込みあるかも\nしれないのに～！\n{{anim id=\"0\"}}{{ruby charSpan=\"1\" value=\"し\"}}知ってる？{{delay frames=\"40\"}}\nあの{{ruby charSpan=\"3\" value=\"けいじばん\"}}掲示板、{{ruby charSpan=\"1\" value=\"あたら\"}}新しい{{ruby charSpan=\"2\" value=\"きじ\"}}記事があると\n{{color id=\"2\"}}{{ruby charSpan=\"1\" value=\"とり\"}}鳥{{color id=\"65535\"}}が　とまることに　なってるんだ！\n{{anim id=\"21\"}}{{ruby charSpan=\"1\" value=\"ちい\"}}小さい{{ruby charSpan=\"1\" value=\"からだ\"}}体で　がんばってる{{ruby charSpan=\"1\" value=\"すがた\"}}姿が\nけなげでさ{{delay frames=\"8\"}}・{{delay frames=\"8\"}}・{{delay frames=\"8\"}}・{{delay frames=\"20\"}}{{anim id=\"37\"}}あの{{ruby charSpan=\"1\" value=\"すがた\"}}姿　{{ruby charSpan=\"1\" value=\"み\"}}見たさに\n{{ruby charSpan=\"3\" value=\"けいじばん\"}}掲示板　{{ruby charSpan=\"1\" value=\"み\"}}見に{{ruby charSpan=\"1\" value=\"い\"}}行くヤツも　いるくらい！\n{{anim id=\"37\"}}アンタも　{{color id=\"2\"}}{{ruby charSpan=\"1\" value=\"とり\"}}鳥{{color id=\"65535\"}}を　{{ruby charSpan=\"1\" value=\"み\"}}見かけたら\n{{color id=\"2\"}}{{ruby charSpan=\"3\" value=\"けいじばん\"}}掲示板{{color id=\"65535\"}}　{{ruby charSpan=\"1\" value=\"よ\"}}読んでやるんだよ！{{delay frames=\"20\"}}\n{{fun_00070005 arg=\"\"}}！"
  },
  {
    "label": "066",
    "text": "{{anim id=\"37\"}}{{ruby charSpan=\"1\" value=\"よ\"}}良かった！{{delay frames=\"20\"}}\n{{ruby charSpan=\"3\" value=\"けいじばん\"}}掲示板は　やっぱり　{{ruby charSpan=\"2\" value=\"まいにち\"}}毎日\nチェックしとかないとね！\n{{anim id=\"0\"}}{{ruby charSpan=\"1\" value=\"し\"}}知ってる？{{delay frames=\"40\"}}\nあの{{ruby charSpan=\"3\" value=\"けいじばん\"}}掲示板、{{ruby charSpan=\"1\" value=\"あたら\"}}新しい{{ruby charSpan=\"2\" value=\"きじ\"}}記事があると\n{{color id=\"2\"}}{{ruby charSpan=\"1\" value=\"とり\"}}鳥{{color id=\"65535\"}}が　とまることに　なってるんだ！\n{{anim id=\"21\"}}{{ruby charSpan=\"1\" value=\"ちい\"}}小さい{{ruby charSpan=\"1\" value=\"からだ\"}}体で　がんばってる{{ruby charSpan=\"1\" value=\"すがた\"}}姿が\nけなげでさ{{delay frames=\"8\"}}・{{delay frames=\"8\"}}・{{delay frames=\"8\"}}・{{delay frames=\"20\"}}{{anim id=\"37\"}}あの{{ruby charSpan=\"1\" value=\"すがた\"}}姿　{{ruby charSpan=\"1\" value=\"み\"}}見たさに\n{{ruby charSpan=\"3\" value=\"けいじばん\"}}掲示板　{{ruby charSpan=\"1\" value=\"み\"}}見に{{ruby charSpan=\"1\" value=\"い\"}}行くヤツも　いるくらい！\n{{anim id=\"37\"}}アンタも　{{color id=\"2\"}}{{ruby charSpan=\"1\" value=\"とり\"}}鳥{{color id=\"65535\"}}を　{{ruby charSpan=\"1\" value=\"み\"}}見かけたら\n{{color id=\"2\"}}{{ruby charSpan=\"3\" value=\"けいじばん\"}}掲示板{{color id=\"65535\"}}　{{ruby charSpan=\"1\" value=\"よ\"}}読んでやるんだよ！{{delay frames=\"20\"}}\n{{fun_00070005 arg=\"\"}}！"
  },
  {
    "label": "067",
    "text": "{{anim id=\"15\"}}えっ？{{delay frames=\"20\"}}　{{ruby charSpan=\"1\" value=\"し\"}}知らない？{{delay frames=\"40\"}}\n{{anim id=\"0\"}}{{color id=\"2\"}}{{ruby charSpan=\"1\" value=\"えき\"}}駅の{{ruby charSpan=\"1\" value=\"ま\"}}真ん{{ruby charSpan=\"1\" value=\"まえ\"}}前{{color id=\"65535\"}}に　でっかい{{color id=\"2\"}}{{ruby charSpan=\"3\" value=\"けいじばん\"}}掲示板{{color id=\"65535\"}}\nあっただろ？\n{{anim id=\"37\"}}イベントの　{{ruby charSpan=\"1\" value=\"し\"}}知らせみたいな\n{{ruby charSpan=\"1\" value=\"むら\"}}村の{{ruby charSpan=\"2\" value=\"よてい\"}}予定は　あそこに\nはり{{ruby charSpan=\"1\" value=\"だ\"}}出されるんだ！\n{{anim id=\"0\"}}あの{{ruby charSpan=\"3\" value=\"けいじばん\"}}掲示板さ、\n{{ruby charSpan=\"1\" value=\"あたら\"}}新しい{{ruby charSpan=\"2\" value=\"きじ\"}}記事があると\n{{color id=\"2\"}}{{ruby charSpan=\"1\" value=\"とり\"}}鳥{{color id=\"65535\"}}が　とまることに　なってるんだよね！\n{{anim id=\"21\"}}どういう{{ruby charSpan=\"2\" value=\"しく\"}}仕組みか　{{ruby charSpan=\"1\" value=\"し\"}}知らないけど、\nけなげでさ～！{{delay frames=\"20\"}}　{{anim id=\"37\"}}あの{{ruby charSpan=\"1\" value=\"すがた\"}}姿　{{ruby charSpan=\"1\" value=\"み\"}}見たさに\n{{ruby charSpan=\"3\" value=\"けいじばん\"}}掲示板　{{ruby charSpan=\"1\" value=\"み\"}}見に{{ruby charSpan=\"1\" value=\"い\"}}行くヤツも　いるくらい！\n{{anim id=\"37\"}}アンタも　{{color id=\"2\"}}{{ruby charSpan=\"1\" value=\"とり\"}}鳥{{color id=\"65535\"}}を{{ruby charSpan=\"1\" value=\"み\"}}見かけたら\n{{color id=\"2\"}}{{ruby charSpan=\"3\" value=\"けいじばん\"}}掲示板{{color id=\"65535\"}}　{{ruby charSpan=\"1\" value=\"よ\"}}読んでみてよ！{{delay frames=\"8\"}}　ね！{{delay frames=\"20\"}}\n{{fun_00070005 arg=\"\"}}！"
  },
  {
    "label": "068",
    "text": "{{anim id=\"0\"}}{{ruby charSpan=\"2\" value=\"かぐ\"}}家具とか　{{ruby charSpan=\"3\" value=\"にちようひん\"}}日用品なら　{{color id=\"2\"}}まめつぶ{{ruby charSpan=\"2\" value=\"しょうてん\"}}商店{{color id=\"65535\"}}、{{delay frames=\"8\"}}\n{{ruby charSpan=\"1\" value=\"ふく\"}}服　{{ruby charSpan=\"1\" value=\"か\"}}買うなら　{{color id=\"2\"}}エイブルシスターズ{{color id=\"65535\"}}ね！{{delay frames=\"40\"}}\n{{anim id=\"37\"}}{{ruby charSpan=\"1\" value=\"い\"}}行ってみりゃ、どんな{{ruby charSpan=\"1\" value=\"みせ\"}}店か　わかるよ\n{{anim id=\"21\"}}ここの{{ruby charSpan=\"1\" value=\"みせ\"}}店は　{{ruby charSpan=\"1\" value=\"ひ\"}}日によって\n{{ruby charSpan=\"1\" value=\"しな\"}}品ぞろえが　{{ruby charSpan=\"1\" value=\"か\"}}変わるから、\nこまめに　{{ruby charSpan=\"1\" value=\"み\"}}見るのがいいよ\n{{anim id=\"27\"}}ウチなんか、1{{ruby charSpan=\"1\" value=\"にち\"}}日に1{{ruby charSpan=\"1\" value=\"かい\"}}回\n{{ruby charSpan=\"1\" value=\"かお\"}}顔{{ruby charSpan=\"1\" value=\"だ\"}}出さないと　もう　ソンした{{ruby charSpan=\"2\" value=\"きぶん\"}}気分に\nなっちゃうくらいだよ！{{delay frames=\"20\"}}　{{fun_00070005 arg=\"\"}}！"
  },
  {
    "label": "069",
    "text": "{{anim id=\"0\"}}{{ruby charSpan=\"2\" value=\"かぐ\"}}家具とか　{{ruby charSpan=\"3\" value=\"にちようひん\"}}日用品なら　{{color id=\"2\"}}コンビニまめつぶ{{color id=\"65535\"}}、{{delay frames=\"8\"}}\n{{ruby charSpan=\"1\" value=\"ふく\"}}服　{{ruby charSpan=\"1\" value=\"か\"}}買うなら　{{color id=\"2\"}}エイブルシスターズ{{color id=\"65535\"}}ね！{{delay frames=\"40\"}}\n{{anim id=\"37\"}}{{ruby charSpan=\"1\" value=\"い\"}}行ってみりゃ、どんな{{ruby charSpan=\"1\" value=\"みせ\"}}店か　わかるよ\n{{anim id=\"21\"}}ここの{{ruby charSpan=\"1\" value=\"みせ\"}}店は　{{ruby charSpan=\"1\" value=\"ひ\"}}日によって\n{{ruby charSpan=\"1\" value=\"しな\"}}品ぞろえが　{{ruby charSpan=\"1\" value=\"か\"}}変わるから、\nこまめに　{{ruby charSpan=\"1\" value=\"み\"}}見るのがいいよ\n{{anim id=\"27\"}}ウチなんか、1{{ruby charSpan=\"1\" value=\"にち\"}}日に1{{ruby charSpan=\"1\" value=\"かい\"}}回\n{{ruby charSpan=\"1\" value=\"かお\"}}顔{{ruby charSpan=\"1\" value=\"だ\"}}出さないと　もう　ソンした{{ruby charSpan=\"2\" value=\"きぶん\"}}気分に\nなっちゃうくらいだよ！{{delay frames=\"20\"}}　{{fun_00070005 arg=\"\"}}！"
  },
  {
    "label": "070",
    "text": "{{anim id=\"0\"}}{{ruby charSpan=\"2\" value=\"かぐ\"}}家具とか　{{ruby charSpan=\"3\" value=\"にちようひん\"}}日用品なら　{{color id=\"2\"}}スーパーまめつぶ{{color id=\"65535\"}}、{{delay frames=\"8\"}}\n{{ruby charSpan=\"1\" value=\"ふく\"}}服　{{ruby charSpan=\"1\" value=\"か\"}}買うなら　{{color id=\"2\"}}エイブルシスターズ{{color id=\"65535\"}}ね！{{delay frames=\"40\"}}\n{{anim id=\"37\"}}{{ruby charSpan=\"1\" value=\"い\"}}行ってみりゃ、どんな{{ruby charSpan=\"1\" value=\"みせ\"}}店か　わかるよ\n{{anim id=\"21\"}}ここの{{ruby charSpan=\"1\" value=\"みせ\"}}店は　{{ruby charSpan=\"1\" value=\"ひ\"}}日によって\n{{ruby charSpan=\"1\" value=\"しな\"}}品ぞろえが　{{ruby charSpan=\"1\" value=\"か\"}}変わるから、\nこまめに　{{ruby charSpan=\"1\" value=\"み\"}}見るのがいいよ\n{{anim id=\"27\"}}ウチなんか、1{{ruby charSpan=\"1\" value=\"にち\"}}日に1{{ruby charSpan=\"1\" value=\"かい\"}}回\n{{ruby charSpan=\"1\" value=\"かお\"}}顔{{ruby charSpan=\"1\" value=\"だ\"}}出さないと　もう　ソンした{{ruby charSpan=\"2\" value=\"きぶん\"}}気分に\nなっちゃうくらいだよ！{{delay frames=\"20\"}}　{{fun_00070005 arg=\"\"}}！"
  },
  {
    "label": "071",
    "text": "{{anim id=\"0\"}}{{ruby charSpan=\"2\" value=\"かぐ\"}}家具とか　{{ruby charSpan=\"3\" value=\"にちようひん\"}}日用品なら\n{{color id=\"2\"}}ホームセンターまめつぶ{{color id=\"65535\"}}、{{delay frames=\"8\"}}\n{{anim id=\"37\"}}{{ruby charSpan=\"1\" value=\"ふく\"}}服　{{ruby charSpan=\"1\" value=\"か\"}}買うなら　{{color id=\"2\"}}エイブルシスターズ{{color id=\"65535\"}}ね！{{delay frames=\"40\"}}\n{{anim id=\"21\"}}ここの{{ruby charSpan=\"1\" value=\"みせ\"}}店は　{{ruby charSpan=\"1\" value=\"ひ\"}}日によって\n{{ruby charSpan=\"1\" value=\"しな\"}}品ぞろえが　{{ruby charSpan=\"1\" value=\"か\"}}変わるから、\nこまめに　{{ruby charSpan=\"1\" value=\"み\"}}見るのがいいよ\n{{anim id=\"27\"}}ウチなんか、1{{ruby charSpan=\"1\" value=\"にち\"}}日に1{{ruby charSpan=\"1\" value=\"かい\"}}回\n{{ruby charSpan=\"1\" value=\"かお\"}}顔{{ruby charSpan=\"1\" value=\"だ\"}}出さないと　もう　ソンした{{ruby charSpan=\"2\" value=\"きぶん\"}}気分に\nなっちゃうくらいだよ！{{delay frames=\"20\"}}　{{fun_00070005 arg=\"\"}}！"
  },
  {
    "label": "072",
    "text": "{{anim id=\"0\"}}{{ruby charSpan=\"2\" value=\"かぐ\"}}家具とか　{{ruby charSpan=\"3\" value=\"にちようひん\"}}日用品なら　{{color id=\"2\"}}まめつぶデパート{{color id=\"65535\"}}、{{delay frames=\"8\"}}\n{{ruby charSpan=\"1\" value=\"ふく\"}}服　{{ruby charSpan=\"1\" value=\"か\"}}買うなら　{{color id=\"2\"}}エイブルシスターズ{{color id=\"65535\"}}ね！{{delay frames=\"40\"}}\n{{anim id=\"37\"}}{{ruby charSpan=\"1\" value=\"い\"}}行ってみりゃ、どんな{{ruby charSpan=\"1\" value=\"みせ\"}}店か　わかるよ\n{{anim id=\"21\"}}ここの{{ruby charSpan=\"1\" value=\"みせ\"}}店は　{{ruby charSpan=\"1\" value=\"ひ\"}}日によって\n{{ruby charSpan=\"1\" value=\"しな\"}}品ぞろえが　{{ruby charSpan=\"1\" value=\"か\"}}変わるから、\nこまめに　{{ruby charSpan=\"1\" value=\"み\"}}見るのがいいよ\n{{anim id=\"27\"}}ウチなんか、1{{ruby charSpan=\"1\" value=\"にち\"}}日に1{{ruby charSpan=\"1\" value=\"かい\"}}回\n{{ruby charSpan=\"1\" value=\"かお\"}}顔{{ruby charSpan=\"1\" value=\"だ\"}}出さないと　もう　ソンした{{ruby charSpan=\"2\" value=\"きぶん\"}}気分に\nなっちゃうくらいだよ！{{delay frames=\"20\"}}　{{fun_00070005 arg=\"\"}}！"
  }
]