﻿[
  {
    "label": "001",
    "text": "{{fun_0001000C arg=\"\"}}{{fun_0003000C arg=\"\"}}やっほぉ～！{{delay frames=\"8\"}}\n{{fun_00080005 arg=\"\"}}{{fun_000D0005 arg=\"\"}}！{{pageBreak}}{{anim id=\"1\"}}{{ruby charSpan=\"1\" value=\"いま\"}}今なら　{{fun_00010011 arg=\"0x0100\"}}{{fun_000D0005 arg=\"\"}}が、{{delay frames=\"20\"}}\nどんな　しつもんにも\nこたえてくれるよぉ、{{delay frames=\"8\"}}{{fun_00070005 arg=\"\"}}{{fun_0009000C arg=\"\"}}"
  },
  {
    "label": "002",
    "text": "{{fun_0001000C arg=\"\"}}{{fun_0007000C arg=\"\"}}{{fun_0000000C arg=\"\"}}{{fun_0008000C arg=\"\"}}{{anim id=\"15\"}}{{fun_000B0007 arg=\"\"}}ちょっと　{{fun_00010011 arg=\"0x0000\"}}{{fun_000D0005 arg=\"\"}}{{delay frames=\"20\"}}\nなんなの　この{{ruby charSpan=\"1\" value=\"あそ\"}}遊び？{{delay frames=\"20\"}}{{anim id=\"0\"}}{{pageBreak}}{{fun_0002000C arg=\"\"}}{{fun_0004000C arg=\"\"}}まぁ　いいわ{{delay frames=\"8\"}}・{{delay frames=\"8\"}}・{{delay frames=\"8\"}}・{{pageBreak}}{{fun_0001000C arg=\"\"}}{{fun_0003000C arg=\"\"}}{{anim id=\"1\"}}{{fun_00080005 arg=\"\"}}{{fun_000D0005 arg=\"\"}}、{{delay frames=\"20\"}}\nなんでも{{ruby charSpan=\"1\" value=\"き\"}}聞きたいことを\n{{ruby charSpan=\"1\" value=\"い\"}}言ってみなさい、{{delay frames=\"8\"}}{{fun_00070005 arg=\"\"}}{{fun_0009000C arg=\"\"}}{{fun_00020008 arg=\"0x03000000080000000C00000010000000\"}}\n{{ruby charSpan=\"1\" value=\"す\"}}好きな{{ruby charSpan=\"1\" value=\"た\"}}食べ{{ruby charSpan=\"1\" value=\"もの\"}}物は？\n{{ruby charSpan=\"2\" value=\"しょうらい\"}}将来の{{ruby charSpan=\"1\" value=\"ゆめ\"}}夢は？\n{{ruby charSpan=\"2\" value=\"れんあい\"}}恋愛{{ruby charSpan=\"1\" value=\"かん\"}}観は？\n{{ruby charSpan=\"2\" value=\"ねんれい\"}}年齢は？"
  },
  {
    "label": "003",
    "text": "{{anim id=\"5\"}}いいしつもん　だねぇ！{{delay frames=\"20\"}}\nわくわくするよぉ！　{{delay frames=\"8\"}}{{fun_00070005 arg=\"\"}}！{{fun_0009000C arg=\"\"}}"
  },
  {
    "label": "004",
    "text": "{{fun_0001000C arg=\"\"}}{{fun_0008000C arg=\"\"}}{{anim id=\"9\"}}{{ruby charSpan=\"1\" value=\"す\"}}好きな{{ruby charSpan=\"1\" value=\"た\"}}食べ{{ruby charSpan=\"1\" value=\"もの\"}}物？{{delay frames=\"40\"}}\nなんだか　こどもっぽい\n{{ruby charSpan=\"2\" value=\"しつもん\"}}質問ねぇ{{delay frames=\"8\"}}・{{delay frames=\"8\"}}・{{delay frames=\"8\"}}・{{pageBreak}}{{anim id=\"11\"}}う～ん　あえて{{ruby charSpan=\"1\" value=\"い\"}}言うなら{{delay frames=\"8\"}}・{{delay frames=\"8\"}}・{{delay frames=\"8\"}}・{{delay frames=\"20\"}}\nセクシーな{{ruby charSpan=\"1\" value=\"た\"}}食べ{{ruby charSpan=\"1\" value=\"もの\"}}物　かしら{{fun_0009000C arg=\"\"}}"
  },
  {
    "label": "005",
    "text": "{{fun_0002000C arg=\"\"}}{{fun_0005000C arg=\"\"}}{{fun_0000000C arg=\"\"}}{{fun_0005000C arg=\"\"}}{{anim id=\"15\"}}セクシーな{{ruby charSpan=\"1\" value=\"た\"}}食べもの～？！{{delay frames=\"20\"}}\n{{ruby charSpan=\"1\" value=\"なに\"}}何それ～！{{fun_0009000C arg=\"\"}}"
  },
  {
    "label": "006",
    "text": "{{fun_0000000C arg=\"\"}}{{fun_0007000C arg=\"\"}}{{anim id=\"1\"}}そうねぇ{{delay frames=\"8\"}}・{{delay frames=\"8\"}}・{{delay frames=\"8\"}}・{{delay frames=\"20\"}}\nたとえば{{delay frames=\"8\"}}　{{fun_001A0005 arg=\"0x00CD\"}}ね！{{pageBreak}}あの{{ruby charSpan=\"1\" value=\"いろ\"}}色、{{delay frames=\"20\"}}ツヤ、{{delay frames=\"20\"}}{{ruby charSpan=\"1\" value=\"かたち\"}}形{{delay frames=\"8\"}}・{{delay frames=\"8\"}}・{{delay frames=\"8\"}}・{{delay frames=\"20\"}}\n{{anim id=\"4\"}}{{ruby charSpan=\"1\" value=\"み\"}}見れば{{ruby charSpan=\"1\" value=\"み\"}}見るほど　セクシーよ！\n{{delay frames=\"8\"}}{{fun_00070005 arg=\"\"}}！{{fun_0009000C arg=\"\"}}"
  },
  {
    "label": "007",
    "text": "{{fun_0000000C arg=\"\"}}{{fun_0005000C arg=\"\"}}{{anim id=\"9\"}}うぅ～{{delay frames=\"8\"}}・{{delay frames=\"8\"}}・{{delay frames=\"8\"}}・{{delay frames=\"20\"}}\nボクには　わからない\nかんかくだなぁ、{{delay frames=\"8\"}}{{fun_00070005 arg=\"\"}}"
  },
  {
    "label": "008",
    "text": "{{anim id=\"5\"}}うわぁ～{{delay frames=\"20\"}}\nたしかに　{{ruby charSpan=\"1\" value=\"き\"}}気になるねぇ！{{fun_0009000C arg=\"\"}}"
  },
  {
    "label": "009",
    "text": "{{fun_0001000C arg=\"\"}}{{fun_0008000C arg=\"\"}}{{anim id=\"23\"}}アタシの{{ruby charSpan=\"2\" value=\"しょうらい\"}}将来の{{ruby charSpan=\"1\" value=\"ゆめ\"}}夢？{{fun_00010007 arg=\"\"}}\n{{anim id=\"27\"}}そんなの{{delay frames=\"20\"}}　もうかなってるわ{{pageBreak}}{{anim id=\"43\"}}{{fun_00050005 arg=\"\"}}{{ruby charSpan=\"1\" value=\"むら\"}}村みたいな　{{ruby charSpan=\"2\" value=\"いなか\"}}田舎で{{delay frames=\"20\"}}\nのんびり　{{ruby charSpan=\"2\" value=\"せいかつ\"}}生活すること{{delay frames=\"8\"}}・{{delay frames=\"8\"}}・{{delay frames=\"8\"}}・{{delay frames=\"20\"}}\nそれが　アタシの{{ruby charSpan=\"1\" value=\"ゆめ\"}}夢だった{{delay frames=\"8\"}}・{{delay frames=\"8\"}}・{{delay frames=\"8\"}}・{{pageBreak}}{{anim id=\"1\"}}だから　アタシ{{delay frames=\"20\"}}\n{{ruby charSpan=\"1\" value=\"いま\"}}今　{{ruby charSpan=\"2\" value=\"さいこう\"}}最高に{{ruby charSpan=\"1\" value=\"しあわ\"}}幸せなの、{{delay frames=\"8\"}}{{fun_00070005 arg=\"\"}}{{fun_0009000C arg=\"\"}}"
  },
  {
    "label": "010",
    "text": "{{fun_0000000C arg=\"\"}}{{fun_0005000C arg=\"\"}}{{fun_0002000C arg=\"\"}}{{fun_0005000C arg=\"\"}}{{anim id=\"13\"}}えぇ～？！{{delay frames=\"20\"}}\nもっとないのぉ～？！{{pageBreak}}ケーキやさんとか{{delay frames=\"8\"}}　ドーナツやさんとか{{delay frames=\"20\"}}\nおすしやさんとか{{delay frames=\"8\"}}　ラーメンやさんとか！{{fun_0009000C arg=\"\"}}"
  },
  {
    "label": "011",
    "text": "{{fun_0000000C arg=\"\"}}{{fun_0007000C arg=\"\"}}{{anim id=\"1\"}}ウフフ{{delay frames=\"8\"}}・{{delay frames=\"8\"}}・{{delay frames=\"8\"}}・{{delay frames=\"20\"}}\nアナタは　その{{ruby charSpan=\"2\" value=\"きも\"}}気持ちを\n{{ruby charSpan=\"2\" value=\"たいせつ\"}}大切にね、{{delay frames=\"20\"}}{{fun_00010011 arg=\"0x0000\"}}{{fun_000D0005 arg=\"\"}}"
  },
  {
    "label": "012",
    "text": "{{anim id=\"23\"}}れんあいかん？{{delay frames=\"40\"}}\n{{ruby charSpan=\"1\" value=\"なに\"}}何それ～？{{fun_0009000C arg=\"\"}}"
  },
  {
    "label": "013",
    "text": "{{fun_0001000C arg=\"\"}}{{fun_0008000C arg=\"\"}}{{anim id=\"15\"}}あら！{{delay frames=\"20\"}}\nいい{{ruby charSpan=\"2\" value=\"しつもん\"}}質問じゃない{{pageBreak}}{{anim id=\"43\"}}そうねぇ～{{delay frames=\"40\"}}\n{{ruby charSpan=\"2\" value=\"れんあい\"}}恋愛は　{{ruby charSpan=\"1\" value=\"うで\"}}腕{{ruby charSpan=\"2\" value=\"どけい\"}}時計に{{ruby charSpan=\"1\" value=\"たと\"}}例えられるの{{delay frames=\"8\"}}・{{delay frames=\"8\"}}・{{delay frames=\"8\"}}・{{pageBreak}}{{anim id=\"39\"}}{{ruby charSpan=\"1\" value=\"つね\"}}常に{{ruby charSpan=\"1\" value=\"み\"}}身に{{ruby charSpan=\"1\" value=\"つ\"}}着けていたい？{{delay frames=\"40\"}}\nそれとも{{delay frames=\"8\"}}　たまには{{ruby charSpan=\"1\" value=\"はず\"}}外したい？{{pageBreak}}{{anim id=\"27\"}}アタシは　もう{{delay frames=\"20\"}}\n{{ruby charSpan=\"2\" value=\"なんねん\"}}何年も　{{ruby charSpan=\"1\" value=\"うで\"}}腕{{ruby charSpan=\"2\" value=\"どけい\"}}時計はしていないわ、{{delay frames=\"8\"}}{{fun_00070005 arg=\"\"}}{{fun_0009000C arg=\"\"}}"
  },
  {
    "label": "014",
    "text": "{{fun_0002000C arg=\"\"}}{{fun_0005000C arg=\"\"}}{{fun_0000000C arg=\"\"}}{{fun_0005000C arg=\"\"}}{{anim id=\"13\"}}ボク{{delay frames=\"20\"}}　うでどけいなんて\nしたことないよぉ、{{delay frames=\"8\"}}{{fun_00070005 arg=\"\"}}{{fun_0009000C arg=\"\"}}"
  },
  {
    "label": "015",
    "text": "{{fun_0000000C arg=\"\"}}{{fun_0007000C arg=\"\"}}{{anim id=\"21\"}}そうよね{{delay frames=\"8\"}}・{{delay frames=\"8\"}}・{{delay frames=\"8\"}}・{{delay frames=\"20\"}}\nそういうものなの、{{delay frames=\"8\"}}{{fun_00070005 arg=\"\"}}"
  },
  {
    "label": "016",
    "text": "{{anim id=\"9\"}}うぅ～{{delay frames=\"8\"}}・{{delay frames=\"8\"}}・{{delay frames=\"8\"}}・{{delay frames=\"20\"}}\nそのしつもんは　ダメだよ{{delay frames=\"8\"}}\n{{fun_00080005 arg=\"\"}}{{fun_000D0005 arg=\"\"}}{{fun_0009000C arg=\"\"}}"
  },
  {
    "label": "017",
    "text": "{{fun_0001000C arg=\"\"}}{{fun_0008000C arg=\"\"}}{{fun_0002000C arg=\"\"}}{{fun_0005000C arg=\"\"}}いいのよ　{{fun_00010011 arg=\"0x0000\"}}{{fun_000D0005 arg=\"\"}}{{delay frames=\"20\"}}\n{{anim id=\"1\"}}アタシ　{{ruby charSpan=\"1\" value=\"なん\"}}何でも　{{ruby charSpan=\"1\" value=\"こた\"}}答えるって\n{{ruby charSpan=\"1\" value=\"い\"}}言ったんだもの、{{delay frames=\"8\"}}{{fun_00070005 arg=\"\"}}{{anim id=\"0\"}}{{pageBreak}}{{fun_0002000C arg=\"\"}}{{fun_0003000C arg=\"\"}}{{delay frames=\"20\"}}{{anim id=\"6\"}}アタシの{{ruby charSpan=\"2\" value=\"ねんれい\"}}年齢！{{delay frames=\"40\"}}\nそれは　ズバリ！{{delay frames=\"20\"}}\n{{anim id=\"15\"}}{{fun_000B0007 arg=\"\"}}250{{ruby charSpan=\"1\" value=\"さい\"}}歳！{{fun_0009000C arg=\"\"}}"
  },
  {
    "label": "018",
    "text": "{{fun_0002000C arg=\"\"}}{{fun_0005000C arg=\"\"}}{{anim id=\"18\"}}{{fun_000B0007 arg=\"\"}}えぇ～～っ！！{{fun_0009000C arg=\"\"}}"
  },
  {
    "label": "019",
    "text": "{{anim id=\"2\"}}フフフ{{delay frames=\"8\"}}・{{delay frames=\"8\"}}・{{delay frames=\"8\"}}・{{delay frames=\"20\"}}\n{{ruby charSpan=\"2\" value=\"じょうだん\"}}冗談よ、{{delay frames=\"8\"}}{{fun_00070005 arg=\"\"}}{{delay frames=\"40\"}}{{anim id=\"37\"}}"
  },
  {
    "label": "020",
    "text": ""
  },
  {
    "label": "021",
    "text": "{{anim id=\"3\"}}{{fun_00010011 arg=\"0x0100\"}}{{fun_000D0005 arg=\"\"}}って{{delay frames=\"20\"}}\nいいニオイがするよねぇ～{{fun_0009000C arg=\"\"}}"
  },
  {
    "label": "022",
    "text": "{{fun_0000000C arg=\"\"}}{{fun_0007000C arg=\"\"}}{{anim id=\"39\"}}あら、{{ruby charSpan=\"1\" value=\"き\"}}気づいた？{{delay frames=\"40\"}}\n{{ruby charSpan=\"1\" value=\"あたら\"}}新しいコロンを{{ruby charSpan=\"1\" value=\"か\"}}買ったの{{delay frames=\"8\"}}・{{delay frames=\"8\"}}・{{delay frames=\"8\"}}・{{pageBreak}}{{anim id=\"1\"}}{{fun_00010011 arg=\"0x0000\"}}{{fun_000D0005 arg=\"\"}}って{{delay frames=\"20\"}}\nニオイにびんかんなのね{{delay frames=\"40\"}}\nそういうの　いいと{{ruby charSpan=\"1\" value=\"おも\"}}思うわ{{fun_0009000C arg=\"\"}}"
  },
  {
    "label": "023",
    "text": "{{fun_0000000C arg=\"\"}}{{fun_0005000C arg=\"\"}}{{anim id=\"26\"}}えへへ～{{delay frames=\"20\"}}\nほめてくれて　ありがとぉ～{{pageBreak}}{{anim id=\"1\"}}よかったら{{delay frames=\"20\"}}\nボクのニオイも\nかいでみて～！　{{delay frames=\"8\"}}{{fun_00070005 arg=\"\"}}！{{fun_0009000C arg=\"\"}}"
  },
  {
    "label": "024",
    "text": "{{fun_0000000C arg=\"\"}}{{fun_0007000C arg=\"\"}}{{anim id=\"2\"}}あらあら{{delay frames=\"8\"}}　おませさんね{{delay frames=\"40\"}}\nどんな　コロンをつけたのかしら？{{delay frames=\"40\"}}{{anim id=\"37\"}}{{pageBreak}}{{anim id=\"21\"}}くんくん{{delay frames=\"8\"}}・{{delay frames=\"8\"}}・{{delay frames=\"8\"}}・{{delay frames=\"20\"}}　{{anim id=\"17\"}}{{fun_000B0007 arg=\"\"}}コレは！"
  },
  {
    "label": "025",
    "text": "{{fun_00030009 arg=\"0x1A001B001C001D001E00\"}}"
  },
  {
    "label": "026",
    "text": "{{delay frames=\"8\"}}・{{delay frames=\"8\"}}・{{delay frames=\"8\"}}・{{delay frames=\"20\"}}{{anim id=\"23\"}}ラーメン？！{{fun_0009000C arg=\"\"}}"
  },
  {
    "label": "027",
    "text": "{{delay frames=\"8\"}}・{{delay frames=\"8\"}}・{{delay frames=\"8\"}}・{{delay frames=\"20\"}}{{anim id=\"23\"}}カレーライス？！{{fun_0009000C arg=\"\"}}"
  },
  {
    "label": "028",
    "text": "{{delay frames=\"8\"}}・{{delay frames=\"8\"}}・{{delay frames=\"8\"}}・{{delay frames=\"20\"}}{{anim id=\"23\"}}{{ruby charSpan=\"2\" value=\"やきにく\"}}焼肉のたれ？！{{fun_0009000C arg=\"\"}}"
  },
  {
    "label": "029",
    "text": "{{anim id=\"9\"}}{{delay frames=\"8\"}}・{{delay frames=\"8\"}}・{{delay frames=\"8\"}}・{{delay frames=\"20\"}}ソース{{delay frames=\"20\"}}やきそば？{{fun_0009000C arg=\"\"}}"
  },
  {
    "label": "030",
    "text": "{{delay frames=\"8\"}}・{{delay frames=\"8\"}}・{{delay frames=\"8\"}}・{{delay frames=\"20\"}}{{anim id=\"23\"}}タコ{{ruby charSpan=\"1\" value=\"や\"}}焼き？{{fun_0009000C arg=\"\"}}"
  },
  {
    "label": "031",
    "text": "{{fun_0000000C arg=\"\"}}{{fun_0005000C arg=\"\"}}{{anim id=\"5\"}}ピンポーン！{{delay frames=\"20\"}}\n{{ruby charSpan=\"1\" value=\"だい\"}}大せいかい～！{{delay frames=\"40\"}}\nさっき{{ruby charSpan=\"1\" value=\"た\"}}食べたんだぁ、{{delay frames=\"8\"}}{{fun_00070005 arg=\"\"}}{{fun_0009000C arg=\"\"}}"
  },
  {
    "label": "032",
    "text": "{{fun_0000000C arg=\"\"}}{{fun_0007000C arg=\"\"}}{{anim id=\"36\"}}あぁ{{delay frames=\"8\"}}・{{delay frames=\"8\"}}・{{delay frames=\"8\"}}・{{delay frames=\"20\"}}\nアナタらしい\nステキな{{ruby charSpan=\"1\" value=\"かお\"}}香りね、{{delay frames=\"8\"}}{{fun_00070005 arg=\"\"}}"
  },
  {
    "label": "033",
    "text": ""
  },
  {
    "label": "034",
    "text": "{{anim id=\"1\"}}{{fun_00010011 arg=\"0x0100\"}}{{fun_000D0005 arg=\"\"}}、{{delay frames=\"20\"}}\n{{anim id=\"23\"}}{{ruby charSpan=\"1\" value=\"はは\"}}母の{{ruby charSpan=\"1\" value=\"ひ\"}}日のプレゼントって\n{{ruby charSpan=\"1\" value=\"なに\"}}何がいいと{{ruby charSpan=\"1\" value=\"おも\"}}思うぅ～？{{fun_0009000C arg=\"\"}}"
  },
  {
    "label": "035",
    "text": "{{fun_00020009 arg=\"0x240028002B003000\"}}"
  },
  {
    "label": "036",
    "text": "{{fun_0000000C arg=\"\"}}{{fun_0007000C arg=\"\"}}{{anim id=\"9\"}}{{ruby charSpan=\"1\" value=\"なん\"}}何でアタシに　それを{{ruby charSpan=\"1\" value=\"き\"}}聞くの？{{delay frames=\"20\"}}\n{{fun_00010011 arg=\"0x0000\"}}{{fun_000D0005 arg=\"\"}}？　{{delay frames=\"8\"}}{{fun_00070005 arg=\"\"}}{{fun_0009000C arg=\"\"}}"
  },
  {
    "label": "037",
    "text": "{{fun_0000000C arg=\"\"}}{{fun_0005000C arg=\"\"}}{{anim id=\"11\"}}えぇ～と、それは{{delay frames=\"20\"}}\n{{ruby charSpan=\"1\" value=\"むら\"}}村で{{ruby charSpan=\"2\" value=\"いちばん\"}}一番　お{{ruby charSpan=\"1\" value=\"かあ\"}}母さんに\n{{ruby charSpan=\"1\" value=\"ちか\"}}近いからだけど{{delay frames=\"8\"}}・{{delay frames=\"8\"}}・{{delay frames=\"8\"}}・{{fun_0009000C arg=\"\"}}"
  },
  {
    "label": "038",
    "text": "{{fun_0000000C arg=\"\"}}{{fun_0007000C arg=\"\"}}{{anim id=\"35\"}}{{ruby charSpan=\"1\" value=\"なん\"}}何ですって？！{{fun_0009000C arg=\"\"}}"
  },
  {
    "label": "039",
    "text": "{{fun_0000000C arg=\"\"}}{{fun_0005000C arg=\"\"}}{{anim id=\"17\"}}ご、{{delay frames=\"20\"}}ごめんなさい{{delay frames=\"8\"}}・{{delay frames=\"8\"}}・{{delay frames=\"8\"}}・"
  },
  {
    "label": "040",
    "text": "{{fun_0000000C arg=\"\"}}{{fun_0007000C arg=\"\"}}{{anim id=\"43\"}}そうねぇ～{{delay frames=\"20\"}}\nアロマキャンドルなんて\nどうかしら？{{pageBreak}}{{anim id=\"5\"}}とっても　いい{{ruby charSpan=\"1\" value=\"かお\"}}香りが\n{{ruby charSpan=\"2\" value=\"へや\"}}部屋{{ruby charSpan=\"1\" value=\"じゅう\"}}中に{{ruby charSpan=\"1\" value=\"ひろ\"}}広がって{{delay frames=\"20\"}}\nリラックスできるのよ、{{delay frames=\"8\"}}{{fun_00070005 arg=\"\"}}{{fun_0009000C arg=\"\"}}"
  },
  {
    "label": "041",
    "text": "{{fun_0000000C arg=\"\"}}{{fun_0005000C arg=\"\"}}{{anim id=\"23\"}}キャンドルで　いいかおり～？{{pageBreak}}{{anim id=\"22\"}}そっかぁ！{{delay frames=\"20\"}}\nそのキャンドルで{{delay frames=\"20\"}}　じっくり\nお{{ruby charSpan=\"1\" value=\"にく\"}}肉や　おやさいを　やくんだねぇ？！{{pageBreak}}{{anim id=\"5\"}}えへへ～{{delay frames=\"20\"}}\n{{ruby charSpan=\"1\" value=\"はは\"}}母の{{ruby charSpan=\"1\" value=\"ひ\"}}日は　おうちで\nバーベキューだぁ～！{{fun_0009000C arg=\"\"}}"
  },
  {
    "label": "042",
    "text": "{{fun_0000000C arg=\"\"}}{{fun_0007000C arg=\"\"}}{{anim id=\"9\"}}{{fun_00010011 arg=\"0x0000\"}}{{fun_000D0005 arg=\"\"}}のお{{ruby charSpan=\"2\" value=\"かあさま\"}}母様も{{delay frames=\"20\"}}\nやっぱり　{{ruby charSpan=\"1\" value=\"た\"}}食べることが\n{{ruby charSpan=\"1\" value=\"す\"}}好きなのかしら{{delay frames=\"8\"}}・{{delay frames=\"8\"}}・{{delay frames=\"8\"}}・{{pageBreak}}{{anim id=\"27\"}}とりあえず{{delay frames=\"20\"}}\nアロマキャンドルじゃ\n{{ruby charSpan=\"2\" value=\"かりょく\"}}火力が　{{ruby charSpan=\"1\" value=\"た\"}}足りないとおもうわよ？"
  },
  {
    "label": "043",
    "text": "{{fun_0000000C arg=\"\"}}{{fun_0007000C arg=\"\"}}{{anim id=\"43\"}}そうねぇ～{{delay frames=\"20\"}}\nバスミルクなんて　どうかしら？{{pageBreak}}{{anim id=\"1\"}}おふろに{{ruby charSpan=\"1\" value=\"い\"}}入れると、{{delay frames=\"20\"}}\nスベスベお{{ruby charSpan=\"1\" value=\"はだ\"}}肌を\nゲットできるのよ、{{delay frames=\"8\"}}{{fun_00070005 arg=\"\"}}{{fun_0009000C arg=\"\"}}"
  },
  {
    "label": "044",
    "text": "{{fun_0000000C arg=\"\"}}{{fun_0005000C arg=\"\"}}{{anim id=\"15\"}}へぇ～{{delay frames=\"20\"}}\nおはだが　スベスベになる\nミルクかぁ～{{pageBreak}}{{anim id=\"1\"}}それって{{delay frames=\"20\"}}　のんだらもっと\nスベスベになれるぅ～？{{fun_0009000C arg=\"\"}}"
  },
  {
    "label": "045",
    "text": "{{fun_0000000C arg=\"\"}}{{fun_0007000C arg=\"\"}}{{anim id=\"13\"}}ダメ{{delay frames=\"8\"}}ダメ{{delay frames=\"8\"}}ダメ！{{delay frames=\"40\"}}\nぜったいに　{{ruby charSpan=\"1\" value=\"の\"}}飲んじゃダメ！{{pageBreak}}バスミルクは　にゅうよくざい！{{delay frames=\"20\"}}\n{{ruby charSpan=\"1\" value=\"の\"}}飲んだら　タダじゃすまないわ！{{fun_0009000C arg=\"\"}}"
  },
  {
    "label": "046",
    "text": "{{fun_0000000C arg=\"\"}}{{fun_0005000C arg=\"\"}}{{anim id=\"27\"}}もぉ～{{delay frames=\"20\"}}\nまぎらわしい{{ruby charSpan=\"2\" value=\"なまえ\"}}名前だなぁ～{{pageBreak}}{{anim id=\"5\"}}それなら　ふつうに、{{delay frames=\"20\"}}\nおいしいミルクを\nプレゼントしよぉ～っと！{{fun_0009000C arg=\"\"}}"
  },
  {
    "label": "047",
    "text": "{{fun_0000000C arg=\"\"}}{{fun_0007000C arg=\"\"}}{{anim id=\"10\"}}そっか{{delay frames=\"8\"}}・{{delay frames=\"8\"}}・{{delay frames=\"8\"}}・{{delay frames=\"20\"}}\n{{fun_00010011 arg=\"0x0000\"}}{{fun_000D0005 arg=\"\"}}の\nお{{ruby charSpan=\"2\" value=\"かあさま\"}}母様だものね{{delay frames=\"8\"}}・{{delay frames=\"8\"}}・{{delay frames=\"8\"}}・{{pageBreak}}やっぱり{{delay frames=\"20\"}}　{{ruby charSpan=\"1\" value=\"た\"}}食べたり　{{ruby charSpan=\"1\" value=\"の\"}}飲んだり\nできるものが　よろこばれると{{ruby charSpan=\"1\" value=\"おも\"}}思うわよ\n{{delay frames=\"8\"}}{{fun_00070005 arg=\"\"}}"
  },
  {
    "label": "048",
    "text": "{{fun_0000000C arg=\"\"}}{{fun_0007000C arg=\"\"}}そうねぇ～{{delay frames=\"20\"}}\n{{anim id=\"23\"}}ポーチなんてどうかしら？{{pageBreak}}{{anim id=\"1\"}}{{ruby charSpan=\"1\" value=\"おんな\"}}女の{{ruby charSpan=\"1\" value=\"こ\"}}子は{{delay frames=\"20\"}}\nそういう　{{ruby charSpan=\"2\" value=\"こもの\"}}小物{{ruby charSpan=\"1\" value=\"い\"}}入れが\n{{ruby charSpan=\"1\" value=\"す\"}}好きなのよ、{{delay frames=\"8\"}}{{fun_00070005 arg=\"\"}}{{fun_0009000C arg=\"\"}}"
  },
  {
    "label": "049",
    "text": "{{fun_0000000C arg=\"\"}}{{fun_0005000C arg=\"\"}}{{anim id=\"22\"}}なるほど{{delay frames=\"20\"}}　ポーチかぁ～！{{delay frames=\"40\"}}\n{{anim id=\"1\"}}アメちゃん{{ruby charSpan=\"1\" value=\"い\"}}入れだねぇ？！{{pageBreak}}そこに　アメちゃんを　{{ruby charSpan=\"1\" value=\"い\"}}入れておけば、{{delay frames=\"20\"}}\nおでかけ{{ruby charSpan=\"1\" value=\"さき\"}}先で　いつでも{{ruby charSpan=\"1\" value=\"た\"}}食べれるね！{{pageBreak}}{{anim id=\"5\"}}よぉ～し！{{delay frames=\"20\"}}　アメちゃんが\nたくさん　{{ruby charSpan=\"1\" value=\"はい\"}}入るように、{{delay frames=\"20\"}}\n{{ruby charSpan=\"1\" value=\"おお\"}}大きなポーチに　しなくっちゃぁ！{{fun_0009000C arg=\"\"}}"
  },
  {
    "label": "050",
    "text": "{{fun_0000000C arg=\"\"}}{{fun_0007000C arg=\"\"}}{{anim id=\"11\"}}そんなに　たくさん{{delay frames=\"20\"}}\nアメちゃん　{{ruby charSpan=\"1\" value=\"た\"}}食べるかしら？{{pageBreak}}{{delay frames=\"8\"}}・{{delay frames=\"8\"}}・{{delay frames=\"8\"}}・{{delay frames=\"20\"}}{{anim id=\"21\"}}でも{{delay frames=\"20\"}}　{{fun_00010011 arg=\"0x0000\"}}{{fun_000D0005 arg=\"\"}}の\nお{{ruby charSpan=\"2\" value=\"かあさま\"}}母様だものね{{delay frames=\"8\"}}・{{delay frames=\"8\"}}・{{delay frames=\"8\"}}・{{delay frames=\"40\"}}\n{{anim id=\"6\"}}{{ruby charSpan=\"1\" value=\"おお\"}}大きめに　しておきましょう、{{delay frames=\"8\"}}{{fun_00070005 arg=\"\"}}"
  }
]