﻿[
  {
    "label": "001",
    "text": "{{anim id=\"13\"}}いたいよぉ～！{{delay frames=\"40\"}}\nだれかに　ぶたれたぁ～！{{pageBreak}}{{anim id=\"0\"}}あれ{{delay frames=\"20\"}}　その{{ruby charSpan=\"1\" value=\"て\"}}手に　もってるのは{{delay frames=\"8\"}}・{{delay frames=\"8\"}}・{{delay frames=\"8\"}}・{{delay frames=\"40\"}}\n{{anim id=\"18\"}}{{fun_000B0007 arg=\"\"}}もしかして{{delay frames=\"20\"}}　{{fun_00080005 arg=\"\"}}{{fun_000D0005 arg=\"\"}}が\nぶったのぉ～？{{pageBreak}}{{anim id=\"12\"}}ヒ、{{delay frames=\"20\"}}ヒドイやぁ～{{fun_0003000B arg=\"0x03CD\"}}"
  },
  {
    "label": "002",
    "text": "{{anim id=\"14\"}}{{fun_00080005 arg=\"\"}}{{fun_000D0005 arg=\"\"}}　ヒドイよぉ～！{{delay frames=\"40\"}}\nボクを　いじめて\nあそんでるんだねぇ～？！{{fun_0003000B arg=\"0x03CD\"}}"
  },
  {
    "label": "003",
    "text": "{{anim id=\"14\"}}うわぁ～ん！\nヒドイよぉ～！{{delay frames=\"20\"}}\n{{fun_00080005 arg=\"\"}}{{fun_000D0005 arg=\"\"}}が　ぶったぁ～！{{fun_0003000B arg=\"0x03CD\"}}"
  }
]