﻿[
  {
    "label": "001",
    "text": "2{{ruby charSpan=\"1\" value=\"がつ\"}}月29{{ruby charSpan=\"1\" value=\"にち\"}}日って、{{delay frames=\"20\"}}\nうるう{{ruby charSpan=\"1\" value=\"どし\"}}年の{{ruby charSpan=\"1\" value=\"とし\"}}年にしか\nないんだってぇ～{{pageBreak}}{{anim id=\"11\"}}{{ruby charSpan=\"2\" value=\"よねん\"}}四年に{{ruby charSpan=\"2\" value=\"いっかい\"}}一回だなんて、{{delay frames=\"20\"}}\nほかの{{ruby charSpan=\"2\" value=\"さんねん\"}}三年は\nどこにかくれてるんだろぉ～？{{pageBreak}}・{{delay frames=\"8\"}}・{{delay frames=\"8\"}}・{{delay frames=\"8\"}}{{anim id=\"15\"}}{{fun_000B0007 arg=\"\"}}ハッ！{{delay frames=\"40\"}}\n{{ruby charSpan=\"2\" value=\"きょう\"}}今日なくなった{{delay frames=\"20\"}}　ボクの　{{fun_000F0005 arg=\"0x0000\"}}に\nへんそう　してたのかもぉ、{{delay frames=\"8\"}}{{fun_00070005 arg=\"\"}}"
  },
  {
    "label": "002",
    "text": "{{anim id=\"5\"}}じゃじゃあ～ん！{{delay frames=\"40\"}}\n2{{ruby charSpan=\"1\" value=\"がつ\"}}月29{{ruby charSpan=\"1\" value=\"にち\"}}日の{{ruby charSpan=\"2\" value=\"きょう\"}}今日は\nうるう{{ruby charSpan=\"1\" value=\"どし\"}}年の　とくべつな{{ruby charSpan=\"1\" value=\"ひ\"}}日だよぉ～{{pageBreak}}{{anim id=\"21\"}}なんにも　ないけど{{delay frames=\"20\"}}\nおトクだねぇ、{{delay frames=\"8\"}}{{fun_00070005 arg=\"\"}}"
  },
  {
    "label": "003",
    "text": "{{ruby charSpan=\"2\" value=\"きょう\"}}今日は　3{{ruby charSpan=\"1\" value=\"がつ\"}}月1{{ruby charSpan=\"1\" value=\"にち\"}}日だと{{ruby charSpan=\"1\" value=\"おも\"}}思ったら、{{delay frames=\"20\"}}\n{{ruby charSpan=\"2\" value=\"ことし\"}}今年は　うるう{{ruby charSpan=\"1\" value=\"どし\"}}年だから{{delay frames=\"8\"}}\nまだ　2{{ruby charSpan=\"1\" value=\"がつ\"}}月なんだねぇ～{{pageBreak}}{{anim id=\"11\"}}うぅ～ん{{delay frames=\"20\"}}　{{anim id=\"1\"}}{{ruby charSpan=\"1\" value=\"き\"}}気づかなかったフリして{{delay frames=\"20\"}}\n{{ruby charSpan=\"2\" value=\"きょう\"}}今日は　{{ruby charSpan=\"3\" value=\"いちにちじゅう\"}}一日中\nおひるね　しちゃおうかなぁ、{{delay frames=\"8\"}}{{fun_00070005 arg=\"\"}}"
  },
  {
    "label": "004",
    "text": "{{anim id=\"5\"}}{{ruby charSpan=\"2\" value=\"きょう\"}}今日から3{{ruby charSpan=\"1\" value=\"がつ\"}}月だねぇ～{{delay frames=\"40\"}}\n3{{ruby charSpan=\"1\" value=\"がつ\"}}月って{{ruby charSpan=\"1\" value=\"き\"}}聞くと、\nもう{{ruby charSpan=\"1\" value=\"はる\"}}春かぁ～って{{delay frames=\"8\"}}・{{delay frames=\"8\"}}・{{delay frames=\"8\"}}・{{pageBreak}}{{anim id=\"18\"}}えぇ？！{{delay frames=\"40\"}}\n{{ruby charSpan=\"2\" value=\"きょう\"}}今日ってまだ2{{ruby charSpan=\"1\" value=\"がつ\"}}月なのぉ～？！{{pageBreak}}{{anim id=\"9\"}}そっか　うるう{{ruby charSpan=\"1\" value=\"どし\"}}年かぁ～{{delay frames=\"40\"}}\nうぅ{{delay frames=\"8\"}}・{{delay frames=\"8\"}}・{{delay frames=\"8\"}}・{{delay frames=\"20\"}}\nなんだか　おあずけされた{{ruby charSpan=\"2\" value=\"きぶん\"}}気分{{delay frames=\"8\"}}・{{delay frames=\"8\"}}・{{delay frames=\"8\"}}・"
  },
  {
    "label": "005",
    "text": "{{ruby charSpan=\"2\" value=\"きょう\"}}今日　2{{ruby charSpan=\"1\" value=\"がつ\"}}月29{{ruby charSpan=\"1\" value=\"にち\"}}日は、{{delay frames=\"20\"}}\n{{ruby charSpan=\"2\" value=\"よねん\"}}四年に{{ruby charSpan=\"2\" value=\"いっかい\"}}一回しか　ないんだって～{{pageBreak}}{{anim id=\"1\"}}もの{{ruby charSpan=\"1\" value=\"し\"}}知りな　あのコに{{delay frames=\"20\"}}\nなんで？{{delay frames=\"20\"}}　って{{ruby charSpan=\"1\" value=\"き\"}}聞いたら、\nせつめいしてくれたよぉ～{{pageBreak}}{{anim id=\"9\"}}きっと　キミには\nまだ　{{ruby charSpan=\"1\" value=\"はや\"}}早いよぉ{{delay frames=\"40\"}}\nすっごく　むずかしいんだぁ、{{delay frames=\"8\"}}{{fun_00070005 arg=\"\"}}"
  }
]