﻿[
  {
    "label": "001",
    "text": "{{anim id=\"1\"}}あのプレゼント{{delay frames=\"20\"}}\n{{fun_00010011 arg=\"0x0000\"}}{{fun_000D0005 arg=\"\"}}に\nさりげなく　わたしておいてねぇ"
  },
  {
    "label": "002",
    "text": "なかなおりのプレゼント、{{delay frames=\"20\"}}\n{{fun_00010011 arg=\"0x0000\"}}{{fun_000D0005 arg=\"\"}}に\nはやめに　とどけておいてねぇ～{{pageBreak}}{{anim id=\"10\"}}これで{{delay frames=\"20\"}}　なかなおり\nできるといいなぁ、{{delay frames=\"8\"}}{{fun_00070005 arg=\"\"}}"
  },
  {
    "label": "003",
    "text": "{{anim id=\"9\"}}{{fun_00010011 arg=\"0x0000\"}}{{fun_000D0005 arg=\"\"}}、{{delay frames=\"20\"}}\n{{ruby charSpan=\"1\" value=\"はや\"}}早くかえせって　おこってるかなぁ？{{pageBreak}}{{fun_00080005 arg=\"\"}}{{fun_000D0005 arg=\"\"}}、{{delay frames=\"20\"}}\nはいたつ　おねがいだよ～"
  },
  {
    "label": "004",
    "text": "{{anim id=\"1\"}}あの　わすれもの、{{delay frames=\"20\"}}\nちゃ～んと　{{fun_00010011 arg=\"0x0000\"}}{{fun_000D0005 arg=\"\"}}に\nとどけてねぇ～"
  },
  {
    "label": "005",
    "text": "あの　ふしぎな　にもつ、{{delay frames=\"20\"}}\n{{fun_00010011 arg=\"0x0000\"}}{{fun_000D0005 arg=\"\"}}に\nもっていってねぇ～"
  },
  {
    "label": "006",
    "text": "{{anim id=\"23\"}}{{fun_00010011 arg=\"0x0000\"}}{{fun_000D0005 arg=\"\"}}{{ruby charSpan=\"1\" value=\"み\"}}見つかったぁ？{{fun_00010007 arg=\"\"}}\n{{anim id=\"1\"}}にもつのおとどけ\nよろしくねぇ～"
  }
]