﻿[
  {
    "label": "001",
    "text": "{{anim id=\"11\"}}{{ruby charSpan=\"1\" value=\"み\"}}見つかっちゃったボクは、{{delay frames=\"20\"}}\nここで　じ～っと\nまってるんだぁ、{{delay frames=\"8\"}}{{fun_00070005 arg=\"\"}}"
  },
  {
    "label": "002",
    "text": "{{anim id=\"11\"}}{{delay frames=\"8\"}}・{{delay frames=\"8\"}}・{{delay frames=\"8\"}}・{{delay frames=\"20\"}}ボクはいま{{delay frames=\"20\"}}\nなんで{{ruby charSpan=\"1\" value=\"み\"}}見つかっちゃったのか、\n{{ruby charSpan=\"1\" value=\"かんが\"}}考えてるんだよ{{delay frames=\"8\"}}・{{delay frames=\"8\"}}・{{delay frames=\"8\"}}・"
  },
  {
    "label": "003",
    "text": "{{anim id=\"1\"}}キミ　かくれんぼ\n{{ruby charSpan=\"1\" value=\"つよ\"}}強いねぇ～！{{pageBreak}}{{anim id=\"28\"}}でも　ほかのみんなも\n{{ruby charSpan=\"1\" value=\"み\"}}見つけられるかなぁ～？"
  },
  {
    "label": "004",
    "text": "あれ？{{delay frames=\"40\"}}\n{{fun_00080005 arg=\"\"}}{{fun_000D0005 arg=\"\"}}、{{delay frames=\"20\"}}ぜんいんは\n{{ruby charSpan=\"1\" value=\"み\"}}見つけられなかった　みたいだねぇ？{{pageBreak}}{{anim id=\"9\"}}ざんねんだけど、{{delay frames=\"20\"}}\n{{ruby charSpan=\"2\" value=\"じかん\"}}時間{{ruby charSpan=\"1\" value=\"ぎ\"}}切れだよぉ～"
  }
]