﻿[
  {
    "label": "001",
    "text": "{{anim id=\"32\"}}{{fun_00080005 arg=\"\"}}{{fun_000D0005 arg=\"\"}}{{delay frames=\"20\"}}\nあけまして　おめでとぉ～{{pageBreak}}{{anim id=\"5\"}}きょねんは　{{ruby charSpan=\"1\" value=\"た\"}}食べたり{{delay frames=\"20\"}}　ねたり{{delay frames=\"20\"}}\n{{ruby charSpan=\"1\" value=\"おも\"}}思いっきり　あそんだり{{delay frames=\"20\"}}\n{{ruby charSpan=\"1\" value=\"たの\"}}楽しい{{ruby charSpan=\"2\" value=\"いちねん\"}}一年だったなぁ～{{pageBreak}}{{anim id=\"1\"}}{{ruby charSpan=\"2\" value=\"ことし\"}}今年も　{{ruby charSpan=\"1\" value=\"たの\"}}楽しい{{ruby charSpan=\"2\" value=\"いちねん\"}}一年に\nなるといいねぇ、{{delay frames=\"8\"}}{{fun_00070005 arg=\"\"}}"
  },
  {
    "label": "002",
    "text": "{{anim id=\"32\"}}ハッピ～　ニュ～イヤ～！{{delay frames=\"40\"}}\n{{anim id=\"1\"}}{{ruby charSpan=\"1\" value=\"あたら\"}}新しい{{ruby charSpan=\"1\" value=\"とし\"}}年が　はじまったねぇ！{{pageBreak}}{{ruby charSpan=\"2\" value=\"ことし\"}}今年は　ボク、{{delay frames=\"20\"}}\nたくさん{{ruby charSpan=\"1\" value=\"た\"}}食べて　{{ruby charSpan=\"1\" value=\"おお\"}}大きくなるぞぉ～{{pageBreak}}{{anim id=\"38\"}}よぉ～し！{{delay frames=\"20\"}}\nまずは　おもちを　もりもり{{ruby charSpan=\"1\" value=\"た\"}}食べて、{{delay frames=\"20\"}}\n{{ruby charSpan=\"1\" value=\"おお\"}}大きく　なっちゃうもんねぇ！"
  },
  {
    "label": "003",
    "text": "{{anim id=\"25\"}}あけまして　おめでとぉ～{{delay frames=\"20\"}}\n{{ruby charSpan=\"2\" value=\"きょう\"}}今日は　{{ruby charSpan=\"2\" value=\"いちねん\"}}一年のはじまりの{{ruby charSpan=\"1\" value=\"ひ\"}}日なのに{{delay frames=\"20\"}}\nなんだか　ねむいんだぁ～{{pageBreak}}きのう　カウントダウンで\n{{ruby charSpan=\"1\" value=\"よ\"}}夜ふかし　しちゃったからかなぁ？{{pageBreak}}{{anim id=\"26\"}}こんな　ボクだけど、{{delay frames=\"20\"}}\n{{fun_00000004 arg=\"\"}}{{ruby charSpan=\"1\" value=\"ねん\"}}年も　よろしくねぇ、{{delay frames=\"8\"}}{{fun_00070005 arg=\"\"}}"
  },
  {
    "label": "004",
    "text": "{{anim id=\"25\"}}ふぁぁ～{{delay frames=\"8\"}}・{{delay frames=\"8\"}}・{{delay frames=\"8\"}}・{{delay frames=\"20\"}}\nあと　いくつねたら　お{{ruby charSpan=\"2\" value=\"しょうがつ\"}}正月かなぁ？{{pageBreak}}{{delay frames=\"8\"}}・{{delay frames=\"8\"}}・{{delay frames=\"8\"}}・{{delay frames=\"8\"}}{{anim id=\"18\"}}{{fun_000A0007 arg=\"\"}}えぇ～？！{{delay frames=\"20\"}}\nもう　{{ruby charSpan=\"2\" value=\"しんねん\"}}新年？！{{pageBreak}}{{anim id=\"1\"}}あけまして　おめでとぉ～{{delay frames=\"40\"}}\n{{anim id=\"41\"}}ウッカリ　{{fun_00000004 arg=\"\"}}{{ruby charSpan=\"1\" value=\"ねん\"}}年に\nのりおくれる　ところだったよぉ"
  },
  {
    "label": "005",
    "text": "{{anim id=\"5\"}}ハッピ～　ニュ～イヤ～！{{delay frames=\"40\"}}\n{{ruby charSpan=\"2\" value=\"きょう\"}}今日から{{ruby charSpan=\"1\" value=\"あたら\"}}新しい{{ruby charSpan=\"1\" value=\"とし\"}}年だねぇ！{{pageBreak}}{{anim id=\"33\"}}{{ruby charSpan=\"2\" value=\"ことし\"}}今年はボク、{{delay frames=\"20\"}}\n{{ruby charSpan=\"1\" value=\"あたら\"}}新しい　{{fun_00010005 arg=\"\"}}に\n{{ruby charSpan=\"1\" value=\"う\"}}生まれかわりたいなぁ～{{pageBreak}}{{ruby charSpan=\"2\" value=\"きょう\"}}今日から　ボクのことは\nミスター{{fun_00130005 arg=\"0x0000\"}}って\nよんでよぉ～{{fun_00010008 arg=\"0x070000000800000008000000\"}}\nミスター{{fun_00130005 arg=\"0x0000\"}}!\n{{fun_00010005 arg=\"\"}}!\n・・・"
  },
  {
    "label": "006",
    "text": ""
  },
  {
    "label": "007",
    "text": "{{anim id=\"23\"}}{{delay frames=\"20\"}}ミスター{{fun_00130005 arg=\"0x0000\"}}？{{delay frames=\"20\"}}\n・{{delay frames=\"20\"}}・{{delay frames=\"20\"}}・{{delay frames=\"40\"}}{{anim id=\"16\"}}{{fun_000A0007 arg=\"\"}}あぁ！{{delay frames=\"20\"}}\nボクのことか！{{pageBreak}}{{anim id=\"2\"}}やっぱり　なれないから、\nいつも{{ruby charSpan=\"1\" value=\"どお\"}}通りでいいやぁ{{delay frames=\"40\"}}\n{{ruby charSpan=\"2\" value=\"ことし\"}}今年も　よろしくねぇ～{{delay frames=\"20\"}}{{anim id=\"1\"}}"
  },
  {
    "label": "008",
    "text": "{{anim id=\"9\"}}{{delay frames=\"8\"}}・{{delay frames=\"8\"}}・{{delay frames=\"8\"}}・{{delay frames=\"8\"}}よぶ{{ruby charSpan=\"1\" value=\"ほう\"}}方も\nはずかしいってことかなぁ？{{pageBreak}}{{anim id=\"40\"}}やっぱり　ミスターは　やめよぉ～っと！{{delay frames=\"20\"}}\n{{anim id=\"1\"}}{{ruby charSpan=\"2\" value=\"ことし\"}}今年も　かわらない\n{{fun_00010005 arg=\"\"}}を　どうぞよろしく～！"
  }
]