﻿[
  {
    "label": "001",
    "text": ""
  },
  {
    "label": "002",
    "text": "{{fun_00020009 arg=\"0x0500060007000800\"}}"
  },
  {
    "label": "003",
    "text": "{{fun_00000009 arg=\"0x09000A00\"}}"
  },
  {
    "label": "004",
    "text": ""
  },
  {
    "label": "005",
    "text": "{{anim id=\"1\"}}えへへ～{{delay frames=\"20\"}}\n{{ruby charSpan=\"1\" value=\"め\"}}目うつりしちゃうなぁ～"
  },
  {
    "label": "006",
    "text": "{{ruby charSpan=\"1\" value=\"なに\"}}何か　いいもの　{{ruby charSpan=\"1\" value=\"み\"}}見つかったぁ？{{delay frames=\"40\"}}\n{{anim id=\"39\"}}ボクはねぇ～{{delay frames=\"20\"}}\nまよい{{ruby charSpan=\"1\" value=\"ちゅう\"}}中だよぉ、{{delay frames=\"8\"}}{{fun_00070005 arg=\"\"}}"
  },
  {
    "label": "007",
    "text": "{{fun_00080005 arg=\"\"}}{{fun_000D0005 arg=\"\"}}、{{delay frames=\"40\"}}\nざんねんな　お{{ruby charSpan=\"1\" value=\"し\"}}知らせなんだけど{{delay frames=\"8\"}}・{{delay frames=\"8\"}}・{{delay frames=\"8\"}}・{{pageBreak}}{{anim id=\"19\"}}このスーパーに、\n{{ruby charSpan=\"1\" value=\"た\"}}食べものを　ししょくするコーナーは\nないんだよぉ、{{delay frames=\"8\"}}{{fun_00070005 arg=\"\"}}"
  },
  {
    "label": "008",
    "text": "{{anim id=\"1\"}}スーパーって{{delay frames=\"8\"}}\nかっこいい　ひびき～！{{pageBreak}}{{anim id=\"33\"}}ボクも{{delay frames=\"20\"}}　スーパー{{fun_00010005 arg=\"\"}}に\nなりたいなぁ、{{delay frames=\"8\"}}{{fun_00070005 arg=\"\"}}"
  },
  {
    "label": "009",
    "text": "{{anim id=\"1\"}}{{fun_00080005 arg=\"\"}}{{fun_000D0005 arg=\"\"}}\n{{ruby charSpan=\"1\" value=\"か\"}}買い{{ruby charSpan=\"1\" value=\"だ\"}}出しに{{ruby charSpan=\"1\" value=\"き\"}}来たのぉ～？{{pageBreak}}{{anim id=\"40\"}}あんまり　{{ruby charSpan=\"1\" value=\"か\"}}買いすぎて、{{delay frames=\"20\"}}\nボクらのスーパーを\n{{ruby charSpan=\"1\" value=\"から\"}}空っぽにしないでねぇ、{{delay frames=\"8\"}}{{fun_00070005 arg=\"\"}}"
  },
  {
    "label": "010",
    "text": "このスーパー、{{delay frames=\"20\"}}\n{{anim id=\"10\"}}もっと　{{ruby charSpan=\"1\" value=\"た\"}}食べものが{{ruby charSpan=\"1\" value=\"う\"}}売ってれば\n{{ruby charSpan=\"1\" value=\"い\"}}言うことないのになぁ～"
  }
]