﻿[
  {
    "label": "001",
    "text": "{{anim id=\"1\"}}また　{{ruby charSpan=\"1\" value=\"あ\"}}会いましたね！{{pageBreak}}{{anim id=\"11\"}}{{ruby charSpan=\"1\" value=\"あめ\"}}雨の　{{fun_00050005 arg=\"\"}}{{ruby charSpan=\"1\" value=\"むら\"}}村と{{delay frames=\"10\"}}\n{{fun_00080005 arg=\"\"}}さん{{delay frames=\"8\"}}・{{delay frames=\"8\"}}・{{delay frames=\"8\"}}・{{delay frames=\"8\"}}{{fun_00010007 arg=\"\"}}\n{{anim id=\"4\"}}とっても　お{{ruby charSpan=\"2\" value=\"にあ\"}}似合いです、{{delay frames=\"15\"}}{{fun_00070005 arg=\"\"}}！"
  },
  {
    "label": "002",
    "text": "{{anim id=\"1\"}}{{fun_00060007 arg=\"\"}}{{ruby charSpan=\"1\" value=\"たの\"}}楽しんでらっしゃいますか？{{fun_00070007 arg=\"\"}}{{pageBreak}}{{anim id=\"5\"}}{{ruby charSpan=\"1\" value=\"あめ\"}}雨にも{{ruby charSpan=\"1\" value=\"ま\"}}負けず　{{delay frames=\"8\"}}{{ruby charSpan=\"1\" value=\"かぜ\"}}風にも{{ruby charSpan=\"1\" value=\"ま\"}}負けず、{{fun_00010007 arg=\"\"}}\n{{ruby charSpan=\"1\" value=\"あそ\"}}遊び{{ruby charSpan=\"1\" value=\"まわ\"}}回る　{{fun_00080005 arg=\"\"}}さんを{{delay frames=\"8\"}}\n{{ruby charSpan=\"2\" value=\"みなら\"}}見習いたいと{{ruby charSpan=\"1\" value=\"おも\"}}思います、{{delay frames=\"15\"}}{{fun_00070005 arg=\"\"}}"
  },
  {
    "label": "003",
    "text": "{{anim id=\"3\"}}その{{ruby charSpan=\"2\" value=\"ちょうし\"}}調子で{{delay frames=\"10\"}}　どんどん{{delay frames=\"5\"}}\n{{ruby charSpan=\"1\" value=\"あめ\"}}雨を{{ruby charSpan=\"1\" value=\"たの\"}}楽しんでください、{{delay frames=\"15\"}}{{fun_00070005 arg=\"\"}}！{{delay frames=\"8\"}}{{anim id=\"37\"}}"
  },
  {
    "label": "004",
    "text": "{{anim id=\"3\"}}{{fun_00060007 arg=\"\"}}あら、{{delay frames=\"10\"}}{{fun_00000005 arg=\"\"}}さん！{{fun_00070007 arg=\"\"}}{{delay frames=\"20\"}}\nまた　お{{ruby charSpan=\"1\" value=\"あ\"}}会いしましたね、{{delay frames=\"15\"}}{{fun_00070005 arg=\"\"}}{{delay frames=\"30\"}}{{anim id=\"1\"}}{{pageBreak}}{{anim id=\"2\"}}{{ruby charSpan=\"1\" value=\"あめ\"}}雨に{{ruby charSpan=\"2\" value=\"むちゅう\"}}夢中で、{{delay frames=\"8\"}}\nどなたか{{delay frames=\"3\"}}　わかりませんでした{{delay frames=\"8\"}}{{anim id=\"37\"}}"
  },
  {
    "label": "005",
    "text": "{{anim id=\"1\"}}お{{ruby charSpan=\"1\" value=\"きゃく\"}}客さんが{{ruby charSpan=\"1\" value=\"き\"}}来ていると{{delay frames=\"15\"}}\n{{ruby charSpan=\"1\" value=\"あめ\"}}雨の{{ruby charSpan=\"1\" value=\"あさ\"}}朝が{{delay frames=\"8\"}}\nいつもより　{{ruby charSpan=\"1\" value=\"たの\"}}楽しくなります、{{delay frames=\"15\"}}{{fun_00070005 arg=\"\"}}！"
  },
  {
    "label": "006",
    "text": "{{anim id=\"1\"}}あいにくの{{ruby charSpan=\"1\" value=\"あめ\"}}雨ですが、{{delay frames=\"10\"}}\n{{ruby charSpan=\"2\" value=\"いちにち\"}}一日　ゆったりと{{delay frames=\"8\"}}\n{{ruby charSpan=\"1\" value=\"たの\"}}楽しんでいってください、{{delay frames=\"15\"}}{{fun_00070005 arg=\"\"}}！"
  },
  {
    "label": "007",
    "text": "{{anim id=\"1\"}}{{fun_00060007 arg=\"\"}}また　お{{ruby charSpan=\"1\" value=\"あ\"}}会いしましたね！{{fun_00070007 arg=\"\"}}{{fun_00010007 arg=\"\"}}\n{{anim id=\"43\"}}{{ruby charSpan=\"2\" value=\"きょう\"}}今日は　{{ruby charSpan=\"1\" value=\"あさ\"}}朝から{{ruby charSpan=\"1\" value=\"あめ\"}}雨{{delay frames=\"8\"}}・{{delay frames=\"8\"}}・{{delay frames=\"8\"}}・{{delay frames=\"20\"}}\n{{anim id=\"4\"}}ほんとに　すてき、{{delay frames=\"15\"}}{{fun_00070005 arg=\"\"}}！！"
  },
  {
    "label": "008",
    "text": "{{anim id=\"1\"}}{{fun_00000005 arg=\"\"}}さんが{{delay frames=\"10\"}}\n{{ruby charSpan=\"1\" value=\"あそ\"}}遊びに{{ruby charSpan=\"1\" value=\"き\"}}来てくださると{{fun_00010007 arg=\"\"}}\n{{ruby charSpan=\"1\" value=\"あめ\"}}雨が{{ruby charSpan=\"1\" value=\"ふ\"}}降っていても　{{delay frames=\"10\"}}{{ruby charSpan=\"2\" value=\"たいくつ\"}}退屈しませんね！"
  },
  {
    "label": "009",
    "text": "{{anim id=\"1\"}}{{ruby charSpan=\"2\" value=\"こんど\"}}今度は　{{delay frames=\"5\"}}どちらへ？{{fun_00010007 arg=\"\"}}\n{{ruby charSpan=\"1\" value=\"あめ\"}}雨の{{ruby charSpan=\"1\" value=\"ひ\"}}日を　{{delay frames=\"8\"}}{{ruby charSpan=\"1\" value=\"たの\"}}楽しんでください、{{delay frames=\"15\"}}{{fun_00070005 arg=\"\"}}"
  },
  {
    "label": "010",
    "text": "{{anim id=\"3\"}}あら！{{delay frames=\"20\"}}\nまた　お{{ruby charSpan=\"1\" value=\"あ\"}}会いしましたね、{{delay frames=\"15\"}}{{fun_00070005 arg=\"\"}}{{pageBreak}}{{anim id=\"5\"}}{{ruby charSpan=\"1\" value=\"あめ\"}}雨が{{ruby charSpan=\"1\" value=\"ふ\"}}降っていると、{{delay frames=\"10\"}}\nいても　たっても　いられなくて！"
  },
  {
    "label": "011",
    "text": "{{anim id=\"1\"}}{{fun_00060007 arg=\"\"}}あら、{{delay frames=\"10\"}}{{fun_00000005 arg=\"\"}}さん！{{fun_00070007 arg=\"\"}}{{fun_00010007 arg=\"\"}}\nまた　お{{ruby charSpan=\"1\" value=\"あ\"}}会いできるなんて{{delay frames=\"8\"}}\nうれしいです、{{delay frames=\"10\"}}{{fun_00070005 arg=\"\"}}{{pageBreak}}{{ruby charSpan=\"1\" value=\"あめ\"}}雨にぬれて{{delay frames=\"8\"}}\nカゼひかないように　してくださいね"
  },
  {
    "label": "012",
    "text": "{{anim id=\"1\"}}{{ruby charSpan=\"2\" value=\"こんや\"}}今夜は、{{delay frames=\"10\"}}また　{{fun_00000005 arg=\"\"}}さんに{{delay frames=\"10\"}}\nお{{ruby charSpan=\"1\" value=\"あ\"}}会いできるような　{{delay frames=\"3\"}}{{ruby charSpan=\"1\" value=\"き\"}}気がしてたんです！{{pageBreak}}{{anim id=\"37\"}}{{ruby charSpan=\"1\" value=\"あめ\"}}雨の{{ruby charSpan=\"1\" value=\"おと\"}}音を{{ruby charSpan=\"1\" value=\"き\"}}聞きながら{{delay frames=\"5\"}}　お{{ruby charSpan=\"2\" value=\"さんぽ\"}}散歩すると{{delay frames=\"10\"}}\n{{ruby charSpan=\"1\" value=\"こころ\"}}心が{{ruby charSpan=\"1\" value=\"お\"}}落ち{{ruby charSpan=\"1\" value=\"つ\"}}着きます～、{{delay frames=\"15\"}}{{fun_00070005 arg=\"\"}}"
  },
  {
    "label": "013",
    "text": "{{fun_00060007 arg=\"\"}}{{anim id=\"3\"}}あら　{{delay frames=\"8\"}}こんばんは！{{delay frames=\"20\"}}{{anim id=\"37\"}}{{fun_00070007 arg=\"\"}}{{fun_00010007 arg=\"\"}}\n{{anim id=\"43\"}}ほんとに　{{ruby charSpan=\"1\" value=\"あめ\"}}雨の{{ruby charSpan=\"1\" value=\"よる\"}}夜って{{delay frames=\"10\"}}・{{delay frames=\"10\"}}・{{delay frames=\"10\"}}・{{delay frames=\"10\"}}\n{{anim id=\"5\"}}すてきですよね！！\n{{anim id=\"1\"}}この{{ruby charSpan=\"2\" value=\"かんどう\"}}感動を　{{delay frames=\"8\"}}{{fun_00080005 arg=\"\"}}さんに\n{{anim id=\"44\"}}{{ruby charSpan=\"1\" value=\"つた\"}}伝えられて{{delay frames=\"5\"}}　うれしいです、{{delay frames=\"15\"}}{{fun_00070005 arg=\"\"}}！"
  },
  {
    "label": "014",
    "text": "{{anim id=\"1\"}}まだまだ　{{ruby charSpan=\"1\" value=\"あそ\"}}遊び{{ruby charSpan=\"1\" value=\"ちゅう\"}}中ですね！{{fun_00010007 arg=\"\"}}\n{{anim id=\"37\"}}{{ruby charSpan=\"2\" value=\"こんや\"}}今夜の　{{fun_00050005 arg=\"\"}}{{ruby charSpan=\"1\" value=\"むら\"}}村は、{{delay frames=\"10\"}}\n{{ruby charSpan=\"1\" value=\"あめ\"}}雨で　ひんやりするかしら、{{delay frames=\"15\"}}{{fun_00070005 arg=\"\"}}"
  },
  {
    "label": "015",
    "text": "もう　こんな{{ruby charSpan=\"2\" value=\"じかん\"}}時間ですけど、{{delay frames=\"10\"}}\n{{anim id=\"37\"}}また　{{delay frames=\"5\"}}お{{ruby charSpan=\"1\" value=\"あ\"}}会いできましたね、{{delay frames=\"15\"}}{{fun_00070005 arg=\"\"}}{{pageBreak}}{{anim id=\"1\"}}{{ruby charSpan=\"1\" value=\"あめ\"}}雨の{{ruby charSpan=\"1\" value=\"よる\"}}夜のお{{ruby charSpan=\"2\" value=\"さんぽ\"}}散歩は、{{delay frames=\"10\"}}\n{{ruby charSpan=\"2\" value=\"ひるま\"}}昼間とは{{ruby charSpan=\"1\" value=\"ちが\"}}違う{{delay frames=\"5\"}}　{{ruby charSpan=\"1\" value=\"あじ\"}}味わいがあります"
  },
  {
    "label": "016",
    "text": "{{anim id=\"1\"}}あら、{{delay frames=\"15\"}}まだお{{ruby charSpan=\"2\" value=\"さんぽ\"}}散歩{{ruby charSpan=\"1\" value=\"ちゅう\"}}中ですか？{{fun_00010007 arg=\"\"}}\n{{anim id=\"3\"}}{{ruby charSpan=\"1\" value=\"あめ\"}}雨の{{ruby charSpan=\"1\" value=\"よる\"}}夜の　お{{ruby charSpan=\"1\" value=\"で\"}}出かけって{{delay frames=\"10\"}}\nほんと　{{ruby charSpan=\"1\" value=\"あ\"}}飽きないですよね、{{delay frames=\"15\"}}{{fun_00070005 arg=\"\"}}！！{{anim id=\"1\"}}"
  },
  {
    "label": "017",
    "text": "{{i10_11 arg=\"0x1012001300CD\"}}"
  },
  {
    "label": "018",
    "text": "{{fun_00010009 arg=\"0x030004000700\"}}"
  },
  {
    "label": "019",
    "text": "{{fun_00010009 arg=\"0x1D0005000600\"}}"
  },
  {
    "label": "020",
    "text": "{{i10_11 arg=\"0x1015001600CD\"}}"
  },
  {
    "label": "021",
    "text": "{{fun_00010009 arg=\"0x030004000A00\"}}"
  },
  {
    "label": "022",
    "text": "{{fun_00010009 arg=\"0x1D0008000900\"}}"
  },
  {
    "label": "023",
    "text": "{{i10_11 arg=\"0x1018001900CD\"}}"
  },
  {
    "label": "024",
    "text": "{{fun_00010009 arg=\"0x030004000D00\"}}"
  },
  {
    "label": "025",
    "text": "{{fun_00010009 arg=\"0x1D000B000C00\"}}"
  },
  {
    "label": "026",
    "text": "{{i10_11 arg=\"0x101B001C00CD\"}}"
  },
  {
    "label": "027",
    "text": "{{fun_00010009 arg=\"0x030004001000\"}}"
  },
  {
    "label": "028",
    "text": "{{fun_00010009 arg=\"0x1D000E000F00\"}}"
  },
  {
    "label": "029",
    "text": "{{fun_00000009 arg=\"0x01000200\"}}"
  }
]