﻿[
  {
    "label": "001",
    "text": ""
  },
  {
    "label": "002",
    "text": "{{anim id=\"36\"}}{{ruby charSpan=\"2\" value=\"きょう\"}}今日、{{delay frames=\"10\"}}お{{ruby charSpan=\"2\" value=\"かし\"}}菓子を{{ruby charSpan=\"1\" value=\"も\"}}持たずに\nお{{ruby charSpan=\"2\" value=\"さんぽ\"}}散歩するのは　{{delay frames=\"15\"}}{{ruby charSpan=\"2\" value=\"しんぱい\"}}心配ですよね～"
  },
  {
    "label": "003",
    "text": "{{anim id=\"37\"}}お{{ruby charSpan=\"2\" value=\"かし\"}}菓子を　{{color id=\"4\"}}パンプキング{{color id=\"65535\"}}さんにあげれば、{{delay frames=\"10\"}}\n{{ruby charSpan=\"1\" value=\"い\"}}良い{{ruby charSpan=\"1\" value=\"もの\"}}物が　もらえるそうですね{{fun_00010007 arg=\"\"}}\n{{anim id=\"36\"}}でも{{ruby charSpan=\"1\" value=\"さが\"}}探すのに{{delay frames=\"10\"}}　{{ruby charSpan=\"3\" value=\"ひとくろう\"}}一苦労するかもですけど"
  },
  {
    "label": "004",
    "text": "{{anim id=\"37\"}}{{color id=\"2\"}}アメ{{color id=\"65535\"}}ちゃんを　いただけるなら、{{delay frames=\"10\"}}\nわたし、{{delay frames=\"10\"}}お{{ruby charSpan=\"1\" value=\"とく\"}}得な{{ruby charSpan=\"2\" value=\"じょうほう\"}}情報を　{{delay frames=\"10\"}}お{{ruby charSpan=\"1\" value=\"おし\"}}教えしちゃいます"
  },
  {
    "label": "005",
    "text": ""
  },
  {
    "label": "006",
    "text": ""
  },
  {
    "label": "007",
    "text": "{{anim id=\"37\"}}{{ruby charSpan=\"5\" value=\"トリック\"}}Trick {{ruby charSpan=\"2\" value=\"オア\"}}or {{ruby charSpan=\"5\" value=\"トリート\"}}treat?{{pageBreak}}お{{ruby charSpan=\"2\" value=\"かし\"}}菓子を　くれなきゃ{{delay frames=\"10\"}}\nいたずらしちゃいます！{{fun_0005000F arg=\"0x00000000\"}}\nわたす\nわたさない"
  },
  {
    "label": "008",
    "text": ""
  },
  {
    "label": "009",
    "text": ""
  },
  {
    "label": "010",
    "text": ""
  },
  {
    "label": "011",
    "text": "{{anim id=\"37\"}}あなたも　{{delay frames=\"10\"}}{{color id=\"4\"}}パンプキング{{color id=\"65535\"}}さんの\nしもべになれば、{{delay frames=\"10\"}}ハロウィンを{{delay frames=\"5\"}}\nもっと　{{ruby charSpan=\"1\" value=\"たの\"}}楽しめちゃいますよ！"
  },
  {
    "label": "012",
    "text": "{{anim id=\"13\"}}びっくりさせてしまって{{delay frames=\"5\"}}\nごめんなさい{{pageBreak}}{{anim id=\"37\"}}{{color id=\"4\"}}パンプキング{{color id=\"65535\"}}さんの　しもべになって{{delay frames=\"10\"}}\n{{ruby charSpan=\"2\" value=\"いっしょ\"}}一緒に　{{ruby charSpan=\"1\" value=\"も\"}}盛り{{ruby charSpan=\"1\" value=\"あ\"}}上がりましょう！"
  },
  {
    "label": "013",
    "text": "{{anim id=\"1\"}}うふふ！{{delay frames=\"20\"}}\n{{anim id=\"9\"}}{{ruby charSpan=\"2\" value=\"きょう\"}}今日は　ハロウィンなので{{delay frames=\"10\"}}\n{{anim id=\"37\"}}{{ruby charSpan=\"1\" value=\"おこ\"}}怒らないでくださいね！"
  },
  {
    "label": "014",
    "text": "{{anim id=\"37\"}}これは　これで{{delay frames=\"8\"}}・{{delay frames=\"8\"}}・{{delay frames=\"8\"}}・{{delay frames=\"8\"}}\n{{ruby charSpan=\"2\" value=\"きょう\"}}今日の　お{{ruby charSpan=\"1\" value=\"まつ\"}}祭りには　{{delay frames=\"10\"}}{{ruby charSpan=\"1\" value=\"あ\"}}合ってますよ"
  },
  {
    "label": "015",
    "text": "{{anim id=\"37\"}}{{ruby charSpan=\"1\" value=\"あと\"}}後で　{{delay frames=\"10\"}}{{ruby charSpan=\"1\" value=\"も\"}}持ってるモノを　{{ruby charSpan=\"1\" value=\"み\"}}見てみてくださいね{{delay frames=\"20\"}}\n{{anim id=\"35\"}}{{ruby charSpan=\"1\" value=\"なに\"}}何かが　{{delay frames=\"5\"}}{{ruby charSpan=\"1\" value=\"か\"}}変わってるかもしれませんよ！"
  },
  {
    "label": "016",
    "text": "{{anim id=\"37\"}}{{ruby charSpan=\"1\" value=\"あと\"}}後で　{{delay frames=\"10\"}}{{ruby charSpan=\"1\" value=\"も\"}}持ち{{ruby charSpan=\"1\" value=\"もの\"}}物を　チェックしてください！{{fun_00010007 arg=\"\"}}\nわたしからの　おくりものを{{delay frames=\"10\"}}\n{{anim id=\"35\"}}しのばせておきました{{delay frames=\"8\"}}・{{delay frames=\"8\"}}・{{delay frames=\"8\"}}・{{delay frames=\"8\"}}！"
  },
  {
    "label": "017",
    "text": "{{anim id=\"16\"}}あら{{delay frames=\"8\"}}・{{delay frames=\"8\"}}・{{delay frames=\"8\"}}・{{delay frames=\"8\"}}！{{delay frames=\"20\"}}\nわたしの　いたずらが{{delay frames=\"5\"}}\n{{ruby charSpan=\"2\" value=\"つうよう\"}}通用しないなんて！{{pageBreak}}{{anim id=\"36\"}}じゃあ　{{ruby charSpan=\"2\" value=\"きょう\"}}今日は{{delay frames=\"10\"}}\n{{ruby charSpan=\"2\" value=\"おおめ\"}}大目に{{ruby charSpan=\"1\" value=\"み\"}}見てあげます、{{delay frames=\"10\"}}{{fun_00070005 arg=\"\"}}"
  },
  {
    "label": "018",
    "text": ""
  },
  {
    "label": "019",
    "text": "{{anim id=\"1\"}}うふふ！{{delay frames=\"20\"}}\n{{anim id=\"5\"}}これを{{ruby charSpan=\"1\" value=\"も\"}}持っていけば、{{delay frames=\"10\"}}{{color id=\"4\"}}\nパンプキング{{color id=\"65535\"}}さんが{{ruby charSpan=\"1\" value=\"よろこ\"}}喜びますね！"
  },
  {
    "label": "020",
    "text": "{{anim id=\"3\"}}ありがとうございます！{{delay frames=\"20\"}}\n{{ruby charSpan=\"2\" value=\"だいじ\"}}大事にしますね{{delay frames=\"30\"}}{{anim id=\"37\"}}"
  },
  {
    "label": "021",
    "text": "{{anim id=\"1\"}}うふふ！{{delay frames=\"30\"}}\nさすが　ハロウィンのこと{{delay frames=\"10\"}}\nわかってらっしゃいますね、{{delay frames=\"15\"}}{{fun_00070005 arg=\"\"}}"
  },
  {
    "label": "022",
    "text": "{{anim id=\"37\"}}では、{{delay frames=\"10\"}}わたしがにぎっている{{delay frames=\"10\"}}\nみなさんのヒミツを{{delay frames=\"10\"}}\nお{{ruby charSpan=\"1\" value=\"おし\"}}教えしちゃいましょう！"
  },
  {
    "label": "023",
    "text": ""
  },
  {
    "label": "024",
    "text": "{{anim id=\"22\"}}{{fun_00010011 arg=\"0x0000\"}}さんが　こわがってたのは{{delay frames=\"10\"}}\n{{fun_00040012 arg=\"0x00CD\"}}か{{delay frames=\"10\"}}\n{{fun_00030012 arg=\"0x01CD\"}}だったはずです{{delay frames=\"8\"}}・{{delay frames=\"8\"}}・{{delay frames=\"8\"}}・{{delay frames=\"8\"}}\n{{anim id=\"13\"}}その　どちらかなので{{delay frames=\"10\"}}\nあとは　{{delay frames=\"8\"}}{{ruby charSpan=\"2\" value=\"じりき\"}}自力でがんばってください！"
  },
  {
    "label": "025",
    "text": "{{anim id=\"22\"}}{{fun_00010011 arg=\"0x0000\"}}さんが　こわがってたのは{{delay frames=\"10\"}}\n{{fun_00030012 arg=\"0x01CD\"}}か{{delay frames=\"10\"}}\n{{fun_00040012 arg=\"0x00CD\"}}だったはずです{{delay frames=\"8\"}}・{{delay frames=\"8\"}}・{{delay frames=\"8\"}}・{{delay frames=\"8\"}}\n{{anim id=\"13\"}}そのどちらかなので{{delay frames=\"10\"}}\nあとは　{{delay frames=\"8\"}}{{ruby charSpan=\"2\" value=\"じりき\"}}自力でがんばってください！"
  },
  {
    "label": "026",
    "text": "{{anim id=\"22\"}}{{fun_00040012 arg=\"0x00CD\"}}が{{delay frames=\"10\"}}\nこわいって{{ruby charSpan=\"1\" value=\"い\"}}言ってたのは{{delay frames=\"8\"}}・{{delay frames=\"8\"}}・{{delay frames=\"8\"}}・{{delay frames=\"8\"}}{{pageBreak}}{{fun_00010011 arg=\"0x0000\"}}さんか{{delay frames=\"10\"}}\n{{fun_00010011 arg=\"0x0100\"}}さんでした{{pageBreak}}{{anim id=\"11\"}}どっちかだったと　{{ruby charSpan=\"1\" value=\"おも\"}}思うんですけど{{delay frames=\"8\"}}・{{delay frames=\"8\"}}・{{delay frames=\"8\"}}・{{delay frames=\"30\"}}\n{{anim id=\"36\"}}すみません、{{delay frames=\"10\"}}これ{{ruby charSpan=\"2\" value=\"いじょう\"}}以上は　{{ruby charSpan=\"1\" value=\"おも\"}}思い{{ruby charSpan=\"1\" value=\"だ\"}}出せないです"
  },
  {
    "label": "027",
    "text": "{{anim id=\"22\"}}{{fun_00040012 arg=\"0x00CD\"}}が{{delay frames=\"10\"}}\nこわいって{{ruby charSpan=\"1\" value=\"い\"}}言ってたのは{{delay frames=\"8\"}}・{{delay frames=\"8\"}}・{{delay frames=\"8\"}}・{{delay frames=\"8\"}}{{pageBreak}}{{fun_00010011 arg=\"0x0100\"}}さんか{{delay frames=\"10\"}}\n{{fun_00010011 arg=\"0x0000\"}}さんでした{{pageBreak}}{{anim id=\"11\"}}どっちかだったと　{{ruby charSpan=\"1\" value=\"おも\"}}思うんですけど{{delay frames=\"8\"}}・{{delay frames=\"8\"}}・{{delay frames=\"8\"}}・{{delay frames=\"30\"}}\n{{anim id=\"36\"}}すみません、{{delay frames=\"10\"}}これ{{ruby charSpan=\"2\" value=\"いじょう\"}}以上は　{{ruby charSpan=\"1\" value=\"おも\"}}思い{{ruby charSpan=\"1\" value=\"だ\"}}出せないです"
  },
  {
    "label": "028",
    "text": "{{anim id=\"36\"}}{{fun_00010011 arg=\"0x0000\"}}さんと{{delay frames=\"10\"}}\n{{fun_00010011 arg=\"0x0200\"}}さんって、{{delay frames=\"10\"}}\n{{ruby charSpan=\"1\" value=\"おな\"}}同じものが　{{ruby charSpan=\"2\" value=\"にがて\"}}苦手なんだそうですよ\n{{anim id=\"21\"}}{{ruby charSpan=\"1\" value=\"るい\"}}類は　{{delay frames=\"10\"}}{{ruby charSpan=\"1\" value=\"とも\"}}友を{{ruby charSpan=\"1\" value=\"よ\"}}呼ぶんですね～"
  },
  {
    "label": "029",
    "text": "{{anim id=\"35\"}}{{fun_00010011 arg=\"0x0000\"}}さんの{{ruby charSpan=\"2\" value=\"にがて\"}}苦手なモノを{{delay frames=\"10\"}}\n{{ruby charSpan=\"2\" value=\"はっぴょう\"}}発表しちゃいますね！{{pageBreak}}{{anim id=\"13\"}}なんと{{delay frames=\"8\"}}・{{delay frames=\"8\"}}・{{delay frames=\"8\"}}・{{delay frames=\"30\"}}\n{{anim id=\"33\"}}{{fun_00040012 arg=\"0x00CD\"}}だそうです！"
  },
  {
    "label": "030",
    "text": "{{anim id=\"37\"}}{{fun_00010011 arg=\"0x0000\"}}さんの{{ruby charSpan=\"2\" value=\"にがて\"}}苦手なモノって、{{delay frames=\"10\"}}\n{{fun_00040012 arg=\"0x00CD\"}}だそうですよ！{{pageBreak}}{{anim id=\"39\"}}{{delay frames=\"8\"}}・{{delay frames=\"8\"}}・{{delay frames=\"8\"}}・{{delay frames=\"8\"}}わたしが{{ruby charSpan=\"1\" value=\"い\"}}言ったことは{{delay frames=\"10\"}}\nナイショにしてくださいね"
  },
  {
    "label": "031",
    "text": ""
  },
  {
    "label": "032",
    "text": "{{anim id=\"18\"}}{{fun_000B0007 arg=\"\"}}まあ？！{{delay frames=\"20\"}}\nいただけないんですか？！{{pageBreak}}{{anim id=\"22\"}}なるほど、{{delay frames=\"20\"}}もしかして{{delay frames=\"10\"}}\n{{anim id=\"35\"}}あなたも{{delay frames=\"15\"}}　お{{ruby charSpan=\"2\" value=\"かし\"}}菓子を{{delay frames=\"3\"}}\n{{ruby charSpan=\"1\" value=\"あつ\"}}集めてらっしゃるんですね？{{pageBreak}}{{anim id=\"1\"}}でしたら　{{delay frames=\"10\"}}ゲームで{{ruby charSpan=\"2\" value=\"しょうぶ\"}}勝負しましょう！{{fun_00010007 arg=\"\"}}\nあなたが　{{ruby charSpan=\"1\" value=\"か\"}}勝ったら{{delay frames=\"10\"}}\nわたしの　{{color id=\"2\"}}アメ{{color id=\"65535\"}}ちゃんをゆずります{{pageBreak}}{{anim id=\"0\"}}でも　{{ruby charSpan=\"1\" value=\"ま\"}}負けてしまったら{{delay frames=\"8\"}}・{{delay frames=\"8\"}}・{{delay frames=\"8\"}}・{{delay frames=\"20\"}}\n{{anim id=\"38\"}}イタズラさせていただきますね！"
  },
  {
    "label": "033",
    "text": "{{anim id=\"9\"}}あら～{{delay frames=\"8\"}}・{{delay frames=\"8\"}}・{{delay frames=\"8\"}}・{{delay frames=\"10\"}}\nあなたも　お{{ruby charSpan=\"2\" value=\"かし\"}}菓子を{{delay frames=\"5\"}}\n{{ruby charSpan=\"1\" value=\"あつ\"}}集めてらっしゃるんですね？{{pageBreak}}{{anim id=\"22\"}}では　わたしと{{delay frames=\"10\"}}\nゲームしませんか！{{pageBreak}}{{anim id=\"1\"}}あなたが　{{ruby charSpan=\"1\" value=\"か\"}}勝ったら{{delay frames=\"20\"}}\nわたしの{{color id=\"2\"}}アメ{{color id=\"65535\"}}ちゃんを　あげますね{{pageBreak}}{{anim id=\"0\"}}でも　{{ruby charSpan=\"1\" value=\"ま\"}}負けてしまったら、{{delay frames=\"20\"}}\n{{anim id=\"35\"}}バツゲームが　{{ruby charSpan=\"1\" value=\"ま\"}}待ってますけど"
  },
  {
    "label": "034",
    "text": "{{anim id=\"37\"}}それでは{{delay frames=\"8\"}}・{{delay frames=\"8\"}}・{{delay frames=\"8\"}}・{{delay frames=\"20\"}}\n{{anim id=\"38\"}}{{color id=\"2\"}}じゃんけん{{color id=\"65535\"}}で　{{ruby charSpan=\"2\" value=\"しょうぶ\"}}勝負です！{{fun_00120007 arg=\"0x00012E002F00\"}}"
  },
  {
    "label": "035",
    "text": "{{anim id=\"37\"}}それでは{{delay frames=\"8\"}}・{{delay frames=\"8\"}}・{{delay frames=\"8\"}}・{{delay frames=\"20\"}}\n{{anim id=\"38\"}}{{color id=\"2\"}}ジェスチャーゲーム{{color id=\"65535\"}}で　{{ruby charSpan=\"2\" value=\"しょうぶ\"}}勝負です！{{fun_00120007 arg=\"0x01012E002F00\"}}"
  },
  {
    "label": "036",
    "text": ""
  },
  {
    "label": "037",
    "text": "{{anim id=\"0\"}}では　{{delay frames=\"10\"}}{{ruby charSpan=\"2\" value=\"かくご\"}}覚悟はいいですか？！{{delay frames=\"30\"}}\nいきますよ！{{pageBreak}}\n{{anim id=\"38\"}}{{size value=\"150\"}}それ～～～！{{fun_00080007 arg=\"0x3C000000\"}}{{size value=\"100\"}}"
  },
  {
    "label": "038",
    "text": "{{anim id=\"0\"}}それでは　{{delay frames=\"3\"}}{{ruby charSpan=\"1\" value=\"もう\"}}申し{{ruby charSpan=\"1\" value=\"わけ\"}}訳ないですけど{{delay frames=\"15\"}}\n{{anim id=\"21\"}}バツゲームですよ{{pageBreak}}\n{{anim id=\"31\"}}{{delay frames=\"20\"}}{{fun_000A0007 arg=\"\"}}{{size value=\"150\"}}えぇ～い！{{size value=\"100\"}}{{fun_00080007 arg=\"0x3C000000\"}}"
  },
  {
    "label": "039",
    "text": "{{anim id=\"9\"}}{{delay frames=\"8\"}}・{{delay frames=\"8\"}}・{{delay frames=\"8\"}}・{{delay frames=\"20\"}}くやしいですが、{{delay frames=\"15\"}}\n{{color id=\"2\"}}アメ{{color id=\"65535\"}}ちゃんを　{{delay frames=\"3\"}}お{{ruby charSpan=\"1\" value=\"わた\"}}渡ししますね"
  },
  {
    "label": "040",
    "text": "{{anim id=\"9\"}}{{ruby charSpan=\"2\" value=\"やくそく\"}}約束ですからね{{delay frames=\"8\"}}・{{delay frames=\"8\"}}・{{delay frames=\"8\"}}・{{delay frames=\"30\"}}\nこの{{color id=\"2\"}}アメ{{color id=\"65535\"}}ちゃんは　{{delay frames=\"5\"}}おゆずりします"
  },
  {
    "label": "041",
    "text": "{{anim id=\"15\"}}って、{{delay frames=\"10\"}}あなた{{delay frames=\"15\"}}\n{{ruby charSpan=\"2\" value=\"にもつ\"}}荷物が　いっぱいみたいですよ？{{pageBreak}}{{anim id=\"27\"}}{{ruby charSpan=\"2\" value=\"ざんねん\"}}残念ですが、{{delay frames=\"10\"}}\n{{ruby charSpan=\"1\" value=\"いま\"}}今の{{ruby charSpan=\"2\" value=\"しょうぶ\"}}勝負は{{delay frames=\"3\"}}　{{ruby charSpan=\"1\" value=\"な\"}}無しですね"
  },
  {
    "label": "042",
    "text": "{{anim id=\"9\"}}{{ruby charSpan=\"2\" value=\"ざんねん\"}}残念{{delay frames=\"8\"}}・{{delay frames=\"8\"}}・{{delay frames=\"8\"}}・{{delay frames=\"20\"}}\n{{anim id=\"21\"}}{{ruby charSpan=\"1\" value=\"つぎ\"}}次は　{{ruby charSpan=\"1\" value=\"ま\"}}負けませんよ！"
  },
  {
    "label": "043",
    "text": "{{anim id=\"10\"}}はぁ{{delay frames=\"8\"}}・{{delay frames=\"8\"}}・{{delay frames=\"8\"}}・{{delay frames=\"20\"}}\n{{ruby charSpan=\"1\" value=\"ま\"}}負けてしまうなんて、{{delay frames=\"8\"}}{{fun_00070005 arg=\"\"}}"
  },
  {
    "label": "044",
    "text": "{{anim id=\"15\"}}あら{{delay frames=\"8\"}}・{{delay frames=\"8\"}}・{{delay frames=\"8\"}}・{{delay frames=\"8\"}}！{{delay frames=\"20\"}}\n{{anim id=\"9\"}}やっぱり　くれないんですね{{pageBreak}}{{anim id=\"35\"}}もしかして、{{delay frames=\"10\"}}あなたも　お{{ruby charSpan=\"2\" value=\"かし\"}}菓子を{{delay frames=\"3\"}}\nねらってらっしゃるんですか？{{pageBreak}}{{anim id=\"21\"}}では、わたしと{{delay frames=\"10\"}}\nゲームしましょうよ！{{pageBreak}}{{anim id=\"1\"}}あなたが　{{ruby charSpan=\"1\" value=\"か\"}}勝ったら{{delay frames=\"20\"}}\nわたしの{{color id=\"2\"}}アメ{{color id=\"65535\"}}ちゃんを　あげます{{pageBreak}}{{anim id=\"0\"}}でも　あなたが　{{ruby charSpan=\"1\" value=\"ま\"}}負けたら、{{delay frames=\"20\"}}\n{{anim id=\"36\"}}バツゲームが　{{ruby charSpan=\"1\" value=\"ま\"}}待ってますけどね"
  },
  {
    "label": "045",
    "text": ""
  },
  {
    "label": "046",
    "text": "{{fun_00000009 arg=\"0x27002800\"}}"
  },
  {
    "label": "047",
    "text": "{{fun_00000009 arg=\"0x25002600\"}}"
  }
]