﻿[
  {
    "label": "001",
    "text": "{{anim id=\"16\"}}{{fun_00010011 arg=\"0x0000\"}}さんが、{{delay frames=\"10\"}}\nご{{ruby charSpan=\"2\" value=\"ようじ\"}}用事ですって？{{fun_00010007 arg=\"\"}}\n{{anim id=\"11\"}}う～ん{{delay frames=\"8\"}}・{{delay frames=\"8\"}}・{{delay frames=\"8\"}}・{{delay frames=\"8\"}}{{ruby charSpan=\"1\" value=\"なに\"}}何かしら？{{delay frames=\"30\"}}\n{{anim id=\"37\"}}とにかく　{{delay frames=\"5\"}}{{ruby charSpan=\"1\" value=\"い\"}}行ってみましょう{{delay frames=\"30\"}}\n{{anim id=\"0\"}}わたし、{{delay frames=\"10\"}}{{fun_00080005 arg=\"\"}}さんに{{delay frames=\"5\"}}\nついて{{ruby charSpan=\"1\" value=\"い\"}}行きますね！{{anim id=\"38\"}}"
  },
  {
    "label": "002",
    "text": "{{anim id=\"16\"}}{{fun_00010011 arg=\"0x0000\"}}さんが{{delay frames=\"10\"}}\nわたしを　{{ruby charSpan=\"1\" value=\"よ\"}}呼んでるんですか？{{pageBreak}}{{anim id=\"13\"}}{{ruby charSpan=\"1\" value=\"なに\"}}何かあったのかしら？{{delay frames=\"20\"}}\n{{ruby charSpan=\"2\" value=\"しんぱい\"}}心配なので、{{delay frames=\"10\"}}{{ruby charSpan=\"1\" value=\"はや\"}}早く{{ruby charSpan=\"1\" value=\"い\"}}行きましょう！{{pageBreak}}{{anim id=\"6\"}}{{fun_00080005 arg=\"\"}}さんに　ついて{{ruby charSpan=\"1\" value=\"い\"}}行きますね！"
  },
  {
    "label": "003",
    "text": "{{anim id=\"11\"}}まあ{{delay frames=\"5\"}}・{{delay frames=\"5\"}}・{{delay frames=\"5\"}}・{{delay frames=\"20\"}}\n{{fun_00010011 arg=\"0x0000\"}}さんが{{delay frames=\"10\"}}\nわたしのことを{{delay frames=\"5\"}}・{{delay frames=\"5\"}}・{{delay frames=\"5\"}}・？\n{{anim id=\"0\"}}とにかく、{{delay frames=\"15\"}}{{ruby charSpan=\"1\" value=\"いま\"}}今から　{{ruby charSpan=\"1\" value=\"うかが\"}}伺いますので{{delay frames=\"10\"}}\n{{anim id=\"23\"}}{{ruby charSpan=\"1\" value=\"つ\"}}連れて{{ruby charSpan=\"1\" value=\"い\"}}行ってくださいますか？\n{{delay frames=\"8\"}}{{fun_00070005 arg=\"\"}}？"
  },
  {
    "label": "004",
    "text": "{{anim id=\"13\"}}あの～！{{delay frames=\"15\"}}\n{{fun_00080005 arg=\"\"}}さん{{delay frames=\"20\"}}\n{{anim id=\"9\"}}ちょっと　{{delay frames=\"10\"}}{{ruby charSpan=\"1\" value=\"はや\"}}早いです！"
  },
  {
    "label": "005",
    "text": "{{anim id=\"13\"}}ちょ、{{delay frames=\"10\"}}ちょっと{{ruby charSpan=\"1\" value=\"ま\"}}待ってください！{{delay frames=\"20\"}}\n{{fun_00080005 arg=\"\"}}さ～ん！"
  },
  {
    "label": "006",
    "text": "{{anim id=\"9\"}}そんなに　{{ruby charSpan=\"1\" value=\"いそ\"}}急いで{{delay frames=\"10\"}}\nどうされたんですか？{{endTag}}\nごめんごめん\nちょっと{{ruby charSpan=\"2\" value=\"きゅうよう\"}}急用が・・・"
  },
  {
    "label": "007",
    "text": "{{anim id=\"12\"}}う～ん{{delay frames=\"8\"}}・{{delay frames=\"8\"}}・{{delay frames=\"8\"}}・{{delay frames=\"30\"}}\n{{anim id=\"9\"}}わたし、{{delay frames=\"10\"}}{{ruby charSpan=\"2\" value=\"うんどう\"}}運動{{ruby charSpan=\"2\" value=\"ぶそく\"}}不足なんで{{delay frames=\"8\"}}\n{{ruby charSpan=\"2\" value=\"いきぎ\"}}息切れしちゃいました{{endTag}}\nごめん　ごめん\nちょっと{{ruby charSpan=\"2\" value=\"きゅうよう\"}}急用が・・・"
  },
  {
    "label": "008",
    "text": "{{anim id=\"37\"}}あら？{{delay frames=\"20\"}}\nそっちって、{{delay frames=\"10\"}}{{ruby charSpan=\"2\" value=\"ほうこう\"}}方向　{{ruby charSpan=\"1\" value=\"ちが\"}}違いませんか？{{endTag}}\nごめん　まちがえた\nちょっと{{ruby charSpan=\"2\" value=\"きゅうよう\"}}急用が・・・"
  },
  {
    "label": "009",
    "text": "{{anim id=\"37\"}}あの～{{delay frames=\"20\"}}\nそっちは　{{delay frames=\"10\"}}{{ruby charSpan=\"1\" value=\"ちが\"}}違う{{ruby charSpan=\"1\" value=\"き\"}}気がするんですけど{{delay frames=\"8\"}}・{{delay frames=\"8\"}}・{{delay frames=\"8\"}}・{{delay frames=\"8\"}}{{endTag}}\nごめん　まちがえた\nちょっと{{ruby charSpan=\"2\" value=\"きゅうよう\"}}急用が・・・"
  },
  {
    "label": "010",
    "text": "{{anim id=\"23\"}}あら？　{{delay frames=\"20\"}}どうかしましたか？{{delay frames=\"30\"}}\n{{anim id=\"37\"}}{{fun_00010011 arg=\"0x0000\"}}さんのところへ{{delay frames=\"10\"}}\n{{ruby charSpan=\"1\" value=\"はや\"}}早く　{{ruby charSpan=\"1\" value=\"い\"}}行きましょう！{{endTag}}\nそうだね！\nちょっと{{ruby charSpan=\"2\" value=\"きゅうよう\"}}急用が・・・"
  },
  {
    "label": "011",
    "text": "{{fun_00080005 arg=\"\"}}さん、{{delay frames=\"10\"}}{{anim id=\"23\"}}どうされたんですか？{{delay frames=\"30\"}}\n{{anim id=\"1\"}}さぁ、{{delay frames=\"20\"}}{{fun_00010011 arg=\"0x0000\"}}さんのところへ\n{{ruby charSpan=\"1\" value=\"はや\"}}早く　{{delay frames=\"3\"}}{{ruby charSpan=\"1\" value=\"うかが\"}}伺いましょう！{{endTag}}\nオッケー！\nちょっと{{ruby charSpan=\"2\" value=\"ようじ\"}}用事が・・・"
  },
  {
    "label": "012",
    "text": "{{anim id=\"9\"}}あの～{{delay frames=\"8\"}}・{{delay frames=\"8\"}}・{{delay frames=\"8\"}}・{{delay frames=\"20\"}}\nまだまだ　{{delay frames=\"5\"}}{{ruby charSpan=\"1\" value=\"とお\"}}遠いんでしたっけ？{{pageBreak}}{{anim id=\"37\"}}わたし　{{delay frames=\"10\"}}{{ruby charSpan=\"1\" value=\"ある\"}}歩きつかれてしまったんで、{{delay frames=\"10\"}}\n{{ruby charSpan=\"2\" value=\"きょう\"}}今日は　{{delay frames=\"10\"}}もう　やめときます"
  },
  {
    "label": "013",
    "text": "{{anim id=\"9\"}}あら　{{delay frames=\"15\"}}もしかして、{{delay frames=\"10\"}}\n{{ruby charSpan=\"1\" value=\"みち\"}}道が　わからなくなったんですか？{{pageBreak}}{{anim id=\"12\"}}う～ん{{delay frames=\"8\"}}・{{delay frames=\"8\"}}・{{delay frames=\"8\"}}・{{delay frames=\"8\"}}\nわたし、{{delay frames=\"10\"}}{{ruby charSpan=\"2\" value=\"たいりょく\"}}体力の{{ruby charSpan=\"2\" value=\"げんかい\"}}限界みたいです{{delay frames=\"20\"}}\nもう　{{ruby charSpan=\"1\" value=\"あし\"}}足がクタクタ！\n{{anim id=\"0\"}}{{fun_00010011 arg=\"0x0000\"}}さんには\n{{ruby charSpan=\"1\" value=\"もう\"}}申し{{ruby charSpan=\"1\" value=\"わけ\"}}訳ないですけど{{delay frames=\"10\"}}\n{{ruby charSpan=\"2\" value=\"こんかい\"}}今回は　{{delay frames=\"5\"}}このくらいにしておきます"
  },
  {
    "label": "014",
    "text": ""
  },
  {
    "label": "015",
    "text": ""
  },
  {
    "label": "016",
    "text": "{{anim id=\"9\"}}そうですか{{delay frames=\"20\"}}\n{{anim id=\"37\"}}じゃあ、{{delay frames=\"10\"}}{{ruby charSpan=\"1\" value=\"あと\"}}後は　ひとりで{{delay frames=\"5\"}}\nがんばります"
  },
  {
    "label": "017",
    "text": "{{anim id=\"9\"}}そうなんですか{{delay frames=\"8\"}}・{{delay frames=\"8\"}}・{{delay frames=\"8\"}}・{{delay frames=\"8\"}}{{anim id=\"37\"}}わかりました{{fun_00010007 arg=\"\"}}\nでは、{{delay frames=\"10\"}}ここまでで　{{ruby charSpan=\"3\" value=\"だいじょうぶ\"}}大丈夫です{{delay frames=\"20\"}}\n{{anim id=\"32\"}}ありがとうございました"
  },
  {
    "label": "018",
    "text": "{{anim id=\"0\"}}すみませんが、{{delay frames=\"10\"}}\nもう{{ruby charSpan=\"1\" value=\"すこ\"}}少し　ゆっくりだと{{delay frames=\"8\"}}　{{ruby charSpan=\"1\" value=\"たす\"}}助かります"
  },
  {
    "label": "019",
    "text": "{{anim id=\"37\"}}あわてると　{{delay frames=\"5\"}}よくないですよ{{delay frames=\"20\"}}\n{{ruby charSpan=\"1\" value=\"お\"}}落ち{{ruby charSpan=\"1\" value=\"つ\"}}着いて{{ruby charSpan=\"1\" value=\"い\"}}行きましょう！"
  },
  {
    "label": "020",
    "text": "{{anim id=\"37\"}}そういうことも　{{delay frames=\"5\"}}ありますよね"
  },
  {
    "label": "021",
    "text": "{{anim id=\"1\"}}{{fun_00010011 arg=\"0x0000\"}}さんが{{delay frames=\"5\"}}\n{{ruby charSpan=\"1\" value=\"ま\"}}待ちくたびれないうちに、{{delay frames=\"10\"}}\n{{ruby charSpan=\"1\" value=\"い\"}}行きましょう"
  },
  {
    "label": "022",
    "text": ""
  },
  {
    "label": "023",
    "text": ""
  },
  {
    "label": "024",
    "text": "{{anim id=\"16\"}}え？{{delay frames=\"20\"}}\n{{fun_00010011 arg=\"0x0000\"}}さんが　{{ruby charSpan=\"1\" value=\"よ\"}}呼んでるんですか？{{pageBreak}}でも　それって{{delay frames=\"8\"}}・{{delay frames=\"8\"}}・{{delay frames=\"8\"}}・{{delay frames=\"8\"}}{{delay frames=\"10\"}}\n{{anim id=\"37\"}}けっこう　{{ruby charSpan=\"1\" value=\"まえ\"}}前の{{ruby charSpan=\"1\" value=\"はなし\"}}話だったりします？{{pageBreak}}{{anim id=\"21\"}}きっと　{{fun_00010011 arg=\"0x0000\"}}さんのことだから、{{delay frames=\"10\"}}\n{{anim id=\"0\"}}もう　ご{{ruby charSpan=\"2\" value=\"じぶん\"}}自分で{{delay frames=\"10\"}}\n{{ruby charSpan=\"2\" value=\"かいけつ\"}}解決してるんじゃないかしら！\n{{anim id=\"37\"}}たぶん　{{delay frames=\"10\"}}{{ruby charSpan=\"1\" value=\"い\"}}行かなくて{{ruby charSpan=\"2\" value=\"へいき\"}}平気だと{{ruby charSpan=\"1\" value=\"おも\"}}思いますよ{{delay frames=\"30\"}}\nご{{ruby charSpan=\"2\" value=\"れんらく\"}}連絡　{{delay frames=\"10\"}}{{anim id=\"32\"}}ありがとうございます"
  },
  {
    "label": "025",
    "text": "{{fun_00010011 arg=\"0x0000\"}}さんが\n{{anim id=\"23\"}}ご{{ruby charSpan=\"2\" value=\"ようじ\"}}用事ですって？\n{{anim id=\"11\"}}{{delay frames=\"8\"}}・{{delay frames=\"8\"}}・{{delay frames=\"8\"}}・{{delay frames=\"20\"}}{{anim id=\"22\"}}あぁ、{{delay frames=\"20\"}}きっと　{{delay frames=\"5\"}}あのことですね\n{{anim id=\"37\"}}たぶん　{{delay frames=\"10\"}}もう{{ruby charSpan=\"1\" value=\"い\"}}行かなくて\n{{ruby charSpan=\"3\" value=\"だいじょうぶ\"}}大丈夫じゃないかしら{{delay frames=\"20\"}}\n{{anim id=\"5\"}}また{{ruby charSpan=\"2\" value=\"こんど\"}}今度　{{delay frames=\"10\"}}{{ruby charSpan=\"1\" value=\"はなし\"}}話を　{{ruby charSpan=\"1\" value=\"き\"}}聞いておきます"
  },
  {
    "label": "026",
    "text": "{{fun_00010011 arg=\"0x0000\"}}さんが{{delay frames=\"10\"}}\n{{anim id=\"23\"}}{{ruby charSpan=\"1\" value=\"よ\"}}呼んでるんですか？{{pageBreak}}{{anim id=\"9\"}}う～ん{{delay frames=\"20\"}}\nちょっと　{{ruby charSpan=\"1\" value=\"いま\"}}今{{delay frames=\"10\"}}\n{{ruby charSpan=\"2\" value=\"きゅうよう\"}}急用がありまして{{delay frames=\"8\"}}・{{delay frames=\"8\"}}・{{delay frames=\"8\"}}・{{pageBreak}}{{anim id=\"0\"}}{{ruby charSpan=\"1\" value=\"あと\"}}後で　{{ruby charSpan=\"2\" value=\"ようけん\"}}用件{{delay frames=\"10\"}}\n{{ruby charSpan=\"1\" value=\"き\"}}聞いておきますね！{{pageBreak}}{{anim id=\"1\"}}わざわざ　{{ruby charSpan=\"1\" value=\"し\"}}知らせに{{ruby charSpan=\"1\" value=\"き\"}}来てくださって{{delay frames=\"10\"}}\nありがとうございました"
  },
  {
    "label": "027",
    "text": "{{fun_00010011 arg=\"0x0000\"}}さんが{{delay frames=\"10\"}}\n{{anim id=\"23\"}}わたしに{{ruby charSpan=\"2\" value=\"ようじ\"}}用事ですか？{{fun_00010007 arg=\"\"}}\n{{anim id=\"37\"}}では、{{delay frames=\"10\"}}お{{ruby charSpan=\"1\" value=\"はなし\"}}話　{{ruby charSpan=\"1\" value=\"うかが\"}}伺ってきます\n{{fun_00080005 arg=\"\"}}さんは　{{delay frames=\"10\"}}お{{ruby charSpan=\"2\" value=\"ともだち\"}}友達の{{delay frames=\"5\"}}\nお{{ruby charSpan=\"2\" value=\"あいて\"}}相手してあげてくださいね"
  },
  {
    "label": "028",
    "text": "{{anim id=\"23\"}}あら、{{delay frames=\"20\"}}{{fun_00010011 arg=\"0x0000\"}}さんが{{delay frames=\"10\"}}\nわたしを　{{ruby charSpan=\"1\" value=\"よ\"}}呼んでるんですか？{{pageBreak}}{{anim id=\"37\"}}{{delay frames=\"10\"}}{{fun_00080005 arg=\"\"}}さん、{{delay frames=\"10\"}}\n{{ruby charSpan=\"1\" value=\"いま\"}}今　{{delay frames=\"8\"}}お{{ruby charSpan=\"1\" value=\"いそが\"}}忙しいみたいなので{{pageBreak}}ご{{ruby charSpan=\"2\" value=\"ようじ\"}}用事が{{ruby charSpan=\"1\" value=\"す\"}}済んだら{{delay frames=\"5\"}}\n{{ruby charSpan=\"1\" value=\"こえ\"}}声をかけてください{{pageBreak}}{{ruby charSpan=\"2\" value=\"いっしょ\"}}一緒に　{{delay frames=\"8\"}}{{fun_00010011 arg=\"0x0000\"}}さんのところへ\n{{ruby charSpan=\"1\" value=\"い\"}}行きましょう！"
  },
  {
    "label": "029",
    "text": ""
  },
  {
    "label": "030",
    "text": "{{fun_00010011 arg=\"0x0000\"}}さんが{{delay frames=\"10\"}}\n{{anim id=\"23\"}}{{ruby charSpan=\"1\" value=\"よ\"}}呼んでらっしゃるんですか？{{pageBreak}}{{anim id=\"37\"}}でも、{{delay frames=\"5\"}}{{fun_00080005 arg=\"\"}}さん{{delay frames=\"15\"}}\nお{{ruby charSpan=\"2\" value=\"ともだち\"}}友達と{{ruby charSpan=\"1\" value=\"あそ\"}}遊ぶ　{{delay frames=\"3\"}}ご{{ruby charSpan=\"2\" value=\"よてい\"}}予定なんでしょう？{{pageBreak}}{{anim id=\"0\"}}いつ　{{delay frames=\"10\"}}お{{ruby charSpan=\"2\" value=\"ともだち\"}}友達が\nいらっしゃっても　いいように{{delay frames=\"15\"}}\n{{ruby charSpan=\"2\" value=\"じゅんび\"}}準備しとかないとですよね？\n{{anim id=\"1\"}}わたしは　{{delay frames=\"10\"}}{{ruby charSpan=\"1\" value=\"のち\"}}後ほど{{delay frames=\"3\"}}\n{{ruby charSpan=\"2\" value=\"ひとり\"}}一人で　{{ruby charSpan=\"1\" value=\"い\"}}行ってきますので{{delay frames=\"10\"}}\nご{{ruby charSpan=\"2\" value=\"しんぱい\"}}心配なく！　{{delay frames=\"20\"}}{{fun_00070005 arg=\"\"}}！"
  },
  {
    "label": "031",
    "text": "{{anim id=\"1\"}}{{fun_00080005 arg=\"\"}}さん、{{delay frames=\"20\"}}\nお{{ruby charSpan=\"2\" value=\"ともだち\"}}友達が　{{delay frames=\"3\"}}いらしてるみたいですね！{{pageBreak}}きっと　お{{ruby charSpan=\"2\" value=\"あいて\"}}相手で　{{ruby charSpan=\"1\" value=\"いそが\"}}忙しいでしょうから、{{delay frames=\"5\"}}\n{{anim id=\"21\"}}{{fun_00010011 arg=\"0x0000\"}}さんの　お{{ruby charSpan=\"1\" value=\"たく\"}}宅には{{delay frames=\"10\"}}\nわたしひとりで　{{ruby charSpan=\"1\" value=\"い\"}}行って{{ruby charSpan=\"1\" value=\"き\"}}来ますね\n{{anim id=\"1\"}}どうぞ　お{{ruby charSpan=\"1\" value=\"き\"}}気になさらず{{delay frames=\"15\"}}\nたくさん　{{ruby charSpan=\"1\" value=\"あそ\"}}遊んでください、{{delay frames=\"15\"}}{{fun_00070005 arg=\"\"}}"
  },
  {
    "label": "032",
    "text": "{{fun_00080005 arg=\"\"}}さん、{{delay frames=\"20\"}}\nお{{ruby charSpan=\"2\" value=\"ともだち\"}}友達が　いらっしゃるなら{{delay frames=\"15\"}}\nその{{ruby charSpan=\"2\" value=\"じゅんび\"}}準備で　{{delay frames=\"5\"}}お{{ruby charSpan=\"1\" value=\"いそが\"}}忙しいんじゃないですか？{{pageBreak}}{{anim id=\"1\"}}{{fun_00010011 arg=\"0x0000\"}}さんの　ところには{{delay frames=\"15\"}}\nわたしひとりで　{{ruby charSpan=\"1\" value=\"い\"}}行って{{ruby charSpan=\"1\" value=\"く\"}}来るので{{delay frames=\"10\"}}\nご{{ruby charSpan=\"2\" value=\"しんぱい\"}}心配いりませんよ、{{delay frames=\"15\"}}{{fun_00070005 arg=\"\"}}"
  }
]