﻿[
  {
    "label": "001",
    "text": "{{anim id=\"1\"}}{{fun_00060007 arg=\"\"}}ヤッホー{{fun_00070007 arg=\"\"}}！{{delay frames=\"20\"}}\n{{fun_00000005 arg=\"\"}}{{fun_000D0005 arg=\"\"}}じゃん！{{fun_00010007 arg=\"\"}}\n{{ruby charSpan=\"1\" value=\"あそ\"}}遊びに{{ruby charSpan=\"1\" value=\"き\"}}来たんだね～、{{delay frames=\"8\"}}{{fun_00070005 arg=\"\"}}"
  },
  {
    "label": "002",
    "text": "{{anim id=\"16\"}}あ～、{{delay frames=\"10\"}}{{fun_00000005 arg=\"\"}}{{fun_000D0005 arg=\"\"}}だ～！{{delay frames=\"30\"}}\n{{anim id=\"1\"}}{{ruby charSpan=\"2\" value=\"げんき\"}}元気してる？！"
  },
  {
    "label": "003",
    "text": "{{anim id=\"1\"}}{{fun_00000005 arg=\"\"}}{{fun_000D0005 arg=\"\"}}、{{delay frames=\"10\"}}おっはよ～！{{delay frames=\"30\"}}\nたくさん　{{ruby charSpan=\"1\" value=\"あそ\"}}遊んでってよね、{{delay frames=\"15\"}}{{fun_00070005 arg=\"\"}}！"
  },
  {
    "label": "004",
    "text": "{{anim id=\"1\"}}{{fun_00000005 arg=\"\"}}{{fun_000D0005 arg=\"\"}}！{{delay frames=\"30\"}}\n{{ruby charSpan=\"1\" value=\"き\"}}来てるんだったら{{delay frames=\"10\"}}\n{{ruby charSpan=\"1\" value=\"い\"}}言ってくれればいいのに～、{{delay frames=\"15\"}}{{fun_00070005 arg=\"\"}}！"
  },
  {
    "label": "005",
    "text": "{{anim id=\"1\"}}{{fun_00000005 arg=\"\"}}{{fun_000D0005 arg=\"\"}}、{{delay frames=\"10\"}}ヤッホー！{{delay frames=\"30\"}}\nなんか　{{ruby charSpan=\"2\" value=\"きょう\"}}今日は、{{delay frames=\"8\"}}\n{{anim id=\"1\"}}{{ruby charSpan=\"1\" value=\"あ\"}}会える{{ruby charSpan=\"1\" value=\"き\"}}気がしたんだよね～、{{delay frames=\"10\"}}{{fun_00070005 arg=\"\"}}！"
  },
  {
    "label": "006",
    "text": "{{anim id=\"1\"}}{{fun_00060007 arg=\"\"}}{{fun_00000005 arg=\"\"}}{{fun_000D0005 arg=\"\"}}じゃん！　{{delay frames=\"20\"}}ヤッホー{{fun_00070007 arg=\"\"}}！{{delay frames=\"30\"}}\nアタイに　{{ruby charSpan=\"1\" value=\"あ\"}}会いに{{ruby charSpan=\"1\" value=\"き\"}}来てくれたの？{{delay frames=\"30\"}}\n{{anim id=\"5\"}}うれしい～、{{delay frames=\"15\"}}{{fun_00070005 arg=\"\"}}！！"
  },
  {
    "label": "007",
    "text": "{{anim id=\"1\"}}{{fun_00060007 arg=\"\"}}{{fun_00000005 arg=\"\"}}{{fun_000D0005 arg=\"\"}}、{{delay frames=\"10\"}}こんばんは{{fun_00070007 arg=\"\"}}！{{pageBreak}}なんか　{{ruby charSpan=\"2\" value=\"きょう\"}}今日は{{delay frames=\"8\"}}\n{{ruby charSpan=\"1\" value=\"き\"}}来てる{{ruby charSpan=\"1\" value=\"き\"}}気がしたんだよね{{delay frames=\"30\"}}\n{{anim id=\"35\"}}アタイ　{{delay frames=\"8\"}}カンはするどいんだ～、{{delay frames=\"15\"}}{{fun_00070005 arg=\"\"}}"
  },
  {
    "label": "008",
    "text": "{{anim id=\"16\"}}あ～！　{{delay frames=\"20\"}}{{fun_00000005 arg=\"\"}}{{fun_000D0005 arg=\"\"}}！{{delay frames=\"30\"}}\n{{anim id=\"1\"}}ちょうど{{delay frames=\"10\"}}アンタのこと\n{{ruby charSpan=\"1\" value=\"かんが\"}}考えてたんだよ～、{{delay frames=\"15\"}}{{fun_00070005 arg=\"\"}}"
  },
  {
    "label": "009",
    "text": "{{anim id=\"1\"}}うっそ～！　{{delay frames=\"20\"}}{{fun_00000005 arg=\"\"}}{{fun_000D0005 arg=\"\"}}じゃ～ん！{{delay frames=\"30\"}}\nこんな{{ruby charSpan=\"2\" value=\"じかん\"}}時間に{{ruby charSpan=\"1\" value=\"あ\"}}会っちゃうなんて、{{delay frames=\"20\"}}\n{{anim id=\"43\"}}・{{delay frames=\"10\"}}・{{delay frames=\"10\"}}・{{delay frames=\"10\"}}{{ruby charSpan=\"2\" value=\"うんめい\"}}運命じゃない？！　{{delay frames=\"20\"}}{{fun_00070005 arg=\"\"}}"
  },
  {
    "label": "010",
    "text": "{{anim id=\"1\"}}{{fun_00060007 arg=\"\"}}{{fun_00000005 arg=\"\"}}{{fun_000D0005 arg=\"\"}}だ～！{{fun_00070007 arg=\"\"}}{{delay frames=\"30\"}}\nこんな{{ruby charSpan=\"2\" value=\"じかん\"}}時間に　{{ruby charSpan=\"1\" value=\"あそ\"}}遊びに{{ruby charSpan=\"1\" value=\"く\"}}来るなんて{{delay frames=\"10\"}}\n{{anim id=\"3\"}}ちょーカッコイイじゃん、{{delay frames=\"15\"}}{{fun_00070005 arg=\"\"}}！"
  }
]