﻿[
  {
    "label": "001",
    "text": "{{anim id=\"5\"}}{{ruby charSpan=\"2\" value=\"きょう\"}}今日は、{{delay frames=\"10\"}}カウントダウンのお{{ruby charSpan=\"1\" value=\"まつ\"}}祭りだね！{{delay frames=\"20\"}}\n{{anim id=\"2\"}}ちょー{{ruby charSpan=\"1\" value=\"は\"}}張り{{ruby charSpan=\"1\" value=\"き\"}}切っちゃうんだから"
  },
  {
    "label": "002",
    "text": "{{anim id=\"1\"}}あけましておめでとう！{{delay frames=\"20\"}}\n{{ruby charSpan=\"2\" value=\"ことし\"}}今年もよろしくね、{{delay frames=\"15\"}}{{fun_00070005 arg=\"\"}}"
  },
  {
    "label": "003",
    "text": ""
  },
  {
    "label": "004",
    "text": "{{anim id=\"13\"}}{{ruby charSpan=\"2\" value=\"しんねん\"}}新年まで{{delay frames=\"10\"}}\nあと {{delay frames=\"5\"}}1{{ruby charSpan=\"2\" value=\"じかん\"}}時間もないじゃ～ん！{{pageBreak}}{{anim id=\"3\"}}アタイも{{delay frames=\"5\"}}　カウントダウンに{{ruby charSpan=\"1\" value=\"む\"}}向けて、{{delay frames=\"10\"}}\n{{ruby charSpan=\"2\" value=\"じゅんび\"}}準備しなくっちゃ！{{delay frames=\"30\"}}{{anim id=\"37\"}}"
  },
  {
    "label": "005",
    "text": "{{anim id=\"13\"}}ちょっとちょっと！{{delay frames=\"20\"}}\n{{ruby charSpan=\"2\" value=\"ことし\"}}今年も{{delay frames=\"10\"}}　あと{{ruby charSpan=\"1\" value=\"すこ\"}}少しじゃん！{{pageBreak}}{{anim id=\"1\"}}やり{{ruby charSpan=\"1\" value=\"のこ\"}}残したことがあったら、{{delay frames=\"10\"}}\n{{ruby charSpan=\"1\" value=\"いま\"}}今のうちに　すましとかないとね！！"
  },
  {
    "label": "006",
    "text": "{{anim id=\"11\"}}{{ruby charSpan=\"2\" value=\"らいねん\"}}来年って、{{ruby charSpan=\"1\" value=\"なに\"}}何{{ruby charSpan=\"1\" value=\"どし\"}}年だっけ？？{{fun_00010007 arg=\"\"}}\n{{delay frames=\"8\"}}・{{delay frames=\"8\"}}・{{delay frames=\"8\"}}・{{delay frames=\"8\"}}ま、{{delay frames=\"20\"}}{{anim id=\"5\"}}どっちにしても{{delay frames=\"10\"}}\n{{fun_00010005 arg=\"\"}}の{{ruby charSpan=\"1\" value=\"とし\"}}年に　{{ruby charSpan=\"1\" value=\"き\"}}決まりだよ！"
  },
  {
    "label": "007",
    "text": "{{anim id=\"13\"}}どうしよ～！{{delay frames=\"20\"}}\n{{ruby charSpan=\"2\" value=\"しんねん\"}}新年まで　{{ruby charSpan=\"1\" value=\"のこ\"}}残り30{{ruby charSpan=\"1\" value=\"ぷん\"}}分きったよ{{pageBreak}}{{anim id=\"6\"}}まだまだ　{{ruby charSpan=\"2\" value=\"ことし\"}}今年{{ruby charSpan=\"1\" value=\"じゅう\"}}中にやりたいこと{{delay frames=\"10\"}}\nいっぱいあったのに～！{{pageBreak}}{{anim id=\"11\"}}{{fun_00120005 arg=\"0x0000\"}}に　{{delay frames=\"10\"}}{{fun_00120005 arg=\"0x0100\"}}{{delay frames=\"8\"}}・{{delay frames=\"8\"}}・{{delay frames=\"8\"}}・{{delay frames=\"30\"}}\n{{anim id=\"37\"}}それに　{{fun_00120005 arg=\"0x0200\"}}もしたいよ～"
  },
  {
    "label": "008",
    "text": "{{anim id=\"1\"}}{{ruby charSpan=\"2\" value=\"ことし\"}}今年は、どんな{{ruby charSpan=\"1\" value=\"とし\"}}年だった？{{fun_00010007 arg=\"\"}}\n{{ruby charSpan=\"2\" value=\"らいねん\"}}来年も、{{delay frames=\"10\"}}{{fun_00080005 arg=\"\"}}{{fun_000D0005 arg=\"\"}}にとって\nイケてる{{ruby charSpan=\"1\" value=\"とし\"}}年になるといいね！\n{{anim id=\"6\"}}アタイも　もっとパワーアップして、{{delay frames=\"10\"}}\n{{anim id=\"3\"}}{{fun_00050005 arg=\"\"}}{{ruby charSpan=\"1\" value=\"むら\"}}村をハッピーに\nしたいって{{ruby charSpan=\"1\" value=\"おも\"}}思ってるんだ！{{delay frames=\"40\"}}{{anim id=\"37\"}}"
  },
  {
    "label": "009",
    "text": "{{anim id=\"1\"}}カウントダウン、{{delay frames=\"10\"}}ちょー{{ruby charSpan=\"1\" value=\"たの\"}}楽しみ！{{delay frames=\"20\"}}\n{{anim id=\"3\"}}{{ruby charSpan=\"2\" value=\"こんや\"}}今夜は、オールナイトで{{delay frames=\"10\"}}\nもり{{ruby charSpan=\"1\" value=\"あ\"}}上がっちゃおうかな～{{delay frames=\"40\"}}{{anim id=\"37\"}}"
  },
  {
    "label": "010",
    "text": "{{anim id=\"15\"}}わ～！{{delay frames=\"20\"}}\nもう　{{ruby charSpan=\"1\" value=\"のこ\"}}残り5{{ruby charSpan=\"1\" value=\"ふん\"}}分きったよ！{{fun_00010007 arg=\"\"}}\n{{anim id=\"5\"}}ドキドキ～、{{delay frames=\"15\"}}{{fun_00070005 arg=\"\"}}"
  },
  {
    "label": "011",
    "text": "{{anim id=\"27\"}}あとちょっとで　{{ruby charSpan=\"2\" value=\"らいねん\"}}来年か～！{{fun_00010007 arg=\"\"}}\n{{anim id=\"2\"}}{{ruby charSpan=\"1\" value=\"あたら\"}}新しい{{ruby charSpan=\"1\" value=\"とし\"}}年が{{ruby charSpan=\"1\" value=\"く\"}}来るのって、{{delay frames=\"10\"}}\nキンチョーするよね！"
  },
  {
    "label": "012",
    "text": "{{anim id=\"1\"}}{{ruby charSpan=\"2\" value=\"らいねん\"}}来年も　{{delay frames=\"10\"}}ぜったい\nいい{{ruby charSpan=\"1\" value=\"とし\"}}年にするつもり！{{fun_00010007 arg=\"\"}}\n{{anim id=\"33\"}}テンション{{ruby charSpan=\"1\" value=\"あ\"}}上がってきた～！"
  },
  {
    "label": "013",
    "text": "{{anim id=\"1\"}}{{ruby charSpan=\"1\" value=\"こころ\"}}心の{{ruby charSpan=\"2\" value=\"じゅんび\"}}準備はオッケー？{{fun_00080007 arg=\"0x78000000\"}}"
  },
  {
    "label": "014",
    "text": "{{anim id=\"13\"}}カウント、{{delay frames=\"10\"}}フライングしないように\nしなくっちゃ！{{fun_00080007 arg=\"0x78000000\"}}"
  },
  {
    "label": "015",
    "text": "{{anim id=\"13\"}}あと　1{{ruby charSpan=\"2\" value=\"じかん\"}}時間もしないうちに\n{{ruby charSpan=\"2\" value=\"らいねん\"}}来年かと{{ruby charSpan=\"1\" value=\"おも\"}}思うと、{{delay frames=\"10\"}}\nなんか　ソワソワしちゃうよ～"
  },
  {
    "label": "016",
    "text": "{{anim id=\"36\"}}{{ruby charSpan=\"2\" value=\"ことし\"}}今年も{{ruby charSpan=\"1\" value=\"のこ\"}}残り{{ruby charSpan=\"1\" value=\"すく\"}}少ないと{{ruby charSpan=\"1\" value=\"おも\"}}思うと、{{delay frames=\"10\"}}\n{{ruby charSpan=\"1\" value=\"きゅう\"}}急にやりたいことが{{delay frames=\"8\"}}\n{{ruby charSpan=\"1\" value=\"ふ\"}}増えてくるんだよね！\n{{anim id=\"2\"}}テスト{{ruby charSpan=\"1\" value=\"まえ\"}}前の{{ruby charSpan=\"2\" value=\"きぶん\"}}気分みたい！"
  },
  {
    "label": "017",
    "text": "{{anim id=\"13\"}}ねぇねぇ、{{delay frames=\"20\"}}すてきな{{ruby charSpan=\"2\" value=\"はつゆめ\"}}初夢{{ruby charSpan=\"1\" value=\"み\"}}見るには、{{delay frames=\"10\"}}\nどうしたらいいの？{{pageBreak}}{{anim id=\"5\"}}アタイの{{ruby charSpan=\"2\" value=\"りそう\"}}理想の{{ruby charSpan=\"2\" value=\"はつゆめ\"}}初夢は{{delay frames=\"8\"}}・{{delay frames=\"8\"}}・{{delay frames=\"8\"}}・{{fun_00010007 arg=\"\"}}\nアイドルになって、{{delay frames=\"10\"}}\n{{anim id=\"4\"}}{{ruby charSpan=\"2\" value=\"はくば\"}}白馬の{{ruby charSpan=\"2\" value=\"おうじ\"}}王子{{ruby charSpan=\"1\" value=\"さま\"}}様と{{ruby charSpan=\"2\" value=\"であ\"}}出会う{{ruby charSpan=\"1\" value=\"ゆめ\"}}夢だよ～"
  },
  {
    "label": "018",
    "text": "{{anim id=\"43\"}}カウントダウンライブとか、{{delay frames=\"10\"}}\nちょーあこがれる～！{{pageBreak}}{{anim id=\"13\"}}アタイも{{delay frames=\"10\"}}\n{{ruby charSpan=\"1\" value=\"はや\"}}早く　{{ruby charSpan=\"1\" value=\"とし\"}}年こしコンサート{{delay frames=\"10\"}}\nひらけるように　なりたいよ～！"
  },
  {
    "label": "019",
    "text": "{{anim id=\"1\"}}{{ruby charSpan=\"2\" value=\"こんや\"}}今夜は、{{delay frames=\"10\"}}オールナイトパーティーに{{delay frames=\"3\"}}\n{{ruby charSpan=\"1\" value=\"き\"}}決まりだよね！{{pageBreak}}{{anim id=\"5\"}}{{ruby charSpan=\"1\" value=\"あたら\"}}新しい{{ruby charSpan=\"1\" value=\"とし\"}}年へのカウントダウンを{{delay frames=\"10\"}}\nめいっぱい　{{ruby charSpan=\"1\" value=\"たの\"}}楽しんじゃおっと"
  },
  {
    "label": "020",
    "text": "{{anim id=\"1\"}}{{ruby charSpan=\"1\" value=\"とし\"}}年こし{{ruby charSpan=\"1\" value=\"まえ\"}}前に、{{delay frames=\"10\"}}{{fun_00080005 arg=\"\"}}{{fun_000D0005 arg=\"\"}}が\n{{ruby charSpan=\"1\" value=\"あ\"}}会いに{{ruby charSpan=\"1\" value=\"き\"}}来てくれるなんて{{delay frames=\"10\"}}\n{{anim id=\"5\"}}ちょーうれしいんだけど！\n{{anim id=\"0\"}}やっぱ　{{ruby charSpan=\"2\" value=\"いちねん\"}}一年のしめくくりは、{{delay frames=\"10\"}}\n{{anim id=\"4\"}}にぎやかなほうが　{{ruby charSpan=\"1\" value=\"たの\"}}楽しいもん！"
  },
  {
    "label": "021",
    "text": "{{anim id=\"37\"}}このぐらいの{{ruby charSpan=\"2\" value=\"じかん\"}}時間になると、{{delay frames=\"10\"}}\n{{ruby charSpan=\"2\" value=\"ことし\"}}今年1{{ruby charSpan=\"1\" value=\"ねん\"}}年のことを\nしみじみ{{ruby charSpan=\"1\" value=\"おも\"}}思い{{ruby charSpan=\"1\" value=\"だ\"}}出しちゃうな～！\n{{anim id=\"1\"}}{{ruby charSpan=\"2\" value=\"らいねん\"}}来年も　いっぱい{{ruby charSpan=\"1\" value=\"あそ\"}}遊んで、{{delay frames=\"10\"}}\nたくさん{{ruby charSpan=\"1\" value=\"おも\"}}思い{{ruby charSpan=\"1\" value=\"で\"}}出{{ruby charSpan=\"1\" value=\"つく\"}}作ろうね！{{anim id=\"38\"}}{{delay frames=\"20\"}}"
  },
  {
    "label": "022",
    "text": "{{anim id=\"13\"}}カウントダウンまで\n5{{ruby charSpan=\"1\" value=\"ふん\"}}分ないじゃん！　{{delay frames=\"20\"}}ヤバ～い！"
  },
  {
    "label": "023",
    "text": "{{anim id=\"1\"}}もうすぐ、{{ruby charSpan=\"2\" value=\"しんねん\"}}新年！{{delay frames=\"20\"}}\n{{ruby charSpan=\"1\" value=\"あたら\"}}新しい{{ruby charSpan=\"2\" value=\"きも\"}}気持ちでむかえたいな～！{{pageBreak}}{{anim id=\"3\"}}ニュー　{{fun_00010005 arg=\"\"}}を{{delay frames=\"10\"}}\n{{ruby charSpan=\"1\" value=\"たの\"}}楽しみにしててね！{{delay frames=\"20\"}}　キャハハ！"
  },
  {
    "label": "024",
    "text": "{{anim id=\"22\"}}もう1{{ruby charSpan=\"1\" value=\"ぷん\"}}分きったね！{{delay frames=\"20\"}}\n{{anim id=\"33\"}}さぁ、{{delay frames=\"10\"}}アタイは{{ruby charSpan=\"2\" value=\"じゅんび\"}}準備バンタンだよ！{{fun_00080007 arg=\"0x78000000\"}}"
  },
  {
    "label": "025",
    "text": "{{fun_00080005 arg=\"\"}}{{fun_000D0005 arg=\"\"}}と　{{ruby charSpan=\"1\" value=\"とし\"}}年がこせるなんて、{{delay frames=\"10\"}}\n{{ruby charSpan=\"1\" value=\"しあわ\"}}幸せだな～！{{fun_00080007 arg=\"0x78000000\"}}"
  },
  {
    "label": "026",
    "text": "{{anim id=\"1\"}}{{fun_00080005 arg=\"\"}}{{fun_000D0005 arg=\"\"}}も{{delay frames=\"5\"}}\nぼうし　かぶって{{delay frames=\"15\"}}\n{{ruby charSpan=\"2\" value=\"じゅんび\"}}準備オッケーってカンジだね～！\n{{anim id=\"5\"}}やっぱ　{{delay frames=\"15\"}}カウントダウンも{{delay frames=\"15\"}}\nオシャレしなくちゃ{{delay frames=\"10\"}}\n{{ruby charSpan=\"1\" value=\"はじ\"}}始まんないよ！"
  },
  {
    "label": "027",
    "text": "{{anim id=\"3\"}}このぼうし　かぶると{{delay frames=\"10\"}}\nテンションあがるんだよね！{{pageBreak}}{{anim id=\"37\"}}{{fun_00080005 arg=\"\"}}{{fun_000D0005 arg=\"\"}}も{{delay frames=\"10\"}}\nカウントダウンに{{ruby charSpan=\"1\" value=\"む\"}}向けて　{{delay frames=\"5\"}}バッチリじゃん！"
  },
  {
    "label": "028",
    "text": "{{anim id=\"1\"}}カウントダウンだし、{{delay frames=\"10\"}}\nオシャレしなくっちゃでしょ！{{pageBreak}}{{fun_00080005 arg=\"\"}}{{fun_000D0005 arg=\"\"}}は{{delay frames=\"10\"}}\n{{ruby charSpan=\"2\" value=\"じゅんび\"}}準備できてる？！"
  },
  {
    "label": "029",
    "text": "{{anim id=\"23\"}}どう？！　{{delay frames=\"20\"}}このぼうし！{{delay frames=\"20\"}}\n{{anim id=\"1\"}}カウントダウンスタイルで\nキメてみたよ、{{delay frames=\"15\"}}{{fun_00070005 arg=\"\"}}\n{{anim id=\"3\"}}{{fun_00080005 arg=\"\"}}{{fun_000D0005 arg=\"\"}}も{{delay frames=\"10\"}}\nニューイヤーハットで{{delay frames=\"10\"}}\nオシャレすればいいのに～！{{delay frames=\"40\"}}{{anim id=\"37\"}}"
  },
  {
    "label": "030",
    "text": "{{fun_00080005 arg=\"\"}}{{fun_000D0005 arg=\"\"}}、{{delay frames=\"10\"}}\nニューイヤーハットで{{delay frames=\"10\"}}\nカウントダウン{{ruby charSpan=\"2\" value=\"きぶん\"}}気分は　{{delay frames=\"5\"}}もり{{ruby charSpan=\"1\" value=\"あ\"}}上がってる？！{{pageBreak}}{{anim id=\"5\"}}やっぱり　{{ruby charSpan=\"2\" value=\"しんねん\"}}新年も{{delay frames=\"10\"}}\nオシャレに　むかえたいよね！"
  },
  {
    "label": "031",
    "text": "{{anim id=\"1\"}}{{fun_00080005 arg=\"\"}}{{fun_000D0005 arg=\"\"}}、{{delay frames=\"10\"}}\n{{ruby charSpan=\"2\" value=\"じゅんび\"}}準備バンタンじゃん！{{pageBreak}}{{anim id=\"5\"}}ニューイヤーハットをかぶってると、{{delay frames=\"10\"}}\nカウントダウンパーティーって{{ruby charSpan=\"1\" value=\"かん\"}}感じに\nなるよね～、{{delay frames=\"15\"}}{{fun_00070005 arg=\"\"}}"
  },
  {
    "label": "032",
    "text": "{{anim id=\"38\"}}アタイの{{ruby charSpan=\"1\" value=\"あたま\"}}頭の{{ruby charSpan=\"1\" value=\"うえ\"}}上に　ちゅ～も～く！{{fun_00010007 arg=\"\"}}\n{{anim id=\"37\"}}どう？{{delay frames=\"20\"}}\n{{ruby charSpan=\"2\" value=\"しんねん\"}}新年に{{ruby charSpan=\"1\" value=\"む\"}}向けてバッチリだよ！\n{{anim id=\"5\"}}{{fun_00080005 arg=\"\"}}{{fun_000D0005 arg=\"\"}}も{{delay frames=\"3\"}}\nせっかくの　カウントダウン、{{delay frames=\"15\"}}\n{{ruby charSpan=\"2\" value=\"きあ\"}}気合い{{ruby charSpan=\"1\" value=\"い\"}}入れてかなきゃ！"
  },
  {
    "label": "033",
    "text": "{{anim id=\"1\"}}アタイの　カウントダウンの{{delay frames=\"10\"}}\nオシャレポイントは、{{delay frames=\"15\"}}この　ぼうし！{{pageBreak}}{{anim id=\"5\"}}{{fun_00080005 arg=\"\"}}{{fun_000D0005 arg=\"\"}}も{{delay frames=\"10\"}}\nカウントダウングッズで{{delay frames=\"3\"}}\nもり{{ruby charSpan=\"1\" value=\"あ\"}}上がっちゃえば？！"
  },
  {
    "label": "034",
    "text": ""
  },
  {
    "label": "035",
    "text": "{{anim id=\"5\"}}{{ruby charSpan=\"1\" value=\"ま\"}}待ちに{{ruby charSpan=\"1\" value=\"ま\"}}待った　{{delay frames=\"8\"}}{{ruby charSpan=\"2\" value=\"しんねん\"}}新年だよ～！{{delay frames=\"20\"}}\n{{anim id=\"37\"}}{{ruby charSpan=\"2\" value=\"ことし\"}}今年も　{{delay frames=\"10\"}}{{ruby charSpan=\"2\" value=\"げんき\"}}元気いっぱい{{ruby charSpan=\"1\" value=\"す\"}}過ごそうね！"
  },
  {
    "label": "036",
    "text": "{{anim id=\"3\"}}{{ruby charSpan=\"2\" value=\"はなび\"}}花火、{{delay frames=\"10\"}}ちょーキレイ！！{{delay frames=\"20\"}}\n{{anim id=\"1\"}}{{ruby charSpan=\"2\" value=\"しんねん\"}}新年を　もり{{ruby charSpan=\"1\" value=\"あ\"}}上げてくれるね{{pageBreak}}{{anim id=\"37\"}}アタイも　あんな{{ruby charSpan=\"1\" value=\"ふう\"}}風に{{delay frames=\"10\"}}\nはなやかな　{{ruby charSpan=\"1\" value=\"おんな\"}}女のコになりたいな！"
  },
  {
    "label": "037",
    "text": "{{anim id=\"37\"}}もう　{{delay frames=\"10\"}}{{ruby charSpan=\"2\" value=\"ことし\"}}今年のホウフは{{ruby charSpan=\"1\" value=\"かんが\"}}考えた？{{pageBreak}}{{anim id=\"1\"}}アタイは　{{delay frames=\"5\"}}あの{{ruby charSpan=\"2\" value=\"はなび\"}}花火みたいに、{{delay frames=\"10\"}}\n{{ruby charSpan=\"2\" value=\"ことし\"}}今年こそ{{delay frames=\"10\"}}　{{fun_00050005 arg=\"\"}}{{ruby charSpan=\"1\" value=\"むら\"}}村のアイドルとして{{delay frames=\"5\"}}\n{{ruby charSpan=\"2\" value=\"かいか\"}}開花するのが{{ruby charSpan=\"2\" value=\"もくひょう\"}}目標！"
  },
  {
    "label": "038",
    "text": "{{anim id=\"3\"}}{{ruby charSpan=\"2\" value=\"ことし\"}}今年も　{{delay frames=\"10\"}}{{fun_00080005 arg=\"\"}}{{fun_000D0005 arg=\"\"}}にとって{{delay frames=\"10\"}}\nちょーハッピーな　{{ruby charSpan=\"2\" value=\"いちねん\"}}一年になるといいね！"
  },
  {
    "label": "039",
    "text": "{{anim id=\"1\"}}{{ruby charSpan=\"2\" value=\"ことし\"}}今年は、{{delay frames=\"10\"}}どんな{{ruby charSpan=\"1\" value=\"とし\"}}年になるのかな～？{{pageBreak}}{{anim id=\"43\"}}{{fun_00120005 arg=\"0x0000\"}}したり{{delay frames=\"10\"}}\n{{fun_00110005 arg=\"0x0000\"}}したり、{{delay frames=\"20\"}}\n{{anim id=\"5\"}}アクティブな　{{ruby charSpan=\"2\" value=\"いちねん\"}}一年にしたいな～"
  },
  {
    "label": "040",
    "text": "{{anim id=\"23\"}}あれれ？{{delay frames=\"20\"}}\nちょっと　ねむたいってカンジ？！{{pageBreak}}{{anim id=\"1\"}}アタイは、まだまだ{{ruby charSpan=\"2\" value=\"しんねん\"}}新年を\nお{{ruby charSpan=\"1\" value=\"いわ\"}}祝い{{ruby charSpan=\"1\" value=\"ちゅう\"}}中だよ！{{pageBreak}}{{anim id=\"5\"}}{{fun_00080005 arg=\"\"}}{{fun_000D0005 arg=\"\"}}も{{delay frames=\"10\"}}\nいっしょに{{ruby charSpan=\"1\" value=\"たの\"}}楽しもうね！　{{delay frames=\"20\"}}{{fun_00070005 arg=\"\"}}！"
  },
  {
    "label": "041",
    "text": "{{anim id=\"13\"}}お{{ruby charSpan=\"2\" value=\"しょうがつ\"}}正月って、{{delay frames=\"10\"}}\nおもちを　{{ruby charSpan=\"1\" value=\"た\"}}食べすぎちゃうから\n{{ruby charSpan=\"3\" value=\"ようちゅうい\"}}要注意なんだよ～"
  },
  {
    "label": "042",
    "text": "{{anim id=\"1\"}}{{ruby charSpan=\"2\" value=\"しんねん\"}}新年だし、{{delay frames=\"10\"}}\n{{ruby charSpan=\"1\" value=\"なん\"}}何か{{ruby charSpan=\"1\" value=\"あたら\"}}新しいこと　{{ruby charSpan=\"1\" value=\"はじ\"}}始めたいよね！{{pageBreak}}{{anim id=\"37\"}}お{{ruby charSpan=\"2\" value=\"しょうがつ\"}}正月は、{{delay frames=\"10\"}}\n{{ruby charSpan=\"1\" value=\"いろ\"}}色んなことにチャレンジする\nきっかけだと{{ruby charSpan=\"1\" value=\"おも\"}}思うんだ～"
  },
  {
    "label": "043",
    "text": ""
  },
  {
    "label": "044",
    "text": ""
  },
  {
    "label": "045",
    "text": "{{anim id=\"16\"}}なんか　{{ruby charSpan=\"2\" value=\"はなび\"}}花火の{{ruby charSpan=\"1\" value=\"おと\"}}音がするよ！{{delay frames=\"20\"}}\n{{anim id=\"5\"}}{{ruby charSpan=\"2\" value=\"しんねん\"}}新年ってカンジだね～"
  },
  {
    "label": "046",
    "text": "{{anim id=\"37\"}}{{ruby charSpan=\"2\" value=\"ことし\"}}今年も\n{{ruby charSpan=\"2\" value=\"しんねん\"}}新年の{{ruby charSpan=\"2\" value=\"はなび\"}}花火みたいに、{{delay frames=\"10\"}}\n{{anim id=\"15\"}}ド～ンド～ン{{delay frames=\"10\"}}{{anim id=\"1\"}}と{{ruby charSpan=\"1\" value=\"あそ\"}}遊びに{{ruby charSpan=\"1\" value=\"き\"}}来てね！"
  },
  {
    "label": "047",
    "text": "{{anim id=\"1\"}}{{fun_00080005 arg=\"\"}}{{fun_000D0005 arg=\"\"}}、{{delay frames=\"10\"}}\nお{{ruby charSpan=\"2\" value=\"としだま\"}}年玉なら　{{delay frames=\"5\"}}いつでも{{ruby charSpan=\"3\" value=\"うけつけちゅう\"}}受付中だよ！{{delay frames=\"20\"}}\nな～んてね！"
  },
  {
    "label": "048",
    "text": "{{anim id=\"26\"}}{{ruby charSpan=\"2\" value=\"しんねん\"}}新年に\n{{fun_00080005 arg=\"\"}}{{fun_000D0005 arg=\"\"}}と{{ruby charSpan=\"1\" value=\"す\"}}過ごせるなんて、{{delay frames=\"10\"}}\n{{anim id=\"1\"}}{{ruby charSpan=\"2\" value=\"ことし\"}}今年は　いい{{ruby charSpan=\"2\" value=\"いちねん\"}}一年になりそうだ～！"
  },
  {
    "label": "049",
    "text": "{{anim id=\"5\"}}{{ruby charSpan=\"1\" value=\"あたら\"}}新しい{{ruby charSpan=\"2\" value=\"いちねん\"}}一年は、{{delay frames=\"10\"}}\nアタイとのハッピータイムで{{delay frames=\"10\"}}\nスタートしちゃってね、{{delay frames=\"15\"}}{{fun_00070005 arg=\"\"}}！"
  },
  {
    "label": "050",
    "text": "{{anim id=\"37\"}}せっかくの{{ruby charSpan=\"2\" value=\"しんねん\"}}新年、{{delay frames=\"10\"}}\nちょーオシャレに　キメちゃいたいよね！{{pageBreak}}{{anim id=\"5\"}}アタイも　お{{ruby charSpan=\"1\" value=\"き\"}}気に{{ruby charSpan=\"1\" value=\"い\"}}入りの{{ruby charSpan=\"2\" value=\"ようふく\"}}洋服で、{{delay frames=\"10\"}}\n{{ruby charSpan=\"2\" value=\"ことし\"}}今年をステキに　スタートさせるんだ！"
  },
  {
    "label": "051",
    "text": "{{anim id=\"16\"}}さすが　{{fun_00080005 arg=\"\"}}{{fun_000D0005 arg=\"\"}}！{{fun_00010007 arg=\"\"}}\n{{anim id=\"1\"}}こんな　おそいのに、{{delay frames=\"10\"}}\nまだまだ{{ruby charSpan=\"2\" value=\"げんき\"}}元気ってカンジだね！"
  },
  {
    "label": "052",
    "text": "{{anim id=\"37\"}}お{{ruby charSpan=\"2\" value=\"しょうがつ\"}}正月と{{ruby charSpan=\"1\" value=\"い\"}}言ったら、{{delay frames=\"10\"}}\nおせちもいいけど{{delay frames=\"10\"}}\n{{anim id=\"4\"}}おしるこもいいよね！\n{{anim id=\"13\"}}あ～ん！{{delay frames=\"20\"}}\n{{ruby charSpan=\"1\" value=\"たの\"}}楽しみがいっぱ～い！"
  },
  {
    "label": "053",
    "text": ""
  },
  {
    "label": "054",
    "text": ""
  },
  {
    "label": "055",
    "text": "{{anim id=\"16\"}}あ！{{delay frames=\"20\"}}\n{{fun_00080005 arg=\"\"}}{{fun_000D0005 arg=\"\"}}{{delay frames=\"10\"}}　さっすが～！{{fun_00010007 arg=\"\"}}\n{{anim id=\"1\"}}アタイも　{{delay frames=\"10\"}}{{ruby charSpan=\"1\" value=\"はや\"}}早く　オシャレにキメなくちゃ！"
  },
  {
    "label": "056",
    "text": "{{anim id=\"16\"}}あ！{{delay frames=\"20\"}}　{{ruby charSpan=\"1\" value=\"さき\"}}先こされた～！{{pageBreak}}{{anim id=\"13\"}}アタイも{{ruby charSpan=\"1\" value=\"はや\"}}早く{{delay frames=\"10\"}}　カウントダウンスタイルに\nならなくっちゃ！"
  },
  {
    "label": "057",
    "text": "{{anim id=\"1\"}}そうそう、{{delay frames=\"10\"}}\nカウントダウンっていったら{{delay frames=\"8\"}}・{{delay frames=\"8\"}}・{{delay frames=\"8\"}}・{{delay frames=\"8\"}}"
  },
  {
    "label": "058",
    "text": "{{anim id=\"13\"}}アタイも{{delay frames=\"10\"}}\nカウントダウンらしく{{delay frames=\"5\"}}\nオシャレにキメなくっちゃ！"
  },
  {
    "label": "059",
    "text": "{{anim id=\"5\"}}ってことで、{{delay frames=\"10\"}}\n{{ruby charSpan=\"2\" value=\"ことし\"}}今年も　もり{{ruby charSpan=\"1\" value=\"あ\"}}上がっちゃうな～！{{delay frames=\"20\"}}\n{{fun_00070005 arg=\"\"}}！"
  },
  {
    "label": "060",
    "text": "{{anim id=\"3\"}}これで　バッチリだよ！{{delay frames=\"30\"}}\n{{fun_00080005 arg=\"\"}}{{fun_000D0005 arg=\"\"}}も、{{delay frames=\"10\"}}\nオシャレにキメて　もり{{ruby charSpan=\"1\" value=\"あ\"}}上がろう！{{delay frames=\"10\"}}{{anim id=\"37\"}}"
  },
  {
    "label": "061",
    "text": "{{anim id=\"16\"}}あ～！{{delay frames=\"20\"}}\nニューイヤーハットかぶってる～{{pageBreak}}{{anim id=\"13\"}}アタイも　{{delay frames=\"10\"}}そろそろ{{ruby charSpan=\"2\" value=\"じゅんび\"}}準備しなくっちゃ！"
  },
  {
    "label": "062",
    "text": "{{anim id=\"23\"}}あれ？{{delay frames=\"20\"}}　ニューイヤーハットかぶって{{delay frames=\"10\"}}\nちょー{{ruby charSpan=\"2\" value=\"きあ\"}}気合い{{ruby charSpan=\"1\" value=\"はい\"}}入ってるじゃん！{{fun_00010007 arg=\"\"}}\n{{anim id=\"1\"}}アタイも　{{ruby charSpan=\"2\" value=\"じゅんび\"}}準備しよっと！"
  },
  {
    "label": "063",
    "text": "{{anim id=\"16\"}}あ！{{delay frames=\"20\"}}\nもう　そろそろ{{delay frames=\"10\"}}\n{{ruby charSpan=\"2\" value=\"じゅんび\"}}準備したほうが　いいかも！"
  },
  {
    "label": "064",
    "text": "{{anim id=\"1\"}}おおみそかも　もり{{ruby charSpan=\"1\" value=\"あ\"}}上がってきたね{{fun_00010007 arg=\"\"}}\n{{anim id=\"16\"}}あ！{{delay frames=\"20\"}}　わすれるとこだった！{{delay frames=\"20\"}}\n{{anim id=\"13\"}}コレをかぶんないと～"
  },
  {
    "label": "065",
    "text": "{{anim id=\"37\"}}ってことで、{{delay frames=\"10\"}}\n{{anim id=\"33\"}}{{ruby charSpan=\"2\" value=\"ことし\"}}今年もフィーバーまちがいなし！"
  },
  {
    "label": "066",
    "text": "{{anim id=\"1\"}}{{fun_00080005 arg=\"\"}}{{fun_000D0005 arg=\"\"}}も、{{delay frames=\"10\"}}\nカウントダウンのグッズで{{delay frames=\"10\"}}\nもり{{ruby charSpan=\"1\" value=\"あ\"}}上がっちゃいなよ～、{{delay frames=\"15\"}}{{fun_00070005 arg=\"\"}}！"
  }
]