﻿[
  {
    "label": "001",
    "text": "{{anim id=\"1\"}}あ！{{delay frames=\"20\"}}\n{{fun_00080005 arg=\"\"}}{{fun_000D0005 arg=\"\"}}も{{delay frames=\"10\"}}{{ruby charSpan=\"1\" value=\"き\"}}来たんだ！{{pageBreak}}{{anim id=\"5\"}}やっぱ　こういうのは、{{delay frames=\"10\"}}\n{{ruby charSpan=\"2\" value=\"おおぜい\"}}大勢で　{{delay frames=\"8\"}}お{{ruby charSpan=\"1\" value=\"いわ\"}}祝いしないとね！"
  },
  {
    "label": "002",
    "text": "{{anim id=\"16\"}}あ～！　{{delay frames=\"20\"}}{{fun_00080005 arg=\"\"}}{{fun_000D0005 arg=\"\"}}じゃ～ん！{{pageBreak}}{{anim id=\"1\"}}パーティーと{{ruby charSpan=\"1\" value=\"き\"}}聞いたら、{{delay frames=\"10\"}}\nかけつけちゃうよね！　{{delay frames=\"15\"}}{{fun_00070005 arg=\"\"}}！"
  },
  {
    "label": "003",
    "text": "{{anim id=\"1\"}}{{fun_00080005 arg=\"\"}}{{fun_000D0005 arg=\"\"}}{{delay frames=\"10\"}}\n{{fun_00060007 arg=\"\"}}ヤッホー{{fun_00070007 arg=\"\"}}！{{pageBreak}}{{ruby charSpan=\"2\" value=\"きょう\"}}今日は　{{fun_00010011 arg=\"0x0000\"}}{{fun_000D0005 arg=\"\"}}のために{{delay frames=\"10\"}}\n{{anim id=\"42\"}}もり{{ruby charSpan=\"1\" value=\"あ\"}}上げていこ～ね！"
  },
  {
    "label": "004",
    "text": "{{anim id=\"1\"}}ねぇねぇ、{{delay frames=\"20\"}}プレゼントは　もうあげた？！{{delay frames=\"40\"}}\n{{anim id=\"35\"}}こういうのって　{{delay frames=\"10\"}}センス{{ruby charSpan=\"1\" value=\"で\"}}出るよね～{{pageBreak}}{{anim id=\"37\"}}アタイ？{{delay frames=\"30\"}}\n{{anim id=\"44\"}}アタイは　バッチリだよ！"
  },
  {
    "label": "005",
    "text": "{{anim id=\"1\"}}もう　{{delay frames=\"10\"}}プレゼントわたした？{{fun_00010007 arg=\"\"}}\n{{anim id=\"38\"}}はずかしがってないで、{{delay frames=\"10\"}}\n{{ruby charSpan=\"1\" value=\"はや\"}}早くあげちゃいなよ～\n{{anim id=\"5\"}}{{fun_00010011 arg=\"0x0000\"}}{{fun_000D0005 arg=\"\"}}、{{delay frames=\"10\"}}きっと{{ruby charSpan=\"1\" value=\"よろこ\"}}喜ぶよ！"
  },
  {
    "label": "006",
    "text": "{{anim id=\"27\"}}{{ruby charSpan=\"2\" value=\"きょう\"}}今日の{{ruby charSpan=\"2\" value=\"しゅやく\"}}主役は、{{delay frames=\"10\"}}\n{{fun_00010011 arg=\"0x0000\"}}{{fun_000D0005 arg=\"\"}}に{{delay frames=\"8\"}}\nゆずってあげるしかないよね～{{pageBreak}}{{anim id=\"5\"}}だって、{{delay frames=\"10\"}}{{ruby charSpan=\"2\" value=\"いちねん\"}}一年に{{ruby charSpan=\"2\" value=\"いちど\"}}一度の{{delay frames=\"10\"}}\nたんじょう{{ruby charSpan=\"1\" value=\"び\"}}日だもん！"
  },
  {
    "label": "007",
    "text": "{{anim id=\"13\"}}あ～！{{delay frames=\"30\"}}\nアタイも　{{ruby charSpan=\"1\" value=\"はや\"}}早く　{{delay frames=\"10\"}}たんじょう{{ruby charSpan=\"1\" value=\"び\"}}日{{ruby charSpan=\"1\" value=\"かい\"}}会{{ruby charSpan=\"1\" value=\"ひら\"}}開きたいな{{pageBreak}}{{anim id=\"1\"}}その{{ruby charSpan=\"1\" value=\"とき\"}}時は、{{delay frames=\"10\"}}{{fun_00080005 arg=\"\"}}{{fun_000D0005 arg=\"\"}}も{{delay frames=\"10\"}}\nお{{ruby charSpan=\"1\" value=\"いわ\"}}祝いに{{ruby charSpan=\"1\" value=\"き\"}}来てね～、{{delay frames=\"10\"}}{{fun_00070005 arg=\"\"}}"
  },
  {
    "label": "008",
    "text": "{{anim id=\"1\"}}{{fun_00010011 arg=\"0x0000\"}}{{fun_000D0005 arg=\"\"}}は、{{delay frames=\"10\"}}{{ruby charSpan=\"1\" value=\"しあわ\"}}幸せ{{ruby charSpan=\"1\" value=\"もの\"}}者だよね～{{pageBreak}}{{anim id=\"43\"}}だって　{{delay frames=\"10\"}}{{fun_00080005 arg=\"\"}}{{fun_000D0005 arg=\"\"}}とアタイ、{{delay frames=\"20\"}}\n{{ruby charSpan=\"1\" value=\"むら\"}}村で　{{delay frames=\"10\"}}{{ruby charSpan=\"2\" value=\"いちばん\"}}一番かがやいてる{{ruby charSpan=\"2\" value=\"ふたり\"}}2人に{{delay frames=\"10\"}}\n{{anim id=\"38\"}}お{{ruby charSpan=\"1\" value=\"いわ\"}}祝いしてもらえるんだからさ！"
  },
  {
    "label": "009",
    "text": "{{anim id=\"1\"}}{{fun_00010011 arg=\"0x0000\"}}{{fun_000D0005 arg=\"\"}}、{{delay frames=\"10\"}}\nプレゼント{{delay frames=\"10\"}}{{ruby charSpan=\"1\" value=\"よろこ\"}}喜んでたでしょ～！{{pageBreak}}{{anim id=\"21\"}}やっぱ　{{delay frames=\"10\"}}{{ruby charSpan=\"2\" value=\"ともだち\"}}友達を{{ruby charSpan=\"2\" value=\"えがお\"}}笑顔にするのって、{{delay frames=\"10\"}}\n{{anim id=\"4\"}}ステキだよね！"
  },
  {
    "label": "010",
    "text": "{{anim id=\"1\"}}たんじょう{{ruby charSpan=\"1\" value=\"び\"}}日{{ruby charSpan=\"1\" value=\"かい\"}}会って{{delay frames=\"10\"}}\nいっぱい{{ruby charSpan=\"1\" value=\"ひと\"}}人が{{ruby charSpan=\"1\" value=\"あつ\"}}集まるから、{{delay frames=\"15\"}}\n{{anim id=\"3\"}}にぎやかで　{{delay frames=\"8\"}}{{ruby charSpan=\"1\" value=\"たの\"}}楽しいよね～！{{delay frames=\"20\"}}{{anim id=\"37\"}}"
  },
  {
    "label": "011",
    "text": "{{anim id=\"3\"}}{{ruby charSpan=\"2\" value=\"きょう\"}}今日は　サイコー！{{delay frames=\"20\"}}{{anim id=\"37\"}}{{fun_00010007 arg=\"\"}}\n{{anim id=\"5\"}}{{fun_00080005 arg=\"\"}}{{fun_000D0005 arg=\"\"}}とも{{ruby charSpan=\"1\" value=\"あそ\"}}遊べるし、{{delay frames=\"20\"}}\nケーキも{{ruby charSpan=\"1\" value=\"た\"}}食べれるし！\n{{anim id=\"43\"}}{{ruby charSpan=\"2\" value=\"まいにち\"}}毎日　だれかのたんじょう{{ruby charSpan=\"1\" value=\"び\"}}日だったら、{{delay frames=\"10\"}}\nいいのにな～！　{{delay frames=\"20\"}}{{fun_00070005 arg=\"\"}}！"
  },
  {
    "label": "012",
    "text": "{{anim id=\"23\"}}あれ？　{{delay frames=\"20\"}}もしかして{{ruby charSpan=\"2\" value=\"しんい\"}}新入りさん？{{fun_00010007 arg=\"\"}}\n{{anim id=\"1\"}}{{fun_00000005 arg=\"\"}}{{fun_000D0005 arg=\"\"}}ね！{{delay frames=\"30\"}}\nアタイは、{{delay frames=\"10\"}}{{fun_00010005 arg=\"\"}}だよ\n{{anim id=\"37\"}}さっそく　お{{ruby charSpan=\"1\" value=\"いわ\"}}祝いに{{ruby charSpan=\"1\" value=\"き\"}}来たんだ！{{delay frames=\"20\"}}\n{{anim id=\"44\"}}じゃあ、{{delay frames=\"10\"}}これから{{ruby charSpan=\"2\" value=\"なかよ\"}}仲良くしてね"
  },
  {
    "label": "013",
    "text": ""
  },
  {
    "label": "014",
    "text": "{{anim id=\"1\"}}{{fun_00010011 arg=\"0x0000\"}}{{fun_000D0005 arg=\"\"}}、{{delay frames=\"10\"}}\nプレゼント{{delay frames=\"10\"}}{{ruby charSpan=\"1\" value=\"よろこ\"}}喜んでたでしょ～！{{pageBreak}}{{anim id=\"21\"}}やっぱ　{{delay frames=\"10\"}}{{ruby charSpan=\"2\" value=\"ともだち\"}}友達を{{ruby charSpan=\"2\" value=\"えがお\"}}笑顔にするのって、{{delay frames=\"10\"}}\n{{anim id=\"4\"}}ステキだよね！"
  },
  {
    "label": "015",
    "text": "{{anim id=\"1\"}}たんじょう{{ruby charSpan=\"1\" value=\"び\"}}日{{ruby charSpan=\"1\" value=\"かい\"}}会って{{delay frames=\"10\"}}\nいっぱい{{ruby charSpan=\"1\" value=\"ひと\"}}人が{{ruby charSpan=\"1\" value=\"あつ\"}}集まるから、{{delay frames=\"15\"}}\n{{anim id=\"3\"}}にぎやかで　{{delay frames=\"8\"}}{{ruby charSpan=\"1\" value=\"たの\"}}楽しいよね～！{{delay frames=\"20\"}}{{anim id=\"37\"}}"
  },
  {
    "label": "016",
    "text": "{{anim id=\"3\"}}{{ruby charSpan=\"2\" value=\"きょう\"}}今日は　サイコー！{{delay frames=\"20\"}}{{anim id=\"37\"}}{{fun_00010007 arg=\"\"}}\n{{anim id=\"5\"}}{{fun_00080005 arg=\"\"}}{{fun_000D0005 arg=\"\"}}とも{{ruby charSpan=\"1\" value=\"あそ\"}}遊べるし、{{delay frames=\"20\"}}\nケーキも{{ruby charSpan=\"1\" value=\"た\"}}食べれるし！\n{{anim id=\"43\"}}{{ruby charSpan=\"2\" value=\"まいにち\"}}毎日　だれかのたんじょう{{ruby charSpan=\"1\" value=\"び\"}}日だったら、{{delay frames=\"10\"}}\nいいのにな～！　{{delay frames=\"20\"}}{{fun_00070005 arg=\"\"}}！"
  },
  {
    "label": "017",
    "text": "{{anim id=\"1\"}}ちなみに　{{ruby charSpan=\"2\" value=\"きょう\"}}今日って{{delay frames=\"16\"}}\n{{fun_00010011 arg=\"0x0100\"}}{{fun_000D0005 arg=\"\"}}の　たんじょう{{ruby charSpan=\"1\" value=\"び\"}}日でも\nあるんだよね～、{{delay frames=\"8\"}}{{fun_00070005 arg=\"\"}}\n{{anim id=\"21\"}}アタイは　ちょっと　いそがしいから、{{delay frames=\"20\"}}\n{{ruby charSpan=\"1\" value=\"か\"}}代わりに　あのコの{{ruby charSpan=\"1\" value=\"ところ\"}}所に{{delay frames=\"8\"}}\n{{ruby charSpan=\"1\" value=\"い\"}}行ってあげて！　{{delay frames=\"8\"}}{{fun_00000005 arg=\"\"}}{{fun_000D0005 arg=\"\"}}"
  },
  {
    "label": "018",
    "text": "{{anim id=\"21\"}}{{fun_00010011 arg=\"0x0000\"}}{{fun_000D0005 arg=\"\"}}と{{delay frames=\"16\"}}\n{{fun_00010011 arg=\"0x0100\"}}{{fun_000D0005 arg=\"\"}}って、{{delay frames=\"16\"}}\n{{ruby charSpan=\"1\" value=\"おな\"}}同じ　たんじょう{{ruby charSpan=\"1\" value=\"び\"}}日なんだって～！\n{{anim id=\"11\"}}{{delay frames=\"16\"}}{{fun_00010011 arg=\"0x0100\"}}{{fun_000D0005 arg=\"\"}}の　たんじょう{{ruby charSpan=\"1\" value=\"かい\"}}会{{delay frames=\"8\"}}・{{delay frames=\"8\"}}・{{delay frames=\"8\"}}・{{delay frames=\"16\"}}\nアタイが　いなくても、{{delay frames=\"16\"}}\nちゃんと　もりあがってるかな～？"
  }
]