﻿[
  {
    "label": "001",
    "text": "{{anim id=\"1\"}}ねぇねぇ！{{delay frames=\"20\"}}\nお{{ruby charSpan=\"1\" value=\"きゃく\"}}客さんが　{{delay frames=\"5\"}}{{ruby charSpan=\"1\" value=\"き\"}}来てるみたいだね！"
  },
  {
    "label": "002",
    "text": "{{anim id=\"37\"}}お{{ruby charSpan=\"1\" value=\"きゃく\"}}客さんが{{ruby charSpan=\"1\" value=\"き\"}}来てるって　{{delay frames=\"10\"}}ホント？"
  },
  {
    "label": "003",
    "text": "{{anim id=\"1\"}}{{ruby charSpan=\"2\" value=\"きょう\"}}今日　{{delay frames=\"8\"}}{{ruby charSpan=\"1\" value=\"き\"}}来てるお{{ruby charSpan=\"1\" value=\"きゃく\"}}客さんって{{delay frames=\"10\"}}\n{{fun_00080005 arg=\"\"}}{{fun_000D0005 arg=\"\"}}の　お{{ruby charSpan=\"2\" value=\"ともだち\"}}友達なの？！"
  },
  {
    "label": "004",
    "text": "{{anim id=\"5\"}}お{{ruby charSpan=\"1\" value=\"きゃく\"}}客さんが　{{delay frames=\"5\"}}{{ruby charSpan=\"1\" value=\"き\"}}来てるんでしょ"
  },
  {
    "label": "005",
    "text": "{{fun_00030009 arg=\"0x06000700080009000A00\"}}"
  },
  {
    "label": "006",
    "text": "{{anim id=\"37\"}}{{fun_00050005 arg=\"\"}}{{ruby charSpan=\"1\" value=\"むら\"}}村の　{{delay frames=\"8\"}}アピール{{ruby charSpan=\"2\" value=\"たいちょう\"}}隊長として、{{delay frames=\"10\"}}\n{{anim id=\"44\"}}がんばらなくっちゃ！"
  },
  {
    "label": "007",
    "text": "{{anim id=\"4\"}}アタイの　ウワサを{{ruby charSpan=\"1\" value=\"き\"}}聞きつけて{{delay frames=\"10\"}}\nやって　{{ruby charSpan=\"1\" value=\"き\"}}来たのかも～、{{delay frames=\"15\"}}{{fun_00070005 arg=\"\"}}！"
  },
  {
    "label": "008",
    "text": "{{ruby charSpan=\"1\" value=\"きゅう\"}}急だったから、{{delay frames=\"10\"}}\n{{anim id=\"13\"}}{{ruby charSpan=\"2\" value=\"へや\"}}部屋のかたづけ　{{delay frames=\"10\"}}わすれちゃったよ～！{{delay frames=\"20\"}}\n{{fun_00070005 arg=\"\"}}！"
  },
  {
    "label": "009",
    "text": "{{fun_00080005 arg=\"\"}}{{fun_000D0005 arg=\"\"}}は{{delay frames=\"10\"}}\n{{anim id=\"23\"}}もう　おしゃべりした？{{fun_00010007 arg=\"\"}}\n{{anim id=\"1\"}}こういう{{ruby charSpan=\"1\" value=\"とき\"}}時は　{{delay frames=\"10\"}}{{ruby charSpan=\"3\" value=\"せっきょくてき\"}}積極的にね～！"
  },
  {
    "label": "010",
    "text": "もしかしたら、{{delay frames=\"10\"}}\n{{anim id=\"16\"}}{{ruby charSpan=\"2\" value=\"そんみん\"}}村民　{{ruby charSpan=\"3\" value=\"きぼうしゃ\"}}希望者なんじゃないの？！{{fun_00010007 arg=\"\"}}\nこれは　{{anim id=\"35\"}}さぐりに{{ruby charSpan=\"1\" value=\"い\"}}行ってみなきゃ～"
  },
  {
    "label": "011",
    "text": ""
  },
  {
    "label": "012",
    "text": "{{anim id=\"5\"}}{{ruby charSpan=\"2\" value=\"じぶん\"}}自分の{{ruby charSpan=\"1\" value=\"むら\"}}村に　{{ruby charSpan=\"2\" value=\"ともだち\"}}友達をよんで{{delay frames=\"10\"}}\nパーティータイムって　{{delay frames=\"3\"}}サイコーだよね！{{pageBreak}}{{anim id=\"0\"}}たくさん{{ruby charSpan=\"1\" value=\"あそ\"}}遊びまくったあと、{{delay frames=\"15\"}}\nそろそろ　{{delay frames=\"3\"}}{{ruby charSpan=\"2\" value=\"かいさん\"}}解散しよっかってなったら、{{pageBreak}}{{anim id=\"1\"}}{{color id=\"2\"}}START{{color id=\"65535\"}}をおして{{delay frames=\"5\"}}\n〔{{color id=\"2\"}}おひらきにする{{color id=\"65535\"}}〕を{{ruby charSpan=\"1\" value=\"えら\"}}選ぶといいよ！{{pageBreak}}それだけで　みんなを　いっせいに{{delay frames=\"10\"}}\n{{ruby charSpan=\"1\" value=\"むら\"}}村まで　{{ruby charSpan=\"1\" value=\"おく\"}}送りとどけることができるから{{delay frames=\"8\"}}\nちょ～{{ruby charSpan=\"1\" value=\"らく\"}}楽チンなの！\nもし　{{delay frames=\"3\"}}そうしたいときがあったら{{delay frames=\"10\"}}\n{{ruby charSpan=\"1\" value=\"むら\"}}村によんであげた　{{fun_00080005 arg=\"\"}}{{fun_000D0005 arg=\"\"}}が{{delay frames=\"5\"}}\nやってあげてね、{{delay frames=\"15\"}}{{fun_00070005 arg=\"\"}}！"
  }
]