﻿[
  {
    "label": "001",
    "text": "あのさ～　{{delay frames=\"20\"}}ちょっと　お{{ruby charSpan=\"1\" value=\"ねが\"}}願いしていい？{{pageBreak}}{{anim id=\"9\"}}アタイ、{{delay frames=\"10\"}}{{fun_00010011 arg=\"0x0000\"}}{{fun_000D0005 arg=\"\"}}に\nプレゼントがあるんだけど{{delay frames=\"8\"}}・{{delay frames=\"8\"}}・{{delay frames=\"8\"}}・{{delay frames=\"20\"}}\n{{ruby charSpan=\"1\" value=\"いま\"}}今　{{ruby charSpan=\"1\" value=\"て\"}}手がはなせなくてさ～\n{{anim id=\"13\"}}アタイの{{ruby charSpan=\"1\" value=\"か\"}}代わりに{{delay frames=\"10\"}}\nとどけてもらえないかな～？"
  },
  {
    "label": "002",
    "text": "{{anim id=\"13\"}}あのさぁ{{delay frames=\"20\"}}{{delay frames=\"8\"}}・{{delay frames=\"8\"}}・{{delay frames=\"8\"}}・{{delay frames=\"8\"}}\nアタイ　{{delay frames=\"10\"}}{{fun_00010011 arg=\"0x0000\"}}{{fun_000D0005 arg=\"\"}}と{{delay frames=\"8\"}}\nケンカしちゃったんだよね\n{{anim id=\"12\"}}ほら　{{delay frames=\"8\"}}アタイ{{delay frames=\"20\"}}\n{{ruby charSpan=\"1\" value=\"おも\"}}思ったこと　{{delay frames=\"8\"}}{{ruby charSpan=\"1\" value=\"なん\"}}何でも{{ruby charSpan=\"1\" value=\"い\"}}言っちゃうタイプじゃん{{fun_00010007 arg=\"\"}}\n{{delay frames=\"8\"}}・{{delay frames=\"8\"}}・{{delay frames=\"8\"}}・{{delay frames=\"8\"}}{{anim id=\"13\"}}{{ruby charSpan=\"1\" value=\"はや\"}}早く　{{ruby charSpan=\"2\" value=\"なかなお\"}}仲直りしたいんだよ～！\n{{anim id=\"9\"}}お{{ruby charSpan=\"1\" value=\"ねが\"}}願い！{{delay frames=\"20\"}}　アタイの{{ruby charSpan=\"1\" value=\"か\"}}代わりに{{delay frames=\"10\"}}\nこれ　とどけてくんない？{{delay frames=\"30\"}}\nおわびの{{ruby charSpan=\"2\" value=\"きも\"}}気持ちなの！"
  },
  {
    "label": "003",
    "text": "{{anim id=\"13\"}}ねぇ！　{{delay frames=\"20\"}}{{fun_00010011 arg=\"0x0000\"}}{{fun_000D0005 arg=\"\"}}に\nとどけてほしいものが　あるんだよね～{{pageBreak}}{{anim id=\"36\"}}{{ruby charSpan=\"1\" value=\"まえ\"}}前　{{ruby charSpan=\"1\" value=\"あそ\"}}遊んだ{{ruby charSpan=\"1\" value=\"とき\"}}時に{{delay frames=\"10\"}}　どうしてもって{{ruby charSpan=\"1\" value=\"い\"}}言って{{delay frames=\"5\"}}\n{{ruby charSpan=\"1\" value=\"か\"}}借りたんだけど{{delay frames=\"8\"}}・{{delay frames=\"8\"}}・{{delay frames=\"8\"}}・{{delay frames=\"8\"}}{{pageBreak}}{{anim id=\"9\"}}その{{ruby charSpan=\"1\" value=\"あと\"}}後{{delay frames=\"10\"}}\n{{ruby charSpan=\"1\" value=\"かえ\"}}返すの　わすれちゃってたの～{{pageBreak}}{{ruby charSpan=\"1\" value=\"いま\"}}今さら　{{ruby charSpan=\"1\" value=\"き\"}}気まずいし{{delay frames=\"10\"}}\n{{anim id=\"13\"}}{{ruby charSpan=\"1\" value=\"か\"}}代わりに　{{ruby charSpan=\"1\" value=\"も\"}}持って{{ruby charSpan=\"1\" value=\"い\"}}行ってくれない？"
  },
  {
    "label": "004",
    "text": "{{anim id=\"36\"}}{{fun_00010011 arg=\"0x0000\"}}{{fun_000D0005 arg=\"\"}}が{{delay frames=\"10\"}}\nうちに　わすれ{{ruby charSpan=\"1\" value=\"もの\"}}物しちゃって！{{pageBreak}}{{anim id=\"11\"}}きっと　{{ruby charSpan=\"1\" value=\"いま\"}}今ごろ{{delay frames=\"10\"}}　{{ruby charSpan=\"1\" value=\"な\"}}無くしたと{{ruby charSpan=\"1\" value=\"おも\"}}思って{{delay frames=\"10\"}}\n{{ruby charSpan=\"1\" value=\"お\"}}落ちこんでるんじゃないかな{{delay frames=\"5\"}}・{{delay frames=\"5\"}}・{{delay frames=\"5\"}}・{{delay frames=\"5\"}}！{{pageBreak}}{{anim id=\"37\"}}で、{{delay frames=\"10\"}}お{{ruby charSpan=\"1\" value=\"ねが\"}}願いなんだけど{{delay frames=\"20\"}}\n{{ruby charSpan=\"1\" value=\"か\"}}代わりに　とどけてくんない？"
  },
  {
    "label": "005",
    "text": "{{anim id=\"13\"}}ちょっと　{{ruby charSpan=\"1\" value=\"き\"}}聞いて～{{pageBreak}}{{anim id=\"37\"}}アタイにプレゼントが　とどいたから{{delay frames=\"20\"}}\n{{anim id=\"3\"}}ちょー{{ruby charSpan=\"1\" value=\"よろこ\"}}喜んで　{{ruby charSpan=\"1\" value=\"あ\"}}開けようとしたら{{delay frames=\"10\"}}\n{{anim id=\"7\"}}{{fun_00010011 arg=\"0x0000\"}}{{fun_000D0005 arg=\"\"}}あてだったんだよ～\n{{anim id=\"12\"}}アタイ、{{delay frames=\"10\"}}{{ruby charSpan=\"1\" value=\"いま\"}}今　{{ruby charSpan=\"1\" value=\"お\"}}落ちこんでるから{{delay frames=\"10\"}}\n{{ruby charSpan=\"1\" value=\"か\"}}代わりに　{{delay frames=\"5\"}}とどけてきて～！"
  },
  {
    "label": "006",
    "text": "{{anim id=\"37\"}}アタイ、{{delay frames=\"10\"}}{{ruby charSpan=\"2\" value=\"そうだん\"}}相談があるんだよ～{{delay frames=\"8\"}}・{{delay frames=\"8\"}}・{{delay frames=\"8\"}}・{{delay frames=\"8\"}}{{pageBreak}}{{anim id=\"0\"}}{{fun_00010011 arg=\"0x0000\"}}{{fun_000D0005 arg=\"\"}}に{{delay frames=\"10\"}}\nたのまれた　{{ruby charSpan=\"2\" value=\"しなもの\"}}品物があるんだけど{{delay frames=\"20\"}}\n{{anim id=\"37\"}}{{ruby charSpan=\"1\" value=\"か\"}}代わりに　{{delay frames=\"8\"}}{{ruby charSpan=\"1\" value=\"も\"}}持って{{ruby charSpan=\"1\" value=\"い\"}}行ってくれないかな？\n{{anim id=\"13\"}}アタイ、{{delay frames=\"10\"}}いま{{ruby charSpan=\"1\" value=\"て\"}}手が　はなせないの！{{fun_00010007 arg=\"\"}}\nあのコ　{{delay frames=\"10\"}}{{ruby charSpan=\"1\" value=\"たの\"}}楽しみにしてると{{ruby charSpan=\"1\" value=\"おも\"}}思うし{{delay frames=\"15\"}}\nお{{ruby charSpan=\"1\" value=\"ねが\"}}願い！"
  },
  {
    "label": "007",
    "text": ""
  },
  {
    "label": "008",
    "text": ""
  },
  {
    "label": "009",
    "text": ""
  },
  {
    "label": "010",
    "text": ""
  },
  {
    "label": "011",
    "text": "{{anim id=\"1\"}}ありがと～！{{delay frames=\"20\"}}\nじゃあ、{{delay frames=\"10\"}}これよろしく！"
  },
  {
    "label": "012",
    "text": "{{anim id=\"1\"}}よかった～{{delay frames=\"20\"}}\nこれで　{{delay frames=\"10\"}}{{fun_00010011 arg=\"0x0000\"}}{{fun_000D0005 arg=\"\"}}と{{delay frames=\"10\"}}\n{{ruby charSpan=\"2\" value=\"なかなお\"}}仲直りできるかも、{{delay frames=\"15\"}}{{fun_00070005 arg=\"\"}}"
  },
  {
    "label": "013",
    "text": "{{anim id=\"5\"}}ホント～？！{{delay frames=\"25\"}}\nさすが　{{delay frames=\"10\"}}{{fun_00080005 arg=\"\"}}{{fun_000D0005 arg=\"\"}}だね！"
  },
  {
    "label": "014",
    "text": "{{anim id=\"1\"}}わ～い！{{delay frames=\"20\"}}\n{{fun_00010011 arg=\"0x0000\"}}{{fun_000D0005 arg=\"\"}}　{{ruby charSpan=\"1\" value=\"よろこ\"}}喜ぶよ～"
  },
  {
    "label": "015",
    "text": "{{anim id=\"21\"}}うん　{{delay frames=\"10\"}}ありがと～{{anim id=\"0\"}}"
  },
  {
    "label": "016",
    "text": "{{anim id=\"1\"}}よかった！　{{delay frames=\"20\"}}{{ruby charSpan=\"1\" value=\"たす\"}}助かるよ～{{delay frames=\"30\"}}\nじゃあ、{{delay frames=\"10\"}}これ　よろしく！"
  },
  {
    "label": "017",
    "text": "{{anim id=\"1\"}}ちょっと　{{ruby charSpan=\"2\" value=\"たいへん\"}}大変かもだけど{{delay frames=\"10\"}}\n{{ruby charSpan=\"3\" value=\"きょうじゅう\"}}今日中で　お{{ruby charSpan=\"1\" value=\"ねが\"}}願い！　{{delay frames=\"20\"}}{{fun_00070005 arg=\"\"}}！"
  },
  {
    "label": "018",
    "text": "{{anim id=\"37\"}}{{ruby charSpan=\"2\" value=\"きょう\"}}今日は　もうおそいし{{delay frames=\"10\"}}\n{{ruby charSpan=\"2\" value=\"あした\"}}明日{{ruby charSpan=\"1\" value=\"じゅう\"}}中でいいから！"
  },
  {
    "label": "019",
    "text": "{{anim id=\"37\"}}こんな{{ruby charSpan=\"2\" value=\"じかん\"}}時間だから{{delay frames=\"10\"}}\n{{ruby charSpan=\"1\" value=\"あさ\"}}朝になったらでいいし！"
  },
  {
    "label": "020",
    "text": ""
  },
  {
    "label": "021",
    "text": "{{anim id=\"36\"}}そっか～{{delay frames=\"20\"}}\nじゃあ、{{delay frames=\"10\"}}{{ruby charSpan=\"2\" value=\"じぶん\"}}自分でとどけるね"
  },
  {
    "label": "022",
    "text": "{{anim id=\"9\"}}そうだよね～{{delay frames=\"20\"}}\nやっぱ　こういうことは{{delay frames=\"10\"}}\n{{ruby charSpan=\"2\" value=\"じぶん\"}}自分でやんないと　{{ruby charSpan=\"2\" value=\"いみ\"}}意味ないか"
  },
  {
    "label": "023",
    "text": "{{anim id=\"9\"}}そっか～{{delay frames=\"20\"}}\nやっぱり{{delay frames=\"10\"}}　{{ruby charSpan=\"2\" value=\"じぶん\"}}自分で{{ruby charSpan=\"1\" value=\"かえ\"}}返さないとだよね！"
  },
  {
    "label": "024",
    "text": "{{anim id=\"37\"}}わかった～{{delay frames=\"20\"}}\nじゃあ、{{delay frames=\"10\"}}{{ruby charSpan=\"1\" value=\"あと\"}}後で　とどけるわ"
  },
  {
    "label": "025",
    "text": "{{anim id=\"9\"}}{{delay frames=\"8\"}}・{{delay frames=\"8\"}}・{{delay frames=\"8\"}}・{{delay frames=\"8\"}}\nじゃあ　{{delay frames=\"10\"}}{{ruby charSpan=\"2\" value=\"じぶん\"}}自分でとどけるよ～、{{delay frames=\"15\"}}{{fun_00070005 arg=\"\"}}"
  },
  {
    "label": "026",
    "text": "{{anim id=\"21\"}}たしかに　{{delay frames=\"15\"}}アタイがとどけないと{{delay frames=\"10\"}}\nビックリするかもだし！"
  },
  {
    "label": "027",
    "text": ""
  },
  {
    "label": "028",
    "text": ""
  },
  {
    "label": "029",
    "text": ""
  },
  {
    "label": "030",
    "text": ""
  }
]