﻿[
  {
    "label": "001",
    "text": "{{anim id=\"16\"}}あ！{{delay frames=\"20\"}}\n{{anim id=\"1\"}}アタイ　{{delay frames=\"10\"}}とうとう\nひっこしを　{{ruby charSpan=\"2\" value=\"けっしん\"}}決心したよ！{{pageBreak}}{{anim id=\"36\"}}けっこう　なやんだんだけど、{{delay frames=\"10\"}}\n{{ruby charSpan=\"2\" value=\"まえむ\"}}前向きに　がんばってみようかなって{{pageBreak}}{{anim id=\"1\"}}{{fun_00080005 arg=\"\"}}{{fun_000D0005 arg=\"\"}}、{{delay frames=\"10\"}}\nどうも　ありがとね！"
  },
  {
    "label": "002",
    "text": "{{anim id=\"15\"}}あれー！{{delay frames=\"20\"}}\nもしかして、{{delay frames=\"10\"}}アタイのひっこし{{delay frames=\"8\"}}\n{{ruby charSpan=\"2\" value=\"てつだ\"}}手伝いに　{{ruby charSpan=\"1\" value=\"き\"}}来てくれたの？{{pageBreak}}{{anim id=\"1\"}}この{{ruby charSpan=\"1\" value=\"あいだ\"}}間　{{ruby charSpan=\"2\" value=\"そうだん\"}}相談したから、{{delay frames=\"10\"}}\n{{ruby charSpan=\"2\" value=\"しんぱい\"}}心配してくれたってカンジ？！{{delay frames=\"30\"}}\n{{anim id=\"5\"}}ちょーいいひとじゃん{{pageBreak}}アタイが　いなくなったら、{{delay frames=\"10\"}}\nこの{{ruby charSpan=\"1\" value=\"むら\"}}村のこと　よろしくね！"
  },
  {
    "label": "003",
    "text": "{{anim id=\"2\"}}ヤッホー！{{delay frames=\"30\"}}\n{{anim id=\"1\"}}アンタには、お{{ruby charSpan=\"1\" value=\"れい\"}}礼{{ruby charSpan=\"1\" value=\"い\"}}言わなきゃと{{ruby charSpan=\"1\" value=\"おも\"}}思って{{delay frames=\"10\"}}\n{{ruby charSpan=\"1\" value=\"ま\"}}待ってたよ！{{pageBreak}}{{anim id=\"11\"}}アタイって、{{delay frames=\"10\"}}{{ruby charSpan=\"2\" value=\"いがい\"}}意外と{{delay frames=\"5\"}}\n{{ruby charSpan=\"2\" value=\"いろいろ\"}}色々　{{ruby charSpan=\"1\" value=\"かんが\"}}考えちゃうタイプだからさ{{delay frames=\"8\"}}・{{delay frames=\"8\"}}・{{delay frames=\"8\"}}・{{delay frames=\"8\"}}\n{{anim id=\"1\"}}{{ruby charSpan=\"2\" value=\"そうだん\"}}相談{{ruby charSpan=\"1\" value=\"き\"}}聞いてくれて　{{delay frames=\"8\"}}{{ruby charSpan=\"1\" value=\"たす\"}}助かったよ{{pageBreak}}これで、{{delay frames=\"10\"}}アタイも{{ruby charSpan=\"1\" value=\"おも\"}}思い{{ruby charSpan=\"1\" value=\"のこ\"}}残すことなく、{{delay frames=\"8\"}}\n{{ruby charSpan=\"2\" value=\"げんき\"}}元気に　{{ruby charSpan=\"2\" value=\"しゅっぱつ\"}}出発できるわ～！"
  },
  {
    "label": "004",
    "text": "{{anim id=\"16\"}}あ！{{delay frames=\"30\"}}\nビックリしちゃったかな？！{{pageBreak}}{{anim id=\"13\"}}とつぜんごめんね{{delay frames=\"20\"}}\nアタイ、{{delay frames=\"10\"}}ひっこすことにしたの{{pageBreak}}{{anim id=\"36\"}}もっと　{{ruby charSpan=\"1\" value=\"はや\"}}早く{{ruby charSpan=\"1\" value=\"い\"}}言おうと{{ruby charSpan=\"1\" value=\"おも\"}}思ってたんだけど、{{delay frames=\"10\"}}\nタイミングがなくて{{delay frames=\"8\"}}・{{delay frames=\"8\"}}・{{delay frames=\"8\"}}・{{delay frames=\"8\"}}{{pageBreak}}{{anim id=\"1\"}}{{ruby charSpan=\"1\" value=\"いま\"}}今まで　ありがと！{{delay frames=\"20\"}}\nこれからも{{delay frames=\"8\"}}\n{{fun_00080005 arg=\"\"}}{{fun_000D0005 arg=\"\"}}らしく{{ruby charSpan=\"2\" value=\"げんき\"}}元気でね！"
  },
  {
    "label": "005",
    "text": "{{anim id=\"23\"}}あれ？　{{delay frames=\"30\"}}お{{ruby charSpan=\"1\" value=\"きゃく\"}}客さん？{{delay frames=\"30\"}}\n{{anim id=\"1\"}}はじめまして～{{pageBreak}}っていうか、{{delay frames=\"10\"}}アタイ　もうすぐ{{delay frames=\"8\"}}\nこの{{ruby charSpan=\"1\" value=\"むら\"}}村　{{ruby charSpan=\"1\" value=\"で\"}}出てくんだよね{{delay frames=\"8\"}}・{{delay frames=\"8\"}}・{{delay frames=\"8\"}}・{{delay frames=\"8\"}}{{pageBreak}}{{anim id=\"1\"}}せっかく{{ruby charSpan=\"1\" value=\"あ\"}}会えたのに　{{ruby charSpan=\"2\" value=\"ざんねん\"}}残念だけど、{{delay frames=\"10\"}}\nまた　どこかで{{ruby charSpan=\"1\" value=\"あ\"}}会おうね！"
  },
  {
    "label": "006",
    "text": "{{anim id=\"16\"}}わっ、{{delay frames=\"20\"}}{{fun_00000005 arg=\"\"}}{{fun_000D0005 arg=\"\"}}じゃん！{{delay frames=\"30\"}}\n{{anim id=\"23\"}}{{ruby charSpan=\"1\" value=\"あそ\"}}遊びに{{ruby charSpan=\"1\" value=\"き\"}}来てくれたの、{{delay frames=\"10\"}}{{fun_00070005 arg=\"\"}}？{{pageBreak}}{{anim id=\"13\"}}あ～ん！　{{delay frames=\"20\"}}でも、{{delay frames=\"10\"}}{{ruby charSpan=\"2\" value=\"ざんねん\"}}残念だな～{{delay frames=\"8\"}}・{{delay frames=\"8\"}}・{{delay frames=\"8\"}}・{{delay frames=\"8\"}}\nアタイ、{{delay frames=\"10\"}}{{ruby charSpan=\"2\" value=\"きょう\"}}今日で　{{fun_00050005 arg=\"\"}}{{ruby charSpan=\"1\" value=\"むら\"}}村から{{delay frames=\"5\"}}\n{{ruby charSpan=\"1\" value=\"で\"}}出てっちゃうんだ～{{pageBreak}}{{anim id=\"1\"}}けど、{{delay frames=\"10\"}}{{ruby charSpan=\"2\" value=\"さいご\"}}最後に\nこうやって　{{delay frames=\"8\"}}アイサツだけでもできて{{delay frames=\"10\"}}\nよかった～、{{delay frames=\"10\"}}{{fun_00070005 arg=\"\"}}{{pageBreak}}{{anim id=\"37\"}}アタイは　{{delay frames=\"10\"}}いなくなっちゃうけど{{delay frames=\"15\"}}\nこれからも　{{fun_00050005 arg=\"\"}}{{ruby charSpan=\"1\" value=\"むら\"}}村には{{delay frames=\"8\"}}\nどんどん{{ruby charSpan=\"1\" value=\"あそ\"}}遊びに{{ruby charSpan=\"1\" value=\"き\"}}来てね！"
  },
  {
    "label": "007",
    "text": "{{anim id=\"23\"}}あれ？　{{delay frames=\"20\"}}アンタ{{delay frames=\"8\"}}・{{delay frames=\"8\"}}・{{delay frames=\"8\"}}・{{delay frames=\"8\"}}\nだれだっけ？{{delay frames=\"20\"}}\n{{anim id=\"1\"}}はじめまして！{{pageBreak}}っていうか、{{delay frames=\"10\"}}アタイ　もうすぐ{{delay frames=\"8\"}}\nこの{{ruby charSpan=\"1\" value=\"むら\"}}村　{{ruby charSpan=\"1\" value=\"で\"}}出て{{ruby charSpan=\"1\" value=\"い\"}}行くんだ{{delay frames=\"10\"}}・{{delay frames=\"10\"}}・{{delay frames=\"10\"}}・{{delay frames=\"10\"}}\n{{anim id=\"36\"}}なんか、{{delay frames=\"10\"}}すれちがいだったね{{pageBreak}}{{anim id=\"37\"}}{{ruby charSpan=\"1\" value=\"むら\"}}村のこと、{{delay frames=\"10\"}}\nアタイの　{{ruby charSpan=\"1\" value=\"か\"}}代わりに　{{delay frames=\"5\"}}よろしくね！"
  },
  {
    "label": "008",
    "text": "{{anim id=\"15\"}}わっ、{{delay frames=\"20\"}}{{fun_00000005 arg=\"\"}}{{fun_000D0005 arg=\"\"}}じゃん！{{delay frames=\"20\"}}\n{{ruby charSpan=\"1\" value=\"あそ\"}}遊びに{{ruby charSpan=\"1\" value=\"き\"}}来てくれたの、{{delay frames=\"10\"}}{{fun_00070005 arg=\"\"}}？{{pageBreak}}{{anim id=\"13\"}}あ～ん！　{{delay frames=\"15\"}}でも、{{delay frames=\"8\"}}{{ruby charSpan=\"2\" value=\"ざんねん\"}}残念なことに{{delay frames=\"10\"}}\nアタイ、{{delay frames=\"8\"}}{{ruby charSpan=\"2\" value=\"きょう\"}}今日で　{{fun_00050005 arg=\"\"}}{{ruby charSpan=\"1\" value=\"むら\"}}村から\n{{ruby charSpan=\"1\" value=\"で\"}}出てっちゃうんだ～{{pageBreak}}{{anim id=\"1\"}}でも、{{ruby charSpan=\"1\" value=\"じつ\"}}実を{{ruby charSpan=\"1\" value=\"い\"}}言うと{{delay frames=\"10\"}}\nどこにひっこすかは{{delay frames=\"8\"}}\nちゃんと　{{ruby charSpan=\"1\" value=\"き\"}}決めてないんだけどね・・・{{endTag}}\nうちの{{ruby charSpan=\"1\" value=\"むら\"}}村においでよ！\n{{ruby charSpan=\"2\" value=\"たいへん\"}}大変だね～"
  },
  {
    "label": "009",
    "text": "{{anim id=\"2\"}}キャハハ！{{delay frames=\"20\"}}\nまあ、{{delay frames=\"8\"}}ダイジョーブ！{{delay frames=\"20\"}}\n{{anim id=\"1\"}}なんとかなるよ、{{delay frames=\"15\"}}{{fun_00070005 arg=\"\"}}{{pageBreak}}しばらくの{{ruby charSpan=\"1\" value=\"あいだ\"}}間は　{{delay frames=\"10\"}}{{ruby charSpan=\"2\" value=\"りそう\"}}理想の{{ruby charSpan=\"1\" value=\"むら\"}}村をさがして{{delay frames=\"8\"}}\n{{ruby charSpan=\"1\" value=\"いろ\"}}色んなとこ　{{ruby charSpan=\"1\" value=\"たび\"}}旅するんだ～{{pageBreak}}{{ruby charSpan=\"2\" value=\"さいご\"}}最後に{{delay frames=\"10\"}}　こうやって\nアイサツだけでもできて{{delay frames=\"15\"}}\nホントよかったよ！{{pageBreak}}{{anim id=\"1\"}}アタイは　いなくなっちゃうけど{{delay frames=\"15\"}}\nこれからも　{{fun_00050005 arg=\"\"}}{{ruby charSpan=\"1\" value=\"むら\"}}村には{{delay frames=\"10\"}}\nジャンジャン{{ruby charSpan=\"1\" value=\"あそ\"}}遊びに{{ruby charSpan=\"1\" value=\"き\"}}来てね！"
  },
  {
    "label": "010",
    "text": "{{delay frames=\"8\"}}・{{delay frames=\"8\"}}・{{delay frames=\"8\"}}・{{delay frames=\"8\"}}{{anim id=\"15\"}}えっ？！{{fun_00010007 arg=\"\"}}\nそれ、{{delay frames=\"5\"}}{{ruby charSpan=\"2\" value=\"ほんき\"}}本気で{{ruby charSpan=\"1\" value=\"い\"}}言ってるの？{{pageBreak}}{{anim id=\"11\"}}{{delay frames=\"8\"}}・{{delay frames=\"8\"}}・{{delay frames=\"8\"}}・{{delay frames=\"8\"}}・{{delay frames=\"8\"}}・{{delay frames=\"8\"}}・{{delay frames=\"20\"}}{{pageBreak}}{{anim id=\"22\"}}なるほど　{{delay frames=\"15\"}}いいかもしんない！{{fun_00010007 arg=\"\"}}\n{{fun_00000005 arg=\"\"}}{{fun_000D0005 arg=\"\"}}に　{{ruby charSpan=\"1\" value=\"い\"}}言われるまで{{delay frames=\"15\"}}\nゼンゼン　{{ruby charSpan=\"1\" value=\"おも\"}}思いつかなかったよ～！{{pageBreak}}{{anim id=\"1\"}}よ～し！　{{delay frames=\"20\"}}そうと{{ruby charSpan=\"1\" value=\"き\"}}決まれば{{delay frames=\"10\"}}\nこの{{ruby charSpan=\"2\" value=\"にもつ\"}}荷物の{{ruby charSpan=\"1\" value=\"やま\"}}山の　{{ruby charSpan=\"1\" value=\"おく\"}}送り{{ruby charSpan=\"1\" value=\"さき\"}}先を　{{delay frames=\"10\"}}\n{{ruby charSpan=\"2\" value=\"おおいそ\"}}大急ぎで{{delay frames=\"5\"}}　{{fun_00060005 arg=\"\"}}{{ruby charSpan=\"1\" value=\"むら\"}}村に　{{ruby charSpan=\"1\" value=\"か\"}}変えなくちゃ\n{{anim id=\"38\"}}じゃあ　{{delay frames=\"20\"}}{{fun_00000005 arg=\"\"}}{{fun_000D0005 arg=\"\"}}、{{delay frames=\"20\"}}\n{{ruby charSpan=\"1\" value=\"むら\"}}村の{{ruby charSpan=\"1\" value=\"ひと\"}}人に{{delay frames=\"10\"}}\nアタイのこと　{{delay frames=\"10\"}}よろしく{{ruby charSpan=\"1\" value=\"い\"}}言っといてね！"
  },
  {
    "label": "011",
    "text": "{{delay frames=\"8\"}}・{{delay frames=\"8\"}}・{{delay frames=\"8\"}}・{{delay frames=\"8\"}}{{anim id=\"15\"}}えっ？！{{fun_00010007 arg=\"\"}}\nそれ　{{delay frames=\"10\"}}{{ruby charSpan=\"2\" value=\"ほんき\"}}本気で{{ruby charSpan=\"1\" value=\"い\"}}言ってるの？{{pageBreak}}{{anim id=\"11\"}}{{delay frames=\"8\"}}・{{delay frames=\"8\"}}・{{delay frames=\"8\"}}・{{delay frames=\"8\"}}・{{delay frames=\"8\"}}・{{delay frames=\"8\"}}・{{delay frames=\"8\"}}{{pageBreak}}{{anim id=\"22\"}}うん　{{delay frames=\"20\"}}いいアイデアだね{{delay frames=\"20\"}}\nそうと{{ruby charSpan=\"1\" value=\"き\"}}決まれば{{delay frames=\"10\"}}\n{{ruby charSpan=\"2\" value=\"おおいそ\"}}大急ぎで　{{delay frames=\"5\"}}{{ruby charSpan=\"2\" value=\"よてい\"}}予定{{ruby charSpan=\"1\" value=\"へん\"}}変こう！{{pageBreak}}{{anim id=\"1\"}}じゃあ　{{fun_00000005 arg=\"\"}}{{fun_000D0005 arg=\"\"}}{{delay frames=\"15\"}}\n{{ruby charSpan=\"1\" value=\"いま\"}}今は　バタバタしてるし{{delay frames=\"10\"}}\nひっこしがすんだら　{{delay frames=\"10\"}}ゆっくり{{ruby charSpan=\"1\" value=\"はな\"}}話そうね！"
  },
  {
    "label": "012",
    "text": "{{anim id=\"15\"}}わわっ！{{delay frames=\"20\"}}\nひっこし{{ruby charSpan=\"1\" value=\"や\"}}屋さん　{{delay frames=\"10\"}}もう{{ruby charSpan=\"1\" value=\"き\"}}来ちゃったの？！{{delay frames=\"20\"}}\nちょっと{{ruby charSpan=\"1\" value=\"ま\"}}待って～{{pageBreak}}{{anim id=\"23\"}}{{delay frames=\"8\"}}・{{delay frames=\"8\"}}・{{delay frames=\"8\"}}・{{delay frames=\"8\"}}え？　{{delay frames=\"20\"}}ちがう？{{fun_00010007 arg=\"\"}}\n{{anim id=\"1\"}}な～んだ！{{pageBreak}}{{anim id=\"5\"}}はじめまして{{delay frames=\"20\"}}\nアタイ　{{delay frames=\"10\"}}{{fun_00010005 arg=\"\"}}っていうの{{delay frames=\"20\"}}\nよろしくね～、{{delay frames=\"15\"}}{{fun_00070005 arg=\"\"}}{{pageBreak}}{{anim id=\"36\"}}{{delay frames=\"8\"}}・{{delay frames=\"8\"}}・{{delay frames=\"8\"}}・{{delay frames=\"8\"}}と{{ruby charSpan=\"1\" value=\"い\"}}言っても、{{delay frames=\"10\"}}{{ruby charSpan=\"2\" value=\"ざんねん\"}}残念なことに\nアタイ　{{delay frames=\"15\"}}{{fun_00050005 arg=\"\"}}{{ruby charSpan=\"1\" value=\"むら\"}}村から　{{ruby charSpan=\"1\" value=\"で\"}}出てくんだ～{{pageBreak}}{{anim id=\"5\"}}{{ruby charSpan=\"2\" value=\"りそう\"}}理想の{{ruby charSpan=\"1\" value=\"むら\"}}村を　さがして{{delay frames=\"10\"}}\nしばらく　{{ruby charSpan=\"1\" value=\"たび\"}}旅するんだよ～{{pageBreak}}{{anim id=\"37\"}}えっと　アンタは{{delay frames=\"8\"}}・{{delay frames=\"8\"}}・{{delay frames=\"8\"}}・{{delay frames=\"8\"}}\n{{fun_00000005 arg=\"\"}}{{fun_000D0005 arg=\"\"}}って　{{ruby charSpan=\"1\" value=\"い\"}}言うんだね{{pageBreak}}{{anim id=\"1\"}}というワケで　{{delay frames=\"10\"}}{{fun_00000005 arg=\"\"}}{{fun_000D0005 arg=\"\"}}、{{delay frames=\"10\"}}\nオススメの{{ruby charSpan=\"1\" value=\"むら\"}}村とか　あったら{{delay frames=\"10\"}}\n{{ruby charSpan=\"1\" value=\"おし\"}}教えてちょうだいね！{{endTag}}\nうちの{{ruby charSpan=\"1\" value=\"むら\"}}村はどう？\n{{ruby charSpan=\"1\" value=\"かんが\"}}考えとく"
  },
  {
    "label": "013",
    "text": "{{anim id=\"21\"}}うん、{{delay frames=\"10\"}}よろしく～！"
  },
  {
    "label": "014",
    "text": "{{anim id=\"16\"}}え？　{{delay frames=\"20\"}}ホント？{{delay frames=\"30\"}}\nたしかに　{{delay frames=\"15\"}}いいかもしんない{{pageBreak}}{{anim id=\"5\"}}こんなタイミングで　{{ruby charSpan=\"2\" value=\"であ\"}}出会ったのも{{delay frames=\"10\"}}\n{{ruby charSpan=\"2\" value=\"うんめい\"}}運命ってカンジがするし！{{pageBreak}}{{anim id=\"1\"}}よ～し、{{delay frames=\"10\"}}{{fun_00000005 arg=\"\"}}{{fun_000D0005 arg=\"\"}}！{{fun_00010007 arg=\"\"}}\nアンタの　{{ruby charSpan=\"1\" value=\"す\"}}住んでる{{ruby charSpan=\"1\" value=\"むら\"}}村は{{delay frames=\"10\"}}\n{{ruby charSpan=\"1\" value=\"なん\"}}何て{{ruby charSpan=\"2\" value=\"なまえ\"}}名前なの？{{pageBreak}}{{delay frames=\"8\"}}・{{delay frames=\"8\"}}・{{delay frames=\"8\"}}・{{delay frames=\"30\"}}{{anim id=\"22\"}}オッケー　{{delay frames=\"15\"}}\n{{fun_00060005 arg=\"\"}}{{ruby charSpan=\"1\" value=\"むら\"}}村だね！{{pageBreak}}{{anim id=\"1\"}}じゃあ　アタイ、{{delay frames=\"10\"}}{{ruby charSpan=\"2\" value=\"にもつ\"}}荷物の{{ruby charSpan=\"1\" value=\"おく\"}}送り{{ruby charSpan=\"1\" value=\"さき\"}}先{{ruby charSpan=\"1\" value=\"か\"}}変えたり{{delay frames=\"10\"}}\n{{ruby charSpan=\"2\" value=\"いろいろ\"}}色々あるから{{pageBreak}}{{ruby charSpan=\"1\" value=\"こま\"}}細かい{{ruby charSpan=\"1\" value=\"はなし\"}}話は　また{{ruby charSpan=\"2\" value=\"こんど\"}}今度　{{delay frames=\"10\"}}\n{{fun_00060005 arg=\"\"}}{{ruby charSpan=\"1\" value=\"むら\"}}村でよろしく！"
  },
  {
    "label": "015",
    "text": "{{anim id=\"9\"}}う～ん{{delay frames=\"8\"}}・{{delay frames=\"8\"}}・{{delay frames=\"8\"}}・{{pageBreak}}なんとか　{{ruby charSpan=\"2\" value=\"にづく\"}}荷造りはできたけど、{{delay frames=\"10\"}}\n{{anim id=\"27\"}}コレをまた　{{ruby charSpan=\"1\" value=\"あ\"}}開けるのかと{{ruby charSpan=\"1\" value=\"おも\"}}思うと{{delay frames=\"8\"}}\nうんざりだわ{{delay frames=\"8\"}}・{{delay frames=\"8\"}}・{{delay frames=\"8\"}}・{{delay frames=\"15\"}}{{fun_00070005 arg=\"\"}}"
  },
  {
    "label": "016",
    "text": "{{anim id=\"23\"}}なんで　こんなに{{delay frames=\"8\"}}\nダンボールがあるのかって？{{pageBreak}}{{anim id=\"5\"}}{{ruby charSpan=\"2\" value=\"ぜんぶ\"}}全部　{{delay frames=\"10\"}}アタイへのファンレターに\n{{ruby charSpan=\"1\" value=\"き\"}}決まってるじゃ～ん"
  },
  {
    "label": "017",
    "text": "{{anim id=\"11\"}}え～っと{{delay frames=\"8\"}}・{{delay frames=\"8\"}}・{{delay frames=\"8\"}}・{{delay frames=\"15\"}}\n{{delay frames=\"15\"}}{{fun_000F0005 arg=\"0x0000\"}}って\nどの{{ruby charSpan=\"1\" value=\"はこ\"}}箱に　しまったんだっけ"
  },
  {
    "label": "018",
    "text": "{{anim id=\"1\"}}これからは　{{delay frames=\"10\"}}アタイの{{ruby charSpan=\"1\" value=\"ぶん\"}}分も{{delay frames=\"10\"}}\n{{fun_00050005 arg=\"\"}}{{ruby charSpan=\"1\" value=\"むら\"}}村ライフを　{{delay frames=\"8\"}}2{{ruby charSpan=\"1\" value=\"ばい\"}}倍\n{{ruby charSpan=\"1\" value=\"たの\"}}楽しんでね！　{{delay frames=\"20\"}}{{fun_00070005 arg=\"\"}}！"
  },
  {
    "label": "019",
    "text": "{{anim id=\"1\"}}そうそう　{{delay frames=\"5\"}}アタイ{{delay frames=\"10\"}}\n{{fun_00020011 arg=\"0x0000\"}}{{ruby charSpan=\"1\" value=\"むら\"}}村に　{{ruby charSpan=\"1\" value=\"い\"}}行くことにしたんだ！{{pageBreak}}だから　{{delay frames=\"10\"}}アタイに{{ruby charSpan=\"1\" value=\"あ\"}}会いたくなったら{{delay frames=\"10\"}}\n{{ruby charSpan=\"1\" value=\"あそ\"}}遊びに{{ruby charSpan=\"1\" value=\"き\"}}来てね、{{delay frames=\"10\"}}{{fun_00070005 arg=\"\"}}"
  },
  {
    "label": "020",
    "text": "{{anim id=\"1\"}}そうそう、{{delay frames=\"5\"}}アタイ{{delay frames=\"10\"}}\n{{fun_00020011 arg=\"0x0000\"}}{{ruby charSpan=\"1\" value=\"むら\"}}村に　ひっこすことにしたの！{{fun_00010007 arg=\"\"}}\nエンリョせずに　{{delay frames=\"8\"}}{{ruby charSpan=\"1\" value=\"あそ\"}}遊びに{{ruby charSpan=\"1\" value=\"き\"}}来てね"
  },
  {
    "label": "021",
    "text": "{{anim id=\"1\"}}{{ruby charSpan=\"1\" value=\"つぎ\"}}次に{{ruby charSpan=\"1\" value=\"あ\"}}会う{{ruby charSpan=\"1\" value=\"とき\"}}時は{{delay frames=\"10\"}}\n{{fun_00060005 arg=\"\"}}{{ruby charSpan=\"1\" value=\"むら\"}}村の　{{ruby charSpan=\"4\" value=\"じゅうみんどうし\"}}住民同士だね！{{delay frames=\"20\"}}\n{{fun_00070005 arg=\"\"}}！"
  },
  {
    "label": "022",
    "text": "{{anim id=\"3\"}}あ～　{{delay frames=\"20\"}}また　{{fun_00000005 arg=\"\"}}{{fun_000D0005 arg=\"\"}}と\nご{{ruby charSpan=\"2\" value=\"きんじょ\"}}近所さんに　なれるなんて、{{delay frames=\"10\"}}\nちょー{{ruby charSpan=\"1\" value=\"たの\"}}楽しみ！　{{delay frames=\"20\"}}{{fun_00070005 arg=\"\"}}！{{delay frames=\"20\"}}{{anim id=\"37\"}}"
  },
  {
    "label": "023",
    "text": "{{anim id=\"1\"}}この{{ruby charSpan=\"1\" value=\"むら\"}}村も　{{delay frames=\"5\"}}すっごく{{ruby charSpan=\"1\" value=\"よ\"}}良かったし{{delay frames=\"15\"}}\n{{ruby charSpan=\"2\" value=\"こんど\"}}今度も　{{delay frames=\"10\"}}アタイの{{ruby charSpan=\"2\" value=\"さいのう\"}}才能を{{delay frames=\"10\"}}\nハッキできる{{ruby charSpan=\"1\" value=\"むら\"}}村が{{delay frames=\"8\"}}　{{ruby charSpan=\"1\" value=\"み\"}}見つかるといいな～！{{pageBreak}}{{anim id=\"37\"}}{{fun_00000005 arg=\"\"}}{{fun_000D0005 arg=\"\"}}も{{delay frames=\"10\"}}\nいいカンジの　{{delay frames=\"5\"}}{{ruby charSpan=\"3\" value=\"むらじょうほう\"}}村情報があれば{{delay frames=\"8\"}}　{{ruby charSpan=\"1\" value=\"おし\"}}教えてね！{{anim id=\"0\"}}{{endTag}}\nうちの{{ruby charSpan=\"1\" value=\"むら\"}}村は？\nう～ん"
  },
  {
    "label": "024",
    "text": "{{anim id=\"1\"}}まぁ、{{delay frames=\"20\"}}{{ruby charSpan=\"1\" value=\"おも\"}}思いついたらで　いいから"
  },
  {
    "label": "025",
    "text": "{{anim id=\"2\"}}それ　{{delay frames=\"5\"}}いいかも～！{{delay frames=\"20\"}}\n{{anim id=\"1\"}}アタイ、{{delay frames=\"10\"}}{{fun_00080005 arg=\"\"}}{{fun_000D0005 arg=\"\"}}のこと{{delay frames=\"10\"}}\nもっと　よく{{ruby charSpan=\"1\" value=\"し\"}}知りたいし！\n{{anim id=\"5\"}}そうと{{ruby charSpan=\"1\" value=\"き\"}}決まったら{{delay frames=\"10\"}}\nすぐに　{{delay frames=\"10\"}}{{ruby charSpan=\"2\" value=\"よてい\"}}予定{{ruby charSpan=\"1\" value=\"へん\"}}変こうに　{{ruby charSpan=\"1\" value=\"と\"}}取りかからないと{{fun_00010007 arg=\"\"}}\nじゃあ　{{delay frames=\"15\"}}{{ruby charSpan=\"1\" value=\"あたら\"}}新しい{{ruby charSpan=\"1\" value=\"むら\"}}村で　よろしくね！"
  },
  {
    "label": "026",
    "text": "{{anim id=\"5\"}}うん　{{delay frames=\"15\"}}いいね！{{delay frames=\"30\"}}\n{{anim id=\"1\"}}また　{{fun_00080005 arg=\"\"}}{{fun_000D0005 arg=\"\"}}と{{delay frames=\"10\"}}\n{{ruby charSpan=\"2\" value=\"なかよ\"}}仲良くできるなんて　{{delay frames=\"8\"}}うれしいな～！\n{{anim id=\"5\"}}アタイ{{ruby charSpan=\"1\" value=\"たち\"}}達って　{{ruby charSpan=\"1\" value=\"き\"}}気が{{ruby charSpan=\"1\" value=\"あ\"}}合うし{{delay frames=\"15\"}}\nサイコーのご{{ruby charSpan=\"2\" value=\"きんじょ\"}}近所さん　{{delay frames=\"5\"}}{{ruby charSpan=\"2\" value=\"ふっかつ\"}}復活ってカンジ？{{fun_00010007 arg=\"\"}}\nじゃあ　{{delay frames=\"15\"}}{{ruby charSpan=\"1\" value=\"あたら\"}}新しい{{ruby charSpan=\"1\" value=\"むら\"}}村でも　{{delay frames=\"5\"}}よろしくね！"
  },
  {
    "label": "027",
    "text": "{{anim id=\"16\"}}あっ、{{delay frames=\"4\"}}{{fun_00080005 arg=\"\"}}{{fun_000D0005 arg=\"\"}}！{{delay frames=\"20\"}}\n{{anim id=\"1\"}}いいところに　{{ruby charSpan=\"1\" value=\"き\"}}来てくれたじゃん！{{delay frames=\"8\"}}\n{{ruby charSpan=\"1\" value=\"き\"}}聞いて　{{ruby charSpan=\"1\" value=\"き\"}}聞いて～！\n{{anim id=\"0\"}}とつぜん　プロデューサーの{{delay frames=\"8\"}}\n{{anim id=\"23\"}}ゆ{{delay frames=\"4\"}}・{{delay frames=\"4\"}}・{{delay frames=\"4\"}}・{{delay frames=\"4\"}}{{color id=\"4\"}}ゆうた{{color id=\"65535\"}}{{delay frames=\"4\"}}・{{delay frames=\"4\"}}・{{delay frames=\"4\"}}・{{delay frames=\"4\"}}{{color id=\"4\"}}ろう{{color id=\"65535\"}}？{{delay frames=\"12\"}}\n{{anim id=\"0\"}}とかいう{{ruby charSpan=\"1\" value=\"ひと\"}}人が　たずねて{{ruby charSpan=\"1\" value=\"き\"}}来てさ～\n{{anim id=\"37\"}}{{fun_00010005 arg=\"\"}}ちゃんは\nそろそろ　{{fun_00050005 arg=\"\"}}{{ruby charSpan=\"1\" value=\"むら\"}}村を{{ruby charSpan=\"2\" value=\"そつぎょう\"}}卒業して{{delay frames=\"12\"}}\n{{ruby charSpan=\"1\" value=\"は\"}}羽ばたかなきゃダメだって　{{ruby charSpan=\"1\" value=\"い\"}}言われたの！\n{{anim id=\"21\"}}アタイ　その{{ruby charSpan=\"1\" value=\"とお\"}}通りだな～と{{ruby charSpan=\"1\" value=\"おも\"}}思ってさ～、{{delay frames=\"20\"}}\n{{anim id=\"0\"}}アイドルとして　もっと{{ruby charSpan=\"2\" value=\"せいちょう\"}}成長するために{{delay frames=\"8\"}}\n{{anim id=\"33\"}}この{{ruby charSpan=\"1\" value=\"むら\"}}村を{{ruby charSpan=\"1\" value=\"で\"}}出る　{{ruby charSpan=\"2\" value=\"けっしん\"}}決心をしたってワケ！\n{{anim id=\"0\"}}お{{ruby charSpan=\"1\" value=\"わか\"}}別れするのは　さみしいけど、{{delay frames=\"16\"}}\n{{anim id=\"1\"}}{{fun_00080005 arg=\"\"}}{{fun_000D0005 arg=\"\"}}も{{delay frames=\"4\"}}\nアタイのこと　おうえんしてね！"
  },
  {
    "label": "028",
    "text": "{{anim id=\"16\"}}あっ、{{delay frames=\"4\"}}{{fun_00080005 arg=\"\"}}{{fun_000D0005 arg=\"\"}}！{{delay frames=\"20\"}}\n{{anim id=\"1\"}}いいところに　{{ruby charSpan=\"1\" value=\"き\"}}来てくれたじゃん！{{delay frames=\"8\"}}\n{{ruby charSpan=\"1\" value=\"き\"}}聞いて　{{ruby charSpan=\"1\" value=\"き\"}}聞いて～！\nトツゼンだけど　アタイ、{{delay frames=\"8\"}}{{ruby charSpan=\"2\" value=\"きょう\"}}今日で\nこの{{ruby charSpan=\"1\" value=\"むら\"}}村を　{{ruby charSpan=\"2\" value=\"そつぎょう\"}}卒業することにしたんだ！\n{{fun_00070005 arg=\"\"}}！{{delay frames=\"8\"}}\n{{anim id=\"39\"}}{{ruby charSpan=\"1\" value=\"むら\"}}村のみんなのことは　{{ruby charSpan=\"2\" value=\"だいす\"}}大好きだけど{{delay frames=\"8\"}}・{{delay frames=\"8\"}}・{{delay frames=\"8\"}}・{{delay frames=\"30\"}}\n{{anim id=\"1\"}}アイドルとして　もっと{{ruby charSpan=\"2\" value=\"せいちょう\"}}成長するために、{{delay frames=\"8\"}}\n{{ruby charSpan=\"1\" value=\"つぎ\"}}次のステージに　はばたくってワケ！\n{{anim id=\"0\"}}この{{ruby charSpan=\"1\" value=\"むら\"}}村だけじゃなく　{{ruby charSpan=\"2\" value=\"せかい\"}}世界で{{ruby charSpan=\"1\" value=\"あい\"}}愛される\n{{fun_00010005 arg=\"\"}}になれるよう　がんばるから、{{delay frames=\"16\"}}\n{{anim id=\"37\"}}アタイのこと　おうえんしていてね！"
  }
]