﻿[
  {
    "label": "001",
    "text": ""
  },
  {
    "label": "002",
    "text": "{{fun_00010009 arg=\"0x050006000C00\"}}"
  },
  {
    "label": "003",
    "text": "{{fun_0000000A arg=\"0x0209000A00CD\"}}"
  },
  {
    "label": "004",
    "text": ""
  },
  {
    "label": "005",
    "text": "{{ruby charSpan=\"2\" value=\"にかい\"}}二階の{{ruby charSpan=\"2\" value=\"てんいん\"}}店員さんと{{delay frames=\"10\"}}\n{{ruby charSpan=\"2\" value=\"いっかい\"}}一階の{{ruby charSpan=\"2\" value=\"てんいん\"}}店員さんが　{{delay frames=\"8\"}}{{anim id=\"23\"}}そっくり？{{pageBreak}}{{anim id=\"22\"}}そうそう、{{delay frames=\"20\"}}あのひと{{delay frames=\"10\"}}\nしゅんかん{{ruby charSpan=\"2\" value=\"いどう\"}}移動できるからね！{{anim id=\"0\"}}\n{{delay frames=\"8\"}}・{{delay frames=\"8\"}}・{{delay frames=\"8\"}}・{{delay frames=\"8\"}}って　{{delay frames=\"15\"}}{{anim id=\"2\"}}ジョーダンだよ～{{delay frames=\"30\"}}{{anim id=\"37\"}}"
  },
  {
    "label": "006",
    "text": "{{anim id=\"1\"}}{{ruby charSpan=\"1\" value=\"ほか\"}}他の{{ruby charSpan=\"1\" value=\"かい\"}}階も{{delay frames=\"10\"}}\n{{ruby charSpan=\"2\" value=\"いろいろ\"}}色々　そろってるみたいだから、{{delay frames=\"15\"}}\n{{anim id=\"0\"}}ゆっくり　お{{ruby charSpan=\"1\" value=\"か\"}}買い{{ruby charSpan=\"1\" value=\"もの\"}}物するといいよ！{{anim id=\"38\"}}"
  },
  {
    "label": "007",
    "text": "{{anim id=\"16\"}}{{ruby charSpan=\"1\" value=\"か\"}}買い{{ruby charSpan=\"1\" value=\"もの\"}}物するタイミングも　{{delay frames=\"5\"}}いっしょなんて{{delay frames=\"10\"}}\n{{anim id=\"37\"}}アタイ{{ruby charSpan=\"1\" value=\"たち\"}}達、{{delay frames=\"10\"}}{{anim id=\"5\"}}テレパシーあるんじゃない？！"
  },
  {
    "label": "008",
    "text": "{{anim id=\"1\"}}もう　{{ruby charSpan=\"1\" value=\"うえ\"}}上の{{ruby charSpan=\"1\" value=\"かい\"}}階は{{ruby charSpan=\"1\" value=\"み\"}}見た？{{delay frames=\"20\"}}\n{{anim id=\"3\"}}アタイも　{{delay frames=\"10\"}}たくさん{{ruby charSpan=\"1\" value=\"か\"}}買い{{ruby charSpan=\"1\" value=\"もの\"}}物するつもりだよ！{{delay frames=\"20\"}}\n{{fun_00070005 arg=\"\"}}！{{delay frames=\"20\"}}{{anim id=\"37\"}}"
  },
  {
    "label": "009",
    "text": "{{anim id=\"23\"}}お{{ruby charSpan=\"2\" value=\"めあ\"}}目当てのものは、{{delay frames=\"8\"}}{{ruby charSpan=\"1\" value=\"み\"}}見つかった？！{{pageBreak}}{{anim id=\"1\"}}アタイ、{{delay frames=\"10\"}}{{fun_00080005 arg=\"\"}}{{fun_000D0005 arg=\"\"}}と\nおそろいにしたいから{{delay frames=\"15\"}}\n{{ruby charSpan=\"1\" value=\"なに\"}}何を{{ruby charSpan=\"1\" value=\"か\"}}買ったか　{{delay frames=\"5\"}}{{anim id=\"35\"}}{{ruby charSpan=\"1\" value=\"おし\"}}教えてもらおっかな～"
  },
  {
    "label": "010",
    "text": "{{fun_00050005 arg=\"\"}}{{ruby charSpan=\"1\" value=\"むら\"}}村の　{{delay frames=\"8\"}}お{{ruby charSpan=\"1\" value=\"みせ\"}}店にまで{{ruby charSpan=\"1\" value=\"く\"}}来るなんて、{{delay frames=\"10\"}}\nもしかして　{{delay frames=\"15\"}}{{anim id=\"17\"}}お{{ruby charSpan=\"1\" value=\"か\"}}買い{{ruby charSpan=\"1\" value=\"もの\"}}物の{{ruby charSpan=\"2\" value=\"たつじん\"}}達人？！"
  },
  {
    "label": "011",
    "text": ""
  },
  {
    "label": "012",
    "text": "{{fun_0000000A arg=\"0x0207000800CD\"}}"
  }
]