﻿[
  {
    "label": "001",
    "text": "{{i10_11 arg=\"0x1011000F00CD\"}}"
  },
  {
    "label": "002",
    "text": "{{i10_11 arg=\"0x1011001000CD\"}}"
  },
  {
    "label": "003",
    "text": "{{i10_11 arg=\"0x1014001200CD\"}}"
  },
  {
    "label": "004",
    "text": "{{i10_11 arg=\"0x1014001300CD\"}}"
  },
  {
    "label": "005",
    "text": "{{i10_11 arg=\"0x1017001500CD\"}}"
  },
  {
    "label": "006",
    "text": "{{i10_11 arg=\"0x1017001600CD\"}}"
  },
  {
    "label": "007",
    "text": "{{i10_11 arg=\"0x101A001800CD\"}}"
  },
  {
    "label": "008",
    "text": "{{i10_11 arg=\"0x101A001900CD\"}}"
  },
  {
    "label": "009",
    "text": "{{i10_11 arg=\"0x100D000C00CD\"}}"
  },
  {
    "label": "010",
    "text": "{{i10_11 arg=\"0x100D000C00CD\"}}"
  },
  {
    "label": "011",
    "text": ""
  },
  {
    "label": "012",
    "text": "{{fun_00000009 arg=\"0x1B001C00\"}}"
  },
  {
    "label": "013",
    "text": "{{fun_00000009 arg=\"0x1D001E00\"}}"
  },
  {
    "label": "014",
    "text": ""
  },
  {
    "label": "015",
    "text": "{{anim id=\"16\"}}{{fun_000A0007 arg=\"\"}}おー！{{delay frames=\"8\"}}　{{fun_00000005 arg=\"\"}}？！{{delay frames=\"20\"}}\n{{ruby charSpan=\"1\" value=\"あさ\"}}朝から　{{ruby charSpan=\"1\" value=\"あそ\"}}遊びに{{ruby charSpan=\"1\" value=\"き\"}}来たのかー{{delay frames=\"20\"}}\nやるなー！{{pageBreak}}{{anim id=\"1\"}}せっかく　{{ruby charSpan=\"1\" value=\"き\"}}来たんだから、{{delay frames=\"20\"}}\nゆっくり　{{ruby charSpan=\"1\" value=\"あそ\"}}遊んでけよ、{{delay frames=\"8\"}}{{fun_00070005 arg=\"\"}}"
  },
  {
    "label": "016",
    "text": "{{anim id=\"32\"}}{{fun_00060007 arg=\"\"}}よぉ！{{fun_00070007 arg=\"\"}}{{delay frames=\"20\"}}\n{{ruby charSpan=\"1\" value=\"あめ\"}}雨なのに　{{fun_00050005 arg=\"\"}}{{ruby charSpan=\"1\" value=\"むら\"}}村まで　{{ruby charSpan=\"1\" value=\"く\"}}来るなんて{{delay frames=\"20\"}}\n{{anim id=\"38\"}}オマエ　ガッツあるな、{{delay frames=\"8\"}}{{fun_00070005 arg=\"\"}}！"
  },
  {
    "label": "017",
    "text": "{{anim id=\"1\"}}おはよー！{{delay frames=\"8\"}}　{{fun_00000005 arg=\"\"}}！{{delay frames=\"40\"}}\n{{anim id=\"5\"}}{{ruby charSpan=\"2\" value=\"きょう\"}}今日の　{{fun_00050005 arg=\"\"}}{{ruby charSpan=\"1\" value=\"むら\"}}村は　{{ruby charSpan=\"1\" value=\"あさ\"}}朝から{{ruby charSpan=\"1\" value=\"あめ\"}}雨！{{delay frames=\"20\"}}\nオイラ　{{ruby charSpan=\"2\" value=\"ちょうし\"}}調子あがっちゃうな、{{delay frames=\"8\"}}{{fun_00070005 arg=\"\"}}"
  },
  {
    "label": "018",
    "text": "{{anim id=\"15\"}}おー{{delay frames=\"8\"}}　{{fun_00000005 arg=\"\"}}！{{delay frames=\"20\"}}\nこんにちはー！{{pageBreak}}{{anim id=\"9\"}}{{ruby charSpan=\"2\" value=\"きょう\"}}今日は{{ruby charSpan=\"1\" value=\"み\"}}見ての{{ruby charSpan=\"1\" value=\"とお\"}}通り\n{{fun_00050005 arg=\"\"}}{{ruby charSpan=\"1\" value=\"むら\"}}村は　{{ruby charSpan=\"1\" value=\"あめ\"}}雨なんだー{{delay frames=\"40\"}}\nついてないな、{{delay frames=\"8\"}}{{fun_00070005 arg=\"\"}}"
  },
  {
    "label": "019",
    "text": "{{anim id=\"32\"}}オーッス！{{delay frames=\"8\"}}　{{fun_00000005 arg=\"\"}}！{{delay frames=\"40\"}}\n{{anim id=\"9\"}}{{ruby charSpan=\"2\" value=\"ひるま\"}}昼間なのに　{{ruby charSpan=\"1\" value=\"くら\"}}暗くてたまんないぞー{{delay frames=\"40\"}}\n{{anim id=\"13\"}}{{ruby charSpan=\"1\" value=\"あめ\"}}雨ー！{{delay frames=\"20\"}}　{{ruby charSpan=\"1\" value=\"はや\"}}早くあがってくれ、{{delay frames=\"8\"}}{{fun_00070005 arg=\"\"}}"
  },
  {
    "label": "020",
    "text": "{{anim id=\"15\"}}{{fun_000A0007 arg=\"\"}}ナニッ？！{{delay frames=\"8\"}}　{{fun_00000005 arg=\"\"}}？！{{delay frames=\"40\"}}\n{{anim id=\"11\"}}{{ruby charSpan=\"1\" value=\"あめ\"}}雨の{{ruby charSpan=\"1\" value=\"ひ\"}}日に　おでかけなんて{{delay frames=\"20\"}}\nオマエ{{delay frames=\"8\"}}・{{delay frames=\"8\"}}・{{delay frames=\"8\"}}・{{delay frames=\"20\"}}　{{anim id=\"35\"}}わかってるな、{{delay frames=\"8\"}}{{fun_00070005 arg=\"\"}}"
  },
  {
    "label": "021",
    "text": "{{anim id=\"1\"}}おー！{{delay frames=\"8\"}}　{{fun_00000005 arg=\"\"}}！{{delay frames=\"40\"}}\n{{anim id=\"0\"}}こんな{{ruby charSpan=\"1\" value=\"あめ\"}}雨の{{ruby charSpan=\"1\" value=\"ひ\"}}日の{{ruby charSpan=\"1\" value=\"よる\"}}夜に{{delay frames=\"20\"}}　こっちの{{ruby charSpan=\"1\" value=\"むら\"}}村まで\nランニングしに　{{ruby charSpan=\"1\" value=\"く\"}}来るなんて、{{pageBreak}}{{anim id=\"38\"}}まったく{{delay frames=\"20\"}}\nオマエの　{{ruby charSpan=\"3\" value=\"こうじょうしん\"}}向上心は\n{{ruby charSpan=\"1\" value=\"そこ\"}}底なしだな、{{delay frames=\"8\"}}{{fun_00070005 arg=\"\"}}"
  },
  {
    "label": "022",
    "text": "{{anim id=\"15\"}}{{fun_000A0007 arg=\"\"}}ナニッ？！{{delay frames=\"20\"}}　{{fun_00000005 arg=\"\"}}！{{delay frames=\"40\"}}\n{{anim id=\"9\"}}こんな{{ruby charSpan=\"2\" value=\"じかん\"}}時間に　{{ruby charSpan=\"1\" value=\"あそ\"}}遊びに{{ruby charSpan=\"1\" value=\"き\"}}来たのに{{delay frames=\"8\"}}\n{{ruby charSpan=\"1\" value=\"あめ\"}}雨がふってて　{{ruby charSpan=\"2\" value=\"ざんねん\"}}残念だな、{{delay frames=\"8\"}}{{fun_00070005 arg=\"\"}}"
  },
  {
    "label": "023",
    "text": "こんばんは！{{delay frames=\"8\"}}　{{fun_00000005 arg=\"\"}}！{{delay frames=\"40\"}}\n{{anim id=\"38\"}}{{ruby charSpan=\"1\" value=\"あめ\"}}雨の{{ruby charSpan=\"1\" value=\"よる\"}}夜に　{{ruby charSpan=\"1\" value=\"あそ\"}}遊びに{{ruby charSpan=\"1\" value=\"く\"}}来るなんて、{{delay frames=\"20\"}}\nオマエ　イケてるぞ、{{delay frames=\"8\"}}{{fun_00070005 arg=\"\"}}"
  },
  {
    "label": "024",
    "text": "{{anim id=\"32\"}}よぉ！{{delay frames=\"8\"}}　{{fun_00000005 arg=\"\"}}！{{delay frames=\"40\"}}\n{{ruby charSpan=\"1\" value=\"あめ\"}}雨だからって　{{ruby charSpan=\"2\" value=\"きも\"}}気持ちがしずんでないか？{{pageBreak}}{{anim id=\"2\"}}オイラは　{{ruby charSpan=\"2\" value=\"げんき\"}}元気すぎて\n{{ruby charSpan=\"2\" value=\"あつくる\"}}暑苦しいって　{{ruby charSpan=\"1\" value=\"い\"}}言われてるよ！{{delay frames=\"20\"}}\nハハッ！　{{delay frames=\"8\"}}{{fun_00070005 arg=\"\"}}！{{delay frames=\"40\"}}{{anim id=\"1\"}}"
  },
  {
    "label": "025",
    "text": "{{anim id=\"11\"}}{{ruby charSpan=\"1\" value=\"あめ\"}}雨の{{ruby charSpan=\"2\" value=\"しんや\"}}深夜に　{{fun_00050005 arg=\"\"}}{{ruby charSpan=\"1\" value=\"むら\"}}村にいる\n{{fun_00000005 arg=\"\"}}{{delay frames=\"8\"}}・{{delay frames=\"8\"}}・{{delay frames=\"8\"}}・{{pageBreak}}{{anim id=\"22\"}}{{fun_000A0007 arg=\"\"}}なるほど！{{delay frames=\"40\"}}\nワケありってヤツか、{{delay frames=\"8\"}}{{fun_00070005 arg=\"\"}}"
  },
  {
    "label": "026",
    "text": "{{anim id=\"32\"}}オーッス！{{delay frames=\"8\"}}　{{fun_00000005 arg=\"\"}}！{{delay frames=\"40\"}}\n{{anim id=\"1\"}}さては　オマエも　{{ruby charSpan=\"1\" value=\"あめ\"}}雨がうれしくて\n{{ruby charSpan=\"2\" value=\"さんぽ\"}}散歩しに　{{ruby charSpan=\"1\" value=\"き\"}}来たんだな？　{{delay frames=\"8\"}}{{fun_00070005 arg=\"\"}}？"
  },
  {
    "label": "027",
    "text": "{{anim id=\"32\"}}{{fun_00060007 arg=\"\"}}オーッス！{{delay frames=\"8\"}}　{{fun_00000005 arg=\"\"}}！{{fun_00070007 arg=\"\"}}{{delay frames=\"40\"}}\n{{ruby charSpan=\"1\" value=\"あめ\"}}雨なのに　ごきげんそうだな、{{delay frames=\"8\"}}{{fun_00070005 arg=\"\"}}！"
  },
  {
    "label": "028",
    "text": "{{anim id=\"15\"}}{{fun_000A0007 arg=\"\"}}ナニッ？！{{delay frames=\"20\"}}　{{fun_00000005 arg=\"\"}}？！{{delay frames=\"40\"}}\n{{ruby charSpan=\"1\" value=\"あめ\"}}雨ん{{ruby charSpan=\"1\" value=\"なか\"}}中　わざわざ{{ruby charSpan=\"1\" value=\"く\"}}来るなんて{{delay frames=\"20\"}}\nオマエって　ガッツあるんだな、{{delay frames=\"8\"}}{{fun_00070005 arg=\"\"}}"
  },
  {
    "label": "029",
    "text": "{{anim id=\"32\"}}{{fun_00060007 arg=\"\"}}よぉ！{{delay frames=\"8\"}}　{{fun_00000005 arg=\"\"}}！{{fun_00070007 arg=\"\"}}{{delay frames=\"20\"}}\n{{ruby charSpan=\"2\" value=\"げんき\"}}元気かー？{{pageBreak}}{{anim id=\"3\"}}{{ruby charSpan=\"1\" value=\"あめ\"}}雨の{{ruby charSpan=\"1\" value=\"ひ\"}}日は　オイラにとって、{{delay frames=\"20\"}}\nお{{ruby charSpan=\"1\" value=\"まつ\"}}祭りより　{{ruby charSpan=\"2\" value=\"はなび\"}}花火より\nうれしい{{ruby charSpan=\"1\" value=\"ひ\"}}日なんだぞ、{{delay frames=\"8\"}}{{fun_00070005 arg=\"\"}}"
  },
  {
    "label": "030",
    "text": "{{anim id=\"32\"}}おー！　{{fun_00000005 arg=\"\"}}じゃん！{{delay frames=\"40\"}}\n{{ruby charSpan=\"1\" value=\"あめ\"}}雨の　{{fun_00050005 arg=\"\"}}{{ruby charSpan=\"1\" value=\"むら\"}}村は　サイコーだろ？{{delay frames=\"20\"}}\nオマエ　いいときに　{{ruby charSpan=\"1\" value=\"き\"}}来たぞ、{{delay frames=\"8\"}}{{fun_00070005 arg=\"\"}}"
  }
]