﻿[
  {
    "label": "001",
    "text": "{{anim id=\"1\"}}{{ruby charSpan=\"1\" value=\"すい\"}}水そう　のぞいてみたかー？{{delay frames=\"40\"}}\n{{fun_00030011 arg=\"0x0000\"}}、{{delay frames=\"8\"}}\nカッコイイだろ！{{pageBreak}}{{anim id=\"6\"}}そいつを　めちゃくちゃデッカクして、{{delay frames=\"20\"}}\nふるさとに{{ruby charSpan=\"1\" value=\"かえ\"}}返してやろうと\n{{ruby charSpan=\"1\" value=\"おも\"}}思ってるんだー！{{pageBreak}}{{anim id=\"26\"}}へへっ！{{delay frames=\"20\"}}\nそれって{{delay frames=\"8\"}}　オイラが\n{{ruby charSpan=\"1\" value=\"そだ\"}}育ての{{ruby charSpan=\"1\" value=\"おや\"}}親ってことになるのかな！"
  },
  {
    "label": "002",
    "text": "{{anim id=\"23\"}}{{fun_00030011 arg=\"0x0000\"}}、\nどう{{ruby charSpan=\"1\" value=\"おも\"}}思うー？{{pageBreak}}{{anim id=\"6\"}}{{ruby charSpan=\"1\" value=\"せん\"}}線の{{delay frames=\"20\"}}{{fun_000B0007 arg=\"\"}}シュッ！{{delay frames=\"8\"}}　{{fun_000B0007 arg=\"\"}}ズバー！　{{delay frames=\"8\"}}って{{ruby charSpan=\"1\" value=\"うご\"}}動き、{{delay frames=\"40\"}}\n{{anim id=\"21\"}}スポーツに　{{ruby charSpan=\"1\" value=\"つう\"}}通じるところが\nあると{{ruby charSpan=\"1\" value=\"おも\"}}思うんだよな、{{delay frames=\"8\"}}{{fun_00070005 arg=\"\"}}"
  },
  {
    "label": "003",
    "text": "{{anim id=\"9\"}}{{ruby charSpan=\"2\" value=\"しょくぶつ\"}}植物は　グングン　せがのびて、{{delay frames=\"20\"}}\nうらやましいぞー{{delay frames=\"8\"}}・{{delay frames=\"8\"}}・{{delay frames=\"8\"}}・{{pageBreak}}{{anim id=\"6\"}}オイラも　せをのばして、{{delay frames=\"20\"}}\n{{ruby charSpan=\"1\" value=\"いろ\"}}色んな　スポーツで\nかつやく　してやるんだ、{{delay frames=\"8\"}}{{fun_00070005 arg=\"\"}}"
  },
  {
    "label": "004",
    "text": "この{{ruby charSpan=\"1\" value=\"きょく\"}}曲{{delay frames=\"8\"}}・{{delay frames=\"8\"}}・{{delay frames=\"8\"}}・{{delay frames=\"20\"}}\n{{anim id=\"5\"}}{{fun_00030011 arg=\"0x0100\"}}をきくと、{{delay frames=\"20\"}}\n{{ruby charSpan=\"2\" value=\"きも\"}}気持ちが　たかぶるんだー！{{pageBreak}}{{anim id=\"33\"}}オイラの　テーマソング{{delay frames=\"20\"}}\nってヤツかな？　{{delay frames=\"8\"}}{{fun_00070005 arg=\"\"}}"
  },
  {
    "label": "005",
    "text": "{{anim id=\"1\"}}オイラん{{ruby charSpan=\"1\" value=\"ち\"}}家の\n{{fun_00030011 arg=\"0x0000\"}}で{{pageBreak}}いっしょに　{{fun_00110005 arg=\"0x0000\"}}の{{ruby charSpan=\"2\" value=\"しあい\"}}試合でも{{delay frames=\"8\"}}\nおうえん　しないかー？！{{pageBreak}}{{anim id=\"2\"}}ハハッ！{{delay frames=\"20\"}}\nみんなで{{ruby charSpan=\"1\" value=\"み\"}}見ると\nもりあがるぞー！{{delay frames=\"40\"}}{{anim id=\"37\"}}"
  },
  {
    "label": "006",
    "text": "{{fun_00030011 arg=\"0x0000\"}}、{{delay frames=\"20\"}}\nえんそうできたら　カッコイイと{{ruby charSpan=\"1\" value=\"おも\"}}思って\n{{ruby charSpan=\"1\" value=\"て\"}}手に{{ruby charSpan=\"1\" value=\"い\"}}入れたけど、{{pageBreak}}{{anim id=\"9\"}}まさか{{delay frames=\"20\"}}　あんなに\n{{ruby charSpan=\"2\" value=\"れんしゅう\"}}練習が　{{ruby charSpan=\"2\" value=\"ひつよう\"}}必要だったなんてなー{{pageBreak}}{{anim id=\"2\"}}まあ{{delay frames=\"20\"}}　すぐに\nプロ{{ruby charSpan=\"1\" value=\"きゅう\"}}級にうまく　なってやるよ！{{delay frames=\"40\"}}{{anim id=\"37\"}}"
  },
  {
    "label": "007",
    "text": "{{anim id=\"33\"}}オイラの　マッスルボディーを\nたもつには、{{delay frames=\"20\"}}\nやっぱり　{{ruby charSpan=\"2\" value=\"しょくじ\"}}食事は{{ruby charSpan=\"1\" value=\"か\"}}欠かせない！{{pageBreak}}{{anim id=\"21\"}}そのために{{delay frames=\"20\"}}\n{{fun_00030011 arg=\"0x0000\"}}が\nあるんだぞー{{pageBreak}}{{anim id=\"5\"}}キンニクが　ピクピクいうような、{{delay frames=\"20\"}}\nシゲキ{{ruby charSpan=\"1\" value=\"てき\"}}的な　メニューを{{ruby charSpan=\"1\" value=\"つく\"}}作れる\n{{ruby charSpan=\"2\" value=\"りょうり\"}}料理{{ruby charSpan=\"1\" value=\"にん\"}}人を　ぼしゅう{{ruby charSpan=\"1\" value=\"ちゅう\"}}中だー！"
  },
  {
    "label": "008",
    "text": "{{anim id=\"21\"}}オイラ{{delay frames=\"20\"}}　{{fun_00030011 arg=\"0x0000\"}}で\nねてるんだけどさ、{{pageBreak}}{{anim id=\"27\"}}なぜか　{{ruby charSpan=\"1\" value=\"あさ\"}}朝になると\nゆかにいるんだよ、{{delay frames=\"8\"}}{{fun_00070005 arg=\"\"}}"
  },
  {
    "label": "009",
    "text": "{{anim id=\"1\"}}{{ruby charSpan=\"1\" value=\"ひろ\"}}広いベッドでねると、{{delay frames=\"20\"}}\nつかれが　{{ruby charSpan=\"1\" value=\"と\"}}取れて{{delay frames=\"8\"}}\nスカーッ！{{delay frames=\"8\"}}　っとするぞ！{{pageBreak}}{{anim id=\"21\"}}オイラは　{{fun_00030011 arg=\"0x0000\"}}で\nねてるから、{{delay frames=\"20\"}}\n{{anim id=\"38\"}}いっつも　つかれ{{ruby charSpan=\"1\" value=\"し\"}}知らずだー！"
  },
  {
    "label": "010",
    "text": "{{anim id=\"1\"}}{{fun_00030011 arg=\"0x0000\"}}にすわると、{{delay frames=\"20\"}}\n{{ruby charSpan=\"2\" value=\"しゃちょう\"}}社長になった\n{{ruby charSpan=\"2\" value=\"きぶん\"}}気分になれるぞ？！{{pageBreak}}{{anim id=\"44\"}}{{fun_00010005 arg=\"\"}}カンパニーは、{{delay frames=\"20\"}}\nキントレをしまくる　{{ruby charSpan=\"2\" value=\"かいしゃ\"}}会社だっ！{{delay frames=\"60\"}}\n{{delay frames=\"8\"}}・{{delay frames=\"8\"}}・{{delay frames=\"8\"}}・{{delay frames=\"20\"}}まだないけど"
  },
  {
    "label": "011",
    "text": "{{anim id=\"11\"}}{{fun_00030011 arg=\"0x0000\"}}、{{delay frames=\"20\"}}\nがんばったら　{{ruby charSpan=\"2\" value=\"よにん\"}}四人くらい\nすわれないかなー{{delay frames=\"8\"}}・{{delay frames=\"8\"}}・{{delay frames=\"8\"}}・{{pageBreak}}{{anim id=\"4\"}}ギュウギュウに　おしこまれる{{ruby charSpan=\"1\" value=\"かん\"}}感じが{{delay frames=\"20\"}}\nクセになりそうだー、{{delay frames=\"8\"}}{{fun_00070005 arg=\"\"}}"
  },
  {
    "label": "012",
    "text": "{{anim id=\"1\"}}へへっ！{{delay frames=\"20\"}}\n{{fun_00030011 arg=\"0x0000\"}}って{{delay frames=\"20\"}}\nすわり{{ruby charSpan=\"2\" value=\"ごこち\"}}心地　いいんだぞー？{{pageBreak}}{{anim id=\"21\"}}やっぱりイスは{{delay frames=\"20\"}}\n{{anim id=\"1\"}}{{ruby charSpan=\"1\" value=\"み\"}}見た{{ruby charSpan=\"1\" value=\"め\"}}目よりも{{delay frames=\"8\"}}　すわり{{ruby charSpan=\"2\" value=\"ごこち\"}}心地だよな！\n{{delay frames=\"8\"}}{{fun_00070005 arg=\"\"}}！"
  },
  {
    "label": "013",
    "text": "{{fun_00030011 arg=\"0x0000\"}}をかってる\nなんて{{ruby charSpan=\"1\" value=\"い\"}}言うと、{{delay frames=\"20\"}}\n{{anim id=\"9\"}}{{ruby charSpan=\"1\" value=\"へん\"}}変な{{ruby charSpan=\"1\" value=\"かお\"}}顔で　{{ruby charSpan=\"1\" value=\"み\"}}見てくるやつもいるけど{{pageBreak}}{{anim id=\"13\"}}オマエは　わかってくれるよな？{{delay frames=\"40\"}}\n{{fun_00030011 arg=\"0x0000\"}}って\nカッコイイだろー？！"
  },
  {
    "label": "014",
    "text": "{{anim id=\"1\"}}{{fun_00030011 arg=\"0x0000\"}}、{{delay frames=\"20\"}}\nべんりそうだろー{{pageBreak}}オマエん{{ruby charSpan=\"1\" value=\"ち\"}}家も　それで{{delay frames=\"8\"}}\nせいりせいとん\nしたらどうだー？　{{delay frames=\"8\"}}{{fun_00070005 arg=\"\"}}？"
  },
  {
    "label": "015",
    "text": "{{anim id=\"35\"}}{{fun_00030011 arg=\"0x0000\"}}で、{{delay frames=\"20\"}}\nオシャレに　コーヒーでも\n{{ruby charSpan=\"1\" value=\"い\"}}入れてやろうかー？{{pageBreak}}{{delay frames=\"8\"}}・{{delay frames=\"8\"}}・{{delay frames=\"8\"}}・{{delay frames=\"20\"}}{{anim id=\"2\"}}なんてな！{{delay frames=\"40\"}}\n{{ruby charSpan=\"1\" value=\"いま\"}}今は　{{ruby charSpan=\"2\" value=\"むぎちゃ\"}}麦茶が\n{{ruby charSpan=\"1\" value=\"はい\"}}入ってるんだ、{{delay frames=\"8\"}}{{fun_00070005 arg=\"\"}}{{delay frames=\"40\"}}{{anim id=\"37\"}}"
  },
  {
    "label": "016",
    "text": "{{anim id=\"1\"}}{{fun_00030011 arg=\"0x0000\"}}！{{delay frames=\"20\"}}\nいいだろー？！{{pageBreak}}{{ruby charSpan=\"1\" value=\"いろ\"}}色んな　はにわを　ほってきた{{ruby charSpan=\"1\" value=\"なか\"}}中での{{delay frames=\"20\"}}\nお{{ruby charSpan=\"1\" value=\"き\"}}気に{{ruby charSpan=\"1\" value=\"い\"}}入りなんだ、{{delay frames=\"8\"}}{{fun_00070005 arg=\"\"}}{{pageBreak}}{{anim id=\"25\"}}あの{{ruby charSpan=\"2\" value=\"ねいろ\"}}音色{{delay frames=\"8\"}}・{{delay frames=\"8\"}}・{{delay frames=\"8\"}}・{{delay frames=\"20\"}}\nナゾの{{ruby charSpan=\"2\" value=\"せかい\"}}世界に　すいこまれそうだー"
  },
  {
    "label": "017",
    "text": "{{anim id=\"1\"}}{{fun_00030011 arg=\"0x0000\"}}は、{{delay frames=\"20\"}}\nいわゆる　{{ruby charSpan=\"2\" value=\"しょうぶ\"}}勝負{{ruby charSpan=\"1\" value=\"ふく\"}}服なんだ！{{pageBreak}}{{anim id=\"11\"}}{{ruby charSpan=\"1\" value=\"まえ\"}}前に　{{ruby charSpan=\"1\" value=\"き\"}}着たのは、{{delay frames=\"20\"}}\n{{fun_00110005 arg=\"0x0000\"}}の{{ruby charSpan=\"2\" value=\"ぜんこく\"}}全国{{ruby charSpan=\"2\" value=\"たいかい\"}}大会のとき\nだったかなー？{{pageBreak}}{{anim id=\"5\"}}すっぱいニオイをかぐと、{{delay frames=\"20\"}}\nあのときの　{{ruby charSpan=\"1\" value=\"おも\"}}思い{{ruby charSpan=\"1\" value=\"で\"}}出がよみがえるよー"
  },
  {
    "label": "018",
    "text": "{{anim id=\"6\"}}{{fun_00030011 arg=\"0x0000\"}}で、{{delay frames=\"20\"}}\n{{ruby charSpan=\"2\" value=\"しょうぶ\"}}勝負してみるかー？{{pageBreak}}{{anim id=\"41\"}}でも{{delay frames=\"8\"}}　オイラは{{ruby charSpan=\"4\" value=\"まいにちれんしゅう\"}}毎日練習してるし、{{delay frames=\"20\"}}\n{{ruby charSpan=\"2\" value=\"しょうぶ\"}}勝負にならないよなー{{pageBreak}}{{anim id=\"1\"}}オマエも　これからは、{{delay frames=\"20\"}}\nオイラん{{ruby charSpan=\"1\" value=\"ち\"}}家に{{ruby charSpan=\"1\" value=\"かよ\"}}通って\n{{ruby charSpan=\"2\" value=\"れんしゅう\"}}練習するんだな！　{{delay frames=\"8\"}}{{fun_00070005 arg=\"\"}}！"
  },
  {
    "label": "019",
    "text": "{{anim id=\"1\"}}{{fun_00030011 arg=\"0x0000\"}}、{{delay frames=\"20\"}}\nいいだろー？{{pageBreak}}{{anim id=\"0\"}}って、{{delay frames=\"20\"}}{{anim id=\"40\"}}かんちがいするなよ\n{{fun_00080005 arg=\"\"}}！{{delay frames=\"40\"}}\n{{anim id=\"33\"}}コレは{{delay frames=\"20\"}}　キンニクチェック{{ruby charSpan=\"1\" value=\"よう\"}}用だー！"
  },
  {
    "label": "020",
    "text": "{{anim id=\"1\"}}オイラん{{ruby charSpan=\"1\" value=\"ち\"}}家の{{ruby charSpan=\"1\" value=\"ほん\"}}本だな、{{delay frames=\"20\"}}\n{{ruby charSpan=\"1\" value=\"よ\"}}良かったら　{{ruby charSpan=\"1\" value=\"み\"}}見てくれよー！{{pageBreak}}{{anim id=\"21\"}}オイラ　{{delay frames=\"20\"}}{{ruby charSpan=\"2\" value=\"こんじょう\"}}根性や{{ruby charSpan=\"2\" value=\"じょうねつ\"}}情熱は{{delay frames=\"8\"}}\nそこにある　マンガから\n{{ruby charSpan=\"1\" value=\"まな\"}}学んだんだ、{{delay frames=\"8\"}}{{fun_00070005 arg=\"\"}}"
  },
  {
    "label": "021",
    "text": "{{fun_00040009 arg=\"0x380039003A003B003C003D00\"}}"
  },
  {
    "label": "022",
    "text": "{{anim id=\"11\"}}{{fun_00030011 arg=\"0x0000\"}}を{{ruby charSpan=\"1\" value=\"み\"}}見てると、{{delay frames=\"20\"}}\nこいつらが　{{ruby charSpan=\"1\" value=\"い\"}}生きてた{{ruby charSpan=\"2\" value=\"じだい\"}}時代のことを\n{{ruby charSpan=\"1\" value=\"かんが\"}}考えちゃうよな、{{delay frames=\"8\"}}{{fun_00070005 arg=\"\"}}{{pageBreak}}{{anim id=\"4\"}}でかくて{{delay frames=\"8\"}}　{{ruby charSpan=\"1\" value=\"つよ\"}}強くて{{delay frames=\"8\"}}　カッコイイ{{delay frames=\"20\"}}\nきょうりゅうたちが　いる{{ruby charSpan=\"2\" value=\"じだい\"}}時代{{delay frames=\"8\"}}・{{delay frames=\"8\"}}・{{delay frames=\"8\"}}・{{delay frames=\"8\"}}！{{pageBreak}}{{anim id=\"6\"}}オイラも　きょうりゅうに\nなりたいなー！{{delay frames=\"40\"}}\n{{anim id=\"8\"}}{{fun_000B0007 arg=\"\"}}ギャーーース！"
  },
  {
    "label": "023",
    "text": "{{fun_00030011 arg=\"0x0000\"}}で{{delay frames=\"20\"}}\nお{{ruby charSpan=\"1\" value=\"ちゃ\"}}茶でも　{{ruby charSpan=\"1\" value=\"だ\"}}出してやろうと\n{{ruby charSpan=\"1\" value=\"おも\"}}思ったんだけど、{{pageBreak}}{{anim id=\"41\"}}{{ruby charSpan=\"1\" value=\"わる\"}}悪いっ！{{delay frames=\"40\"}}\nめちゃくちゃ　ニガイ\nお{{ruby charSpan=\"1\" value=\"ちゃ\"}}茶しかないんだ！{{pageBreak}}{{anim id=\"36\"}}バツゲームみたいになるから\nやめておこうな、{{delay frames=\"8\"}}{{fun_00070005 arg=\"\"}}"
  },
  {
    "label": "024",
    "text": "{{fun_00030011 arg=\"0x0000\"}}は、{{delay frames=\"20\"}}\nすわると　おしりが\nひんやりするぞー？{{pageBreak}}{{anim id=\"3\"}}あのゾクゾクする{{ruby charSpan=\"1\" value=\"かん\"}}感じ\nオイラ　{{ruby charSpan=\"1\" value=\"す\"}}好きなんだよな、{{delay frames=\"8\"}}{{fun_00070005 arg=\"\"}}"
  },
  {
    "label": "025",
    "text": "{{anim id=\"23\"}}オマエ、{{delay frames=\"20\"}}パソコンってとくい？{{pageBreak}}{{anim id=\"11\"}}オイラん{{ruby charSpan=\"1\" value=\"ち\"}}家にも\nいちおう　あるんだけどさー{{delay frames=\"40\"}}\nほとんど　{{ruby charSpan=\"1\" value=\"つか\"}}使ってないんだよな{{delay frames=\"8\"}}・{{delay frames=\"8\"}}・{{delay frames=\"8\"}}・{{pageBreak}}{{anim id=\"1\"}}{{ruby charSpan=\"2\" value=\"こんど\"}}今度　でんげんのつけ{{ruby charSpan=\"1\" value=\"かた\"}}方でも\n{{ruby charSpan=\"1\" value=\"おし\"}}教えてくれよ！　{{delay frames=\"8\"}}{{fun_00070005 arg=\"\"}}！"
  },
  {
    "label": "026",
    "text": "{{anim id=\"1\"}}{{fun_00030011 arg=\"0x0000\"}}　いいだろー？{{delay frames=\"40\"}}\n{{ruby charSpan=\"1\" value=\"いえ\"}}家の{{ruby charSpan=\"1\" value=\"まえ\"}}前で　{{ruby charSpan=\"1\" value=\"そだ\"}}育てた{{ruby charSpan=\"1\" value=\"はな\"}}花を\nかざってみたんだ！　{{delay frames=\"8\"}}{{fun_00070005 arg=\"\"}}！"
  },
  {
    "label": "027",
    "text": "{{anim id=\"1\"}}{{fun_00030011 arg=\"0x0000\"}}の{{ruby charSpan=\"1\" value=\"なか\"}}中には{{delay frames=\"20\"}}\nオイラの　エネルギーのみなもとが\n{{ruby charSpan=\"1\" value=\"はい\"}}入ってるんだー！{{pageBreak}}{{anim id=\"23\"}}それが　なんだか{{ruby charSpan=\"1\" value=\"し\"}}知りたいかー？{{fun_00010007 arg=\"\"}}\n{{delay frames=\"8\"}}・{{delay frames=\"8\"}}・{{delay frames=\"8\"}}・{{delay frames=\"40\"}}{{anim id=\"35\"}}{{ruby charSpan=\"1\" value=\"わる\"}}悪いな！{{delay frames=\"20\"}}　きぎょうヒミツだ！"
  },
  {
    "label": "028",
    "text": "{{fun_00030011 arg=\"0x0000\"}}、{{delay frames=\"20\"}}\nお{{ruby charSpan=\"1\" value=\"きゃく\"}}客さんの　オマエに\n{{ruby charSpan=\"1\" value=\"た\"}}食べてもらおうと{{ruby charSpan=\"1\" value=\"おも\"}}思ってたんだけど{{delay frames=\"8\"}}・{{delay frames=\"8\"}}・{{delay frames=\"8\"}}・{{pageBreak}}{{anim id=\"9\"}}あれは　{{ruby charSpan=\"2\" value=\"しょうみ\"}}賞味きげんが　あやしいから、{{delay frames=\"20\"}}\nやめといた{{ruby charSpan=\"1\" value=\"ほう\"}}方が　いいぞー？"
  },
  {
    "label": "029",
    "text": "うちの　{{fun_00030011 arg=\"0x0000\"}}、{{delay frames=\"20\"}}\n{{anim id=\"23\"}}{{ruby charSpan=\"1\" value=\"つか\"}}使ってみたか？{{pageBreak}}{{anim id=\"1\"}}アレ　おかしくってさー{{delay frames=\"40\"}}\nいっつも　プラス10キロされた{{ruby charSpan=\"2\" value=\"たいじゅう\"}}体重が\n{{ruby charSpan=\"1\" value=\"で\"}}出るんだよな、{{delay frames=\"8\"}}{{fun_00070005 arg=\"\"}}{{pageBreak}}{{anim id=\"2\"}}ハハッ！{{delay frames=\"20\"}}\nあせらせて　ゴメンな！{{delay frames=\"40\"}}{{anim id=\"37\"}}"
  },
  {
    "label": "030",
    "text": "{{anim id=\"6\"}}{{fun_00030011 arg=\"0x0000\"}}って、{{delay frames=\"20\"}}\nけっこう　ボタンを{{ruby charSpan=\"2\" value=\"れんだ\"}}連打したりするから\n{{ruby charSpan=\"2\" value=\"たいりょく\"}}体力　{{ruby charSpan=\"1\" value=\"つか\"}}使うんだぞー？{{pageBreak}}{{anim id=\"33\"}}ゲームだって{{delay frames=\"8\"}}　{{ruby charSpan=\"1\" value=\"なん\"}}何だって{{delay frames=\"20\"}}\nやっぱり　キンニクは\nキホンなんだよ、{{delay frames=\"8\"}}{{fun_00070005 arg=\"\"}}"
  },
  {
    "label": "031",
    "text": "{{anim id=\"18\"}}{{fun_000B0007 arg=\"\"}}か、{{delay frames=\"20\"}}かんちがい　するなよっ？！{{delay frames=\"40\"}}\n{{anim id=\"13\"}}{{fun_00030011 arg=\"0x0000\"}}は{{delay frames=\"20\"}}\nプロレスわざの　{{ruby charSpan=\"3\" value=\"れんしゅうよう\"}}練習用だー！"
  },
  {
    "label": "032",
    "text": "{{anim id=\"18\"}}{{fun_000B0007 arg=\"\"}}か、{{delay frames=\"20\"}}かんちがい　するなよっ？！{{delay frames=\"40\"}}\n{{anim id=\"13\"}}{{fun_00030011 arg=\"0x0000\"}}は{{delay frames=\"20\"}}\nプロレスわざの　{{ruby charSpan=\"3\" value=\"れんしゅうよう\"}}練習用だー！"
  },
  {
    "label": "033",
    "text": "{{anim id=\"26\"}}オイラも　{{ruby charSpan=\"1\" value=\"すこ\"}}少しは　{{ruby charSpan=\"1\" value=\"お\"}}落ち{{ruby charSpan=\"1\" value=\"つ\"}}着きを\n{{ruby charSpan=\"1\" value=\"も\"}}持とうと{{ruby charSpan=\"1\" value=\"おも\"}}思ってさ、{{pageBreak}}{{ruby charSpan=\"2\" value=\"へや\"}}部屋に　{{fun_00030011 arg=\"0x0000\"}}を\n{{ruby charSpan=\"1\" value=\"お\"}}置いてるんだ、{{delay frames=\"8\"}}{{fun_00070005 arg=\"\"}}{{pageBreak}}{{anim id=\"21\"}}きっと　こうかあるよなー？"
  },
  {
    "label": "034",
    "text": "{{i10_11 arg=\"0x212D002E00CD\"}}"
  },
  {
    "label": "035",
    "text": "{{fun_00040009 arg=\"0x380039003A003B003C003D00\"}}"
  },
  {
    "label": "036",
    "text": "{{anim id=\"43\"}}ニンジャとか{{delay frames=\"20\"}}　サムライとか{{delay frames=\"20\"}}\n{{ruby charSpan=\"2\" value=\"わふう\"}}和風のヒーローって\nカッコイイよなー！{{pageBreak}}{{anim id=\"38\"}}だから　オイラも{{delay frames=\"20\"}}\n{{fun_00030011 arg=\"0x0000\"}}みたいな{{delay frames=\"8\"}}\n{{ruby charSpan=\"2\" value=\"わふう\"}}和風の{{ruby charSpan=\"2\" value=\"かぐ\"}}家具を{{ruby charSpan=\"1\" value=\"お\"}}置いてるんだ！　{{delay frames=\"8\"}}{{fun_00070005 arg=\"\"}}！"
  },
  {
    "label": "037",
    "text": "{{anim id=\"44\"}}オイラの{{ruby charSpan=\"2\" value=\"へや\"}}部屋は{{delay frames=\"8\"}}\n{{ruby charSpan=\"2\" value=\"じぶん\"}}自分だけの　トレーニングジム！{{delay frames=\"40\"}}\n{{ruby charSpan=\"2\" value=\"にくたい\"}}肉体を　きたえる{{ruby charSpan=\"2\" value=\"ばしょ\"}}場所だ！{{pageBreak}}{{anim id=\"1\"}}{{fun_00030011 arg=\"0x0000\"}}とか{{delay frames=\"20\"}}\nいい{{ruby charSpan=\"1\" value=\"かん\"}}感じだろ？　{{delay frames=\"8\"}}{{fun_00070005 arg=\"\"}}？"
  },
  {
    "label": "038",
    "text": "{{anim id=\"21\"}}さてと！{{delay frames=\"20\"}}\nそろそろやるかー？{{pageBreak}}{{anim id=\"38\"}}プロレスだよ{{delay frames=\"8\"}}　プロレス！{{delay frames=\"20\"}}\nゆかを{{ruby charSpan=\"1\" value=\"み\"}}見りゃ　わかるだろー？！{{pageBreak}}{{anim id=\"41\"}}って、{{delay frames=\"20\"}}あちゃー{{delay frames=\"8\"}}・{{delay frames=\"8\"}}・{{delay frames=\"8\"}}・{{delay frames=\"20\"}}\nやっぱりダメだ！{{pageBreak}}{{anim id=\"27\"}}オイラと　オマエ{{delay frames=\"20\"}}\nちょっと　たいかくが\nちがうもんな{{pageBreak}}プロレスは{{delay frames=\"20\"}}　{{ruby charSpan=\"1\" value=\"おな\"}}同じたいかくのヤツとしか\n{{ruby charSpan=\"1\" value=\"たたか\"}}戦えない　ルールなんだよ、{{delay frames=\"8\"}}{{fun_00070005 arg=\"\"}}"
  },
  {
    "label": "039",
    "text": "{{anim id=\"6\"}}オイラ{{delay frames=\"20\"}}　{{ruby charSpan=\"2\" value=\"へや\"}}部屋に{{ruby charSpan=\"1\" value=\"お\"}}置いたプールで\n{{ruby charSpan=\"2\" value=\"まいにち\"}}毎日　{{ruby charSpan=\"1\" value=\"およ\"}}泳ぎを{{ruby charSpan=\"2\" value=\"れんしゅう\"}}練習してるんだー{{pageBreak}}{{anim id=\"33\"}}いつか　この{{ruby charSpan=\"1\" value=\"むら\"}}村の{{ruby charSpan=\"1\" value=\"うみ\"}}海から、{{delay frames=\"20\"}}\nとなりの{{ruby charSpan=\"1\" value=\"むら\"}}村の{{ruby charSpan=\"1\" value=\"うみ\"}}海に　わたってやるー！"
  },
  {
    "label": "040",
    "text": "{{anim id=\"1\"}}ジョギングの{{ruby charSpan=\"1\" value=\"あと\"}}後は{{delay frames=\"20\"}}\n{{fun_00030011 arg=\"0x0000\"}}で\nアセを　あらいながすんだー{{pageBreak}}{{anim id=\"38\"}}ぷはーっ！{{delay frames=\"40\"}}\n{{ruby charSpan=\"2\" value=\"きも\"}}気持ちいいぞー？！　{{delay frames=\"8\"}}{{fun_00070005 arg=\"\"}}"
  },
  {
    "label": "041",
    "text": "{{anim id=\"1\"}}{{fun_00030011 arg=\"0x0000\"}}って{{delay frames=\"20\"}}\n{{ruby charSpan=\"1\" value=\"おとこ\"}}男しか{{ruby charSpan=\"1\" value=\"つか\"}}使えない　ってところが\nいいよなー！　{{delay frames=\"8\"}}{{fun_00070005 arg=\"\"}}！"
  },
  {
    "label": "042",
    "text": "{{anim id=\"36\"}}{{fun_00030011 arg=\"0x0000\"}}{{delay frames=\"8\"}}・{{delay frames=\"8\"}}・{{delay frames=\"8\"}}・{{delay frames=\"20\"}}\nちょっと　かわいすぎるかなー？{{pageBreak}}{{anim id=\"40\"}}でもさ{{delay frames=\"20\"}}　ああいう{{ruby charSpan=\"1\" value=\"いろ\"}}色って\n{{anim id=\"1\"}}{{ruby charSpan=\"1\" value=\"み\"}}見てると　{{ruby charSpan=\"2\" value=\"げんき\"}}元気になるだろ？！"
  },
  {
    "label": "043",
    "text": "{{fun_00040009 arg=\"0x380039003A003B003C003D00\"}}"
  },
  {
    "label": "044",
    "text": "{{anim id=\"1\"}}{{fun_00030011 arg=\"0x0000\"}}、{{delay frames=\"20\"}}\nごみがすてられて　べんりだぞー？{{pageBreak}}{{anim id=\"9\"}}ごみって、{{delay frames=\"20\"}}{{color id=\"4\"}}リサ{{color id=\"65535\"}}にたのんでも{{delay frames=\"8\"}}\nお{{ruby charSpan=\"1\" value=\"かね\"}}金{{ruby charSpan=\"1\" value=\"だ\"}}出さないと\n{{ruby charSpan=\"1\" value=\"ひ\"}}引き{{ruby charSpan=\"1\" value=\"と\"}}取ってくれないからさ{{delay frames=\"8\"}}・{{delay frames=\"8\"}}・{{delay frames=\"8\"}}・{{pageBreak}}{{anim id=\"21\"}}{{fun_00030011 arg=\"0x0000\"}}、{{delay frames=\"20\"}}\n{{ruby charSpan=\"2\" value=\"いっか\"}}一家に{{ruby charSpan=\"1\" value=\"ひと\"}}一つは{{delay frames=\"8\"}}　{{ruby charSpan=\"2\" value=\"ひつよう\"}}必要だよな！　{{delay frames=\"8\"}}{{fun_00070005 arg=\"\"}}！"
  },
  {
    "label": "045",
    "text": "{{anim id=\"43\"}}{{fun_00030011 arg=\"0x0000\"}}{{delay frames=\"8\"}}・{{delay frames=\"8\"}}・{{delay frames=\"8\"}}・{{delay frames=\"20\"}}\nあの{{ruby charSpan=\"1\" value=\"なか\"}}中って　けっこう\n{{ruby charSpan=\"1\" value=\"たの\"}}楽しそうだよなー{{pageBreak}}{{anim id=\"38\"}}へへっ！{{delay frames=\"20\"}}\n{{ruby charSpan=\"2\" value=\"こんど\"}}今度{{delay frames=\"8\"}}　{{ruby charSpan=\"1\" value=\"はい\"}}入れるか\nためしてみようかな！"
  },
  {
    "label": "046",
    "text": "{{fun_00030011 arg=\"0x0000\"}}の{{ruby charSpan=\"1\" value=\"なか\"}}中から{{delay frames=\"20\"}}\nカラカラカラ{{delay frames=\"8\"}}・{{delay frames=\"8\"}}・{{delay frames=\"8\"}}・{{delay frames=\"8\"}}\nって{{delay frames=\"20\"}}{{ruby charSpan=\"1\" value=\"おと\"}}音がするだろ？{{pageBreak}}{{anim id=\"1\"}}ハムスターが　あの{{ruby charSpan=\"1\" value=\"なか\"}}中で\n{{ruby charSpan=\"1\" value=\"はし\"}}走り{{ruby charSpan=\"1\" value=\"まわ\"}}回ってるんだ！{{pageBreak}}{{anim id=\"21\"}}かなりの　トレーニング{{ruby charSpan=\"1\" value=\"ず\"}}好き\nみたいだな！{{delay frames=\"40\"}}\n{{anim id=\"1\"}}オイラに　そっくりだー！　{{delay frames=\"8\"}}{{fun_00070005 arg=\"\"}}！"
  },
  {
    "label": "047",
    "text": ""
  },
  {
    "label": "048",
    "text": ""
  },
  {
    "label": "049",
    "text": ""
  },
  {
    "label": "050",
    "text": ""
  },
  {
    "label": "051",
    "text": ""
  },
  {
    "label": "052",
    "text": ""
  },
  {
    "label": "053",
    "text": ""
  },
  {
    "label": "054",
    "text": ""
  },
  {
    "label": "055",
    "text": ""
  },
  {
    "label": "056",
    "text": "{{anim id=\"35\"}}この{{ruby charSpan=\"2\" value=\"へや\"}}部屋、{{delay frames=\"20\"}}オマエんとこより\nカッコイイだろー！{{pageBreak}}{{anim id=\"2\"}}ハハッ！{{delay frames=\"20\"}}\n{{ruby charSpan=\"2\" value=\"かぐ\"}}家具の{{ruby charSpan=\"1\" value=\"く\"}}組み{{ruby charSpan=\"1\" value=\"あ\"}}合わせとか{{delay frames=\"8\"}}\nマネしてくれても　いいぞ！　{{delay frames=\"8\"}}{{fun_00070005 arg=\"\"}}！{{delay frames=\"40\"}}{{anim id=\"37\"}}"
  },
  {
    "label": "057",
    "text": "{{anim id=\"11\"}}{{ruby charSpan=\"1\" value=\"とく\"}}特に　{{ruby charSpan=\"2\" value=\"もくてき\"}}目的も{{ruby charSpan=\"1\" value=\"な\"}}無く{{delay frames=\"8\"}}\n{{ruby charSpan=\"1\" value=\"いえ\"}}家に　{{ruby charSpan=\"1\" value=\"あつ\"}}集まるのって、{{delay frames=\"40\"}}\n{{anim id=\"38\"}}ホントの{{ruby charSpan=\"2\" value=\"ともだち\"}}友達って　{{ruby charSpan=\"1\" value=\"かん\"}}感じがするよな！"
  },
  {
    "label": "058",
    "text": "{{anim id=\"13\"}}とつぜん　{{ruby charSpan=\"1\" value=\"いえ\"}}家に{{ruby charSpan=\"1\" value=\"こ\"}}来られると　こまるー！{{delay frames=\"40\"}}\nって、{{delay frames=\"20\"}}{{anim id=\"23\"}}ヤツ　いるだろ？{{pageBreak}}{{anim id=\"38\"}}ダイジョーブ！{{delay frames=\"40\"}}\nオイラの{{ruby charSpan=\"1\" value=\"いえ\"}}家は　いつでも　オープンだー！"
  },
  {
    "label": "059",
    "text": "{{anim id=\"21\"}}ここのことは、{{delay frames=\"20\"}}\n{{fun_00010005 arg=\"\"}}{{ruby charSpan=\"2\" value=\"どうじょう\"}}道場　とか{{delay frames=\"20\"}}\n{{fun_00010005 arg=\"\"}}スポーツジム　とか{{pageBreak}}{{anim id=\"1\"}}オマエの　{{ruby charSpan=\"1\" value=\"す\"}}好きなように\nよんでくれー！　{{delay frames=\"8\"}}{{fun_00070005 arg=\"\"}}！"
  },
  {
    "label": "060",
    "text": "{{anim id=\"35\"}}この{{ruby charSpan=\"2\" value=\"へや\"}}部屋を{{ruby charSpan=\"1\" value=\"み\"}}見て、{{delay frames=\"20\"}}\nなぜ　オイラが　{{ruby charSpan=\"1\" value=\"つよ\"}}強いのか\nわかっただろー？　{{delay frames=\"8\"}}{{fun_00070005 arg=\"\"}}？{{pageBreak}}{{anim id=\"17\"}}{{fun_000A0007 arg=\"\"}}え？{{delay frames=\"40\"}}\nサッパリ　わからない？{{pageBreak}}{{anim id=\"27\"}}まったく{{delay frames=\"8\"}}・{{delay frames=\"8\"}}・{{delay frames=\"8\"}}・{{delay frames=\"20\"}}\nオマエって　にぶいなー、{{delay frames=\"8\"}}{{fun_00070005 arg=\"\"}}"
  },
  {
    "label": "061",
    "text": "{{anim id=\"1\"}}を　おしてみろー！{{delay frames=\"40\"}}\nこの{{ruby charSpan=\"2\" value=\"へや\"}}部屋を　{{ruby charSpan=\"1\" value=\"いろ\"}}色んな{{ruby charSpan=\"2\" value=\"かくど\"}}角度から\n{{ruby charSpan=\"1\" value=\"み\"}}見れるんだ！　{{delay frames=\"8\"}}{{fun_00070005 arg=\"\"}}！{{pageBreak}}{{anim id=\"33\"}}オイラの{{ruby charSpan=\"2\" value=\"へや\"}}部屋は、{{delay frames=\"20\"}}\nどんな　{{ruby charSpan=\"2\" value=\"かくど\"}}角度から{{ruby charSpan=\"1\" value=\"み\"}}見たって\nカッコイイぞー？！"
  }
]