﻿[
  {
    "label": "001",
    "text": "{{anim id=\"1\"}}ドカーーンと\n{{ruby charSpan=\"1\" value=\"おお\"}}大きめの{{ruby charSpan=\"2\" value=\"かぐ\"}}家具、{{delay frames=\"20\"}}\nいいの{{ruby charSpan=\"1\" value=\"し\"}}知ってたら　{{ruby charSpan=\"1\" value=\"おし\"}}教えてくれよー"
  },
  {
    "label": "002",
    "text": "{{anim id=\"1\"}}すき{{ruby charSpan=\"1\" value=\"ま\"}}間に　サクッと{{ruby charSpan=\"1\" value=\"はい\"}}入る{{delay frames=\"20\"}}\nオススメの{{ruby charSpan=\"2\" value=\"かぐ\"}}家具があったら\nしょうかいしてくれー！"
  },
  {
    "label": "003",
    "text": "{{anim id=\"1\"}}{{ruby charSpan=\"1\" value=\"ちい\"}}小さめの{{ruby charSpan=\"2\" value=\"かぐ\"}}家具で\nいい{{ruby charSpan=\"1\" value=\"かん\"}}感じのもの、{{delay frames=\"20\"}}\nあったら　{{ruby charSpan=\"1\" value=\"おし\"}}教えてくれよな！"
  },
  {
    "label": "004",
    "text": "{{anim id=\"1\"}}{{fun_00030011 arg=\"0x0000\"}}の\n{{ruby charSpan=\"1\" value=\"か\"}}代わりになりそうな　{{ruby charSpan=\"2\" value=\"かぐ\"}}家具、{{delay frames=\"20\"}}\nオイラに　{{ruby charSpan=\"1\" value=\"おし\"}}教えてくれよー！{{pageBreak}}{{ruby charSpan=\"1\" value=\"おんな\"}}同じくらいの　{{ruby charSpan=\"1\" value=\"おお\"}}大きさだったら{{delay frames=\"8\"}}\n{{ruby charSpan=\"1\" value=\"なん\"}}何でもいいぞー？"
  },
  {
    "label": "005",
    "text": "{{fun_00030011 arg=\"0x0000\"}}の{{ruby charSpan=\"1\" value=\"うえ\"}}上に\n{{ruby charSpan=\"1\" value=\"お\"}}置けそうなものがあったら、{{delay frames=\"20\"}}\nオイラに　{{ruby charSpan=\"1\" value=\"おし\"}}教えてくれー"
  },
  {
    "label": "006",
    "text": "{{anim id=\"1\"}}{{ruby charSpan=\"2\" value=\"へや\"}}部屋の　{{fun_00030011 arg=\"0x0000\"}}の\n{{ruby charSpan=\"1\" value=\"か\"}}代わりになりそうな　{{ruby charSpan=\"2\" value=\"かぐ\"}}家具、{{delay frames=\"20\"}}\nオイラに　{{ruby charSpan=\"1\" value=\"おし\"}}教えてくれよー！"
  },
  {
    "label": "007",
    "text": "{{anim id=\"1\"}}カベにかざれる\nオススメの{{ruby charSpan=\"2\" value=\"かぐ\"}}家具があったら、{{delay frames=\"20\"}}\nオイラに　{{ruby charSpan=\"1\" value=\"おし\"}}教えてくれよー、{{delay frames=\"8\"}}{{fun_00070005 arg=\"\"}}"
  },
  {
    "label": "008",
    "text": "{{fun_00030011 arg=\"0x0000\"}}の\n{{ruby charSpan=\"1\" value=\"か\"}}代わりに{{ruby charSpan=\"1\" value=\"お\"}}置けそうな、{{delay frames=\"20\"}}\nいい{{ruby charSpan=\"2\" value=\"かぐ\"}}家具があったら　{{ruby charSpan=\"1\" value=\"おし\"}}教えてくれ！"
  },
  {
    "label": "009",
    "text": "{{anim id=\"1\"}}オイラん{{ruby charSpan=\"1\" value=\"ち\"}}家に{{ruby charSpan=\"1\" value=\"あ\"}}合うような\nいい{{ruby charSpan=\"2\" value=\"かぐ\"}}家具があったら、{{delay frames=\"20\"}}\nしょうかい　たのむよ！"
  }
]