﻿[
  {
    "label": "001",
    "text": "{{anim id=\"15\"}}ん？{{delay frames=\"8\"}}　オマエは？{{delay frames=\"20\"}}\n{{anim id=\"37\"}}そっか、{{delay frames=\"12\"}}{{fun_00000005 arg=\"\"}}っていうのかー{{pageBreak}}{{anim id=\"1\"}}なんか　オイラのライバルがいると{{ruby charSpan=\"1\" value=\"き\"}}聞いて{{delay frames=\"8\"}}\n{{ruby charSpan=\"1\" value=\"ひ\"}}引っこして{{ruby charSpan=\"1\" value=\"き\"}}来たんだけど、{{delay frames=\"20\"}}\nもしかして　オマエのことかー？！\n{{anim id=\"21\"}}{{ruby charSpan=\"2\" value=\"きょう\"}}今日は　{{ruby charSpan=\"2\" value=\"へや\"}}部屋のかたづけがあるけど、{{delay frames=\"12\"}}\n{{anim id=\"1\"}}{{ruby charSpan=\"2\" value=\"あした\"}}明日から　いろいろ{{ruby charSpan=\"2\" value=\"しょうぶ\"}}勝負するぞー！{{delay frames=\"8\"}}\n{{fun_00070005 arg=\"\"}}！"
  },
  {
    "label": "002",
    "text": "{{anim id=\"15\"}}あっ！{{delay frames=\"20\"}}\nオマエも　この{{ruby charSpan=\"1\" value=\"むら\"}}村のヤツか？！{{pageBreak}}{{anim id=\"1\"}}オイラ{{delay frames=\"8\"}}　{{ruby charSpan=\"1\" value=\"すこ\"}}少し{{ruby charSpan=\"1\" value=\"まえ\"}}前に　{{ruby charSpan=\"1\" value=\"ひ\"}}引っこして{{ruby charSpan=\"1\" value=\"き\"}}来た{{delay frames=\"8\"}}\n{{fun_00010005 arg=\"\"}}ってもんだ{{pageBreak}}{{anim id=\"0\"}}ざっと{{ruby charSpan=\"1\" value=\"み\"}}見て{{ruby charSpan=\"1\" value=\"まわ\"}}回ったところ{{delay frames=\"12\"}}\nオイラの{{ruby charSpan=\"2\" value=\"あいて\"}}相手に　なれそうなヤツは{{delay frames=\"8\"}}\n{{anim id=\"40\"}}いないと{{ruby charSpan=\"1\" value=\"おも\"}}思ってたけど{{delay frames=\"8\"}}・{{delay frames=\"8\"}}・{{delay frames=\"8\"}}・\n{{anim id=\"1\"}}こんな{{ruby charSpan=\"1\" value=\"つよ\"}}強そうなヤツが\nまだ　{{ruby charSpan=\"1\" value=\"のこ\"}}残っていたとはな！{{pageBreak}}{{anim id=\"2\"}}{{ruby charSpan=\"1\" value=\"て\"}}手かげん　なしで{{delay frames=\"16\"}}\nよろしくたのむぞー！{{delay frames=\"12\"}}　{{fun_00070005 arg=\"\"}}！{{anim id=\"1\"}}"
  },
  {
    "label": "003",
    "text": "{{anim id=\"15\"}}ん？{{delay frames=\"8\"}}　オマエは？{{delay frames=\"20\"}}\n{{anim id=\"37\"}}そっか、{{delay frames=\"12\"}}{{fun_00000005 arg=\"\"}}っていうのかー{{pageBreak}}{{anim id=\"1\"}}なんか　オイラのライバルがいると{{ruby charSpan=\"1\" value=\"き\"}}聞いて{{delay frames=\"8\"}}\n{{ruby charSpan=\"1\" value=\"ひ\"}}引っこして{{ruby charSpan=\"1\" value=\"き\"}}来たんだけど、{{delay frames=\"20\"}}\nもしかして　オマエのことかー？！\n{{anim id=\"11\"}}ていうか、{{delay frames=\"12\"}}{{ruby charSpan=\"1\" value=\"はじ\"}}初めて{{ruby charSpan=\"1\" value=\"き\"}}来たはずなのに{{delay frames=\"8\"}}\nなつかしい{{ruby charSpan=\"1\" value=\"かん\"}}感じがして、{{delay frames=\"8\"}}\nここは　ふしぎな{{ruby charSpan=\"1\" value=\"むら\"}}村だな！\n{{anim id=\"21\"}}{{ruby charSpan=\"2\" value=\"きょう\"}}今日は　{{ruby charSpan=\"2\" value=\"へや\"}}部屋のかたづけがあるけど、{{delay frames=\"12\"}}\n{{anim id=\"1\"}}{{ruby charSpan=\"2\" value=\"あした\"}}明日から　{{ruby charSpan=\"2\" value=\"ほんき\"}}本気だぞー！{{delay frames=\"8\"}}　{{fun_00070005 arg=\"\"}}！"
  },
  {
    "label": "004",
    "text": "{{anim id=\"15\"}}おー！{{delay frames=\"20\"}}\nこの{{ruby charSpan=\"1\" value=\"むら\"}}村のヤツだなー？！{{pageBreak}}{{anim id=\"1\"}}オイラ　ちょっと{{ruby charSpan=\"1\" value=\"まえ\"}}前に　{{ruby charSpan=\"1\" value=\"ひ\"}}引っこして{{ruby charSpan=\"1\" value=\"き\"}}来た\n{{fun_00010005 arg=\"\"}}！{{delay frames=\"20\"}}\nトレーニング{{ruby charSpan=\"1\" value=\"いのち\"}}命だー！{{pageBreak}}{{anim id=\"5\"}}{{ruby charSpan=\"1\" value=\"はじ\"}}初めて{{ruby charSpan=\"1\" value=\"き\"}}来た{{ruby charSpan=\"1\" value=\"むら\"}}村なのに{{delay frames=\"16\"}}\nウェルカムな{{ruby charSpan=\"1\" value=\"かん\"}}感じが　ビシバシ{{ruby charSpan=\"1\" value=\"つた\"}}伝わってきて{{delay frames=\"8\"}}\nいい{{ruby charSpan=\"1\" value=\"かん\"}}感じだぞ！\n{{anim id=\"1\"}}とにかく　よろしくな！\n{{delay frames=\"8\"}}{{fun_00070005 arg=\"\"}}！"
  },
  {
    "label": "005",
    "text": "{{anim id=\"23\"}}アレ？！{{delay frames=\"20\"}}\n{{ruby charSpan=\"1\" value=\"あ\"}}会うの　{{ruby charSpan=\"1\" value=\"はじ\"}}初めてだっけー？{{pageBreak}}{{anim id=\"11\"}}もう　{{ruby charSpan=\"2\" value=\"なんにち\"}}何日も{{ruby charSpan=\"1\" value=\"まえ\"}}前から{{delay frames=\"20\"}}\nこの{{ruby charSpan=\"1\" value=\"むら\"}}村に　{{ruby charSpan=\"1\" value=\"す\"}}住んでるんだけどなー{{fun_00010007 arg=\"\"}}\n{{anim id=\"40\"}}まぁ、{{delay frames=\"20\"}}いっか！　{{delay frames=\"8\"}}{{fun_00070005 arg=\"\"}}！{{pageBreak}}{{anim id=\"38\"}}オイラは　{{fun_00010005 arg=\"\"}}だ！{{delay frames=\"20\"}}\n{{anim id=\"1\"}}{{ruby charSpan=\"2\" value=\"きょう\"}}今日から　よろしくな！{{delay frames=\"8\"}}　{{fun_00070005 arg=\"\"}}！"
  },
  {
    "label": "006",
    "text": "{{anim id=\"15\"}}あ、{{delay frames=\"16\"}}オマエと{{ruby charSpan=\"1\" value=\"あ\"}}会うのは\n{{ruby charSpan=\"1\" value=\"はじ\"}}初めてかな？{{delay frames=\"30\"}}\n{{fun_00010007 arg=\"\"}}オイラは　{{fun_00010005 arg=\"\"}}だ{{pageBreak}}{{anim id=\"20\"}}いつもなら{{delay frames=\"8\"}}　じまんのキンニクを\n{{ruby charSpan=\"1\" value=\"み\"}}見せてやるところなんだけど{{delay frames=\"20\"}}\n{{ruby charSpan=\"1\" value=\"いま\"}}今は　カゼひいちゃってさ{{delay frames=\"8\"}}・{{delay frames=\"8\"}}・{{delay frames=\"8\"}}・\n{{anim id=\"37\"}}{{ruby charSpan=\"2\" value=\"げんき\"}}元気になったら　またあらためて、{{delay frames=\"20\"}}\nオイラのキンニクを\n{{ruby charSpan=\"1\" value=\"み\"}}見に{{ruby charSpan=\"1\" value=\"き\"}}来てくれよー、{{delay frames=\"8\"}}{{fun_00070005 arg=\"\"}}"
  }
]