﻿[
  {
    "label": "001",
    "text": "あのよぅ、{{delay frames=\"20\"}}\nいきなりで　{{ruby charSpan=\"1\" value=\"わり\"}}悪ぃんだが{{delay frames=\"8\"}}・{{delay frames=\"8\"}}・{{delay frames=\"8\"}}・{{pageBreak}}{{anim id=\"6\"}}なんにも{{ruby charSpan=\"1\" value=\"い\"}}言わず{{delay frames=\"8\"}}\nこの　{{fun_00030011 arg=\"0x0000\"}}を{{delay frames=\"8\"}}\nもらってくれ！"
  },
  {
    "label": "002",
    "text": "{{ruby charSpan=\"1\" value=\"たし\"}}確かオメェ、{{delay frames=\"15\"}}\n{{fun_00030011 arg=\"0x0000\"}}が{{delay frames=\"8\"}}\n{{ruby charSpan=\"1\" value=\"ほ\"}}欲しいって　{{ruby charSpan=\"1\" value=\"い\"}}言ってたよな？{{fun_00050008 arg=\"0x050000000A002800\"}}\n{{ruby charSpan=\"1\" value=\"い\"}}言ったかなぁ・・・？\n{{ruby charSpan=\"1\" value=\"い\"}}言ってないよ"
  },
  {
    "label": "003",
    "text": "{{anim id=\"5\"}}チャ{{delay frames=\"8\"}}ラ{{delay frames=\"8\"}}ラ～{{delay frames=\"8\"}}ン♪{{delay frames=\"15\"}}\nラッキーなオメェに{{delay frames=\"8\"}}\n{{fun_00030011 arg=\"0x0000\"}}を　あげよう！\n{{anim id=\"1\"}}おめでとう！！"
  },
  {
    "label": "004",
    "text": "{{anim id=\"1\"}}へへっ、{{delay frames=\"8\"}}\nビックリ　させちまったかな{{fun_00010007 arg=\"\"}}\n{{anim id=\"0\"}}{{ruby charSpan=\"1\" value=\"じつ\"}}実は　テレビの{{ruby charSpan=\"1\" value=\"うらな\"}}占いで{{delay frames=\"8\"}}・{{delay frames=\"8\"}}・{{delay frames=\"8\"}}・\n{{ruby charSpan=\"2\" value=\"みぢか\"}}身近で　{{ruby charSpan=\"2\" value=\"いちばん\"}}一番　{{ruby charSpan=\"1\" value=\"き\"}}気になるヤツに{{delay frames=\"8\"}}\nプレゼントを{{ruby charSpan=\"1\" value=\"わた\"}}渡すと{{delay frames=\"8\"}}\nいいことがあるって　{{ruby charSpan=\"1\" value=\"い\"}}言ってて{{pageBreak}}{{anim id=\"1\"}}{{ruby charSpan=\"1\" value=\"あたま\"}}頭に{{ruby charSpan=\"1\" value=\"う\"}}浮かんだのが　オメェだったってワケさ{{fun_00010007 arg=\"\"}}\nさて、{{delay frames=\"8\"}}どうなるか{{ruby charSpan=\"1\" value=\"たの\"}}楽しみだぜ、{{delay frames=\"20\"}}{{fun_00070005 arg=\"\"}}"
  },
  {
    "label": "005",
    "text": "{{anim id=\"15\"}}ん？{{delay frames=\"15\"}}　そう{{ruby charSpan=\"1\" value=\"い\"}}言われると{{delay frames=\"8\"}}\n{{anim id=\"9\"}}オレも{{ruby charSpan=\"2\" value=\"じしん\"}}自信なくなってきたぜ{{delay frames=\"8\"}}・{{delay frames=\"8\"}}・{{delay frames=\"8\"}}・{{pageBreak}}{{anim id=\"0\"}}ま、{{delay frames=\"15\"}}どっちにしても{{delay frames=\"8\"}}\nもう　{{ruby charSpan=\"1\" value=\"か\"}}買ってきちまったし\n{{anim id=\"1\"}}オメェに　タダでやるよ{{fun_0000000A arg=\"0x0306000700CD\"}}"
  },
  {
    "label": "006",
    "text": "{{anim id=\"1\"}}いつも　オメェには{{delay frames=\"8\"}}\n{{ruby charSpan=\"2\" value=\"あいて\"}}相手して　もらってるからな{{fun_00010007 arg=\"\"}}\nほれ、{{ruby charSpan=\"1\" value=\"う\"}}受け{{ruby charSpan=\"1\" value=\"と\"}}取ってくれ"
  },
  {
    "label": "007",
    "text": "{{anim id=\"1\"}}エンリョせずに　{{ruby charSpan=\"1\" value=\"う\"}}受け{{ruby charSpan=\"1\" value=\"と\"}}取ってくれ"
  },
  {
    "label": "008",
    "text": "{{anim id=\"1\"}}また{{ruby charSpan=\"1\" value=\"なに\"}}何か{{ruby charSpan=\"1\" value=\"み\"}}見つけたら{{delay frames=\"8\"}}　{{ruby charSpan=\"1\" value=\"か\"}}買ってきてやるぜ、{{delay frames=\"20\"}}\n{{ruby charSpan=\"1\" value=\"き\"}}気が{{ruby charSpan=\"1\" value=\"む\"}}向いたらな、{{delay frames=\"20\"}}{{anim id=\"2\"}}がーっはっは！{{delay frames=\"30\"}}{{anim id=\"1\"}}"
  },
  {
    "label": "009",
    "text": "{{anim id=\"0\"}}お{{ruby charSpan=\"1\" value=\"ちか\"}}近づきの　しるしにってワケでもねぇが、{{delay frames=\"15\"}}\n{{anim id=\"1\"}}{{ruby charSpan=\"2\" value=\"こんご\"}}今後ともヨロシクな、{{delay frames=\"20\"}}{{fun_00070005 arg=\"\"}}！"
  },
  {
    "label": "010",
    "text": "{{anim id=\"15\"}}ありゃ？！{{delay frames=\"20\"}}\n{{anim id=\"0\"}}オレの　カン{{ruby charSpan=\"1\" value=\"ちが\"}}違いか？{{fun_00010007 arg=\"\"}}\n・{{delay frames=\"8\"}}・{{delay frames=\"8\"}}・{{delay frames=\"8\"}}まあ、いいや{{pageBreak}}{{anim id=\"1\"}}オメェさぁ、{{delay frames=\"15\"}}\nこれ{{ruby charSpan=\"1\" value=\"ほ\"}}欲しかったことにして{{delay frames=\"8\"}}　もらってくれ{{fun_00010007 arg=\"\"}}\nほら、{{delay frames=\"8\"}}エンリョするんじゃねぇよ"
  },
  {
    "label": "011",
    "text": "{{anim id=\"1\"}}いやぁー、{{delay frames=\"8\"}}{{ruby charSpan=\"1\" value=\"よろこ\"}}喜んでもらえて\n{{ruby charSpan=\"2\" value=\"きぶん\"}}気分がいいぜ、{{delay frames=\"20\"}}{{anim id=\"2\"}}がーっはっは！{{delay frames=\"20\"}}"
  },
  {
    "label": "012",
    "text": "{{fun_00010009 arg=\"0x0D000E000F00\"}}"
  },
  {
    "label": "013",
    "text": "{{anim id=\"0\"}}{{ruby charSpan=\"1\" value=\"つぎ\"}}次に{{ruby charSpan=\"1\" value=\"はな\"}}話しかけてきたヤツに{{delay frames=\"8\"}}\nプレゼントしようと{{ruby charSpan=\"1\" value=\"おも\"}}思ってたのさ！{{delay frames=\"20\"}}\n{{anim id=\"1\"}}ただの{{ruby charSpan=\"1\" value=\"き\"}}気まぐれだ！"
  },
  {
    "label": "014",
    "text": "{{anim id=\"1\"}}なーに、{{delay frames=\"15\"}}ホントは\nいらなくなった　そいつを{{delay frames=\"8\"}}\n{{ruby charSpan=\"2\" value=\"しょぶん\"}}処分したかっただけさ！"
  },
  {
    "label": "015",
    "text": "{{anim id=\"1\"}}ホントはそれ、{{delay frames=\"8\"}}{{ruby charSpan=\"1\" value=\"ひろ\"}}拾ったんだが{{delay frames=\"8\"}}\nシュミに{{ruby charSpan=\"1\" value=\"あ\"}}合わねぇから\nジャマだったのさ！"
  },
  {
    "label": "016",
    "text": "{{anim id=\"1\"}}{{ruby charSpan=\"1\" value=\"あと\"}}後で　{{ruby charSpan=\"2\" value=\"たいきん\"}}大金を{{ruby charSpan=\"2\" value=\"ようきゅう\"}}要求したり　しねぇから{{delay frames=\"15\"}}\n{{ruby charSpan=\"2\" value=\"しんぱい\"}}心配いらねぇぜ、{{delay frames=\"20\"}}{{anim id=\"2\"}}がーっはっは！{{delay frames=\"30\"}}{{anim id=\"1\"}}"
  }
]