﻿[
  {
    "label": "001",
    "text": "{{fun_00010009 arg=\"0x030004000500\"}}"
  },
  {
    "label": "002",
    "text": "{{fun_00030009 arg=\"0x080009000A000B000C00\"}}"
  },
  {
    "label": "003",
    "text": "{{anim id=\"15\"}}そうだ　{{fun_00000005 arg=\"\"}}、{{delay frames=\"20\"}}\n{{ruby charSpan=\"2\" value=\"きょう\"}}今日は　{{ruby charSpan=\"1\" value=\"よる\"}}夜まで\nここに　いれるのか？\n{{anim id=\"21\"}}いや{{delay frames=\"8\"}}・{{delay frames=\"8\"}}・{{delay frames=\"8\"}}・{{delay frames=\"20\"}}{{ruby charSpan=\"2\" value=\"こんや\"}}今夜は　{{color id=\"2\"}}{{ruby charSpan=\"2\" value=\"チュソク\"}}秋夕{{color id=\"65535\"}}といってな、{{delay frames=\"20\"}}\n{{ruby charSpan=\"1\" value=\"つき\"}}月が　スゲェきれいに　{{ruby charSpan=\"1\" value=\"み\"}}見える{{ruby charSpan=\"1\" value=\"ひ\"}}日なんだよ{{pageBreak}}{{anim id=\"37\"}}ぜひ　オメェにも\n{{ruby charSpan=\"1\" value=\"み\"}}見てもらいてぇぜ！{{delay frames=\"20\"}}\n{{fun_00050005 arg=\"\"}}{{ruby charSpan=\"1\" value=\"むら\"}}村の{{ruby charSpan=\"1\" value=\"つき\"}}月をよ！　{{delay frames=\"20\"}}{{fun_00070005 arg=\"\"}}！"
  },
  {
    "label": "004",
    "text": "{{anim id=\"15\"}}そうそう！{{delay frames=\"20\"}}\n{{ruby charSpan=\"2\" value=\"こんや\"}}今夜は　うちの{{ruby charSpan=\"1\" value=\"むら\"}}村で\nめずらしいもんが　{{ruby charSpan=\"1\" value=\"み\"}}見れるぞ！\n{{anim id=\"21\"}}{{ruby charSpan=\"2\" value=\"きょう\"}}今日は　{{color id=\"2\"}}{{ruby charSpan=\"2\" value=\"チュソク\"}}秋夕{{color id=\"65535\"}}っていってよ、{{delay frames=\"8\"}}\n{{ruby charSpan=\"1\" value=\"まる\"}}丸くて　でかい{{ruby charSpan=\"1\" value=\"つき\"}}月が\n{{ruby charSpan=\"1\" value=\"で\"}}出る{{ruby charSpan=\"1\" value=\"ひ\"}}日なんだ！\n{{anim id=\"5\"}}{{ruby charSpan=\"2\" value=\"ほんとう\"}}本当に　{{ruby charSpan=\"1\" value=\"ま\"}}真ん{{ruby charSpan=\"1\" value=\"まる\"}}丸の　お{{ruby charSpan=\"1\" value=\"つき\"}}月さんさ！{{delay frames=\"40\"}}\n{{ruby charSpan=\"1\" value=\"み\"}}見てって{{ruby charSpan=\"1\" value=\"そん\"}}損は　ねぇと{{ruby charSpan=\"1\" value=\"おも\"}}思うぜ！\n{{delay frames=\"20\"}}{{fun_00070005 arg=\"\"}}！"
  },
  {
    "label": "005",
    "text": "{{anim id=\"15\"}}そういや　{{ruby charSpan=\"2\" value=\"きょう\"}}今日は、\n{{color id=\"2\"}}{{ruby charSpan=\"2\" value=\"チュソク\"}}秋夕{{color id=\"65535\"}}なんだぜ！\n\n{{anim id=\"11\"}}{{ruby charSpan=\"1\" value=\"ほか\"}}他の{{ruby charSpan=\"1\" value=\"むら\"}}村じゃ　お{{ruby charSpan=\"2\" value=\"つきみ\"}}月見なんて\n{{ruby charSpan=\"1\" value=\"よ\"}}呼ばれたりも　するらしいけど{{delay frames=\"8\"}}・{{delay frames=\"8\"}}・{{delay frames=\"8\"}}・{{delay frames=\"20\"}}\n{{anim id=\"0\"}}ま、たいして　{{ruby charSpan=\"1\" value=\"か\"}}変わらねえよ\n{{anim id=\"37\"}}{{ruby charSpan=\"1\" value=\"ま\"}}真ん{{ruby charSpan=\"1\" value=\"まる\"}}丸の　お{{ruby charSpan=\"1\" value=\"つき\"}}月さんをサカナに、{{delay frames=\"8\"}}\n{{ruby charSpan=\"1\" value=\"はなし\"}}話に{{ruby charSpan=\"1\" value=\"はな\"}}花を　{{ruby charSpan=\"1\" value=\"さ\"}}咲かせんのさ！　{{delay frames=\"20\"}}{{fun_00070005 arg=\"\"}}！"
  },
  {
    "label": "006",
    "text": ""
  },
  {
    "label": "007",
    "text": ""
  },
  {
    "label": "008",
    "text": "{{anim id=\"37\"}}なぁ、{{delay frames=\"8\"}}{{ruby charSpan=\"1\" value=\"いま\"}}今ごろ\nどれくらいのヤツが{{delay frames=\"8\"}}\nこの{{ruby charSpan=\"1\" value=\"つき\"}}月を　{{ruby charSpan=\"1\" value=\"み\"}}見てんだろうな！\n{{anim id=\"43\"}}{{ruby charSpan=\"1\" value=\"ちが\"}}違う{{ruby charSpan=\"2\" value=\"ばしょ\"}}場所で　{{ruby charSpan=\"2\" value=\"いっしょ\"}}一緒のもんを\n{{ruby charSpan=\"1\" value=\"み\"}}見ることができるなんて{{delay frames=\"8\"}}・{{delay frames=\"8\"}}・{{delay frames=\"8\"}}・{{delay frames=\"20\"}}\n{{ruby charSpan=\"1\" value=\"かんが\"}}考えてみりゃ　スゲェことだぜ！"
  },
  {
    "label": "009",
    "text": "{{anim id=\"15\"}}そうそう！{{delay frames=\"20\"}}\nオメェの{{ruby charSpan=\"1\" value=\"むら\"}}村じゃ　{{ruby charSpan=\"1\" value=\"つき\"}}月を{{ruby charSpan=\"1\" value=\"み\"}}見ながら\nだんご　{{ruby charSpan=\"1\" value=\"く\"}}食うんだって？\n{{anim id=\"21\"}}いや　{{ruby charSpan=\"1\" value=\"じつ\"}}実はな、{{delay frames=\"20\"}}\nオレの{{ruby charSpan=\"1\" value=\"むら\"}}村でも　ソンピョンって\nモチを{{ruby charSpan=\"1\" value=\"く\"}}食うんだ！\n{{anim id=\"37\"}}お{{ruby charSpan=\"1\" value=\"つき\"}}月さんみてぇな\n{{ruby charSpan=\"1\" value=\"しろ\"}}白くて　やわらかい\nモチさ！　{{delay frames=\"20\"}}{{fun_00070005 arg=\"\"}}！"
  },
  {
    "label": "010",
    "text": "{{anim id=\"21\"}}どうだ　{{fun_00000005 arg=\"\"}}、\nうちの{{ruby charSpan=\"1\" value=\"むら\"}}村の　{{ruby charSpan=\"1\" value=\"つき\"}}月は？{{delay frames=\"40\"}}\n{{anim id=\"37\"}}さすが　{{color id=\"2\"}}{{ruby charSpan=\"2\" value=\"チュソク\"}}秋夕{{color id=\"65535\"}}だろ！\n{{anim id=\"43\"}}オレも　いつか{{delay frames=\"8\"}}・{{delay frames=\"8\"}}・{{delay frames=\"8\"}}・{{delay frames=\"20\"}}\nオメェの{{ruby charSpan=\"1\" value=\"むら\"}}村の　{{ruby charSpan=\"1\" value=\"つき\"}}月を\n{{ruby charSpan=\"1\" value=\"み\"}}見てみたいなぁ、{{delay frames=\"8\"}}{{fun_00070005 arg=\"\"}}"
  },
  {
    "label": "011",
    "text": "{{anim id=\"21\"}}そういや　オメェ、\n{{ruby charSpan=\"2\" value=\"りっぱ\"}}立派なカメラ　{{ruby charSpan=\"1\" value=\"も\"}}持ってたよなぁ\n\n{{anim id=\"37\"}}{{ruby charSpan=\"1\" value=\"うつ\"}}写してくれよ！{{delay frames=\"20\"}}\n{{ruby charSpan=\"1\" value=\"ま\"}}真ん{{ruby charSpan=\"1\" value=\"まる\"}}丸　お{{ruby charSpan=\"1\" value=\"つき\"}}月さんと{{delay frames=\"8\"}}\nオレと　オメェをさ！　{{delay frames=\"20\"}}{{fun_00070005 arg=\"\"}}！"
  },
  {
    "label": "012",
    "text": "{{anim id=\"21\"}}{{color id=\"2\"}}{{ruby charSpan=\"2\" value=\"チュソク\"}}秋夕{{color id=\"65535\"}}の{{ruby charSpan=\"1\" value=\"ひ\"}}日を{{ruby charSpan=\"1\" value=\"むか\"}}迎えると、{{delay frames=\"20\"}}\nいよいよ　{{ruby charSpan=\"1\" value=\"あき\"}}秋が{{ruby charSpan=\"1\" value=\"き\"}}来たって　{{ruby charSpan=\"1\" value=\"かん\"}}感じだよな{{pageBreak}}{{anim id=\"43\"}}{{ruby charSpan=\"1\" value=\"なつ\"}}夏とは{{ruby charSpan=\"1\" value=\"ちが\"}}違う　{{delay frames=\"8\"}}しみじみした{{ruby charSpan=\"1\" value=\"ひかり\"}}光が\n{{ruby charSpan=\"1\" value=\"こころ\"}}心に　しみやがるぜ{{delay frames=\"8\"}}・{{delay frames=\"8\"}}・{{delay frames=\"8\"}}・{{delay frames=\"20\"}}{{fun_00010007 arg=\"\"}}\n{{anim id=\"1\"}}なんつってな！　{{delay frames=\"20\"}}{{fun_00070005 arg=\"\"}}！"
  }
]