﻿[
  {
    "label": "001",
    "text": "{{fun_0000000C arg=\"\"}}{{fun_0006000C arg=\"\"}}{{fun_0001000C arg=\"\"}}{{fun_0004000C arg=\"\"}}{{fun_0002000C arg=\"\"}}{{fun_0006000C arg=\"\"}}よう　{{fun_00080005 arg=\"\"}}！{{delay frames=\"20\"}}\nご{{ruby charSpan=\"2\" value=\"くろう\"}}苦労さん！{{fun_0009000C arg=\"\"}}"
  },
  {
    "label": "002",
    "text": "{{fun_0000000C arg=\"\"}}{{fun_0006000C arg=\"\"}}{{fun_0001000C arg=\"\"}}{{fun_0004000C arg=\"\"}}{{fun_0002000C arg=\"\"}}{{fun_0006000C arg=\"\"}}{{anim id=\"1\"}}よう　お{{ruby charSpan=\"2\" value=\"ふたり\"}}二人さん！{{delay frames=\"20\"}}\n{{ruby charSpan=\"1\" value=\"ま\"}}待ってたぜ！　{{delay frames=\"8\"}}{{fun_00070005 arg=\"\"}}！{{fun_0009000C arg=\"\"}}"
  },
  {
    "label": "003",
    "text": "{{fun_0000000C arg=\"\"}}{{fun_0006000C arg=\"\"}}{{fun_0001000C arg=\"\"}}{{fun_0004000C arg=\"\"}}{{fun_0002000C arg=\"\"}}{{fun_0006000C arg=\"\"}}{{anim id=\"1\"}}{{ruby charSpan=\"1\" value=\"もど\"}}戻って{{ruby charSpan=\"1\" value=\"き\"}}来たな　{{fun_00080005 arg=\"\"}}{{fun_0009000C arg=\"\"}}"
  },
  {
    "label": "004",
    "text": "{{fun_0000000C arg=\"\"}}{{fun_0006000C arg=\"\"}}{{fun_0001000C arg=\"\"}}{{fun_0004000C arg=\"\"}}{{fun_0002000C arg=\"\"}}{{fun_0006000C arg=\"\"}}{{anim id=\"6\"}}オイ！{{delay frames=\"8\"}}　{{fun_00080005 arg=\"\"}}よぉ！{{delay frames=\"20\"}}\nどこで　{{ruby charSpan=\"2\" value=\"あぶらう\"}}油売ってたんでぇ？！{{delay frames=\"40\"}}\n{{anim id=\"27\"}}オレぁ　{{ruby charSpan=\"1\" value=\"ま\"}}待ちくたびれたぜ{{fun_0009000C arg=\"\"}}"
  },
  {
    "label": "005",
    "text": "{{fun_0000000C arg=\"\"}}{{fun_0007000C arg=\"\"}}{{fun_0001000C arg=\"\"}}{{fun_0008000C arg=\"\"}}{{fun_0002000C arg=\"\"}}{{fun_0006000C arg=\"\"}}ねぇ、{{delay frames=\"20\"}}{{fun_00010011 arg=\"0x0000\"}}{{fun_000D0005 arg=\"\"}}{{delay frames=\"40\"}}\nボクに　{{ruby charSpan=\"1\" value=\"なに\"}}何か　{{ruby charSpan=\"2\" value=\"ようじ\"}}用事があると\n{{ruby charSpan=\"1\" value=\"き\"}}聞いたんだけど、{{delay frames=\"8\"}}{{fun_00070005 arg=\"\"}}{{fun_0009000C arg=\"\"}}"
  },
  {
    "label": "006",
    "text": "{{fun_0000000C arg=\"\"}}{{fun_0007000C arg=\"\"}}{{fun_0001000C arg=\"\"}}{{fun_0008000C arg=\"\"}}{{fun_0002000C arg=\"\"}}{{fun_0006000C arg=\"\"}}{{fun_00010011 arg=\"0x0000\"}}{{fun_000D0005 arg=\"\"}}！{{delay frames=\"40\"}}\n{{anim id=\"44\"}}ボクに{{ruby charSpan=\"2\" value=\"ようじ\"}}用事って　{{ruby charSpan=\"2\" value=\"いったい\"}}一体　{{ruby charSpan=\"1\" value=\"なに\"}}何かな？{{fun_0009000C arg=\"\"}}"
  },
  {
    "label": "007",
    "text": "{{fun_0000000C arg=\"\"}}{{fun_0007000C arg=\"\"}}{{fun_0001000C arg=\"\"}}{{fun_0008000C arg=\"\"}}{{fun_0002000C arg=\"\"}}{{fun_0006000C arg=\"\"}}{{anim id=\"32\"}}やあ！{{delay frames=\"8\"}}　{{fun_00010011 arg=\"0x0000\"}}{{fun_000D0005 arg=\"\"}}！{{delay frames=\"40\"}}\n{{anim id=\"1\"}}{{fun_00080005 arg=\"\"}}{{fun_000D0005 arg=\"\"}}に　ここまで\n{{ruby charSpan=\"1\" value=\"つ\"}}連れて{{ruby charSpan=\"1\" value=\"き\"}}来てもらっちゃったよ{{pageBreak}}たまには　こういう{{ruby charSpan=\"2\" value=\"さんぽ\"}}散歩も\n{{ruby charSpan=\"1\" value=\"たの\"}}楽しいものだね{{pageBreak}}えーと　それで、{{delay frames=\"20\"}}\n{{anim id=\"23\"}}ボクに{{ruby charSpan=\"2\" value=\"ようじ\"}}用事って　なんだい？　{{delay frames=\"8\"}}{{fun_00070005 arg=\"\"}}？{{fun_0009000C arg=\"\"}}"
  },
  {
    "label": "008",
    "text": ""
  },
  {
    "label": "009",
    "text": "{{fun_0000000C arg=\"\"}}{{fun_0005000C arg=\"\"}}オメェから　{{ruby charSpan=\"1\" value=\"か\"}}借りた　アレだけどよぉ{{delay frames=\"40\"}}\n{{anim id=\"40\"}}やっぱり　オレの{{ruby charSpan=\"1\" value=\"はだ\"}}肌には\n{{ruby charSpan=\"1\" value=\"あ\"}}合わなかったぜ{{delay frames=\"8\"}}・{{delay frames=\"8\"}}・{{delay frames=\"8\"}}・{{pageBreak}}{{anim id=\"0\"}}こういうもんは\n{{ruby charSpan=\"1\" value=\"はや\"}}早めに　{{ruby charSpan=\"1\" value=\"かえ\"}}返しておいた{{ruby charSpan=\"1\" value=\"ほう\"}}方がいいだろ？{{delay frames=\"40\"}}\nほら、{{delay frames=\"20\"}}{{ruby charSpan=\"1\" value=\"も\"}}持って{{ruby charSpan=\"1\" value=\"かえ\"}}帰ってくれ{{fun_0009000C arg=\"\"}}"
  },
  {
    "label": "010",
    "text": "{{fun_0000000C arg=\"\"}}{{fun_0007000C arg=\"\"}}{{anim id=\"12\"}}そうかい{{delay frames=\"8\"}}・{{delay frames=\"8\"}}・{{delay frames=\"8\"}}・{{delay frames=\"20\"}}\nこの　{{fun_00030011 arg=\"0x0000\"}}の{{ruby charSpan=\"2\" value=\"みりょく\"}}魅力に\n{{ruby charSpan=\"2\" value=\"きょうかん\"}}共感して　もらえなかったんだね{{delay frames=\"8\"}}・{{delay frames=\"8\"}}・{{delay frames=\"8\"}}・{{pageBreak}}{{anim id=\"1\"}}{{ruby charSpan=\"2\" value=\"しょうじき\"}}正直に　{{ruby charSpan=\"1\" value=\"い\"}}言ってくれて　ありがとう{{delay frames=\"20\"}}\n{{ruby charSpan=\"1\" value=\"つぎ\"}}次こそは　キミにピッタリのものを\nオススメするから{{delay frames=\"8\"}}　{{ruby charSpan=\"1\" value=\"ま\"}}待っててくれ！{{pageBreak}}{{anim id=\"21\"}}こういうのって、{{delay frames=\"20\"}}\n{{ruby charSpan=\"2\" value=\"あいて\"}}相手が　なかなか　{{ruby charSpan=\"1\" value=\"き\"}}気に{{ruby charSpan=\"1\" value=\"い\"}}入ってくれないほど\n{{ruby charSpan=\"1\" value=\"も\"}}燃えるんだよね、{{delay frames=\"8\"}}{{fun_00070005 arg=\"\"}}"
  },
  {
    "label": "011",
    "text": "{{fun_0000000C arg=\"\"}}{{fun_0005000C arg=\"\"}}オメェが　{{ruby charSpan=\"1\" value=\"ほ\"}}欲しいって{{ruby charSpan=\"1\" value=\"い\"}}言ってたアレ、{{delay frames=\"20\"}}\n{{ruby charSpan=\"2\" value=\"ちょうど\"}}丁度　{{ruby charSpan=\"1\" value=\"みせ\"}}店に{{ruby charSpan=\"1\" value=\"う\"}}売ってたから\n{{ruby charSpan=\"1\" value=\"か\"}}買っといてやったぜ{{pageBreak}}{{anim id=\"1\"}}ほら{{delay frames=\"20\"}}　{{ruby charSpan=\"1\" value=\"う\"}}受け{{ruby charSpan=\"1\" value=\"と\"}}取りな、{{delay frames=\"8\"}}{{fun_00070005 arg=\"\"}}{{fun_0009000C arg=\"\"}}"
  },
  {
    "label": "012",
    "text": "{{fun_0000000C arg=\"\"}}{{fun_0007000C arg=\"\"}}{{anim id=\"15\"}}コレは{{delay frames=\"8\"}}・{{delay frames=\"8\"}}・{{delay frames=\"8\"}}・{{delay frames=\"20\"}}\nボクが　ずっと　{{ruby charSpan=\"1\" value=\"お\"}}追い{{ruby charSpan=\"1\" value=\"もと\"}}求めていた\n{{fun_00030011 arg=\"0x0000\"}}かい？{{pageBreak}}{{anim id=\"1\"}}ありがとう！{{delay frames=\"20\"}}\n{{fun_00010011 arg=\"0x0000\"}}{{fun_000D0005 arg=\"\"}}！{{pageBreak}}{{anim id=\"21\"}}キミの　さりげないやさしさ、{{delay frames=\"20\"}}\nボクが　{{ruby charSpan=\"1\" value=\"おんな\"}}女のコだったら\nメロメロだよ、{{delay frames=\"8\"}}{{fun_00070005 arg=\"\"}}"
  },
  {
    "label": "013",
    "text": "{{fun_0000000C arg=\"\"}}{{fun_0005000C arg=\"\"}}オレん{{ruby charSpan=\"1\" value=\"ち\"}}家の{{ruby charSpan=\"1\" value=\"まえ\"}}前で\n{{ruby charSpan=\"1\" value=\"お\"}}落とし{{ruby charSpan=\"1\" value=\"もん\"}}物を　{{ruby charSpan=\"1\" value=\"ひろ\"}}拾ったんだが{{delay frames=\"8\"}}・{{delay frames=\"8\"}}・{{delay frames=\"8\"}}・{{pageBreak}}{{anim id=\"23\"}}コレ　オメェのだろう？{{delay frames=\"40\"}}\n{{anim id=\"36\"}}なんか{{delay frames=\"20\"}}　におうんだよな、{{delay frames=\"8\"}}{{fun_00070005 arg=\"\"}}{{fun_0009000C arg=\"\"}}"
  },
  {
    "label": "014",
    "text": "{{fun_0000000C arg=\"\"}}{{fun_0007000C arg=\"\"}}{{anim id=\"16\"}}{{fun_000A0007 arg=\"\"}}あ、{{delay frames=\"20\"}}{{fun_00030011 arg=\"0x0000\"}}！{{delay frames=\"40\"}}\n{{ruby charSpan=\"1\" value=\"たし\"}}確かに　ボクのものだよ{{delay frames=\"8\"}}\n{{fun_00010011 arg=\"0x0000\"}}{{fun_000D0005 arg=\"\"}}{{pageBreak}}{{anim id=\"1\"}}ボクは　{{ruby charSpan=\"2\" value=\"じぶん\"}}自分の{{ruby charSpan=\"1\" value=\"も\"}}持ち{{ruby charSpan=\"1\" value=\"もの\"}}物に{{delay frames=\"20\"}}\n{{ruby charSpan=\"1\" value=\"はな\"}}花の{{ruby charSpan=\"1\" value=\"かお\"}}香りの　{{ruby charSpan=\"2\" value=\"こうすい\"}}香水を{{ruby charSpan=\"1\" value=\"つ\"}}付けているんだ{{delay frames=\"40\"}}\nいい{{ruby charSpan=\"1\" value=\"かお\"}}香りだろ？{{pageBreak}}{{anim id=\"0\"}}ニオイで　わかるって　{{ruby charSpan=\"1\" value=\"い\"}}言ってたけど、{{delay frames=\"20\"}}\n{{anim id=\"35\"}}キミも　なかなか　ビンカンだね？{{pageBreak}}{{anim id=\"11\"}}ん～～{{delay frames=\"20\"}}　でも、{{delay frames=\"40\"}}\n{{anim id=\"27\"}}{{ruby charSpan=\"2\" value=\"ほんとう\"}}本当は　レディーに\n{{ruby charSpan=\"1\" value=\"ひろ\"}}拾ってもらいたかったなぁ、{{delay frames=\"8\"}}{{fun_00070005 arg=\"\"}}"
  },
  {
    "label": "015",
    "text": "{{fun_0000000C arg=\"\"}}{{fun_0005000C arg=\"\"}}オメェが　この{{ruby charSpan=\"1\" value=\"まえ\"}}前\n{{ruby charSpan=\"1\" value=\"うち\"}}家に　{{ruby charSpan=\"1\" value=\"あそ\"}}遊びに{{ruby charSpan=\"1\" value=\"き\"}}来たとき、{{delay frames=\"20\"}}\n{{anim id=\"23\"}}みょうな　スプレーを　まいて{{ruby charSpan=\"1\" value=\"かえ\"}}帰っただろ？{{pageBreak}}{{anim id=\"6\"}}あのニオイが　{{ruby charSpan=\"1\" value=\"いま\"}}未だに\nとれねぇんだよ！{{delay frames=\"40\"}}\n{{anim id=\"7\"}}{{fun_000A0007 arg=\"\"}}オイ！{{delay frames=\"20\"}}　どうにかしろ、{{delay frames=\"8\"}}{{fun_00070005 arg=\"\"}}{{fun_0009000C arg=\"\"}}"
  },
  {
    "label": "016",
    "text": "{{fun_0000000C arg=\"\"}}{{fun_0007000C arg=\"\"}}{{anim id=\"1\"}}ああ{{delay frames=\"8\"}}・{{delay frames=\"8\"}}・{{delay frames=\"8\"}}・{{delay frames=\"20\"}}\nフレグランススプレーのことだね{{delay frames=\"40\"}}\nラベンダーの{{ruby charSpan=\"1\" value=\"かお\"}}香りの{{delay frames=\"8\"}}・{{delay frames=\"8\"}}・{{delay frames=\"8\"}}・{{pageBreak}}{{anim id=\"27\"}}せっかく　キミの{{ruby charSpan=\"2\" value=\"へや\"}}部屋を{{delay frames=\"8\"}}\nステキな{{ruby charSpan=\"1\" value=\"かお\"}}香りで　{{ruby charSpan=\"1\" value=\"み\"}}満たしてあげたのに{{delay frames=\"20\"}}\n{{ruby charSpan=\"1\" value=\"き\"}}気に{{ruby charSpan=\"1\" value=\"い\"}}入らなかったかい？{{pageBreak}}{{anim id=\"40\"}}それなら　{{ruby charSpan=\"2\" value=\"しかた\"}}仕方ないね{{delay frames=\"40\"}}\n{{anim id=\"1\"}}ボクが　{{ruby charSpan=\"1\" value=\"かぜ\"}}風を　{{ruby charSpan=\"1\" value=\"お\"}}起こせば\nニオイは　{{ruby charSpan=\"1\" value=\"ふ\"}}吹き{{ruby charSpan=\"1\" value=\"と\"}}飛ぶから　{{ruby charSpan=\"1\" value=\"み\"}}見ててくれ{{pageBreak}}{{anim id=\"42\"}}そーー{{delay frames=\"40\"}}れ！{{pageBreak}}{{anim id=\"2\"}}ハッハー！{{delay frames=\"20\"}}\nこれで　{{ruby charSpan=\"2\" value=\"もとどお\"}}元通りさ{{delay frames=\"40\"}}{{anim id=\"37\"}}"
  },
  {
    "label": "017",
    "text": "{{fun_0000000C arg=\"\"}}{{fun_0005000C arg=\"\"}}{{anim id=\"18\"}}{{fun_000A0007 arg=\"\"}}まさか　オメェ！{{delay frames=\"20\"}}\n{{ruby charSpan=\"1\" value=\"わす\"}}忘れてたのか？！{{pageBreak}}{{anim id=\"6\"}}{{ruby charSpan=\"2\" value=\"きょう\"}}今日　オレん{{ruby charSpan=\"1\" value=\"ち\"}}家に{{ruby charSpan=\"1\" value=\"く\"}}来るって\n{{ruby charSpan=\"1\" value=\"い\"}}言ってただろ？　{{delay frames=\"8\"}}{{fun_00070005 arg=\"\"}}？{{pageBreak}}オメェが　いつ{{ruby charSpan=\"1\" value=\"く\"}}来るか　わかんねぇから{{delay frames=\"20\"}}\nわざわざ　{{fun_00080005 arg=\"\"}}に{{ruby charSpan=\"1\" value=\"たの\"}}頼んで\n{{ruby charSpan=\"1\" value=\"よ\"}}呼びに{{ruby charSpan=\"1\" value=\"い\"}}行って　もらったんだぜ？{{pageBreak}}{{anim id=\"8\"}}まったく{{delay frames=\"20\"}}　{{ruby charSpan=\"2\" value=\"いったい\"}}一体\nなんの{{ruby charSpan=\"1\" value=\"よう\"}}用なんだよ！　{{delay frames=\"8\"}}{{fun_00070005 arg=\"\"}}！{{fun_0009000C arg=\"\"}}"
  },
  {
    "label": "018",
    "text": "{{fun_0000000C arg=\"\"}}{{fun_0007000C arg=\"\"}}{{anim id=\"23\"}}そうだったっけ？{{delay frames=\"40\"}}\n{{anim id=\"40\"}}それは　すまなかったね{{delay frames=\"20\"}}\n{{fun_00010011 arg=\"0x0000\"}}{{fun_000D0005 arg=\"\"}}{{pageBreak}}{{anim id=\"11\"}}なにか　{{ruby charSpan=\"2\" value=\"ようじ\"}}用事が\nあったはずなんだけど{{delay frames=\"8\"}}・{{delay frames=\"8\"}}・{{delay frames=\"8\"}}・{{pageBreak}}{{anim id=\"2\"}}{{ruby charSpan=\"1\" value=\"かみ\"}}髪の{{ruby charSpan=\"1\" value=\"け\"}}毛を　セットしている{{ruby charSpan=\"1\" value=\"あいだ\"}}間に{{delay frames=\"20\"}}\n{{ruby charSpan=\"1\" value=\"わす\"}}忘れてしまったようだ、{{delay frames=\"8\"}}{{fun_00070005 arg=\"\"}}{{delay frames=\"40\"}}{{anim id=\"37\"}}{{pageBreak}}また　{{ruby charSpan=\"2\" value=\"ようじ\"}}用事を{{ruby charSpan=\"1\" value=\"おも\"}}思いだしたら\nおじゃまするよ{{delay frames=\"40\"}}\n{{anim id=\"27\"}}いつになるかは　{{ruby charSpan=\"1\" value=\"わ\"}}分からないけどね{{delay frames=\"8\"}}・{{delay frames=\"8\"}}・{{delay frames=\"8\"}}・"
  },
  {
    "label": "019",
    "text": ""
  },
  {
    "label": "020",
    "text": "それじゃあ{{delay frames=\"20\"}}　ボクは\nそろそろ　{{ruby charSpan=\"2\" value=\"しつれい\"}}失礼しようかな{{pageBreak}}{{fun_0002000C arg=\"\"}}{{fun_0004000C arg=\"\"}}{{fun_0000000C arg=\"\"}}{{fun_0008000C arg=\"\"}}{{fun_00080005 arg=\"\"}}{{fun_000D0005 arg=\"\"}}{{delay frames=\"20\"}}\n{{ruby charSpan=\"2\" value=\"あんない\"}}案内してくれて　ありがとう{{pageBreak}}{{anim id=\"1\"}}キミと{{ruby charSpan=\"2\" value=\"ふたり\"}}二人で{{ruby charSpan=\"1\" value=\"ある\"}}歩いた{{ruby charSpan=\"1\" value=\"みち\"}}道を\nたどりながら{{ruby charSpan=\"1\" value=\"かえ\"}}帰るとしよう{{delay frames=\"8\"}}・{{delay frames=\"8\"}}・{{delay frames=\"8\"}}・{{delay frames=\"20\"}}\n{{anim id=\"32\"}}それじゃっ！"
  },
  {
    "label": "021",
    "text": "さてと{{delay frames=\"8\"}}・{{delay frames=\"8\"}}・{{delay frames=\"8\"}}・{{delay frames=\"20\"}}\nあわただしくて　{{ruby charSpan=\"1\" value=\"もう\"}}申し{{ruby charSpan=\"1\" value=\"わけ\"}}訳ないけど{{delay frames=\"20\"}}\nボクは　そろそろ{{ruby charSpan=\"1\" value=\"かえ\"}}帰るよ{{pageBreak}}{{fun_0002000C arg=\"\"}}{{fun_0004000C arg=\"\"}}{{fun_0000000C arg=\"\"}}{{fun_0008000C arg=\"\"}}{{fun_00080005 arg=\"\"}}{{fun_000D0005 arg=\"\"}}、{{delay frames=\"20\"}}\nキミには　お{{ruby charSpan=\"2\" value=\"せわ\"}}世話になったね{{delay frames=\"20\"}}\nありがとう、{{delay frames=\"8\"}}{{fun_00070005 arg=\"\"}}{{pageBreak}}{{anim id=\"32\"}}それじゃっ！"
  },
  {
    "label": "022",
    "text": "それじゃあ{{delay frames=\"20\"}}\nそろそろ　{{ruby charSpan=\"2\" value=\"しつれい\"}}失礼するよ{{pageBreak}}{{fun_0002000C arg=\"\"}}{{fun_0004000C arg=\"\"}}{{fun_0000000C arg=\"\"}}{{fun_0008000C arg=\"\"}}{{fun_00080005 arg=\"\"}}{{fun_000D0005 arg=\"\"}}{{delay frames=\"20\"}}\n{{ruby charSpan=\"2\" value=\"あんない\"}}案内してくれて　ありがとう{{delay frames=\"40\"}}\nまた{{ruby charSpan=\"1\" value=\"あ\"}}会おう、{{delay frames=\"8\"}}{{fun_00070005 arg=\"\"}}"
  },
  {
    "label": "023",
    "text": ""
  }
]