﻿[
  {
    "label": "001",
    "text": "{{anim id=\"32\"}}よう！　{{delay frames=\"8\"}}{{fun_00000005 arg=\"\"}}！{{delay frames=\"30\"}}\n{{ruby charSpan=\"2\" value=\"あした\"}}明日の{{ruby charSpan=\"2\" value=\"ひっこ\"}}引越しに{{ruby charSpan=\"1\" value=\"そな\"}}備えて{{delay frames=\"20\"}}\n{{ruby charSpan=\"1\" value=\"いま\"}}今　{{ruby charSpan=\"2\" value=\"にづく\"}}荷造りをしてるところさ\n{{anim id=\"36\"}}オメェの　シケたツラも{{delay frames=\"20\"}}\nひとまず　{{delay frames=\"8\"}}{{ruby charSpan=\"2\" value=\"きょう\"}}今日が{{ruby charSpan=\"2\" value=\"みおさ\"}}見納めってワケだな{{pageBreak}}{{anim id=\"1\"}}またどこかで{{ruby charSpan=\"1\" value=\"あ\"}}会うときまで{{delay frames=\"20\"}}\nオメェのことは　{{ruby charSpan=\"1\" value=\"わす\"}}忘れずにいるぜ！{{delay frames=\"20\"}}\n{{anim id=\"35\"}}{{ruby charSpan=\"1\" value=\"いま\"}}今まで　ありがとな！"
  },
  {
    "label": "002",
    "text": "{{anim id=\"32\"}}よう！　{{delay frames=\"8\"}}{{fun_00000005 arg=\"\"}}！{{delay frames=\"30\"}}\n{{anim id=\"37\"}}いよいよ　{{ruby charSpan=\"2\" value=\"にづく\"}}荷造りを{{ruby charSpan=\"1\" value=\"はじ\"}}始めたのさ、{{delay frames=\"20\"}}\n{{ruby charSpan=\"2\" value=\"あした\"}}明日は　{{ruby charSpan=\"2\" value=\"ひっこ\"}}引越しだからな！\n{{anim id=\"36\"}}オレがいなくなったら{{delay frames=\"8\"}}\n{{ruby charSpan=\"1\" value=\"すこ\"}}少しは　さびしがってくれよな？！{{delay frames=\"20\"}}\n{{anim id=\"2\"}}がーっはっは！{{delay frames=\"30\"}}{{anim id=\"1\"}}"
  },
  {
    "label": "003",
    "text": "{{anim id=\"32\"}}よう！　{{delay frames=\"8\"}}{{fun_00000005 arg=\"\"}}！{{delay frames=\"20\"}}\n{{ruby charSpan=\"2\" value=\"にづく\"}}荷造りを　{{ruby charSpan=\"2\" value=\"てつだ\"}}手伝いにきたのか？{{delay frames=\"30\"}}\n{{anim id=\"36\"}}なーんてな？　{{anim id=\"2\"}}がーっはっは！{{delay frames=\"30\"}}{{anim id=\"1\"}}\nオレがいなくなっても{{delay frames=\"20\"}}\nオメェが　{{fun_00050005 arg=\"\"}}{{ruby charSpan=\"1\" value=\"むら\"}}村を{{delay frames=\"8\"}}\n{{ruby charSpan=\"1\" value=\"も\"}}盛り{{ruby charSpan=\"1\" value=\"た\"}}立てていってくれよな、{{delay frames=\"20\"}}{{fun_00070005 arg=\"\"}}！"
  },
  {
    "label": "004",
    "text": "{{anim id=\"16\"}}あっ！　{{delay frames=\"8\"}}{{fun_00000005 arg=\"\"}}！{{delay frames=\"20\"}}\n{{anim id=\"39\"}}オメェにとっちゃ　{{ruby charSpan=\"1\" value=\"きゅう\"}}急な{{ruby charSpan=\"1\" value=\"はなし\"}}話だが{{delay frames=\"20\"}}\nオレ　{{ruby charSpan=\"2\" value=\"あした\"}}明日　{{ruby charSpan=\"2\" value=\"ひっこ\"}}引越すんだよな\nなかなか　{{delay frames=\"8\"}}{{ruby charSpan=\"1\" value=\"い\"}}言う{{ruby charSpan=\"2\" value=\"きかい\"}}機会がなくってな{{delay frames=\"8\"}}・{{delay frames=\"8\"}}・{{delay frames=\"8\"}}・{{delay frames=\"30\"}}\n{{anim id=\"9\"}}で、{{delay frames=\"8\"}}{{ruby charSpan=\"1\" value=\"いま\"}}今は　その{{ruby charSpan=\"3\" value=\"じゅんびちゅう\"}}準備中ってワケだ{{pageBreak}}{{anim id=\"38\"}}{{ruby charSpan=\"1\" value=\"いま\"}}今まで　ありがとよ！{{fun_00010007 arg=\"\"}}\n{{anim id=\"36\"}}{{ruby charSpan=\"1\" value=\"いま\"}}今までどおり　{{ruby charSpan=\"2\" value=\"げんき\"}}元気でアホな{{delay frames=\"8\"}}\nオメェでいてくれよな！"
  },
  {
    "label": "005",
    "text": "{{anim id=\"23\"}}ん？　{{delay frames=\"20\"}}オメェとは{{ruby charSpan=\"1\" value=\"はじ\"}}初めて{{ruby charSpan=\"1\" value=\"あ\"}}会うよな？{{pageBreak}}{{anim id=\"32\"}}オレぁ　{{fun_00010005 arg=\"\"}}ってモンだ！{{delay frames=\"8\"}}\nよろしくな！{{pageBreak}}{{delay frames=\"8\"}}・{{delay frames=\"8\"}}・{{delay frames=\"8\"}}・{{delay frames=\"8\"}}{{anim id=\"9\"}}っていうか、{{delay frames=\"8\"}}\nオレ{{ruby charSpan=\"2\" value=\"あした\"}}明日ここを　{{ruby charSpan=\"1\" value=\"で\"}}出て{{ruby charSpan=\"1\" value=\"い\"}}行くんだよ{{delay frames=\"20\"}}\n{{anim id=\"11\"}}{{delay frames=\"16\"}}こういう{{ruby charSpan=\"2\" value=\"であ\"}}出会いも　あるんだなぁ{{delay frames=\"8\"}}・{{delay frames=\"8\"}}・{{delay frames=\"8\"}}・\n{{anim id=\"37\"}}ま、{{delay frames=\"8\"}}オレに{{ruby charSpan=\"1\" value=\"か\"}}代わって　っていうとナンだが{{delay frames=\"20\"}}\n{{fun_00050005 arg=\"\"}}{{ruby charSpan=\"1\" value=\"むら\"}}村を{{delay frames=\"8\"}}\n{{ruby charSpan=\"1\" value=\"も\"}}盛り{{ruby charSpan=\"1\" value=\"あ\"}}上げてってくれよな！　{{delay frames=\"20\"}}{{fun_00070005 arg=\"\"}}！"
  },
  {
    "label": "006",
    "text": "{{anim id=\"32\"}}よう！　{{delay frames=\"8\"}}{{fun_00000005 arg=\"\"}}じゃねぇか！{{delay frames=\"30\"}}\n{{ruby charSpan=\"1\" value=\"あそ\"}}遊びに{{ruby charSpan=\"1\" value=\"き\"}}来てくれたのかい？！{{pageBreak}}{{anim id=\"36\"}}しかしまぁ{{delay frames=\"20\"}}\nタイミングが{{ruby charSpan=\"1\" value=\"わり\"}}悪ぃっていうか{{delay frames=\"8\"}}・{{delay frames=\"8\"}}・{{delay frames=\"8\"}}・{{delay frames=\"20\"}}\n{{anim id=\"35\"}}いや、{{delay frames=\"8\"}}むしろタイミングがいいのか？！\n{{anim id=\"9\"}}{{ruby charSpan=\"1\" value=\"じつ\"}}実はオレ、{{delay frames=\"8\"}}{{ruby charSpan=\"2\" value=\"あした\"}}明日\n{{ruby charSpan=\"2\" value=\"ひっこ\"}}引越してっちまうんだよ！{{delay frames=\"20\"}}\nこの{{ruby charSpan=\"1\" value=\"むら\"}}村も　{{ruby charSpan=\"2\" value=\"きょう\"}}今日が{{ruby charSpan=\"2\" value=\"さいご\"}}最後ってワケさ！\n{{anim id=\"37\"}}こうしてオメェと　アイサツできて{{delay frames=\"20\"}}\nホントに　{{ruby charSpan=\"1\" value=\"よ\"}}良かったぜ！{{delay frames=\"20\"}}\n{{ruby charSpan=\"2\" value=\"げんき\"}}元気でな、{{delay frames=\"20\"}}{{fun_00070005 arg=\"\"}}！"
  },
  {
    "label": "007",
    "text": "{{anim id=\"23\"}}ん？　{{delay frames=\"20\"}}オメェとは{{ruby charSpan=\"1\" value=\"はじ\"}}初めて{{ruby charSpan=\"1\" value=\"あ\"}}会うよな？{{delay frames=\"20\"}}\n{{ruby charSpan=\"1\" value=\"たず\"}}訪ねて{{ruby charSpan=\"1\" value=\"き\"}}来てくれたのかい？{{pageBreak}}{{anim id=\"32\"}}オレぁ　{{delay frames=\"8\"}}{{fun_00010005 arg=\"\"}}ってモンだ！{{delay frames=\"20\"}}\nよろしくな！{{pageBreak}}{{delay frames=\"8\"}}・{{delay frames=\"8\"}}・{{delay frames=\"8\"}}・{{delay frames=\"8\"}}{{anim id=\"9\"}}っていうか、{{delay frames=\"20\"}}\nオレ{{ruby charSpan=\"2\" value=\"あした\"}}明日ここを　{{delay frames=\"8\"}}{{ruby charSpan=\"1\" value=\"で\"}}出て{{ruby charSpan=\"1\" value=\"い\"}}行くんだよ{{delay frames=\"20\"}}\n{{anim id=\"11\"}}{{delay frames=\"16\"}}こういう{{ruby charSpan=\"2\" value=\"であ\"}}出会いも　あるんだなぁ{{delay frames=\"8\"}}・{{delay frames=\"8\"}}・{{delay frames=\"8\"}}・\n{{anim id=\"37\"}}ま、{{delay frames=\"8\"}}オレは　いなくなるけど{{delay frames=\"20\"}}\n{{fun_00050005 arg=\"\"}}{{ruby charSpan=\"1\" value=\"むら\"}}村の{{ruby charSpan=\"2\" value=\"れんちゅう\"}}連中と{{delay frames=\"8\"}}\n{{ruby charSpan=\"2\" value=\"なかよ\"}}仲良くしてやってくれよな！"
  },
  {
    "label": "008",
    "text": "{{anim id=\"32\"}}よう！　{{delay frames=\"8\"}}{{fun_00000005 arg=\"\"}}じゃねぇか！{{delay frames=\"20\"}}\n{{ruby charSpan=\"1\" value=\"あそ\"}}遊びに{{ruby charSpan=\"1\" value=\"き\"}}来てくれたのかい？！{{pageBreak}}{{anim id=\"36\"}}しかしまぁ{{delay frames=\"20\"}}\nタイミングが{{ruby charSpan=\"1\" value=\"わり\"}}悪ぃっていうか{{delay frames=\"8\"}}・{{delay frames=\"8\"}}・{{delay frames=\"8\"}}・{{delay frames=\"20\"}}\n{{anim id=\"35\"}}いや、{{delay frames=\"8\"}}むしろタイミングがいいのか？！\n{{anim id=\"9\"}}{{ruby charSpan=\"1\" value=\"じつ\"}}実はオレ、{{delay frames=\"8\"}}{{ruby charSpan=\"2\" value=\"あした\"}}明日\n{{ruby charSpan=\"2\" value=\"ひっこ\"}}引越してっちまうんだよ！{{delay frames=\"20\"}}\nこの{{ruby charSpan=\"1\" value=\"むら\"}}村も　{{delay frames=\"8\"}}{{ruby charSpan=\"2\" value=\"きょう\"}}今日が{{ruby charSpan=\"2\" value=\"さいご\"}}最後ってワケさ！\n{{anim id=\"37\"}}とはいうものの{{delay frames=\"8\"}}　どこへ{{ruby charSpan=\"2\" value=\"ひっこ\"}}引越すか{{delay frames=\"20\"}}\nまだ{{ruby charSpan=\"1\" value=\"き\"}}決まってねぇんだけどな！{{delay frames=\"20\"}}\n{{anim id=\"2\"}}がーっはっは！{{delay frames=\"30\"}}{{anim id=\"1\"}}{{fun_0005000F arg=\"0x00000000\"}}\nうちの{{ruby charSpan=\"1\" value=\"むら\"}}村においでよ！\nあははは・・・"
  },
  {
    "label": "009",
    "text": "{{anim id=\"36\"}}へへっ！{{delay frames=\"8\"}}\nまあ、{{delay frames=\"8\"}}ダイジョーブだ！{{delay frames=\"20\"}}\nなんとかなるだろうよ！\n{{anim id=\"37\"}}ま、{{delay frames=\"8\"}}なんにせよ、{{delay frames=\"8\"}}\n{{ruby charSpan=\"2\" value=\"さいご\"}}最後に　オメェとこうして{{delay frames=\"20\"}}\nアイサツできて{{delay frames=\"8\"}}　ホントよかったぜ！\n{{anim id=\"1\"}}オレは{{ruby charSpan=\"2\" value=\"ひっこ\"}}引越しちまうが、{{delay frames=\"8\"}}\nこれからも　{{fun_00050005 arg=\"\"}}{{ruby charSpan=\"1\" value=\"むら\"}}村には{{delay frames=\"20\"}}\n{{ruby charSpan=\"1\" value=\"あそ\"}}遊びに{{ruby charSpan=\"1\" value=\"き\"}}来てやってくれよな！"
  },
  {
    "label": "010",
    "text": "{{delay frames=\"8\"}}・{{delay frames=\"8\"}}・{{delay frames=\"8\"}}・{{delay frames=\"8\"}}{{anim id=\"15\"}}えっ？！{{fun_00010007 arg=\"\"}}\nオメェ　それマジで{{ruby charSpan=\"1\" value=\"い\"}}言ってる？{{pageBreak}}{{anim id=\"0\"}}{{delay frames=\"8\"}}・{{delay frames=\"8\"}}・{{delay frames=\"8\"}}・{{delay frames=\"8\"}}・{{delay frames=\"8\"}}・{{delay frames=\"8\"}}・{{delay frames=\"8\"}}・{{delay frames=\"8\"}}・{{delay frames=\"8\"}}・{{pageBreak}}{{anim id=\"21\"}}なるほど、{{delay frames=\"8\"}}{{ruby charSpan=\"1\" value=\"わる\"}}悪くねぇ{{ruby charSpan=\"1\" value=\"かんが\"}}考えだな！{{delay frames=\"20\"}}\nオメェとなら{{delay frames=\"8\"}}\n{{ruby charSpan=\"1\" value=\"たの\"}}楽しくやっていけそうだわ\n{{anim id=\"38\"}}よーし、{{delay frames=\"8\"}}{{ruby charSpan=\"1\" value=\"き\"}}決めた！{{delay frames=\"20\"}}\n{{anim id=\"5\"}}{{ruby charSpan=\"2\" value=\"ひっこ\"}}引越し{{ruby charSpan=\"1\" value=\"さき\"}}先は{{delay frames=\"8\"}}\n{{fun_00060005 arg=\"\"}}{{ruby charSpan=\"1\" value=\"むら\"}}村に　{{ruby charSpan=\"2\" value=\"けってい\"}}決定だぁ！\n{{anim id=\"1\"}}{{ruby charSpan=\"2\" value=\"こんご\"}}今後とも　よろしくな、{{delay frames=\"20\"}}{{fun_00070005 arg=\"\"}}！"
  },
  {
    "label": "011",
    "text": "{{delay frames=\"8\"}}・{{delay frames=\"8\"}}・{{delay frames=\"8\"}}・{{delay frames=\"8\"}}{{anim id=\"15\"}}えっ？！{{fun_00010007 arg=\"\"}}\nオメェ　それマジで{{ruby charSpan=\"1\" value=\"い\"}}言ってる？{{pageBreak}}{{anim id=\"0\"}}{{delay frames=\"8\"}}・{{delay frames=\"8\"}}・{{delay frames=\"8\"}}・{{delay frames=\"8\"}}・{{delay frames=\"8\"}}・{{delay frames=\"8\"}}・{{delay frames=\"8\"}}・{{delay frames=\"8\"}}・{{delay frames=\"8\"}}・{{pageBreak}}{{anim id=\"21\"}}なるほど、{{delay frames=\"8\"}}それもアリだな！{{delay frames=\"20\"}}\nまたオメェと{{ruby charSpan=\"2\" value=\"いっしょ\"}}一緒ってぇのも{{delay frames=\"20\"}}\nオモシロそうだぜ！\n{{anim id=\"38\"}}よーし、{{delay frames=\"8\"}}{{ruby charSpan=\"1\" value=\"き\"}}決めた！{{delay frames=\"30\"}}\n{{anim id=\"5\"}}{{ruby charSpan=\"2\" value=\"ひっこ\"}}引越し{{ruby charSpan=\"1\" value=\"さき\"}}先は{{delay frames=\"8\"}}\n{{fun_00060005 arg=\"\"}}{{ruby charSpan=\"1\" value=\"むら\"}}村に　{{ruby charSpan=\"2\" value=\"けってい\"}}決定だぁ！\n{{anim id=\"1\"}}{{ruby charSpan=\"2\" value=\"ひっこ\"}}引越しが　すんだら{{delay frames=\"20\"}}\nまた　ゆっくり{{ruby charSpan=\"1\" value=\"はな\"}}話そうぜ！"
  },
  {
    "label": "012",
    "text": "{{anim id=\"23\"}}ん？　{{delay frames=\"20\"}}オメェとは{{ruby charSpan=\"1\" value=\"はじ\"}}初めて{{ruby charSpan=\"1\" value=\"あ\"}}会うよな？{{delay frames=\"30\"}}\n{{anim id=\"32\"}}オレぁ　{{delay frames=\"8\"}}{{fun_00010005 arg=\"\"}}ってモンだ！{{delay frames=\"20\"}}\nよろしくな！\n{{delay frames=\"8\"}}・{{delay frames=\"8\"}}・{{delay frames=\"8\"}}・{{delay frames=\"8\"}}{{anim id=\"9\"}}っていうか、{{delay frames=\"8\"}}{{ruby charSpan=\"2\" value=\"ざんねん\"}}残念ながら{{delay frames=\"20\"}}\nオレ{{ruby charSpan=\"2\" value=\"あした\"}}明日には　ここを{{delay frames=\"8\"}}\n{{ruby charSpan=\"1\" value=\"で\"}}出て{{ruby charSpan=\"1\" value=\"い\"}}行くんだよな\n{{anim id=\"36\"}}とは{{ruby charSpan=\"1\" value=\"い\"}}言っても　どこへ{{ruby charSpan=\"1\" value=\"い\"}}行くか{{delay frames=\"20\"}}\nまだちゃんとは　{{delay frames=\"8\"}}{{ruby charSpan=\"1\" value=\"き\"}}決めてねぇんだけどな{{delay frames=\"20\"}}\n{{anim id=\"2\"}}がーっはっは！{{delay frames=\"30\"}}{{anim id=\"1\"}}{{fun_0005000F arg=\"0x00000000\"}}\nうちの{{ruby charSpan=\"1\" value=\"むら\"}}村へおいでよ！\nそりゃ{{ruby charSpan=\"2\" value=\"たいへん\"}}大変だねぇ"
  },
  {
    "label": "013",
    "text": "{{anim id=\"36\"}}へへっ！{{delay frames=\"20\"}}\nまあ、{{delay frames=\"8\"}}どこへ{{ruby charSpan=\"1\" value=\"い\"}}行こうが\nなんとでもなるさ、{{delay frames=\"20\"}}{{fun_00070005 arg=\"\"}}！"
  },
  {
    "label": "014",
    "text": "{{delay frames=\"8\"}}・{{delay frames=\"8\"}}・{{delay frames=\"8\"}}・{{delay frames=\"8\"}}{{anim id=\"15\"}}えっ？！{{fun_00010007 arg=\"\"}}\nオメェ　それマジで{{ruby charSpan=\"1\" value=\"い\"}}言ってる？{{pageBreak}}{{anim id=\"0\"}}{{delay frames=\"8\"}}・{{delay frames=\"8\"}}・{{delay frames=\"8\"}}・{{delay frames=\"8\"}}・{{delay frames=\"8\"}}・{{delay frames=\"8\"}}・{{delay frames=\"8\"}}・{{delay frames=\"8\"}}・{{delay frames=\"8\"}}・{{pageBreak}}{{anim id=\"21\"}}なるほど、{{delay frames=\"8\"}}{{ruby charSpan=\"1\" value=\"わる\"}}悪くねぇ{{ruby charSpan=\"1\" value=\"かんが\"}}考えだな！{{delay frames=\"20\"}}\nこんなふうに　オメェと{{delay frames=\"8\"}}\n{{ruby charSpan=\"2\" value=\"であ\"}}出会ったのも　{{ruby charSpan=\"1\" value=\"なに\"}}何かの{{ruby charSpan=\"1\" value=\"えん\"}}縁だ\n{{anim id=\"15\"}}ところで　オメェの{{ruby charSpan=\"1\" value=\"むら\"}}村は{{delay frames=\"8\"}}・{{delay frames=\"8\"}}・{{delay frames=\"8\"}}・\n{{anim id=\"21\"}}ほう、{{delay frames=\"20\"}}{{fun_00060005 arg=\"\"}}{{ruby charSpan=\"1\" value=\"むら\"}}村っていうのかい{{pageBreak}}{{anim id=\"38\"}}よーし、{{delay frames=\"8\"}}{{ruby charSpan=\"1\" value=\"き\"}}決めた！{{delay frames=\"30\"}}\n{{anim id=\"5\"}}{{ruby charSpan=\"2\" value=\"ひっこ\"}}引越し{{ruby charSpan=\"1\" value=\"さき\"}}先は{{delay frames=\"8\"}}\n{{fun_00060005 arg=\"\"}}{{ruby charSpan=\"1\" value=\"むら\"}}村に　{{ruby charSpan=\"2\" value=\"けってい\"}}決定だぁ！\n{{delay frames=\"8\"}}・{{delay frames=\"8\"}}・{{delay frames=\"8\"}}・{{delay frames=\"8\"}}{{anim id=\"37\"}}ってことで、{{delay frames=\"20\"}}\n{{ruby charSpan=\"2\" value=\"ひっこ\"}}引越しがすんだら{{delay frames=\"20\"}}\nまた　ゆっくり{{ruby charSpan=\"1\" value=\"はな\"}}話そうぜ！"
  },
  {
    "label": "015",
    "text": "{{anim id=\"41\"}}しまった！{{delay frames=\"30\"}}\nどのダンボールに　{{ruby charSpan=\"1\" value=\"なに\"}}何が{{ruby charSpan=\"1\" value=\"はい\"}}入ってるか{{delay frames=\"20\"}}\n{{ruby charSpan=\"1\" value=\"か\"}}書いとくの　{{ruby charSpan=\"1\" value=\"わす\"}}忘れちまってた！"
  },
  {
    "label": "016",
    "text": "{{anim id=\"16\"}}あっ！{{delay frames=\"30\"}}\n{{anim id=\"9\"}}{{ruby charSpan=\"1\" value=\"は\"}}歯ブラシまで{{delay frames=\"8\"}}\nかたづけちまった{{delay frames=\"8\"}}・{{delay frames=\"8\"}}・{{delay frames=\"8\"}}・"
  },
  {
    "label": "017",
    "text": "{{anim id=\"11\"}}{{delay frames=\"16\"}}えーっと{{delay frames=\"8\"}}・{{delay frames=\"8\"}}・{{delay frames=\"8\"}}・、{{delay frames=\"20\"}}\n{{delay frames=\"15\"}}{{fun_000F0005 arg=\"0x0000\"}}は{{delay frames=\"8\"}}\nどこに　{{ruby charSpan=\"1\" value=\"い\"}}入れたっけかな{{delay frames=\"8\"}}・{{delay frames=\"8\"}}・{{delay frames=\"8\"}}・"
  },
  {
    "label": "018",
    "text": "{{anim id=\"6\"}}{{fun_00050005 arg=\"\"}}{{ruby charSpan=\"1\" value=\"むら\"}}村と　オメェのことは{{delay frames=\"8\"}}\n{{ruby charSpan=\"2\" value=\"いっしょう\"}}一生　{{ruby charSpan=\"1\" value=\"わす\"}}忘れねぇぜ！{{delay frames=\"20\"}}\n{{delay frames=\"8\"}}・{{delay frames=\"8\"}}・{{delay frames=\"8\"}}・{{delay frames=\"8\"}}{{anim id=\"36\"}}たぶんな、{{delay frames=\"20\"}}{{anim id=\"2\"}}がーっはっは！{{delay frames=\"30\"}}{{anim id=\"1\"}}"
  },
  {
    "label": "019",
    "text": "オレよぉ、{{delay frames=\"20\"}}\n{{anim id=\"44\"}}{{fun_00020011 arg=\"0x0000\"}}{{ruby charSpan=\"1\" value=\"むら\"}}村に　{{ruby charSpan=\"1\" value=\"い\"}}行くことにしたぜ！{{pageBreak}}{{anim id=\"37\"}}オレに{{ruby charSpan=\"1\" value=\"あ\"}}会いたくなったら{{delay frames=\"20\"}}\n{{fun_00020011 arg=\"0x0000\"}}{{ruby charSpan=\"1\" value=\"むら\"}}村に{{delay frames=\"8\"}}\n{{ruby charSpan=\"1\" value=\"あそ\"}}遊びに{{ruby charSpan=\"1\" value=\"き\"}}来てくれよな！　{{delay frames=\"20\"}}{{fun_00070005 arg=\"\"}}！"
  },
  {
    "label": "020",
    "text": "{{ruby charSpan=\"1\" value=\"つぎ\"}}次の{{ruby charSpan=\"2\" value=\"ひっこ\"}}引越し{{ruby charSpan=\"1\" value=\"さき\"}}先は{{delay frames=\"20\"}}\n{{anim id=\"21\"}}{{fun_00020011 arg=\"0x0000\"}}{{ruby charSpan=\"1\" value=\"むら\"}}村ってところだ！{{pageBreak}}{{anim id=\"37\"}}もし{{ruby charSpan=\"1\" value=\"し\"}}知ってたら{{delay frames=\"20\"}}\nまた{{ruby charSpan=\"2\" value=\"こんど\"}}今度　{{ruby charSpan=\"1\" value=\"あそ\"}}遊びに{{ruby charSpan=\"1\" value=\"き\"}}来てくれよな！"
  },
  {
    "label": "021",
    "text": "{{anim id=\"37\"}}{{ruby charSpan=\"1\" value=\"つぎ\"}}次に{{ruby charSpan=\"1\" value=\"あ\"}}会うときは{{delay frames=\"20\"}}\n{{fun_00060005 arg=\"\"}}{{ruby charSpan=\"1\" value=\"むら\"}}村の{{delay frames=\"8\"}}\n{{ruby charSpan=\"4\" value=\"じゅうみんどうし\"}}住民同士ってワケだな！　{{delay frames=\"20\"}}{{fun_00070005 arg=\"\"}}！"
  },
  {
    "label": "022",
    "text": "{{anim id=\"36\"}}へへっ！{{delay frames=\"20\"}}\nまたオメェとの　{{ruby charSpan=\"2\" value=\"きんじょ\"}}近所{{ruby charSpan=\"1\" value=\"づ\"}}付き{{ruby charSpan=\"1\" value=\"あ\"}}合いが{{delay frames=\"8\"}}\n{{ruby charSpan=\"1\" value=\"はじ\"}}始まるってワケだな！"
  },
  {
    "label": "023",
    "text": "{{anim id=\"11\"}}{{delay frames=\"16\"}}さぁーて、{{delay frames=\"20\"}}\n{{ruby charSpan=\"1\" value=\"で\"}}出て{{ruby charSpan=\"1\" value=\"い\"}}行くことは{{ruby charSpan=\"1\" value=\"き\"}}決めたものの{{delay frames=\"20\"}}\n{{ruby charSpan=\"2\" value=\"もんだい\"}}問題は　どこへ{{ruby charSpan=\"2\" value=\"ひっこ\"}}引越すかだな{{delay frames=\"8\"}}・{{delay frames=\"8\"}}・{{delay frames=\"8\"}}・\n{{anim id=\"0\"}}オメェ　どこか{{delay frames=\"8\"}}\nオススメの{{ruby charSpan=\"1\" value=\"むら\"}}村があったら{{delay frames=\"20\"}}\n{{ruby charSpan=\"1\" value=\"おし\"}}教えてくんねぇかな？{{fun_0005000F arg=\"0x00000000\"}}\nうちの{{ruby charSpan=\"1\" value=\"むら\"}}村へおいでよ！\n{{ruby charSpan=\"1\" value=\"おも\"}}思いつかないなぁ"
  },
  {
    "label": "024",
    "text": "{{anim id=\"9\"}}そうかい？！{{delay frames=\"30\"}}\n{{anim id=\"37\"}}まあ、{{delay frames=\"8\"}}どこへ{{ruby charSpan=\"1\" value=\"い\"}}行こうが\nなんとでもなるさ、{{delay frames=\"20\"}}{{fun_00070005 arg=\"\"}}！"
  },
  {
    "label": "025",
    "text": "{{delay frames=\"8\"}}・{{delay frames=\"8\"}}・{{delay frames=\"8\"}}・{{delay frames=\"8\"}}{{anim id=\"15\"}}えっ？！{{fun_00010007 arg=\"\"}}\nオメェ　それマジで{{ruby charSpan=\"1\" value=\"い\"}}言ってる？{{pageBreak}}{{anim id=\"0\"}}{{delay frames=\"8\"}}・{{delay frames=\"8\"}}・{{delay frames=\"8\"}}・{{delay frames=\"8\"}}・{{delay frames=\"8\"}}・{{delay frames=\"8\"}}・{{delay frames=\"8\"}}・{{delay frames=\"8\"}}・{{delay frames=\"8\"}}・{{pageBreak}}{{anim id=\"21\"}}なるほど、{{delay frames=\"8\"}}{{ruby charSpan=\"1\" value=\"わる\"}}悪くねぇ{{ruby charSpan=\"1\" value=\"かんが\"}}考えだな！{{delay frames=\"20\"}}\n{{anim id=\"37\"}}オメェとなら{{delay frames=\"8\"}}\n{{ruby charSpan=\"1\" value=\"たの\"}}楽しくやっていけそうだわ\n{{anim id=\"38\"}}よーし、{{delay frames=\"8\"}}{{ruby charSpan=\"1\" value=\"き\"}}決めた！{{delay frames=\"30\"}}\n{{anim id=\"5\"}}{{ruby charSpan=\"2\" value=\"ひっこ\"}}引越し{{ruby charSpan=\"1\" value=\"さき\"}}先は{{delay frames=\"8\"}}\n{{fun_00060005 arg=\"\"}}{{ruby charSpan=\"1\" value=\"むら\"}}村に　{{ruby charSpan=\"2\" value=\"けってい\"}}決定だぁ！\n{{anim id=\"1\"}}{{ruby charSpan=\"2\" value=\"こんご\"}}今後とも　よろしくな、{{delay frames=\"20\"}}{{fun_00070005 arg=\"\"}}！"
  },
  {
    "label": "026",
    "text": "{{delay frames=\"8\"}}・{{delay frames=\"8\"}}・{{delay frames=\"8\"}}・{{delay frames=\"8\"}}{{anim id=\"15\"}}えっ？！{{fun_00010007 arg=\"\"}}\nオメェ　それマジで{{ruby charSpan=\"1\" value=\"い\"}}言ってる？{{pageBreak}}{{anim id=\"0\"}}{{delay frames=\"8\"}}・{{delay frames=\"8\"}}・{{delay frames=\"8\"}}・{{delay frames=\"8\"}}・{{delay frames=\"8\"}}・{{delay frames=\"8\"}}・{{delay frames=\"8\"}}・{{delay frames=\"8\"}}・{{delay frames=\"8\"}}・{{pageBreak}}{{anim id=\"21\"}}なるほど、{{delay frames=\"8\"}}それもアリだな！{{delay frames=\"30\"}}\n{{anim id=\"37\"}}またオメェと{{ruby charSpan=\"2\" value=\"いっしょ\"}}一緒ってぇのも{{delay frames=\"20\"}}\nオモシロそうだぜ！\n{{anim id=\"38\"}}よーし、{{delay frames=\"8\"}}{{ruby charSpan=\"1\" value=\"き\"}}決めた！{{delay frames=\"30\"}}\n{{anim id=\"5\"}}{{ruby charSpan=\"2\" value=\"ひっこ\"}}引越し{{ruby charSpan=\"1\" value=\"さき\"}}先は{{delay frames=\"8\"}}\n{{fun_00060005 arg=\"\"}}{{ruby charSpan=\"1\" value=\"むら\"}}村に　{{ruby charSpan=\"2\" value=\"けってい\"}}決定だぁ！\n{{anim id=\"1\"}}{{ruby charSpan=\"2\" value=\"ひっこ\"}}引越しがすんだら{{delay frames=\"20\"}}\nまた　ゆっくり{{ruby charSpan=\"1\" value=\"はな\"}}話そうぜ！"
  },
  {
    "label": "027",
    "text": "{{anim id=\"15\"}}おっと、{{delay frames=\"16\"}}{{ruby charSpan=\"1\" value=\"み\"}}見つかっちまったか！{{fun_00010007 arg=\"\"}}\n{{anim id=\"37\"}}ま、{{delay frames=\"8\"}}{{ruby charSpan=\"1\" value=\"み\"}}見ての{{ruby charSpan=\"1\" value=\"とお\"}}通り、{{delay frames=\"12\"}}\nこの{{ruby charSpan=\"1\" value=\"むら\"}}村を{{ruby charSpan=\"1\" value=\"で\"}}出て{{ruby charSpan=\"1\" value=\"い\"}}行くことにしたのさ\n{{anim id=\"0\"}}なんで{{ruby charSpan=\"1\" value=\"きゅう\"}}急にって　{{anim id=\"9\"}}そりゃオメェ{{delay frames=\"8\"}}・{{delay frames=\"8\"}}・{{delay frames=\"8\"}}・{{pageBreak}}タンスのすき{{ruby charSpan=\"1\" value=\"ま\"}}間から{{delay frames=\"8\"}}\n{{anim id=\"20\"}}うすぼんやりした　{{ruby charSpan=\"1\" value=\"しろ\"}}白いヤツが{{delay frames=\"8\"}}\nスゥ～～ッ{{delay frames=\"4\"}}と{{ruby charSpan=\"1\" value=\"あらわ\"}}現れて{{delay frames=\"8\"}}・{{delay frames=\"8\"}}・{{delay frames=\"8\"}}・{{anim id=\"15\"}}{{delay frames=\"30\"}}\n{{anim id=\"13\"}}いやいや、{{delay frames=\"12\"}}{{ruby charSpan=\"1\" value=\"なん\"}}何でもねぇ！{{delay frames=\"40\"}}\n{{anim id=\"21\"}}オレも　ここらでひとつ、{{delay frames=\"12\"}}\n{{anim id=\"33\"}}{{ruby charSpan=\"1\" value=\"いち\"}}一から　{{ruby charSpan=\"2\" value=\"でなお\"}}出直そうと{{ruby charSpan=\"1\" value=\"おも\"}}思ってな\n{{anim id=\"37\"}}こうして{{ruby charSpan=\"2\" value=\"さいご\"}}最後に\nオメェと{{ruby charSpan=\"1\" value=\"はな\"}}話せて{{ruby charSpan=\"1\" value=\"よ\"}}良かったぜ！{{delay frames=\"30\"}}\n{{anim id=\"1\"}}{{ruby charSpan=\"2\" value=\"げんき\"}}元気でな！{{delay frames=\"20\"}}　{{fun_00070005 arg=\"\"}}！"
  },
  {
    "label": "028",
    "text": "{{anim id=\"15\"}}おっと、{{delay frames=\"16\"}}{{ruby charSpan=\"1\" value=\"み\"}}見つかっちまったか！{{fun_00010007 arg=\"\"}}\n{{anim id=\"37\"}}ま、{{delay frames=\"8\"}}{{ruby charSpan=\"1\" value=\"み\"}}見ての{{ruby charSpan=\"1\" value=\"とお\"}}通り、{{delay frames=\"12\"}}\nこの{{ruby charSpan=\"1\" value=\"むら\"}}村を{{ruby charSpan=\"1\" value=\"で\"}}出て{{ruby charSpan=\"1\" value=\"い\"}}行くことにしたのさ\n{{anim id=\"0\"}}え？{{delay frames=\"16\"}}　なんで{{ruby charSpan=\"1\" value=\"きゅう\"}}急にって？{{delay frames=\"20\"}}\n{{anim id=\"11\"}}そりゃオメェ　{{fun_00010011 arg=\"0x0000\"}}が・{{delay frames=\"8\"}}・{{delay frames=\"8\"}}・{{anim id=\"15\"}}{{pageBreak}}{{anim id=\"40\"}}{{delay frames=\"22\"}}いや、{{delay frames=\"8\"}}{{anim id=\"35\"}}これは　オトコと{{delay frames=\"8\"}}{{fun_0012000E arg=\"0x0E000600AA30C830B3300600AA30F330CA300000\"}}の{{ruby charSpan=\"2\" value=\"やくそく\"}}約束だ、{{delay frames=\"8\"}}\n{{ruby charSpan=\"1\" value=\"おお\"}}多くを{{ruby charSpan=\"1\" value=\"かた\"}}語るのは　やめておくぜ{{pageBreak}}{{anim id=\"21\"}}とにかく、{{delay frames=\"8\"}}オレも　ここらでひとつ、{{delay frames=\"12\"}}\n{{anim id=\"33\"}}{{ruby charSpan=\"1\" value=\"いち\"}}一から　{{ruby charSpan=\"2\" value=\"でなお\"}}出直そうと{{ruby charSpan=\"1\" value=\"おも\"}}思ってな{{pageBreak}}{{anim id=\"37\"}}こうして{{ruby charSpan=\"2\" value=\"さいご\"}}最後に\nオメェと{{ruby charSpan=\"1\" value=\"はな\"}}話せて{{ruby charSpan=\"1\" value=\"よ\"}}良かったぜ！{{delay frames=\"30\"}}\n{{anim id=\"1\"}}{{ruby charSpan=\"2\" value=\"げんき\"}}元気でな！{{delay frames=\"20\"}}　{{fun_00070005 arg=\"\"}}！"
  }
]