﻿[
  {
    "label": "001",
    "text": "{{fun_0004000D arg=\"0x03CD\"}}{{anim id=\"9\"}}いいから　そっとしといてくんな{{fun_00010007 arg=\"\"}}\n{{anim id=\"10\"}}はぁ～{{delay frames=\"8\"}}・{{delay frames=\"8\"}}・{{delay frames=\"8\"}}・{{fun_0005000D arg=\"\"}}"
  },
  {
    "label": "002",
    "text": "{{anim id=\"6\"}}{{delay frames=\"8\"}}・{{delay frames=\"8\"}}・{{delay frames=\"8\"}}・{{delay frames=\"20\"}}\n{{anim id=\"9\"}}{{fun_0004000D arg=\"0x03CD\"}}オレに　かまわねぇでくれ{{delay frames=\"8\"}}・{{delay frames=\"8\"}}・{{delay frames=\"8\"}}・{{delay frames=\"8\"}}{{fun_0005000D arg=\"\"}}"
  },
  {
    "label": "003",
    "text": "{{anim id=\"9\"}}{{fun_0004000D arg=\"0x03CD\"}}{{ruby charSpan=\"2\" value=\"じんせい\"}}人生には、{{delay frames=\"8\"}}{{ruby charSpan=\"1\" value=\"なに\"}}何を{{ruby charSpan=\"1\" value=\"かな\"}}悲しんでるのか\n{{ruby charSpan=\"1\" value=\"わす\"}}忘れちまうくらい　{{ruby charSpan=\"1\" value=\"かな\"}}悲しいことも{{delay frames=\"8\"}}\nあるんだよな、{{delay frames=\"20\"}}{{fun_00070005 arg=\"\"}}{{fun_0005000D arg=\"\"}}"
  }
]