﻿[
  {
    "label": "001",
    "text": "{{anim id=\"23\"}}ん？{{delay frames=\"40\"}}\nオメェ、この{{ruby charSpan=\"1\" value=\"むら\"}}村のヤツかい？{{fun_00010007 arg=\"\"}}\n{{anim id=\"37\"}}ほぅ、{{delay frames=\"30\"}}{{fun_00000005 arg=\"\"}}ってのか{{pageBreak}}オレは、{{fun_00010005 arg=\"\"}}ってんだ{{fun_00010007 arg=\"\"}}\n{{ruby charSpan=\"2\" value=\"きょう\"}}今日からここで\n{{ruby charSpan=\"1\" value=\"く\"}}暮らすことに　したんだよ\n{{anim id=\"11\"}}{{ruby charSpan=\"1\" value=\"き\"}}気のせいか、{{delay frames=\"8\"}}\n{{ruby charSpan=\"1\" value=\"なに\"}}何かに{{ruby charSpan=\"1\" value=\"みちび\"}}導かれて{{ruby charSpan=\"1\" value=\"き\"}}来たような{{delay frames=\"8\"}}\n{{ruby charSpan=\"3\" value=\"うんめいてき\"}}運命的なものを　{{ruby charSpan=\"1\" value=\"かん\"}}感じるのさ\n{{anim id=\"1\"}}それは　さておき、\n{{ruby charSpan=\"1\" value=\"なに\"}}何かと　{{ruby charSpan=\"2\" value=\"せわ\"}}世話になるかもしれねぇが{{delay frames=\"40\"}}\nよろしく{{ruby charSpan=\"1\" value=\"たの\"}}頼むぜ、{{delay frames=\"20\"}}{{fun_00070005 arg=\"\"}}！"
  },
  {
    "label": "002",
    "text": "{{anim id=\"23\"}}ん？！{{delay frames=\"40\"}}\nオメェとは　{{ruby charSpan=\"1\" value=\"はじ\"}}初めてだよな？{{fun_00010007 arg=\"\"}}\n{{anim id=\"1\"}}オレは　{{fun_00010005 arg=\"\"}}ってモンだ\n{{anim id=\"11\"}}オレがここに{{ruby charSpan=\"1\" value=\"こ\"}}越して{{ruby charSpan=\"1\" value=\"き\"}}来たのも{{delay frames=\"8\"}}\n{{ruby charSpan=\"1\" value=\"なに\"}}何かの{{ruby charSpan=\"1\" value=\"えん\"}}縁があっての　ことじゃねぇかって\n{{ruby charSpan=\"1\" value=\"き\"}}気がしてるのさ\n{{anim id=\"1\"}}ま、{{delay frames=\"8\"}}ひとつ　よろしく{{ruby charSpan=\"1\" value=\"たの\"}}頼むぜ、{{delay frames=\"20\"}}{{fun_00070005 arg=\"\"}}！"
  },
  {
    "label": "003",
    "text": "{{anim id=\"23\"}}ん？！{{delay frames=\"40\"}}\nさっそく　アイサツしに\n{{ruby charSpan=\"1\" value=\"き\"}}来てくれたのかい？{{pageBreak}}{{anim id=\"1\"}}オレは　{{fun_00010005 arg=\"\"}}だ{{delay frames=\"40\"}}\nよろしくな、{{delay frames=\"20\"}}{{fun_00070005 arg=\"\"}}！{{pageBreak}}{{anim id=\"11\"}}しかし　ここは{{ruby charSpan=\"1\" value=\"はじ\"}}初めて{{ruby charSpan=\"1\" value=\"き\"}}来たはずなのに{{delay frames=\"8\"}}\nなんだか　{{ruby charSpan=\"1\" value=\"なつ\"}}懐かしいような\nほっこりする{{ruby charSpan=\"1\" value=\"むら\"}}村だよなぁ{{delay frames=\"8\"}}・{{delay frames=\"8\"}}・{{delay frames=\"8\"}}・\n{{anim id=\"0\"}}とにかく、{{ruby charSpan=\"2\" value=\"ひっこ\"}}引越して{{ruby charSpan=\"1\" value=\"き\"}}来たばかりで{{delay frames=\"40\"}}\n{{ruby charSpan=\"2\" value=\"きょう\"}}今日は　バタバタしてるからよぉ{{pageBreak}}{{anim id=\"1\"}}また　{{ruby charSpan=\"2\" value=\"へや\"}}部屋が{{ruby charSpan=\"2\" value=\"かたづ\"}}片付いたころに{{delay frames=\"8\"}}\nゆっくり{{ruby charSpan=\"1\" value=\"よ\"}}寄ってくれよ！"
  },
  {
    "label": "004",
    "text": "{{anim id=\"16\"}}おっと！{{delay frames=\"20\"}}{{pageBreak}}{{anim id=\"0\"}}{{ruby charSpan=\"2\" value=\"むらじゅう\"}}村中を　{{ruby charSpan=\"1\" value=\"まわ\"}}回ったつもりだったが{{delay frames=\"40\"}}\nまだ　アイサツしてないヤツが\nいたとはな{{delay frames=\"8\"}}・{{delay frames=\"8\"}}・{{delay frames=\"8\"}}・{{pageBreak}}{{anim id=\"1\"}}オレぁ　{{fun_00010005 arg=\"\"}}ってモンだ{{pageBreak}}{{anim id=\"11\"}}なぜか　ここ　{{fun_00060005 arg=\"\"}}{{ruby charSpan=\"1\" value=\"むら\"}}村に\n{{ruby charSpan=\"1\" value=\"す\"}}住まなきゃならねぇ{{ruby charSpan=\"1\" value=\"き\"}}気がして{{delay frames=\"20\"}}\n{{anim id=\"37\"}}ちょっと{{ruby charSpan=\"1\" value=\"まえ\"}}前に　{{ruby charSpan=\"2\" value=\"ひっこ\"}}引越して{{ruby charSpan=\"1\" value=\"き\"}}来たのさ\n{{anim id=\"1\"}}よろしく{{ruby charSpan=\"1\" value=\"たの\"}}頼むぜ、{{delay frames=\"20\"}}{{fun_00070005 arg=\"\"}}！"
  },
  {
    "label": "005",
    "text": "{{anim id=\"1\"}}おっ！{{delay frames=\"40\"}}\nようやく　{{ruby charSpan=\"1\" value=\"こえ\"}}声かけてくれたな！{{pageBreak}}{{anim id=\"11\"}}{{fun_00050005 arg=\"\"}}{{ruby charSpan=\"1\" value=\"むら\"}}村で　{{ruby charSpan=\"1\" value=\"く\"}}暮らし{{ruby charSpan=\"1\" value=\"はじ\"}}始めて{{delay frames=\"20\"}}\nそこそこ{{ruby charSpan=\"1\" value=\"た\"}}経つが{{delay frames=\"8\"}}・{{delay frames=\"8\"}}・{{delay frames=\"8\"}}・{{pageBreak}}{{anim id=\"27\"}}このままずっと{{delay frames=\"20\"}}\n{{ruby charSpan=\"1\" value=\"くち\"}}口きいて　くれねぇのかと\n{{ruby charSpan=\"1\" value=\"おも\"}}思ってたぜ、{{delay frames=\"40\"}}へへっ\n{{anim id=\"1\"}}オレは　{{fun_00010005 arg=\"\"}}だ{{fun_00010007 arg=\"\"}}\nこれを{{ruby charSpan=\"2\" value=\"きかい\"}}機会に\n{{ruby charSpan=\"2\" value=\"なかよ\"}}仲良くしようや、{{delay frames=\"20\"}}{{fun_00070005 arg=\"\"}}！"
  },
  {
    "label": "006",
    "text": "{{anim id=\"10\"}}・{{delay frames=\"8\"}}・{{delay frames=\"8\"}}・{{delay frames=\"8\"}}オメェとは、{{delay frames=\"20\"}}\n{{ruby charSpan=\"1\" value=\"はじ\"}}初めて{{ruby charSpan=\"1\" value=\"あ\"}}会うよな？{{pageBreak}}{{anim id=\"9\"}}{{ruby charSpan=\"3\" value=\"しょたいめん\"}}初対面だってぇのに{{delay frames=\"40\"}}\n{{ruby charSpan=\"1\" value=\"なさ\"}}情けないところを\n{{ruby charSpan=\"1\" value=\"み\"}}見せちまって{{delay frames=\"20\"}}　すまねぇな\n{{anim id=\"20\"}}ちょっと　カゼ　ひいちまってよ{{delay frames=\"60\"}}\nゲホゲホッ{{delay frames=\"8\"}}・{{delay frames=\"8\"}}・{{delay frames=\"8\"}}・{{pageBreak}}{{anim id=\"0\"}}オレぁ　{{fun_00010005 arg=\"\"}}ってモンだ{{fun_00010007 arg=\"\"}}\n・{{delay frames=\"8\"}}・{{delay frames=\"8\"}}・{{delay frames=\"8\"}}{{anim id=\"37\"}}{{ruby charSpan=\"2\" value=\"げんき\"}}元気になったら、{{delay frames=\"8\"}}\nよろしくな{{delay frames=\"20\"}}・{{delay frames=\"8\"}}・{{delay frames=\"8\"}}・{{fun_00070005 arg=\"\"}}"
  }
]