﻿[
  {
    "label": "001",
    "text": "{{anim id=\"1\"}}おう、{{delay frames=\"8\"}}いつものヤツ　{{ruby charSpan=\"1\" value=\"たの\"}}頼むぜ！"
  },
  {
    "label": "002",
    "text": "{{anim id=\"32\"}}よう、{{fun_00080005 arg=\"\"}}！{{delay frames=\"15\"}}\nいつものヤツな！"
  },
  {
    "label": "003",
    "text": ""
  },
  {
    "label": "004",
    "text": "{{anim id=\"1\"}}コーヒー　もらうぜ！{{delay frames=\"20\"}}\n{{anim id=\"0\"}}{{color id=\"2\"}}ブルーマウンテン{{color id=\"65535\"}}な！"
  },
  {
    "label": "005",
    "text": "{{anim id=\"1\"}}コーヒー　もらうぜ！{{delay frames=\"20\"}}\n{{anim id=\"0\"}}{{color id=\"2\"}}モカ{{color id=\"65535\"}}な！"
  },
  {
    "label": "006",
    "text": "{{anim id=\"1\"}}コーヒー　もらうぜ！{{delay frames=\"20\"}}\n{{anim id=\"0\"}}{{color id=\"2\"}}キリマンジャロ{{color id=\"65535\"}}な！"
  },
  {
    "label": "007",
    "text": "{{anim id=\"1\"}}コーヒー　もらうぜ！{{delay frames=\"20\"}}\n{{anim id=\"0\"}}{{color id=\"2\"}}ブレンド{{color id=\"65535\"}}な！"
  },
  {
    "label": "008",
    "text": "{{anim id=\"1\"}}コーヒー　もらうぜ！{{delay frames=\"20\"}}\n{{anim id=\"0\"}}ミルクは　{{color id=\"2\"}}たっぷりめ{{color id=\"65535\"}}で　{{ruby charSpan=\"1\" value=\"たの\"}}頼むぜ！"
  },
  {
    "label": "009",
    "text": "{{anim id=\"1\"}}コーヒー　もらうぜ！{{delay frames=\"20\"}}\n{{anim id=\"0\"}}ミルクは　{{color id=\"2\"}}そこそこ{{color id=\"65535\"}}で　{{ruby charSpan=\"1\" value=\"たの\"}}頼むぜ！"
  },
  {
    "label": "010",
    "text": "{{anim id=\"1\"}}コーヒー　もらうぜ！{{delay frames=\"20\"}}\n{{anim id=\"0\"}}ミルクは　{{color id=\"2\"}}ちょっぴり{{color id=\"65535\"}}で　{{ruby charSpan=\"1\" value=\"たの\"}}頼むぜ！"
  },
  {
    "label": "011",
    "text": "{{anim id=\"1\"}}コーヒー　もらうぜ！{{delay frames=\"20\"}}\n{{anim id=\"0\"}}ミルクは　{{color id=\"2\"}}なし{{color id=\"65535\"}}で　いいぜ！"
  },
  {
    "label": "012",
    "text": "{{anim id=\"1\"}}コーヒー　もらうぜ！{{delay frames=\"20\"}}\n{{anim id=\"0\"}}{{ruby charSpan=\"2\" value=\"さとう\"}}砂糖は　{{color id=\"2\"}}3{{ruby charSpan=\"1\" value=\"こ\"}}個{{color id=\"65535\"}}　{{ruby charSpan=\"1\" value=\"い\"}}入れてくれ！"
  },
  {
    "label": "013",
    "text": "{{anim id=\"1\"}}コーヒー　もらうぜ！{{delay frames=\"20\"}}\n{{anim id=\"0\"}}{{ruby charSpan=\"2\" value=\"さとう\"}}砂糖は　{{color id=\"2\"}}2{{ruby charSpan=\"1\" value=\"こ\"}}個{{color id=\"65535\"}}　{{ruby charSpan=\"1\" value=\"い\"}}入れてくれ！"
  },
  {
    "label": "014",
    "text": "{{anim id=\"1\"}}コーヒー　もらうぜ！{{delay frames=\"20\"}}\n{{anim id=\"0\"}}{{ruby charSpan=\"2\" value=\"さとう\"}}砂糖は　{{color id=\"2\"}}1{{ruby charSpan=\"1\" value=\"こ\"}}個{{color id=\"65535\"}}　{{ruby charSpan=\"1\" value=\"い\"}}入れてくれ！"
  },
  {
    "label": "015",
    "text": "{{anim id=\"1\"}}コーヒー　もらうぜ！{{delay frames=\"20\"}}\n{{anim id=\"0\"}}{{ruby charSpan=\"2\" value=\"さとう\"}}砂糖は　{{color id=\"2\"}}なし{{color id=\"65535\"}}でな！"
  },
  {
    "label": "016",
    "text": "{{anim id=\"37\"}}よーし、{{delay frames=\"8\"}}きたきた{{delay frames=\"4\"}}・{{delay frames=\"4\"}}・{{delay frames=\"4\"}}・"
  },
  {
    "label": "017",
    "text": "{{anim id=\"37\"}}どれどれ{{delay frames=\"4\"}}・{{delay frames=\"4\"}}・{{delay frames=\"4\"}}・"
  },
  {
    "label": "018",
    "text": "{{anim id=\"37\"}}よっ、{{delay frames=\"8\"}}できたか{{delay frames=\"4\"}}・{{delay frames=\"4\"}}・{{delay frames=\"4\"}}・"
  },
  {
    "label": "019",
    "text": "{{anim id=\"16\"}}おっ！{{delay frames=\"15\"}}　ウマイじゃねぇか！{{pageBreak}}{{fun_000E0007 arg=\"\"}}{{anim id=\"21\"}}こりゃ{{delay frames=\"4\"}}　ケチの{{ruby charSpan=\"1\" value=\"つ\"}}付けようがねぇ！{{delay frames=\"20\"}}\n{{anim id=\"1\"}}なかなか　やるな、{{delay frames=\"8\"}}{{fun_00080005 arg=\"\"}}！{{pageBreak}}ありがとな！{{delay frames=\"15\"}}　また{{ruby charSpan=\"1\" value=\"く\"}}来るぜ！"
  },
  {
    "label": "020",
    "text": "{{anim id=\"16\"}}ほう！{{delay frames=\"15\"}}　イイねぇ～！{{delay frames=\"20\"}}\n{{anim id=\"1\"}}オレの{{ruby charSpan=\"1\" value=\"ごの\"}}好みに　ドンピシャだな！{{pageBreak}}{{fun_000E0007 arg=\"\"}}いやぁ～、{{delay frames=\"15\"}}オメェが　こんなにウマイ\nコーヒーを{{ruby charSpan=\"1\" value=\"い\"}}入れるとは{{delay frames=\"8\"}}　{{ruby charSpan=\"1\" value=\"おも\"}}思わなかったぜ！{{pageBreak}}また　{{ruby charSpan=\"1\" value=\"よ\"}}寄らせてもらうよ！"
  },
  {
    "label": "021",
    "text": "{{anim id=\"16\"}}いやぁ～、{{delay frames=\"15\"}}こりゃウマイな！{{delay frames=\"30\"}}\n{{fun_000E0007 arg=\"\"}}{{anim id=\"1\"}}オメェの{{ruby charSpan=\"1\" value=\"い\"}}入れたコーヒー、{{delay frames=\"15\"}}\nすごくイイじゃねぇか！\n{{anim id=\"35\"}}オメェ、{{delay frames=\"8\"}}{{color id=\"4\"}}マスター{{color id=\"65535\"}}を　{{ruby charSpan=\"1\" value=\"こ\"}}超えたんじゃねぇか？{{fun_000D0007 arg=\"\"}}{{delay frames=\"15\"}}\n・{{delay frames=\"8\"}}・{{delay frames=\"8\"}}・{{delay frames=\"8\"}}{{anim id=\"1\"}}といったら　ホメすぎか？！{{delay frames=\"20\"}}\n{{anim id=\"2\"}}がーっはっは！{{delay frames=\"30\"}}{{anim id=\"1\"}}\nじゃ、{{delay frames=\"8\"}}また{{ruby charSpan=\"1\" value=\"く\"}}来るぜ！{{delay frames=\"30\"}}\nありがとな！"
  },
  {
    "label": "022",
    "text": "{{anim id=\"21\"}}うん、{{delay frames=\"15\"}}{{ruby charSpan=\"1\" value=\"わる\"}}悪くはねぇな！{{delay frames=\"30\"}}\n{{anim id=\"0\"}}これで　{{color id=\"2\"}}コーヒー{{ruby charSpan=\"1\" value=\"まめ\"}}豆{{color id=\"65535\"}}さえ　{{ruby charSpan=\"1\" value=\"あ\"}}合ってりゃ{{delay frames=\"15\"}}\nバッチリだったんだが{{delay frames=\"8\"}}・{{delay frames=\"8\"}}・{{delay frames=\"8\"}}・\n{{anim id=\"38\"}}ま、{{delay frames=\"8\"}}バイトにしちゃ　{{ruby charSpan=\"3\" value=\"じょうでき\"}}上出来だ！{{delay frames=\"30\"}}\n{{anim id=\"1\"}}また{{ruby charSpan=\"1\" value=\"く\"}}来るぜ！"
  },
  {
    "label": "023",
    "text": "{{anim id=\"21\"}}うん、{{delay frames=\"15\"}}{{ruby charSpan=\"1\" value=\"わる\"}}悪くはねぇな！{{delay frames=\"30\"}}\n{{anim id=\"0\"}}これで　{{color id=\"2\"}}ミルクの{{ruby charSpan=\"1\" value=\"りょう\"}}量{{color id=\"65535\"}}が　{{ruby charSpan=\"1\" value=\"あ\"}}合ってりゃ{{delay frames=\"15\"}}\nバッチリだったんだが{{delay frames=\"8\"}}・{{delay frames=\"8\"}}・{{delay frames=\"8\"}}・\n{{anim id=\"38\"}}ま、{{delay frames=\"8\"}}バイトにしちゃ　{{ruby charSpan=\"3\" value=\"じょうでき\"}}上出来だ！{{delay frames=\"30\"}}\n{{anim id=\"1\"}}また{{ruby charSpan=\"1\" value=\"く\"}}来るぜ！"
  },
  {
    "label": "024",
    "text": "{{anim id=\"21\"}}うん、{{delay frames=\"15\"}}{{ruby charSpan=\"1\" value=\"わる\"}}悪くはねぇな！{{delay frames=\"30\"}}\n{{anim id=\"0\"}}これで　{{color id=\"2\"}}{{ruby charSpan=\"2\" value=\"さとう\"}}砂糖の{{ruby charSpan=\"1\" value=\"りょう\"}}量{{color id=\"65535\"}}が　{{ruby charSpan=\"1\" value=\"あ\"}}合ってりゃ{{delay frames=\"15\"}}\nバッチリだったんだが{{delay frames=\"8\"}}・{{delay frames=\"8\"}}・{{delay frames=\"8\"}}・\n{{anim id=\"38\"}}ま、{{delay frames=\"8\"}}バイトにしちゃ　{{ruby charSpan=\"3\" value=\"じょうでき\"}}上出来だ！{{delay frames=\"30\"}}\n{{anim id=\"1\"}}また{{ruby charSpan=\"1\" value=\"く\"}}来るぜ！"
  },
  {
    "label": "025",
    "text": ""
  },
  {
    "label": "026",
    "text": ""
  },
  {
    "label": "027",
    "text": ""
  },
  {
    "label": "028",
    "text": "う～ん{{delay frames=\"8\"}}・{{delay frames=\"8\"}}・{{delay frames=\"8\"}}・{{delay frames=\"20\"}}\n{{anim id=\"40\"}}これじゃ　ねぇんだよなぁ{{delay frames=\"20\"}}{{pageBreak}}{{anim id=\"0\"}}いや、{{delay frames=\"8\"}}{{color id=\"2\"}}コーヒー{{ruby charSpan=\"1\" value=\"まめ\"}}豆{{color id=\"65535\"}}は　いいんだぜ？{{delay frames=\"30\"}}\n{{anim id=\"9\"}}だけど　あとはイマイチ、{{delay frames=\"20\"}}\n{{anim id=\"0\"}}{{ruby charSpan=\"2\" value=\"こんご\"}}今後に　{{ruby charSpan=\"2\" value=\"きたい\"}}期待ってとこだな！\n{{anim id=\"1\"}}まあ、{{delay frames=\"8\"}}また{{ruby charSpan=\"1\" value=\"く\"}}来るわ！"
  },
  {
    "label": "029",
    "text": "う～ん{{delay frames=\"8\"}}・{{delay frames=\"8\"}}・{{delay frames=\"8\"}}・{{delay frames=\"20\"}}\n{{anim id=\"40\"}}これじゃ　ねぇんだよなぁ{{delay frames=\"20\"}}{{pageBreak}}{{anim id=\"0\"}}いや、{{delay frames=\"8\"}}{{color id=\"2\"}}ミルクの{{ruby charSpan=\"1\" value=\"りょう\"}}量{{color id=\"65535\"}}は　いいんだぜ？{{delay frames=\"30\"}}\n{{anim id=\"9\"}}だけど　あとはイマイチ、{{delay frames=\"20\"}}\n{{anim id=\"0\"}}{{ruby charSpan=\"2\" value=\"こんご\"}}今後に　{{ruby charSpan=\"2\" value=\"きたい\"}}期待ってとこだな！\n{{anim id=\"1\"}}まあ、{{delay frames=\"8\"}}また{{ruby charSpan=\"1\" value=\"く\"}}来るわ！"
  },
  {
    "label": "030",
    "text": "う～ん{{delay frames=\"8\"}}・{{delay frames=\"8\"}}・{{delay frames=\"8\"}}・{{delay frames=\"20\"}}\n{{anim id=\"40\"}}これじゃ　ねぇんだよなぁ{{delay frames=\"20\"}}{{pageBreak}}{{anim id=\"0\"}}いや、{{delay frames=\"8\"}}{{color id=\"2\"}}{{ruby charSpan=\"2\" value=\"さとう\"}}砂糖の{{ruby charSpan=\"1\" value=\"りょう\"}}量{{color id=\"65535\"}}は　いいんだぜ？{{delay frames=\"30\"}}\n{{anim id=\"9\"}}だけど　あとはイマイチ、{{delay frames=\"20\"}}\n{{anim id=\"0\"}}{{ruby charSpan=\"2\" value=\"こんご\"}}今後に　{{ruby charSpan=\"2\" value=\"きたい\"}}期待ってとこだな！\n{{anim id=\"1\"}}まあ、{{delay frames=\"8\"}}また{{ruby charSpan=\"1\" value=\"く\"}}来るわ！"
  },
  {
    "label": "031",
    "text": "{{anim id=\"18\"}}ぶっ！{{delay frames=\"40\"}}\n{{anim id=\"36\"}}すまねぇ　すまねぇ、{{delay frames=\"20\"}}\nコーヒー　{{ruby charSpan=\"1\" value=\"ふ\"}}吹いちまうかと{{ruby charSpan=\"1\" value=\"おも\"}}思ったぜ！\n{{anim id=\"27\"}}オレの{{ruby charSpan=\"1\" value=\"おも\"}}思ってたコーヒーと{{delay frames=\"15\"}}\nここまで　{{ruby charSpan=\"1\" value=\"ちが\"}}違うもんが　{{ruby charSpan=\"1\" value=\"で\"}}出てくるとはな！{{pageBreak}}{{anim id=\"1\"}}ま、{{delay frames=\"8\"}}{{ruby charSpan=\"1\" value=\"みち\"}}道を{{ruby charSpan=\"1\" value=\"きわ\"}}究めるってのは{{delay frames=\"8\"}}\n{{ruby charSpan=\"1\" value=\"らく\"}}楽なことじゃねぇさ、{{delay frames=\"20\"}}\nメゲずに　ガンバレよな！"
  },
  {
    "label": "032",
    "text": ""
  },
  {
    "label": "033",
    "text": ""
  },
  {
    "label": "034",
    "text": ""
  },
  {
    "label": "035",
    "text": ""
  },
  {
    "label": "036",
    "text": ""
  },
  {
    "label": "037",
    "text": ""
  },
  {
    "label": "038",
    "text": ""
  },
  {
    "label": "039",
    "text": "{{anim id=\"16\"}}ほほう！{{delay frames=\"15\"}}　こいつはウマイ！{{delay frames=\"30\"}}\n{{fun_000E0007 arg=\"\"}}{{anim id=\"1\"}}{{fun_00050005 arg=\"\"}}{{ruby charSpan=\"1\" value=\"むら\"}}村の　カフェは{{delay frames=\"8\"}}\n{{ruby charSpan=\"1\" value=\"よう\"}}要チェックだな！\nまた{{ruby charSpan=\"1\" value=\"く\"}}来るぜ！{{delay frames=\"15\"}}　ありがとな！"
  },
  {
    "label": "040",
    "text": "{{anim id=\"16\"}}おっ！{{delay frames=\"15\"}}　こいつはウマイ！{{pageBreak}}{{fun_000E0007 arg=\"\"}}{{anim id=\"0\"}}{{fun_00050005 arg=\"\"}}{{ruby charSpan=\"1\" value=\"むら\"}}村に{{delay frames=\"8\"}}　{{ruby charSpan=\"2\" value=\"でんせつ\"}}伝説の\nコーヒーマスターが　いるって{{ruby charSpan=\"1\" value=\"き\"}}聞いたが、{{delay frames=\"15\"}}\nオメェのことだったのか？！{{fun_000D0007 arg=\"\"}}\n{{anim id=\"1\"}}いいもん　{{ruby charSpan=\"1\" value=\"の\"}}飲ませてもらったよ、{{delay frames=\"30\"}}\nまた{{ruby charSpan=\"1\" value=\"く\"}}来るぜ！{{delay frames=\"20\"}}　{{fun_00070005 arg=\"\"}}！"
  },
  {
    "label": "041",
    "text": ""
  },
  {
    "label": "042",
    "text": ""
  },
  {
    "label": "043",
    "text": ""
  },
  {
    "label": "044",
    "text": ""
  },
  {
    "label": "045",
    "text": ""
  },
  {
    "label": "046",
    "text": ""
  },
  {
    "label": "047",
    "text": ""
  },
  {
    "label": "048",
    "text": "{{anim id=\"1\"}}ミルクは　{{color id=\"2\"}}たっぷりめ{{color id=\"65535\"}}で　{{ruby charSpan=\"1\" value=\"たの\"}}頼むぜ！"
  },
  {
    "label": "049",
    "text": "{{anim id=\"1\"}}ミルクは　{{color id=\"2\"}}そこそこ{{color id=\"65535\"}}で　{{ruby charSpan=\"1\" value=\"たの\"}}頼むぜ！"
  },
  {
    "label": "050",
    "text": "{{anim id=\"1\"}}ミルクは　{{color id=\"2\"}}ちょっぴり{{color id=\"65535\"}}で　{{ruby charSpan=\"1\" value=\"たの\"}}頼むぜ！"
  },
  {
    "label": "051",
    "text": "{{anim id=\"1\"}}ミルクは　{{color id=\"2\"}}なし{{color id=\"65535\"}}で　いいぜ！"
  },
  {
    "label": "052",
    "text": "{{anim id=\"1\"}}{{ruby charSpan=\"2\" value=\"さとう\"}}砂糖は　{{color id=\"2\"}}3{{ruby charSpan=\"1\" value=\"こ\"}}個{{color id=\"65535\"}}　{{ruby charSpan=\"1\" value=\"い\"}}入れてくれ！"
  },
  {
    "label": "053",
    "text": "{{anim id=\"1\"}}{{ruby charSpan=\"2\" value=\"さとう\"}}砂糖は　{{color id=\"2\"}}2{{ruby charSpan=\"1\" value=\"こ\"}}個{{color id=\"65535\"}}　{{ruby charSpan=\"1\" value=\"い\"}}入れてくれ！"
  },
  {
    "label": "054",
    "text": "{{anim id=\"1\"}}{{ruby charSpan=\"2\" value=\"さとう\"}}砂糖は　{{color id=\"2\"}}1{{ruby charSpan=\"1\" value=\"こ\"}}個{{color id=\"65535\"}}　{{ruby charSpan=\"1\" value=\"い\"}}入れてくれ！"
  },
  {
    "label": "055",
    "text": "{{anim id=\"1\"}}{{ruby charSpan=\"2\" value=\"さとう\"}}砂糖は　{{color id=\"2\"}}なし{{color id=\"65535\"}}でな！"
  }
]