﻿[
  {
    "label": "001",
    "text": "ねぇ、{{fun_00080005 arg=\"\"}}{{fun_000D0005 arg=\"\"}}{{delay frames=\"16\"}}\nこの　{{fun_00030011 arg=\"0x0000\"}}{{delay frames=\"16\"}}\nアナタに　{{ruby charSpan=\"2\" value=\"にあ\"}}似合うと{{ruby charSpan=\"1\" value=\"おも\"}}思うの{{delay frames=\"8\"}}・{{delay frames=\"8\"}}・{{delay frames=\"8\"}}・{{delay frames=\"8\"}}\n{{ruby charSpan=\"1\" value=\"よ\"}}良かったら、コレ{{delay frames=\"16\"}}\n{{ruby charSpan=\"1\" value=\"う\"}}受け{{ruby charSpan=\"1\" value=\"と\"}}取ってちょうだい"
  },
  {
    "label": "002",
    "text": "{{anim id=\"1\"}}ねぇ、{{fun_00080005 arg=\"\"}}{{fun_000D0005 arg=\"\"}}！{{pageBreak}}{{anim id=\"5\"}}アナタが　{{ruby charSpan=\"1\" value=\"ほ\"}}欲しいって\n{{ruby charSpan=\"1\" value=\"い\"}}言ってた　{{fun_00030011 arg=\"0x0000\"}}、{{delay frames=\"16\"}}\n{{ruby charSpan=\"1\" value=\"み\"}}見つけたわよ！{{delay frames=\"8\"}}{{anim id=\"37\"}}{{fun_00050008 arg=\"0x050000000A002800\"}}\n{{ruby charSpan=\"1\" value=\"なん\"}}何のこと？\n{{ruby charSpan=\"1\" value=\"い\"}}言ってないけど・・・"
  },
  {
    "label": "003",
    "text": "{{anim id=\"1\"}}ねぇ、{{fun_00080005 arg=\"\"}}{{fun_000D0005 arg=\"\"}}！{{pageBreak}}{{anim id=\"9\"}}もし、ジャマじゃなかったら{{delay frames=\"16\"}}\nこの　{{fun_00030011 arg=\"0x0000\"}}{{delay frames=\"16\"}}\nもらってくれるかしら？"
  },
  {
    "label": "004",
    "text": "{{anim id=\"37\"}}ウフフ、ごめんなさい{{delay frames=\"16\"}}\n{{ruby charSpan=\"1\" value=\"おどろ\"}}驚かせちゃったかしら？\n{{delay frames=\"8\"}}{{fun_00070005 arg=\"\"}}？\n{{anim id=\"6\"}}{{fun_00030011 arg=\"0x0000\"}}を\n{{ruby charSpan=\"1\" value=\"み\"}}見つけたとき、{{delay frames=\"16\"}}アナタの{{ruby charSpan=\"1\" value=\"かお\"}}顔が\nなぜか　{{ruby charSpan=\"1\" value=\"う\"}}浮かんできて{{delay frames=\"8\"}}・{{delay frames=\"8\"}}・{{delay frames=\"8\"}}・{{delay frames=\"8\"}}\n{{anim id=\"22\"}}{{delay frames=\"16\"}}これは、プレゼントしなきゃ！{{delay frames=\"16\"}}\nって{{ruby charSpan=\"1\" value=\"おも\"}}思ったの！　{{delay frames=\"8\"}}{{fun_00070005 arg=\"\"}}！{{pageBreak}}{{anim id=\"9\"}}{{ruby charSpan=\"1\" value=\"き\"}}気に{{ruby charSpan=\"1\" value=\"い\"}}入らなかったら、{{delay frames=\"16\"}}\nエンリョなく　\n{{ruby charSpan=\"2\" value=\"しょぶん\"}}処分してくれていいから{{delay frames=\"8\"}}・{{delay frames=\"8\"}}・{{delay frames=\"8\"}}・{{delay frames=\"8\"}}"
  },
  {
    "label": "005",
    "text": "{{anim id=\"18\"}}あら、イヤだわ！{{delay frames=\"32\"}}\nもしかして、カン{{ruby charSpan=\"1\" value=\"ちが\"}}違い？{{fun_00010007 arg=\"\"}}\n{{anim id=\"41\"}}{{delay frames=\"16\"}}アタシ、やっちゃったわね！\n{{anim id=\"9\"}}でも、もう\n{{ruby charSpan=\"1\" value=\"か\"}}買ってきちゃったし{{delay frames=\"4\"}}・{{delay frames=\"4\"}}・{{delay frames=\"4\"}}・{{delay frames=\"4\"}}\nアナタに　あげるわ！{{fun_0000000A arg=\"0x0306000700CD\"}}"
  },
  {
    "label": "006",
    "text": "{{anim id=\"37\"}}いつも、アナタには{{delay frames=\"16\"}}\n{{ruby charSpan=\"2\" value=\"あいて\"}}相手してもらってるし{{delay frames=\"8\"}}・{{delay frames=\"8\"}}・{{delay frames=\"8\"}}・{{delay frames=\"8\"}}{{pageBreak}}お{{ruby charSpan=\"1\" value=\"れい\"}}礼の{{ruby charSpan=\"1\" value=\"しるし\"}}印として{{delay frames=\"16\"}}\n{{ruby charSpan=\"1\" value=\"う\"}}受け{{ruby charSpan=\"1\" value=\"と\"}}取ってちょうだいね、\n{{delay frames=\"8\"}}{{fun_00070005 arg=\"\"}}"
  },
  {
    "label": "007",
    "text": "{{anim id=\"37\"}}エンリョは　いらないのよ、{{delay frames=\"8\"}}\n{{fun_00080005 arg=\"\"}}{{fun_000D0005 arg=\"\"}}"
  },
  {
    "label": "008",
    "text": "{{anim id=\"10\"}}{{delay frames=\"60\"}}アタシって　ダメな{{ruby charSpan=\"1\" value=\"おんな\"}}女ね{{delay frames=\"8\"}}・{{delay frames=\"8\"}}・{{delay frames=\"8\"}}・{{delay frames=\"32\"}}\n{{anim id=\"6\"}}こういう{{ruby charSpan=\"2\" value=\"まちが\"}}間違いを\n{{ruby charSpan=\"2\" value=\"ときどき\"}}時々しちゃうの、{{delay frames=\"8\"}}{{fun_00070005 arg=\"\"}}\n{{anim id=\"9\"}}{{ruby charSpan=\"2\" value=\"しごと\"}}仕事でも、{{delay frames=\"16\"}}{{ruby charSpan=\"1\" value=\"こい\"}}恋でも{{delay frames=\"8\"}}・{{delay frames=\"8\"}}・{{delay frames=\"8\"}}・{{delay frames=\"8\"}}"
  },
  {
    "label": "009",
    "text": "{{anim id=\"1\"}}{{ruby charSpan=\"2\" value=\"こんご\"}}今後とも　よろしくね！\n{{delay frames=\"8\"}}{{fun_00070005 arg=\"\"}}！"
  },
  {
    "label": "010",
    "text": "{{anim id=\"15\"}}まぁ！　そうなの？{{delay frames=\"32\"}}\n{{anim id=\"9\"}}アタシ、{{delay frames=\"16\"}}{{ruby charSpan=\"1\" value=\"なに\"}}何とカン{{ruby charSpan=\"1\" value=\"ちが\"}}違い\nしちゃったのかしら{{delay frames=\"8\"}}・{{delay frames=\"8\"}}・{{delay frames=\"8\"}}・{{delay frames=\"8\"}}\n{{anim id=\"37\"}}でも、せっかく{{delay frames=\"16\"}}\nアナタのためにと{{ruby charSpan=\"1\" value=\"おも\"}}思って\n{{ruby charSpan=\"1\" value=\"か\"}}買ったんだし、{{delay frames=\"16\"}}もらってちょうだい"
  },
  {
    "label": "011",
    "text": "{{anim id=\"33\"}}きっと　アナタに\nピッタリだと{{ruby charSpan=\"1\" value=\"おも\"}}思うわ、{{delay frames=\"8\"}}{{fun_00070005 arg=\"\"}}！"
  },
  {
    "label": "012",
    "text": "{{fun_00010009 arg=\"0x0D000E000F00\"}}"
  },
  {
    "label": "013",
    "text": "{{anim id=\"6\"}}うっかり、{{ruby charSpan=\"1\" value=\"おな\"}}同じ{{ruby charSpan=\"1\" value=\"もの\"}}物を{{delay frames=\"16\"}}\nふたつ{{ruby charSpan=\"1\" value=\"か\"}}買っちゃったのよ{{pageBreak}}{{anim id=\"36\"}}{{ruby charSpan=\"2\" value=\"さいきん\"}}最近　{{ruby charSpan=\"1\" value=\"おお\"}}多いのよね、{{delay frames=\"8\"}}アタシ{{delay frames=\"16\"}}\n{{ruby charSpan=\"1\" value=\"まえ\"}}前にも{{ruby charSpan=\"1\" value=\"か\"}}買ったのに！　{{delay frames=\"32\"}}\n{{anim id=\"9\"}}{{delay frames=\"4\"}}・{{delay frames=\"4\"}}・{{delay frames=\"4\"}}・{{delay frames=\"4\"}}ってこと\n{{anim id=\"10\"}}{{delay frames=\"32\"}}ホントに\nイヤになっちゃうわ～、{{delay frames=\"8\"}}{{fun_00070005 arg=\"\"}}！"
  },
  {
    "label": "014",
    "text": "{{anim id=\"36\"}}{{ruby charSpan=\"1\" value=\"じつ\"}}実はそれ、{{delay frames=\"16\"}}もう\nいらなくなっちゃったのよ{{delay frames=\"32\"}}\nお{{ruby charSpan=\"1\" value=\"ふる\"}}古で、ゴメンナサイね"
  },
  {
    "label": "015",
    "text": "{{anim id=\"36\"}}それ、{{delay frames=\"8\"}}{{fun_00030005 arg=\"\"}}{{fun_000D0005 arg=\"\"}}に\nもらったんだけど、{{delay frames=\"16\"}}\nちょっと　シュミが{{ruby charSpan=\"1\" value=\"あ\"}}合わなくて{{delay frames=\"8\"}}・{{delay frames=\"8\"}}・{{delay frames=\"8\"}}・{{delay frames=\"8\"}}\n{{anim id=\"9\"}}あのコに{{ruby charSpan=\"1\" value=\"わる\"}}悪いから{{delay frames=\"16\"}}\n{{ruby charSpan=\"2\" value=\"ないしょ\"}}内緒にしてね、{{delay frames=\"8\"}}{{fun_00070005 arg=\"\"}}"
  }
]