﻿[
  {
    "label": "001",
    "text": "{{anim id=\"34\"}}{{delay frames=\"16\"}}{{ruby charSpan=\"2\" value=\"きょう\"}}今日は、やけに{{ruby charSpan=\"1\" value=\"あつ\"}}暑いわね{{delay frames=\"8\"}}・{{delay frames=\"8\"}}・{{delay frames=\"8\"}}・{{delay frames=\"8\"}}\nアタシだけかしら？"
  },
  {
    "label": "002",
    "text": "{{anim id=\"34\"}}{{delay frames=\"16\"}}どうしたのかしら、{{delay frames=\"8\"}}アタシ{{delay frames=\"32\"}}\n{{ruby charSpan=\"1\" value=\"からだ\"}}体が　{{ruby charSpan=\"1\" value=\"あつ\"}}熱いわ{{delay frames=\"8\"}}・{{delay frames=\"8\"}}・{{delay frames=\"8\"}}・{{delay frames=\"8\"}}"
  },
  {
    "label": "003",
    "text": "なんだか　{{ruby charSpan=\"2\" value=\"しょくよく\"}}食欲がないの{{delay frames=\"8\"}}・{{delay frames=\"8\"}}・{{delay frames=\"8\"}}・{{delay frames=\"32\"}}\n{{anim id=\"9\"}}カゼでも　ひいたのかしら？"
  },
  {
    "label": "004",
    "text": "{{anim id=\"11\"}}{{delay frames=\"16\"}}あ～{{delay frames=\"8\"}}・{{delay frames=\"8\"}}・{{delay frames=\"8\"}}・{{delay frames=\"8\"}}{{ruby charSpan=\"1\" value=\"あたま\"}}頭、{{delay frames=\"8\"}}{{ruby charSpan=\"1\" value=\"いた\"}}痛い{{delay frames=\"8\"}}・{{delay frames=\"8\"}}・{{delay frames=\"8\"}}・{{delay frames=\"8\"}}\n{{ruby charSpan=\"1\" value=\"なに\"}}何かしら{{delay frames=\"8\"}}・{{delay frames=\"8\"}}・{{delay frames=\"8\"}}・{{delay frames=\"8\"}}コレ？"
  },
  {
    "label": "005",
    "text": "{{anim id=\"30\"}}{{delay frames=\"4\"}}・{{delay frames=\"4\"}}・{{delay frames=\"4\"}}・{{delay frames=\"4\"}}ション！{{fun_00010007 arg=\"\"}}\n{{anim id=\"9\"}}あっ、{{delay frames=\"16\"}}ごめんなさい"
  },
  {
    "label": "006",
    "text": "{{anim id=\"6\"}}ウッ、{{delay frames=\"16\"}}{{ruby charSpan=\"2\" value=\"きも\"}}気持ち{{ruby charSpan=\"1\" value=\"わる\"}}悪い{{delay frames=\"8\"}}・{{delay frames=\"8\"}}・{{delay frames=\"8\"}}・{{delay frames=\"32\"}}\n{{anim id=\"9\"}}ごめんなさい、{{delay frames=\"16\"}}カゼひいたみたいで\nはき{{ruby charSpan=\"1\" value=\"け\"}}気がするの{{delay frames=\"8\"}}・{{delay frames=\"8\"}}・{{delay frames=\"8\"}}・{{delay frames=\"8\"}}"
  },
  {
    "label": "007",
    "text": "{{fun_000A0007 arg=\"\"}}{{anim id=\"30\"}}クション！{{delay frames=\"32\"}}\n{{anim id=\"20\"}}なんだか　{{ruby charSpan=\"2\" value=\"さむけ\"}}寒気がするわ{{delay frames=\"8\"}}・{{delay frames=\"8\"}}・{{delay frames=\"8\"}}・{{delay frames=\"8\"}}"
  },
  {
    "label": "008",
    "text": "{{anim id=\"20\"}}{{delay frames=\"8\"}}・{{delay frames=\"8\"}}・{{delay frames=\"8\"}}・{{delay frames=\"8\"}}{{ruby charSpan=\"1\" value=\"からだ\"}}体が{{ruby charSpan=\"1\" value=\"さむ\"}}寒くて{{delay frames=\"8\"}}・{{delay frames=\"8\"}}・{{delay frames=\"8\"}}・{{delay frames=\"8\"}}\n{{ruby charSpan=\"1\" value=\"ふる\"}}震えが　{{ruby charSpan=\"1\" value=\"と\"}}止まらないの{{delay frames=\"8\"}}・{{delay frames=\"8\"}}・{{delay frames=\"8\"}}・{{delay frames=\"8\"}}"
  },
  {
    "label": "009",
    "text": "{{fun_000A0007 arg=\"\"}}{{anim id=\"30\"}}クション！{{delay frames=\"32\"}}\n{{anim id=\"9\"}}カゼひいちゃった　みたいね{{delay frames=\"16\"}}\n{{ruby charSpan=\"3\" value=\"はんしんよく\"}}半身浴のし{{ruby charSpan=\"1\" value=\"す\"}}過ぎかしら{{delay frames=\"4\"}}・{{delay frames=\"4\"}}・{{delay frames=\"4\"}}・{{delay frames=\"4\"}}？"
  }
]