﻿[
  {
    "label": "001",
    "text": "{{anim id=\"15\"}}あっ、{{delay frames=\"16\"}}{{ruby charSpan=\"1\" value=\"み\"}}見つかっちゃった！{{pageBreak}}{{anim id=\"36\"}}うふふ{{delay frames=\"4\"}}・{{delay frames=\"4\"}}・{{delay frames=\"4\"}}・{{delay frames=\"4\"}}でも、{{delay frames=\"16\"}}\n{{ruby charSpan=\"1\" value=\"すこ\"}}少し　{{ruby charSpan=\"1\" value=\"おそ\"}}遅かったみたいね？{{delay frames=\"32\"}}\n{{anim id=\"35\"}}{{ruby charSpan=\"2\" value=\"ざんねん\"}}残念だけど、アナタの{{ruby charSpan=\"1\" value=\"ま\"}}負けよ"
  },
  {
    "label": "002",
    "text": "{{anim id=\"15\"}}あら、よく{{ruby charSpan=\"1\" value=\"み\"}}見つけられたわね？{{delay frames=\"32\"}}\n{{anim id=\"9\"}}{{ruby charSpan=\"1\" value=\"われ\"}}我ながら、{{delay frames=\"16\"}}うまく\nかくれてたと{{ruby charSpan=\"1\" value=\"おも\"}}思ったのに{{delay frames=\"8\"}}・{{delay frames=\"8\"}}・{{delay frames=\"8\"}}・{{delay frames=\"8\"}}\n{{anim id=\"6\"}}でも、{{ruby charSpan=\"2\" value=\"じかん\"}}時間{{ruby charSpan=\"1\" value=\"ぎ\"}}切れね？{{delay frames=\"32\"}}\n{{anim id=\"35\"}}{{ruby charSpan=\"2\" value=\"こんかい\"}}今回は　アナタの{{ruby charSpan=\"1\" value=\"ま\"}}負けよ！"
  },
  {
    "label": "003",
    "text": "{{anim id=\"13\"}}イヤ～　{{delay frames=\"16\"}}{{ruby charSpan=\"1\" value=\"み\"}}見つかっちゃった～！{{delay frames=\"32\"}}\n{{anim id=\"37\"}}やるじゃない、{{delay frames=\"8\"}}{{fun_00080005 arg=\"\"}}{{fun_000D0005 arg=\"\"}}！{{pageBreak}}{{anim id=\"9\"}}でも、{{ruby charSpan=\"4\" value=\"せいげんじかん\"}}制限時間は{{delay frames=\"16\"}}　　\nもう　{{ruby charSpan=\"1\" value=\"す\"}}過ぎてるみたいだし{{delay frames=\"8\"}}・{{delay frames=\"8\"}}・{{delay frames=\"8\"}}・{{delay frames=\"32\"}}\n{{anim id=\"37\"}}{{ruby charSpan=\"2\" value=\"こんかい\"}}今回は、アタシ{{ruby charSpan=\"1\" value=\"たち\"}}達の{{ruby charSpan=\"1\" value=\"か\"}}勝ちね？"
  }
]