﻿[
  {
    "label": "001",
    "text": "{{anim id=\"1\"}}オイラは、{{fun_00010005 arg=\"\"}}！{{delay frames=\"40\"}}\n{{anim id=\"6\"}}このパネポン{{ruby charSpan=\"1\" value=\"むら\"}}村に{{delay frames=\"8\"}}\nかくめいを　{{ruby charSpan=\"1\" value=\"お\"}}起こすため{{delay frames=\"8\"}}・{{delay frames=\"8\"}}・{{delay frames=\"8\"}}・\n{{anim id=\"33\"}}{{delay frames=\"16\"}}{{ruby charSpan=\"2\" value=\"そんちょう\"}}村長せんきょに{{delay frames=\"16\"}}\nりっこうほ　することにしたんだ！\n{{delay frames=\"8\"}}{{fun_00070005 arg=\"\"}}！"
  },
  {
    "label": "002",
    "text": "{{anim id=\"21\"}}オイラが　{{ruby charSpan=\"2\" value=\"そんちょう\"}}村長になったら、{{delay frames=\"16\"}}\n{{ruby charSpan=\"2\" value=\"むらびと\"}}村人たちが　{{ruby charSpan=\"1\" value=\"おお\"}}大きい{{ruby charSpan=\"1\" value=\"こえ\"}}声で{{delay frames=\"8\"}}\nあいさつするような　{{ruby charSpan=\"1\" value=\"むら\"}}村にするぞ！\n{{anim id=\"21\"}}そうすりゃ、ここは{{delay frames=\"16\"}}\nきっと　いい{{ruby charSpan=\"1\" value=\"むら\"}}村になると{{ruby charSpan=\"1\" value=\"おも\"}}思うんだ！\n{{delay frames=\"8\"}}{{fun_00070005 arg=\"\"}}！"
  },
  {
    "label": "003",
    "text": "{{anim id=\"37\"}}それじゃ、{{ruby charSpan=\"1\" value=\"むら\"}}村のみんなに{{delay frames=\"16\"}}\nオイラの　{{ruby charSpan=\"1\" value=\"あつ\"}}熱い{{ruby charSpan=\"1\" value=\"おも\"}}想いを{{delay frames=\"16\"}}\nぶつけてくるよ！　{{delay frames=\"8\"}}{{fun_00070005 arg=\"\"}}！\n{{anim id=\"35\"}}{{ruby charSpan=\"3\" value=\"けっしょうせん\"}}決勝戦で　{{ruby charSpan=\"1\" value=\"あ\"}}会おうぜ！"
  },
  {
    "label": "004",
    "text": "{{fun_00020007 arg=\"\"}}このステージでは\n{{color id=\"2\"}}おじゃまブロック{{color id=\"65535\"}}が　{{ruby charSpan=\"2\" value=\"しゅつげん\"}}出現する{{ruby charSpan=\"1\" value=\"うえ\"}}上に\n{{color id=\"2\"}}2{{ruby charSpan=\"1\" value=\"ふん\"}}分{{color id=\"65535\"}}の　{{ruby charSpan=\"4\" value=\"せいげんじかん\"}}制限時間もあります。{{fun_00030007 arg=\"\"}}{{delay frames=\"40\"}}"
  },
  {
    "label": "006",
    "text": "{{anim id=\"44\"}}{{ruby charSpan=\"1\" value=\"ま\"}}待たせたな！　{{delay frames=\"8\"}}{{fun_00000005 arg=\"\"}}！{{delay frames=\"40\"}}\nからだの{{ruby charSpan=\"1\" value=\"ほう\"}}方は　あったまってる？"
  },
  {
    "label": "007",
    "text": "{{anim id=\"5\"}}よーし！{{delay frames=\"16\"}}\nそれじゃ{{ruby charSpan=\"1\" value=\"はじ\"}}始めるぞー！　{{delay frames=\"8\"}}{{fun_00070005 arg=\"\"}}！"
  },
  {
    "label": "008",
    "text": ""
  },
  {
    "label": "009",
    "text": ""
  },
  {
    "label": "011",
    "text": "{{anim id=\"41\"}}くそぉ～、{{ruby charSpan=\"1\" value=\"ま\"}}負けちまった{{delay frames=\"8\"}}・{{delay frames=\"8\"}}・{{delay frames=\"8\"}}・{{delay frames=\"16\"}}\nさすが　{{fun_00000005 arg=\"\"}}だな"
  },
  {
    "label": "012",
    "text": "{{anim id=\"1\"}}それじゃ、{{delay frames=\"8\"}}おたがいの\nけんとうをたたえて{{delay frames=\"16\"}}\nユニフォームのこうかんを{{delay frames=\"8\"}}・{{delay frames=\"8\"}}・{{delay frames=\"8\"}}・\n{{anim id=\"15\"}}え、{{delay frames=\"16\"}}しない？"
  },
  {
    "label": "013",
    "text": ""
  },
  {
    "label": "014",
    "text": ""
  },
  {
    "label": "016",
    "text": "{{anim id=\"36\"}}へへへ、{{delay frames=\"16\"}}どうやら{{delay frames=\"8\"}}\nオイラの{{ruby charSpan=\"1\" value=\"か\"}}勝ちみたいだな！"
  },
  {
    "label": "017",
    "text": "{{anim id=\"6\"}}{{ruby charSpan=\"1\" value=\"くも\"}}雲の{{ruby charSpan=\"1\" value=\"うえ\"}}上から　{{ruby charSpan=\"1\" value=\"み\"}}見ててくれよ{{delay frames=\"8\"}}・{{delay frames=\"8\"}}・{{delay frames=\"8\"}}・{{delay frames=\"40\"}}\n{{anim id=\"33\"}}{{delay frames=\"16\"}}オマエの{{ruby charSpan=\"1\" value=\"ぶん\"}}分まで{{delay frames=\"16\"}}\nオイラ　がんばるからさ！"
  },
  {
    "label": "018",
    "text": ""
  },
  {
    "label": "019",
    "text": ""
  }
]