﻿[
  {
    "label": "alp",
    "text": "\n「{{ruby charSpan=\"1\" value=\"き\"}}木を{{ruby charSpan=\"1\" value=\"み\"}}見る{{ruby charSpan=\"1\" value=\"もの\"}}者は{{ruby charSpan=\"1\" value=\"つち\"}}土を{{ruby charSpan=\"1\" value=\"よ\"}}読め」"
  },
  {
    "label": "alw",
    "text": "\n「{{ruby charSpan=\"1\" value=\"こい\"}}恋は{{ruby charSpan=\"2\" value=\"もうもく\"}}盲目」"
  },
  {
    "label": "ant00",
    "text": "\n「さつまの　サヤわり」"
  },
  {
    "label": "ant01",
    "text": "\n「{{ruby charSpan=\"4\" value=\"ホンモノしこう\"}}本物志向」"
  },
  {
    "label": "ant02",
    "text": "\n「{{ruby charSpan=\"2\" value=\"ぜっせい\"}}絶世の{{ruby charSpan=\"2\" value=\"びじょ\"}}美女」"
  },
  {
    "label": "ant03",
    "text": "\n「{{ruby charSpan=\"2\" value=\"じんせい\"}}人生　マジェスティック」"
  },
  {
    "label": "ant04",
    "text": ""
  },
  {
    "label": "ant05",
    "text": ""
  },
  {
    "label": "ant06",
    "text": "\n「{{ruby charSpan=\"1\" value=\"いえ\"}}家は{{ruby charSpan=\"1\" value=\"おんな\"}}女が{{ruby charSpan=\"1\" value=\"つく\"}}作るもの」"
  },
  {
    "label": "ant07",
    "text": ""
  },
  {
    "label": "ant08",
    "text": "\n「{{ruby charSpan=\"1\" value=\"す\"}}住めば{{ruby charSpan=\"1\" value=\"みやこ\"}}都」"
  },
  {
    "label": "ant09",
    "text": "\n「{{ruby charSpan=\"2\" value=\"むかしほ\"}}昔掘った　アリ{{ruby charSpan=\"1\" value=\"づか\"}}塚」"
  },
  {
    "label": "bea00",
    "text": "\n「{{ruby charSpan=\"2\" value=\"たいへい\"}}太平の{{ruby charSpan=\"1\" value=\"こう\"}}功は　{{ruby charSpan=\"2\" value=\"ひとり\"}}一人の{{ruby charSpan=\"1\" value=\"ちから\"}}力にあらず」"
  },
  {
    "label": "bea01",
    "text": "\n「{{ruby charSpan=\"4\" value=\"ネツレツかんげい\"}}熱烈歓迎」"
  },
  {
    "label": "bea02",
    "text": "\n「あきかんは　くずかごに」"
  },
  {
    "label": "bea03",
    "text": "\n「チリもつもれば　{{ruby charSpan=\"1\" value=\"やま\"}}山となる」"
  },
  {
    "label": "bea04",
    "text": ""
  },
  {
    "label": "bea05",
    "text": "\n「{{ruby charSpan=\"2\" value=\"せいじつ\"}}誠実であれば　{{ruby charSpan=\"1\" value=\"もっと\"}}最も{{ruby charSpan=\"1\" value=\"とお\"}}遠くまで{{ruby charSpan=\"1\" value=\"い\"}}行く」"
  },
  {
    "label": "bea06",
    "text": "\n「{{ruby charSpan=\"1\" value=\"わか\"}}若いときの{{ruby charSpan=\"2\" value=\"くろう\"}}苦労は{{ruby charSpan=\"1\" value=\"こ\"}}買うてでもせよ」"
  },
  {
    "label": "bea07",
    "text": "\n「{{ruby charSpan=\"1\" value=\"ゆき\"}}雪や{{ruby charSpan=\"1\" value=\"こおり\"}}氷も{{ruby charSpan=\"1\" value=\"もと\"}}元は{{ruby charSpan=\"1\" value=\"みず\"}}水」"
  },
  {
    "label": "bea08",
    "text": "\n「{{ruby charSpan=\"2\" value=\"じぶん\"}}自分のものが{{ruby charSpan=\"2\" value=\"じぶん\"}}自分を{{ruby charSpan=\"1\" value=\"すく\"}}救う」"
  },
  {
    "label": "bea09",
    "text": "\n「{{ruby charSpan=\"1\" value=\"みみ\"}}耳かきで{{ruby charSpan=\"1\" value=\"あつ\"}}集めて　{{ruby charSpan=\"2\" value=\"くまで\"}}熊手でかき{{ruby charSpan=\"1\" value=\"だ\"}}出す」"
  },
  {
    "label": "bea10",
    "text": "\n「{{ruby charSpan=\"2\" value=\"りゅうこう\"}}流行は　{{ruby charSpan=\"2\" value=\"かいき\"}}回帰する」"
  },
  {
    "label": "bea11",
    "text": "\n「{{ruby charSpan=\"1\" value=\"き\"}}木の{{ruby charSpan=\"1\" value=\"うえ\"}}上に{{ruby charSpan=\"1\" value=\"た\"}}立って{{ruby charSpan=\"1\" value=\"み\"}}見る」"
  },
  {
    "label": "bea12",
    "text": "\n「{{ruby charSpan=\"2\" value=\"スズメひゃく\"}}雀百まで{{ruby charSpan=\"1\" value=\"おど\"}}踊り{{ruby charSpan=\"1\" value=\"わす\"}}忘れず」"
  },
  {
    "label": "bea13",
    "text": "\n「レディーファースト」"
  },
  {
    "label": "bea14",
    "text": "\n「すべての{{ruby charSpan=\"1\" value=\"みち\"}}道は　ローマに{{ruby charSpan=\"1\" value=\"つう\"}}通ず」"
  },
  {
    "label": "bev",
    "text": "\n「{{ruby charSpan=\"1\" value=\"きし\"}}岸を{{ruby charSpan=\"1\" value=\"も\"}}持つ{{ruby charSpan=\"1\" value=\"もの\"}}者、{{ruby charSpan=\"1\" value=\"さかな\"}}魚も{{ruby charSpan=\"1\" value=\"も\"}}持つ」"
  },
  {
    "label": "bln",
    "text": "\n「ひそかに{{ruby charSpan=\"1\" value=\"いさ\"}}諌めて　{{ruby charSpan=\"1\" value=\"おおやけ\"}}公にほめよ」"
  },
  {
    "label": "boa",
    "text": "\n「{{ruby charSpan=\"1\" value=\"くさ\"}}腐ってもカブ」"
  },
  {
    "label": "bpt",
    "text": "\n「{{ruby charSpan=\"1\" value=\"あ\"}}当たるも{{ruby charSpan=\"2\" value=\"はっけ\"}}八卦{{ruby charSpan=\"1\" value=\"あ\"}}当たらぬも{{ruby charSpan=\"2\" value=\"はっけ\"}}八卦」"
  },
  {
    "label": "brd00",
    "text": "\n「{{ruby charSpan=\"1\" value=\"で\"}}出たとこ　{{ruby charSpan=\"2\" value=\"しょうぶ\"}}勝負」"
  },
  {
    "label": "brd01",
    "text": "\n「{{ruby charSpan=\"2\" value=\"ことり\"}}小鳥の{{ruby charSpan=\"2\" value=\"ざいさん\"}}財産は　クチバシである」"
  },
  {
    "label": "brd02",
    "text": "\n「{{ruby charSpan=\"2\" value=\"あした\"}}明日できることは　{{ruby charSpan=\"2\" value=\"きょう\"}}今日しない」"
  },
  {
    "label": "brd03",
    "text": "\n「{{ruby charSpan=\"1\" value=\"まよ\"}}迷わず{{ruby charSpan=\"1\" value=\"い\"}}行けよ、{{ruby charSpan=\"1\" value=\"い\"}}行けばわかるさ」"
  },
  {
    "label": "brd04",
    "text": "\n「チームプレイより　{{ruby charSpan=\"2\" value=\"こじん\"}}個人プレイ」"
  },
  {
    "label": "brd05",
    "text": "\n「{{ruby charSpan=\"1\" value=\"いき\"}}息のある{{ruby charSpan=\"1\" value=\"かぎ\"}}限り{{ruby charSpan=\"2\" value=\"きぼう\"}}希望がある」"
  },
  {
    "label": "brd06",
    "text": "\n「{{ruby charSpan=\"4\" value=\"がんこいってつ\"}}頑固一徹」"
  },
  {
    "label": "brd07",
    "text": ""
  },
  {
    "label": "brd08",
    "text": "\n「あばたもエクボ」"
  },
  {
    "label": "brd09",
    "text": ""
  },
  {
    "label": "brd10",
    "text": ""
  },
  {
    "label": "brd11",
    "text": "\n「{{ruby charSpan=\"1\" value=\"くん\"}}薫は{{ruby charSpan=\"1\" value=\"こう\"}}香を{{ruby charSpan=\"1\" value=\"もっ\"}}以て{{ruby charSpan=\"1\" value=\"みずか\"}}自ら{{ruby charSpan=\"1\" value=\"や\"}}焼く」"
  },
  {
    "label": "brd12",
    "text": ""
  },
  {
    "label": "brd13",
    "text": ""
  },
  {
    "label": "brd14",
    "text": ""
  },
  {
    "label": "brd15",
    "text": "\n「{{ruby charSpan=\"1\" value=\"す\"}}好きこそ　ものの{{ruby charSpan=\"2\" value=\"じょうず\"}}上手なれ」"
  },
  {
    "label": "brd16",
    "text": "\n「{{ruby charSpan=\"1\" value=\"と\"}}飛ぶ{{ruby charSpan=\"1\" value=\"とり\"}}鳥を{{ruby charSpan=\"1\" value=\"お\"}}落とす{{ruby charSpan=\"1\" value=\"いきお\"}}勢い」"
  },
  {
    "label": "brd17",
    "text": "\n「カゴの{{ruby charSpan=\"1\" value=\"なか\"}}中の{{ruby charSpan=\"2\" value=\"ことり\"}}小鳥」"
  },
  {
    "label": "brd18",
    "text": "\n「スズメの{{ruby charSpan=\"1\" value=\"なみだ\"}}涙」"
  },
  {
    "label": "brd19",
    "text": "\n「{{ruby charSpan=\"2\" value=\"となん\"}}図南の{{ruby charSpan=\"1\" value=\"つばさ\"}}翼」"
  },
  {
    "label": "bul00",
    "text": "\n「ベンケイの　{{ruby charSpan=\"1\" value=\"な\"}}泣きどころ」"
  },
  {
    "label": "bul01",
    "text": "\n「{{ruby charSpan=\"2\" value=\"けいこう\"}}鶏口となるも　{{ruby charSpan=\"2\" value=\"ぎゅうご\"}}牛後となるなかれ」"
  },
  {
    "label": "bul02",
    "text": ""
  },
  {
    "label": "bul03",
    "text": "\n「{{ruby charSpan=\"1\" value=\"うし\"}}牛も{{ruby charSpan=\"2\" value=\"せいちょう\"}}成長すれば　{{ruby charSpan=\"1\" value=\"はな\"}}鼻の{{ruby charSpan=\"1\" value=\"あな\"}}穴も{{ruby charSpan=\"1\" value=\"ひら\"}}開く」"
  },
  {
    "label": "bul04",
    "text": ""
  },
  {
    "label": "bul05",
    "text": "\n「{{ruby charSpan=\"1\" value=\"うし\"}}牛は{{ruby charSpan=\"1\" value=\"うし\"}}牛づれ、{{ruby charSpan=\"1\" value=\"うま\"}}馬は{{ruby charSpan=\"1\" value=\"うま\"}}馬づれ」"
  },
  {
    "label": "bul06",
    "text": ""
  },
  {
    "label": "bul07",
    "text": "\n「{{ruby charSpan=\"4\" value=\"はんめんきょうし\"}}反面教師」"
  },
  {
    "label": "bul08",
    "text": "\n「{{ruby charSpan=\"1\" value=\"ま\"}}待てば{{ruby charSpan=\"2\" value=\"かいろ\"}}海路の{{ruby charSpan=\"2\" value=\"ひより\"}}日和あり」"
  },
  {
    "label": "cat00",
    "text": "\n「ブタに　しんじゅ」"
  },
  {
    "label": "cat01",
    "text": "\n「ネコは　{{ruby charSpan=\"2\" value=\"さんねん\"}}三年の{{ruby charSpan=\"1\" value=\"おん\"}}恩を　{{ruby charSpan=\"2\" value=\"みっか\"}}三日で{{ruby charSpan=\"1\" value=\"わす\"}}忘れる」"
  },
  {
    "label": "cat02",
    "text": "\n「{{ruby charSpan=\"1\" value=\"び\"}}美ぼうは{{ruby charSpan=\"2\" value=\"けっこん\"}}結婚まで　{{ruby charSpan=\"2\" value=\"ちえ\"}}知恵は{{ruby charSpan=\"1\" value=\"し\"}}死ぬまで」"
  },
  {
    "label": "cat03",
    "text": "\n「{{ruby charSpan=\"1\" value=\"おも\"}}思えば　{{ruby charSpan=\"1\" value=\"おも\"}}思わるる」"
  },
  {
    "label": "cat04",
    "text": "\n「{{ruby charSpan=\"2\" value=\"おんなごころ\"}}女心は　ネコの{{ruby charSpan=\"1\" value=\"め\"}}眼」"
  },
  {
    "label": "cat05",
    "text": "\n「ストレート{{ruby charSpan=\"2\" value=\"かじゅう\"}}果汁 100%」"
  },
  {
    "label": "cat06",
    "text": "「{{ruby charSpan=\"1\" value=\"みぎ\"}}右のほおを{{ruby charSpan=\"1\" value=\"う\"}}打つ{{ruby charSpan=\"1\" value=\"もの\"}}者に\n　{{ruby charSpan=\"1\" value=\"ひだり\"}}左のほおを{{ruby charSpan=\"1\" value=\"む\"}}向けよ」"
  },
  {
    "label": "cat07",
    "text": "\n「{{ruby charSpan=\"1\" value=\"お\"}}起きて{{ruby charSpan=\"2\" value=\"はんじょう\"}}半畳　{{ruby charSpan=\"1\" value=\"ね\"}}寝て{{ruby charSpan=\"2\" value=\"いちじょう\"}}一畳」"
  },
  {
    "label": "cat08",
    "text": "\n「{{ruby charSpan=\"4\" value=\"あいえんきえん\"}}合縁奇縁」"
  },
  {
    "label": "cat09",
    "text": "\n「{{ruby charSpan=\"2\" value=\"いちこえ\"}}一声、{{ruby charSpan=\"1\" value=\"に\"}}二{{ruby charSpan=\"1\" value=\"かお\"}}顔、{{ruby charSpan=\"2\" value=\"さんすがた\"}}三姿」"
  },
  {
    "label": "cat10",
    "text": "\n「{{ruby charSpan=\"3\" value=\"ひっさつわざ\"}}必殺技」"
  },
  {
    "label": "cat11",
    "text": "\n「{{ruby charSpan=\"1\" value=\"すがた\"}}姿は{{ruby charSpan=\"1\" value=\"つく\"}}作り{{ruby charSpan=\"1\" value=\"もの\"}}物」"
  },
  {
    "label": "cat12",
    "text": "\n「{{ruby charSpan=\"2\" value=\"こいびと\"}}恋人がくれるのはリンゴ」"
  },
  {
    "label": "cat13",
    "text": "\n「{{ruby charSpan=\"2\" value=\"とうこん\"}}闘魂」"
  },
  {
    "label": "cat14",
    "text": "\n「{{ruby charSpan=\"4\" value=\"つうはんせいかつ\"}}通販生活」"
  },
  {
    "label": "cat15",
    "text": "\n「{{ruby charSpan=\"3\" value=\"ひっさつわざ\"}}必殺技は　ネコパンチ」"
  },
  {
    "label": "cat16",
    "text": "\n「{{ruby charSpan=\"1\" value=\"め\"}}目{{ruby charSpan=\"1\" value=\"や\"}}病み{{ruby charSpan=\"1\" value=\"おんな\"}}女に{{ruby charSpan=\"2\" value=\"かぜ\"}}風邪ひき{{ruby charSpan=\"1\" value=\"おとこ\"}}男」"
  },
  {
    "label": "cat17",
    "text": "\n「{{ruby charSpan=\"1\" value=\"こい\"}}恋に{{ruby charSpan=\"2\" value=\"じょうげ\"}}上下の　へだてなし」"
  },
  {
    "label": "cat18",
    "text": "\n「{{ruby charSpan=\"3\" value=\"かじば\"}}火事場の　ネコぢから」"
  },
  {
    "label": "cat19",
    "text": "\n「ミイラ{{ruby charSpan=\"1\" value=\"と\"}}取りが　ミイラになる」"
  },
  {
    "label": "cat20",
    "text": "\n「ネコの{{ruby charSpan=\"1\" value=\"て\"}}手を{{ruby charSpan=\"1\" value=\"か\"}}貸します」"
  },
  {
    "label": "cat21",
    "text": "\n「{{ruby charSpan=\"2\" value=\"もんぜん\"}}門前の{{ruby charSpan=\"2\" value=\"こぞう\"}}小僧　{{ruby charSpan=\"1\" value=\"なら\"}}習わぬ{{ruby charSpan=\"1\" value=\"きょう\"}}経を{{ruby charSpan=\"1\" value=\"よ\"}}読む」"
  },
  {
    "label": "cat22",
    "text": "「のんびり{{ruby charSpan=\"2\" value=\"さいしゅ\"}}採取♪\n　これもハンターライフニャ～」"
  },
  {
    "label": "cbr00",
    "text": "\n「ヤマガラの　くるみ{{ruby charSpan=\"1\" value=\"まわ\"}}回す」"
  },
  {
    "label": "cbr01",
    "text": "\n「クマも　ハラ{{ruby charSpan=\"1\" value=\"へ\"}}減りゃ　おどれない」"
  },
  {
    "label": "cbr02",
    "text": "\n「どんぶり{{ruby charSpan=\"2\" value=\"かんじょう\"}}勘定」"
  },
  {
    "label": "cbr03",
    "text": "\n「{{ruby charSpan=\"1\" value=\"さかな\"}}魚はウマいが　{{ruby charSpan=\"2\" value=\"こぼね\"}}小骨が{{ruby charSpan=\"1\" value=\"おお\"}}多い」"
  },
  {
    "label": "cbr04",
    "text": "\n「{{ruby charSpan=\"4\" value=\"さんちちょくそう\"}}産地直送」"
  },
  {
    "label": "cbr05",
    "text": "\n「つぎはぎだらけの　{{ruby charSpan=\"2\" value=\"じんせい\"}}人生」"
  },
  {
    "label": "cbr06",
    "text": "\n「{{ruby charSpan=\"2\" value=\"ぶし\"}}武士は{{ruby charSpan=\"1\" value=\"く\"}}食わねど{{ruby charSpan=\"1\" value=\"たか\"}}高よう{{ruby charSpan=\"1\" value=\"じ\"}}枝」"
  },
  {
    "label": "cbr07",
    "text": "\n「{{ruby charSpan=\"2\" value=\"まんぞく\"}}満足は{{ruby charSpan=\"1\" value=\"とみ\"}}富に{{ruby charSpan=\"1\" value=\"まさ\"}}勝る」"
  },
  {
    "label": "cbr08",
    "text": ""
  },
  {
    "label": "cbr09",
    "text": "\n「{{ruby charSpan=\"1\" value=\"よく\"}}欲の{{ruby charSpan=\"2\" value=\"くまたか\"}}熊鷹、{{ruby charSpan=\"1\" value=\"また\"}}股さける」"
  },
  {
    "label": "cbr10",
    "text": "\n「{{ruby charSpan=\"1\" value=\"さん\"}}山しょうは{{ruby charSpan=\"2\" value=\"こつぶ\"}}小粒でもピリリと{{ruby charSpan=\"1\" value=\"から\"}}辛い」"
  },
  {
    "label": "cbr11",
    "text": ""
  },
  {
    "label": "cbr12",
    "text": ""
  },
  {
    "label": "cbr13",
    "text": "\n「{{ruby charSpan=\"2\" value=\"とうげん\"}}桃源の{{ruby charSpan=\"1\" value=\"ゆめ\"}}夢」"
  },
  {
    "label": "cbr14",
    "text": "\n「やなぎに　{{ruby charSpan=\"2\" value=\"ゆきお\"}}雪折れなし」"
  },
  {
    "label": "cbr15",
    "text": "\n「{{ruby charSpan=\"1\" value=\"ま\"}}待つ{{ruby charSpan=\"1\" value=\"ま\"}}間が{{ruby charSpan=\"1\" value=\"はな\"}}花」"
  },
  {
    "label": "cbr16",
    "text": "\n「{{ruby charSpan=\"2\" value=\"めいぶつ\"}}名物に　うまいものなし」"
  },
  {
    "label": "cbr17",
    "text": "\n「{{ruby charSpan=\"3\" value=\"おやこうこう\"}}親孝行」"
  },
  {
    "label": "cbr18",
    "text": "\n「おでかけ」"
  },
  {
    "label": "chm",
    "text": "\n「{{ruby charSpan=\"2\" value=\"いっすん\"}}一寸の{{ruby charSpan=\"1\" value=\"むし\"}}虫にも　{{ruby charSpan=\"2\" value=\"ごぶ\"}}五分の{{ruby charSpan=\"1\" value=\"たましい\"}}魂」"
  },
  {
    "label": "chn00",
    "text": "\n「{{ruby charSpan=\"2\" value=\"はやお\"}}早起きは　3ベルの{{ruby charSpan=\"1\" value=\"とく\"}}得」"
  },
  {
    "label": "chn01",
    "text": "\n「{{ruby charSpan=\"2\" value=\"はいちゅう\"}}杯中の　{{ruby charSpan=\"2\" value=\"じゃえい\"}}蛇影」"
  },
  {
    "label": "chn02",
    "text": "\n「{{ruby charSpan=\"1\" value=\"おお\"}}多くを{{ruby charSpan=\"1\" value=\"し\"}}知る{{ruby charSpan=\"1\" value=\"ひと\"}}人は　{{ruby charSpan=\"1\" value=\"おお\"}}多くを{{ruby charSpan=\"1\" value=\"くる\"}}苦しむ」"
  },
  {
    "label": "chn03",
    "text": ""
  },
  {
    "label": "chn04",
    "text": ""
  },
  {
    "label": "chn05",
    "text": "\n「{{ruby charSpan=\"4\" value=\"はやねはやお\"}}早寝早起き、{{ruby charSpan=\"2\" value=\"やまいし\"}}病知らず」"
  },
  {
    "label": "chn06",
    "text": ""
  },
  {
    "label": "chn07",
    "text": ""
  },
  {
    "label": "chn08",
    "text": ""
  },
  {
    "label": "chn09",
    "text": "\n「{{ruby charSpan=\"3\" value=\"しろどうふ\"}}白豆腐の{{ruby charSpan=\"3\" value=\"ひょうしぎ\"}}拍子木」"
  },
  {
    "label": "chn10",
    "text": "\n「{{ruby charSpan=\"1\" value=\"た\"}}立つ{{ruby charSpan=\"1\" value=\"とり\"}}鳥　{{ruby charSpan=\"1\" value=\"あと\"}}跡をにごさず」"
  },
  {
    "label": "chn11",
    "text": "\n「{{ruby charSpan=\"2\" value=\"じんじ\"}}人事をつくして　{{ruby charSpan=\"2\" value=\"てんめい\"}}天命を{{ruby charSpan=\"1\" value=\"ま\"}}待つ」"
  },
  {
    "label": "chn12",
    "text": "\n「{{ruby charSpan=\"2\" value=\"きゅうし\"}}九死に{{ruby charSpan=\"2\" value=\"いっしょう\"}}一生を{{ruby charSpan=\"1\" value=\"え\"}}得る」"
  },
  {
    "label": "chn13",
    "text": "\n「{{ruby charSpan=\"1\" value=\"ごう\"}}郷に{{ruby charSpan=\"1\" value=\"い\"}}入っては　{{ruby charSpan=\"1\" value=\"ごう\"}}郷に{{ruby charSpan=\"1\" value=\"したが\"}}従う」"
  },
  {
    "label": "cml",
    "text": "\n「{{ruby charSpan=\"1\" value=\"つき\"}}月の{{ruby charSpan=\"2\" value=\"さばく\"}}砂漠」"
  },
  {
    "label": "cow00",
    "text": "\n「{{ruby charSpan=\"1\" value=\"い\"}}言わぬことは{{ruby charSpan=\"1\" value=\"き\"}}聞こえぬ」"
  },
  {
    "label": "cow01",
    "text": "\n「3{{ruby charSpan=\"2\" value=\"ぽすす\"}}歩進んで　4{{ruby charSpan=\"2\" value=\"ほさ\"}}歩下がる」"
  },
  {
    "label": "cow02",
    "text": ""
  },
  {
    "label": "cow03",
    "text": ""
  },
  {
    "label": "cow04",
    "text": ""
  },
  {
    "label": "cow05",
    "text": ""
  },
  {
    "label": "cow06",
    "text": "\n「{{ruby charSpan=\"1\" value=\"ひと\"}}人の{{ruby charSpan=\"1\" value=\"もの\"}}物より　{{ruby charSpan=\"2\" value=\"じぶん\"}}自分の{{ruby charSpan=\"1\" value=\"もの\"}}物」"
  },
  {
    "label": "cow07",
    "text": "\n「バブル{{ruby charSpan=\"2\" value=\"じだい\"}}時代」"
  },
  {
    "label": "crd00",
    "text": "\n「{{ruby charSpan=\"1\" value=\"ね\"}}寝る{{ruby charSpan=\"1\" value=\"こ\"}}子は　{{ruby charSpan=\"1\" value=\"そだ\"}}育つ」"
  },
  {
    "label": "crd01",
    "text": "\n「{{ruby charSpan=\"1\" value=\"くち\"}}口は{{ruby charSpan=\"1\" value=\"こころ\"}}心のものさし」"
  },
  {
    "label": "crd02",
    "text": "\n「{{ruby charSpan=\"5\" value=\"じょうわんにとうきん\"}}上腕二頭筋」"
  },
  {
    "label": "crd03",
    "text": ""
  },
  {
    "label": "crd04",
    "text": "\n「{{ruby charSpan=\"1\" value=\"き\"}}木を{{ruby charSpan=\"1\" value=\"み\"}}見て{{ruby charSpan=\"1\" value=\"もり\"}}森を{{ruby charSpan=\"1\" value=\"み\"}}見ない」"
  },
  {
    "label": "crd05",
    "text": ""
  },
  {
    "label": "crd06",
    "text": "\n「{{ruby charSpan=\"2\" value=\"めんぴ\"}}面皮をはぐ」"
  },
  {
    "label": "crd07",
    "text": "\n「{{ruby charSpan=\"1\" value=\"わ\"}}和を{{ruby charSpan=\"1\" value=\"もっ\"}}以て{{ruby charSpan=\"1\" value=\"とうと\"}}尊しとなす」"
  },
  {
    "label": "crd08",
    "text": "\n「{{ruby charSpan=\"3\" value=\"とうりゅうもん\"}}登竜門」"
  },
  {
    "label": "der00",
    "text": "\n「{{ruby charSpan=\"3\" value=\"いのしかちょう\"}}猪鹿蝶」"
  },
  {
    "label": "der01",
    "text": "\n「{{ruby charSpan=\"4\" value=\"さんじゅうろっけい\"}}三十六計　{{ruby charSpan=\"1\" value=\"に\"}}逃げるにしかず」"
  },
  {
    "label": "der02",
    "text": "\n「{{ruby charSpan=\"1\" value=\"あい\"}}愛すべき{{ruby charSpan=\"2\" value=\"ばか\"}}馬鹿」"
  },
  {
    "label": "der03",
    "text": "\n「{{ruby charSpan=\"1\" value=\"の\"}}乗りかかった{{ruby charSpan=\"1\" value=\"ふね\"}}船」"
  },
  {
    "label": "der04",
    "text": "\n「カモシカのような{{ruby charSpan=\"1\" value=\"あし\"}}足」"
  },
  {
    "label": "der05",
    "text": "\n「{{ruby charSpan=\"1\" value=\"しか\"}}鹿を{{ruby charSpan=\"1\" value=\"お\"}}追う{{ruby charSpan=\"1\" value=\"もの\"}}者は　{{ruby charSpan=\"1\" value=\"やま\"}}山を{{ruby charSpan=\"1\" value=\"み\"}}見ず」"
  },
  {
    "label": "der06",
    "text": "\n「バカって{{ruby charSpan=\"1\" value=\"い\"}}言う{{ruby charSpan=\"1\" value=\"ほう\"}}方がバカ」"
  },
  {
    "label": "der07",
    "text": "\n「{{ruby charSpan=\"2\" value=\"らいねん\"}}来年のことを{{ruby charSpan=\"1\" value=\"い\"}}言えば　{{ruby charSpan=\"1\" value=\"おに\"}}鬼が{{ruby charSpan=\"1\" value=\"わら\"}}笑う」"
  },
  {
    "label": "der08",
    "text": "\n「{{ruby charSpan=\"4\" value=\"かいかじしん\"}}改過自新」"
  },
  {
    "label": "der09",
    "text": "\n「{{ruby charSpan=\"1\" value=\"ま\"}}負けるが{{ruby charSpan=\"1\" value=\"か\"}}勝ち」"
  },
  {
    "label": "der10",
    "text": "\n「{{ruby charSpan=\"2\" value=\"ずきん\"}}頭巾を{{ruby charSpan=\"1\" value=\"み\"}}見せて　ほおかむり」"
  },
  {
    "label": "dog00",
    "text": "\n「{{ruby charSpan=\"1\" value=\"ちゅう\"}}中くらいの{{ruby charSpan=\"1\" value=\"しあわ\"}}幸せが　{{ruby charSpan=\"2\" value=\"いちばん\"}}一番よい」"
  },
  {
    "label": "dog01",
    "text": "\n「{{ruby charSpan=\"1\" value=\"ね\"}}寝るも{{ruby charSpan=\"2\" value=\"ちゅうぎ\"}}忠義」"
  },
  {
    "label": "dog02",
    "text": "\n「かけには{{ruby charSpan=\"2\" value=\"こううん\"}}幸運　{{ruby charSpan=\"1\" value=\"こい\"}}恋には{{ruby charSpan=\"2\" value=\"ふうん\"}}不運」"
  },
  {
    "label": "dog03",
    "text": "\n「{{ruby charSpan=\"1\" value=\"め\"}}目は{{ruby charSpan=\"2\" value=\"しんじつ\"}}真実を{{ruby charSpan=\"1\" value=\"み\"}}見、{{ruby charSpan=\"1\" value=\"みみ\"}}耳はウソを{{ruby charSpan=\"1\" value=\"き\"}}聞く」"
  },
  {
    "label": "dog04",
    "text": "\n「{{ruby charSpan=\"1\" value=\"いぬ\"}}犬、つちくれを{{ruby charSpan=\"1\" value=\"お\"}}追う」"
  },
  {
    "label": "dog05",
    "text": "\n「{{ruby charSpan=\"2\" value=\"はっこう\"}}薄幸の{{ruby charSpan=\"2\" value=\"かじん\"}}佳人」"
  },
  {
    "label": "dog06",
    "text": "\n「{{ruby charSpan=\"1\" value=\"うご\"}}動かざること　{{ruby charSpan=\"1\" value=\"やま\"}}山のごとし」"
  },
  {
    "label": "dog07",
    "text": "\n「{{ruby charSpan=\"1\" value=\"あじ\"}}味は　{{ruby charSpan=\"1\" value=\"た\"}}食べてみるまでわからない」"
  },
  {
    "label": "dog08",
    "text": "\n「{{ruby charSpan=\"1\" value=\"いぬ\"}}犬が{{ruby charSpan=\"1\" value=\"にし\"}}西むきゃ　{{ruby charSpan=\"1\" value=\"お\"}}尾は{{ruby charSpan=\"1\" value=\"ひがし\"}}東」"
  },
  {
    "label": "dog09",
    "text": "\n「IT{{ruby charSpan=\"2\" value=\"かくめい\"}}革命」"
  },
  {
    "label": "dog10",
    "text": "\n「ヒゲのない{{ruby charSpan=\"1\" value=\"おっと\"}}夫に　ヒゲのある{{ruby charSpan=\"1\" value=\"つま\"}}妻」"
  },
  {
    "label": "dog11",
    "text": ""
  },
  {
    "label": "dog12",
    "text": ""
  },
  {
    "label": "dog13",
    "text": ""
  },
  {
    "label": "dog14",
    "text": "\n「{{ruby charSpan=\"1\" value=\"お\"}}尾を{{ruby charSpan=\"1\" value=\"ふ\"}}振る{{ruby charSpan=\"1\" value=\"いぬ\"}}犬は　たたかれず」"
  },
  {
    "label": "dog15",
    "text": "\n「{{ruby charSpan=\"1\" value=\"たび\"}}旅の{{ruby charSpan=\"1\" value=\"はじ\"}}恥は　かき{{ruby charSpan=\"1\" value=\"す\"}}捨て」"
  },
  {
    "label": "dog16",
    "text": "\n「{{ruby charSpan=\"2\" value=\"ふうふ\"}}夫婦ゲンカは　{{ruby charSpan=\"1\" value=\"いぬ\"}}犬も{{ruby charSpan=\"1\" value=\"く\"}}食わない」"
  },
  {
    "label": "dog17",
    "text": "\n「{{ruby charSpan=\"2\" value=\"ばんちゃ\"}}番茶も{{ruby charSpan=\"2\" value=\"でばな\"}}出花」"
  },
  {
    "label": "dog18",
    "text": "\n「{{ruby charSpan=\"1\" value=\"まくら\"}}枕を{{ruby charSpan=\"1\" value=\"たか\"}}高くして{{ruby charSpan=\"1\" value=\"ね\"}}寝る」"
  },
  {
    "label": "duk00",
    "text": "\n「アヒルに　{{ruby charSpan=\"1\" value=\"やま\"}}山のイモ」"
  },
  {
    "label": "duk01",
    "text": "\n「{{ruby charSpan=\"1\" value=\"おう\"}}王は{{ruby charSpan=\"2\" value=\"ちょうみん\"}}兆民を{{ruby charSpan=\"1\" value=\"こ\"}}子とす」"
  },
  {
    "label": "duk02",
    "text": "\n「{{ruby charSpan=\"1\" value=\"かお\"}}顔と{{ruby charSpan=\"1\" value=\"こころ\"}}心は　{{ruby charSpan=\"1\" value=\"おな\"}}同じとは{{ruby charSpan=\"1\" value=\"かぎ\"}}限らない」"
  },
  {
    "label": "duk03",
    "text": "「{{ruby charSpan=\"1\" value=\"ひ\"}}日に{{ruby charSpan=\"2\" value=\"いちど\"}}一度　ユウウツにならぬ{{ruby charSpan=\"1\" value=\"もの\"}}者は\n{{ruby charSpan=\"2\" value=\"ぐじん\"}}愚人なり」"
  },
  {
    "label": "duk04",
    "text": "\n「{{ruby charSpan=\"1\" value=\"おも\"}}思い{{ruby charSpan=\"1\" value=\"で\"}}出は　{{ruby charSpan=\"1\" value=\"いぬ\"}}犬のように　{{ruby charSpan=\"1\" value=\"ひと\"}}人を{{ruby charSpan=\"1\" value=\"お\"}}追う」"
  },
  {
    "label": "duk05",
    "text": "\n「やせの　{{ruby charSpan=\"2\" value=\"おおぐ\"}}大食い」"
  },
  {
    "label": "duk06",
    "text": "「ヘビからは　ヘビ、\nセミからは　セミが{{ruby charSpan=\"1\" value=\"う\"}}生まれる」"
  },
  {
    "label": "duk07",
    "text": "\n「{{ruby charSpan=\"1\" value=\"あい\"}}愛はキセキを{{ruby charSpan=\"1\" value=\"お\"}}起こす」"
  },
  {
    "label": "duk08",
    "text": "\n「{{ruby charSpan=\"3\" value=\"せけんし\"}}世間知らずの　{{ruby charSpan=\"1\" value=\"たか\"}}高まくら」"
  },
  {
    "label": "duk09",
    "text": "\n「{{ruby charSpan=\"6\" value=\"せかいさんだいちんみ\"}}世界三大珍味」"
  },
  {
    "label": "duk10",
    "text": "\n「{{ruby charSpan=\"1\" value=\"と\"}}飛び{{ruby charSpan=\"1\" value=\"だ\"}}出し{{ruby charSpan=\"2\" value=\"ちゅうい\"}}注意」"
  },
  {
    "label": "duk11",
    "text": "\n「{{ruby charSpan=\"1\" value=\"はな\"}}鼻たれ{{ruby charSpan=\"2\" value=\"こぞう\"}}小僧も{{ruby charSpan=\"2\" value=\"おとな\"}}大人になる」"
  },
  {
    "label": "duk12",
    "text": "\n「{{ruby charSpan=\"1\" value=\"ひと\"}}人をほこるは　カモの{{ruby charSpan=\"1\" value=\"あじ\"}}味」"
  },
  {
    "label": "duk13",
    "text": "\n「トマトが{{ruby charSpan=\"1\" value=\"あか\"}}赤くなると{{ruby charSpan=\"2\" value=\"いしゃ\"}}医者が{{ruby charSpan=\"1\" value=\"あお\"}}青くなる」"
  },
  {
    "label": "duk14",
    "text": ""
  },
  {
    "label": "duk15",
    "text": "\n「{{ruby charSpan=\"1\" value=\"とき\"}}時は{{ruby charSpan=\"1\" value=\"かね\"}}金なり」"
  },
  {
    "label": "duk16",
    "text": "\n「{{ruby charSpan=\"1\" value=\"ぜん\"}}善は{{ruby charSpan=\"1\" value=\"いそ\"}}急げ」"
  },
  {
    "label": "duk17",
    "text": "\n「よいっぱりの　{{ruby charSpan=\"3\" value=\"あさねぼう\"}}朝寝坊」"
  },
  {
    "label": "elp00",
    "text": "\n「{{ruby charSpan=\"1\" value=\"ぞう\"}}象に{{ruby charSpan=\"1\" value=\"の\"}}乗って　バッタとり」"
  },
  {
    "label": "elp01",
    "text": "\n「{{ruby charSpan=\"1\" value=\"ぞう\"}}象を{{ruby charSpan=\"1\" value=\"か\"}}飼う{{ruby charSpan=\"1\" value=\"もの\"}}者は　{{ruby charSpan=\"1\" value=\"ぞう\"}}象を{{ruby charSpan=\"1\" value=\"おそ\"}}恐れない」"
  },
  {
    "label": "elp02",
    "text": "\n「もっと　カレーを！」"
  },
  {
    "label": "elp03",
    "text": "\n「{{ruby charSpan=\"1\" value=\"お\"}}終わり{{ruby charSpan=\"1\" value=\"よ\"}}良ければ　すべて{{ruby charSpan=\"1\" value=\"よ\"}}良し」"
  },
  {
    "label": "elp04",
    "text": "\n「{{ruby charSpan=\"1\" value=\"いろ\"}}色の{{ruby charSpan=\"1\" value=\"しろ\"}}白いは　{{ruby charSpan=\"3\" value=\"しちなんかく\"}}七難隠す」"
  },
  {
    "label": "elp05",
    "text": "\n「{{ruby charSpan=\"2\" value=\"たにん\"}}他人の{{ruby charSpan=\"2\" value=\"そらに\"}}空似」"
  },
  {
    "label": "elp06",
    "text": "\n「{{ruby charSpan=\"1\" value=\"は\"}}歯を{{ruby charSpan=\"1\" value=\"み\"}}見せることが{{ruby charSpan=\"1\" value=\"わら\"}}笑うことではない」"
  },
  {
    "label": "elp07",
    "text": "\n「{{ruby charSpan=\"1\" value=\"す\"}}酸いも{{ruby charSpan=\"1\" value=\"あま\"}}甘いも　かみわける」"
  },
  {
    "label": "elp08",
    "text": ""
  },
  {
    "label": "elp09",
    "text": "\n「{{ruby charSpan=\"2\" value=\"れきし\"}}歴史はくり{{ruby charSpan=\"1\" value=\"かえ\"}}返す」"
  },
  {
    "label": "elp10",
    "text": "\n「ティーパーティー」"
  },
  {
    "label": "elp11",
    "text": "\n「{{ruby charSpan=\"1\" value=\"くも\"}}雲をつかむ」"
  },
  {
    "label": "end",
    "text": "\n「けけも{{ruby charSpan=\"1\" value=\"ある\"}}歩けば{{ruby charSpan=\"1\" value=\"ぼう\"}}棒に{{ruby charSpan=\"1\" value=\"あ\"}}当たる」"
  },
  {
    "label": "enj",
    "text": "\n「けけも{{ruby charSpan=\"1\" value=\"ある\"}}歩けば{{ruby charSpan=\"1\" value=\"ぼう\"}}棒に{{ruby charSpan=\"1\" value=\"あ\"}}当たる」"
  },
  {
    "label": "flg00",
    "text": "\n「{{ruby charSpan=\"1\" value=\"あめ\"}}雨ふって　{{ruby charSpan=\"2\" value=\"じかた\"}}地固まる」"
  },
  {
    "label": "flg01",
    "text": "\n「{{ruby charSpan=\"1\" value=\"やす\"}}休むことは　さびることだ」"
  },
  {
    "label": "flg02",
    "text": "\n「{{ruby charSpan=\"1\" value=\"ひと\"}}人は{{ruby charSpan=\"1\" value=\"こころ\"}}心が{{ruby charSpan=\"3\" value=\"ひゃっかんめ\"}}百貫目」"
  },
  {
    "label": "flg03",
    "text": "\n「{{ruby charSpan=\"4\" value=\"いっしょくそくはつ\"}}一触即発」"
  },
  {
    "label": "flg04",
    "text": "\n「{{ruby charSpan=\"1\" value=\"い\"}}井の{{ruby charSpan=\"1\" value=\"なか\"}}中のカワズ　{{ruby charSpan=\"2\" value=\"たいかい\"}}大海を{{ruby charSpan=\"1\" value=\"し\"}}知らず」"
  },
  {
    "label": "flg05",
    "text": "\n「カエルのいるところ　{{ruby charSpan=\"1\" value=\"みず\"}}水あり」"
  },
  {
    "label": "flg06",
    "text": "\n「{{ruby charSpan=\"4\" value=\"いっきいちゆう\"}}一喜一憂」"
  },
  {
    "label": "flg07",
    "text": "\n「カエルのいない{{ruby charSpan=\"1\" value=\"いけ\"}}池の{{ruby charSpan=\"1\" value=\"みず\"}}水はよくない」"
  },
  {
    "label": "flg08",
    "text": ""
  },
  {
    "label": "flg09",
    "text": "\n「カエルの{{ruby charSpan=\"1\" value=\"こ\"}}子はカエル」"
  },
  {
    "label": "flg10",
    "text": "\n「カエルがとぶと、{{ruby charSpan=\"1\" value=\"かなら\"}}必ず{{ruby charSpan=\"1\" value=\"あめ\"}}雨」"
  },
  {
    "label": "flg11",
    "text": "\n「のど{{ruby charSpan=\"1\" value=\"もと\"}}元{{ruby charSpan=\"1\" value=\"す\"}}過ぎても　{{ruby charSpan=\"1\" value=\"くち\"}}口は{{ruby charSpan=\"1\" value=\"あつ\"}}熱い」"
  },
  {
    "label": "flg12",
    "text": "\n「{{ruby charSpan=\"1\" value=\"ふか\"}}深ぞり{{ruby charSpan=\"3\" value=\"さんまいば\"}}三枚刃」"
  },
  {
    "label": "flg13",
    "text": "\n「{{ruby charSpan=\"1\" value=\"お\"}}追いかけキスはしないもの」"
  },
  {
    "label": "flg14",
    "text": ""
  },
  {
    "label": "flg15",
    "text": "\n「{{ruby charSpan=\"1\" value=\"やまい\"}}病は{{ruby charSpan=\"1\" value=\"き\"}}気から」"
  },
  {
    "label": "flg16",
    "text": "\n「バラ{{ruby charSpan=\"1\" value=\"いろ\"}}色の{{ruby charSpan=\"2\" value=\"じんせい\"}}人生」"
  },
  {
    "label": "flg17",
    "text": "\n「{{ruby charSpan=\"1\" value=\"いし\"}}石の{{ruby charSpan=\"1\" value=\"うえ\"}}上にも{{ruby charSpan=\"2\" value=\"さんねん\"}}三年」"
  },
  {
    "label": "flg18",
    "text": "\n「{{ruby charSpan=\"2\" value=\"にかい\"}}二階から{{ruby charSpan=\"2\" value=\"めぐすり\"}}目薬」"
  },
  {
    "label": "flg19",
    "text": "\n「カエルの{{ruby charSpan=\"1\" value=\"つら\"}}面に{{ruby charSpan=\"1\" value=\"みず\"}}水」"
  },
  {
    "label": "fox",
    "text": "\n「{{ruby charSpan=\"1\" value=\"い\"}}生き{{ruby charSpan=\"1\" value=\"うま\"}}馬の{{ruby charSpan=\"1\" value=\"め\"}}目を{{ruby charSpan=\"1\" value=\"ぬ\"}}抜く」"
  },
  {
    "label": "goa00",
    "text": "\n「{{ruby charSpan=\"1\" value=\"ゆめ\"}}夢に　{{ruby charSpan=\"2\" value=\"ゆめみ\"}}夢見る」"
  },
  {
    "label": "goa01",
    "text": "\n「{{ruby charSpan=\"1\" value=\"く\"}}暮れぬ{{ruby charSpan=\"1\" value=\"さき\"}}先の{{ruby charSpan=\"2\" value=\"ちょうちん\"}}提灯」"
  },
  {
    "label": "goa02",
    "text": "\n「アクティブ・エイジ」"
  },
  {
    "label": "goa03",
    "text": ""
  },
  {
    "label": "goa04",
    "text": "\n「{{ruby charSpan=\"1\" value=\"ひと\"}}人はそれぞれ　こだわりを{{ruby charSpan=\"1\" value=\"も\"}}持つもの」"
  },
  {
    "label": "goa05",
    "text": ""
  },
  {
    "label": "goa06",
    "text": "\n「{{ruby charSpan=\"2\" value=\"いちりゅう\"}}一流、{{ruby charSpan=\"2\" value=\"めいもん\"}}名門、エリート」"
  },
  {
    "label": "goa07",
    "text": "\n「{{ruby charSpan=\"2\" value=\"ぶんがく\"}}文学とは　おぼれること」"
  },
  {
    "label": "goa08",
    "text": "\n「わざわいを{{ruby charSpan=\"1\" value=\"てん\"}}転じて　{{ruby charSpan=\"1\" value=\"ふく\"}}福となす」"
  },
  {
    "label": "gor00",
    "text": "\n「{{ruby charSpan=\"1\" value=\"ひと\"}}人にはヒゲがあり　{{ruby charSpan=\"1\" value=\"き\"}}木には{{ruby charSpan=\"1\" value=\"ね\"}}根がある」"
  },
  {
    "label": "gor01",
    "text": "\n「{{ruby charSpan=\"2\" value=\"つきよ\"}}月夜のカニ」"
  },
  {
    "label": "gor02",
    "text": "\n「{{ruby charSpan=\"2\" value=\"かんじ\"}}漢字ドリルと　{{ruby charSpan=\"2\" value=\"けいさん\"}}計算ドリル」"
  },
  {
    "label": "gor03",
    "text": ""
  },
  {
    "label": "gor04",
    "text": "\n「{{ruby charSpan=\"4\" value=\"きんこつりゅうりゅう\"}}筋骨隆々」"
  },
  {
    "label": "gor05",
    "text": "\n「{{ruby charSpan=\"1\" value=\"け\"}}毛を{{ruby charSpan=\"1\" value=\"み\"}}見て{{ruby charSpan=\"1\" value=\"うま\"}}馬を{{ruby charSpan=\"1\" value=\"そう\"}}相す」"
  },
  {
    "label": "gor06",
    "text": ""
  },
  {
    "label": "gor07",
    "text": "\n「ウデの{{ruby charSpan=\"1\" value=\"ふと\"}}太さは　キモの{{ruby charSpan=\"1\" value=\"ふと\"}}太さ」"
  },
  {
    "label": "gor08",
    "text": "\n「{{ruby charSpan=\"4\" value=\"むみむしゅう\"}}無味無臭」"
  },
  {
    "label": "gor09",
    "text": "\n「{{ruby charSpan=\"1\" value=\"げい\"}}芸は{{ruby charSpan=\"1\" value=\"み\"}}身を{{ruby charSpan=\"1\" value=\"たす\"}}助く」"
  },
  {
    "label": "gor10",
    "text": "\n「{{ruby charSpan=\"1\" value=\"なさ\"}}情けは　{{ruby charSpan=\"1\" value=\"ひと\"}}人のためならず」"
  },
  {
    "label": "gor11",
    "text": "\n「{{ruby charSpan=\"1\" value=\"おんな\"}}女の{{ruby charSpan=\"2\" value=\"いちねん\"}}一念　{{ruby charSpan=\"1\" value=\"いわ\"}}岩をも{{ruby charSpan=\"1\" value=\"とお\"}}通す」"
  },
  {
    "label": "grf",
    "text": "\n「ワタシに{{ruby charSpan=\"1\" value=\"だま\"}}騙されなさい」"
  },
  {
    "label": "ham00",
    "text": "\n「{{ruby charSpan=\"1\" value=\"もの\"}}物は{{ruby charSpan=\"2\" value=\"そうだん\"}}相談」"
  },
  {
    "label": "ham01",
    "text": "\n「{{ruby charSpan=\"1\" value=\"しゅ\"}}朱に{{ruby charSpan=\"1\" value=\"まじ\"}}交われば{{ruby charSpan=\"1\" value=\"あか\"}}赤くなる」"
  },
  {
    "label": "ham02",
    "text": "\n「{{ruby charSpan=\"1\" value=\"しょう\"}}生がい{{ruby charSpan=\"2\" value=\"がくしゅう\"}}学習」"
  },
  {
    "label": "ham03",
    "text": "\n「{{ruby charSpan=\"2\" value=\"しゅんみん\"}}春眠　あかつきを{{ruby charSpan=\"1\" value=\"おぼ\"}}覚えず」"
  },
  {
    "label": "ham04",
    "text": "\n「{{ruby charSpan=\"1\" value=\"ゆめ\"}}夢は{{ruby charSpan=\"2\" value=\"さかゆめ\"}}逆夢」"
  },
  {
    "label": "ham05",
    "text": "\n「{{ruby charSpan=\"4\" value=\"こううんりゅうすい\"}}行雲流水」"
  },
  {
    "label": "ham06",
    "text": "\n「{{ruby charSpan=\"1\" value=\"め\"}}目に{{ruby charSpan=\"1\" value=\"い\"}}入れても　{{ruby charSpan=\"1\" value=\"いた\"}}痛くない」"
  },
  {
    "label": "ham07",
    "text": "\n「{{ruby charSpan=\"2\" value=\"じんるい\"}}人類みな{{ruby charSpan=\"2\" value=\"きょうだい\"}}兄弟」"
  },
  {
    "label": "ham08",
    "text": "\n「{{ruby charSpan=\"1\" value=\"あ\"}}開いた{{ruby charSpan=\"1\" value=\"くち\"}}口が　ふさがらない」"
  },
  {
    "label": "hgc",
    "text": "\n「{{ruby charSpan=\"1\" value=\"ぼう\"}}棒ほど{{ruby charSpan=\"1\" value=\"ねが\"}}願って{{ruby charSpan=\"1\" value=\"はり\"}}針ほど{{ruby charSpan=\"1\" value=\"かな\"}}叶う」"
  },
  {
    "label": "hgh",
    "text": "\n「{{ruby charSpan=\"2\" value=\"きょう\"}}今日の{{ruby charSpan=\"1\" value=\"ひと\"}}一{{ruby charSpan=\"1\" value=\"はり\"}}針、{{ruby charSpan=\"2\" value=\"あす\"}}明日の{{ruby charSpan=\"2\" value=\"とはり\"}}十針」"
  },
  {
    "label": "hgs",
    "text": "\n「{{ruby charSpan=\"1\" value=\"はたら\"}}働けば{{ruby charSpan=\"1\" value=\"こお\"}}凍るひまなき{{ruby charSpan=\"2\" value=\"みずぐるま\"}}水車」"
  },
  {
    "label": "hip00",
    "text": "「10{{ruby charSpan=\"1\" value=\"ぴき\"}}匹のカバは\nひとつの{{ruby charSpan=\"1\" value=\"あな\"}}穴に{{ruby charSpan=\"1\" value=\"はい\"}}入れない」"
  },
  {
    "label": "hip01",
    "text": ""
  },
  {
    "label": "hip02",
    "text": "\n「{{ruby charSpan=\"1\" value=\"くち\"}}口と{{ruby charSpan=\"2\" value=\"さいふ\"}}財布は　しめるが{{ruby charSpan=\"1\" value=\"とく\"}}得」"
  },
  {
    "label": "hip03",
    "text": "\n「{{ruby charSpan=\"1\" value=\"はな\"}}花より{{ruby charSpan=\"2\" value=\"だんご\"}}団子」"
  },
  {
    "label": "hip04",
    "text": "\n「{{ruby charSpan=\"1\" value=\"あ\"}}開いた{{ruby charSpan=\"1\" value=\"くち\"}}口に　ぼたもち」"
  },
  {
    "label": "hip05",
    "text": "\n「{{ruby charSpan=\"2\" value=\"ひつよう\"}}必要は{{ruby charSpan=\"1\" value=\"よ\"}}良い{{ruby charSpan=\"2\" value=\"ちゅうこく\"}}忠告である」"
  },
  {
    "label": "hip06",
    "text": ""
  },
  {
    "label": "hip07",
    "text": ""
  },
  {
    "label": "hip08",
    "text": "\n「{{ruby charSpan=\"1\" value=\"え\"}}絵に{{ruby charSpan=\"1\" value=\"か\"}}描いたモチ」"
  },
  {
    "label": "hip09",
    "text": "\n「{{ruby charSpan=\"4\" value=\"こくしむそう\"}}国士無双」"
  },
  {
    "label": "hrs00",
    "text": "\n「{{ruby charSpan=\"1\" value=\"よわ\"}}弱り{{ruby charSpan=\"1\" value=\"め\"}}目に　たたり{{ruby charSpan=\"1\" value=\"め\"}}目」"
  },
  {
    "label": "hrs01",
    "text": "\n「{{ruby charSpan=\"2\" value=\"こぶね\"}}小船の　よいごしらえ」"
  },
  {
    "label": "hrs02",
    "text": "\n「サバンナで　{{ruby charSpan=\"2\" value=\"ひるめし\"}}昼飯を{{ruby charSpan=\"1\" value=\"た\"}}食べる」"
  },
  {
    "label": "hrs03",
    "text": "\n「{{ruby charSpan=\"1\" value=\"うま\"}}馬も{{ruby charSpan=\"1\" value=\"か\"}}買わずに　クラ{{ruby charSpan=\"1\" value=\"か\"}}買う」"
  },
  {
    "label": "hrs04",
    "text": "\n「{{ruby charSpan=\"1\" value=\"め\"}}目は{{ruby charSpan=\"1\" value=\"こころ\"}}心の{{ruby charSpan=\"1\" value=\"かがみ\"}}鏡」"
  },
  {
    "label": "hrs05",
    "text": "\n「{{ruby charSpan=\"1\" value=\"うま\"}}馬のように　{{ruby charSpan=\"4\" value=\"いっしょけんめい\"}}一所懸命に{{ruby charSpan=\"1\" value=\"はたら\"}}働く」"
  },
  {
    "label": "hrs06",
    "text": "\n「{{ruby charSpan=\"1\" value=\"うつく\"}}美しさを{{ruby charSpan=\"1\" value=\"え\"}}得たければ{{ruby charSpan=\"1\" value=\"きず\"}}傷を{{ruby charSpan=\"1\" value=\"う\"}}受けよ」"
  },
  {
    "label": "hrs07",
    "text": "\n「{{ruby charSpan=\"2\" value=\"ふろ\"}}風呂ではみんな{{ruby charSpan=\"1\" value=\"す\"}}素っ{{ruby charSpan=\"1\" value=\"ぱだか\"}}裸」"
  },
  {
    "label": "hrs08",
    "text": "\n「{{ruby charSpan=\"5\" value=\"かんれいちしよう\"}}寒冷地仕様」"
  },
  {
    "label": "hrs09",
    "text": "\n「{{ruby charSpan=\"1\" value=\"うま\"}}馬の{{ruby charSpan=\"1\" value=\"みみ\"}}耳に{{ruby charSpan=\"2\" value=\"ねんぶつ\"}}念仏」"
  },
  {
    "label": "hrs10",
    "text": "\n「{{ruby charSpan=\"4\" value=\"ばじとうふう\"}}馬耳東風」"
  },
  {
    "label": "hrs11",
    "text": "\n「{{ruby charSpan=\"2\" value=\"ぎょうかい\"}}業界のサラブレッド」"
  },
  {
    "label": "hrs12",
    "text": "\n「{{ruby charSpan=\"1\" value=\"てん\"}}天{{ruby charSpan=\"1\" value=\"たか\"}}高く　{{ruby charSpan=\"1\" value=\"うま\"}}馬{{ruby charSpan=\"1\" value=\"こ\"}}肥ゆる」"
  },
  {
    "label": "hrs13",
    "text": "\n「{{ruby charSpan=\"2\" value=\"てんま\"}}天馬　{{ruby charSpan=\"1\" value=\"くう\"}}空を{{ruby charSpan=\"1\" value=\"ゆ\"}}行く」"
  },
  {
    "label": "hrs14",
    "text": "\n「{{ruby charSpan=\"4\" value=\"いっきとうせん\"}}一騎当千」"
  },
  {
    "label": "hrs15",
    "text": "\n「{{ruby charSpan=\"1\" value=\"け\"}}蹴る{{ruby charSpan=\"1\" value=\"うま\"}}馬も{{ruby charSpan=\"1\" value=\"の\"}}乗り{{ruby charSpan=\"1\" value=\"て\"}}手しだい」"
  },
  {
    "label": "kal00",
    "text": "\n「{{ruby charSpan=\"1\" value=\"く\"}}食わずぎらい」"
  },
  {
    "label": "kal01",
    "text": "\n「{{ruby charSpan=\"5\" value=\"じいしきかじょう\"}}自意識過剰」"
  },
  {
    "label": "kal02",
    "text": "\n「{{ruby charSpan=\"3\" value=\"きせつはず\"}}季節外れの　サンタクロース」"
  },
  {
    "label": "kal03",
    "text": "\n「{{ruby charSpan=\"2\" value=\"あさや\"}}朝焼けは{{ruby charSpan=\"1\" value=\"あめ\"}}雨、{{ruby charSpan=\"2\" value=\"ゆうや\"}}夕焼けは{{ruby charSpan=\"1\" value=\"は\"}}晴れ」"
  },
  {
    "label": "kal04",
    "text": "\n「{{ruby charSpan=\"2\" value=\"きょうだい\"}}兄弟は{{ruby charSpan=\"2\" value=\"きょうだい\"}}兄弟、チーズはチーズ」"
  },
  {
    "label": "kal05",
    "text": "\n「どんぐりの{{ruby charSpan=\"2\" value=\"せいくら\"}}背比べ」"
  },
  {
    "label": "kal06",
    "text": ""
  },
  {
    "label": "kal07",
    "text": ""
  },
  {
    "label": "kal08",
    "text": "\n「グレートバリアリーフ」"
  },
  {
    "label": "kal09",
    "text": "\n「ユーカリエキス{{ruby charSpan=\"2\" value=\"はいごう\"}}配合」"
  },
  {
    "label": "kal10",
    "text": "\n「{{ruby charSpan=\"1\" value=\"め\"}}目は{{ruby charSpan=\"1\" value=\"くち\"}}口ほどに{{ruby charSpan=\"1\" value=\"もの\"}}物を{{ruby charSpan=\"1\" value=\"い\"}}言う」"
  },
  {
    "label": "kgr00",
    "text": "\n「{{ruby charSpan=\"1\" value=\"おや\"}}親バカ　{{ruby charSpan=\"1\" value=\"こ\"}}子バカ」"
  },
  {
    "label": "kgr01",
    "text": "\n「{{ruby charSpan=\"1\" value=\"ち\"}}血のよるものは　{{ruby charSpan=\"2\" value=\"おやこ\"}}親子」"
  },
  {
    "label": "kgr02",
    "text": "\n「{{ruby charSpan=\"1\" value=\"はは\"}}母の{{ruby charSpan=\"1\" value=\"おも\"}}思いは{{ruby charSpan=\"1\" value=\"こ\"}}子、{{ruby charSpan=\"1\" value=\"こ\"}}子の{{ruby charSpan=\"1\" value=\"おも\"}}思いは{{ruby charSpan=\"1\" value=\"あそ\"}}遊び」"
  },
  {
    "label": "kgr03",
    "text": ""
  },
  {
    "label": "kgr04",
    "text": ""
  },
  {
    "label": "kgr05",
    "text": "\n「{{ruby charSpan=\"1\" value=\"おや\"}}親に{{ruby charSpan=\"1\" value=\"に\"}}似ぬ{{ruby charSpan=\"1\" value=\"こ\"}}子は{{ruby charSpan=\"2\" value=\"おにご\"}}鬼子」"
  },
  {
    "label": "kgr06",
    "text": "\n「{{ruby charSpan=\"1\" value=\"おや\"}}親が{{ruby charSpan=\"1\" value=\"おや\"}}親なら　{{ruby charSpan=\"1\" value=\"こ\"}}子も{{ruby charSpan=\"1\" value=\"こ\"}}子」"
  },
  {
    "label": "kgr07",
    "text": ""
  },
  {
    "label": "kgr08",
    "text": "\n「{{ruby charSpan=\"1\" value=\"く\"}}苦あれば{{ruby charSpan=\"1\" value=\"らく\"}}楽あり」"
  },
  {
    "label": "kgr09",
    "text": "\n「{{ruby charSpan=\"4\" value=\"むさべつきゅう\"}}無差別級」"
  },
  {
    "label": "kgr10",
    "text": "\n「あうんの{{ruby charSpan=\"2\" value=\"こきゅう\"}}呼吸」"
  },
  {
    "label": "kpg",
    "text": "\n「{{ruby charSpan=\"2\" value=\"みずきよ\"}}水清ければ　{{ruby charSpan=\"1\" value=\"うお\"}}魚すまず」"
  },
  {
    "label": "kpm",
    "text": "\n「{{ruby charSpan=\"1\" value=\"つま\"}}妻の{{ruby charSpan=\"1\" value=\"い\"}}言うに　{{ruby charSpan=\"1\" value=\"む\"}}向こう{{ruby charSpan=\"1\" value=\"やま\"}}山も{{ruby charSpan=\"1\" value=\"うご\"}}動く」"
  },
  {
    "label": "kpp",
    "text": "\n「{{ruby charSpan=\"2\" value=\"かっぱ\"}}河童の{{ruby charSpan=\"1\" value=\"へ\"}}屁」"
  },
  {
    "label": "kps",
    "text": "\n「ウリのつるに　ナスビはならぬ」"
  },
  {
    "label": "lom",
    "text": "\n「{{ruby charSpan=\"1\" value=\"たび\"}}旅は{{ruby charSpan=\"1\" value=\"みち\"}}道{{ruby charSpan=\"1\" value=\"づ\"}}連れ{{ruby charSpan=\"1\" value=\"よ\"}}世は{{ruby charSpan=\"1\" value=\"なさ\"}}情け」"
  },
  {
    "label": "lon00",
    "text": "\n「{{ruby charSpan=\"2\" value=\"あした\"}}明日は{{ruby charSpan=\"2\" value=\"あした\"}}明日の{{ruby charSpan=\"1\" value=\"かぜ\"}}風が{{ruby charSpan=\"1\" value=\"ふ\"}}吹く」"
  },
  {
    "label": "lon01",
    "text": "\n「{{ruby charSpan=\"2\" value=\"ひゃくじゅう\"}}百獣の{{ruby charSpan=\"1\" value=\"おう\"}}王」"
  },
  {
    "label": "lon02",
    "text": "\n「ビューティフルサンデー」"
  },
  {
    "label": "lon03",
    "text": ""
  },
  {
    "label": "lon04",
    "text": "\n「{{ruby charSpan=\"1\" value=\"ほん\"}}本が{{ruby charSpan=\"1\" value=\"きら\"}}嫌いな{{ruby charSpan=\"2\" value=\"せいと\"}}生徒には{{ruby charSpan=\"1\" value=\"て\"}}手で{{ruby charSpan=\"1\" value=\"おし\"}}教えろ」"
  },
  {
    "label": "lon05",
    "text": ""
  },
  {
    "label": "lon06",
    "text": "\n「{{ruby charSpan=\"2\" value=\"はちく\"}}破竹のいきおい」"
  },
  {
    "label": "lon07",
    "text": "\n「なんくるないさ」"
  },
  {
    "label": "lon08",
    "text": "\n「{{ruby charSpan=\"2\" value=\"えいゆう\"}}英雄　{{ruby charSpan=\"1\" value=\"いろ\"}}色を{{ruby charSpan=\"1\" value=\"この\"}}好む」"
  },
  {
    "label": "lrn",
    "text": "\n「{{ruby charSpan=\"2\" value=\"しょうばい\"}}商売に{{ruby charSpan=\"1\" value=\"あらそ\"}}争いなし」"
  },
  {
    "label": "LRN",
    "text": "\n「{{ruby charSpan=\"1\" value=\"し\"}}師は{{ruby charSpan=\"1\" value=\"はり\"}}針の{{ruby charSpan=\"1\" value=\"ごと\"}}如く、{{ruby charSpan=\"2\" value=\"でし\"}}弟子は{{ruby charSpan=\"1\" value=\"いと\"}}糸の{{ruby charSpan=\"1\" value=\"ごと\"}}如し」"
  },
  {
    "label": "mka",
    "text": "\n「{{ruby charSpan=\"1\" value=\"かお\"}}顔が{{ruby charSpan=\"2\" value=\"ものがた\"}}物語る」"
  },
  {
    "label": "mnk",
    "text": "\n「{{ruby charSpan=\"1\" value=\"さ\"}}去る{{ruby charSpan=\"1\" value=\"もの\"}}者は{{ruby charSpan=\"1\" value=\"お\"}}追わず」"
  },
  {
    "label": "mnk00",
    "text": ""
  },
  {
    "label": "mnk01",
    "text": "\n「{{ruby charSpan=\"1\" value=\"はな\"}}花より　バナナ」"
  },
  {
    "label": "mnk02",
    "text": "\n「{{ruby charSpan=\"1\" value=\"そん\"}}損して{{ruby charSpan=\"1\" value=\"はじ\"}}恥かく」"
  },
  {
    "label": "mnk03",
    "text": "\n「ドンびき　ダダもれ」"
  },
  {
    "label": "mnk04",
    "text": "\n「イケメン{{ruby charSpan=\"2\" value=\"はいゆう\"}}俳優の　サルしばい」"
  },
  {
    "label": "mnk05",
    "text": "\n「{{ruby charSpan=\"1\" value=\"く\"}}来る{{ruby charSpan=\"1\" value=\"もの\"}}者は{{ruby charSpan=\"1\" value=\"こば\"}}拒まず、サル{{ruby charSpan=\"1\" value=\"もの\"}}者は{{ruby charSpan=\"1\" value=\"お\"}}追う」"
  },
  {
    "label": "mnk06",
    "text": "\n「{{ruby charSpan=\"1\" value=\"み\"}}見ざる・{{ruby charSpan=\"1\" value=\"い\"}}言わざる・{{ruby charSpan=\"1\" value=\"き\"}}聞かざる」"
  },
  {
    "label": "mnk07",
    "text": "\n「{{ruby charSpan=\"1\" value=\"はじ\"}}始め{{ruby charSpan=\"1\" value=\"よ\"}}良ければ{{ruby charSpan=\"1\" value=\"お\"}}終わり{{ruby charSpan=\"1\" value=\"よ\"}}良し」"
  },
  {
    "label": "mnk08",
    "text": "\n「{{ruby charSpan=\"4\" value=\"てきざいてきしょ\"}}適材適所」"
  },
  {
    "label": "mob",
    "text": "\n「モグラの{{ruby charSpan=\"1\" value=\"あたま\"}}頭にジャスミン{{ruby charSpan=\"1\" value=\"ゆ\"}}油」"
  },
  {
    "label": "mol",
    "text": "\n「{{ruby charSpan=\"2\" value=\"じしん\"}}地震、カミナリ、{{ruby charSpan=\"2\" value=\"かじ\"}}火事、おやじ」"
  },
  {
    "label": "mus00",
    "text": "「{{ruby charSpan=\"1\" value=\"な\"}}無い{{ruby charSpan=\"1\" value=\"とき\"}}時の　しんぼう\nある{{ruby charSpan=\"1\" value=\"とき\"}}時の　けんやく」"
  },
  {
    "label": "mus01",
    "text": "\n「ならぬかんにん、するがかんにん」"
  },
  {
    "label": "mus02",
    "text": "\n「{{ruby charSpan=\"2\" value=\"たいせい\"}}大声は　{{ruby charSpan=\"2\" value=\"りじ\"}}里耳に{{ruby charSpan=\"1\" value=\"い\"}}入らず」"
  },
  {
    "label": "mus03",
    "text": "\n「{{ruby charSpan=\"2\" value=\"やまし\"}}山師の{{ruby charSpan=\"2\" value=\"げんかん\"}}玄関」"
  },
  {
    "label": "mus04",
    "text": "\n「{{ruby charSpan=\"1\" value=\"め\"}}目で{{ruby charSpan=\"1\" value=\"め\"}}目は{{ruby charSpan=\"1\" value=\"み\"}}見えぬ」"
  },
  {
    "label": "mus05",
    "text": "\n「{{ruby charSpan=\"2\" value=\"ろうちょう\"}}籠鳥　{{ruby charSpan=\"1\" value=\"くも\"}}雲を{{ruby charSpan=\"1\" value=\"こ\"}}恋う」"
  },
  {
    "label": "mus06",
    "text": ""
  },
  {
    "label": "mus07",
    "text": ""
  },
  {
    "label": "mus08",
    "text": "\n「{{ruby charSpan=\"3\" value=\"えんそうしゃ\"}}演奏者が{{ruby charSpan=\"1\" value=\"か\"}}変われど{{ruby charSpan=\"2\" value=\"おんがく\"}}音楽は{{ruby charSpan=\"1\" value=\"か\"}}変わらず」"
  },
  {
    "label": "mus09",
    "text": "\n「{{ruby charSpan=\"1\" value=\"いえ\"}}家にネズミ、{{ruby charSpan=\"1\" value=\"くに\"}}国に{{ruby charSpan=\"2\" value=\"ぬすっと\"}}盗人」"
  },
  {
    "label": "mus10",
    "text": "\n「カベにネズミあり、ネズミに{{ruby charSpan=\"1\" value=\"みみ\"}}耳あり」"
  },
  {
    "label": "mus11",
    "text": ""
  },
  {
    "label": "mus12",
    "text": "\n「{{ruby charSpan=\"2\" value=\"いちげい\"}}一芸は{{ruby charSpan=\"1\" value=\"みち\"}}道に{{ruby charSpan=\"1\" value=\"つう\"}}通ずる」"
  },
  {
    "label": "mus13",
    "text": ""
  },
  {
    "label": "mus14",
    "text": "\n「きゅうそ　ネコをかむ」"
  },
  {
    "label": "mus15",
    "text": "\n「{{ruby charSpan=\"1\" value=\"おも\"}}思い{{ruby charSpan=\"1\" value=\"た\"}}立ったが{{ruby charSpan=\"2\" value=\"きちじつ\"}}吉日」"
  },
  {
    "label": "mus16",
    "text": "\n「{{ruby charSpan=\"1\" value=\"わら\"}}笑う{{ruby charSpan=\"1\" value=\"かど\"}}門には　{{ruby charSpan=\"2\" value=\"ふくき\"}}福来たる」"
  },
  {
    "label": "mus17",
    "text": "\n「ほれて{{ruby charSpan=\"1\" value=\"かよ\"}}通えば　{{ruby charSpan=\"2\" value=\"せんり\"}}千里も{{ruby charSpan=\"2\" value=\"いちり\"}}一里」"
  },
  {
    "label": "mus18",
    "text": "\n「{{ruby charSpan=\"1\" value=\"あ\"}}会うは{{ruby charSpan=\"1\" value=\"わか\"}}別れの{{ruby charSpan=\"1\" value=\"はじ\"}}始め」"
  },
  {
    "label": "oct00",
    "text": "\n「{{ruby charSpan=\"1\" value=\"つき\"}}月のウラ{{ruby charSpan=\"1\" value=\"がわ\"}}側は　ヒミツなのです」"
  },
  {
    "label": "oct01",
    "text": "\n「{{ruby charSpan=\"1\" value=\"じゅう\"}}柔よく{{ruby charSpan=\"1\" value=\"ごう\"}}剛を{{ruby charSpan=\"1\" value=\"せい\"}}制す」"
  },
  {
    "label": "oct02",
    "text": "\n「1{{ruby charSpan=\"1\" value=\"こ\"}}個オマケ」"
  },
  {
    "label": "oct03",
    "text": "\n「イカにもタコにも　スルメにも」"
  },
  {
    "label": "ost00",
    "text": "\n「{{ruby charSpan=\"1\" value=\"しろ\"}}白を{{ruby charSpan=\"1\" value=\"くろ\"}}黒というのが　{{ruby charSpan=\"1\" value=\"ひと\"}}人の{{ruby charSpan=\"1\" value=\"つね\"}}常」"
  },
  {
    "label": "ost01",
    "text": "\n「{{ruby charSpan=\"1\" value=\"ある\"}}歩く{{ruby charSpan=\"1\" value=\"すがた\"}}姿は　{{ruby charSpan=\"2\" value=\"ゆり\"}}百合の{{ruby charSpan=\"1\" value=\"はな\"}}花」"
  },
  {
    "label": "ost02",
    "text": "\n「{{ruby charSpan=\"1\" value=\"と\"}}飛べない{{ruby charSpan=\"1\" value=\"とり\"}}鳥でも{{ruby charSpan=\"2\" value=\"はね\"}}羽根はある」"
  },
  {
    "label": "ost03",
    "text": "\n「{{ruby charSpan=\"1\" value=\"てつ\"}}鉄は{{ruby charSpan=\"1\" value=\"あつ\"}}熱いうちに{{ruby charSpan=\"1\" value=\"う\"}}打て」"
  },
  {
    "label": "ost04",
    "text": ""
  },
  {
    "label": "ost05",
    "text": "\n「{{ruby charSpan=\"1\" value=\"ねん\"}}念には{{ruby charSpan=\"1\" value=\"ねん\"}}念を{{ruby charSpan=\"1\" value=\"い\"}}入れよ」"
  },
  {
    "label": "ost06",
    "text": "\n「{{ruby charSpan=\"4\" value=\"しそんはんえい\"}}子孫繁栄」"
  },
  {
    "label": "ost07",
    "text": "\n「キジも{{ruby charSpan=\"1\" value=\"な\"}}鳴かずば　{{ruby charSpan=\"1\" value=\"う\"}}撃たれまい」"
  },
  {
    "label": "ost08",
    "text": "\n「カメの{{ruby charSpan=\"1\" value=\"こう\"}}功より　トリの{{ruby charSpan=\"1\" value=\"こう\"}}功」"
  },
  {
    "label": "ost09",
    "text": "\n「{{ruby charSpan=\"4\" value=\"とうだいもとくら\"}}灯台下暗し」"
  },
  {
    "label": "ost10",
    "text": "\n「{{ruby charSpan=\"4\" value=\"ふろうふし\"}}不老不死」"
  },
  {
    "label": "otg",
    "text": "\n「{{ruby charSpan=\"9\" value=\"たくちたてものとりひきしゅにんしゃ\"}}宅地建物取引主任者」"
  },
  {
    "label": "ott",
    "text": "\n「{{ruby charSpan=\"2\" value=\"かふく\"}}禍福　{{ruby charSpan=\"1\" value=\"おのれ\"}}己による」"
  },
  {
    "label": "owl",
    "text": "\n「{{ruby charSpan=\"2\" value=\"ちえ\"}}知恵は{{ruby charSpan=\"2\" value=\"こだ\"}}小出しにせよ」"
  },
  {
    "label": "ows",
    "text": "\n「{{ruby charSpan=\"1\" value=\"ふゆ\"}}冬の{{ruby charSpan=\"3\" value=\"だいさんかく\"}}大三角」"
  },
  {
    "label": "pbr00",
    "text": "\n「{{ruby charSpan=\"1\" value=\"のう\"}}能あるタカは　{{ruby charSpan=\"1\" value=\"つめ\"}}爪を{{ruby charSpan=\"1\" value=\"かく\"}}隠す」"
  },
  {
    "label": "pbr01",
    "text": "\n「{{ruby charSpan=\"1\" value=\"おな\"}}同じ{{ruby charSpan=\"2\" value=\"はいろ\"}}羽色の　{{ruby charSpan=\"1\" value=\"とり\"}}鳥は{{ruby charSpan=\"1\" value=\"あつ\"}}集まる」"
  },
  {
    "label": "pbr02",
    "text": "\n「トンビがタカを{{ruby charSpan=\"1\" value=\"う\"}}産む」"
  },
  {
    "label": "pbr03",
    "text": "\n「{{ruby charSpan=\"2\" value=\"じまん\"}}自慢は{{ruby charSpan=\"2\" value=\"ちえ\"}}知恵の{{ruby charSpan=\"1\" value=\"い\"}}行き{{ruby charSpan=\"1\" value=\"ど\"}}止まり」"
  },
  {
    "label": "pbr04",
    "text": ""
  },
  {
    "label": "pbr05",
    "text": "\n「るりも　はりも　てらせば{{ruby charSpan=\"1\" value=\"ひか\"}}光る」"
  },
  {
    "label": "pbr06",
    "text": "\n「{{ruby charSpan=\"1\" value=\"い\"}}言わぬことは{{ruby charSpan=\"1\" value=\"き\"}}聞こえぬ」"
  },
  {
    "label": "pbr07",
    "text": "「えんじゃく　{{ruby charSpan=\"1\" value=\"いずく\"}}安んぞ\nこうこくの　{{ruby charSpan=\"1\" value=\"こころざし\"}}志を{{ruby charSpan=\"1\" value=\"し\"}}知らん」"
  },
  {
    "label": "pbr08",
    "text": "\n「{{ruby charSpan=\"1\" value=\"とり\"}}鳥なき{{ruby charSpan=\"1\" value=\"さと\"}}里の　こうもり」"
  },
  {
    "label": "pbr09",
    "text": "\n「ああ{{ruby charSpan=\"1\" value=\"い\"}}言えば　こう{{ruby charSpan=\"1\" value=\"い\"}}言う」"
  },
  {
    "label": "pck",
    "text": "\n「{{ruby charSpan=\"1\" value=\"おど\"}}踊る{{ruby charSpan=\"2\" value=\"あほう\"}}阿呆に　{{ruby charSpan=\"1\" value=\"み\"}}見る{{ruby charSpan=\"2\" value=\"あほう\"}}阿呆」"
  },
  {
    "label": "pga",
    "text": "\n「{{ruby charSpan=\"2\" value=\"とうじつ\"}}当日の{{ruby charSpan=\"2\" value=\"けしいん\"}}消印は{{ruby charSpan=\"2\" value=\"ゆうこう\"}}有効」"
  },
  {
    "label": "pgb",
    "text": "\n「{{ruby charSpan=\"2\" value=\"じぶん\"}}自分のものは{{ruby charSpan=\"1\" value=\"うつく\"}}美しい」"
  },
  {
    "label": "pge",
    "text": "\n「{{ruby charSpan=\"4\" value=\"めいきょうしすい\"}}明鏡止水」"
  },
  {
    "label": "pgn00",
    "text": "\n「{{ruby charSpan=\"1\" value=\"わた\"}}渡る{{ruby charSpan=\"2\" value=\"せけん\"}}世間に　{{ruby charSpan=\"1\" value=\"おに\"}}鬼はない」"
  },
  {
    "label": "pgn01",
    "text": "\n「{{ruby charSpan=\"4\" value=\"がでんいんすい\"}}我田引水」"
  },
  {
    "label": "pgn02",
    "text": "\n「ネジが　ゆるむ」"
  },
  {
    "label": "pgn03",
    "text": "\n「{{ruby charSpan=\"2\" value=\"ななころ\"}}七転び　{{ruby charSpan=\"2\" value=\"やお\"}}八起き」"
  },
  {
    "label": "pgn04",
    "text": "\n「{{ruby charSpan=\"2\" value=\"いちや\"}}一夜の{{ruby charSpan=\"1\" value=\"こおり\"}}氷の　{{ruby charSpan=\"1\" value=\"うえ\"}}上を{{ruby charSpan=\"1\" value=\"ある\"}}歩くな」"
  },
  {
    "label": "pgn05",
    "text": "\n「{{ruby charSpan=\"2\" value=\"さいしょ\"}}最初にすべらないものは　{{ruby charSpan=\"1\" value=\"あと\"}}後にすべる」"
  },
  {
    "label": "pgn06",
    "text": "\n「{{ruby charSpan=\"2\" value=\"ばか\"}}馬鹿があればこそ　{{ruby charSpan=\"2\" value=\"りこう\"}}利口が{{ruby charSpan=\"1\" value=\"ひ\"}}引き{{ruby charSpan=\"1\" value=\"た\"}}立つ」"
  },
  {
    "label": "pgn07",
    "text": ""
  },
  {
    "label": "pgn08",
    "text": ""
  },
  {
    "label": "pgn09",
    "text": "\n「{{ruby charSpan=\"1\" value=\"たまご\"}}卵が{{ruby charSpan=\"1\" value=\"さき\"}}先か　ニワトリが{{ruby charSpan=\"1\" value=\"さき\"}}先か」"
  },
  {
    "label": "pgn10",
    "text": "\n「{{ruby charSpan=\"4\" value=\"ごえつどうしゅう\"}}呉越同舟」"
  },
  {
    "label": "pgn11",
    "text": "\n「{{ruby charSpan=\"5\" value=\"ごじゅっぽひゃっぽ\"}}五十歩百歩」"
  },
  {
    "label": "pgn12",
    "text": "\n「クールビズ」"
  },
  {
    "label": "pgn13",
    "text": "\n「ポーカーフェイス」"
  },
  {
    "label": "pgn14",
    "text": "\n「{{ruby charSpan=\"1\" value=\"ゆき\"}}雪は{{ruby charSpan=\"2\" value=\"ほうねん\"}}豊年のしるし」"
  },
  {
    "label": "pig00",
    "text": "\n「となりのモチも　{{ruby charSpan=\"1\" value=\"く\"}}食ってみよ」"
  },
  {
    "label": "pig01",
    "text": "\n「ブタはニンジンを{{ruby charSpan=\"1\" value=\"し\"}}知っている」"
  },
  {
    "label": "pig02",
    "text": "\n「この{{ruby charSpan=\"1\" value=\"おや\"}}親にして　この{{ruby charSpan=\"1\" value=\"こ\"}}子あり」"
  },
  {
    "label": "pig03",
    "text": "\n「{{ruby charSpan=\"1\" value=\"ねむ\"}}眠りは{{ruby charSpan=\"1\" value=\"あま\"}}甘く　{{ruby charSpan=\"2\" value=\"しごと\"}}仕事は{{ruby charSpan=\"1\" value=\"にが\"}}苦い」"
  },
  {
    "label": "pig04",
    "text": "\n「{{ruby charSpan=\"1\" value=\"み\"}}見つめるナベは　{{ruby charSpan=\"1\" value=\"に\"}}煮{{ruby charSpan=\"1\" value=\"た\"}}立たない」"
  },
  {
    "label": "pig05",
    "text": "\n「{{ruby charSpan=\"1\" value=\"まな\"}}学ぶのに{{ruby charSpan=\"1\" value=\"おそ\"}}遅いということはなし」"
  },
  {
    "label": "pig06",
    "text": ""
  },
  {
    "label": "pig07",
    "text": ""
  },
  {
    "label": "pig08",
    "text": "\n「{{ruby charSpan=\"2\" value=\"がくしゃ\"}}学者には{{ruby charSpan=\"1\" value=\"と\"}}説きやすい」"
  },
  {
    "label": "pig09",
    "text": "\n「{{ruby charSpan=\"2\" value=\"じんせい\"}}人生　{{ruby charSpan=\"1\" value=\"ゆめ\"}}夢のごとし」"
  },
  {
    "label": "pig10",
    "text": "\n「やはり{{ruby charSpan=\"1\" value=\"の\"}}野に{{ruby charSpan=\"1\" value=\"お\"}}置け　{{ruby charSpan=\"3\" value=\"れんげそう\"}}蓮華草」"
  },
  {
    "label": "pig11",
    "text": "\n「{{ruby charSpan=\"1\" value=\"たま\"}}玉みがかざれば　{{ruby charSpan=\"1\" value=\"ひかり\"}}光なし」"
  },
  {
    "label": "pig12",
    "text": ""
  },
  {
    "label": "pig13",
    "text": "\n「ネコに{{ruby charSpan=\"2\" value=\"こばん\"}}小判」"
  },
  {
    "label": "pig14",
    "text": "\n「{{ruby charSpan=\"1\" value=\"か\"}}勝って　かぶとの{{ruby charSpan=\"1\" value=\"お\"}}緒をしめよ」"
  },
  {
    "label": "pig15",
    "text": "\n「{{ruby charSpan=\"4\" value=\"じきゅうじそく\"}}自給自足」"
  },
  {
    "label": "pig16",
    "text": "\n「{{ruby charSpan=\"1\" value=\"か\"}}書いた{{ruby charSpan=\"1\" value=\"もの\"}}物が{{ruby charSpan=\"1\" value=\"もの\"}}物を{{ruby charSpan=\"1\" value=\"い\"}}言う」"
  },
  {
    "label": "pig17",
    "text": "\n「{{ruby charSpan=\"2\" value=\"こくびゃく\"}}黒白を{{ruby charSpan=\"1\" value=\"べん\"}}弁ぜず」"
  },
  {
    "label": "pig18",
    "text": "\n「{{ruby charSpan=\"4\" value=\"ほうしちょうだ\"}}封豕長蛇」"
  },
  {
    "label": "pkn",
    "text": "\n「トリック・オア・トリート」"
  },
  {
    "label": "pla",
    "text": "\n「{{ruby charSpan=\"1\" value=\"お\"}}落とし{{ruby charSpan=\"1\" value=\"もの\"}}物は{{ruby charSpan=\"2\" value=\"こうばん\"}}交番へ」"
  },
  {
    "label": "plb",
    "text": "\n「{{ruby charSpan=\"1\" value=\"あ\"}}会えないときは{{ruby charSpan=\"2\" value=\"てがみ\"}}手紙で{{ruby charSpan=\"1\" value=\"はな\"}}話そう」"
  },
  {
    "label": "plc",
    "text": "\n「{{ruby charSpan=\"4\" value=\"きんげんじっちょく\"}}謹厳実直」"
  },
  {
    "label": "poo",
    "text": "\n「{{ruby charSpan=\"2\" value=\"まご\"}}馬子にも{{ruby charSpan=\"2\" value=\"いしょう\"}}衣装」"
  },
  {
    "label": "pyn",
    "text": "\n「なまむぎなまごめなまたまご」"
  },
  {
    "label": "rbt00",
    "text": "\n「かわいい{{ruby charSpan=\"1\" value=\"こ\"}}子には　{{ruby charSpan=\"1\" value=\"たび\"}}旅をさせよ」"
  },
  {
    "label": "rbt01",
    "text": "\n「{{ruby charSpan=\"1\" value=\"した\"}}親しき{{ruby charSpan=\"1\" value=\"なか\"}}仲にも　{{ruby charSpan=\"2\" value=\"れいぎ\"}}礼儀あり」"
  },
  {
    "label": "rbt02",
    "text": "\n「{{ruby charSpan=\"5\" value=\"ぜんぽうこうえんふん\"}}前方後円墳」"
  },
  {
    "label": "rbt03",
    "text": "\n「{{ruby charSpan=\"1\" value=\"しの\"}}忍びざるの{{ruby charSpan=\"1\" value=\"こころ\"}}心」"
  },
  {
    "label": "rbt04",
    "text": "\n「{{ruby charSpan=\"1\" value=\"た\"}}食べたモノは　ヒゲからたれる」"
  },
  {
    "label": "rbt05",
    "text": "\n「{{ruby charSpan=\"2\" value=\"げいじゅつ\"}}芸術は　{{ruby charSpan=\"1\" value=\"きん\"}}金のうでわ」"
  },
  {
    "label": "rbt06",
    "text": "\n「この{{ruby charSpan=\"1\" value=\"よ\"}}世は{{ruby charSpan=\"2\" value=\"ふろ\"}}風呂{{ruby charSpan=\"1\" value=\"ば\"}}場」"
  },
  {
    "label": "rbt07",
    "text": "\n「{{ruby charSpan=\"2\" value=\"きめん\"}}鬼面の{{ruby charSpan=\"1\" value=\"ほとけ\"}}仏」"
  },
  {
    "label": "rbt08",
    "text": "\n「{{ruby charSpan=\"1\" value=\"はる\"}}春なれや　{{ruby charSpan=\"1\" value=\"な\"}}名も{{ruby charSpan=\"1\" value=\"な\"}}無き{{ruby charSpan=\"1\" value=\"やま\"}}山の　うすがすみ」"
  },
  {
    "label": "rbt09",
    "text": "\n「{{ruby charSpan=\"2\" value=\"にと\"}}二兎を{{ruby charSpan=\"1\" value=\"お\"}}追う{{ruby charSpan=\"1\" value=\"もの\"}}者　{{ruby charSpan=\"2\" value=\"いっと\"}}一兎をも{{ruby charSpan=\"1\" value=\"え\"}}得ず」"
  },
  {
    "label": "rbt10",
    "text": "\n「お{{ruby charSpan=\"2\" value=\"めがね\"}}眼鏡にかなう」"
  },
  {
    "label": "rbt11",
    "text": "\n「{{ruby charSpan=\"1\" value=\"ひと\"}}人は{{ruby charSpan=\"1\" value=\"み\"}}見かけによらぬもの」"
  },
  {
    "label": "rbt12",
    "text": "\n「{{ruby charSpan=\"1\" value=\"いもうと\"}}妹の{{ruby charSpan=\"1\" value=\"こころ\"}}心、{{ruby charSpan=\"1\" value=\"あね\"}}姉しらず」"
  },
  {
    "label": "rbt13",
    "text": "\n「{{ruby charSpan=\"1\" value=\"あね\"}}姉の{{ruby charSpan=\"1\" value=\"こころ\"}}心、{{ruby charSpan=\"1\" value=\"いもうと\"}}妹しらず」"
  },
  {
    "label": "rbt14",
    "text": "\n「{{ruby charSpan=\"2\" value=\"くんし\"}}君子　{{ruby charSpan=\"1\" value=\"あや\"}}危うきに{{ruby charSpan=\"2\" value=\"ちかよ\"}}近寄らず」"
  },
  {
    "label": "rbt15",
    "text": "\n「{{ruby charSpan=\"1\" value=\"みみ\"}}耳を{{ruby charSpan=\"2\" value=\"だて\"}}伊達につけている」"
  },
  {
    "label": "rbt16",
    "text": "\n「ケセラセラ」"
  },
  {
    "label": "rbt17",
    "text": "\n「{{ruby charSpan=\"4\" value=\"げんちしゅうごう\"}}現地集合、{{ruby charSpan=\"4\" value=\"げんちかいさん\"}}現地解散」"
  },
  {
    "label": "rbt18",
    "text": "\n「{{ruby charSpan=\"2\" value=\"だっと\"}}脱兎のごとし」"
  },
  {
    "label": "rbt19",
    "text": "\n「{{ruby charSpan=\"1\" value=\"もと\"}}求めよ、さらば{{ruby charSpan=\"1\" value=\"あた\"}}与えられん」"
  },
  {
    "label": "rbt20",
    "text": "\n「トビがタカを{{ruby charSpan=\"1\" value=\"う\"}}生む」"
  },
  {
    "label": "rci",
    "text": "「あきんどは{{ruby charSpan=\"1\" value=\"そん\"}}損して\n　いつか{{ruby charSpan=\"1\" value=\"くら\"}}倉がたつ」"
  },
  {
    "label": "rhn00",
    "text": "\n「{{ruby charSpan=\"2\" value=\"はいいろ\"}}灰色の{{ruby charSpan=\"1\" value=\"あし\"}}足は　{{ruby charSpan=\"2\" value=\"はいいろ\"}}灰色の{{ruby charSpan=\"1\" value=\"しり\"}}尻に{{ruby charSpan=\"1\" value=\"まさ\"}}勝る」"
  },
  {
    "label": "rhn01",
    "text": "\n「サイは　{{ruby charSpan=\"1\" value=\"な\"}}投げられた」"
  },
  {
    "label": "rhn02",
    "text": "\n「{{ruby charSpan=\"4\" value=\"しょしかんてつ\"}}初志貫徹」"
  },
  {
    "label": "rhn03",
    "text": ""
  },
  {
    "label": "rhn04",
    "text": "\n「{{ruby charSpan=\"1\" value=\"と\"}}飛んでいる{{ruby charSpan=\"1\" value=\"か\"}}蚊に　てい{{ruby charSpan=\"1\" value=\"てつ\"}}鉄を{{ruby charSpan=\"1\" value=\"う\"}}打つ」"
  },
  {
    "label": "rhn05",
    "text": ""
  },
  {
    "label": "rhn06",
    "text": ""
  },
  {
    "label": "rhn07",
    "text": "\n「ケーキバイキング」"
  },
  {
    "label": "rhn08",
    "text": "\n「{{ruby charSpan=\"2\" value=\"わかげ\"}}若気の{{ruby charSpan=\"1\" value=\"いた\"}}至り」"
  },
  {
    "label": "seg",
    "text": "\n「{{ruby charSpan=\"2\" value=\"ごか\"}}呉下の{{ruby charSpan=\"2\" value=\"あもう\"}}阿蒙」"
  },
  {
    "label": "seo",
    "text": "「{{ruby charSpan=\"1\" value=\"まな\"}}学ぶほど　おろかになるコトを\n　{{ruby charSpan=\"1\" value=\"まな\"}}学ぶべきである」"
  },
  {
    "label": "shp00",
    "text": "\n「{{ruby charSpan=\"1\" value=\"ひつじ\"}}羊をなくしてから　{{ruby charSpan=\"1\" value=\"にわ\"}}庭にサク」"
  },
  {
    "label": "shp01",
    "text": "\n「{{ruby charSpan=\"2\" value=\"やくしゃ\"}}役者に　{{ruby charSpan=\"1\" value=\"とし\"}}年なし」"
  },
  {
    "label": "shp02",
    "text": "\n「つまづく{{ruby charSpan=\"1\" value=\"いし\"}}石も{{ruby charSpan=\"1\" value=\"えん\"}}縁の{{ruby charSpan=\"1\" value=\"はし\"}}端」"
  },
  {
    "label": "shp03",
    "text": "\n「アクリル100%」"
  },
  {
    "label": "shp04",
    "text": "\n「ウール100%」"
  },
  {
    "label": "shp05",
    "text": ""
  },
  {
    "label": "shp06",
    "text": ""
  },
  {
    "label": "shp07",
    "text": "\n「{{ruby charSpan=\"1\" value=\"ち\"}}血は{{ruby charSpan=\"1\" value=\"あらそ\"}}争えぬ」"
  },
  {
    "label": "shp08",
    "text": "\n「{{ruby charSpan=\"1\" value=\"わ\"}}我が{{ruby charSpan=\"1\" value=\"み\"}}身のことは　{{ruby charSpan=\"1\" value=\"ひと\"}}人に{{ruby charSpan=\"1\" value=\"と\"}}問え」"
  },
  {
    "label": "shp09",
    "text": "\n「{{ruby charSpan=\"4\" value=\"うてんじゅんえん\"}}雨天順延」"
  },
  {
    "label": "shp10",
    "text": "\n「{{ruby charSpan=\"3\" value=\"こういってん\"}}紅一点」"
  },
  {
    "label": "shp11",
    "text": "\n「ドライブスルー」"
  },
  {
    "label": "shp12",
    "text": "\n「{{ruby charSpan=\"1\" value=\"るい\"}}類は{{ruby charSpan=\"1\" value=\"とも\"}}友を{{ruby charSpan=\"1\" value=\"よ\"}}呼ぶ」"
  },
  {
    "label": "shp13",
    "text": "\n「まるでピエロ」"
  },
  {
    "label": "shp14",
    "text": "\n「{{ruby charSpan=\"1\" value=\"わ\"}}我が{{ruby charSpan=\"1\" value=\"うえ\"}}上の{{ruby charSpan=\"1\" value=\"ほし\"}}星は{{ruby charSpan=\"1\" value=\"み\"}}見えぬ」"
  },
  {
    "label": "skk",
    "text": "\n「{{ruby charSpan=\"2\" value=\"げた\"}}下駄を{{ruby charSpan=\"1\" value=\"は\"}}履くまでわからない」"
  },
  {
    "label": "slo",
    "text": "\n「{{ruby charSpan=\"1\" value=\"なま\"}}怠け{{ruby charSpan=\"1\" value=\"もの\"}}者の{{ruby charSpan=\"3\" value=\"せっくばたら\"}}節句働き」"
  },
  {
    "label": "snt",
    "text": "\n「{{ruby charSpan=\"1\" value=\"いそ\"}}急がば{{ruby charSpan=\"1\" value=\"まわ\"}}回れ」"
  },
  {
    "label": "squ00",
    "text": "\n「{{ruby charSpan=\"2\" value=\"ももくり\"}}桃栗3{{ruby charSpan=\"1\" value=\"ねん\"}}年　{{ruby charSpan=\"1\" value=\"かき\"}}柿8{{ruby charSpan=\"1\" value=\"ねん\"}}年」"
  },
  {
    "label": "squ01",
    "text": "\n「{{ruby charSpan=\"2\" value=\"おんなごころ\"}}女心と　{{ruby charSpan=\"2\" value=\"みなみかぜ\"}}南風」"
  },
  {
    "label": "squ02",
    "text": "\n「{{ruby charSpan=\"2\" value=\"あかご\"}}赤子の　から{{ruby charSpan=\"1\" value=\"わら\"}}笑い」"
  },
  {
    "label": "squ03",
    "text": "\n「{{ruby charSpan=\"1\" value=\"え\"}}絵を{{ruby charSpan=\"1\" value=\"み\"}}見て　おのれを{{ruby charSpan=\"1\" value=\"し\"}}知る」"
  },
  {
    "label": "squ04",
    "text": "\n「{{ruby charSpan=\"4\" value=\"びじんはくめい\"}}美人薄命」"
  },
  {
    "label": "squ05",
    "text": "\n「はやきこと　{{ruby charSpan=\"1\" value=\"かぜ\"}}風のごとし」"
  },
  {
    "label": "squ06",
    "text": "\n「{{ruby charSpan=\"2\" value=\"よこいた\"}}横板に　{{ruby charSpan=\"1\" value=\"あま\"}}雨だれ」"
  },
  {
    "label": "squ07",
    "text": "\n「{{ruby charSpan=\"3\" value=\"どくしょひゃっ\"}}読書百ぺん　{{ruby charSpan=\"1\" value=\"ぎ\"}}意おのずから{{ruby charSpan=\"1\" value=\"つう\"}}通ず」"
  },
  {
    "label": "squ08",
    "text": "\n「{{ruby charSpan=\"2\" value=\"しげき\"}}刺激のある{{ruby charSpan=\"2\" value=\"じんせい\"}}人生を」"
  },
  {
    "label": "squ09",
    "text": "\n「{{ruby charSpan=\"1\" value=\"いろ\"}}色とりどりの{{ruby charSpan=\"2\" value=\"せかい\"}}世界」"
  },
  {
    "label": "squ10",
    "text": "\n「{{ruby charSpan=\"1\" value=\"わたし\"}}私の{{ruby charSpan=\"1\" value=\"しん\"}}親せきよりも　{{ruby charSpan=\"1\" value=\"わたし\"}}私の{{ruby charSpan=\"1\" value=\"は\"}}歯」"
  },
  {
    "label": "squ11",
    "text": "\n「{{ruby charSpan=\"1\" value=\"えん\"}}縁は{{ruby charSpan=\"1\" value=\"い\"}}異なもの{{ruby charSpan=\"1\" value=\"あじ\"}}味なもの」"
  },
  {
    "label": "squ12",
    "text": ""
  },
  {
    "label": "squ13",
    "text": "\n「{{ruby charSpan=\"1\" value=\"いし\"}}石の{{ruby charSpan=\"2\" value=\"ものい\"}}物言う{{ruby charSpan=\"1\" value=\"よ\"}}世の{{ruby charSpan=\"1\" value=\"なか\"}}中」"
  },
  {
    "label": "squ14",
    "text": "\n「{{ruby charSpan=\"2\" value=\"こちょう\"}}胡蝶の{{ruby charSpan=\"1\" value=\"ゆめ\"}}夢」"
  },
  {
    "label": "squ15",
    "text": "\n「ポジティブ・シンキング」"
  },
  {
    "label": "squ16",
    "text": "\n「{{ruby charSpan=\"2\" value=\"しょうねん\"}}少年よ{{ruby charSpan=\"2\" value=\"たいし\"}}大志を{{ruby charSpan=\"1\" value=\"いだ\"}}抱け」"
  },
  {
    "label": "squ17",
    "text": "\n「{{ruby charSpan=\"4\" value=\"いちごいちえ\"}}一期一会」"
  },
  {
    "label": "squ18",
    "text": "\n「{{ruby charSpan=\"2\" value=\"むり\"}}無理は{{ruby charSpan=\"2\" value=\"きんもつ\"}}禁物」"
  },
  {
    "label": "squ19",
    "text": "\n「{{ruby charSpan=\"2\" value=\"ろぎょ\"}}魯魚の{{ruby charSpan=\"1\" value=\"あやま\"}}誤り」"
  },
  {
    "label": "squ20",
    "text": "\n「{{ruby charSpan=\"2\" value=\"きょこ\"}}虚虎の{{ruby charSpan=\"1\" value=\"あやま\"}}誤り」"
  },
  {
    "label": "sza",
    "text": "\n「{{ruby charSpan=\"2\" value=\"てんい\"}}天衣{{ruby charSpan=\"2\" value=\"むほう\"}}無縫」"
  },
  {
    "label": "szo",
    "text": "\n「2LDK{{ruby charSpan=\"3\" value=\"かどべや\"}}角部屋バストイレ{{ruby charSpan=\"1\" value=\"べつ\"}}別」"
  },
  {
    "label": "tap",
    "text": "\n「{{ruby charSpan=\"8\" value=\"いちふじにたかさんなすび\"}}一富士二鷹三茄子」"
  },
  {
    "label": "tig00",
    "text": "\n「こっちにトラ、あっちに{{ruby charSpan=\"2\" value=\"たいが\"}}大河」"
  },
  {
    "label": "tig01",
    "text": "\n「{{ruby charSpan=\"2\" value=\"じょうねつ\"}}情熱の{{ruby charSpan=\"1\" value=\"あらし\"}}嵐」"
  },
  {
    "label": "tig02",
    "text": "\n「{{ruby charSpan=\"4\" value=\"ぜんりょくとうきゅう\"}}全力投球」"
  },
  {
    "label": "tig03",
    "text": "\n「{{ruby charSpan=\"4\" value=\"はんしゃしんけい\"}}反射神経」"
  },
  {
    "label": "tig04",
    "text": "\n「もちは　もち{{ruby charSpan=\"1\" value=\"や\"}}屋」"
  },
  {
    "label": "tig05",
    "text": "\n「{{ruby charSpan=\"1\" value=\"や\"}}焼けぼっくいに　{{ruby charSpan=\"1\" value=\"ひ\"}}火がつく」"
  },
  {
    "label": "tig06",
    "text": "\n「{{ruby charSpan=\"4\" value=\"げっかひょうじん\"}}月下氷人」"
  },
  {
    "label": "ttl",
    "text": "\n「{{ruby charSpan=\"1\" value=\"かめ\"}}亀の{{ruby charSpan=\"1\" value=\"こう\"}}甲より{{ruby charSpan=\"1\" value=\"とし\"}}年の{{ruby charSpan=\"1\" value=\"こう\"}}功」"
  },
  {
    "label": "tuk",
    "text": "\n「{{ruby charSpan=\"1\" value=\"く\"}}食うか{{ruby charSpan=\"1\" value=\"く\"}}食われるか」"
  },
  {
    "label": "upa",
    "text": "\n「{{ruby charSpan=\"1\" value=\"げい\"}}芸は{{ruby charSpan=\"1\" value=\"み\"}}身の{{ruby charSpan=\"1\" value=\"あだ\"}}仇」"
  },
  {
    "label": "wol00",
    "text": "\n「{{ruby charSpan=\"1\" value=\"ひと\"}}人のふり{{ruby charSpan=\"1\" value=\"み\"}}見て　{{ruby charSpan=\"1\" value=\"わ\"}}我がふり{{ruby charSpan=\"1\" value=\"なお\"}}直せ」"
  },
  {
    "label": "wol01",
    "text": "\n「オオカミより　{{ruby charSpan=\"1\" value=\"ひと\"}}人の{{ruby charSpan=\"1\" value=\"くち\"}}口　{{ruby charSpan=\"1\" value=\"おそ\"}}恐ろし」"
  },
  {
    "label": "wol02",
    "text": "\n「{{ruby charSpan=\"1\" value=\"み\"}}見えてる{{ruby charSpan=\"1\" value=\"むら\"}}村へは　{{ruby charSpan=\"4\" value=\"あんないむよう\"}}案内無用」"
  },
  {
    "label": "wol03",
    "text": "\n「ボロは{{ruby charSpan=\"1\" value=\"き\"}}着てても　{{ruby charSpan=\"1\" value=\"こころ\"}}心はニシキ」"
  },
  {
    "label": "wol04",
    "text": "\n「トンネルを{{ruby charSpan=\"1\" value=\"ぬ\"}}抜けると{{ruby charSpan=\"2\" value=\"ゆきぐに\"}}雪国だった」"
  },
  {
    "label": "wol05",
    "text": "\n「{{ruby charSpan=\"1\" value=\"かお\"}}香りは　{{ruby charSpan=\"1\" value=\"ひと\"}}人をよわせる」"
  },
  {
    "label": "wol06",
    "text": "\n「{{ruby charSpan=\"1\" value=\"ま\"}}真っ{{ruby charSpan=\"1\" value=\"くろ\"}}黒より{{ruby charSpan=\"2\" value=\"はいいろ\"}}灰色の{{ruby charSpan=\"1\" value=\"ほう\"}}方がまし」"
  },
  {
    "label": "wol07",
    "text": ""
  },
  {
    "label": "wol08",
    "text": "\n「スーツは{{ruby charSpan=\"2\" value=\"うらじ\"}}裏地にこれ」"
  },
  {
    "label": "wol09",
    "text": "\n「あわびの{{ruby charSpan=\"2\" value=\"かたおも\"}}片思い」"
  },
  {
    "label": "wol10",
    "text": "\n「{{ruby charSpan=\"1\" value=\"おく\"}}送りオオカミ」"
  },
  {
    "label": "wol11",
    "text": "\n「{{ruby charSpan=\"4\" value=\"しっぷうじんらい\"}}疾風迅雷」"
  },
  {
    "label": "wrl",
    "text": "\n「{{ruby charSpan=\"1\" value=\"す\"}}空き{{ruby charSpan=\"1\" value=\"ばら\"}}腹にまずい{{ruby charSpan=\"1\" value=\"もの\"}}物なし」"
  },
  {
    "label": "xct",
    "text": "\n「{{ruby charSpan=\"1\" value=\"ねこ\"}}猫に{{ruby charSpan=\"2\" value=\"かつおぶし\"}}鰹節」"
  }
]