﻿[
  {
    "label": "001",
    "text": "{{fun_0000000C arg=\"\"}}{{fun_0005000C arg=\"\"}}{{fun_0001000C arg=\"\"}}{{fun_0003000C arg=\"\"}}{{fun_0002000C arg=\"\"}}{{fun_0003000C arg=\"\"}}{{delay frames=\"16\"}}{{anim id=\"15\"}}おや、{{delay frames=\"8\"}}{{fun_00080005 arg=\"\"}}{{fun_000D0005 arg=\"\"}}{{delay frames=\"32\"}}\n{{anim id=\"0\"}}{{ruby charSpan=\"1\" value=\"いま\"}}今、{{delay frames=\"8\"}}{{fun_00010011 arg=\"0x0100\"}}{{fun_000D0005 arg=\"\"}}と{{delay frames=\"16\"}}\nオシャレについて　{{ruby charSpan=\"1\" value=\"はなし\"}}話をしてたんだ{{fun_0009000C arg=\"\"}}"
  },
  {
    "label": "002",
    "text": "{{fun_0000000C arg=\"\"}}{{fun_0007000C arg=\"\"}}{{anim id=\"28\"}}いいでしょ、{{delay frames=\"8\"}}{{fun_00080005 arg=\"\"}}{{fun_000D0005 arg=\"\"}}{{pageBreak}}{{anim id=\"37\"}}{{fun_00010011 arg=\"0x0000\"}}{{fun_000D0005 arg=\"\"}}から{{delay frames=\"8\"}}\nオトナの　きこなしを{{delay frames=\"16\"}}\n{{ruby charSpan=\"1\" value=\"おそ\"}}教わったよぉ、{{delay frames=\"8\"}}{{fun_00070005 arg=\"\"}}\n{{anim id=\"11\"}}{{delay frames=\"16\"}}え～っと、{{delay frames=\"8\"}}まず{{delay frames=\"16\"}}\nだい1に　よく{{ruby charSpan=\"1\" value=\"た\"}}食べて{{delay frames=\"8\"}}・{{delay frames=\"8\"}}・{{delay frames=\"8\"}}・{{delay frames=\"32\"}}\nだい2に　よくねる{{delay frames=\"8\"}}・{{delay frames=\"8\"}}・{{delay frames=\"8\"}}・{{delay frames=\"8\"}}{{fun_0009000C arg=\"\"}}"
  },
  {
    "label": "003",
    "text": "{{fun_0000000C arg=\"\"}}{{fun_0005000C arg=\"\"}}{{fun_0001000C arg=\"\"}}{{fun_0007000C arg=\"\"}}{{delay frames=\"16\"}}{{anim id=\"9\"}}{{fun_00010011 arg=\"0x0100\"}}{{fun_000D0005 arg=\"\"}}、{{delay frames=\"16\"}}{{ruby charSpan=\"1\" value=\"ちが\"}}違うよ{{delay frames=\"8\"}}・{{delay frames=\"8\"}}・{{delay frames=\"8\"}}・{{delay frames=\"8\"}}{{pageBreak}}{{anim id=\"37\"}}ボクが　{{ruby charSpan=\"1\" value=\"い\"}}言いたかったのは、{{delay frames=\"16\"}}\nワンサイズ{{ruby charSpan=\"1\" value=\"した\"}}下の{{ruby charSpan=\"1\" value=\"ふく\"}}服を　{{ruby charSpan=\"1\" value=\"えら\"}}選んで{{delay frames=\"16\"}}\nタイトに　{{ruby charSpan=\"1\" value=\"き\"}}着こなすって{{ruby charSpan=\"1\" value=\"はなし\"}}話さ{{fun_0009000C arg=\"\"}}"
  },
  {
    "label": "004",
    "text": "{{fun_0000000C arg=\"\"}}{{fun_0007000C arg=\"\"}}{{fun_0002000C arg=\"\"}}{{fun_0005000C arg=\"\"}}{{delay frames=\"16\"}}{{anim id=\"9\"}}え～{{delay frames=\"8\"}}・{{delay frames=\"8\"}}・{{delay frames=\"8\"}}・{{delay frames=\"32\"}}\nボクにも　できるかなぁ？\n{{delay frames=\"8\"}}{{fun_00070005 arg=\"\"}}？{{fun_0009000C arg=\"\"}}"
  },
  {
    "label": "005",
    "text": "{{fun_0000000C arg=\"\"}}{{fun_0005000C arg=\"\"}}{{anim id=\"37\"}}{{ruby charSpan=\"3\" value=\"だいじょうぶ\"}}大丈夫だよ、{{delay frames=\"16\"}}{{ruby charSpan=\"2\" value=\"たしょう\"}}多少　\nおなかが　{{ruby charSpan=\"1\" value=\"で\"}}出たって{{delay frames=\"8\"}}・{{delay frames=\"8\"}}・{{delay frames=\"8\"}}・{{delay frames=\"8\"}}\nおへそが　{{ruby charSpan=\"1\" value=\"で\"}}出たって{{delay frames=\"8\"}}・{{delay frames=\"8\"}}・{{delay frames=\"8\"}}・{{delay frames=\"8\"}}\n{{anim id=\"6\"}}{{ruby charSpan=\"2\" value=\"じしん\"}}自信を{{ruby charSpan=\"1\" value=\"も\"}}持って　{{ruby charSpan=\"1\" value=\"むね\"}}胸を{{ruby charSpan=\"1\" value=\"は\"}}張っていれば、{{delay frames=\"16\"}}\nそれは　セクシーな{{delay frames=\"16\"}}\nオトナの{{ruby charSpan=\"2\" value=\"いろけ\"}}色気に　{{ruby charSpan=\"1\" value=\"か\"}}変わるものさ\n{{ruby charSpan=\"2\" value=\"だいじ\"}}大事なのは　{{ruby charSpan=\"2\" value=\"じぶん\"}}自分を{{delay frames=\"32\"}}\n{{anim id=\"35\"}}{{color id=\"2\"}}アイし{{color id=\"65535\"}}てあげるってことだよ{{fun_0009000C arg=\"\"}}"
  },
  {
    "label": "006",
    "text": "{{fun_0000000C arg=\"\"}}{{fun_0007000C arg=\"\"}}{{anim id=\"18\"}}{{delay frames=\"8\"}}・{{delay frames=\"8\"}}・{{delay frames=\"8\"}}・{{delay frames=\"32\"}}{{anim id=\"3\"}}かっこいい～！{{pageBreak}}{{anim id=\"6\"}}それじゃあ、{{delay frames=\"16\"}}ボク{{delay frames=\"8\"}}・{{delay frames=\"8\"}}・{{delay frames=\"8\"}}・{{delay frames=\"8\"}}\n{{color id=\"2\"}}アイス{{color id=\"65535\"}}を　{{ruby charSpan=\"1\" value=\"た\"}}食べて{{delay frames=\"16\"}}\n{{ruby charSpan=\"1\" value=\"ちい\"}}小さいふくを　きるよ！\n{{anim id=\"26\"}}{{delay frames=\"16\"}}うふふ、{{delay frames=\"16\"}}オトナのかいだん、{{delay frames=\"32\"}}\nのぼっちゃうよ～{{delay frames=\"8\"}}・{{delay frames=\"8\"}}・{{delay frames=\"8\"}}・{{delay frames=\"8\"}}{{pageBreak}}{{anim id=\"16\"}}あっ{{delay frames=\"8\"}}・{{delay frames=\"8\"}}・{{delay frames=\"8\"}}・　{{delay frames=\"32\"}}{{ruby charSpan=\"1\" value=\"あじ\"}}味は、{{delay frames=\"8\"}}\n{{anim id=\"23\"}}バニラでいいかな？　{{delay frames=\"8\"}}{{fun_00070005 arg=\"\"}}？{{fun_0009000C arg=\"\"}}"
  },
  {
    "label": "007",
    "text": "{{fun_0000000C arg=\"\"}}{{fun_0005000C arg=\"\"}}{{fun_0001000C arg=\"\"}}{{fun_0003000C arg=\"\"}}{{delay frames=\"16\"}}{{anim id=\"9\"}}ボク{{delay frames=\"8\"}}・{{delay frames=\"8\"}}・{{delay frames=\"8\"}}・{{delay frames=\"8\"}}アイスの{{ruby charSpan=\"1\" value=\"はなし\"}}話なんて{{delay frames=\"16\"}}\nしてたかな？　{{delay frames=\"8\"}}{{fun_00080005 arg=\"\"}}{{fun_000D0005 arg=\"\"}}{{fun_00010007 arg=\"\"}}\n{{anim id=\"0\"}}まぁ、{{delay frames=\"8\"}}いいか{{delay frames=\"8\"}}・{{delay frames=\"8\"}}・{{delay frames=\"8\"}}・{{delay frames=\"8\"}}"
  },
  {
    "label": "008",
    "text": ""
  },
  {
    "label": "009",
    "text": ""
  },
  {
    "label": "010",
    "text": ""
  },
  {
    "label": "011",
    "text": "{{fun_0000000C arg=\"\"}}{{fun_0005000C arg=\"\"}}{{fun_0001000C arg=\"\"}}{{fun_0003000C arg=\"\"}}{{fun_0002000C arg=\"\"}}{{fun_0003000C arg=\"\"}}{{delay frames=\"16\"}}{{ruby charSpan=\"1\" value=\"いま\"}}今、{{delay frames=\"8\"}}{{fun_00010011 arg=\"0x0100\"}}{{fun_000D0005 arg=\"\"}}と\nパスタの　ゆで{{ruby charSpan=\"1\" value=\"かた\"}}方について{{delay frames=\"16\"}}\n{{ruby charSpan=\"1\" value=\"はなし\"}}話をしてたんだよ、{{delay frames=\"8\"}}{{fun_00080005 arg=\"\"}}{{fun_000D0005 arg=\"\"}}{{fun_0009000C arg=\"\"}}"
  },
  {
    "label": "012",
    "text": "{{fun_0000000C arg=\"\"}}{{fun_0007000C arg=\"\"}}{{anim id=\"28\"}}いいでしょ、{{delay frames=\"8\"}}{{fun_00080005 arg=\"\"}}{{fun_000D0005 arg=\"\"}}{{pageBreak}}{{anim id=\"37\"}}{{fun_00010011 arg=\"0x0000\"}}{{fun_000D0005 arg=\"\"}}から{{delay frames=\"8\"}}\nパスタの　おいしい{{ruby charSpan=\"1\" value=\"た\"}}食べ{{ruby charSpan=\"1\" value=\"かた\"}}方を{{delay frames=\"16\"}}\n{{ruby charSpan=\"1\" value=\"おそ\"}}教わったよぉ、{{delay frames=\"8\"}}{{fun_00070005 arg=\"\"}}{{pageBreak}}{{anim id=\"11\"}}{{delay frames=\"16\"}}え～っと、{{delay frames=\"16\"}}まず\nおゆで　ゆであげた{{ruby charSpan=\"1\" value=\"あと\"}}後、{{delay frames=\"16\"}}\nお{{ruby charSpan=\"1\" value=\"みず\"}}水で　しめるんだ{{delay frames=\"8\"}}・{{delay frames=\"8\"}}・{{delay frames=\"8\"}}・{{delay frames=\"8\"}}{{fun_0009000C arg=\"\"}}"
  },
  {
    "label": "013",
    "text": "{{fun_0000000C arg=\"\"}}{{fun_0005000C arg=\"\"}}{{fun_0001000C arg=\"\"}}{{fun_0007000C arg=\"\"}}{{delay frames=\"16\"}}{{anim id=\"9\"}}そういう　やり{{ruby charSpan=\"1\" value=\"かた\"}}方もあるけど、{{delay frames=\"16\"}}\nいっぱん{{ruby charSpan=\"1\" value=\"てき\"}}的に　それは{{delay frames=\"16\"}}\nそばとか　うどんのゆで{{ruby charSpan=\"1\" value=\"かた\"}}方だよ{{fun_0009000C arg=\"\"}}"
  },
  {
    "label": "014",
    "text": "{{fun_0000000C arg=\"\"}}{{fun_0007000C arg=\"\"}}{{fun_0002000C arg=\"\"}}{{fun_0005000C arg=\"\"}}{{delay frames=\"16\"}}{{anim id=\"9\"}}え～{{delay frames=\"8\"}}・{{delay frames=\"8\"}}・{{delay frames=\"8\"}}・{{delay frames=\"8\"}}ボク、{{delay frames=\"8\"}}\nおそばも　おうどんも　{{delay frames=\"16\"}}\nスキだよぉ、{{delay frames=\"8\"}}{{fun_00070005 arg=\"\"}}{{fun_0009000C arg=\"\"}}"
  },
  {
    "label": "015",
    "text": "{{fun_0000000C arg=\"\"}}{{fun_0005000C arg=\"\"}}ま、{{delay frames=\"8\"}}{{ruby charSpan=\"1\" value=\"この\"}}好みもあるだろうけど、{{delay frames=\"32\"}}\nパスタの{{ruby charSpan=\"2\" value=\"ばあい\"}}場合{{delay frames=\"8\"}}・{{delay frames=\"8\"}}・{{delay frames=\"8\"}}・{{delay frames=\"8\"}}{{pageBreak}}{{anim id=\"37\"}}めんの{{ruby charSpan=\"2\" value=\"ちゅうしん\"}}中心に　{{ruby charSpan=\"1\" value=\"すこ\"}}少し{{ruby charSpan=\"1\" value=\"かた\"}}固い{{ruby charSpan=\"2\" value=\"ぶぶん\"}}部分を{{delay frames=\"16\"}}\n{{ruby charSpan=\"1\" value=\"のこ\"}}残したぐらいの　ゆで{{ruby charSpan=\"2\" value=\"かげん\"}}加減が{{delay frames=\"4\"}}・{{delay frames=\"4\"}}・{{delay frames=\"4\"}}・{{delay frames=\"4\"}}{{pageBreak}}{{ruby charSpan=\"1\" value=\"は\"}}歯ごたえがあって{{delay frames=\"16\"}}\n{{ruby charSpan=\"2\" value=\"おい\"}}美味しいとされているんだ、\n{{delay frames=\"8\"}}{{fun_00070005 arg=\"\"}}\n{{anim id=\"6\"}}その{{ruby charSpan=\"3\" value=\"りそうてき\"}}理想的な　ゆで{{ruby charSpan=\"2\" value=\"かげん\"}}加減を{{delay frames=\"32\"}}\n{{anim id=\"35\"}}アルデンテと　{{ruby charSpan=\"1\" value=\"い\"}}言うのさ！{{fun_0009000C arg=\"\"}}"
  },
  {
    "label": "016",
    "text": "{{fun_0000000C arg=\"\"}}{{fun_0007000C arg=\"\"}}{{anim id=\"18\"}}{{delay frames=\"8\"}}・{{delay frames=\"8\"}}・{{delay frames=\"8\"}}・{{delay frames=\"32\"}}{{anim id=\"3\"}}かっこいい～！{{fun_00010007 arg=\"\"}}\n{{anim id=\"37\"}}でも、ボクは　{{delay frames=\"16\"}}\nひえたパスタも　スキだよ\n{{anim id=\"1\"}}しばらく　おいておくと、{{delay frames=\"16\"}}\nのびて　{{ruby charSpan=\"1\" value=\"おお\"}}大もりになるからね、\n{{delay frames=\"8\"}}{{fun_00070005 arg=\"\"}}\n{{ruby charSpan=\"1\" value=\"おとこ\"}}男の{{ruby charSpan=\"2\" value=\"りょうり\"}}料理みたいで{{delay frames=\"16\"}}\nカッコイイでしょ？{{fun_0009000C arg=\"\"}}"
  },
  {
    "label": "017",
    "text": "{{fun_0000000C arg=\"\"}}{{fun_0005000C arg=\"\"}}{{anim id=\"36\"}}フフフ、{{delay frames=\"16\"}}まったく\n{{fun_00010011 arg=\"0x0100\"}}{{fun_000D0005 arg=\"\"}}は、{{delay frames=\"16\"}}ワイルドだなぁ"
  },
  {
    "label": "018",
    "text": ""
  },
  {
    "label": "019",
    "text": ""
  },
  {
    "label": "020",
    "text": ""
  },
  {
    "label": "021",
    "text": "{{fun_0000000C arg=\"\"}}{{fun_0005000C arg=\"\"}}{{fun_0001000C arg=\"\"}}{{fun_0003000C arg=\"\"}}{{delay frames=\"16\"}}{{anim id=\"15\"}}おや、{{delay frames=\"16\"}}{{fun_00080005 arg=\"\"}}{{fun_000D0005 arg=\"\"}}{{fun_0009000C arg=\"\"}}"
  },
  {
    "label": "022",
    "text": "{{fun_0000000C arg=\"\"}}{{fun_0007000C arg=\"\"}}{{fun_0002000C arg=\"\"}}{{fun_0003000C arg=\"\"}}{{delay frames=\"16\"}}{{ruby charSpan=\"1\" value=\"いま\"}}今ね、{{delay frames=\"8\"}}{{fun_00010011 arg=\"0x0000\"}}{{fun_000D0005 arg=\"\"}}みたいに{{delay frames=\"16\"}}\nかっこよくなるには{{delay frames=\"8\"}}・{{delay frames=\"8\"}}・{{delay frames=\"8\"}}・{{delay frames=\"8\"}}{{pageBreak}}どうしたらいいかって{{delay frames=\"16\"}}\n{{ruby charSpan=\"1\" value=\"おし\"}}教えてもらってたんだ、\n{{delay frames=\"8\"}}{{fun_00070005 arg=\"\"}}{{fun_0009000C arg=\"\"}}"
  },
  {
    "label": "023",
    "text": "{{fun_0000000C arg=\"\"}}{{fun_0005000C arg=\"\"}}{{anim id=\"36\"}}フフフ、{{delay frames=\"16\"}}カレは　ボクのこと{{delay frames=\"16\"}}\n{{ruby charSpan=\"1\" value=\"か\"}}買いかぶり{{ruby charSpan=\"1\" value=\"す\"}}過ぎてる{{delay frames=\"8\"}}\nみたいだけど{{delay frames=\"8\"}}・{{delay frames=\"8\"}}・{{delay frames=\"8\"}}・{{delay frames=\"8\"}}\n{{anim id=\"6\"}}ボクのポリシーを　{{delay frames=\"16\"}}\n{{ruby charSpan=\"1\" value=\"つた\"}}伝えるとすれば{{delay frames=\"8\"}}・{{delay frames=\"8\"}}・{{delay frames=\"8\"}}・{{delay frames=\"8\"}}{{pageBreak}}{{fun_0002000C arg=\"\"}}{{fun_0005000C arg=\"\"}}{{color id=\"2\"}}タイト{{color id=\"65535\"}}な{{ruby charSpan=\"1\" value=\"ふく\"}}服を{{ruby charSpan=\"1\" value=\"き\"}}着て{{delay frames=\"16\"}}\nボディラインを　{{ruby charSpan=\"2\" value=\"きょうちょう\"}}強調するのさ{{pageBreak}}{{anim id=\"37\"}}あと　{{color id=\"2\"}}ヒザ{{color id=\"65535\"}}は、{{delay frames=\"16\"}}{{ruby charSpan=\"1\" value=\"み\"}}見えてた{{ruby charSpan=\"1\" value=\"ほう\"}}方が\nセクシーでいいよね、{{delay frames=\"8\"}}{{fun_00070005 arg=\"\"}}{{fun_0009000C arg=\"\"}}"
  },
  {
    "label": "024",
    "text": "{{fun_0000000C arg=\"\"}}{{fun_0007000C arg=\"\"}}{{anim id=\"21\"}}うんうん{{delay frames=\"8\"}}・{{delay frames=\"8\"}}・{{delay frames=\"8\"}}・{{delay frames=\"8\"}}・{{delay frames=\"8\"}}・{{delay frames=\"8\"}}・{{delay frames=\"8\"}}\n{{color id=\"5\"}}（わぁ、{{delay frames=\"8\"}}タルトだけじゃなくて{{delay frames=\"16\"}}\nピザも　ちゅうもんするの？）{{color id=\"65535\"}}{{fun_0009000C arg=\"\"}}"
  },
  {
    "label": "025",
    "text": "{{fun_0000000C arg=\"\"}}{{fun_0005000C arg=\"\"}}{{anim id=\"6\"}}それから、{{delay frames=\"16\"}}{{ruby charSpan=\"2\" value=\"あいて\"}}相手を{{ruby charSpan=\"2\" value=\"ひてい\"}}否定しない{{delay frames=\"16\"}}\n{{color id=\"2\"}}ソフト{{color id=\"65535\"}}な{{ruby charSpan=\"2\" value=\"たいおう\"}}対応{{delay frames=\"8\"}}・{{delay frames=\"8\"}}・{{delay frames=\"8\"}}・{{delay frames=\"32\"}}\n{{anim id=\"37\"}}{{ruby charSpan=\"1\" value=\"おも\"}}思いやりのキモチが　{{ruby charSpan=\"2\" value=\"たいせつ\"}}大切だよ{{fun_0009000C arg=\"\"}}"
  },
  {
    "label": "026",
    "text": "{{fun_0000000C arg=\"\"}}{{fun_0007000C arg=\"\"}}{{anim id=\"21\"}}なるほど{{delay frames=\"8\"}}・{{delay frames=\"8\"}}・{{delay frames=\"8\"}}・{{delay frames=\"8\"}}・{{delay frames=\"8\"}}・{{delay frames=\"8\"}}・{{delay frames=\"8\"}}\n{{color id=\"5\"}}（さいごは、{{delay frames=\"8\"}}デザートアイスかぁ{{delay frames=\"8\"}}・{{delay frames=\"8\"}}・{{delay frames=\"8\"}}・{{delay frames=\"8\"}}\nなんの　ソフトクリームだろう？）{{color id=\"65535\"}}{{fun_0009000C arg=\"\"}}"
  },
  {
    "label": "027",
    "text": "{{fun_0000000C arg=\"\"}}{{fun_0005000C arg=\"\"}}{{anim id=\"36\"}}{{ruby charSpan=\"1\" value=\"み\"}}見た{{ruby charSpan=\"1\" value=\"め\"}}目だけじゃなくて、{{delay frames=\"32\"}}\n{{anim id=\"35\"}}{{ruby charSpan=\"2\" value=\"たいせつ\"}}大切なのは　ココロだってことさ{{fun_0009000C arg=\"\"}}"
  },
  {
    "label": "028",
    "text": "{{fun_0000000C arg=\"\"}}{{fun_0007000C arg=\"\"}}{{anim id=\"3\"}}えへへ、{{delay frames=\"16\"}}おいしそうだねぇ～{{delay frames=\"8\"}}・{{delay frames=\"8\"}}・{{delay frames=\"8\"}}・{{delay frames=\"8\"}}{{fun_0009000C arg=\"\"}}"
  },
  {
    "label": "029",
    "text": "{{fun_0000000C arg=\"\"}}{{fun_0005000C arg=\"\"}}{{fun_0001000C arg=\"\"}}{{fun_0007000C arg=\"\"}}{{delay frames=\"16\"}}{{anim id=\"17\"}}えぇっ{{delay frames=\"4\"}}・{{delay frames=\"4\"}}・{{delay frames=\"4\"}}・？"
  }
]