﻿[
  {
    "label": "001",
    "text": "{{fun_0000000C arg=\"\"}}{{fun_0005000C arg=\"\"}}{{fun_0001000C arg=\"\"}}{{fun_0003000C arg=\"\"}}{{fun_0002000C arg=\"\"}}{{fun_0003000C arg=\"\"}}{{delay frames=\"16\"}}{{anim id=\"32\"}}やぁ、{{delay frames=\"8\"}}{{fun_00080005 arg=\"\"}}{{fun_000D0005 arg=\"\"}}{{fun_0009000C arg=\"\"}}"
  },
  {
    "label": "002",
    "text": "{{fun_0000000C arg=\"\"}}{{fun_0007000C arg=\"\"}}{{anim id=\"37\"}}これから　{{fun_00010011 arg=\"0x0000\"}}{{fun_000D0005 arg=\"\"}}が{{delay frames=\"16\"}}\nアタシのために{{delay frames=\"8\"}}\n{{ruby charSpan=\"1\" value=\"おど\"}}踊ってくれるんだって{{delay frames=\"8\"}}・{{delay frames=\"8\"}}・{{delay frames=\"8\"}}・{{delay frames=\"8\"}}{{fun_0009000C arg=\"\"}}"
  },
  {
    "label": "003",
    "text": "{{fun_0000000C arg=\"\"}}{{fun_0005000C arg=\"\"}}{{fun_0001000C arg=\"\"}}{{fun_0007000C arg=\"\"}}{{fun_0008000C arg=\"\"}}{{fun_0002000C arg=\"\"}}{{fun_0005000C arg=\"\"}}{{delay frames=\"32\"}}{{anim id=\"6\"}}いくよ{{delay frames=\"8\"}}・{{delay frames=\"8\"}}・{{delay frames=\"8\"}}・{{delay frames=\"32\"}}\n{{fun_00010011 arg=\"0x0100\"}}{{fun_000D0005 arg=\"\"}}！{{delay frames=\"32\"}}{{anim id=\"42\"}}{{fun_00010007 arg=\"\"}}\n{{delay frames=\"4\"}}・{{delay frames=\"4\"}}・{{delay frames=\"4\"}}・{{delay frames=\"4\"}}{{anim id=\"44\"}}{{fun_00010007 arg=\"\"}}{{anim id=\"44\"}}どうかな？{{fun_0009000C arg=\"\"}}"
  },
  {
    "label": "004",
    "text": "{{fun_0000000C arg=\"\"}}{{fun_0007000C arg=\"\"}}{{anim id=\"15\"}}え{{delay frames=\"8\"}}・{{delay frames=\"8\"}}・{{delay frames=\"8\"}}・？{{delay frames=\"32\"}}\n{{anim id=\"9\"}}どうって{{ruby charSpan=\"1\" value=\"い\"}}言われても{{delay frames=\"4\"}}・{{delay frames=\"4\"}}・{{delay frames=\"4\"}}・{{delay frames=\"4\"}}{{pageBreak}}{{anim id=\"37\"}}がんばって　{{ruby charSpan=\"2\" value=\"れんしゅう\"}}練習したのね？{{delay frames=\"32\"}}\n{{anim id=\"0\"}}でも、{{delay frames=\"8\"}}2{{ruby charSpan=\"1\" value=\"かい\"}}回ポーズ{{ruby charSpan=\"1\" value=\"と\"}}取る{{ruby charSpan=\"1\" value=\"あた\"}}辺りとか{{delay frames=\"16\"}}\nしつこい{{ruby charSpan=\"1\" value=\"き\"}}気がするわ、{{delay frames=\"8\"}}{{fun_00070005 arg=\"\"}}{{fun_0009000C arg=\"\"}}"
  },
  {
    "label": "005",
    "text": "{{fun_0000000C arg=\"\"}}{{fun_0005000C arg=\"\"}}その{{ruby charSpan=\"2\" value=\"いけん\"}}意見は　{{delay frames=\"16\"}}しんしに{{ruby charSpan=\"1\" value=\"う\"}}受け{{ruby charSpan=\"1\" value=\"と\"}}止めて{{delay frames=\"8\"}}・{{delay frames=\"8\"}}・{{delay frames=\"8\"}}・{{delay frames=\"32\"}}\n{{anim id=\"6\"}}この{{ruby charSpan=\"1\" value=\"つぎ\"}}次は{{delay frames=\"8\"}}　{{ruby charSpan=\"1\" value=\"むな\"}}胸さわぎが{{ruby charSpan=\"1\" value=\"と\"}}止まらない{{delay frames=\"32\"}}\n{{anim id=\"35\"}}ダンスをしてみせるよ！"
  },
  {
    "label": "006",
    "text": ""
  },
  {
    "label": "007",
    "text": ""
  },
  {
    "label": "008",
    "text": ""
  },
  {
    "label": "009",
    "text": ""
  },
  {
    "label": "010",
    "text": "{{fun_0000000C arg=\"\"}}{{fun_0005000C arg=\"\"}}{{fun_0001000C arg=\"\"}}{{fun_0003000C arg=\"\"}}{{fun_0002000C arg=\"\"}}{{fun_0003000C arg=\"\"}}{{delay frames=\"16\"}}{{anim id=\"15\"}}おや、{{delay frames=\"8\"}}{{fun_00080005 arg=\"\"}}{{fun_000D0005 arg=\"\"}}{{fun_0009000C arg=\"\"}}"
  },
  {
    "label": "011",
    "text": "{{fun_0000000C arg=\"\"}}{{fun_0007000C arg=\"\"}}{{anim id=\"37\"}}{{fun_00010011 arg=\"0x0000\"}}{{fun_000D0005 arg=\"\"}}が　アタシに{{delay frames=\"16\"}}\n{{ruby charSpan=\"1\" value=\"あか\"}}赤いカーネーションを　くれたの{{fun_0009000C arg=\"\"}}"
  },
  {
    "label": "012",
    "text": "{{fun_0000000C arg=\"\"}}{{fun_0005000C arg=\"\"}}{{fun_0001000C arg=\"\"}}{{fun_0007000C arg=\"\"}}{{fun_0008000C arg=\"\"}}{{fun_0002000C arg=\"\"}}{{fun_0005000C arg=\"\"}}{{delay frames=\"32\"}}{{anim id=\"35\"}}{{ruby charSpan=\"1\" value=\"はな\"}}花{{ruby charSpan=\"2\" value=\"ことば\"}}言葉は　「{{ruby charSpan=\"1\" value=\"はは\"}}母の{{ruby charSpan=\"1\" value=\"あい\"}}愛」だよ{{delay frames=\"32\"}}\n{{anim id=\"38\"}}{{fun_00010011 arg=\"0x0100\"}}{{fun_000D0005 arg=\"\"}}に{{delay frames=\"16\"}}\nピッタリだ！　{{delay frames=\"8\"}}{{fun_00070005 arg=\"\"}}！{{fun_0009000C arg=\"\"}}"
  },
  {
    "label": "013",
    "text": "{{fun_0000000C arg=\"\"}}{{fun_0007000C arg=\"\"}}{{delay frames=\"8\"}}・{{delay frames=\"8\"}}・{{delay frames=\"8\"}}・{{delay frames=\"8\"}}それって、{{delay frames=\"16\"}}\n{{anim id=\"23\"}}どういう{{ruby charSpan=\"2\" value=\"いみ\"}}意味？{{fun_0009000C arg=\"\"}}"
  },
  {
    "label": "014",
    "text": "{{fun_0000000C arg=\"\"}}{{fun_0005000C arg=\"\"}}{{anim id=\"37\"}}{{ruby charSpan=\"1\" value=\"はは\"}}母のように{{delay frames=\"8\"}}　どこまでも{{ruby charSpan=\"1\" value=\"やさ\"}}優しく{{delay frames=\"16\"}}\n{{ruby charSpan=\"1\" value=\"すべ\"}}全てを　{{ruby charSpan=\"1\" value=\"つつ\"}}包み{{ruby charSpan=\"1\" value=\"こ\"}}込むような{{ruby charSpan=\"1\" value=\"あい\"}}愛だよ、{{delay frames=\"8\"}}\n{{fun_00010011 arg=\"0x0100\"}}{{fun_000D0005 arg=\"\"}}！{{fun_0009000C arg=\"\"}}"
  },
  {
    "label": "015",
    "text": "{{fun_0000000C arg=\"\"}}{{fun_0007000C arg=\"\"}}{{anim id=\"9\"}}それって　{{delay frames=\"16\"}}お{{ruby charSpan=\"1\" value=\"かあ\"}}母さんみたいってこと？{{delay frames=\"32\"}}\n{{anim id=\"6\"}}あんまり{{delay frames=\"16\"}}　うれしくないんだけど{{delay frames=\"8\"}}・{{delay frames=\"8\"}}・{{delay frames=\"8\"}}・{{delay frames=\"8\"}}{{fun_0009000C arg=\"\"}}"
  },
  {
    "label": "016",
    "text": "{{fun_0000000C arg=\"\"}}{{fun_0005000C arg=\"\"}}{{anim id=\"9\"}}おかしいなぁ{{delay frames=\"32\"}}\n{{anim id=\"19\"}}こんなはずじゃ{{delay frames=\"4\"}}・{{delay frames=\"4\"}}・{{delay frames=\"4\"}}・{{delay frames=\"4\"}}"
  },
  {
    "label": "017",
    "text": ""
  },
  {
    "label": "018",
    "text": ""
  },
  {
    "label": "019",
    "text": ""
  },
  {
    "label": "020",
    "text": "{{fun_0000000C arg=\"\"}}{{fun_0005000C arg=\"\"}}{{delay frames=\"8\"}}・{{delay frames=\"8\"}}・{{delay frames=\"8\"}}・{{delay frames=\"8\"}}・{{delay frames=\"8\"}}・{{delay frames=\"8\"}}・{{delay frames=\"8\"}}{{fun_0009000C arg=\"\"}}{{fun_00080007 arg=\"0x10000000\"}}"
  },
  {
    "label": "021",
    "text": "{{fun_0000000C arg=\"\"}}{{fun_0007000C arg=\"\"}}{{anim id=\"23\"}}どうしたの？{{delay frames=\"8\"}}　{{fun_00010011 arg=\"0x0000\"}}{{fun_000D0005 arg=\"\"}}？{{delay frames=\"16\"}}\n{{ruby charSpan=\"1\" value=\"きゅう\"}}急に　だまり{{ruby charSpan=\"1\" value=\"こ\"}}込んじゃって{{delay frames=\"4\"}}・{{delay frames=\"4\"}}・{{delay frames=\"4\"}}・{{delay frames=\"4\"}}{{fun_0009000C arg=\"\"}}"
  },
  {
    "label": "022",
    "text": "{{fun_0000000C arg=\"\"}}{{fun_0005000C arg=\"\"}}{{anim id=\"6\"}}{{ruby charSpan=\"1\" value=\"み\"}}見とれてたんだ{{delay frames=\"8\"}}・{{delay frames=\"8\"}}・{{delay frames=\"8\"}}・{{delay frames=\"8\"}}{{fun_0009000C arg=\"\"}}"
  },
  {
    "label": "023",
    "text": "{{fun_0000000C arg=\"\"}}{{fun_0007000C arg=\"\"}}{{anim id=\"23\"}}え？　{{delay frames=\"8\"}}{{ruby charSpan=\"1\" value=\"なん\"}}何て？{{delay frames=\"32\"}}{{fun_0002000C arg=\"\"}}{{fun_0003000C arg=\"\"}}{{delay frames=\"32\"}}\n{{anim id=\"9\"}}ほら、{{delay frames=\"16\"}}{{fun_00080005 arg=\"\"}}{{fun_000D0005 arg=\"\"}}が{{delay frames=\"16\"}}\n{{ruby charSpan=\"2\" value=\"しんぱい\"}}心配そうに　{{ruby charSpan=\"1\" value=\"み\"}}見てるじゃない？{{fun_0001000C arg=\"\"}}{{fun_0003000C arg=\"\"}}{{fun_0009000C arg=\"\"}}"
  },
  {
    "label": "024",
    "text": "{{fun_0000000C arg=\"\"}}{{fun_0005000C arg=\"\"}}{{fun_0001000C arg=\"\"}}{{fun_0007000C arg=\"\"}}{{delay frames=\"32\"}}{{anim id=\"35\"}}キミの{{ruby charSpan=\"1\" value=\"ひとみ\"}}瞳に　{{ruby charSpan=\"1\" value=\"み\"}}見とれてたんだ{{delay frames=\"8\"}}・{{delay frames=\"8\"}}・{{delay frames=\"8\"}}・{{delay frames=\"8\"}}{{fun_0009000C arg=\"\"}}"
  },
  {
    "label": "025",
    "text": "{{fun_0000000C arg=\"\"}}{{fun_0007000C arg=\"\"}}・{{delay frames=\"8\"}}・{{delay frames=\"8\"}}・{{delay frames=\"8\"}}{{anim id=\"37\"}}{{ruby charSpan=\"1\" value=\"よ\"}}良かったじゃない？\n{{fun_00080005 arg=\"\"}}{{fun_000D0005 arg=\"\"}}？{{pageBreak}}{{fun_00010011 arg=\"0x0000\"}}{{fun_000D0005 arg=\"\"}}、{{delay frames=\"16\"}}\nアナタのこと　すごく{{delay frames=\"8\"}}\n{{ruby charSpan=\"1\" value=\"き\"}}気になってるみたいよ、{{delay frames=\"8\"}}{{fun_00070005 arg=\"\"}}{{fun_0009000C arg=\"\"}}"
  },
  {
    "label": "026",
    "text": "{{fun_0000000C arg=\"\"}}{{fun_0005000C arg=\"\"}}{{fun_0001000C arg=\"\"}}{{fun_0003000C arg=\"\"}}{{anim id=\"9\"}}え{{delay frames=\"8\"}}・{{delay frames=\"8\"}}・{{delay frames=\"8\"}}・{{delay frames=\"8\"}}{{fun_0001000C arg=\"\"}}{{fun_0007000C arg=\"\"}}あれ？{{fun_00050008 arg=\"0x1B0000001E000000\"}}\nど、どうも・・・\nそれはちょっと・・・"
  },
  {
    "label": "027",
    "text": "{{fun_0001000C arg=\"\"}}{{fun_0004000C arg=\"\"}}{{delay frames=\"16\"}}{{anim id=\"13\"}}もちろん、{{delay frames=\"8\"}}\n{{fun_00080005 arg=\"\"}}{{fun_000D0005 arg=\"\"}}だって\nすごく　{{ruby charSpan=\"2\" value=\"だいじ\"}}大事だと{{ruby charSpan=\"1\" value=\"おも\"}}思ってるよ！\n{{fun_0001000C arg=\"\"}}{{fun_0008000C arg=\"\"}}{{delay frames=\"16\"}}{{anim id=\"6\"}}でも、ボク{{delay frames=\"4\"}}・{{delay frames=\"4\"}}・{{delay frames=\"4\"}}・{{delay frames=\"4\"}}{{fun_0009000C arg=\"\"}}{{fun_00080007 arg=\"0x08000000\"}}"
  },
  {
    "label": "028",
    "text": "{{fun_0000000C arg=\"\"}}{{fun_0007000C arg=\"\"}}{{anim id=\"5\"}}スゴイ！　{{delay frames=\"8\"}}{{ruby charSpan=\"2\" value=\"りょうおも\"}}両想いね！{{delay frames=\"16\"}}\nやったじゃない？{{delay frames=\"8\"}}\n{{fun_00010011 arg=\"0x0000\"}}{{fun_000D0005 arg=\"\"}}？{{fun_0009000C arg=\"\"}}"
  },
  {
    "label": "029",
    "text": "{{fun_0000000C arg=\"\"}}{{fun_0005000C arg=\"\"}}{{anim id=\"9\"}}う、{{delay frames=\"8\"}}うん{{delay frames=\"8\"}}・{{delay frames=\"8\"}}・{{delay frames=\"8\"}}・"
  },
  {
    "label": "030",
    "text": "{{fun_0001000C arg=\"\"}}{{fun_0004000C arg=\"\"}}{{delay frames=\"16\"}}{{anim id=\"18\"}}えぇ？！{{delay frames=\"32\"}}　{{anim id=\"9\"}}そんな{{delay frames=\"4\"}}・{{delay frames=\"4\"}}・{{delay frames=\"4\"}}・{{delay frames=\"4\"}}{{fun_0009000C arg=\"\"}}"
  },
  {
    "label": "031",
    "text": "{{fun_0000000C arg=\"\"}}{{fun_0007000C arg=\"\"}}{{fun_0002000C arg=\"\"}}{{fun_0005000C arg=\"\"}}{{anim id=\"9\"}}かわいそう{{delay frames=\"8\"}}・{{delay frames=\"8\"}}・{{delay frames=\"8\"}}・{{delay frames=\"8\"}}\n{{fun_00010011 arg=\"0x0000\"}}{{fun_000D0005 arg=\"\"}}{{fun_0009000C arg=\"\"}}"
  },
  {
    "label": "032",
    "text": "{{fun_0000000C arg=\"\"}}{{fun_0005000C arg=\"\"}}{{anim id=\"19\"}}なんだか{{delay frames=\"16\"}}\n{{ruby charSpan=\"2\" value=\"ふくざつ\"}}複雑な{{ruby charSpan=\"2\" value=\"きぶん\"}}気分だよ{{delay frames=\"8\"}}・{{delay frames=\"8\"}}・{{delay frames=\"8\"}}・{{delay frames=\"8\"}}"
  }
]