﻿[
  {
    "label": "001",
    "text": "{{anim id=\"20\"}}やぁ、{{delay frames=\"8\"}}{{ruby charSpan=\"1\" value=\"ひ\"}}冷えるね～{{delay frames=\"8\"}}・{{delay frames=\"8\"}}・{{delay frames=\"8\"}}・{{delay frames=\"8\"}}{{fun_00070005 arg=\"\"}}"
  },
  {
    "label": "002",
    "text": "{{anim id=\"32\"}}やぁ、{{delay frames=\"8\"}}{{ruby charSpan=\"2\" value=\"ちょうし\"}}調子はどうだい？\n{{delay frames=\"8\"}}{{fun_00070005 arg=\"\"}}？"
  },
  {
    "label": "003",
    "text": "{{anim id=\"1\"}}{{fun_00060007 arg=\"\"}}やぁ、{{delay frames=\"8\"}}{{fun_00000005 arg=\"\"}}{{fun_000D0005 arg=\"\"}}！{{fun_00070007 arg=\"\"}}{{fun_0016000A arg=\"0x0407000800CD\"}}"
  },
  {
    "label": "004",
    "text": "{{anim id=\"37\"}}やぁ、{{delay frames=\"8\"}}{{fun_00050005 arg=\"\"}}{{ruby charSpan=\"1\" value=\"むら\"}}村を\n{{ruby charSpan=\"1\" value=\"たの\"}}楽しんでるかい？　{{delay frames=\"8\"}}{{fun_00070005 arg=\"\"}}？"
  },
  {
    "label": "005",
    "text": "{{anim id=\"1\"}}{{fun_00060007 arg=\"\"}}やぁ、{{delay frames=\"8\"}}{{fun_00000005 arg=\"\"}}{{fun_000D0005 arg=\"\"}}！{{fun_00070007 arg=\"\"}}{{fun_0016000A arg=\"0x0209000A00CD\"}}"
  },
  {
    "label": "006",
    "text": "{{anim id=\"37\"}}やぁ、{{delay frames=\"8\"}}{{fun_00000005 arg=\"\"}}{{fun_000D0005 arg=\"\"}}{{delay frames=\"12\"}}\n{{ruby charSpan=\"1\" value=\"なに\"}}何かいい{{ruby charSpan=\"1\" value=\"もの\"}}物は、{{ruby charSpan=\"1\" value=\"み\"}}見つかったかい？\n{{delay frames=\"8\"}}{{fun_00070005 arg=\"\"}}？"
  },
  {
    "label": "007",
    "text": "キミって、{{delay frames=\"8\"}}{{ruby charSpan=\"1\" value=\"ゆき\"}}雪の{{ruby charSpan=\"1\" value=\"ひ\"}}日には\nカサを　さすタイプなんだ～、\n{{delay frames=\"8\"}}{{fun_00070005 arg=\"\"}}\n{{anim id=\"6\"}}でも、{{delay frames=\"8\"}}あえて{{delay frames=\"8\"}}・{{delay frames=\"8\"}}・{{delay frames=\"8\"}}・{{delay frames=\"8\"}}\nカサをささないという　{{ruby charSpan=\"2\" value=\"せんたく\"}}選択も{{delay frames=\"16\"}}\n{{anim id=\"35\"}}ロマンチックだとは　{{ruby charSpan=\"1\" value=\"おも\"}}思うけどね"
  },
  {
    "label": "008",
    "text": "{{anim id=\"13\"}}{{ruby charSpan=\"1\" value=\"ゆき\"}}雪の{{ruby charSpan=\"1\" value=\"ひ\"}}日に　カサを　ささないなんて{{delay frames=\"4\"}}・{{delay frames=\"4\"}}・{{delay frames=\"4\"}}・{{delay frames=\"4\"}}\n{{ruby charSpan=\"2\" value=\"じぶん\"}}自分を　{{ruby charSpan=\"1\" value=\"きず\"}}傷つけるのは、\nやめるんだ！　{{delay frames=\"8\"}}{{fun_00080005 arg=\"\"}}{{fun_000D0005 arg=\"\"}}！"
  },
  {
    "label": "009",
    "text": "{{anim id=\"36\"}}キミは、もの{{ruby charSpan=\"1\" value=\"ず\"}}好きだねぇ、{{delay frames=\"8\"}}{{fun_00070005 arg=\"\"}}{{delay frames=\"16\"}}\nこんな{{ruby charSpan=\"1\" value=\"さむ\"}}寒い{{ruby charSpan=\"1\" value=\"とき\"}}時に　{{ruby charSpan=\"1\" value=\"つ\"}}釣りなんて{{delay frames=\"8\"}}・{{delay frames=\"8\"}}・{{delay frames=\"8\"}}・{{delay frames=\"8\"}}"
  },
  {
    "label": "010",
    "text": "{{anim id=\"9\"}}{{ruby charSpan=\"1\" value=\"ゆき\"}}雪、やまないねぇ{{delay frames=\"8\"}}・{{delay frames=\"8\"}}・{{delay frames=\"8\"}}・{{delay frames=\"8\"}}{{fun_00070005 arg=\"\"}}"
  }
]