﻿[
  {
    "label": "001",
    "text": "{{anim id=\"9\"}}そうしたいのは　やまやまだけどさ、{{delay frames=\"20\"}}\nボクのこと　{{ruby charSpan=\"1\" value=\"う\"}}受け{{ruby charSpan=\"1\" value=\"い\"}}入れられないって{{delay frames=\"16\"}}\n{{ruby charSpan=\"2\" value=\"やくば\"}}役場のヒトに　{{ruby charSpan=\"1\" value=\"い\"}}言われたんだ{{delay frames=\"8\"}}・{{delay frames=\"8\"}}・{{delay frames=\"8\"}}・\n{{anim id=\"13\"}}あ、{{delay frames=\"8\"}}いや{{delay frames=\"4\"}}・{{delay frames=\"4\"}}・{{delay frames=\"4\"}}・{{delay frames=\"4\"}}ボクじゃなくて{{delay frames=\"16\"}}\n「{{ruby charSpan=\"2\" value=\"てんにゅう\"}}転入の{{ruby charSpan=\"2\" value=\"てつづ\"}}手続きが　{{ruby charSpan=\"1\" value=\"た\"}}立て{{ruby charSpan=\"1\" value=\"こ\"}}込んでるから」{{delay frames=\"20\"}}\nっていう　{{ruby charSpan=\"2\" value=\"てつづ\"}}手続き{{ruby charSpan=\"1\" value=\"じょう\"}}上の{{ruby charSpan=\"2\" value=\"りゆう\"}}理由さ！\n{{anim id=\"36\"}}{{fun_00050005 arg=\"\"}}{{ruby charSpan=\"1\" value=\"むら\"}}村って、{{delay frames=\"16\"}}ずいぶん\n{{ruby charSpan=\"2\" value=\"にんき\"}}人気があるんだね、{{delay frames=\"8\"}}{{fun_00070005 arg=\"\"}}"
  },
  {
    "label": "002",
    "text": "{{anim id=\"16\"}}えっ！　{{delay frames=\"8\"}}{{ruby charSpan=\"2\" value=\"ほんとう\"}}本当かい？{{pageBreak}}{{anim id=\"1\"}}{{ruby charSpan=\"1\" value=\"じつ\"}}実は　こんなとこに{{ruby charSpan=\"1\" value=\"す\"}}住めたら{{delay frames=\"20\"}}\nステキだなって　{{ruby charSpan=\"1\" value=\"おも\"}}思ってたところさ！{{pageBreak}}{{anim id=\"43\"}}{{delay frames=\"16\"}}めくるめく　{{ruby charSpan=\"3\" value=\"しんてんち\"}}新天地での{{ruby charSpan=\"2\" value=\"せいかつ\"}}生活{{delay frames=\"8\"}}・{{delay frames=\"8\"}}・{{delay frames=\"8\"}}・{{delay frames=\"20\"}}\n{{ruby charSpan=\"1\" value=\"あたら\"}}新しい{{ruby charSpan=\"1\" value=\"おんな\"}}女のコとの{{ruby charSpan=\"2\" value=\"であ\"}}出会い{{delay frames=\"8\"}}・{{delay frames=\"8\"}}・{{delay frames=\"8\"}}・{{delay frames=\"8\"}}{{anim id=\"15\"}}はっ！{{pageBreak}}{{anim id=\"36\"}}{{ruby charSpan=\"1\" value=\"むら\"}}村に{{ruby charSpan=\"1\" value=\"かえ\"}}帰ったら　すぐに{{delay frames=\"16\"}}\n{{ruby charSpan=\"2\" value=\"ひっこ\"}}引越しの{{ruby charSpan=\"2\" value=\"じゅんび\"}}準備をしないとね！　{{delay frames=\"8\"}}{{fun_00070005 arg=\"\"}}！"
  },
  {
    "label": "003",
    "text": "{{anim id=\"9\"}}そうしたいのは　やまやまだけどさ、{{delay frames=\"20\"}}\nボクのこと　{{ruby charSpan=\"1\" value=\"う\"}}受け{{ruby charSpan=\"1\" value=\"い\"}}入れられないって{{delay frames=\"16\"}}\n{{ruby charSpan=\"2\" value=\"やくば\"}}役場のヒトに　{{ruby charSpan=\"1\" value=\"い\"}}言われたんだ{{delay frames=\"8\"}}・{{delay frames=\"8\"}}・{{delay frames=\"8\"}}・\n{{anim id=\"13\"}}あ、{{delay frames=\"8\"}}いや{{delay frames=\"4\"}}・{{delay frames=\"4\"}}・{{delay frames=\"4\"}}・{{delay frames=\"4\"}}ボクじゃなくて{{delay frames=\"8\"}}\n「{{ruby charSpan=\"2\" value=\"そんみん\"}}村民がいっぱいだから」という{{delay frames=\"20\"}}\n{{ruby charSpan=\"1\" value=\"むら\"}}村の{{ruby charSpan=\"3\" value=\"うんえいがわ\"}}運営側の{{ruby charSpan=\"2\" value=\"もんだい\"}}問題さ！　{{delay frames=\"8\"}}{{fun_00070005 arg=\"\"}}！\n{{anim id=\"11\"}}{{delay frames=\"16\"}}{{ruby charSpan=\"2\" value=\"そんちょう\"}}村長さんにでも　{{ruby charSpan=\"2\" value=\"そうだん\"}}相談すれば、{{delay frames=\"16\"}}\nなんとかなるかな{{delay frames=\"8\"}}・{{delay frames=\"8\"}}・{{delay frames=\"8\"}}・？"
  },
  {
    "label": "004",
    "text": "{{anim id=\"9\"}}{{ruby charSpan=\"1\" value=\"じつ\"}}実は、ボクもそう{{ruby charSpan=\"1\" value=\"おも\"}}思って{{delay frames=\"16\"}}\n{{ruby charSpan=\"2\" value=\"やくば\"}}役場のヒトに　{{ruby charSpan=\"1\" value=\"き\"}}聞いたけど、{{delay frames=\"20\"}}\n{{ruby charSpan=\"1\" value=\"う\"}}受け{{ruby charSpan=\"1\" value=\"い\"}}入れられないって{{delay frames=\"8\"}}・{{delay frames=\"8\"}}・{{delay frames=\"8\"}}・{{pageBreak}}{{anim id=\"13\"}}あ、{{delay frames=\"8\"}}いや{{delay frames=\"4\"}}・{{delay frames=\"4\"}}・{{delay frames=\"4\"}}・{{delay frames=\"4\"}}ボクじゃなくて{{delay frames=\"8\"}}\n「{{ruby charSpan=\"2\" value=\"そんみん\"}}村民がいっぱいだから」という{{delay frames=\"20\"}}\n{{ruby charSpan=\"1\" value=\"むら\"}}村の{{ruby charSpan=\"3\" value=\"うんえいがわ\"}}運営側の{{ruby charSpan=\"2\" value=\"もんだい\"}}問題さ！　{{delay frames=\"8\"}}{{fun_00070005 arg=\"\"}}！\n{{anim id=\"15\"}}あ、{{delay frames=\"20\"}}でも　キミって{{delay frames=\"16\"}}\n{{ruby charSpan=\"2\" value=\"そんちょう\"}}村長さんだったよね？{{pageBreak}}{{anim id=\"44\"}}それなら　{{ruby charSpan=\"1\" value=\"はなし\"}}話が{{ruby charSpan=\"1\" value=\"はや\"}}早い！{{delay frames=\"60\"}}\n{{anim id=\"39\"}}{{delay frames=\"20\"}}{{ruby charSpan=\"2\" value=\"ひっこ\"}}引越しできるよう、{{delay frames=\"16\"}}ボクが\n{{ruby charSpan=\"2\" value=\"そんみん\"}}村民の{{ruby charSpan=\"1\" value=\"だれ\"}}誰かと　{{ruby charSpan=\"2\" value=\"そうだん\"}}相談してもいいかな？{{endTag}}\nオッケー！\nそれはちょっと・・・"
  },
  {
    "label": "005",
    "text": "{{anim id=\"9\"}}ごめんよ{{delay frames=\"8\"}}・{{delay frames=\"8\"}}・{{delay frames=\"8\"}}・{{delay frames=\"16\"}}\nキミの{{ruby charSpan=\"2\" value=\"きも\"}}気持ちも　{{ruby charSpan=\"1\" value=\"かんが\"}}考えないで{{delay frames=\"8\"}}\n{{ruby charSpan=\"1\" value=\"で\"}}出しゃばってしまって{{delay frames=\"4\"}}・{{delay frames=\"4\"}}・{{delay frames=\"4\"}}・"
  },
  {
    "label": "006",
    "text": "{{anim id=\"16\"}}{{ruby charSpan=\"2\" value=\"ほんとう\"}}本当かい？！{{delay frames=\"40\"}}\n{{anim id=\"1\"}}それじゃあ、{{delay frames=\"8\"}}なんてヒトと\n{{ruby charSpan=\"2\" value=\"そうだん\"}}相談したらいいかな？"
  },
  {
    "label": "007",
    "text": "{{anim id=\"9\"}}あ、{{delay frames=\"8\"}}ごめんよ{{delay frames=\"8\"}}・{{delay frames=\"8\"}}・{{delay frames=\"8\"}}・{{delay frames=\"20\"}}\nちょっと　ボクも{{delay frames=\"16\"}}\n{{ruby charSpan=\"3\" value=\"ごういんす\"}}強引過ぎたかもしれないね、{{delay frames=\"8\"}}{{fun_00070005 arg=\"\"}}\n{{anim id=\"37\"}}{{ruby charSpan=\"2\" value=\"ざんねん\"}}残念だけど、{{delay frames=\"8\"}}{{ruby charSpan=\"2\" value=\"こんかい\"}}今回は\nあきらめることにするよ"
  },
  {
    "label": "008",
    "text": "{{anim id=\"21\"}}わかった、{{delay frames=\"8\"}}{{fun_00010011 arg=\"0x0000\"}}{{fun_000D0005 arg=\"\"}}だね？{{delay frames=\"40\"}}\nちょっと　{{ruby charSpan=\"1\" value=\"き\"}}聞いてみるよ！"
  },
  {
    "label": "009",
    "text": "{{anim id=\"36\"}}ふふふ、{{delay frames=\"8\"}}{{ruby charSpan=\"2\" value=\"あんしん\"}}安心して！{{delay frames=\"40\"}}\n{{anim id=\"44\"}}うまくいったよ！{{pageBreak}}{{anim id=\"37\"}}もともと　{{fun_00010011 arg=\"0x0000\"}}{{fun_000D0005 arg=\"\"}}は{{delay frames=\"16\"}}\n{{ruby charSpan=\"2\" value=\"ひっこ\"}}引越すつもりだったらしいんだ、{{delay frames=\"8\"}}{{fun_00070005 arg=\"\"}}{{pageBreak}}{{anim id=\"1\"}}それじゃあ、{{fun_0007000E arg=\"0x0400AB30EC300800AB30CE30B830E730\"}}の{{ruby charSpan=\"2\" value=\"こうい\"}}厚意に{{ruby charSpan=\"1\" value=\"あま\"}}甘えて{{delay frames=\"16\"}}\nこの　{{fun_00050005 arg=\"\"}}{{ruby charSpan=\"1\" value=\"むら\"}}村に{{delay frames=\"8\"}}\nボクは　{{ruby charSpan=\"2\" value=\"ひっこ\"}}引越すことにするね！"
  },
  {
    "label": "010",
    "text": "{{anim id=\"36\"}}ふふふ、{{delay frames=\"8\"}}{{ruby charSpan=\"2\" value=\"あんしん\"}}安心して！{{delay frames=\"40\"}}\n{{anim id=\"44\"}}うまくいったよ！{{pageBreak}}{{anim id=\"37\"}}もともと　{{fun_00010011 arg=\"0x0000\"}}{{fun_000D0005 arg=\"\"}}は{{delay frames=\"16\"}}\n{{ruby charSpan=\"2\" value=\"ひっこ\"}}引越すつもりだったらしいんだ、{{delay frames=\"8\"}}{{fun_00070005 arg=\"\"}}{{pageBreak}}{{anim id=\"1\"}}それじゃあ、{{fun_0007000E arg=\"0x0400AB30EC300800AB30CE30B830E730\"}}の{{ruby charSpan=\"2\" value=\"こうい\"}}厚意に{{ruby charSpan=\"1\" value=\"あま\"}}甘えて{{delay frames=\"16\"}}\nこの　{{fun_00050005 arg=\"\"}}{{ruby charSpan=\"1\" value=\"むら\"}}村に{{delay frames=\"8\"}}\nボクは　{{ruby charSpan=\"2\" value=\"ひっこ\"}}引越すことにするね！"
  },
  {
    "label": "011",
    "text": "{{anim id=\"9\"}}そうしたいのは　やまやまだけどさ、{{delay frames=\"20\"}}\nボクのこと　{{ruby charSpan=\"1\" value=\"う\"}}受け{{ruby charSpan=\"1\" value=\"い\"}}入れられないって{{delay frames=\"16\"}}\n{{ruby charSpan=\"2\" value=\"やくば\"}}役場のヒトに　{{ruby charSpan=\"1\" value=\"い\"}}言われたんだ{{delay frames=\"8\"}}・{{delay frames=\"8\"}}・{{delay frames=\"8\"}}・\n{{anim id=\"13\"}}あ、{{delay frames=\"8\"}}いや{{delay frames=\"4\"}}・{{delay frames=\"4\"}}・{{delay frames=\"4\"}}・{{delay frames=\"4\"}}ボクじゃなくて{{delay frames=\"16\"}}\n「{{ruby charSpan=\"2\" value=\"きょう\"}}今日は　{{ruby charSpan=\"1\" value=\"むら\"}}村で{{ruby charSpan=\"1\" value=\"おお\"}}大きなイベントがあるから」{{delay frames=\"20\"}}\nっていう　{{ruby charSpan=\"2\" value=\"てつづ\"}}手続き{{ruby charSpan=\"1\" value=\"じょう\"}}上の{{ruby charSpan=\"2\" value=\"りゆう\"}}理由さ！\n{{anim id=\"1\"}}{{fun_00050005 arg=\"\"}}{{ruby charSpan=\"1\" value=\"むら\"}}村って、なんだか{{delay frames=\"16\"}}\n{{ruby charSpan=\"1\" value=\"たの\"}}楽しそうな{{ruby charSpan=\"1\" value=\"ところ\"}}所だね、{{delay frames=\"8\"}}{{fun_00070005 arg=\"\"}}"
  }
]