﻿[
  {
    "label": "001",
    "text": "{{fun_00040009 arg=\"0x4700480049004A004B004C00\"}}"
  },
  {
    "label": "002",
    "text": "{{fun_00040009 arg=\"0x4700480049004A004B004C00\"}}"
  },
  {
    "label": "003",
    "text": "{{fun_00040009 arg=\"0x4700480049004A004B004C00\"}}"
  },
  {
    "label": "004",
    "text": "{{anim id=\"36\"}}へ～、{{delay frames=\"16\"}}{{fun_00010011 arg=\"0x0000\"}}{{fun_000D0005 arg=\"\"}}って{{delay frames=\"16\"}}\n{{fun_00030011 arg=\"0x0100\"}}とか{{delay frames=\"8\"}}\n{{ruby charSpan=\"1\" value=\"き\"}}聴くんだねぇ{{delay frames=\"8\"}}・{{delay frames=\"8\"}}・{{delay frames=\"8\"}}・{{delay frames=\"8\"}}\n{{anim id=\"6\"}}そして　{{fun_00030011 arg=\"0x0000\"}}も{{delay frames=\"16\"}}\nいい{{ruby charSpan=\"1\" value=\"あじ\"}}味　{{ruby charSpan=\"1\" value=\"だ\"}}出してる{{delay frames=\"8\"}}・{{delay frames=\"8\"}}・{{delay frames=\"8\"}}・{{delay frames=\"8\"}}{{pageBreak}}{{anim id=\"37\"}}カレの　{{ruby charSpan=\"2\" value=\"いがい\"}}意外な{{ruby charSpan=\"2\" value=\"いちめん\"}}一面を{{delay frames=\"16\"}}\n{{ruby charSpan=\"1\" value=\"み\"}}見た{{ruby charSpan=\"1\" value=\"き\"}}気がするよ、{{delay frames=\"8\"}}{{fun_00070005 arg=\"\"}}"
  },
  {
    "label": "005",
    "text": "{{fun_00040009 arg=\"0x4700480049004A004B004C00\"}}"
  },
  {
    "label": "006",
    "text": "{{fun_00040009 arg=\"0x4700480049004A004B004C00\"}}"
  },
  {
    "label": "007",
    "text": "{{fun_00040009 arg=\"0x4700480049004A004B004C00\"}}"
  },
  {
    "label": "008",
    "text": "{{fun_00040009 arg=\"0x4700480049004A004B004C00\"}}"
  },
  {
    "label": "009",
    "text": "{{fun_00010011 arg=\"0x0000\"}}{{fun_000D0005 arg=\"\"}}って{{delay frames=\"16\"}}\nダブルベッドを　{{ruby charSpan=\"1\" value=\"つか\"}}使ってるんだね{{delay frames=\"8\"}}・{{delay frames=\"8\"}}・{{delay frames=\"8\"}}・{{delay frames=\"8\"}}{{pageBreak}}{{anim id=\"37\"}}きっと　カレなりの{{delay frames=\"16\"}}\nこだわりなんじゃないかな、\n{{delay frames=\"8\"}}{{fun_00070005 arg=\"\"}}"
  },
  {
    "label": "010",
    "text": "{{fun_00040009 arg=\"0x4700480049004A004B004C00\"}}"
  },
  {
    "label": "011",
    "text": "{{anim id=\"9\"}}{{fun_00010011 arg=\"0x0000\"}}{{fun_000D0005 arg=\"\"}}って{{delay frames=\"16\"}}\n{{ruby charSpan=\"2\" value=\"ひとり\"}}一人{{ruby charSpan=\"1\" value=\"ぐ\"}}暮らしだよね？{{delay frames=\"8\"}}\n{{fun_00080005 arg=\"\"}}{{fun_000D0005 arg=\"\"}}？\nなんで　{{anim id=\"23\"}}{{ruby charSpan=\"2\" value=\"ふたり\"}}二人がけのソファが？{{fun_00010007 arg=\"\"}}\n{{anim id=\"11\"}}{{delay frames=\"16\"}}ひょっとして{{delay frames=\"8\"}}・{{delay frames=\"8\"}}・{{delay frames=\"8\"}}・{{delay frames=\"32\"}}\n{{anim id=\"36\"}}いや、{{delay frames=\"8\"}}まさかねぇ"
  },
  {
    "label": "012",
    "text": "{{anim id=\"6\"}}いいかい？　{{delay frames=\"8\"}}{{fun_00080005 arg=\"\"}}{{fun_000D0005 arg=\"\"}}、{{delay frames=\"32\"}}\nイスを{{ruby charSpan=\"1\" value=\"み\"}}見たら、{{delay frames=\"16\"}}その{{ruby charSpan=\"1\" value=\"ひと\"}}人のセンスが{{delay frames=\"8\"}}\n{{ruby charSpan=\"2\" value=\"だいたい\"}}大体　わかるもんさ\n{{anim id=\"11\"}}{{delay frames=\"16\"}}{{fun_00010011 arg=\"0x0000\"}}{{fun_000D0005 arg=\"\"}}{{ruby charSpan=\"1\" value=\"ち\"}}家の{{delay frames=\"16\"}}\nイスは{{delay frames=\"8\"}}・{{delay frames=\"8\"}}・{{delay frames=\"8\"}}・{{delay frames=\"8\"}}\n{{anim id=\"15\"}}{{fun_00030011 arg=\"0x0000\"}}かぁ～\n{{anim id=\"36\"}}フフフ、{{delay frames=\"16\"}}カレらしい\nセレクトだね、{{delay frames=\"8\"}}{{fun_00070005 arg=\"\"}}"
  },
  {
    "label": "013",
    "text": "{{fun_00040009 arg=\"0x4700480049004A004B004C00\"}}"
  },
  {
    "label": "014",
    "text": "{{anim id=\"43\"}}{{delay frames=\"16\"}}{{fun_00010011 arg=\"0x0000\"}}{{fun_000D0005 arg=\"\"}}{{ruby charSpan=\"1\" value=\"ち\"}}家の{{delay frames=\"16\"}}\n{{fun_00030011 arg=\"0x0000\"}}かぁ～{{delay frames=\"8\"}}・{{delay frames=\"8\"}}・{{delay frames=\"8\"}}・{{delay frames=\"8\"}}{{pageBreak}}{{anim id=\"37\"}}なんとなく　{{ruby charSpan=\"3\" value=\"ねんだいもの\"}}年代物の{{delay frames=\"16\"}}\nお{{ruby charSpan=\"1\" value=\"たから\"}}宝とか　{{ruby charSpan=\"1\" value=\"ねむ\"}}眠ってそうだね、\n{{delay frames=\"8\"}}{{fun_00070005 arg=\"\"}}"
  },
  {
    "label": "015",
    "text": "{{fun_00040009 arg=\"0x4700480049004A004B004C00\"}}"
  },
  {
    "label": "016",
    "text": "{{fun_00040009 arg=\"0x4700480049004A004B004C00\"}}"
  },
  {
    "label": "017",
    "text": "{{fun_00030011 arg=\"0x0000\"}}が{{delay frames=\"16\"}}\n{{ruby charSpan=\"1\" value=\"かざ\"}}飾ってあるけど、{{delay frames=\"16\"}}\nひょっとして、{{delay frames=\"8\"}}アレ{{delay frames=\"8\"}}・{{delay frames=\"8\"}}・{{delay frames=\"8\"}}・{{delay frames=\"8\"}}\n{{anim id=\"36\"}}{{fun_00010011 arg=\"0x0000\"}}{{fun_000D0005 arg=\"\"}}の{{delay frames=\"16\"}}\nよそ{{ruby charSpan=\"1\" value=\"い\"}}行きの{{ruby charSpan=\"1\" value=\"ふく\"}}服かな？{{delay frames=\"32\"}}　フフフ{{delay frames=\"4\"}}・{{delay frames=\"4\"}}・{{delay frames=\"4\"}}・{{delay frames=\"4\"}}"
  },
  {
    "label": "018",
    "text": "{{fun_00040009 arg=\"0x4700480049004A004B004C00\"}}"
  },
  {
    "label": "019",
    "text": "{{anim id=\"11\"}}{{delay frames=\"16\"}}{{ruby charSpan=\"2\" value=\"いがい\"}}意外な{{ruby charSpan=\"1\" value=\"もの\"}}物が　あるね{{delay frames=\"8\"}}・{{delay frames=\"8\"}}・{{delay frames=\"8\"}}・{{delay frames=\"8\"}}\n{{fun_00030011 arg=\"0x0000\"}}なんか{{delay frames=\"16\"}}\n{{ruby charSpan=\"1\" value=\"お\"}}置いて　どうしたんだろう？\n{{anim id=\"6\"}}{{fun_00010011 arg=\"0x0000\"}}{{fun_000D0005 arg=\"\"}}、{{delay frames=\"32\"}}\n{{anim id=\"35\"}}{{ruby charSpan=\"1\" value=\"なに\"}}何かに　{{ruby charSpan=\"2\" value=\"めざ\"}}目覚めたのかな？"
  },
  {
    "label": "020",
    "text": "さっき、{{delay frames=\"8\"}}{{fun_00030011 arg=\"0x0000\"}}で{{delay frames=\"16\"}}\n『{{fun_001D0005 arg=\"0x0000\"}}』{{delay frames=\"32\"}}\nって{{ruby charSpan=\"1\" value=\"ほん\"}}本を　{{ruby charSpan=\"1\" value=\"み\"}}見かけたよ\n{{anim id=\"36\"}}なんだか　{{ruby charSpan=\"1\" value=\"み\"}}見てはいけない{{ruby charSpan=\"1\" value=\"もの\"}}物を{{delay frames=\"16\"}}\n{{ruby charSpan=\"1\" value=\"み\"}}見てしまった{{ruby charSpan=\"1\" value=\"き\"}}気がする{{delay frames=\"8\"}}・{{delay frames=\"8\"}}・{{delay frames=\"8\"}}・{{delay frames=\"8\"}}"
  },
  {
    "label": "021",
    "text": "{{fun_00040009 arg=\"0x4700480049004A004B004C00\"}}"
  },
  {
    "label": "022",
    "text": "{{fun_00040009 arg=\"0x4700480049004A004B004C00\"}}"
  },
  {
    "label": "023",
    "text": "{{anim id=\"15\"}}あっ、{{delay frames=\"8\"}}{{fun_00010011 arg=\"0x0000\"}}{{fun_000D0005 arg=\"\"}}が{{delay frames=\"16\"}}\nお{{ruby charSpan=\"1\" value=\"ちゃ\"}}茶いれてくれたんだよ、{{delay frames=\"8\"}}\n{{fun_00080005 arg=\"\"}}{{fun_000D0005 arg=\"\"}}\n{{anim id=\"37\"}}さすが　{{ruby charSpan=\"2\" value=\"おとな\"}}大人の{{ruby charSpan=\"2\" value=\"だんせい\"}}男性だよね、\n{{delay frames=\"8\"}}{{fun_00070005 arg=\"\"}}"
  },
  {
    "label": "024",
    "text": "{{anim id=\"26\"}}{{delay frames=\"16\"}}うわぁ、{{delay frames=\"16\"}}{{fun_00010011 arg=\"0x0000\"}}{{fun_000D0005 arg=\"\"}}{{delay frames=\"32\"}}\n{{fun_00030011 arg=\"0x0000\"}}とか{{delay frames=\"8\"}}\n{{ruby charSpan=\"1\" value=\"つか\"}}使ってるんだ～、{{delay frames=\"8\"}}{{fun_00070005 arg=\"\"}}\n{{anim id=\"9\"}}そんなこと　{{delay frames=\"16\"}}{{ruby charSpan=\"1\" value=\"べつ\"}}別に\n{{ruby charSpan=\"1\" value=\"し\"}}知りたくなかったな{{delay frames=\"8\"}}・{{delay frames=\"8\"}}・{{delay frames=\"8\"}}・{{delay frames=\"8\"}}"
  },
  {
    "label": "025",
    "text": "{{anim id=\"15\"}}あれ{{delay frames=\"8\"}}・{{delay frames=\"8\"}}・{{delay frames=\"8\"}}・{{delay frames=\"32\"}}\n{{anim id=\"0\"}}{{fun_00010011 arg=\"0x0000\"}}{{fun_000D0005 arg=\"\"}}{{ruby charSpan=\"1\" value=\"ち\"}}家のパソコン、{{delay frames=\"16\"}}\nなんだか　{{ruby charSpan=\"1\" value=\"ふる\"}}古そうだねぇ\n{{anim id=\"36\"}}フフフ、{{delay frames=\"16\"}}{{ruby charSpan=\"1\" value=\"も\"}}持ち{{ruby charSpan=\"1\" value=\"ぬし\"}}主に　{{ruby charSpan=\"1\" value=\"に\"}}似たのかな？　\n{{delay frames=\"8\"}}{{fun_00070005 arg=\"\"}}？"
  },
  {
    "label": "026",
    "text": "{{anim id=\"1\"}}おや、{{delay frames=\"8\"}}{{fun_00030011 arg=\"0x0000\"}}が{{delay frames=\"16\"}}\nキレイだね{{delay frames=\"8\"}}・{{delay frames=\"8\"}}・{{delay frames=\"8\"}}・{{delay frames=\"8\"}}{{pageBreak}}{{anim id=\"36\"}}{{fun_00010011 arg=\"0x0000\"}}{{fun_000D0005 arg=\"\"}}のやつ、{{delay frames=\"32\"}}\nボクのために{{delay frames=\"8\"}}\n{{ruby charSpan=\"1\" value=\"かざ\"}}飾ってくれたのかな？　{{delay frames=\"8\"}}{{fun_00070005 arg=\"\"}}?"
  },
  {
    "label": "027",
    "text": "{{anim id=\"16\"}}あれっ、{{delay frames=\"8\"}}{{fun_00010011 arg=\"0x0000\"}}{{fun_000D0005 arg=\"\"}}の{{ruby charSpan=\"2\" value=\"へや\"}}部屋って{{delay frames=\"16\"}}\n{{fun_00030011 arg=\"0x0000\"}}があるんだ～{{pageBreak}}{{anim id=\"36\"}}ああ{{ruby charSpan=\"1\" value=\"み\"}}見えて、{{delay frames=\"16\"}}{{ruby charSpan=\"2\" value=\"けっこう\"}}結構　{{ruby charSpan=\"3\" value=\"かていてき\"}}家庭的なトコ\nあるんだね、{{delay frames=\"8\"}}{{fun_00070005 arg=\"\"}}"
  },
  {
    "label": "028",
    "text": "{{fun_00040009 arg=\"0x4700480049004A004B004C00\"}}"
  },
  {
    "label": "029",
    "text": "{{anim id=\"15\"}}あっ、{{delay frames=\"16\"}}\n{{fun_00030011 arg=\"0x0000\"}}が{{delay frames=\"8\"}}\n{{ruby charSpan=\"1\" value=\"お\"}}置いてある{{delay frames=\"8\"}}・{{delay frames=\"8\"}}・{{delay frames=\"8\"}}・{{delay frames=\"8\"}}\n{{anim id=\"36\"}}{{ruby charSpan=\"1\" value=\"たし\"}}確かに　{{fun_00010011 arg=\"0x0000\"}}{{fun_000D0005 arg=\"\"}}は{{delay frames=\"16\"}}\nメタボにならないよう{{delay frames=\"16\"}}\n{{ruby charSpan=\"1\" value=\"き\"}}気を{{ruby charSpan=\"1\" value=\"つ\"}}付けた{{ruby charSpan=\"1\" value=\"ほう\"}}方がいいかもね"
  },
  {
    "label": "030",
    "text": "{{fun_00010011 arg=\"0x0000\"}}{{fun_000D0005 arg=\"\"}}{{ruby charSpan=\"1\" value=\"ち\"}}家って{{delay frames=\"16\"}}\n{{fun_00030011 arg=\"0x0000\"}}が{{delay frames=\"8\"}}\nあるんだ～、{{delay frames=\"8\"}}{{fun_00070005 arg=\"\"}}\n{{anim id=\"37\"}}{{ruby charSpan=\"1\" value=\"おとこ\"}}男の{{ruby charSpan=\"1\" value=\"ひと\"}}人なら　いくつになっても{{delay frames=\"16\"}}\nそういうの　{{ruby charSpan=\"2\" value=\"きょうみ\"}}興味あるよね、\n{{delay frames=\"8\"}}{{fun_00070005 arg=\"\"}}"
  },
  {
    "label": "031",
    "text": "{{anim id=\"15\"}}あれ？{{delay frames=\"32\"}}\n{{fun_00030011 arg=\"0x0000\"}}なんて{{delay frames=\"16\"}}\nどうしたんだろう？\n{{anim id=\"11\"}}{{delay frames=\"16\"}}{{fun_00010011 arg=\"0x0000\"}}{{fun_000D0005 arg=\"\"}}のトコにあるのは{{delay frames=\"16\"}}\n{{ruby charSpan=\"1\" value=\"すこ\"}}少し　{{ruby charSpan=\"3\" value=\"いわかん\"}}違和感があるな{{delay frames=\"8\"}}・{{delay frames=\"8\"}}・{{delay frames=\"8\"}}・{{delay frames=\"8\"}}{{pageBreak}}{{anim id=\"36\"}}いや、{{delay frames=\"8\"}}やめておこう！{{delay frames=\"32\"}}\n{{ruby charSpan=\"1\" value=\"ひと\"}}人には　{{ruby charSpan=\"2\" value=\"いろいろ\"}}色々あるからね{{delay frames=\"8\"}}・{{delay frames=\"8\"}}・{{delay frames=\"8\"}}・{{delay frames=\"8\"}}"
  },
  {
    "label": "032",
    "text": "{{fun_00040009 arg=\"0x4700480049004A004B004C00\"}}"
  },
  {
    "label": "033",
    "text": "{{fun_00040009 arg=\"0x4700480049004A004B004C00\"}}"
  },
  {
    "label": "034",
    "text": "{{fun_00040009 arg=\"0x4700480049004A004B004C00\"}}"
  },
  {
    "label": "035",
    "text": "{{anim id=\"15\"}}そういえば、{{delay frames=\"8\"}}\n{{fun_00030011 arg=\"0x0000\"}}なんて{{delay frames=\"16\"}}\nカレらしくないよね？\n{{anim id=\"9\"}}{{ruby charSpan=\"2\" value=\"いったい\"}}一体、{{delay frames=\"8\"}}{{ruby charSpan=\"1\" value=\"なに\"}}何があったんだ？{{delay frames=\"32\"}}\n{{fun_00010011 arg=\"0x0000\"}}{{fun_000D0005 arg=\"\"}}{{delay frames=\"8\"}}・{{delay frames=\"8\"}}・{{delay frames=\"8\"}}・"
  },
  {
    "label": "036",
    "text": "{{anim id=\"37\"}}フフフ{{delay frames=\"8\"}}・{{delay frames=\"8\"}}・{{delay frames=\"8\"}}・{{delay frames=\"8\"}}\n{{fun_00030011 arg=\"0x0000\"}}なんて{{delay frames=\"16\"}}\n{{fun_00010011 arg=\"0x0000\"}}{{fun_000D0005 arg=\"\"}}らしいな\n{{anim id=\"36\"}}これ{{ruby charSpan=\"2\" value=\"いじょう\"}}以上、{{delay frames=\"8\"}}カレらしい{{ruby charSpan=\"1\" value=\"もの\"}}物を{{delay frames=\"16\"}}\n{{ruby charSpan=\"1\" value=\"み\"}}見つける{{ruby charSpan=\"1\" value=\"ほう\"}}方が　{{ruby charSpan=\"1\" value=\"むずか\"}}難しいぐらいだ"
  },
  {
    "label": "037",
    "text": "{{fun_00040009 arg=\"0x4700480049004A004B004C00\"}}"
  },
  {
    "label": "038",
    "text": "{{fun_00040009 arg=\"0x4700480049004A004B004C00\"}}"
  },
  {
    "label": "039",
    "text": "{{fun_00040009 arg=\"0x4700480049004A004B004C00\"}}"
  },
  {
    "label": "040",
    "text": "{{anim id=\"15\"}}おや、{{delay frames=\"8\"}}{{fun_00030011 arg=\"0x0000\"}}が\n{{ruby charSpan=\"1\" value=\"お\"}}置いてあるね{{delay frames=\"8\"}}・{{delay frames=\"8\"}}・{{delay frames=\"8\"}}・{{delay frames=\"8\"}}{{pageBreak}}{{anim id=\"40\"}}あんまり　{{ruby charSpan=\"2\" value=\"そうぞう\"}}想像したくないな{{delay frames=\"32\"}}\n{{anim id=\"9\"}}そのことについては、{{delay frames=\"16\"}}\nそっとしておこうか？"
  },
  {
    "label": "041",
    "text": "{{anim id=\"15\"}}おや、{{delay frames=\"8\"}}めずらしいな{{delay frames=\"32\"}}\n{{fun_00030011 arg=\"0x0000\"}}を{{delay frames=\"16\"}}\n{{ruby charSpan=\"2\" value=\"へや\"}}部屋に　{{ruby charSpan=\"1\" value=\"お\"}}置くなんて{{delay frames=\"8\"}}・{{delay frames=\"8\"}}・{{delay frames=\"8\"}}・{{delay frames=\"8\"}}\n{{anim id=\"36\"}}{{fun_00010011 arg=\"0x0000\"}}{{fun_000D0005 arg=\"\"}}って{{delay frames=\"16\"}}\nトイレに　{{ruby charSpan=\"2\" value=\"いよう\"}}異様な{{delay frames=\"8\"}}\nこだわりが　あるのかな？"
  },
  {
    "label": "042",
    "text": "{{anim id=\"15\"}}おや？　{{delay frames=\"32\"}}コワモテの\n{{fun_00010011 arg=\"0x0000\"}}{{fun_000D0005 arg=\"\"}}が{{delay frames=\"16\"}}\n{{fun_00030011 arg=\"0x0000\"}}なんて{{delay frames=\"8\"}}・{{delay frames=\"8\"}}・{{delay frames=\"8\"}}・{{delay frames=\"8\"}}\n{{anim id=\"37\"}}ああ{{ruby charSpan=\"1\" value=\"み\"}}見えて、{{delay frames=\"16\"}}ファンシーなものが\n{{ruby charSpan=\"1\" value=\"す\"}}好きなのかな？　{{delay frames=\"8\"}}{{fun_00070005 arg=\"\"}}？{{delay frames=\"32\"}}\n{{anim id=\"36\"}}{{color id=\"5\"}}（{{ruby charSpan=\"1\" value=\"わら\"}}笑っちゃいけないよ{{delay frames=\"8\"}}・{{delay frames=\"8\"}}・{{delay frames=\"8\"}}・{{delay frames=\"8\"}}）{{color id=\"65535\"}}"
  },
  {
    "label": "043",
    "text": "{{anim id=\"11\"}}{{delay frames=\"16\"}}{{fun_00030011 arg=\"0x0000\"}}が{{delay frames=\"16\"}}\nかざってあるけど{{delay frames=\"8\"}}・{{delay frames=\"8\"}}・{{delay frames=\"8\"}}・{{delay frames=\"8\"}}\nちゃんと　{{ruby charSpan=\"1\" value=\"ひ\"}}弾いてるのかな？\n{{anim id=\"36\"}}ひょっとしたら、{{fun_00010011 arg=\"0x0000\"}}{{fun_000D0005 arg=\"\"}}{{delay frames=\"32\"}}\nFコードが{{ruby charSpan=\"1\" value=\"むずか\"}}難しくて{{delay frames=\"16\"}}　ギターを\nあきらめた{{ruby charSpan=\"1\" value=\"ひと\"}}人だったりして{{delay frames=\"8\"}}・{{delay frames=\"8\"}}・{{delay frames=\"8\"}}・{{delay frames=\"8\"}}"
  },
  {
    "label": "044",
    "text": "{{fun_00040009 arg=\"0x4700480049004A004B004C00\"}}"
  },
  {
    "label": "045",
    "text": ""
  },
  {
    "label": "046",
    "text": ""
  },
  {
    "label": "047",
    "text": ""
  },
  {
    "label": "048",
    "text": ""
  },
  {
    "label": "049",
    "text": ""
  },
  {
    "label": "050",
    "text": ""
  },
  {
    "label": "051",
    "text": ""
  },
  {
    "label": "052",
    "text": ""
  },
  {
    "label": "053",
    "text": ""
  },
  {
    "label": "054",
    "text": ""
  },
  {
    "label": "055",
    "text": ""
  },
  {
    "label": "056",
    "text": ""
  },
  {
    "label": "057",
    "text": ""
  },
  {
    "label": "058",
    "text": ""
  },
  {
    "label": "059",
    "text": ""
  },
  {
    "label": "060",
    "text": ""
  },
  {
    "label": "061",
    "text": ""
  },
  {
    "label": "062",
    "text": ""
  },
  {
    "label": "063",
    "text": ""
  },
  {
    "label": "064",
    "text": ""
  },
  {
    "label": "065",
    "text": ""
  },
  {
    "label": "066",
    "text": ""
  },
  {
    "label": "067",
    "text": ""
  },
  {
    "label": "068",
    "text": ""
  },
  {
    "label": "069",
    "text": ""
  },
  {
    "label": "070",
    "text": ""
  },
  {
    "label": "071",
    "text": "{{anim id=\"4\"}}{{delay frames=\"16\"}}{{fun_00010011 arg=\"0x0000\"}}{{fun_000D0005 arg=\"\"}}のニオイがする{{delay frames=\"8\"}}・{{delay frames=\"8\"}}・{{delay frames=\"8\"}}・"
  },
  {
    "label": "072",
    "text": "{{anim id=\"21\"}}そうか、{{delay frames=\"20\"}}これが\n{{fun_00010011 arg=\"0x0000\"}}{{fun_000D0005 arg=\"\"}}の{{ruby charSpan=\"2\" value=\"へや\"}}部屋か～"
  },
  {
    "label": "073",
    "text": "{{anim id=\"36\"}}フフフ、{{delay frames=\"15\"}}{{fun_00080005 arg=\"\"}}{{fun_000D0005 arg=\"\"}}{{delay frames=\"30\"}}\nあんまり　キョロキョロしたら{{delay frames=\"20\"}}\n{{fun_00010011 arg=\"0x0000\"}}{{fun_000D0005 arg=\"\"}}に{{ruby charSpan=\"2\" value=\"しつれい\"}}失礼だよ"
  },
  {
    "label": "074",
    "text": "{{anim id=\"15\"}}あれ{{delay frames=\"8\"}}・{{delay frames=\"8\"}}・{{delay frames=\"8\"}}・{{delay frames=\"20\"}}{{anim id=\"11\"}}{{delay frames=\"16\"}}どことなく{{delay frames=\"20\"}}\n{{fun_00130005 arg=\"0x0000\"}}のニオイがする{{delay frames=\"8\"}}・{{delay frames=\"8\"}}・{{delay frames=\"8\"}}・{{delay frames=\"30\"}}\n{{anim id=\"23\"}}{{ruby charSpan=\"1\" value=\"き\"}}気のせいかな？"
  },
  {
    "label": "075",
    "text": "{{anim id=\"33\"}}これが　{{fun_00010011 arg=\"0x0000\"}}{{fun_000D0005 arg=\"\"}}の{{ruby charSpan=\"2\" value=\"へや\"}}部屋だよ{{delay frames=\"30\"}}\nゆっくりしていってくれ、{{delay frames=\"8\"}}\n{{fun_00080005 arg=\"\"}}{{fun_000D0005 arg=\"\"}}\n{{anim id=\"36\"}}って、{{delay frames=\"8\"}}ボクが　{{ruby charSpan=\"1\" value=\"い\"}}言うのも{{delay frames=\"20\"}}\nおかしな{{ruby charSpan=\"1\" value=\"はなし\"}}話だけど{{delay frames=\"8\"}}・{{delay frames=\"8\"}}・{{delay frames=\"8\"}}・"
  },
  {
    "label": "076",
    "text": "{{anim id=\"36\"}}フフフ、{{delay frames=\"15\"}}ここの{{ruby charSpan=\"2\" value=\"かぐ\"}}家具は{{delay frames=\"15\"}}\n{{ruby charSpan=\"2\" value=\"ほんとう\"}}本当に　{{fun_00010011 arg=\"0x0000\"}}{{fun_000D0005 arg=\"\"}}の{{delay frames=\"8\"}}\nセレクトなのかな？"
  },
  {
    "label": "077",
    "text": ""
  },
  {
    "label": "078",
    "text": ""
  },
  {
    "label": "079",
    "text": ""
  },
  {
    "label": "080",
    "text": ""
  }
]