﻿[
  {
    "label": "001",
    "text": "{{anim id=\"37\"}}フフフ{{delay frames=\"4\"}}・{{delay frames=\"4\"}}・{{delay frames=\"4\"}}・{{delay frames=\"4\"}}\nあせらなくて　{{ruby charSpan=\"3\" value=\"だいじょうぶ\"}}大丈夫だよ、{{delay frames=\"16\"}}\n{{fun_00080005 arg=\"\"}}{{fun_000D0005 arg=\"\"}}！"
  },
  {
    "label": "002",
    "text": "{{anim id=\"37\"}}{{ruby charSpan=\"1\" value=\"よ\"}}良かった{{delay frames=\"8\"}}・{{delay frames=\"8\"}}・{{delay frames=\"8\"}}・{{delay frames=\"8\"}}ボクとか\n{{fun_00080005 arg=\"\"}}{{fun_000D0005 arg=\"\"}}{{ruby charSpan=\"2\" value=\"いがい\"}}以外にも{{delay frames=\"16\"}}\n{{ruby charSpan=\"2\" value=\"さんどう\"}}賛同してくれる{{ruby charSpan=\"1\" value=\"ひと\"}}人が　いたんだね？\n{{anim id=\"0\"}}これで{{delay frames=\"8\"}}・{{delay frames=\"8\"}}・{{delay frames=\"8\"}}・{{delay frames=\"32\"}}\n{{anim id=\"35\"}}{{fun_00010012 arg=\"\"}}の{{ruby charSpan=\"2\" value=\"じつげん\"}}実現に\nまた{{ruby charSpan=\"2\" value=\"いっぽ\"}}一歩、{{ruby charSpan=\"1\" value=\"ちか\"}}近づいたよ！\n{{anim id=\"1\"}}ありがとう、{{fun_00080005 arg=\"\"}}{{fun_000D0005 arg=\"\"}}！{{delay frames=\"16\"}}\nお{{ruby charSpan=\"1\" value=\"れい\"}}礼に　これを{{delay frames=\"16\"}}\n{{ruby charSpan=\"1\" value=\"う\"}}受け{{ruby charSpan=\"1\" value=\"と\"}}取ってくれないか？"
  },
  {
    "label": "003",
    "text": "{{anim id=\"1\"}}そうか～{{delay frames=\"8\"}}・{{delay frames=\"8\"}}・{{delay frames=\"8\"}}・{{delay frames=\"8\"}}ボク{{ruby charSpan=\"1\" value=\"たち\"}}達{{ruby charSpan=\"2\" value=\"いがい\"}}以外にも{{delay frames=\"16\"}}\n{{ruby charSpan=\"3\" value=\"りかいしゃ\"}}理解者が　いたんだね？{{pageBreak}}{{anim id=\"6\"}}よ～し、{{delay frames=\"16\"}}これで　また{{delay frames=\"32\"}}　\n{{anim id=\"21\"}}{{fun_00010012 arg=\"\"}}の\n{{ruby charSpan=\"2\" value=\"じつげん\"}}実現に　{{ruby charSpan=\"1\" value=\"ちか\"}}近づいたぞ！\n{{anim id=\"37\"}}{{ruby charSpan=\"2\" value=\"かんしゃ\"}}感謝するよ、{{fun_00080005 arg=\"\"}}{{fun_000D0005 arg=\"\"}}！{{delay frames=\"32\"}}\n{{anim id=\"0\"}}お{{ruby charSpan=\"1\" value=\"れい\"}}礼と{{ruby charSpan=\"1\" value=\"い\"}}言っては　{{ruby charSpan=\"1\" value=\"なん\"}}何だけど、　{{delay frames=\"16\"}}\nこれを　{{ruby charSpan=\"1\" value=\"う\"}}受け{{ruby charSpan=\"1\" value=\"と\"}}取ってくれないか？"
  },
  {
    "label": "004",
    "text": "{{anim id=\"10\"}}{{delay frames=\"60\"}}{{ruby charSpan=\"1\" value=\"よ\"}}良かった～{{delay frames=\"4\"}}・{{delay frames=\"4\"}}・{{delay frames=\"4\"}}・{{delay frames=\"32\"}}\n{{anim id=\"36\"}}{{ruby charSpan=\"1\" value=\"だれ\"}}誰も　{{ruby charSpan=\"2\" value=\"さんか\"}}参加してくれないかと\n{{ruby charSpan=\"1\" value=\"おも\"}}思ったよ～、{{delay frames=\"8\"}}{{fun_00070005 arg=\"\"}}\n{{anim id=\"37\"}}うん、{{delay frames=\"16\"}}{{ruby charSpan=\"1\" value=\"すこ\"}}少しずつ\n{{fun_00010012 arg=\"\"}}の\n{{ruby charSpan=\"2\" value=\"じつげん\"}}実現に　{{ruby charSpan=\"1\" value=\"ちか\"}}近づいてるね！\n{{anim id=\"1\"}}キミのおかげだ、{{delay frames=\"8\"}}{{fun_00080005 arg=\"\"}}{{fun_000D0005 arg=\"\"}}！{{delay frames=\"32\"}}\n{{ruby charSpan=\"2\" value=\"かんしゃ\"}}感謝の{{ruby charSpan=\"1\" value=\"い\"}}意を{{ruby charSpan=\"1\" value=\"こ\"}}込めて{{delay frames=\"16\"}}\nこれを　プレゼントするよ"
  },
  {
    "label": "005",
    "text": "{{fun_00030011 arg=\"0x0000\"}}だよ{{pageBreak}}{{anim id=\"32\"}}これからも、{{ruby charSpan=\"1\" value=\"ひ\"}}引き{{ruby charSpan=\"1\" value=\"つづ\"}}続き{{delay frames=\"32\"}}\n{{fun_00010012 arg=\"\"}}の\n{{ruby charSpan=\"1\" value=\"おう\"}}応えん、{{delay frames=\"16\"}}よろしく！"
  },
  {
    "label": "006",
    "text": "{{fun_00030011 arg=\"0x0000\"}}さ{{pageBreak}}{{anim id=\"6\"}}{{fun_00010012 arg=\"\"}}の{{ruby charSpan=\"2\" value=\"じつげん\"}}実現、{{delay frames=\"32\"}}\n{{anim id=\"43\"}}{{delay frames=\"16\"}}キミが　{{ruby charSpan=\"2\" value=\"きょうりょく\"}}協力してくれれば{{delay frames=\"8\"}}・{{delay frames=\"8\"}}・{{delay frames=\"8\"}}・{{delay frames=\"8\"}}\nそう{{ruby charSpan=\"1\" value=\"とお\"}}遠くない　{{ruby charSpan=\"2\" value=\"みらい\"}}未来かもしれない{{delay frames=\"8\"}}・{{delay frames=\"8\"}}・{{delay frames=\"8\"}}・{{delay frames=\"8\"}}"
  },
  {
    "label": "007",
    "text": "{{fun_00030011 arg=\"0x0000\"}}だ{{pageBreak}}{{anim id=\"6\"}}これからも　{{ruby charSpan=\"2\" value=\"みまも\"}}見守っていてくれ{{delay frames=\"16\"}}\nボク{{ruby charSpan=\"1\" value=\"たち\"}}達の{{ruby charSpan=\"1\" value=\"ゆめ\"}}夢{{delay frames=\"8\"}}・{{delay frames=\"8\"}}・{{delay frames=\"8\"}}・{{delay frames=\"32\"}}\n{{anim id=\"35\"}}{{fun_00010012 arg=\"\"}}を！"
  }
]