﻿[
  {
    "label": "001",
    "text": "{{fun_00040009 arg=\"0x4A004B004C004D004E004F00\"}}"
  },
  {
    "label": "002",
    "text": "{{anim id=\"6\"}}{{fun_00030011 arg=\"0x0000\"}}かぁ{{delay frames=\"8\"}}・{{delay frames=\"8\"}}・{{delay frames=\"8\"}}・{{delay frames=\"32\"}}\n{{ruby charSpan=\"1\" value=\"いま\"}}今にも　クリエイターの{{ruby charSpan=\"1\" value=\"こえ\"}}声が{{delay frames=\"16\"}}\n{{ruby charSpan=\"1\" value=\"き\"}}聞こえてくるようだ、{{delay frames=\"8\"}}{{fun_00070005 arg=\"\"}}"
  },
  {
    "label": "003",
    "text": "{{anim id=\"4\"}}{{delay frames=\"16\"}}いいねぇ～{{delay frames=\"8\"}}・{{delay frames=\"8\"}}・{{delay frames=\"8\"}}・{{delay frames=\"32\"}}\n{{ruby charSpan=\"2\" value=\"へや\"}}部屋に　{{ruby charSpan=\"1\" value=\"みどり\"}}緑があると{{delay frames=\"16\"}}\n{{ruby charSpan=\"1\" value=\"こころ\"}}心が　{{ruby charSpan=\"1\" value=\"やす\"}}安らぐよ、{{delay frames=\"8\"}}{{fun_00070005 arg=\"\"}}"
  },
  {
    "label": "004",
    "text": "{{anim id=\"37\"}}ステキな{{delay frames=\"8\"}}\n{{fun_00030011 arg=\"0x0000\"}}じゃないか？{{pageBreak}}{{anim id=\"6\"}}この　{{fun_00030011 arg=\"0x0000\"}}で{{delay frames=\"16\"}}\n「{{fun_00140005 arg=\"0x0001\"}}」とか{{ruby charSpan=\"1\" value=\"き\"}}聴いたら、{{delay frames=\"32\"}}\n{{anim id=\"44\"}}{{ruby charSpan=\"1\" value=\"おど\"}}踊りたくなっちゃうかも！"
  },
  {
    "label": "005",
    "text": "{{anim id=\"37\"}}なかなか　いい{{delay frames=\"16\"}}\n{{fun_00030011 arg=\"0x0000\"}}じゃないか？{{pageBreak}}{{anim id=\"0\"}}ボク　あんまり{{delay frames=\"16\"}}\nテレビは　{{ruby charSpan=\"1\" value=\"み\"}}見ないんだけど、{{delay frames=\"16\"}}\n{{ruby charSpan=\"4\" value=\"おんがくばんぐみ\"}}音楽番組とかは　チェックしてるよ"
  },
  {
    "label": "006",
    "text": "{{anim id=\"37\"}}{{fun_00030011 arg=\"0x0000\"}}かぁ{{delay frames=\"8\"}}・{{delay frames=\"8\"}}・{{delay frames=\"8\"}}・{{delay frames=\"32\"}}\nキミって　{{ruby charSpan=\"1\" value=\"き\"}}聴くだけじゃなくて{{delay frames=\"16\"}}\n{{ruby charSpan=\"2\" value=\"えんそう\"}}演奏もするんだ～{{delay frames=\"8\"}}・{{delay frames=\"8\"}}・{{delay frames=\"8\"}}・{{delay frames=\"8\"}}\n{{anim id=\"6\"}}いつの{{ruby charSpan=\"1\" value=\"ひ\"}}日か　キミと{{delay frames=\"32\"}}\n{{anim id=\"35\"}}セッションしたいね、{{delay frames=\"8\"}}\n{{fun_00080005 arg=\"\"}}{{fun_000D0005 arg=\"\"}}！"
  },
  {
    "label": "007",
    "text": "{{anim id=\"37\"}}{{fun_00030011 arg=\"0x0000\"}}かぁ{{delay frames=\"8\"}}・{{delay frames=\"8\"}}・{{delay frames=\"8\"}}・{{delay frames=\"32\"}}\nキミって　{{ruby charSpan=\"2\" value=\"りょうり\"}}料理するんだね、\n{{delay frames=\"8\"}}{{fun_00070005 arg=\"\"}}\n{{anim id=\"6\"}}いつの{{ruby charSpan=\"1\" value=\"ひ\"}}日か　キミの{{ruby charSpan=\"3\" value=\"てりょうり\"}}手料理を{{delay frames=\"16\"}}\n{{ruby charSpan=\"1\" value=\"た\"}}食べてみたいものだね、{{delay frames=\"32\"}}{{anim id=\"38\"}}ハッハー！"
  },
  {
    "label": "008",
    "text": "{{fun_00040009 arg=\"0x4A004B004C004D004E004F00\"}}"
  },
  {
    "label": "009",
    "text": "{{anim id=\"37\"}}{{fun_00030011 arg=\"0x0000\"}}かぁ{{delay frames=\"8\"}}・{{delay frames=\"8\"}}・{{delay frames=\"8\"}}・{{delay frames=\"32\"}}\n{{ruby charSpan=\"3\" value=\"ねごこち\"}}寝心地が　{{ruby charSpan=\"1\" value=\"よ\"}}良さそうなベッドだね？{{fun_00010007 arg=\"\"}}\n{{anim id=\"35\"}}いい{{ruby charSpan=\"1\" value=\"ゆめ\"}}夢、{{delay frames=\"8\"}}{{ruby charSpan=\"1\" value=\"み\"}}見れそうじゃないか？"
  },
  {
    "label": "010",
    "text": "{{fun_00040009 arg=\"0x4A004B004C004D004E004F00\"}}"
  },
  {
    "label": "011",
    "text": "{{anim id=\"15\"}}あれ？　{{delay frames=\"16\"}}どうして\n{{ruby charSpan=\"2\" value=\"ふたり\"}}二人がけのソファが？{{fun_00010007 arg=\"\"}}\n{{anim id=\"37\"}}まぁ、{{delay frames=\"16\"}}いいけどね{{delay frames=\"8\"}}・{{delay frames=\"8\"}}・{{delay frames=\"8\"}}・{{delay frames=\"8\"}}"
  },
  {
    "label": "012",
    "text": "{{anim id=\"37\"}}へ～　{{delay frames=\"16\"}}{{fun_00080005 arg=\"\"}}{{fun_000D0005 arg=\"\"}}って{{delay frames=\"16\"}}\nこういうシュミなんだ～{{pageBreak}}{{anim id=\"0\"}}そういえば、{{delay frames=\"8\"}}イスを{{ruby charSpan=\"1\" value=\"み\"}}見れば{{delay frames=\"16\"}}\nその{{ruby charSpan=\"1\" value=\"ひと\"}}人の　インテリアのシュミが\nわかるって、{{delay frames=\"16\"}}{{ruby charSpan=\"1\" value=\"き\"}}聞いたことあるよ"
  },
  {
    "label": "013",
    "text": "{{fun_00040009 arg=\"0x4A004B004C004D004E004F00\"}}"
  },
  {
    "label": "014",
    "text": "{{fun_00040009 arg=\"0x4A004B004C004D004E004F00\"}}"
  },
  {
    "label": "015",
    "text": "{{anim id=\"4\"}}{{delay frames=\"16\"}}ん～{{delay frames=\"8\"}}・{{delay frames=\"8\"}}・{{delay frames=\"8\"}}・{{delay frames=\"32\"}}\nこのニオイは　コーヒーかな？\n{{delay frames=\"8\"}}{{fun_00080005 arg=\"\"}}{{fun_000D0005 arg=\"\"}}？\n{{anim id=\"37\"}}{{ruby charSpan=\"1\" value=\"たし\"}}確か　コーヒーのニオイって{{delay frames=\"16\"}}\n{{ruby charSpan=\"1\" value=\"ひと\"}}人を{{ruby charSpan=\"1\" value=\"お\"}}落ち{{ruby charSpan=\"1\" value=\"つ\"}}着かせる　{{ruby charSpan=\"2\" value=\"こうか\"}}効果があるんだよね、\n{{delay frames=\"8\"}}{{fun_00070005 arg=\"\"}}"
  },
  {
    "label": "016",
    "text": "{{anim id=\"9\"}}さっきから{{delay frames=\"16\"}}\n{{fun_00030011 arg=\"0x0000\"}}の{{ruby charSpan=\"2\" value=\"そんざい\"}}存在が{{delay frames=\"16\"}}\n{{ruby charSpan=\"1\" value=\"き\"}}気になって　{{ruby charSpan=\"2\" value=\"しかた\"}}仕方ないんだ{{delay frames=\"8\"}}・{{delay frames=\"8\"}}・{{delay frames=\"8\"}}・{{delay frames=\"8\"}}\n{{anim id=\"6\"}}ボクは　そんな{{ruby charSpan=\"3\" value=\"そんざいかん\"}}存在感のある{{delay frames=\"16\"}}\n{{anim id=\"9\"}}はにわじゃなくって{{delay frames=\"4\"}}・{{delay frames=\"4\"}}・{{delay frames=\"4\"}}・{{delay frames=\"32\"}}\n{{anim id=\"35\"}}{{fun_00010005 arg=\"\"}}でありたいな"
  },
  {
    "label": "017",
    "text": "{{fun_00030011 arg=\"0x0000\"}}は{{delay frames=\"16\"}}\n{{anim id=\"23\"}}キミの　{{ruby charSpan=\"2\" value=\"しょうぶ\"}}勝負{{ruby charSpan=\"1\" value=\"ふく\"}}服かい？{{delay frames=\"32\"}}\n{{anim id=\"37\"}}うん、カッコイイよ！\n{{anim id=\"43\"}}{{delay frames=\"16\"}}{{fun_00030011 arg=\"0x0000\"}}を{{ruby charSpan=\"1\" value=\"き\"}}着て、{{delay frames=\"16\"}}\nダンスとかしたら{{delay frames=\"16\"}}\nステキだと{{ruby charSpan=\"1\" value=\"おも\"}}思うな～{{delay frames=\"8\"}}・{{delay frames=\"8\"}}・{{delay frames=\"8\"}}・{{delay frames=\"8\"}}"
  },
  {
    "label": "018",
    "text": "{{fun_00080005 arg=\"\"}}{{fun_000D0005 arg=\"\"}}{{ruby charSpan=\"1\" value=\"ち\"}}家、{{delay frames=\"16\"}}\n{{fun_00030011 arg=\"0x0000\"}}とか{{delay frames=\"16\"}}\nあるんだね～、{{delay frames=\"8\"}}{{fun_00070005 arg=\"\"}}\n{{anim id=\"6\"}}ボクの　カッコいいトコ{{delay frames=\"16\"}}\n{{ruby charSpan=\"1\" value=\"み\"}}見せてあげたいけど{{delay frames=\"8\"}}・{{delay frames=\"8\"}}・{{delay frames=\"8\"}}・{{delay frames=\"32\"}}\n{{anim id=\"35\"}}それは　またの{{ruby charSpan=\"2\" value=\"きかい\"}}機会にね"
  },
  {
    "label": "019",
    "text": "{{anim id=\"9\"}}やっぱり、{{delay frames=\"16\"}}{{ruby charSpan=\"1\" value=\"み\"}}身だしなみって\n{{ruby charSpan=\"2\" value=\"だいじ\"}}大事だと{{ruby charSpan=\"1\" value=\"おも\"}}思うんだよね～、{{delay frames=\"16\"}}\n{{fun_00080005 arg=\"\"}}{{fun_000D0005 arg=\"\"}}\n{{anim id=\"37\"}}ボクは　{{ruby charSpan=\"2\" value=\"いちにち\"}}一日　24{{ruby charSpan=\"1\" value=\"かい\"}}回は、{{delay frames=\"16\"}}\n{{ruby charSpan=\"1\" value=\"かがみ\"}}鏡を{{ruby charSpan=\"1\" value=\"み\"}}見てるかな～？　{{delay frames=\"8\"}}{{fun_00070005 arg=\"\"}}？"
  },
  {
    "label": "020",
    "text": "{{fun_00040009 arg=\"0x4A004B004C004D004E004F00\"}}"
  },
  {
    "label": "021",
    "text": "{{fun_00040009 arg=\"0x4A004B004C004D004E004F00\"}}"
  },
  {
    "label": "022",
    "text": "{{fun_00040009 arg=\"0x4A004B004C004D004E004F00\"}}"
  },
  {
    "label": "023",
    "text": "{{anim id=\"37\"}}ありがとう、{{delay frames=\"8\"}}{{fun_00080005 arg=\"\"}}{{fun_000D0005 arg=\"\"}}{{delay frames=\"16\"}}\nお{{ruby charSpan=\"1\" value=\"ちゃ\"}}茶を　{{ruby charSpan=\"2\" value=\"ようい\"}}用意してくれたんだね？\n{{delay frames=\"8\"}}{{fun_00070005 arg=\"\"}}？{{fun_0001000A arg=\"0x46004700\"}}"
  },
  {
    "label": "024",
    "text": "キミ{{delay frames=\"8\"}}・{{delay frames=\"8\"}}・{{delay frames=\"8\"}}・{{delay frames=\"32\"}}{{anim id=\"36\"}}トイレには、{{delay frames=\"8\"}}\n{{ruby charSpan=\"1\" value=\"つよ\"}}強いこだわりが　あるようだね？{{delay frames=\"8\"}}\n{{fun_00080005 arg=\"\"}}{{fun_000D0005 arg=\"\"}}？"
  },
  {
    "label": "025",
    "text": "{{fun_00040009 arg=\"0x4A004B004C004D004E004F00\"}}"
  },
  {
    "label": "026",
    "text": "ボクのために{{delay frames=\"16\"}}\n{{anim id=\"23\"}}{{ruby charSpan=\"1\" value=\"かざ\"}}飾ってくれたのかい？\n{{delay frames=\"8\"}}{{fun_00070005 arg=\"\"}}？\n{{anim id=\"37\"}}ステキな{{ruby charSpan=\"1\" value=\"はな\"}}花を　ありがとう、{{delay frames=\"8\"}}\n{{fun_00080005 arg=\"\"}}{{fun_000D0005 arg=\"\"}}！"
  },
  {
    "label": "027",
    "text": "{{fun_00040009 arg=\"0x4A004B004C004D004E004F00\"}}"
  },
  {
    "label": "028",
    "text": "{{fun_00040009 arg=\"0x4A004B004C004D004E004F00\"}}"
  },
  {
    "label": "029",
    "text": "{{anim id=\"6\"}}{{ruby charSpan=\"2\" value=\"まいにち\"}}毎日、{{ruby charSpan=\"2\" value=\"たいじゅう\"}}体重を{{ruby charSpan=\"1\" value=\"はか\"}}量ること{{delay frames=\"8\"}}・{{delay frames=\"8\"}}・{{delay frames=\"8\"}}・{{delay frames=\"32\"}}\nその{{ruby charSpan=\"1\" value=\"つ\"}}積み{{ruby charSpan=\"1\" value=\"かさ\"}}重ねが　{{ruby charSpan=\"2\" value=\"けんこう\"}}健康な{{ruby charSpan=\"1\" value=\"からだ\"}}体に　{{delay frames=\"8\"}}\nつながるんだよね、{{delay frames=\"8\"}}{{fun_00070005 arg=\"\"}}\n{{anim id=\"35\"}}キミは　{{ruby charSpan=\"1\" value=\"つづ\"}}続けてるかい？{{delay frames=\"8\"}}\n{{fun_00080005 arg=\"\"}}{{fun_000D0005 arg=\"\"}}"
  },
  {
    "label": "030",
    "text": "{{fun_00030011 arg=\"0x0000\"}}かぁ{{delay frames=\"8\"}}・{{delay frames=\"8\"}}・{{delay frames=\"8\"}}・{{delay frames=\"32\"}}\nキミも　ゲームが{{ruby charSpan=\"1\" value=\"す\"}}好きなんだね、\n{{delay frames=\"8\"}}{{fun_00070005 arg=\"\"}}\n{{anim id=\"37\"}}ボクは　あの{{delay frames=\"8\"}}・{{delay frames=\"8\"}}・{{delay frames=\"8\"}}・{{delay frames=\"8\"}}\n{{ruby charSpan=\"1\" value=\"みどり\"}}緑の{{ruby charSpan=\"2\" value=\"ぼうし\"}}帽子をかぶった　おじさんが{{delay frames=\"16\"}}\n{{ruby charSpan=\"1\" value=\"かつ\"}}活やくするやつとか　{{ruby charSpan=\"1\" value=\"す\"}}好きだよ"
  },
  {
    "label": "031",
    "text": "{{anim id=\"37\"}}{{fun_00030011 arg=\"0x0000\"}}とか{{delay frames=\"16\"}}\nキミ、{{delay frames=\"8\"}}{{ruby charSpan=\"1\" value=\"す\"}}好きなんだね{{pageBreak}}{{anim id=\"5\"}}{{ruby charSpan=\"2\" value=\"こんど\"}}今度、ボクのぬいぐるみとか{{delay frames=\"16\"}}\n{{ruby charSpan=\"1\" value=\"み\"}}見つけたら　プレゼントするよ～！{{delay frames=\"8\"}}\n{{fun_00080005 arg=\"\"}}{{fun_000D0005 arg=\"\"}}！\n{{anim id=\"15\"}}え？　{{delay frames=\"16\"}}いらない？{{delay frames=\"32\"}}\n{{anim id=\"38\"}}ハッハー！"
  },
  {
    "label": "032",
    "text": "{{fun_0001000A arg=\"0x48004900\"}}"
  },
  {
    "label": "033",
    "text": "{{anim id=\"6\"}}ぼんさい{{delay frames=\"8\"}}・{{delay frames=\"8\"}}・{{delay frames=\"8\"}}・{{delay frames=\"8\"}}\n{{ruby charSpan=\"2\" value=\"かんせい\"}}完成というものがなくて{{delay frames=\"16\"}}\n{{ruby charSpan=\"1\" value=\"つね\"}}常に　{{ruby charSpan=\"2\" value=\"へんか\"}}変化するもの{{delay frames=\"8\"}}・{{delay frames=\"8\"}}・{{delay frames=\"8\"}}・{{delay frames=\"8\"}}\n{{anim id=\"35\"}}まるで　{{ruby charSpan=\"2\" value=\"おんなごころ\"}}女心みたいだね？"
  },
  {
    "label": "034",
    "text": "{{fun_00040009 arg=\"0x4A004B004C004D004E004F00\"}}"
  },
  {
    "label": "035",
    "text": "{{fun_00030011 arg=\"0x0000\"}}かぁ{{delay frames=\"8\"}}・{{delay frames=\"8\"}}・{{delay frames=\"8\"}}・{{delay frames=\"32\"}}\n{{anim id=\"37\"}}{{fun_00080005 arg=\"\"}}{{fun_000D0005 arg=\"\"}}って{{delay frames=\"16\"}}\n{{ruby charSpan=\"2\" value=\"いがい\"}}意外と　シュミが{{ruby charSpan=\"1\" value=\"わか\"}}若いんだねぇ"
  },
  {
    "label": "036",
    "text": "{{fun_00030011 arg=\"0x0000\"}}かぁ{{delay frames=\"8\"}}・{{delay frames=\"8\"}}・{{delay frames=\"8\"}}・{{delay frames=\"32\"}}\n{{anim id=\"37\"}}しぶいシュミしてるね？{{delay frames=\"8\"}}\n{{fun_00080005 arg=\"\"}}{{fun_000D0005 arg=\"\"}}？"
  },
  {
    "label": "037",
    "text": "{{anim id=\"36\"}}{{fun_00030011 arg=\"0x0000\"}}なんか\n{{ruby charSpan=\"2\" value=\"へや\"}}部屋に{{ruby charSpan=\"1\" value=\"お\"}}置いて、{{delay frames=\"16\"}}キミは\n{{ruby charSpan=\"2\" value=\"いったい\"}}一体　{{ruby charSpan=\"1\" value=\"なに\"}}何をたくらんでるんだい？"
  },
  {
    "label": "038",
    "text": "{{anim id=\"9\"}}{{fun_00030011 arg=\"0x0000\"}}って\nあれ{{delay frames=\"8\"}}・{{delay frames=\"8\"}}・{{delay frames=\"8\"}}・{{delay frames=\"8\"}}{{ruby charSpan=\"1\" value=\"なに\"}}何に{{ruby charSpan=\"1\" value=\"つか\"}}使うんだい？"
  },
  {
    "label": "039",
    "text": "{{anim id=\"37\"}}プール{{ruby charSpan=\"1\" value=\"つ\"}}付きの　{{ruby charSpan=\"2\" value=\"へや\"}}部屋なんて{{delay frames=\"8\"}}・{{delay frames=\"8\"}}・{{delay frames=\"8\"}}・{{delay frames=\"8\"}}\nセレブな　{{ruby charSpan=\"1\" value=\"く\"}}暮らしぶりだねぇ、\n{{delay frames=\"8\"}}{{fun_00080005 arg=\"\"}}{{fun_000D0005 arg=\"\"}}"
  },
  {
    "label": "040",
    "text": "{{fun_00030011 arg=\"0x0000\"}}かぁ{{delay frames=\"8\"}}・{{delay frames=\"8\"}}・{{delay frames=\"8\"}}・{{delay frames=\"32\"}}\n{{anim id=\"37\"}}キミって　キレイ{{ruby charSpan=\"1\" value=\"ず\"}}好きなんだね？{{delay frames=\"8\"}}\n{{fun_00080005 arg=\"\"}}{{fun_000D0005 arg=\"\"}}？"
  },
  {
    "label": "041",
    "text": "{{fun_00040009 arg=\"0x4A004B004C004D004E004F00\"}}"
  },
  {
    "label": "042",
    "text": "{{fun_00030011 arg=\"0x0000\"}}かぁ{{delay frames=\"8\"}}・{{delay frames=\"8\"}}・{{delay frames=\"8\"}}・{{delay frames=\"32\"}}\n{{anim id=\"6\"}}すごい　{{ruby charSpan=\"3\" value=\"きのうてき\"}}機能的な{{ruby charSpan=\"2\" value=\"かぐ\"}}家具だよね？{{delay frames=\"8\"}}\n{{fun_00080005 arg=\"\"}}{{fun_000D0005 arg=\"\"}}？\nお{{ruby charSpan=\"1\" value=\"なか\"}}腹がすいたら、{{delay frames=\"16\"}}{{ruby charSpan=\"1\" value=\"た\"}}食べられるし{{delay frames=\"8\"}}・{{delay frames=\"8\"}}・{{delay frames=\"8\"}}・{{delay frames=\"32\"}}\n{{anim id=\"15\"}}え？　{{delay frames=\"16\"}}{{ruby charSpan=\"1\" value=\"た\"}}食べられないのかい？{{fun_00010007 arg=\"\"}}\n{{anim id=\"9\"}}だまされた、{{delay frames=\"16\"}}よくできてるなぁ～"
  },
  {
    "label": "043",
    "text": "{{fun_00040009 arg=\"0x4A004B004C004D004E004F00\"}}"
  },
  {
    "label": "044",
    "text": "{{anim id=\"21\"}}キミん{{ruby charSpan=\"1\" value=\"ち\"}}家って　{{delay frames=\"15\"}}ゴミ{{ruby charSpan=\"1\" value=\"ばこ\"}}箱があるんだね、{{delay frames=\"8\"}}\n{{fun_00080005 arg=\"\"}}{{fun_000D0005 arg=\"\"}}{{pageBreak}}{{anim id=\"36\"}}フフフ、{{delay frames=\"15\"}}{{ruby charSpan=\"2\" value=\"いったい\"}}一体　どれだけの{{ruby charSpan=\"1\" value=\"もの\"}}物が{{delay frames=\"15\"}}\nその{{ruby charSpan=\"1\" value=\"なか\"}}中に　{{ruby charSpan=\"1\" value=\"す\"}}吸い{{ruby charSpan=\"1\" value=\"こ\"}}込まれていったのかな？\n{{delay frames=\"8\"}}{{fun_00070005 arg=\"\"}}？"
  },
  {
    "label": "045",
    "text": ""
  },
  {
    "label": "046",
    "text": ""
  },
  {
    "label": "047",
    "text": ""
  },
  {
    "label": "048",
    "text": ""
  },
  {
    "label": "049",
    "text": ""
  },
  {
    "label": "050",
    "text": ""
  },
  {
    "label": "051",
    "text": ""
  },
  {
    "label": "052",
    "text": ""
  },
  {
    "label": "053",
    "text": ""
  },
  {
    "label": "054",
    "text": ""
  },
  {
    "label": "055",
    "text": ""
  },
  {
    "label": "056",
    "text": ""
  },
  {
    "label": "057",
    "text": ""
  },
  {
    "label": "058",
    "text": ""
  },
  {
    "label": "059",
    "text": ""
  },
  {
    "label": "060",
    "text": ""
  },
  {
    "label": "061",
    "text": ""
  },
  {
    "label": "062",
    "text": ""
  },
  {
    "label": "063",
    "text": ""
  },
  {
    "label": "064",
    "text": ""
  },
  {
    "label": "065",
    "text": ""
  },
  {
    "label": "066",
    "text": ""
  },
  {
    "label": "067",
    "text": ""
  },
  {
    "label": "068",
    "text": ""
  },
  {
    "label": "069",
    "text": ""
  },
  {
    "label": "070",
    "text": "{{anim id=\"36\"}}キミって　{{ruby charSpan=\"2\" value=\"けっこう\"}}結構、{{delay frames=\"16\"}}\n{{ruby charSpan=\"1\" value=\"き\"}}気づかいのできる{{ruby charSpan=\"1\" value=\"ひと\"}}人なんだね？{{delay frames=\"8\"}}\n{{fun_00080005 arg=\"\"}}{{fun_000D0005 arg=\"\"}}？"
  },
  {
    "label": "071",
    "text": "{{anim id=\"6\"}}キミは　きっと{{delay frames=\"16\"}}\nいいおヨメさんになるよ！{{delay frames=\"32\"}}\n{{anim id=\"38\"}}ハッハー！"
  },
  {
    "label": "072",
    "text": "{{fun_00030011 arg=\"0x0000\"}}かぁ{{delay frames=\"8\"}}・{{delay frames=\"8\"}}・{{delay frames=\"8\"}}・{{delay frames=\"32\"}}\n{{anim id=\"36\"}}こんな　ガーリーなものが{{delay frames=\"16\"}}\n{{ruby charSpan=\"2\" value=\"へや\"}}部屋にあるなんて{{delay frames=\"8\"}}・{{delay frames=\"8\"}}・{{delay frames=\"8\"}}・{{delay frames=\"8\"}}\n{{anim id=\"35\"}}キミって　{{ruby charSpan=\"2\" value=\"いがい\"}}意外と{{delay frames=\"4\"}}・{{delay frames=\"4\"}}・{{delay frames=\"4\"}}・{{delay frames=\"4\"}}"
  },
  {
    "label": "073",
    "text": "{{fun_00030011 arg=\"0x0000\"}}かぁ{{delay frames=\"8\"}}・{{delay frames=\"8\"}}・{{delay frames=\"8\"}}・{{delay frames=\"32\"}}\n{{anim id=\"37\"}}フフフ、{{delay frames=\"16\"}}キミって{{ruby charSpan=\"2\" value=\"けっこう\"}}結構{{delay frames=\"16\"}}\n{{ruby charSpan=\"1\" value=\"おんな\"}}女のコらしいトコ　あるんだね？"
  },
  {
    "label": "074",
    "text": "{{anim id=\"39\"}}キミん{{ruby charSpan=\"1\" value=\"ち\"}}家って{{delay frames=\"15\"}}　いいニオイだね？{{delay frames=\"8\"}}\n{{fun_00080005 arg=\"\"}}{{fun_000D0005 arg=\"\"}}？"
  },
  {
    "label": "075",
    "text": "{{anim id=\"21\"}}そうか、{{delay frames=\"20\"}}これが\n{{fun_00080005 arg=\"\"}}{{fun_000D0005 arg=\"\"}}の{{ruby charSpan=\"2\" value=\"へや\"}}部屋か～"
  },
  {
    "label": "076",
    "text": "{{anim id=\"37\"}}ここは　{{delay frames=\"8\"}}なんだか{{ruby charSpan=\"1\" value=\"お\"}}落ち{{ruby charSpan=\"1\" value=\"つ\"}}着くなぁ{{fun_00010007 arg=\"\"}}\n{{anim id=\"36\"}}とまっていって　いいかい？{{delay frames=\"8\"}}\n{{fun_00080005 arg=\"\"}}{{fun_000D0005 arg=\"\"}}？\n{{anim id=\"38\"}}ハッハー！　{{delay frames=\"30\"}}{{ruby charSpan=\"2\" value=\"じょうだん\"}}冗談だよ"
  },
  {
    "label": "077",
    "text": "{{anim id=\"6\"}}{{fun_00080005 arg=\"\"}}{{fun_000D0005 arg=\"\"}}という{{ruby charSpan=\"1\" value=\"いろ\"}}色に{{delay frames=\"30\"}}\n{{anim id=\"35\"}}{{ruby charSpan=\"1\" value=\"そ\"}}染まった{{ruby charSpan=\"2\" value=\"くうかん\"}}空間{{delay frames=\"8\"}}・{{delay frames=\"8\"}}・{{delay frames=\"8\"}}・{{pageBreak}}{{anim id=\"36\"}}フフフ、{{delay frames=\"20\"}}ボクも　この{{ruby charSpan=\"1\" value=\"いろ\"}}色に{{delay frames=\"15\"}}\n{{ruby charSpan=\"1\" value=\"そ\"}}染まってしまいそうだ、{{delay frames=\"8\"}}{{fun_00070005 arg=\"\"}}"
  },
  {
    "label": "078",
    "text": "{{anim id=\"43\"}}{{delay frames=\"16\"}}ひとつ{{ruby charSpan=\"2\" value=\"やね\"}}屋根の{{ruby charSpan=\"1\" value=\"した\"}}下で{{ruby charSpan=\"1\" value=\"く\"}}暮らす{{delay frames=\"20\"}}\n{{fun_00080005 arg=\"\"}}{{fun_000D0005 arg=\"\"}}と{{delay frames=\"15\"}}\n{{fun_00010005 arg=\"\"}}か～{{delay frames=\"8\"}}・{{delay frames=\"8\"}}・{{delay frames=\"8\"}}・\n{{anim id=\"36\"}}ルームシェアっていうのも{{delay frames=\"15\"}}　{{ruby charSpan=\"1\" value=\"わる\"}}悪くないね{{delay frames=\"30\"}}\n{{anim id=\"38\"}}ハッハー！　{{delay frames=\"20\"}}{{ruby charSpan=\"2\" value=\"じょうだん\"}}冗談だよ"
  },
  {
    "label": "079",
    "text": "{{anim id=\"21\"}}ここにある　{{ruby charSpan=\"2\" value=\"かぐ\"}}家具は、{{delay frames=\"15\"}}\n{{fun_00080005 arg=\"\"}}{{fun_000D0005 arg=\"\"}}によって{{delay frames=\"8\"}}\n{{ruby charSpan=\"2\" value=\"げんせん\"}}厳選された{{ruby charSpan=\"1\" value=\"もの\"}}物ってことだね？"
  }
]