﻿[
  {
    "label": "001",
    "text": "{{anim id=\"9\"}}{{ruby charSpan=\"1\" value=\"わる\"}}悪いけど、{{delay frames=\"16\"}}こないだ\n{{ruby charSpan=\"1\" value=\"う\"}}埋めてもらった　{{color id=\"2\"}}タイムカプセル{{color id=\"65535\"}}{{delay frames=\"16\"}}\n{{ruby charSpan=\"1\" value=\"ほ\"}}掘り{{ruby charSpan=\"1\" value=\"だ\"}}出してきて　もらえないか？\n{{anim id=\"39\"}}{{delay frames=\"16\"}}あの{{ruby charSpan=\"1\" value=\"とき\"}}時は、ああ{{ruby charSpan=\"1\" value=\"い\"}}言ったけど{{delay frames=\"16\"}}\n{{ruby charSpan=\"2\" value=\"じぶん\"}}自分のしたことが　なんだか{{delay frames=\"16\"}}\n{{ruby charSpan=\"1\" value=\"は\"}}恥ずかしくなってきちゃって{{delay frames=\"8\"}}・{{delay frames=\"8\"}}・{{delay frames=\"8\"}}・\n{{anim id=\"23\"}}{{ruby charSpan=\"1\" value=\"う\"}}埋めた{{ruby charSpan=\"2\" value=\"ばしょ\"}}場所は　{{ruby charSpan=\"1\" value=\"おぼ\"}}覚えてるだろ？{{delay frames=\"32\"}}\n{{anim id=\"35\"}}ボクらの{{ruby charSpan=\"2\" value=\"ゆうじょう\"}}友情が　{{ruby charSpan=\"1\" value=\"ため\"}}試される{{ruby charSpan=\"1\" value=\"とき\"}}時だよ、{{delay frames=\"16\"}}\n{{fun_00080005 arg=\"\"}}{{fun_000D0005 arg=\"\"}}"
  },
  {
    "label": "002",
    "text": "{{anim id=\"16\"}}あっ、{{fun_00080005 arg=\"\"}}{{fun_000D0005 arg=\"\"}}！{{delay frames=\"32\"}}\n{{anim id=\"9\"}}やっぱり、{{ruby charSpan=\"1\" value=\"れい\"}}例の{{color id=\"2\"}}タイムカプセル{{color id=\"65535\"}}{{delay frames=\"8\"}}・{{delay frames=\"8\"}}・{{delay frames=\"8\"}}・{{delay frames=\"8\"}}\n{{ruby charSpan=\"1\" value=\"ほ\"}}掘り{{ruby charSpan=\"1\" value=\"だ\"}}出してきて　くれないか？\n{{ruby charSpan=\"1\" value=\"なや\"}}悩んだあげく、{{ruby charSpan=\"1\" value=\"き\"}}気づいたんだ！{{delay frames=\"16\"}}\nボクのしたことは、\n{{ruby charSpan=\"2\" value=\"まちが\"}}間違ってたって{{delay frames=\"8\"}}・{{delay frames=\"8\"}}・{{delay frames=\"8\"}}・{{delay frames=\"8\"}}\n{{ruby charSpan=\"1\" value=\"いま\"}}今さら　ごめんよ{{delay frames=\"8\"}}・{{delay frames=\"8\"}}・{{delay frames=\"8\"}}・{{delay frames=\"32\"}}\n{{anim id=\"6\"}}{{ruby charSpan=\"2\" value=\"ばしょ\"}}場所を{{ruby charSpan=\"1\" value=\"し\"}}知ってるのは　キミだけだ！{{delay frames=\"16\"}}\n{{anim id=\"35\"}}{{ruby charSpan=\"1\" value=\"たの\"}}頼んだよ、{{fun_00080005 arg=\"\"}}{{fun_000D0005 arg=\"\"}}"
  },
  {
    "label": "003",
    "text": "{{anim id=\"9\"}}こないだ、{{delay frames=\"16\"}}キミに\n{{ruby charSpan=\"1\" value=\"う\"}}埋めてもらった\n{{color id=\"2\"}}タイムカプセル{{color id=\"65535\"}}だけど{{delay frames=\"8\"}}・{{delay frames=\"8\"}}・{{delay frames=\"8\"}}・{{delay frames=\"8\"}}\n{{anim id=\"26\"}}{{ruby charSpan=\"1\" value=\"きゅう\"}}急に　{{ruby charSpan=\"1\" value=\"は\"}}恥ずかしくなっちゃって{{delay frames=\"16\"}}\n{{ruby charSpan=\"2\" value=\"じぶん\"}}自分で　{{ruby charSpan=\"1\" value=\"ほ\"}}掘り{{ruby charSpan=\"1\" value=\"だ\"}}出しちゃったよ、\n{{delay frames=\"8\"}}{{fun_00070005 arg=\"\"}}\n{{anim id=\"37\"}}{{ruby charSpan=\"2\" value=\"てつだ\"}}手伝ってもらったわけだし、{{delay frames=\"16\"}}\nキミには　ちゃんと{{delay frames=\"16\"}}\n{{ruby charSpan=\"2\" value=\"ほうこく\"}}報告しておこうと{{ruby charSpan=\"1\" value=\"おも\"}}思ってね！"
  },
  {
    "label": "004",
    "text": "{{anim id=\"37\"}}{{ruby charSpan=\"1\" value=\"れい\"}}例の{{color id=\"2\"}}タイムカプセル{{color id=\"65535\"}}の{{ruby charSpan=\"1\" value=\"けん\"}}件だけど、{{delay frames=\"16\"}}\nさっき{{ruby charSpan=\"2\" value=\"ぐうぜん\"}}偶然、{{delay frames=\"16\"}}{{ruby charSpan=\"2\" value=\"じぶん\"}}自分で{{ruby charSpan=\"1\" value=\"み\"}}見つけて\n{{ruby charSpan=\"1\" value=\"ほ\"}}掘り{{ruby charSpan=\"1\" value=\"だ\"}}出してしまったよ、{{delay frames=\"8\"}}{{fun_00070005 arg=\"\"}}\n{{anim id=\"9\"}}キミのこと　{{ruby charSpan=\"1\" value=\"ふ\"}}振り{{ruby charSpan=\"1\" value=\"まわ\"}}回して{{delay frames=\"16\"}}\n{{ruby charSpan=\"1\" value=\"わる\"}}悪かったと　{{ruby charSpan=\"1\" value=\"おも\"}}思ってる{{delay frames=\"8\"}}・{{delay frames=\"8\"}}・{{delay frames=\"8\"}}・{{delay frames=\"8\"}}"
  }
]