﻿[
  {
    "label": "001",
    "text": "{{ruby charSpan=\"2\" value=\"たいくつ\"}}退屈しのぎに{{delay frames=\"16\"}}\n『{{ruby charSpan=\"1\" value=\"ファイブ\"}}5ジャッジ・ゲーム』でも\nしないか？　{{delay frames=\"8\"}}{{fun_00070005 arg=\"\"}}？\n{{anim id=\"6\"}}ボクが　{{ruby charSpan=\"2\" value=\"かぐ\"}}家具の{{ruby charSpan=\"2\" value=\"なまえ\"}}名前と{{ruby charSpan=\"2\" value=\"ねだん\"}}値段を{{ruby charSpan=\"1\" value=\"い\"}}言うから{{delay frames=\"16\"}}\n{{ruby charSpan=\"2\" value=\"なっとく\"}}納得してくれたら、{{delay frames=\"8\"}}キミは\nその{{ruby charSpan=\"2\" value=\"かぐ\"}}家具を　その{{ruby charSpan=\"2\" value=\"ねだん\"}}値段で{{ruby charSpan=\"1\" value=\"か\"}}買うんだ\n{{fun_000D0007 arg=\"\"}}ジャッジするチャンスは　4{{ruby charSpan=\"1\" value=\"かい\"}}回ある{{delay frames=\"30\"}}\n{{anim id=\"23\"}}どうだい？　{{delay frames=\"8\"}}やってみないか？{{fun_00050008 arg=\"0x0300150002002800\"}}\nいいよ！\nまた{{ruby charSpan=\"2\" value=\"こんど\"}}今度ね"
  },
  {
    "label": "002",
    "text": "{{anim id=\"9\"}}{{ruby charSpan=\"2\" value=\"ざんねん\"}}残念{{delay frames=\"8\"}}・{{delay frames=\"8\"}}・{{delay frames=\"8\"}}・{{delay frames=\"32\"}}{{anim id=\"36\"}}まぁ、{{delay frames=\"8\"}}{{ruby charSpan=\"2\" value=\"きなが\"}}気長に\nキミの{{ruby charSpan=\"1\" value=\"き\"}}気が{{ruby charSpan=\"1\" value=\"か\"}}変わるのを{{delay frames=\"16\"}}\n{{ruby charSpan=\"1\" value=\"ま\"}}待っているよ、{{delay frames=\"8\"}}{{fun_00070005 arg=\"\"}}"
  },
  {
    "label": "003",
    "text": "{{anim id=\"37\"}}よし、{{delay frames=\"8\"}}それじゃあ　{{ruby charSpan=\"2\" value=\"かんたん\"}}簡単に{{delay frames=\"16\"}}\nルールを{{ruby charSpan=\"2\" value=\"せつめい\"}}説明するね、{{delay frames=\"8\"}}{{fun_00070005 arg=\"\"}}！{{fun_00010007 arg=\"\"}}\n{{anim id=\"0\"}}ココに　5つの{{ruby charSpan=\"2\" value=\"かぐ\"}}家具がある{{delay frames=\"8\"}}・{{delay frames=\"8\"}}・{{delay frames=\"8\"}}・{{delay frames=\"8\"}}\nキミは　その{{ruby charSpan=\"1\" value=\"なか\"}}中から{{delay frames=\"16\"}}\nどれか1つ　お{{ruby charSpan=\"1\" value=\"かね\"}}金を{{ruby charSpan=\"1\" value=\"だ\"}}出して{{ruby charSpan=\"1\" value=\"か\"}}買うんだ{{pageBreak}}{{ruby charSpan=\"1\" value=\"いま\"}}今から　{{ruby charSpan=\"2\" value=\"じゅんばん\"}}順番に　{{ruby charSpan=\"2\" value=\"かぐ\"}}家具の{{ruby charSpan=\"2\" value=\"なまえ\"}}名前と{{delay frames=\"8\"}}　\nその{{ruby charSpan=\"2\" value=\"ねだん\"}}値段を　コールするから、{{delay frames=\"16\"}}\nピンときたら　{{ruby charSpan=\"1\" value=\"こえ\"}}声をかけて{{ruby charSpan=\"1\" value=\"ほ\"}}欲しい\n{{anim id=\"36\"}}ただし、{{delay frames=\"8\"}}{{ruby charSpan=\"2\" value=\"さいご\"}}最後まで\n{{ruby charSpan=\"2\" value=\"はんだん\"}}判断（ジャッジ）できなかったら、{{delay frames=\"16\"}}\n5つ{{ruby charSpan=\"1\" value=\"め\"}}目を　{{ruby charSpan=\"1\" value=\"かなら\"}}必ず{{ruby charSpan=\"1\" value=\"か\"}}買ってもらうよ\n{{anim id=\"6\"}}じゃあ、{{delay frames=\"16\"}}1つ{{ruby charSpan=\"1\" value=\"め\"}}目いくよ？{{fun_00010007 arg=\"\"}}\n{{anim id=\"0\"}}{{fun_00030011 arg=\"0x0000\"}}を{{delay frames=\"8\"}}・{{delay frames=\"8\"}}・{{delay frames=\"8\"}}・{{delay frames=\"32\"}}\n{{color id=\"2\"}}{{fun_00090004 arg=\"0x0000\"}}ベル{{color id=\"65535\"}}で　{{anim id=\"23\"}}どうかな？{{fun_0008000D arg=\"0x02CD\"}}{{fun_00050008 arg=\"0x0400150005002800\"}}\n{{ruby charSpan=\"1\" value=\"か\"}}買う\n{{ruby charSpan=\"1\" value=\"か\"}}買わない"
  },
  {
    "label": "004",
    "text": "{{anim id=\"18\"}}いきなりだねっ？！{{delay frames=\"32\"}}\n{{anim id=\"36\"}}せっかちだな、{{delay frames=\"16\"}}キミは{{delay frames=\"8\"}}・{{delay frames=\"8\"}}・{{delay frames=\"8\"}}・{{delay frames=\"8\"}}"
  },
  {
    "label": "005",
    "text": "{{anim id=\"36\"}}フフフ{{delay frames=\"8\"}}・{{delay frames=\"8\"}}・{{delay frames=\"8\"}}・{{delay frames=\"8\"}}しんちょうだな～{{delay frames=\"32\"}}\nまずは　{{ruby charSpan=\"3\" value=\"ようすみ\"}}様子見ってトコかな？\n{{delay frames=\"8\"}}{{fun_00070005 arg=\"\"}}？\n{{anim id=\"6\"}}それじゃあ、{{delay frames=\"16\"}}2つ{{ruby charSpan=\"1\" value=\"め\"}}目いくよ？{{fun_00010007 arg=\"\"}}\n{{anim id=\"0\"}}{{fun_00030011 arg=\"0x0100\"}}を{{delay frames=\"8\"}}・{{delay frames=\"8\"}}・{{delay frames=\"8\"}}・{{delay frames=\"32\"}}\n{{color id=\"2\"}}{{fun_00090004 arg=\"0x0000\"}}ベル{{color id=\"65535\"}}で　{{anim id=\"23\"}}どうかな？{{fun_0008000D arg=\"0x02CD\"}}{{fun_00050008 arg=\"0x0600150007002800\"}}\n{{ruby charSpan=\"1\" value=\"か\"}}買う\n{{ruby charSpan=\"1\" value=\"か\"}}買わない"
  },
  {
    "label": "006",
    "text": "{{anim id=\"36\"}}へぇ～　{{delay frames=\"16\"}}こういうのが　\nいいんだね、{{delay frames=\"16\"}}キミは{{delay frames=\"8\"}}・{{delay frames=\"8\"}}・{{delay frames=\"8\"}}・"
  },
  {
    "label": "007",
    "text": "{{anim id=\"36\"}}どうやら　{{ruby charSpan=\"1\" value=\"なに\"}}何かこだわりが{{delay frames=\"16\"}}\nあるみたいだね、{{delay frames=\"8\"}}{{fun_00070005 arg=\"\"}}{{pageBreak}}{{anim id=\"6\"}}それじゃあ、{{delay frames=\"16\"}}3つ{{ruby charSpan=\"1\" value=\"め\"}}目いくよ？{{fun_00010007 arg=\"\"}}\n{{anim id=\"0\"}}{{fun_00030011 arg=\"0x0200\"}}を{{delay frames=\"8\"}}・{{delay frames=\"8\"}}・{{delay frames=\"8\"}}・{{delay frames=\"32\"}}\n{{color id=\"2\"}}{{fun_00090004 arg=\"0x0000\"}}ベル{{color id=\"65535\"}}で　{{anim id=\"23\"}}どうかな？{{fun_0008000D arg=\"0x02CD\"}}{{fun_00050008 arg=\"0x0800150009002800\"}}\n{{ruby charSpan=\"1\" value=\"か\"}}買う\n{{ruby charSpan=\"1\" value=\"か\"}}買わない"
  },
  {
    "label": "008",
    "text": "{{anim id=\"37\"}}なるほど、{{delay frames=\"16\"}}こういうのを\n{{ruby charSpan=\"1\" value=\"ま\"}}待ってたんだね、{{delay frames=\"8\"}}{{fun_00070005 arg=\"\"}}"
  },
  {
    "label": "009",
    "text": "{{anim id=\"36\"}}{{ruby charSpan=\"1\" value=\"なに\"}}何か　{{ruby charSpan=\"1\" value=\"つよ\"}}強いこだわりが{{delay frames=\"16\"}}\nあるみたいだけど{{delay frames=\"8\"}}・{{delay frames=\"8\"}}・{{delay frames=\"8\"}}・{{delay frames=\"32\"}}\n{{anim id=\"35\"}}もう　{{ruby charSpan=\"1\" value=\"あと\"}}後がないよ？\n{{anim id=\"37\"}}{{ruby charSpan=\"1\" value=\"つぎ\"}}次で　{{ruby charSpan=\"1\" value=\"き\"}}決めないと、{{delay frames=\"16\"}}{{ruby charSpan=\"1\" value=\"かなら\"}}必ず\n5つ{{ruby charSpan=\"1\" value=\"め\"}}目を　{{ruby charSpan=\"1\" value=\"か\"}}買ってもらうからね、\n{{delay frames=\"8\"}}{{fun_00070005 arg=\"\"}}\n{{anim id=\"6\"}}さぁ、{{delay frames=\"16\"}}4つ{{ruby charSpan=\"1\" value=\"め\"}}目いくよ？{{fun_00010007 arg=\"\"}}\n{{anim id=\"0\"}}{{fun_00030011 arg=\"0x0300\"}}を{{delay frames=\"8\"}}・{{delay frames=\"8\"}}・{{delay frames=\"8\"}}・{{delay frames=\"8\"}}\n{{color id=\"2\"}}{{fun_00090004 arg=\"0x0000\"}}ベル{{color id=\"65535\"}}で　{{anim id=\"23\"}}どうだい？{{fun_0008000D arg=\"0x02CD\"}}{{fun_00050008 arg=\"0x0A0015000D002800\"}}\n{{ruby charSpan=\"1\" value=\"か\"}}買う\n{{ruby charSpan=\"1\" value=\"か\"}}買わない"
  },
  {
    "label": "010",
    "text": "{{anim id=\"36\"}}いや～{{delay frames=\"8\"}}・{{delay frames=\"8\"}}・{{delay frames=\"8\"}}・{{delay frames=\"8\"}}スリリングな{{ruby charSpan=\"2\" value=\"てんかい\"}}展開に{{delay frames=\"16\"}}\n{{ruby charSpan=\"1\" value=\"むね\"}}胸が　{{ruby charSpan=\"1\" value=\"は\"}}張りさけそうだったよ、\n{{delay frames=\"8\"}}{{fun_00070005 arg=\"\"}}"
  },
  {
    "label": "011",
    "text": "{{anim id=\"36\"}}フフフ{{delay frames=\"8\"}}・{{delay frames=\"8\"}}・{{delay frames=\"8\"}}・{{delay frames=\"8\"}}キミは、\nチャレンジャーだな{{pageBreak}}{{anim id=\"0\"}}{{ruby charSpan=\"1\" value=\"い\"}}言っておくけど、{{ruby charSpan=\"2\" value=\"さいご\"}}最後の{{ruby charSpan=\"2\" value=\"かぐ\"}}家具は{{delay frames=\"16\"}}\nどんな{{ruby charSpan=\"2\" value=\"きんがく\"}}金額だろうと{{delay frames=\"16\"}}\n{{ruby charSpan=\"1\" value=\"かなら\"}}必ず　{{ruby charSpan=\"1\" value=\"か\"}}買ってもらうからね\n{{anim id=\"6\"}}さぁ、{{delay frames=\"8\"}}{{ruby charSpan=\"2\" value=\"さいご\"}}最後の{{ruby charSpan=\"2\" value=\"はっぴょう\"}}発表だ！{{delay frames=\"32\"}}\n{{fun_00030011 arg=\"0x0400\"}}を{{delay frames=\"8\"}}・{{delay frames=\"8\"}}・{{delay frames=\"8\"}}・{{delay frames=\"8\"}}\n{{color id=\"2\"}}{{fun_00090004 arg=\"0x0000\"}}ベル{{color id=\"65535\"}}で！！"
  },
  {
    "label": "012",
    "text": "{{anim id=\"36\"}}フフフ{{delay frames=\"8\"}}・{{delay frames=\"8\"}}・{{delay frames=\"8\"}}・{{delay frames=\"8\"}}キミは、\nチャレンジャーだな{{pageBreak}}{{anim id=\"0\"}}{{ruby charSpan=\"1\" value=\"い\"}}言っておくけど、{{ruby charSpan=\"2\" value=\"さいご\"}}最後の{{ruby charSpan=\"2\" value=\"かぐ\"}}家具は{{delay frames=\"16\"}}\nどんな{{ruby charSpan=\"2\" value=\"きんがく\"}}金額だろうと{{delay frames=\"16\"}}\n{{ruby charSpan=\"1\" value=\"かなら\"}}必ず　{{ruby charSpan=\"1\" value=\"か\"}}買ってもらうからね\n{{anim id=\"6\"}}さぁ、{{delay frames=\"8\"}}{{ruby charSpan=\"2\" value=\"さいご\"}}最後の{{ruby charSpan=\"2\" value=\"はっぴょう\"}}発表だ！{{delay frames=\"32\"}}\n{{fun_00030011 arg=\"0x0400\"}}を{{delay frames=\"8\"}}・{{delay frames=\"8\"}}・{{delay frames=\"8\"}}・{{delay frames=\"8\"}}\n{{color id=\"2\"}}{{fun_00090004 arg=\"0x0000\"}}ベル{{color id=\"65535\"}}で！！"
  },
  {
    "label": "013",
    "text": "{{fun_00030009 arg=\"0x0B000B000B000B000C00\"}}"
  },
  {
    "label": "014",
    "text": "{{anim id=\"9\"}}すぐに　{{ruby charSpan=\"1\" value=\"お\"}}終わっちゃったけど{{delay frames=\"8\"}}・{{delay frames=\"8\"}}・{{delay frames=\"8\"}}・{{delay frames=\"32\"}}\n{{anim id=\"35\"}}キミは　{{ruby charSpan=\"2\" value=\"うんめい\"}}運命の{{ruby charSpan=\"2\" value=\"であ\"}}出会いをしたんだろ？{{pageBreak}}{{anim id=\"37\"}}そういうことなら{{delay frames=\"8\"}}　{{ruby charSpan=\"2\" value=\"しかた\"}}仕方ないよね、\n{{delay frames=\"8\"}}{{fun_00070005 arg=\"\"}}"
  },
  {
    "label": "015",
    "text": "{{anim id=\"9\"}}{{ruby charSpan=\"1\" value=\"ほか\"}}他にも　{{ruby charSpan=\"2\" value=\"いろいろ\"}}色々あったんだけどね{{delay frames=\"8\"}}・{{delay frames=\"8\"}}・{{delay frames=\"8\"}}・{{delay frames=\"32\"}}\n{{anim id=\"36\"}}ま、{{delay frames=\"8\"}}それを{{ruby charSpan=\"1\" value=\"い\"}}言ったら{{delay frames=\"16\"}}\nいいジャッジ　できないよね？"
  },
  {
    "label": "016",
    "text": "{{anim id=\"6\"}}いいタイミングで　{{delay frames=\"8\"}}\nジャッジできる　キミは{{delay frames=\"32\"}}\n{{anim id=\"35\"}}リーダータイプかもしれないね？"
  },
  {
    "label": "017",
    "text": "{{anim id=\"23\"}}{{ruby charSpan=\"2\" value=\"こうかい\"}}後悔は　してない？{{fun_00010007 arg=\"\"}}\n{{anim id=\"36\"}}それなら　いいんだけれどね{{delay frames=\"8\"}}・{{delay frames=\"8\"}}・{{delay frames=\"8\"}}・{{delay frames=\"8\"}}"
  },
  {
    "label": "018",
    "text": "{{anim id=\"9\"}}{{ruby charSpan=\"2\" value=\"さいご\"}}最後は、{{delay frames=\"8\"}}この{{ruby charSpan=\"2\" value=\"ねだん\"}}値段って{{ruby charSpan=\"1\" value=\"き\"}}決めてたんだ{{delay frames=\"32\"}}\n{{ruby charSpan=\"1\" value=\"わる\"}}悪く　{{ruby charSpan=\"1\" value=\"おも\"}}思わないでくれよ、\n{{delay frames=\"8\"}}{{fun_00070005 arg=\"\"}}\n{{anim id=\"6\"}}でも、さっきの　キミ{{delay frames=\"8\"}}・{{delay frames=\"8\"}}・{{delay frames=\"8\"}}・{{delay frames=\"32\"}}\n{{anim id=\"35\"}}{{ruby charSpan=\"3\" value=\"じょうねつてき\"}}情熱的で　ステキだったよ"
  },
  {
    "label": "019",
    "text": "{{anim id=\"35\"}}よく{{ruby charSpan=\"1\" value=\"い\"}}言うだろ？{{delay frames=\"32\"}}\n「{{ruby charSpan=\"1\" value=\"のこ\"}}残り{{ruby charSpan=\"1\" value=\"もの\"}}物には　{{ruby charSpan=\"1\" value=\"ふく\"}}福あり」ってね{{delay frames=\"32\"}}\nサービスだよ\n{{anim id=\"37\"}}{{ruby charSpan=\"3\" value=\"けっかてき\"}}結果的には、{{delay frames=\"8\"}}いいジャッジだったね？{{delay frames=\"32\"}}\n{{fun_00030011 arg=\"0x0400\"}}のこと{{delay frames=\"16\"}}\n{{ruby charSpan=\"1\" value=\"たの\"}}頼んだよ、{{delay frames=\"8\"}}{{fun_00070005 arg=\"\"}}"
  }
]