﻿[
  {
    "label": "001",
    "text": "Tu m'as envoyé un chouette\ncadeau, dis donc !\n"
  },
  {
    "label": "002",
    "text": "J'ai reçu un cadeau de ta\npart, c'est bien pour moi ?\n"
  },
  {
    "label": "003",
    "text": "Trop cool, le cadeau que tu\nm'as envoyé. Cimer !\n"
  },
  {
    "label": "004",
    "text": "Merci pour le cadeau ! Il est\narrivé sans égratignures...\n"
  },
  {
    "label": "005",
    "text": "Recevoir des lettres et des\ncadeaux, j'adore. Continue !\n"
  }
]