﻿[
  {
    "label": "00",
    "text": "미소짓는 개인기"
  },
  {
    "label": "01",
    "text": "웃는 개인기"
  },
  {
    "label": "02",
    "text": "해피한 개인기"
  },
  {
    "label": "03",
    "text": "러브 개인기"
  },
  {
    "label": "04",
    "text": "신바람난 개인기"
  },
  {
    "label": "05",
    "text": "저기압 개인기"
  },
  {
    "label": "06",
    "text": "버럭하는 개인기"
  },
  {
    "label": "07",
    "text": "격분하는 개인기"
  },
  {
    "label": "08",
    "text": "곤란해하는 개인기"
  },
  {
    "label": "09",
    "text": "한숨쉬는 개인기"
  },
  {
    "label": "10",
    "text": "고민하는 개인기"
  },
  {
    "label": "11",
    "text": "실망하는 개인기"
  },
  {
    "label": "12",
    "text": "당황해하는 개인기"
  },
  {
    "label": "13",
    "text": "우는 개인기"
  },
  {
    "label": "14",
    "text": ""
  },
  {
    "label": "15",
    "text": "아하!하는 개인기"
  },
  {
    "label": "16",
    "text": "허걱!하는 개인기"
  },
  {
    "label": "17",
    "text": "뜨악!하는 개인기"
  },
  {
    "label": "18",
    "text": "씁쓸해하는 개인기"
  },
  {
    "label": "19",
    "text": "덜덜떠는 개인기"
  },
  {
    "label": "20",
    "text": "끄덕끄덕 개인기"
  },
  {
    "label": "21",
    "text": "번뜩이는 개인기"
  },
  {
    "label": "22",
    "text": "응?하는 개인기"
  },
  {
    "label": "23",
    "text": "실연당한 개인기"
  },
  {
    "label": "24",
    "text": "하품하는 개인기"
  },
  {
    "label": "25",
    "text": "부끄럼타는 개인기"
  },
  {
    "label": "26",
    "text": "나참・・・하는 개인기"
  },
  {
    "label": "27",
    "text": "꿍꿍이 개인기"
  },
  {
    "label": "28",
    "text": "박수치는 개인기"
  },
  {
    "label": "29",
    "text": "재채기 개인기"
  },
  {
    "label": "30",
    "text": ""
  },
  {
    "label": "31",
    "text": "안녕!하는 개인기"
  },
  {
    "label": "32",
    "text": "잘난체하는 개인기"
  },
  {
    "label": "33",
    "text": ""
  },
  {
    "label": "34",
    "text": ""
  },
  {
    "label": "35",
    "text": "쓴웃음짓는 개인기"
  },
  {
    "label": "36",
    "text": ""
  },
  {
    "label": "37",
    "text": "활짝웃는 개인기"
  },
  {
    "label": "38",
    "text": "머뭇거리는 개인기"
  },
  {
    "label": "39",
    "text": "절레절레 개인기"
  },
  {
    "label": "40",
    "text": "아차!하는 개인기"
  },
  {
    "label": "41",
    "text": "춤추는 개인기"
  },
  {
    "label": "42",
    "text": "상상하는 개인기"
  },
  {
    "label": "43",
    "text": "짜잔!하는 개인기"
  },
  {
    "label": "44",
    "text": ""
  },
  {
    "label": "45",
    "text": "스페셜한 개인기"
  }
]