﻿[
  {
    "label": "000",
    "text": "알바니아"
  },
  {
    "label": "001",
    "text": "티라나 주"
  },
  {
    "label": "002",
    "text": "베라트 주"
  },
  {
    "label": "003",
    "text": "디브라 주"
  },
  {
    "label": "004",
    "text": "두러스 주"
  },
  {
    "label": "005",
    "text": "엘바산 주"
  },
  {
    "label": "006",
    "text": "피에르 주"
  },
  {
    "label": "007",
    "text": "지로카스터르 주"
  },
  {
    "label": "008",
    "text": "코르처 주"
  },
  {
    "label": "009",
    "text": "쿠커스 주"
  },
  {
    "label": "010",
    "text": "레저 주"
  },
  {
    "label": "011",
    "text": "슈코더르 주"
  },
  {
    "label": "012",
    "text": "블로러 주"
  },
  {
    "label": "013",
    "text": "오스트리아"
  },
  {
    "label": "014",
    "text": "빈"
  },
  {
    "label": "015",
    "text": "부르겐란트 주"
  },
  {
    "label": "016",
    "text": "케른텐 주"
  },
  {
    "label": "017",
    "text": "니더외스터라이히 주"
  },
  {
    "label": "018",
    "text": "오버외스터라이히 주"
  },
  {
    "label": "019",
    "text": "잘츠부르크 주"
  },
  {
    "label": "020",
    "text": "슈타이어마르크 주"
  },
  {
    "label": "021",
    "text": "티롤 주"
  },
  {
    "label": "022",
    "text": "포어아를베르크 주"
  },
  {
    "label": "023",
    "text": "벨기에"
  },
  {
    "label": "024",
    "text": "브뤼셀 지역"
  },
  {
    "label": "025",
    "text": "플랑드르 지역"
  },
  {
    "label": "026",
    "text": "왈롱 지역"
  },
  {
    "label": "027",
    "text": "보스니아헤르체고비나"
  },
  {
    "label": "028",
    "text": "보스니아헤르체고비나 연방"
  },
  {
    "label": "029",
    "text": "스릅스카 공화국"
  },
  {
    "label": "030",
    "text": "브르치코"
  },
  {
    "label": "031",
    "text": "보츠와나"
  },
  {
    "label": "032",
    "text": "불가리아"
  },
  {
    "label": "033",
    "text": "소피아"
  },
  {
    "label": "034",
    "text": "소피아 주"
  },
  {
    "label": "035",
    "text": "블라고예브그라드 주"
  },
  {
    "label": "036",
    "text": "플레벤 주"
  },
  {
    "label": "037",
    "text": "비딘 주"
  },
  {
    "label": "038",
    "text": "바르나 주"
  },
  {
    "label": "039",
    "text": "부르가스 주"
  },
  {
    "label": "040",
    "text": "도브리치 주"
  },
  {
    "label": "041",
    "text": "가브로보 주"
  },
  {
    "label": "042",
    "text": "하스코보 주"
  },
  {
    "label": "043",
    "text": "얌볼 주"
  },
  {
    "label": "044",
    "text": "쿠르잘리 주"
  },
  {
    "label": "045",
    "text": "큐스텐딜 주"
  },
  {
    "label": "046",
    "text": "로베치 주"
  },
  {
    "label": "047",
    "text": "몬타나 주"
  },
  {
    "label": "048",
    "text": "파자르지크 주"
  },
  {
    "label": "049",
    "text": "페르니크 주"
  },
  {
    "label": "050",
    "text": "플로브디브 주"
  },
  {
    "label": "051",
    "text": "라즈그라드 주"
  },
  {
    "label": "052",
    "text": "루세 주"
  },
  {
    "label": "053",
    "text": "실리스트라 주"
  },
  {
    "label": "054",
    "text": "슬리벤 주"
  },
  {
    "label": "055",
    "text": "스몰랸 주"
  },
  {
    "label": "056",
    "text": "스타라자고라 주"
  },
  {
    "label": "057",
    "text": "슈멘 주"
  },
  {
    "label": "058",
    "text": "투르고비슈테 주"
  },
  {
    "label": "059",
    "text": "벨리코투르노보 주"
  },
  {
    "label": "060",
    "text": "브라차 주"
  },
  {
    "label": "061",
    "text": "크로아티아"
  },
  {
    "label": "062",
    "text": "자그레브"
  },
  {
    "label": "063",
    "text": "벨로바르-빌로고라 군"
  },
  {
    "label": "064",
    "text": "브로드-포사비나 군"
  },
  {
    "label": "065",
    "text": "두브로브니크-네레트바 군"
  },
  {
    "label": "066",
    "text": "이스트라 군"
  },
  {
    "label": "067",
    "text": "카를로바츠 군"
  },
  {
    "label": "068",
    "text": "코프리브니차-크리제브치 군"
  },
  {
    "label": "069",
    "text": "크라피나-자고례 군"
  },
  {
    "label": "070",
    "text": "리카-센 군"
  },
  {
    "label": "071",
    "text": "메지무례 군"
  },
  {
    "label": "072",
    "text": "오시예크-바라냐 군"
  },
  {
    "label": "073",
    "text": "포제가-슬라보니아 군"
  },
  {
    "label": "074",
    "text": "프리모례-고르스키코타르 군"
  },
  {
    "label": "075",
    "text": "시사크-모슬라비나 군"
  },
  {
    "label": "076",
    "text": "스플리트-달마티아 군"
  },
  {
    "label": "077",
    "text": "시베니크-크닌 군"
  },
  {
    "label": "078",
    "text": "바라주딘 군"
  },
  {
    "label": "079",
    "text": "비로비티차-포드라비나 군"
  },
  {
    "label": "080",
    "text": "부코바르-시르미아 군"
  },
  {
    "label": "081",
    "text": "자다르 군"
  },
  {
    "label": "082",
    "text": "자그레브 군"
  },
  {
    "label": "083",
    "text": "키프로스"
  },
  {
    "label": "084",
    "text": "체코"
  },
  {
    "label": "085",
    "text": "프라하"
  },
  {
    "label": "086",
    "text": "스트르제도체스키 지방"
  },
  {
    "label": "087",
    "text": "이호체스키 지방"
  },
  {
    "label": "088",
    "text": "플젠 지방"
  },
  {
    "label": "089",
    "text": "카를로비바리 지방"
  },
  {
    "label": "090",
    "text": "우스티나트라벰 지방"
  },
  {
    "label": "091",
    "text": "리베레츠 지방"
  },
  {
    "label": "092",
    "text": "흐라데츠크랄로베 지방"
  },
  {
    "label": "093",
    "text": "파르두비체 지방"
  },
  {
    "label": "094",
    "text": "올로모우츠 지방"
  },
  {
    "label": "095",
    "text": "모라비아실레지아 지방"
  },
  {
    "label": "096",
    "text": "이호모라프스키 지방"
  },
  {
    "label": "097",
    "text": "즐린 지방"
  },
  {
    "label": "098",
    "text": "비소치나 지방"
  },
  {
    "label": "099",
    "text": "덴마크"
  },
  {
    "label": "100",
    "text": "그린란드"
  },
  {
    "label": "101",
    "text": "덴마크 수도권 지역"
  },
  {
    "label": "102",
    "text": "중부 덴마크 지역"
  },
  {
    "label": "103",
    "text": "북부 덴마크 지역"
  },
  {
    "label": "104",
    "text": "셸란 지역"
  },
  {
    "label": "105",
    "text": "남부 덴마크 지역"
  },
  {
    "label": "106",
    "text": "페로 제도"
  },
  {
    "label": "107",
    "text": "에스토니아"
  },
  {
    "label": "108",
    "text": "핀란드"
  },
  {
    "label": "109",
    "text": "우시마 주"
  },
  {
    "label": "110",
    "text": "라피 주"
  },
  {
    "label": "111",
    "text": "북오스트로보트니아 주"
  },
  {
    "label": "112",
    "text": "카이누 주"
  },
  {
    "label": "113",
    "text": "북카렐리아 주"
  },
  {
    "label": "114",
    "text": "북사보 주"
  },
  {
    "label": "115",
    "text": "남사보 주"
  },
  {
    "label": "116",
    "text": "남오스트로보트니아 주"
  },
  {
    "label": "117",
    "text": "오스트로보트니아 주"
  },
  {
    "label": "118",
    "text": "피르칸마 주"
  },
  {
    "label": "119",
    "text": "사타쿤타 주"
  },
  {
    "label": "120",
    "text": "중앙오스트로보트니아 주"
  },
  {
    "label": "121",
    "text": "케스키수오미 주"
  },
  {
    "label": "122",
    "text": "바르시나이스수오미 주"
  },
  {
    "label": "123",
    "text": "남카렐리아 주"
  },
  {
    "label": "124",
    "text": "파이얏하메 주"
  },
  {
    "label": "125",
    "text": "칸타하메 주"
  },
  {
    "label": "126",
    "text": "동우시마 주"
  },
  {
    "label": "127",
    "text": "퀴멘락소 주"
  },
  {
    "label": "128",
    "text": "아베난마 주"
  },
  {
    "label": "129",
    "text": "프랑스"
  },
  {
    "label": "130",
    "text": "일드프랑스"
  },
  {
    "label": "131",
    "text": "알자스"
  },
  {
    "label": "132",
    "text": "아키텐"
  },
  {
    "label": "133",
    "text": "오베르뉴"
  },
  {
    "label": "134",
    "text": "바스노르망디"
  },
  {
    "label": "135",
    "text": "부르고뉴"
  },
  {
    "label": "136",
    "text": "브르타뉴"
  },
  {
    "label": "137",
    "text": "상트르"
  },
  {
    "label": "138",
    "text": "샹파뉴아르덴"
  },
  {
    "label": "139",
    "text": "코르스"
  },
  {
    "label": "140",
    "text": "프랑슈콩테"
  },
  {
    "label": "141",
    "text": "오트노르망디"
  },
  {
    "label": "142",
    "text": "랑그도크루시용"
  },
  {
    "label": "143",
    "text": "리무쟁"
  },
  {
    "label": "144",
    "text": "로렌"
  },
  {
    "label": "145",
    "text": "미디피레네"
  },
  {
    "label": "146",
    "text": "노르파드칼레"
  },
  {
    "label": "147",
    "text": "페이드라루아르"
  },
  {
    "label": "148",
    "text": "피카르디"
  },
  {
    "label": "149",
    "text": "푸아투샤랑트"
  },
  {
    "label": "150",
    "text": "프로방스알프코트다쥐르"
  },
  {
    "label": "151",
    "text": "론알프"
  },
  {
    "label": "152",
    "text": "과들루프"
  },
  {
    "label": "153",
    "text": "마르티니크"
  },
  {
    "label": "154",
    "text": "프랑스령 기아나"
  },
  {
    "label": "155",
    "text": "레위니옹"
  },
  {
    "label": "156",
    "text": "독일"
  },
  {
    "label": "157",
    "text": "베를린"
  },
  {
    "label": "158",
    "text": "헤센 주"
  },
  {
    "label": "159",
    "text": "바덴뷔르템베르크 주"
  },
  {
    "label": "160",
    "text": "바이에른 주"
  },
  {
    "label": "161",
    "text": "브란덴부르크 주"
  },
  {
    "label": "162",
    "text": "브레멘 주"
  },
  {
    "label": "163",
    "text": "함부르크 주"
  },
  {
    "label": "164",
    "text": "메클렌부르크포어포메른 주"
  },
  {
    "label": "165",
    "text": "니더작센 주"
  },
  {
    "label": "166",
    "text": "노르트라인베스트팔렌 주"
  },
  {
    "label": "167",
    "text": "라인란트팔츠 주"
  },
  {
    "label": "168",
    "text": "자를란트 주"
  },
  {
    "label": "169",
    "text": "작센 주"
  },
  {
    "label": "170",
    "text": "작센안할트 주"
  },
  {
    "label": "171",
    "text": "슐레스비히홀슈타인 주"
  },
  {
    "label": "172",
    "text": "튀링겐 주"
  },
  {
    "label": "173",
    "text": "그리스"
  },
  {
    "label": "174",
    "text": "아티카"
  },
  {
    "label": "175",
    "text": "중부 그리스"
  },
  {
    "label": "176",
    "text": "중부 마케도니아"
  },
  {
    "label": "177",
    "text": "크레타"
  },
  {
    "label": "178",
    "text": "동부 마케도니아트라키아"
  },
  {
    "label": "179",
    "text": "에피루스"
  },
  {
    "label": "180",
    "text": "이오니아 제도"
  },
  {
    "label": "181",
    "text": "북부 에게"
  },
  {
    "label": "182",
    "text": "펠로폰네소스"
  },
  {
    "label": "183",
    "text": "남부 에게"
  },
  {
    "label": "184",
    "text": "테살리아"
  },
  {
    "label": "185",
    "text": "서부 그리스"
  },
  {
    "label": "186",
    "text": "서부 마케도니아"
  },
  {
    "label": "187",
    "text": "헝가리"
  },
  {
    "label": "188",
    "text": "부다페스트"
  },
  {
    "label": "189",
    "text": "바치키슈쿤 주"
  },
  {
    "label": "190",
    "text": "버러녀 주"
  },
  {
    "label": "191",
    "text": "베케시 주"
  },
  {
    "label": "192",
    "text": "보르쇼드어버우이젬플렌 주"
  },
  {
    "label": "193",
    "text": "촌그라드 주"
  },
  {
    "label": "194",
    "text": "페예르 주"
  },
  {
    "label": "195",
    "text": "죄르모숀쇼프론 주"
  },
  {
    "label": "196",
    "text": "허이두 비허르 주"
  },
  {
    "label": "197",
    "text": "헤베시 주"
  },
  {
    "label": "198",
    "text": "야스너지쿤솔노크 주"
  },
  {
    "label": "199",
    "text": "코마롬에스테르곰 주"
  },
  {
    "label": "200",
    "text": "노그라드 주"
  },
  {
    "label": "201",
    "text": "페슈트 주"
  },
  {
    "label": "202",
    "text": "쇼모지 주"
  },
  {
    "label": "203",
    "text": "서볼츠서트마르베레그 주"
  },
  {
    "label": "204",
    "text": "톨너 주"
  },
  {
    "label": "205",
    "text": "버시 주"
  },
  {
    "label": "206",
    "text": "베스프렘 주"
  },
  {
    "label": "207",
    "text": "절러 주"
  },
  {
    "label": "208",
    "text": "아이슬란드"
  },
  {
    "label": "209",
    "text": "아일랜드"
  },
  {
    "label": "210",
    "text": "더블린"
  },
  {
    "label": "211",
    "text": "칼로우 주"
  },
  {
    "label": "212",
    "text": "캐번 주"
  },
  {
    "label": "213",
    "text": "클레어 주"
  },
  {
    "label": "214",
    "text": "코크 주"
  },
  {
    "label": "215",
    "text": "도니골 주"
  },
  {
    "label": "216",
    "text": "골웨이 주"
  },
  {
    "label": "217",
    "text": "케리 주"
  },
  {
    "label": "218",
    "text": "킬데어 주"
  },
  {
    "label": "219",
    "text": "킬케니 주"
  },
  {
    "label": "220",
    "text": "리시 주"
  },
  {
    "label": "221",
    "text": "리트림 주"
  },
  {
    "label": "222",
    "text": "리머릭 주"
  },
  {
    "label": "223",
    "text": "롱퍼드 주"
  },
  {
    "label": "224",
    "text": "라우스 주"
  },
  {
    "label": "225",
    "text": "메이오 주"
  },
  {
    "label": "226",
    "text": "미스 주"
  },
  {
    "label": "227",
    "text": "모너핸 주"
  },
  {
    "label": "228",
    "text": "오펄리 주"
  },
  {
    "label": "229",
    "text": "로스코먼 주"
  },
  {
    "label": "230",
    "text": "슬라이고 주"
  },
  {
    "label": "231",
    "text": "티퍼레리 주"
  },
  {
    "label": "232",
    "text": "워터퍼드 주"
  },
  {
    "label": "233",
    "text": "웨스트미스 주"
  },
  {
    "label": "234",
    "text": "웩스퍼드 주"
  },
  {
    "label": "235",
    "text": "위클로 주"
  },
  {
    "label": "236",
    "text": "이탈리아"
  },
  {
    "label": "237",
    "text": "라치오 주"
  },
  {
    "label": "238",
    "text": "발레다오스타 주"
  },
  {
    "label": "239",
    "text": "피에몬테 주"
  },
  {
    "label": "240",
    "text": "리구리아 주"
  },
  {
    "label": "241",
    "text": "롬바르디아 주"
  },
  {
    "label": "242",
    "text": "트렌티노알토아디제 주"
  },
  {
    "label": "243",
    "text": "베네토 주"
  },
  {
    "label": "244",
    "text": "프리울리베네치아줄리아 주"
  },
  {
    "label": "245",
    "text": "에밀리아로마냐 주"
  },
  {
    "label": "246",
    "text": "토스카나 주"
  },
  {
    "label": "247",
    "text": "움브리아 주"
  },
  {
    "label": "248",
    "text": "마르케 주"
  },
  {
    "label": "249",
    "text": "아브루초 주"
  },
  {
    "label": "250",
    "text": "몰리세 주"
  },
  {
    "label": "251",
    "text": "캄파니아 주"
  },
  {
    "label": "252",
    "text": "풀리아 주"
  },
  {
    "label": "253",
    "text": "바실리카타 주"
  },
  {
    "label": "254",
    "text": "칼라브리아 주"
  },
  {
    "label": "255",
    "text": "시칠리아 주"
  },
  {
    "label": "256",
    "text": "사르데냐 주"
  },
  {
    "label": "257",
    "text": "라트비아"
  },
  {
    "label": "258",
    "text": "레소토"
  },
  {
    "label": "259",
    "text": "마세루 주"
  },
  {
    "label": "260",
    "text": "베레아 주"
  },
  {
    "label": "261",
    "text": "부타부테 주"
  },
  {
    "label": "262",
    "text": "레리베 주"
  },
  {
    "label": "263",
    "text": "마페텡 주"
  },
  {
    "label": "264",
    "text": "모할레스후크 주"
  },
  {
    "label": "265",
    "text": "모코틀롱 주"
  },
  {
    "label": "266",
    "text": "카차스넥 주"
  },
  {
    "label": "267",
    "text": "쿠팅 주"
  },
  {
    "label": "268",
    "text": "타바체카 주"
  },
  {
    "label": "269",
    "text": "리히텐슈타인"
  },
  {
    "label": "270",
    "text": "리투아니아"
  },
  {
    "label": "271",
    "text": "빌뉴스 주"
  },
  {
    "label": "272",
    "text": "알리투스 주"
  },
  {
    "label": "273",
    "text": "카우나스 주"
  },
  {
    "label": "274",
    "text": "클라이페다 주"
  },
  {
    "label": "275",
    "text": "마리얌폴레 주"
  },
  {
    "label": "276",
    "text": "파네베지스 주"
  },
  {
    "label": "277",
    "text": "샤울랴이 주"
  },
  {
    "label": "278",
    "text": "타우라게 주"
  },
  {
    "label": "279",
    "text": "텔샤이 주"
  },
  {
    "label": "280",
    "text": "우테나 주"
  },
  {
    "label": "281",
    "text": "룩셈부르크"
  },
  {
    "label": "282",
    "text": "마케도니아 공화국"
  },
  {
    "label": "283",
    "text": "몰타"
  },
  {
    "label": "284",
    "text": "몬테네그로"
  },
  {
    "label": "285",
    "text": "모잠비크"
  },
  {
    "label": "286",
    "text": "나미비아"
  },
  {
    "label": "287",
    "text": "네덜란드"
  },
  {
    "label": "288",
    "text": "노르트홀란트 주"
  },
  {
    "label": "289",
    "text": "드렌터 주"
  },
  {
    "label": "290",
    "text": "플레볼란트 주"
  },
  {
    "label": "291",
    "text": "프리슬란트 주"
  },
  {
    "label": "292",
    "text": "헬데를란트 주"
  },
  {
    "label": "293",
    "text": "흐로닝언 주"
  },
  {
    "label": "294",
    "text": "림뷔르흐 주"
  },
  {
    "label": "295",
    "text": "노르트브라반트 주"
  },
  {
    "label": "296",
    "text": "오버레이설 주"
  },
  {
    "label": "297",
    "text": "자위트홀란트 주"
  },
  {
    "label": "298",
    "text": "위트레흐트 주"
  },
  {
    "label": "299",
    "text": "제일란트 주"
  },
  {
    "label": "300",
    "text": "노르웨이"
  },
  {
    "label": "301",
    "text": "오슬로"
  },
  {
    "label": "302",
    "text": "아케르스후스 주"
  },
  {
    "label": "303",
    "text": "에우스트아그데르 주"
  },
  {
    "label": "304",
    "text": "부스케루 주"
  },
  {
    "label": "305",
    "text": "핀마르크 주"
  },
  {
    "label": "306",
    "text": "헤드마르크 주"
  },
  {
    "label": "307",
    "text": "호르달란 주"
  },
  {
    "label": "308",
    "text": "뫼레오그롬스달 주"
  },
  {
    "label": "309",
    "text": "노를란 주"
  },
  {
    "label": "310",
    "text": "노르트뢰넬라그 주"
  },
  {
    "label": "311",
    "text": "오플란 주"
  },
  {
    "label": "312",
    "text": "로갈란 주"
  },
  {
    "label": "313",
    "text": "송노피오라네 주"
  },
  {
    "label": "314",
    "text": "쇠르트뢰넬라그 주"
  },
  {
    "label": "315",
    "text": "텔레마르크 주"
  },
  {
    "label": "316",
    "text": "트롬스 주"
  },
  {
    "label": "317",
    "text": "베스트아그데르 주"
  },
  {
    "label": "318",
    "text": "베스트폴 주"
  },
  {
    "label": "319",
    "text": "외스트폴 주"
  },
  {
    "label": "320",
    "text": "스발바르 제도"
  },
  {
    "label": "321",
    "text": "폴란드"
  },
  {
    "label": "322",
    "text": "마조프셰"
  },
  {
    "label": "323",
    "text": "하슐레지엔"
  },
  {
    "label": "324",
    "text": "쿠야비아포메라니아"
  },
  {
    "label": "325",
    "text": "우치"
  },
  {
    "label": "326",
    "text": "루블린"
  },
  {
    "label": "327",
    "text": "루부쉬"
  },
  {
    "label": "328",
    "text": "소폴란드"
  },
  {
    "label": "329",
    "text": "오폴레"
  },
  {
    "label": "330",
    "text": "카르파티아"
  },
  {
    "label": "331",
    "text": "포들라셰"
  },
  {
    "label": "332",
    "text": "포메라니아"
  },
  {
    "label": "333",
    "text": "슐레지엔"
  },
  {
    "label": "334",
    "text": "시비엥토크시스키에"
  },
  {
    "label": "335",
    "text": "바르미아 마수리아"
  },
  {
    "label": "336",
    "text": "대폴란드"
  },
  {
    "label": "337",
    "text": "서포메라니아"
  },
  {
    "label": "338",
    "text": "포르투갈"
  },
  {
    "label": "339",
    "text": "리스보아 주"
  },
  {
    "label": "340",
    "text": "마데이라 주"
  },
  {
    "label": "341",
    "text": "아소르스 주"
  },
  {
    "label": "342",
    "text": "아베이루 주"
  },
  {
    "label": "343",
    "text": "베자 주"
  },
  {
    "label": "344",
    "text": "브라가 주"
  },
  {
    "label": "345",
    "text": "브라간사 주"
  },
  {
    "label": "346",
    "text": "카스텔루브랑쿠 주"
  },
  {
    "label": "347",
    "text": "코임브라 주"
  },
  {
    "label": "348",
    "text": "에보라 주"
  },
  {
    "label": "349",
    "text": "파로 주"
  },
  {
    "label": "350",
    "text": "구아르다 주"
  },
  {
    "label": "351",
    "text": "레이리아 주"
  },
  {
    "label": "352",
    "text": "포르탈레그르 주"
  },
  {
    "label": "353",
    "text": "포르투 주"
  },
  {
    "label": "354",
    "text": "산타렝 주"
  },
  {
    "label": "355",
    "text": "세투발 주"
  },
  {
    "label": "356",
    "text": "비아나두카스텔루 주"
  },
  {
    "label": "357",
    "text": "빌라헤알 주"
  },
  {
    "label": "358",
    "text": "비제우 주"
  },
  {
    "label": "359",
    "text": "루마니아"
  },
  {
    "label": "360",
    "text": "부쿠레슈티 주"
  },
  {
    "label": "361",
    "text": "알바 주"
  },
  {
    "label": "362",
    "text": "아라드 주"
  },
  {
    "label": "363",
    "text": "아르제슈 주"
  },
  {
    "label": "364",
    "text": "바커우 주"
  },
  {
    "label": "365",
    "text": "비호르 주"
  },
  {
    "label": "366",
    "text": "비스트리차너서우드 주"
  },
  {
    "label": "367",
    "text": "보토샤니 주"
  },
  {
    "label": "368",
    "text": "브러일라 주"
  },
  {
    "label": "369",
    "text": "브라쇼브 주"
  },
  {
    "label": "370",
    "text": "부저우 주"
  },
  {
    "label": "371",
    "text": "컬러라시 주"
  },
  {
    "label": "372",
    "text": "카라슈세베린 주"
  },
  {
    "label": "373",
    "text": "클루지 주"
  },
  {
    "label": "374",
    "text": "콘스탄차 주"
  },
  {
    "label": "375",
    "text": "코바스나 주"
  },
  {
    "label": "376",
    "text": "듬보비차 주"
  },
  {
    "label": "377",
    "text": "돌지 주"
  },
  {
    "label": "378",
    "text": "갈라치 주"
  },
  {
    "label": "379",
    "text": "지우르지우 주"
  },
  {
    "label": "380",
    "text": "고르지 주"
  },
  {
    "label": "381",
    "text": "하르기타 주"
  },
  {
    "label": "382",
    "text": "후네도아라 주"
  },
  {
    "label": "383",
    "text": "이알로미차 주"
  },
  {
    "label": "384",
    "text": "이아시 주"
  },
  {
    "label": "385",
    "text": "일포브 주"
  },
  {
    "label": "386",
    "text": "마라무레슈 주"
  },
  {
    "label": "387",
    "text": "메헤딘치 주"
  },
  {
    "label": "388",
    "text": "무레슈 주"
  },
  {
    "label": "389",
    "text": "네암츠 주"
  },
  {
    "label": "390",
    "text": "올트 주"
  },
  {
    "label": "391",
    "text": "프라호바 주"
  },
  {
    "label": "392",
    "text": "설라지 주"
  },
  {
    "label": "393",
    "text": "사투마레 주"
  },
  {
    "label": "394",
    "text": "시비우 주"
  },
  {
    "label": "395",
    "text": "수체아바 주"
  },
  {
    "label": "396",
    "text": "텔레오르만 주"
  },
  {
    "label": "397",
    "text": "티미슈 주"
  },
  {
    "label": "398",
    "text": "툴체아 주"
  },
  {
    "label": "399",
    "text": "블체아 주"
  },
  {
    "label": "400",
    "text": "바슬루이 주"
  },
  {
    "label": "401",
    "text": "브란체아 주"
  },
  {
    "label": "402",
    "text": "러시아"
  },
  {
    "label": "403",
    "text": "모스크바"
  },
  {
    "label": "404",
    "text": "아디게야 공화국"
  },
  {
    "label": "405",
    "text": "고르노알타이 공화국"
  },
  {
    "label": "406",
    "text": "알타이 지방"
  },
  {
    "label": "407",
    "text": "아무르 주"
  },
  {
    "label": "408",
    "text": "아르한겔스크 주"
  },
  {
    "label": "409",
    "text": "아스트라한 주"
  },
  {
    "label": "410",
    "text": "바시키르 공화국"
  },
  {
    "label": "411",
    "text": "벨고로트 주"
  },
  {
    "label": "412",
    "text": "브랸스크 주"
  },
  {
    "label": "413",
    "text": "부랴트 공화국"
  },
  {
    "label": "414",
    "text": "체첸 공화국"
  },
  {
    "label": "415",
    "text": "첼랴빈스크 주"
  },
  {
    "label": "416",
    "text": "축치 자치구"
  },
  {
    "label": "417",
    "text": "추바시 공화국"
  },
  {
    "label": "418",
    "text": "다게스탄 공화국"
  },
  {
    "label": "419",
    "text": "인구시 공화국"
  },
  {
    "label": "420",
    "text": "이르쿠츠크 주"
  },
  {
    "label": "421",
    "text": "이바노보 주"
  },
  {
    "label": "422",
    "text": "카바르디노발카르 공화국"
  },
  {
    "label": "423",
    "text": "칼리닌그라드 주"
  },
  {
    "label": "424",
    "text": "칼미크 공화국"
  },
  {
    "label": "425",
    "text": "칼루가 주"
  },
  {
    "label": "426",
    "text": "캄차카 지방"
  },
  {
    "label": "427",
    "text": "카라차예보체르케스카야 공화국"
  },
  {
    "label": "428",
    "text": "카렐리야 공화국"
  },
  {
    "label": "429",
    "text": "케메로보 주"
  },
  {
    "label": "430",
    "text": "하바롭스크 지방"
  },
  {
    "label": "431",
    "text": "하카스 공화국"
  },
  {
    "label": "432",
    "text": "한티만시 자치구"
  },
  {
    "label": "433",
    "text": "키로프 주"
  },
  {
    "label": "434",
    "text": "코미 공화국"
  },
  {
    "label": "435",
    "text": "코스트로마 주"
  },
  {
    "label": "436",
    "text": "크라스노다르 지방"
  },
  {
    "label": "437",
    "text": "크라스노야르스크 지방"
  },
  {
    "label": "438",
    "text": "쿠르간 주"
  },
  {
    "label": "439",
    "text": "쿠르스크 주"
  },
  {
    "label": "440",
    "text": "레닌그라드 주"
  },
  {
    "label": "441",
    "text": "리페츠크 주"
  },
  {
    "label": "442",
    "text": "마가단 주"
  },
  {
    "label": "443",
    "text": "마리옐 공화국"
  },
  {
    "label": "444",
    "text": "모르도바 공화국"
  },
  {
    "label": "445",
    "text": "모스크바 주"
  },
  {
    "label": "446",
    "text": "무르만스크 주"
  },
  {
    "label": "447",
    "text": "네네츠 자치구"
  },
  {
    "label": "448",
    "text": "니제고로드 주"
  },
  {
    "label": "449",
    "text": "노브고로드 주"
  },
  {
    "label": "450",
    "text": "노보시비르스크 주"
  },
  {
    "label": "451",
    "text": "옴스크 주"
  },
  {
    "label": "452",
    "text": "오렌부르크 주"
  },
  {
    "label": "453",
    "text": "오룔 주"
  },
  {
    "label": "454",
    "text": "펜자 주"
  },
  {
    "label": "455",
    "text": "페름 지방"
  },
  {
    "label": "456",
    "text": "프리모르스키 지방"
  },
  {
    "label": "457",
    "text": "프스코프 부"
  },
  {
    "label": "458",
    "text": "로스토프 주"
  },
  {
    "label": "459",
    "text": "랴잔 주"
  },
  {
    "label": "460",
    "text": "사하 공화국"
  },
  {
    "label": "461",
    "text": "사할린 주"
  },
  {
    "label": "462",
    "text": "사마라 주"
  },
  {
    "label": "463",
    "text": "상트페테르부르크 주"
  },
  {
    "label": "464",
    "text": "사라토프 주"
  },
  {
    "label": "465",
    "text": "북오세티야 공화국"
  },
  {
    "label": "466",
    "text": "스몰렌스크 주"
  },
  {
    "label": "467",
    "text": "스타브로폴 지방"
  },
  {
    "label": "468",
    "text": "스베르들롭스크 주"
  },
  {
    "label": "469",
    "text": "탐보프 주"
  },
  {
    "label": "470",
    "text": "타타르 공화국"
  },
  {
    "label": "471",
    "text": "톰스크 주"
  },
  {
    "label": "472",
    "text": "툴라 주"
  },
  {
    "label": "473",
    "text": "트베리 주"
  },
  {
    "label": "474",
    "text": "튜멘 주"
  },
  {
    "label": "475",
    "text": "투바 공화국"
  },
  {
    "label": "476",
    "text": "우드무르트 공화국"
  },
  {
    "label": "477",
    "text": "울리야놉스크 주"
  },
  {
    "label": "478",
    "text": "블라디미르 주"
  },
  {
    "label": "479",
    "text": "볼고그라드 주"
  },
  {
    "label": "480",
    "text": "볼로그다 주"
  },
  {
    "label": "481",
    "text": "보로네시 주"
  },
  {
    "label": "482",
    "text": "야말로네네츠 자치구"
  },
  {
    "label": "483",
    "text": "야로슬라블 주"
  },
  {
    "label": "484",
    "text": "유태인 자치주"
  },
  {
    "label": "485",
    "text": "자바이칼 지방"
  },
  {
    "label": "486",
    "text": "세르비아 코소보"
  },
  {
    "label": "487",
    "text": "슬로바키아"
  },
  {
    "label": "488",
    "text": "브라티슬라바"
  },
  {
    "label": "489",
    "text": "반스카비스트리차"
  },
  {
    "label": "490",
    "text": "코시체"
  },
  {
    "label": "491",
    "text": "니트라"
  },
  {
    "label": "492",
    "text": "프레쇼프"
  },
  {
    "label": "493",
    "text": "트렌친"
  },
  {
    "label": "494",
    "text": "트르나바"
  },
  {
    "label": "495",
    "text": "질리나"
  },
  {
    "label": "496",
    "text": "슬로베니아"
  },
  {
    "label": "497",
    "text": "남아프리카 공화국"
  },
  {
    "label": "498",
    "text": "하우텡 주"
  },
  {
    "label": "499",
    "text": "웨스턴케이프 주"
  },
  {
    "label": "500",
    "text": "노던케이프 주"
  },
  {
    "label": "501",
    "text": "이스턴케이프 주"
  },
  {
    "label": "502",
    "text": "콰줄루나탈 주"
  },
  {
    "label": "503",
    "text": "프리스테이트 주"
  },
  {
    "label": "504",
    "text": "노스웨스트 주"
  },
  {
    "label": "505",
    "text": "음푸말랑가 주"
  },
  {
    "label": "506",
    "text": "림포푸 주"
  },
  {
    "label": "507",
    "text": "스페인"
  },
  {
    "label": "508",
    "text": "마드리드 주"
  },
  {
    "label": "509",
    "text": "안달루시아 주"
  },
  {
    "label": "510",
    "text": "아라곤 주"
  },
  {
    "label": "511",
    "text": "아스투리아스 주"
  },
  {
    "label": "512",
    "text": "발레아레스 제도"
  },
  {
    "label": "513",
    "text": "카나리아 제도"
  },
  {
    "label": "514",
    "text": "칸타브리아 주"
  },
  {
    "label": "515",
    "text": "카스티야라만차"
  },
  {
    "label": "516",
    "text": "카스티야이레온"
  },
  {
    "label": "517",
    "text": "카탈루냐"
  },
  {
    "label": "518",
    "text": "발렌시아 주"
  },
  {
    "label": "519",
    "text": "에스트레마두라"
  },
  {
    "label": "520",
    "text": "갈리시아"
  },
  {
    "label": "521",
    "text": "무르시아 주"
  },
  {
    "label": "522",
    "text": "나바라 주"
  },
  {
    "label": "523",
    "text": "바스크"
  },
  {
    "label": "524",
    "text": "라리오하"
  },
  {
    "label": "525",
    "text": "세우타"
  },
  {
    "label": "526",
    "text": "멜리야"
  },
  {
    "label": "527",
    "text": "스와질란드"
  },
  {
    "label": "528",
    "text": "호호"
  },
  {
    "label": "529",
    "text": "로밤바"
  },
  {
    "label": "530",
    "text": "만지니"
  },
  {
    "label": "531",
    "text": "시셀웨니"
  },
  {
    "label": "532",
    "text": "스웨덴"
  },
  {
    "label": "533",
    "text": "스톡홀름 주"
  },
  {
    "label": "534",
    "text": "스코네 주"
  },
  {
    "label": "535",
    "text": "베스트라예탈란드 주"
  },
  {
    "label": "536",
    "text": "외스테르예틀란드 주"
  },
  {
    "label": "537",
    "text": "쇠데르만란드 주"
  },
  {
    "label": "538",
    "text": "베름란드 주"
  },
  {
    "label": "539",
    "text": "웁살라 주"
  },
  {
    "label": "540",
    "text": "예블레보리 주"
  },
  {
    "label": "541",
    "text": "베스테르보텐 주"
  },
  {
    "label": "542",
    "text": "노르보텐 주"
  },
  {
    "label": "543",
    "text": "고틀란드 주"
  },
  {
    "label": "544",
    "text": "옘틀란드 주"
  },
  {
    "label": "545",
    "text": "달라르나 주"
  },
  {
    "label": "546",
    "text": "블레킹에 주"
  },
  {
    "label": "547",
    "text": "외레브로 주"
  },
  {
    "label": "548",
    "text": "베스테르노를란드 주"
  },
  {
    "label": "549",
    "text": "옌셰핑 주"
  },
  {
    "label": "550",
    "text": "크로노베리 주"
  },
  {
    "label": "551",
    "text": "칼마르 주"
  },
  {
    "label": "552",
    "text": "베스트만란드 주"
  },
  {
    "label": "553",
    "text": "할란드 주"
  },
  {
    "label": "554",
    "text": "스위스"
  },
  {
    "label": "555",
    "text": "베른 주"
  },
  {
    "label": "556",
    "text": "아르가우 주"
  },
  {
    "label": "557",
    "text": "바젤"
  },
  {
    "label": "558",
    "text": "프리부르 주"
  },
  {
    "label": "559",
    "text": "제네바 주"
  },
  {
    "label": "560",
    "text": "글라루스 주"
  },
  {
    "label": "561",
    "text": "그라우뷘덴 주"
  },
  {
    "label": "562",
    "text": "쥐라 주"
  },
  {
    "label": "563",
    "text": "루체른 주"
  },
  {
    "label": "564",
    "text": "뇌샤텔 주"
  },
  {
    "label": "565",
    "text": "옵발덴 주"
  },
  {
    "label": "566",
    "text": "장크트갈렌 주"
  },
  {
    "label": "567",
    "text": "샤프하우젠 주"
  },
  {
    "label": "568",
    "text": "슈비츠 주"
  },
  {
    "label": "569",
    "text": "졸로투른 주"
  },
  {
    "label": "570",
    "text": "투르가우 주"
  },
  {
    "label": "571",
    "text": "티치노 주"
  },
  {
    "label": "572",
    "text": "우리 주"
  },
  {
    "label": "573",
    "text": "발레 주"
  },
  {
    "label": "574",
    "text": "보 주"
  },
  {
    "label": "575",
    "text": "추크 주"
  },
  {
    "label": "576",
    "text": "취리히 주"
  },
  {
    "label": "577",
    "text": "아펜첼아우서로덴 주"
  },
  {
    "label": "578",
    "text": "아펜첼이너로덴 주"
  },
  {
    "label": "579",
    "text": "바젤란트 주"
  },
  {
    "label": "580",
    "text": "니트발덴 주"
  },
  {
    "label": "581",
    "text": "터키"
  },
  {
    "label": "582",
    "text": "앙카라 주"
  },
  {
    "label": "583",
    "text": "이스탄불 주"
  },
  {
    "label": "584",
    "text": "이즈미르 주"
  },
  {
    "label": "585",
    "text": "부르사 주"
  },
  {
    "label": "586",
    "text": "아다나 주"
  },
  {
    "label": "587",
    "text": "가지안테프 주"
  },
  {
    "label": "588",
    "text": "코니아 주"
  },
  {
    "label": "589",
    "text": "안탈리아 주"
  },
  {
    "label": "590",
    "text": "디야르바키르 주"
  },
  {
    "label": "591",
    "text": "메르신 주"
  },
  {
    "label": "592",
    "text": "카이세리 주"
  },
  {
    "label": "593",
    "text": "샨리우르파 주"
  },
  {
    "label": "594",
    "text": "말라티아 주"
  },
  {
    "label": "595",
    "text": "에르주룸 주"
  },
  {
    "label": "596",
    "text": "삼순 주"
  },
  {
    "label": "597",
    "text": "반 주"
  },
  {
    "label": "598",
    "text": "카라만마라슈 주"
  },
  {
    "label": "599",
    "text": "데니즐리 주"
  },
  {
    "label": "600",
    "text": "바트만 주"
  },
  {
    "label": "601",
    "text": "엘라지 주"
  },
  {
    "label": "602",
    "text": "사카리아 주"
  },
  {
    "label": "603",
    "text": "코자엘리 주"
  },
  {
    "label": "604",
    "text": "시바스 주"
  },
  {
    "label": "605",
    "text": "마니사 주"
  },
  {
    "label": "606",
    "text": "트라브존 주"
  },
  {
    "label": "607",
    "text": "발리케시르 주"
  },
  {
    "label": "608",
    "text": "아디야만 주"
  },
  {
    "label": "609",
    "text": "테키르다 주"
  },
  {
    "label": "610",
    "text": "키리칼레 주"
  },
  {
    "label": "611",
    "text": "오스마니예 주"
  },
  {
    "label": "612",
    "text": "퀴타히아 주"
  },
  {
    "label": "613",
    "text": "초룸 주"
  },
  {
    "label": "614",
    "text": "이스파르타 주"
  },
  {
    "label": "615",
    "text": "아이딘 주"
  },
  {
    "label": "616",
    "text": "하타이 주"
  },
  {
    "label": "617",
    "text": "마르딘 주"
  },
  {
    "label": "618",
    "text": "악사라이 주"
  },
  {
    "label": "619",
    "text": "아피온카라히사르 주"
  },
  {
    "label": "620",
    "text": "토카트 주"
  },
  {
    "label": "621",
    "text": "에디르네 주"
  },
  {
    "label": "622",
    "text": "카라만 주"
  },
  {
    "label": "623",
    "text": "오르두 주"
  },
  {
    "label": "624",
    "text": "시이르트 주"
  },
  {
    "label": "625",
    "text": "에르진잔 주"
  },
  {
    "label": "626",
    "text": "창키리 주"
  },
  {
    "label": "627",
    "text": "종굴다크 주"
  },
  {
    "label": "628",
    "text": "요즈가트 주"
  },
  {
    "label": "629",
    "text": "우샤크 주"
  },
  {
    "label": "630",
    "text": "아리 주"
  },
  {
    "label": "631",
    "text": "아마시아 주"
  },
  {
    "label": "632",
    "text": "아르다한 주"
  },
  {
    "label": "633",
    "text": "아르트빈 주"
  },
  {
    "label": "634",
    "text": "바르틴 주"
  },
  {
    "label": "635",
    "text": "바이부르트 주"
  },
  {
    "label": "636",
    "text": "빌레지크 주"
  },
  {
    "label": "637",
    "text": "빙괼 주"
  },
  {
    "label": "638",
    "text": "비틀리스 주"
  },
  {
    "label": "639",
    "text": "볼루 주"
  },
  {
    "label": "640",
    "text": "부르두르 주"
  },
  {
    "label": "641",
    "text": "차나칼레 주"
  },
  {
    "label": "642",
    "text": "뒤즈제 주"
  },
  {
    "label": "643",
    "text": "에스키셰히르 주"
  },
  {
    "label": "644",
    "text": "기레순 주"
  },
  {
    "label": "645",
    "text": "귀뮈샤네 주"
  },
  {
    "label": "646",
    "text": "하카리 주"
  },
  {
    "label": "647",
    "text": "이디르 주"
  },
  {
    "label": "648",
    "text": "카라뷔크 주"
  },
  {
    "label": "649",
    "text": "카르스 주"
  },
  {
    "label": "650",
    "text": "카스타모누 주"
  },
  {
    "label": "651",
    "text": "킬리스 주"
  },
  {
    "label": "652",
    "text": "키르클라렐리 주"
  },
  {
    "label": "653",
    "text": "키르셰히르 주"
  },
  {
    "label": "654",
    "text": "물라 주"
  },
  {
    "label": "655",
    "text": "무슈 주"
  },
  {
    "label": "656",
    "text": "네브셰히르 주"
  },
  {
    "label": "657",
    "text": "니데 주"
  },
  {
    "label": "658",
    "text": "리제 주"
  },
  {
    "label": "659",
    "text": "시노프 주"
  },
  {
    "label": "660",
    "text": "시르나크 주"
  },
  {
    "label": "661",
    "text": "툰젤리 주"
  },
  {
    "label": "662",
    "text": "얄로바 주"
  },
  {
    "label": "663",
    "text": "영국"
  },
  {
    "label": "664",
    "text": "잉글랜드"
  },
  {
    "label": "665",
    "text": "스코틀랜드"
  },
  {
    "label": "666",
    "text": "웨일즈"
  },
  {
    "label": "667",
    "text": "북아일랜드"
  },
  {
    "label": "668",
    "text": "잠비아"
  },
  {
    "label": "669",
    "text": "짐바브웨"
  },
  {
    "label": "670",
    "text": "아제르바이잔"
  },
  {
    "label": "671",
    "text": "모리타니"
  },
  {
    "label": "672",
    "text": "말리"
  },
  {
    "label": "673",
    "text": "니제르"
  },
  {
    "label": "674",
    "text": "차드"
  },
  {
    "label": "675",
    "text": "수단"
  },
  {
    "label": "676",
    "text": "에리트레아"
  },
  {
    "label": "677",
    "text": "지부티"
  },
  {
    "label": "678",
    "text": "소말리아"
  },
  {
    "label": "679",
    "text": "안도라"
  },
  {
    "label": "680",
    "text": "지브롤터"
  },
  {
    "label": "681",
    "text": "건지 섬"
  },
  {
    "label": "682",
    "text": "맨 섬"
  },
  {
    "label": "683",
    "text": "저지 섬"
  },
  {
    "label": "684",
    "text": "모나코"
  },
  {
    "label": "685",
    "text": "인도"
  },
  {
    "label": "686",
    "text": "델리"
  },
  {
    "label": "687",
    "text": "안다만 니코바르 제도"
  },
  {
    "label": "688",
    "text": "안드라프라데시 주"
  },
  {
    "label": "689",
    "text": "아삼 주"
  },
  {
    "label": "690",
    "text": "찬디가르 주"
  },
  {
    "label": "691",
    "text": "다드라나가르하벨리 연방직할주"
  },
  {
    "label": "692",
    "text": "구자라트 주"
  },
  {
    "label": "693",
    "text": "하리아나 주"
  },
  {
    "label": "694",
    "text": "히마찰프라데시 주"
  },
  {
    "label": "695",
    "text": "케랄라 주"
  },
  {
    "label": "696",
    "text": "락샤드위프"
  },
  {
    "label": "697",
    "text": "마하라슈트라 주"
  },
  {
    "label": "698",
    "text": "마니푸르 주"
  },
  {
    "label": "699",
    "text": "메갈라야 주"
  },
  {
    "label": "700",
    "text": "카르나타카 주"
  },
  {
    "label": "701",
    "text": "나갈랜드 주"
  },
  {
    "label": "702",
    "text": "오리사 주"
  },
  {
    "label": "703",
    "text": "퐁디셰리"
  },
  {
    "label": "704",
    "text": "펀자브 주"
  },
  {
    "label": "705",
    "text": "라자스탄 주"
  },
  {
    "label": "706",
    "text": "타밀나두 주"
  },
  {
    "label": "707",
    "text": "트리프라 주"
  },
  {
    "label": "708",
    "text": "서벵골 주"
  },
  {
    "label": "709",
    "text": "시킴 주"
  },
  {
    "label": "710",
    "text": "미조람 주"
  },
  {
    "label": "711",
    "text": "다만디우 연방직할주"
  },
  {
    "label": "712",
    "text": "고아 주"
  },
  {
    "label": "713",
    "text": "비하르 주"
  },
  {
    "label": "714",
    "text": "마디아프라데시 주"
  },
  {
    "label": "715",
    "text": "우타르프라데시 주"
  },
  {
    "label": "716",
    "text": "차티스가르 주"
  },
  {
    "label": "717",
    "text": "자르칸드 주"
  },
  {
    "label": "718",
    "text": "우타라칸드 주"
  },
  {
    "label": "719",
    "text": "기타"
  },
  {
    "label": "720",
    "text": "산마리노"
  },
  {
    "label": "721",
    "text": "바티칸"
  }
]