﻿[
  {
    "label": "001",
    "text": "{{fun_00010011 arg=\"0x0000\"}}"
  },
  {
    "label": "002",
    "text": "{{i20_3}}"
  },
  {
    "label": "003",
    "text": "×{{fun_00060004 arg=\"0x0000\"}}"
  },
  {
    "label": "004",
    "text": "×{{fun_00060004 arg=\"0x0000\"}}"
  },
  {
    "label": "005",
    "text": "×{{fun_00060004 arg=\"0x0000\"}}"
  },
  {
    "label": "006",
    "text": " Needed"
  },
  {
    "label": "007",
    "text": "×{{fun_00060004 arg=\"0x0000\"}}"
  },
  {
    "label": "008",
    "text": "{{fun_00060004 arg=\"0x0000\"}}"
  },
  {
    "label": "009",
    "text": "{{fun_00010011 arg=\"0x0000\"}}"
  },
  {
    "label": "010",
    "text": "Back"
  },
  {
    "label": "011",
    "text": "Choose Again"
  },
  {
    "label": "012",
    "text": "Start Game"
  }
]