﻿[
  {
    "label": "000",
    "text": "Fashion Forward Initiative"
  },
  {
    "label": "001",
    "text": "Coupon Kickoff Initiative"
  },
  {
    "label": "002",
    "text": "Garden Grooming Initiative"
  },
  {
    "label": "003",
    "text": "Clear Water Initiative"
  },
  {
    "label": "004",
    "text": "Public Works Initiative"
  },
  {
    "label": "005",
    "text": "Rainmaker Initiative"
  },
  {
    "label": "006",
    "text": "TPC Refresh Initiative"
  },
  {
    "label": "007",
    "text": "Look Fabulous Initiative"
  },
  {
    "label": "008",
    "text": "Island Time Initiative"
  },
  {
    "label": "009",
    "text": "Fossil Record Initiative"
  },
  {
    "label": "010",
    "text": "Retail Therapy Initiative"
  },
  {
    "label": "011",
    "text": "Pro Design Initiative"
  },
  {
    "label": "012",
    "text": "Game On Initiative"
  },
  {
    "label": "013",
    "text": "Reel 'Em Initiative"
  },
  {
    "label": "014",
    "text": "Bug Boss Initiative"
  },
  {
    "label": "015",
    "text": "Dive Deep Initiative"
  },
  {
    "label": "016",
    "text": "Ride the Rails Initiative"
  },
  {
    "label": "017",
    "text": "Host the Most Initiative"
  },
  {
    "label": "018",
    "text": "Stockpile Sweets Initiative"
  },
  {
    "label": "019",
    "text": "Interior Design Initiative"
  },
  {
    "label": "020",
    "text": "Equity Building Initiative"
  },
  {
    "label": "021",
    "text": "Art Appreciation Initiative"
  },
  {
    "label": "022",
    "text": "Tree Hugger Initiative"
  },
  {
    "label": "023",
    "text": "Cicada Research Initiative"
  },
  {
    "label": "024",
    "text": "Salmon Initiative"
  },
  {
    "label": "025",
    "text": "Giant Snakehead Initiative"
  },
  {
    "label": "026",
    "text": "Nibble Fish Initiative"
  },
  {
    "label": "027",
    "text": "Outside Options Initiative"
  },
  {
    "label": "028",
    "text": "Ship It Initiative"
  },
  {
    "label": "029",
    "text": "Fortune Seeker Initiative"
  },
  {
    "label": "030",
    "text": "Strike It Rich Initiative"
  },
  {
    "label": "031",
    "text": "Lucky Item Initiative"
  },
  {
    "label": "032",
    "text": "Beekeeper Initiative"
  },
  {
    "label": "033",
    "text": "Invest in Yourself Initiative"
  },
  {
    "label": "034",
    "text": "Let It Snowman Initiative"
  },
  {
    "label": "035",
    "text": "Mole Cricket Initiative"
  },
  {
    "label": "036",
    "text": "Banded Dragonfly Initiative"
  },
  {
    "label": "037",
    "text": "Petaltail Dragonfly Init."
  },
  {
    "label": "038",
    "text": "Tarantula Initiative"
  },
  {
    "label": "039",
    "text": "Scorpion Initiative"
  },
  {
    "label": "040",
    "text": "Walking Leaf Initiative"
  },
  {
    "label": "041",
    "text": "Tiger Beetle Initiative"
  },
  {
    "label": "042",
    "text": "Orchid Mantis Initiative"
  },
  {
    "label": "043",
    "text": "Birdwing Butterfly Init."
  },
  {
    "label": "044",
    "text": "Diving Beetle Initiative"
  },
  {
    "label": "045",
    "text": "Stringfish Initiative"
  },
  {
    "label": "046",
    "text": "Koi Initiative"
  },
  {
    "label": "047",
    "text": "Soft-Shelled Turtle Init."
  },
  {
    "label": "048",
    "text": "King Salmon Initiative"
  },
  {
    "label": "049",
    "text": "Mitten Crab Initiative"
  },
  {
    "label": "050",
    "text": "Pike Initiative"
  },
  {
    "label": "051",
    "text": "Dorado Initiative"
  },
  {
    "label": "052",
    "text": "Saddled Bichir Initiative"
  },
  {
    "label": "053",
    "text": "Coelacanth Initiative"
  },
  {
    "label": "054",
    "text": "Tuna Initiative"
  },
  {
    "label": "055",
    "text": "Napoleonfish Initiative"
  },
  {
    "label": "056",
    "text": "Blue Marlin Initiative"
  },
  {
    "label": "057",
    "text": "Ocean Sunfish Initiative"
  },
  {
    "label": "058",
    "text": "Oarfish Initiative"
  },
  {
    "label": "059",
    "text": "Moray Eel Initiative"
  },
  {
    "label": "060",
    "text": "Spider Crab Initiative"
  },
  {
    "label": "061",
    "text": "Horseshoe Crab Initiative"
  },
  {
    "label": "062",
    "text": "HQ Horned Beetle Init."
  },
  {
    "label": "063",
    "text": "HQ Stag Beetle Initiative"
  },
  {
    "label": "064",
    "text": "Shark Initiative"
  },
  {
    "label": "065",
    "text": "Giant Isopod Initiative"
  },
  {
    "label": "066",
    "text": "In Good Gracie Initiative"
  },
  {
    "label": "067",
    "text": "Curb Appeal Initiative"
  },
  {
    "label": "068",
    "text": "Souvenir Sales Initiative"
  },
  {
    "label": "069",
    "text": "Pay It Forward Initiative"
  },
  {
    "label": "070",
    "text": "Shelling Out Initiative"
  },
  {
    "label": "071",
    "text": "Barista Booster Initiative"
  },
  {
    "label": "072",
    "text": "Keee Ha Mo-ata Initiative"
  },
  {
    "label": "073",
    "text": "Dream Sharing Initiative"
  },
  {
    "label": "074",
    "text": "Payback Time Initiative"
  },
  {
    "label": "075",
    "text": "Turnip Profit Initiative"
  },
  {
    "label": "076",
    "text": "Cash for Clutter Initiative"
  },
  {
    "label": "077",
    "text": "Local Fruit Initiative"
  },
  {
    "label": "078",
    "text": "Bug Boost Initiative"
  },
  {
    "label": "079",
    "text": "Fish It Forward Initiative"
  },
  {
    "label": "080",
    "text": "Fossil Boss Initiative"
  },
  {
    "label": "081",
    "text": "Joke's On You Initiative"
  },
  {
    "label": "082",
    "text": "Tropical Shop Initiative"
  },
  {
    "label": "083",
    "text": "Pyrotechnic Pro Initiative"
  },
  {
    "label": "084",
    "text": "Good Fit Initiative"
  },
  {
    "label": "085",
    "text": "Local Music Initiative"
  },
  {
    "label": "086",
    "text": "Small Talk Initiative"
  },
  {
    "label": "087",
    "text": "Island Import Initiative"
  },
  {
    "label": "088",
    "text": "Rock On Initiative"
  },
  {
    "label": "089",
    "text": "Resetti Outreach Initiative"
  },
  {
    "label": "090",
    "text": "Mushroom Initiative"
  },
  {
    "label": "091",
    "text": "Snag a Snowflake Initiative"
  },
  {
    "label": "092",
    "text": "Tropical Garden Initiative"
  },
  {
    "label": "093",
    "text": "Green Thumb Initiative"
  },
  {
    "label": "094",
    "text": "Flower Power Initiative"
  },
  {
    "label": "095",
    "text": "Happiest Homes Initiative"
  },
  {
    "label": "096",
    "text": "Slingshot Sniper Initiative"
  },
  {
    "label": "097",
    "text": "Axe Collector Initiative"
  },
  {
    "label": "098",
    "text": "Fertile Land Initiative"
  },
  {
    "label": "099",
    "text": "Fashion Forward Initiative"
  },
  {
    "label": "100",
    "text": "Small Talk Initiative"
  }
]