﻿[
  {
    "label": "001",
    "text": "Easy Hide-and-Seek Tour"
  },
  {
    "label": "002",
    "text": "Official Hide-and-Seek Tour"
  },
  {
    "label": "003",
    "text": "Elite Hide-and-Seek Tour"
  },
  {
    "label": "004",
    "text": ""
  },
  {
    "label": "005",
    "text": ""
  },
  {
    "label": "006",
    "text": ""
  },
  {
    "label": "007",
    "text": "Easy Gardening Tour"
  },
  {
    "label": "008",
    "text": "Official Gardening Tour"
  },
  {
    "label": "009",
    "text": "Elite Gardening Tour"
  },
  {
    "label": "010",
    "text": ""
  },
  {
    "label": "011",
    "text": ""
  },
  {
    "label": "012",
    "text": ""
  },
  {
    "label": "013",
    "text": "Beginner Fishing Tour"
  },
  {
    "label": "014",
    "text": "Reel-the-Eel Tour"
  },
  {
    "label": "015",
    "text": "Easy Tropical Fishing Tour"
  },
  {
    "label": "016",
    "text": ""
  },
  {
    "label": "017",
    "text": ""
  },
  {
    "label": "018",
    "text": "Classic Tropical Fishing Tour"
  },
  {
    "label": "019",
    "text": "Market-Price Fishing Tour"
  },
  {
    "label": "020",
    "text": "Ancient-Fish Encoun-tour"
  },
  {
    "label": "021",
    "text": "Dangerous Fishing Tour"
  },
  {
    "label": "022",
    "text": ""
  },
  {
    "label": "023",
    "text": "Elite-Class Fishing Tour"
  },
  {
    "label": "024",
    "text": "Advanced Price-Fishing Tour"
  },
  {
    "label": "025",
    "text": "Tuna-Kahuna Tour"
  },
  {
    "label": "026",
    "text": "Shark-Battle Tour"
  },
  {
    "label": "027",
    "text": ""
  },
  {
    "label": "028",
    "text": ""
  },
  {
    "label": "029",
    "text": ""
  },
  {
    "label": "030",
    "text": ""
  },
  {
    "label": "031",
    "text": ""
  },
  {
    "label": "032",
    "text": ""
  },
  {
    "label": "033",
    "text": "Easy Bug-Catching Tour"
  },
  {
    "label": "034",
    "text": "Butterfly-Discovery Tour"
  },
  {
    "label": "035",
    "text": "Beetle-Hunting Tour"
  },
  {
    "label": "036",
    "text": "Dragonfly-Discovery Tour"
  },
  {
    "label": "037",
    "text": ""
  },
  {
    "label": "038",
    "text": "Bug Free-for-All Tour"
  },
  {
    "label": "039",
    "text": "Market-Price-Bug Tour"
  },
  {
    "label": "040",
    "text": "Fall Bug Tour"
  },
  {
    "label": "041",
    "text": "Cicada-Catching Tour"
  },
  {
    "label": "042",
    "text": "Hop-To-It Bug Hunt"
  },
  {
    "label": "043",
    "text": "Pros-Only Bug Hunt"
  },
  {
    "label": "044",
    "text": "Elite Market-Price-Bug Hunt"
  },
  {
    "label": "045",
    "text": "Bug Hide-and-Seek Tour"
  },
  {
    "label": "046",
    "text": "Evening Firefly Tour"
  },
  {
    "label": "047",
    "text": "Giant-Dragonfly Tour"
  },
  {
    "label": "048",
    "text": ""
  },
  {
    "label": "049",
    "text": ""
  },
  {
    "label": "050",
    "text": ""
  },
  {
    "label": "051",
    "text": ""
  },
  {
    "label": "052",
    "text": ""
  },
  {
    "label": "053",
    "text": "Easy Balloon-Hunt Tour"
  },
  {
    "label": "054",
    "text": "Official Balloon-Hunt Tour"
  },
  {
    "label": "055",
    "text": "Elite Balloon-Hunt Tour"
  },
  {
    "label": "056",
    "text": ""
  },
  {
    "label": "057",
    "text": ""
  },
  {
    "label": "058",
    "text": ""
  },
  {
    "label": "059",
    "text": "Easy Item-Matching Tour"
  },
  {
    "label": "060",
    "text": "Official Item-Matching Tour"
  },
  {
    "label": "061",
    "text": "Elite Item-Matching Tour"
  },
  {
    "label": "062",
    "text": ""
  },
  {
    "label": "063",
    "text": ""
  },
  {
    "label": "064",
    "text": ""
  },
  {
    "label": "065",
    "text": "Easy Hammer Tour"
  },
  {
    "label": "066",
    "text": "Level-Up Hammer Tour"
  },
  {
    "label": "067",
    "text": "Elite Hammer Tour"
  },
  {
    "label": "068",
    "text": ""
  },
  {
    "label": "069",
    "text": ""
  },
  {
    "label": "070",
    "text": ""
  },
  {
    "label": "071",
    "text": "Easy Labyrinth Tour"
  },
  {
    "label": "072",
    "text": "Official Labyrinth Tour"
  },
  {
    "label": "073",
    "text": "Master Labyrinth Tour"
  },
  {
    "label": "074",
    "text": ""
  },
  {
    "label": "075",
    "text": ""
  },
  {
    "label": "076",
    "text": ""
  },
  {
    "label": "077",
    "text": "Easy Ore-Hunter Tour"
  },
  {
    "label": "078",
    "text": "Official Ore Tour"
  },
  {
    "label": "079",
    "text": "Elite Ore-Hunter Tour"
  },
  {
    "label": "080",
    "text": ""
  },
  {
    "label": "081",
    "text": ""
  },
  {
    "label": "082",
    "text": ""
  },
  {
    "label": "083",
    "text": "Easy Fossil Finder's Tour"
  },
  {
    "label": "084",
    "text": "Official Fossil Hunter's Tour"
  },
  {
    "label": "085",
    "text": "Elite Fossil Hunter's Tour"
  },
  {
    "label": "086",
    "text": ""
  },
  {
    "label": "087",
    "text": ""
  },
  {
    "label": "088",
    "text": ""
  },
  {
    "label": "089",
    "text": "Amateurs' Free-Diving Tour"
  },
  {
    "label": "090",
    "text": "Shellfish Free-for-All Tour"
  },
  {
    "label": "091",
    "text": "Crab Free-Diving Tour"
  },
  {
    "label": "092",
    "text": ""
  },
  {
    "label": "093",
    "text": ""
  },
  {
    "label": "094",
    "text": "Seafood Free-Diving Tour"
  },
  {
    "label": "095",
    "text": "Market-Price-Seafood Tour"
  },
  {
    "label": "096",
    "text": "Shrimp-and-Lobster Tour"
  },
  {
    "label": "097",
    "text": "High-End Seafood Tour"
  },
  {
    "label": "098",
    "text": ""
  },
  {
    "label": "099",
    "text": "Pro-Diver Tour"
  },
  {
    "label": "100",
    "text": "Super-Luxe Seafood Tour"
  },
  {
    "label": "101",
    "text": "Sea-Urchin Diving Tour"
  },
  {
    "label": "102",
    "text": "Octopus Free-Diving Tour"
  },
  {
    "label": "103",
    "text": "Spider-Crab Diving Tour"
  },
  {
    "label": "104",
    "text": ""
  },
  {
    "label": "105",
    "text": ""
  },
  {
    "label": "106",
    "text": ""
  },
  {
    "label": "107",
    "text": ""
  },
  {
    "label": "108",
    "text": ""
  },
  {
    "label": "109",
    "text": "Easy Scavenger Tour"
  },
  {
    "label": "110",
    "text": "Official Scavenger Tour"
  },
  {
    "label": "111",
    "text": "Elite Scavenger Tour"
  },
  {
    "label": "112",
    "text": ""
  },
  {
    "label": "113",
    "text": ""
  },
  {
    "label": "114",
    "text": ""
  },
  {
    "label": "115",
    "text": ""
  }
]