﻿[
  {
    "label": "001",
    "text": "Choco-{{fun_00010005 arg=\"\"}}"
  },
  {
    "label": "002",
    "text": "{{fun_00010005 arg=\"\"}}, estomac rempli"
  },
  {
    "label": "003",
    "text": "Ton ami {{fun_00010005 arg=\"\"}}"
  },
  {
    "label": "004",
    "text": "{{fun_00010005 arg=\"\"}} le chanceux"
  },
  {
    "label": "005",
    "text": "Ça te plaît? {{fun_00010005 arg=\"\"}}"
  },
  {
    "label": "006",
    "text": "Ton copain {{fun_00010005 arg=\"\"}}"
  },
  {
    "label": "007",
    "text": "Amitiés, {{fun_00010005 arg=\"\"}}"
  },
  {
    "label": "008",
    "text": "Ton copain, {{fun_00010005 arg=\"\"}}"
  },
  {
    "label": "009",
    "text": "Amicalement, {{fun_00010005 arg=\"\"}}"
  }
]