﻿[
  {
    "label": "001",
    "text": "À toi de jouer! {{fun_00010005 arg=\"\"}}"
  },
  {
    "label": "002",
    "text": "Bonne chance! {{fun_00010005 arg=\"\"}}"
  },
  {
    "label": "003",
    "text": "Et entraîne-toi! {{fun_00010005 arg=\"\"}}"
  },
  {
    "label": "004",
    "text": "Merci qui? {{fun_00010005 arg=\"\"}}"
  },
  {
    "label": "005",
    "text": "Poteaux comme 2 abdos!"
  },
  {
    "label": "006",
    "text": "Ton toi passé"
  },
  {
    "label": "007",
    "text": "N'oublie pas d'où tu viens!"
  },
  {
    "label": "008",
    "text": "Beau boulot! Moi"
  },
  {
    "label": "009",
    "text": "Pas de blague, hein?!"
  },
  {
    "label": "010",
    "text": "{{fun_00010005 arg=\"\"}}, depuis le passé"
  },
  {
    "label": "011",
    "text": "Pas bête, hein? {{fun_00010005 arg=\"\"}}"
  },
  {
    "label": "012",
    "text": "{{fun_00010005 arg=\"\"}}, extralucide"
  },
  {
    "label": "013",
    "text": "{{fun_00010005 arg=\"\"}}"
  },
  {
    "label": "014",
    "text": "{{fun_00010005 arg=\"\"}}, chrono-maître"
  },
  {
    "label": "015",
    "text": "Merci! {{fun_00010005 arg=\"\"}}"
  }
]