﻿[
  {
    "label": "001",
    "text": "-{{fun_00010005 arg=\"\"}}"
  },
  {
    "label": "002",
    "text": "-{{fun_00010005 arg=\"\"}} et compagnie"
  },
  {
    "label": "003",
    "text": "-{{fun_00010005 arg=\"\"}} et compagnie"
  }
]