﻿[
  {
    "label": "001",
    "text": "생일 축하한다!\n한층 더 어른이 되었구나.\n나이만 먹는 게 아니라\n마음도 어른이 되어야 해.\n뭐, 나도 똑같지만!"
  },
  {
    "label": "002",
    "text": "내 기억으론 니 생일이\n이맘때쯤이었던 것 같은데?\n아무튼 축하 편지를\n썼으니까 보낼게.\n정말 축하해!!"
  },
  {
    "label": "003",
    "text": "생일 축하해!\n또 한 살 먹었네.\n나이는 누구나 먹는 거야!\n피할 수 없다면 다 함께\n화끈하게 즐기자구!"
  }
]