﻿[
  {
    "label": "001",
    "text": "당신 혹시 기억나?\n지난번에 부탁한 타임캡슐을\n이제 꺼내줬으면 해서・・・.\n내용물은 당신 줄 테니까\n부탁 좀 할게."
  },
  {
    "label": "002",
    "text": "그때 그 타임캡슐 말인데・・・.\n어디 묻었는지 기억나?\n그거 다시 꺼내줬으면 좋겠어.\n대신 내용물은 당신한테 줄게.\n아니, 꼭 당신이 받아줬으면\n좋겠어."
  },
  {
    "label": "003",
    "text": "이 가구는 추억이 배어 있는\n나의 보물과도 같은 가구야・・・.\n그 기분이 바래지 않도록\n이젠 캡슐에 넣으려고 해."
  },
  {
    "label": "004",
    "text": "후세에 남기고 싶은 가구는\n당연히 이거 아니겠어!\n언젠가 이 캡슐이 세상에 나오면\n옛날 물건도 나쁘지 않다는\n이야기를 들을 수 있을 거야."
  },
  {
    "label": "005",
    "text": "이 가구를 타임캡슐에 넣어서\n땅에 묻을 거야. 그리고 세월이\n지난 후에 캡슐을 열면 지금은\n평범한 가구가 빈티지 가구로 변신!\n・・・해 있지 않을까?"
  },
  {
    "label": "006",
    "text": "시공을 초월해서 누군가에게\n이 가구가 전해지는 걸\n상상하는 것만으로도\n왠지 로맨틱한 기분이 들어.\n이 캡슐을 열게 되는 건\n바로 나일까? 아니면・・・."
  },
  {
    "label": "007",
    "text": "가구는 흙 속에\n한동안 재워 두면\n뭔가가 변하는 것 같은\n기분이 들어・・・.\n숙성된 어른 취향의 가구로\n변신한다고나 할까?"
  },
  {
    "label": "008",
    "text": "이 옷은 시대를 너무\n앞서 나갔던 것 같아!\n하지만 조금만 기다리면\n최신 유행 패션이 되지 않을까?\n그러니까 난 이 옷을\n미래로 보내겠어・・・."
  },
  {
    "label": "009",
    "text": "남에게는 말할 수 없는 추억이\n모두에게 하나쯤 있지 않니?\n이 옷에는 그런 추억이\n진하게 배어 있어.\n버리려야 버릴 수 없는\n머나먼 기억이・・・."
  },
  {
    "label": "010",
    "text": "이 옷은 뭐라고 딱 집어 말하긴\n어렵지만 뭔가 좀 부족해・・・.\n그래서 차라리 땅속에\n묻어 두고 시간을 가질까 해.\n그러면 장을 담글 때처럼\n좋은 느낌으로 숙성되지 않을까?"
  },
  {
    "label": "011",
    "text": "지금의 나는\n도저히 소화할 수 없는 이 옷.\n하지만 미래의 나는 왠지\n완벽하게 소화할 수 있을 것 같은\n그런 느낌이 든단 말이지・・・."
  },
  {
    "label": "012",
    "text": "이 옷이 지금의 나한테는\n꽉 끼어서 입을 수가 없어.\n하지만 미래의 나는\n다이어트에 성공했을 테니까\n무리 없이 입을 수 있지 않을까?"
  },
  {
    "label": "013",
    "text": "지난번에는 내 타임캡슐 때문에\n고생이 많았어.\n당신도 내 과거를 알 수 있는\n좋은 경험을 했다고 생각하지?\n이건 내 부탁을 들어준 답례야."
  },
  {
    "label": "014",
    "text": "지난번에 캡슐 꺼내줘서 고마웠어.\n나의 과거를 직시하고 나니\n왠지 다시 태어난 기분이야.\n이거, 대단한 건 아니지만\n부탁을 들어준 답례로 줄게."
  },
  {
    "label": "015",
    "text": "있잖아, 그 캡슐 말인데・・・.\n우리만의 비밀로 해주지 않을래?\n누군가 다른 사람이 알게 되면\n모든 게 없었던 일이 될 것만 같아.\n이거 받고 약속 지켜주면 좋겠어."
  }
]