﻿[
  {
    "label": "001",
    "text": "갑작스러우시겠지만\n실은 얼마 전에 당신께\n어울리는 물건을 발견해서\n꼭 드리고 싶었어요.\n분명 맘에 드실 거예요!\n이번엔 자신 있답니다."
  },
  {
    "label": "002",
    "text": "갑자기 문득, 평소의 감사하는\n마음을 담아 당신께\n작은 선물을 하고 싶어졌어요.\n그냥 제가 멋대로 보내는 거니까\n부담 갖지 말고 받으세요!"
  },
  {
    "label": "003",
    "text": "식물을 좋아하시는 분 중에\n나쁜 사람은 없대요.\n그걸 뒤집어서 생각해보면\n당신은 분명 식물을\n좋아하는 사람일 거예요!\n그래서 이걸 선물합니다."
  },
  {
    "label": "004",
    "text": "요새 저는 깜짝 선물에\n심취해 있답니다.\n당신께도 새로운 세상을\n선물하고 싶어 이걸 골랐어요.\n어때요?\n깜짝 놀라셨나요?"
  },
  {
    "label": "005",
    "text": "얼마 전에 제 자아를 찾기 위한\n여행을 다녀왔는데 결국\n아무것도 못 찾았어요.\n하지만 당신께 딱 맞는\n기념품은 찾았답니다!\n편지와 함께 드릴게요."
  },
  {
    "label": "006",
    "text": "대청소를 하고 있었는데\n이런 게 나왔지 뭐예요?\n전에 {{fun_00000005 arg=\"\"}}님이\n갖고 싶다고 하셨던 것 같아\n일단 대충 싸서\n보내드리는 거예요!"
  },
  {
    "label": "007",
    "text": "제 꿈에서 당신이 이걸\n갖고 싶어 하셨어요.\n마침 저는 인테리어를 바꾸면서\n필요 없는 물건을 처분하려던\n참이었거든요.\n이거 선물할게요!"
  },
  {
    "label": "008",
    "text": "사실은 직접 드리고 싶었지만\n왠지 쑥스러워서\n편지를 통해 보내드려요.\n선물은 상자를 열 때가\n가장 두근거리죠?\n혼자 몰래 열어보세요!"
  },
  {
    "label": "009",
    "text": "한 번쯤 깜짝 선물이란 걸\n보내보고 싶었어요.\n{{fun_00000005 arg=\"\"}}님을 머릿속에\n떠올리며 무려 5시간이나\n고민한 끝에 샀답니다.\n맘에 드셔야 할 텐데・・・."
  },
  {
    "label": "010",
    "text": "당신 같은 분과 편지를\n교환할 수 있다면 영광이겠어요.\n제가 보내 드리는 편지지로\n답장을 써 달라고 하면\n무리한 부탁일까요?\n답장 기다릴게요!"
  }
]