﻿[
  {
    "label": "001",
    "text": "촌장이 된 걸 진심으로 축하해!\n사실은 내가 촌장으로 갈\n예정이었는데 사정이 생겨서 \n못 가게 됐어・・・.\n이제부터 마을은 너에게 맡길게!\n난 언제나 널 응원하고 있어!"
  },
  {
    "label": "002",
    "text": "동물의 숲에 오신 것을 환영합니다!\n\n{{fun_00050005 arg=\"\"}} 마을의 일원이 되어\n앞으로 펼쳐질 숲에서의 생활을\n여유롭게 만끽해주세요!"
  },
  {
    "label": "003",
    "text": ""
  },
  {
    "label": "004",
    "text": ""
  }
]