﻿[
  {
    "label": "001",
    "text": "선물 고마워!\n이게 니가 나한테\n추천하는 옷이야?\n답장이랑 같이 나도 너랑\n어울릴 것 같은 옷 보낸다!"
  },
  {
    "label": "002",
    "text": "옷 보내줘서 고마워!\n니가 본 내 이미지는\n이런 분위기였나 보지?\n나도 너한테 딱\n어울릴 것 같은 옷을\n선물할게!"
  },
  {
    "label": "003",
    "text": "옷 선물 고맙다!\n어떤 옷이든 다 소화하긴 하지만,\n아무리 해도 안 어울리면\n잠옷으로라도 입을게!\n답례라고 할 것도 없지만,\n이거 받아줘!"
  },
  {
    "label": "004",
    "text": "니가 보내준 가구 말이야,\n그게 니 취향인가 보지?\n내 방에 어떻게 활용할지\n천천히 한번 생각해볼게.\n아, 그리고 나도 니 방에\n어울릴 만한 걸 보낸다!"
  },
  {
    "label": "005",
    "text": "가구 선물해줘서 고맙다!\n나도 모르는 새, 내 방은 더 이상\n모험을 하지 않게 됐었나봐.\n니가 준 가구로\n어디 한번 휘저어볼까!\n너도 이걸로 한번 해볼래?!"
  },
  {
    "label": "006",
    "text": "가구 보내줘서 고마워!\n이걸 계기로 나도 좀 더 취향을\n다양하게 가져봐야겠다.\n너도 이런 가구 써보는게 어때?"
  },
  {
    "label": "007",
    "text": "니가 보내 준 가구랑\n완전히 똑같은 가구가\n우리 집에 놓여 있어.\n이제 부서지더라도 여분이\n생겼으니까 안심하고 써도 되겠다!\n고마워!"
  },
  {
    "label": "008",
    "text": "맛있어 보이는 거\n보내줘서 고맙다!\n그렇게 유통기한이 긴 것 같진\n않으니까, 가급적 빨리\n먹도록 할게!"
  },
  {
    "label": "009",
    "text": "선물 고맙다!\n근데 이건 이렇게 해석해도 되나?\n꽃과는 전혀 인연이 없어 보이는\n나에 대한 도전?\n내가 마음만 먹으면\n엄청날걸?! 아마도!"
  },
  {
    "label": "010",
    "text": "나무 묘목 보내줘서 고마워!\n무슨 기념일이라도 생기면\n한번 심어볼까?\n너, 너무 거창하게 생각했나?!"
  },
  {
    "label": "011",
    "text": "돈 보냈었지?\n니가 우리 엄마냐?!\n뭐, 사양은 안 하고 받겠다만,\n엉뚱한 의심 사면 곤란하니까\n기부금으로 쓸게!"
  },
  {
    "label": "012",
    "text": "음악 선물 고마워!\n이 음악은 날 이미지하면서 \n고른 거야?\n좀 의외인 면도 있었지만\n마음에 드네, 잘 들을게!"
  },
  {
    "label": "013",
    "text": "선물 고맙다!\n물론 이런 기본적인 도구는\n가지고 있긴 하지만\n못 쓰게 됐을 때 여분이 있으면\n편리하겠지!"
  },
  {
    "label": "014",
    "text": "이봐 이봐, 갑자기\n미술품이 배달돼서\n깜짝 놀랐잖아! 이거 정말\n진품이야?!\n예술에 대해선 잘 모르지만\n소중히 간직할게, 고마워!"
  },
  {
    "label": "015",
    "text": "기억나냐?\n이 편지지 니가 보내준 거잖아!\n편지를 쓸 땐 말이야, \n새삼스레 상대방에 대해서\n여러 가지 생각을 하게\n되는 것 같아서 참 재밌어!"
  },
  {
    "label": "016",
    "text": "편지 고마워!\n이 벽지로 인테리어를\n바꿔보라는 거야? 뭐, 시간 날 때\n그렇게 해보는 것도 좋겠네.\n나도 답례로 이걸 줄게!"
  },
  {
    "label": "017",
    "text": "편지 고마워!\n이 바닥을 깔려면\n가구도 이래저래\n바꿔야 할 것 같아서 말이야.\n뭐, 나중에 좀 생각해봐야겠다.\n이건 내 답례야."
  },
  {
    "label": "018",
    "text": "화석을 보내다니,\n뭔가 엄청 중후한 선물이네!\n마음에 들었어, 고마워!\n장식해 둘 곳이 문제긴 하지만!\n내 답례품이야, 받아줘."
  },
  {
    "label": "019",
    "text": "편지 고마워!\n근데 난 화석 감정 같은 거\n못하니까, 부엉이한테\n가져가봐야겠다.\n어떤 화석인지 기대된다!"
  },
  {
    "label": "020",
    "text": "편지에 선물까지 곁들여 주다니,\n정말 고맙다!\n나도 당연히 답례를 해야겠지?!\n미리 말해 두지만, 필요 없는\n물건 처분하려고 주는 건\n절대 아니다!"
  }
]