﻿[
  {
    "label": "001",
    "text": "오늘은 소중한 사람에게\n마음을 전하는 날이잖아!\n그래서 널 위해 준비했어.\n이 수제 초콜릿은 널 위한\n나의 마음이야!!\n아 부끄러워!! 받아줄래?!"
  },
  {
    "label": "002",
    "text": "Happy Valentine!\n언제나 신세만 져서\n한 번쯤 마음을 전하고 싶었어.\n이 초콜릿{{delay frames=\"8\"}}・{{delay frames=\"8\"}}・{{delay frames=\"8\"}}・{{delay frames=\"8\"}}. 내 마음이야.\n성의를 봐서 한 번만 받아주라."
  },
  {
    "label": "003",
    "text": "나 사실 초콜릿 같은 건\n만들어본 적 없는데・・・.\n이번에 열심히 만든 거니까\n아무 소리 하지 말고\n받아줄래?\n해피 밸런타인 데이!"
  },
  {
    "label": "004",
    "text": "다이어리를 체크하다가\n너랑 만나는 날이\n유독 많다는 사실을 알았어.\n나랑 놀아줘서 고맙다.\n감사의 마음이니까 받아줘!"
  },
  {
    "label": "005",
    "text": "밸런타인 축하 축하!\n오늘은 소중한 사람한테\n선물을 하는 날이래.\n상당히 뻘쭘하긴 한데\n이거 받으라고!"
  },
  {
    "label": "006",
    "text": "밸런타인 축하 축하!\n널 직접 만나서\n이걸 전해주려고 했는데\n뭔가 민망해서・・・.\n편지로 전할게!"
  },
  {
    "label": "007",
    "text": "나한테 소중한 녀석은\n이 마을 녀석들이지!\n언제나 신세만 지니까 말야.\n{{fun_00000005 arg=\"\"}}!\n앞으로도 잘 부탁한다!\n해피 밸런타인 데이!"
  },
  {
    "label": "008",
    "text": "해피 밸런타인 데이!\n난 언제나 마음속으로\n너한테 감사하고 있지만\n좋은 기회니까 이런 식으로\n전해볼까 하고.\n앞으로도 잘 부탁해!"
  },
  {
    "label": "009",
    "text": "오늘 모르는 녀석한테\n선물을 받았는데\n뭐 어쩌라는 건지 몰라.\n아무튼 난 너한테\n선물을 주기로 했어.\n밸런타인 데이 축하!"
  }
]