﻿[
  {
    "label": "001",
    "text": "새집.\n새 출발.\n새로운 기분.\n\n너에게 이 벽지를\n선물로 보내줄게."
  },
  {
    "label": "002",
    "text": "보금자리가\n넓어졌다는 말을\n전해들었단다!\n\n이걸 사용해서\n멋지게 꾸며보렴."
  },
  {
    "label": "003",
    "text": "감기 걸리지 않도록\n건강 조심하렴.\n\n이걸 입으면\n훨씬 따뜻할 거야."
  },
  {
    "label": "004",
    "text": "정리하다 나왔단다.\n추억의 손뜨개 모자.\n\n올겨울은 이걸로\n추위 안녕이다!"
  },
  {
    "label": "005",
    "text": "엄마가 골라봤어.\n여름옷 한 벌.\n\n소매가 없으니까\n시원할 거야."
  },
  {
    "label": "006",
    "text": "올해는 입고 말 거야.\n실크 캐미솔.\n\n아빠가 더 좋아할걸?\n두고 보라구"
  },
  {
    "label": "007",
    "text": "비오는 날이면\n항상 갔었지.\n너를 데리러・・・.\n\n지금은 멀어서\n갈 수는 없겠구나."
  },
  {
    "label": "008",
    "text": "갑작스런 비에\n급하게 들어갔던\n처음 보는 빵가게.\n\n잔뜩 사고 말았어.\n팥도넛."
  },
  {
    "label": "009",
    "text": "세수했니?\n이 닦았니?\n밥은 먹었니?\n\n아침엔 일찍 일어나야\n여유가 있단다."
  },
  {
    "label": "010",
    "text": "오랜만에 미용실.\n최신 유행으로\n머리 했는데・・・.\n\n너네 아빠 한마디.\n베개 자국이 심하네."
  },
  {
    "label": "011",
    "text": "사실 좀 걱정이야.\n어질러진 너의 방.\n\n일주일에 한 번은\n청소 좀 하렴."
  },
  {
    "label": "012",
    "text": "실로 오랜만에\n옷장 청소 중・・・.\n\n자꾸만 나오더라구\n다이어트 용품・・・."
  },
  {
    "label": "013",
    "text": "건강한가?\n요즘은 네 녀석\n어떻게 지내는지.\n\n필요할 때 쓰렴.\n엄마한텐 비밀이다."
  },
  {
    "label": "014",
    "text": "혼자 살아보려니\n고생이 많지?\n가끔은 우는소리\n해도 된단다.\n슬슬 필요할 테니\n여기 받아 둬."
  },
  {
    "label": "015",
    "text": "몸은 멀리 있어도\n궁금했단다.\n혼자서 꾸렸을\n너의 살림들.\n전시장에 갔더니\n통째로 있네?!"
  },
  {
    "label": "016",
    "text": "날 닮았나 보구나\n가구 고르는 취향.\n\n전시로 보고 있단다.\n너의 살림살이."
  },
  {
    "label": "017",
    "text": "꿈속에선 숨결까지\n느껴지는 너.\n\n너무 멀리 있구나.\n만날 수가 없네."
  },
  {
    "label": "018",
    "text": "꿈에서 봤단다.\n활기가 넘치는\n네가 있는 마을.\n\n꿈인데도 안심이 되는\n엄마의 마음."
  }
]