﻿[
  {
    "label": "001",
    "text": "연말이라 바쁘실 텐데\n이렇게 멋진 선물까지 보내시고\n정말 감사합니다.\n새해부터 당신이 사용하시면\n좋을 것 같은 게 있어서\n이 편지랑 같이 보냅니다!"
  },
  {
    "label": "002",
    "text": "제게 주신 선물을 바라보고 있으니\n즐거웠던 지난 1년이\n머릿속에 쫙 펼쳐졌어요.\n저도 연말 인사 삼아\n선물을 하나 보냅니다!\n새해맞이 준비 잘하세요!"
  },
  {
    "label": "003",
    "text": "1년을 마무리할 즈음에 당신께\n멋진 편지와 선물을 받아서\n얼마나 행복한지 몰라요.\n그래서 저도 내년 한 해\n당신의 행복을 기원하는\n선물을 보냅니다!"
  },
  {
    "label": "004",
    "text": "연말이라 주변이 온통 들떠서\n떠들썩한 분위기였는데\n당신의 편지를 받고\n조금 진정이 되었어요.\n내년에도 당신의 친절함으로\n절 보살펴주세요!"
  },
  {
    "label": "005",
    "text": "바깥 날씨는 매섭게 춥지만\n당신이 주신 따뜻한 편지를 읽으니\n마음속에 난로가 하나\n생긴 것 같은 기분이에요.\n내년에도 우리 많이 얘기하고\n많이 놀아요!"
  },
  {
    "label": "006",
    "text": "1년이 어쩜 이렇게\n쏜살같이 지나갔을까요・・・!\n내년에는 좀 더 하루하루를\n소중하게 보내면서\n당신과 더 많은 우정을\n쌓고 싶어요."
  }
]