﻿[
  {
    "label": "001",
    "locale": {
      "EUde": " Von {{fun_00010005 arg=\"\"}} ",
      "EUen": " From {{fun_00010005 arg=\"\"}} ",
      "EUes": " De {{fun_00010005 arg=\"\"}} ",
      "EUfr": " {{fun_00010005 arg=\"\"}} ",
      "EUit": " Da {{fun_00010005 arg=\"\"}} ",
      "JPja": "From　{{fun_00010005 arg=\"\"}}",
      "KRko": "From {{fun_00010005 arg=\"\"}}",
      "USen": " From {{fun_00010005 arg=\"\"}} ",
      "USes": " De {{fun_00010005 arg=\"\"}} ",
      "USfr": " {{fun_00010005 arg=\"\"}} "
    }
  },
  {
    "label": "002",
    "locale": {
      "EUde": "—Ciaaao, {{fun_00010005 arg=\"\"}} ",
      "EUen": "—Supercool {{fun_00010005 arg=\"\"}} ",
      "EUes": "Siempre ideal, {{fun_00010005 arg=\"\"}} ",
      "EUfr": "--{{fun_00010005 arg=\"\"}} ",
      "EUit": "{{fun_00010005 arg=\"\"}} la trendy! ",
      "JPja": "By　{{fun_00010005 arg=\"\"}}",
      "KRko": "By {{fun_00010005 arg=\"\"}}",
      "USen": "—Supercool {{fun_00010005 arg=\"\"}} ",
      "USes": "Siempre ideal, {{fun_00010005 arg=\"\"}} ",
      "USfr": "--{{fun_00010005 arg=\"\"}} "
    }
  },
  {
    "label": "003",
    "locale": {
      "EUde": "—Dein Star, {{fun_00010005 arg=\"\"}} ",
      "EUen": "—Your idol, {{fun_00010005 arg=\"\"}} ",
      "EUes": "Tu admirada {{fun_00010005 arg=\"\"}} ",
      "EUfr": "--Ta star, {{fun_00010005 arg=\"\"}} ",
      "EUit": "La tua diva {{fun_00010005 arg=\"\"}}! ",
      "JPja": "{{fun_00010005 arg=\"\"}}だよ",
      "KRko": "{{fun_00010005 arg=\"\"}}{{fun_000E000E arg=\"0x020074C70000\"}}야",
      "USen": "—Your idol, {{fun_00010005 arg=\"\"}} ",
      "USes": "Tu admirada {{fun_00010005 arg=\"\"}} ",
      "USfr": "--Ta star, {{fun_00010005 arg=\"\"}} "
    }
  },
  {
    "label": "004",
    "locale": {
      "EUde": "~ Alles Süße, {{fun_00010005 arg=\"\"}} ~",
      "EUen": "~ With love, {{fun_00010005 arg=\"\"}} ~",
      "EUes": "Besitos, {{fun_00010005 arg=\"\"}} ",
      "EUfr": "~ Bisous !!! -- {{fun_00010005 arg=\"\"}}",
      "EUit": "Con affetto, {{fun_00010005 arg=\"\"}}",
      "JPja": "～{{fun_00010005 arg=\"\"}}より～",
      "KRko": "～{{fun_00010005 arg=\"\"}} 보냄～",
      "USen": "~ With love, {{fun_00010005 arg=\"\"}} ~",
      "USes": "Besitos, {{fun_00010005 arg=\"\"}} ",
      "USfr": "~ Bisous!!! -- {{fun_00010005 arg=\"\"}}"
    }
  },
  {
    "label": "005",
    "locale": {
      "EUde": " {{fun_00010005 arg=\"\"}} ",
      "EUen": " From {{fun_00010005 arg=\"\"}} ",
      "EUes": " De {{fun_00010005 arg=\"\"}} ",
      "EUfr": " {{fun_00010005 arg=\"\"}} ",
      "EUit": " Da {{fun_00010005 arg=\"\"}}! ",
      "JPja": "　{{fun_00010005 arg=\"\"}}　",
      "KRko": " {{fun_00010005 arg=\"\"}} 보냄 ",
      "USen": " From {{fun_00010005 arg=\"\"}} ",
      "USes": " De {{fun_00010005 arg=\"\"}} ",
      "USfr": " {{fun_00010005 arg=\"\"}} "
    }
  }
]