﻿[
  {
    "label": "001",
    "text": "Vielen Dank, dass du mir\ngeschrieben hast!\n"
  },
  {
    "label": "002",
    "text": "Danke für deine nette\nKorrespondenz!\n"
  },
  {
    "label": "003",
    "text": "Hiermit möchte ich deinen\nBrief beantworten.\n"
  },
  {
    "label": "004",
    "text": "Ein netter Brief, eine Tasse\nTee – was will man mehr?\n"
  },
  {
    "label": "005",
    "text": "Wie schön, einen Brief von\ndir zu erhalten!\n"
  },
  {
    "label": "006",
    "text": "Dein Brief war wirklich eine\nschöne Überraschung!\n"
  },
  {
    "label": "007",
    "text": "Ich habe deinen Brief gleich\nmehrmals gelesen. Danke!\n"
  },
  {
    "label": "008",
    "text": "Ich habe den Brief von dir\naufmerksam gelesen. Danke!\n"
  },
  {
    "label": "009",
    "text": "Dein Brief hat mich wirklich\nsehr erfreut. Vielen Dank!\n"
  },
  {
    "label": "010",
    "text": "Hiermit antworte ich dir auf\ndeinen netten Brief.\n"
  }
]