﻿[
  {
    "label": "001",
    "locale": {
      "EUde": "Ich hätte mir nicht träumen\nlassen, dass du so eifrig bist,\nwas das Briefeschreiben\nbetrifft. Vielen lieben Dank.\nIch sende dir ein Zeichen\nmeiner Anerkennung.",
      "EUen": "I never expected to receive\nsuch a fiery letter from you.\nLetter writing is a classic\nskill, after all! So thanks for\npushing yourself so hard for\nme. Here's a little thank-you.",
      "EUes": "Tu carta me ha dejado\nimpresionada. Escribir todo\nlo que uno quiere decir no\nes nada fácil, pero tú lo\nhas conseguido. ¡Tal hazaña\nse merece un regalo!",
      "EUfr": "Je ne m'attendais pas à\nrecevoir une si longue lettre\nde toi. Cela m'a fait très\nplaisir. Aussi, je tiens à te\nremercier avec ce petit\ncadeau.",
      "EUit": "non mi sarei mai aspettata\nda te una lettera così...\nintensa. Grazie per averci\nmesso tutto questo impegno.\nTi mando un bel regalo\nper ringraziarti. Te lo meriti!",
      "JPja": "アナタ、じょうねつてきなのね。\nあんな　ねつのこもった\nてがみを　かくんですもの。\nアタシのために　がんばってくれて\nありがとね、うれしかったわ。\nおれいは　これでいいかしら？",
      "KRko": "당신은 정말 정열적인 사람이야.\n당신이 보낸 편지에는\n언제나 열기가 담겨 있는걸.\n나를 위해 노력하는 모습・・・.\n항상 감사하고 있어.\n이런 걸로 보답이 될까?",
      "USen": "I never expected to receive\nsuch a fiery letter from you.\nLetter writing is a classic\nskill, after all! So thanks for\npushing yourself so hard for\nme. Here's a little thank-you.",
      "USes": "Tu carta me ha dejado\nimpresionada. Escribir todo\nlo que uno quiere decir no\nes nada fácil, pero tú lo\nhas conseguido. ¡Tal hazaña\nse merece un regalo!",
      "USfr": "Je ne m'attendais pas à\nrecevoir une si longue lettre\nde toi. Cela m'a fait très\nplaisir. Aussi, je tiens à te\nremercier avec ce petit\ncadeau."
    }
  },
  {
    "label": "002",
    "locale": {
      "EUde": "Dein langer Brief hat mich\ntief berührt! Oh, wie jung ich\nmich auf einmal fühle, da ich\nin unserer Brieffreundschaft\naufgehen kann! Bitte nimm\ndieses Geschenk zum Dank!",
      "EUen": "That long letter you sent me\nmade me more emotional\nthan I've been in years. I feel\ncompletely rejuvenated! So\nplease accept this gift as a\ntoken of my appreciation.",
      "EUes": "Tu carta estaba tan llena\nde emoción que me ha\nrejuvenecido por dentro.\nAcepta este regalo como\nagradecimiento, cariñín.",
      "EUfr": "Cette longue lettre que tu\nm'as écrite m'a fait très\nplaisir. Aussi, je te prie\nd'accepter ce petit cadeau\npour t'en remercier.",
      "EUit": "la lunga lettera che mi hai\nmandato mi ha emozionato\ncome non mai. Mi sono\ndi nuovo sentita giovane e\npiena di vita! Accetta il mio\nregalo come ringraziamento.",
      "JPja": "めくるめく　じょうねつで\nつづられた　アナタのてがみ、\nよませてもらったわ・・・。\nアタシの　キモチは、\nこのプレゼントに　たくすわ・・・\nうけとってちょうだい。",
      "KRko": "흘러넘치는 열정을\n그대로 담은 당신의 편지・・・.\n고맙게 잘 읽었어.\n내 마음은\n이 선물에 담아서 보낼게.",
      "USen": "That long letter you sent me\nmade me more emotional\nthan I've been in years. I feel\ncompletely rejuvenated! So\nplease accept this gift as a\ntoken of my appreciation.",
      "USes": "Tu carta estaba tan llena\nde emoción que me ha\nrejuvenecido por dentro.\nAcepta este regalo como\nagradecimiento, cariñín.",
      "USfr": "Cette longue lettre que tu\nm'as écrite m'a fait très\nplaisir. Aussi, je te prie\nd'accepter ce petit cadeau\npour t'en remercier."
    }
  },
  {
    "label": "003",
    "locale": {
      "EUde": "Deine Eloquenz hat mir glatt\ndie Sprache verschlagen!\nWer hätte gedacht, dass du\nso schöne Briefe schreiben\nkannst? Bitte nimm dieses\nGeschenk zum Dank!",
      "EUen": "I didn't know you had it in\nyou to write an emotional\nletter like that! Seeing such\na triumph made me...really\nhappy somehow. You'll find\nall my thanks in this present.",
      "EUes": "Creo que nunca me habían\nescrito una carta tan larga.\nYo misma lo he intentado\nmuchas veces, pero nunca\nhe logrado escribir una. Eres\nun ejemplo a seguir, flor.",
      "EUfr": "Accepte ce modeste présent\npour te remercier de ta\nlettre et de ton cadeau.\nJ'avoue que ta verve m'a\nsubjuguée. Écris-moi encore.",
      "EUit": "non ti sapevo capace di\nscrivere lettere così ricche\ndi emozioni. Non è da tutti!\nVedere questo lato nascosto\ndella tua personalità mi ha\nresa felice. Ecco un regalino!",
      "JPja": "アナタの　キモチのこもった\nてがみ　よませてもらったわ。\nなんていうか、\nとても　うれしかったわ・・・。\nこのキモチ、このプレゼントに\nたくすわ、うけとってちょうだい。",
      "KRko": "당신의 마음이 담긴 편지,\n찬찬히 잘 읽어보았어.\n뭐랄까・・・.\n순수하게 정말 기뻤어.\n그런 나의 마음을\n선물에 담아서 전할게.",
      "USen": "I didn't know you had it in\nyou to write an emotional\nletter like that! Seeing such\na triumph made me...really\nhappy somehow. You'll find\nall my thanks in this present.",
      "USes": "Creo que nunca me habían\nescrito una carta tan larga.\nYo misma lo he intentado\nmuchas veces, pero nunca\nhe logrado escribir una. Eres\nun ejemplo a seguir, flor.",
      "USfr": "Accepte ce modeste présent\npour te remercier de ta\nlettre et de ton cadeau.\nJ'avoue que ta verve m'a\nsubjuguée. Écris-moi encore."
    }
  },
  {
    "label": "004",
    "locale": {
      "EUde": "Seit ich deinen bewegenden\nBrief gelesen habe, glaube\nich, dich nun besser zu\nverstehen. Vielen lieben\nDank für deine Worte!\nIch weiß es zu schätzen.",
      "EUen": "After reading that emotional\nletter you sent, I think that I\nunderstand you better. Now\nI want to try my best, as you\ndo! All this energy makes me\nfeel like a schoolgirl again...",
      "EUes": "Cuántas palabras cargadas\nde sentimiento... Gracias\npor abrirme tu corazón,\nricura. Me siento igual que\nen el instituto, ji, ji...",
      "EUfr": "Maintenant que j'ai lu ta\nlongue lettre, j'ai\nl'impression de mieux te\nconnaître et mieux te\ncomprendre. Je te remercie\npour cette opportunité.",
      "EUit": "dopo aver letto bene la tua\nlettera così intensa, credo\ndi capirti meglio. Mi hai\nmotivata a mettere tutta me\nstessa in quello che faccio.\nMi sento come ringiovanita...",
      "JPja": "キモチのこもった　アナタからの\nてがみ　よませてもらったわ。\nアナタが　かんがえてることが、\nすこし　わかったきがする・・・。\nアタシも　アナタみたいに\nがんばってみようと　おもうわ。",
      "KRko": "마음이 담긴 당신의 편지,\n찬찬히 잘 읽어보았어.\n당신이 무슨 생각을 하는지\n알 것 같은 기분이 들었어・・・.\n나도 당신처럼 힘을 내볼까봐.",
      "USen": "After reading that emotional\nletter you sent, I think that I\nunderstand you better. Now\nI want to try my best, as you\ndo! All this energy makes me\nfeel like a schoolgirl again...",
      "USes": "Cuántas palabras cargadas\nde sentimiento... Gracias\npor abrirme tu corazón,\nricura. Me siento igual que\nen el instituto, ji, ji...",
      "USfr": "Maintenant que j'ai lu ta\nlongue lettre, j'ai\nl'impression de mieux te\nconnaître et mieux te\ncomprendre. Je te remercie\npour cette opportunité."
    }
  },
  {
    "label": "005",
    "locale": {
      "EUde": "Dein langer Brief hat mich\nwahrlich zum Nachdenken\ngebracht. Wer hätte gedacht,\ndass du MICH einmal zum\nNachdenken bringst?\nDas Leben ist verrückt!",
      "EUen": "That long letter from you\ndefinitely gave me something\nto think about. Who would\nhave thought that one day\nYOU would be teaching ME!\nWhat a valuable lesson...",
      "EUes": "Tus palabras me han hecho\nreflexionar, cariñín. ¡Quién\niba a pensar que algún día\ntú me darías una lección\na mí! Las vueltas que da\nla vida...",
      "EUfr": "Cette longue lettre que tu\nm'as envoyée m'a donné à\nréfléchir, et je t'en remercie.\nOui, vraiment, tu m'as parlé\nde choses auxquelles je\nn'avais encore jamais pensé.",
      "EUit": "la lunga lettera che mi hai\nmandato è diventata\nuna delle mie fonti principali\ndi ispirazione. Chi l'avrebbe\nmai detto... TU che insegni\nqualcosa a ME! Ah, la vita...",
      "JPja": "アナタのてがみ・・・\nすこし　かんがえさせられたわ。\nまさか　アナタに\nおしえられるなんて、\nおもっても　みなかった・・・。\nどうも　ありがとう。",
      "KRko": "당신의 편지・・・.\n조금 생각에 잠기고 말았지 뭐야.\n당신을 보고 좀 배워야겠다는\n생각이 들었어.\n새로운 사실을 깨닫게 해줘서\n고마워・・・.",
      "USen": "That long letter from you\ndefinitely gave me something\nto think about. Who would\nhave thought that one day\nYOU would be teaching ME!\nWhat a valuable lesson...",
      "USes": "Tus palabras me han hecho\nreflexionar, cariñín. ¡Quién\niba a pensar que algún día\ntú me darías una lección\na mí! Las vueltas que da\nla vida...",
      "USfr": "Cette longue lettre que tu\nm'as envoyée m'a donné à\nréfléchir, et je t'en remercie.\nOui, vraiment, tu m'as parlé\nde choses auxquelles je\nn'avais encore jamais pensé."
    }
  },
  {
    "label": "006",
    "locale": {
      "EUde": "Vielen Dank, dass du mir in\ndeinem Brief so umfassend\ndeine Gedanken geschildert\nhast. Wer hätte gedacht,\ndass du so viel Zeit mit\nNachdenken verbringst?",
      "EUen": "Since you can say things in a\nletter you can't say out loud,\nit was the perfect medium\nfor expressing your deepest\nthoughts. I had no idea YOU\nhad deep thoughts, though!",
      "EUes": "No sabía que tuvieras tantas\ncosas que decir. Por carta\nes más sencillo, ¿verdad?\nSiempre estoy dispuesta a\nleer todo lo que tengas que\ncontarme, terroncín.",
      "EUfr": "J'ignorais totalement que tu\nétais du genre à écrire de\nlongues lettres... Ne t'en\nprive surtout pas. J'adore te\nlire.",
      "EUit": "con le lettere, possiamo dire\ncose che non vogliamo dire\na voce alta. Aiutano a farci\nesprimere i nostri pensieri\npiù profondi. Non sapevo che\nTU avessi pensieri profondi!",
      "JPja": "ふだん　いえないことも\nてがみなら　いえることがある。\nそして、ふだん　つたえきれない\nキモチも　つたえられるもの。\nアナタのてがみには、そんな\nおもいが　つまっていたわ。",
      "KRko": "말로는 하기 힘든 이야기를\n편지라면 할 수 있게 되기도 하지.\n그리고 말로는 전해지지 않는\n감정이 편지에는 담기기도 해.\n나・・・ 당신의 편지에서\n그런 것들을 느낄 수 있었어.",
      "USen": "Since you can say things in a\nletter you can't say out loud,\nit was the perfect medium\nfor expressing your deepest\nthoughts. I had no idea YOU\nhad deep thoughts, though!",
      "USes": "No sabía que tuvieras tantas\ncosas que decir. Por carta\nes más sencillo, ¿verdad?\nSiempre estoy dispuesta a\nleer todo lo que tengas que\ncontarme, terroncín.",
      "USfr": "J'ignorais totalement que tu\nétais du genre à écrire de\nlongues lettres... Ne t'en\nprive surtout pas. J'adore te\nlire."
    }
  }
]