﻿[
  {
    "label": "001",
    "locale": {
      "EUde": "Der rasende Reiner möchte\nsich noch einmal herzlich\nbedanken, dass du {{fun_0008000E arg=\"0x00CD0600640065006E0006006400690065000600640061007300\"}}\n{{fun_00030011 arg=\"0x0000\"}}\ngekauft hast!\nVeeerrückte Grüße!",
      "EUen": "Ol' Redd would like to thank\nyou again for purchasing this\nfine {{fun_00030011 arg=\"0x0000\"}}!\n\nYou got yourself an amazing\nwork of art, cousin!",
      "EUes": "Al viejo Ladino le gustaría\nagradecerte la compra de\nest{{fun_0008000E arg=\"0x00CD02006500020061000000\"}} {{fun_00030011 arg=\"0x0000\"}}.\n¡Puedes estar orgullos{{fun_0006000E arg=\"0x02006F0002006100\"}} de\ntu nueva y espectacular\nobra de arte, prim{{fun_0006000E arg=\"0x02006F0002006100\"}}!",
      "EUfr": "Encore merci d'avoir acheté\n{{fun_0008000E arg=\"0x00CD06006300650074000A00630065007400740065000000\"}} inestimable\n{{fun_00030011 arg=\"0x0000\"}} !\nTu as fait le bon choix, cette\npièce est un chef-d'œuvre !",
      "EUit": "il vecchio Volpolo ti ringrazia\ndi nuovo per aver acquistato\nquest{{fun_0012000E arg=\"0x100002006F00020061000000\"}} pregiatissim{{fun_0012000E arg=\"0x100002006F00020061000000\"}}\n{{fun_00030011 arg=\"0x0000\"}}!\nTi sei aggiudicat{{fun_0006000E arg=\"0x02006F0002006100\"}} un'opera\nd'arte pazzesca, cugin{{fun_0006000E arg=\"0x02006F0002006100\"}}!",
      "JPja": "ごこうにゅう　いただいた\n{{fun_00030011 arg=\"0x0000\"}}を\nおとどけします～！\n\nすばらしいアートを\nぞんぶんに　おたのしみください！",
      "KRko": "구입하신\n{{fun_00030011 arg=\"0x0000\"}}{{fun_000E000E arg=\"0x020044C702007CB9\"}}\n보내드립니다～!\n\n이제 멋진 미술품을\n마음껏 감상하세요!",
      "USen": "Ol' Redd would like to thank\nyou again for purchasing this\nfine {{fun_00030011 arg=\"0x0000\"}}!\n\nYou got yourself an amazing\nwork of art, cousin!",
      "USes": "Al viejo Ladino le gustaría\nagradecerte la compra de\nest{{fun_0008000E arg=\"0x00CD02006500020061000000\"}} {{fun_00030011 arg=\"0x0000\"}}.\n¡Puedes estar orgullos{{fun_0006000E arg=\"0x02006F0002006100\"}} de\ntu nueva y espectacular\nobra de arte, prim{{fun_0006000E arg=\"0x02006F0002006100\"}}!",
      "USfr": "Encore merci d'avoir acheté\n{{fun_0008000E arg=\"0x00CD06006300650074000A00630065007400740065000000\"}} inestimable\n{{fun_00030011 arg=\"0x0000\"}}!\nTu as fait le bon choix, cette\npièce est un chef-d'œuvre!"
    }
  },
  {
    "label": "002",
    "locale": {
      "EUde": "Reiner möchte sich noch\neinmal dafür bedanken, dass\ndu ihm Vertrauen entgegen-\ngebracht hast!\nViel Spaß mit {{fun_0008000E arg=\"0x00CD0600640065006D0006006400650072000600640065006D00\"}}\n{{fun_00030011 arg=\"0x0000\"}}!",
      "EUen": "Crazy Redd would like to\nthank you again for your\nwise purchase of the\n{{fun_00030011 arg=\"0x0000\"}}!\nI'm sure you'll feel content\nwith your choice!",
      "EUes": "Ladino el locuelo agradece\nde nuevo tu sabia compra de\nes{{fun_0008000E arg=\"0x00CD02006500020061000000\"}} {{fun_00030011 arg=\"0x0000\"}}\ntan maravillos{{fun_0008000E arg=\"0x00CD02006F00020061000000\"}}. ¡Una gran\nadquisición, sin duda!",
      "EUfr": "Encore merci d'avoir acheté\n{{fun_0008000E arg=\"0x00CD06006300650074000A00630065007400740065000000\"}} inimitable\n{{fun_00030011 arg=\"0x0000\"}} !\nÀ toi le bonheur de vivre\n{{fun_0006000E arg=\"0x0E0065006E0074006F0075007200E900100065006E0074006F0075007200E9006500\"}} de chefs-d'œuvre !",
      "EUit": "il vecchio Volpolo ti ringrazia\ndi nuovo per aver acquistato\nquest{{fun_0012000E arg=\"0x100002006F00020061000000\"}} pregevolissim{{fun_0012000E arg=\"0x100002006F00020061000000\"}}\n{{fun_00030011 arg=\"0x0000\"}}!\nSarai di sicuro soddisfatt{{fun_0006000E arg=\"0x02006F0002006100\"}}\ndella scelta! Devi esserlo!",
      "JPja": "ごちゅうもん　いただいた\n{{fun_00030011 arg=\"0x0000\"}}を\nおとどけします～！\n\nアートのある　ゆとりあるくらしを\nまんきつ　してください！",
      "KRko": "구입하신\n{{fun_00030011 arg=\"0x0000\"}}{{fun_000E000E arg=\"0x020044C702007CB9\"}}\n보내드립니다～!\n\n미술품과 함께 여유 있는\n인생을 즐겨보세요!",
      "USen": "Crazy Redd would like to\nthank you again for your\nwise purchase of the\n{{fun_00030011 arg=\"0x0000\"}}!\nI'm sure you'll feel content\nwith your choice!",
      "USes": "Ladino el locuelo agradece\nde nuevo tu sabia compra de\nes{{fun_0008000E arg=\"0x00CD02006500020061000000\"}} {{fun_00030011 arg=\"0x0000\"}}\ntan maravillos{{fun_0008000E arg=\"0x00CD02006F00020061000000\"}}. ¡Una gran\nadquisición, sin duda!",
      "USfr": "Encore merci d'avoir acheté\n{{fun_0008000E arg=\"0x00CD06006300650074000A00630065007400740065000000\"}} inimitable\n{{fun_00030011 arg=\"0x0000\"}}!\nÀ toi le bonheur de vivre\n{{fun_0006000E arg=\"0x0E0065006E0074006F0075007200E900100065006E0074006F0075007200E9006500\"}} de chefs-d'œuvre!"
    }
  },
  {
    "label": "003",
    "locale": {
      "EUde": "Hier ist {{fun_0008000E arg=\"0x00CD060064006500720006006400690065000600640061007300\"}} gewünschte\n{{fun_00030011 arg=\"0x0000\"}}!\nVielen Dank und bis zum\nnächsten Mal!\nUmtausch und Erstattung\nausgeschlossen.",
      "EUen": "Ol' Redd wants to thank ya\nfor coming by Redd's Gallery\nand purchasing a very fine\n{{fun_00030011 arg=\"0x0000\"}}!\nThis delivery completes your\npurchase! All sales final!",
      "EUes": "¡El viejo Ladino te quiere dar\nlas gracias por tu visita a su\ngalería y por la compra de{{fun_0008000E arg=\"0x00CD02006C00060020006C0061000000\"}}\n{{fun_00030011 arg=\"0x0000\"}}!\nLa transacción es definitiva.\n¡No se admiten devoluciones!",
      "EUfr": "Encore merci d'avoir acheté\n{{fun_0008000E arg=\"0x00CD06006300650074000A00630065007400740065000000\"}} impayable\n{{fun_00030011 arg=\"0x0000\"}} !\nProfites-en bien !\n(Pour toute réclamation,\naller voir ailleurs si j'y suis.)",
      "EUit": "il vecchio Volpolo ti ringrazia\ndi nuovo per aver acquistato\nquest{{fun_0012000E arg=\"0x100002006F00020061000000\"}} preziosissim{{fun_0012000E arg=\"0x100002006F00020061000000\"}}\n{{fun_00030011 arg=\"0x0000\"}}!\nOra la trattativa si può dire\nconclusa. Niente rimborsi!",
      "JPja": "このたびは　いなりギャラリーにて\n{{fun_00030011 arg=\"0x0000\"}}を\nごこうにゅう　いただき、\nありがとうございました～！\nしょうひんを　おとどけしますので\nどうぞ　おおさめ　くださいませ！",
      "KRko": "저희 여욱 갤러리에서\n{{fun_00030011 arg=\"0x0000\"}}{{fun_000E000E arg=\"0x020044C702007CB9\"}}\n구입해주셔서\n감사드립니다～!\n상품을 보내드리오니\n느긋하게 감상해주십시오!",
      "USen": "Ol' Redd wants to thank ya\nfor coming by Redd's Gallery\nand purchasing a very fine\n{{fun_00030011 arg=\"0x0000\"}}!\nThis delivery completes your\npurchase! All sales final!",
      "USes": "¡El viejo Ladino te quiere dar\nlas gracias por tu visita a su\ngalería y por la compra de{{fun_0008000E arg=\"0x00CD02006C00060020006C0061000000\"}}\n{{fun_00030011 arg=\"0x0000\"}}!\nLa transacción es definitiva.\n¡No se admiten devoluciones!",
      "USfr": "Encore merci d'avoir acheté\n{{fun_0008000E arg=\"0x00CD06006300650074000A00630065007400740065000000\"}} impayable\n{{fun_00030011 arg=\"0x0000\"}}!\nProfites-en bien!\n(Pour toute réclamation,\naller voir ailleurs si j'y suis.)"
    }
  }
]