﻿[
  {
    "label": "001",
    "locale": {
      "EUde": "Ich habe all deine Briefe\naufmerksam gelesen. Falls\ndu fürchtest, dass ich euch\nverlassen könnte, mach dir\nbitte keine Sorgen. Ich habe\nnicht vor, umzuziehen!",
      "EUen": "I read all the letters you sent\nme, and I understand your\nmessage. Don't worry. I'm\nnot going anywhere! Please\naccept this present as proof\nthat I'm true to my word.",
      "EUes": "He leído todas tus cartas y\nhe captado el mensaje.\nNo temas, que no me voy a\nninguna parte, cielín. Te\nenvío un regalo para que\nte quedes más tranquil{{fun_0006000E arg=\"0x02006F0002006100\"}}.",
      "EUfr": "J'ai bien lu toutes tes lettres\net j'ai bien compris où tu\nvoulais en venir. Je te prie\nd'accepter ce cadeau ainsi\nque ma plus profonde\ngratitude.",
      "EUit": "leggo tutte le lettere che\nmi mandi e ho capito cosa\nti spinge. Non ti devi\npreoccupare... Non me ne\nvado! Ti mando questo\nregalo in segno di amicizia.",
      "JPja": "あんなに　たくさんのてがみを\nおくってくれて　ありがとう。\nだいじょうぶよ、アタシは\nけっして　にげたりしないから。\nこれは　てがみの　おかえしよ。\nうけとってちょうだい。",
      "KRko": "편지를 그렇게 많이 보내주다니\n정말 고마워.\n하지만 나 어디 도망 안 가니까\n그렇게 불안해하지 않아도 돼.\n이건 편지에 대한 보답이야.\n나의 작은 성의니까 받아줘.",
      "USen": "I read all the letters you sent\nme, and I understand your\nmessage. Don't worry. I'm\nnot going anywhere! Please\naccept this present as proof\nthat I'm true to my word.",
      "USes": "He leído todas tus cartas y\nhe captado el mensaje.\nNo temas, que no me voy a\nninguna parte, cielín. Te\nenvío un regalo para que\nte quedes más tranquil{{fun_0006000E arg=\"0x02006F0002006100\"}}.",
      "USfr": "J'ai bien lu toutes tes lettres\net j'ai bien compris où tu\nvoulais en venir. Je te prie\nd'accepter ce cadeau ainsi\nque ma plus profonde\ngratitude."
    }
  },
  {
    "label": "002",
    "locale": {
      "EUde": "Ich habe all deine Briefe mit\nFreuden gelesen. Vielen Dank\ndafür. Da ich nicht weiß, was\nich sagen soll, sende ich dir\nstattdessen ein Geschenk als\nZeichen meiner Anerkennung.",
      "EUen": "I finished reading that bundle\nof letters from you. Such\nemotion and drama! I won't\ndiminish them by responding\nwith words; please accept\nthis small token instead.",
      "EUes": "Por fin he leído todas tus\ncartas. ¡Son fabulosas!\nLas palabras no bastan para\nexpresar lo mucho que me\nhan gustado, así que te\nmando este regalo, amor.",
      "EUfr": "J'ai bien lu toutes tes\nlettres, et je ne sais pas quoi\ny répondre... Accepte ce\ncadeau. Il en dira plus long\nque des mots ne sauraient le\nfaire.",
      "EUit": "ho appena finito di leggere\nil pacco di lettere che mi hai\nspedito. Quante emozioni mi\nhai trasmesso! Rispondere\na parole non basterebbe,\nquindi ti mando un regalo.",
      "JPja": "こみあげる　かんじょうに\nゆだねて　かかれた　てがみ、\nぜんぶ　よませてもらったわ。\nコトバでかえすのは　ヤボだから、\nこれを　アナタにおくるわね。",
      "KRko": "감정을 주체하지 못하고\n마구 휘갈긴 당신의 편지・・・.\n전부 다 읽어보았어.\n뭐라 답하기 힘든 이 심정・・・.\n이 선물에 담아 보낼게.",
      "USen": "I finished reading that bundle\nof letters from you. Such\nemotion and drama! I won't\ndiminish them by responding\nwith words; please accept\nthis small token instead.",
      "USes": "Por fin he leído todas tus\ncartas. ¡Son fabulosas!\nLas palabras no bastan para\nexpresar lo mucho que me\nhan gustado, así que te\nmando este regalo, amor.",
      "USfr": "J'ai bien lu toutes tes\nlettres, et je ne sais pas quoi\ny répondre... Accepte ce\ncadeau. Il en dira plus long\nque des mots ne sauraient le\nfaire."
    }
  },
  {
    "label": "003",
    "locale": {
      "EUde": "Obwohl die schiere Anzahl\ndeiner Briefe abschreckend\nwar, habe ich sie alle sehr\ngründlich gelesen. Zum\nDank sende ich dir anbei\nein kleines Geschenk!",
      "EUen": "I was stunned by the volume\nof them at first, but I read\nall your letters. Don't worry,\nmy dear. I'm not leaving you.\nAnd if one day I must, I'll\nstill always be in your heart.",
      "EUes": "Me he asustado al ver tantas\ncartas, pero las he leído\ntodas. No temas, flor, no\nvoy a irme. Y si tuviera que\nhacerlo, siempre te llevaría\nen mi corazón.",
      "EUfr": "J'ai bien lu toutes tes\nlettres, et je ne sais pas quoi\ny répondre... En tout cas,\nsache que je serai toujours\nlà pour toi.",
      "EUit": "all'inizio ero scioccata dalla\nquantità di lettere che mi\nmandi, ma le ho sempre lette\ntutte. Non preoccuparti, non\nti lascio! E se mai dovrò,\nti resterò sempre nel cuore.",
      "JPja": "ちょっと　ビックリしたけど、\nあなたからの　たくさんの\nてがみ、よませてもらったわよ。\nシンパイしないで、アタシは\nどこにも　いかないから・・・。\nアナタの　むねのうちにいるわ。",
      "KRko": "좀 놀라긴 했는데\n당신이 보내준 대량의 편지,\n빠짐없이 모두 읽어보았어.\n그렇게 불안해하지 않아도\n나 도망 안 가니까 걱정 마・・・.\n당신의 마음속에 항상 있을게.",
      "USen": "I was stunned by the volume\nof them at first, but I read\nall your letters. Don't worry,\nmy dear. I'm not leaving you.\nAnd if one day I must, I'll\nstill always be in your heart.",
      "USes": "Me he asustado al ver tantas\ncartas, pero las he leído\ntodas. No temas, flor, no\nvoy a irme. Y si tuviera que\nhacerlo, siempre te llevaría\nen mi corazón.",
      "USfr": "J'ai bien lu toutes tes\nlettres, et je ne sais pas quoi\ny répondre... En tout cas,\nsache que je serai toujours\nlà pour toi."
    }
  },
  {
    "label": "004",
    "locale": {
      "EUde": "Vielen Dank für all die vielen\nBriefe, die du mir gesendet\nhast! Vielleicht könntest du\nsie in Zukunft gleichmäßig\nüber die Woche verteilen? \nSo bekäme ich öfter Post!",
      "EUen": "I was surprised to see that\nmany letters from you in my\nmailbox. I'm touched you'd\nspend so much time on me,\nbut I could enjoy them more\nif they came one at a time.",
      "EUes": "Me alegra que dediques\ntanto tiempo a escribirme,\ncariñín, pero disfrutaría\nmás de tus cartas si me\nlas enviaras de una en una.",
      "EUfr": "J'ai été touchée de voir\ncomme tu penses à moi.\nToutes ces lettres...\nVraiment, je ne sais pas quoi\nrépondre, sinon que c'est...\nmagnifique !",
      "EUit": "sono rimasta stupefatta\nda tutte le tue lettere che mi\nsono trovata nella cassetta.\nMi commuove tutto questo\naffetto, ma preferirei che\nmi arrivassero una per una.",
      "JPja": "ポストのなかを　のぞいたら\nアナタのてがみが　なんつうも\nあって、ビックリしちゃった。\nうれしかったけれど、できれば\n1つうずつ　おくってほしいわ。\nすこしずつ　よみたいじゃない？",
      "KRko": "우편함을 들여다봤더니\n당신이 보낸 편지가 여러 개\n있어서 깜짝 놀랐어.\n기쁘긴 하지만 가급적이면\n편지는 한 통씩 보내줄래?\n난 조금씩 읽고 싶다구.",
      "USen": "I was surprised to see that\nmany letters from you in my\nmailbox. I'm touched you'd\nspend so much time on me,\nbut I could enjoy them more\nif they came one at a time.",
      "USes": "Me alegra que dediques\ntanto tiempo a escribirme,\ncariñín, pero disfrutaría\nmás de tus cartas si me\nlas enviaras de una en una.",
      "USfr": "J'ai été touchée de voir\ncomme tu penses à moi.\nToutes ces lettres...\nVraiment, je ne sais pas quoi\nrépondre, sinon que c'est...\nmagnifique!"
    }
  },
  {
    "label": "005",
    "locale": {
      "EUde": "Danke, dass du mir so viele\nBriefe gesendet hast! Ich\nverstehe, dass du nicht alles\nin einem Brief untergebracht\nhast. Für dein junges Alter\nschreibst du erstaunlich gut!",
      "EUen": "Thank you for sending me so\nmany letters. I understand\nhow your feelings for me\ncouldn't be confined to just\none. Such raw emotion is\nadmirable in one so young!",
      "EUes": "¡Gracias por tus cartas!\nSé que es difícil expresar\nlo que sientes por mí solo\ncon una. Es adorable que\nseas tan sensible, solete.",
      "EUfr": "Je te remercie du fond du\ncœur de m'avoir envoyé\ntoutes ces lettres...\nJ'avoue que je suis flattée\nde constater que tu passes\nautant de temps à m'écrire.",
      "EUit": "grazie per avermi spedito\ncosì tante lettere. Capisco\ndi meritare più di una\nsemplice letterina, ma non\nmi aspettavo tanto affetto\nda un{{fun_0006000E arg=\"0x000002006100\"}} giovincell{{fun_0006000E arg=\"0x02006F0002006100\"}} come te!",
      "JPja": "てがみ、ありがとね。\n1つうに　おさえきれない\nアナタのおもい、たしかに\nうけとったわよ・・・。\nそんな　ピュアな　キモチを\nいつまでも　わすれないでね。",
      "KRko": "편지 고마웠어.\n한 통에는 전부 담을 수 없는\n당신의 마음을 알 수 있었어・・・.\n당신의 그 순수한 마음,\n언제까지나 변하지 않았으면 해.",
      "USen": "Thank you for sending me so\nmany letters. I understand\nhow your feelings for me\ncouldn't be confined to just\none. Such raw emotion is\nadmirable in one so young!",
      "USes": "¡Gracias por tus cartas!\nSé que es difícil expresar\nlo que sientes por mí solo\ncon una. Es adorable que\nseas tan sensible, solete.",
      "USfr": "Je te remercie du fond du\ncœur de m'avoir envoyé\ntoutes ces lettres...\nJ'avoue que je suis flattée\nde constater que tu passes\nautant de temps à m'écrire."
    }
  },
  {
    "label": "006",
    "locale": {
      "EUde": "Danke für die vielen Briefe!\nIch hoffe, dass auch andere\nin den Genuss deiner Brief-\nschreibekunst kommen!\nNicht, dass sie noch ganz\nneidisch auf mich werden!",
      "EUen": "Thank you for all the letters!\nThey made me really happy.\nBut maybe you should send\nsome to others as well. We\ncan't have the whole town\njealous of me, now can we?",
      "EUes": "Gracias por todas tus cartas,\nestrellita, pero a lo mejor\ndeberías escribir también a\notros vecinos. No querrás\nque estén celosos de mí,\n¿verdad?",
      "EUfr": "Je te remercie du fond du\ncœur de m'avoir envoyé\ntoutes ces lettres...\nVraiment, je ne sais pas quoi\nrépondre, sinon que c'est...\nmagnifique !",
      "EUit": "ti ringrazio per tutte le tue\nlettere! Mi hanno fatto tanto\npiacere. Ma devi mandarne\nanche ad altri. Altrimenti\ntutta la città sarà invidiosa\ndi me e non va bene!",
      "JPja": "たくさんのてがみ、ありがとね。\nでも、アタシに　ばっかり\nてがみ　おくってていいの？\nアタシは　うれしいけど、\nほかの　みんなとも\nなかよくしなさいね。",
      "KRko": "편지 잔뜩 보내줘서 고마워.\n근데 혹시 나한테만 그렇게\n편지를 쓰고 있는 건 아니야?\n난 기쁘지만・・・.\n다른 사람들하고도 친하게\n지내는 게 좋을 것 같아.",
      "USen": "Thank you for all the letters!\nThey made me really happy.\nBut maybe you should send\nsome to others as well. We\ncan't have the whole town\njealous of me, now can we?",
      "USes": "Gracias por todas tus cartas,\nestrellita, pero a lo mejor\ndeberías escribir también a\notros vecinos. No querrás\nque estén celosos de mí,\n¿verdad?",
      "USfr": "Je te remercie du fond du\ncœur de m'avoir envoyé\ntoutes ces lettres...\nVraiment, je ne sais pas quoi\nrépondre, sinon que c'est...\nmagnifique!"
    }
  }
]