﻿[
  {
    "label": "001",
    "locale": {
      "EUde": "Ich sende dir zu deinem\nEhrentag ein Geschenk,\ndas dir mit Sicherheit gefällt.\nFalls nicht, solltest du deinen\nGeschmack überdenken.\nAlles Gute zum Geburtstag!",
      "EUen": "I found the perfect present\nfor you. I know you'll love it.\nIf you don't, then...then your\ntastes just aren't as refined\nas mine. Either way...happy\nbirthday!",
      "EUes": "Tengo el regalo perfecto\npara ti. ¡Te encantará!\nY si no... bueno, será porque\nno eres tan refinad{{fun_0006000E arg=\"0x02006F0002006100\"}} como\nyo. ¡Feliz cumpleaños!",
      "EUfr": "Je t'ai déniché le cadeau\nparfait. Tu vas l'adorer.\nSinon... c'est que tu n'as\nvraiment aucun goût. Enfin...\nHeureux anniversaire !",
      "EUit": "ho trovato il regalo perfetto\nper te. Sono certa che lo\nadorerai. Se non ti piacerà,\nvuol dire che non hai buon\ngusto come la sottoscritta!\nAd ogni modo, auguri!",
      "JPja": "アナタに　ピッタリの\nプレゼントを　えらんだわよ。\nきっと　きにいると　おもうわ。\nいや、どうかしら？\nまぁ、いいわ・・・。\nおたんじょうび　おめでとう！",
      "KRko": "당신한테 딱 어울릴 만한\n선물을 하나 골라봤어.\n틀림없이 마음에 들 거야.\n혹시 안 들면 어쩌지?\n아아, 모르겠다・・・.\n아무튼 생일 축하해!",
      "USen": "I found the perfect present\nfor you. I know you'll love it.\nIf you don't, then...then your\ntastes just aren't as refined\nas mine. Either way...happy\nbirthday!",
      "USes": "Tengo el regalo perfecto\npara ti. ¡Te encantará!\nY si no... bueno, será porque\nno eres tan refinad{{fun_0006000E arg=\"0x02006F0002006100\"}} como\nyo. ¡Feliz cumpleaños!",
      "USfr": "Je t'ai déniché le cadeau\nparfait. Tu vas l'adorer.\nSinon... c'est que tu n'as\nvraiment aucun goût. Enfin...\nHeureux anniversaire!"
    }
  },
  {
    "label": "002",
    "locale": {
      "EUde": "Ich wünsche dir alles Gute\nzum Geburtstag!\nIn deinem Alter ist es von\ngrößter Wichtigkeit, auch\nin Sachen Einrichtung mal\netwas Neues zu wagen.",
      "EUen": "Happy birthday! At your age,\nI imagine it's best you keep\nchallenging yourself to try\nnew things. Otherwise\nyou'll get stuck in your ways.\nPlease do give this a try.",
      "EUes": "¡Felicidades! Siento mucho\nno haber podido ir a tu\nfiesta. Para compensarte,\nhe comprado esto para ti.\nEs lo que más vende.",
      "EUfr": "Joyeux anniversaire !\nÀ ton âge, on aime\nexpérimenter.\nAlors essaie ceci, tu ne le\nregretteras pas.\nEnfin j'espère...",
      "EUit": "auguri! Alla tua età è bene\ncontinuare a intraprendere\ncose nuove per mantenere\nuna mente aperta. Altrimenti\nsi rischia di chiudersi in sé.\nMi raccomando, provaci!",
      "JPja": "おたんじょうび、おめでとう！\nアナタの　としごろなら、\nおもいきって　こういうものに\nちょうせんしても\nいいんじゃないかしら？\nためしてみてちょうだい。",
      "KRko": "생일 축하해!\n당신 나이 정도면 이런 것도\n어울리지 않을까 싶은데・・・.\n한번 시도해봐～",
      "USen": "Happy birthday! At your age,\nI imagine it's best you keep\nchallenging yourself to try\nnew things. Otherwise\nyou'll get stuck in your ways.\nPlease do give this a try.",
      "USes": "¡Felicidades! Siento mucho\nno haber podido ir a tu\nfiesta. Para compensarte,\nhe comprado esto para ti.\nEs lo que más vende.",
      "USfr": "Joyeux anniversaire!\nÀ ton âge, on aime\nexpérimenter.\nAlors essaie ceci, tu ne le\nregretteras pas.\nEnfin j'espère..."
    }
  },
  {
    "label": "003",
    "locale": {
      "EUde": "Alles Gute zum Geburtstag!\nAuch im fortschreitenden\nAlter ist es wichtig, jeden\nGeburtstag gebührend zu\nfeiern. Enttäusch mich nicht!",
      "EUen": "Happy birthday! It's such an\nadmirable thing to be able to\ncelebrate from the bottom\nof your heart regardless of\nyour age. Congratulations on\nturning one year older.",
      "EUes": "¡Muchas felicidades! Yo me\npongo muy triste cuando\ncumplo años, pero tú te lo\nhas tomado de maravilla.\nLos regalos ayudan, ¿no?\nJi, ji... ¡Aquí tienes el mío!",
      "EUfr": "Mes félicitations pour ton\nanniversaire. Tu as l'âge que\nje voudrais encore avoir.\nN'aie pas hâte de grandir,\ncela viendra bien assez tôt.\nProfite de ta jeunesse.",
      "EUit": "auguri! Avere il coraggio\ndi festeggiare con gioia\nindipendentemente dall'età\nraggiunta è una cosa più\nche ammirevole. Ti auguro\nun altro anno meraviglioso!",
      "JPja": "おたんじょうび、おめでとう！\n\nいくつになっても　こんなふうに、\nココロから　たんじょうびを\nおいわい　できるのって\nシアワセなことよね。",
      "KRko": "생일 축하해!\n나이를 먹어도 생일이 되면\n이렇게 항상 똑같은 마음으로\n생일을 축하할 수 있다는 건\n정말 행복한 일인 것 같아.",
      "USen": "Happy birthday! It's such an\nadmirable thing to be able to\ncelebrate from the bottom\nof your heart regardless of\nyour age. Congratulations on\nturning one year older.",
      "USes": "¡Muchas felicidades! Yo me\npongo muy triste cuando\ncumplo años, pero tú te lo\nhas tomado de maravilla.\nLos regalos ayudan, ¿no?\nJi, ji... ¡Aquí tienes el mío!",
      "USfr": "Mes félicitations pour ton\nanniversaire. Tu as l'âge que\nje voudrais encore avoir.\nN'aie pas hâte de grandir,\ncela viendra bien assez tôt.\nProfite de ta jeunesse."
    }
  }
]