﻿[
  {
    "label": "001",
    "text": "Als ich dieses Kleidungsstück\nim Laden gesehen habe,\nmusste ich sofort an dich\ndenken. Du bist {{fun_0006000E arg=\"0x0A00650069006E00650072000800650069006E006500\"}} der\nWenigen, die so was tragen\nkönnen. Viel Spaß damit!"
  },
  {
    "label": "002",
    "text": "Diese Kopfbedeckung wird\neine ganz neue Seite an dir\nzum Vorschein bringen. Du\nkannst sie auch aufsetzen,\nwenn du nachts unerkannt\nherumschleichen willst."
  },
  {
    "label": "003",
    "text": "Hier ist ein Geschenk, das\nbestimmt ganz wunderbar\nan dir aussieht!\nIch kann es kaum erwarten,\ndich damit rumlaufen zu\nsehen..."
  },
  {
    "label": "004",
    "text": "Diese Schuhe sind für dich!\nProbier sie gleich mal an!\nWenn sie beim Tanzen nicht\ndrücken, habe ich genau die\nrichtige Größe erwischt!"
  },
  {
    "label": "005",
    "text": "Als ich das hier im Laden\ngesehen habe, musste ich es\ndir einfach kaufen!\nDer Verkäufer wollte gar\nnicht glauben, dass ich es\nnicht für mich selbst kaufe..."
  },
  {
    "label": "006",
    "text": "Als ich dieses Möbelstück für\ndich ausgesucht habe, kam\nich mir vor, als würde ich un-\nser gemeinsames Haus ein-\nrichten! Ich hoffe, es passt\nzu deinen restlichen Möbeln!"
  },
  {
    "label": "007",
    "text": "Diese Tapete habe ich extra\nfür dich ausgesucht. Genau\nso eine hätte ich auch gern\nin meinem Zimmer. Ich hoffe,\ndas Design ist dir nicht zu\nübertrieben..."
  },
  {
    "label": "008",
    "text": "Ich hatte mir vorgenommen,\nden perfekten Teppich für\ndich auszusuchen. Und hier\nist er! Der Teppich, von dem\ndu bestimmt schon dein\nLeben lang geträumt hast!"
  },
  {
    "label": "009",
    "text": "„Was macht den einzigartigen\nStil von {{fun_00000005 arg=\"\"}} aus?“\nDiese Frage habe ich mir\nlange gestellt. Ich habe mich\nentschlossen, meine Antwort\ndiesem Brief beizulegen."
  },
  {
    "label": "010",
    "text": "Dieses Geschenk soll dir\nhelfen zu verstehen, was es\nbedeutet, {{fun_00010005 arg=\"\"}} zu sein.\nViel Spaß beim Entdecken\ndes wahren {{fun_00010005 arg=\"\"}}!"
  }
]