﻿[
  {
    "label": "001",
    "text": "Willkommen zur Akademie\ndes schönen Hauses!\nAlle Mitglieder besitzen die\nBenutzungsbefugnis für das\nAdsH-Musterdorf. Wir freuen\nuns auf deinen Besuch!"
  },
  {
    "label": "002",
    "text": "Vielen Dank dafür, dass du\ndas AdsH-Musterdorf noch\nschöner gemacht hast!\nWenn du uns weiterhin\nunterstützen möchtest,\nschau gern wieder vorbei!"
  },
  {
    "label": "003",
    "text": "Vielen Dank für deinen\nkürzlichen Besuch im\nAdsH-Musterdorf!\nAnbei erhältst du den von dir\nbestellten Gegenstand aus\neinem der Modellhäuser!"
  }
]