﻿[
  {
    "label": "001",
    "text": "Wie geht's dir denn? Ich hab\ndieses voll süße Briefpapier,\nalso musste ich dir direkt\neinen Brief schreiben! \nWollen wir uns aufstylen und\nzusammen rausgehen?"
  },
  {
    "label": "002",
    "text": "Ich wollte dir unbedingt was\nerzählen, also hab ich diesen\nBrief angefangen. Und jetzt\nweiß ich nicht mehr, was! \nWenn's mir wieder einfällt,\nkomm ich einfach vorbei!"
  },
  {
    "label": "003",
    "text": "Dieser Brief soll eine Erin-\nnerung sein! Vergiss mich\nnicht! Lass uns für immer\nbeste Freunde sein! Ich werd\nauf meinem neuen Album\neinen Song über dich singen!"
  },
  {
    "label": "004",
    "text": "In diesem Satz sind all meine\nknuddligen, herzigen Gefühle\nfür dich drin!  Aber das\nreicht nicht! Wir sollten uns\nbald treffen und darüber\nreden, wie toll wir sind!"
  },
  {
    "label": "005",
    "text": "Übrigens, ich schreib diesen\nBrief gerade auf dem Boden!\nEchte Stars kriegen in jeder\nSituation ihr Zeug erledigt!\nNächstes Mal schreib ich\ndir im Gesangsunterricht!"
  },
  {
    "label": "006",
    "text": "Sag's bloß nicht den Medien,\naber ich will meine Frisur\nändern! Aber was werden sie\nsagen? Werden sie trotzdem\nnoch erkennen, dass ihr Star\ndarunter steckt?"
  },
  {
    "label": "007",
    "text": "Seit ich denken kann, wollte\nich eine Brieffreundschaft\nhaben! Damit wirkt man so\nerwachsen, find ich! Schreib\nmir also zurück, sonst ist\nmein Plan futsch!"
  },
  {
    "label": "008",
    "text": "Dieser Brief enthält einen\nZauber! {{fun_0003000E arg=\"\"}}{{fun_00000005 arg=\"\"}}... Du\nwillst mit mir spielen... Du\nwillst mit mir spielen... Du\nwillst mit mir spielen! Hat's\ngeklappt? Kommst du her?"
  },
  {
    "label": "009",
    "text": "Ich wollte dich schon besu-\nchen kommen, aber dann\ndacht ich, ich schreib dir!\nDas ist spaßig und du bist\neh jemand, der Briefe\nbevorzugt! "
  },
  {
    "label": "010",
    "text": "Manchmal ist es einfacher,\nwas zu schreiben, als es zu\nsagen... Na ja, ich wollte dir\nfür deine Freundschaft dan-\nken! Du bist MEIN Star!"
  }
]