﻿[
  {
    "label": "001",
    "text": "Vielen Dank, dass du mich\nmit 'nem Brief UND 'nem\nGeschenk hier begrüßt! Das\nbedeutet doch offiziell, dass\nwir Sportsfreunde sind! Hier\njedenfalls etwas für dich!"
  },
  {
    "label": "002",
    "text": "Dein Willkommensgeschenk\nist grad angekommen... Ich\nbin begeistert! Und weil ich\nein echter Sportsmann bin,\nhab ich auch was für dich!"
  },
  {
    "label": "003",
    "text": "Ich hätte nicht gedacht, dass\nich gleich mit 'nem Geschenk\nhier begrüßt werde! Komm\ndoch mal rüber zum Joggen\noder so! Dann können wir\nuns besser kennenlernen!"
  },
  {
    "label": "004",
    "text": "Vielen Dank für den netten\nBrief an den Neuen in deiner\nStadt! Du bist wie ein Coach,\nder das Talent erkennt und\nes zur Goldmedaille führt...\nNur, dass ich schon eine hab!"
  },
  {
    "label": "005",
    "text": "Auch wenn ich nicht danach\naussehe... Ich bin tierisch\nschüchtern... Okay, ich bin's\nnicht! Aber ich hab mich\ntrotzdem über deinen Brief\ngefreut! Danke dir vielmals!"
  },
  {
    "label": "006",
    "text": "Vielen Dank, dass du mich\nso nett begrüßt hast! Kleine\nVorwarnung: Ab sofort weht\nhier ein anderer Wind...\nIch werde diesen Ort in ein\nTrainingslager verwandeln!"
  }
]