﻿[
  {
    "label": "001",
    "text": "Hier ist das Geschenk, das\nich dir vorhin nicht geben\nkonnte. Es ist eine von\nmeinen Lieblingssachen,\naber du kannst es gerne\nhaben. Schnüff..."
  },
  {
    "label": "002",
    "text": "Dachtest du, ich hätte dein\nGeschenk vergessen? Aber\nnein! Ich hab mir extra einen\nZettel geschrieben, den ich\ndann zufällig in einem meiner\nComics wiedergefunden hab."
  },
  {
    "label": "003",
    "text": "Danke für deine Hilfe vorhin.\nAber wär es nicht schneller,\nwenn man so was wie einen\nelektronischen Brief schicken\nkönnte? Die Idee sollte ich\nmir patentieren lassen!"
  }
]