﻿[
  {
    "label": "001",
    "text": "ながーい　てがみにつづられた\nアンタのきもち、うけとったよ！\nまいばん　ねるまえに\nよむようにしてるんだ、ありがと！\nおれいに　コレを　おくるよ、\nきにいると　いいんだけどね！"
  },
  {
    "label": "002",
    "text": "やけに　じょうねつてきな\nながい　てがみだね。\nガラになく、ドキドキしちゃった！\nそんな　アンタのおもいに\nおれいをさせてね、サンキュー！"
  },
  {
    "label": "003",
    "text": "アンタが　つたえたいこと、\nちゃんと　ぜーんぶよんだからね。\nつもりにつもった　おもいを\nかんじたよ、ありがとさん！\nってことで、プレゼントを\nよういしたし、うけとっちゃいな！"
  },
  {
    "label": "004",
    "text": "てがみ、ありがとさん！\nひとばんかけて、アンタの\nながーいてがみ　よんだよ。\nウチのことを　おもってくれて、\nすなおに　うれしいよ！\nこれからも　よろしく！"
  },
  {
    "label": "005",
    "text": "アンタの　おもいが\nずっしりと　かんじられる\nてがみだったよ、サンキュー！\nそんなに　つたえたいことが\nあるなら、しゃべりにおいでよ。\nいつでも　だいかんげいだよ！"
  },
  {
    "label": "006",
    "text": "てがみ、ありがとね！\nアンタに　こんなに\nつたえたいことが　あったなんて、\nびっくりしちゃった！\nってことで、これからも\nすえながく　せわになるよ！"
  }
]