﻿[
  {
    "label": "001",
    "text": "ひっこしいわいの\nかべがみを　おくりますね！\nもちものらんにいれて、\nかべがみをえらんで\n「かべにはる」で\nはりかえてみてください！"
  },
  {
    "label": "002",
    "text": "ひっこしいわいの\nかべがみを　おくりますね！\nもちものらんにいれて、\nかべがみをえらんで\n「かべにはる」で\nはりかえてみてください！"
  },
  {
    "label": "003",
    "text": "そんちょう　しゅうにん\n{{fun_00070004 arg=\"0x0000\"}}しゅうねん\nおめでとうございます！\n\nきねんの　おきどけい、ぜひ\nごじたくに　かざってください！"
  },
  {
    "label": "004",
    "text": "{{fun_000E0004 arg=\"0x00CD\"}}がつ{{fun_000F0004 arg=\"0x00CD\"}}にちに、\n{{fun_00000011 arg=\"0x0000\"}}さんが　このむらの\nそんちょうに　しゅうにんされて\n{{fun_00070004 arg=\"0x0000\"}}しゅうねんを　むかえました！\nそんみんの　みなさんにも\nきねんひんを　おとどけします！"
  },
  {
    "label": "005",
    "text": ""
  }
]