﻿[
  {
    "label": "001",
    "text": "～　Happy Valentine　～\nオトナな　アタシから\nココロをこめた　チョコを\nプレゼントさせてもらうわね。\nアナタったら　ドキドキしながら\nたべてくれたりするのかしら？"
  },
  {
    "label": "002",
    "text": "Happy Valentine！\nいくつに　なっても、\nチョコをあげるのって　たのしい！\nアタシのこと　わかってくれてる\n{{fun_00000005 arg=\"\"}}くんだから　きっと\nうけとって　くれるわよね。"
  },
  {
    "label": "003",
    "text": "Happy Valentine！\nひさびさに　はりきって\nチョコを　てづくりしたのよ？\n\nアタシのきもちが　たくさん\nはいった　コレ、うけとってね。"
  },
  {
    "label": "004",
    "text": "ハッピー　バレンタイン！\nいつも　{{fun_00000005 arg=\"\"}}くんに　\nおせわに　なってるから・・・。\nこれは　そのおれいよ。\nこれからも　たよってしまう\nかもしれないけど、よろしくね。"
  },
  {
    "label": "005",
    "text": "Happy Valentine！\nきょうは　たいせつなヒトに\nおもいをつたえるひ　なのよ。\nアタシ、アナタとの\nゆうじょうに　かんしゃするひに\nしようと　おもうわ。"
  },
  {
    "label": "006",
    "text": "～　ハッピー　バレンタイン　～\nアナタは　いくつ　プレゼントを\nもらっちゃったのかしら？\nアタシの　きもちも　ついでに\nうけとっておいてもらえると、\nうれしいんだけどな。"
  },
  {
    "label": "007",
    "text": "Happy Valentine！\nきょうは　たいせつなヒトに\nプレゼントをするひ　なのよ。\nアナタ、ともだちに　ちゃんと\nおくりものした？　もちろん\nアタシは　よういしたわよ。"
  },
  {
    "label": "008",
    "text": "バレンタイン　おめでと！\nアナタと　おしゃべりすると、\nアタシ　げんきが　わいてくるの。\nカンシャの　きもちを\nプレゼントにしてみたわ、\nうけとって　ちょうだい。"
  },
  {
    "label": "009",
    "text": "ハッピー　バレンタイン！\nアタシが　まいにち\nたのしくすごせているのは、\nいつも　あかるい　アナタの\nおかげだって　おもってるのよ。\nだから　おれいをさせてね！"
  }
]