﻿[
  {
    "label": "001",
    "text": "{{fun_00070004 arg=\"0x0000\"}}がつ{{fun_00070004 arg=\"0x0100\"}}にちは\n1ねんのうちで　もっとも\nたいせつなひ、すなわち\nオレの　たんじょうびだ！\nオメェも　いわいに　きてくれよ、\nプレゼントを　ぶらさげてな！"
  },
  {
    "label": "002",
    "text": "{{fun_00070004 arg=\"0x0000\"}}がつ{{fun_00070004 arg=\"0x0100\"}}にちは\nオレのたんじょうびだ！\nオレんちで　パーティーするから\nぜひ　オメェも　きてくれよな！\nたのしみに　まってるぜ！"
  },
  {
    "label": "003",
    "text": "きたる　{{fun_00070004 arg=\"0x0000\"}}がつ{{fun_00070004 arg=\"0x0100\"}}にち、\n{{fun_00010005 arg=\"\"}}　たんじょうきねん\nパーティーを　かいさいする。\nプレゼントを　よういして\nオレんちに　しゅうごうすべし！"
  },
  {
    "label": "004",
    "text": "こないだは　たんじょうかいに\nきてくれて　ありがとな！\nプレゼントも　うれしかったぜ！\nてがみだと　ふしぎと　すなおな\nきもちで　いえるもんだな。\nこれからも　ヨロシクたのむぜ！"
  },
  {
    "label": "005",
    "text": "このまえの　たんじょうかい\nオレは　なにくわぬカオしてたが、\nオメェがきてくれたことが\nいちばん　うれしかったぜ！\nプレゼントも　きがきいてて\nさすがは　{{fun_00000005 arg=\"\"}}だな！"
  },
  {
    "label": "006",
    "text": "こないだは　たんじょうびを\nいわってくれて　ありがとな！\nオメェのプレゼント、いろいろと\nかんがえてくれてることが\nつたわってきて\nすんげー　うれしかったぜ！"
  },
  {
    "label": "007",
    "text": "こないだの　たんじょうかい、\nプレゼントまで　もらっちまって\nありがとな！"
  },
  {
    "label": "008",
    "text": "こないだは　たんじょうかいに\nきてくれて　サンキュー！\nプレゼントも　ありがとな！"
  },
  {
    "label": "009",
    "text": "こないだは　たんじょうびを\nいわってくれて　ありがとな！\n\nP.S.\nプレゼントも　サンキューだ！"
  }
]