﻿[
  {
    "label": "001",
    "text": "アイをこめて　{{fun_00010005 arg=\"\"}}"
  },
  {
    "label": "002",
    "text": "アイをこめて　{{fun_00010005 arg=\"\"}}"
  },
  {
    "label": "003",
    "text": "アイをこめて　{{fun_00010005 arg=\"\"}}"
  },
  {
    "label": "004",
    "text": "{{fun_00010005 arg=\"\"}}より"
  },
  {
    "label": "005",
    "text": "{{fun_00010005 arg=\"\"}}より"
  },
  {
    "label": "006",
    "text": "{{fun_00010005 arg=\"\"}}より"
  },
  {
    "label": "007",
    "text": "{{fun_00010005 arg=\"\"}}より"
  },
  {
    "label": "008",
    "text": "{{fun_00010005 arg=\"\"}}より"
  },
  {
    "label": "009",
    "text": "{{fun_00010005 arg=\"\"}}より"
  }
]