﻿[
  {
    "label": "001",
    "text": "おねがいしますね　{{fun_00010005 arg=\"\"}}"
  },
  {
    "label": "002",
    "text": "わすれないで！　{{fun_00010005 arg=\"\"}}"
  },
  {
    "label": "003",
    "text": "おもいでとともに　{{fun_00010005 arg=\"\"}}"
  },
  {
    "label": "004",
    "text": "ワクワクしてます　{{fun_00010005 arg=\"\"}}"
  },
  {
    "label": "005",
    "text": "たのしみな　{{fun_00010005 arg=\"\"}}"
  },
  {
    "label": "006",
    "text": "{{fun_00010005 arg=\"\"}}より"
  },
  {
    "label": "007",
    "text": "ちょっとしんぱい　{{fun_00010005 arg=\"\"}}"
  },
  {
    "label": "008",
    "text": "どうなるかしら？　{{fun_00010005 arg=\"\"}}"
  },
  {
    "label": "009",
    "text": "おもいで　うめる　{{fun_00010005 arg=\"\"}}"
  },
  {
    "label": "010",
    "text": "かんそうは？　{{fun_00010005 arg=\"\"}}"
  },
  {
    "label": "011",
    "text": "なやみちゅう・・・　{{fun_00010005 arg=\"\"}}"
  },
  {
    "label": "012",
    "text": "かじじょうずな　{{fun_00010005 arg=\"\"}}より"
  },
  {
    "label": "013",
    "text": "しんじてますよ　{{fun_00010005 arg=\"\"}}"
  },
  {
    "label": "014",
    "text": "まごころこめて　{{fun_00010005 arg=\"\"}}より"
  },
  {
    "label": "015",
    "text": "うけとってください　{{fun_00010005 arg=\"\"}}"
  }
]