﻿[
  {
    "label": "001",
    "text": "どう？　{{fun_00010005 arg=\"\"}}"
  },
  {
    "label": "002",
    "text": "こんじょうの　{{fun_00010005 arg=\"\"}}より"
  },
  {
    "label": "003",
    "text": "ぎりがたい　{{fun_00010005 arg=\"\"}}"
  }
]