﻿[
  {
    "label": "001",
    "text": "Best wishes! {{fun_00010005 arg=\"\"}}"
  },
  {
    "label": "002",
    "text": "Sincerely, {{fun_00010005 arg=\"\"}}"
  },
  {
    "label": "003",
    "text": "Sent by {{fun_00010005 arg=\"\"}}"
  },
  {
    "label": "004",
    "text": "From: {{fun_00010005 arg=\"\"}}"
  },
  {
    "label": "005",
    "text": "Regards, {{fun_00010005 arg=\"\"}}"
  }
]