﻿[
  {
    "label": "00",
    "locale": {
      "EUde": "{{wordInfo gender=\"3\" indefArticle=\"1\" defArticle=\"5\"}}Megafon",
      "EUen": "{{wordInfo gender=\"0\" indefArticle=\"1\" defArticle=\"3\"}}megaphone",
      "EUes": "{{wordInfo gender=\"1\" indefArticle=\"1\" defArticle=\"3\"}}megáfono",
      "EUfr": "{{wordInfo gender=\"1\" indefArticle=\"1\" defArticle=\"3\"}}mégaphone",
      "EUit": "{{wordInfo gender=\"1\" indefArticle=\"1\" defArticle=\"5\"}}megafono",
      "JPja": "アルバム",
      "KRko": "앨범",
      "USen": "{{wordInfo gender=\"0\" indefArticle=\"1\" defArticle=\"3\"}}megaphone",
      "USes": "{{wordInfo gender=\"1\" indefArticle=\"1\" defArticle=\"3\"}}megáfono",
      "USfr": "{{wordInfo gender=\"1\" indefArticle=\"1\" defArticle=\"3\"}}mégaphone"
    }
  },
  {
    "label": "01",
    "locale": {
      "EUde": "{{wordInfo gender=\"2\" indefArticle=\"2\" defArticle=\"4\"}}Lupe",
      "EUen": "{{wordInfo gender=\"0\" indefArticle=\"1\" defArticle=\"3\"}}pencil case",
      "EUes": "{{wordInfo gender=\"1\" indefArticle=\"1\" defArticle=\"3\"}}lapicero",
      "EUfr": "{{wordInfo gender=\"2\" indefArticle=\"2\" defArticle=\"4\"}}trousse",
      "EUit": "{{wordInfo gender=\"1\" indefArticle=\"1\" defArticle=\"8\"}}astuccio",
      "JPja": "えんぴつ",
      "KRko": "연필",
      "USen": "{{wordInfo gender=\"0\" indefArticle=\"1\" defArticle=\"3\"}}pencil case",
      "USes": "{{wordInfo gender=\"1\" indefArticle=\"1\" defArticle=\"3\"}}lapicero",
      "USfr": "{{wordInfo gender=\"2\" indefArticle=\"2\" defArticle=\"4\"}}trousse"
    }
  },
  {
    "label": "02",
    "locale": {
      "EUde": "{{wordInfo gender=\"1\" indefArticle=\"1\" defArticle=\"3\"}}Toaster",
      "EUen": "{{wordInfo gender=\"0\" indefArticle=\"1\" defArticle=\"3\"}}toaster oven",
      "EUes": "{{wordInfo gender=\"2\" indefArticle=\"2\" defArticle=\"4\"}}tostadora",
      "EUfr": "{{wordInfo gender=\"1\" indefArticle=\"1\" defArticle=\"3\"}}mini-four",
      "EUit": "{{wordInfo gender=\"1\" indefArticle=\"1\" defArticle=\"5\"}}tostapane",
      "JPja": "カイロ",
      "KRko": "손난로",
      "USen": "{{wordInfo gender=\"0\" indefArticle=\"1\" defArticle=\"3\"}}toaster oven",
      "USes": "{{wordInfo gender=\"2\" indefArticle=\"2\" defArticle=\"4\"}}tostadora",
      "USfr": "{{wordInfo gender=\"1\" indefArticle=\"1\" defArticle=\"3\"}}mini-four"
    }
  },
  {
    "label": "03",
    "locale": {
      "EUde": "{{wordInfo gender=\"1\" indefArticle=\"1\" defArticle=\"3\"}}Schwimmreifen",
      "EUen": "{{wordInfo gender=\"0\" indefArticle=\"1\" defArticle=\"3\"}}water wing",
      "EUes": "{{wordInfo gender=\"1\" indefArticle=\"1\" defArticle=\"3\"}}peine",
      "EUfr": "{{wordInfo gender=\"2\" indefArticle=\"2\" defArticle=\"4\"}}bouée",
      "EUit": "{{wordInfo gender=\"1\" indefArticle=\"1\" defArticle=\"5\"}}salvagente",
      "JPja": "カッター",
      "KRko": "커터칼",
      "USen": "{{wordInfo gender=\"0\" indefArticle=\"1\" defArticle=\"3\"}}water wing",
      "USes": "{{wordInfo gender=\"1\" indefArticle=\"1\" defArticle=\"3\"}}peine",
      "USfr": "{{wordInfo gender=\"2\" indefArticle=\"2\" defArticle=\"4\"}}bouée"
    }
  },
  {
    "label": "04",
    "locale": {
      "EUde": "{{wordInfo gender=\"1\" indefArticle=\"1\" defArticle=\"3\"}}Brieföffner",
      "EUen": "{{wordInfo gender=\"0\" indefArticle=\"1\" defArticle=\"3\"}}paperweight",
      "EUes": "{{wordInfo gender=\"1\" indefArticle=\"1\" defArticle=\"3\"}}llavero",
      "EUfr": "{{wordInfo gender=\"1\" indefArticle=\"1\" defArticle=\"3\"}}presse-papier",
      "EUit": "{{wordInfo gender=\"1\" indefArticle=\"1\" defArticle=\"5\"}}fermacarte",
      "JPja": "キーホルダー",
      "KRko": "핸드폰",
      "USen": "{{wordInfo gender=\"0\" indefArticle=\"1\" defArticle=\"3\"}}paperweight",
      "USes": "{{wordInfo gender=\"1\" indefArticle=\"1\" defArticle=\"3\"}}llavero",
      "USfr": "{{wordInfo gender=\"1\" indefArticle=\"1\" defArticle=\"3\"}}presse-papier"
    }
  },
  {
    "label": "05",
    "locale": {
      "EUde": "{{wordInfo gender=\"1\" indefArticle=\"1\" defArticle=\"3\"}}Einkaufszettel",
      "EUen": "{{wordInfo gender=\"0\" indefArticle=\"1\" defArticle=\"3\"}}walking stick",
      "EUes": "{{wordInfo gender=\"2\" indefArticle=\"2\" defArticle=\"4\"}}revista",
      "EUfr": "{{wordInfo gender=\"1\" indefArticle=\"1\" defArticle=\"3\"}}pense-bête",
      "EUit": "{{wordInfo gender=\"1\" indefArticle=\"1\" defArticle=\"5\"}}bloc-notes",
      "JPja": "グローブ",
      "KRko": "글러브",
      "USen": "{{wordInfo gender=\"0\" indefArticle=\"1\" defArticle=\"3\"}}walking stick",
      "USes": "{{wordInfo gender=\"2\" indefArticle=\"2\" defArticle=\"4\"}}revista",
      "USfr": "{{wordInfo gender=\"1\" indefArticle=\"1\" defArticle=\"3\"}}pense-bête"
    }
  },
  {
    "label": "06",
    "locale": {
      "EUde": "{{wordInfo gender=\"3\" indefArticle=\"1\" defArticle=\"5\"}}Lexikon",
      "EUen": "{{wordInfo gender=\"0\" indefArticle=\"2\" defArticle=\"3\"}}encyclopedia",
      "EUes": "{{wordInfo gender=\"2\" indefArticle=\"2\" defArticle=\"4\"}}enciclopedia",
      "EUfr": "{{wordInfo gender=\"2\" indefArticle=\"2\" defArticle=\"5\"}}encyclopédie",
      "EUit": "{{wordInfo gender=\"2\" indefArticle=\"4\" defArticle=\"8\"}}enciclopedia",
      "JPja": "サスペンダー",
      "KRko": "멜빵",
      "USen": "{{wordInfo gender=\"0\" indefArticle=\"2\" defArticle=\"3\"}}encyclopedia",
      "USes": "{{wordInfo gender=\"2\" indefArticle=\"2\" defArticle=\"4\"}}enciclopedia",
      "USfr": "{{wordInfo gender=\"2\" indefArticle=\"2\" defArticle=\"5\"}}encyclopédie"
    }
  },
  {
    "label": "07",
    "locale": {
      "EUde": "{{wordInfo gender=\"1\" indefArticle=\"1\" defArticle=\"3\"}}Wandkalender",
      "EUen": "{{wordInfo gender=\"0\" indefArticle=\"1\" defArticle=\"3\"}}wall calendar",
      "EUes": "{{wordInfo gender=\"1\" indefArticle=\"1\" defArticle=\"3\"}}calendario",
      "EUfr": "{{wordInfo gender=\"1\" indefArticle=\"1\" defArticle=\"3\"}}calendrier",
      "EUit": "{{wordInfo gender=\"1\" indefArticle=\"1\" defArticle=\"5\"}}calendario",
      "JPja": "スリッパ",
      "KRko": "슬리퍼",
      "USen": "{{wordInfo gender=\"0\" indefArticle=\"1\" defArticle=\"3\"}}wall calendar",
      "USes": "{{wordInfo gender=\"1\" indefArticle=\"1\" defArticle=\"3\"}}calendario",
      "USfr": "{{wordInfo gender=\"1\" indefArticle=\"1\" defArticle=\"3\"}}calendrier"
    }
  },
  {
    "label": "08",
    "locale": {
      "EUde": "{{wordInfo gender=\"3\" indefArticle=\"1\" defArticle=\"5\"}}Brillenetui",
      "EUen": "{{wordInfo gender=\"0\" indefArticle=\"1\" defArticle=\"3\"}}glasses case",
      "EUes": "{{wordInfo gender=\"2\" indefArticle=\"2\" defArticle=\"4\"}}moto",
      "EUfr": "{{wordInfo gender=\"1\" indefArticle=\"1\" defArticle=\"5\"}}étui à lunettes",
      "EUit": "{{wordInfo gender=\"1\" indefArticle=\"1\" defArticle=\"5\"}}binocolo",
      "JPja": "つまようじ",
      "KRko": "이쑤시개",
      "USen": "{{wordInfo gender=\"0\" indefArticle=\"1\" defArticle=\"3\"}}glasses case",
      "USes": "{{wordInfo gender=\"2\" indefArticle=\"2\" defArticle=\"4\"}}moto",
      "USfr": "{{wordInfo gender=\"1\" indefArticle=\"1\" defArticle=\"5\"}}étui à lunettes"
    }
  },
  {
    "label": "09",
    "locale": {
      "EUde": "{{wordInfo gender=\"1\" indefArticle=\"1\" defArticle=\"3\"}}Rasierapparat",
      "EUen": "{{wordInfo gender=\"0\" indefArticle=\"2\" defArticle=\"3\"}}electric razor",
      "EUes": "{{wordInfo gender=\"2\" indefArticle=\"2\" defArticle=\"4\"}}bandana",
      "EUfr": "{{wordInfo gender=\"1\" indefArticle=\"1\" defArticle=\"3\"}}rasoir électrique",
      "EUit": "{{wordInfo gender=\"1\" indefArticle=\"1\" defArticle=\"5\"}}rasoio elettrico",
      "JPja": "ツメ{{ruby charSpan=\"1\" value=\"き\"}}切り",
      "KRko": "손톱깎이",
      "USen": "{{wordInfo gender=\"0\" indefArticle=\"2\" defArticle=\"3\"}}electric razor",
      "USes": "{{wordInfo gender=\"2\" indefArticle=\"2\" defArticle=\"4\"}}bandana",
      "USfr": "{{wordInfo gender=\"1\" indefArticle=\"1\" defArticle=\"3\"}}rasoir électrique"
    }
  },
  {
    "label": "10",
    "locale": {
      "EUde": "{{wordInfo gender=\"3\" indefArticle=\"1\" defArticle=\"5\"}}Taschentuch",
      "EUen": "{{wordInfo gender=\"0\" indefArticle=\"1\" defArticle=\"3\"}}day planner",
      "EUes": "{{wordInfo gender=\"1\" indefArticle=\"1\" defArticle=\"3\"}}casco",
      "EUfr": "{{wordInfo gender=\"1\" indefArticle=\"1\" defArticle=\"5\"}}agenda",
      "EUit": "{{wordInfo gender=\"2\" indefArticle=\"4\" defArticle=\"8\"}}agenda",
      "JPja": "ティッシュ",
      "KRko": "티슈",
      "USen": "{{wordInfo gender=\"0\" indefArticle=\"1\" defArticle=\"3\"}}day planner",
      "USes": "{{wordInfo gender=\"1\" indefArticle=\"1\" defArticle=\"3\"}}casco",
      "USfr": "{{wordInfo gender=\"1\" indefArticle=\"1\" defArticle=\"5\"}}agenda"
    }
  },
  {
    "label": "11",
    "locale": {
      "EUde": "{{wordInfo gender=\"3\" indefArticle=\"1\" defArticle=\"5\"}}Glockenspiel",
      "EUen": "{{wordInfo gender=\"0\" indefArticle=\"1\" defArticle=\"3\"}}glockenspiel",
      "EUes": "{{wordInfo gender=\"2\" indefArticle=\"2\" defArticle=\"4\"}}mochila",
      "EUfr": "{{wordInfo gender=\"1\" indefArticle=\"1\" defArticle=\"3\"}}xylophone",
      "EUit": "{{wordInfo gender=\"1\" indefArticle=\"2\" defArticle=\"6\"}}xilofono",
      "JPja": "てちょう",
      "KRko": "수첩",
      "USen": "{{wordInfo gender=\"0\" indefArticle=\"1\" defArticle=\"3\"}}glockenspiel",
      "USes": "{{wordInfo gender=\"2\" indefArticle=\"2\" defArticle=\"4\"}}mochila",
      "USfr": "{{wordInfo gender=\"1\" indefArticle=\"1\" defArticle=\"3\"}}xylophone"
    }
  },
  {
    "label": "12",
    "locale": {
      "EUde": "{{wordInfo gender=\"3\" indefArticle=\"1\" defArticle=\"5\"}}Backblech",
      "EUen": "{{wordInfo gender=\"0\" indefArticle=\"1\" defArticle=\"3\"}}baking sheet",
      "EUes": "{{wordInfo gender=\"2\" indefArticle=\"2\" defArticle=\"4\"}}hebilla",
      "EUfr": "{{wordInfo gender=\"2\" indefArticle=\"2\" defArticle=\"4\"}}plaque à four",
      "EUit": "{{wordInfo gender=\"2\" indefArticle=\"3\" defArticle=\"7\"}}teglia da forno",
      "JPja": "でんち",
      "KRko": "건전지",
      "USen": "{{wordInfo gender=\"0\" indefArticle=\"1\" defArticle=\"3\"}}baking sheet",
      "USes": "{{wordInfo gender=\"2\" indefArticle=\"2\" defArticle=\"4\"}}hebilla",
      "USfr": "{{wordInfo gender=\"2\" indefArticle=\"2\" defArticle=\"4\"}}plaque à four"
    }
  },
  {
    "label": "13",
    "locale": {
      "EUde": "{{wordInfo gender=\"1\" indefArticle=\"1\" defArticle=\"3\"}}Schraubenzieher",
      "EUen": "{{wordInfo gender=\"0\" indefArticle=\"1\" defArticle=\"3\"}}screwdriver",
      "EUes": "{{wordInfo gender=\"1\" indefArticle=\"1\" defArticle=\"3\"}}muñeco",
      "EUfr": "{{wordInfo gender=\"1\" indefArticle=\"1\" defArticle=\"3\"}}tournevis",
      "EUit": "{{wordInfo gender=\"1\" indefArticle=\"1\" defArticle=\"5\"}}cacciavite",
      "JPja": "ドライバー",
      "KRko": "드라이버",
      "USen": "{{wordInfo gender=\"0\" indefArticle=\"1\" defArticle=\"3\"}}screwdriver",
      "USes": "{{wordInfo gender=\"1\" indefArticle=\"1\" defArticle=\"3\"}}muñeco",
      "USfr": "{{wordInfo gender=\"1\" indefArticle=\"1\" defArticle=\"3\"}}tournevis"
    }
  },
  {
    "label": "14",
    "locale": {
      "EUde": "{{wordInfo gender=\"3\" indefArticle=\"1\" defArticle=\"5\"}}Stethoskop",
      "EUen": "{{wordInfo gender=\"0\" indefArticle=\"1\" defArticle=\"3\"}}stethoscope",
      "EUes": "{{wordInfo gender=\"1\" indefArticle=\"1\" defArticle=\"3\"}}estetoscopio",
      "EUfr": "{{wordInfo gender=\"1\" indefArticle=\"1\" defArticle=\"3\"}}stéthoscope",
      "EUit": "{{wordInfo gender=\"1\" indefArticle=\"2\" defArticle=\"6\"}}stetoscopio",
      "JPja": "トンカチ",
      "KRko": "망치",
      "USen": "{{wordInfo gender=\"0\" indefArticle=\"1\" defArticle=\"3\"}}stethoscope",
      "USes": "{{wordInfo gender=\"1\" indefArticle=\"1\" defArticle=\"3\"}}estetoscopio",
      "USfr": "{{wordInfo gender=\"1\" indefArticle=\"1\" defArticle=\"3\"}}stéthoscope"
    }
  },
  {
    "label": "15",
    "locale": {
      "EUde": "{{wordInfo gender=\"1\" indefArticle=\"1\" defArticle=\"3\"}}Heizlüfter",
      "EUen": "{{wordInfo gender=\"0\" indefArticle=\"1\" defArticle=\"3\"}}space heater",
      "EUes": "{{wordInfo gender=\"2\" indefArticle=\"2\" defArticle=\"4\"}}riñonera",
      "EUfr": "{{wordInfo gender=\"1\" indefArticle=\"1\" defArticle=\"3\"}}chauffage",
      "EUit": "{{wordInfo gender=\"2\" indefArticle=\"3\" defArticle=\"7\"}}stufetta",
      "JPja": "ハサミ",
      "KRko": "가위",
      "USen": "{{wordInfo gender=\"0\" indefArticle=\"1\" defArticle=\"3\"}}space heater",
      "USes": "{{wordInfo gender=\"2\" indefArticle=\"2\" defArticle=\"4\"}}riñonera",
      "USfr": "{{wordInfo gender=\"1\" indefArticle=\"1\" defArticle=\"3\"}}chauffage"
    }
  },
  {
    "label": "16",
    "locale": {
      "EUde": "{{wordInfo gender=\"2\" indefArticle=\"2\" defArticle=\"4\"}}Zahnbürste",
      "EUen": "{{wordInfo gender=\"0\" indefArticle=\"1\" defArticle=\"3\"}}toothbrush",
      "EUes": "{{wordInfo gender=\"2\" indefArticle=\"2\" defArticle=\"4\"}}brocha",
      "EUfr": "{{wordInfo gender=\"2\" indefArticle=\"2\" defArticle=\"4\"}}brosse à dents",
      "EUit": "{{wordInfo gender=\"1\" indefArticle=\"2\" defArticle=\"6\"}}spazzolino",
      "JPja": "{{ruby charSpan=\"1\" value=\"は\"}}歯ブラシ",
      "KRko": "칫솔",
      "USen": "{{wordInfo gender=\"0\" indefArticle=\"1\" defArticle=\"3\"}}toothbrush",
      "USes": "{{wordInfo gender=\"2\" indefArticle=\"2\" defArticle=\"4\"}}brocha",
      "USfr": "{{wordInfo gender=\"2\" indefArticle=\"2\" defArticle=\"4\"}}brosse à dents"
    }
  },
  {
    "label": "17",
    "locale": {
      "EUde": "{{wordInfo gender=\"1\" indefArticle=\"1\" defArticle=\"3\"}}Wagenheber",
      "EUen": "{{wordInfo gender=\"0\" indefArticle=\"1\" defArticle=\"3\"}}socket wrench",
      "EUes": "{{wordInfo gender=\"2\" indefArticle=\"2\" defArticle=\"4\"}}consola",
      "EUfr": "{{wordInfo gender=\"2\" indefArticle=\"2\" defArticle=\"4\"}}clé à molette",
      "EUit": "{{wordInfo gender=\"2\" indefArticle=\"3\" defArticle=\"7\"}}chiave inglese",
      "JPja": "はらまき",
      "KRko": "허리띠",
      "USen": "{{wordInfo gender=\"0\" indefArticle=\"1\" defArticle=\"3\"}}socket wrench",
      "USes": "{{wordInfo gender=\"2\" indefArticle=\"2\" defArticle=\"4\"}}consola",
      "USfr": "{{wordInfo gender=\"2\" indefArticle=\"2\" defArticle=\"4\"}}clé à molette"
    }
  },
  {
    "label": "18",
    "locale": {
      "EUde": "{{wordInfo gender=\"3\" indefArticle=\"1\" defArticle=\"5\"}}Portemonnaie",
      "EUen": "{{wordInfo gender=\"0\" indefArticle=\"1\" defArticle=\"3\"}}wallet chain",
      "EUes": "{{wordInfo gender=\"2\" indefArticle=\"2\" defArticle=\"4\"}}pelota",
      "EUfr": "{{wordInfo gender=\"1\" indefArticle=\"1\" defArticle=\"3\"}}portefeuille",
      "EUit": "{{wordInfo gender=\"1\" indefArticle=\"1\" defArticle=\"5\"}}martello",
      "JPja": "ハンコ",
      "KRko": "도장",
      "USen": "{{wordInfo gender=\"0\" indefArticle=\"1\" defArticle=\"3\"}}wallet chain",
      "USes": "{{wordInfo gender=\"2\" indefArticle=\"2\" defArticle=\"4\"}}pelota",
      "USfr": "{{wordInfo gender=\"1\" indefArticle=\"1\" defArticle=\"3\"}}portefeuille"
    }
  },
  {
    "label": "19",
    "locale": {
      "EUde": "{{wordInfo gender=\"2\" indefArticle=\"2\" defArticle=\"4\"}}Taschenuhr",
      "EUen": "{{wordInfo gender=\"0\" indefArticle=\"1\" defArticle=\"3\"}}pocket watch",
      "EUes": "{{wordInfo gender=\"2\" indefArticle=\"2\" defArticle=\"4\"}}boina",
      "EUfr": "{{wordInfo gender=\"2\" indefArticle=\"2\" defArticle=\"4\"}}montre gousset",
      "EUit": "{{wordInfo gender=\"1\" indefArticle=\"1\" defArticle=\"8\"}}orologio",
      "JPja": "ヒゲそり",
      "KRko": "면도기",
      "USen": "{{wordInfo gender=\"0\" indefArticle=\"1\" defArticle=\"3\"}}pocket watch",
      "USes": "{{wordInfo gender=\"2\" indefArticle=\"2\" defArticle=\"4\"}}boina",
      "USfr": "{{wordInfo gender=\"2\" indefArticle=\"2\" defArticle=\"4\"}}montre gousset"
    }
  },
  {
    "label": "20",
    "locale": {
      "EUde": "{{wordInfo gender=\"2\" indefArticle=\"2\" defArticle=\"4\"}}Kameratasche",
      "EUen": "{{wordInfo gender=\"0\" indefArticle=\"1\" defArticle=\"3\"}}camera case",
      "EUes": "{{wordInfo gender=\"2\" indefArticle=\"2\" defArticle=\"4\"}}cámara",
      "EUfr": "{{wordInfo gender=\"2\" indefArticle=\"2\" defArticle=\"4\"}}télécommande",
      "EUit": "{{wordInfo gender=\"1\" indefArticle=\"2\" defArticle=\"6\"}}zainetto",
      "JPja": "ピンセット",
      "KRko": "열쇠고리",
      "USen": "{{wordInfo gender=\"0\" indefArticle=\"1\" defArticle=\"3\"}}camera case",
      "USes": "{{wordInfo gender=\"2\" indefArticle=\"2\" defArticle=\"4\"}}cámara",
      "USfr": "{{wordInfo gender=\"2\" indefArticle=\"2\" defArticle=\"4\"}}télécommande"
    }
  },
  {
    "label": "21",
    "locale": {
      "EUde": "{{wordInfo gender=\"1\" indefArticle=\"1\" defArticle=\"3\"}}Plattenspieler",
      "EUen": "{{wordInfo gender=\"0\" indefArticle=\"1\" defArticle=\"3\"}}mixing bowl",
      "EUes": "{{wordInfo gender=\"2\" indefArticle=\"2\" defArticle=\"4\"}}batidora",
      "EUfr": "{{wordInfo gender=\"1\" indefArticle=\"1\" defArticle=\"3\"}}saladier",
      "EUit": "{{wordInfo gender=\"2\" indefArticle=\"4\" defArticle=\"8\"}}insalatiera",
      "JPja": "ヘッドホン",
      "KRko": "헤드폰",
      "USen": "{{wordInfo gender=\"0\" indefArticle=\"1\" defArticle=\"3\"}}mixing bowl",
      "USes": "{{wordInfo gender=\"2\" indefArticle=\"2\" defArticle=\"4\"}}batidora",
      "USfr": "{{wordInfo gender=\"1\" indefArticle=\"1\" defArticle=\"3\"}}saladier"
    }
  },
  {
    "label": "22",
    "locale": {
      "EUde": "{{wordInfo gender=\"1\" indefArticle=\"1\" defArticle=\"3\"}}Laserdrucker",
      "EUen": "{{wordInfo gender=\"0\" indefArticle=\"2\" defArticle=\"3\"}}ink-jet printer",
      "EUes": "{{wordInfo gender=\"2\" indefArticle=\"2\" defArticle=\"4\"}}impresora",
      "EUfr": "{{wordInfo gender=\"2\" indefArticle=\"2\" defArticle=\"5\"}}imprimante",
      "EUit": "{{wordInfo gender=\"2\" indefArticle=\"3\" defArticle=\"7\"}}stampante",
      "JPja": "ヘッドライト",
      "KRko": "헬멧",
      "USen": "{{wordInfo gender=\"0\" indefArticle=\"2\" defArticle=\"3\"}}ink-jet printer",
      "USes": "{{wordInfo gender=\"2\" indefArticle=\"2\" defArticle=\"4\"}}impresora",
      "USfr": "{{wordInfo gender=\"2\" indefArticle=\"2\" defArticle=\"5\"}}imprimante"
    }
  },
  {
    "label": "23",
    "locale": {
      "EUde": "{{wordInfo gender=\"3\" indefArticle=\"1\" defArticle=\"5\"}}Sparschwein",
      "EUen": "{{wordInfo gender=\"0\" indefArticle=\"1\" defArticle=\"3\"}}change jar",
      "EUes": "{{wordInfo gender=\"2\" indefArticle=\"2\" defArticle=\"4\"}}jarra",
      "EUfr": "{{wordInfo gender=\"2\" indefArticle=\"2\" defArticle=\"4\"}}tirelire",
      "EUit": "{{wordInfo gender=\"1\" indefArticle=\"1\" defArticle=\"5\"}}salvadanaio",
      "JPja": "ベルト",
      "KRko": "나비넥타이",
      "USen": "{{wordInfo gender=\"0\" indefArticle=\"1\" defArticle=\"3\"}}change jar",
      "USes": "{{wordInfo gender=\"2\" indefArticle=\"2\" defArticle=\"4\"}}jarra",
      "USfr": "{{wordInfo gender=\"2\" indefArticle=\"2\" defArticle=\"4\"}}tirelire"
    }
  },
  {
    "label": "24",
    "locale": {
      "EUde": "{{wordInfo gender=\"2\" indefArticle=\"2\" defArticle=\"4\"}}Isolierkanne",
      "EUen": "{{wordInfo gender=\"0\" indefArticle=\"1\" defArticle=\"3\"}}water bottle",
      "EUes": "{{wordInfo gender=\"2\" indefArticle=\"2\" defArticle=\"4\"}}botella",
      "EUfr": "{{wordInfo gender=\"2\" indefArticle=\"2\" defArticle=\"4\"}}bouteille d'eau",
      "EUit": "{{wordInfo gender=\"2\" indefArticle=\"3\" defArticle=\"7\"}}bottiglia d'acqua",
      "JPja": "ペンチ",
      "KRko": "펜치",
      "USen": "{{wordInfo gender=\"0\" indefArticle=\"1\" defArticle=\"3\"}}water bottle",
      "USes": "{{wordInfo gender=\"2\" indefArticle=\"2\" defArticle=\"4\"}}botella",
      "USfr": "{{wordInfo gender=\"2\" indefArticle=\"2\" defArticle=\"4\"}}bouteille d'eau"
    }
  },
  {
    "label": "25",
    "locale": {
      "EUde": "{{wordInfo gender=\"1\" indefArticle=\"1\" defArticle=\"3\"}}Kugelschreiber",
      "EUen": "{{wordInfo gender=\"0\" indefArticle=\"1\" defArticle=\"3\"}}fountain pen",
      "EUes": "{{wordInfo gender=\"2\" indefArticle=\"2\" defArticle=\"4\"}}estilográfica",
      "EUfr": "{{wordInfo gender=\"1\" indefArticle=\"1\" defArticle=\"3\"}}stylo plume",
      "EUit": "{{wordInfo gender=\"2\" indefArticle=\"3\" defArticle=\"7\"}}stilografica",
      "JPja": "ボールペン",
      "KRko": "볼펜",
      "USen": "{{wordInfo gender=\"0\" indefArticle=\"1\" defArticle=\"3\"}}fountain pen",
      "USes": "{{wordInfo gender=\"2\" indefArticle=\"2\" defArticle=\"4\"}}estilográfica",
      "USfr": "{{wordInfo gender=\"1\" indefArticle=\"1\" defArticle=\"3\"}}stylo plume"
    }
  },
  {
    "label": "26",
    "locale": {
      "EUde": "{{wordInfo gender=\"3\" indefArticle=\"1\" defArticle=\"5\"}}Gummiband",
      "EUen": "{{wordInfo gender=\"0\" indefArticle=\"1\" defArticle=\"3\"}}rubber band",
      "EUes": "{{wordInfo gender=\"2\" indefArticle=\"2\" defArticle=\"4\"}}sudadera",
      "EUfr": "{{wordInfo gender=\"1\" indefArticle=\"1\" defArticle=\"5\"}}élastique",
      "EUit": "{{wordInfo gender=\"1\" indefArticle=\"1\" defArticle=\"5\"}}podometro",
      "JPja": "{{ruby charSpan=\"2\" value=\"ほすう\"}}歩数{{ruby charSpan=\"1\" value=\"けい\"}}計",
      "KRko": "운동화",
      "USen": "{{wordInfo gender=\"0\" indefArticle=\"1\" defArticle=\"3\"}}rubber band",
      "USes": "{{wordInfo gender=\"2\" indefArticle=\"2\" defArticle=\"4\"}}sudadera",
      "USfr": "{{wordInfo gender=\"1\" indefArticle=\"1\" defArticle=\"5\"}}élastique"
    }
  },
  {
    "label": "27",
    "locale": {
      "EUde": "{{wordInfo gender=\"3\" indefArticle=\"1\" defArticle=\"5\"}}Wattestäbchen",
      "EUen": "{{wordInfo gender=\"0\" indefArticle=\"1\" defArticle=\"3\"}}cotton swab",
      "EUes": "{{wordInfo gender=\"2\" indefArticle=\"2\" defArticle=\"4\"}}pajarita",
      "EUfr": "{{wordInfo gender=\"1\" indefArticle=\"1\" defArticle=\"3\"}}bâtonnet ouaté",
      "EUit": "{{wordInfo gender=\"1\" indefArticle=\"1\" defArticle=\"5\"}}cerotto",
      "JPja": "{{ruby charSpan=\"1\" value=\"みみ\"}}耳かき",
      "KRko": "귀이개",
      "USen": "{{wordInfo gender=\"0\" indefArticle=\"1\" defArticle=\"3\"}}cotton swab",
      "USes": "{{wordInfo gender=\"2\" indefArticle=\"2\" defArticle=\"4\"}}pajarita",
      "USfr": "{{wordInfo gender=\"1\" indefArticle=\"1\" defArticle=\"3\"}}bâtonnet ouaté"
    }
  },
  {
    "label": "28",
    "locale": {
      "EUde": "{{wordInfo gender=\"3\" indefArticle=\"1\" defArticle=\"5\"}}Kaleidoskop",
      "EUen": "{{wordInfo gender=\"0\" indefArticle=\"1\" defArticle=\"3\"}}kaleidoscope",
      "EUes": "{{wordInfo gender=\"1\" indefArticle=\"1\" defArticle=\"3\"}}caleidoscopio",
      "EUfr": "{{wordInfo gender=\"1\" indefArticle=\"1\" defArticle=\"3\"}}kaléidoscope",
      "EUit": "{{wordInfo gender=\"1\" indefArticle=\"1\" defArticle=\"5\"}}caleidoscopio",
      "JPja": "めがねケース",
      "KRko": "안경집",
      "USen": "{{wordInfo gender=\"0\" indefArticle=\"1\" defArticle=\"3\"}}kaleidoscope",
      "USes": "{{wordInfo gender=\"1\" indefArticle=\"1\" defArticle=\"3\"}}caleidoscopio",
      "USfr": "{{wordInfo gender=\"1\" indefArticle=\"1\" defArticle=\"3\"}}kaléidoscope"
    }
  },
  {
    "label": "29",
    "locale": {
      "EUde": "{{wordInfo gender=\"2\" indefArticle=\"2\" defArticle=\"4\"}}Haarspraydose",
      "EUen": "{{wordInfo gender=\"0\" indefArticle=\"1\" defArticle=\"3\"}}pomade tin",
      "EUes": "{{wordInfo gender=\"2\" indefArticle=\"2\" defArticle=\"4\"}}zapatilla",
      "EUfr": "{{wordInfo gender=\"1\" indefArticle=\"1\" defArticle=\"3\"}}pot de brillantine",
      "EUit": "{{wordInfo gender=\"2\" indefArticle=\"16\" defArticle=\"7\"}}brillantina",
      "JPja": "ワックス",
      "KRko": "구두끈",
      "USen": "{{wordInfo gender=\"0\" indefArticle=\"1\" defArticle=\"3\"}}pomade tin",
      "USes": "{{wordInfo gender=\"2\" indefArticle=\"2\" defArticle=\"4\"}}zapatilla",
      "USfr": "{{wordInfo gender=\"1\" indefArticle=\"1\" defArticle=\"3\"}}pot de brillantine"
    }
  }
]