﻿[
  {
    "label": "00",
    "locale": {
      "EUde": "{{wordInfo gender=\"3\" indefArticle=\"1\" defArticle=\"5\"}}T-Shirt",
      "EUen": "{{wordInfo gender=\"0\" indefArticle=\"1\" defArticle=\"3\"}}T-shirt",
      "EUes": "{{wordInfo gender=\"2\" indefArticle=\"2\" defArticle=\"4\"}}camiseta",
      "EUfr": "{{wordInfo gender=\"0\" indefArticle=\"1\" defArticle=\"3\"}}T-shirt",
      "EUit": "{{wordInfo gender=\"2\" indefArticle=\"3\" defArticle=\"7\"}}maglietta",
      "JPja": "Tシャツ",
      "KRko": "티셔츠",
      "USen": "{{wordInfo gender=\"0\" indefArticle=\"1\" defArticle=\"3\"}}T-shirt",
      "USes": "{{wordInfo gender=\"2\" indefArticle=\"2\" defArticle=\"4\"}}camiseta",
      "USfr": "{{wordInfo gender=\"0\" indefArticle=\"1\" defArticle=\"3\"}}T-shirt"
    }
  },
  {
    "label": "01",
    "locale": {
      "EUde": "{{wordInfo gender=\"3\" indefArticle=\"1\" defArticle=\"5\"}}Kleid",
      "EUen": "{{wordInfo gender=\"0\" indefArticle=\"1\" defArticle=\"3\"}}dress",
      "EUes": "{{wordInfo gender=\"1\" indefArticle=\"1\" defArticle=\"3\"}}vestido",
      "EUfr": "{{wordInfo gender=\"0\" indefArticle=\"1\" defArticle=\"3\"}}dress",
      "EUit": "{{wordInfo gender=\"1\" indefArticle=\"1\" defArticle=\"5\"}}vestito",
      "JPja": "ワンピース",
      "KRko": "원피스",
      "USen": "{{wordInfo gender=\"0\" indefArticle=\"1\" defArticle=\"3\"}}dress",
      "USes": "{{wordInfo gender=\"1\" indefArticle=\"1\" defArticle=\"3\"}}vestido",
      "USfr": "{{wordInfo gender=\"0\" indefArticle=\"1\" defArticle=\"3\"}}dress"
    }
  },
  {
    "label": "02",
    "locale": {
      "EUde": "{{wordInfo gender=\"2\" indefArticle=\"2\" defArticle=\"4\"}}Brille",
      "EUen": "{{wordInfo gender=\"0\" indefArticle=\"1\" defArticle=\"3\"}}pair of eyeglasses",
      "EUes": "{{wordInfo gender=\"1\" indefArticle=\"1\" defArticle=\"3\"}}par de gafas",
      "EUfr": "{{wordInfo gender=\"0\" indefArticle=\"1\" defArticle=\"3\"}}pair of eyeglasses",
      "EUit": "{{wordInfo gender=\"0\" indefArticle=\"1\" defArticle=\"5\"}}paio di occhiali",
      "JPja": "メガネ",
      "KRko": "안경",
      "USen": "{{wordInfo gender=\"0\" indefArticle=\"1\" defArticle=\"3\"}}pair of eyeglasses",
      "USes": "{{wordInfo gender=\"1\" indefArticle=\"1\" defArticle=\"3\"}}par de gafas",
      "USfr": "{{wordInfo gender=\"0\" indefArticle=\"1\" defArticle=\"3\"}}pair of eyeglasses"
    }
  },
  {
    "label": "03",
    "locale": {
      "EUde": "{{wordInfo gender=\"3\" indefArticle=\"1\" defArticle=\"5\"}}Paar Turnschuhe",
      "EUen": "{{wordInfo gender=\"0\" indefArticle=\"1\" defArticle=\"3\"}}pair of sneakers",
      "EUes": "{{wordInfo gender=\"1\" indefArticle=\"1\" defArticle=\"3\"}}par de deportivas",
      "EUfr": "{{wordInfo gender=\"0\" indefArticle=\"1\" defArticle=\"3\"}}pair of sneakers",
      "EUit": "{{wordInfo gender=\"1\" indefArticle=\"1\" defArticle=\"5\"}}paio di scarpe da tennis",
      "JPja": "スニーカー",
      "KRko": "스니커",
      "USen": "{{wordInfo gender=\"0\" indefArticle=\"1\" defArticle=\"3\"}}pair of sneakers",
      "USes": "{{wordInfo gender=\"1\" indefArticle=\"1\" defArticle=\"3\"}}par de deportivas",
      "USfr": "{{wordInfo gender=\"0\" indefArticle=\"1\" defArticle=\"3\"}}pair of sneakers"
    }
  },
  {
    "label": "04",
    "locale": {
      "EUde": "{{wordInfo gender=\"3\" indefArticle=\"1\" defArticle=\"5\"}}Paar Stiefel",
      "EUen": "{{wordInfo gender=\"0\" indefArticle=\"1\" defArticle=\"3\"}}pair of boots",
      "EUes": "{{wordInfo gender=\"1\" indefArticle=\"1\" defArticle=\"3\"}}par de botas",
      "EUfr": "{{wordInfo gender=\"0\" indefArticle=\"1\" defArticle=\"3\"}}pair of boots",
      "EUit": "{{wordInfo gender=\"1\" indefArticle=\"1\" defArticle=\"5\"}}paio di stivali",
      "JPja": "ブーツ",
      "KRko": "부츠",
      "USen": "{{wordInfo gender=\"0\" indefArticle=\"1\" defArticle=\"3\"}}pair of boots",
      "USes": "{{wordInfo gender=\"1\" indefArticle=\"1\" defArticle=\"3\"}}par de botas",
      "USfr": "{{wordInfo gender=\"0\" indefArticle=\"1\" defArticle=\"3\"}}pair of boots"
    }
  },
  {
    "label": "05",
    "locale": {
      "EUde": "{{wordInfo gender=\"1\" indefArticle=\"1\" defArticle=\"3\"}}Hut",
      "EUen": "{{wordInfo gender=\"0\" indefArticle=\"1\" defArticle=\"3\"}}hat",
      "EUes": "{{wordInfo gender=\"1\" indefArticle=\"1\" defArticle=\"3\"}}sombrero",
      "EUfr": "{{wordInfo gender=\"0\" indefArticle=\"1\" defArticle=\"3\"}}hat",
      "EUit": "{{wordInfo gender=\"1\" indefArticle=\"1\" defArticle=\"5\"}}cappello",
      "JPja": "ぼうし",
      "KRko": "모자",
      "USen": "{{wordInfo gender=\"0\" indefArticle=\"1\" defArticle=\"3\"}}hat",
      "USes": "{{wordInfo gender=\"1\" indefArticle=\"1\" defArticle=\"3\"}}sombrero",
      "USfr": "{{wordInfo gender=\"0\" indefArticle=\"1\" defArticle=\"3\"}}hat"
    }
  },
  {
    "label": "06",
    "locale": {
      "EUde": "{{wordInfo gender=\"2\" indefArticle=\"2\" defArticle=\"4\"}}kurze Hose",
      "EUen": "{{wordInfo gender=\"0\" indefArticle=\"1\" defArticle=\"3\"}}pair of shorts",
      "EUes": "{{wordInfo gender=\"1\" indefArticle=\"1\" defArticle=\"3\"}}pantalón corto",
      "EUfr": "{{wordInfo gender=\"0\" indefArticle=\"1\" defArticle=\"3\"}}pair of shorts",
      "EUit": "{{wordInfo gender=\"1\" indefArticle=\"1\" defArticle=\"5\"}}paio di pantaloni corti",
      "JPja": "ショートパンツ",
      "KRko": "반바지",
      "USen": "{{wordInfo gender=\"0\" indefArticle=\"1\" defArticle=\"3\"}}pair of shorts",
      "USes": "{{wordInfo gender=\"1\" indefArticle=\"1\" defArticle=\"3\"}}pantalón corto",
      "USfr": "{{wordInfo gender=\"0\" indefArticle=\"1\" defArticle=\"3\"}}pair of shorts"
    }
  },
  {
    "label": "07",
    "locale": {
      "EUde": "{{wordInfo gender=\"2\" indefArticle=\"2\" defArticle=\"4\"}}lange Hose",
      "EUen": "{{wordInfo gender=\"0\" indefArticle=\"1\" defArticle=\"3\"}}pair of pants",
      "EUes": "{{wordInfo gender=\"1\" indefArticle=\"1\" defArticle=\"3\"}}pantalón",
      "EUfr": "{{wordInfo gender=\"0\" indefArticle=\"1\" defArticle=\"3\"}}pair of pants",
      "EUit": "{{wordInfo gender=\"1\" indefArticle=\"1\" defArticle=\"5\"}}paio di pantaloni",
      "JPja": "ロングパンツ",
      "KRko": "긴 바지",
      "USen": "{{wordInfo gender=\"0\" indefArticle=\"1\" defArticle=\"3\"}}pair of pants",
      "USes": "{{wordInfo gender=\"1\" indefArticle=\"1\" defArticle=\"3\"}}pantalón",
      "USfr": "{{wordInfo gender=\"0\" indefArticle=\"1\" defArticle=\"3\"}}pair of pants"
    }
  },
  {
    "label": "08",
    "locale": {
      "EUde": "{{wordInfo gender=\"1\" indefArticle=\"1\" defArticle=\"3\"}}Rock",
      "EUen": "{{wordInfo gender=\"0\" indefArticle=\"1\" defArticle=\"3\"}}skirt",
      "EUes": "{{wordInfo gender=\"2\" indefArticle=\"2\" defArticle=\"4\"}}falda",
      "EUfr": "{{wordInfo gender=\"0\" indefArticle=\"1\" defArticle=\"3\"}}skirt",
      "EUit": "{{wordInfo gender=\"2\" indefArticle=\"3\" defArticle=\"7\"}}gonna",
      "JPja": "スカート",
      "KRko": "치마",
      "USen": "{{wordInfo gender=\"0\" indefArticle=\"1\" defArticle=\"3\"}}skirt",
      "USes": "{{wordInfo gender=\"2\" indefArticle=\"2\" defArticle=\"4\"}}falda",
      "USfr": "{{wordInfo gender=\"0\" indefArticle=\"1\" defArticle=\"3\"}}skirt"
    }
  },
  {
    "label": "09",
    "locale": {
      "EUde": "{{wordInfo gender=\"2\" indefArticle=\"2\" defArticle=\"4\"}}Hose",
      "EUen": "{{wordInfo gender=\"0\" indefArticle=\"1\" defArticle=\"3\"}}pair of pants or shorts",
      "EUes": "{{wordInfo gender=\"1\" indefArticle=\"1\" defArticle=\"3\"}}pantalón largo o corto",
      "EUfr": "{{wordInfo gender=\"0\" indefArticle=\"1\" defArticle=\"3\"}}pair of pants or shorts",
      "EUit": "{{wordInfo gender=\"1\" indefArticle=\"1\" defArticle=\"5\"}}paio pant. lunghi o corti",
      "JPja": "パンツ",
      "KRko": "바지",
      "USen": "{{wordInfo gender=\"0\" indefArticle=\"1\" defArticle=\"3\"}}pair of pants or shorts",
      "USes": "{{wordInfo gender=\"1\" indefArticle=\"1\" defArticle=\"3\"}}pantalón largo o corto",
      "USfr": "{{wordInfo gender=\"0\" indefArticle=\"1\" defArticle=\"3\"}}pair of pants or shorts"
    }
  },
  {
    "label": "10",
    "locale": {
      "EUde": "{{wordInfo gender=\"3\" indefArticle=\"1\" defArticle=\"5\"}}Haar-Accessoire",
      "EUen": "{{wordInfo gender=\"0\" indefArticle=\"1\" defArticle=\"3\"}}hair accessory",
      "EUes": "{{wordInfo gender=\"1\" indefArticle=\"1\" defArticle=\"3\"}}complemento para pelo",
      "EUfr": "{{wordInfo gender=\"0\" indefArticle=\"1\" defArticle=\"3\"}}hair accessory",
      "EUit": "{{wordInfo gender=\"1\" indefArticle=\"1\" defArticle=\"8\"}}accessorio per capelli",
      "JPja": "かみかざり",
      "KRko": "머리핀",
      "USen": "{{wordInfo gender=\"0\" indefArticle=\"1\" defArticle=\"3\"}}hair accessory",
      "USes": "{{wordInfo gender=\"1\" indefArticle=\"1\" defArticle=\"3\"}}complemento para pelo",
      "USfr": "{{wordInfo gender=\"0\" indefArticle=\"1\" defArticle=\"3\"}}hair accessory"
    }
  },
  {
    "label": "11",
    "locale": {
      "EUde": "{{wordInfo gender=\"2\" indefArticle=\"2\" defArticle=\"4\"}}Sonnenbrille",
      "EUen": "{{wordInfo gender=\"0\" indefArticle=\"1\" defArticle=\"3\"}}pair of sunglasses",
      "EUes": "{{wordInfo gender=\"1\" indefArticle=\"1\" defArticle=\"3\"}}par de gafas de sol",
      "EUfr": "{{wordInfo gender=\"0\" indefArticle=\"1\" defArticle=\"3\"}}pair of sunglasses",
      "EUit": "{{wordInfo gender=\"1\" indefArticle=\"1\" defArticle=\"5\"}}paio di occhiali da sole",
      "JPja": "サングラス",
      "KRko": "선글라스",
      "USen": "{{wordInfo gender=\"0\" indefArticle=\"1\" defArticle=\"3\"}}pair of sunglasses",
      "USes": "{{wordInfo gender=\"1\" indefArticle=\"1\" defArticle=\"3\"}}par de gafas de sol",
      "USfr": "{{wordInfo gender=\"0\" indefArticle=\"1\" defArticle=\"3\"}}pair of sunglasses"
    }
  },
  {
    "label": "12",
    "locale": {
      "EUde": "{{wordInfo gender=\"3\" indefArticle=\"1\" defArticle=\"5\"}}Paar Sandalen",
      "EUen": "{{wordInfo gender=\"0\" indefArticle=\"1\" defArticle=\"3\"}}pair of sandals",
      "EUes": "{{wordInfo gender=\"1\" indefArticle=\"1\" defArticle=\"3\"}}par de sandalias",
      "EUfr": "{{wordInfo gender=\"0\" indefArticle=\"1\" defArticle=\"3\"}}pair of sandals",
      "EUit": "{{wordInfo gender=\"1\" indefArticle=\"1\" defArticle=\"5\"}}paio di sandali",
      "JPja": "サンダル",
      "KRko": "샌들",
      "USen": "{{wordInfo gender=\"0\" indefArticle=\"1\" defArticle=\"3\"}}pair of sandals",
      "USes": "{{wordInfo gender=\"1\" indefArticle=\"1\" defArticle=\"3\"}}par de sandalias",
      "USfr": "{{wordInfo gender=\"0\" indefArticle=\"1\" defArticle=\"3\"}}pair of sandals"
    }
  },
  {
    "label": "13",
    "locale": {
      "EUde": "{{wordInfo gender=\"3\" indefArticle=\"1\" defArticle=\"5\"}}Tanktop",
      "EUen": "{{wordInfo gender=\"0\" indefArticle=\"1\" defArticle=\"3\"}}tank top",
      "EUes": "{{wordInfo gender=\"1\" indefArticle=\"1\" defArticle=\"3\"}}top",
      "EUfr": "{{wordInfo gender=\"0\" indefArticle=\"1\" defArticle=\"3\"}}tank top",
      "EUit": "{{wordInfo gender=\"2\" indefArticle=\"3\" defArticle=\"7\"}}canotta",
      "JPja": "ノースリーブシャツ",
      "KRko": "민소매 셔츠",
      "USen": "{{wordInfo gender=\"0\" indefArticle=\"1\" defArticle=\"3\"}}tank top",
      "USes": "{{wordInfo gender=\"1\" indefArticle=\"1\" defArticle=\"3\"}}top",
      "USfr": "{{wordInfo gender=\"0\" indefArticle=\"1\" defArticle=\"3\"}}tank top"
    }
  },
  {
    "label": "14",
    "locale": {
      "EUde": "{{wordInfo gender=\"1\" indefArticle=\"1\" defArticle=\"3\"}}Bart",
      "EUen": "{{wordInfo gender=\"0\" indefArticle=\"1\" defArticle=\"3\"}}fake beard",
      "EUes": "{{wordInfo gender=\"0\" indefArticle=\"1\" defArticle=\"3\"}}barba falsa",
      "EUfr": "{{wordInfo gender=\"0\" indefArticle=\"1\" defArticle=\"3\"}}fake beard",
      "EUit": "{{wordInfo gender=\"2\" indefArticle=\"3\" defArticle=\"7\"}}barba finta",
      "JPja": "ヒゲ",
      "KRko": "수염",
      "USen": "{{wordInfo gender=\"0\" indefArticle=\"1\" defArticle=\"3\"}}fake beard",
      "USes": "{{wordInfo gender=\"0\" indefArticle=\"1\" defArticle=\"3\"}}barba falsa",
      "USfr": "{{wordInfo gender=\"0\" indefArticle=\"1\" defArticle=\"3\"}}fake beard"
    }
  }
]