﻿[
  {
    "label": "00",
    "locale": {
      "EUde": "Mo",
      "EUen": "Mo",
      "EUes": "Lu",
      "EUfr": "Lu",
      "EUit": "Lu",
      "JPja": "月",
      "KRko": "월",
      "USen": "Mo",
      "USes": "Lu",
      "USfr": "Lu"
    }
  },
  {
    "label": "01",
    "locale": {
      "EUde": "Di",
      "EUen": "Tu",
      "EUes": "Ma",
      "EUfr": "Ma",
      "EUit": "Ma",
      "JPja": "火",
      "KRko": "화",
      "USen": "Tu",
      "USes": "Ma",
      "USfr": "Ma"
    }
  },
  {
    "label": "02",
    "locale": {
      "EUde": "Mi",
      "EUen": "We",
      "EUes": "Mi",
      "EUfr": "Me",
      "EUit": "Me",
      "JPja": "水",
      "KRko": "수",
      "USen": "We",
      "USes": "Mi",
      "USfr": "Me"
    }
  },
  {
    "label": "03",
    "locale": {
      "EUde": "Do",
      "EUen": "Th",
      "EUes": "Ju",
      "EUfr": "Je",
      "EUit": "Gi",
      "JPja": "木",
      "KRko": "목",
      "USen": "Th",
      "USes": "Ju",
      "USfr": "Je"
    }
  },
  {
    "label": "04",
    "locale": {
      "EUde": "Fr",
      "EUen": "Fr",
      "EUes": "Vi",
      "EUfr": "Ve",
      "EUit": "Ve",
      "JPja": "金",
      "KRko": "금",
      "USen": "Fr",
      "USes": "Vi",
      "USfr": "Ve"
    }
  },
  {
    "label": "05",
    "locale": {
      "EUde": "Sa",
      "EUen": "Sa",
      "EUes": "Sá",
      "EUfr": "Sa",
      "EUit": "Sa",
      "JPja": "土",
      "KRko": "토",
      "USen": "Sa",
      "USes": "Sá",
      "USfr": "Sa"
    }
  },
  {
    "label": "06",
    "locale": {
      "EUde": "So",
      "EUen": "Su",
      "EUes": "Do",
      "EUfr": "Di",
      "EUit": "Do",
      "JPja": "日",
      "KRko": "일",
      "USen": "Su",
      "USes": "Do",
      "USfr": "Di"
    }
  },
  {
    "label": "07",
    "locale": {
      "EUde": "Montag",
      "EUen": "Monday",
      "EUes": "lunes",
      "EUfr": "lundi",
      "EUit": "lunedì",
      "JPja": "{{ruby charSpan=\"2\" value=\"げつよう\"}}月曜",
      "KRko": "월요",
      "USen": "Monday",
      "USes": "lunes",
      "USfr": "lundi"
    }
  },
  {
    "label": "08",
    "locale": {
      "EUde": "Dienstag",
      "EUen": "Tuesday",
      "EUes": "martes",
      "EUfr": "mardi",
      "EUit": "martedì",
      "JPja": "{{ruby charSpan=\"2\" value=\"かよう\"}}火曜",
      "KRko": "화요",
      "USen": "Tuesday",
      "USes": "martes",
      "USfr": "mardi"
    }
  },
  {
    "label": "09",
    "locale": {
      "EUde": "Mittwoch",
      "EUen": "Wednesday",
      "EUes": "miércoles",
      "EUfr": "mercredi",
      "EUit": "mercoledì",
      "JPja": "{{ruby charSpan=\"2\" value=\"すいよう\"}}水曜",
      "KRko": "수요",
      "USen": "Wednesday",
      "USes": "miércoles",
      "USfr": "mercredi"
    }
  },
  {
    "label": "10",
    "locale": {
      "EUde": "Donnerstag",
      "EUen": "Thursday",
      "EUes": "jueves",
      "EUfr": "jeudi",
      "EUit": "giovedì",
      "JPja": "{{ruby charSpan=\"2\" value=\"もくよう\"}}木曜",
      "KRko": "목요",
      "USen": "Thursday",
      "USes": "jueves",
      "USfr": "jeudi"
    }
  },
  {
    "label": "11",
    "locale": {
      "EUde": "Freitag",
      "EUen": "Friday",
      "EUes": "viernes",
      "EUfr": "vendredi",
      "EUit": "venerdì",
      "JPja": "{{ruby charSpan=\"2\" value=\"きんよう\"}}金曜",
      "KRko": "금요",
      "USen": "Friday",
      "USes": "viernes",
      "USfr": "vendredi"
    }
  },
  {
    "label": "12",
    "locale": {
      "EUde": "Samstag",
      "EUen": "Saturday",
      "EUes": "sábado",
      "EUfr": "samedi",
      "EUit": "sabato",
      "JPja": "{{ruby charSpan=\"2\" value=\"どよう\"}}土曜",
      "KRko": "토요",
      "USen": "Saturday",
      "USes": "sábado",
      "USfr": "samedi"
    }
  },
  {
    "label": "13",
    "locale": {
      "EUde": "Sonntag",
      "EUen": "Sunday",
      "EUes": "domingo",
      "EUfr": "dimanche",
      "EUit": "domenica",
      "JPja": "{{ruby charSpan=\"2\" value=\"にちよう\"}}日曜",
      "KRko": "일요",
      "USen": "Sunday",
      "USes": "domingo",
      "USfr": "dimanche"
    }
  },
  {
    "label": "14",
    "locale": {
      "EUde": "Montag",
      "EUen": "Monday",
      "EUes": "Lunes",
      "EUfr": "lundi",
      "EUit": "lunedì",
      "JPja": "月曜日",
      "KRko": "월요일",
      "USen": "Monday",
      "USes": "Lunes",
      "USfr": "lundi"
    }
  },
  {
    "label": "15",
    "locale": {
      "EUde": "Dienstag",
      "EUen": "Tuesday",
      "EUes": "Martes",
      "EUfr": "mardi",
      "EUit": "martedì",
      "JPja": "火曜日",
      "KRko": "화요일",
      "USen": "Tuesday",
      "USes": "Martes",
      "USfr": "mardi"
    }
  },
  {
    "label": "16",
    "locale": {
      "EUde": "Mittwoch",
      "EUen": "Wednesday",
      "EUes": "Miércoles",
      "EUfr": "mercredi",
      "EUit": "mercoledì",
      "JPja": "水曜日",
      "KRko": "수요일",
      "USen": "Wednesday",
      "USes": "Miércoles",
      "USfr": "mercredi"
    }
  },
  {
    "label": "17",
    "locale": {
      "EUde": "Donnerstag",
      "EUen": "Thursday",
      "EUes": "Jueves",
      "EUfr": "jeudi",
      "EUit": "giovedì",
      "JPja": "木曜日",
      "KRko": "목요일",
      "USen": "Thursday",
      "USes": "Jueves",
      "USfr": "jeudi"
    }
  },
  {
    "label": "18",
    "locale": {
      "EUde": "Freitag",
      "EUen": "Friday",
      "EUes": "Viernes",
      "EUfr": "vendredi",
      "EUit": "venerdì",
      "JPja": "金曜日",
      "KRko": "금요일",
      "USen": "Friday",
      "USes": "Viernes",
      "USfr": "vendredi"
    }
  },
  {
    "label": "19",
    "locale": {
      "EUde": "Samstag",
      "EUen": "Saturday",
      "EUes": "Sábado",
      "EUfr": "samedi",
      "EUit": "sabato",
      "JPja": "土曜日",
      "KRko": "토요일",
      "USen": "Saturday",
      "USes": "Sábado",
      "USfr": "samedi"
    }
  },
  {
    "label": "20",
    "locale": {
      "EUde": "Sonntag",
      "EUen": "Sunday",
      "EUes": "Domingo",
      "EUfr": "dimanche",
      "EUit": "domenica",
      "JPja": "日曜日",
      "KRko": "일요일",
      "USen": "Sunday",
      "USes": "Domingo",
      "USfr": "dimanche"
    }
  }
]