﻿[
  {
    "label": "001",
    "text": "Let me know! —{{fun_00010005 arg=\"\"}}"
  },
  {
    "label": "002",
    "text": "From forgetful {{fun_00010005 arg=\"\"}}"
  },
  {
    "label": "003",
    "text": "From your BFF, {{fun_00010005 arg=\"\"}}"
  },
  {
    "label": "004",
    "text": "Soon! I mean it! —{{fun_00010005 arg=\"\"}}"
  },
  {
    "label": "005",
    "text": "From superbusy {{fun_00010005 arg=\"\"}}"
  },
  {
    "label": "006",
    "text": "Try it with me? —{{fun_00010005 arg=\"\"}}"
  },
  {
    "label": "007",
    "text": "Start writing! —{{fun_00010005 arg=\"\"}}"
  },
  {
    "label": "008",
    "text": "Come play! From {{fun_00010005 arg=\"\"}}"
  },
  {
    "label": "009",
    "text": "—Modern girl {{fun_00010005 arg=\"\"}}"
  },
  {
    "label": "010",
    "text": "—Embarrassed {{fun_00010005 arg=\"\"}} "
  }
]