﻿[
  {
    "label": "001",
    "text": "Querid{{fun_0006000E arg=\"0x02006F0002006100\"}} docto{{fun_0006000E arg=\"0x02007200040072006100\"}} \n:"
  },
  {
    "label": "002",
    "text": "Para mi médic{{fun_0006000E arg=\"0x02006F0002006100\"}}, \n:"
  },
  {
    "label": "003",
    "text": "¡Buenas, \n!"
  }
]