﻿[
  {
    "label": "001",
    "text": "¡Ahí va, \n!:"
  },
  {
    "label": "002",
    "text": "¿Qué hay, \n?:"
  },
  {
    "label": "003",
    "text": "¡Alucina, \n!:"
  },
  {
    "label": "004",
    "text": "¡Al loro, \n!:"
  },
  {
    "label": "005",
    "text": "¡Oye, \n!:"
  }
]