﻿[
  {
    "label": "001",
    "text": "Querid{{fun_0006000E arg=\"0x02006F0002006100\"}} propietari{{fun_0006000E arg=\"0x02006F0002006100\"}}:"
  },
  {
    "label": "002",
    "text": "Querid{{fun_0006000E arg=\"0x02006F0002006100\"}} soci{{fun_0006000E arg=\"0x02006F0002006100\"}}:"
  },
  {
    "label": "003",
    "text": "Querid{{fun_0006000E arg=\"0x02006F0002006100\"}} soci{{fun_0006000E arg=\"0x02006F0002006100\"}}:"
  }
]