﻿[
  {
    "label": "001",
    "text": "Para \n, mi h{{fun_0006000E arg=\"0x0800E90072006F0065000C00650072006F00ED006E006100\"}}:"
  },
  {
    "label": "002",
    "text": "Querid{{fun_0006000E arg=\"0x02006F0002006100\"}} \n:"
  },
  {
    "label": "003",
    "text": "Para \n:"
  }
]