﻿[
  {
    "label": "001",
    "text": "{{anim id=\"30\"}}{{size value=\"150\"}}¡Achís!{{pageBreak}}{{size value=\"100\"}}{{anim id=\"15\"}}Huy, no, no estoy acatarrada, ¿eh?{{delay frames=\"40\"}}\n{{anim id=\"28\"}}¡Es solo que se me ha posado un\nbichito en la nariz, {{delay frames=\"20\"}}{{fun_00070005 arg=\"\"}}!"
  },
  {
    "label": "002",
    "text": "{{anim id=\"38\"}}Esta fría mañana en {{fun_0003000E arg=\"\"}}{{fun_00050005 arg=\"\"}}\nsolo es apta para l{{fun_0006000E arg=\"0x02006F0002006100\"}}s más valientes.{{delay frames=\"20\"}}\n¿Podrás aguantarla, {{delay frames=\"20\"}}{{fun_00070005 arg=\"\"}}?"
  },
  {
    "label": "003",
    "text": "{{anim id=\"21\"}}La gente no para de quejarse del\nfrío polar que hace en {{fun_0003000E arg=\"\"}}{{fun_00050005 arg=\"\"}}\ndurante el invierno{{delay frames=\"8\"}}.{{delay frames=\"8\"}}.{{delay frames=\"8\"}}.\n{{anim id=\"0\"}}Pero a ver, hará exactamente el\nmismo que en {{fun_0003000E arg=\"\"}}{{fun_00060005 arg=\"\"}}, ¿no?{{delay frames=\"20\"}} ¡Me\nfalta perspectiva, {{fun_00070005 arg=\"\"}}!"
  },
  {
    "label": "004",
    "text": "{{anim id=\"36\"}}Vaaayaaa{{delay frames=\"8\"}}.{{delay frames=\"8\"}}.{{delay frames=\"8\"}}.{{delay frames=\"8\"}} Así que vas de dur{{fun_0006000E arg=\"0x02006F0002006100\"}}\ncruzando la nieve a pelo, ¿eh?{{delay frames=\"40\"}}\n{{anim id=\"38\"}}Estás de foto, {{delay frames=\"20\"}}{{fun_00070005 arg=\"\"}}."
  },
  {
    "label": "005",
    "text": "{{anim id=\"11\"}}La pisoteas, haces una bola\ncon ella, se la tiras a alguien{{delay frames=\"8\"}}.{{delay frames=\"8\"}}.{{delay frames=\"8\"}}.{{pageBreak}}{{anim id=\"37\"}}¡La nieve es una delicia hagas\nlo que hagas con ella! ¡Soy\nsuperfán, {{fun_00070005 arg=\"\"}}!"
  },
  {
    "label": "006",
    "text": "{{anim id=\"35\"}}Oye, si viene por aquí {{fun_00240005 arg=\"\"}}{{delay frames=\"8\"}}.{{delay frames=\"8\"}}.{{delay frames=\"8\"}}.{{delay frames=\"8\"}}\n¡vamos a recibirl{{fun_0006000E arg=\"0x02006F0002006100\"}} con bolas de\nnieve!{{delay frames=\"20\"}} {{anim id=\"2\"}}¡Ji, ji, ji, {{delay frames=\"20\"}}{{fun_00070005 arg=\"\"}}!"
  },
  {
    "label": "007",
    "text": "{{anim id=\"38\"}}¡Venga, va! Guerra de bolas de\nnieve{{delay frames=\"8\"}}.{{delay frames=\"8\"}}.{{delay frames=\"8\"}}.{{delay frames=\"20\"}}{{anim id=\"0\"}} ¡Te lo has creído, ji, ji!{{pageBreak}}{{anim id=\"5\"}}¿Tú por qué crees que la gente\nse pone tan atómica con la nieve?\n¡A mí me chifla, {{fun_00070005 arg=\"\"}}!"
  },
  {
    "label": "008",
    "text": "En algunos sitios,{{delay frames=\"8\"}} ¡la nieve se queda\nahí aparcada todo el año! {{anim id=\"33\"}}Es un\npoco chungo,{{delay frames=\"20\"}} ¿no, {{fun_00070005 arg=\"\"}}?"
  },
  {
    "label": "009",
    "text": "{{anim id=\"37\"}}¿Quieres saber por qué muestro\ntanta dignidad y saber estar incluso\ncon toda esta nieve?\n{{anim id=\"0\"}}Porque mi sangre caliente{{delay frames=\"8\"}}.{{delay frames=\"8\"}}.{{delay frames=\"8\"}}.{{delay frames=\"40\"}}{{anim id=\"33\"}}\nse impone al frío. ¡Yo estoy al\nmando, {{fun_00070005 arg=\"\"}}!{{delay frames=\"40\"}} {{color id=\"5\"}}(Dubi, dubi...){{color id=\"65535\"}}"
  },
  {
    "label": "010",
    "text": "{{anim id=\"7\"}}¡¿Por quién me has tomado?!{{delay frames=\"20\"}}\nMe he quedado con tu cara, ¿eh?{{pageBreak}}Ah{{delay frames=\"8\"}}.{{delay frames=\"8\"}}.{{delay frames=\"8\"}}.{{delay frames=\"20\"}}{{anim id=\"0\"}} Perdona, no te lo decía a ti.{{delay frames=\"20\"}}\nEra para que la nieve tuviera clarito\nquién manda aquí,{{delay frames=\"8\"}} {{fun_00070005 arg=\"\"}}."
  },
  {
    "label": "011",
    "text": "{{anim id=\"15\"}}¡Anda, {{fun_00080005 arg=\"\"}}!{{delay frames=\"20\"}} Ten cuidado, con\nesta nieve y lo oscuro que está,{{delay frames=\"8\"}}\n¡a ver si te la pegas, {{delay frames=\"20\"}}{{fun_00070005 arg=\"\"}}!"
  },
  {
    "label": "012",
    "text": "{{anim id=\"38\"}}¡Muy bien, {{fun_00080005 arg=\"\"}}!{{delay frames=\"20\"}} ¡Vamos a\ndarle toda la noche, a vivir la juerga\nde {{fun_0003000E arg=\"\"}}{{fun_00050005 arg=\"\"}}, {{delay frames=\"20\"}}{{fun_00070005 arg=\"\"}}!"
  }
]