﻿[
  {
    "label": "001",
    "text": "{{anim id=\"32\"}}¡{{fun_0003000E arg=\"\"}}{{fun_00060007 arg=\"\"}}Ahí va, {{fun_00080005 arg=\"\"}}{{fun_00070007 arg=\"\"}}! ¿Qué tal?{{delay frames=\"40\"}}\nOye, como estamos con {{fun_00010011 arg=\"0x0000\"}},{{delay frames=\"20\"}}\n¡hagamos una fiesta,{{delay frames=\"20\"}} {{fun_00070005 arg=\"\"}}!"
  },
  {
    "label": "002",
    "text": "{{anim id=\"32\"}}¡Hola, {{fun_00080005 arg=\"\"}}!{{delay frames=\"40\"}} Como también\nestamos con {{fun_00010011 arg=\"0x0000\"}}, ya hay un\nambientillo, ¿eh, {{delay frames=\"20\"}}{{fun_00070005 arg=\"\"}}?"
  },
  {
    "label": "003",
    "text": "{{anim id=\"32\"}}¡{{fun_0003000E arg=\"\"}}{{fun_00060007 arg=\"\"}}Hola{{fun_00070007 arg=\"\"}}!{{delay frames=\"40\"}}\n{{fun_0003000E arg=\"\"}}{{fun_00010011 arg=\"0x0000\"}} está por aquí, ¡pero no\nte sientas excluid{{fun_0006000E arg=\"0x02006F0002006100\"}},{{delay frames=\"20\"}} {{fun_00070005 arg=\"\"}}!"
  }
]