﻿[
  {
    "label": "001",
    "text": "{{anim id=\"32\"}}¿Qué tal, {{fun_00080005 arg=\"\"}}?{{delay frames=\"40\"}} {{anim id=\"0\"}}\n¡{{fun_0003000E arg=\"\"}}{{fun_00060007 arg=\"\"}}Tienes buena cara, {{fun_0006000E arg=\"0x0C0070006900720061007400610010006200720075006A0069006C006C006100\"}}{{fun_00070007 arg=\"\"}}!\nVienes con ganas de marcha, ¿eh?\n{{anim id=\"37\"}}¿Te has metido en alguna movida\ngorda últimamente? ¡Tú cuéntamela\ny seré una tumba, {{delay frames=\"20\"}}{{fun_00070005 arg=\"\"}}!"
  },
  {
    "label": "002",
    "text": "{{anim id=\"3\"}}Ah, cómo me gustan las mañanas\nen {{fun_0003000E arg=\"\"}}{{fun_00050005 arg=\"\"}}{{delay frames=\"8\"}}.{{delay frames=\"8\"}}.{{delay frames=\"8\"}}.{{delay frames=\"40\"}} {{anim id=\"37\"}}¡Es lo mejor del\npueblo!\n{{anim id=\"21\"}}A no ser que me contemos a mí,\npor supuesto. Entonces la cosa\nya queda más igualada."
  },
  {
    "label": "003",
    "text": "{{anim id=\"25\"}}Uaaah{{delay frames=\"8\"}}.{{delay frames=\"8\"}}.{{delay frames=\"8\"}}. Se me han pegado las\nsábanas, los párpados y hasta las\ntostadas del desayuno. Qué pringue.\nNo os entiendo a los de {{fun_0003000E arg=\"\"}}{{fun_00060005 arg=\"\"}}.\n¿Todos madrugan tanto como tú?\n¡Y te veo tan panch{{fun_0006000E arg=\"0x02006F0002006100\"}},{{delay frames=\"20\"}} {{fun_00070005 arg=\"\"}}!"
  },
  {
    "label": "004",
    "text": "{{anim id=\"15\"}}Oye, {{fun_00080005 arg=\"\"}}... ¿Te has traído\nun bocadillo o algo para esta\nexcursioncita que te estás pegando?\n{{anim id=\"21\"}}Así no tienes que volver escopetad{{fun_0006000E arg=\"0x02006F0002006100\"}}\na {{fun_0003000E arg=\"\"}}{{fun_00060005 arg=\"\"}} solo para prepararte\nalgo de comer,{{delay frames=\"20\"}} {{fun_00070005 arg=\"\"}}."
  },
  {
    "label": "005",
    "text": "{{anim id=\"38\"}}¡{{fun_0003000E arg=\"\"}}{{fun_00060007 arg=\"\"}}Hola, {{fun_00080005 arg=\"\"}}{{fun_00070007 arg=\"\"}}!{{delay frames=\"40\"}}\nComo has venido de excursión por\naquí,{{delay frames=\"20\"}} querrás un recuerdo, ¿no?\nPues no tengas morro. Si quieres\nun regalito, tienes que pagar por\nél, ¿eh? ¡Sé legal, {{fun_00070005 arg=\"\"}}!"
  },
  {
    "label": "006",
    "text": "{{anim id=\"21\"}}En {{fun_0003000E arg=\"\"}}{{fun_00050005 arg=\"\"}}, como somos muy\nmodestos, tenemos un montón de\nsitios flipantes pero no alardeamos.\n{{anim id=\"37\"}}Tú como estás aquí de turista\ntienes que verlos toditos, ¿eh?\n¡Al loro con eso, {{delay frames=\"20\"}}{{fun_00070005 arg=\"\"}}!"
  },
  {
    "label": "007",
    "text": "{{anim id=\"15\"}}Con el tiempo tan estupendo que\nhace, y tú por ahí a tu rollo con\n{{fun_00240005 arg=\"\"}} todo el rato...\n{{anim id=\"1\"}}¿Es que os habéis casado o qué,\n{{fun_00070005 arg=\"\"}}? Tranquil{{fun_0006000E arg=\"0x02006F0002006100\"}}, que\nno se lo diré a nadie, ¿eh?"
  },
  {
    "label": "008",
    "text": "{{anim id=\"44\"}}¡Muy bien, {{fun_00080005 arg=\"\"}}!\n{{delay frames=\"40\"}}¡Sé que eres {{fun_0006000E arg=\"0x040075006E00060075006E006100\"}} fiera! ¡Y me lo\ntienes que demostrar pero ya!\n{{anim id=\"37\"}}¡La movida nocturna de {{fun_0003000E arg=\"\"}}{{fun_00050005 arg=\"\"}}\nestá a punto de subir de nivel! ¡Tú\ny yo vamos a tope,{{delay frames=\"20\"}} {{fun_00070005 arg=\"\"}}!"
  },
  {
    "label": "009",
    "text": "{{anim id=\"1\"}}Me gusta esta noche, vaya que sí{{delay frames=\"8\"}}.{{delay frames=\"8\"}}.{{delay frames=\"8\"}}.\nVoy con una sensación como de que\ntodo es posible, que debo ir a saco.\n{{anim id=\"37\"}}¿Tú no te sueltas?{{delay frames=\"20\"}} ¡Esta noche es\nla \"refinitiva\"! {{delay frames=\"20\"}}¡No te me quedes\napachochad{{fun_0006000E arg=\"0x02006F0002006100\"}}, {{fun_00070005 arg=\"\"}}!"
  },
  {
    "label": "010",
    "text": "{{anim id=\"21\"}}¡Mira dónde pisas! ¡Vas a quedar\nde pena si te paseas sin ver ni\ntorta y le pisas las flores a alguien!\n{{anim id=\"6\"}}A todo esto, ¿tú por qué andas\nremoloneando por aquí\na estas horas,{{delay frames=\"20\"}} {{fun_00070005 arg=\"\"}}?"
  },
  {
    "label": "011",
    "text": "{{anim id=\"1\"}}¡Me gusta tu rollo, {{fun_00080005 arg=\"\"}}!\n¡A ti no te van esas historias de la\ndecencia y acostarte pronto!\n{{anim id=\"6\"}}Eh, no te me irás a acobardar ahora,\n¿no?{{delay frames=\"20\"}} ¡La noche no es para dormirla\ncomo los lirones, {{fun_00070005 arg=\"\"}}!"
  },
  {
    "label": "012",
    "text": "{{anim id=\"6\"}}No hables a voces, ¿eh? Vale, tú\nve a tu rollo y de fiesta a la hora\nque te apetezca{{delay frames=\"8\"}}.{{delay frames=\"8\"}}.{{delay frames=\"8\"}}.{{delay frames=\"8\"}} ¡pero bajito!\n{{anim id=\"21\"}}Yo también soy noctámbula, pero\nno es buena idea despertar a nadie.\n¡Que te la arman,{{delay frames=\"20\"}} {{fun_00070005 arg=\"\"}}!"
  }
]