﻿[
  {
    "label": "001",
    "text": "{{anim id=\"32\"}}¡Atención!{{delay frames=\"40\"}} Voy a explicar\nlas reglas...{{fun_00080007 arg=\"0x58020000\"}}{{pageBreak}}{{anim id=\"21\"}}A ver, nos escondemos y {{fun_00080005 arg=\"\"}}\ntiene que intentar encontrarnos\nantes de{{delay frames=\"8\"}}.{{delay frames=\"8\"}}.{{delay frames=\"8\"}}.{{delay frames=\"20\"}} ¡{{color id=\"2\"}}{{fun_00070004 arg=\"0x0100\"}} minutos{{color id=\"65535\"}}!{{fun_00080007 arg=\"0x58020000\"}}\n{{anim id=\"37\"}}Si no es capaz, ¡{{fun_00080005 arg=\"\"}} pierde!{{fun_00080007 arg=\"0x58020000\"}}\n{{anim id=\"37\"}}Ah, por cierto, no vale esconderse\ndentro de edificios, ¡es trampa!\n{{fun_00080007 arg=\"0x58020000\"}}{{anim id=\"0\"}}Venga, ¡vamos allá!{{delay frames=\"40\"}} {{anim id=\"6\"}}Preparados{{delay frames=\"8\"}}.{{delay frames=\"8\"}}.{{delay frames=\"8\"}}.{{delay frames=\"20\"}}\nListos{{delay frames=\"8\"}}.{{delay frames=\"8\"}}.{{delay frames=\"8\"}}.{{fun_00080007 arg=\"0x58020000\"}}{{pageBreak}}{{fun_000C0007 arg=\"\"}}{{anim id=\"0\"}}{{size value=\"150\"}}¡YA!{{size value=\"100\"}}{{fun_00080007 arg=\"0x58020000\"}}"
  },
  {
    "label": "002",
    "text": "{{anim id=\"37\"}}¡Muy bien!{{delay frames=\"20\"}} Esto es lo que vamos a\nhacer{{delay frames=\"8\"}}.{{delay frames=\"8\"}}.{{delay frames=\"8\"}}.{{delay frames=\"20\"}} ¡Nos vamos a esconder!{{fun_00080007 arg=\"0x58020000\"}}{{pageBreak}}{{color id=\"2\"}}{{anim id=\"21\"}}{{color id=\"65535\"}}{{fun_0003000E arg=\"\"}}{{fun_00000005 arg=\"\"}}, si encuentras a {{color id=\"2\"}}todo el\nmundo{{color id=\"65535\"}} antes de {{color id=\"2\"}}{{fun_00070004 arg=\"0x0100\"}} {{fun_0009000E arg=\"0x01CD0E006D0069006E00750074006F0073000C006D0069006E00750074006F000E006D0069006E00750074006F007300\"}}{{color id=\"65535\"}}, ¡ganas!{{fun_00080007 arg=\"0x58020000\"}}{{pageBreak}}{{anim id=\"0\"}}Ah, por cierto{{delay frames=\"8\"}}.{{delay frames=\"8\"}}.{{delay frames=\"8\"}}.{{delay frames=\"20\"}} ¡No vale hacer\ntrampas!{{delay frames=\"20\"}} Nada de esconderse\ndentro de edificios.\n{{delay frames=\"40\"}}{{anim id=\"37\"}}Ya sabes, {{fun_00000005 arg=\"\"}},{{delay frames=\"20\"}} ¡no hace\nfalta que mires dentro!{{fun_00080007 arg=\"0x58020000\"}} {{anim id=\"0\"}}¡Venga,\na jugar!{{delay frames=\"40\"}} {{anim id=\"6\"}}Preparados{{delay frames=\"8\"}}.{{delay frames=\"8\"}}.{{delay frames=\"8\"}}.{{delay frames=\"20\"}} Listos{{delay frames=\"8\"}}.{{delay frames=\"8\"}}.{{delay frames=\"8\"}}.{{delay frames=\"20\"}}{{fun_00080007 arg=\"0x58020000\"}}\n{{fun_000C0007 arg=\"\"}}{{anim id=\"0\"}}{{size value=\"150\"}}¡YA!{{size value=\"100\"}}{{fun_00080007 arg=\"0x58020000\"}}"
  }
]