﻿[
  {
    "label": "001",
    "text": "{{anim id=\"21\"}}Bueno, {{delay frames=\"20\"}}¡creo que por hoy ya la\nhe armado bastante!{{pageBreak}}{{anim id=\"37\"}}Gracias por la hospitalidad...{{delay frames=\"20\"}}\n¡Ha sido la caña, {{delay frames=\"20\"}}{{fun_00070005 arg=\"\"}}!"
  },
  {
    "label": "002",
    "text": "{{anim id=\"21\"}}Buf{{delay frames=\"8\"}}.{{delay frames=\"8\"}}.{{delay frames=\"8\"}}.{{delay frames=\"20\"}} Hoy me lo he pasado en\ngrande. ¡Tú sí que sabes cómo\ntratar a los invitados!\nPero me voy yendo...{{delay frames=\"20\"}}{{anim id=\"37\"}} ¡Gracias\npor todo, {{delay frames=\"20\"}}{{fun_00070005 arg=\"\"}}!"
  },
  {
    "label": "003",
    "text": "{{anim id=\"37\"}}Bueeeeeno{{delay frames=\"8\"}}.{{delay frames=\"8\"}}.{{delay frames=\"8\"}}.{{delay frames=\"20\"}} Tengo cosas que hacer\ny tal.{{delay frames=\"20\"}} Me lo he pasado muy bien y\ntodo eso,{{delay frames=\"20\"}}{{anim id=\"21\"}} pero ya son horas, ¿no?\nHala, voy tirando.{{delay frames=\"40\"}}{{anim id=\"37\"}} ¡Hasta otra,{{delay frames=\"20\"}}\n{{fun_00070005 arg=\"\"}}!"
  },
  {
    "label": "004",
    "text": "{{anim id=\"15\"}}¿Ein?{{delay frames=\"10\"}} ¿Tienes que ir a algún sitio?{{pageBreak}}{{anim id=\"13\"}}¿Qué pasa?{{delay frames=\"8\"}} No se te ocurrirá\ndejarme aquí sola vigilando la casa{{delay frames=\"8\"}}.{{delay frames=\"8\"}}.{{delay frames=\"8\"}}.{{delay frames=\"20\"}}\n¡Oye, espera!{{delay frames=\"8\"}} ¡Que yo me largo!{{delay frames=\"40\"}}{{anim id=\"9\"}}"
  },
  {
    "label": "005",
    "text": "{{anim id=\"15\"}}Pero ¿qué pasa?{{delay frames=\"20\"}} ¿Te vas?\n{{anim id=\"37\"}}Bueno, ¡entonces yo también!{{delay frames=\"20\"}}\n¡Ha sido un placer,{{delay frames=\"20\"}} {{fun_00070005 arg=\"\"}}!"
  },
  {
    "label": "006",
    "text": "{{anim id=\"15\"}}Pero ¡¿adónde vas?!{{delay frames=\"20\"}} ¿Te marchas?{{delay frames=\"40\"}}\n{{anim id=\"37\"}}Pues yo me voy contigo...{{delay frames=\"20\"}} ¡Gracias\npor invitarme, {{delay frames=\"20\"}}{{fun_00070005 arg=\"\"}}!"
  }
]