﻿[
  {
    "label": "001",
    "text": "¡Hasta más ver, {{delay frames=\"20\"}}{{fun_00070005 arg=\"\"}}!"
  },
  {
    "label": "002",
    "text": "¡Vete por la sombra, {{delay frames=\"20\"}}{{fun_00070005 arg=\"\"}}!"
  },
  {
    "label": "003",
    "text": "¡Oye, gracias! ¡Me lo he pasado\nde alucine!{{anim id=\"32\"}} Venga, ¡nos vemos!"
  },
  {
    "label": "004",
    "text": "{{anim id=\"15\"}}¡¿Ein?!{{delay frames=\"20\"}} ¡¿Ya te marchas?! {{anim id=\"13\"}}¡Espera!{{delay frames=\"40\"}}\nPero si apenas me has hecho\ncaso, {{delay frames=\"20\"}}{{fun_00070005 arg=\"\"}}...{{delay frames=\"40\"}}{{anim id=\"9\"}}"
  },
  {
    "label": "005",
    "text": "{{anim id=\"15\"}}¿Cómo?{{delay frames=\"20\"}} ¿Te largas ya, {{fun_00080005 arg=\"\"}}?\n{{anim id=\"13\"}}¡Pero bueno!{{delay frames=\"40\"}} ¡Que aún no te he\ncontado lo que me pasó anoche!{{anim id=\"9\"}}"
  },
  {
    "label": "006",
    "text": "{{anim id=\"15\"}}Pero ¡¿de verdad te piras?! {{anim id=\"13\"}}¡Será\nposible!{{delay frames=\"40\"}} ¿A qué vienen esas prisas?{{delay frames=\"20\"}}\n¡Pero si acabas de llegar!{{delay frames=\"40\"}}{{anim id=\"9\"}}"
  }
]