﻿[
  {
    "label": "001",
    "text": "{{anim id=\"1\"}}Pues no está mal eso de caminar\ndetrás de ti.{{delay frames=\"20\"}} {{anim id=\"0\"}}¡Los del pueblo se van\na pensar que soy tu guardaespaldas!"
  },
  {
    "label": "002",
    "text": "Oye...{{delay frames=\"8\"}} Una cosa{{delay frames=\"8\"}}.{{delay frames=\"8\"}}.{{delay frames=\"8\"}}.{{delay frames=\"20\"}} ¿Parecía\nenfadad{{fun_0008000E arg=\"0x00CD02006F00020061000000\"}} {{fun_00010011 arg=\"0x0000\"}}{{delay frames=\"20\"}} por\ncasualidad?{{delay frames=\"40\"}}{{anim id=\"9\"}}\n{{anim id=\"10\"}}Es que cuando alguien me busca...{{delay frames=\"20\"}}\nBueno, ¡es normal que me ponga\nnerviosa, {{fun_00070005 arg=\"\"}}!"
  },
  {
    "label": "003",
    "text": "{{anim id=\"16\"}}Vaya, {{fun_00080005 arg=\"\"}},{{delay frames=\"10\"}} ¡caminas\nerguid{{fun_0006000E arg=\"0x02006F0002006100\"}} como u{{fun_0006000E arg=\"0x02006E0004006E006100\"}} líder!{{pageBreak}}{{anim id=\"1\"}}¡Desde aquí atrás se nota\nmuchísimo, {{delay frames=\"20\"}}{{fun_00070005 arg=\"\"}}!"
  },
  {
    "label": "004",
    "text": "{{anim id=\"15\"}}Oye, ¿y de qué va todo esto?{{delay frames=\"40\"}}\n{{anim id=\"13\"}}No...{{delay frames=\"8\"}} No es que esté nerviosa\nni nada, ¿eh?\n{{anim id=\"6\"}}¡Puedo hacerle frente a {{fun_00010011 arg=\"0x0000\"}}!{{delay frames=\"20\"}}\n¡Venga, aquí estoy, {{delay frames=\"20\"}}{{fun_00070005 arg=\"\"}}!"
  },
  {
    "label": "005",
    "text": "{{anim id=\"9\"}}A ver, ¿ahora qué pasa?{{delay frames=\"20\"}}\n¡Aquí sigo!{{pageBreak}}{{anim id=\"36\"}}Hay que ver, ¡cómo te preocupas\npor nada,{{delay frames=\"20\"}} {{fun_00070005 arg=\"\"}}!{{delay frames=\"40\"}}{{anim id=\"0\"}}"
  }
]