﻿[
  {
    "label": "001",
    "text": "{{anim id=\"38\"}}¡{{fun_0003000E arg=\"\"}}{{fun_00080005 arg=\"\"}}!{{delay frames=\"40\"}} {{anim id=\"29\"}}¡Feliz cumpleaños!{{delay frames=\"40\"}}{{anim id=\"37\"}}{{pageBreak}}{{anim id=\"0\"}}Ji, ji{{delay frames=\"8\"}}.{{delay frames=\"8\"}}.{{delay frames=\"8\"}}.{{delay frames=\"20\"}}{{anim id=\"37\"}} ¿Has recibido ya\nmi felicitación?{{pageBreak}}{{anim id=\"0\"}}Si todavía no te ha llegado, ¡mira\nel buzón sin falta, {{delay frames=\"20\"}}{{fun_00070005 arg=\"\"}}!"
  },
  {
    "label": "002",
    "text": "{{anim id=\"38\"}}¡{{fun_0003000E arg=\"\"}}{{fun_00080005 arg=\"\"}}!{{delay frames=\"40\"}} {{anim id=\"29\"}}Hoy es\ntu cumpleaños, ¿no?{{delay frames=\"40\"}}\n¡Felicidades!{{delay frames=\"40\"}}{{anim id=\"37\"}}\n{{anim id=\"0\"}}Te envié la tarjeta con tiempo\npara que llegase justo hoy,{{delay frames=\"8\"}} ¡así\nque mira el buzón, {{delay frames=\"20\"}}{{fun_00070005 arg=\"\"}}!"
  },
  {
    "label": "003",
    "text": "{{anim id=\"38\"}}¡Oye!{{delay frames=\"20\"}} Hoy es tu cumpleaños, ¡¿no?!{{delay frames=\"40\"}}\n{{anim id=\"29\"}}¡Feliz cumpleaños, {{delay frames=\"20\"}}{{fun_00070005 arg=\"\"}}!{{delay frames=\"40\"}}{{anim id=\"37\"}}{{pageBreak}}{{anim id=\"33\"}}¿Te sorprende que me acordase?{{delay frames=\"40\"}}\nTe envié una felicitación, ¡así que\nmira el correo, {{delay frames=\"20\"}}{{fun_00070005 arg=\"\"}}!{{delay frames=\"20\"}}{{anim id=\"37\"}}"
  },
  {
    "label": "004",
    "text": "{{anim id=\"38\"}}¡Anda, {{fun_00080005 arg=\"\"}}!{{delay frames=\"40\"}}\n{{anim id=\"29\"}}¡Feliz cumpleaños, {{delay frames=\"20\"}}{{fun_00070005 arg=\"\"}}!{{delay frames=\"20\"}}{{anim id=\"0\"}}{{pageBreak}}{{anim id=\"37\"}}Eres un poquitín más viej{{fun_0006000E arg=\"0x02006F0002006100\"}}, pero eso\nno es nada malo. {{anim id=\"28\"}}¡Mírame a mí, que\nmejoro con los años!"
  },
  {
    "label": "005",
    "text": "{{anim id=\"38\"}}¡Es{{fun_0006000E arg=\"0x0200650002006100\"}} {{fun_00080005 arg=\"\"}}!{{delay frames=\"40\"}}\n{{anim id=\"29\"}}¡Feliz cumpleaños, {{delay frames=\"20\"}}{{fun_00070005 arg=\"\"}}!{{anim id=\"0\"}}{{pageBreak}}{{anim id=\"28\"}}Hay que ver, cualquiera diría que\nacabas de cumplir{{delay frames=\"8\"}}.{{delay frames=\"8\"}}.{{delay frames=\"8\"}}. {{delay frames=\"20\"}}{{anim id=\"18\"}}¡Ahí va!{{delay frames=\"8\"}}{{anim id=\"0\"}} {{anim id=\"1\"}}Casi\nse me escapa cuántos años tienes."
  },
  {
    "label": "006",
    "text": "{{anim id=\"32\"}}¡Bueno, bueno, {{fun_00080005 arg=\"\"}}!{{delay frames=\"40\"}}\n{{anim id=\"29\"}}¡Feliz cumpleaños, {{delay frames=\"20\"}}{{fun_00070005 arg=\"\"}}!{{pageBreak}}{{anim id=\"36\"}}Hoy ya te habrán hecho un montón\nde regalos, {{delay frames=\"20\"}}{{anim id=\"26\"}}¡así que te regalaré una\ncanción!\n{{anim id=\"5\"}}Cumpleaaaaños {{delay frames=\"20\"}} feliiiz {{delay frames=\"40\"}}\nCumpleaaaños {{delay frames=\"20\"}} feeeeeliz {{delay frames=\"40\"}}\n{{anim id=\"35\"}}Te ha molado, ¿eh, chat{{fun_0006000E arg=\"0x02006F0002006100\"}}?"
  },
  {
    "label": "007",
    "text": "{{anim id=\"38\"}}¡{{fun_0003000E arg=\"\"}}{{fun_00080005 arg=\"\"}}!{{delay frames=\"40\"}} {{anim id=\"29\"}}¡Feliz cumpleaños,\n{{delay frames=\"20\"}}{{fun_00070005 arg=\"\"}}!{{anim id=\"0\"}}{{pageBreak}}{{anim id=\"37\"}}Sé que este año no es bisiesto, pero\nte he enviado una felicitación de\ntodas formas.{{delay frames=\"20\"}} {{anim id=\"0\"}}¿La has recibido?\n{{anim id=\"32\"}}Si aún no la has visto, ¡échale un\nvistazo al buzón sin falta!"
  },
  {
    "label": "008",
    "text": "{{anim id=\"16\"}}¡{{fun_0003000E arg=\"\"}}{{fun_00080005 arg=\"\"}}!{{delay frames=\"20\"}} {{anim id=\"11\"}}Qué movida eso de\ncumplir años el 29 de febrero, ¿no?{{anim id=\"0\"}}{{pageBreak}}{{anim id=\"37\"}}Bueno, es una fecha muy particular\npara una persona {{delay frames=\"8\"}}también muy\nparticular. {{anim id=\"28\"}}¡Ya me entiendes!\n{{anim id=\"1\"}}En fin, este año no es bisiesto,\npero{{delay frames=\"8\"}}.{{delay frames=\"8\"}}.{{delay frames=\"8\"}}.{{delay frames=\"20\"}} {{anim id=\"29\"}}¡Feliz {{delay frames=\"8\"}}cumpleaños!"
  },
  {
    "label": "009",
    "text": "{{anim id=\"38\"}}¡Huy, {{fun_00080005 arg=\"\"}}!{{delay frames=\"40\"}}\n{{anim id=\"0\"}}{{anim id=\"29\"}}¡Feliz cumpleaños, {{delay frames=\"20\"}}{{fun_00070005 arg=\"\"}}!{{delay frames=\"40\"}}{{anim id=\"37\"}}{{pageBreak}}{{anim id=\"0\"}}Hoy es 29 de febrero, ¿no? O sea,\nque hasta dentro de cuatro años no\nvolverá a haber otro día igual.\n{{anim id=\"1\"}}Ya me encargué yo de que mi\nfelicitación te llegase hoy.{{anim id=\"5\"}} ¡Tienes\nque mirar el buzón, {{delay frames=\"20\"}}{{fun_00070005 arg=\"\"}}!"
  },
  {
    "label": "010",
    "text": "{{anim id=\"16\"}}¡Ahí va, {{fun_00080005 arg=\"\"}}!{{delay frames=\"20\"}}\n{{anim id=\"29\"}}¡Feliz cumpleaños, {{delay frames=\"20\"}}{{fun_00070005 arg=\"\"}}!\n{{anim id=\"28\"}}¿O creías que me había olvidado?\n{{anim id=\"11\"}}29 de febrero, ¿eh?{{delay frames=\"8\"}} Solo ocurre\ncada cuatro años, {{anim id=\"35\"}}así que todavía\neres {{fun_0006000E arg=\"0x1A0075006E0020006A006F00760065006E007A00750065006C006F001C0075006E00610020006A006F00760065006E007A00750065006C006100\"}}, ¿no?"
  },
  {
    "label": "011",
    "text": "{{anim id=\"37\"}}¡{{fun_0003000E arg=\"\"}}{{fun_00080005 arg=\"\"}}!{{delay frames=\"40\"}}\n{{anim id=\"0\"}}Hoy es tu cumpleaños, ¿no? Pues{{delay frames=\"8\"}}.{{delay frames=\"8\"}}.{{delay frames=\"8\"}}.{{delay frames=\"20\"}}\n{{anim id=\"29\"}}¡Feliz cumpleaños, {{delay frames=\"20\"}}{{fun_00070005 arg=\"\"}}!{{delay frames=\"40\"}}{{anim id=\"37\"}}\n{{anim id=\"1\"}}¡Me alegro de haber podido\ndecírtelo en persona! {{delay frames=\"20\"}}¡Que tengas\nun cumpleaños estupendo!"
  },
  {
    "label": "012",
    "text": "{{anim id=\"38\"}}¡{{fun_0003000E arg=\"\"}}{{fun_00080005 arg=\"\"}}!{{delay frames=\"40\"}} {{anim id=\"0\"}}Oye, que me he\nenterado de que es tu cumple, así\nque{{delay frames=\"8\"}}.{{delay frames=\"8\"}}.{{delay frames=\"8\"}}.{{delay frames=\"20\"}}{{anim id=\"29\"}} ¡Felicidades, {{delay frames=\"20\"}}{{fun_00070005 arg=\"\"}}!{{delay frames=\"40\"}}{{anim id=\"37\"}}\n{{anim id=\"21\"}}¡Qué bien que te hayas pasado por\naquí!{{delay frames=\"10\"}} Así he podido felicitarte en\npersona.{{delay frames=\"20\"}} ¡Qué caña, {{delay frames=\"20\"}}{{fun_00070005 arg=\"\"}}!"
  },
  {
    "label": "013",
    "text": "{{anim id=\"38\"}}¡{{fun_0003000E arg=\"\"}}{{fun_00080005 arg=\"\"}}!{{delay frames=\"20\"}} {{anim id=\"0\"}}Oye, tu cumple era\nel 29, ¿no?{{delay frames=\"20\"}} {{anim id=\"37\"}}Sé que este año no es\nbisiesto, pero{{delay frames=\"8\"}}.{{delay frames=\"8\"}}.{{delay frames=\"8\"}}.{{delay frames=\"20\"}} {{anim id=\"29\"}}¡Feliz cumpleaños!"
  },
  {
    "label": "014",
    "text": "{{anim id=\"5\"}}¡Qué flipe que haya podido decírtelo\nen persona, {{delay frames=\"20\"}}{{fun_00070005 arg=\"\"}}!"
  },
  {
    "label": "015",
    "text": "{{anim id=\"37\"}}Ji, ji{{delay frames=\"8\"}}.{{delay frames=\"8\"}}.{{delay frames=\"8\"}}.{{delay frames=\"20\"}} La verdad{{delay frames=\"10\"}} es que me\nhe acordado de comprarte\nun detallito.\n{{anim id=\"21\"}}Pensaba enviártelo por correo,\n{{delay frames=\"10\"}}{{anim id=\"0\"}}pero ya que te veo, ¡pues te lo\ndoy ahora mismo!"
  },
  {
    "label": "016",
    "text": "{{anim id=\"5\"}}¡Espero que te lo pases muy bien\nen {{fun_0003000E arg=\"\"}}{{fun_00050005 arg=\"\"}} en este día tan\nespecial, {{delay frames=\"20\"}}{{fun_00070005 arg=\"\"}}!"
  },
  {
    "label": "017",
    "text": ""
  },
  {
    "label": "018",
    "text": ""
  },
  {
    "label": "019",
    "text": ""
  },
  {
    "label": "020",
    "text": ""
  }
]