﻿[
  {
    "label": "001",
    "text": "{{anim id=\"1\"}}Escucha,{{delay frames=\"20\"}} esto es importante,\nasí que no lo olvides, ¿vale?{{delay frames=\"20\"}}\n¡Nací el {{fun_000F0004 arg=\"0x00CD\"}} de {{fun_000E0004 arg=\"0x00CD\"}}!"
  },
  {
    "label": "002",
    "text": "{{anim id=\"1\"}}¡Juguemos al horóscopo!{{delay frames=\"40\"}} Si nací el\n{{fun_000F0004 arg=\"0x00CD\"}} de {{fun_000E0004 arg=\"0x00CD\"}}, ¡mi comida de la\nsuerte es{{delay frames=\"40\"}} {{anim id=\"32\"}}{{fun_0001000E arg=\"\"}}{{fun_00130005 arg=\"0x0000\"}}!\n{{delay frames=\"40\"}}{{anim id=\"19\"}}No, un momento{{delay frames=\"8\"}}.{{delay frames=\"8\"}}.{{delay frames=\"8\"}}.{{delay frames=\"40\"}} Eso es solo\nlo que me está apeteciendo\ncomer ahora,{{delay frames=\"8\"}} {{fun_00070005 arg=\"\"}}."
  },
  {
    "label": "003",
    "text": ""
  },
  {
    "label": "004",
    "text": "Perdona que salga con esto así\nde pronto sin motivo, pero...{{delay frames=\"20\"}}\n¿tú conoces mi lema personal?"
  },
  {
    "label": "005",
    "text": "{{anim id=\"4\"}}No está nada mal, ¿eh?{{delay frames=\"40\"}} Todo\nel mundo debería tener un lema\nque seguir en su vida,{{delay frames=\"8\"}} {{fun_00070005 arg=\"\"}}."
  },
  {
    "label": "006",
    "text": "{{anim id=\"1\"}}Esto te cogerá por sorpresa,{{delay frames=\"20\"}} ¡pero\nde pronto me apetece compartir\ncontigo mi lema, {{fun_00080005 arg=\"\"}}!"
  },
  {
    "label": "007",
    "text": "{{anim id=\"4\"}}Eso me hace sonar como\nun tío supermolón. ¿A que sí,{{delay frames=\"8\"}}\n{{fun_00070005 arg=\"\"}}?"
  },
  {
    "label": "008",
    "text": ""
  },
  {
    "label": "009",
    "text": ""
  },
  {
    "label": "010",
    "text": "{{anim id=\"1\"}}¿A ti qué tal se te da lo de\n{{fun_00180012 arg=\"0x00CD\"}}, {{fun_00080005 arg=\"\"}}?{{pageBreak}}{{anim id=\"35\"}}¡Porque ese es{{delay frames=\"20\"}} mi talento\nsupersecreto!"
  },
  {
    "label": "011",
    "text": "{{anim id=\"1\"}}¡Se me da genial lo de{{delay frames=\"20\"}}\n{{fun_00180012 arg=\"0x00CD\"}}!{{pageBreak}}{{anim id=\"15\"}}Oye,{{delay frames=\"20\"}} ¿por qué me pones esa cara?{{delay frames=\"20\"}}\n{{anim id=\"9\"}}¡Te lo digo de verdad!"
  },
  {
    "label": "012",
    "text": ""
  },
  {
    "label": "013",
    "text": "No creo que te lo haya contado\nnunca, pero{{anim id=\"1\"}} en mi familia yo soy\n{{fun_0001000E arg=\"\"}}{{fun_00160012 arg=\"0x00CD\"}}.\n{{anim id=\"26\"}}Je, je{{delay frames=\"8\"}}.{{delay frames=\"8\"}}.{{delay frames=\"8\"}}.{{delay frames=\"20\"}} Supongo que es bastante\nobvio, ¿eh?"
  },
  {
    "label": "014",
    "text": "{{anim id=\"1\"}}Oye, {{fun_00080005 arg=\"\"}},{{delay frames=\"20\"}} ¿tú tienes\nhermanos?{{fun_00010007 arg=\"\"}} {{anim id=\"21\"}}¡En mi familia yo soy\n{{fun_0001000E arg=\"\"}}{{fun_00160012 arg=\"0x00CD\"}}!\n{{anim id=\"27\"}}No siempre resulta fácil,{{delay frames=\"12\"}} pero ya\nme cuesta imaginar las cosas de\notra forma."
  },
  {
    "label": "015",
    "text": ""
  },
  {
    "label": "016",
    "text": "{{anim id=\"1\"}}¡Mi sueño es ser\n{{fun_00170012 arg=\"0x00CD\"}}!{{pageBreak}}{{anim id=\"4\"}}Es algo que deseo que se haga\nrealidad algún día{{delay frames=\"8\"}}.{{delay frames=\"8\"}}.{{delay frames=\"8\"}}."
  },
  {
    "label": "017",
    "text": "{{anim id=\"5\"}}Mi mayor sueño en esta vida es\nllegar a ser {{fun_00170012 arg=\"0x00CD\"}}.{{delay frames=\"20\"}}\n¡Eso sería una pasada!"
  }
]