﻿[
  {
    "label": "001",
    "text": "{{anim id=\"1\"}}Ahora que estamos en diciembre,{{delay frames=\"20\"}}\n¡no se habla de otra cosa que\ndel Día de los Juguetes!{{pageBreak}}{{anim id=\"5\"}}Pues te voy decir una cosa...{{delay frames=\"20\"}}\nA nadie le hace más ilusión\nque a mí."
  },
  {
    "label": "002",
    "text": "{{anim id=\"13\"}}¡Estoy hasta arriba de cosas que\nhacer antes del Día de los Juguetes!{{delay frames=\"20\"}}\nSiempre me pasa esto en diciembre.\n{{anim id=\"11\"}}Que si los regalos,{{delay frames=\"20\"}} la comida...{{delay frames=\"40\"}}\n{{anim id=\"1\"}}¡Hay taaaaantas cosas en las\nque pensar!"
  },
  {
    "label": "003",
    "text": "{{anim id=\"23\"}}¿Crees que {{color id=\"4\"}}Renato {{color id=\"65535\"}}ya se está\npreparando para el Día de los\nJuguetes?{{pageBreak}}{{anim id=\"13\"}}¡Tenemos que escribirle lo antes\nposible!"
  },
  {
    "label": "004",
    "text": "{{anim id=\"5\"}}Me encanta cuando suenan las\ncampanas en esta época del año.\n¿A ti no te llenan de alegría?\n{{anim id=\"19\"}}Excepto si empiezan a repicar\na la hora de mi siesta...{{delay frames=\"40\"}} ¡Eso ya es\nalgo muy distinto,{{delay frames=\"8\"}} {{fun_00070005 arg=\"\"}}!"
  },
  {
    "label": "005",
    "text": "{{anim id=\"4\"}}Seguro que {{color id=\"4\"}}Renato {{color id=\"65535\"}}está leyendo\ntodas las cartas que le han enviado.{{pageBreak}}{{anim id=\"13\"}}¡Tiene que estar hasta arriba de\ntrabajo!{{delay frames=\"40\"}} Aunque bueno, el resto del\naño descansa, así que le compensa."
  },
  {
    "label": "006",
    "text": "{{anim id=\"5\"}}¡Ya casi ha llegado el Día de\nlos Juguetes!{{delay frames=\"20\"}} ¡Qué emoción,{{delay frames=\"8\"}}\n{{fun_00070005 arg=\"\"}}!"
  },
  {
    "label": "007",
    "text": "{{anim id=\"1\"}}¡Se acerca el Día de los Juguetes!{{delay frames=\"20\"}}\n¡Tengo que empezar a hacer mi\nlista de regalos para {{color id=\"4\"}}Renato{{color id=\"65535\"}}!"
  },
  {
    "label": "008",
    "text": "{{anim id=\"1\"}}¡Je, je, je!{{delay frames=\"20\"}} ¡Apenas quedan unos días\npara el Día de los Juguetes!{{pageBreak}}{{anim id=\"25\"}}Estoy ansioso por que llegue ya,{{delay frames=\"20\"}}\nasí que me estoy acostando pronto\ntodas las noches, {{delay frames=\"8\"}}{{fun_00070005 arg=\"\"}}."
  },
  {
    "label": "009",
    "text": "{{anim id=\"9\"}}Me he enterado de un rumor{{delay frames=\"8\"}}.{{delay frames=\"8\"}}.{{delay frames=\"8\"}}.{{fun_00010007 arg=\"\"}}\n{{anim id=\"13\"}}Por lo visto {{color id=\"4\"}}Renato {{color id=\"65535\"}}se equivoca\nde regalo muchas veces.\n{{anim id=\"0\"}}Tendrás que describir muy bien\nlo que quieres para que no\nse confunda."
  },
  {
    "label": "010",
    "text": "{{anim id=\"1\"}}¡Ya casi está aquí!{{delay frames=\"20\"}} ¡Mañana es\nel Día de los Juguetes!{{pageBreak}}{{anim id=\"2\"}}Nadie tiene más ganas que yo\nde que llegue,{{delay frames=\"8\"}} {{fun_00070005 arg=\"\"}}.{{delay frames=\"40\"}}{{anim id=\"1\"}}"
  },
  {
    "label": "011",
    "text": "{{anim id=\"13\"}}¡Mañana es el Día de los Juguetes!{{delay frames=\"20\"}}\n¿No es increíble que esté aquí ya?{{delay frames=\"20\"}}\n¡Estoy supernervioso!\n{{anim id=\"43\"}}Espero que {{color id=\"4\"}}Renato {{color id=\"65535\"}}se porte\nbien conmigo este año."
  },
  {
    "label": "012",
    "text": "{{anim id=\"33\"}}Como mañana es el Día de los\nJuguetes,{{delay frames=\"20\"}} voy a esperar despierto\na {{color id=\"4\"}}Renato{{color id=\"65535\"}}.{{pageBreak}}{{anim id=\"25\"}}Uaaaah.{{delay frames=\"40\"}} Pero para eso tengo que\ndescansar bien esta noche."
  },
  {
    "label": "013",
    "text": ""
  },
  {
    "label": "014",
    "text": ""
  },
  {
    "label": "015",
    "text": ""
  },
  {
    "label": "016",
    "text": ""
  },
  {
    "label": "017",
    "text": ""
  },
  {
    "label": "018",
    "text": ""
  },
  {
    "label": "019",
    "text": ""
  },
  {
    "label": "020",
    "text": ""
  },
  {
    "label": "021",
    "text": "{{anim id=\"1\"}}Oye, entre tú y yo... Este año le voy\na pedir a {{color id=\"4\"}}Renato {{color id=\"65535\"}}un {{color id=\"2\"}}mueble{{color id=\"65535\"}}."
  },
  {
    "label": "022",
    "text": "{{anim id=\"1\"}}Oye, entre tú y yo... Este año le voy\na pedir a {{color id=\"4\"}}Renato {{color id=\"65535\"}}una{{color id=\"2\"}} alfombra{{color id=\"65535\"}}."
  },
  {
    "label": "023",
    "text": "{{anim id=\"1\"}}Oye, entre tú y yo... Este año le voy\na pedir a {{color id=\"4\"}}Renato{{color id=\"65535\"}} {{color id=\"2\"}}papel de pared{{color id=\"65535\"}}."
  },
  {
    "label": "024",
    "text": "{{anim id=\"1\"}}Oye, entre tú y yo... Este año\nle voy a pedir a {{color id=\"4\"}}Renato {{color id=\"65535\"}}un\n{{color id=\"2\"}}electrodoméstico{{color id=\"65535\"}}."
  },
  {
    "label": "025",
    "text": "{{anim id=\"1\"}}Oye, entre tú y yo... Este año le voy\na pedir a {{color id=\"4\"}}Renato {{color id=\"65535\"}}un{{color id=\"2\"}} instrumento{{color id=\"65535\"}}."
  },
  {
    "label": "026",
    "text": "{{anim id=\"1\"}}Oye, entre tú y yo... Este año le voy\na pedir a {{color id=\"4\"}}Renato {{color id=\"65535\"}}una{{color id=\"2\"}} planta{{color id=\"65535\"}}."
  },
  {
    "label": "027",
    "text": "{{anim id=\"1\"}}Oye, entre tú y yo... Este año le voy\na pedir {{color id=\"2\"}}ropa {{color id=\"65535\"}}a {{color id=\"4\"}}Renato{{color id=\"65535\"}}."
  },
  {
    "label": "028",
    "text": "{{anim id=\"1\"}}Oye, entre tú y yo... Este año le voy\na pedir a {{color id=\"4\"}}Renato {{color id=\"65535\"}}una{{color id=\"2\"}} muñeca{{color id=\"65535\"}}."
  },
  {
    "label": "029",
    "text": "{{anim id=\"1\"}}Oye, entre tú y yo... Este año le voy\na pedir a {{color id=\"4\"}}Renato {{color id=\"65535\"}}un{{color id=\"2\"}} juguete{{color id=\"65535\"}}."
  },
  {
    "label": "030",
    "text": "{{anim id=\"1\"}}Oye, entre tú y yo... Este año le voy\na pedir {{color id=\"2\"}}comida{{color id=\"65535\"}} a {{color id=\"4\"}}Renato{{color id=\"65535\"}}."
  },
  {
    "label": "031",
    "text": "{{anim id=\"1\"}}Oye, entre tú y yo... Este año le voy\na pedir a {{color id=\"4\"}}Renato {{color id=\"65535\"}}una {{color id=\"2\"}}lámpara{{color id=\"65535\"}}."
  },
  {
    "label": "032",
    "text": "{{anim id=\"1\"}}Oye, entre tú y yo... Este año le voy\na pedir a {{color id=\"4\"}}Renato {{color id=\"65535\"}}un{{color id=\"2\"}} paraguas{{color id=\"65535\"}}."
  },
  {
    "label": "033",
    "text": ""
  },
  {
    "label": "034",
    "text": ""
  },
  {
    "label": "035",
    "text": ""
  },
  {
    "label": "036",
    "text": ""
  },
  {
    "label": "037",
    "text": "{{anim id=\"1\"}}En fin,{{delay frames=\"20\"}} espero que mi regalo\nde este año sea {{color id=\"2\"}}{{fun_00020012 arg=\"\"}}{{color id=\"65535\"}}."
  },
  {
    "label": "038",
    "text": "{{anim id=\"11\"}}Me pregunto cómo lo hace {{color id=\"4\"}}Renato\n{{color id=\"65535\"}}para que le dé tiempo a repartir\ntodos los regalos. Mmm{{delay frames=\"8\"}}.{{delay frames=\"8\"}}.{{delay frames=\"8\"}}."
  },
  {
    "label": "039",
    "text": "{{anim id=\"5\"}}A ver si con suerte {{color id=\"4\"}}Renato {{color id=\"65535\"}}nos\ntrae lo que queremos,{{delay frames=\"8\"}} {{fun_00070005 arg=\"\"}}."
  },
  {
    "label": "040",
    "text": "{{anim id=\"4\"}}¡El Día de los Juguetes es una\nde mis fiestas favoritas!"
  }
]