﻿[
  {
    "label": "001",
    "text": "{{anim id=\"1\"}}¡Hurra!{{delay frames=\"8\"}} ¡Has venido, {{fun_00080005 arg=\"\"}}!"
  },
  {
    "label": "002",
    "text": "{{anim id=\"15\"}}¡Vaya!{{delay frames=\"8\"}} ¡{{fun_0003000E arg=\"\"}}{{fun_00080005 arg=\"\"}}!{{pageBreak}}{{anim id=\"1\"}}¡Cómo me alegro de que hayas\nvenido a celebrar conmigo\nmi cumpleaños!"
  },
  {
    "label": "003",
    "text": "¡Bienvenid{{fun_0006000E arg=\"0x02006F0002006100\"}}, {{delay frames=\"8\"}}{{fun_00080005 arg=\"\"}}!{{fun_00010007 arg=\"\"}} {{anim id=\"1\"}}¡Me alegro\nde que puedas estar aquí para\ncelebrar conmigo mi cumpleaños!"
  },
  {
    "label": "004",
    "text": "{{anim id=\"1\"}}Oye...{{delay frames=\"20\"}} ¡{{fun_00010011 arg=\"0x0000\"}} {{delay frames=\"8\"}}me acaba\nde dar un regalo!{{delay frames=\"20\"}} ¿Tú también{{delay frames=\"20\"}}\n{{anim id=\"23\"}}me has traído uno?{{fun_0005000F arg=\"0x15002800\"}}\nSí, ¡toma esto!\nLo siento, pero no"
  },
  {
    "label": "005",
    "text": "{{anim id=\"3\"}}¡Viva!{{delay frames=\"20\"}} ¡Gracias por venir\na celebrar mi cumpleaños!{{pageBreak}}{{anim id=\"0\"}}Pero oye, ¡no sería un cumpleaños\n{{anim id=\"38\"}}sin los regalos!{{pageBreak}}{{anim id=\"39\"}}¡No hace falta que seas tímid{{fun_0006000E arg=\"0x02006F0002006100\"}}!{{delay frames=\"20\"}}\n¡Venga, a ver qué me traes!{{fun_0005000F arg=\"0x15002800\"}}\n¡Aquí tienes!\nNo te he traído nada"
  },
  {
    "label": "006",
    "text": "{{anim id=\"33\"}}¡Je, je!{{delay frames=\"20\"}} ¡Hoy es mi día especial!{{pageBreak}}{{anim id=\"1\"}}Todo el mundo me está dando\nregalos. Oye, {{delay frames=\"20\"}}{{fun_00080005 arg=\"\"}}, ¿tú\ntambién me has traído algo?{{fun_0005000F arg=\"0x15002800\"}}\n¡Aquí tienes!\nSe me olvidó..."
  },
  {
    "label": "007",
    "text": "{{anim id=\"9\"}}Oh, vaya{{delay frames=\"8\"}}.{{delay frames=\"8\"}}.{{delay frames=\"8\"}}.{{delay frames=\"20\"}} Bueno, supongo que\ntu presencia ya es suficiente regalo."
  },
  {
    "label": "008",
    "text": "{{anim id=\"9\"}}Ah, vale{{delay frames=\"8\"}}.{{delay frames=\"8\"}}.{{delay frames=\"8\"}}.{{delay frames=\"20\"}} {{anim id=\"40\"}}Bueno,{{delay frames=\"20\"}} no te preocupes.{{fun_00010007 arg=\"\"}}\n{{anim id=\"1\"}}¡Me basta con que estés aquí!"
  },
  {
    "label": "009",
    "text": "{{anim id=\"19\"}}{{delay frames=\"40\"}}Oh.{{delay frames=\"20\"}} Bueno, supongo que tampoco\nimporta tanto."
  },
  {
    "label": "010",
    "text": "{{anim id=\"5\"}}¡Genial! {{delay frames=\"20\"}}¿Qué es? ¿Qué es?"
  },
  {
    "label": "011",
    "text": "{{anim id=\"1\"}}¡No puedo esperar ni un\nsegundo más!{{delay frames=\"20\"}} ¡Lo voy a abrir\nahora mismo, {{delay frames=\"8\"}}{{fun_00070005 arg=\"\"}}!"
  },
  {
    "label": "012",
    "text": "{{anim id=\"21\"}}Snif, snif...{{delay frames=\"20\"}} Intento adivinar\nqué es oliéndolo."
  },
  {
    "label": "013",
    "text": "{{anim id=\"3\"}}¡Vaya!{{delay frames=\"20\"}} ¡Esta tarta de cumpleaños\ntiene una pinta riquísima!{{delay frames=\"20\"}} ¡Qué\nbien me conoces, {{fun_00080005 arg=\"\"}}!\n¡Y sabes perfectamente que no\nme puedo resistir a la comida!"
  },
  {
    "label": "014",
    "text": "{{anim id=\"16\"}}{{fun_000B0007 arg=\"\"}}¡{{fun_0003000E arg=\"\"}}{{fun_0002000E arg=\"\"}}{{fun_00030011 arg=\"0x0000\"}}!{{delay frames=\"20\"}}\n¡Vaya!{{pageBreak}}{{anim id=\"1\"}}Lo único es que{{delay frames=\"20\"}} ya tenía un{{fun_0008000E arg=\"0x00CD02006F00020061000000\"}}...{{pageBreak}}{{anim id=\"5\"}}¡Quizá {{delay frames=\"20\"}}tendría que iniciar una\ncolección dedicada en exclusiva\n{{fun_0008000E arg=\"0x00CD040061006C000800610020006C0061000000\"}} {{fun_00030011 arg=\"0x0000\"}}!"
  },
  {
    "label": "015",
    "text": "{{anim id=\"16\"}}{{fun_000B0007 arg=\"\"}}¡{{fun_0003000E arg=\"\"}}{{fun_0002000E arg=\"\"}}{{fun_00030011 arg=\"0x0000\"}}!{{delay frames=\"40\"}}\n{{anim id=\"0\"}}¡Me gusta tanto que{{delay frames=\"20\"}} es lo que\nllevo puesto ahora mismo!{{pageBreak}}{{anim id=\"1\"}}¡Voy a guardar {{fun_0008000E arg=\"0x00CD040065006C0004006C0061000000\"}} de repuesto que\nme acabas de dar{{delay frames=\"20\"}} para ponérmel{{fun_0008000E arg=\"0x00CD02006F00020061000000\"}}\nlos domingos!"
  },
  {
    "label": "016",
    "text": "{{anim id=\"15\"}}{{fun_000B0007 arg=\"\"}}¡{{fun_0003000E arg=\"\"}}{{fun_0002000E arg=\"\"}}{{fun_00030011 arg=\"0x0000\"}}!{{pageBreak}}{{anim id=\"23\"}}Un momento... ¿Qué?{{delay frames=\"20\"}} ¿Tú también\nllevas {{fun_0002000E arg=\"\"}}{{fun_00030011 arg=\"0x0000\"}},\n{{fun_00080005 arg=\"\"}}?\n{{anim id=\"26\"}}Ya sé que somos amiguetes,{{delay frames=\"20\"}} pero\nllevar la misma ropa podría ser\nalgo embarazoso, {{delay frames=\"8\"}}{{fun_00070005 arg=\"\"}}."
  },
  {
    "label": "017",
    "text": "{{anim id=\"5\"}}¡{{fun_0003000E arg=\"\"}}{{fun_0002000E arg=\"\"}}{{fun_00030011 arg=\"0x0000\"}}!{{delay frames=\"20\"}}\n¡Síiiiiii!{{delay frames=\"20\"}} ¿Cómo has sabido lo que\nquería exactamente?"
  },
  {
    "label": "018",
    "text": "{{anim id=\"15\"}}{{fun_000B0007 arg=\"\"}}¡{{fun_0003000E arg=\"\"}}{{fun_0002000E arg=\"\"}}{{fun_00030011 arg=\"0x0000\"}}!{{delay frames=\"20\"}}\n¡Mola!{{pageBreak}}{{anim id=\"26\"}}Sabes exactamente lo que\nme gusta,{{delay frames=\"20\"}} ¿verdad, {{fun_00080005 arg=\"\"}}?"
  },
  {
    "label": "019",
    "text": "{{anim id=\"16\"}}{{fun_000B0007 arg=\"\"}}¡{{fun_0003000E arg=\"\"}}{{fun_0002000E arg=\"\"}}{{fun_00030011 arg=\"0x0000\"}}!{{fun_00010007 arg=\"\"}}\n{{anim id=\"1\"}}¡Es increíble! ¡Has elegido justo\nel regalo perfecto, {{fun_00080005 arg=\"\"}}!"
  },
  {
    "label": "020",
    "text": "{{anim id=\"15\"}}{{fun_000B0007 arg=\"\"}}¡{{fun_0003000E arg=\"\"}}{{fun_0002000E arg=\"\"}}{{fun_00030011 arg=\"0x0000\"}}!{{pageBreak}}{{anim id=\"11\"}}Es algo curioso para un\nregalo de cumpleaños{{delay frames=\"8\"}}.{{delay frames=\"8\"}}.{{delay frames=\"8\"}}.{{pageBreak}}{{anim id=\"1\"}}Pero ya que me l{{fun_0008000E arg=\"0x00CD02006F00020061000000\"}} has regalado,{{delay frames=\"20\"}}\n¡voy a probar a ver qué tal!"
  },
  {
    "label": "021",
    "text": "{{anim id=\"23\"}}¿{{fun_0003000E arg=\"\"}}{{fun_0002000E arg=\"\"}}{{fun_00030011 arg=\"0x0000\"}}?{{fun_00010007 arg=\"\"}}\n{{anim id=\"5\"}}¡Nunca habría adivinado que\neste iba a ser mi regalo!\n{{anim id=\"1\"}}Los cumpleaños están llenos\nde sorpresas, ¿verdad?"
  },
  {
    "label": "022",
    "text": "{{anim id=\"15\"}}{{fun_000B0007 arg=\"\"}}¡¿{{fun_0003000E arg=\"\"}}{{fun_0002000E arg=\"\"}}{{fun_00030011 arg=\"0x0000\"}}?!{{delay frames=\"20\"}}\n¡Vaya!{{delay frames=\"20\"}} {{anim id=\"1\"}}No me esperaba esto\nPARA NADA."
  },
  {
    "label": "023",
    "text": "{{anim id=\"18\"}}{{fun_000B0007 arg=\"\"}}¡¿Eh?!{{delay frames=\"20\"}} ¡¿Mi regalo es dinero?!{{fun_00010007 arg=\"\"}}\n{{anim id=\"40\"}}No puedo aceptarlo.{{pageBreak}}{{anim id=\"13\"}}¡Un regalo de cumpleaños tiene que\nser algo que elijas específicamente\npara esa ocasión!\n{{anim id=\"9\"}}Así que, bueno, {{delay frames=\"20\"}}agradezco\nla intención, pero {{delay frames=\"20\"}}tengo que\ndevolvértelo."
  },
  {
    "label": "024",
    "text": "{{anim id=\"23\"}}¿Qué es esto?{{delay frames=\"40\"}} ¿Es{{delay frames=\"20\"}} arte abstracto\no algo así?{{pageBreak}}{{anim id=\"0\"}}No, espera{{delay frames=\"8\"}}.{{delay frames=\"8\"}}.{{delay frames=\"8\"}}.{{delay frames=\"40\"}} {{anim id=\"36\"}}Ahora que me fijo,\nveo claramente que esto es basura.{{pageBreak}}{{anim id=\"2\"}}¡Venga ya!{{delay frames=\"20\"}} A ver, tiene su gracia,\nvale,{{delay frames=\"20\"}} ¡pero menos bromas!{{delay frames=\"40\"}} {{anim id=\"6\"}}¡Mi\ncumpleaños es algo muy serio!"
  },
  {
    "label": "025",
    "text": "{{anim id=\"15\"}}{{fun_000B0007 arg=\"\"}}¡Oye!{{delay frames=\"20\"}} ¿Me regalas nabos?{{fun_00010007 arg=\"\"}}\n{{anim id=\"43\"}}La gente los suele vender{{delay frames=\"20\"}} para\nsacarse un dinerito, pero yo...\n{{anim id=\"1\"}}¡Yo prefiero usarlos como comida!{{delay frames=\"20\"}}\n¡Je, je, je! ¡Luego me los zamparé,{{delay frames=\"8\"}}\n{{fun_00070005 arg=\"\"}}!"
  },
  {
    "label": "026",
    "text": "{{anim id=\"5\"}}¡Genial!{{delay frames=\"20\"}} Siempre he pensado que\n{{fun_0001000E arg=\"\"}}{{fun_00030011 arg=\"0x0000\"}} era\ngenial,{{delay frames=\"20\"}} ¡pero est{{fun_0008000E arg=\"0x00CD02006500020061000000\"}} es aún mejor!\n{{anim id=\"26\"}}¡Y eso es porque l{{fun_0008000E arg=\"0x00CD02006F00020061000000\"}} has elegido tú!"
  },
  {
    "label": "027",
    "text": "{{anim id=\"9\"}}¿Eh? {{delay frames=\"20\"}}¿Te has olvidado de traerlo?"
  },
  {
    "label": "028",
    "text": "{{anim id=\"1\"}}¡Yupiii!{{delay frames=\"20\"}} ¡Gracias!{{delay frames=\"20\"}} {{anim id=\"4\"}}¡Lo conservaré\nsiempre,{{delay frames=\"8\"}} {{fun_00070005 arg=\"\"}}!"
  },
  {
    "label": "029",
    "text": "{{anim id=\"15\"}}{{fun_000B0007 arg=\"\"}}¡{{fun_0003000E arg=\"\"}}{{fun_0002000E arg=\"\"}}{{fun_00030011 arg=\"0x0000\"}}!{{delay frames=\"20\"}}\n¡Vaya!{{fun_00010007 arg=\"\"}} {{anim id=\"1\"}}Tienes que{{delay frames=\"20\"}} habértelo\npensado muchísimo, ¿eh?"
  },
  {
    "label": "030",
    "text": "{{anim id=\"23\"}}¿{{fun_0003000E arg=\"\"}}{{fun_0002000E arg=\"\"}}{{fun_00030011 arg=\"0x0000\"}}?{{fun_00010007 arg=\"\"}}\n{{anim id=\"1\"}}Vaya, ¡la verdad es que\nno esperaba recibir algo así!\n{{anim id=\"39\"}}A ti...{{delay frames=\"20\"}} te gusta sorprender,\n¿no,{{delay frames=\"8\"}} {{fun_00070005 arg=\"\"}}?"
  },
  {
    "label": "031",
    "text": ""
  },
  {
    "label": "032",
    "text": ""
  },
  {
    "label": "033",
    "text": "¡Muchas gracias por esta pasada\nde regalo,{{delay frames=\"8\"}} {{fun_00070005 arg=\"\"}}!"
  },
  {
    "label": "034",
    "text": "{{anim id=\"1\"}}¡Muchas gracias por el regalo,\n{{delay frames=\"8\"}}{{fun_00070005 arg=\"\"}}!"
  },
  {
    "label": "035",
    "text": "{{anim id=\"1\"}}¡Gracias,{{delay frames=\"8\"}} muchísimas {{delay frames=\"8\"}}gracias,{{delay frames=\"8\"}}\n{{fun_00070005 arg=\"\"}}!"
  },
  {
    "label": "036",
    "text": "{{anim id=\"1\"}}¡Gracias por venir, {{fun_00080005 arg=\"\"}}!{{pageBreak}}{{anim id=\"39\"}}Entonces{{delay frames=\"8\"}}.{{delay frames=\"8\"}}.{{delay frames=\"8\"}}.{{delay frames=\"20\"}} ¿tienes el regalo de\ncumpleaños perfecto para mí?{{fun_0005000F arg=\"0x15002800\"}}\n¡Claro!\nPues no"
  },
  {
    "label": "037",
    "text": "{{anim id=\"1\"}}Cuando es tu cumpleaños,{{delay frames=\"20\"}}\n¡puedes comer cuanto quieras\nde tus comidas favoritas!{{pageBreak}}Antes de acostarme,{{delay frames=\"20\"}} ¡voy\na comer {{fun_0002000E arg=\"\"}}{{fun_00130005 arg=\"0x0000\"}}{{delay frames=\"20\"}}\ny {{fun_00100005 arg=\"0x0000\"}}!\n{{anim id=\"39\"}}Bueno, da igual.{{delay frames=\"20\"}} ¿Me has traído\nel regalo de cumpleaños perfecto?{{fun_0005000F arg=\"0x15002800\"}}\n¡Aquí tienes!\nLo siento, pero no"
  },
  {
    "label": "038",
    "text": "¡Je, je, je!{{delay frames=\"20\"}} {{anim id=\"42\"}}Hoy me siento como\nun rey,{{delay frames=\"8\"}} {{fun_00070005 arg=\"\"}}.{{pageBreak}}{{anim id=\"1\"}}¡Oye, {{fun_00080005 arg=\"\"}}!{{delay frames=\"20\"}} ¿Me has traído\nel regalo perfecto?{{fun_0005000F arg=\"0x15002800\"}}\n¡Sí!\nLo siento..."
  },
  {
    "label": "039",
    "text": "{{anim id=\"4\"}}Ah, {{delay frames=\"20\"}}¡ojalá mi cumpleaños fuera\ntodos los días!{{pageBreak}}{{anim id=\"41\"}}Pero espera,{{delay frames=\"20\"}} ¡entonces me haría\nviejo enseguida,{{delay frames=\"8\"}} {{fun_00070005 arg=\"\"}}!"
  },
  {
    "label": "040",
    "text": "{{anim id=\"5\"}}¡Hoy es mi día especial!{{delay frames=\"20\"}}\n¡Es casi como unas vacaciones!"
  },
  {
    "label": "041",
    "text": "{{anim id=\"43\"}}¡Qué ganas tengo{{delay frames=\"20\"}} de hincarle el\ndiente a la tarta de cumpleaños,{{delay frames=\"8\"}}\n{{fun_00070005 arg=\"\"}}!"
  },
  {
    "label": "042",
    "text": "{{anim id=\"1\"}}¡En este día absolutamente todo\nes genial,{{delay frames=\"8\"}} {{fun_00070005 arg=\"\"}}!"
  },
  {
    "label": "043",
    "text": "{{anim id=\"1\"}}¡Gracias por venir a mi fiesta,\n{{fun_00080005 arg=\"\"}}!"
  },
  {
    "label": "044",
    "text": "{{anim id=\"15\"}}¡Oh!{{delay frames=\"20\"}} ¿Ya te marchas a casa?{{fun_00010007 arg=\"\"}}\n{{anim id=\"1\"}}¡Muchísimas gracias por venir!{{delay frames=\"20\"}}\n¡Me ha encantado tu regalo!"
  },
  {
    "label": "045",
    "text": "Gracias por venir hoy, {{fun_00080005 arg=\"\"}}.{{delay frames=\"20\"}}\n¡Y gracias por el regalo!{{delay frames=\"20\"}}\n{{anim id=\"32\"}}¡Nos vemos!"
  },
  {
    "label": "046",
    "text": "{{anim id=\"15\"}}¡Ah, {{delay frames=\"20\"}}espera!{{pageBreak}}{{anim id=\"1\"}}Gracias por venir hoy{{delay frames=\"20\"}} y por el\nregalo.{{delay frames=\"20\"}} ¡Contigo este ha sido\nmi mejor cumpleaños!\n{{anim id=\"32\"}}¡Hasta luego, {{delay frames=\"8\"}}{{fun_00070005 arg=\"\"}}!"
  },
  {
    "label": "047",
    "text": "{{anim id=\"15\"}}¿Ya te vas a casa?{{fun_00010007 arg=\"\"}}\n{{anim id=\"1\"}}Bueno, ¡gracias por venir hoy!{{delay frames=\"20\"}}\nHa estado bien, {{delay frames=\"8\"}}{{fun_00070005 arg=\"\"}}."
  },
  {
    "label": "048",
    "text": "{{anim id=\"1\"}}{{fun_0003000E arg=\"\"}}{{fun_00080005 arg=\"\"}},{{delay frames=\"20\"}} ¡gracias por venir hoy!"
  },
  {
    "label": "049",
    "text": "{{anim id=\"15\"}}¡Espera un momento!{{pageBreak}}{{anim id=\"1\"}}¡Gracias por un cumpleaños\nsuperchachi!{{delay frames=\"40\"}} {{anim id=\"32\"}}¡Hasta luego,\n{{delay frames=\"8\"}}{{fun_00070005 arg=\"\"}}!"
  },
  {
    "label": "050",
    "text": ""
  },
  {
    "label": "051",
    "text": "{{anim id=\"15\"}}¡Ah, {{delay frames=\"8\"}}espera!{{delay frames=\"20\"}}\n¿Ya te vas?{{pageBreak}}{{anim id=\"1\"}}Bueno,{{delay frames=\"8\"}} gracias por venir hoy{{delay frames=\"8\"}}\ny por el regalo.{{delay frames=\"20\"}} ¡Me ha encantado!{{pageBreak}}{{anim id=\"16\"}}Por cierto,{{delay frames=\"8\"}} he oído que hoy también\nes el cumpleaños de {{fun_00010011 arg=\"0x0100\"}}.{{pageBreak}}{{anim id=\"3\"}}¡Es como si el destino hubiese\nquerido unirnos de alguna manera,{{delay frames=\"8\"}}\n{{fun_00070005 arg=\"\"}}!"
  },
  {
    "label": "052",
    "text": "Gracias por pasarte,{{delay frames=\"8\"}} {{fun_00080005 arg=\"\"}}.{{delay frames=\"20\"}}\n¡Y gracias por el regalo!{{delay frames=\"20\"}}\n{{anim id=\"32\"}}¡Nos vemos!\n{{anim id=\"15\"}}Espera,{{delay frames=\"8\"}} ¡pero si hoy también\nes el cumple de {{fun_00010011 arg=\"0x0100\"}}!{{delay frames=\"20\"}}\n{{anim id=\"41\"}}Ni que lo hubiéramos hecho aposta.\n{{anim id=\"3\"}}Pásate a saludarl{{fun_0012000E arg=\"0x0E0102006F00020061000000\"}},{{delay frames=\"8\"}} que seguro\nque le hace ilu."
  },
  {
    "label": "053",
    "text": "{{anim id=\"15\"}}¡Ah, {{delay frames=\"8\"}}espera!{{pageBreak}}{{anim id=\"1\"}}Gracias por venir hoy y por el\nregalo.{{delay frames=\"20\"}} ¡Contigo este ha sido\nmi mejor cumpleaños!\n{{anim id=\"32\"}}¡Hasta luego,{{delay frames=\"8\"}} {{fun_00070005 arg=\"\"}}!{{pageBreak}}{{anim id=\"16\"}}Por cierto,{{delay frames=\"8\"}} hoy también es el\ncumpleaños de {{fun_00010011 arg=\"0x0100\"}}.{{delay frames=\"20\"}}\n{{anim id=\"36\"}}¿A que no lo sabías?"
  },
  {
    "label": "054",
    "text": "{{anim id=\"15\"}}¡Oh!{{delay frames=\"8\"}} ¿Ya te marchas?{{delay frames=\"20\"}}\n{{anim id=\"1\"}}¡Muchísimas gracias por venir!{{delay frames=\"20\"}}\n¡Me ha encantado que te pasaras!\n{{anim id=\"0\"}}Por cierto,{{delay frames=\"8\"}} he oído que hoy también\nes el cumpleaños de {{fun_00010011 arg=\"0x0100\"}}.{{pageBreak}}{{anim id=\"36\"}}Seguro que está esperando que le\nhagan un regalito de cumpleaños.{{delay frames=\"20\"}}\n{{anim id=\"6\"}}{{color id=\"5\"}}(No puedo ser yo el único{{delay frames=\"4\"}}.{{delay frames=\"4\"}}.{{delay frames=\"4\"}}.{{delay frames=\"4\"}}){{color id=\"65535\"}}"
  },
  {
    "label": "055",
    "text": "{{anim id=\"1\"}}¡Gracias por venir a mi fiesta,{{delay frames=\"8\"}}\n{{fun_00080005 arg=\"\"}}!{{pageBreak}}{{anim id=\"15\"}}¡Huy, casi se me olvida!{{delay frames=\"20\"}}\nResulta que hoy también\nes el cumple de {{fun_00010011 arg=\"0x0100\"}}.\n{{anim id=\"38\"}}Y seguro que se alegrará si\nle regalas algo.{{delay frames=\"20\"}} {{anim id=\"10\"}}{{color id=\"5\"}}(No como a mí...){{color id=\"65535\"}}"
  },
  {
    "label": "056",
    "text": "{{anim id=\"16\"}}¿Ya te vas,{{delay frames=\"8\"}} {{fun_00000005 arg=\"\"}}?{{delay frames=\"20\"}} ¿También\nte han invitado a la fiesta\nde cumpleaños de {{fun_00010011 arg=\"0x0100\"}}?\n{{anim id=\"28\"}}Jo,{{delay frames=\"8\"}} sí que eres popular,{{delay frames=\"8\"}} entonces.{{delay frames=\"20\"}}\n{{color id=\"5\"}}(Y seguro {{anim id=\"10\"}}que hasta le has\ncomprado un regalo{{delay frames=\"4\"}}.{{delay frames=\"4\"}}.{{delay frames=\"4\"}}.{{delay frames=\"4\"}}){{color id=\"65535\"}}"
  }
]