﻿[
  {
    "label": "001",
    "text": "{{anim id=\"11\"}}Hum.{{delay frames=\"20\"}} No sabía que {{fun_00010011 arg=\"0x0000\"}}\ntenía {{fun_0002000E arg=\"\"}}{{fun_00030011 arg=\"0x0000\"}}\nde mascota.{{pageBreak}}{{anim id=\"1\"}}¡Je, je, je!{{delay frames=\"20\"}} Me pregunto si comerá\ntanto como {{fun_00010011 arg=\"0x0000\"}}."
  },
  {
    "label": "002",
    "text": "Estoy seguro de que {{fun_00010011 arg=\"0x0000\"}}\nusa su {{fun_00030011 arg=\"0x0000\"}}\npara entrenarse para una subasta.\n{{anim id=\"11\"}}Así{{delay frames=\"8\"}}.{{delay frames=\"8\"}}.{{delay frames=\"8\"}}.{{delay frames=\"40\"}} {{anim id=\"15\"}}¡{{fun_0003000E arg=\"\"}}{{fun_0002000E arg=\"\"}}{{fun_00030011 arg=\"0x0000\"}}\nimponente!{{fun_00010007 arg=\"\"}} {{anim id=\"6\"}}¡Ofrezco diez trillones\nde bayas!{{delay frames=\"40\"}} {{anim id=\"40\"}}No, ¡que sean veinte!\n{{anim id=\"1\"}}¡Je, je, je!{{delay frames=\"20\"}} ¡Pues se me da bien!\nQué pena que en realidad esté\nsin blanca,{{delay frames=\"8\"}} {{fun_00070005 arg=\"\"}}."
  },
  {
    "label": "003",
    "text": "{{fun_00040009 arg=\"0x380039003A003B003C003D00\"}}"
  },
  {
    "label": "004",
    "text": "{{anim id=\"43\"}}Seguro que {{fun_00010011 arg=\"0x0000\"}} escucha\nla canción {{color id=\"2\"}}{{fun_00030011 arg=\"0x0100\"}}{{color id=\"65535\"}}{{delay frames=\"20\"}}\npara quedarse dormido, ¿no crees?"
  },
  {
    "label": "005",
    "text": "Me pregunto qué verá {{fun_00010011 arg=\"0x0000\"}}{{delay frames=\"20\"}}\npor la tele.{{fun_00010007 arg=\"\"}} {{anim id=\"1\"}}Supongo que dibujos\nanimados{{delay frames=\"20\"}} y programas de cocina."
  },
  {
    "label": "006",
    "text": "{{fun_00040009 arg=\"0x380039003A003B003C003D00\"}}"
  },
  {
    "label": "007",
    "text": "{{anim id=\"1\"}}¡{{fun_0003000E arg=\"\"}}{{fun_0002000E arg=\"\"}}{{fun_00030011 arg=\"0x0000\"}}!{{delay frames=\"40\"}}\nAsí que no solo come...{{delay frames=\"8\"}} ¡También\ncocina!{{pageBreak}}{{anim id=\"5\"}}Estoy seguro de que {{fun_00010011 arg=\"0x0000\"}}\nlo prepara todo{{delay frames=\"20\"}} en grandes\ncantidades,{{delay frames=\"8\"}} {{fun_00070005 arg=\"\"}}."
  },
  {
    "label": "008",
    "text": "{{anim id=\"1\"}}¡{{fun_0003000E arg=\"\"}}{{fun_0002000E arg=\"\"}}{{fun_00030011 arg=\"0x0000\"}} es\nla cama perfecta para {{fun_00010011 arg=\"0x0000\"}}!{{pageBreak}}{{anim id=\"43\"}}Me pregunto con qué soñará \n{{fun_00010011 arg=\"0x0000\"}} al dormir ahí...{{pageBreak}}Oye{{delay frames=\"8\"}}.{{delay frames=\"8\"}}.{{delay frames=\"8\"}}.{{delay frames=\"40\"}} {{anim id=\"15\"}}{{fun_000B0007 arg=\"\"}}¡Seguro que sueña que\nestá dormido,{{delay frames=\"8\"}} {{fun_00070005 arg=\"\"}}!"
  },
  {
    "label": "009",
    "text": "{{anim id=\"15\"}}Pues {{fun_00010011 arg=\"0x0000\"}} tiene {{fun_0002000E arg=\"\"}}\n{{fun_00030011 arg=\"0x0000\"}} muy grande.{{fun_00010007 arg=\"\"}}\n{{anim id=\"4\"}}¡Ahí se debe de dormir muy bien!"
  },
  {
    "label": "010",
    "text": "¡{{fun_0003000E arg=\"\"}}{{fun_00010011 arg=\"0x0000\"}} dice que{{delay frames=\"20\"}} las siestas en\nsu {{fun_00030011 arg=\"0x0000\"}}\nson una pasada!\n{{anim id=\"4\"}}Je, je, je{{delay frames=\"8\"}}.{{delay frames=\"8\"}}.{{delay frames=\"8\"}}.{{delay frames=\"20\"}} ¡Pues a lo mejor\nle pido que me deje dormir\nahí algún día,{{delay frames=\"8\"}} {{fun_00070005 arg=\"\"}}!"
  },
  {
    "label": "011",
    "text": "{{anim id=\"43\"}}Cómo envidio a {{fun_00010011 arg=\"0x0000\"}}...{{delay frames=\"20\"}}\n{{anim id=\"5\"}}¡Tiene un sofá gigante que\nparece perfecto para dormir!"
  },
  {
    "label": "012",
    "text": "Si te cansas de estar de pie,{{delay frames=\"20\"}}{{anim id=\"23\"}}\n¿por qué no te sientas en\n{{fun_0001000E arg=\"\"}}{{fun_00030011 arg=\"0x0000\"}}?\n{{anim id=\"21\"}}¡{{fun_0003000E arg=\"\"}}{{fun_00010011 arg=\"0x0000\"}} dice que esa silla es\nla niña de sus ojos,{{delay frames=\"8\"}} {{fun_00070005 arg=\"\"}}!"
  },
  {
    "label": "013",
    "text": "{{anim id=\"1\"}}¡Qué pasada!{{delay frames=\"20\"}} ¡Yo quiero cazar\n{{fun_0002000E arg=\"\"}}{{fun_00030011 arg=\"0x0000\"}} y\ntenerl{{fun_0012000E arg=\"0x100002006F00020061000000\"}} también en mi casa!\n¡Y entonces podría {{delay frames=\"20\"}}{{anim id=\"5\"}}pedirle a\n{{fun_00010011 arg=\"0x0000\"}} que se l{{fun_0012000E arg=\"0x100002006F00020061000000\"}} presentara\na su {{fun_00030011 arg=\"0x0000\"}}!"
  },
  {
    "label": "014",
    "text": "Me pregunto qué tendrá\n{{fun_00010011 arg=\"0x0000\"}} dentro de\nsu {{fun_00030011 arg=\"0x0000\"}}.{{pageBreak}}{{anim id=\"11\"}}{{fun_00010011 arg=\"0x0000\"}} parece el tipo de\npersona que escondería comida\nen cualquier rincón.\n{{anim id=\"35\"}}Pero...{{delay frames=\"20\"}} ¿y si me equivoco y lo que\ntiene es solo ropa chula o algo así?"
  },
  {
    "label": "015",
    "text": "{{fun_00040009 arg=\"0x380039003A003B003C003D00\"}}"
  },
  {
    "label": "016",
    "text": "{{anim id=\"23\"}}¿Es{{fun_0012000E arg=\"0x100002006500020061000000\"}} {{fun_00030011 arg=\"0x0000\"}}\nno te recuerda a {{fun_00010011 arg=\"0x0000\"}}?{{pageBreak}}{{anim id=\"2\"}}Supongo que los giroides acaban\npareciéndose a sus dueños, ¿no?{{anim id=\"37\"}}"
  },
  {
    "label": "017",
    "text": "{{fun_00040009 arg=\"0x380039003A003B003C003D00\"}}"
  },
  {
    "label": "018",
    "text": "¿De dónde habrá sacado {{fun_00010011 arg=\"0x0000\"}}\nsu {{fun_00030011 arg=\"0x0000\"}}?{{delay frames=\"20\"}}\n{{anim id=\"1\"}}¡Es genial,{{delay frames=\"8\"}} {{fun_00070005 arg=\"\"}}!"
  },
  {
    "label": "019",
    "text": "{{anim id=\"11\"}}¿Usará {{fun_00010011 arg=\"0x0000\"}}{{delay frames=\"20\"}} su\n{{fun_00030011 arg=\"0x0000\"}}{{delay frames=\"20\"}} {{anim id=\"1\"}}para\nsentarse a hablar consigo mismo?"
  },
  {
    "label": "020",
    "text": "{{anim id=\"1\"}}¡La estantería de {{fun_00010011 arg=\"0x0000\"}}\nestá llena de tebeos!{{fun_00010007 arg=\"\"}} ¡A mí es\nlo que más me gusta leer!"
  },
  {
    "label": "021",
    "text": "{{fun_00040009 arg=\"0x380039003A003B003C003D00\"}}"
  },
  {
    "label": "022",
    "text": "{{anim id=\"1\"}}Es{{fun_0012000E arg=\"0x100002006500020061000000\"}} {{fun_00030011 arg=\"0x0000\"}} está\nen muy buen estado.{{delay frames=\"20\"}} {{anim id=\"11\"}}Seguro que\n{{fun_00010011 arg=\"0x0000\"}} le saca brillo a menudo{{delay frames=\"8\"}}.{{delay frames=\"8\"}}.{{delay frames=\"8\"}}."
  },
  {
    "label": "023",
    "text": "{{anim id=\"11\"}}¡Mira, {{fun_0002000E arg=\"\"}}{{fun_00030011 arg=\"0x0000\"}}!\n¿Entonces {{fun_00010011 arg=\"0x0000\"}}{{delay frames=\"20\"}} nos va a\nservir té con pastitas de chocolate?\n{{anim id=\"9\"}}¡No caerá esa breva! Seguro que\nsimplemente se ha olvidado\nde guardarl{{fun_0012000E arg=\"0x100002006F00020061000000\"}}."
  },
  {
    "label": "024",
    "text": "{{anim id=\"9\"}}¡Está muy bien que haya\n{{fun_0002000E arg=\"\"}}{{fun_00030011 arg=\"0x0000\"}}\nen esta casa!\n{{anim id=\"39\"}}Pero se me hace raro que\nesté aquí fuera como si\nnada,{{delay frames=\"8\"}} {{fun_00070005 arg=\"\"}}."
  },
  {
    "label": "025",
    "text": "{{fun_00040009 arg=\"0x380039003A003B003C003D00\"}}"
  },
  {
    "label": "026",
    "text": "{{fun_00040009 arg=\"0x380039003A003B003C003D00\"}}"
  },
  {
    "label": "027",
    "text": "Me pregunto qué tendrá\n{{fun_00010011 arg=\"0x0000\"}}{{delay frames=\"20\"}} {{anim id=\"23\"}}en la nevera.{{pageBreak}}{{anim id=\"21\"}}Siempre anda comiendo,{{delay frames=\"20\"}}{{anim id=\"1\"}} así que\nseguro que la tiene hasta los\ntopes de comida,{{delay frames=\"8\"}} {{fun_00070005 arg=\"\"}}."
  },
  {
    "label": "028",
    "text": "{{anim id=\"4\"}}Huy, es{{fun_0012000E arg=\"0x100002006500020061000000\"}} {{fun_00030011 arg=\"0x0000\"}}{{delay frames=\"20\"}}\ntiene muy buena pinta, ¿no?{{pageBreak}}{{anim id=\"40\"}}Pero{{delay frames=\"20\"}} no estaría bien comerse\nla comida de alguien sin permiso.{{fun_00010007 arg=\"\"}}\n{{anim id=\"21\"}}Y menos la de {{fun_00010011 arg=\"0x0000\"}}, claro.\n{{anim id=\"9\"}}¡No veas lo que se puede enfadar!{{delay frames=\"20\"}}\nSeguro que no lo has visto nunca\nenfadado, pero resulta terrorífico."
  },
  {
    "label": "029",
    "text": "{{fun_00040009 arg=\"0x380039003A003B003C003D00\"}}"
  },
  {
    "label": "030",
    "text": "{{anim id=\"1\"}}¡La casa de {{fun_00010011 arg=\"0x0000\"}} es como\nun templo de los videojuegos!{{delay frames=\"40\"}} {{anim id=\"5\"}}¿Has\nvisto su {{fun_00030011 arg=\"0x0000\"}}?\n{{anim id=\"21\"}}¡Desde luego está claro que\n{{fun_00010011 arg=\"0x0000\"}} tiene buen gusto!"
  },
  {
    "label": "031",
    "text": "{{anim id=\"13\"}}Huy, vaya{{delay frames=\"8\"}}.{{delay frames=\"8\"}}.{{delay frames=\"8\"}}.{{delay frames=\"20\"}} ¿Ese es el hermano\npequeño de {{fun_00010011 arg=\"0x0000\"}}?{{pageBreak}}{{anim id=\"18\"}}{{fun_000B0007 arg=\"\"}}¡¿Eh?!{{delay frames=\"40\"}} {{anim id=\"10\"}}¡Huy, perdón!{{delay frames=\"40\"}} Solo es\n{{fun_0002000E arg=\"\"}}{{fun_00030011 arg=\"0x0000\"}}{{delay frames=\"8\"}}.{{delay frames=\"8\"}}.{{delay frames=\"8\"}}."
  },
  {
    "label": "032",
    "text": "{{anim id=\"13\"}}Huy, huy{{delay frames=\"8\"}}.{{delay frames=\"8\"}}.{{delay frames=\"8\"}}.{{delay frames=\"20\"}} ¿Esa es la hermana\npequeña de {{fun_00010011 arg=\"0x0000\"}}?{{pageBreak}}{{anim id=\"18\"}}{{fun_000B0007 arg=\"\"}}¡¿Eh?!{{delay frames=\"40\"}} {{anim id=\"10\"}}¡Ay, qué planchazo!{{delay frames=\"40\"}} Solo\nes {{fun_0002000E arg=\"\"}}{{fun_00030011 arg=\"0x0000\"}}{{delay frames=\"8\"}}.{{delay frames=\"8\"}}.{{delay frames=\"8\"}}."
  },
  {
    "label": "033",
    "text": "{{fun_00040009 arg=\"0x380039003A003B003C003D00\"}}"
  },
  {
    "label": "034",
    "text": "{{fun_00040009 arg=\"0x380039003A003B003C003D00\"}}"
  },
  {
    "label": "035",
    "text": "{{fun_00040009 arg=\"0x380039003A003B003C003D00\"}}"
  },
  {
    "label": "036",
    "text": "{{fun_00040009 arg=\"0x380039003A003B003C003D00\"}}"
  },
  {
    "label": "037",
    "text": "{{fun_00040009 arg=\"0x380039003A003B003C003D00\"}}"
  },
  {
    "label": "038",
    "text": "{{fun_00040009 arg=\"0x380039003A003B003C003D00\"}}"
  },
  {
    "label": "039",
    "text": "{{fun_00040009 arg=\"0x380039003A003B003C003D00\"}}"
  },
  {
    "label": "040",
    "text": "{{fun_00040009 arg=\"0x380039003A003B003C003D00\"}}"
  },
  {
    "label": "041",
    "text": "{{anim id=\"9\"}}¿Es cosa mía, que soy un antiguo,{{delay frames=\"20\"}}\no es un poco rarito tener {{fun_0002000E arg=\"\"}}\n{{fun_00030011 arg=\"0x0000\"}}{{delay frames=\"20\"}} a la vista?"
  },
  {
    "label": "042",
    "text": "¡Es{{fun_0008000E arg=\"0x00CD02006500020061000000\"}} {{fun_00030011 arg=\"0x0000\"}} tiene\nuna pinta apetitosa!{{fun_00010007 arg=\"\"}} {{anim id=\"38\"}}¡Tener muebles\nfrutales me parece una gran idea!"
  },
  {
    "label": "043",
    "text": "{{fun_00040009 arg=\"0x380039003A003B003C003D00\"}}"
  },
  {
    "label": "044",
    "text": "{{fun_00040009 arg=\"0x380039003A003B003C003D00\"}}"
  },
  {
    "label": "045",
    "text": ""
  },
  {
    "label": "046",
    "text": ""
  },
  {
    "label": "047",
    "text": ""
  },
  {
    "label": "048",
    "text": ""
  },
  {
    "label": "049",
    "text": ""
  },
  {
    "label": "050",
    "text": ""
  },
  {
    "label": "051",
    "text": ""
  },
  {
    "label": "052",
    "text": ""
  },
  {
    "label": "053",
    "text": ""
  },
  {
    "label": "054",
    "text": ""
  },
  {
    "label": "055",
    "text": ""
  },
  {
    "label": "056",
    "text": "Me encanta mirar en las casas de\notra gente.{{delay frames=\"20\"}} {{anim id=\"1\"}}¡Es casi tan interesante\ncomo probar comidas nuevas!"
  },
  {
    "label": "057",
    "text": "{{anim id=\"23\"}}¿Vienes a casa de {{fun_00010011 arg=\"0x0000\"}}\na menudo, {{fun_00080005 arg=\"\"}}?{{pageBreak}}{{anim id=\"5\"}}Yo vengo a veces para que\nme cuente{{delay frames=\"20\"}} qué ha comido\núltimamente,{{delay frames=\"8\"}} {{fun_00070005 arg=\"\"}}."
  },
  {
    "label": "058",
    "text": "{{anim id=\"1\"}}Oye,{{delay frames=\"8\"}} ahora que estamos varios\naquí,{{delay frames=\"8\"}} ¿tú crees que {{fun_00010011 arg=\"0x0000\"}}\nse animará a sacar algo de picar?"
  },
  {
    "label": "059",
    "text": "{{anim id=\"43\"}}Cómo mola la casa de {{fun_00010011 arg=\"0x0000\"}}...{{fun_00010007 arg=\"\"}}\nVoy a apropiarme de unas cuantas\nideas de las que veo por aquí."
  },
  {
    "label": "060",
    "text": "{{anim id=\"13\"}}Oye, si {{fun_00010011 arg=\"0x0000\"}} y tú quedáis\npara comer,{{delay frames=\"8\"}} ¡prométeme que\nme invitaréis!"
  },
  {
    "label": "061",
    "text": "{{anim id=\"25\"}}Uaaah...{{delay frames=\"40\"}} La casa de {{fun_00010011 arg=\"0x0000\"}}\nhace que me entre el sueño.{{delay frames=\"20\"}}\n¿A ti no,{{delay frames=\"8\"}} {{fun_00070005 arg=\"\"}}?"
  }
]