﻿[
  {
    "label": "001",
    "text": "{{anim id=\"23\"}}¿Me has traído {{color id=\"2\"}}medicina{{color id=\"65535\"}}?{{fun_00010007 arg=\"\"}} {{anim id=\"9\"}}No me\ntomes por desagradecido, pero\nespero que no sepa demasiado mal."
  },
  {
    "label": "002",
    "text": "{{anim id=\"17\"}}{{fun_000B0007 arg=\"\"}}¡Ah, {{color id=\"2\"}}medicina{{color id=\"65535\"}}!{{delay frames=\"40\"}} {{anim id=\"9\"}}Seguro que sabe\nasquerosa,{{delay frames=\"20\"}} pero supongo que\nnecesito tomármela para mejorar."
  },
  {
    "label": "003",
    "text": "{{anim id=\"17\"}}{{fun_000B0007 arg=\"\"}}¡¿Eh?!{{delay frames=\"20\"}} ¿{{color id=\"2\"}}Medicina{{color id=\"65535\"}}?{{fun_00010007 arg=\"\"}} {{anim id=\"9\"}}Puaj{{delay frames=\"8\"}}.{{delay frames=\"8\"}}.{{delay frames=\"8\"}}.{{delay frames=\"20\"}}\nOjalá supiera a {{fun_00100005 arg=\"0x0000\"}},{{delay frames=\"8\"}}\n{{fun_00070005 arg=\"\"}}."
  },
  {
    "label": "004",
    "text": "{{anim id=\"15\"}}{{fun_000B0007 arg=\"\"}}Ah,{{delay frames=\"20\"}} ¡¿{{color id=\"2\"}}medicina{{color id=\"65535\"}}?!{{delay frames=\"20\"}} ¿Para mí?{{fun_00010007 arg=\"\"}}\n{{anim id=\"1\"}}¡Gracias!"
  },
  {
    "label": "005",
    "text": "Aunque esta {{color id=\"2\"}}medicina{{color id=\"65535\"}} sepa fatal,{{delay frames=\"20\"}}\nme temo que no tengo elección.{{delay frames=\"20\"}}\nTengo que tomarla por narices."
  },
  {
    "label": "006",
    "text": "{{anim id=\"1\"}}¡Gracias por la {{color id=\"2\"}}medicina{{color id=\"65535\"}},\n{{fun_00080005 arg=\"\"}}!{{delay frames=\"20\"}} ¡Al centro y \"padentro\"!"
  },
  {
    "label": "007",
    "text": "{{anim id=\"17\"}}{{fun_000B0007 arg=\"\"}}¡¿Eh?!{{delay frames=\"20\"}} ¿Me has traído esta\n{{color id=\"2\"}}medicina{{color id=\"65535\"}} para que me cure?{{fun_00010007 arg=\"\"}}\n{{anim id=\"14\"}}¡Ay, muchas gracias, {{fun_00080005 arg=\"\"}}!"
  },
  {
    "label": "008",
    "text": "{{anim id=\"18\"}}{{fun_000B0007 arg=\"\"}}¡¿Me has traído {{color id=\"2\"}}medicina{{color id=\"65535\"}}?!{{delay frames=\"40\"}}\n{{anim id=\"14\"}}¡Ay, menos mal que estás tú ahí\npara cuidarme, {{fun_00080005 arg=\"\"}}!"
  },
  {
    "label": "009",
    "text": "{{anim id=\"16\"}}{{fun_000B0007 arg=\"\"}}¡Vaya!{{delay frames=\"20\"}} ¿Me has traído{{delay frames=\"20\"}} {{color id=\"2\"}}medicina{{color id=\"65535\"}}?{{fun_00010007 arg=\"\"}}\n{{anim id=\"9\"}}Huy...{{delay frames=\"20\"}} Supongo que tendré que\ntomármela{{delay frames=\"8\"}}.{{delay frames=\"8\"}}.{{delay frames=\"8\"}}."
  }
]