﻿[
  {
    "label": "001",
    "text": "{{anim id=\"16\"}}¡Ahí estás, {{delay frames=\"10\"}}{{fun_00080005 arg=\"\"}}!{{delay frames=\"40\"}}{{anim id=\"13\"}} ¡Necesito\nque me ayudes, {{delay frames=\"10\"}}es muy importante!{{fun_00010007 arg=\"\"}}\n¡Ven conmigo, {{delay frames=\"10\"}}por favor!"
  },
  {
    "label": "002",
    "text": "{{anim id=\"15\"}}¡{{fun_0003000E arg=\"\"}}{{fun_00080005 arg=\"\"}}!{{fun_00010007 arg=\"\"}} {{anim id=\"13\"}}¡Menos mal que te\nhe encontrado! {{delay frames=\"20\"}}¡Ven conmigo,\n{{delay frames=\"10\"}}ahora te cuento!"
  },
  {
    "label": "003",
    "text": "{{anim id=\"22\"}}¡Oh, {{delay frames=\"10\"}}qué alegría me da verte!{{fun_00010007 arg=\"\"}}\n{{anim id=\"37\"}}Es que te quiero enseñar una cosa.\n{{delay frames=\"20\"}}¡Ven conmigo, {{delay frames=\"10\"}}{{fun_00080005 arg=\"\"}}!"
  },
  {
    "label": "004",
    "text": "\n{{size value=\"150\"}}{{anim id=\"31\"}}{{size value=\"150\"}}{{delay frames=\"15\"}}{{fun_000B0007 arg=\"\"}}{{fun_0009000D arg=\"\"}}¡FELIZ {{size value=\"150\"}}{{size value=\"150\"}}{{fun_000B0007 arg=\"\"}}CUMPLEAÑOS!{{size value=\"150\"}}{{size value=\"100\"}}{{fun_000A000D arg=\"\"}}{{delay frames=\"40\"}}{{anim id=\"37\"}}"
  },
  {
    "label": "005",
    "text": "{{anim id=\"38\"}}¡Bienvenid{{fun_0006000E arg=\"0x02006F0002006100\"}} a tu fiesta sorpresa,{{delay frames=\"8\"}}\n{{fun_00080005 arg=\"\"}}!{{pageBreak}}{{anim id=\"5\"}}¡Ahora tienes que pedir un deseo\ny soplar las velas del pastel!"
  },
  {
    "label": "006",
    "text": "{{anim id=\"1\"}}No queríamos que te quedaras sin\nfiesta de cumpleaños solo porque\nno estemos en un año bisiesto.\n¡Por eso hemos decidido prepararte\nuna fiesta sorpresa hoy, {{fun_00080005 arg=\"\"}}!{{pageBreak}}{{anim id=\"5\"}}¡Venga, a soplar las velas!"
  },
  {
    "label": "007",
    "text": "{{anim id=\"1\"}}¡Hoy es un día de lo más especial!\n{{delay frames=\"20\"}}No solo nos hemos reunido para\ncelebrar tu cumpleaños{{delay frames=\"8\"}}.{{delay frames=\"8\"}}.{{delay frames=\"8\"}}.\n{{anim id=\"5\"}}¡Es que además es año bisiesto,\n{{delay frames=\"10\"}}así que por fin es 29 de febrero!\n{{delay frames=\"20\"}}¡Es tu cumpleaños \"de verdad\"!\n{{anim id=\"1\"}}Cuando quieras puedes soplar\nlas velas, {{delay frames=\"10\"}}¡pero no te olvides\nde pedir un deseo!"
  },
  {
    "label": "008",
    "text": "{{anim id=\"13\"}}¡Espera,{{delay frames=\"10\"}} no te vayas todavía!{{fun_00010007 arg=\"\"}}\nMe daría mucha pena si no soplaras\nlas velas ni probaras el pastel{{delay frames=\"8\"}}.{{delay frames=\"8\"}}.{{delay frames=\"8\"}}."
  },
  {
    "label": "009",
    "text": "{{anim id=\"13\"}}¡No te vayas, {{fun_00080005 arg=\"\"}}!{{delay frames=\"20\"}} Quédate\nal menos para probar el pastel.{{pageBreak}}{{anim id=\"9\"}}Si {{fun_0006000E arg=\"0x040065006C0004006C006100\"}} invitad{{fun_0006000E arg=\"0x02006F0002006100\"}} de honor se va tan\ntemprano, significa que nuestra\nfiesta ha sido un fracaso{{delay frames=\"8\"}}.{{delay frames=\"8\"}}.{{delay frames=\"8\"}}."
  },
  {
    "label": "010",
    "text": "{{anim id=\"13\"}}¡No te vayas, cariño!{{delay frames=\"20\"}} ¡Que tenemos\npastel y regalos para ti!{{fun_00010007 arg=\"\"}}\nAl menos sopla las velitas{{delay frames=\"8\"}}.{{delay frames=\"8\"}}.{{delay frames=\"8\"}}."
  },
  {
    "label": "011",
    "text": "{{anim id=\"29\"}}¡Bieeen!{{delay frames=\"60\"}} {{anim id=\"1\"}}Ahora viene la parte más\ndivertida{{delay frames=\"8\"}}.{{delay frames=\"8\"}}.{{delay frames=\"8\"}}.{{fun_00010007 arg=\"\"}}{{anim id=\"38\"}} ¡Los regalos!"
  },
  {
    "label": "012",
    "text": "{{anim id=\"1\"}}No sabíamos qué regalarte, {{delay frames=\"10\"}}pero\nentre todos tuvimos esta idea.\n{{delay frames=\"20\"}}¡Espero que te guste!"
  },
  {
    "label": "013",
    "text": "{{anim id=\"5\"}}Nuestra única intención con este\nregalo, {{fun_00080005 arg=\"\"}}, {{delay frames=\"10\"}}es verte sonreír.\n¡Eso es lo más importante!"
  },
  {
    "label": "014",
    "text": "{{anim id=\"3\"}}¡Te hemos elegido algo muy especial\nporque todos te queremos mucho,\npequeñ{{fun_0006000E arg=\"0x02006F0002006100\"}} {{fun_00080005 arg=\"\"}}!\nAy, como no te guste{{delay frames=\"8\"}}.{{delay frames=\"8\"}}.{{delay frames=\"8\"}}.{{delay frames=\"20\"}}{{anim id=\"24\"}}"
  },
  {
    "label": "015",
    "text": "{{anim id=\"15\"}}¡Ay, {{delay frames=\"10\"}}no!{{delay frames=\"20\"}} No me esperaba que\nllevaras tantas cosas en\nlos bolsillos, rábanos{{delay frames=\"8\"}}.{{delay frames=\"8\"}}.{{delay frames=\"8\"}}.{{pageBreak}}{{anim id=\"37\"}}No pasa nada, {{delay frames=\"10\"}}cariño. {{delay frames=\"20\"}}Mañana\nte enviaré el regalo por correo,\n{{delay frames=\"10\"}}¡no te preocupes por nada!"
  },
  {
    "label": "016",
    "text": "{{anim id=\"1\"}}¡Aquí tienes!"
  },
  {
    "label": "017",
    "text": "{{anim id=\"1\"}}¡Je, {{delay frames=\"10\"}}je! {{delay frames=\"20\"}}¡No te voy a dar pistas!\nTendrás que esperar hasta que\nlo abras."
  },
  {
    "label": "018",
    "text": "{{anim id=\"23\"}}¿Te marchas ya,{{delay frames=\"10\"}} {{fun_00080005 arg=\"\"}}?{{fun_00010007 arg=\"\"}}\n{{anim id=\"37\"}}Bueno,{{delay frames=\"10\"}} espero que no tuvieras\nnada importante que hacer antes.\n{{anim id=\"5\"}}Pero {{delay frames=\"10\"}}¿qué hay más importante\nhoy que celebrar el día que\nllegaste a este mundo?"
  },
  {
    "label": "019",
    "text": "{{anim id=\"1\"}}¡Espero que te lo hayas pasado\nbien hoy!{{pageBreak}}A ver si el año que viene podemos\ncelebrar junt{{fun_0006000E arg=\"0x04006F007300040061007300\"}} también tu\ncumpleaños,{{delay frames=\"8\"}} {{fun_00070005 arg=\"\"}}."
  },
  {
    "label": "020",
    "text": "{{anim id=\"1\"}}¡Cómo brilla tu aura, {{fun_00080005 arg=\"\"}}!\nSeguro que tienes más planes\ndivertidos para hoy, {{delay frames=\"10\"}}¿eh?"
  },
  {
    "label": "021",
    "text": "{{anim id=\"1\"}}No quiero que solo vengas aquí por\ntu cumpleaños.{{fun_00010007 arg=\"\"}} A mí me hace feliz\nverte todos los días,{{delay frames=\"10\"}} {{fun_00070005 arg=\"\"}}."
  },
  {
    "label": "022",
    "text": "{{anim id=\"5\"}}¡Espero que este sea un gran año\npara ti,{{delay frames=\"10\"}} {{fun_00080005 arg=\"\"}}!"
  },
  {
    "label": "023",
    "text": "{{anim id=\"26\"}}Me gustaría que mis amigos me\nhicieran una fiesta tan bonita\ncomo esta para mi cumpleaños..."
  },
  {
    "label": "024",
    "text": ""
  },
  {
    "label": "025",
    "text": "{{anim id=\"11\"}}Me parece interesante que desees\n\"{{fun_00140012 arg=\"\"}}\" el\ndía de tu cumpleaños, {{delay frames=\"10\"}}{{fun_00080005 arg=\"\"}}.\n{{anim id=\"37\"}}Estoy segura de que todos nuestros\namigos quieren que tus ilusiones se\nhagan pronto realidad."
  },
  {
    "label": "026",
    "text": "{{anim id=\"1\"}}¡En cuanto soples las velas,\npodremos hincarle el diente\nal pastel!"
  },
  {
    "label": "027",
    "text": "{{anim id=\"38\"}}¡Venga,{{delay frames=\"8\"}} sopla las velas antes de\nque se deshagan encima del pastel!"
  },
  {
    "label": "028",
    "text": "{{anim id=\"1\"}}He preparado un extintor,\n{{delay frames=\"10\"}}por si las velas dieran problemas.\n{{delay frames=\"20\"}}¡Pero prefiero que las apagues tú!"
  },
  {
    "label": "029",
    "text": ""
  },
  {
    "label": "030",
    "text": ""
  },
  {
    "label": "031",
    "text": "{{anim id=\"5\"}}Hemos preparado este pastel\nespecialmente para ti.{{pageBreak}}{{anim id=\"1\"}}Y bien, ¿tienes ya pensado tu deseo,\n{{delay frames=\"10\"}}{{fun_00000005 arg=\"\"}}?"
  },
  {
    "label": "032",
    "text": "Oh{{delay frames=\"8\"}}.{{delay frames=\"8\"}}.{{delay frames=\"8\"}}.{{anim id=\"23\"}}{{delay frames=\"20\"}} ¿No quieres pedir nada?{{fun_00010007 arg=\"\"}}\n{{anim id=\"37\"}}¡Bueno, {{delay frames=\"8\"}}ahora respira hondo y\napaga todas las velas a la primera!{{pageBreak}}¡Vamos, {{color id=\"2\"}}sopla{{color id=\"65535\"}} hacia tu\n{{color id=\"2\"}}Nintendo 3DS{{color id=\"65535\"}}! {{delay frames=\"20\"}}¡Fuuuuu!"
  },
  {
    "label": "033",
    "text": "{{anim id=\"1\"}}Pues ya solo queda soplar las velas.\n{{delay frames=\"20\"}}¿Qué me dices? {{delay frames=\"20\"}}¿Crees que podrás\ncon todas a la primera?\n¡Vamos, {{color id=\"2\"}}sopla{{color id=\"65535\"}} hacia tu\n{{color id=\"2\"}}Nintendo 3DS{{color id=\"65535\"}}! {{delay frames=\"20\"}}¡Fuuuuu!"
  },
  {
    "label": "034",
    "text": "{{anim id=\"37\"}}¿Qué deseo has pedido,{{delay frames=\"10\"}} {{fun_00080005 arg=\"\"}}?{{fun_00010007 arg=\"\"}}\n¡Si me lo cuentas,{{delay frames=\"10\"}} entre todos\npodemos hacerlo realidad!{{fun_0005000F arg=\"0x00000000\"}}\nPues...\n¡Es secreto!"
  },
  {
    "label": "035",
    "text": "{{anim id=\"36\"}}Comprendo. Supongo que te daría\npena si tu deseo no llegara a\nhacerse realidad.\n{{anim id=\"37\"}}¡Bueno, yo me limitaré a desear\nque tu deseo se cumpla!"
  },
  {
    "label": "036",
    "text": "{{anim id=\"1\"}}\"{{fun_0003000E arg=\"\"}}{{fun_00140012 arg=\"\"}}\"{{delay frames=\"8\"}}.{{delay frames=\"8\"}}.{{delay frames=\"8\"}}.{{fun_00010007 arg=\"\"}}\n¡Entendido! {{delay frames=\"20\"}}¡Haré todo lo que pueda\npara que se haga realidad!"
  },
  {
    "label": "037",
    "text": ""
  },
  {
    "label": "038",
    "text": ""
  },
  {
    "label": "039",
    "text": ""
  },
  {
    "label": "040",
    "text": ""
  }
]