﻿[
  {
    "label": "001",
    "text": "{{fun_0001000C arg=\"\"}}{{anim id=\"1\"}}¡Holita, {{delay frames=\"10\"}}{{fun_00080005 arg=\"\"}}! ¡Qué alegría\nque ya hayas vuelto!{{fun_0002000C arg=\"\"}}{{fun_0006000C arg=\"\"}}{{fun_0009000C arg=\"\"}}"
  },
  {
    "label": "002",
    "text": "{{fun_0001000C arg=\"\"}}{{anim id=\"1\"}}¡Ah, aquí estás!{{delay frames=\"20\"}} Y veo que ha ido\ntodo bien. {{delay frames=\"20\"}}¡Qué maravilla!{{fun_0002000C arg=\"\"}}{{fun_0006000C arg=\"\"}}{{fun_0009000C arg=\"\"}}"
  },
  {
    "label": "003",
    "text": "{{fun_0001000C arg=\"\"}}{{anim id=\"1\"}}Ay, {{delay frames=\"10\"}}qué bien.{{delay frames=\"20\"}} Había notado tu aura,\nsabía que volverías pronto.{{fun_0002000C arg=\"\"}}{{fun_0006000C arg=\"\"}}{{fun_0009000C arg=\"\"}}"
  },
  {
    "label": "004",
    "text": "{{fun_0001000C arg=\"\"}}{{anim id=\"1\"}}¡Ufff, {{delay frames=\"10\"}}menos mal!{{delay frames=\"40\"}} Ya estaba yo\npreocupada viendo que no volvías{{delay frames=\"8\"}}.{{delay frames=\"8\"}}.{{delay frames=\"8\"}}.{{fun_0002000C arg=\"\"}}{{fun_0006000C arg=\"\"}}{{fun_0009000C arg=\"\"}}"
  },
  {
    "label": "005",
    "text": "{{fun_0000000C arg=\"\"}}{{fun_0007000C arg=\"\"}}{{fun_0001000C arg=\"\"}}{{fun_0008000C arg=\"\"}}{{anim id=\"1\"}}¿Necesitas hablar conmigo sobre\nalgo importante,{{delay frames=\"8\"}} {{fun_00010011 arg=\"0x0000\"}}?{{fun_0009000C arg=\"\"}}"
  },
  {
    "label": "006",
    "text": "{{fun_0000000C arg=\"\"}}{{fun_0007000C arg=\"\"}}{{fun_0001000C arg=\"\"}}{{fun_0008000C arg=\"\"}}{{fun_0002000C arg=\"\"}}{{anim id=\"37\"}}¿Y bien? ¿En qué puedo ayudarte,\n{{fun_00010011 arg=\"0x0000\"}}?{{fun_0009000C arg=\"\"}}"
  },
  {
    "label": "007",
    "text": "{{fun_0000000C arg=\"\"}}{{fun_0007000C arg=\"\"}}{{fun_0001000C arg=\"\"}}{{fun_0008000C arg=\"\"}}{{fun_0002000C arg=\"\"}}{{anim id=\"1\"}}¿Se puede saber qué ha ocurrido\nque requiera tanta prisa?{{fun_0009000C arg=\"\"}}"
  },
  {
    "label": "008",
    "text": ""
  },
  {
    "label": "009",
    "text": "{{fun_0000000C arg=\"\"}}{{fun_0005000C arg=\"\"}}{{fun_0001000C arg=\"\"}}{{anim id=\"39\"}}Sé que he tenido esto más tiempo\nde la cuenta, así que quería dártelo\ncuanto antes.\n{{anim id=\"13\"}}¡Espero que no te haya hecho falta\nmientras lo tenía yo!{{fun_0009000C arg=\"\"}}"
  },
  {
    "label": "010",
    "text": "{{fun_0000000C arg=\"\"}}{{fun_0007000C arg=\"\"}}{{fun_0002000C arg=\"\"}}{{anim id=\"1\"}}¡Ah, tranquila! La verdad es que ni\nrecordaba que lo tenías tú. Gracias\npor devolvérmelo.{{delay frames=\"20\"}}"
  },
  {
    "label": "011",
    "text": "{{fun_0000000C arg=\"\"}}{{fun_0005000C arg=\"\"}}{{fun_0001000C arg=\"\"}}{{anim id=\"1\"}}¡Oh! El pedido que hiciste de agua\nde manantial especial ya ha llegado.\n{{anim id=\"38\"}}¡Y venía con un regalito! ¡Toma!{{fun_0009000C arg=\"\"}}"
  },
  {
    "label": "012",
    "text": "{{fun_0000000C arg=\"\"}}{{fun_0007000C arg=\"\"}}{{fun_0002000C arg=\"\"}}{{anim id=\"15\"}}¡Fantástico!{{delay frames=\"40\"}} ¡Muchas gracias!\n{{delay frames=\"20\"}}Est{{fun_0008000E arg=\"0x00CD02006500020061000000\"}} {{fun_00030011 arg=\"0x0000\"}}\nme será de lo más útil."
  },
  {
    "label": "013",
    "text": "{{fun_0000000C arg=\"\"}}{{fun_0005000C arg=\"\"}}{{fun_0001000C arg=\"\"}}{{anim id=\"37\"}}El otro día encontré una cosa\nal lado de la estación y,{{delay frames=\"10\"}} como es\ntan bonita, {{delay frames=\"10\"}}pensé que sería tuya.\n¿Por casualidad has perdido\nesto,{{delay frames=\"10\"}} {{fun_00010011 arg=\"0x0100\"}}?{{fun_0009000C arg=\"\"}}"
  },
  {
    "label": "014",
    "text": "{{fun_0000000C arg=\"\"}}{{fun_0007000C arg=\"\"}}{{fun_0002000C arg=\"\"}}{{anim id=\"15\"}}¡{{fun_0003000E arg=\"\"}}{{fun_0001000E arg=\"\"}}{{fun_00030011 arg=\"0x0000\"}} de\nmi abuela!{{delay frames=\"20\"}}{{anim id=\"38\"}} No sabes cuánto te\nagradezco que l{{fun_0008000E arg=\"0x00CD02006F00020061000000\"}} encontraras.\n{{anim id=\"23\"}}¿Cómo acabó en la estación?{{delay frames=\"20\"}}\nNo recuerdo haber pasado por ahí.{{delay frames=\"20\"}}\n¿Será verdad que está encantad{{fun_0008000E arg=\"0x00CD02006F00020061000000\"}}?{{delay frames=\"8\"}}.{{delay frames=\"8\"}}.{{delay frames=\"8\"}}.{{pageBreak}}{{anim id=\"38\"}}¡Es broma! Se me debió de caer\ndel bolsillo. ¡Muchas gracias!"
  },
  {
    "label": "015",
    "text": "{{fun_0000000C arg=\"\"}}{{fun_0005000C arg=\"\"}}{{fun_0001000C arg=\"\"}}{{anim id=\"39\"}}Siento la molestia, {{delay frames=\"10\"}}pero es que\nnecesito que me ayudes. {{delay frames=\"20\"}}Me han\ninvitado a una cena así muy{{delay frames=\"8\"}}.{{delay frames=\"8\"}}.{{delay frames=\"8\"}}.{{delay frames=\"20\"}} fina.\n{{anim id=\"13\"}}¡Y yo no tengo la más remota idea\nde etiqueta! {{delay frames=\"20\"}}¡No quiero que piensen\nque soy una maleducada!\n{{anim id=\"39\"}}Así que quería pedirte que me des\nalgunos consejos, {{delay frames=\"10\"}}como por ejemplo\nqué cubiertos usar y cosas así.{{fun_0009000C arg=\"\"}}"
  },
  {
    "label": "016",
    "text": "{{fun_0000000C arg=\"\"}}{{fun_0007000C arg=\"\"}}{{fun_0002000C arg=\"\"}}{{anim id=\"1\"}}¡Ah,{{delay frames=\"8\"}} pues claro, cariñín!{{delay frames=\"20\"}} Tranquila,\nte enseñaré todo lo que debes\nsaber.\nEn estas cenas es importante ir bien\nvestida, pero también lo es la\nconversación.\nY siempre hay que dar las gracias\na todos por la compañía al final\nde la cena.\n{{anim id=\"38\"}}Pásate luego por mi casa, ¡voy a\nprepararte un curso intensivo de\netiqueta!"
  },
  {
    "label": "017",
    "text": "{{fun_0000000C arg=\"\"}}{{fun_0005000C arg=\"\"}}{{fun_0001000C arg=\"\"}}{{anim id=\"39\"}}Es que{{delay frames=\"8\"}}.{{delay frames=\"8\"}}.{{delay frames=\"8\"}}.{{delay frames=\"20\"}} me encanta tu estilo,\nasí tan femenino y{{delay frames=\"8\"}}.{{delay frames=\"8\"}}.{{delay frames=\"8\"}}.{{delay frames=\"20\"}} me gustaría\nque me dieras consejos sobre moda.{{fun_0009000C arg=\"\"}}"
  },
  {
    "label": "018",
    "text": "{{fun_0000000C arg=\"\"}}{{fun_0007000C arg=\"\"}}{{fun_0002000C arg=\"\"}}{{anim id=\"1\"}}¡Anda, gracias!{{delay frames=\"20\"}} Será para mí un\nplacer compartir mi sabiduría\ncontigo.\n{{anim id=\"21\"}}No intentes imitar a los demás,\ncrea tu propio estilo y verás que\neste brillará por sí solo.\n{{anim id=\"37\"}}El mundo es más interesante si\ncada uno es como es, ¿no crees?"
  },
  {
    "label": "019",
    "text": ""
  },
  {
    "label": "020",
    "text": "{{fun_0005000C arg=\"\"}}Pues nada, será mejor que vuelva\na casa.{{delay frames=\"20\"}}{{fun_0003000C arg=\"\"}} Has sido muy amable al\nayudarnos, cielín.{{delay frames=\"8\"}} ¡Hasta luego!"
  },
  {
    "label": "021",
    "text": "{{anim id=\"1\"}}Y ahora, con vuestro permiso,\nme retiro.{{pageBreak}}{{anim id=\"0\"}}Gracias por todo, {{fun_00010011 arg=\"0x0000\"}}.{{delay frames=\"20\"}}{{fun_0003000C arg=\"\"}} \nY gracias a ti por traerme hasta\naquí.{{anim id=\"37\"}} ¡Que tengáis un buen día!"
  },
  {
    "label": "022",
    "text": "{{anim id=\"37\"}}{{fun_0003000C arg=\"\"}}Te agradezco la ayuda, cariñín.{{delay frames=\"20\"}}{{fun_0005000C arg=\"\"}} \nYa nos veremos, {{fun_00010011 arg=\"0x0000\"}}.{{delay frames=\"20\"}}\n¡Adiós!"
  },
  {
    "label": "023",
    "text": ""
  }
]