﻿[
  {
    "label": "001",
    "text": "{{anim id=\"9\"}}Oh, {{delay frames=\"10\"}}vaya{{delay frames=\"8\"}}.{{delay frames=\"8\"}}.{{delay frames=\"8\"}}.{{delay frames=\"20\"}} Pues qué lástima."
  },
  {
    "label": "002",
    "text": "Ay{{delay frames=\"8\"}}.{{delay frames=\"8\"}}.{{delay frames=\"8\"}}.{{delay frames=\"20\"}} Y yo que contaba contigo{{delay frames=\"8\"}}.{{delay frames=\"8\"}}.{{delay frames=\"8\"}}."
  },
  {
    "label": "003",
    "text": "{{anim id=\"9\"}}Entiendo{{delay frames=\"8\"}}.{{delay frames=\"8\"}}.{{delay frames=\"8\"}}.{{delay frames=\"20\"}} Bueno, {{delay frames=\"10\"}}supongo que\nme tendré que espabilar yo solita,\n{{delay frames=\"10\"}}{{fun_00070005 arg=\"\"}}."
  },
  {
    "label": "004",
    "text": "{{anim id=\"9\"}}No me hagas esto{{delay frames=\"8\"}}.{{delay frames=\"8\"}}.{{delay frames=\"8\"}}."
  },
  {
    "label": "005",
    "text": "Lo comprendo{{delay frames=\"8\"}}.{{delay frames=\"8\"}}.{{delay frames=\"8\"}}.{{delay frames=\"20\"}} Pero la verdad\nes que no me lo esperaba de ti{{delay frames=\"8\"}}.{{delay frames=\"8\"}}.{{delay frames=\"8\"}}.\n{{delay frames=\"30\"}}{{anim id=\"30\"}}¡Aaachíiis!"
  },
  {
    "label": "006",
    "text": "{{anim id=\"9\"}}Oh{{delay frames=\"8\"}}.{{delay frames=\"8\"}}.{{delay frames=\"8\"}}.{{delay frames=\"20\"}} Pensaba que me ayudarías."
  },
  {
    "label": "007",
    "text": "{{anim id=\"9\"}}No pasa nada,{{delay frames=\"10\"}} supongo{{delay frames=\"8\"}}.{{delay frames=\"8\"}}.{{delay frames=\"8\"}}.{{delay frames=\"30\"}} {{anim id=\"30\"}}¡Achíiis!"
  },
  {
    "label": "008",
    "text": "{{anim id=\"9\"}}Oh,{{delay frames=\"20\"}} vale{{delay frames=\"8\"}}.{{delay frames=\"8\"}}.{{delay frames=\"8\"}}.{{delay frames=\"8\"}} {{anim id=\"12\"}}Ufff, {{delay frames=\"10\"}}me encuentro fatal."
  },
  {
    "label": "009",
    "text": "{{anim id=\"19\"}}¿En serio no me vas a ayudar?{{delay frames=\"8\"}}.{{delay frames=\"8\"}}.{{delay frames=\"8\"}}.{{delay frames=\"8\"}}"
  }
]