﻿[
  {
    "label": "001",
    "text": "Vaya,{{delay frames=\"10\"}} no sé si alguna vez se me dará\nbien pescar{{delay frames=\"8\"}}.{{delay frames=\"8\"}}.{{delay frames=\"8\"}}.{{delay frames=\"20\"}} ¡Pero por lo menos\npasar un ratito fuera es relajante!"
  },
  {
    "label": "002",
    "text": "{{anim id=\"9\"}}Es que no consigo atrapar nada{{delay frames=\"8\"}}.{{delay frames=\"8\"}}.{{delay frames=\"8\"}}.{{fun_00010007 arg=\"\"}}\nNecesito que alguien me enseñe\nel truco del almendruco para esto.\n{{anim id=\"37\"}}¡Siempre hay alguno, {{delay frames=\"10\"}}bichín!"
  },
  {
    "label": "003",
    "text": "Me pone bastante nerviosa que\nla gente me mire mientras intento\npescar, {{delay frames=\"10\"}}{{fun_00070005 arg=\"\"}}{{delay frames=\"8\"}}.{{delay frames=\"8\"}}.{{delay frames=\"8\"}}."
  },
  {
    "label": "004",
    "text": "Una vez leí en un libro que,{{delay frames=\"10\"}}\nsi consigues mantener la postura,{{delay frames=\"10\"}}\n¡no habrá pez que se te resista!\n{{anim id=\"9\"}}Pero no sé si creerme que sea tan\nfácil{{delay frames=\"8\"}}.{{delay frames=\"8\"}}.{{delay frames=\"8\"}}.{{delay frames=\"8\"}}{{fun_00010007 arg=\"\"}} {{anim id=\"37\"}}Voy a aguantar un segundito\nmás, {{delay frames=\"10\"}}a ver si pica alguno."
  }
]