﻿[
  {
    "label": "001",
    "text": "{{anim id=\"23\"}}¿Mmm? ¿Qué hay, {{fun_00070005 arg=\"\"}}?"
  },
  {
    "label": "002",
    "text": "{{anim id=\"1\"}}¡Hola, {{fun_00080005 arg=\"\"}}!{{delay frames=\"30\"}}\n¿Cómo va todo, {{fun_00070005 arg=\"\"}}?"
  },
  {
    "label": "003",
    "text": "{{anim id=\"1\"}}¡{{fun_0003000E arg=\"\"}}{{fun_00060007 arg=\"\"}}Hola, hola{{fun_00070007 arg=\"\"}}!\n{{delay frames=\"10\"}}¿Qué te cuentas, {{fun_00080005 arg=\"\"}}?"
  },
  {
    "label": "004",
    "text": "{{anim id=\"1\"}}¡{{fun_0003000E arg=\"\"}}{{fun_00060007 arg=\"\"}}Ah, hola{{fun_00070007 arg=\"\"}}!\n¿Vienes a decirme lo divina\nde la muerte que estoy hoy?"
  }
]