﻿[
  {
    "label": "001",
    "text": "{{anim id=\"1\"}}¿Quieres decirme algo más?\n¡Chupi, {{fun_00070005 arg=\"\"}}!"
  },
  {
    "label": "002",
    "text": "Te gusta hablar conmigo, ¿eh,\n{{fun_00080005 arg=\"\"}}?{{anim id=\"21\"}} No me extraña,\nsoy la más maravillosa del pueblo."
  },
  {
    "label": "003",
    "text": "A ti te gusta mucho hablar.{{delay frames=\"20\"}}\n{{anim id=\"32\"}}¡A mí también! ¡Sobre todo\nde mí misma!"
  },
  {
    "label": "004",
    "text": "{{anim id=\"23\"}}¿Qué te pasa hoy que no dejas\nde hablar?{{delay frames=\"30\"}}{{anim id=\"1\"}} En fin, ¡mejor para\nmí, {{fun_00070005 arg=\"\"}}!"
  }
]