﻿[
  {
    "label": "001",
    "text": "{{anim id=\"23\"}}Oye, {{fun_00080005 arg=\"\"}}, ¿no te mueres\npor tener u{{fun_0008000E arg=\"0x01CD02006E0004006E0061000000\"}} fantástic{{fun_0008000E arg=\"0x01CD02006F00020061000000\"}}\n{{fun_00030011 arg=\"0x0100\"}}?\n{{anim id=\"1\"}}Pues tengo un{{fun_0008000E arg=\"0x01CD02006F00020061000000\"}} de sobra que\nno me importaría venderte.{{pageBreak}}{{fun_000D0007 arg=\"\"}}Por ser tú, te l{{fun_0008000E arg=\"0x01CD02006F00020061000000\"}} vendo por {{color id=\"2\"}}{{fun_00090004 arg=\"0x0000\"}}\nbayas{{color id=\"65535\"}}. ¿Chupi, no?{{fun_0008000D arg=\"0x02CD\"}}{{fun_00050008 arg=\"0x0400150005002800\"}}\n¡Compro!\nNo me interesa"
  },
  {
    "label": "002",
    "text": "{{anim id=\"35\"}}Hola, {{fun_00080005 arg=\"\"}}, ¿no estarás\ninteresad{{fun_0006000E arg=\"0x02006F0002006100\"}} en una de mis ofertas\nrequeteguays de la muerte?\n¡Ahora mismo estoy vendiendo\n{{fun_0002000E arg=\"\"}}{{fun_00030011 arg=\"0x0100\"}}!\n{{delay frames=\"5\"}}Que conste que es de calidad.\n{{fun_000D0007 arg=\"\"}}¡Si l{{fun_0008000E arg=\"0x01CD02006F00020061000000\"}} quieres, es tuy{{fun_0008000E arg=\"0x01CD02006F00020061000000\"}} por {{color id=\"2\"}}{{fun_00090004 arg=\"0x0300\"}}\nbayas{{color id=\"65535\"}}! {{fun_0008000D arg=\"0x02CD\"}}{{fun_00050008 arg=\"0x0400150005002800\"}}\n¡Compro!\nNo, paso"
  },
  {
    "label": "003",
    "text": "{{anim id=\"37\"}}Estoy vendiendo algunas de mis\ncosas a mis fans. ¿Te interesa\n{{fun_0002000E arg=\"\"}}{{fun_00030011 arg=\"0x0100\"}}?\nComo tú eres mi mayor admirado{{fun_0006000E arg=\"0x02007200040072006100\"}},\nte lo dejaré a superbuén precio.\n{{fun_000D0007 arg=\"\"}}¿Qué tal.{{delay frames=\"5\"}}.{{delay frames=\"5\"}}.{{delay frames=\"5\"}}{{anim id=\"33\"}} {{color id=\"2\"}}{{fun_00090004 arg=\"0x0100\"}} bayas{{color id=\"65535\"}}?{{fun_0008000D arg=\"0x02CD\"}}{{fun_00050008 arg=\"0x0400150005002800\"}}\n¡Genial!\nNo, gracias"
  },
  {
    "label": "004",
    "text": "{{anim id=\"3\"}}¡Chupi, {{fun_00070005 arg=\"\"}}!{{fun_00000009 arg=\"0x08000900\"}}"
  },
  {
    "label": "005",
    "text": "{{anim id=\"9\"}}Pues vaya{{delay frames=\"5\"}}.{{delay frames=\"5\"}}.{{delay frames=\"5\"}}.{{fun_0000000A arg=\"0x0406000700CD\"}}"
  },
  {
    "label": "006",
    "text": "{{anim id=\"36\"}}Jo, pues contaba con deshacerme\nde esto.{{delay frames=\"5\"}}.{{delay frames=\"5\"}}.{{pageBreak}}{{anim id=\"22\"}}¿Sabes qué? ¡Es gratis!\n¿Qué te parece?{{fun_0008000D arg=\"0x02CD\"}}{{fun_00050008 arg=\"0x0C0015000A002800\"}}\n¡Por mí vale!\nQue no"
  },
  {
    "label": "007",
    "text": "{{fun_00010009 arg=\"0x0A000B000D00\"}}"
  },
  {
    "label": "008",
    "text": "{{anim id=\"1\"}}¡Nadie puede resistirse a una ganga!\nAquí tienes."
  },
  {
    "label": "009",
    "text": "{{anim id=\"1\"}}Sabía que no te podrías resistir,\n{{fun_00070005 arg=\"\"}}."
  },
  {
    "label": "010",
    "text": "{{anim id=\"27\"}}Bueno.{{delay frames=\"5\"}}.{{delay frames=\"5\"}}.{{delay frames=\"5\"}} Iré a buscar a otro que\nsepa apreciar el buen gusto,\n{{fun_00070005 arg=\"\"}}."
  },
  {
    "label": "011",
    "text": "{{anim id=\"37\"}}Pues yo habría aceptado sin\npensármelo. Era una oferta\nideal, {{fun_00070005 arg=\"\"}}..."
  },
  {
    "label": "012",
    "text": "{{anim id=\"1\"}}¡Considéralo una oferta\nrequeteespecial de la muerte!\n¡Toma!"
  },
  {
    "label": "013",
    "text": "{{anim id=\"37\"}}Jo, ¿y si te hago una rebaja?\n¿Qué tal {{color id=\"2\"}}{{fun_00090004 arg=\"0x0200\"}} bayas{{color id=\"65535\"}}?{{fun_0008000D arg=\"0x02CD\"}}{{fun_00050008 arg=\"0x040015000A002800\"}}\nVenga, vale\nNo"
  },
  {
    "label": "014",
    "text": "{{anim id=\"1\"}}¡Gracias,{{delay frames=\"8\"}} {{fun_00070005 arg=\"\"}}!\nEs un placer hacer negocios contigo."
  },
  {
    "label": "015",
    "text": "{{anim id=\"1\"}}¡Aun así, ten cuidado con el objeto!{{delay frames=\"20\"}}\nQue te haya salido gratis no quiere\ndecir que no sea superestupén."
  }
]