﻿[
  {
    "label": "001",
    "text": "{{anim id=\"1\"}}¡Viva! ¡Pues vamos a mi casa!{{delay frames=\"20\"}}\nVoy justo detrás de ti."
  },
  {
    "label": "002",
    "text": "{{anim id=\"38\"}}¡Lo vamos a pasar chupiguay! {{delay frames=\"10\"}}\nTe sigo hasta mi casa."
  },
  {
    "label": "003",
    "text": "{{anim id=\"1\"}}¡{{fun_0003000E arg=\"\"}}{{fun_00080005 arg=\"\"}}, vas a alucinar cuando\nveas mi casa! {{delay frames=\"10\"}}¡Vamos, voy detrás\nde ti!"
  }
]