﻿[
  {
    "label": "001",
    "text": "{{anim id=\"16\"}}¿Eh? {{delay frames=\"20\"}}¿Todavía no has entregado\nel paquete a {{fun_00010011 arg=\"0x0000\"}}?{{fun_00010007 arg=\"\"}}\n{{anim id=\"9\"}}Es igual, {{delay frames=\"10\"}}devuélvemelo."
  },
  {
    "label": "002",
    "text": "{{anim id=\"23\"}}¿Aún no le has entregado el paquete\na {{fun_00010011 arg=\"0x0000\"}}?{{fun_00010007 arg=\"\"}} {{anim id=\"9\"}}Dámelo, por favor."
  },
  {
    "label": "003",
    "text": "{{anim id=\"16\"}}¿Va en serio?{{delay frames=\"10\"}} ¿Aún no le has dado\nel paquete a {{fun_00010011 arg=\"0x0000\"}}?{{delay frames=\"30\"}}\nSerá mejor que me lo devuelvas."
  },
  {
    "label": "004",
    "text": "{{anim id=\"23\"}}¿Qué? {{delay frames=\"20\"}}¿No has podido darle\nel paquete a {{fun_00010011 arg=\"0x0000\"}}?{{fun_00010007 arg=\"\"}}{{anim id=\"37\"}}\nBueno, pues dámelo si eso."
  },
  {
    "label": "005",
    "text": "{{anim id=\"13\"}}¡Oye! ¡Si aún tienes el paquete\nde {{fun_00010011 arg=\"0x0000\"}}!{{fun_00010007 arg=\"\"}} Dámelo, porfi."
  },
  {
    "label": "006",
    "text": "{{anim id=\"13\"}}¿Cómo puedes tardar tanto en\nentregarle un paquete a {{fun_00010011 arg=\"0x0000\"}}?{{fun_00010007 arg=\"\"}}\n{{anim id=\"0\"}}Devuélvemelo."
  },
  {
    "label": "007",
    "text": "{{anim id=\"27\"}}No tengo más remedio que hacerlo\nyo misma."
  },
  {
    "label": "008",
    "text": "{{anim id=\"13\"}}¡Tendré que armarme de valor\ny dárselo en persona!"
  },
  {
    "label": "009",
    "text": "{{anim id=\"36\"}}Si se lo devuelvo yo acabaré\nantes, {{fun_00070005 arg=\"\"}}."
  },
  {
    "label": "010",
    "text": "{{anim id=\"21\"}}Está claro que la rapidez no es\nlo tuyo, {{fun_00070005 arg=\"\"}}. Se lo daré\nyo misma."
  },
  {
    "label": "011",
    "text": "{{anim id=\"28\"}}Estoy muy tentada de quedármelo\npara mí.{{delay frames=\"5\"}}.{{delay frames=\"5\"}}.{{delay frames=\"5\"}} ¡pero no me mires así!{{delay frames=\"20\"}}\n{{anim id=\"36\"}}¡Te juro que se lo devolveré!"
  },
  {
    "label": "012",
    "text": "{{anim id=\"36\"}}Siento haberte metido en todo\neste rollo. {{delay frames=\"10\"}}Ya se lo daré yo más\ntarde, {{fun_00070005 arg=\"\"}}."
  },
  {
    "label": "013",
    "text": "{{anim id=\"17\"}}¡¿Eh?! {{delay frames=\"20\"}}¿Has abierto el paquete?{{delay frames=\"30\"}}\n{{anim id=\"6\"}}¡Eso es más feo que un vestido\nde topos fosforitos!"
  },
  {
    "label": "014",
    "text": "{{anim id=\"17\"}}¡¿Lo has abierto?!{{fun_00010007 arg=\"\"}} {{anim id=\"6\"}}¡Jooo!\n{{delay frames=\"10\"}}¡Sabías que ese regalo\nera importante para mí!"
  },
  {
    "label": "015",
    "text": "{{anim id=\"17\"}}¡¿Eh?! {{delay frames=\"20\"}}{{anim id=\"6\"}}¿Cómo que se ha abierto?{{fun_00010007 arg=\"\"}} \n{{anim id=\"9\"}}¡Lo envolví con mucho cuidado,\n{{fun_00080005 arg=\"\"}}!"
  },
  {
    "label": "016",
    "text": "{{anim id=\"17\"}}¡¿Has abierto el paquete?!{{delay frames=\"30\"}}\n{{anim id=\"6\"}}¡Con lo que me costó envolverlo,\n{{fun_00080005 arg=\"\"}}!"
  },
  {
    "label": "017",
    "text": "{{anim id=\"17\"}}¡Oye! {{delay frames=\"10\"}}¿Lo has abierto?{{fun_00010007 arg=\"\"}} {{anim id=\"6\"}}\n¡Pero era para {{fun_00010011 arg=\"0x0000\"}},\n{{fun_00070005 arg=\"\"}}!"
  },
  {
    "label": "018",
    "text": "{{anim id=\"17\"}}¿Por qué lo has abierto?{{delay frames=\"30\"}}\n{{anim id=\"9\"}}Me pasé la tarde envolviéndolo,\n¿sabes?"
  },
  {
    "label": "019",
    "text": "{{anim id=\"18\"}}¡Qué {{delay frames=\"10\"}}fuerte! {{delay frames=\"10\"}}¿Lo has perdido?{{delay frames=\"20\"}} \n{{anim id=\"9\"}}¡Eso es terrible, {{fun_00080005 arg=\"\"}}!\n¡Era un regalo muy especial!"
  },
  {
    "label": "020",
    "text": "{{anim id=\"7\"}}¡¿Cómo que lo has perdido?! {{delay frames=\"20\"}}\n{{anim id=\"9\"}}¡No se puede ser tan despistad{{fun_0006000E arg=\"0x02006F0002006100\"}},\n{{fun_00080005 arg=\"\"}}!"
  },
  {
    "label": "021",
    "text": "{{anim id=\"18\"}}¿No lo tienes?{{delay frames=\"20\"}} ¡Pero si ni siquiera\nera mío!{{delay frames=\"10\"}}{{anim id=\"13\"}} ¡Ahora parecerá que soy\nyo la que lo ha perdido!"
  },
  {
    "label": "022",
    "text": "{{anim id=\"18\"}}¡¿No te acuerdas de qué has hecho\ncon él?! {{fun_00010007 arg=\"\"}}{{anim id=\"7\"}}¡{{fun_00010011 arg=\"0x0000\"}} se va a enfadar\nun montón!"
  },
  {
    "label": "023",
    "text": "{{anim id=\"17\"}}¿No sabes dónde está? {{delay frames=\"30\"}}{{anim id=\"13\"}}¡Es horrible!{{delay frames=\"10\"}}\n¡Me envían algo por error y tú vas\ny lo pierdes!"
  },
  {
    "label": "024",
    "text": "{{anim id=\"18\"}}¿Que lo has perdido? {{fun_00010007 arg=\"\"}}{{anim id=\"9\"}}¿Y qué\nle digo yo ahora a {{fun_00010011 arg=\"0x0000\"}}?"
  }
]