﻿[
  {
    "label": "001",
    "text": "{{anim id=\"23\"}}¿Vienes a visitar el pueblo más\nchuli de todos?{{delay frames=\"20\"}}{{anim id=\"29\"}} ¡Yo también!{{pageBreak}}{{anim id=\"21\"}}Ya que l{{fun_0006000E arg=\"0x02006F0002006100\"}}s dos somos turistas,\ndeberíamos ser amig{{fun_0006000E arg=\"0x02006F0002006100\"}}s y tal.{{delay frames=\"20\"}}\n¿Qué me dices?"
  },
  {
    "label": "002",
    "text": "{{anim id=\"37\"}}¡Anda, u{{fun_0006000E arg=\"0x02006E0004006E006100\"}} turista como yo! {{delay frames=\"10\"}}\n{{anim id=\"21\"}}Me han dicho que {{fun_0003000E arg=\"\"}}{{delay frames=\"10\"}}{{fun_00050005 arg=\"\"}} es\nel sitio de moda,{{delay frames=\"5\"}} ¡y aquí estoy!\n{{anim id=\"27\"}}Espero que los paparazis no me\nsigan y pueda pasar mis vacaciones\ntranquila."
  },
  {
    "label": "003",
    "text": "{{anim id=\"27\"}}No hay nada mejor que acampar en\neste pueblo para huir del estrés y\nrelajarse.\n{{anim id=\"43\"}}Si aún no lo has hecho, te aconsejo\nque pruebes la fruta local,{{delay frames=\"20\"}} ¡está\nde rechupete!"
  },
  {
    "label": "004",
    "text": "{{anim id=\"15\"}}Este pueblo debería salir en todas\nlas guías de viajes. {{delay frames=\"20\"}}¡Es superchuli!{{pageBreak}}{{anim id=\"21\"}}¡Lo comentaré en mi blog para\nque vengan muchos más turistas!"
  },
  {
    "label": "005",
    "text": "{{anim id=\"37\"}}¿Te gusta este pueblo? ¡A mí me\nsuperencanta!{{delay frames=\"10\"}}{{anim id=\"27\"}} Ojalá viviera más\ncerca para visitarlo todos los días."
  },
  {
    "label": "006",
    "text": "{{anim id=\"32\"}}¡Hooola!{{delay frames=\"10\"}} ¿Eres de aquí?{{delay frames=\"20\"}}{{anim id=\"38\"}} ¡Tu\npueblo es requetecuqui, oye!{{pageBreak}}{{anim id=\"4\"}}Es la primera vez que acampo aquí\ny ya estoy pensando en repetir."
  },
  {
    "label": "007",
    "text": "{{anim id=\"32\"}}¡Buenas!{{delay frames=\"10\"}} Acamparé aquí unos días\nsi no te importa,{{delay frames=\"10\"}} solo estoy de\npaso.\n{{anim id=\"1\"}}Me alegro de haber descubierto\neste pueblo,{{delay frames=\"20\"}} ¡parece superguay!"
  },
  {
    "label": "008",
    "text": "{{anim id=\"44\"}}No esperabas que una chica como\nyo saliera de acampada, ¿no? \nPues ya somos dos.\nNo es mi pasatiempo favorito, {{delay frames=\"20\"}}{{anim id=\"3\"}}¡pero\neste pueblo está tan de moda que\ntenía que visitarlo!"
  },
  {
    "label": "009",
    "text": "{{anim id=\"43\"}}¿Dónde podría construir mi casa?{{delay frames=\"20\"}}\n¡Cerca de las tiendas sería ideal,\n{{fun_00070005 arg=\"\"}}!"
  },
  {
    "label": "010",
    "text": "{{anim id=\"11\"}}Si voy a vivir aquí, mi casa debe\nestar en la zona de moda, eso por\ndescontado."
  },
  {
    "label": "011",
    "text": "{{anim id=\"21\"}}¿Debería presentarme ahora a mis\nnuevos vecinos o me espero a estar\ninstalada?\n{{anim id=\"39\"}}La verdad es que da igual, van\na adorarme de todas formas."
  },
  {
    "label": "012",
    "text": "{{anim id=\"1\"}}¡Vamos a ser vecin{{fun_0006000E arg=\"0x02006F0002006100\"}}s! {{fun_0003000E arg=\"\"}}{{fun_00000011 arg=\"0x0000\"}}\nme ha convencido de que debía\nmudarme aquí.{{delay frames=\"20\"}} ¿No es superideal?\n{{anim id=\"3\"}}¡Lo vamos a pasar en grande!"
  },
  {
    "label": "013",
    "text": "{{anim id=\"39\"}}Después de hablarlo con {{fun_00000011 arg=\"0x0000\"}},\nhe decidido trasladarme a este\npueblo.\n{{anim id=\"44\"}}¡Sé que a todos os hace mucha ilu\nque una famosa como yo sea\nvuestra vecina, je, je!"
  },
  {
    "label": "014",
    "text": "{{anim id=\"1\"}}{{fun_0003000E arg=\"\"}}{{fun_00000011 arg=\"0x0000\"}} casi me ha suplicado\nque me mudara aquí.{{delay frames=\"20\"}} {{anim id=\"39\"}}No he podido\ndecirle que no.\nAdemás,{{delay frames=\"10\"}}{{anim id=\"29\"}} el pueblo es bastante guay.{{delay frames=\"20\"}}\n¡Me muero por hacer un montón de\nnuevos amigos!"
  },
  {
    "label": "015",
    "text": "{{anim id=\"43\"}}¡No sabes cuánto me alegro de\nhaber acampado en este pueblo!{{pageBreak}}{{anim id=\"27\"}}Al principio pensaba que iba a pasar\nfrío y que me pondría la ropa\nperdida de barro...\n{{anim id=\"38\"}}¡pero resulta que es superdíver!{{delay frames=\"20\"}}\n¡Y de tanto ejercicio se me está\nquedando una figura ideal, oye!"
  },
  {
    "label": "016",
    "text": "{{anim id=\"38\"}}Es tan chuli dormirse contando\nlas estrellas del cielo{{delay frames=\"8\"}}.{{delay frames=\"8\"}}.{{delay frames=\"8\"}}.{{delay frames=\"8\"}} {{anim id=\"2\"}}Hay tantas\nque a veces hasta me mareo, je, je."
  },
  {
    "label": "017",
    "text": "{{anim id=\"44\"}}Seguro que es la primera vez que\nacampa en el pueblo alguien tan\nfamoso como yo.\n{{anim id=\"39\"}}No me importa firmar algún que\notro autógrafo,{{delay frames=\"20\"}} pero estoy de\nvacaciones y quiero tranquilidad."
  },
  {
    "label": "018",
    "text": "{{anim id=\"4\"}}Acampar en los pueblos es la última\nmoda, ¿lo sabías? {{delay frames=\"20\"}}¡La verdad es que\na mí me superencanta!\n{{anim id=\"38\"}}¡He hecho un montón de amigos\ny salgo de fiesta todos los días!"
  },
  {
    "label": "019",
    "text": "Fui a clases de cocina antes de salir\nde acampada.{{delay frames=\"20\"}}{{anim id=\"27\"}} ¡Lo malo es que solo\naprendí una receta!\n{{anim id=\"21\"}}No como muy variado, ¡pero te\njuro que mi sopa campesina sabe\nde muerte al aire libre!"
  },
  {
    "label": "020",
    "text": "{{anim id=\"43\"}}Oye, ¿vivir en este pueblo es\ntan guay como visitarlo?{{fun_0005000F arg=\"0x15002800\"}}\n¡Múdate aquí y verás!\nNo está mal..."
  },
  {
    "label": "021",
    "text": "Tienes mucha suerte de vivir en\neste pueblo,{{delay frames=\"5\"}}{{anim id=\"39\"}} ¡puedes disfrutar de\nél todos los días!{{fun_0005000F arg=\"0x15002800\"}}\n¡Pues múdate aquí!\nNo es para tanto..."
  },
  {
    "label": "022",
    "text": "{{anim id=\"39\"}}¡Si viviera en un pueblo tan chachi\ncomo este,{{delay frames=\"10\"}} {{anim id=\"3\"}}alcanzaría la fama en\nun abrir y cerrar de ojos!{{fun_0005000F arg=\"0x15002800\"}}\n¡Vente a vivir aquí!\nSigue soñando..."
  },
  {
    "label": "023",
    "text": "{{anim id=\"15\"}}¿En serio? No me lo creo. {{delay frames=\"20\"}}{{anim id=\"35\"}}Lo que\nocurre es que quieres el pueblo\npara ti sol{{fun_0006000E arg=\"0x02006F0002006100\"}}, {{delay frames=\"15\"}}{{fun_00070005 arg=\"\"}}."
  },
  {
    "label": "024",
    "text": "{{anim id=\"15\"}}¡¿Pero qué dices?!{{delay frames=\"5\"}} ¡Este pueblo es\nlo más,{{delay frames=\"15\"}} {{fun_00070005 arg=\"\"}}! No sabes lo\nque tienes..."
  },
  {
    "label": "025",
    "text": "{{anim id=\"11\"}}Bueno, supongo que nunca lo sabré,\n{{fun_00070005 arg=\"\"}}."
  }
]