﻿[
  {
    "label": "001",
    "text": "{{anim id=\"22\"}}¡Oh,{{delay frames=\"10\"}} conozco un juego superchuli! {{delay frames=\"30\"}}\nSe llama {{color id=\"2\"}}Decídete o será fatal{{color id=\"65535\"}}.\n{{anim id=\"31\"}}¡Es muy, pero que muy intenso!\n{{anim id=\"43\"}}Se juega con cinco objetos y cinco\nprecios.{{delay frames=\"30\"}} {{anim id=\"38\"}}Si eres rápid{{fun_0006000E arg=\"0x02006F0002006100\"}} y decides\nbien, ¡puedes llevarte una ganga!\n{{anim id=\"40\"}}Aunque es un juego de azar, por lo\nque no hay garantías.{{delay frames=\"30\"}}{{anim id=\"39\"}}{{fun_000D0007 arg=\"\"}} ¿Te atreves\na probarlo?{{fun_00050008 arg=\"0x0300150002002800\"}}\n¡Ya lo creo!\nAhora no..."
  },
  {
    "label": "002",
    "text": "{{anim id=\"27\"}}Vale, como quieras{{delay frames=\"8\"}}.{{delay frames=\"8\"}}.{{delay frames=\"8\"}}.{{delay frames=\"8\"}} Tendré que\nbuscar a otr{{fun_0006000E arg=\"0x02006F0002006100\"}} con más agallas."
  },
  {
    "label": "003",
    "text": "{{anim id=\"1\"}}¡Chachi! {{delay frames=\"10\"}}Empecemos. {{delay frames=\"20\"}}{{anim id=\"43\"}}Tengo aquí\ncinco objetos,{{delay frames=\"10\"}} CINCO, {{delay frames=\"10\"}}ni uno más\nni uno menos.\n{{anim id=\"35\"}}¡Pero solo puedes comprar UNO!\n{{delay frames=\"15\"}}Fácil, ¿no?{{delay frames=\"5\"}} {{delay frames=\"20\"}}{{anim id=\"31\"}}¡Pues espera, que\ntodavía hay más!\n{{anim id=\"38\"}}Diré el nombre de cada objeto,\nuno a uno,{{delay frames=\"10\"}} y su precio. {{delay frames=\"20\"}}{{anim id=\"21\"}}Si te gustan\nel objeto y el precio, ¡grita!\n{{anim id=\"36\"}}Tienes que elegir uno sí o sí.{{delay frames=\"20\"}}\n{{anim id=\"27\"}}Si llegamos al quinto, tendrás que\nquedarte con ese.{{delay frames=\"20\"}} {{anim id=\"0\"}}¿List{{fun_0006000E arg=\"0x02006F0002006100\"}}?\n{{anim id=\"3\"}}El primer artículo es est{{fun_0008000E arg=\"0x00CD02006500020061000000\"}} precios{{fun_0008000E arg=\"0x00CD02006F00020061000000\"}}\n{{delay frames=\"10\"}}{{fun_00030011 arg=\"0x0000\"}}.{{delay frames=\"30\"}} ¡Solo\ncuesta {{delay frames=\"10\"}}{{color id=\"2\"}}{{fun_00090004 arg=\"0x0000\"}} bayas{{color id=\"65535\"}}!{{fun_0008000D arg=\"0x02CD\"}}{{fun_00050008 arg=\"0x0400150005002800\"}}\n¡Compro!\nSiguiente"
  },
  {
    "label": "004",
    "text": "{{anim id=\"27\"}}¿En serio? {{delay frames=\"15\"}}¿Seguro que no quieres\nver los demás?{{delay frames=\"30\"}}{{anim id=\"1\"}} Bueno, si a ti te\nparece bien, ¡a mí también!"
  },
  {
    "label": "005",
    "text": "{{anim id=\"36\"}}Quieres arriesgarte con el próximo,\n{{delay frames=\"10\"}}¿eh?{{delay frames=\"20\"}}{{anim id=\"21\"}} ¡Chupi!{{delay frames=\"10\"}} ¡Pues vamos con\nel segundo artículo!\n{{anim id=\"5\"}}¡{{fun_0003000E arg=\"\"}}{{fun_0002000E arg=\"\"}}{{fun_00030011 arg=\"0x0100\"}} por\nel ridículo precio de {{delay frames=\"10\"}}{{color id=\"2\"}}{{fun_00090004 arg=\"0x0000\"}} bayas{{color id=\"65535\"}}!{{fun_0008000D arg=\"0x02CD\"}}{{fun_00050008 arg=\"0x0600150007002800\"}}\n¡Compro!\nSiguiente"
  },
  {
    "label": "006",
    "text": "{{anim id=\"44\"}}¡Ya tenemos ganador!{{delay frames=\"30\"}} Sabía que\neste objeto te gustaría.{{delay frames=\"15\"}}{{anim id=\"38\"}}\n¡Aquí tienes!"
  },
  {
    "label": "007",
    "text": "{{anim id=\"16\"}}¿Crees que saldrá una oferta mejor?\n{{delay frames=\"30\"}}¡Qué optimista eres!{{delay frames=\"15\"}}{{anim id=\"1\"}} Veamos el\nartículo número tres...\n¡{{fun_0003000E arg=\"\"}}{{fun_0002000E arg=\"\"}}{{fun_00030011 arg=\"0x0200\"}}!{{delay frames=\"10\"}}\n¡Su precio es de {{color id=\"2\"}}{{delay frames=\"10\"}}{{fun_00090004 arg=\"0x0000\"}} bayas{{color id=\"65535\"}}!{{fun_0008000D arg=\"0x02CD\"}}{{fun_00050008 arg=\"0x0800150009002800\"}}\n¡Compro!\nSiguiente"
  },
  {
    "label": "008",
    "text": "{{anim id=\"15\"}}¡No me esperaba para nada que\neligieras este objeto!{{fun_00010007 arg=\"\"}}{{anim id=\"38\"}} Pero tú\nsabrás lo que compras."
  },
  {
    "label": "009",
    "text": "{{anim id=\"28\"}}¡Qué nervios! ¡Te estás arriesgando\nmucho!{{delay frames=\"30\"}} {{anim id=\"21\"}}Si no compras el siguiente,\ntendrás que quedarte con el quinto.\n{{anim id=\"44\"}}¡Y este es el cuarto artículo!{{delay frames=\"10\"}}\n¡{{fun_0003000E arg=\"\"}}{{fun_0002000E arg=\"\"}}{{fun_00030011 arg=\"0x0300\"}} que{{delay frames=\"10\"}}\nte vendo por solo {{delay frames=\"10\"}}{{color id=\"2\"}}{{fun_00090004 arg=\"0x0000\"}} bayas{{color id=\"65535\"}}!{{fun_0008000D arg=\"0x02CD\"}}{{fun_00050008 arg=\"0x0A00150013002800\"}}\n¡Compro!\nSiguiente"
  },
  {
    "label": "010",
    "text": "{{anim id=\"29\"}}¡POR FIN!{{delay frames=\"30\"}} {{anim id=\"35\"}}Ya no podías soportar\nla tensión, ¿verdad?"
  },
  {
    "label": "011",
    "text": "{{anim id=\"13\"}}¡Qué fuerte!{{delay frames=\"20\"}} Pues no te queda\nmás remedio que comprar el\nnúmero cinco.\n{{anim id=\"37\"}}Eres {{fun_0006000E arg=\"0x100065006C0020006E007500650076006F0010006C00610020006E007500650076006100\"}} dueñ{{fun_0006000E arg=\"0x02006F0002006100\"}} de est{{fun_0008000E arg=\"0x04CD02006500020061000000\"}}{{delay frames=\"20\"}}{{anim id=\"31\"}}\n{{anim id=\"35\"}}{{fun_00030011 arg=\"0x0400\"}} que\ncuesta.{{delay frames=\"8\"}}.{{delay frames=\"8\"}}{{delay frames=\"8\"}}.{{delay frames=\"8\"}}{{fun_00010007 arg=\"\"}}{{anim id=\"35\"}} ¡{{color id=\"2\"}}{{fun_00090004 arg=\"0x0000\"}} bayas{{color id=\"65535\"}}!"
  },
  {
    "label": "012",
    "text": "{{anim id=\"13\"}}¡No me puedo creer que hayas\ndejado escapar esas gangas!{{delay frames=\"15\"}}\nPues te quedas con el quinto.\n{{anim id=\"38\"}}Est{{fun_0008000E arg=\"0x04CD02006500020061000000\"}} {{anim id=\"35\"}}{{fun_00030011 arg=\"0x0400\"}}{{delay frames=\"5\"}}, que\nvale...{{delay frames=\"20\"}} ¡solo{{delay frames=\"15\"}} {{color id=\"2\"}}{{fun_00090004 arg=\"0x0000\"}} bayas{{color id=\"65535\"}}!\n{{delay frames=\"30\"}}{{anim id=\"29\"}}¡Qué suerte has tenido!"
  },
  {
    "label": "013",
    "text": "{{anim id=\"1\"}}¿Es el objeto que querías o te daba\nmiedo arriesgar?{{delay frames=\"20\"}}{{anim id=\"29\"}} ¡Qué más da!{{delay frames=\"20\"}}\n¡Gracias por jugar!"
  },
  {
    "label": "014",
    "text": "{{anim id=\"1\"}}Volvamos a jugar otro día, ¿vale?{{delay frames=\"15\"}}\n¡Tengo un montón de cosas\nsuperchupis!"
  },
  {
    "label": "015",
    "text": "{{anim id=\"1\"}}Has jugado requetebién.{{delay frames=\"15\"}} {{anim id=\"38\"}}¡Espero\nque estés content{{fun_0006000E arg=\"0x02006F0002006100\"}} con tu compra!"
  },
  {
    "label": "016",
    "text": "{{anim id=\"39\"}}¿No te mueres por saber cuál era\nel quinto objeto?{{fun_00010007 arg=\"\"}}{{anim id=\"35\"}} ¡Pues no te lo\npienso decir!"
  },
  {
    "label": "017",
    "text": "{{anim id=\"9\"}}No te enfades, porfa, solo es un\njuego. {{delay frames=\"15\"}}{{anim id=\"38\"}}Puedes volver a intentarlo\ncuando quieras."
  },
  {
    "label": "018",
    "text": "{{anim id=\"2\"}}¡Ja, ja, ja! {{delay frames=\"20\"}}¡Deberías haberte visto\nla cara! ¡Estabas supertens{{fun_0006000E arg=\"0x02006F0002006100\"}},\n{{delay frames=\"15\"}}{{fun_00070005 arg=\"\"}}!"
  },
  {
    "label": "019",
    "text": "{{fun_00030009 arg=\"0x0B000B000B000B000C00\"}}"
  }
]