﻿[
  {
    "label": "001",
    "text": "{{anim id=\"33\"}}¡{{fun_0003000E arg=\"\"}}{{fun_00080005 arg=\"\"}}, mírame bien!{{pageBreak}}No, no{{delay frames=\"8\"}}.{{delay frames=\"8\"}}.{{delay frames=\"8\"}}.{{delay frames=\"20\"}}{{anim id=\"15\"}} ¡La ropa no!{{delay frames=\"40\"}}{{anim id=\"0\"}} ¡Quería\nque admirases la perfección\nde mis músculos!\n{{anim id=\"2\"}}¡Yo considero la ropa un extra!\n¡El premio gordo es sin duda\nmi impresionante físico! ¡Ja, ja!{{delay frames=\"40\"}}{{anim id=\"37\"}}"
  },
  {
    "label": "002",
    "text": "{{anim id=\"33\"}}¡Fíjate bien, chiquit{{fun_0006000E arg=\"0x0400ED006E00060069006E006100\"}}!{{delay frames=\"20\"}} ¡Esta ropa\nme permite máxima movilidad!{{pageBreak}}{{anim id=\"1\"}}¡Los atletas deben llevar algo\n{{fun_00230005 arg=\"0x00CD\"}} como esto!"
  },
  {
    "label": "003",
    "text": "{{anim id=\"1\"}}Supongo que llevo algo muy\n\"{{fun_00230005 arg=\"0x00CD\"}}\", como\nsuelen llamarlo.\n{{anim id=\"35\"}}¡He oído que quien consigue ir con\neste aspecto sin resultar ridículo\ntiene mucho éxito con las mujeres!"
  },
  {
    "label": "004",
    "text": "{{anim id=\"33\"}}¡Estoy que lo rompo con la ropa que\nllevo hoy!{{fun_00010007 arg=\"\"}} {{anim id=\"1\"}}¡La gente que sabe llama\na este estilo \"{{fun_00230005 arg=\"0x00CD\"}}\"!"
  },
  {
    "label": "005",
    "text": "{{anim id=\"35\"}}Hoy voy muy a la última, ¿no?{{delay frames=\"40\"}}\n{{anim id=\"1\"}}¡He decidido apostar por lo\n{{fun_00230005 arg=\"0x00CD\"}} hasta el final!\n{{anim id=\"13\"}}¡Ay! Pero ahora me dan ganas\nde escribir una canción sobre las\ncosas que me tienen quemado..."
  },
  {
    "label": "006",
    "text": "{{anim id=\"33\"}}¡Hoy voy a apostar totalmente\npor este rollo {{fun_00230005 arg=\"0x00CD\"}}!{{pageBreak}}{{anim id=\"35\"}}¡Pero no te creas ni por un segundo\nque no voy a dejar que se manche\nde barro en el campo de batalla!"
  },
  {
    "label": "007",
    "text": "{{anim id=\"1\"}}¡Hoy voy a llamar la atención con\nmi estilo {{fun_00230005 arg=\"0x00CD\"}}!{{pageBreak}}¿Nunca te han dado ganas de\nsacarme una foto? ¡Pues ahora es\nel mejor momento! {{delay frames=\"20\"}}{{anim id=\"44\"}}¡Paaataaataaa!"
  },
  {
    "label": "008",
    "text": "{{anim id=\"1\"}}¡Hoy se podría decir que tengo\nun aspecto muy {{fun_00230005 arg=\"0x00CD\"}}!{{pageBreak}}{{anim id=\"23\"}}¿Pero qué quiere decir\n\"{{fun_00230005 arg=\"0x00CD\"}}\" exactamente?\n¿Es alternativo a qué?\n{{anim id=\"1\"}}A lo mejor debería preguntarle a\nalgún enteradillo de la moda antes\nde arriesgarme a ponerme nada{{delay frames=\"8\"}}.{{delay frames=\"8\"}}.{{delay frames=\"8\"}}.{{delay frames=\"20\"}}"
  },
  {
    "label": "009",
    "text": "{{anim id=\"23\"}}Esta ropa se sale, ¿a que sí?{{delay frames=\"40\"}}\n{{anim id=\"1\"}}¡Me encanta llevar cosas que\ntengan aspecto {{fun_00230005 arg=\"0x00CD\"}}!"
  },
  {
    "label": "010",
    "text": "{{anim id=\"44\"}}¡Mira cómo voy! ¡Llevo ropa\n{{fun_00230005 arg=\"0x00CD\"}}!{{pageBreak}}{{anim id=\"32\"}}¡Sí, ya sé que parece que llevo\ntrapos antiguos!{{delay frames=\"40\"}}{{anim id=\"21\"}} ¡Pero es que\nla idea es precisamente esa!"
  },
  {
    "label": "011",
    "text": "{{anim id=\"33\"}}¡Tacháaan! ¡Fíjate en el aspecto\n{{fun_00230005 arg=\"0x00CD\"}} que llevo, tron!{{pageBreak}}¿Pero qué quiere decir eso de\n\"{{fun_00230005 arg=\"0x00CD\"}}\"?{{delay frames=\"40\"}}{{anim id=\"9\"}} Me pregunto\nsi tengo buen gusto para vestir{{delay frames=\"8\"}}.{{delay frames=\"8\"}}.{{delay frames=\"8\"}}.{{delay frames=\"20\"}}"
  },
  {
    "label": "012",
    "text": "{{anim id=\"1\"}}¡Me gusta mucho este estilo que\nhas creado! Cuando la peña\nme vea con esto, ¡va a fliparlo!\n{{anim id=\"21\"}}¡Sí! ¡Gracias por crearlo!{{delay frames=\"40\"}}\n{{anim id=\"5\"}}¡Ahora puedo ir por el pueblo \nenseñándoselo a todo el mundo!"
  },
  {
    "label": "013",
    "text": "¡Al parecer {{fun_00000011 arg=\"0x0000\"}} ha\ndiseñado esta ropa!{{pageBreak}}¡Sí que sabe! ¡¿Vas a dejar que\n{{fun_0008000E arg=\"0x00CD0400E9006C00080065006C006C0061000000\"}} mole más que tú, {{fun_00080005 arg=\"\"}}?!{{delay frames=\"40\"}}{{anim id=\"37\"}}"
  },
  {
    "label": "014",
    "text": "{{anim id=\"33\"}}¡Échale un vistazo a lo que llevo!{{pageBreak}}¡He oído que {{fun_00000011 arg=\"0x0000\"}} de\n{{fun_0003000E arg=\"\"}}{{fun_00020011 arg=\"0x0000\"}} diseñó esta ropa!{{pageBreak}}{{anim id=\"23\"}}¿Será alguien de renombre?{{fun_00010007 arg=\"\"}} {{anim id=\"35\"}}¡Porque\neste no es el trabajo que haría una\npersona corriente, {{delay frames=\"8\"}}{{fun_00070005 arg=\"\"}}!"
  },
  {
    "label": "015",
    "text": ""
  },
  {
    "label": "016",
    "text": ""
  },
  {
    "label": "017",
    "text": ""
  },
  {
    "label": "018",
    "text": ""
  },
  {
    "label": "019",
    "text": ""
  }
]