﻿[
  {
    "label": "001",
    "text": "Sí, he estado currándome los bíceps\ncomo un loco últimamente{{delay frames=\"8\"}}.{{delay frames=\"8\"}}.{{delay frames=\"8\"}}.{{delay frames=\"20\"}} {{anim id=\"4\"}}¡Quiero\nque los vean los de fuera del pueblo!\n{{anim id=\"1\"}}¡Deberías invitar a amigos de otros\npueblos para que vengan a ver las\nvistas, {{delay frames=\"8\"}}{{fun_00070005 arg=\"\"}}!\n{{anim id=\"2\"}}¡Ja, ja! Y cuando digo \"vistas\" me\nrefiero a mis músculos, ¡claro!{{delay frames=\"40\"}} {{anim id=\"6\"}}¡Voy\na sudar la camiseta por tus amigos!{{delay frames=\"40\"}}{{anim id=\"37\"}}"
  },
  {
    "label": "002",
    "text": "{{anim id=\"6\"}}¡Mira esto y flípalo!"
  },
  {
    "label": "003",
    "text": ""
  },
  {
    "label": "004",
    "text": "Oye, eres colega de {{fun_00000011 arg=\"0x0000\"}},\n{{anim id=\"23\"}}¿no?{{pageBreak}}{{anim id=\"1\"}}Tiene mucha chispa, ¡sobre\ntodo para lo de ser\n{{fun_00040011 arg=\"0x0000\"}}!{{pageBreak}}{{anim id=\"21\"}}Necesitamos más gente así de\ninteresante en este pueblo.{{fun_00010007 arg=\"\"}} {{anim id=\"3\"}}¡Seguro\nque se animaría todo, {{delay frames=\"8\"}}{{fun_00070005 arg=\"\"}}!"
  },
  {
    "label": "005",
    "text": "Oye, ¿{{fun_00000011 arg=\"0x0000\"}} {{anim id=\"23\"}}y tú sois colegas?{{pageBreak}}{{anim id=\"1\"}}Porque a mí me parece que\nes {{fun_0002000E arg=\"\"}}{{fun_00040011 arg=\"0x0000\"}},\n¿no crees?\n{{anim id=\"38\"}}¡Es lo bueno de {{fun_0003000E arg=\"\"}}{{fun_00050005 arg=\"\"}}!\n¡Hay gente de todo tipo!"
  },
  {
    "label": "006",
    "text": "{{anim id=\"23\"}}¿Hablas mucho con {{fun_00000011 arg=\"0x0000\"}}?{{fun_00010007 arg=\"\"}}\n{{anim id=\"9\"}}Yo no l{{fun_0012000E arg=\"0x0D0002006F00020061000000\"}} conozco mucho.{{pageBreak}}{{anim id=\"11\"}}Desde fuera me da la\nsensación de que es\n{{fun_00040011 arg=\"0x0000\"}}.\nTengo curiosidad por saber\nqué le interesará{{delay frames=\"8\"}}.{{delay frames=\"8\"}}.{{delay frames=\"8\"}}.{{pageBreak}}{{anim id=\"22\"}}{{fun_000B0007 arg=\"\"}}¡Pero es muy fácil, {{fun_00080005 arg=\"\"}}!{{delay frames=\"30\"}}\n{{anim id=\"2\"}}¡Solo tengo que ir y preguntarle!\nEs así de simple, {{delay frames=\"8\"}}{{fun_00070005 arg=\"\"}}.{{delay frames=\"40\"}}{{anim id=\"37\"}}"
  },
  {
    "label": "007",
    "text": "{{anim id=\"22\"}}{{fun_000B0007 arg=\"\"}}¡Oye! ¿Quieres ver algo brutal?"
  },
  {
    "label": "008",
    "text": "¡El otro día {{fun_00000011 arg=\"0x0000\"}} me dio\n{{fun_0002000E arg=\"\"}}{{fun_00030011 arg=\"0x0000\"}}!{{pageBreak}}{{anim id=\"11\"}}No estoy seguro de cómo sacarle\nprovecho en mi entrenamiento{{delay frames=\"8\"}}.{{delay frames=\"8\"}}.{{delay frames=\"8\"}}.\n{{anim id=\"38\"}}¡pero fue todo un detalle!\n{{anim id=\"39\"}}¿Debería darle las gracias\ninmediatamente? ¡Es que no estoy\nacostumbrado a esto, {{delay frames=\"8\"}}{{fun_00070005 arg=\"\"}}!"
  },
  {
    "label": "009",
    "text": "{{anim id=\"1\"}}Pues el otro día hablé con\n{{fun_00000011 arg=\"0x0000\"}}, de {{fun_0003000E arg=\"\"}}{{fun_00020011 arg=\"0x0000\"}}.{{pageBreak}}{{anim id=\"28\"}}Por lo que he visto, ¡es muy\n{{fun_00040011 arg=\"0x0000\"}}!{{pageBreak}}{{anim id=\"5\"}}La próxima vez que quedéis,\n¡avísame que me apunto!\n¡Podríamos levantar pesas juntos!"
  },
  {
    "label": "010",
    "text": "{{anim id=\"1\"}}¡Fíjate en esta carta que he\nrecibido! ¡Me la ha mandado\n{{fun_00000011 arg=\"0x0000\"}}, de {{fun_0003000E arg=\"\"}}{{fun_00020011 arg=\"0x0000\"}}!"
  },
  {
    "label": "011",
    "text": "{{anim id=\"43\"}}Cuando te veo la cara, siempre me\nrecuerda a {{fun_00000011 arg=\"0x0000\"}}, que solía\nvivir en {{fun_0003000E arg=\"\"}}{{fun_00020011 arg=\"0x0000\"}}.\n{{anim id=\"1\"}}Solíamos charlar siempre. Si no\nme falla la memoria, ¡era muy\n{{fun_00040011 arg=\"0x0000\"}}!{{pageBreak}}{{anim id=\"11\"}}¡Me preocupa que al no contar\nconmigo ya no siga entrenándose,\n{{delay frames=\"8\"}}{{fun_00070005 arg=\"\"}}!"
  },
  {
    "label": "012",
    "text": "¡{{fun_0003000E arg=\"\"}}{{fun_00000011 arg=\"0x0000\"}} se me apareció en\nun sueño anoche!{{pageBreak}}Sé que solía vivir en {{fun_0003000E arg=\"\"}}{{fun_00020011 arg=\"0x0000\"}},\npero la verdad, no me había\ndejado mucha huella{{delay frames=\"8\"}}.{{delay frames=\"8\"}}.{{delay frames=\"8\"}}.{{pageBreak}}{{anim id=\"0\"}}¡O eso creía! {{delay frames=\"20\"}}{{anim id=\"2\"}}Pero si sueño con\n{{fun_0012000E arg=\"0x0D000400E9006C00080065006C006C0061000000\"}}, ¡tal vez es que le debo pasta\no algo así y se me había olvidado!{{delay frames=\"40\"}}{{anim id=\"37\"}}"
  },
  {
    "label": "013",
    "text": "{{anim id=\"9\"}}Hum{{delay frames=\"8\"}}.{{delay frames=\"8\"}}.{{delay frames=\"8\"}}.{{delay frames=\"20\"}} ¿Pero cómo se llamaba?{{pageBreak}}Cuando vivía en {{fun_0003000E arg=\"\"}}{{fun_00020011 arg=\"0x0000\"}},\nhabía alguien que se te parecía\nun poquito{{delay frames=\"8\"}}.{{delay frames=\"8\"}}.{{delay frames=\"8\"}}.{{pageBreak}}{{anim id=\"16\"}}{{fun_000B0007 arg=\"\"}}¡Ah! ¡Es verdad! ¡Era {{fun_00000011 arg=\"0x0000\"}}!{{delay frames=\"40\"}}{{pageBreak}}{{anim id=\"3\"}}¡Menos mal que lo he recordado!\n{{anim id=\"11\"}}Pero oye, nunca llegué a conocer{{fun_0012000E arg=\"0x0D0004006C006F0004006C0061000000\"}}\nbien. Y luego me mudé.{{pageBreak}}{{anim id=\"1\"}}Si alguna vez me l{{fun_0012000E arg=\"0x0D0002006F00020061000000\"}} vuelvo a\nencontrar, ¡quiero hablar con {{fun_0012000E arg=\"0x0D000400E9006C00080065006C006C0061000000\"}}\npero a fondo, {{delay frames=\"8\"}}{{fun_00070005 arg=\"\"}}!"
  },
  {
    "label": "014",
    "text": "Tendría que ponerte mi música de\ncombate para los entrenamientos.{{fun_00010007 arg=\"\"}}\n{{anim id=\"33\"}}¡Me motiva a tope para sudar!{{delay frames=\"60\"}}{{fun_0003000D arg=\"0x00CD\"}}"
  },
  {
    "label": "015",
    "text": "{{anim id=\"23\"}}¿Todavía la recuerdas?{{delay frames=\"40\"}}\n{{anim id=\"35\"}}Me refiero a la primera carta\nque me mandaste.\n{{anim id=\"2\"}}¡Ja, ja! ¡Pues la guardo\ncomo oro en paño!{{pageBreak}}Ahora ya no te la voy a devolver,\n¡aunque te dé vergüenza!{{delay frames=\"40\"}}{{anim id=\"37\"}} ¡Hay que\nvivir sin complejos, campe{{fun_0006000E arg=\"0x0400F3006E0006006F006E006100\"}}!"
  },
  {
    "label": "016",
    "text": "{{anim id=\"23\"}}¿Qué te parece? Un papel\nde lo más guay, ¿eh?{{pageBreak}}{{anim id=\"6\"}}Vale, lo que importa es el contenido,\nno el continente,{{delay frames=\"20\"}} {{anim id=\"1\"}}¡pero mira qué\npasada de papel! ¡Es la caña!\n{{anim id=\"5\"}}¡Me mola tanto que se lo voy\na enseñar a todo el mundo,{{delay frames=\"8\"}}\n{{fun_00070005 arg=\"\"}}!"
  },
  {
    "label": "017",
    "text": "{{anim id=\"23\"}}Oye, me avisarás si encuentras\nalgún mensaje cifrado o algo así,\n¿no? ¡Que nunca se sabe!"
  },
  {
    "label": "018",
    "text": "¡Esta es la canción de {{fun_0003000E arg=\"\"}}{{fun_00020011 arg=\"0x0000\"}},\nel pueblo en el que vivía!{{delay frames=\"40\"}}\n{{anim id=\"5\"}}¡Es muy famosa!"
  }
]