﻿[
  {
    "label": "001",
    "text": "{{anim id=\"37\"}}¡Me están dando ganas de\nver la {{color id=\"2\"}}cápsula del tiempo{{color id=\"65535\"}}\nque me enterraste!\n{{anim id=\"1\"}}¡A ver si te enrollas, {{fun_00080005 arg=\"\"}}!\n¿Puedes desenterrarla y\ntraérmela de vuelta?"
  },
  {
    "label": "002",
    "text": "{{anim id=\"11\"}}¡Estaba pensando que ya es hora\nde abrir la {{color id=\"2\"}}cápsula del tiempo{{color id=\"65535\"}}\nque me enterraste!\n{{anim id=\"1\"}}¿Podrías enrollarte y\ndesenterrármela, {{fun_00080005 arg=\"\"}}?"
  },
  {
    "label": "003",
    "text": "{{anim id=\"1\"}}Por cierto, {{fun_00080005 arg=\"\"}}{{delay frames=\"8\"}}.{{delay frames=\"8\"}}.{{delay frames=\"8\"}}.{{delay frames=\"20\"}} ¿Te\nacuerdas de la {{color id=\"2\"}}cápsula del tiempo{{color id=\"65535\"}}?\n¡Pues la desenterré yo mismo! \n{{anim id=\"11\"}}Quizá hubiera estado bien que\nla abriésemos juntos, pero{{delay frames=\"8\"}}.{{delay frames=\"8\"}}.{{delay frames=\"8\"}}.{{pageBreak}}{{anim id=\"26\"}}¡Ja, ja!{{delay frames=\"20\"}} ¡Es que no pude aguantarme\nlas ganas,{{delay frames=\"8\"}} {{fun_00070005 arg=\"\"}}!"
  },
  {
    "label": "004",
    "text": "Sobre esa {{color id=\"2\"}}cápsula del tiempo{{color id=\"65535\"}}{{delay frames=\"8\"}}.{{delay frames=\"8\"}}.{{delay frames=\"8\"}}.{{delay frames=\"20\"}}\nResulta que la he desenterrado\nsin ti.{{delay frames=\"40\"}} ¡Perdona!\n{{anim id=\"1\"}}Pues nada... Oye, ¡al menos ya\nno tienes que preocuparte por\nrecordar dónde estaba enterrada!"
  }
]