﻿[
  {
    "label": "001",
    "text": "{{anim id=\"15\"}}¡Oh, {{delay frames=\"8\"}}{{fun_00080005 arg=\"\"}}!{{delay frames=\"20\"}}{{anim id=\"33\"}} No te alarmes,\n¡pero ahora estoy usando el\ncerebro, y es algo muy serio!{{pageBreak}}{{anim id=\"0\"}}Tú si eso haz unas flexiones o lo\nque sea mientras esperas a que\ntermine de pensar, {{delay frames=\"8\"}}{{fun_00070005 arg=\"\"}}."
  },
  {
    "label": "002",
    "text": "Ah{{delay frames=\"8\"}}.{{delay frames=\"8\"}}.{{delay frames=\"8\"}}.{{delay frames=\"20\"}}{{anim id=\"23\"}} ¿Realmente te sorprende\ntanto{{delay frames=\"40\"}} verme usando la cabeza?{{fun_00050008 arg=\"0x0500150006002800\"}}\n¡Sí!\n¡No!"
  },
  {
    "label": "003",
    "text": "{{anim id=\"11\"}}Le sumo esto, luego le resto\nlo otro{{delay frames=\"8\"}}.{{delay frames=\"8\"}}.{{delay frames=\"8\"}}.{{delay frames=\"20\"}}\n{{anim id=\"15\"}}¡¿Eh?! ¡¿Qué?! ¡{{fun_0003000E arg=\"\"}}{{fun_00080005 arg=\"\"}}!{{pageBreak}}{{anim id=\"13\"}}¡Oyeeee! ¡Eso no se hace! ¡Me\nhas hecho perder el hilo del todo!"
  },
  {
    "label": "004",
    "text": ""
  },
  {
    "label": "005",
    "text": "{{anim id=\"8\"}}¡Qué maleducad{{fun_0006000E arg=\"0x02006F0002006100\"}} eres,{{delay frames=\"8\"}} {{fun_00080005 arg=\"\"}}!{{delay frames=\"20\"}}\n¡Déjame en paz ya, anda!"
  },
  {
    "label": "006",
    "text": "{{anim id=\"21\"}}¡Pues sí, pues sí!{{delay frames=\"40\"}}{{anim id=\"38\"}} Quizá no lo sepas,\npero soy el tipo de tío al que le\ngusta mucho pensar,{{delay frames=\"8\"}} {{fun_00070005 arg=\"\"}}."
  }
]