﻿[
  {
    "label": "001",
    "text": "{{anim id=\"9\"}}¡Qué ganas tengo de\nhacer ejercicio!{{pageBreak}}{{anim id=\"27\"}}Pero si no limpio la casa antes,{{delay frames=\"20\"}}\nno es plan ponerme a sudar{{delay frames=\"8\"}}.{{delay frames=\"8\"}}.{{delay frames=\"8\"}}.{{pageBreak}}{{anim id=\"38\"}}¡¿Y si convierto lo de limpiar en\nuna sesión de ejercicio?!{{delay frames=\"20\"}} Oye,\nvente luego cuando acabe, ¿vale?"
  },
  {
    "label": "002",
    "text": "{{anim id=\"1\"}}¡Cuánto pesan mis cajas!{{delay frames=\"40\"}} Uf,\nclaro, como la mitad están llenas\nde mancuernas{{delay frames=\"8\"}}.{{delay frames=\"8\"}}.{{delay frames=\"8\"}}.{{delay frames=\"20\"}}\n{{anim id=\"2\"}}¡Pero es que sin ellas no voy\na ninguna parte!{{delay frames=\"40\"}}{{anim id=\"37\"}}"
  },
  {
    "label": "003",
    "text": "{{i10_7 arg=\"0x050005000500050006000600\"}}"
  },
  {
    "label": "004",
    "text": ""
  },
  {
    "label": "005",
    "text": "{{anim id=\"10\"}}Parece que me voy a pasar todo\nel día limpiando.{{fun_00010007 arg=\"\"}} {{anim id=\"1\"}}¿Y si quedamos\nmañana, {{delay frames=\"8\"}}{{fun_00070005 arg=\"\"}}?"
  },
  {
    "label": "006",
    "text": "{{anim id=\"9\"}}Vaya, ¡llevo todo el día limpiando!{{delay frames=\"20\"}}\n¡Y me queda muchísimo que hacer!{{pageBreak}}{{anim id=\"12\"}}¡A lo mejor mañana por la mañana\nesto ya está, {{delay frames=\"20\"}}{{fun_00070005 arg=\"\"}}!"
  }
]