﻿[
  {
    "label": "001",
    "text": "{{anim id=\"23\"}}¿Tienes un momento, {{delay frames=\"8\"}}{{fun_00080005 arg=\"\"}}?{{pageBreak}}{{anim id=\"0\"}}Al parecer, algunos vecinos se\nsienten un poco {{delay frames=\"8\"}}{{anim id=\"36\"}}intimidados por mí.\nYo creo que son unos exagerados.\n{{anim id=\"11\"}}El caso es que{{delay frames=\"8\"}}.{{delay frames=\"8\"}}.{{delay frames=\"8\"}}.{{delay frames=\"40\"}}{{anim id=\"0\"}} querría maquillar\nun poco mi imagen.{{delay frames=\"4\"}} Tampoco quiero\nser el borde del pueblo.\n{{anim id=\"1\"}}¿Crees que podrías ayudarme a\nelegir un saludo así amistoso y tal?{{fun_00050008 arg=\"0x0400150003002800\"}}\n¡Claro!\nMejor no"
  },
  {
    "label": "002",
    "text": "{{anim id=\"0\"}}Oye, {{delay frames=\"8\"}}{{fun_00080005 arg=\"\"}}.{{pageBreak}}{{anim id=\"27\"}}Sé que no hemos hablado antes del\ntema,{{delay frames=\"4\"}} pero estaba{{anim id=\"11\"}} pensando en\ndarle un giro radical a mi imagen.\n{{anim id=\"0\"}}El caso es que{{delay frames=\"8\"}}.{{delay frames=\"8\"}}.{{delay frames=\"8\"}}.{{anim id=\"1\"}} me hace falta tu\nayuda.{{fun_00010007 arg=\"\"}} ¿Se te ocurre algún saludo\ningenioso que yo pueda usar?{{fun_00050008 arg=\"0x0400150003002800\"}}\nPodría ser\nMe pillas en blanco"
  },
  {
    "label": "003",
    "text": "{{anim id=\"41\"}}Oh,{{delay frames=\"10\"}} vale, te entiendo.{{delay frames=\"8\"}}{{pageBreak}}{{anim id=\"21\"}}Es decir, {{delay frames=\"8\"}}¿a quién voy a engañar,\n{{anim id=\"21\"}}eh, {{delay frames=\"10\"}}{{fun_00070005 arg=\"\"}}?{{pageBreak}}{{anim id=\"1\"}}Yo soy yo.{{delay frames=\"15\"}} {{anim id=\"32\"}}¡Y al que no le guste, que\nno mire! {{anim id=\"1\"}}¡Gracias por la consulta\npsicológica gratuita, {{delay frames=\"10\"}}{{fun_00080005 arg=\"\"}}!"
  },
  {
    "label": "004",
    "text": "{{anim id=\"16\"}}¡Así se habla,{{delay frames=\"10\"}} {{anim id=\"1\"}}{{fun_00080005 arg=\"\"}}!{{delay frames=\"8\"}}\n¡Vamos al lío!"
  },
  {
    "label": "005",
    "text": "{{anim id=\"0\"}}¿\"{{fun_0003000E arg=\"\"}}{{fun_00060007 arg=\"\"}}{{fun_00070007 arg=\"\"}}\"?{{delay frames=\"8\"}}.{{delay frames=\"8\"}}.{{delay frames=\"8\"}}.{{fun_00010007 arg=\"\"}}\n{{anim id=\"1\"}}¡{{fun_0003000E arg=\"\"}}{{fun_00060007 arg=\"\"}}{{fun_00070007 arg=\"\"}}!{{fun_00010007 arg=\"\"}}\n{{anim id=\"23\"}}¿Qué tal suena?{{fun_0008000D arg=\"0x02CD\"}}{{fun_00050008 arg=\"0x0700150006002800\"}}\nAsí se habla\n¡No, hombre, no!"
  },
  {
    "label": "006",
    "text": "{{anim id=\"15\"}}Oh.{{delay frames=\"4\"}} ¿No lo he entendido bien?{{fun_00010007 arg=\"\"}}\n{{anim id=\"1\"}}Anda, repítemelo, que soy un poco\nduro de oído, {{delay frames=\"10\"}}{{fun_00070005 arg=\"\"}}."
  },
  {
    "label": "007",
    "text": "{{fun_00020009 arg=\"0x080009000A000B00\"}}"
  },
  {
    "label": "008",
    "text": "{{anim id=\"21\"}}Entonces{{delay frames=\"8\"}}.{{delay frames=\"8\"}}.{{anim id=\"21\"}}{{delay frames=\"8\"}}.{{delay frames=\"20\"}}\n{{anim id=\"32\"}}¡{{fun_0003000E arg=\"\"}}{{fun_00060007 arg=\"\"}}{{fun_00070007 arg=\"\"}}!{{fun_00010007 arg=\"\"}}\n{{anim id=\"38\"}}Sí,{{delay frames=\"8\"}} creo que me pega.\n{{anim id=\"1\"}}A partir de ahora, saludaré así.{{fun_00010007 arg=\"\"}}\nTe debo una, {{delay frames=\"10\"}}{{fun_00080005 arg=\"\"}}."
  },
  {
    "label": "009",
    "text": "A ver...{{delay frames=\"8\"}} ¡{{fun_0003000E arg=\"\"}}{{fun_00060007 arg=\"\"}}{{fun_00070007 arg=\"\"}}!{{fun_00010007 arg=\"\"}}\n{{anim id=\"36\"}}Ja, ja, {{delay frames=\"8\"}}suena raro,{{delay frames=\"8\"}} ¡pero creo\nque me acostumbraré!{{pageBreak}}{{anim id=\"1\"}}¡Gracias, {{delay frames=\"10\"}}{{fun_00080005 arg=\"\"}}!"
  },
  {
    "label": "010",
    "text": "{{anim id=\"35\"}}{{delay frames=\"15\"}}¡{{fun_0003000E arg=\"\"}}{{fun_00060007 arg=\"\"}}{{fun_00070007 arg=\"\"}}!{{fun_00010007 arg=\"\"}}\n{{anim id=\"16\"}}¡Tiene fuerza!{{delay frames=\"20\"}}{{anim id=\"40\"}} Es una pena que no\nse me ocurriera antes.{{anim id=\"37\"}}\n{{anim id=\"1\"}}Menos mal que puedo confiar en ti.{{delay frames=\"15\"}}\nGracias, {{delay frames=\"10\"}}{{fun_00070005 arg=\"\"}}."
  },
  {
    "label": "011",
    "text": "{{anim id=\"33\"}}¡{{fun_0003000E arg=\"\"}}{{fun_00060007 arg=\"\"}}{{fun_00070007 arg=\"\"}}!{{fun_00010007 arg=\"\"}}\n{{anim id=\"21\"}}¿Qué,{{delay frames=\"8\"}} cómo lo ves?{{pageBreak}}{{anim id=\"35\"}}Para mí es...{{anim id=\"1\"}}{{delay frames=\"8\"}} borrón y cuenta nueva.{{fun_00010007 arg=\"\"}}\n{{anim id=\"38\"}}¡Acaba de nacer un nuevo\n{{fun_00010005 arg=\"\"}}!{{anim id=\"1\"}} Gracias, {{delay frames=\"10\"}}{{fun_00080005 arg=\"\"}}."
  }
]