﻿[
  {
    "label": "001",
    "text": "{{anim id=\"43\"}}Cómo pasa el tiempo...\nLos cerezos han vuelto a florecer...{{pageBreak}}Las estaciones vienen{{delay frames=\"20\"}}\ny luego se van.{{pageBreak}}{{anim id=\"37\"}}Yo también estoy pensando en irme,{{delay frames=\"8\"}}\n¿sabes, {{fun_00080005 arg=\"\"}}?{{pageBreak}}Ya sabes,{{delay frames=\"8\"}} pasar página y comenzar\nuna nueva vida lejos de {{fun_0003000E arg=\"\"}}{{fun_00060005 arg=\"\"}}.{{pageBreak}}{{anim id=\"32\"}}Buscar pastos más verdes,{{delay frames=\"8\"}}\ncielos más azules{{delay frames=\"8\"}} y todas\nesas tonterías.\n{{anim id=\"1\"}}Si me decido,{{delay frames=\"8\"}} creo que me mudaré\nel día {{fun_000F0004 arg=\"0x00CD\"}} de este mes.{{fun_00000008 arg=\"0x0B0028000F001500\"}}\n¡No te vayas!\nQue tengas buen viaje"
  },
  {
    "label": "002",
    "text": "El otoño nos tiene ya hasta el cuello\nde hojas secas{{delay frames=\"8\"}}.{{delay frames=\"8\"}}.{{delay frames=\"8\"}}.{{pageBreak}}No es propio de mí,{{delay frames=\"15\"}} pero en esta\népoca del año me pongo siempre\nmuy sentimental.\n{{anim id=\"43\"}}Si la vida es un viaje,{{delay frames=\"10\"}} {{fun_0003000E arg=\"\"}}{{fun_00060005 arg=\"\"}}\nno es más{{delay frames=\"8\"}} que una parada\nen el trayecto{{delay frames=\"8\"}}.{{delay frames=\"8\"}}.{{delay frames=\"8\"}}.\n{{anim id=\"21\"}}Creo que es hora de seguir camino\nhacia algún otro pueblo,{{delay frames=\"8\"}}\nhacia nuevas aventuras{{delay frames=\"8\"}}.{{delay frames=\"8\"}}.{{delay frames=\"8\"}}.\n{{anim id=\"21\"}}He decidido que me mudo el día {{fun_000F0004 arg=\"0x00CD\"}}\nde este mes.{{fun_00000008 arg=\"0x0B0028000F001500\"}}\n¡No, quédate!\n¿Tienes ya el billete?"
  },
  {
    "label": "003",
    "text": "{{anim id=\"37\"}}Es increíble lo rápido que se pasa\nel año.{{fun_00010007 arg=\"\"}}{{anim id=\"21\"}} Sobre todo diciembre{{delay frames=\"8\"}}\npasa siempre en un pispás.\n{{anim id=\"9\"}}Me preocupa pensar que pueda\nestar perdiendo el tiempo,{{delay frames=\"8\"}} ¿sabes?{{pageBreak}}¡Quizá sea el momento {{anim id=\"32\"}}de mudarme\ny empezar una nueva vida!{{pageBreak}}{{anim id=\"1\"}}El {{fun_000F0004 arg=\"0x00CD\"}} de este mes puede ser un\nbuen día para cambiar de aires{{delay frames=\"8\"}}.{{delay frames=\"8\"}}.{{delay frames=\"8\"}}.{{delay frames=\"15\"}}\nSí,{{delay frames=\"8\"}} sí,{{delay frames=\"8\"}} ¡decidido!{{fun_00000008 arg=\"0x0B0028000F001500\"}}\n¡No puedes irte!\nMe gusta el plan"
  },
  {
    "label": "004",
    "text": "{{anim id=\"37\"}}Oye,{{delay frames=\"4\"}} {{fun_00080005 arg=\"\"}},{{delay frames=\"15\"}} te quería\ncomentar una cosa que he\nestado pensando últimamente.{{pageBreak}}{{anim id=\"21\"}}Creo que mi estancia aquí,{{delay frames=\"4\"}}\nen {{fun_0003000E arg=\"\"}}{{fun_00060005 arg=\"\"}},{{delay frames=\"4\"}} ya llega a su fin,{{delay frames=\"4\"}}\n¿sabes?{{delay frames=\"15\"}} {{anim id=\"1\"}}¡Quiero ver mundo!{{pageBreak}}Me voy a marchar el {{fun_000F0004 arg=\"0x00CD\"}} de este\nmes, pero quería decírtelo antes.{{fun_00000008 arg=\"0x0B0028000F001500\"}}\n¡Mejor quédate!\nPues vale, ¡adiós!"
  },
  {
    "label": "005",
    "text": "Eh,{{delay frames=\"4\"}} {{fun_00080005 arg=\"\"}},{{delay frames=\"10\"}} ¿tienes un minuto?{{pageBreak}}{{anim id=\"9\"}}He estado pensando{{delay frames=\"20\"}} y la verdad es\nque creo que ha llegado el momento\nde que me marche de {{fun_0003000E arg=\"\"}}{{fun_00060005 arg=\"\"}}.{{pageBreak}}{{anim id=\"40\"}}No es que no me lo pase bien aquí\nni nada de eso.{{delay frames=\"20\"}} {{anim id=\"1\"}}¡Esto está muy bien!{{pageBreak}}{{anim id=\"43\"}}Precisamente por eso creo que\nnecesito romper esta tranquilidad{{delay frames=\"5\"}}.{{delay frames=\"5\"}}.{{delay frames=\"5\"}}.{{delay frames=\"5\"}}\n{{anim id=\"7\"}}¡y salir a enfrentarme al mundo!{{pageBreak}}{{anim id=\"32\"}}Ya lo tengo todo organizado.{{fun_00010007 arg=\"\"}} {{anim id=\"1\"}}El {{fun_000F0004 arg=\"0x00CD\"}}\nde este mes{{delay frames=\"8\"}}.{{delay frames=\"8\"}}.{{delay frames=\"8\"}}.{{delay frames=\"15\"}} {{fun_000A0007 arg=\"\"}}¡adiós muy buenas!{{fun_00000008 arg=\"0x0B0028000F001500\"}}\n¡¿Qué haremos sin ti?!\nYa si eso escribes..."
  },
  {
    "label": "006",
    "text": "{{anim id=\"1\"}}Los cerezos ya florecen de nuevo.{{pageBreak}}{{anim id=\"43\"}}La vida empieza{{delay frames=\"4\"}}.{{delay frames=\"4\"}}.{{delay frames=\"4\"}}.{{delay frames=\"4\"}} y acaba{{delay frames=\"4\"}}.{{delay frames=\"4\"}}.{{delay frames=\"4\"}}.{{delay frames=\"4\"}}\ny empieza{{delay frames=\"4\"}}.{{delay frames=\"4\"}}.{{delay frames=\"4\"}}.{{delay frames=\"4\"}} en un ciclo sin fin,{{delay frames=\"8\"}}\ncomo dicen las canciones.{{pageBreak}}{{anim id=\"1\"}}Estoy pensando en levar el ancla\ny partir hacia otros mares,\n{{fun_00080005 arg=\"\"}}.{{pageBreak}}Dejar {{fun_0003000E arg=\"\"}}{{fun_00060005 arg=\"\"}} y buscar nuevas\ntierras donde echar raíces.{{fun_00010007 arg=\"\"}}\nO al menos plantar unos esquejes.\nPor ejemplo, el día {{fun_000F0004 arg=\"0x00CD\"}} del mes\nque viene sería una fecha ideal\npara mudarme.{{fun_00000008 arg=\"0x0B0028000F001500\"}}\nNada será igual sin ti\nQue te vaya bonito"
  },
  {
    "label": "007",
    "text": "Mira qué colores.{{fun_00010007 arg=\"\"}}{{anim id=\"1\"}} Limpiar las hojas\nsecas da mucho trabajo, pero el\notoño también es una época bonica.\n{{anim id=\"0\"}}Ya ves,{{delay frames=\"8\"}} hasta un cascarrabias como\nyo se puede poner sentimental\nde vez en cuando.{{pageBreak}}{{anim id=\"43\"}}Me da por pensar que la vida es\nun paseo{{delay frames=\"8\"}}.{{delay frames=\"8\"}}.{{delay frames=\"8\"}}.{{delay frames=\"20\"}} y {{fun_0003000E arg=\"\"}}{{fun_00060005 arg=\"\"}},{{delay frames=\"8\"}} un banco\ndonde me he sentado a descansar.\n{{anim id=\"21\"}}¡Pues ya es hora de seguir\ncaminando!{{pageBreak}}El día {{fun_000F0004 arg=\"0x00CD\"}} del mes que viene\nme mudo a otro pueblo.{{fun_00000008 arg=\"0x0B0028000F001500\"}}\n¡¿Cómo te vas a ir?!\nHala, buen viaje..."
  },
  {
    "label": "008",
    "text": "{{anim id=\"37\"}}Cómo pasan los años{{delay frames=\"8\"}}.{{delay frames=\"8\"}}.{{delay frames=\"8\"}}.{{delay frames=\"8\"}} ¡Fiu, fiu!\n¿Y diciembre?{{delay frames=\"20\"}} ¡Fiuuu{{delay frames=\"8\"}}.{{delay frames=\"8\"}}.{{delay frames=\"8\"}}.{{delay frames=\"8\"}} u{{delay frames=\"8\"}}u{{delay frames=\"8\"}}u{{delay frames=\"8\"}}!{{fun_00010007 arg=\"\"}}\n{{anim id=\"21\"}}Y todos corriendo de un lado a otro.{{pageBreak}}{{anim id=\"9\"}}Yo me angustio solo de pensar{{delay frames=\"8\"}}\nque el tiempo corre y yo me\nquedo sentado sin aprovecharlo.{{pageBreak}}Pero ya sé lo que voy a hacer.{{delay frames=\"8\"}}\n{{anim id=\"32\"}}¡Me mudaré a otro pueblo\ny le daré un giro a mi vida!{{pageBreak}}{{anim id=\"1\"}}El día {{fun_000F0004 arg=\"0x00CD\"}} del mes que viene es un\ndía tan bueno como cualquier otro\npara cerrar la puerta a mi espalda.{{fun_00000008 arg=\"0x0B0028000F001500\"}}\nNo, ¡quédate aquí!\nSi lo tienes tan claro..."
  },
  {
    "label": "009",
    "text": "{{anim id=\"37\"}}Oye,{{delay frames=\"4\"}} {{fun_00080005 arg=\"\"}},{{delay frames=\"8\"}} te tengo que decir\nuna cosa.{{pageBreak}}{{anim id=\"21\"}}Creo que ya he vivido suficiente\ntiempo en {{fun_0003000E arg=\"\"}}{{fun_00060005 arg=\"\"}}.{{pageBreak}}{{anim id=\"1\"}}¡Me apetece comenzar una nueva\netapa de mi vida!{{pageBreak}}Cuando llegue el {{fun_000F0004 arg=\"0x00CD\"}} del mes que\nviene, cojo el tren{{delay frames=\"4\"}}.{{delay frames=\"4\"}}.{{delay frames=\"4\"}}.{{delay frames=\"4\"}} ¡y a correr!{{fun_00000008 arg=\"0x0B0028000F001500\"}}\nPero, pero... ¡pero no!\n¡Hasta la vista!"
  },
  {
    "label": "010",
    "text": "{{fun_0003000E arg=\"\"}}{{fun_00080005 arg=\"\"}},{{delay frames=\"15\"}} ¿tienes un momento?{{pageBreak}}{{anim id=\"9\"}}¡Me estaba acordando de cuando\ntodo esto era campo!{{delay frames=\"30\"}} Cuánto ha\ncambiado {{fun_0003000E arg=\"\"}}{{fun_00060005 arg=\"\"}}, ¿verdad?\n{{anim id=\"40\"}}Y no es que ya no me guste.{{fun_00010007 arg=\"\"}}\n{{anim id=\"1\"}}¡Aquí lo he pasado muy bien!{{pageBreak}}{{anim id=\"43\"}}Pero,{{delay frames=\"8\"}} si no quiero estancarme,{{delay frames=\"8\"}}\nnecesito conocer otros lugares\ny verlos evolucionar también.\n{{anim id=\"32\"}}Ya he elegido la fecha y todo.{{fun_00010007 arg=\"\"}}\n{{anim id=\"1\"}}El día {{fun_000F0004 arg=\"0x00CD\"}} del mes que viene{{delay frames=\"8\"}}.{{delay frames=\"8\"}}.{{delay frames=\"8\"}}.{{delay frames=\"8\"}}\n¡puerta!{{fun_00000008 arg=\"0x0B0028000F001500\"}}\nNo, ¡puerta no!\nApaga la luz al salir"
  },
  {
    "label": "011",
    "text": "{{fun_00010009 arg=\"0x0C000D000E00\"}}"
  },
  {
    "label": "012",
    "text": "{{anim id=\"15\"}}Anda,{{delay frames=\"15\"}} ¿no quieres que me vaya?{{pageBreak}}{{anim id=\"9\"}}¡Pues ya me haces dudar!{{pageBreak}}{{anim id=\"11\"}}Sí.{{delay frames=\"8\"}}.{{delay frames=\"8\"}}.{{delay frames=\"20\"}}{{anim id=\"1\"}} Supongo que también podría\nquedarme, {{fun_00080005 arg=\"\"}}.{{pageBreak}}{{anim id=\"36\"}}¡Así podré seguir dando la lata\na los vecinos de {{fun_0003000E arg=\"\"}}{{fun_00050005 arg=\"\"}}\nun poquito más!"
  },
  {
    "label": "013",
    "text": "{{anim id=\"9\"}}¿No quieres que me vaya,{{delay frames=\"8\"}}\n{{fun_00080005 arg=\"\"}}?{{delay frames=\"30\"}} {{anim id=\"11\"}}Pues si me lo\npides tú,{{delay frames=\"8\"}} igual me lo pienso{{delay frames=\"8\"}}.{{delay frames=\"8\"}}.{{delay frames=\"8\"}}.\n{{anim id=\"38\"}}Venga,{{delay frames=\"12\"}} {{anim id=\"1\"}}¡aparcaré el plan por ahora!{{delay frames=\"30\"}}\nTe va a tocar aguantarme una\ntemporadica más.{{delay frames=\"20\"}} ¡{{fun_0003000E arg=\"\"}}{{fun_00070005 arg=\"\"}}!"
  },
  {
    "label": "014",
    "text": "{{anim id=\"16\"}}¿Qué?{{delay frames=\"8\"}} ¿Vas a intentar detenerme?{{fun_00010007 arg=\"\"}}\n{{anim id=\"26\"}}Porque igual lo consigues{{delay frames=\"8\"}}.{{delay frames=\"8\"}}.{{delay frames=\"8\"}}.{{pageBreak}}{{anim id=\"32\"}}Vaaale.{{delay frames=\"20\"}} Retiro lo dicho,\n¡no me mudo!{{pageBreak}}{{anim id=\"1\"}}En {{fun_0003000E arg=\"\"}}{{fun_00050005 arg=\"\"}} se vive bien,\n¿para qué complicarme?"
  },
  {
    "label": "015",
    "text": "{{fun_00060009 arg=\"0x10001500150015001500150015001500\"}}"
  },
  {
    "label": "016",
    "text": "{{fun_0000000A arg=\"0x0111001200CD\"}}"
  },
  {
    "label": "017",
    "text": "{{fun_0000000A arg=\"0x0514001300CD\"}}"
  },
  {
    "label": "018",
    "text": "{{anim id=\"32\"}}¡Eso!{{fun_00010007 arg=\"\"}}\nAunque{{delay frames=\"8\"}}.{{delay frames=\"8\"}}.{{delay frames=\"8\"}}.\n{{anim id=\"11\"}}Ahora que lo pienso{{delay frames=\"8\"}}.{{delay frames=\"8\"}}.{{delay frames=\"8\"}}.\n{{anim id=\"15\"}}¡Apenas te conozco!{{delay frames=\"30\"}} Me quedan\ntantas cosas por hacer aquí{{delay frames=\"8\"}}.{{delay frames=\"8\"}}.{{delay frames=\"8\"}}.\n{{anim id=\"15\"}}¡A mi edad!\n{{anim id=\"38\"}}Pues no se hable más,{{delay frames=\"15\"}}{{anim id=\"1\"}} me quedo.{{delay frames=\"20\"}}\n¡Espero no haberte preocupado!{{pageBreak}}De aquí no me mueve nadie hasta\nque tú y yo seamos viejos amigos,{{delay frames=\"8\"}}\npor lo menos. {{anim id=\"2\"}}¡Ja, ja, ja!{{delay frames=\"30\"}}{{anim id=\"1\"}}"
  },
  {
    "label": "019",
    "text": "{{anim id=\"16\"}}¡¿Cómo?!{{delay frames=\"30\"}} {{anim id=\"6\"}}¿Te estás cachondeando\nde mí?{{pageBreak}}{{anim id=\"28\"}}No estarás deseando perderme\nde vista, ¿verdad?{{pageBreak}}Anda, que tienes una guasa{{delay frames=\"8\"}}.{{delay frames=\"8\"}}.{{delay frames=\"8\"}}.{{delay frames=\"8\"}}\nSi es que en el fondo me lo paso\nbien aquí{{anim id=\"11\"}}{{delay frames=\"8\"}}.{{delay frames=\"8\"}}.{{delay frames=\"8\"}}.{{delay frames=\"8\"}}{{pageBreak}}{{anim id=\"1\"}}¡Pues he cambiado de idea!{{delay frames=\"20\"}}\nMe quedo.{{delay frames=\"20\"}} Porque si me voy,{{delay frames=\"8\"}}\n¿quién te va a aguantar a ti?{{delay frames=\"20\"}} {{anim id=\"2\"}}¡Ja, ja!{{delay frames=\"30\"}}{{anim id=\"1\"}}"
  },
  {
    "label": "020",
    "text": "¿Eh{{delay frames=\"8\"}}.{{delay frames=\"8\"}}.{{delay frames=\"8\"}}.{{delay frames=\"8\"}}?{{delay frames=\"20\"}}\n{{anim id=\"6\"}}¡Pero bueno, {{fun_00080005 arg=\"\"}}!{{pageBreak}}{{anim id=\"0\"}}Te estás tomando esto mejor\nde lo que esperaba.{{delay frames=\"20\"}} {{anim id=\"6\"}}¿No vas a\nintentar detenerme?\n{{anim id=\"11\"}}Y yo que pensaba que eras mi mejor\namig{{fun_0006000E arg=\"0x02006F0002006100\"}}{{delay frames=\"8\"}}.{{delay frames=\"8\"}}.{{delay frames=\"8\"}}.{{delay frames=\"8\"}} o algo.{{pageBreak}}{{anim id=\"40\"}}Supongo que todavía nos\nqueda trecho por andar.{{fun_00010007 arg=\"\"}}\n¡Así que{{anim id=\"32\"}} no me mudo!{{pageBreak}}{{anim id=\"1\"}}Voy a esforzarme para labrar una\nprofunda amistad contigo,{{delay frames=\"8\"}} aunque\nme lleve toda la vida.\n¡Prepárate!{{delay frames=\"20\"}}\n{{anim id=\"2\"}}¡Ja, ja, ja!{{delay frames=\"30\"}}{{anim id=\"1\"}}"
  },
  {
    "label": "021",
    "text": "{{anim id=\"32\"}}¡Sí!{{delay frames=\"30\"}} {{anim id=\"1\"}}No sé qué tal me irá,\n¡pero gracias por los ánimos!{{pageBreak}}Aunque me mude, espero que\nsigamos llevándonos bien.{{delay frames=\"20\"}}\n¡{{fun_0003000E arg=\"\"}}{{fun_00070005 arg=\"\"}}!"
  }
]