﻿[
  {
    "label": "001",
    "text": "Nunca me canso de ir de tiendas\npor las galerías comerciales.{{delay frames=\"8\"}}\nDa igual cuántas veces venga."
  },
  {
    "label": "002",
    "text": "Da igual que tengan un montón\nde productos.{{delay frames=\"8\"}} {{anim id=\"9\"}}Si no tienen lo que\nbuscas, {{delay frames=\"15\"}}{{anim id=\"0\"}}no te sirven de nada."
  },
  {
    "label": "003",
    "text": "{{anim id=\"37\"}}Hoy he venido por echar el rato.\n{{delay frames=\"8\"}}No es que me haga falta nada."
  },
  {
    "label": "004",
    "text": "{{anim id=\"1\"}}Si además sirvieran comida,{{delay frames=\"15\"}}\npodría quedarme a vivir aquí."
  },
  {
    "label": "005",
    "text": "{{anim id=\"1\"}}Incluso un tipo curtido como yo\ntiene sus debilidades.{{delay frames=\"15\"}} La mía es\nvenir a las galerías,{{delay frames=\"8\"}} ¿sabes?"
  }
]