﻿[
  {
    "label": "001",
    "text": "{{anim id=\"16\"}}¡Eh, {{fun_00080005 arg=\"\"}}!{{delay frames=\"30\"}} ¡Has venido!{{delay frames=\"40\"}}\n{{anim id=\"37\"}}¡Pasa,{{delay frames=\"10\"}} {{fun_00070005 arg=\"\"}}!"
  },
  {
    "label": "002",
    "text": "{{anim id=\"16\"}}¡Ajá!{{delay frames=\"20\"}} ¿Has venido a desearme\nfeliz cumpleaños,{{delay frames=\"12\"}} {{fun_00080005 arg=\"\"}}?{{pageBreak}}{{anim id=\"26\"}}{{delay frames=\"16\"}}Vaya,{{delay frames=\"8\"}} me voy a ruborizar y todo{{delay frames=\"8\"}}.{{delay frames=\"8\"}}.{{delay frames=\"8\"}}.{{delay frames=\"16\"}}\n¡Gracias!{{fun_00010007 arg=\"\"}} {{anim id=\"37\"}}¡Pasa y ponte cómod{{fun_0006000E arg=\"0x02006F0002006100\"}}!"
  },
  {
    "label": "003",
    "text": "{{anim id=\"5\"}}¡Bien!{{delay frames=\"20\"}} ¡Tú también has venido\na celebrar mi cumpleaños!{{pageBreak}}{{anim id=\"38\"}}¡Qué alegría,{{delay frames=\"8\"}} {{fun_00080005 arg=\"\"}}!{{delay frames=\"40\"}}\n{{anim id=\"37\"}}Pasa y disfruta."
  },
  {
    "label": "004",
    "text": "{{anim id=\"37\"}}{{fun_0003000E arg=\"\"}}{{fun_00010011 arg=\"0x0000\"}} ha llegado justo antes\nque tú.{{delay frames=\"20\"}} ¡Y me ha traído un regalo!{{pageBreak}}{{anim id=\"15\"}}¡Atiza!{{delay frames=\"20\"}} Tú no me habrás traído\nalgo también,{{delay frames=\"8\"}} ¿verdad?{{fun_0005000F arg=\"0x00000000\"}}\n¡Esto es para ti!\nLo siento..."
  },
  {
    "label": "005",
    "text": "{{anim id=\"39\"}}Y,{{delay frames=\"8\"}} esto...{{delay frames=\"20\"}} ¿Tú no me habrás...\npues{{delay frames=\"8\"}}.{{delay frames=\"8\"}}.{{delay frames=\"8\"}}. traído un regalo{{delay frames=\"8\"}} o algo?{{pageBreak}}¡Que no hacía ninguna falta! Pero\nlo pregunto por si lo habías traído y\nse te había olvidado dármelo o algo.{{fun_0005000F arg=\"0x00000000\"}}\n¡Pues claro!\nNo te he traído nada"
  },
  {
    "label": "006",
    "text": "{{anim id=\"11\"}}{{delay frames=\"16\"}}Igual está feo preguntar{{delay frames=\"8\"}}.{{delay frames=\"8\"}}.{{delay frames=\"8\"}}.{{delay frames=\"15\"}} pero\n¿sabes qué?{{delay frames=\"20\"}} Me da lo mismo.{{delay frames=\"40\"}}\n{{anim id=\"36\"}}¿Me has traído un regalo?{{fun_0005000F arg=\"0x00000000\"}}\n¡Aquí está!\nNo me he acordado"
  },
  {
    "label": "007",
    "text": "{{anim id=\"38\"}}¡Qué tí{{fun_0006000E arg=\"0x02006F0002006100\"}}!{{fun_00010007 arg=\"\"}} {{anim id=\"1\"}}Vale,{{delay frames=\"8\"}} vale,{{delay frames=\"15\"}}\n¡esta te la tendré en cuenta!{{pageBreak}}{{anim id=\"36\"}}Que no,{{delay frames=\"4\"}} {{fun_0006000E arg=\"0x0C0068006F006D006200720065000A006D0075006A0065007200\"}},{{delay frames=\"8\"}} ¡que es broma!{{delay frames=\"30\"}}\nYo no soy muy de regalos.{{delay frames=\"20\"}} ¡Lo\nbueno es que has venido!{{delay frames=\"20\"}} {{anim id=\"2\"}}¡Ja, ja, ja!{{delay frames=\"30\"}}{{anim id=\"1\"}}"
  },
  {
    "label": "008",
    "text": "{{anim id=\"40\"}}Huy, no,{{delay frames=\"8\"}} pero no te preocupes.{{delay frames=\"40\"}}\n{{anim id=\"37\"}}¡Tenerte aquí es el mejor regalo!{{pageBreak}}{{anim id=\"11\"}}{{color id=\"5\"}}(Yo no debería decir estas\ncursiladas en voz alta...){{color id=\"65535\"}}"
  },
  {
    "label": "009",
    "text": "{{anim id=\"2\"}}¡Ja, ja, ja!{{delay frames=\"30\"}} {{anim id=\"1\"}}¡Típico de ti!{{delay frames=\"30\"}}\n¡Menudo despiste tienes encima!{{pageBreak}}{{anim id=\"36\"}}Pero sabes que a mí me da igual,{{delay frames=\"8\"}}\n¿verdad?{{fun_00010007 arg=\"\"}} {{anim id=\"2\"}}¡Ja, ja, ja!{{delay frames=\"30\"}}\n{{anim id=\"10\"}}Ay{{delay frames=\"30\"}}.{{delay frames=\"30\"}}.{{delay frames=\"30\"}}.{{delay frames=\"30\"}} {{anim id=\"2\"}}¡Ja, ja, ja!{{delay frames=\"30\"}}{{anim id=\"1\"}}"
  },
  {
    "label": "010",
    "text": "{{anim id=\"15\"}}¡Anda!{{delay frames=\"20\"}} ¿De verdad es para mí?{{delay frames=\"40\"}}\n{{anim id=\"37\"}}Je.{{delay frames=\"20\"}} A ver qué hay dentro{{delay frames=\"4\"}}.{{delay frames=\"4\"}}.{{delay frames=\"4\"}}."
  },
  {
    "label": "011",
    "text": "{{anim id=\"16\"}}¡Hala!{{delay frames=\"30\"}} {{anim id=\"36\"}}Pero si lo he dicho por decir,{{delay frames=\"8\"}}\nyo no esperaba nada{{delay frames=\"8\"}}.{{delay frames=\"8\"}}.{{delay frames=\"8\"}}."
  },
  {
    "label": "012",
    "text": "{{anim id=\"38\"}}¿Es para mí de verdad?{{delay frames=\"30\"}}\n{{anim id=\"37\"}}Me dejas sin palabras.{{delay frames=\"40\"}}\n¿Lo puedo abrir?"
  },
  {
    "label": "013",
    "text": "{{anim id=\"16\"}}¡Caramba,{{delay frames=\"12\"}} {{anim id=\"1\"}}esta tarta tiene\nuna pinta increíble!{{pageBreak}}{{anim id=\"21\"}}Un poco de tarta de cumpleaños\nsiempre apetece,{{delay frames=\"12\"}} ¡y más si es tu\ncumpleaños!{{delay frames=\"25\"}} {{anim id=\"37\"}}¡Gracias, {{fun_00080005 arg=\"\"}}!"
  },
  {
    "label": "014",
    "text": "{{anim id=\"15\"}}¡Huy,{{delay frames=\"30\"}} {{fun_0002000E arg=\"\"}}{{fun_00030011 arg=\"0x0000\"}}!{{delay frames=\"40\"}}\nQué bien, {{anim id=\"38\"}}¡con lo que me gustan!{{pageBreak}}{{anim id=\"37\"}}De hecho ya tengo un{{fun_0012000E arg=\"0x100002006F00020061000000\"}}.{{pageBreak}}{{anim id=\"21\"}}¡Pero nunca está de más tener otr{{fun_0012000E arg=\"0x100002006F00020061000000\"}}\nde repuesto!{{delay frames=\"40\"}} {{anim id=\"32\"}}¡Se agradece!"
  },
  {
    "label": "015",
    "text": "{{anim id=\"15\"}}¡Ah,{{delay frames=\"30\"}} {{fun_0002000E arg=\"\"}}{{fun_00030011 arg=\"0x0000\"}}!{{fun_00010007 arg=\"\"}}\n{{anim id=\"37\"}}Me pongo mucho {{fun_0012000E arg=\"0x10000C0065006C0020006D00ED006F000C006C00610020006D00ED0061000000\"}} porque\nme encanta.{{pageBreak}}{{anim id=\"36\"}}Y ahora tengo un recambio para\ncuando esté en la lavadora.{{delay frames=\"40\"}}\n{{anim id=\"32\"}}¡Gracias!"
  },
  {
    "label": "016",
    "text": "{{anim id=\"16\"}}Eh,{{delay frames=\"30\"}} ¿{{fun_0002000E arg=\"\"}}{{fun_00030011 arg=\"0x0000\"}}?{{delay frames=\"20\"}}\n{{anim id=\"36\"}}¿No es l{{fun_0012000E arg=\"0x100002006F00020061000000\"}} mism{{fun_0012000E arg=\"0x100002006F00020061000000\"}} que llevas puesto?{{pageBreak}}{{anim id=\"26\"}}{{delay frames=\"16\"}}¿Pretendes que nos vistamos\ncomo si fuésemos gemelos?{{delay frames=\"20\"}}\n¡Por mí, vale!{{delay frames=\"20\"}} {{anim id=\"2\"}}¡Ja, ja, ja!{{delay frames=\"30\"}}{{anim id=\"1\"}}"
  },
  {
    "label": "017",
    "text": "{{anim id=\"16\"}}¡Oh!{{delay frames=\"30\"}} ¡{{fun_0003000E arg=\"\"}}{{fun_0002000E arg=\"\"}}{{fun_00030011 arg=\"0x0000\"}}!{{pageBreak}}{{anim id=\"26\"}}{{delay frames=\"16\"}}¿Cómo sabías lo que quería?{{delay frames=\"30\"}}\n¡Qué felicidad!{{delay frames=\"15\"}} ¡Gracias, {{fun_00080005 arg=\"\"}}!"
  },
  {
    "label": "018",
    "text": "{{anim id=\"16\"}}¡Hala!{{delay frames=\"30\"}} {{anim id=\"5\"}}Qué cosa más{{delay frames=\"8\"}}.{{delay frames=\"8\"}}.{{delay frames=\"8\"}}.{{delay frames=\"8\"}} más{{delay frames=\"8\"}}.{{delay frames=\"8\"}}.{{delay frames=\"8\"}}.{{delay frames=\"8\"}} ¡más!{{delay frames=\"20\"}}\nEs {{fun_0002000E arg=\"\"}}{{fun_00030011 arg=\"0x0000\"}},\n¿verdad?{{pageBreak}}{{anim id=\"36\"}}¡Qué bien me conoces!{{delay frames=\"20\"}}\n{{anim id=\"38\"}}¡Pues gracias a porrillo!{{delay frames=\"20\"}}\n{{anim id=\"2\"}}¡Ja, ja, ja!"
  },
  {
    "label": "019",
    "text": "{{anim id=\"16\"}}¡Ja!{{delay frames=\"30\"}} ¡Pero si es {{fun_0012000E arg=\"0x1000120075006E00200062006F006E00690074006F00140075006E006100200062006F006E006900740061000000\"}}\n{{fun_00030011 arg=\"0x0000\"}}!{{pageBreak}}{{anim id=\"1\"}}Te has pasado,{{delay frames=\"12\"}} {{fun_00080005 arg=\"\"}}.{{delay frames=\"30\"}}\nAunque tienes buen gusto.{{delay frames=\"20\"}}\n{{anim id=\"32\"}}¡Gracias!"
  },
  {
    "label": "020",
    "text": "¿Eh?{{delay frames=\"20\"}}\n¿{{fun_0003000E arg=\"\"}}{{fun_0002000E arg=\"\"}}{{fun_00030011 arg=\"0x0000\"}}?{{pageBreak}}{{anim id=\"37\"}}Supongo que parte del interés de\nrecibir regalos es acabar con cosas\nque uno no se compraría{{delay frames=\"8\"}}.{{delay frames=\"8\"}}.{{delay frames=\"8\"}}.\n{{anim id=\"36\"}}Hoy no paro de recibir regalos así.{{delay frames=\"30\"}}\n¡Pues {{anim id=\"32\"}}los voy a probar todos!{{delay frames=\"15\"}}\n¡Gracias!"
  },
  {
    "label": "021",
    "text": "{{anim id=\"16\"}}Ah,{{delay frames=\"15\"}} es {{fun_0002000E arg=\"\"}}{{fun_00030011 arg=\"0x0000\"}},\n¿verdad?{{delay frames=\"25\"}} {{anim id=\"11\"}}Nunca le he hecho mucho\ncaso a estas cosas{{delay frames=\"8\"}}.{{delay frames=\"8\"}}.{{delay frames=\"8\"}}.{{delay frames=\"8\"}} hasta hoy.{{pageBreak}}{{anim id=\"37\"}}Parece que este cumpleaños viene\ncon algunas lecciones de regalo.{{pageBreak}}{{anim id=\"0\"}}Año nuevo,{{delay frames=\"8\"}} ¡{{fun_00010005 arg=\"\"}} nuevo!{{delay frames=\"20\"}}\n{{anim id=\"38\"}}¡Gracias, {{fun_00080005 arg=\"\"}}!"
  },
  {
    "label": "022",
    "text": "{{anim id=\"16\"}}¡Pero qué dices!{{delay frames=\"30\"}} {{anim id=\"13\"}}¡¿Cómo se te\nha ocurrido traerme {{fun_0002000E arg=\"\"}}\n{{fun_00030011 arg=\"0x0000\"}}?!{{pageBreak}}{{anim id=\"26\"}}Huy,{{delay frames=\"8\"}} vaya,{{delay frames=\"8\"}} no me malinterpretes{{delay frames=\"8\"}}.{{delay frames=\"8\"}}.{{delay frames=\"8\"}}.{{delay frames=\"8\"}}\n¡No es que no me guste!{{pageBreak}}{{anim id=\"9\"}}Es que nunca había tenido el más\nmínimo interés en estas cosas{{delay frames=\"8\"}}.{{delay frames=\"8\"}}.{{delay frames=\"8\"}}.{{pageBreak}}{{anim id=\"11\"}}Pero hoy parecéis todos empeñados\nen mandarme mensajes{{delay frames=\"8\"}}.{{delay frames=\"8\"}}.{{delay frames=\"8\"}}.{{delay frames=\"8\"}} no sé{{delay frames=\"8\"}}.{{delay frames=\"8\"}}.{{delay frames=\"8\"}}.{{delay frames=\"8\"}}\nde renovación y tal.\n{{anim id=\"16\"}}¡Pues nunca es tarde si la dicha\nes buena!{{delay frames=\"20\"}} {{anim id=\"11\"}}Será{{delay frames=\"8\"}}.{{delay frames=\"8\"}}.{{delay frames=\"8\"}}.{{delay frames=\"8\"}} {{anim id=\"38\"}}¡interesante!\n{{delay frames=\"20\"}}{{anim id=\"32\"}}¡Gracias!"
  },
  {
    "label": "023",
    "text": "{{anim id=\"16\"}}¡Oh!{{delay frames=\"20\"}} {{anim id=\"9\"}}Gracias, pero no puedo\naceptar esto.{{pageBreak}}{{anim id=\"35\"}}Ya no tengo edad para andar\naceptando dinero como regalo\nde cumpleaños{{delay frames=\"8\"}}.{{delay frames=\"8\"}}.{{delay frames=\"8\"}}.{{pageBreak}}{{anim id=\"37\"}}¡Pero te agradezco la intención!{{fun_00010007 arg=\"\"}}\n{{anim id=\"0\"}}Eso es lo que cuenta{{delay frames=\"8\"}}.{{delay frames=\"8\"}}.{{delay frames=\"8\"}}.{{delay frames=\"8\"}} y esto\nmejor te lo devuelvo,{{delay frames=\"8\"}} sí."
  },
  {
    "label": "024",
    "text": "{{anim id=\"18\"}}¡Pero si es basura!{{delay frames=\"20\"}}\n{{anim id=\"1\"}}¡Qué detalle por tu parte!{{delay frames=\"20\"}}\n{{anim id=\"2\"}}¡Ja, ja, ja!{{delay frames=\"30\"}}{{anim id=\"1\"}}{{pageBreak}}{{anim id=\"1\"}}¡Quién no querría recibir tu basura!{{pageBreak}}{{anim id=\"36\"}}Je.{{delay frames=\"15\"}} Qué cosas tienes{{delay frames=\"8\"}}.{{delay frames=\"8\"}}.{{delay frames=\"8\"}}.{{delay frames=\"15\"}}\n{{anim id=\"37\"}}Menos mal que sé que no\nvas en serio.{{delay frames=\"30\"}} ¿Verdad?"
  },
  {
    "label": "025",
    "text": "{{anim id=\"16\"}}¡Anda, {{delay frames=\"10\"}}un nabo!{{delay frames=\"30\"}}\n{{anim id=\"37\"}}Pero yo no soy muy de seguir\nlas evoluciones del mercado.\nSupongo que lo haré al horno\ncon {{fun_0002000E arg=\"\"}}{{fun_00130005 arg=\"0x0000\"}}."
  },
  {
    "label": "026",
    "text": "{{anim id=\"37\"}}Mira,{{delay frames=\"8\"}} con el hambre que tenía.{{delay frames=\"30\"}}\n{{anim id=\"38\"}}¡Gracias!"
  },
  {
    "label": "027",
    "text": "{{anim id=\"15\"}}¡¿Cómo?!{{delay frames=\"30\"}} {{anim id=\"6\"}}¡Pero no me hagas eso,{{delay frames=\"8\"}}\nque me había hecho ilusiones!{{delay frames=\"30\"}}\n¡Menudo regalo de cumpleaños!"
  },
  {
    "label": "028",
    "text": "{{anim id=\"15\"}}Ah,{{delay frames=\"30\"}} {{anim id=\"0\"}}eh,{{delay frames=\"10\"}} oh,{{delay frames=\"10\"}} {{anim id=\"37\"}}sí.{{delay frames=\"20\"}}\n¡Gracias!"
  },
  {
    "label": "029",
    "text": "{{anim id=\"11\"}}{{delay frames=\"16\"}}Esto{{delay frames=\"8\"}}.{{delay frames=\"8\"}}.{{delay frames=\"8\"}}.{{delay frames=\"20\"}} {{anim id=\"13\"}}¡Sí!{{delay frames=\"8\"}} ¡La intención es lo\nque cuenta!{{pageBreak}}{{anim id=\"1\"}}Y que hayas venido a celebrarlo\nconmigo.{{delay frames=\"8\"}} {{anim id=\"32\"}}¡Se agradece!"
  },
  {
    "label": "030",
    "text": "{{anim id=\"16\"}}¡Gra{{delay frames=\"8\"}}-{{delay frames=\"8\"}}gracias!"
  },
  {
    "label": "031",
    "text": ""
  },
  {
    "label": "032",
    "text": ""
  },
  {
    "label": "033",
    "text": "{{anim id=\"35\"}}Tu regalo me ha llegado al alma,{{delay frames=\"10\"}}\n¡{{fun_00070005 arg=\"\"}}!"
  },
  {
    "label": "034",
    "text": "{{anim id=\"26\"}}{{delay frames=\"16\"}}El regalo me ha agradado, claro,\n¡pero lo mejor es que vinieras\na felicitarme!{{pageBreak}}{{anim id=\"38\"}}Gracias por acompañarme\nen mi cumpleaños,{{delay frames=\"10\"}} ¡{{fun_00070005 arg=\"\"}}!"
  },
  {
    "label": "035",
    "text": "{{anim id=\"21\"}}Soy un tío afortunado de tener\na gente como {{anim id=\"26\"}}{{fun_00010011 arg=\"0x0000\"}} y tú\nentre mis amigos.{{delay frames=\"20\"}} ¡{{fun_0003000E arg=\"\"}}{{fun_00070005 arg=\"\"}}!"
  },
  {
    "label": "036",
    "text": "{{anim id=\"37\"}}Entre nosotros,{{delay frames=\"30\"}} me preocupaba\nque a lo mejor no vinieras\na la fiesta.\n{{anim id=\"39\"}}Y por cierto{{delay frames=\"8\"}}.{{delay frames=\"8\"}}.{{delay frames=\"8\"}}.{{delay frames=\"20\"}} no me habrás traído\nalgún detalle, ¿verdad?{{fun_0005000F arg=\"0x15002800\"}}\n¿Algo como esto?\nNada de nada"
  },
  {
    "label": "037",
    "text": "{{anim id=\"9\"}}Uno solo celebra su cumpleaños\nuna vez al año.{{pageBreak}}{{anim id=\"6\"}}No me mires así, soy perfectamente\nconsciente de la perogrullada que\nacabo de decir.{{pageBreak}}{{anim id=\"1\"}}¡Pero era mi forma de explicar\npor qué me alegra tanto que\nhayas venido!{{pageBreak}}{{anim id=\"39\"}}Y ya que has venido{{delay frames=\"8\"}}.{{delay frames=\"8\"}}.{{delay frames=\"8\"}}.{{delay frames=\"20\"}} no me habrás\ntraído nada, ¿verdad?{{fun_0005000F arg=\"0x15000000\"}}\n¿A esto lo llamas \"nada\"?\nNo caí..."
  },
  {
    "label": "038",
    "text": "{{anim id=\"6\"}}¡Me da igual lo que diga la gente!{{delay frames=\"40\"}}\n¡Solo cumplo una vez al año\ny por eso hoy{{anim id=\"44\"}}{{delay frames=\"20\"}} la estrella soy yo!\n{{anim id=\"33\"}}¡{{fun_0003000E arg=\"\"}}{{fun_00070005 arg=\"\"}}!{{delay frames=\"20\"}} ¿Y bien?{{delay frames=\"20\"}}\n{{anim id=\"39\"}}¿Qué me has traído?{{fun_0005000F arg=\"0x15002800\"}}\n¡Una cosa genial!\n¡Un abrazo muy fuerte!"
  },
  {
    "label": "039",
    "text": "Como nací un {{fun_000F0004 arg=\"0x00CD\"}} de {{fun_000E0004 arg=\"0x00CD\"}},{{delay frames=\"8\"}}\nsoy {{fun_000C0005 arg=\"\"}}.{{pageBreak}}{{anim id=\"21\"}}Hay quien dice que eso es bueno.{{delay frames=\"20\"}}\n{{anim id=\"40\"}}Otros dicen que es malo.{{pageBreak}}{{anim id=\"36\"}}A mí me da igual,{{delay frames=\"8\"}} yo no creo\nen esas cosas."
  },
  {
    "label": "040",
    "text": "{{anim id=\"1\"}}En el fondo sabía que tú no\npodías faltar a mi cumpleaños.{{delay frames=\"20\"}}\nY, como siempre,{{delay frames=\"8\"}} ¡llevaba razón!"
  },
  {
    "label": "041",
    "text": "{{anim id=\"1\"}}Espero sacarle partido al regalo\nque me has traído,{{delay frames=\"10\"}} ¡{{fun_00070005 arg=\"\"}}!"
  },
  {
    "label": "042",
    "text": "{{anim id=\"26\"}}{{delay frames=\"16\"}}Es un placer teneros como amigos,{{delay frames=\"10\"}}\n¡{{fun_00070005 arg=\"\"}}!"
  },
  {
    "label": "043",
    "text": "{{anim id=\"39\"}}No sé si es infantil decir esto,{{delay frames=\"8\"}}\npero tú y yo vamos a ser siempre\namigos,{{delay frames=\"8\"}} ¿verdad, {{fun_00080005 arg=\"\"}}?"
  },
  {
    "label": "044",
    "text": "{{anim id=\"15\"}}¡Anda!{{delay frames=\"30\"}} ¿Ya te vas?{{pageBreak}}{{anim id=\"26\"}}{{delay frames=\"16\"}}Gracias por la visitica...{{delay frames=\"8\"}}\ny sobre todo por el regalo.{{pageBreak}}{{anim id=\"1\"}}Ya te devolveré el favor.{{delay frames=\"20\"}}\n¡Cuenta con ello, {{fun_00070005 arg=\"\"}}!"
  },
  {
    "label": "045",
    "text": "{{anim id=\"15\"}}¿Qué?{{delay frames=\"15\"}} ¿Te marchas, {{fun_00080005 arg=\"\"}}?{{pageBreak}}{{anim id=\"32\"}}¡Gracias por todo!{{delay frames=\"40\"}}\n{{anim id=\"1\"}}¡Te debo una!"
  },
  {
    "label": "046",
    "text": "{{anim id=\"38\"}}¡Me alegro de que hayas venido!{{delay frames=\"40\"}}\n{{anim id=\"1\"}}¡Y gracias otra vez por traer\nun regalo,{{delay frames=\"10\"}} {{fun_00070005 arg=\"\"}}!"
  },
  {
    "label": "047",
    "text": "{{anim id=\"15\"}}¡Oh!{{delay frames=\"30\"}} ¿Te vas ya a casa?\n¡Pero si acabas de llegar!{{pageBreak}}{{anim id=\"1\"}}Bueno, pues nada.{{delay frames=\"30\"}}\n¡Te agradezco un montón la visita!"
  },
  {
    "label": "048",
    "text": "{{anim id=\"15\"}}Ah,{{delay frames=\"15\"}} ¿te vas?{{delay frames=\"40\"}}\n{{anim id=\"1\"}}Gracias por venir,{{delay frames=\"10\"}} ¡{{fun_00070005 arg=\"\"}}!"
  },
  {
    "label": "049",
    "text": "{{anim id=\"15\"}}¿Ya te marchas?{{pageBreak}}{{anim id=\"1\"}}Me ha agradado mucho tu visita.{{delay frames=\"30\"}}\n{{anim id=\"38\"}}¡Gracias,{{delay frames=\"10\"}} {{fun_00070005 arg=\"\"}}!"
  },
  {
    "label": "050",
    "text": ""
  },
  {
    "label": "051",
    "text": "{{anim id=\"15\"}}¡Anda!{{delay frames=\"20\"}} ¿Ya te vas?{{pageBreak}}{{anim id=\"26\"}}Gracias por la visitica{{delay frames=\"8\"}}.{{delay frames=\"8\"}}.{{delay frames=\"8\"}}.{{delay frames=\"8\"}}\ny sobre todo por el regalo.{{pageBreak}}{{anim id=\"1\"}}Ya te devolveré el favor.{{delay frames=\"20\"}}\n¡Cuenta con ello,{{delay frames=\"8\"}} {{fun_00070005 arg=\"\"}}!{{pageBreak}}{{anim id=\"37\"}}Y ya que estamos,{{delay frames=\"8\"}} te diré que\n{{fun_00010011 arg=\"0x0100\"}} también celebra hoy\nsu cumpleaños.\n{{anim id=\"7\"}}¡Quien se copió fue {{fun_0007000E arg=\"0x0400E9006C00080065006C006C006100\"}}!{{delay frames=\"20\"}}\n{{anim id=\"36\"}}Yo soy mayor,{{delay frames=\"8\"}} empecé antes{{delay frames=\"8\"}}.{{delay frames=\"8\"}}.{{delay frames=\"8\"}}."
  },
  {
    "label": "052",
    "text": "{{anim id=\"15\"}}Ah,{{delay frames=\"15\"}} ¿te vas?{{delay frames=\"40\"}}\n{{anim id=\"1\"}}Gracias por venir,{{delay frames=\"10\"}} ¡{{fun_00070005 arg=\"\"}}!{{pageBreak}}{{anim id=\"0\"}}Te tengo que devolver el favor por\nel regalico que me has traído.{{delay frames=\"15\"}}\n{{anim id=\"21\"}}¡Prometido!\nY hablando de regalos:{{delay frames=\"15\"}} {{fun_00010011 arg=\"0x0100\"}}\nestá también celebrando hoy\nsu cumpleaños.\n{{anim id=\"36\"}}Me huele que no está teniendo\ndemasiados invitados,{{delay frames=\"8\"}} así que{{delay frames=\"8\"}}\n¿por qué no le haces una visitica?"
  },
  {
    "label": "053",
    "text": "{{anim id=\"38\"}}¡Me alegra que hayas venido!{{delay frames=\"30\"}}\n{{anim id=\"1\"}}Y gracias otra vez por traer\nun regalo,{{delay frames=\"8\"}} {{fun_00070005 arg=\"\"}}.\n{{anim id=\"15\"}}¿Te han invitado también a la fiesta\nde cumpleaños de {{fun_00010011 arg=\"0x0100\"}}?{{pageBreak}}{{anim id=\"35\"}}Ya me extrañaba a mí que te fueras\ntan pronto,{{delay frames=\"8\"}} {{fun_00080005 arg=\"\"}}.{{delay frames=\"25\"}} {{anim id=\"2\"}}¡Con lo\nfiesteros que sois los jóvenes!"
  },
  {
    "label": "054",
    "text": "{{anim id=\"15\"}}¿Ya te marchas?{{pageBreak}}{{anim id=\"1\"}}Me ha agradado mucho tu visita.{{delay frames=\"30\"}}\n{{anim id=\"38\"}}¡Gracias,{{delay frames=\"10\"}} {{fun_00070005 arg=\"\"}}!{{pageBreak}}{{anim id=\"21\"}}Por si no lo sabías,{{delay frames=\"4\"}} al parecer hoy\ntambién celebra su cumpleaños\n{{fun_00010011 arg=\"0x0100\"}}.\n{{anim id=\"36\"}}Seguro que está esperando algún\nregalico{{delay frames=\"4\"}}.{{delay frames=\"4\"}}.{{delay frames=\"4\"}}.{{delay frames=\"4\"}} {{anim id=\"35\"}}Como yo,{{delay frames=\"4\"}} todo sea dicho\nde paso."
  },
  {
    "label": "055",
    "text": "{{anim id=\"15\"}}¡Oh!{{delay frames=\"20\"}} ¿Te vas ya a casa?{{delay frames=\"20\"}}\n¡Pero si acabas de llegar!{{pageBreak}}{{anim id=\"1\"}}Bueno,{{delay frames=\"8\"}} pues nada.{{delay frames=\"30\"}}\n¡Te agradezco un montón la visita!{{pageBreak}}{{anim id=\"37\"}}Y hablando de visitas:{{delay frames=\"15\"}} hoy también\nes el cumpleaños de {{fun_00010011 arg=\"0x0100\"}},{{delay frames=\"8\"}}\nasí que si te pasas con un regalico{{delay frames=\"8\"}}.{{delay frames=\"8\"}}.{{delay frames=\"8\"}}.\n{{anim id=\"1\"}}¡Seguro que le hace mucha ilusión!{{delay frames=\"10\"}}\n{{anim id=\"36\"}}A mí lo de los regalicos también me\nhace mucha ilusión,{{delay frames=\"8\"}} que conste{{delay frames=\"8\"}}.{{delay frames=\"8\"}}.{{delay frames=\"8\"}}."
  },
  {
    "label": "056",
    "text": "{{anim id=\"15\"}}¡Oh!{{delay frames=\"20\"}} ¿Ya te marchas,{{delay frames=\"8\"}} {{fun_00080005 arg=\"\"}}?{{delay frames=\"20\"}}\n{{anim id=\"36\"}}Pero si acabas de llegar{{delay frames=\"8\"}}.{{delay frames=\"8\"}}.{{delay frames=\"8\"}}.{{pageBreak}}{{anim id=\"36\"}}Bueno,{{delay frames=\"8\"}} te agradezco la visita,{{delay frames=\"8\"}}\n¡y espero que de todos modos\nhayas disfrutado algo!\n{{anim id=\"15\"}}¿Qué me dices?{{delay frames=\"15\"}} ¿También te han\ninvitado a la fiesta de {{fun_00010011 arg=\"0x0100\"}}?{{pageBreak}}{{anim id=\"37\"}}Ah{{delay frames=\"8\"}}.{{delay frames=\"8\"}}.{{delay frames=\"8\"}}.{{delay frames=\"8\"}} Pues gracias por venir\na la mía primero.{{pageBreak}}{{anim id=\"26\"}}Y perdona que te pregunte{{delay frames=\"8\"}}.{{delay frames=\"8\"}}.{{delay frames=\"8\"}}.{{delay frames=\"12\"}}\n{{anim id=\"1\"}}¿A {{fun_0007000E arg=\"0x0400E9006C00080065006C006C006100\"}} le has comprado un regalo?"
  }
]