﻿[
  {
    "label": "001",
    "text": "{{anim id=\"23\"}}¿Quieres jugar al {{color id=\"2\"}}Juego de más alto\no más bajo{{color id=\"65535\"}} para decidir el precio\nde mi {{fun_00030011 arg=\"0x0000\"}}?\n{{anim id=\"1\"}}Te l{{fun_0012000E arg=\"0x100002006F00020061000000\"}} vendo solo si jugamos.{{pageBreak}}{{anim id=\"5\"}}Si tienes suerte,{{delay frames=\"8\"}} te podría salir\nmuy bien de precio.{{pageBreak}}{{anim id=\"28\"}}Pero si pierdes,{{delay frames=\"8\"}} lo vas a pagar.{{delay frames=\"30\"}}\n¡Literalmente!{{fun_00010007 arg=\"\"}}\n{{fun_000D0007 arg=\"\"}}{{anim id=\"1\"}}¿Quieres probar suerte?{{fun_00050008 arg=\"0x0800150002002800\"}}\n¡Vamos!\nAhora no..."
  },
  {
    "label": "002",
    "text": "Ah, {{delay frames=\"8\"}}ya veo.{{delay frames=\"20\"}} {{anim id=\"37\"}}Los jóvenes de\nhoy no os sabéis divertir.{{delay frames=\"20\"}}\n¡Quizá la próxima vez!"
  },
  {
    "label": "003",
    "text": "{{anim id=\"13\"}}Qué...{{delay frames=\"15\"}} ¿Me estás tomando el pelo?{{delay frames=\"20\"}}\n{{anim id=\"9\"}}¡En la vida se me habría pasado por\nla cabeza que acertarías tres veces!\n{{anim id=\"1\"}}¿Cómo lo has hecho?{{delay frames=\"20\"}} ¿Has juntado\ntoda tu suerte y la has gastado de\ngolpe?{{delay frames=\"20\"}} {{anim id=\"2\"}}¡Ja, ja, ja!{{delay frames=\"30\"}} ¡Buen plan!{{anim id=\"1\"}}{{pageBreak}}Bueno,{{delay frames=\"8\"}} lo prometido es deuda.{{delay frames=\"20\"}}\nNo te cobro ni media baya.{{delay frames=\"15\"}}\n¡De gorra,{{delay frames=\"4\"}} para ti!"
  },
  {
    "label": "004",
    "text": "{{anim id=\"1\"}}Bueno,{{delay frames=\"8\"}} acertar dos veces también\ntiene su mérito.{{delay frames=\"20\"}} Venga,{{delay frames=\"8\"}}\nte lo dejo en {{color id=\"2\"}}{{fun_00090004 arg=\"0x0000\"}} bayas{{color id=\"65535\"}}.\n{{anim id=\"9\"}}Salgo perdiendo,{{delay frames=\"8\"}} pero me lo he\npasado bien,{{delay frames=\"8\"}} {{anim id=\"1\"}}¡y eso también cuenta!{{delay frames=\"20\"}}\n¡Ahora disfruta tú!"
  },
  {
    "label": "005",
    "text": "{{anim id=\"37\"}}Como has acertado dos veces,{{delay frames=\"8\"}}\nte voy a ofrecer un descuento.{{delay frames=\"15\"}}\n¿Qué te parecen {{color id=\"2\"}}{{fun_00090004 arg=\"0x0100\"}} bayas{{color id=\"65535\"}}?\n{{anim id=\"1\"}}Si quieres mi opinión,{{delay frames=\"8\"}} es una ganga.{{delay frames=\"30\"}}\nY si no la quieres,{{delay frames=\"8\"}} es una ganga\nigual.{{delay frames=\"15\"}} ¡No te lo pienses!"
  },
  {
    "label": "006",
    "text": "{{anim id=\"1\"}}Has acertado una vez, pero aun así\nhas perdido.{{delay frames=\"20\"}} Me tienes que pagar\n{{color id=\"2\"}}{{fun_00090004 arg=\"0x0200\"}} bayas{{color id=\"65535\"}}.{{delay frames=\"15\"}} ¡Y aquí tienes!"
  },
  {
    "label": "007",
    "text": "{{anim id=\"9\"}}Pero{{delay frames=\"8\"}} ¿cómo te equivocas tres\nveces seguidas?{{delay frames=\"15\"}} ¡Qué mala suerte!{{pageBreak}}{{anim id=\"1\"}}Me sabe mal, pero te va a costar\n{{color id=\"2\"}}{{fun_00090004 arg=\"0x0300\"}} bayas{{color id=\"65535\"}}.{{delay frames=\"15\"}} ¡Toma esto y que\nlo disfrutes!"
  },
  {
    "label": "008",
    "text": "{{anim id=\"16\"}}¡Ah!{{delay frames=\"15\"}} Te animas, ¿eh?{{delay frames=\"20\"}} {{anim id=\"1\"}}¿Hace falta\nque te explique las reglas?{{fun_00050008 arg=\"0x090015000A002800\"}}\nCon todo detalle\n¡Bah, al grano!"
  },
  {
    "label": "009",
    "text": "{{anim id=\"37\"}}Pues la cosa funciona tal que así...{{pageBreak}}{{anim id=\"0\"}}Yo tengo nueve tarjetas numeradas\ndel 1 al 9.{{pageBreak}}Las barajo y cojo una al azar{{delay frames=\"8\"}}.{{delay frames=\"8\"}}.{{delay frames=\"8\"}}.{{pageBreak}}{{anim id=\"37\"}}Tú tienes que adivinar si el número\nque tengo está por encima o por\ndebajo de 5.{{delay frames=\"20\"}} ¡Así de simple!\n{{anim id=\"0\"}}Luego vuelvo a barajarlas todas{{delay frames=\"8\"}}.{{delay frames=\"8\"}}.{{delay frames=\"8\"}}.{{delay frames=\"8\"}}\ny repetimos. Y así hasta tres veces.{{pageBreak}}{{anim id=\"15\"}}¡Espera!{{delay frames=\"15\"}} ¿Y si saco justo el 5?{{delay frames=\"15\"}}\n{{anim id=\"0\"}}¡No pasa nada!{{delay frames=\"8\"}} Barajo y repito.{{pageBreak}}{{anim id=\"5\"}}Si aciertas tres veces seguidas,{{delay frames=\"8\"}}\n¡no te cobraré ni una baya!{{delay frames=\"20\"}}\n{{anim id=\"1\"}}¿Qué te parece?{{delay frames=\"15\"}} Generoso,{{delay frames=\"4\"}} ¿no?\n{{anim id=\"0\"}}Y{{delay frames=\"4\"}}.{{delay frames=\"4\"}}.{{delay frames=\"4\"}}.{{delay frames=\"4\"}} ya está,{{delay frames=\"8\"}} ya no hay más reglas.\n¡Vamos a empezar!"
  },
  {
    "label": "010",
    "text": "{{anim id=\"1\"}}Muy bien. ¡Primera tarjeta!{{fun_00010007 arg=\"\"}}\n{{anim id=\"0\"}}A ver qué sale{{delay frames=\"8\"}}.{{delay frames=\"8\"}}.{{delay frames=\"8\"}}.{{pageBreak}}Vale, ¿el número es más alto\n{{anim id=\"6\"}}o más bajo que 5?{{fun_00000008 arg=\"0x0B0000000E000000\"}}\n¡Más alto!\n¡Más bajo!"
  },
  {
    "label": "011",
    "text": "{{fun_00000009 arg=\"0x0C000D00\"}}"
  },
  {
    "label": "012",
    "text": "{{anim id=\"37\"}}¿Crees que es más de 5?{{delay frames=\"20\"}}\nPues es un{{delay frames=\"8\"}}.{{delay frames=\"8\"}}.{{delay frames=\"8\"}}.{{fun_00010007 arg=\"\"}} {{anim id=\"22\"}}¡{{fun_00060004 arg=\"0x0500\"}}!{{pageBreak}}{{anim id=\"1\"}}¡Eh,{{delay frames=\"8\"}} has acertado!{{delay frames=\"15\"}} ¡Buen trabajo!{{pageBreak}}{{anim id=\"0\"}}Peeero {{delay frames=\"8\"}}no empieces a celebrarlo\ntodavía{{delay frames=\"8\"}}.{{delay frames=\"8\"}}.{{delay frames=\"8\"}}."
  },
  {
    "label": "013",
    "text": "{{anim id=\"37\"}}¿Crees que la tarjeta va a ser más\nalta que 5?{{delay frames=\"20\"}}{{pageBreak}}Pues es exactamente{{delay frames=\"8\"}}.{{delay frames=\"8\"}}.{{delay frames=\"8\"}}.{{fun_00010007 arg=\"\"}} {{anim id=\"22\"}}¡un {{fun_00060004 arg=\"0x0400\"}}!{{pageBreak}}{{anim id=\"1\"}}Je.{{delay frames=\"8\"}} ¡Mal empiezas!{{delay frames=\"15\"}} {{anim id=\"0\"}}Vamos a ver\nsi la siguiente es la tuya{{delay frames=\"8\"}}.{{delay frames=\"8\"}}.{{delay frames=\"8\"}}."
  },
  {
    "label": "014",
    "text": "{{fun_00000009 arg=\"0x0F001000\"}}"
  },
  {
    "label": "015",
    "text": "{{anim id=\"37\"}}¿Crees que va a salir menor de 5?{{delay frames=\"20\"}}\nPues te lo digo. {{delay frames=\"8\"}}El número de la\ntarjeta es el{{delay frames=\"8\"}}.{{delay frames=\"8\"}}.{{delay frames=\"8\"}}.{{fun_00010007 arg=\"\"}} {{anim id=\"22\"}}¡{{fun_00060004 arg=\"0x0400\"}}!{{pageBreak}}{{anim id=\"1\"}}Caramba,{{delay frames=\"8\"}} ¡has acertado!{{delay frames=\"15\"}} ¡Sigue así!{{pageBreak}}{{anim id=\"0\"}}Pero no te emociones tan pronto{{delay frames=\"8\"}}.{{delay frames=\"8\"}}.{{delay frames=\"8\"}}."
  },
  {
    "label": "016",
    "text": "{{anim id=\"37\"}}¿Menor que 5, dices?{{delay frames=\"20\"}}\nPues a ver qué dice la tarjeta{{delay frames=\"8\"}}.{{delay frames=\"8\"}}.{{delay frames=\"8\"}}.{{fun_00010007 arg=\"\"}} {{anim id=\"22\"}}¡{{fun_00060004 arg=\"0x0500\"}}!{{pageBreak}}{{anim id=\"1\"}}Je.{{delay frames=\"8\"}} ¡Salida en falso!{{delay frames=\"15\"}}\n{{anim id=\"0\"}}Vamos, esto tiene que remontar{{delay frames=\"8\"}}.{{delay frames=\"8\"}}.{{delay frames=\"8\"}}."
  },
  {
    "label": "017",
    "text": "{{anim id=\"37\"}}¡Segunda tarjeta!{{pageBreak}}{{anim id=\"0\"}}A ver, primero barajo la primera{{delay frames=\"8\"}}.{{delay frames=\"8\"}}.{{delay frames=\"8\"}}.{{delay frames=\"8\"}}{{delay frames=\"8\"}}\nAhora cojo otra{{delay frames=\"8\"}}.{{delay frames=\"8\"}}.{{delay frames=\"8\"}}.{{delay frames=\"8\"}} ¡Me siento como\nun presentador de la tele!{{pageBreak}}Vale, ¿y ahora? {{anim id=\"6\"}}¿Crees que saldrá\nun número más alto o más bajo\nque 5?{{fun_00000008 arg=\"0x1200000015000000\"}}\n¡Más alto!\n¡Más bajo!"
  },
  {
    "label": "018",
    "text": "{{fun_00000009 arg=\"0x13001400\"}}"
  },
  {
    "label": "019",
    "text": "{{anim id=\"37\"}}¿Mayor, entonces?{{delay frames=\"20\"}} Pues vamos\na ver{{delay frames=\"8\"}}.{{delay frames=\"8\"}}.{{delay frames=\"8\"}}.{{fun_00010007 arg=\"\"}}{{anim id=\"22\"}} ¡Un {{fun_00060004 arg=\"0x0500\"}}!{{pageBreak}}{{anim id=\"1\"}}¡Lo has vuelto a hacer!{{delay frames=\"15\"}}\n¡Estás en racha!{{pageBreak}}{{anim id=\"21\"}}Habrá que ver si la fortuna\nte sonríe por tercera vez{{delay frames=\"8\"}}.{{delay frames=\"8\"}}.{{delay frames=\"8\"}}."
  },
  {
    "label": "020",
    "text": "{{anim id=\"37\"}}¿Crees que va a ser mayor que 5?{{delay frames=\"20\"}}\nPues la tarjeta dice que es{{delay frames=\"8\"}}.{{delay frames=\"8\"}}.{{delay frames=\"8\"}}.{{fun_00010007 arg=\"\"}} ¡un {{anim id=\"22\"}}{{fun_00060004 arg=\"0x0400\"}}!{{pageBreak}}{{anim id=\"1\"}}Oooh,{{delay frames=\"15\"}} esta vez no ha habido suerte.{{delay frames=\"15\"}}\nQué mala pata, ¿no?{{pageBreak}}{{anim id=\"28\"}}Por ahora llevas una y una{{delay frames=\"8\"}}.{{delay frames=\"8\"}}.{{delay frames=\"8\"}}."
  },
  {
    "label": "021",
    "text": "{{fun_00000009 arg=\"0x16001700\"}}"
  },
  {
    "label": "022",
    "text": "{{anim id=\"37\"}}Pues tú dices menor que 5{{delay frames=\"8\"}}.{{delay frames=\"8\"}}.{{delay frames=\"8\"}}.{{delay frames=\"8\"}}\ny la tarjeta dice{{delay frames=\"8\"}}.{{delay frames=\"8\"}}.{{delay frames=\"8\"}}.{{fun_00010007 arg=\"\"}}{{anim id=\"22\"}} ¡{{fun_00060004 arg=\"0x0400\"}}!{{pageBreak}}{{anim id=\"1\"}}¡Lo has vuelto a hacer!{{delay frames=\"15\"}}\n¡Hoy es tu día de suerte!{{pageBreak}}{{anim id=\"21\"}}Veremos si eres capaz de mantener\nla racha{{delay frames=\"8\"}}.{{delay frames=\"8\"}}.{{delay frames=\"8\"}}."
  },
  {
    "label": "023",
    "text": "{{anim id=\"37\"}}Tú dices menor que 5, pero vamos\na ver si la tarjeta está de acuerdo\ncontigo, ¿no?\nEs{{delay frames=\"8\"}}.{{delay frames=\"8\"}}.{{delay frames=\"8\"}}.{{fun_00010007 arg=\"\"}}{{anim id=\"22\"}} ¡un {{fun_00060004 arg=\"0x0500\"}}!\n{{anim id=\"1\"}}Vayaaa,{{delay frames=\"15\"}} no hubo suerte.{{delay frames=\"15\"}}\n¡No se puede ganar siempre!{{pageBreak}}{{anim id=\"28\"}}Eso te deja con un acierto\ny un fallo{{delay frames=\"8\"}}.{{delay frames=\"8\"}}.{{delay frames=\"8\"}}."
  },
  {
    "label": "024",
    "text": "{{anim id=\"37\"}}¡Segunda tarjeta!{{pageBreak}}{{anim id=\"0\"}}Primero devuelvo al mazo la\nprimera y barajo de nuevo{{delay frames=\"8\"}}.{{delay frames=\"8\"}}.{{delay frames=\"8\"}}.{{delay frames=\"8\"}}\nAhora cojo otra carta{{delay frames=\"8\"}}.{{delay frames=\"8\"}}.{{delay frames=\"8\"}}.{{delay frames=\"8\"}}{{pageBreak}}Listo, {{anim id=\"6\"}}¿crees que ha salido un\nnúmero más alto o más bajo que 5?{{fun_00000008 arg=\"0x190000001C000000\"}}\n¡Más alto!\n¡Más bajo!"
  },
  {
    "label": "025",
    "text": "{{fun_00000009 arg=\"0x1A001B00\"}}"
  },
  {
    "label": "026",
    "text": "{{anim id=\"37\"}}Tú dices que es mayor que 5,\n¡pero a ver lo que dice la tarjeta!{{pageBreak}}Pues ha salido un{{delay frames=\"8\"}}.{{delay frames=\"8\"}}.{{delay frames=\"8\"}}.{{fun_00010007 arg=\"\"}}{{anim id=\"22\"}} ¡{{fun_00060004 arg=\"0x0500\"}}!\n{{anim id=\"1\"}}¡Eh, esta vez has acertado!{{delay frames=\"15\"}}\nLlevas un acierto y un fallo."
  },
  {
    "label": "027",
    "text": "{{anim id=\"37\"}}¿Crees que esta es mayor que 5?{{delay frames=\"20\"}}\nNo sé qué opinará la tarjeta\nde esto{{delay frames=\"8\"}}.{{delay frames=\"8\"}}.{{delay frames=\"8\"}}.{{fun_00010007 arg=\"\"}}{{anim id=\"22\"}} ¡porque es un {{fun_00060004 arg=\"0x0400\"}}!\n{{anim id=\"9\"}}Lo siento, has fallado otra vez{{delay frames=\"8\"}}.{{delay frames=\"8\"}}.{{delay frames=\"8\"}}.{{delay frames=\"8\"}}\n{{anim id=\"1\"}}La fortuna te está siendo esquiva.{{pageBreak}}¡Pero no te rindas!\nTe queda un intento{{delay frames=\"8\"}}.{{delay frames=\"8\"}}.{{delay frames=\"8\"}}."
  },
  {
    "label": "028",
    "text": "{{fun_00000009 arg=\"0x1D001E00\"}}"
  },
  {
    "label": "029",
    "text": "{{anim id=\"37\"}}Crees que será menor que 5, ¿no?{{delay frames=\"20\"}}\nY la tarjeta tiene un{{delay frames=\"8\"}}.{{delay frames=\"8\"}}.{{delay frames=\"8\"}}.{{fun_00010007 arg=\"\"}}{{anim id=\"22\"}} ¡{{fun_00060004 arg=\"0x0400\"}}!{{pageBreak}}{{anim id=\"1\"}}¡Eh, esta vez sí has acertado!{{delay frames=\"15\"}}\nLlevas una y una{{delay frames=\"8\"}}.{{delay frames=\"8\"}}.{{delay frames=\"8\"}}."
  },
  {
    "label": "030",
    "text": "{{anim id=\"37\"}}Menor que 5.{{delay frames=\"20\"}} A ver si es verdad.{{delay frames=\"20\"}}\nPues ha salido la tarjeta con el\nnúmero{{delay frames=\"8\"}}.{{delay frames=\"8\"}}.{{delay frames=\"8\"}}.{{fun_00010007 arg=\"\"}}{{anim id=\"22\"}} ¡{{fun_00060004 arg=\"0x0500\"}}!{{pageBreak}}{{anim id=\"9\"}}Nada,{{delay frames=\"8\"}} que no das una.{{delay frames=\"15\"}}\n¿Has pisado un gato negro o algo?{{pageBreak}}No te rindas,{{delay frames=\"8\"}} que queda un intento{{delay frames=\"8\"}}.{{delay frames=\"8\"}}.{{delay frames=\"8\"}}."
  },
  {
    "label": "031",
    "text": "{{anim id=\"37\"}}¡Y vamos a por la última tarjeta!{{pageBreak}}{{anim id=\"0\"}}Devuelvo esta y barajo a base\nde bien.{{delay frames=\"8\"}} Y cojo otra{{delay frames=\"8\"}}.{{delay frames=\"8\"}}.{{delay frames=\"8\"}}.{{pageBreak}}¿Acertarás otra vez?\n¡Esta es la última!{{delay frames=\"15\"}}\n¿Más alto o más bajo que 5?{{fun_00000008 arg=\"0x2000000023000000\"}}\n¡Más alto!\n¡Más bajo!"
  },
  {
    "label": "032",
    "text": "{{fun_00000009 arg=\"0x21002200\"}}"
  },
  {
    "label": "033",
    "text": "{{anim id=\"37\"}}Mayor, ¿no?{{delay frames=\"20\"}} Pues a ver,{{delay frames=\"8\"}}\nla tarjeta tiene un{{delay frames=\"8\"}}.{{delay frames=\"8\"}}.{{delay frames=\"8\"}}.{{fun_00010007 arg=\"\"}} {{anim id=\"22\"}}¡{{fun_00060004 arg=\"0x0500\"}}!\n{{anim id=\"18\"}}¡Hala!{{delay frames=\"8\"}} ¡Has vuelto a acertar!"
  },
  {
    "label": "034",
    "text": "{{anim id=\"37\"}}Mayor, has dicho.{{delay frames=\"20\"}} Pues{{delay frames=\"8\"}} la tarjeta\nes la número{{delay frames=\"8\"}}.{{delay frames=\"8\"}}.{{delay frames=\"8\"}}.{{fun_00010007 arg=\"\"}}{{anim id=\"22\"}} ¡{{fun_00060004 arg=\"0x0400\"}}!{{pageBreak}}{{anim id=\"27\"}}Oooh,{{delay frames=\"8\"}} ¡has fallado!{{delay frames=\"15\"}}\n¡Ya me estaba preocupando!"
  },
  {
    "label": "035",
    "text": "{{fun_00000009 arg=\"0x24002500\"}}"
  },
  {
    "label": "036",
    "text": "{{anim id=\"37\"}}Menor, ¿no?{{delay frames=\"20\"}} Pues a ver, la tarjeta\nmuestra una cifra y es{{delay frames=\"8\"}}.{{delay frames=\"8\"}}.{{delay frames=\"8\"}}.{{fun_00010007 arg=\"\"}}{{anim id=\"22\"}} ¡un {{fun_00060004 arg=\"0x0400\"}}!\n{{anim id=\"18\"}}¡Qué tí{{fun_0006000E arg=\"0x02006F0002006100\"}},{{delay frames=\"8\"}} has acertado otra vez!"
  },
  {
    "label": "037",
    "text": "{{anim id=\"37\"}}Menor que 5, ¿no?{{delay frames=\"20\"}} Pues a ver{{delay frames=\"8\"}}.{{delay frames=\"8\"}}.{{delay frames=\"8\"}}.{{fun_00010007 arg=\"\"}}\n{{anim id=\"22\"}}¡La tarjeta tiene un {{fun_00060004 arg=\"0x0500\"}}!{{pageBreak}}{{anim id=\"27\"}}Ay,{{delay frames=\"8\"}} ¡has fallado!{{delay frames=\"15\"}} Ya pensaba\nque me ibas a ganar."
  },
  {
    "label": "038",
    "text": "{{anim id=\"37\"}}¡Llegamos a la tercera tarjeta!{{pageBreak}}{{anim id=\"0\"}}Primero devuelvo la que he cogido\nantes y las barajo todas de nuevo.{{delay frames=\"20\"}}\nAhora sí,{{delay frames=\"8\"}} cojo la última.\n¡Esta es la definitiva!{{delay frames=\"15\"}} {{anim id=\"6\"}}¿Va a salir un\nnúmero más alto o más bajo que 5?{{fun_00000008 arg=\"0x270000002A000000\"}}\n¡Más alto!\n¡Más bajo!"
  },
  {
    "label": "039",
    "text": "{{fun_00000009 arg=\"0x28002900\"}}"
  },
  {
    "label": "040",
    "text": "{{anim id=\"37\"}}¿Te quedas con \"más alto\"?{{delay frames=\"20\"}}\nPues te lo voy a decir{{delay frames=\"8\"}}.{{delay frames=\"8\"}}.{{delay frames=\"8\"}}.{{fun_00010007 arg=\"\"}}\n{{anim id=\"22\"}}¡Es un {{fun_00060004 arg=\"0x0500\"}}!{{pageBreak}}{{anim id=\"1\"}}¡Acertaste!{{delay frames=\"15\"}} Solo has fallado una vez,{{delay frames=\"8\"}}\n¡no está nada mal!"
  },
  {
    "label": "041",
    "text": "{{anim id=\"37\"}}¿Dices \"más alto\"?{{delay frames=\"20\"}} Y la tarjeta\ndice{{delay frames=\"8\"}}.{{delay frames=\"8\"}}.{{delay frames=\"8\"}}.{{fun_00010007 arg=\"\"}} {{anim id=\"22\"}}¡que es un {{fun_00060004 arg=\"0x0400\"}}!{{pageBreak}}{{anim id=\"9\"}}Vaya,{{delay frames=\"8\"}} otro fallo, ¿eh?{{delay frames=\"15\"}} {{anim id=\"1\"}}Entonces\nsolo has acertado la primera{{delay frames=\"8\"}}.{{delay frames=\"8\"}}.{{delay frames=\"8\"}}."
  },
  {
    "label": "042",
    "text": "{{fun_00000009 arg=\"0x2B002C00\"}}"
  },
  {
    "label": "043",
    "text": "{{anim id=\"37\"}}Te quedas con \"más bajo\", ¿eh?{{delay frames=\"20\"}}\nA ver qué pone en la tarjeta{{delay frames=\"8\"}}.{{delay frames=\"8\"}}.{{delay frames=\"8\"}}.{{fun_00010007 arg=\"\"}}{{anim id=\"22\"}} ¡{{fun_00060004 arg=\"0x0400\"}}!{{pageBreak}}{{anim id=\"1\"}}¡Pues has acertado!{{delay frames=\"15\"}} Y han sido dos\nde tres,{{delay frames=\"8\"}} ¡no está mal!"
  },
  {
    "label": "044",
    "text": "{{anim id=\"37\"}}Decides que es menor, ¿no?{{delay frames=\"20\"}}\nVeamos{{delay frames=\"8\"}}.{{delay frames=\"8\"}}.{{delay frames=\"8\"}}.{{fun_00010007 arg=\"\"}}{{anim id=\"22\"}} ¡Un {{fun_00060004 arg=\"0x0500\"}}!{{pageBreak}}Esto es otro fallo,{{delay frames=\"8\"}} me temo.{{delay frames=\"15\"}}\n{{anim id=\"1\"}}Solo has acertado la primera vez."
  },
  {
    "label": "045",
    "text": "{{anim id=\"37\"}}¡Tarjeta número tres!{{pageBreak}}{{anim id=\"0\"}}Que no digo que vaya a salir el 3,\nsino que es la última que{{delay frames=\"8\"}}.{{delay frames=\"8\"}}.{{delay frames=\"8\"}}.{{delay frames=\"20\"}}\n{{anim id=\"7\"}}¡Tú me entiendes!{{pageBreak}}{{anim id=\"0\"}}Como siempre,{{delay frames=\"8\"}} las vuelvo\na mezclar todas,{{delay frames=\"8\"}} barajo y\ncojo una.{{delay frames=\"15\"}} ¡La definitiva!\n¿Crees que el número será {{anim id=\"6\"}}más alto\no más bajo que 5?{{fun_00000008 arg=\"0x2E00000031000000\"}}\n¡Más alto!\n¡Más bajo!"
  },
  {
    "label": "046",
    "text": "{{fun_00000009 arg=\"0x2F003000\"}}"
  },
  {
    "label": "047",
    "text": "{{anim id=\"37\"}}Pues tú dices mayor y la tarjeta\ndice{{delay frames=\"8\"}}.{{delay frames=\"8\"}}.{{delay frames=\"8\"}}.{{fun_00010007 arg=\"\"}}{{anim id=\"22\"}} ¡concretamente {{fun_00060004 arg=\"0x0500\"}}!{{pageBreak}}{{anim id=\"1\"}}¡Otro acierto!{{delay frames=\"15\"}} Han sido dos de tres,\n¡que no está mal!"
  },
  {
    "label": "048",
    "text": "{{anim id=\"37\"}}Te quedas con \"más alto\",{{delay frames=\"8\"}} ¿no?{{delay frames=\"20\"}}\n¿Y crees que habrás acertado?{{delay frames=\"20\"}}\nTe lo voy a decir{{delay frames=\"8\"}}.{{delay frames=\"8\"}}.{{delay frames=\"8\"}}.{{fun_00010007 arg=\"\"}}{{anim id=\"22\"}} ¡Ha salido el {{fun_00060004 arg=\"0x0400\"}}!\n{{anim id=\"9\"}}Vaya,{{delay frames=\"8\"}} otro fallo.{{delay frames=\"15\"}} {{anim id=\"1\"}}Este juego\nse te da regular tirando a mal{{delay frames=\"8\"}}.{{delay frames=\"8\"}}.{{delay frames=\"8\"}}."
  },
  {
    "label": "049",
    "text": "{{fun_00000009 arg=\"0x32003300\"}}"
  },
  {
    "label": "050",
    "text": "{{anim id=\"37\"}}Venga, tú dices que es menor.{{delay frames=\"20\"}}\nY resulta que la tarjeta tiene\nel número{{delay frames=\"8\"}}.{{delay frames=\"8\"}}.{{delay frames=\"8\"}}.{{fun_00010007 arg=\"\"}}{{anim id=\"22\"}} ¡{{fun_00060004 arg=\"0x0400\"}}!\n{{anim id=\"1\"}}¡Has dado en el clavo!{{delay frames=\"15\"}}\nTotal: ¡un fallo y dos aciertos!"
  },
  {
    "label": "051",
    "text": "{{anim id=\"37\"}}Has dicho \"más bajo\" y ya\nno te puedes echar atrás.{{delay frames=\"20\"}}\nA ver la tarjeta{{delay frames=\"8\"}}.{{delay frames=\"8\"}}.{{delay frames=\"8\"}}.{{fun_00010007 arg=\"\"}} {{anim id=\"22\"}}¡un {{fun_00060004 arg=\"0x0500\"}}!{{pageBreak}}{{anim id=\"9\"}}Nada,{{delay frames=\"8\"}} otra vez que no aciertas{{delay frames=\"8\"}}.{{delay frames=\"8\"}}.{{delay frames=\"8\"}}.{{delay frames=\"15\"}}\n{{anim id=\"1\"}}Pues has fallado dos de tres."
  },
  {
    "label": "052",
    "text": "{{anim id=\"37\"}}Ya estamos en la tercera tarjeta.{{pageBreak}}{{anim id=\"0\"}}Devuelvo la de antes, barajo bien{{delay frames=\"8\"}}.{{delay frames=\"8\"}}.{{delay frames=\"8\"}}.{{delay frames=\"8\"}}\ny cojo la última. {{anim id=\"28\"}}¡No te equivoques\ntambién esta vez!{{pageBreak}}{{anim id=\"0\"}}Bueno, ¿qué me dices?{{delay frames=\"20\"}} ¿Va a salir\n{{anim id=\"6\"}}más alto o más bajo que 5?{{fun_00000008 arg=\"0x3500000038000000\"}}\n¡Más alto, por favor!\n¡Que sea más bajo!"
  },
  {
    "label": "053",
    "text": "{{fun_00060009 arg=\"0x36003600360036003600360036003700\"}}"
  },
  {
    "label": "054",
    "text": "{{anim id=\"37\"}}¿Seguro que saldrá más alto?{{delay frames=\"20\"}}\nVamos a verlo{{delay frames=\"8\"}}.{{delay frames=\"8\"}}.{{delay frames=\"8\"}}.{{fun_00010007 arg=\"\"}}{{anim id=\"22\"}} ¡Es un {{fun_00060004 arg=\"0x0500\"}}!{{pageBreak}}{{anim id=\"10\"}}Al fin,{{delay frames=\"8\"}} ¡has acertado uno!{{delay frames=\"15\"}}\n{{anim id=\"1\"}}Por lo menos te has salvado\nde una derrota total."
  },
  {
    "label": "055",
    "text": "{{anim id=\"37\"}}¿Seguro que este va a ser más alto?{{delay frames=\"20\"}}\nA ver si es verdad{{delay frames=\"8\"}}.{{delay frames=\"8\"}}.{{delay frames=\"8\"}}.{{fun_00010007 arg=\"\"}}{{anim id=\"22\"}} ¡Un {{fun_00060004 arg=\"0x0400\"}}!{{pageBreak}}{{anim id=\"18\"}}¡Pero bueno,{{delay frames=\"8\"}} has vuelto a fallar!{{delay frames=\"15\"}}\n{{anim id=\"9\"}}¡No has dado ni una!"
  },
  {
    "label": "056",
    "text": "{{fun_00060009 arg=\"0x39003900390039003900390039003A00\"}}"
  },
  {
    "label": "057",
    "text": "{{anim id=\"37\"}}¿Crees que va a ser menor que 5?{{delay frames=\"20\"}}\nVamos a ver si es verdad{{delay frames=\"8\"}}.{{delay frames=\"8\"}}.{{delay frames=\"8\"}}.{{fun_00010007 arg=\"\"}}{{anim id=\"22\"}} ¡Es el {{fun_00060004 arg=\"0x0400\"}}!{{pageBreak}}{{anim id=\"10\"}}¡Menos mal!{{delay frames=\"8\"}} Por lo menos has\nacertado el último.{{delay frames=\"15\"}} {{anim id=\"1\"}}Te has librado\nde una humillación total y absoluta."
  },
  {
    "label": "058",
    "text": "{{anim id=\"37\"}}Conque menor, ¿eh?{{delay frames=\"20\"}} A ver,{{delay frames=\"8\"}}\nla tarjeta tiene el número{{delay frames=\"8\"}}.{{delay frames=\"8\"}}.{{delay frames=\"8\"}}.{{fun_00010007 arg=\"\"}}{{anim id=\"22\"}} ¡{{fun_00060004 arg=\"0x0500\"}}!{{pageBreak}}{{anim id=\"18\"}}¿Cómo es posible?{{delay frames=\"8\"}} ¡Otro fallo!{{delay frames=\"15\"}}\n¡Y ya van tres!{{delay frames=\"20\"}} {{anim id=\"9\"}}No has dado ni una..."
  },
  {
    "label": "059",
    "text": "{{fun_00020009 arg=\"0x0400050005000500\"}}"
  },
  {
    "label": "060",
    "text": "{{anim id=\"1\"}}Me temo que me has ganado,{{delay frames=\"8\"}}\npero al menos ha sido entretenido.{{delay frames=\"20\"}}\nHay que repetirlo,{{delay frames=\"12\"}} {{fun_00070005 arg=\"\"}}."
  },
  {
    "label": "061",
    "text": "{{anim id=\"1\"}}Cuando tengas tiempo,{{delay frames=\"8\"}} jugamos\nla revancha,{{delay frames=\"12\"}} ¡{{fun_00070005 arg=\"\"}}!"
  },
  {
    "label": "062",
    "text": "{{anim id=\"1\"}}¡No ha estado nada mal!{{delay frames=\"15\"}}\nTienes que volver a jugar\nconmigo, ¿eh?{{delay frames=\"20\"}} ¡{{fun_0003000E arg=\"\"}}{{fun_00070005 arg=\"\"}}!"
  },
  {
    "label": "063",
    "text": "{{anim id=\"1\"}}Espero que no me guardes rencor.{{delay frames=\"20\"}}\n¡Tendrás que volver a intentarlo,{{delay frames=\"12\"}}\n{{fun_00070005 arg=\"\"}}!"
  },
  {
    "label": "064",
    "text": "{{anim id=\"1\"}}Espero que lo hayas pasado bien y\nque no me odies por haber ganado.{{delay frames=\"8\"}}\nQuizá la próxima vez,{{delay frames=\"10\"}} {{fun_00070005 arg=\"\"}}."
  }
]