﻿[
  {
    "label": "001",
    "text": "{{anim id=\"16\"}}¡Anda,{{delay frames=\"8\"}} mi {{fun_00030011 arg=\"0x0000\"}}!{{delay frames=\"20\"}}\n{{anim id=\"0\"}}¡Y yo buscándol{{fun_0012000E arg=\"0x100002006F00020061000000\"}}!{{delay frames=\"20\"}} {{anim id=\"11\"}}Aunque la verdad\nes que ya no me hace falta{{delay frames=\"8\"}}.{{delay frames=\"8\"}}.{{delay frames=\"8\"}}.\n{{anim id=\"1\"}}¿Qué te parece,{{delay frames=\"8\"}} {{fun_00080005 arg=\"\"}}?{{delay frames=\"20\"}}\n¿L{{fun_0012000E arg=\"0x100002006F00020061000000\"}} quieres?{{fun_0005000F arg=\"0x15002800\"}}\n¡Claro!\nNo, gracias..."
  },
  {
    "label": "002",
    "text": "{{anim id=\"16\"}}Pero bueno,{{delay frames=\"8\"}} ¡no me abras las cosas!{{delay frames=\"20\"}}\n{{anim id=\"6\"}}Metí {{fun_0001000E arg=\"\"}}{{fun_00030011 arg=\"0x0000\"}}\nahí dentro para ahorrar espacio.\n{{anim id=\"11\"}}Aunque, para eso,{{delay frames=\"8\"}} me podría\ndeshacer de {{fun_0012000E arg=\"0x10000400E9006C00080065006C006C0061000000\"}} directamente.{{delay frames=\"8\"}}.{{delay frames=\"8\"}}.{{delay frames=\"8\"}}\n¿Qué dices,{{delay frames=\"8\"}} {{anim id=\"1\"}}l{{fun_0012000E arg=\"0x100002006F00020061000000\"}} querrías tú?{{fun_0005000F arg=\"0x15002800\"}}\n¡Por supuesto!\nNo me hace falta..."
  },
  {
    "label": "003",
    "text": "{{anim id=\"16\"}}Anda,{{delay frames=\"8\"}} mira dónde aparece mi viej{{fun_0012000E arg=\"0x100002006F00020061000000\"}}\n{{fun_00030011 arg=\"0x0000\"}}.\nYa ni recordaba que l{{fun_0012000E arg=\"0x100002006F00020061000000\"}} tenía.\nA mí no me hace ninguna falta,{{delay frames=\"15\"}}\n{{anim id=\"1\"}}¿l{{fun_0012000E arg=\"0x100002006F00020061000000\"}} quieres tú?{{fun_0005000F arg=\"0x15002800\"}}\n¡Para mí!\n¿Para qué?"
  },
  {
    "label": "004",
    "text": "{{anim id=\"16\"}}¡Mi {{fun_00030011 arg=\"0x0000\"}}!{{delay frames=\"20\"}}\n{{anim id=\"1\"}}Es gracioso cuando aparecen cosas\nque habías perdido hacía tiempo.\n{{anim id=\"11\"}}No debería acumular cosas que en\nrealidad no uso{{delay frames=\"8\"}}.{{delay frames=\"8\"}}.{{delay frames=\"8\"}}.{{delay frames=\"15\"}}{{anim id=\"0\"}} Si a ti te sirve,{{delay frames=\"8\"}}\nte l{{fun_0012000E arg=\"0x100002006F00020061000000\"}} puedes llevar.{{fun_0005000F arg=\"0x15002800\"}}\n¡Con gusto!\n¿Y para qué quiero eso?"
  },
  {
    "label": "005",
    "text": "{{anim id=\"16\"}}¿{{fun_0003000E arg=\"\"}}{{fun_0002000E arg=\"\"}}{{fun_00030011 arg=\"0x0000\"}}?{{delay frames=\"20\"}}\n{{anim id=\"0\"}}¿Eso es mío?{{pageBreak}}{{anim id=\"21\"}}Ya ni me acordaba de que l{{fun_0012000E arg=\"0x100002006F00020061000000\"}} tenía.{{delay frames=\"20\"}}\nL{{fun_0012000E arg=\"0x100002006F00020061000000\"}} guardé pensando que le daría\nuso, y al final{{delay frames=\"8\"}}.{{delay frames=\"8\"}}.{{delay frames=\"8\"}}.{{delay frames=\"15\"}} {{anim id=\"0\"}}¿L{{fun_0012000E arg=\"0x100002006F00020061000000\"}} quieres tú?{{fun_0005000F arg=\"0x15002800\"}}\n¡Sí, por favor!\nYo no quiero eso..."
  },
  {
    "label": "006",
    "text": "{{anim id=\"9\"}}A ti tampoco te sirve,{{delay frames=\"8\"}} ¿no?"
  },
  {
    "label": "007",
    "text": "{{anim id=\"0\"}}Pues nada."
  },
  {
    "label": "008",
    "text": "{{anim id=\"0\"}}Normal,{{delay frames=\"8\"}} es un trasto un poco inútil,{{delay frames=\"8\"}}\n¿no?"
  },
  {
    "label": "009",
    "text": "{{anim id=\"1\"}}¿En serio?{{delay frames=\"15\"}} ¡Me quitas un peso\nde encima!"
  },
  {
    "label": "010",
    "text": "{{anim id=\"1\"}}¿Sí?{{delay frames=\"15\"}} ¡Me alegro!"
  },
  {
    "label": "011",
    "text": "{{anim id=\"1\"}}¡Fantástico!{{delay frames=\"15\"}} ¡Una cosa menos!"
  }
]