﻿[
  {
    "label": "001",
    "text": "{{anim id=\"1\"}}¡Con permiso,{{delay frames=\"8\"}} {{fun_0006000E arg=\"0x0E0061006C00630061006C0064006500120061006C00630061006C006400650073006100\"}}!"
  },
  {
    "label": "002",
    "text": "{{anim id=\"1\"}}¡Con permiso,{{delay frames=\"8\"}} {{fun_00000005 arg=\"\"}}!"
  },
  {
    "label": "003",
    "text": "{{anim id=\"3\"}}¡Je, je!{{delay frames=\"15\"}} ¡Parece que estés de\nacampada! {{anim id=\"5\"}}Yo solía ir de acampada\nen verano cuando era pequeña.{{pageBreak}}Hacíamos excursiones y por las\nnoches nos sentábamos alrededor\nde una hoguera a contar historias.\nSiempre me asustaba cuando\ncontaban alguna de miedo,{{delay frames=\"15\"}}{{anim id=\"4\"}}\n¡pero lo pasaba de maravilla!"
  },
  {
    "label": "004",
    "text": "{{anim id=\"15\"}}{{delay frames=\"8\"}}¡Ay, perdón!{{fun_00010007 arg=\"\"}} {{anim id=\"13\"}}Cuando empiezo a\ncontar anécdotas no hay quien\nme pare.{{pageBreak}}{{anim id=\"9\"}}He venido a traerte una cosa.{{delay frames=\"20\"}}\n{{anim id=\"1\"}}Aquí tienes, {{fun_00000005 arg=\"\"}},{{delay frames=\"20\"}} espero\nque sea de tu agrado."
  },
  {
    "label": "005",
    "text": "{{anim id=\"1\"}}¡Es un {{color id=\"2\"}}farol{{color id=\"65535\"}}!{{pageBreak}}{{anim id=\"0\"}}Lo teníamos en el ayuntamiento\ndentro de un armario, todo\nlleno de polvo.{{pageBreak}}{{anim id=\"1\"}}He pensado que lo ibas a necesitar,\nya que en la tienda no tienes luz."
  },
  {
    "label": "006",
    "text": "Si tocas la pestaña  en la pantalla\ntáctil o pulsas , podrás ver los\nobjetos que llevas en los bolsillos.\nSelecciona el farol y elige {{color id=\"2\"}}Colocar{{color id=\"65535\"}}\npara ponerlo en el suelo.{{fun_00010007 arg=\"\"}}\n{{anim id=\"23\"}}¿Por qué no lo intentas?"
  },
  {
    "label": "007",
    "text": "{{anim id=\"21\"}}¡Así! {{delay frames=\"4\"}}¡Muy bien!{{delay frames=\"15\"}} {{anim id=\"0\"}}Y ahora{{delay frames=\"4\"}}.{{delay frames=\"4\"}}.{{delay frames=\"4\"}}.{{pageBreak}}Ponte delante del farol y pulsa \npara encenderlo.{{delay frames=\"15\"}} {{anim id=\"38\"}}¡Venga, pruébalo!"
  },
  {
    "label": "008",
    "text": "{{anim id=\"3\"}}¡Fantástico!{{pageBreak}}{{anim id=\"1\"}}Me preocupaba que pudiera estar\nestropeado después de tanto\ntiempo, pero parece que funciona."
  },
  {
    "label": "009",
    "text": "{{anim id=\"0\"}}{{fun_0003000E arg=\"\"}}{{fun_00000005 arg=\"\"}},{{delay frames=\"15\"}} no tienes espacio\npara nada más en los bolsillos.{{delay frames=\"15\"}}\n{{anim id=\"1\"}}Mejor te lo dejo por aquí{{delay frames=\"4\"}}.{{delay frames=\"4\"}}.{{delay frames=\"4\"}}."
  },
  {
    "label": "010",
    "text": "{{anim id=\"1\"}}¿Ves? ¡Es un {{color id=\"2\"}}farol{{color id=\"65535\"}}!{{pageBreak}}{{anim id=\"0\"}}Lo teníamos en el ayuntamiento\ndentro de un armario, todo\nlleno de polvo.{{pageBreak}}{{anim id=\"1\"}}He pensado que lo ibas a necesitar,\nya que en la tienda no tienes luz."
  },
  {
    "label": "011",
    "text": "{{anim id=\"0\"}}Si te colocas delante y pulsas \ndebería encenderse, aunque es tan\nviejo que no sé si funcionará...\n{{anim id=\"23\"}}¿Por qué no lo intentas?"
  },
  {
    "label": "012",
    "text": "{{anim id=\"3\"}}¡Funciona! {{delay frames=\"20\"}}{{anim id=\"1\"}}Menos mal, no las tenía\ntodas conmigo."
  },
  {
    "label": "013",
    "text": "{{anim id=\"0\"}}Tú también puedes colocar objetos\nen el suelo como he hecho yo.{{pageBreak}}Toca la pestaña  en la pantalla\ntáctil, {{delay frames=\"15\"}}selecciona un objeto\ny elige {{color id=\"2\"}}Colocar{{color id=\"65535\"}}. ¡Así de fácil!"
  },
  {
    "label": "014",
    "text": "{{anim id=\"0\"}}¿Qué más{{delay frames=\"4\"}}.{{delay frames=\"4\"}}.{{delay frames=\"4\"}}.?{{delay frames=\"15\"}} Ah, ponte delante \nde él, mantén pulsado \ny muévete con ...\nAsí podrás moverlo hacia delante\ny hacia atrás, o incluso girarlo.{{delay frames=\"15\"}}\n{{anim id=\"1\"}}¡Colócalo donde más te guste!"
  },
  {
    "label": "015",
    "text": "{{anim id=\"15\"}}¡Ah!{{delay frames=\"15\"}} {{anim id=\"0\"}}Como todavía es de día,\nno hay necesidad de encender\nel farol, ¿no crees?{{pageBreak}}Si quieres apagarlo,{{delay frames=\"8\"}} ponte delante\ny vuelve a pulsar .{{pageBreak}}¡Pulsa  para recogerlo y\nguardarlo en los bolsillos!"
  },
  {
    "label": "016",
    "text": "{{anim id=\"0\"}}Si quieres apagarlo,{{delay frames=\"8\"}} vuelve a\npulsar  o simplemente recógelo\ncon ."
  },
  {
    "label": "017",
    "text": "{{anim id=\"15\"}}¡Ah!{{delay frames=\"15\"}} {{anim id=\"0\"}}Como todavía es de día,\nno hay necesidad de encender\nel farol, ¿no crees?{{pageBreak}}Si quieres apagarlo,{{delay frames=\"8\"}} ponte delante\ny vuelve a pulsar ."
  },
  {
    "label": "018",
    "text": "{{anim id=\"0\"}}Cuando quieras apagarlo,{{delay frames=\"15\"}} vuelve\na pulsar . Fácil, ¿no?"
  },
  {
    "label": "019",
    "text": "{{anim id=\"1\"}}¡Bien, pues eso es todo!{{fun_00010007 arg=\"\"}}\n{{anim id=\"9\"}}Espero no haberte molestado.{{delay frames=\"20\"}}\n{{anim id=\"1\"}}Me vuelvo al trabajo. ¡Adiós!"
  },
  {
    "label": "020",
    "text": ""
  },
  {
    "label": "021",
    "text": "{{anim id=\"0\"}}Toca la pestaña  en la pantalla\ntáctil,{{delay frames=\"15\"}} selecciona el farol y elige\n{{color id=\"2\"}}Colocar{{color id=\"65535\"}}. {{anim id=\"23\"}}¿Por qué no lo pruebas?"
  },
  {
    "label": "022",
    "text": "{{anim id=\"0\"}}Si te pones delante del farol y\npulsas ,{{delay frames=\"8\"}} debería encenderse.\n{{anim id=\"23\"}}¿Probamos a ver si funciona?"
  },
  {
    "label": "023",
    "text": ""
  },
  {
    "label": "024",
    "text": "{{anim id=\"15\"}}¡Ay!{{delay frames=\"15\"}} {{anim id=\"13\"}}¡Espera, por favor!{{pageBreak}}{{anim id=\"23\"}}¿Podrías colocar antes el farol\nen el suelo?"
  },
  {
    "label": "025",
    "text": "{{anim id=\"15\"}}¡Ah!{{delay frames=\"15\"}} {{anim id=\"13\"}}¡Un momento!{{pageBreak}}{{anim id=\"23\"}}Antes de hacer otra cosa, ¿podrías\ncomprobar si el farol funciona, por\nfavor?"
  },
  {
    "label": "026",
    "text": "{{anim id=\"23\"}}Antes de nada, ¿podrías intentar\nencender el farol? {{delay frames=\"20\"}}Será un segundo.{{pageBreak}}{{anim id=\"1\"}}Debería encenderse si te pones\ndelante y pulsas ."
  }
]