﻿[
  {
    "label": "001",
    "text": "{{fun_00040007 arg=\"\"}}Estás hecho un galán, {{fun_00000011 arg=\"0x0100\"}},\nrodeado de tan bellas chicas.{{fun_00050007 arg=\"\"}}"
  },
  {
    "label": "002",
    "text": "{{fun_00040007 arg=\"\"}}¡Qué tío! ¡Tú sí que sabes echar\nlas redes a las féminas, {{fun_00000011 arg=\"0x0100\"}}!{{fun_00050007 arg=\"\"}}"
  },
  {
    "label": "003",
    "text": "{{fun_00040007 arg=\"\"}}¿Cómo te las arreglas para estar\nrodeado de chicas, {{fun_00000011 arg=\"0x0100\"}}?\n¡Menudo rufián estás hecho! ¡Ar!{{fun_00050007 arg=\"\"}}"
  },
  {
    "label": "004",
    "text": "{{fun_00040007 arg=\"\"}}¡Me tienes que enseñar tus trucos\nde conquistador, {{fun_00000011 arg=\"0x0100\"}}!\nBueno, no, que se enfada mi mujer...{{fun_00050007 arg=\"\"}}"
  },
  {
    "label": "005",
    "text": "{{fun_00040007 arg=\"\"}}Aprovechando la travesía en barco\npara conquistar a tus sirenitas, ¿eh?\n¡Muy listo, {{fun_00000011 arg=\"0x0100\"}}! ¡Jar, jar!{{fun_00050007 arg=\"\"}}"
  },
  {
    "label": "006",
    "text": "{{fun_00040007 arg=\"\"}}Trata bien a las chicas, {{fun_00000011 arg=\"0x0100\"}}.\n¡Ahí está la diferencia entre un\nmarinero y un rufián, pescadilla!{{fun_00050007 arg=\"\"}}"
  },
  {
    "label": "007",
    "text": "{{fun_00040007 arg=\"\"}}El viaje es cortito, {{fun_00000011 arg=\"0x0100\"}}.\n¡Quiero verte flirtear como\nun verdadero lobo de mar!{{fun_00050007 arg=\"\"}}"
  },
  {
    "label": "008",
    "text": "{{fun_00040007 arg=\"\"}}Un consejo, {{fun_00000011 arg=\"0x0100\"}}: si nos cae\nuna tormenta, tú hazte el duro.\nAsí impresionarás a tus sirenitas.{{fun_00050007 arg=\"\"}}"
  },
  {
    "label": "009",
    "text": "{{fun_00040007 arg=\"\"}}Bueno, {{fun_00000011 arg=\"0x0100\"}}. ¿No les vas a\ncantar una serenata de los mares\na estas bellas damas?{{fun_00050007 arg=\"\"}}"
  },
  {
    "label": "010",
    "text": "{{fun_00040007 arg=\"\"}}{{fun_0000000D arg=\"0x02CD\"}}Ay, otra vez el motor. Tendremos\nque hacer reparaciones al llegar a\ntierra, ¿eh, {{fun_00000011 arg=\"0x0100\"}}?{{fun_00050007 arg=\"\"}}"
  }
]