﻿[
  {
    "label": "001",
    "text": "{{delay frames=\"20\"}}Uh,{{delay frames=\"8\"}} ¡hola,{{delay frames=\"8\"}} {{anim id=\"37\"}}{{fun_00000005 arg=\"\"}}!{{delay frames=\"30\"}}\n{{anim id=\"38\"}}¿Cómo estás?{{anim id=\"0\"}}"
  },
  {
    "label": "002",
    "text": "{{delay frames=\"20\"}}¡Hola,{{delay frames=\"8\"}} {{fun_00000005 arg=\"\"}}!{{delay frames=\"30\"}}\n{{anim id=\"37\"}}¡Me alegra verte de nuevo!"
  },
  {
    "label": "003",
    "text": "{{delay frames=\"20\"}}{{anim id=\"15\"}}{{delay frames=\"10\"}}Ah,{{delay frames=\"8\"}} eres tú,{{delay frames=\"8\"}} {{anim id=\"1\"}}{{fun_00000005 arg=\"\"}}.{{delay frames=\"20\"}}\nMe alegro de verte,{{delay frames=\"8\"}} ¿sí?"
  },
  {
    "label": "004",
    "text": ""
  },
  {
    "label": "005",
    "text": ""
  },
  {
    "label": "006",
    "text": "{{anim id=\"1\"}}¡Hola!{{delay frames=\"20\"}} ¿Qué tal estás?{{delay frames=\"20\"}}\n¿Traes algo para donar?{{delay frames=\"20\"}}\n¡Qué emoción!"
  },
  {
    "label": "007",
    "text": ""
  },
  {
    "label": "008",
    "text": "{{delay frames=\"20\"}}¡Hola, {{fun_00000005 arg=\"\"}}!{{delay frames=\"40\"}} {{anim id=\"23\"}}¿Te apetece \nescuchar un par de canciones?"
  },
  {
    "label": "009",
    "text": ""
  },
  {
    "label": "010",
    "text": "{{anim id=\"1\"}}¡Hola,{{delay frames=\"8\"}} prenda!{{delay frames=\"20\"}} Ya sabes,{{delay frames=\"8\"}}\nsi necesitas algo,{{delay frames=\"8\"}} aquí estoy."
  },
  {
    "label": "011",
    "text": ""
  },
  {
    "label": "012",
    "text": ""
  },
  {
    "label": "013",
    "text": "{{anim id=\"1\"}}¡Bienvenid{{fun_0006000E arg=\"0x02006F0002006100\"}},{{delay frames=\"8\"}} {{fun_00000005 arg=\"\"}}!"
  },
  {
    "label": "014",
    "text": "{{delay frames=\"20\"}}{{anim id=\"15\"}}¡Oh!{{delay frames=\"8\"}} ¿Has traído algo?{{delay frames=\"30\"}}\n{{anim id=\"1\"}}Trae para acá,{{delay frames=\"8\"}} a ver\nqué podemos hacerle."
  },
  {
    "label": "015",
    "text": "{{delay frames=\"20\"}}{{anim id=\"21\"}}Si sientes cansancio en los ojos{{delay frames=\"8\"}}\no te cuesta concentrarte,{{delay frames=\"8\"}}\n{{anim id=\"1\"}}¡contempla un rato las estrellas!"
  },
  {
    "label": "016",
    "text": "{{delay frames=\"20\"}}{{anim id=\"32\"}}Adelante,{{delay frames=\"8\"}} pasa.{{delay frames=\"8\"}} En nuestro humilde\nnegocio siempre eres bienvenid{{fun_0006000E arg=\"0x02006F0002006100\"}}.{{delay frames=\"20\"}}{{anim id=\"21\"}}\n{{size value=\"75\"}}Sí,{{delay frames=\"8\"}} sí.{{size value=\"100\"}}"
  },
  {
    "label": "017",
    "text": ""
  },
  {
    "label": "018",
    "text": "{{delay frames=\"20\"}}{{anim id=\"37\"}}Si todo el mundo dejara de\nresetear,{{delay frames=\"8\"}} {{anim id=\"6\"}}¡me quedaría en el paro!{{delay frames=\"20\"}}\n{{anim id=\"39\"}}{{fun_0000000D arg=\"0x00CD\"}}Y eso tampoco sería bueno{{delay frames=\"8\"}}.{{delay frames=\"8\"}}.{{delay frames=\"8\"}}."
  },
  {
    "label": "019",
    "text": ""
  },
  {
    "label": "020",
    "text": ""
  },
  {
    "label": "021",
    "text": "{{delay frames=\"20\"}}{{anim id=\"43\"}}¿Sientes el mar,{{delay frames=\"8\"}} el sonido\nde las olas,{{delay frames=\"8\"}} el olor a sal?"
  },
  {
    "label": "022",
    "text": ""
  },
  {
    "label": "023",
    "text": ""
  },
  {
    "label": "024",
    "text": ""
  },
  {
    "label": "025",
    "text": ""
  },
  {
    "label": "026",
    "text": ""
  },
  {
    "label": "027",
    "text": ""
  },
  {
    "label": "028",
    "text": ""
  },
  {
    "label": "029",
    "text": ""
  },
  {
    "label": "030",
    "text": ""
  },
  {
    "label": "031",
    "text": ""
  },
  {
    "label": "032",
    "text": ""
  },
  {
    "label": "033",
    "text": ""
  },
  {
    "label": "034",
    "text": ""
  },
  {
    "label": "035",
    "text": ""
  },
  {
    "label": "036",
    "text": ""
  },
  {
    "label": "037",
    "text": ""
  },
  {
    "label": "038",
    "text": ""
  },
  {
    "label": "039",
    "text": "{{delay frames=\"20\"}}{{anim id=\"31\"}}¿Qué tal,{{delay frames=\"8\"}} {{fun_00000005 arg=\"\"}}?{{delay frames=\"40\"}}\n{{anim id=\"1\"}}No sabes cuánto me alegra verte."
  },
  {
    "label": "040",
    "text": ""
  },
  {
    "label": "041",
    "text": ""
  },
  {
    "label": "042",
    "text": "{{delay frames=\"20\"}}¿Cómo está usted hoy,{{delay frames=\"8\"}} señorit{{fun_0006000E arg=\"0x02006F0002006100\"}}?{{delay frames=\"20\"}}\nHabrá oído decir que la elegancia\nempieza por los zapatos,{{delay frames=\"8\"}} ¿no?\n{{anim id=\"21\"}}Nunca se sabe cuándo tendremos\nque estar bien presentables{{delay frames=\"8\"}}.{{delay frames=\"8\"}}.{{delay frames=\"8\"}}.{{delay frames=\"8\"}}"
  },
  {
    "label": "043",
    "text": ""
  },
  {
    "label": "044",
    "text": ""
  },
  {
    "label": "045",
    "text": ""
  },
  {
    "label": "046",
    "text": ""
  },
  {
    "label": "047",
    "text": ""
  },
  {
    "label": "048",
    "text": ""
  },
  {
    "label": "049",
    "text": ""
  },
  {
    "label": "050",
    "text": ""
  },
  {
    "label": "051",
    "text": ""
  },
  {
    "label": "052",
    "text": ""
  },
  {
    "label": "053",
    "text": ""
  },
  {
    "label": "054",
    "text": ""
  },
  {
    "label": "055",
    "text": ""
  },
  {
    "label": "056",
    "text": ""
  },
  {
    "label": "057",
    "text": ""
  },
  {
    "label": "058",
    "text": ""
  },
  {
    "label": "059",
    "text": ""
  },
  {
    "label": "060",
    "text": ""
  },
  {
    "label": "061",
    "text": ""
  },
  {
    "label": "062",
    "text": ""
  },
  {
    "label": "063",
    "text": ""
  },
  {
    "label": "064",
    "text": ""
  },
  {
    "label": "065",
    "text": ""
  },
  {
    "label": "066",
    "text": ""
  },
  {
    "label": "067",
    "text": ""
  },
  {
    "label": "068",
    "text": ""
  },
  {
    "label": "069",
    "text": ""
  },
  {
    "label": "070",
    "text": ""
  },
  {
    "label": "071",
    "text": ""
  },
  {
    "label": "072",
    "text": "{{delay frames=\"20\"}}¡Hola,{{delay frames=\"8\"}} {{fun_00000005 arg=\"\"}}!{{delay frames=\"16\"}}\n{{anim id=\"1\"}}¿Cómo estás?"
  },
  {
    "label": "073",
    "text": ""
  },
  {
    "label": "074",
    "text": ""
  },
  {
    "label": "075",
    "text": ""
  },
  {
    "label": "076",
    "text": ""
  },
  {
    "label": "077",
    "text": ""
  },
  {
    "label": "078",
    "text": ""
  },
  {
    "label": "079",
    "text": ""
  },
  {
    "label": "080",
    "text": ""
  },
  {
    "label": "081",
    "text": ""
  },
  {
    "label": "082",
    "text": ""
  },
  {
    "label": "083",
    "text": ""
  },
  {
    "label": "084",
    "text": ""
  },
  {
    "label": "085",
    "text": ""
  },
  {
    "label": "086",
    "text": ""
  },
  {
    "label": "087",
    "text": ""
  },
  {
    "label": "088",
    "text": ""
  },
  {
    "label": "089",
    "text": ""
  },
  {
    "label": "090",
    "text": ""
  },
  {
    "label": "091",
    "text": ""
  },
  {
    "label": "092",
    "text": ""
  },
  {
    "label": "093",
    "text": ""
  },
  {
    "label": "094",
    "text": ""
  },
  {
    "label": "095",
    "text": ""
  },
  {
    "label": "096",
    "text": ""
  },
  {
    "label": "097",
    "text": ""
  },
  {
    "label": "098",
    "text": ""
  },
  {
    "label": "099",
    "text": ""
  },
  {
    "label": "100",
    "text": ""
  },
  {
    "label": "101",
    "text": "{{delay frames=\"20\"}}{{anim id=\"37\"}}¡Qué alegría verte,{{delay frames=\"8\"}} {{fun_00000005 arg=\"\"}}!{{delay frames=\"30\"}}\n{{anim id=\"38\"}}¿Qué tal estás?"
  },
  {
    "label": "102",
    "text": ""
  },
  {
    "label": "103",
    "text": ""
  },
  {
    "label": "104",
    "text": ""
  },
  {
    "label": "105",
    "text": ""
  },
  {
    "label": "106",
    "text": ""
  },
  {
    "label": "107",
    "text": ""
  },
  {
    "label": "108",
    "text": ""
  },
  {
    "label": "109",
    "text": ""
  },
  {
    "label": "110",
    "text": ""
  },
  {
    "label": "111",
    "text": ""
  },
  {
    "label": "112",
    "text": ""
  },
  {
    "label": "113",
    "text": ""
  }
]