﻿[
  {
    "label": "001",
    "text": "{{anim id=\"35\"}}¡Lo de siempre, sirenita!"
  },
  {
    "label": "002",
    "text": "{{anim id=\"6\"}}¡Ponme un café capaz de izarme los\npárpados como velas de bergantín!{{delay frames=\"32\"}}{{anim id=\"35\"}}\n¡Que sea un {{color id=\"2\"}}blue mountain {{color id=\"65535\"}}de esos!"
  },
  {
    "label": "003",
    "text": "{{anim id=\"6\"}}¡Ponme un café capaz de izarme los\npárpados como velas de galera!{{delay frames=\"32\"}} ¡Ar!{{anim id=\"35\"}}\n¡Con una {{color id=\"2\"}}cantidad normal de leche{{color id=\"65535\"}}!"
  },
  {
    "label": "004",
    "text": "{{anim id=\"6\"}}¡Ponme un café capaz de izarme los\npárpados como velas de carraca!{{delay frames=\"32\"}}{{anim id=\"35\"}}\n¡Y {{color id=\"2\"}}nada de endulzarlo{{color id=\"65535\"}}, ojito! ¡Ar!"
  },
  {
    "label": "005",
    "text": "{{anim id=\"37\"}}Trae acá, rana de atolón. A ver si el\naroma invita a bajarlo por el\ngaznate."
  },
  {
    "label": "006",
    "text": "{{anim id=\"16\"}}¡¿AR?!{{delay frames=\"32\"}} {{anim id=\"38\"}}¡Este café me ha dejado\nanclado al taburete! Menuda delicia\nde más allá de los mares del sur{{delay frames=\"8\"}}.{{delay frames=\"8\"}}.{{delay frames=\"8\"}}.{{delay frames=\"8\"}}\n{{fun_000E0007 arg=\"\"}}{{anim id=\"35\"}}Este humilde lobo de mar jamás\nolvidará la taza que acaba\nde degustar{{delay frames=\"8\"}}.{{delay frames=\"8\"}}.{{delay frames=\"8\"}}.{{delay frames=\"8\"}}"
  },
  {
    "label": "007",
    "text": "{{anim id=\"15\"}}¡Ar!{{delay frames=\"32\"}} ¡No está mal!{{anim id=\"9\"}} Me recuerda mis\ntiempos de grumete{{delay frames=\"4\"}}.{{delay frames=\"4\"}}.{{delay frames=\"4\"}}.{{delay frames=\"4\"}} {{delay frames=\"32\"}}cuando nunca\nme ponían el {{color id=\"2\"}}tipo de café {{color id=\"65535\"}}que pedía.\n{{anim id=\"37\"}}No te preocupes, anémona marina,{{delay frames=\"16\"}}\npero ponte las pilas{{anim id=\"28\"}} antes de que\nvuelva a fondear por aquí,{{delay frames=\"8\"}} ¿eh?"
  },
  {
    "label": "008",
    "text": "{{anim id=\"15\"}}¡Ar!{{delay frames=\"32\"}} ¡No está mal!{{anim id=\"9\"}} Me recuerda mis\ntiempos de grumete{{delay frames=\"4\"}}.{{delay frames=\"4\"}}.{{delay frames=\"4\"}}.{{delay frames=\"4\"}} {{delay frames=\"32\"}}cuando nunca\nme ponían la {{color id=\"2\"}}leche {{color id=\"65535\"}}que pedía.\n{{anim id=\"37\"}}No te preocupes, gamba de río,{{delay frames=\"16\"}}\npero ponte las pilas{{anim id=\"28\"}} antes de que \nvuelva a fondear por aquí,{{delay frames=\"8\"}} ¿eh?"
  },
  {
    "label": "009",
    "text": "{{anim id=\"15\"}}¡Ar!{{delay frames=\"32\"}} ¡No está mal!{{anim id=\"9\"}} Me recuerda mis\ntiempos de grumete{{delay frames=\"4\"}}.{{delay frames=\"4\"}}.{{delay frames=\"4\"}}.{{delay frames=\"4\"}} {{delay frames=\"32\"}}cuando nunca\nme ponían el {{color id=\"2\"}}azúcar {{color id=\"65535\"}}que pedía.\n{{anim id=\"37\"}}No te preocupes, sepia de agua\ndulce,{{delay frames=\"16\"}} pero ponte las pilas{{anim id=\"28\"}} antes de\nque vuelva a fondear por aquí,{{delay frames=\"8\"}} ¿eh?"
  },
  {
    "label": "010",
    "text": ""
  },
  {
    "label": "011",
    "text": ""
  },
  {
    "label": "012",
    "text": ""
  },
  {
    "label": "013",
    "text": "{{anim id=\"23\"}}¿Ar?{{delay frames=\"32\"}} {{anim id=\"9\"}}No,{{delay frames=\"16\"}} esta especie de achicoria\nno se parece mucho a lo que he\npedido, langosta de supermercado.\n{{anim id=\"36\"}}Sin embargo,{{delay frames=\"16\"}} el {{color id=\"2\"}}tipo de café {{color id=\"65535\"}}sí que\nes del agrado de este lobo de mar.{{delay frames=\"32\"}} {{anim id=\"37\"}}\n¡Volveré por aquí, jovenzuela!"
  },
  {
    "label": "014",
    "text": "{{anim id=\"23\"}}¿Ar?{{delay frames=\"32\"}} {{anim id=\"9\"}}No,{{delay frames=\"16\"}} esta especie de achicoria\nno se parece mucho a lo que he\npedido, grumetilla de secano.\n{{anim id=\"36\"}}Sin embargo,{{delay frames=\"16\"}} la {{color id=\"2\"}}cantidad de leche{{color id=\"65535\"}}\nes del agrado de este lobo de mar.{{delay frames=\"32\"}}\n{{anim id=\"37\"}}¡Volveré por aquí, lubina de charca!"
  },
  {
    "label": "015",
    "text": "{{anim id=\"23\"}}¿Ar?{{delay frames=\"32\"}} {{anim id=\"9\"}}No,{{delay frames=\"16\"}} esta especie de achicoria\nno se parece mucho a lo que he\npedido, dorada de cafetería.\n{{anim id=\"36\"}}Eso sí,{{delay frames=\"16\"}} este lobo de mar agradece\nque {{color id=\"2\"}}no le hayas echado {{color id=\"65535\"}}{{color id=\"2\"}}azúcar{{color id=\"65535\"}}.{{delay frames=\"32\"}}\n{{anim id=\"37\"}}¡Volveré por aquí, piratilla!"
  },
  {
    "label": "016",
    "text": "{{anim id=\"12\"}}{{delay frames=\"16\"}}¡Puaj! Pero{{delay frames=\"8\"}}.{{delay frames=\"8\"}}.{{delay frames=\"8\"}}.{{delay frames=\"8\"}}{{fun_00010007 arg=\"\"}}{{anim id=\"13\"}} {{delay frames=\"8\"}}{{delay frames=\"16\"}}¿qué clase de motín\nes este, anémona de mar? ¡Ar!{{pageBreak}}{{anim id=\"9\"}}Espero que no se repita la próxima\nvez que fondee en esta cafetería{{delay frames=\"8\"}}.{{delay frames=\"8\"}}.{{delay frames=\"8\"}}.{{delay frames=\"8\"}}"
  },
  {
    "label": "017",
    "text": ""
  },
  {
    "label": "018",
    "text": ""
  },
  {
    "label": "019",
    "text": ""
  }
]