﻿[
  {
    "label": "001",
    "text": "Aaah,{{anim id=\"21\"}} {{delay frames=\"10\"}}no hay nada más relajante\nque dar un buen paseo al aire libre.{{delay frames=\"30\"}}{{pageBreak}}{{anim id=\"0\"}}{{anim id=\"23\"}}¿Tú también has salido de casa con\nla intención de aventurarte en plena\nnaturaleza, amiguit{{fun_0006000E arg=\"0x02006F0002006100\"}}?\n{{anim id=\"3\"}}Pues haces muy bien.{{delay frames=\"10\"}} ¡Respirar\naire fresco es muy saludable!"
  },
  {
    "label": "002",
    "text": "{{anim id=\"0\"}}Aquí donde me ves,{{delay frames=\"20\"}} este viejo león\nmarino dedica su tiempo a darles\ninsignias a los niños buenos.{{delay frames=\"8\"}}\n{{anim id=\"1\"}}Huy, ahora que caigo, ¡si aún no me\nhe presentado! Me llamo {{color id=\"4\"}}Elio{{color id=\"65535\"}}, ¡más\nconocido como el \"reparteinsignias\"!{{pageBreak}}{{anim id=\"0\"}}Con tan solo un vistazo, {{anim id=\"21\"}}puedo\nsaber si te has portado bien o si\nhas hecho alguna travesura{{delay frames=\"5\"}}.{{delay frames=\"5\"}}.{{delay frames=\"5\"}}.{{pageBreak}}{{anim id=\"35\"}}¡Es un don especial que me viene\nde familia!{{pageBreak}}{{anim id=\"11\"}}Bueno, muchachit{{fun_0006000E arg=\"0x02006F0002006100\"}}, déjame que\nle eche un ojo a tu corazoncito{{delay frames=\"10\"}}.{{delay frames=\"10\"}}.{{delay frames=\"10\"}}.{{delay frames=\"10\"}}"
  },
  {
    "label": "003",
    "text": "{{anim id=\"21\"}}Mmm,{{delay frames=\"10\"}} ya veo{{delay frames=\"5\"}}.{{delay frames=\"5\"}}.{{delay frames=\"5\"}}."
  },
  {
    "label": "004",
    "text": "{{anim id=\"21\"}}¡Jo, jo!{{delay frames=\"10\"}} Claro, claro{{delay frames=\"5\"}}.{{delay frames=\"5\"}}.{{delay frames=\"5\"}}.\nNo me sorprende lo más mínimo."
  },
  {
    "label": "005",
    "text": "{{anim id=\"11\"}}Mmm{{delay frames=\"5\"}}.{{delay frames=\"5\"}}.{{delay frames=\"5\"}}.{{delay frames=\"30\"}} {{anim id=\"35\"}}{{delay frames=\"20\"}}¡Jo, jo! ¡Eres la monda!"
  },
  {
    "label": "006",
    "text": "{{anim id=\"37\"}}¡Tengo una insignia que te va que\nni pintada!"
  },
  {
    "label": "007",
    "text": "Se trata de una insignia muy\nespecial, así que espero que\nla trates como un tesoro.{{delay frames=\"20\"}}{{pageBreak}}Para evitar disgustos,{{delay frames=\"8\"}} ponla a buen\nrecaudo junto con tu {{color id=\"2\"}}Documento\nde Residente del Pueblo (){{color id=\"65535\"}}.\n{{anim id=\"1\"}}Toca la insignia situada en la\nesquina inferior izquierda de tu\n{{color id=\"2\"}}DRP () {{color id=\"65535\"}}para ver las que ya tienes.{{delay frames=\"15\"}}\n{{anim id=\"21\"}}La próxima vez que coincidamos,\nsi veo que te has portado muy bien,{{delay frames=\"10\"}}\nte daré otra insignia, ¿vale?\n{{anim id=\"37\"}}Mientras tanto,{{delay frames=\"15\"}} ¡vive cada día al\nmáximo y sin echar la vista atrás,\njovencit{{fun_0006000E arg=\"0x02006F0002006100\"}}!\nLa vida está llena de sorpresas y\nde cosas por descubrir y probar.\n¡Aprovecha cada instante!"
  },
  {
    "label": "008",
    "text": "{{anim id=\"37\"}}Sigue portándote bien y el viejo\n{{color id=\"4\"}}Elio{{color id=\"65535\"}} te recompensará con una nueva\ninsignia, ¿de acuerdo?"
  },
  {
    "label": "009",
    "text": "{{anim id=\"15\"}}¡Pero qué veo! ¡Si ya tienes todas\nlas insignias habidas y por haber!{{pageBreak}}{{anim id=\"1\"}}¡Fíjate que hasta se me han erizado\nlos bigotes de la emoción y todo!{{delay frames=\"15\"}}{{pageBreak}}{{anim id=\"29\"}}¡Bravo, jovencit{{fun_0006000E arg=\"0x02006F0002006100\"}}, has sido {{fun_0006000E arg=\"0x0E0075006E0020006E006900F1006F00100075006E00610020006E006900F1006100\"}}\nejemplar y has hecho muy feliz a\neste viejo león marino!\n{{anim id=\"0\"}}Atesora todas tus experiencias\ny momentos vividos.{{delay frames=\"15\"}} {{anim id=\"21\"}}¡Serán una\nfuente inagotable de inspiración!{{pageBreak}}{{anim id=\"0\"}}Y si la vida se te hace cuesta arriba,{{delay frames=\"15\"}}\npárate y contempla las insignias que\nte has ganado por méritos propios.{{delay frames=\"15\"}}\n{{anim id=\"1\"}}¡Te recordarán que posees en tu\ninterior la fuerza para superar\ncualquier obstáculo!"
  },
  {
    "label": "011",
    "text": "¡Oh, buenos días,{{delay frames=\"15\"}} jovenzuel{{fun_0006000E arg=\"0x02006F0002006100\"}}!{{fun_00010007 arg=\"\"}} Ah,\n{{anim id=\"37\"}}no hay nada como sentir la brisa\ny el rocío matutinos, ¿verdad?\nPor no mencionar lo bien que sienta\nsalir a estirar las patas..."
  },
  {
    "label": "012",
    "text": "¡Muy buenas,{{delay frames=\"15\"}} muchachit{{fun_0006000E arg=\"0x02006F0002006100\"}}!{{fun_00010007 arg=\"\"}}\n¿Tú también has venido a dar\nuna vueltecita entre los árboles?{{pageBreak}}{{anim id=\"37\"}}A este viejo león marino le encanta\nsentir los rayos del sol que se abren\npaso entre los árboles."
  },
  {
    "label": "013",
    "text": "¡Buenas tardes,{{delay frames=\"15\"}} amiguit{{fun_0006000E arg=\"0x02006F0002006100\"}}!{{fun_00010007 arg=\"\"}}\nVeo que tú también te has animado\na disfrutar de la naturaleza...\n{{anim id=\"37\"}}Pues no sé a ti, pero adentrarme en\nel bosque cuando la noche está al\ncaer me pone los bigotes de punta.\nImagínate que aparece algún ser\nterrorífico, ¡como un fantasma o\nun pingüino!"
  },
  {
    "label": "014",
    "text": "Jovencit{{fun_0006000E arg=\"0x02006F0002006100\"}},{{delay frames=\"15\"}} ¿no deberías estar ya en\nla cama?{{fun_00010007 arg=\"\"}} ¿A ti tampoco te da miedo\npasear por el bosque a estas horas?\n{{anim id=\"37\"}}A mí todo lo contrario: encuentro\nla calma y quietud que envuelven\nla noche de lo más relajantes.\nCuando llegues a mi edad tú también\nsabrás apreciar estos momentos de\nserenidad."
  },
  {
    "label": "015",
    "text": "{{anim id=\"1\"}}Por cierto,{{delay frames=\"10\"}} ¿hay algo que quieras\npreguntarme?{{fun_0006000F arg=\"0x000000002800\"}}\n¿Me das una insignia?\n¿Quién eres, abuelo?\nNo, nada"
  },
  {
    "label": "016",
    "text": "{{anim id=\"23\"}}{{delay frames=\"5\"}}¿Segur{{fun_0006000E arg=\"0x02006F0002006100\"}}, pequeñ{{fun_0006000E arg=\"0x02006F0002006100\"}}?{{fun_00010007 arg=\"\"}} {{anim id=\"37\"}}¿No será que te\nda vergüenza?{{delay frames=\"15\"}} Bueno, no importa.\n¡Vuelve a verme cuando quieras!"
  },
  {
    "label": "017",
    "text": "{{anim id=\"23\"}}{{delay frames=\"5\"}}¿Que quién soy?{{fun_00010007 arg=\"\"}} {{anim id=\"11\"}}Mmm, pensaba que\nya me había presentado{{delay frames=\"15\"}}.{{delay frames=\"15\"}}.{{delay frames=\"15\"}}.{{delay frames=\"10\"}}{{anim id=\"0\"}} {{delay frames=\"15\"}}¡Soy {{color id=\"4\"}}Elio{{color id=\"65535\"}},\n{{anim id=\"35\"}}{{delay frames=\"15\"}}el famoso reparteinsignias!{{pageBreak}}{{anim id=\"0\"}}Antes solía regalar globitos y otras\ncosas,{{delay frames=\"10\"}} pero ahora me ha dado por\nrepartir insignias a los niños buenos.{{pageBreak}}{{anim id=\"1\"}}¡Pórtate bien y este viejo león\nmarino recompensará tus buenas\nacciones con una bonita insignia!"
  },
  {
    "label": "018",
    "text": "{{anim id=\"38\"}}{{delay frames=\"15\"}}Así que una insignia, ¿eh?{{delay frames=\"20\"}} ¡Muy bien!{{fun_00010007 arg=\"\"}}\n{{anim id=\"11\"}}Tu corazoncito me dirá qué tipo de\ninsignia es la más adecuada para ti{{delay frames=\"5\"}}.{{delay frames=\"5\"}}.{{delay frames=\"5\"}}.{{delay frames=\"5\"}}{{delay frames=\"10\"}}"
  },
  {
    "label": "019",
    "text": ""
  },
  {
    "label": "021",
    "text": "{{anim id=\"1\"}}Dime,{{delay frames=\"15\"}} ¿puedo hacer algo por ti,\namiguit{{fun_0006000E arg=\"0x02006F0002006100\"}}?{{fun_0006000F arg=\"0x000000002800\"}}\n¡Sí, dame una insignia!\nEsto... ¿Quién eres?\nNo, nada"
  },
  {
    "label": "022",
    "text": "{{anim id=\"1\"}}¡Hola de nuevo!{{delay frames=\"15\"}} ¿Querías algo?{{fun_0005000F arg=\"0x00002800\"}}\n¡Sí, otra insignia!\nNo, nada"
  },
  {
    "label": "023",
    "text": "{{anim id=\"38\"}}{{delay frames=\"15\"}}¡Vaya, vaya! {{delay frames=\"20\"}}Así que quieres\notra insignia, ¿eh, pilluel{{fun_0006000E arg=\"0x02006F0002006100\"}}?{{fun_00010007 arg=\"\"}}\n{{anim id=\"11\"}}Veamos si no has sido revoltos{{fun_0006000E arg=\"0x02006F0002006100\"}}{{delay frames=\"5\"}}.{{delay frames=\"5\"}}.{{delay frames=\"5\"}}.{{delay frames=\"5\"}}"
  },
  {
    "label": "024",
    "text": ""
  },
  {
    "label": "025",
    "text": "{{anim id=\"37\"}}Sigue portándote bien y otro día\nte daré una nueva.{{delay frames=\"10\"}} ¿Trato hecho,\namiguit{{fun_0006000E arg=\"0x02006F0002006100\"}}?"
  },
  {
    "label": "026",
    "text": "{{anim id=\"21\"}}Puedes considerar las insignias que\nte doy como unos certificados de\nlas experiencias que has vivido.\n{{anim id=\"37\"}}¡Vive todo tipo de situaciones y\nconsigue montones de insignias!\n¿Podrás completar la colección?"
  },
  {
    "label": "027",
    "text": "{{anim id=\"1\"}}Estarás content{{fun_0006000E arg=\"0x02006F0002006100\"}}, ¿eh? ¡No todo\nel mundo recibe una como esa!{{fun_00010007 arg=\"\"}}\n¡Cuídala bien y lúcela con orgullo!"
  },
  {
    "label": "028",
    "text": "{{anim id=\"1\"}}¡Enhorabuena, amiguit{{fun_0006000E arg=\"0x02006F0002006100\"}}! Completar\nla colección de insignias no es una\ntarea al alcance de cualquiera.{{delay frames=\"10\"}}\n¡Has hecho de mí el león marino\nmás feliz de los siete mares!"
  },
  {
    "label": "029",
    "text": "Con lo joven que eres y ya has\nvivido situaciones de lo más\nrocambolescas.\nLo sé gracias al don especial que\nse transmite de generación en\ngeneración dentro de mi familia.\n{{anim id=\"21\"}}¡Todas tus experiencias te han\nayudado a madurar y a hacer de ti\n{{fun_0006000E arg=\"0x3A0075006E00200068006F006D006200720065006300690074006F00200068006500630068006F002000790020006400650072006500630068006F003A0075006E00610020006D0075006A006500720063006900740061002000680065006300680061002000790020006400650072006500630068006100\"}}!"
  },
  {
    "label": "030",
    "text": "Puede que ya no tenga más insignias\nque darte, mi {{fun_0006000E arg=\"0x1A0070006500710075006500F1006F00200061006D00690067006F001A0070006500710075006500F1006100200061006D00690067006100\"}}{{delay frames=\"5\"}}.{{delay frames=\"5\"}}.{{delay frames=\"5\"}}.{{pageBreak}}{{anim id=\"37\"}}Pero eso no significa que debas\ndejar de hacer buenas obras y\nbuscar nuevos desafíos.\nSi la aventura llama a tu puerta{{delay frames=\"5\"}}.{{delay frames=\"5\"}}.{{delay frames=\"5\"}}.{{delay frames=\"5\"}}\n¡déjala entrar!"
  }
]