﻿[
  {
    "label": "001",
    "text": "{{fun_00010009 arg=\"0x09000A000B00\"}}"
  },
  {
    "label": "002",
    "text": "{{fun_00020009 arg=\"0x0C000D000E001D00\"}}"
  },
  {
    "label": "003",
    "text": "{{fun_00040009 arg=\"0x0F0010001100120013001D00\"}}"
  },
  {
    "label": "004",
    "text": "{{fun_00020009 arg=\"0x1400150016001D00\"}}"
  },
  {
    "label": "005",
    "text": "{{fun_00010009 arg=\"0x170018001900\"}}"
  },
  {
    "label": "006",
    "text": "{{fun_00010009 arg=\"0x1A001B001C00\"}}"
  },
  {
    "label": "007",
    "text": ""
  },
  {
    "label": "008",
    "text": ""
  },
  {
    "label": "009",
    "text": "{{anim id=\"23\"}}¿Estás nervios{{fun_0006000E arg=\"0x02006F0002006100\"}} por ver los fuegos\nartificiales, {{delay frames=\"8\"}}cielín? {{delay frames=\"8\"}}{{anim id=\"3\"}}¡Porque yo sí,\n{{fun_00070005 arg=\"\"}}!"
  },
  {
    "label": "010",
    "text": "{{anim id=\"1\"}}Los fuegos artificiales empezarán\nen breve.{{delay frames=\"20\"}} No te vayas muy lejos o\nvas a perdértelos."
  },
  {
    "label": "011",
    "text": "{{anim id=\"1\"}}¿De qué color serán los fuegos\nartificiales de hoy?{{delay frames=\"16\"}} ¡Ya falta poco\npara saberlo!"
  },
  {
    "label": "012",
    "text": "¡Ya empiezan!{{anim id=\"31\"}}{{delay frames=\"16\"}} El verano no sería\nlo mismo sin sus preciosos fuegos\nartificiales, {{fun_00070005 arg=\"\"}}."
  },
  {
    "label": "013",
    "text": "{{anim id=\"6\"}}He llegado antes que nadie para\ncoger un buen sitio.{{fun_00010007 arg=\"\"}} {{anim id=\"38\"}}Ven, te dejaré\nun huequecito, cariñín."
  },
  {
    "label": "014",
    "text": "{{anim id=\"29\"}}¡Mira! ¡Los fuegos artificiales\nya han empezado!{{delay frames=\"16\"}} Levanta bien\nla cabeza, terroncín."
  },
  {
    "label": "015",
    "text": "{{anim id=\"4\"}}Esta noche, los fuegos son\nespecialmente bellos, ¿no crees,\n{{fun_00080005 arg=\"\"}}?"
  },
  {
    "label": "016",
    "text": "{{anim id=\"5\"}}Es un orgullo poder disfrutar de\nun espectáculo tan hermoso en\nnuestro querido pueblo."
  },
  {
    "label": "017",
    "text": "{{anim id=\"40\"}}Ay, me empieza a doler el cuello\nde tanto mirar hacia arriba.\nLa edad no perdona..."
  },
  {
    "label": "018",
    "text": "{{anim id=\"29\"}}¡Qué noche tan maravillosa!\nGracias por quedarte a ver\nlos fuegos conmigo, clavelito."
  },
  {
    "label": "019",
    "text": "{{anim id=\"16\"}}¿Crees que podrían hacer un fuego\nartificial que al explotar formara\nmi cara? {{delay frames=\"20\"}}{{anim id=\"4\"}}¡Sería divino!"
  },
  {
    "label": "020",
    "text": "Menos mal que esto ya se acaba.{{delay frames=\"8\"}}{{anim id=\"45\"}}\nNo habría aguantado despierta\nmucho más, {{fun_00070005 arg=\"\"}}{{delay frames=\"8\"}}.{{delay frames=\"8\"}}.{{delay frames=\"8\"}}.{{delay frames=\"8\"}}"
  },
  {
    "label": "021",
    "text": "Los fuegos acabarán pronto.{{delay frames=\"16\"}}{{anim id=\"9\"}} Me da\nun poco de pena, pero ya va siendo\nhora de irse a dormir."
  },
  {
    "label": "022",
    "text": "{{anim id=\"9\"}}El espectáculo está a punto de\nacabar y a mí me apetece comer\n{{fun_0002000E arg=\"\"}}{{fun_00130005 arg=\"0x0000\"}}.{{anim id=\"36\"}}{{delay frames=\"16\"}} ¡¿Por qué?!"
  },
  {
    "label": "023",
    "text": "{{anim id=\"1\"}}Los fuegos han sido impresionantes,\n¿verdad? {{delay frames=\"8\"}}Ojalá todas las noches de\nverano fueran como esta."
  },
  {
    "label": "024",
    "text": "{{anim id=\"10\"}}En fin, todo lo bueno se acaba,\n{{fun_00070005 arg=\"\"}}."
  },
  {
    "label": "025",
    "text": "{{anim id=\"9\"}}Es increíble lo que pueden crear\nusando la pólvora{{delay frames=\"8\"}}.{{delay frames=\"8\"}}.{{delay frames=\"8\"}}.{{delay frames=\"8\"}} ¡Estoy ansiosa\npor ver el próximo espectáculo!"
  },
  {
    "label": "026",
    "text": "{{anim id=\"24\"}}Y así terminan los últimos fuegos\nartificiales de este año{{delay frames=\"20\"}}. {{anim id=\"1\"}}Han sido\npreciosos, como siempre.\n¿Querrás volver a verlos conmigo\nel año que viene, cielín?"
  },
  {
    "label": "027",
    "text": "Me entristece que estos sean los\núltimos fuegos artificiales del año,\nterroncín.\n{{anim id=\"12\"}}Porque eso significa que el verano\ntambién ha llegado a su fin."
  },
  {
    "label": "028",
    "text": "{{anim id=\"9\"}}¿Qué te han parecido los fuegos,\ncariñín{{delay frames=\"10\"}}? Espectaculares, ¿verdad?{{delay frames=\"20\"}}\nLos últimos siempre lo son."
  },
  {
    "label": "029",
    "text": "{{anim id=\"21\"}}¡Pero, cielín, te vas a perder los\nfuegos! {{delay frames=\"16\"}}Pulsa  para mirar hacia\narriba.\n{{anim id=\"17\"}}¿Ya lo sabías? ¡¿Pues entonces\na qué esperas?!"
  }
]