﻿[
  {
    "label": "001",
    "text": "{{anim id=\"23\"}}¿Qué te parece mi estilo, cielín?{{fun_00010007 arg=\"\"}} \nQuizá sea un poco excesivo para\nmí, no sé...\n{{anim id=\"11\"}}Quiero probar cómo me sienta\npor un día."
  },
  {
    "label": "002",
    "text": "{{anim id=\"1\"}}Hoy he cambiado de estilo,{{delay frames=\"8\"}} flor.{{delay frames=\"20\"}}\nMe he decantado por un aspecto\nmás {{fun_00230005 arg=\"0x00CD\"}}.\n{{anim id=\"23\"}}¿Qué opinas?{{fun_00010007 arg=\"\"}} {{anim id=\"1\"}}Es bonito y muy\ncómodo. {{delay frames=\"16\"}}Perfecto para cualquier\nocasión."
  },
  {
    "label": "003",
    "text": "He encontrado esta ropa en el\narmario y he pensado: ¿por qué no?{{delay frames=\"20\"}}\nEl estilo es muy {{fun_00230005 arg=\"0x00CD\"}}.\n{{anim id=\"1\"}}Por muy mayores que seamos, a las\nchicas nos encanta vestirnos con\nropa mona, {{fun_00070005 arg=\"\"}}."
  },
  {
    "label": "004",
    "text": "{{anim id=\"37\"}}Hoy me apetecía cambiar de\naspecto, y me he puesto esta ropa\nque me da un aire {{fun_00230005 arg=\"0x00CD\"}}.\n{{anim id=\"43\"}}¿Me queda bien?{{delay frames=\"30\"}} {{anim id=\"2\"}}¡Desde luego no\nvoy a pasar desapercibida, ja, ja!"
  },
  {
    "label": "005",
    "text": "{{size value=\"150\"}}{{anim id=\"44\"}}¡{{fun_0003000E arg=\"\"}}{{fun_00070005 arg=\"\"}}! {{delay frames=\"16\"}}{{anim id=\"17\"}}{{size value=\"100\"}}Lo siento.{{delay frames=\"16\"}}\nCuando me pongo esta ropa me sale\nla vena de chica dura.\n{{anim id=\"37\"}}No acostumbro a llevar un estilo\ntan {{size value=\"150\"}}{{size value=\"100\"}}{{size value=\"100\"}}{{fun_00230005 arg=\"0x00CD\"}}, pero creo\nque me queda bastante bien.{{size value=\"100\"}}"
  },
  {
    "label": "006",
    "text": "{{anim id=\"5\"}}¿Qué te parece este uniforme\nque llevo?{{delay frames=\"20\"}} Me queda divino.{{pageBreak}}{{anim id=\"37\"}}No hay ningún acontecimiento\nespecial, pero me gusta cómo\nme queda el estilo {{fun_00230005 arg=\"0x00CD\"}}."
  },
  {
    "label": "007",
    "text": "{{anim id=\"36\"}}Hoy me siento tan espléndida como\nuna estrella de cine, pastelito.{{pageBreak}}{{anim id=\"1\"}}Y todo gracias a esta ropa con un\ndiseño tan {{fun_00230005 arg=\"0x00CD\"}}. {{delay frames=\"16\"}}¿No\nte encanta?"
  },
  {
    "label": "008",
    "text": "{{anim id=\"33\"}}El estilo {{fun_00230005 arg=\"0x00CD\"}} nunca\nha sido de mi agrado,{{delay frames=\"8\"}} pero tenía\ncuriosidad por probarlo.{{pageBreak}}{{anim id=\"1\"}}Disfruta de esta visión, porque no\nse repetirá en mucho tiempo."
  },
  {
    "label": "009",
    "text": "{{anim id=\"11\"}}Adoro el estilo clásico, pero eso no\nsignifica que no me guste ponerme\nropa moderna.\n{{anim id=\"21\"}}Como esta, por ejemplo.{{anim id=\"29\"}} ¿Verdad\nque tengo un aspecto la mar de\n{{fun_00230005 arg=\"0x00CD\"}}?"
  },
  {
    "label": "010",
    "text": "{{anim id=\"36\"}}Esta ropa {{fun_00230005 arg=\"0x00CD\"}} me\nqueda fenomenal, ¿no crees?{{pageBreak}}{{anim id=\"21\"}}Si hubiera vivido en el pasado,\nhabría sido la más elegante de\ntodas.{{delay frames=\"30\"}} {{anim id=\"2\"}}¡Como ahora, de hecho!"
  },
  {
    "label": "011",
    "text": "{{anim id=\"11\"}}La mejor ropa es aquella que\nrealza tu belleza natural, cielín.{{pageBreak}}{{anim id=\"1\"}}Como esta que llevo. El estilo es\n{{fun_00230005 arg=\"0x00CD\"}}, pero resultón."
  },
  {
    "label": "012",
    "text": "¡Fíjate, {{delay frames=\"8\"}}{{fun_00080005 arg=\"\"}}! {{delay frames=\"16\"}}¿Te suena mi\nropa?{{anim id=\"38\"}} ¡Es un diseño tuyo! {{delay frames=\"16\"}}¿No estás\ncontent{{fun_0006000E arg=\"0x02006F0002006100\"}}?\n{{anim id=\"4\"}}¡Tienes mucho talento, terroncín!\n{{delay frames=\"16\"}}{{anim id=\"29\"}}Puede que algún día llegues a ser\nfamos{{fun_0006000E arg=\"0x02006F0002006100\"}}."
  },
  {
    "label": "013",
    "text": "¿Te gusta la ropa que llevo?{{delay frames=\"16\"}} {{anim id=\"5\"}}Es\nun diseño de {{fun_00000011 arg=\"0x0000\"}}. {{delay frames=\"20\"}}Es{{fun_0005000E arg=\"0x0200650002006100\"}} chic{{fun_0005000E arg=\"0x02006F0002006100\"}}\nes u{{fun_0005000E arg=\"0x02006E0004006E006100\"}} artista.\n{{anim id=\"21\"}}Tú también puedes crear tus\npropios diseños, si te interesa,\nclaro.\n{{anim id=\"1\"}}¡Te prometo que si lo haces,\nllevaré tu ropa con orgullo por\nel pueblo!"
  },
  {
    "label": "014",
    "text": "{{anim id=\"23\"}}¿Qué opinas de mi ropa, cariñín? {{delay frames=\"16\"}}\nLa ha diseñado {{fun_00000011 arg=\"0x0000\"}} de\n{{fun_0003000E arg=\"\"}}{{fun_00020011 arg=\"0x0000\"}}.\n{{anim id=\"29\"}}Creo que tiene mucho futuro en\nel mundo de la moda."
  },
  {
    "label": "015",
    "text": ""
  },
  {
    "label": "016",
    "text": ""
  },
  {
    "label": "017",
    "text": ""
  },
  {
    "label": "018",
    "text": ""
  },
  {
    "label": "019",
    "text": ""
  },
  {
    "label": "020",
    "text": ""
  }
]