﻿[
  {
    "label": "001",
    "text": "{{anim id=\"9\"}}¿No te acuerdas de que te pedí que\nme trajeras a {{fun_00010011 arg=\"0x0100\"}}?{{delay frames=\"16\"}} Es muy\nimportante que hable con {{fun_0008000E arg=\"0x01CD0400E9006C00080065006C006C0061000000\"}}.\n{{anim id=\"37\"}}Si me haces este favor, te daré\nalgo a cambio de tu amabilidad{{delay frames=\"8\"}}.{{delay frames=\"8\"}}.{{delay frames=\"8\"}}.{{delay frames=\"8\"}}"
  },
  {
    "label": "002",
    "text": "{{anim id=\"9\"}}Ah, tardabas tanto en traerme\na {{fun_00010011 arg=\"0x0100\"}} que fui yo misma\na verl{{fun_0008000E arg=\"0x01CD02006F00020061000000\"}}.\n{{anim id=\"37\"}}¿Le llegaste a decir que l{{fun_0008000E arg=\"0x01CD02006F00020061000000\"}} buscaba?{{delay frames=\"20\"}}\nBueno, ahora ya no importa.{{pageBreak}}{{anim id=\"6\"}}Pero la próxima vez, te agradecería\nun poquito más de rapidez, cielín."
  },
  {
    "label": "003",
    "text": "{{anim id=\"15\"}}Pero, pero... {{delay frames=\"16\"}}¡Contaba contigo!{{delay frames=\"32\"}}\n{{anim id=\"6\"}}Ahora tendré que cambiar mis\nplanes."
  },
  {
    "label": "004",
    "text": "{{anim id=\"15\"}}¿{{fun_00010011 arg=\"0x0100\"}} dijo que no tenía\ntiempo?{{delay frames=\"20\"}} {{anim id=\"27\"}}Qué le vamos a hacer...{{pageBreak}}{{anim id=\"36\"}}Supongo que puedo posponer\nnuestro encuentro para más\nadelante."
  }
]