﻿[
  {
    "label": "001",
    "text": "{{anim id=\"9\"}}Hace rato que he dejado de jugar\nal escondite, {{fun_00080005 arg=\"\"}}."
  },
  {
    "label": "002",
    "text": "{{anim id=\"27\"}}¿El escondite dices?{{delay frames=\"10\"}} ¡Ah!\n¡Hace mucho tiempo de eso!"
  },
  {
    "label": "003",
    "text": "{{anim id=\"10\"}}Pero {{fun_00080005 arg=\"\"}}.{{delay frames=\"5\"}}.{{delay frames=\"5\"}}.{{delay frames=\"5\"}} No me digas\nque sigues con el juego\ndel escondite."
  },
  {
    "label": "004",
    "text": "{{fun_00010009 arg=\"0x050006000700\"}}"
  },
  {
    "label": "005",
    "text": "{{anim id=\"6\"}}No podíamos jugar eternamente.{{delay frames=\"10\"}}\nAdemás, tampoco pudiste encontrar\na todo el mundo, {{fun_00070005 arg=\"\"}}."
  },
  {
    "label": "006",
    "text": "{{anim id=\"6\"}}¡Ya te vale! ¿Cómo pudiste irte sin\nhaber encontrado a todo el mundo?{{delay frames=\"20\"}}\n¡No vuelvas a hacerlo!"
  },
  {
    "label": "007",
    "text": "{{anim id=\"9\"}}Tardaste tanto que lo dejamos.\nLa próxima vez intentaremos\nponértelo un poco más fácil, cielín."
  }
]