﻿[
  {
    "label": "001",
    "text": "{{anim id=\"23\"}}¿Qué te pasó, cielín? {{delay frames=\"16\"}}{{anim id=\"6\"}}\nTe esperé durante horas\ny no apareciste.\n{{anim id=\"6\"}}Más vale que tuvieras una razón de\npeso para dejarme plantada."
  },
  {
    "label": "002",
    "text": "{{anim id=\"18\"}}Ay, flor...{{delay frames=\"16\"}} Siento de veras hacerte\nesto, pero me ha surgido un\ncontratiempo.\n{{anim id=\"9\"}}Tendremos que posponer tu visita\npara otro día.{{delay frames=\"20\"}} ¡Perdona!"
  },
  {
    "label": "003",
    "text": "{{anim id=\"9\"}}¡Siento no haber estado en casa a\nla hora acordada!{{delay frames=\"20\"}} ¿Estuviste\nesperando mucho rato?\n{{anim id=\"21\"}}Tuve que ocuparme de un asunto\nurgente y no pude avisarte,\nperdona.\n{{anim id=\"36\"}}No te importa quedar otro día,\n¿verdad?"
  },
  {
    "label": "004",
    "text": "{{anim id=\"18\"}}¡{{fun_0003000E arg=\"\"}}{{fun_00080005 arg=\"\"}}, {{delay frames=\"8\"}}has vuelto!{{delay frames=\"16\"}}\n¿Qué ha pasado?{{pageBreak}}{{anim id=\"9\"}}¡Te juro que desapareciste ante\nmis ojos!{{delay frames=\"8\"}}{{anim id=\"19\"}}{{delay frames=\"16\"}} Me asusté mucho..."
  }
]