﻿[
  {
    "label": "001",
    "text": "{{anim id=\"23\"}}¿Te gusta tomar el sol, {{fun_00080005 arg=\"\"}}?{{delay frames=\"20\"}}\n{{anim id=\"37\"}}Pues hoy te vas a hartar,\n{{fun_00070005 arg=\"\"}}.\nEs el solsticio de verano.\nMás vale que tengas crema\nprotectora de factor 900."
  },
  {
    "label": "002",
    "text": "{{anim id=\"37\"}}Hoy es el solsticio de verano y no se\npone el sol. {{anim id=\"22\"}}¡Se me acaba de ocurrir\nuna idea genial, {{fun_00080005 arg=\"\"}}!\n¡Podemos organizar un{{delay frames=\"20\"}}\ndesayuno-comida-merienda-cena!\n¡Todo el día comiendo galletas!"
  },
  {
    "label": "003",
    "text": "{{anim id=\"11\"}}Como sabes,{{delay frames=\"20\"}} me gusta mucho\nel sol, {{delay frames=\"5\"}}pero no en el solsticio\nde verano, {{fun_00080005 arg=\"\"}}.\n{{anim id=\"0\"}}Hoy el sol está por aquí todo el día.{{delay frames=\"10\"}}\n{{anim id=\"6\"}}¡Como un invitado gorrón que no\nquiere marcharse de tu casa!"
  },
  {
    "label": "004",
    "text": "{{anim id=\"11\"}}¿Cómo llevas el día, {{fun_00080005 arg=\"\"}}?{{fun_00010007 arg=\"\"}}\nNo sé si te habrás dado cuenta,\npero ya es mediodía.\n{{anim id=\"0\"}}{{anim id=\"9\"}}Aunque claro, hoy no vas a notarlo.{{fun_00010007 arg=\"\"}}\nLas horas de sol se estiran {{delay frames=\"20\"}}como\nun chicle en el solsticio de verano."
  },
  {
    "label": "005",
    "text": "Aún nos queda un montonazo\nde horas de sol por delante,\n{{fun_00080005 arg=\"\"}}.\nYo soy de los que mantienen el tipo,{{delay frames=\"20\"}}\npero con este sol de justicia me\nderretiré como un cubito de hielo."
  },
  {
    "label": "006",
    "text": "{{anim id=\"37\"}}Buenas tardes, {{fun_00080005 arg=\"\"}}.{{delay frames=\"20\"}}\n{{anim id=\"23\"}}Porque ya es por la tarde, {{delay frames=\"5\"}}¿no? {{delay frames=\"10\"}}El\nsolsticio de verano me desorienta.\n{{anim id=\"40\"}}Es como si todo el día fuera la\nmisma hora. Así no hay quien\nse entere, {{fun_00070005 arg=\"\"}}."
  },
  {
    "label": "007",
    "text": "{{anim id=\"11\"}}La noche suele ser ideal para\nrelajarse casi todo el año,{{delay frames=\"10\"}} salvo en\nel solsticio de verano, {{fun_00080005 arg=\"\"}}.\n{{anim id=\"5\"}}¡Hoy lo más fácil es dejarse llevar,\n{{fun_00070005 arg=\"\"}}!"
  },
  {
    "label": "008",
    "text": "Oye, {{delay frames=\"5\"}}¿qué tal el solsticio de verano?{{delay frames=\"10\"}}\n{{anim id=\"9\"}}Yo he perdido completamente\nla noción del tiempo.\n{{anim id=\"25\"}}¿Tendré sueño?{{fun_00010007 arg=\"\"}}{{anim id=\"17\"}} ¿O será pronto\npara irse a la cama?{{fun_00010007 arg=\"\"}} Menudo cacao\nque tengo..."
  },
  {
    "label": "009",
    "text": "{{anim id=\"42\"}}¡Saludos, {{fun_00080005 arg=\"\"}}!{{delay frames=\"20\"}} ¿Encuentra\nvuesa merced el solsticio de\nverano de su agrado, {{fun_0006000E arg=\"0x120063006100620061006C006C00650072006F000C0073006500F1006F0072006100\"}}?\nBueno...{{delay frames=\"10\"}}{{anim id=\"9\"}} mejor dejo de hablar ya\ncomo un tuno del siglo XVII."
  },
  {
    "label": "010",
    "text": "{{anim id=\"23\"}}¿No te parece que el sol es\nincansable,{{delay frames=\"10\"}} {{fun_00080005 arg=\"\"}}?{{delay frames=\"10\"}} {{anim id=\"40\"}}Con las\nhoras que son {{delay frames=\"20\"}}y todavía aguanta."
  },
  {
    "label": "011",
    "text": "{{anim id=\"23\"}}¿Luz diurna en plena noche? Pega\nmenos que {{fun_0002000E arg=\"\"}}{{fun_000E0005 arg=\"0x0000\"}}\ncon {{fun_0002000E arg=\"\"}}{{fun_00130005 arg=\"0x0000\"}}...\n{{anim id=\"27\"}}Pero claro, a algunos les gustan\nlas cosas raras, {{fun_00080005 arg=\"\"}}."
  }
]