﻿[
  {
    "label": "001",
    "text": "{{anim id=\"32\"}}¡Es{{fun_0006000E arg=\"0x0200650002006100\"}}{{delay frames=\"8\"}} {{fun_00080005 arg=\"\"}}!{{delay frames=\"16\"}} ¿Cómo andas?{{pageBreak}}{{anim id=\"37\"}}He venido a echar el día\nen {{fun_0003000E arg=\"\"}}{{fun_00050005 arg=\"\"}},{{delay frames=\"8\"}} {{fun_00070005 arg=\"\"}}."
  },
  {
    "label": "002",
    "text": "{{anim id=\"32\"}}¡Menuda casualidad,{{delay frames=\"16\"}} {{fun_00080005 arg=\"\"}}!{{pageBreak}}{{anim id=\"37\"}}Justo hoy que vengo a {{fun_0003000E arg=\"\"}}{{fun_00050005 arg=\"\"}},\n¡coincidimos de compras!"
  },
  {
    "label": "003",
    "text": "{{anim id=\"15\"}}¡Ah! {{delay frames=\"16\"}}¡Qué sorpresa, {{fun_00080005 arg=\"\"}}!{{pageBreak}}{{anim id=\"37\"}}Tenía que comprar algo en\n{{fun_0003000E arg=\"\"}}{{fun_00050005 arg=\"\"}}. Por eso he venido\nde visita,{{delay frames=\"8\"}} {{fun_00070005 arg=\"\"}}."
  },
  {
    "label": "004",
    "text": "{{anim id=\"15\"}}¡Es{{fun_0006000E arg=\"0x0200650002006100\"}} {{delay frames=\"16\"}}{{fun_00080005 arg=\"\"}}!{{delay frames=\"32\"}} {{anim id=\"36\"}}Je, je, je{{delay frames=\"8\"}}.{{delay frames=\"8\"}}.{{delay frames=\"8\"}}.{{delay frames=\"8\"}}\nTe veo muy bien,{{delay frames=\"16\"}} amig{{fun_0006000E arg=\"0x02006F0002006100\"}} mí{{fun_0006000E arg=\"0x02006F0002006100\"}}.\nBueno, como siempre, ¿no?"
  },
  {
    "label": "005",
    "text": "{{anim id=\"16\"}}¡{{fun_0003000E arg=\"\"}}{{fun_00080005 arg=\"\"}}!{{delay frames=\"16\"}} ¡Qué bien te veo!{{pageBreak}}{{anim id=\"39\"}}Hoy me ha dado el punto de venir\nde visita a {{fun_0003000E arg=\"\"}}{{fun_00050005 arg=\"\"}}.{{delay frames=\"8\"}}\n¿Por qué no?"
  }
]