﻿[
  {
    "label": "001",
    "text": "{{anim id=\"15\"}}¡Anda! {{delay frames=\"16\"}}¿Vienes a la fiesta de\ncumpleaños de {{fun_00010011 arg=\"0x0000\"}}?{{anim id=\"37\"}}\n¡Qué bien! ¡Cuantos más, mejor!{{delay frames=\"32\"}}{{pageBreak}}{{anim id=\"5\"}}Venga, vamos a animar un poco\nla cosa con un baile,{{delay frames=\"8\"}} {{fun_00080005 arg=\"\"}}."
  },
  {
    "label": "002",
    "text": "{{anim id=\"37\"}}¡Hombre, {{delay frames=\"8\"}}{{fun_00080005 arg=\"\"}}!{{delay frames=\"16\"}} También\nvienes a celebrar el cumpleaños\nde {{fun_00010011 arg=\"0x0000\"}}, ¿a que sí?\n{{anim id=\"5\"}}¡Genial!{{delay frames=\"16\"}} ¡Que dé comienzo\nla fiesta,{{delay frames=\"8\"}} {{fun_00070005 arg=\"\"}}!"
  },
  {
    "label": "003",
    "text": "{{anim id=\"37\"}}¡{{fun_0003000E arg=\"\"}}{{fun_00080005 arg=\"\"}}!{{delay frames=\"32\"}} Estás aquí para\ncelebrar el cumple de {{fun_00010011 arg=\"0x0000\"}},{{delay frames=\"16\"}}\n¿verdad?\n{{anim id=\"6\"}}Como hoy es un día especial para\n{{fun_0007000E arg=\"0x0400E9006C00080065006C006C006100\"}}, {{anim id=\"38\"}}tendremos que darle la razón\naunque no la lleve."
  },
  {
    "label": "004",
    "text": "Por cierto, {{delay frames=\"8\"}}{{anim id=\"23\"}}¿le has dado ya algún\nregalo a {{fun_00010011 arg=\"0x0000\"}},{{delay frames=\"8\"}} {{fun_00070005 arg=\"\"}}?{{pageBreak}}{{anim id=\"37\"}}Yo le tengo preparado algo que le\nva a encantar. ¡Es lo último de lo\núltimo!"
  },
  {
    "label": "005",
    "text": "¿Le has regalado algo\nya a {{fun_00010011 arg=\"0x0000\"}}?{{pageBreak}}{{anim id=\"37\"}}Seguro que agradece cualquier\ndetalle que le des,{{anim id=\"35\"}}{{delay frames=\"16\"}} ¡es muy\nconformista!"
  },
  {
    "label": "006",
    "text": "Ya le he dado mi regalo a\n{{fun_00010011 arg=\"0x0000\"}},{{delay frames=\"8\"}} {{fun_00070005 arg=\"\"}}.{{pageBreak}}{{anim id=\"37\"}}Se ha puesto la mar de content{{fun_0007000E arg=\"0x02006F0002006100\"}}.\n{{anim id=\"36\"}}¡Casi se le saltan las lágrimas\nde la emoción!"
  },
  {
    "label": "007",
    "text": "{{anim id=\"37\"}}¡Las fiestas de cumpleaños son lo\nmejor de lo mejor!{{delay frames=\"32\"}}{{anim id=\"3\"}} ¡Todo el mundo\nse lo pasa en grande!"
  },
  {
    "label": "008",
    "text": "{{anim id=\"6\"}}Qué bien que {{fun_00010011 arg=\"0x0000\"}} nació\nun día como hoy,{{delay frames=\"16\"}} {{anim id=\"38\"}}¡así tenemos\nalgo que celebrar!"
  },
  {
    "label": "009",
    "text": "{{anim id=\"36\"}}Nunca he visto a{{delay frames=\"16\"}} {{fun_00010011 arg=\"0x0000\"}}{{delay frames=\"32\"}} así de\ncontent{{fun_0007000E arg=\"0x02006F0002006100\"}}.{{delay frames=\"8\"}} {{anim id=\"37\"}}¡Seguro que es porque\nhas venido a su cumple,{{delay frames=\"16\"}} {{fun_00080005 arg=\"\"}}!"
  },
  {
    "label": "010",
    "text": "{{fun_00010011 arg=\"0x0000\"}} parece feliz, {{anim id=\"23\"}}\n¿a que sí, {{delay frames=\"8\"}}{{fun_00070005 arg=\"\"}}?{{pageBreak}}{{anim id=\"37\"}}No sé qué le habrás regalado,{{delay frames=\"16\"}} pero{{delay frames=\"16\"}}\nseguro que le has demostrado\nlo que te importa."
  },
  {
    "label": "011",
    "text": "{{anim id=\"4\"}}¿Eh? {{delay frames=\"16\"}}Noto algo indescriptible{{delay frames=\"8\"}}.{{delay frames=\"8\"}}.{{delay frames=\"8\"}}.{{delay frames=\"8\"}}{{pageBreak}}{{anim id=\"36\"}}¡Será la emoción por esta fantástica\nfiesta de cumpleaños,{{delay frames=\"8\"}} {{fun_00070005 arg=\"\"}}!"
  },
  {
    "label": "012",
    "text": "{{anim id=\"15\"}}¿Eh? {{delay frames=\"16\"}}Tu cara no me suena{{delay frames=\"8\"}}.{{delay frames=\"8\"}}.{{delay frames=\"8\"}}.{{delay frames=\"8\"}}\n{{anim id=\"0\"}}Ah, {{delay frames=\"16\"}}tú debes de ser {{fun_0006000E arg=\"0x100065006C00200061006D00690067006F0010006C006100200061006D00690067006100\"}} es{{fun_0006000E arg=\"0x0200650002006100\"}}\nde{{fun_0006000E arg=\"0x02006C00060020006C006100\"}} que {{fun_00010011 arg=\"0x0000\"}} me ha hablado.\nTe llamas {{fun_00080005 arg=\"\"}}, ¿verdad?\n{{anim id=\"37\"}}Hola, soy {{fun_00010005 arg=\"\"}}.{{fun_00010007 arg=\"\"}} ¡{{fun_00010011 arg=\"0x0000\"}} y\nyo somos {{anim id=\"36\"}}pezuña y carne!{{delay frames=\"32\"}} \n{{anim id=\"5\"}}Hechas las presentaciones,{{delay frames=\"16\"}}\n¡ya podemos celebrar el cumple\nde {{fun_00010011 arg=\"0x0000\"}} sin ser desconocidos!"
  },
  {
    "label": "013",
    "text": ""
  },
  {
    "label": "014",
    "text": "{{anim id=\"37\"}}Las fiestas de cumpleaños\nson geniales,{{delay frames=\"8\"}} ¿a que sí?{{pageBreak}}¡Son ocasiones ideales para que\nle gente se conozca mejor!"
  },
  {
    "label": "015",
    "text": "{{anim id=\"4\"}}Que {{fun_00010011 arg=\"0x0000\"}} cumpla años hoy\ntambién{{delay frames=\"8\"}}.{{delay frames=\"8\"}}.{{delay frames=\"8\"}}.{{delay frames=\"8\"}}{{anim id=\"0\"}} me parece muy bonito.{{delay frames=\"8\"}}\nY más aún que tú te hayas unido.\n{{anim id=\"40\"}}{{color id=\"5\"}}(Ojalá no se note,{{delay frames=\"8\"}} pero me sienta\nfatal que me estén robando\nprotagonismo.){{color id=\"65535\"}}"
  },
  {
    "label": "016",
    "text": "{{anim id=\"36\"}}Nunca había visto a {{fun_00010011 arg=\"0x0000\"}}\ntan {{fun_0007000E arg=\"0x100063006F006E00740065006E0074006F00100063006F006E00740065006E0074006100\"}},{{delay frames=\"8\"}} ¡y todo gracias\na ti,{{delay frames=\"8\"}} {{fun_00080005 arg=\"\"}}!"
  },
  {
    "label": "017",
    "text": "{{anim id=\"21\"}}Lo que me recuerda que hoy\ntambién es el cumple de {{fun_00010011 arg=\"0x0100\"}}.{{pageBreak}}{{anim id=\"9\"}}No sabía a qué fiesta ir,{{delay frames=\"8\"}}\n{{fun_00070005 arg=\"\"}},{{delay frames=\"8\"}} {{anim id=\"44\"}}pero al final\nme decidí por la de {{fun_00010011 arg=\"0x0000\"}}.\n{{anim id=\"1\"}}Estaba claro que sería la fiesta más\nalternativa de la temporada,{{delay frames=\"8\"}} {{anim id=\"33\"}}sobre\ntodo si cuenta con mi presencia."
  },
  {
    "label": "018",
    "text": "{{anim id=\"37\"}}¿Sabías que hoy también cumple\naños {{fun_00010011 arg=\"0x0100\"}}?{{delay frames=\"20\"}} Si no te importa\nque te lo diga{{delay frames=\"8\"}}.{{delay frames=\"8\"}}.{{delay frames=\"8\"}}.\nCreo que deberías ir a su fiesta.{{delay frames=\"20\"}}\n{{anim id=\"21\"}}¡Seguro que se alegrará muchísimo,{{delay frames=\"8\"}}\n{{fun_00070005 arg=\"\"}}!"
  }
]