﻿[
  {
    "label": "001",
    "text": "{{fun_00010009 arg=\"0x030004000500\"}}"
  },
  {
    "label": "002",
    "text": "{{fun_00030009 arg=\"0x080009000A000B000C00\"}}"
  },
  {
    "label": "003",
    "text": "{{anim id=\"37\"}}Esta noche celebramos la{{delay frames=\"16\"}} {{color id=\"2\"}}Luna\nde Otoño{{color id=\"65535\"}}, un festival en honor\na nuestro entrañable satélite.{{pageBreak}}¿Hay algo parecido en tu pueblo?{{delay frames=\"30\"}}\n{{anim id=\"15\"}}¿Cómo?{{delay frames=\"16\"}} ¿Que también celebráis\nalgo así en tu pueblo?\n{{anim id=\"1\"}}Vaya, la luna es muy popular\nen todas partes.{{delay frames=\"10\"}} ¡Qué envidia!"
  },
  {
    "label": "004",
    "text": "Esta noche es la {{color id=\"2\"}}Luna de Otoño{{color id=\"65535\"}}.{{delay frames=\"8\"}}\n¡Tengo la sensación de que va\na ocurrir algo muy especial!\n{{anim id=\"15\"}}A lo mejor ya ha pasado.{{delay frames=\"32\"}} {{anim id=\"6\"}}Después\nde todo,{{delay frames=\"8\"}} {{anim id=\"3\"}}estoy hablando contigo {{delay frames=\"10\"}}\n¡y eres u{{fun_0006000E arg=\"0x02006E0004006E006100\"}} visitante especial!"
  },
  {
    "label": "005",
    "text": "{{fun_0001000A arg=\"0x06000700\"}}"
  },
  {
    "label": "006",
    "text": "{{anim id=\"32\"}}¡Hoy es la {{color id=\"2\"}}Luna de Otoño{{color id=\"65535\"}}!{{delay frames=\"32\"}}\nCelebramos que esta noche brilla\nen todo su esplendor.\n{{anim id=\"15\"}}Oye,{{delay frames=\"16\"}} ¿hay algún acontecimiento\n{{anim id=\"0\"}}parecido en tu pueblo? Sé que hay\nsitios donde se llama de otra forma.\n{{anim id=\"1\"}}Da igual el nombre que se le dé,{{delay frames=\"10\"}}\nlo importante es disfrutar\nde la belleza serena de la luna."
  },
  {
    "label": "007",
    "text": "¡Esta noche es la {{color id=\"2\"}}Luna de Otoño{{color id=\"65535\"}}!{{delay frames=\"32\"}}\nCuando la luna surque el cielo,\nestará en todo su esplendor{{delay frames=\"8\"}}.{{delay frames=\"8\"}}\n{{anim id=\"37\"}}Hay que ver, ¿eh?{{delay frames=\"16\"}} La luna tiene\nun aura mágica que deja a todo\nel mundo embobado, ¿no crees?"
  },
  {
    "label": "008",
    "text": "Al contemplar la luna,{{delay frames=\"16\"}} me entran\nganas de transformarme en un\nanimal nocturno y salvaje.\n{{anim id=\"20\"}}Grrr{{delay frames=\"8\"}}.{{delay frames=\"8\"}}.{{delay frames=\"8\"}}.{{delay frames=\"8\"}} aaarrr{{delay frames=\"8\"}}.{{delay frames=\"8\"}}.{{delay frames=\"8\"}}.{{delay frames=\"8\"}}\n¡Auuuuuuuuuu!{{delay frames=\"32\"}}\n{{anim id=\"33\"}}¡Bah, estoy de broma!\n{{anim id=\"37\"}}Seguro que la luz de la luna en días\ncomo hoy ha alimentado muchas\nmentes hambrientas de leyendas."
  },
  {
    "label": "009",
    "text": "He oído que hay varios platos\ndedicados en honor a la luna.{{pageBreak}}{{anim id=\"11\"}}{{delay frames=\"16\"}}Uno de ellos son{{delay frames=\"16\"}} los pasteles\nde luna, ¿los has probado?{{pageBreak}}{{anim id=\"36\"}}No son típicos de {{fun_0003000E arg=\"\"}}{{fun_00050005 arg=\"\"}},{{delay frames=\"8\"}} así\nque quizá nos quedemos con\nlas ganas, {{fun_00070005 arg=\"\"}}."
  },
  {
    "label": "010",
    "text": "Hay numerosas festividades\nrelacionadas con la luna en\ndistintas partes del mundo.\n{{anim id=\"43\"}}{{delay frames=\"16\"}}Ojalá llegue a ser tan famoso como\nla luna y se celebren días especiales\nen mi honor{{delay frames=\"8\"}}.{{delay frames=\"8\"}}.{{delay frames=\"8\"}}.{{delay frames=\"8\"}}"
  },
  {
    "label": "011",
    "text": "¿Te gusta la {{color id=\"2\"}}Luna de Otoño{{color id=\"65535\"}}?{{delay frames=\"16\"}}\n{{anim id=\"15\"}}Estoy{{delay frames=\"32\"}}{{anim id=\"0\"}} seguro de que, solo por ella,{{delay frames=\"16\"}}\ntu visita ha merecido la pena.\n{{anim id=\"37\"}}En distintas partes del mundo se\ncelebran festividades en honor\na nuestro querido satélite.{{pageBreak}}{{anim id=\"36\"}}No sé en otros sitios, pero la luna\nde {{fun_0003000E arg=\"\"}}{{fun_00050005 arg=\"\"}} tiene un brillo\nparticular muy cautivador."
  },
  {
    "label": "012",
    "text": "Has venido de muy lejos,{{delay frames=\"8\"}} por eso\nespero que la {{color id=\"2\"}}Luna de Otoño {{color id=\"65535\"}}de\neste año te esté gustando.\n{{anim id=\"37\"}}El brillo de la luna sobre los tejados\ndel pueblo crea un paisaje muy \nromántico.{{fun_00010007 arg=\"\"}}{{anim id=\"23\"}} ¿No te lo parece?\n{{anim id=\"37\"}}Voy a ver si encuentro un buen sitio\npara contemplar la luna con el mar\nde fondo."
  }
]