﻿[
  {
    "label": "001",
    "text": "{{anim id=\"38\"}}Hace buena mañana,\n¿no te parece, {{delay frames=\"8\"}}{{fun_00080005 arg=\"\"}}?{{pageBreak}}Lo noto en el ambiente{{delay frames=\"8\"}}.{{delay frames=\"8\"}}.{{delay frames=\"8\"}}.{{delay frames=\"8\"}}\nHoy va a ocurrir algo memorable{{delay frames=\"8\"}}.{{delay frames=\"8\"}}"
  },
  {
    "label": "002",
    "text": "{{anim id=\"37\"}}No hay ni rastro de lluvia en\nel horizonte, {{fun_00080005 arg=\"\"}}.{{pageBreak}}Si la cosa sigue así,{{delay frames=\"16\"}} {{anim id=\"38\"}}el cielo va a\nestar despejado esta noche. ¡Genial!"
  },
  {
    "label": "003",
    "text": "{{fun_00010009 arg=\"0x0C000D000E00\"}}"
  },
  {
    "label": "004",
    "text": "¿Te has fijado en el cielo?{{delay frames=\"32\"}} {{anim id=\"37\"}}\n¡Hay un arcoíris,{{delay frames=\"8\"}} {{fun_00080005 arg=\"\"}}!{{pageBreak}}{{anim id=\"11\"}}{{delay frames=\"16\"}}Todo un espectáculo de brillo\ny color.{{fun_00010007 arg=\"\"}} Me pregunto qué habrá\nal final{{delay frames=\"8\"}}.{{delay frames=\"8\"}}.{{delay frames=\"8\"}}.{{anim id=\"35\"}} {{color id=\"5\"}}(Si es que hay algo.){{color id=\"65535\"}}"
  },
  {
    "label": "005",
    "text": "Me gustaría ver un arcoíris\nreflejado en tus ojos{{delay frames=\"8\"}}.{{delay frames=\"8\"}}.{{delay frames=\"8\"}}.{{delay frames=\"8\"}} {{anim id=\"39\"}}Sería\nun espectáculo digno de admirar.{{pageBreak}}Además, si se tratase de un arcoíris\ndoble, {{anim id=\"4\"}}¡mejor que mejor,{{delay frames=\"8\"}}\n{{fun_00070005 arg=\"\"}}!"
  },
  {
    "label": "006",
    "text": "{{anim id=\"11\"}}{{delay frames=\"16\"}}Con este tiempo y algo de suerte,{{delay frames=\"10\"}}\npuede que veamos una aurora\nesta noche{{delay frames=\"8\"}}.{{delay frames=\"8\"}}.{{delay frames=\"8\"}}.\n{{anim id=\"37\"}}No te garantizo nada,{{delay frames=\"16\"}} pero te\naconsejo que le eches un vistazo\nal cielo esta noche.{{delay frames=\"16\"}} \n¡Te puedes llevar una agradable\nsorpresa!"
  },
  {
    "label": "007",
    "text": "{{anim id=\"6\"}}¡{{fun_0003000E arg=\"\"}}{{fun_00080005 arg=\"\"}}!{{delay frames=\"32\"}} ¡No te pierdas\nel espectáculo nocturno que\nhay en el firmamento!\n{{anim id=\"37\"}}¡Lo vas a flipar!{{delay frames=\"32\"}} {{anim id=\"4\"}}¡Es digno de una\npelícula de extraterrestres!"
  },
  {
    "label": "008",
    "text": "{{fun_00010009 arg=\"0x09000A000B00\"}}"
  },
  {
    "label": "009",
    "text": "Con este tiempo,{{delay frames=\"8\"}} {{anim id=\"44\"}}¡el cuerpo me\npide bailar sin parar!"
  },
  {
    "label": "010",
    "text": "En días así,{{delay frames=\"8\"}} lo mejor es tomarse\nun buen vaso de{{anim id=\"4\"}}{{delay frames=\"16\"}} {{fun_000E0005 arg=\"0x0000\"}}\ny tumbarse a la bartola."
  },
  {
    "label": "011",
    "text": "{{anim id=\"37\"}}En días como hoy,{{delay frames=\"16\"}} ¡me entran\nganas de {{anim id=\"42\"}}bailar {{fun_00140005 arg=\"0x0000\"}}\nsin parar,{{delay frames=\"8\"}} {{fun_00070005 arg=\"\"}}!"
  },
  {
    "label": "012",
    "text": "{{anim id=\"23\"}}{{fun_0003000E arg=\"\"}}{{fun_00080005 arg=\"\"}}, ¿te has fijado en el\ncielo de {{fun_0003000E arg=\"\"}}{{fun_00050005 arg=\"\"}}?{{delay frames=\"16\"}}{{pageBreak}}{{anim id=\"37\"}}Pues deberías.{{delay frames=\"8\"}} Las estrellas brillan\nen el firmamento como bombillas\nen una feria."
  },
  {
    "label": "013",
    "text": "{{anim id=\"21\"}}Escúchame bien, {{fun_00080005 arg=\"\"}}:{{delay frames=\"32\"}} los\ndeseos no se cumplen solo porque\npase una estrella fugaz.\n{{anim id=\"6\"}}La estrella fugaz no tiene nada que\nver.{{delay frames=\"32\"}} {{anim id=\"35\"}}¡TÚ eres quien tiene que hacer\ntus deseos realidad!"
  },
  {
    "label": "014",
    "text": "{{anim id=\"37\"}}¡Pulsa arriba en {{delay frames=\"8\"}} para contemplar\nel firmamento, {{fun_00080005 arg=\"\"}}!{{pageBreak}}{{anim id=\"21\"}}Si pulsas  cuando veas una estrella\nfugaz,{{delay frames=\"20\"}} podrás pedir un deseo\ny todo,{{delay frames=\"8\"}} {{fun_00070005 arg=\"\"}}.\n{{anim id=\"37\"}}Según la tradición del pueblo,{{delay frames=\"20\"}}\nsi la estrella escucha tu deseo,{{delay frames=\"8\"}}\nocurrirá algo agradable."
  }
]