﻿[
  {
    "label": "001",
    "text": "{{fun_0000000C arg=\"\"}}{{fun_0006000C arg=\"\"}}{{fun_0001000C arg=\"\"}}{{fun_0004000C arg=\"\"}}{{fun_0002000C arg=\"\"}}{{fun_0006000C arg=\"\"}}{{delay frames=\"16\"}}{{anim id=\"35\"}}¡{{fun_0003000E arg=\"\"}}{{fun_00080005 arg=\"\"}} y {{fun_00010011 arg=\"0x0100\"}}!\n¡Justo a tiempo!{{fun_0009000C arg=\"\"}}"
  },
  {
    "label": "002",
    "text": "{{fun_0000000C arg=\"\"}}{{fun_0006000C arg=\"\"}}{{fun_0001000C arg=\"\"}}{{fun_0004000C arg=\"\"}}{{fun_0002000C arg=\"\"}}{{fun_0006000C arg=\"\"}}{{delay frames=\"16\"}}{{anim id=\"15\"}}Ah, {{delay frames=\"8\"}}{{fun_00080005 arg=\"\"}},{{delay frames=\"8\"}} {{anim id=\"1\"}}menos mal que\nestás de vuelta, {{fun_00070005 arg=\"\"}}.{{fun_0009000C arg=\"\"}}"
  },
  {
    "label": "003",
    "text": "{{fun_0000000C arg=\"\"}}{{fun_0006000C arg=\"\"}}{{fun_0001000C arg=\"\"}}{{fun_0004000C arg=\"\"}}{{fun_0002000C arg=\"\"}}{{fun_0006000C arg=\"\"}}{{delay frames=\"16\"}}{{anim id=\"35\"}}Os doy la bienvenida a mi casa,\ntambién conocida como\nVilla {{fun_00010005 arg=\"\"}}.{{fun_0009000C arg=\"\"}}"
  },
  {
    "label": "004",
    "text": "{{fun_0000000C arg=\"\"}}{{fun_0006000C arg=\"\"}}{{fun_0001000C arg=\"\"}}{{fun_0004000C arg=\"\"}}{{fun_0002000C arg=\"\"}}{{fun_0006000C arg=\"\"}}{{delay frames=\"16\"}}{{anim id=\"13\"}}¡Llegas muy tarde, {{delay frames=\"8\"}}{{fun_00080005 arg=\"\"}}!\nPensaba que me habías dejado\ntirado.{{delay frames=\"8\"}}\n{{anim id=\"36\"}}Bah, olvídalo. Lo importante es\nque has traído a {{fun_00010011 arg=\"0x0100\"}}.{{delay frames=\"8\"}}\n¡Gracias!{{fun_0009000C arg=\"\"}}"
  },
  {
    "label": "005",
    "text": "{{fun_0000000C arg=\"\"}}{{fun_0007000C arg=\"\"}}{{fun_0001000C arg=\"\"}}{{fun_0008000C arg=\"\"}}{{fun_0002000C arg=\"\"}}{{fun_0006000C arg=\"\"}}{{delay frames=\"16\"}}{{anim id=\"23\"}}Bueno, ¿para qué querías verme?{{delay frames=\"16\"}}\nMe parece superraro que me llames\ntan de sopetón{{delay frames=\"8\"}}.{{delay frames=\"8\"}}.{{delay frames=\"8\"}}.{{delay frames=\"8\"}}{{fun_0009000C arg=\"\"}}"
  },
  {
    "label": "006",
    "text": "{{fun_0000000C arg=\"\"}}{{fun_0007000C arg=\"\"}}{{fun_0001000C arg=\"\"}}{{fun_0008000C arg=\"\"}}{{fun_0002000C arg=\"\"}}{{fun_0006000C arg=\"\"}}{{delay frames=\"16\"}}{{anim id=\"6\"}}Si me has traído aquí con tanta\nprisa{{delay frames=\"8\"}}.{{delay frames=\"8\"}}.{{delay frames=\"8\"}}.{{delay frames=\"32\"}} {{anim id=\"28\"}}será que tienes una sorpresa\npara mí, ¿no?{{fun_0009000C arg=\"\"}}"
  },
  {
    "label": "007",
    "text": "{{fun_0000000C arg=\"\"}}{{fun_0007000C arg=\"\"}}{{fun_0001000C arg=\"\"}}{{fun_0008000C arg=\"\"}}{{fun_0002000C arg=\"\"}}{{fun_0006000C arg=\"\"}}{{delay frames=\"16\"}}{{anim id=\"1\"}}¡Hola, {{fun_00010011 arg=\"0x0000\"}}!{{delay frames=\"16\"}} ¿De qué querías\nhablar conmigo?{{fun_0009000C arg=\"\"}}"
  },
  {
    "label": "008",
    "text": ""
  },
  {
    "label": "009",
    "text": "{{fun_0000000C arg=\"\"}}{{fun_0005000C arg=\"\"}}{{fun_0001000C arg=\"\"}}{{fun_0008000C arg=\"\"}}{{fun_0002000C arg=\"\"}}{{fun_0006000C arg=\"\"}}{{delay frames=\"16\"}}{{anim id=\"9\"}}Quiero pedirte perdón, {{fun_00010011 arg=\"0x0100\"}}.{{delay frames=\"16\"}} \nTengo este objeto desde hace tanto\nque ni me acuerdo.{{pageBreak}}Ya iba siendo hora de devolvértelo.{{fun_0009000C arg=\"\"}}"
  },
  {
    "label": "010",
    "text": "{{fun_0000000C arg=\"\"}}{{fun_0007000C arg=\"\"}}{{fun_0001000C arg=\"\"}}{{fun_0008000C arg=\"\"}}{{delay frames=\"16\"}}{{anim id=\"16\"}}¡Qué fuerte!{{delay frames=\"32\"}} {{anim id=\"36\"}}Es verdad que te\nlo había dejado.{{delay frames=\"16\"}} ¡Se me había\nolvidado del todo, je, je!\n{{anim id=\"36\"}}Yo también tardo un montón en\ndevolver las cosas, no te preocupes."
  },
  {
    "label": "011",
    "text": "{{fun_0000000C arg=\"\"}}{{fun_0005000C arg=\"\"}}{{fun_0001000C arg=\"\"}}{{fun_0008000C arg=\"\"}}{{fun_0002000C arg=\"\"}}{{fun_0006000C arg=\"\"}}Si mal no recuerdo, el otro día\nbuscabas como loca un chisme\nde estos, ¿verdad?{{pageBreak}}{{anim id=\"37\"}}Ayer me lo encontré de casualidad\ny decidí comprártelo.{{delay frames=\"8\"}} Espero que\nlo sigas queriendo, {{fun_00010011 arg=\"0x0100\"}}.{{fun_0009000C arg=\"\"}}"
  },
  {
    "label": "012",
    "text": "{{fun_0000000C arg=\"\"}}{{fun_0007000C arg=\"\"}}{{fun_0001000C arg=\"\"}}{{fun_0008000C arg=\"\"}}{{anim id=\"18\"}}¡¿Eh?!{{delay frames=\"16\"}} ¡¿Me has comprado{{delay frames=\"8\"}}.{{delay frames=\"8\"}}.{{delay frames=\"8\"}}.{{delay frames=\"8\"}}\n{{fun_0002000E arg=\"\"}}{{fun_00030011 arg=\"0x0000\"}}?!{{pageBreak}}{{anim id=\"5\"}}¡Qué chupi, {{delay frames=\"8\"}}{{fun_00010011 arg=\"0x0000\"}}!{{delay frames=\"16\"}} Y yo\nque creía que eras un agarrado.\n¡Muchas gracias, {{fun_00070005 arg=\"\"}}!"
  },
  {
    "label": "013",
    "text": "{{fun_0000000C arg=\"\"}}{{fun_0005000C arg=\"\"}}{{fun_0001000C arg=\"\"}}{{fun_0008000C arg=\"\"}}{{fun_0002000C arg=\"\"}}{{fun_0006000C arg=\"\"}}Hace unos días encontré este\nobjeto tirado delante de la\ntienda de reciclaje, {{fun_00070005 arg=\"\"}}.{{pageBreak}}{{anim id=\"37\"}}Si mal no recuerdo,{{delay frames=\"16\"}} era tuyo. \n¿Me equivoco, {{fun_00010011 arg=\"0x0100\"}}?{{fun_0009000C arg=\"\"}}"
  },
  {
    "label": "014",
    "text": "{{fun_0000000C arg=\"\"}}{{fun_0007000C arg=\"\"}}{{fun_0001000C arg=\"\"}}{{fun_0008000C arg=\"\"}}{{delay frames=\"16\"}}{{anim id=\"16\"}}¡Ah!{{delay frames=\"16\"}} ¡Mi {{fun_00030011 arg=\"0x0000\"}}!\n{{anim id=\"36\"}}¡No me extraña que no apareciera\npor casa!{{delay frames=\"32\"}}\nSe me debió de caer cuando\nfui de compras el otro día.\n{{anim id=\"5\"}}¡Gracias, {{fun_00010011 arg=\"0x0000\"}}!"
  },
  {
    "label": "015",
    "text": "{{fun_0000000C arg=\"\"}}{{fun_0005000C arg=\"\"}}{{fun_0001000C arg=\"\"}}{{fun_0008000C arg=\"\"}}{{fun_0002000C arg=\"\"}}{{fun_0006000C arg=\"\"}}{{delay frames=\"16\"}}{{anim id=\"36\"}}Siento haberte llamado con tanta\nurgencia, {{fun_00010011 arg=\"0x0100\"}}.{{pageBreak}}{{anim id=\"9\"}}Anoche soñé que te marchabas\nrumbo a Saturno sin despedirte\nde mí,{{delay frames=\"8\"}} {{fun_00070005 arg=\"\"}}.\n{{anim id=\"37\"}}Me desperté con mucha pena y\nquería hablar contigo. Tú nunca\nme harías algo así, ¿a que no?{{fun_0009000C arg=\"\"}}"
  },
  {
    "label": "016",
    "text": "{{fun_0000000C arg=\"\"}}{{fun_0007000C arg=\"\"}}{{fun_0001000C arg=\"\"}}{{fun_0008000C arg=\"\"}}{{fun_0002000C arg=\"\"}}{{fun_0006000C arg=\"\"}}{{delay frames=\"16\"}}{{anim id=\"15\"}}¡Pero qué sueños tan requeterraros\ntienes, {{fun_00010011 arg=\"0x0000\"}}! Claro que no me\nvoy.\n{{anim id=\"15\"}}Ah{{delay frames=\"8\"}}.{{delay frames=\"8\"}}.{{delay frames=\"8\"}}.{{delay frames=\"8\"}} ¿Saturno no es el planeta\nque tiene anillos alrededor?{{delay frames=\"20\"}} {{anim id=\"37\"}}Creo\nque ya sé qué significa tu sueño.\n{{anim id=\"28\"}}¡Que deberías comprarme un\nanillo superbonito, {{fun_00070005 arg=\"\"}}!"
  },
  {
    "label": "017",
    "text": "{{fun_0000000C arg=\"\"}}{{fun_0005000C arg=\"\"}}{{fun_0001000C arg=\"\"}}{{fun_0008000C arg=\"\"}}{{fun_0002000C arg=\"\"}}{{fun_0006000C arg=\"\"}}{{delay frames=\"16\"}}{{anim id=\"35\"}}Tenía la imperiosa necesidad\nde contarte quién va a ser mi\nrepresentante a partir de ahora.\n{{anim id=\"3\"}}El honor lo va a ser nada menos\nque...{{delay frames=\"10\"}} ¡tuyo, {{fun_00010011 arg=\"0x0100\"}}!{{pageBreak}}{{anim id=\"37\"}}Quería avisarte con antelación\npara que la buena nueva no te pille\npor sorpresa.{{fun_0009000C arg=\"\"}}"
  },
  {
    "label": "018",
    "text": "{{fun_0000000C arg=\"\"}}{{fun_0007000C arg=\"\"}}{{fun_0001000C arg=\"\"}}{{fun_0008000C arg=\"\"}}{{fun_0002000C arg=\"\"}}{{fun_0006000C arg=\"\"}}{{anim id=\"36\"}}Pero{{delay frames=\"8\"}}.{{delay frames=\"8\"}}.{{delay frames=\"8\"}}. ¡si yo no sé absolutamente\nnada de ese tema! {{anim id=\"9\"}}No sé de dónde\nte has sacado la idea.{{pageBreak}}{{anim id=\"11\"}}¿Hemos hablado alguna vez tú\ny yo de esto?{{pageBreak}}Mmm... {{anim id=\"43\"}}Pero supongo que si alguien\nnecesita un representante, ese\neres tú{{delay frames=\"8\"}}.{{delay frames=\"8\"}}.{{delay frames=\"8\"}}.{{delay frames=\"8\"}} {{anim id=\"38\"}}Vale,{{delay frames=\"8\"}} te echaré un cable."
  },
  {
    "label": "019",
    "text": ""
  },
  {
    "label": "020",
    "text": "{{fun_0000000C arg=\"\"}}{{fun_0007000C arg=\"\"}}{{fun_0001000C arg=\"\"}}{{fun_0007000C arg=\"\"}}{{fun_0002000C arg=\"\"}}{{fun_0003000C arg=\"\"}}Dicho esto, me marcho.{{delay frames=\"20\"}} Aunque no\nos lo parezca, tengo muchas cosas\nque hacer.\n{{anim id=\"1\"}}Gracias por todo, {{fun_00080005 arg=\"\"}}.{{delay frames=\"20\"}}\n{{fun_0002000C arg=\"\"}}{{fun_0005000C arg=\"\"}}Ya nos veremos, {{fun_00010011 arg=\"0x0000\"}}."
  },
  {
    "label": "021",
    "text": "{{fun_0000000C arg=\"\"}}{{fun_0007000C arg=\"\"}}{{fun_0001000C arg=\"\"}}{{fun_0007000C arg=\"\"}}{{fun_0002000C arg=\"\"}}{{fun_0005000C arg=\"\"}}Bueno... Ya está todo resuelto,\n¿no, {{fun_00010011 arg=\"0x0000\"}}?{{pageBreak}}{{anim id=\"37\"}}¡Pues me voy a casa!{{delay frames=\"16\"}} {{anim id=\"38\"}}¡Hasta luego!"
  },
  {
    "label": "022",
    "text": "{{fun_0000000C arg=\"\"}}{{fun_0007000C arg=\"\"}}{{fun_0001000C arg=\"\"}}{{fun_0007000C arg=\"\"}}{{fun_0002000C arg=\"\"}}{{fun_0003000C arg=\"\"}}Pues nada, yo me voy que ya\nva siendo hora.{{delay frames=\"16\"}} {{anim id=\"38\"}}¡Hasta luego!"
  },
  {
    "label": "023",
    "text": ""
  }
]