﻿[
  {
    "label": "001",
    "text": "{{anim id=\"37\"}}¡Me has sacado de un apuro!{{delay frames=\"16\"}}\n¡Gracias, {{fun_00080005 arg=\"\"}}!"
  },
  {
    "label": "002",
    "text": "{{anim id=\"1\"}}Si no llega a ser por ti, {{fun_00080005 arg=\"\"}},\nno podría haber hablado\ncon {{fun_00010011 arg=\"0x0100\"}}.{{delay frames=\"16\"}}"
  },
  {
    "label": "003",
    "text": "{{anim id=\"9\"}}Espero que te guste est{{fun_0008000E arg=\"0x00CD02006500020061000000\"}}\n{{fun_00030011 arg=\"0x0000\"}}.{{pageBreak}}Por cierto, tiene el honor de haber\npertenecido a alguien ilustre:\n{{anim id=\"37\"}}¡{{fun_0003000E arg=\"\"}}{{fun_00010005 arg=\"\"}}! ¡Je, je, je!"
  },
  {
    "label": "004",
    "text": ""
  },
  {
    "label": "005",
    "text": ""
  },
  {
    "label": "006",
    "text": "{{fun_00010011 arg=\"0x0100\"}}{{delay frames=\"16\"}} ya se ha ido a casa.{{fun_00010007 arg=\"\"}}\n{{anim id=\"36\"}}Me pregunto si será tan tímid{{fun_0008000E arg=\"0x01CD02006F00020061000000\"}} \ncomo yo.\n{{anim id=\"0\"}}En fin, {{fun_00080005 arg=\"\"}},{{delay frames=\"16\"}} el caso es\nque te debo una, {{fun_00070005 arg=\"\"}}.{{pageBreak}}{{anim id=\"37\"}}Toma est{{fun_0008000E arg=\"0x00CD02006500020061000000\"}} {{fun_00030011 arg=\"0x0000\"}}\nque está muy de moda como\nrecompensa por tus servicios."
  },
  {
    "label": "007",
    "text": "{{anim id=\"9\"}}Me gustaría haber podido hablar\nmás con {{fun_00010011 arg=\"0x0100\"}}{{delay frames=\"8\"}}.{{delay frames=\"8\"}}{{anim id=\"10\"}} No da\ntiempo de hacer nada últimamente.\n{{anim id=\"37\"}}En fin, {{fun_00080005 arg=\"\"}}, acepta est{{fun_0008000E arg=\"0x00CD02006500020061000000\"}}\n{{fun_00030011 arg=\"0x0000\"}} como\nrecompensa por tu ayuda."
  },
  {
    "label": "008",
    "text": "{{anim id=\"37\"}}Je, je. Es típico de {{fun_00010011 arg=\"0x0100\"}} ir\na toda prisa de un lado para otro.\n¡Vive constantemente estresad{{fun_0008000E arg=\"0x01CD02006F00020061000000\"}}!\n{{anim id=\"0\"}}En fin, haz el favor de aceptar\nest{{fun_0008000E arg=\"0x00CD02006500020061000000\"}} {{fun_00030011 arg=\"0x0000\"}} como\nagradecimiento por tu ayuda, ¿vale?"
  },
  {
    "label": "009",
    "text": "{{fun_00010011 arg=\"0x0100\"}} se ha marchado a casa\nen un abrir y cerrar de ojos.{{fun_00010007 arg=\"\"}}\n{{anim id=\"36\"}}Siempre anda con mucha prisa.\nPor cierto, {{fun_00080005 arg=\"\"}},{{delay frames=\"16\"}} te debo\nun favor, {{delay frames=\"8\"}}{{fun_00070005 arg=\"\"}}.{{pageBreak}}{{anim id=\"37\"}}Iba a darte algo que te dejaría\nsin aliento,{{delay frames=\"10\"}} {{anim id=\"9\"}}¡pero tienes los bolsillos\nllenos, {{fun_00070005 arg=\"\"}}!\n{{anim id=\"37\"}}No te preocupes, que no te pienso\ndejar sin tu merecida recompensa.{{pageBreak}}Te la mando por correo y de paso\nle damos trabajo a {{color id=\"4\"}}Carturo{{color id=\"65535\"}}, que\núltimamente está un poco ocioso."
  },
  {
    "label": "010",
    "text": "Je, je{{delay frames=\"4\"}}.{{delay frames=\"4\"}}.{{delay frames=\"4\"}}.{{delay frames=\"4\"}} {{fun_00010011 arg=\"0x0100\"}} vive siempre\npendiente del reloj. No sé cuándo\naprenderá a relajarse.{{pageBreak}}{{anim id=\"0\"}}En fin. Quería darte un pequeño\ndetalle por tu ayuda, pero tienes\nlos bolsillos llenos.\n{{anim id=\"37\"}}No te preocupes. Te lo mandaré{{delay frames=\"16\"}} \npor correo dentro de un rato,\n{{delay frames=\"8\"}}{{fun_00070005 arg=\"\"}}."
  }
]