﻿[
  {
    "label": "001",
    "text": "{{anim id=\"9\"}}Recoger firmas para mi petición\n\"{{fun_00010012 arg=\"\"}}\"{{delay frames=\"16\"}} me\nestá costando más de lo que creía.{{pageBreak}}{{anim id=\"6\"}}¡Por eso necesito tu ayuda!{{fun_00010007 arg=\"\"}} {{anim id=\"0\"}}Hoy vas\na visitar otros pueblos, ¿a que sí?{{pageBreak}}Entonces{{delay frames=\"4\"}}.{{delay frames=\"4\"}}.{{delay frames=\"4\"}}.{{delay frames=\"4\"}} {{anim id=\"37\"}}¿te importaría recoger\nfirmas de gente que apoye mi última\npetición, {{delay frames=\"8\"}}{{fun_00070005 arg=\"\"}}?{{fun_0005000F arg=\"0x15002800\"}}\n¡Cuenta con ello!\nHoy no puedo"
  },
  {
    "label": "002",
    "text": "{{fun_0003000E arg=\"\"}}{{fun_00080005 arg=\"\"}},{{delay frames=\"16\"}} ¿tienes pensado\naventurarte en otros pueblos hoy?{{pageBreak}}{{anim id=\"9\"}}Necesito firmas para mi petición\n\"{{fun_00010012 arg=\"\"}}\", pero\n{{anim id=\"11\"}}no he tenido suerte por aquí.\n{{anim id=\"37\"}}Si no te importa,{{delay frames=\"8\"}} ¿podrías recoger\nfirmas en otros pueblos?{{fun_0005000F arg=\"0x15002800\"}}\n¡Claro!\nNo puedo, perdona"
  },
  {
    "label": "003",
    "text": "{{anim id=\"9\"}}Llevo un tiempo recogiendo firmas\nde apoyo para una petición, pero\nde momento no tengo mucha suerte.\n{{anim id=\"19\"}}No hay gente dispuesta a apoyar\nalgo con un título tan radical como\n\"{{fun_00010012 arg=\"\"}}\"{{delay frames=\"8\"}}.{{delay frames=\"8\"}}.{{delay frames=\"8\"}}.{{delay frames=\"8\"}}\n{{anim id=\"35\"}}Sin embargo, ¡me niego a darme por\nvencido!{{fun_00010007 arg=\"\"}} Por eso te quería pedir un\nfavor si sales hoy del pueblo{{delay frames=\"8\"}}.{{delay frames=\"8\"}}\n{{anim id=\"0\"}}Dime,{{delay frames=\"16\"}} {{anim id=\"23\"}}¿te importaría recoger firmas\nen otros pueblos,{{delay frames=\"8\"}} {{fun_00080005 arg=\"\"}}?{{fun_0005000F arg=\"0x00002800\"}}\n¡Cuenta conmigo!\nLo siento, no puedo"
  },
  {
    "label": "004",
    "text": "{{anim id=\"37\"}}Vaya...{{delay frames=\"16\"}} Bueno, te entiendo.{{anim id=\"36\"}} ¡Una\npetición así de innovadora tira para\natrás al más pintado!"
  },
  {
    "label": "005",
    "text": "{{anim id=\"19\"}}Hum,{{delay frames=\"16\"}} el futuro de mi petición\n\"{{fun_00010012 arg=\"\"}}\" está\ncada vez más negro{{delay frames=\"8\"}}.{{delay frames=\"8\"}}.{{delay frames=\"8\"}}."
  },
  {
    "label": "006",
    "text": "{{anim id=\"9\"}}Vaya, se ve que el gran público no\nestá preparado aún para mi petición\n\"{{fun_00010012 arg=\"\"}}\"{{delay frames=\"8\"}}.{{delay frames=\"8\"}}.{{delay frames=\"8\"}}.{{delay frames=\"8\"}}"
  },
  {
    "label": "007",
    "text": "{{anim id=\"5\"}}¡¿Lo dices en serio?! {{delay frames=\"16\"}}¡Ni te imaginas\nlo que significa para mí,{{delay frames=\"8\"}} {{fun_00080005 arg=\"\"}}!{{pageBreak}}{{anim id=\"37\"}}Tienen que ser firmas de vecinos\n{{color id=\"2\"}}de otro pueblo{{color id=\"65535\"}}.{{delay frames=\"16\"}} {{delay frames=\"16\"}}Solo necesito\n{{color id=\"2\"}}{{fun_00060004 arg=\"0x0000\"}} {{fun_0009000E arg=\"0x00CD0C006600690072006D00610073000A006600690072006D0061000C006600690072006D0061007300\"}}{{color id=\"65535\"}} para presentar la petición.\n{{anim id=\"15\"}}¡Huy, casi se me olvidaba!{{delay frames=\"32\"}} {{anim id=\"37\"}}Aquí\ntienes la hoja para recogerlas.\nEs importante que todas estén ahí."
  },
  {
    "label": "008",
    "text": "{{anim id=\"16\"}}Ha? You'll do it for me?{{delay frames=\"32\"}} {{anim id=\"36\"}}I was sure\nyou'd say no!{{pageBreak}}{{anim id=\"0\"}}In that case,{{delay frames=\"16\"}} could you please find\n{{color id=\"2\"}}{{fun_00060004 arg=\"0x0000\"}} boys from outside {{fun_00050005 arg=\"\"}}{{color id=\"65535\"}}\nwho are willing to sign the petition?\n{{anim id=\"37\"}}Here. {{delay frames=\"16\"}}Make sure people sign on this\npaper and ONLY this paper."
  },
  {
    "label": "009",
    "text": "{{anim id=\"5\"}}Ah, I'm so happy!{{delay frames=\"16\"}} It's good to have\nsomeone as supportive as you on\nthe team!\n{{anim id=\"37\"}}Well then,{{delay frames=\"16\"}} could you find {{color id=\"2\"}}{{fun_00060004 arg=\"0x0000\"}} males\n{{color id=\"65535\"}}from other towns to sign?{{pageBreak}}{{anim id=\"0\"}}Oh, but I don't want just any boys.{{delay frames=\"32\"}}\n{{anim id=\"21\"}}I only want signatures from {{color id=\"2\"}}boys\nwho really understand my style{{color id=\"65535\"}}{{delay frames=\"8\"}}.{{delay frames=\"8\"}}.{{delay frames=\"8\"}}.{{delay frames=\"8\"}}\n{{anim id=\"37\"}}As for the signatures,{{delay frames=\"16\"}} please collect\nthem on this paper and ONLY this\npaper, all right,{{delay frames=\"8\"}} {{fun_00070005 arg=\"\"}}?"
  },
  {
    "label": "010",
    "text": ""
  },
  {
    "label": "011",
    "text": "{{anim id=\"44\"}}¡Cuento contigo, no me falles!"
  },
  {
    "label": "012",
    "text": "{{anim id=\"5\"}}¡Buena suerte!"
  },
  {
    "label": "013",
    "text": "{{anim id=\"35\"}}¡Confío en ti! ¡Tú puedes!"
  },
  {
    "label": "014",
    "text": ""
  },
  {
    "label": "015",
    "text": ""
  },
  {
    "label": "016",
    "text": ""
  },
  {
    "label": "017",
    "text": ""
  },
  {
    "label": "018",
    "text": ""
  },
  {
    "label": "019",
    "text": ""
  },
  {
    "label": "020",
    "text": ""
  },
  {
    "label": "021",
    "text": "{{anim id=\"5\"}}Oh my goodness, {{delay frames=\"16\"}}that'll be so great,{{delay frames=\"8\"}}\n{{fun_00080005 arg=\"\"}}!{{pageBreak}}{{anim id=\"37\"}}Could you go get signatures from\n{{color id=\"2\"}}{{fun_00060004 arg=\"0x0000\"}} people {{color id=\"65535\"}}from other towns?{{pageBreak}}{{anim id=\"6\"}}This time,{{delay frames=\"16\"}} just focus on {{color id=\"2\"}}people who\nlook like dogs{{color id=\"65535\"}}{{delay frames=\"8\"}}.{{delay frames=\"8\"}}.{{delay frames=\"8\"}}.{{delay frames=\"8\"}}{{fun_00010007 arg=\"\"}} {{anim id=\"37\"}}Here's the signature\npaper.{{delay frames=\"32\"}} Don't lose it!"
  },
  {
    "label": "022",
    "text": "{{anim id=\"5\"}}Awesome.{{delay frames=\"16\"}} that'll be super helpful,{{delay frames=\"8\"}}\n{{fun_00080005 arg=\"\"}}!{{pageBreak}}{{anim id=\"37\"}}Could you go get signatures from\n{{color id=\"2\"}}{{fun_00060004 arg=\"0x0000\"}} people {{color id=\"65535\"}}from other towns?{{pageBreak}}{{anim id=\"6\"}}Right now, I just need signatures\nfrom {{color id=\"2\"}}people who look like cats{{color id=\"65535\"}}{{delay frames=\"8\"}}.{{delay frames=\"8\"}}.{{delay frames=\"8\"}}.{{delay frames=\"8\"}}{{fun_00010007 arg=\"\"}}\n{{anim id=\"37\"}}Oh, and have them sign on this!"
  },
  {
    "label": "023",
    "text": "{{anim id=\"5\"}}Oh cool,{{delay frames=\"16\"}} that'll help my petition out\nso much,{{delay frames=\"8\"}} {{fun_00080005 arg=\"\"}}!{{pageBreak}}{{anim id=\"37\"}}Could you go get signatures from\n{{color id=\"2\"}}{{fun_00060004 arg=\"0x0000\"}} people {{color id=\"65535\"}}from other towns?{{pageBreak}}{{anim id=\"6\"}}Right now,{{delay frames=\"16\"}} please focus on {{color id=\"2\"}}people\nwho look like squirrels{{color id=\"65535\"}}{{delay frames=\"8\"}}.{{delay frames=\"8\"}}.{{delay frames=\"8\"}}.{{fun_00010007 arg=\"\"}} {{anim id=\"37\"}}And have\nthem sign on this paper here!"
  },
  {
    "label": "024",
    "text": "{{anim id=\"5\"}}Awesome.{{delay frames=\"16\"}} That'll be really helpful,{{delay frames=\"8\"}}\n{{fun_00080005 arg=\"\"}}!{{pageBreak}}{{anim id=\"37\"}}Could you go get signatures from\n{{color id=\"2\"}}{{fun_00060004 arg=\"0x0000\"}} people {{color id=\"65535\"}}living in other towns?{{pageBreak}}{{anim id=\"6\"}}This time,{{delay frames=\"16\"}} just focus on {{color id=\"2\"}}people who\nlook like rabbits{{color id=\"65535\"}}{{delay frames=\"8\"}}.{{delay frames=\"8\"}}.{{delay frames=\"8\"}}.{{fun_00010007 arg=\"\"}} {{anim id=\"37\"}}And have them\nsign on this paper right here!"
  },
  {
    "label": "025",
    "text": "{{anim id=\"5\"}}Groovy.{{delay frames=\"16\"}} That'll be extra helpful for\nmy petition,{{delay frames=\"8\"}} {{fun_00080005 arg=\"\"}}!{{pageBreak}}{{anim id=\"37\"}}Could you go get signatures from\n{{color id=\"2\"}}{{fun_00060004 arg=\"0x0000\"}} people {{color id=\"65535\"}}that live in other towns?{{pageBreak}}{{anim id=\"6\"}}This moment,{{delay frames=\"16\"}} I only need signatures\nfrom {{color id=\"2\"}}people who look like ducks{{color id=\"65535\"}}{{delay frames=\"8\"}}.{{delay frames=\"8\"}}.{{delay frames=\"8\"}}.{{fun_00010007 arg=\"\"}}\n{{anim id=\"37\"}}Have them sign on this paper here!"
  },
  {
    "label": "026",
    "text": "{{anim id=\"5\"}}Awesome.{{delay frames=\"16\"}} That'll be super helpful,{{delay frames=\"8\"}}\n{{fun_00080005 arg=\"\"}}!{{pageBreak}}{{anim id=\"37\"}}Could you go get signatures from\n{{color id=\"2\"}}{{fun_00060004 arg=\"0x0000\"}} people {{color id=\"65535\"}}from other towns?{{pageBreak}}{{anim id=\"6\"}}Right now{{delay frames=\"16\"}} I only need {{color id=\"2\"}}people who\nlook like mice{{color id=\"65535\"}}{{delay frames=\"8\"}}.{{delay frames=\"8\"}}.{{delay frames=\"8\"}}.{{fun_00010007 arg=\"\"}} {{anim id=\"37\"}}Please have them\nsign on this signature paper here!"
  },
  {
    "label": "027",
    "text": "{{anim id=\"5\"}}Awesome.{{delay frames=\"16\"}} It really helps my petition\nout a lot,{{delay frames=\"8\"}} {{fun_00080005 arg=\"\"}}!{{pageBreak}}{{anim id=\"37\"}}Could you go get signatures from\n{{color id=\"2\"}}{{fun_00060004 arg=\"0x0000\"}} people {{color id=\"65535\"}}from other towns?{{pageBreak}}{{anim id=\"6\"}}This time,{{delay frames=\"16\"}} just focus on {{color id=\"2\"}}people who\nlook like frogs{{color id=\"65535\"}}{{delay frames=\"8\"}}.{{delay frames=\"8\"}}.{{delay frames=\"8\"}}.{{fun_00010007 arg=\"\"}} {{anim id=\"37\"}}Please collect the\nsignatures on this paper as well!"
  },
  {
    "label": "028",
    "text": "{{anim id=\"5\"}}Awesome.{{delay frames=\"16\"}} That'll be really helpful,{{delay frames=\"8\"}}\n{{fun_00080005 arg=\"\"}}!{{pageBreak}}{{anim id=\"37\"}}Could you go get signatures from\n{{color id=\"2\"}}{{fun_00060004 arg=\"0x0000\"}} people {{color id=\"65535\"}}living in other towns?{{pageBreak}}{{anim id=\"6\"}}Right now,{{delay frames=\"16\"}} I only need signatures\nfrom {{color id=\"2\"}}people who look like horses{{color id=\"65535\"}}{{delay frames=\"8\"}}.{{delay frames=\"8\"}}.{{delay frames=\"8\"}}.{{fun_00010007 arg=\"\"}}\n{{anim id=\"37\"}}And have them sign on this, please!"
  },
  {
    "label": "029",
    "text": "{{anim id=\"5\"}}Awesome.{{delay frames=\"16\"}} That'll be a huge help,{{delay frames=\"8\"}}\n{{fun_00080005 arg=\"\"}}!{{pageBreak}}{{anim id=\"37\"}}Could you go get signatures from\n{{color id=\"2\"}}{{fun_00060004 arg=\"0x0000\"}} people {{color id=\"65535\"}}living in other towns?{{pageBreak}}{{anim id=\"6\"}}This time,{{delay frames=\"16\"}} please focus on {{color id=\"2\"}}people\nwho look like bear cubs{{color id=\"65535\"}}{{delay frames=\"8\"}}.{{delay frames=\"8\"}}.{{delay frames=\"8\"}}.{{fun_00010007 arg=\"\"}} {{anim id=\"37\"}}And have\nthem use this signature paper too!"
  },
  {
    "label": "030",
    "text": "{{anim id=\"5\"}}Awesome.{{delay frames=\"16\"}} That'd be ridiculously\nhelpful for my petition,{{delay frames=\"8\"}} {{fun_00080005 arg=\"\"}}!{{pageBreak}}{{anim id=\"37\"}}Could you go get signatures from\n{{color id=\"2\"}}{{fun_00060004 arg=\"0x0000\"}} people {{color id=\"65535\"}}from other towns?{{pageBreak}}{{anim id=\"6\"}}For now,{{delay frames=\"16\"}} please focus on {{color id=\"2\"}}people\nwho look like penguins{{color id=\"65535\"}}{{delay frames=\"8\"}}.{{delay frames=\"8\"}}.{{delay frames=\"8\"}}.{{fun_00010007 arg=\"\"}} {{anim id=\"37\"}}And have\nthem sign on this signature paper!"
  }
]