﻿[
  {
    "label": "001",
    "text": "{{fun_0004000D arg=\"0x05CD\"}}{{anim id=\"11\"}}{{delay frames=\"16\"}}Mmm, ¿sería a {{fun_00220005 arg=\"0x00CD\"}}?{{delay frames=\"8\"}}.{{delay frames=\"8\"}}.{{delay frames=\"8\"}}.{{delay frames=\"32\"}}\nNo, creo que fue a {{fun_00220005 arg=\"0x01CD\"}}{{delay frames=\"8\"}}.{{delay frames=\"8\"}}.{{delay frames=\"8\"}}.{{delay frames=\"32\"}}\nEspera, ¿y si fue a {{fun_00220005 arg=\"0x02CD\"}}?{{delay frames=\"8\"}}.{{delay frames=\"8\"}}.{{delay frames=\"8\"}}.{{delay frames=\"8\"}}\nEsto{{delay frames=\"8\"}}.{{delay frames=\"8\"}}.{{delay frames=\"8\"}}.{{delay frames=\"8\"}}{{anim id=\"17\"}} ¡Huy! {{delay frames=\"8\"}}¡Hooola!{{delay frames=\"32\"}} {{anim id=\"13\"}}Mmm,{{delay frames=\"8\"}} tengo\nun dilema peliagudo entre manos,{{delay frames=\"10\"}}\nasí que no puedo pararme a hablar.{{pageBreak}}Por cierto, te voy a dar un consejo:{{delay frames=\"10\"}}\nsi le envías flores a una chica{{delay frames=\"8\"}}.{{delay frames=\"8\"}}.{{delay frames=\"8\"}}.{{delay frames=\"10\"}} \n¡apunta su nombre en algún sitio!{{fun_0005000D arg=\"\"}}"
  },
  {
    "label": "002",
    "text": "{{fun_0004000D arg=\"0x05CD\"}}{{anim id=\"11\"}}{{delay frames=\"16\"}}Será mejor que a {{fun_00220005 arg=\"0x00CD\"}} le\nenvíe {{fun_0002000E arg=\"\"}}{{fun_00210005 arg=\"0x00CD\"}}.{{delay frames=\"32\"}}\n¿O quizá {{fun_0002000E arg=\"\"}}{{fun_001A0005 arg=\"0x00CD\"}}?{{delay frames=\"8\"}}.{{delay frames=\"8\"}}.{{delay frames=\"8\"}}.{{delay frames=\"8\"}}\n{{anim id=\"15\"}}¡Ay!{{delay frames=\"8\"}} ¡Hola!{{delay frames=\"32\"}} Menudo susto me has\nmetido. {{anim id=\"9\"}}Perdona,{{delay frames=\"16\"}} pero ahora estoy\nocupado pensando en mis cosas.{{fun_0005000D arg=\"\"}}"
  },
  {
    "label": "003",
    "text": "{{fun_0004000D arg=\"0x05CD\"}}{{anim id=\"11\"}}{{delay frames=\"16\"}}{{fun_0003000E arg=\"\"}}{{fun_00220005 arg=\"0x00CD\"}} es la número uno\nseguida de cerca de {{fun_00220005 arg=\"0x01CD\"}}{{delay frames=\"8\"}}.{{delay frames=\"8\"}}.{{delay frames=\"8\"}}.{{delay frames=\"8\"}}{{pageBreak}}{{anim id=\"15\"}}¡Huy! {{delay frames=\"32\"}}Casi me matas del susto.{{delay frames=\"10\"}} {{anim id=\"9\"}}\nPerdona, {{delay frames=\"8\"}}{{fun_00080005 arg=\"\"}}, pero estoy\nocupado y no puedo charlar.{{delay frames=\"16\"}}{{fun_0005000D arg=\"\"}}"
  }
]