﻿[
  {
    "label": "001",
    "text": "{{anim id=\"11\"}}{{delay frames=\"16\"}}Mmm,{{delay frames=\"8\"}} {{anim id=\"21\"}}mi propósito de este año\nes{{delay frames=\"8\"}}.{{delay frames=\"8\"}}.{{delay frames=\"8\"}}. ¡aprender más {{anim id=\"5\"}}pasos de baile!{{pageBreak}}{{anim id=\"15\"}}Huy,{{delay frames=\"8\"}} perdona.{{delay frames=\"32\"}} {{anim id=\"37\"}}Estaba pensando\nen voz alta.{{anim id=\"36\"}} Ya sabes, por si acaso\nalguien me quiere entrevistar{{delay frames=\"8\"}}.{{delay frames=\"8\"}}.{{delay frames=\"8\"}}.{{delay frames=\"8\"}}"
  },
  {
    "label": "002",
    "text": "{{anim id=\"38\"}}¡Feliz año nuevo!{{delay frames=\"16\"}} ¿Qué nos\ndeparará este año,{{delay frames=\"8\"}} {{fun_00070005 arg=\"\"}}?{{pageBreak}}{{anim id=\"5\"}}¡{{fun_00000004 arg=\"\"}} va a ser mi año, sin duda!{{fun_00010007 arg=\"\"}}\n{{anim id=\"33\"}}¿No crees,{{delay frames=\"8\"}} {{fun_00080005 arg=\"\"}}?"
  },
  {
    "label": "003",
    "text": "{{anim id=\"5\"}}¡Feliz año nuevo,{{delay frames=\"8\"}} {{fun_00080005 arg=\"\"}}!{{pageBreak}}{{anim id=\"36\"}}Espero que en este año que arranca\nahora pasemos más tiempo juntos.{{delay frames=\"32\"}} \n{{anim id=\"38\"}}¡Je, je, je!"
  },
  {
    "label": "004",
    "text": "{{anim id=\"15\"}}¡Ah,{{delay frames=\"8\"}} {{fun_00080005 arg=\"\"}}!{{delay frames=\"32\"}} {{anim id=\"0\"}}Aún no te he\nfelicitado personalmente, ¿no?{{pageBreak}}{{anim id=\"5\"}}¡Feliz año nuevo,{{delay frames=\"8\"}} {{fun_00080005 arg=\"\"}}!{{delay frames=\"32\"}}{{pageBreak}}{{anim id=\"36\"}}Ojalá sigamos llevándonos\nigual de bien.{{delay frames=\"32\"}} {{anim id=\"38\"}}¡Je, je!"
  },
  {
    "label": "005",
    "text": "{{anim id=\"32\"}}¡Oye,{{delay frames=\"8\"}} {{fun_00080005 arg=\"\"}}!{{delay frames=\"32\"}} {{anim id=\"1\"}}¡Feliz año nuevo!{{delay frames=\"16\"}}\nTe deseo todo lo mejor en este\naño que acabamos de estrenar.\n{{anim id=\"15\"}}¿Eh?{{delay frames=\"16\"}} ¿Mi propósito de año nuevo?{{pageBreak}}{{anim id=\"11\"}}{{delay frames=\"16\"}}Veamos...{{delay frames=\"16\"}} Me gustaría conocer a\nalguna actriz famosa.{{delay frames=\"32\"}} {{anim id=\"38\"}}¡Je, je, je!"
  }
]