﻿[
  {
    "label": "001",
    "text": ""
  },
  {
    "label": "002",
    "text": "{{fun_00020009 arg=\"0x0500060007000800\"}}"
  },
  {
    "label": "003",
    "text": "{{fun_00000009 arg=\"0x09000A00\"}}"
  },
  {
    "label": "004",
    "text": ""
  },
  {
    "label": "005",
    "text": "{{anim id=\"37\"}}El Merca T&N permanece abierto\nhasta tarde.{{delay frames=\"16\"}} Me viene genial porque\nlo dejo todo para última hora."
  },
  {
    "label": "006",
    "text": "{{anim id=\"36\"}}Tienen que ampliar un poco su\ncatálogo.{{delay frames=\"16\"}} Eso sí, ¡el dependiente\nle pone mucho entusiasmo!"
  },
  {
    "label": "007",
    "text": "{{anim id=\"4\"}}{{delay frames=\"16\"}}Menos mal que esta tienda\nestá en el pueblo{{delay frames=\"8\"}}.{{delay frames=\"8\"}}.{{delay frames=\"8\"}}.{{delay frames=\"8\"}}{{pageBreak}}{{anim id=\"36\"}}¡Creo que moriría de inanición sin\nel Merca T&N!{{delay frames=\"8\"}} {{anim id=\"38\"}}¡No exagero!"
  },
  {
    "label": "008",
    "text": "Tienen un poco de todo, eso no se\npuede negar.{{delay frames=\"8\"}}{{pageBreak}}{{anim id=\"36\"}}Sin embargo, antes la decoración\nera más \"vintage\", no sé si sabes\na qué me refiero,{{delay frames=\"8\"}} {{fun_00070005 arg=\"\"}}."
  },
  {
    "label": "009",
    "text": "{{anim id=\"11\"}}{{delay frames=\"16\"}}Dime, {{fun_00080005 arg=\"\"}},{{delay frames=\"8\"}} ¿qué esperas\ncomprar en {{fun_0003000E arg=\"\"}}{{fun_00050005 arg=\"\"}} que no\nhaya en tu pueblo?\n{{anim id=\"36\"}}Tengo curiosidad por saber si me\nestoy perdiendo algo importante..."
  },
  {
    "label": "010",
    "text": "{{anim id=\"37\"}}¿Has venido buscando algo en\nconcreto, {{fun_00080005 arg=\"\"}}?{{pageBreak}}{{anim id=\"1\"}}Debes de tener las cosas\nmuy claras para venir\nde compras a otro pueblo."
  }
]