﻿[
  {
    "label": "001",
    "text": ""
  },
  {
    "label": "002",
    "text": "{{fun_00020009 arg=\"0x0500060007000800\"}}"
  },
  {
    "label": "003",
    "text": "{{fun_00000009 arg=\"0x09000A00\"}}"
  },
  {
    "label": "004",
    "text": ""
  },
  {
    "label": "005",
    "text": "{{anim id=\"37\"}}No sé por qué,{{delay frames=\"16\"}} pero cada dos por\ntres acabo aquí.{{delay frames=\"32\"}} {{anim id=\"39\"}}Supongo que será\npara conocer a gente nueva{{delay frames=\"8\"}}.{{delay frames=\"8\"}}.{{delay frames=\"8\"}}.{{delay frames=\"8\"}}"
  },
  {
    "label": "006",
    "text": "{{anim id=\"5\"}}Que haya tantas tiendas aquí es\nuna gozada.{{delay frames=\"10\"}} ¡Lo malo es que cuesta\nlo suyo decidirse por una!"
  },
  {
    "label": "007",
    "text": "{{anim id=\"37\"}}Siempre que vengo aquí me\nencuentro gente interesante,{{delay frames=\"8\"}}\n{{fun_00070005 arg=\"\"}}.{{pageBreak}}{{anim id=\"0\"}}Como, por ejemplo{{delay frames=\"8\"}}.{{delay frames=\"8\"}}.{{delay frames=\"8\"}}.{{delay frames=\"32\"}} {{anim id=\"3\"}}¡tú! ¡Je, je!"
  },
  {
    "label": "008",
    "text": "{{anim id=\"36\"}}Esta es la zona de moda en\n{{fun_0003000E arg=\"\"}}{{fun_00050005 arg=\"\"}},{{delay frames=\"8\"}} ¿no te parece?"
  },
  {
    "label": "009",
    "text": "{{i10_7 arg=\"0x0D000B000B000B000B000E00\"}}"
  },
  {
    "label": "010",
    "text": "{{i10_7 arg=\"0x0D000C000C000C000C000F00\"}}"
  },
  {
    "label": "011",
    "text": "{{anim id=\"36\"}}{{fun_0003000E arg=\"\"}}{{fun_00080005 arg=\"\"}},{{delay frames=\"16\"}} me pica la curiosidad\npor saber qué te ha traído hasta\n{{fun_0003000E arg=\"\"}}{{fun_00050005 arg=\"\"}}. ¿Qué vas a comprar?"
  },
  {
    "label": "012",
    "text": "{{anim id=\"37\"}}¿Has comprado ya algún recuerdo\ndel pueblo,{{delay frames=\"16\"}} {{fun_00080005 arg=\"\"}}?"
  },
  {
    "label": "013",
    "text": "{{anim id=\"37\"}}He madrugado y antes de darme\ncuenta estaba aquí, comprando\ncomo si se acabara el mundo."
  },
  {
    "label": "014",
    "text": "{{anim id=\"9\"}}No conseguía conciliar el sueño{{delay frames=\"8\"}}.{{delay frames=\"8\"}}.{{delay frames=\"8\"}}.{{delay frames=\"30\"}}{{anim id=\"37\"}} \nCuando por fin lo he logrado, voy\ny me despierto aquí en medio."
  },
  {
    "label": "015",
    "text": "{{anim id=\"6\"}}¿Qué haces aquí a estas horas?{{anim id=\"36\"}}\n¿Tú tampoco podías conciliar\nel sueño?"
  }
]