﻿[
  {
    "label": "001",
    "text": "てがみを　よんでると\nあっというまに　じかんが\nすぎるもんだな。\n"
  },
  {
    "label": "002",
    "text": "オメェの　きもちがこもった\nてがみ、なんども\nよみかえしたぜ。\n"
  },
  {
    "label": "003",
    "text": "オレへの　ことば、\nまいばん　よみかえさせて\nもらってるぜ。\n"
  },
  {
    "label": "004",
    "text": "オメェの　てがみに\nまけないような　へんじを\nかいてみるぜ。\n"
  },
  {
    "label": "005",
    "text": "たまには　つくえに　むかって\nなにをかこうか　まようのも\nわるくねぇな。\n"
  },
  {
    "label": "006",
    "text": "オメェを　アッと\nおどろかせることを\nかいてみてぇもんだ。\n"
  },
  {
    "label": "007",
    "text": "なにか　つたえたいこと、\nあったかなぁって　かんがえてたら\nひがくれちまった！\n"
  },
  {
    "label": "008",
    "text": "こうやって　ひとりしずかに\nてがみに　かくっていうのも\nわるくねぇな。\n"
  },
  {
    "label": "009",
    "text": "いざ　てがみを　かくとなると、\nふでが　すすまなくなるもんだな。\nじかんが　すぐにすぎちまう。\n"
  },
  {
    "label": "010",
    "text": "ふでまめな　オメェを\nみならって、いまのきもちを\nつづってみるぜ。\n"
  }
]