﻿[
  {
    "label": "001",
    "text": "なにから　かきはじめようか\nかんがえてたら、\nひが　くれちゃったよ！\n"
  },
  {
    "label": "002",
    "text": "ウチも　こんじょうあるとこを\nみせるため、ちゃんと\nへんじを　かかせてもらうよ！\n"
  },
  {
    "label": "003",
    "text": "しゃべるのもいいけど、たまには\nしずかに　てがみをかくのも\nいいもんだね。\n"
  },
  {
    "label": "004",
    "text": "キアイだけじゃ　てがみは\nかけないってことが\nよく　わかったよ。\n"
  },
  {
    "label": "005",
    "text": "アンタの　てがみで\nキアイがはいって、へんじが\nスラスラ　かけちまうよ！\n"
  },
  {
    "label": "006",
    "text": "てがみの　じが　まちがってないか\nきになって、なかなか\nかけないもんだねえ。\n"
  },
  {
    "label": "007",
    "text": "ヤンチャしてたころは、ウチが\nてがみを　かくなんて、\nおもっても　みなかったよ。\n"
  },
  {
    "label": "008",
    "text": "ふだん　いわないようなこと、\nてがみでは　かけちゃったり\nするんだよね。\n"
  },
  {
    "label": "009",
    "text": "なにをかくか　まようのって\nまどろっこしい　もんだね！\nいきおいで　かいちまうよ！\n"
  },
  {
    "label": "010",
    "text": "アンタに　ぴったしのびんせんを\nみつけて、いっきに　へんじをかく\nテンションが　あがっちゃったよ！\n"
  }
]