﻿[
  {
    "label": "001",
    "text": "ボク　おかえしがしたくって、\nいっしょうけんめい　かんがえて、\nコレに　きめたよぉ！\n"
  },
  {
    "label": "002",
    "text": "ボク、キミを　ビックリさせる\nプレゼントを　\nおもいついちゃったんだぁ～。\n"
  },
  {
    "label": "003",
    "text": "ボクも　キミのために\nプレゼントを　えらんだよぉ～。\nじゃじゃ～ん！\n"
  },
  {
    "label": "004",
    "text": "キミへの　おかえし、\nなにがいいか　まよったけど\nコレに　したんだぁ～。\n"
  },
  {
    "label": "005",
    "text": "ボクも　ちょうど、\nキミに　プレゼントを\nおくろうと　おもってたんだぁ～。\n"
  }
]