﻿[
  {
    "label": "001",
    "text": "Help ! --{{fun_00010005 arg=\"\"}} "
  },
  {
    "label": "002",
    "text": "Merci tout plein ! {{fun_00010005 arg=\"\"}}"
  },
  {
    "label": "003",
    "text": "À plus ! --{{fun_00010005 arg=\"\"}}"
  },
  {
    "label": "004",
    "text": "{{fun_000A000E arg=\"0x06004C006100200004004C002700\"}}{{fun_00010005 arg=\"\"}} du passé..."
  },
  {
    "label": "005",
    "text": "Bisous bisous ! {{fun_00010005 arg=\"\"}}"
  },
  {
    "label": "006",
    "text": "À pluche ! --{{fun_00010005 arg=\"\"}} "
  },
  {
    "label": "007",
    "text": "--La jeune {{fun_00010005 arg=\"\"}} "
  },
  {
    "label": "008",
    "text": "{{fun_00010005 arg=\"\"}} du passé"
  },
  {
    "label": "009",
    "text": "{{fun_00010005 arg=\"\"}}, la seule et unik"
  },
  {
    "label": "010",
    "text": "Vive les {{fun_00010005 arg=\"\"}} ! "
  },
  {
    "label": "011",
    "text": "--{{fun_00010005 arg=\"\"}}, une nana extra"
  },
  {
    "label": "012",
    "text": "{{fun_00010005 arg=\"\"}}, top modèle "
  },
  {
    "label": "013",
    "text": "Des bisous !  --{{fun_00010005 arg=\"\"}}"
  },
  {
    "label": "014",
    "text": "--{{fun_00010005 arg=\"\"}} la fofolle "
  },
  {
    "label": "015",
    "text": "On remet ça ? --{{fun_00010005 arg=\"\"}}"
  }
]