﻿[
  {
    "label": "001",
    "text": "Amitiés, {{fun_00010005 arg=\"\"}}"
  },
  {
    "label": "002",
    "text": "Ton amie, {{fun_00010005 arg=\"\"}}"
  },
  {
    "label": "003",
    "text": "Encore merci ! {{fun_00010005 arg=\"\"}}"
  }
]