﻿[
  {
    "label": "001",
    "text": "Je t'attendrai ! {{fun_00010005 arg=\"\"}}"
  },
  {
    "label": "002",
    "text": "Agent {{fun_00010005 arg=\"\"}}"
  },
  {
    "label": "003",
    "text": "À tout bientôt ! {{fun_00010005 arg=\"\"}}"
  },
  {
    "label": "004",
    "text": "{{fun_00010005 arg=\"\"}}, super content !"
  },
  {
    "label": "005",
    "text": "Signé : {{fun_00010005 arg=\"\"}}"
  },
  {
    "label": "006",
    "text": "{{fun_00010005 arg=\"\"}}, super content"
  },
  {
    "label": "007",
    "text": "{{fun_00010005 arg=\"\"}}, le bien reposé"
  },
  {
    "label": "008",
    "text": "{{fun_00010005 arg=\"\"}} le chanceux"
  },
  {
    "label": "009",
    "text": "Ton ami {{fun_00010005 arg=\"\"}}"
  }
]