﻿[
  {
    "label": "001",
    "text": "¡Volveré! {{fun_00010005 arg=\"\"}}"
  },
  {
    "label": "002",
    "text": "Tu coleguilla, {{fun_00010005 arg=\"\"}}"
  },
  {
    "label": "003",
    "text": "¡Tú puedes! {{fun_00010005 arg=\"\"}}"
  },
  {
    "label": "004",
    "text": "La perpleja {{fun_00010005 arg=\"\"}}"
  },
  {
    "label": "005",
    "text": "¡Ponte las pilas! {{fun_00010005 arg=\"\"}}"
  },
  {
    "label": "006",
    "text": "La preocupada {{fun_00010005 arg=\"\"}}"
  },
  {
    "label": "007",
    "text": "¡Yo controlo! {{fun_00010005 arg=\"\"}}"
  },
  {
    "label": "008",
    "text": "¡Estoy flipando! {{fun_00010005 arg=\"\"}}"
  },
  {
    "label": "009",
    "text": "¡Qué alucine! {{fun_00010005 arg=\"\"}}"
  },
  {
    "label": "010",
    "text": "¡Dale caña! {{fun_00010005 arg=\"\"}}"
  },
  {
    "label": "011",
    "text": "¡Cómo lo vives! {{fun_00010005 arg=\"\"}}"
  },
  {
    "label": "012",
    "text": "¡Hasta pronto! {{fun_00010005 arg=\"\"}}"
  }
]