﻿[
  {
    "label": "001",
    "text": "De {{fun_00010005 arg=\"\"}} "
  },
  {
    "label": "002",
    "text": "Tu amiga, {{fun_00010005 arg=\"\"}} "
  },
  {
    "label": "003",
    "text": " {{fun_00010005 arg=\"\"}} "
  },
  {
    "label": "004",
    "text": "De la superchuli {{fun_00010005 arg=\"\"}}"
  },
  {
    "label": "005",
    "text": "Tu admirada {{fun_00010005 arg=\"\"}} "
  }
]