﻿[
  {
    "label": "001",
    "text": "Un saludo, {{fun_00010005 arg=\"\"}}"
  },
  {
    "label": "002",
    "text": "Atentamente, {{fun_00010005 arg=\"\"}}"
  },
  {
    "label": "003",
    "text": "Un abrazo, {{fun_00010005 arg=\"\"}}"
  },
  {
    "label": "004",
    "text": "{{fun_00010005 arg=\"\"}}"
  },
  {
    "label": "005",
    "text": "{{fun_00010005 arg=\"\"}}, el de la rosa roja"
  }
]