﻿[
  {
    "label": "001",
    "text": "¡Gracias por usar nuestro\ncatálogo de artículos!\nAquí te enviamos {{fun_0001000E arg=\"\"}}\n{{fun_00030011 arg=\"0x0000\"}}\nque habías solicitado."
  },
  {
    "label": "002",
    "text": "Te enviamos est{{fun_0008000E arg=\"0x00CD02006500020061000000\"}}\n{{fun_00030011 arg=\"0x0000\"}}\nque nos habías pedido.\n¡Gracias por tu compra y\nesperamos verte pronto\nde nuevo!"
  },
  {
    "label": "003",
    "text": "Aquí tienes {{fun_0001000E arg=\"\"}}\n{{fun_00030011 arg=\"0x0000\"}}\nque nos habías solicitado.\n\n¡Muchas gracias por tu\npedido!"
  },
  {
    "label": "004",
    "text": "Te enviamos est{{fun_0008000E arg=\"0x00CD02006500020061000000\"}}\n{{fun_00030011 arg=\"0x0000\"}}\nque nos habías pedido.\nGracias por tu compra."
  }
]