﻿[
  {
    "label": "001",
    "text": "Para \n:"
  },
  {
    "label": "002",
    "text": "Para \n:"
  },
  {
    "label": "003",
    "text": "Para \n:"
  },
  {
    "label": "004",
    "text": "Para \n:"
  },
  {
    "label": "005",
    "text": "Para \n:"
  },
  {
    "label": "006",
    "text": "Para \n:"
  },
  {
    "label": "007",
    "text": "Para \n:"
  },
  {
    "label": "008",
    "text": "Para \n:"
  },
  {
    "label": "009",
    "text": ""
  },
  {
    "label": "010",
    "text": ""
  },
  {
    "label": "011",
    "text": "Para \n:"
  },
  {
    "label": "012",
    "text": "Para \n:"
  },
  {
    "label": "013",
    "text": "Para \n:"
  },
  {
    "label": "014",
    "text": "Para \n:"
  },
  {
    "label": "015",
    "text": "Para \n:"
  },
  {
    "label": "016",
    "text": "Para \n:"
  },
  {
    "label": "017",
    "text": "Para \n:"
  },
  {
    "label": "018",
    "text": "Para \n:"
  }
]