﻿[
  {
    "label": "001",
    "text": "Querid{{fun_0006000E arg=\"0x02006F0002006100\"}} \n :"
  },
  {
    "label": "002",
    "text": "Mi superamig{{fun_0006000E arg=\"0x02006F0002006100\"}} \n:"
  },
  {
    "label": "003",
    "text": "Hola, \n :"
  }
]