﻿[
  {
    "label": "0",
    "text": "¡Huy! Pero ¿quién me llama?"
  },
  {
    "label": "1",
    "text": "¿Holaaa? ¿Quién me llama?"
  },
  {
    "label": "2",
    "text": "¡Eeeooo! ¡Estoy aquí!"
  }
]