﻿[
  {
    "label": "000",
    "text": "Decoración a juego"
  },
  {
    "label": "001",
    "text": "Primer cupón"
  },
  {
    "label": "002",
    "text": "Hierbajos fuera"
  },
  {
    "label": "003",
    "text": "Aguas depuradas"
  },
  {
    "label": "004",
    "text": "Generosidad municipal"
  },
  {
    "label": "005",
    "text": "Flores hidratadas"
  },
  {
    "label": "006",
    "text": "Foto actualizada"
  },
  {
    "label": "007",
    "text": "Nuevo peinado"
  },
  {
    "label": "008",
    "text": "Turismo insular"
  },
  {
    "label": "009",
    "text": "Paleontología popular"
  },
  {
    "label": "010",
    "text": "Consumo manirroto"
  },
  {
    "label": "011",
    "text": "Alta costura"
  },
  {
    "label": "012",
    "text": "Échate unas partidas"
  },
  {
    "label": "013",
    "text": "Y toda la pesca"
  },
  {
    "label": "014",
    "text": "Bichos que te he dicho"
  },
  {
    "label": "015",
    "text": "Tesoros submarinos"
  },
  {
    "label": "016",
    "text": "Turismo ferroviario"
  },
  {
    "label": "017",
    "text": "Puertas abiertas"
  },
  {
    "label": "018",
    "text": "Endulza tus dientes"
  },
  {
    "label": "019",
    "text": "Interiores coordinados"
  },
  {
    "label": "020",
    "text": "Déficit 0"
  },
  {
    "label": "021",
    "text": "Mecenazgo vecinal"
  },
  {
    "label": "022",
    "text": "Tu pueblo más verde"
  },
  {
    "label": "023",
    "text": "Cigarralogía"
  },
  {
    "label": "024",
    "text": "Al rico salmón"
  },
  {
    "label": "025",
    "text": "Serpiente fluvial"
  },
  {
    "label": "026",
    "text": "Pesca medicinal"
  },
  {
    "label": "027",
    "text": "Fachadas importadas"
  },
  {
    "label": "028",
    "text": "Comercio postal"
  },
  {
    "label": "029",
    "text": "Galletas afortunadas"
  },
  {
    "label": "030",
    "text": "Menos da una piedra"
  },
  {
    "label": "031",
    "text": "Suerte diaria"
  },
  {
    "label": "032",
    "text": "No a las picaduras"
  },
  {
    "label": "033",
    "text": "Inversión de futuro"
  },
  {
    "label": "034",
    "text": "Muñeco de nieve"
  },
  {
    "label": "035",
    "text": "Control de grillos"
  },
  {
    "label": "036",
    "text": "Safari de libélulas"
  },
  {
    "label": "037",
    "text": "Libélula tocha"
  },
  {
    "label": "038",
    "text": "Tarántula nocturna"
  },
  {
    "label": "039",
    "text": "Escorpión nocturno"
  },
  {
    "label": "040",
    "text": "Hoja con patas"
  },
  {
    "label": "041",
    "text": "Safari de escarabajos"
  },
  {
    "label": "042",
    "text": "Mantis floripondiosa"
  },
  {
    "label": "043",
    "text": "Mariposa ornitológica"
  },
  {
    "label": "044",
    "text": "Escarabajo nadador"
  },
  {
    "label": "045",
    "text": "Desafío del taimén"
  },
  {
    "label": "046",
    "text": "Pez colorido"
  },
  {
    "label": "047",
    "text": "Caparazón furtivo"
  },
  {
    "label": "048",
    "text": "Rey Salmón"
  },
  {
    "label": "049",
    "text": "Crustáceo fluvial"
  },
  {
    "label": "050",
    "text": "Pez bien dentado"
  },
  {
    "label": "051",
    "text": "Pez de oro"
  },
  {
    "label": "052",
    "text": "Fósil viviente"
  },
  {
    "label": "053",
    "text": "Pez antediluviano"
  },
  {
    "label": "054",
    "text": "Atún al tuntún"
  },
  {
    "label": "055",
    "text": "Pesca napoleónica"
  },
  {
    "label": "056",
    "text": "Pesca y esgrima"
  },
  {
    "label": "057",
    "text": "Pez prolífico"
  },
  {
    "label": "058",
    "text": "Pez remo"
  },
  {
    "label": "059",
    "text": "Pesca de morena"
  },
  {
    "label": "060",
    "text": "Cangrejo nipón"
  },
  {
    "label": "061",
    "text": "Desafío herradura"
  },
  {
    "label": "062",
    "text": "Escarabajo astado"
  },
  {
    "label": "063",
    "text": "Escarabajo ciervo"
  },
  {
    "label": "064",
    "text": "Pez escuálido"
  },
  {
    "label": "065",
    "text": "Inmersión profunda"
  },
  {
    "label": "066",
    "text": "Examen de moda"
  },
  {
    "label": "067",
    "text": "Renovación exterior"
  },
  {
    "label": "068",
    "text": "Consumismo isleño"
  },
  {
    "label": "069",
    "text": "Regalos vecinales"
  },
  {
    "label": "070",
    "text": "Riqueza costera"
  },
  {
    "label": "071",
    "text": "Cafeína a tiempo parcial"
  },
  {
    "label": "072",
    "text": "Conoce tu destino"
  },
  {
    "label": "073",
    "text": "Sueños colectivos"
  },
  {
    "label": "074",
    "text": "Pronto pago"
  },
  {
    "label": "075",
    "text": "Nabos rentables"
  },
  {
    "label": "076",
    "text": "Trastos fuera"
  },
  {
    "label": "077",
    "text": "Cosecha frutal"
  },
  {
    "label": "078",
    "text": "Insectos dignos de verse"
  },
  {
    "label": "079",
    "text": "Peces dignos de verse"
  },
  {
    "label": "080",
    "text": "Fósiles dignos de verse"
  },
  {
    "label": "081",
    "text": "Emotiguasas al poder"
  },
  {
    "label": "082",
    "text": "Juguemos a las tiendas"
  },
  {
    "label": "083",
    "text": "Artificios personales"
  },
  {
    "label": "084",
    "text": "Costura artesanal"
  },
  {
    "label": "085",
    "text": "Música itinerante"
  },
  {
    "label": "086",
    "text": "Cháchara porque sí"
  },
  {
    "label": "087",
    "text": "Importación tropical"
  },
  {
    "label": "088",
    "text": "A picar piedras"
  },
  {
    "label": "089",
    "text": "Vigilantes en acción"
  },
  {
    "label": "090",
    "text": "Mobiliario champiñón"
  },
  {
    "label": "091",
    "text": "Nieve al vuelo"
  },
  {
    "label": "092",
    "text": "Frutas tropicales"
  },
  {
    "label": "093",
    "text": "Horticultura local"
  },
  {
    "label": "094",
    "text": "Flores para tu pueblo"
  },
  {
    "label": "095",
    "text": "Exposición de la AAD"
  },
  {
    "label": "096",
    "text": "Tiro al globo"
  },
  {
    "label": "097",
    "text": "A hachazo limpio"
  },
  {
    "label": "098",
    "text": "Tierra más fértil"
  },
  {
    "label": "099",
    "text": "Decoración a juego"
  },
  {
    "label": "100",
    "text": "Cháchara porque sí"
  }
]