﻿[
  {
    "label": "001",
    "text": "{{anim id=\"36\"}}You again?{{delay frames=\"40\"}} Whaddya keep talking to\nme for? {{delay frames=\"20\"}}{{fun_0003000E arg=\"\"}}{{fun_00070005 arg=\"\"}}?"
  },
  {
    "label": "002",
    "text": "{{anim id=\"36\"}}Hee hee{{delay frames=\"8\"}}.{{delay frames=\"8\"}}.{{delay frames=\"8\"}}.{{delay frames=\"20\"}} We keep meeting like this.{{delay frames=\"20\"}}\nAwkward! {{delay frames=\"20\"}}{{fun_0003000E arg=\"\"}}{{fun_00070005 arg=\"\"}}."
  },
  {
    "label": "003",
    "text": "{{anim id=\"36\"}}Man{{delay frames=\"8\"}}.{{delay frames=\"8\"}}.{{delay frames=\"8\"}}.{{delay frames=\"8\"}}I'm even popular with the girls\ntoday. Not used to that!\n{{fun_0003000E arg=\"\"}}{{delay frames=\"20\"}}{{fun_00070005 arg=\"\"}}!"
  },
  {
    "label": "004",
    "text": "{{anim id=\"36\"}}This guy again{{delay frames=\"8\"}}.{{delay frames=\"8\"}}.{{delay frames=\"8\"}}.{{delay frames=\"20\"}} Just can't leave me\nalone, can ya, {{delay frames=\"20\"}}{{fun_00070005 arg=\"\"}}?"
  }
]