﻿[
  {
    "label": "001",
    "text": "{{anim id=\"37\"}}Hey, {{fun_00080005 arg=\"\"}}, take a look at this\nfor me."
  },
  {
    "label": "002",
    "text": "{{anim id=\"37\"}}Hey, {{fun_00080005 arg=\"\"}}, let me show you\nsomething cool!"
  },
  {
    "label": "003",
    "text": "{{anim id=\"21\"}}You know what?{{delay frames=\"20\"}} The thing about\nletters is {{delay frames=\"8\"}}they've always got some\nkind of hidden meaning!{{fun_00010009 arg=\"0x040005000600\"}}"
  },
  {
    "label": "004",
    "text": "{{anim id=\"35\"}}Let's see here{{delay frames=\"8\"}}.{{delay frames=\"8\"}}.{{delay frames=\"8\"}}.{{delay frames=\"40\"}} Yep. This is gonna\nbe a challenge!{{delay frames=\"20\"}} No doubt about it!"
  },
  {
    "label": "005",
    "text": "{{anim id=\"35\"}}Let's see here{{delay frames=\"8\"}}.{{delay frames=\"8\"}}.{{delay frames=\"8\"}}.{{delay frames=\"40\"}} Hmmm...{{delay frames=\"20\"}} That\nletter definitely has a lot of\nheart{{delay frames=\"8\"}}.{{delay frames=\"8\"}}.{{delay frames=\"8\"}}.{{delay frames=\"40\"}} \n{{anim id=\"39\"}}It, uh,{{delay frames=\"40\"}} seems to be{{delay frames=\"20\"}} what they call a{{delay frames=\"8\"}}\n{{delay frames=\"10\"}}.{{delay frames=\"10\"}}.{{delay frames=\"10\"}}.{{delay frames=\"10\"}}love{{delay frames=\"20\"}} letter."
  },
  {
    "label": "006",
    "text": "{{anim id=\"21\"}}Let's see here{{delay frames=\"8\"}}.{{delay frames=\"8\"}}.{{delay frames=\"8\"}}.{{delay frames=\"40\"}} {{anim id=\"23\"}}Wait a sec{{delay frames=\"10\"}}.{{delay frames=\"10\"}}.{{delay frames=\"10\"}}. What's\ngoing on here?\n\n{{anim id=\"6\"}}W-{{delay frames=\"8\"}}well, sometimes letters don't\nhave hidden meanings at all, OK?!"
  },
  {
    "label": "007",
    "text": "{{anim id=\"21\"}}Hey! I've got something I'd like you\nto take a look at!"
  },
  {
    "label": "008",
    "text": "{{anim id=\"1\"}}Can I run something by you?{{delay frames=\"20\"}} This is\nfilled with great stuff!{{delay frames=\"40\"}} {{anim id=\"0\"}}Take a look!"
  },
  {
    "label": "009",
    "text": "{{fun_00020009 arg=\"0x0A000B000C000D00\"}}"
  },
  {
    "label": "010",
    "text": "{{anim id=\"37\"}}Heh{{delay frames=\"8\"}}.{{delay frames=\"8\"}}.{{delay frames=\"8\"}}.{{delay frames=\"20\"}} Pretty cool, right?{{delay frames=\"40\"}} {{anim id=\"21\"}}I mean,\nthere's nothing like a good letter!"
  },
  {
    "label": "011",
    "text": "{{anim id=\"43\"}}Man, just thinking about their face\nwhen they wrote this...{{delay frames=\"8\"}} It makes me\nlaugh out loud!"
  },
  {
    "label": "012",
    "text": "{{anim id=\"23\"}}I wonder{{delay frames=\"8\"}}.{{delay frames=\"8\"}}.{{delay frames=\"8\"}}.{{delay frames=\"8\"}} What makes someone\nwrite a letter like this anyway?"
  },
  {
    "label": "013",
    "text": "{{anim id=\"21\"}}Never mind what it actually said{{delay frames=\"8\"}}.{{delay frames=\"8\"}}.{{delay frames=\"8\"}}.{{delay frames=\"20\"}}\nYou got the spirit of the letter,\ndidn't you?{{delay frames=\"8\"}}"
  },
  {
    "label": "014",
    "text": "{{anim id=\"5\"}}No two ways about it.{{delay frames=\"8\"}} It's always\nnice to get a letter! {{delay frames=\"20\"}}{{fun_0003000E arg=\"\"}}{{fun_00070005 arg=\"\"}}!"
  },
  {
    "label": "015",
    "text": "{{fun_00010009 arg=\"0x100011001200\"}}"
  },
  {
    "label": "016",
    "text": "{{anim id=\"35\"}}If you send me a letter, I'll be sure\nto read it!{{delay frames=\"20\"}} {{fun_0003000E arg=\"\"}}{{fun_00070005 arg=\"\"}}!"
  },
  {
    "label": "017",
    "text": "{{anim id=\"35\"}}This letter,{{delay frames=\"8\"}} it's got me all fired up\nabout writing now, {{delay frames=\"20\"}}{{fun_00070005 arg=\"\"}}!"
  },
  {
    "label": "018",
    "text": "{{anim id=\"5\"}}Haha!{{delay frames=\"20\"}} Getting letters like this makes\nyou wanna catch up with friends!"
  }
]