﻿[
  {
    "label": "001",
    "text": "{{anim id=\"16\"}}All right! {{delay frames=\"10\"}}{{fun_0003000E arg=\"\"}}{{fun_00080005 arg=\"\"}}!{{delay frames=\"40\"}}{{anim id=\"37\"}} You made it!{{delay frames=\"20\"}}\nWelcome!"
  },
  {
    "label": "002",
    "text": "{{anim id=\"16\"}}{{fun_0003000E arg=\"\"}}{{fun_00080005 arg=\"\"}}!{{delay frames=\"20\"}}\nSo I guess you got my invitation!\n{{anim id=\"37\"}}That's great!{{delay frames=\"20\"}} Come on in!"
  },
  {
    "label": "003",
    "text": "{{anim id=\"16\"}}Well, if it isn't {{fun_00080005 arg=\"\"}}!{{delay frames=\"20\"}}\nAre you here for the celebration?{{delay frames=\"8\"}}\n{{anim id=\"37\"}}Great!{{delay frames=\"20\"}} Come on in!"
  },
  {
    "label": "004",
    "text": "{{anim id=\"39\"}}Heh heh{{delay frames=\"8\"}}.{{delay frames=\"8\"}}.{{delay frames=\"8\"}}.{{delay frames=\"20\"}} First {{fun_00010011 arg=\"0x0000\"}} and now\n{{fun_00080005 arg=\"\"}} is here!{{pageBreak}}{{anim id=\"37\"}}My birthday party isn't exactly a\nfancy gala, but I'm really happy I'm\nhaving one.{{fun_0005000F arg=\"0x00000000\"}}\nPlease take this!\nI don't have a gift."
  },
  {
    "label": "005",
    "text": "{{anim id=\"38\"}}A little while ago, {{fun_00010011 arg=\"0x0000\"}}\nbrought me a gigantic present!{{fun_0005000F arg=\"0x00000000\"}}\nI have a present too!\nI didn't bring a gift."
  },
  {
    "label": "006",
    "text": "{{anim id=\"37\"}}Just to let you know, {{fun_00010011 arg=\"0x0000\"}}\ngave me a huge present!{{pageBreak}}{{anim id=\"39\"}}Heh{{delay frames=\"8\"}}.{{delay frames=\"8\"}}.{{delay frames=\"8\"}}.{{delay frames=\"20\"}} I wasn't expecting that!{{fun_0005000F arg=\"0x00000000\"}}\nI have a gift for you!\nI didn't bring anything."
  },
  {
    "label": "007",
    "text": "{{anim id=\"15\"}}Oh!{{delay frames=\"20\"}} Don't worry about it!{{delay frames=\"40\"}}{{anim id=\"21\"}} I'm just\nglad you're here! {{delay frames=\"8\"}}.{{delay frames=\"8\"}}.{{delay frames=\"8\"}}.{{delay frames=\"20\"}}{{anim id=\"14\"}}Thank you so\nmuch for being here, {{delay frames=\"8\"}}{{fun_00070005 arg=\"\"}}!"
  },
  {
    "label": "008",
    "text": "{{anim id=\"38\"}}No worries!{{delay frames=\"40\"}} {{anim id=\"21\"}}I'm just happy you were\nable to make it!{{pageBreak}}{{anim id=\"37\"}}Don't sweat the whole present\nthing, {{delay frames=\"20\"}}{{fun_00070005 arg=\"\"}}!"
  },
  {
    "label": "009",
    "text": "{{anim id=\"15\"}}What are you talking about?!{{delay frames=\"40\"}} {{anim id=\"21\"}}Don't\neven sweat it! I'm just glad you're\nhere today!\n{{anim id=\"37\"}}Don't feel bad!{{delay frames=\"20\"}} {{fun_0003000E arg=\"\"}}{{fun_00070005 arg=\"\"}}!"
  },
  {
    "label": "010",
    "text": "{{anim id=\"15\"}}What?! {{delay frames=\"10\"}}You too?!{{delay frames=\"40\"}} {{anim id=\"37\"}}Awesome!\n{{delay frames=\"8\"}}.{{delay frames=\"8\"}}.{{delay frames=\"8\"}}.{{delay frames=\"20\"}}What is it?"
  },
  {
    "label": "011",
    "text": "{{anim id=\"15\"}}Really?! {{delay frames=\"8\"}}.{{delay frames=\"8\"}}.{{delay frames=\"8\"}}.{{delay frames=\"20\"}}{{anim id=\"37\"}}You shouldn't have!"
  },
  {
    "label": "012",
    "text": "{{anim id=\"15\"}}Really?{{delay frames=\"40\"}} Sweet!"
  },
  {
    "label": "013",
    "text": "{{anim id=\"16\"}}Oh! {{delay frames=\"10\"}}Wow!{{delay frames=\"40\"}} Cool\n{{fun_00030011 arg=\"0x0000\"}}!{{pageBreak}}{{anim id=\"15\"}}Did you make it by hand?\n{{delay frames=\"8\"}}.{{delay frames=\"8\"}}.{{delay frames=\"8\"}}.{{delay frames=\"20\"}}{{anim id=\"0\"}}Probably not, right?{{pageBreak}}{{anim id=\"5\"}}Man, am I happy!{{delay frames=\"20\"}} You can never\nhave enough cake!"
  },
  {
    "label": "014",
    "text": "{{anim id=\"16\"}}It's {{fun_0002000E arg=\"\"}}{{fun_00030011 arg=\"0x0000\"}}!{{delay frames=\"40\"}}{{pageBreak}}I've got one, {{anim id=\"37\"}}but I love this one.{{delay frames=\"8\"}} And\nyou really can't have too many!{{pageBreak}}{{anim id=\"5\"}}Hee hee{{delay frames=\"8\"}}.{{delay frames=\"8\"}}.{{delay frames=\"8\"}}.{{delay frames=\"20\"}} I'll definitely put it to\ngood use!{{delay frames=\"20\"}} Ooh, I'm giddy now!"
  },
  {
    "label": "015",
    "text": "{{anim id=\"15\"}}Oh! {{fun_0003000E arg=\"\"}}{{fun_0002000E arg=\"\"}}{{delay frames=\"10\"}}{{fun_00030011 arg=\"0x0000\"}}?!{{delay frames=\"40\"}}\n{{delay frames=\"8\"}}.{{delay frames=\"8\"}}.{{delay frames=\"8\"}}.{{delay frames=\"20\"}}{{anim id=\"16\"}}Amazing!{{delay frames=\"40\"}} It's just like the one I\nhave on!\n{{anim id=\"5\"}}Now I can spill juice on it, and I've\ngot a perfect backup!"
  },
  {
    "label": "016",
    "text": "{{anim id=\"15\"}}{{fun_0003000E arg=\"\"}}{{fun_0002000E arg=\"\"}}{{fun_00030011 arg=\"0x0000\"}}?{{delay frames=\"40\"}}\n{{delay frames=\"20\"}}.{{delay frames=\"20\"}}.{{delay frames=\"20\"}}.{{delay frames=\"40\"}}{{anim id=\"16\"}}Hey!{{delay frames=\"20\"}} This is what you're wearing!{{delay frames=\"40\"}}\n{{anim id=\"2\"}}Awwww!{{delay frames=\"20\"}} You want us to be twins?{{delay frames=\"40\"}}{{anim id=\"37\"}}\n{{anim id=\"37\"}}It'll take some guts for me to wear\nthis in this town!{{delay frames=\"20\"}} But I'm happy you\ngot it for me!"
  },
  {
    "label": "017",
    "text": "{{anim id=\"16\"}}{{fun_0003000E arg=\"\"}}{{fun_0002000E arg=\"\"}}{{fun_00030011 arg=\"0x0000\"}}?!{{fun_00010007 arg=\"\"}}\n{{anim id=\"5\"}}That's my {{fun_00080005 arg=\"\"}}!{{delay frames=\"20\"}} You sure do\nknow what I like!"
  },
  {
    "label": "018",
    "text": "{{anim id=\"16\"}}{{fun_0003000E arg=\"\"}}{{fun_0002000E arg=\"\"}}{{fun_00030011 arg=\"0x0000\"}}?!{{fun_00010007 arg=\"\"}}\n{{anim id=\"37\"}}Nice!{{delay frames=\"20\"}} I love stuff like this!{{pageBreak}}{{anim id=\"26\"}}Man{{delay frames=\"8\"}}.{{delay frames=\"8\"}}.{{delay frames=\"8\"}}.{{delay frames=\"20\"}}you really get me, don't ya?{{delay frames=\"40\"}}\nYou're making me blush!"
  },
  {
    "label": "019",
    "text": "{{anim id=\"16\"}}Wow, {{fun_0002000E arg=\"\"}}{{fun_00030011 arg=\"0x0000\"}}!{{delay frames=\"40\"}}\n{{anim id=\"37\"}}You've got style!{{delay frames=\"20\"}} I love this!{{pageBreak}}{{anim id=\"39\"}}Hee hee{{delay frames=\"8\"}}.{{delay frames=\"8\"}}.{{delay frames=\"8\"}}.{{delay frames=\"20\"}} Seems like you really get\nme! It's making me red!"
  },
  {
    "label": "020",
    "text": "{{anim id=\"16\"}}Oh! {{delay frames=\"20\"}}{{fun_0003000E arg=\"\"}}{{fun_0002000E arg=\"\"}}{{fun_00030011 arg=\"0x0000\"}}!{{delay frames=\"40\"}}\n{{anim id=\"0\"}}Wow{{delay frames=\"8\"}}.{{delay frames=\"8\"}}.{{delay frames=\"8\"}}.{{delay frames=\"20\"}} This is definitely not \nsomething I'd buy for myself!\n{{anim id=\"37\"}}This is great!{{delay frames=\"20\"}} I'm gonna do some\nresearch to get the most out of it!"
  },
  {
    "label": "021",
    "text": "{{anim id=\"16\"}}{{fun_0003000E arg=\"\"}}{{fun_0002000E arg=\"\"}}{{fun_00030011 arg=\"0x0000\"}}!{{delay frames=\"40\"}}\nI'm always surprised by the stuff\nyou come up with{{delay frames=\"8\"}}.{{delay frames=\"8\"}}.{{delay frames=\"8\"}}.\n{{anim id=\"21\"}}I would never have thought of\nsomething like this myself!{{delay frames=\"20\"}}\n{{anim id=\"37\"}}Awesome!"
  },
  {
    "label": "022",
    "text": "{{anim id=\"16\"}}{{delay frames=\"8\"}}.{{delay frames=\"8\"}}.{{delay frames=\"8\"}}.{{delay frames=\"20\"}}{{fun_0003000E arg=\"\"}}{{fun_0002000E arg=\"\"}}{{fun_00030011 arg=\"0x0000\"}}?{{delay frames=\"40\"}}\n{{anim id=\"37\"}}That's just like you!{{pageBreak}}{{anim id=\"21\"}}I think I know just the place for a\ngift like this. {{delay frames=\"20\"}}{{anim id=\"0\"}}I'm totally into it!{{delay frames=\"40\"}}\n{{anim id=\"37\"}}Thanks a bunch!"
  },
  {
    "label": "023",
    "text": "{{anim id=\"15\"}}Huh?! {{delay frames=\"40\"}}C-{{delay frames=\"20\"}}cash?{{fun_00010007 arg=\"\"}} {{anim id=\"13\"}}Dude!{{delay frames=\"20\"}} Come on!{{delay frames=\"20\"}} I'm \nnot taking your hard-earned Bells!\n{{anim id=\"0\"}}Put that stuff away!"
  },
  {
    "label": "024",
    "text": "{{delay frames=\"8\"}}.{{delay frames=\"8\"}}.{{delay frames=\"8\"}}.{{delay frames=\"20\"}}{{anim id=\"2\"}}Hahaha!{{delay frames=\"20\"}} You goofball! This is\ntrash!{{delay frames=\"40\"}} Nice job keeping a straight\nface, though!\n{{anim id=\"36\"}}Where'd you get this garbage\nanyway?{{delay frames=\"40\"}} You crack me up!\n{{delay frames=\"20\"}}{{fun_0003000E arg=\"\"}}{{fun_00070005 arg=\"\"}}!"
  },
  {
    "label": "025",
    "text": "{{anim id=\"15\"}}Huh? {{delay frames=\"20\"}}{{fun_0003000E arg=\"\"}}{{fun_00030011 arg=\"0x0000\"}}?{{delay frames=\"40\"}}\n{{anim id=\"9\"}}Where are you going with this?{{pageBreak}}{{anim id=\"11\"}}Hmmm{{delay frames=\"8\"}}.{{delay frames=\"8\"}}.{{delay frames=\"8\"}}.{{fun_00010007 arg=\"\"}}{{anim id=\"37\"}} You know, I think I'll \nprobably turn these into a midnight\nsnack! {{delay frames=\"8\"}}Thanks!"
  },
  {
    "label": "026",
    "text": "{{anim id=\"16\"}}Oh! {{delay frames=\"20\"}}{{fun_0003000E arg=\"\"}}{{fun_0002000E arg=\"\"}}{{fun_00030011 arg=\"0x0000\"}}!{{delay frames=\"40\"}}\n{{anim id=\"37\"}}Looks tasty!"
  },
  {
    "label": "027",
    "text": "{{anim id=\"15\"}}Oh! Yeah! Don't sweat it!{{delay frames=\"40\"}} {{anim id=\"37\"}}Just you\nbeing here is a great present!\n{{delay frames=\"20\"}}{{fun_0003000E arg=\"\"}}{{fun_00070005 arg=\"\"}}!"
  },
  {
    "label": "028",
    "text": "{{anim id=\"38\"}}Thanks!{{delay frames=\"20\"}} I appreciate the thought!{{delay frames=\"20\"}}\n{{fun_0003000E arg=\"\"}}{{fun_00070005 arg=\"\"}}!"
  },
  {
    "label": "029",
    "text": "{{anim id=\"38\"}}Thanks a bunch!{{delay frames=\"20\"}} You really shouldn't\nhave!{{delay frames=\"20\"}} {{fun_0003000E arg=\"\"}}{{fun_00070005 arg=\"\"}}!"
  },
  {
    "label": "030",
    "text": "{{anim id=\"38\"}}I really appreciate the thought!{{delay frames=\"40\"}}\nThanks! {{delay frames=\"20\"}}{{fun_0003000E arg=\"\"}}{{fun_00070005 arg=\"\"}}!"
  },
  {
    "label": "031",
    "text": ""
  },
  {
    "label": "032",
    "text": ""
  },
  {
    "label": "033",
    "text": "{{anim id=\"38\"}}Thanks!{{delay frames=\"40\"}} I'm touched!{{delay frames=\"20\"}}\n{{fun_0003000E arg=\"\"}}{{fun_00070005 arg=\"\"}}!"
  },
  {
    "label": "034",
    "text": "{{anim id=\"5\"}}Thanks a bunch!{{delay frames=\"40\"}} Getting a present\nfrom you{{delay frames=\"8\"}}.{{delay frames=\"8\"}}.{{delay frames=\"8\"}}.{{delay frames=\"20\"}}is the biggest shock of\nmy {{fun_00000004 arg=\"\"}}!"
  },
  {
    "label": "035",
    "text": "{{anim id=\"38\"}}You and {{fun_00010011 arg=\"0x0000\"}} are too good to\nme{{delay frames=\"8\"}}.{{delay frames=\"8\"}}.{{delay frames=\"8\"}}.{{delay frames=\"20\"}} Thanks a ton!{{pageBreak}}{{anim id=\"5\"}}I'm so happy, I have to dance!{{delay frames=\"20\"}}\n{{fun_0003000E arg=\"\"}}{{fun_00070005 arg=\"\"}}!"
  },
  {
    "label": "036",
    "text": "{{anim id=\"21\"}}I wasn't really that into having a\nparty{{delay frames=\"8\"}}.{{delay frames=\"8\"}}.{{delay frames=\"8\"}}.{{delay frames=\"20\"}}{{anim id=\"37\"}}and I never expected you to\nshow up!\n{{anim id=\"37\"}}That's the best present of all!{{fun_0005000F arg=\"0x00000000\"}}\nYou haven't seen this!\nI don't have a present."
  },
  {
    "label": "037",
    "text": "{{anim id=\"36\"}}I didn't think I'd get you here!{{delay frames=\"40\"}} I was\nkind of nervous sending the invite!{{delay frames=\"40\"}}{{anim id=\"37\"}}\nSo I'm really glad you came!{{fun_0005000F arg=\"0x00000000\"}}\nYou'll love this gift then!\nI don't have a good gift."
  },
  {
    "label": "038",
    "text": "{{anim id=\"37\"}}Having people come and celebrate\nwith me{{delay frames=\"8\"}}.{{delay frames=\"8\"}}.{{delay frames=\"8\"}}.{{delay frames=\"20\"}} I'm so lucky!{{fun_0005000F arg=\"0x00000000\"}}\nHope you like this gift!\nI don't have a good gift."
  },
  {
    "label": "039",
    "text": "{{anim id=\"37\"}}Born on {{fun_000E0004 arg=\"0x00CD\"}} {{fun_000F0004 arg=\"0x00CD\"}}{{delay frames=\"8\"}}.{{delay frames=\"8\"}}.{{delay frames=\"8\"}}.{{delay frames=\"20\"}} I'm such\n{{fun_0002000E arg=\"\"}}{{fun_000C0005 arg=\"\"}} girl!{{pageBreak}}{{anim id=\"36\"}}They say girls born under the\n{{fun_000C0005 arg=\"\"}} sign will never, ever\ngo hungry, {{delay frames=\"20\"}}{{fun_00070005 arg=\"\"}}!{{delay frames=\"40\"}}{{anim id=\"37\"}}"
  },
  {
    "label": "040",
    "text": "{{anim id=\"15\"}}How old am I?{{delay frames=\"40\"}} {{delay frames=\"8\"}}.{{delay frames=\"8\"}}.{{delay frames=\"8\"}}.{{delay frames=\"20\"}}{{anim id=\"27\"}}I'm not telling!{{delay frames=\"20\"}}\nA lady has her secrets!{{pageBreak}}{{anim id=\"35\"}}But I guess you could say I'm\nkeeping my bucket list close at\nhand, {{delay frames=\"20\"}}{{fun_00070005 arg=\"\"}}!"
  },
  {
    "label": "041",
    "text": "{{anim id=\"21\"}}This was a while ago, but{{delay frames=\"8\"}}.{{delay frames=\"8\"}}.{{delay frames=\"8\"}}.{{delay frames=\"20\"}}{{anim id=\"9\"}}once I\nhad a bad tummy ache and spent my\nbirthday in bed!\n{{anim id=\"36\"}}I felt better the next day{{delay frames=\"8\"}}.{{delay frames=\"8\"}}.{{delay frames=\"8\"}}.{{delay frames=\"20\"}}but it\nwas kinda sad!{{delay frames=\"20\"}} {{fun_0003000E arg=\"\"}}{{fun_00070005 arg=\"\"}}!{{delay frames=\"40\"}}{{anim id=\"0\"}}"
  },
  {
    "label": "042",
    "text": "{{anim id=\"37\"}}I'm getting the warm fuzzies from\nyou guys{{delay frames=\"8\"}}.{{delay frames=\"8\"}}.{{delay frames=\"8\"}}.{{delay frames=\"20\"}} I guess this kind of thing\nisn't so bad, {{delay frames=\"20\"}}{{fun_00070005 arg=\"\"}}!"
  },
  {
    "label": "043",
    "text": "{{anim id=\"9\"}}{{fun_0003000E arg=\"\"}}{{fun_00080005 arg=\"\"}}{{delay frames=\"40\"}}, {{fun_00010011 arg=\"0x0000\"}}{{delay frames=\"8\"}}.{{delay frames=\"8\"}}.{{delay frames=\"8\"}}.{{delay frames=\"20\"}} You guys\nare great.{{delay frames=\"40\"}}{{anim id=\"0\"}} Wait. That sounds like I'm\nwrapping things up!{{pageBreak}}{{anim id=\"13\"}}Don't stop partying!{{delay frames=\"20\"}} {{fun_0003000E arg=\"\"}}{{fun_00070005 arg=\"\"}}!"
  },
  {
    "label": "044",
    "text": "{{anim id=\"15\"}}Going home already?{{delay frames=\"40\"}}{{anim id=\"0\"}} Well, thanks\nfor the present and everything!{{pageBreak}}{{anim id=\"37\"}}I'll have to return the favor one of\nthese days! {{delay frames=\"20\"}}{{fun_0003000E arg=\"\"}}{{fun_00070005 arg=\"\"}}!"
  },
  {
    "label": "045",
    "text": "{{anim id=\"15\"}}Time to go, huh?{{delay frames=\"20\"}} {{anim id=\"0\"}}Thanks for today!{{pageBreak}}{{anim id=\"37\"}}I'll hit ya back for that present\nlater! {{delay frames=\"20\"}}{{fun_0003000E arg=\"\"}}{{fun_00070005 arg=\"\"}}!"
  },
  {
    "label": "046",
    "text": "{{anim id=\"16\"}}Going home?{{delay frames=\"20\"}} {{anim id=\"0\"}}Thanks for coming!{{delay frames=\"20\"}}{{pageBreak}}And that present{{delay frames=\"8\"}}.{{delay frames=\"8\"}}.{{delay frames=\"8\"}}.{{delay frames=\"40\"}}{{anim id=\"37\"}} I'm definitely\nreturning the favor! {{delay frames=\"20\"}}{{fun_0003000E arg=\"\"}}{{fun_00070005 arg=\"\"}}!"
  },
  {
    "label": "047",
    "text": "{{anim id=\"16\"}}Going home already?{{delay frames=\"40\"}}{{anim id=\"37\"}} Thanks for\ncoming by today!{{pageBreak}}{{anim id=\"0\"}}I'll have to return the favor\nsometime! {{delay frames=\"8\"}}{{fun_0003000E arg=\"\"}}{{fun_00070005 arg=\"\"}}!"
  },
  {
    "label": "048",
    "text": "{{anim id=\"16\"}}Huh?{{delay frames=\"20\"}} So you're going home?{{delay frames=\"40\"}}{{pageBreak}}{{anim id=\"37\"}}Thanks for today!{{delay frames=\"20\"}} I'll try to do\nsomething nice for you on your\nbirthday, OK? {{delay frames=\"20\"}}{{fun_0003000E arg=\"\"}}{{fun_00070005 arg=\"\"}}!"
  },
  {
    "label": "049",
    "text": "{{anim id=\"15\"}}{{fun_0003000E arg=\"\"}}{{fun_00080005 arg=\"\"}}!{{delay frames=\"40\"}}\n{{anim id=\"37\"}}Thanks for coming today!{{delay frames=\"20\"}} You made\nme really happy! {{delay frames=\"20\"}}{{fun_0003000E arg=\"\"}}{{fun_00070005 arg=\"\"}}!"
  },
  {
    "label": "050",
    "text": ""
  },
  {
    "label": "051",
    "text": "{{anim id=\"15\"}}You're callin' it quits?{{delay frames=\"40\"}}\n{{anim id=\"0\"}}Ah, well. I appreciate you coming\naround here today.\n{{anim id=\"15\"}}And that present!{{delay frames=\"8\"}} {{anim id=\"37\"}}Now I'm gonna\nhave to think of a real good gift for\nYOUR birthday, {{delay frames=\"20\"}}{{fun_00070005 arg=\"\"}}!\n{{anim id=\"40\"}}But don't get too excited.{{delay frames=\"20\"}} Shopping\nain't my strong suit.{{pageBreak}}{{anim id=\"41\"}}Ack! And neither is remembering\nthings, I guess! {{delay frames=\"20\"}}It's {{fun_00010011 arg=\"0x0100\"}}'s\nbirthday today too! {{delay frames=\"8\"}}I forgot!{{pageBreak}}{{anim id=\"0\"}}You {{delay frames=\"16\"}}oughta head over there and say\nhey, {{delay frames=\"8\"}}{{fun_00080005 arg=\"\"}}!"
  },
  {
    "label": "052",
    "text": "{{anim id=\"15\"}}Is it that time already?{{delay frames=\"20\"}}\n{{anim id=\"0\"}}Well, thanks for stoppin' by today.{{pageBreak}}{{anim id=\"37\"}}I don't know if I can ever thank you\nenough for that present!{{pageBreak}}{{anim id=\"16\"}}Oh yeah!{{delay frames=\"16\"}}{{anim id=\"23\"}} Isn't {{fun_00010011 arg=\"0x0100\"}} having a\nbirthday party today?{{delay frames=\"20\"}}{{pageBreak}}{{anim id=\"6\"}}I wish I could make it.{{delay frames=\"20\"}}{{anim id=\"37\"}} {{fun_00010011 arg=\"0x0100\"}}'s\nparties are always a real hoot.{{pageBreak}}I'd head out there if I were you{{delay frames=\"8\"}}.{{delay frames=\"8\"}}.{{delay frames=\"8\"}}.{{delay frames=\"40\"}}\n{{anim id=\"1\"}}It'd make {{fun_00010011 arg=\"0x0100\"}}'s day—that's\nfor sure."
  },
  {
    "label": "053",
    "text": "{{anim id=\"16\"}}You're going home?{{delay frames=\"20\"}}\n{{anim id=\"0\"}}Well, thanks for stopping by!{{delay frames=\"20\"}} And\nfor the present!\n{{anim id=\"26\"}}You really shouldn't have{{delay frames=\"8\"}}.{{delay frames=\"8\"}}.{{delay frames=\"8\"}}.\n{{anim id=\"37\"}}I hope you let me return the favor\nsometime, {{delay frames=\"20\"}}{{fun_00070005 arg=\"\"}}!{{pageBreak}}{{anim id=\"11\"}}{{delay frames=\"16\"}}Oh, yeah!{{delay frames=\"8\"}} Isn't {{fun_00010011 arg=\"0x0100\"}}'s\nbirthday party going on right now?{{delay frames=\"8\"}}{{pageBreak}}I'd love to go, {{anim id=\"39\"}}but I don't know if\nI trust these party guests in my\nhouse unattended{{delay frames=\"8\"}}.{{delay frames=\"8\"}}.{{delay frames=\"8\"}}.\n{{anim id=\"9\"}}Of course I don't mean you,\n{{fun_00080005 arg=\"\"}}!{{delay frames=\"16\"}}{{pageBreak}}Anyway, {{anim id=\"35\"}}why don't you go do some\nparty hopping?{{delay frames=\"8\"}}"
  },
  {
    "label": "054",
    "text": "{{anim id=\"16\"}}Oh,{{delay frames=\"10\"}} is it that time?{{delay frames=\"40\"}}\n{{anim id=\"37\"}}Thanks for comin' today! I had a\nreal blast.\nIn fact, {{delay frames=\"8\"}}{{anim id=\"36\"}}we oughta make this an\nannual event{{delay frames=\"8\"}}.{{delay frames=\"8\"}}.{{delay frames=\"8\"}}.{{anim id=\"2\"}}{{delay frames=\"40\"}}{{pageBreak}}Don't forget! {{anim id=\"21\"}}It's{{delay frames=\"16\"}} {{fun_00010011 arg=\"0x0100\"}}'s\nbirthday too!{{pageBreak}}{{anim id=\"36\"}}I bet you got {{delay frames=\"16\"}}{{fun_0008000E arg=\"0x01CD0600680069006D0006006800650072000000\"}} a real nice\npresent, didn't you?{{delay frames=\"20\"}}"
  },
  {
    "label": "055",
    "text": "{{anim id=\"16\"}}Whaa?{{delay frames=\"20\"}}\nIs it that time already?{{delay frames=\"40\"}} {{anim id=\"43\"}}Why do\nbirthday parties always go so fast?{{delay frames=\"8\"}}\n{{anim id=\"11\"}}Maybe it has something to do with \nall that cake{{delay frames=\"8\"}}.{{delay frames=\"8\"}}.{{delay frames=\"8\"}}.{{pageBreak}}{{anim id=\"37\"}}I really appreciate you comin'!{{delay frames=\"20\"}}\nEspecially since it's {{fun_00010011 arg=\"0x0100\"}}'s\nbirthday too.\n{{anim id=\"0\"}}Before you go, {{anim id=\"6\"}}aren't you{{delay frames=\"16\"}} kinda\nforgetting something{{delay frames=\"8\"}}.{{delay frames=\"8\"}}.{{delay frames=\"8\"}}. Like,{{anim id=\"36\"}} a\npresent-shaped something? {{delay frames=\"16\"}}"
  },
  {
    "label": "056",
    "text": "{{anim id=\"15\"}}Oh!{{delay frames=\"10\"}} Peacing out, {{fun_00080005 arg=\"\"}}?{{delay frames=\"40\"}}\n{{anim id=\"37\"}}Sounds good. {{delay frames=\"16\"}}I'm just so glad you\ncould make it.{{delay frames=\"20\"}}{{pageBreak}}This birthday party really was one\nfor the books.{{anim id=\"2\"}} It's certainly gonna\nbe hard to top next year!{{delay frames=\"20\"}}\n{{anim id=\"36\"}}You know, if you're up for more\nparty fun, {{fun_00010011 arg=\"0x0100\"}} is throwing a\nbirthday party right now!\nI don't see why you wouldn't go{{delay frames=\"8\"}}.{{delay frames=\"8\"}}.{{delay frames=\"8\"}}.\nUnless, of course, {{delay frames=\"8\"}}{{anim id=\"35\"}}you don't have\na present for {{fun_0008000E arg=\"0x01CD0600680069006D0006006800650072000000\"}}{{delay frames=\"8\"}}.{{delay frames=\"8\"}}.{{delay frames=\"8\"}}."
  }
]