﻿[
  {
    "label": "001",
    "text": "{{anim id=\"32\"}}OK! Get over here!{{delay frames=\"40\"}} I gotta explain\nthe rules!{{fun_00080007 arg=\"0x58020000\"}}{{pageBreak}}{{anim id=\"21\"}}We're gonna hide, and {{fun_00080005 arg=\"\"}}\nhere is gonna try to find us within{{delay frames=\"8\"}}.{{delay frames=\"8\"}}.{{delay frames=\"8\"}}.{{delay frames=\"20\"}}\n{{color id=\"2\"}}{{fun_00070004 arg=\"0x0100\"}} minutes{{color id=\"65535\"}}!{{fun_00080007 arg=\"0x58020000\"}}\n{{anim id=\"37\"}}If {{fun_0006000E arg=\"0x0400680065000600730068006500\"}} can't find us, {{fun_00080005 arg=\"\"}}\nloses the game!{{fun_00080007 arg=\"0x58020000\"}}{{pageBreak}}{{anim id=\"37\"}}By the way, there's no hiding inside\nbuildings. That's against the rules!{{pageBreak}}{{fun_00080007 arg=\"0x58020000\"}}{{anim id=\"0\"}}OK, let's play!{{delay frames=\"40\"}}\n{{anim id=\"6\"}}Ready{{delay frames=\"8\"}}.{{delay frames=\"8\"}}.{{delay frames=\"8\"}}.{{delay frames=\"20\"}}{{fun_00080007 arg=\"0x58020000\"}}{{pageBreak}}\n{{fun_000C0007 arg=\"\"}}{{anim id=\"0\"}}{{size value=\"150\"}}GO!{{size value=\"100\"}}{{fun_00080007 arg=\"0x58020000\"}}"
  },
  {
    "label": "002",
    "text": "{{anim id=\"37\"}}OK!{{delay frames=\"20\"}} Here's what's gonna happen{{delay frames=\"8\"}}.{{delay frames=\"8\"}}.{{delay frames=\"8\"}}.{{delay frames=\"20\"}}\nWe are all going to go hide!{{fun_00080007 arg=\"0x58020000\"}}{{pageBreak}}{{color id=\"2\"}}{{anim id=\"21\"}}{{color id=\"65535\"}}{{fun_0003000E arg=\"\"}}{{fun_00000005 arg=\"\"}}, if you find all {{color id=\"2\"}}three{{color id=\"65535\"}} of\nus within {{color id=\"2\"}}{{fun_00070004 arg=\"0x0100\"}} {{fun_0009000E arg=\"0x01CD0E006D0069006E0075007400650073000C006D0069006E007500740065000E006D0069006E007500740065007300\"}}{{color id=\"65535\"}}, you win!{{fun_00080007 arg=\"0x58020000\"}}{{pageBreak}}{{anim id=\"0\"}}Oh! {{delay frames=\"8\"}}.{{delay frames=\"8\"}}.{{delay frames=\"8\"}}.{{delay frames=\"20\"}}No cheating, hiders!{{delay frames=\"20\"}} No hiding\ninside buildings!{{delay frames=\"40\"}}{{anim id=\"37\"}} So, {{fun_00000005 arg=\"\"}},{{delay frames=\"20\"}}\ndon't waste time looking inside!{{fun_00080007 arg=\"0x58020000\"}}\n{{anim id=\"0\"}}OK, let's play!{{delay frames=\"40\"}} {{anim id=\"6\"}}Ready? {{delay frames=\"8\"}}.{{delay frames=\"8\"}}.{{delay frames=\"8\"}}.{{delay frames=\"20\"}}Set!{{fun_00080007 arg=\"0x58020000\"}}{{pageBreak}}\n{{fun_000C0007 arg=\"\"}}{{anim id=\"0\"}}{{size value=\"150\"}}GO!{{size value=\"100\"}}{{fun_00080007 arg=\"0x58020000\"}}"
  }
]