﻿[
  {
    "label": "001",
    "text": "{{anim id=\"16\"}}Ah! {{fun_0003000E arg=\"\"}}{{fun_00080005 arg=\"\"}}!{{fun_00010007 arg=\"\"}}\n{{anim id=\"13\"}}Dude, I'm glad to see you're feeling\nwell at least!{{delay frames=\"40\"}}{{anim id=\"9\"}}\n{{anim id=\"27\"}}You totally blew off your promise\nto come to my house, right? {{delay frames=\"8\"}}.{{delay frames=\"8\"}}.{{delay frames=\"8\"}}.{{delay frames=\"20\"}}I was\nreally worried about you!\n{{anim id=\"21\"}}Next time give me a heads-up if\nyou're gonna cancel,{{delay frames=\"8\"}} {{fun_00070005 arg=\"\"}}!"
  },
  {
    "label": "002",
    "text": "{{anim id=\"15\"}}Ah! {{delay frames=\"20\"}}{{fun_0003000E arg=\"\"}}{{fun_00080005 arg=\"\"}}!\nSomething came up!{{pageBreak}}{{anim id=\"9\"}}Sorry, dude. But can we cancel that\nwhole coming-over thing?{{delay frames=\"40\"}}{{anim id=\"10\"}} I know,\nI know. I'm a bit ditzy sometimes.\nI'll make it up to you somehow!{{delay frames=\"20\"}}\nI promise, {{fun_00070005 arg=\"\"}}!"
  },
  {
    "label": "003",
    "text": "{{anim id=\"15\"}}Gah! {{fun_0003000E arg=\"\"}}{{fun_00080005 arg=\"\"}}!{{delay frames=\"40\"}}\n{{anim id=\"9\"}}Sorry about not meeting you when I\nwas supposed to.\n{{anim id=\"12\"}}I know I was gonna have you over{{delay frames=\"8\"}}.{{delay frames=\"8\"}}.{{delay frames=\"8\"}}.{{delay frames=\"20\"}}\nTotally sorry!{{delay frames=\"40\"}}{{anim id=\"21\"}} I'll make it up to you,\nthough!{{delay frames=\"20\"}} You'll see!\n{{delay frames=\"20\"}}{{fun_0003000E arg=\"\"}}{{fun_00070005 arg=\"\"}}!"
  },
  {
    "label": "004",
    "text": "{{anim id=\"17\"}}Whoa! {{fun_0003000E arg=\"\"}}{{fun_00080005 arg=\"\"}}?!{{fun_00010007 arg=\"\"}}\n{{anim id=\"23\"}}What happened? {{anim id=\"9\"}}Last time we were\ntogether, you just disappeared!{{pageBreak}}{{delay frames=\"40\"}}{{anim id=\"27\"}}I never had someone gimme the slip\nlike that before{{delay frames=\"8\"}}.{{delay frames=\"8\"}}.{{delay frames=\"8\"}}.{{delay frames=\"20\"}} I was really\nshocked, {{fun_00070005 arg=\"\"}}!"
  }
]