﻿[
  {
    "label": "001",
    "text": "{{anim id=\"35\"}}Aw, are you feeling lonely?{{fun_00010007 arg=\"\"}}\n{{anim id=\"23\"}}Well, what do you want to chat\nabout,{{delay frames=\"8\"}} {{fun_00070005 arg=\"\"}}?"
  },
  {
    "label": "002",
    "text": "{{anim id=\"13\"}}Is everything OK with you,\n{{fun_00080005 arg=\"\"}}?{{delay frames=\"40\"}} What do you want to\ntalk about now,{{delay frames=\"8\"}} {{fun_00070005 arg=\"\"}}?"
  },
  {
    "label": "003",
    "text": "{{anim id=\"39\"}}Don't worry. I've always got time\nfor you, {{fun_00080005 arg=\"\"}}.{{fun_00010007 arg=\"\"}} {{anim id=\"23\"}}Well then, what\ncan I do for you?"
  },
  {
    "label": "004",
    "text": "{{anim id=\"13\"}}Calm down, {{fun_00080005 arg=\"\"}}.{{delay frames=\"20\"}}\nI{{delay frames=\"20\"}} want{{delay frames=\"20\"}} you{{delay frames=\"20\"}} to{{delay frames=\"20\"}} speak{{delay frames=\"20\"}} slowly,\n{{fun_00070005 arg=\"\"}}!"
  }
]