﻿[
  {
    "label": "001",
    "text": "{{anim id=\"1\"}}Hey!{{delay frames=\"20\"}} You're here to hang out with\n{{fun_00010011 arg=\"0x0000\"}} too?{{delay frames=\"20\"}} Very cool,{{delay frames=\"8\"}}\n{{fun_00070005 arg=\"\"}}!"
  },
  {
    "label": "002",
    "text": "{{anim id=\"1\"}}{{fun_0003000E arg=\"\"}}{{fun_00060007 arg=\"\"}}Oh, hey there, {{fun_00080005 arg=\"\"}}{{fun_00070007 arg=\"\"}}!{{delay frames=\"20\"}}\nLooks like we're both crashing\n{{fun_00010011 arg=\"0x0000\"}}'s place!{{delay frames=\"8\"}} {{fun_0003000E arg=\"\"}}{{fun_00070005 arg=\"\"}}!"
  },
  {
    "label": "003",
    "text": "{{anim id=\"1\"}}What a coincidence that you're here\nvisiting {{fun_00010011 arg=\"0x0000\"}} too,{{delay frames=\"8\"}}\n{{fun_00070005 arg=\"\"}}!"
  }
]