﻿[
  {
    "label": "001",
    "text": "Someone told me February 29th{{delay frames=\"20\"}}\nonly comes around once every\n4 years on leap day.\n{{anim id=\"11\"}}So where does it go for the other\n3 years?{{delay frames=\"20\"}} Does it just take a\nsuper-long nap or something?"
  },
  {
    "label": "002",
    "text": "{{anim id=\"5\"}}February 29th is a special day that\nonly comes around once every\n4 years!{{delay frames=\"20\"}} It's called leap day!\n{{anim id=\"21\"}}Don't worry, though.{{delay frames=\"20\"}} There's no\nactual exercise involved."
  },
  {
    "label": "003",
    "text": "I thought it was the first day of\nMarch,{{delay frames=\"8\"}} but since this year is a leap\nyear,{{delay frames=\"8\"}} it's actually still February!\n{{anim id=\"3\"}}It's like I got a free day{{delay frames=\"8\"}} to do\nwhatever I want!"
  },
  {
    "label": "004",
    "text": "{{anim id=\"5\"}}March starts today!{{delay frames=\"40\"}} So that means\nspring is right around the corner!{{delay frames=\"20\"}}\nYessssssss!\n{{anim id=\"18\"}}Huh?!{{delay frames=\"40\"}} What do you mean it's still\nFebruary?!{{fun_00010007 arg=\"\"}} {{anim id=\"9\"}}Oh, right. It's leap day!{{delay frames=\"40\"}}\nUgh{{delay frames=\"8\"}}.{{delay frames=\"8\"}}.{{delay frames=\"8\"}}.{{delay frames=\"20\"}} What a letdown."
  },
  {
    "label": "005",
    "text": "So February 29th{{delay frames=\"20\"}} only comes\naround once every 4 years!{{pageBreak}}{{anim id=\"9\"}}The reason why is super\ncomplicated.{{delay frames=\"20\"}} It hurts my head just\nthinking about it,{{delay frames=\"8\"}} {{fun_00070005 arg=\"\"}}."
  }
]