﻿[
  {
    "label": "001",
    "text": "{{anim id=\"1\"}}My {{fun_00030011 arg=\"0x0000\"}}{{delay frames=\"20\"}} is one\nof my best buds!{{pageBreak}}{{anim id=\"11\"}}So{{delay frames=\"20\"}} even though I DO love seafood,{{delay frames=\"40\"}}\n{{anim id=\"13\"}}{{fun_000B0007 arg=\"\"}}I would NEVER eat my pal\n{{fun_00030011 arg=\"0x0000\"}}!"
  },
  {
    "label": "002",
    "text": "{{anim id=\"35\"}}Uh huh huh{{delay frames=\"8\"}}.{{delay frames=\"8\"}}.{{delay frames=\"8\"}}.{{delay frames=\"20\"}} Are you surprised I'm\ninterested in art?{{pageBreak}}{{anim id=\"33\"}}My {{fun_00030011 arg=\"0x0000\"}}{{delay frames=\"20\"}} is my\nfavorite picture.{{pageBreak}}{{anim id=\"4\"}}For some reason,{{delay frames=\"20\"}} it reminds me of\n{{fun_00130005 arg=\"0x0000\"}}."
  },
  {
    "label": "003",
    "text": "{{anim id=\"21\"}}Plants are kind of amazing.{{delay frames=\"40\"}} {{anim id=\"1\"}}All they\nneed to stay alive is light and water!{{pageBreak}}{{anim id=\"9\"}}I definitely couldn't hack it as a\nplant,{{delay frames=\"8\"}} {{fun_00070005 arg=\"\"}}."
  },
  {
    "label": "004",
    "text": "{{anim id=\"43\"}}When listening to music,{{delay frames=\"8\"}} I like to\nclose my eyes{{delay frames=\"20\"}} and imagine the\nscenery the music is describing.\n{{anim id=\"45\"}}Hm{{delay frames=\"20\"}}.{{delay frames=\"20\"}}.{{delay frames=\"20\"}}.{{delay frames=\"40\"}} {{anim id=\"15\"}}{{fun_000A0007 arg=\"\"}}Whoops!{{delay frames=\"60\"}} {{anim id=\"26\"}}A huh huh huh...{{delay frames=\"20\"}}\nI guess I accidentally fell asleep\nthere,{{delay frames=\"8\"}} {{fun_00070005 arg=\"\"}}."
  },
  {
    "label": "005",
    "text": "{{anim id=\"5\"}}I {{delay frames=\"20\"}}love TV!{{fun_00010007 arg=\"\"}} {{anim id=\"41\"}}But sometimes I watch\nway too much{{delay frames=\"8\"}} and my eyes get all\nbloodshot!\n{{anim id=\"12\"}}It makes me look like a scary\nmonster,{{delay frames=\"8\"}} {{fun_00070005 arg=\"\"}}."
  },
  {
    "label": "006",
    "text": "{{anim id=\"9\"}}I haven't been practicing my\n{{fun_00030011 arg=\"0x0000\"}} as much as\nI should.\n{{anim id=\"43\"}}I really wanna be able to start \nbusking,{{delay frames=\"8\"}} {{fun_00070005 arg=\"\"}}."
  },
  {
    "label": "007",
    "text": "{{anim id=\"33\"}}I do a fair bit of cooking these days.{{fun_00010007 arg=\"\"}}\n{{anim id=\"41\"}}Unfortunately, I'm a lot better at\neating than I am at cooking."
  },
  {
    "label": "008",
    "text": "{{anim id=\"5\"}}My {{fun_00030011 arg=\"0x0000\"}} is a\nreally great bed!{{fun_00010007 arg=\"\"}} {{anim id=\"25\"}}Lie down on it,{{delay frames=\"20\"}} and\nyou'll be asleep in no time."
  },
  {
    "label": "009",
    "text": "{{anim id=\"1\"}}You checking out how nice and big\nmy {{fun_00030011 arg=\"0x0000\"}} is?{{pageBreak}}{{anim id=\"5\"}}The best thing about a big bed{{delay frames=\"20\"}}\nis that you can roll around in it!{{pageBreak}}Every night before I sleep, I just{{delay frames=\"20\"}} roll{{delay frames=\"8\"}}\nand roll{{delay frames=\"20\"}} and roll{{delay frames=\"8\"}} and roll{{delay frames=\"8\"}}.{{delay frames=\"8\"}}.{{delay frames=\"8\"}}.{{pageBreak}}{{anim id=\"12\"}}That might be why{{delay frames=\"20\"}} I'm so tired in\nthe morning,{{delay frames=\"8\"}} {{fun_00070005 arg=\"\"}}."
  },
  {
    "label": "010",
    "text": "{{anim id=\"11\"}}Right now, I fit perfectly in my\n{{fun_00030011 arg=\"0x0000\"}}.{{fun_00010007 arg=\"\"}} But I'm a\ngrowing boy.\n{{anim id=\"13\"}}What happens if I grow too much\none day and get stuck in it,{{delay frames=\"8\"}}\n{{fun_00070005 arg=\"\"}}?!"
  },
  {
    "label": "011",
    "text": "{{anim id=\"4\"}}Nothing beats a nap{{delay frames=\"20\"}} on a big sofa.{{fun_00010007 arg=\"\"}}\n{{anim id=\"9\"}}Thing is,{{delay frames=\"20\"}} I have a habit of drooling\nduring naps.\n{{anim id=\"33\"}}But{{delay frames=\"20\"}} it doesn't matter.{{delay frames=\"20\"}} Since this is\nmy place,{{delay frames=\"8\"}} I can do whatever I want,{{delay frames=\"8\"}}\n{{fun_00070005 arg=\"\"}}!"
  },
  {
    "label": "012",
    "text": "{{anim id=\"1\"}}I've always dreamed of having my\nown {{fun_00030011 arg=\"0x0000\"}}.{{pageBreak}}{{anim id=\"5\"}}I have other dreams too,{{delay frames=\"20\"}} but that's\njust one of them."
  },
  {
    "label": "013",
    "text": "{{anim id=\"5\"}}Did you meet my friend,{{delay frames=\"8\"}} Mr.\n{{fun_0004000E arg=\"\"}}{{fun_00030011 arg=\"0x0000\"}}?{{pageBreak}}{{anim id=\"15\"}}{{fun_000B0007 arg=\"\"}}Oh!{{delay frames=\"8\"}} But{{delay frames=\"40\"}} don't go opening his cage,\nOK?{{fun_00010007 arg=\"\"}} {{anim id=\"39\"}}He takes after me,{{delay frames=\"8\"}} so he's a\nbit of a wanderer,{{delay frames=\"8\"}} {{fun_00070005 arg=\"\"}}."
  },
  {
    "label": "014",
    "text": "{{anim id=\"13\"}}If I were you,{{delay frames=\"20\"}} I wouldn't open my\n{{fun_00030011 arg=\"0x0000\"}}!{{pageBreak}}Everything's packed in tight,{{delay frames=\"20\"}} so if\nyou open it, something is bound to\ncome flying out!"
  },
  {
    "label": "015",
    "text": "{{anim id=\"35\"}}Uh huh huh!{{delay frames=\"40\"}} Did you see my\n{{fun_00030011 arg=\"0x0000\"}}?{{pageBreak}}{{anim id=\"33\"}}I don't really ever make coffee, {{delay frames=\"20\"}}\nbut just having it around makes me\nseem more sophisticated, right?"
  },
  {
    "label": "016",
    "text": "{{anim id=\"43\"}}I firmly believe {{delay frames=\"20\"}}somewhere in this\nworld{{delay frames=\"8\"}} there's a gyroid that looks\nexactly like me.\n{{anim id=\"0\"}}I'm not sure if that gyroid is my\n{{fun_00030011 arg=\"0x0000\"}}, though...{{fun_00010007 arg=\"\"}}\n{{anim id=\"1\"}}I hope I find my double{{delay frames=\"20\"}} someday."
  },
  {
    "label": "017",
    "text": "{{anim id=\"23\"}}My {{fun_00030011 arg=\"0x0000\"}}?{{delay frames=\"40\"}}\n{{anim id=\"1\"}}That's my hitting-the-town outfit!{{pageBreak}}{{anim id=\"11\"}}But{{delay frames=\"8\"}}.{{delay frames=\"8\"}}.{{delay frames=\"8\"}}.{{delay frames=\"20\"}}what does it mean to hit the\ntown anyway?{{delay frames=\"20\"}} Like, how do you hit\nit?\n{{anim id=\"9\"}}I don't really get it,{{delay frames=\"20\"}} so I'm not sure\nwhen exactly I'm supposed to wear\nmy {{fun_00030011 arg=\"0x0000\"}}."
  },
  {
    "label": "018",
    "text": "I'd love to play my\n{{fun_00030011 arg=\"0x0000\"}} with you.{{pageBreak}}But{{delay frames=\"20\"}}{{anim id=\"9\"}} I, uh, actually{{delay frames=\"20\"}} don't really know\nhow to play, {{delay frames=\"8\"}}{{fun_00070005 arg=\"\"}}."
  },
  {
    "label": "019",
    "text": "{{anim id=\"23\"}}Has my {{fun_00030011 arg=\"0x0000\"}}\ncaught your eye?{{pageBreak}}{{anim id=\"26\"}}I hardly ever use it.{{delay frames=\"20\"}} I just liked the\nway it looked in the shop."
  },
  {
    "label": "020",
    "text": "{{anim id=\"9\"}}I've got one book on my bookshelf:\n{{fun_001D0005 arg=\"0x0000\"}}.{{delay frames=\"20\"}}\nActually,{{delay frames=\"8\"}} {{fun_00030005 arg=\"\"}} gave it to me.\n{{anim id=\"1\"}}The rest of my bookshelf is all\ncomics,{{delay frames=\"8\"}} {{fun_00070005 arg=\"\"}}."
  },
  {
    "label": "021",
    "text": "{{anim id=\"33\"}}I DO clean sometimes, you know.{{delay frames=\"40\"}}\nI {{delay frames=\"8\"}}use {{fun_0002000E arg=\"\"}}{{fun_00030011 arg=\"0x0000\"}}\nand everything!{{pageBreak}}{{anim id=\"0\"}}{{delay frames=\"8\"}}.{{delay frames=\"8\"}}.{{delay frames=\"8\"}}.{{delay frames=\"20\"}}Course{{delay frames=\"20\"}} {{anim id=\"36\"}}I only do it, like, once a\nyear, but it still counts,{{delay frames=\"8\"}}\n{{fun_00070005 arg=\"\"}}."
  },
  {
    "label": "022",
    "text": "{{anim id=\"1\"}}Putting a fossil out in your room is{{delay frames=\"8\"}}\nabout the fanciest thing you can do!{{pageBreak}}{{anim id=\"4\"}}The food I eat while gazing at my\n{{fun_00030011 arg=\"0x0000\"}}{{delay frames=\"20\"}} tastes extra\nspecial,{{delay frames=\"8\"}} {{fun_00070005 arg=\"\"}}."
  },
  {
    "label": "023",
    "text": "{{anim id=\"20\"}}My {{fun_00030011 arg=\"0x0000\"}} seems\nso fragile,{{delay frames=\"20\"}} so I'm too scared to\ntouch it{{delay frames=\"8\"}}.{{delay frames=\"8\"}}.{{delay frames=\"8\"}}."
  },
  {
    "label": "024",
    "text": "{{anim id=\"3\"}}Sometimes I like to flush the toilet\nand just stare into the bowl.{{delay frames=\"20\"}} It's\nkind of relaxing."
  },
  {
    "label": "025",
    "text": "{{anim id=\"33\"}}Look at me! {{delay frames=\"20\"}}I got a computer and\neverything!{{delay frames=\"20\"}} It runs on this stuff\ncalled \"lactricity,\" {{delay frames=\"8\"}}{{fun_00070005 arg=\"\"}}!"
  },
  {
    "label": "026",
    "text": "{{anim id=\"23\"}}Did you notice the smell of the\n{{fun_00030011 arg=\"0x0000\"}}?{{pageBreak}}{{anim id=\"5\"}}Putting out flowers{{delay frames=\"20\"}} makes your\nhome smell nice.{{anim id=\"1\"}} I bet you had no\nidea I had chili last night, huh?"
  },
  {
    "label": "027",
    "text": "{{anim id=\"13\"}}Hold on a second there,{{delay frames=\"20\"}} {{fun_00080005 arg=\"\"}}!{{delay frames=\"40\"}}\nDon't take anything from my fridge,{{delay frames=\"8\"}}\n{{fun_00070005 arg=\"\"}}!"
  },
  {
    "label": "028",
    "text": "{{anim id=\"1\"}}I've got an emergency food stash,{{delay frames=\"8\"}}\nmy {{fun_00030011 arg=\"0x0000\"}}.{{delay frames=\"20\"}}\nThe thing is{{delay frames=\"8\"}}.{{delay frames=\"8\"}}.{{delay frames=\"8\"}}.\n{{anim id=\"12\"}}I'm super hungry{{delay frames=\"20\"}} right now.{{delay frames=\"20\"}}{{fun_00010007 arg=\"\"}}{{anim id=\"15\"}}{{fun_000B0007 arg=\"\"}} Oh!{{delay frames=\"20\"}}\nDoes this count {{delay frames=\"20\"}}as an emergency?!"
  },
  {
    "label": "029",
    "text": "After dinner last night,{{delay frames=\"8\"}} I stepped on\nmy {{fun_00030011 arg=\"0x0000\"}}{{delay frames=\"20\"}}\nand saw I gained three pounds!\n{{anim id=\"4\"}}That means last night's dinner was\nthree pounds!{{delay frames=\"8\"}} Three DELICIOUS\npounds,{{delay frames=\"8\"}} {{fun_00070005 arg=\"\"}}!"
  },
  {
    "label": "030",
    "text": "{{anim id=\"23\"}}Are you a gamer?{{fun_00010007 arg=\"\"}} I am.{{delay frames=\"20\"}}{{anim id=\"5\"}} I have {{fun_0002000E arg=\"\"}}\n{{fun_00030011 arg=\"0x0000\"}} in my place,\nso I can play it as much as I want!\n{{anim id=\"33\"}}My dream is to make my house{{delay frames=\"20\"}}\njust like an arcade,{{delay frames=\"8\"}} {{fun_00070005 arg=\"\"}}."
  },
  {
    "label": "031",
    "text": "{{anim id=\"5\"}}Panda tails are white. Did you know\nthat?{{delay frames=\"20\"}} I learned that while staring\nat my {{fun_00030011 arg=\"0x0000\"}}!"
  },
  {
    "label": "032",
    "text": "{{anim id=\"1\"}}My {{fun_00030011 arg=\"0x0000\"}} is cute.\nThing is,{{delay frames=\"20\"}}{{anim id=\"43\"}} having stuffed animals is\nkind of immature.\n{{anim id=\"9\"}}But I couldn't imagine getting rid\nof my {{fun_00030011 arg=\"0x0000\"}}.{{fun_00010007 arg=\"\"}}\n{{anim id=\"13\"}}I{{delay frames=\"20\"}} can't even think about it!"
  },
  {
    "label": "033",
    "text": "{{anim id=\"11\"}}I can't remember doing anything\nspecial to take care of my\n{{fun_00030011 arg=\"0x0000\"}}.\n{{anim id=\"1\"}}But I seem to have done a good\njob of raising it,{{delay frames=\"8\"}} {{fun_00070005 arg=\"\"}}!"
  },
  {
    "label": "034",
    "text": "{{i10_11 arg=\"0x212D002E00CD\"}}"
  },
  {
    "label": "035",
    "text": "{{anim id=\"1\"}}A huh huh!{{delay frames=\"20\"}} I know you're thinking\nmy {{fun_00030011 arg=\"0x0000\"}}{{delay frames=\"20\"}} seems\nmore like something for a baby.\n{{anim id=\"21\"}}That's 'cause I figured I had to get\nreally familiar with kids' stuff{{delay frames=\"20\"}} if I\nwant to grow up properly.\n{{anim id=\"33\"}}I'm a pretty deep thinker, right?\n{{delay frames=\"8\"}}{{fun_0003000E arg=\"\"}}{{fun_00070005 arg=\"\"}}?"
  },
  {
    "label": "036",
    "text": "{{anim id=\"1\"}}Japanese-style stuff{{delay frames=\"8\"}} is so classy!{{fun_00010007 arg=\"\"}}\n{{anim id=\"43\"}}It really{{delay frames=\"20\"}} has a calming effect on a\nroom{{delay frames=\"8\"}}.{{delay frames=\"8\"}}.{{delay frames=\"8\"}}."
  },
  {
    "label": "037",
    "text": "{{anim id=\"4\"}}Pro wrestlers are so tough{{delay frames=\"20\"}} and\ncool.{{delay frames=\"20\"}} I don't think I could ever be\none, though.{{delay frames=\"20\"}}{{anim id=\"9\"}} I'd get creamed.\n{{anim id=\"21\"}}But I thought it'd be cool to pretend\nto be one,{{delay frames=\"20\"}} {{anim id=\"1\"}}so I got this furniture."
  },
  {
    "label": "038",
    "text": "{{anim id=\"1\"}}I really wanna use this wrestling\nmat sometime!{{fun_00010007 arg=\"\"}} It would be all{{delay frames=\"20\"}}\n\"{{anim id=\"42\"}}Rumble {{delay frames=\"20\"}}in {{fun_00010005 arg=\"\"}}'s room!\""
  },
  {
    "label": "039",
    "text": "{{anim id=\"4\"}}I've always dreamed of having an\nindoor pool!{{delay frames=\"20\"}} Then it's like every day\nis a pool party!"
  },
  {
    "label": "040",
    "text": "{{anim id=\"21\"}}After a long day playing, {{delay frames=\"20\"}}I like to\nget nice and clean in my\n{{fun_00030011 arg=\"0x0000\"}}.\n{{anim id=\"1\"}}Then I have a big dinner,{{delay frames=\"8\"}} and I'm\njust about ready to turn in,\n{{fun_00070005 arg=\"\"}}."
  },
  {
    "label": "041",
    "text": "{{anim id=\"1\"}}I know it's weird to keep my\n{{fun_00030011 arg=\"0x0000\"}} out in the\nopen like this.\n{{anim id=\"2\"}}But one guy's \"weird\"{{delay frames=\"20\"}} is another\nguy's{{delay frames=\"20\"}} \"awesome.\""
  },
  {
    "label": "042",
    "text": "My {{fun_00030011 arg=\"0x0000\"}} {{anim id=\"23\"}}looks\ntasty, right?{{fun_00010007 arg=\"\"}} {{anim id=\"35\"}}But psych!{{delay frames=\"20\"}} It's not\nfruit at all!\n{{anim id=\"2\"}}It's actually furniture,{{delay frames=\"8\"}} {{fun_00070005 arg=\"\"}}.{{delay frames=\"40\"}}{{anim id=\"37\"}}{{pageBreak}}{{anim id=\"17\"}}{{fun_000B0007 arg=\"\"}}Huh?!{{delay frames=\"40\"}} Did you know that the whole\ntime?!"
  },
  {
    "label": "043",
    "text": "{{anim id=\"35\"}}I see you eyeing my\n{{fun_00030011 arg=\"0x0000\"}}.{{delay frames=\"20\"}} It's pretty\ncool, right,{{delay frames=\"20\"}} {{fun_00080005 arg=\"\"}}?\n{{anim id=\"5\"}}You should come watch me play\nsometime!{{delay frames=\"40\"}} {{anim id=\"26\"}}I{{delay frames=\"8\"}}, uh,{{delay frames=\"8\"}} just gotta learn\nhow to play first."
  },
  {
    "label": "044",
    "text": "{{anim id=\"33\"}}Having a garbage can is essential\nfor guys like me!{{pageBreak}}{{anim id=\"1\"}}Empty cans, boots,{{delay frames=\"20\"}} anything you\ndon't need—{{delay frames=\"8\"}}you just toss it in there,{{delay frames=\"8\"}}\n{{fun_00070005 arg=\"\"}}."
  },
  {
    "label": "045",
    "text": "{{anim id=\"1\"}}My {{fun_00030011 arg=\"0x0000\"}} is\nawfully cool, right?{{fun_00010007 arg=\"\"}} He looks {{delay frames=\"8\"}}pretty\ncomfortable in there,{{delay frames=\"8\"}} {{fun_00070005 arg=\"\"}}.\n{{anim id=\"27\"}}If I was smaller, I'd love to live in\nthere myself!"
  },
  {
    "label": "046",
    "text": "{{anim id=\"1\"}}I think my {{fun_00030011 arg=\"0x0000\"}}\nis so cool.{{pageBreak}}{{anim id=\"21\"}}The thing is,{{delay frames=\"8\"}} hamsters are active at\nnight,{{delay frames=\"20\"}} {{anim id=\"25\"}}so {{delay frames=\"20\"}}I'm losing a lot of sleep,{{delay frames=\"8\"}}\n{{fun_00070005 arg=\"\"}}."
  },
  {
    "label": "047",
    "text": ""
  },
  {
    "label": "048",
    "text": ""
  },
  {
    "label": "049",
    "text": ""
  },
  {
    "label": "050",
    "text": ""
  },
  {
    "label": "051",
    "text": ""
  },
  {
    "label": "052",
    "text": ""
  },
  {
    "label": "053",
    "text": ""
  },
  {
    "label": "054",
    "text": ""
  },
  {
    "label": "055",
    "text": ""
  },
  {
    "label": "056",
    "text": ""
  },
  {
    "label": "057",
    "text": ""
  },
  {
    "label": "058",
    "text": ""
  },
  {
    "label": "059",
    "text": ""
  }
]