﻿[
  {
    "label": "001",
    "text": "Oh, is this delivery for me?{{delay frames=\"20\"}} Sweet."
  },
  {
    "label": "002",
    "text": "{{anim id=\"9\"}}Wait—what?{{delay frames=\"20\"}} So there's no delivery\nthen?"
  },
  {
    "label": "003",
    "text": "Oh, wow!{{delay frames=\"20\"}} It's from {{fun_00010011 arg=\"0x0100\"}}!"
  },
  {
    "label": "004",
    "text": "Did {{fun_00010011 arg=\"0x0100\"}} send you to\napologize for {{fun_0008000E arg=\"0x01CD0600680069006D0006006800650072000000\"}}?"
  },
  {
    "label": "005",
    "text": "Oh, I think I know what this is.{{delay frames=\"20\"}}\nIt's that thing I lent to {{fun_00010011 arg=\"0x0100\"}},\nhuh?"
  },
  {
    "label": "006",
    "text": "From {{fun_00010011 arg=\"0x0100\"}}?{{delay frames=\"20\"}} I wonder what\nthis could be."
  },
  {
    "label": "007",
    "text": "Oh, yeah?{{delay frames=\"20\"}} A package for me was\nmistakenly delivered to {{fun_00010011 arg=\"0x0100\"}}?"
  },
  {
    "label": "008",
    "text": "{{anim id=\"5\"}}Yessss!{{delay frames=\"20\"}} This has to be the thing I\nasked {{fun_00010011 arg=\"0x0100\"}} to pick up for me!"
  },
  {
    "label": "009",
    "text": "I wonder what's inside.{{delay frames=\"20\"}} Let's take\na look!"
  },
  {
    "label": "010",
    "text": "{{anim id=\"1\"}}Oh! {{fun_0003000E arg=\"\"}}{{fun_0002000E arg=\"\"}}{{fun_00030011 arg=\"0x0000\"}}!{{delay frames=\"40\"}}\nThat's cool, I guess."
  },
  {
    "label": "011",
    "text": "{{anim id=\"3\"}}Awesome!{{delay frames=\"20\"}}\n{{fun_0003000E arg=\"\"}}{{fun_0002000E arg=\"\"}}{{fun_00030011 arg=\"0x0000\"}}!{{delay frames=\"40\"}}\nI like this color a lot.  "
  },
  {
    "label": "012",
    "text": ""
  },
  {
    "label": "013",
    "text": "{{anim id=\"3\"}}Nice!{{delay frames=\"20\"}}\n{{fun_0003000E arg=\"\"}}{{fun_0002000E arg=\"\"}}{{fun_00030011 arg=\"0x0000\"}}!{{delay frames=\"40\"}}\nThis is just the kind of thing I like."
  },
  {
    "label": "014",
    "text": "I'm surprised.{{delay frames=\"20\"}} I didn't think\n{{fun_00010011 arg=\"0x0100\"}} had any idea what I'm\ninto."
  },
  {
    "label": "015",
    "text": "{{anim id=\"4\"}}I didn't think {{fun_00010011 arg=\"0x0100\"}} knew me\nso well."
  },
  {
    "label": "016",
    "text": "{{anim id=\"4\"}}I knew I could count on {{fun_00010011 arg=\"0x0100\"}}\nto get me something that's exactly\nmy taste."
  },
  {
    "label": "017",
    "text": "{{anim id=\"42\"}}Now it's time to play{{delay frames=\"20\"}} game show!{{fun_00010007 arg=\"\"}}\n{{anim id=\"1\"}}Answer this question correctly, and\nyou'll win a fabulous prize!\n{{anim id=\"0\"}}The question is{{delay frames=\"8\"}}.{{delay frames=\"8\"}}.{{delay frames=\"8\"}}.{{delay frames=\"20\"}}{{anim id=\"23\"}}what do you think\nthis present is?"
  },
  {
    "label": "018",
    "text": "So your guess is {{fun_00000012 arg=\"0x00CD\"}}?{{delay frames=\"40\"}}\nAnd that's your final answer?{{delay frames=\"20\"}}\n{{anim id=\"32\"}}OK!{{delay frames=\"20\"}} Let's open it up!"
  },
  {
    "label": "019",
    "text": "{{anim id=\"1\"}}{{fun_000B0007 arg=\"\"}}YOU ARE CORRECT!{{delay frames=\"40\"}} The present\nwas {{fun_00000012 arg=\"0x01CD\"}}!{{fun_00010007 arg=\"\"}} {{anim id=\"29\"}}Excellent!{{delay frames=\"20\"}} You just\nwon yourself a fabulous prize!"
  },
  {
    "label": "020",
    "text": "{{anim id=\"1\"}}{{fun_000B0007 arg=\"\"}}YOU ARE{{delay frames=\"20\"}} INCORRECT!{{delay frames=\"40\"}} The correct\nanswer was actually {{fun_00000012 arg=\"0x01CD\"}}.{{fun_00010007 arg=\"\"}}\n{{anim id=\"12\"}}Too bad, {{fun_00080005 arg=\"\"}}."
  },
  {
    "label": "021",
    "text": "Thanks for making that delivery,\n{{fun_00080005 arg=\"\"}}!"
  },
  {
    "label": "022",
    "text": "Thanks for making that delivery,\n{{fun_00080005 arg=\"\"}}!{{delay frames=\"20\"}} {{anim id=\"1\"}}I'm gonna go talk to\n{{fun_00010011 arg=\"0x0100\"}} to make up in person!"
  },
  {
    "label": "023",
    "text": "{{anim id=\"1\"}}I know I just got it back, but here—{{delay frames=\"20\"}}\ntake my {{fun_00030011 arg=\"0x0000\"}},\n{{fun_00080005 arg=\"\"}}.\n{{anim id=\"0\"}}I'd forgotten all about it,{{delay frames=\"20\"}} so you can\nhave it.{{fun_00010007 arg=\"\"}}{{anim id=\"32\"}} Anyway,{{delay frames=\"20\"}} thanks for the\ndelivery,{{delay frames=\"8\"}} {{fun_00070005 arg=\"\"}}."
  },
  {
    "label": "024",
    "text": "{{anim id=\"1\"}}Well, you're not the best at playing\ngame show,{{delay frames=\"20\"}} but you ARE the\nbest at delivering stuff.\nThanks, {{fun_00080005 arg=\"\"}}."
  },
  {
    "label": "025",
    "text": "{{anim id=\"1\"}}Even though you kinda failed the\ngame show,{{delay frames=\"20\"}} I'm grateful you\nbrought that present to me!\nLooks like we might be able to\npatch things up now!{{delay frames=\"20\"}} Thanks!"
  },
  {
    "label": "026",
    "text": "{{anim id=\"15\"}}{{fun_000B0007 arg=\"\"}}Awesome!{{delay frames=\"20\"}} It's in even better\ncondition now than it was before!"
  },
  {
    "label": "027",
    "text": "{{anim id=\"15\"}}{{fun_000B0007 arg=\"\"}}She even put it in a cute box!"
  },
  {
    "label": "028",
    "text": "{{anim id=\"3\"}}It smells a million times better now\nthan it did before!"
  },
  {
    "label": "029",
    "text": "Getting someone else to deliver it\n{{anim id=\"1\"}}is so like her."
  },
  {
    "label": "030",
    "text": "{{anim id=\"13\"}}Man, I was sure he'd just forgotten\nabout it!{{delay frames=\"40\"}} I'm kinda surprised to get\nit back!"
  },
  {
    "label": "031",
    "text": "{{anim id=\"11\"}}Did I lend out something like this?{{fun_00010007 arg=\"\"}}\n{{anim id=\"40\"}}Since it was returned to me,{{delay frames=\"20\"}}\n{{anim id=\"1\"}}I guess it must be mine!"
  },
  {
    "label": "032",
    "text": "{{anim id=\"1\"}}Wow, I didn't think he'd actually\nreturn it.{{delay frames=\"20\"}} And it's in pretty good\ncondition!"
  },
  {
    "label": "033",
    "text": "{{anim id=\"9\"}}It sorta smells like cologne or\nsomething{{delay frames=\"8\"}}.{{delay frames=\"8\"}}.{{delay frames=\"8\"}}.{{delay frames=\"20\"}} Did {{fun_00010011 arg=\"0x0100\"}} spray it\ndown before handing it over?"
  },
  {
    "label": "034",
    "text": "{{anim id=\"22\"}}{{fun_000B0007 arg=\"\"}}Oh, I know!{{delay frames=\"40\"}} Let's play a game.{{fun_00010007 arg=\"\"}}\n{{anim id=\"1\"}}If you can guess what's in here,\nI'll give you a prize!"
  },
  {
    "label": "035",
    "text": "{{anim id=\"1\"}}Thanks for making the delivery.{{delay frames=\"20\"}}\nYou've been a huge help,\n{{fun_00080005 arg=\"\"}}!{{pageBreak}}{{anim id=\"0\"}}{{delay frames=\"5\"}}.{{delay frames=\"5\"}}.{{delay frames=\"5\"}}.{{delay frames=\"10\"}}{{anim id=\"22\"}}{{delay frames=\"10\"}}Oh, yeah!{{delay frames=\"20\"}} {{anim id=\"1\"}}I'll give you this{{delay frames=\"10\"}} to\nthank you!"
  },
  {
    "label": "036",
    "text": "{{anim id=\"15\"}}{{fun_000B0007 arg=\"\"}}It's my {{fun_00030011 arg=\"0x0000\"}}!{{pageBreak}}{{anim id=\"26\"}}I'd totally spaced on this!{{delay frames=\"20\"}} It was\nawfully nice of {{fun_00010011 arg=\"0x0100\"}} to send\nit to me."
  },
  {
    "label": "037",
    "text": "{{anim id=\"15\"}}{{fun_000B0007 arg=\"\"}}It's my {{fun_00030011 arg=\"0x0000\"}}!{{fun_00010007 arg=\"\"}}\n{{anim id=\"9\"}}But actually,{{delay frames=\"20\"}} I thought this was long\ngone, so I already bought a new one."
  },
  {
    "label": "038",
    "text": "{{anim id=\"1\"}}Oh, I know.{{delay frames=\"40\"}} Why don't you take it?{{fun_0005000F arg=\"0x15002800\"}}\nSure!\nDon't need it."
  },
  {
    "label": "039",
    "text": "{{anim id=\"9\"}}Really?{{delay frames=\"40\"}} {{anim id=\"1\"}}Well,{{delay frames=\"20\"}} I'll just give it to\nsomeone else then.{{fun_00010007 arg=\"\"}} Thanks for\nmaking the delivery, {{fun_00080005 arg=\"\"}}!"
  },
  {
    "label": "040",
    "text": "{{anim id=\"1\"}}Great!{{delay frames=\"20\"}} Here you go,{{delay frames=\"8\"}} {{fun_00070005 arg=\"\"}}."
  },
  {
    "label": "041",
    "text": "{{anim id=\"32\"}}Well, I'll see you later!{{delay frames=\"40\"}} Oh, and tell\n{{fun_00010011 arg=\"0x0100\"}} thanks for me too!"
  },
  {
    "label": "042",
    "text": "{{anim id=\"1\"}}But it might be nice to have two\nof them in case I lose it again.{{delay frames=\"40\"}}\nSo I'll just hold on to it.\nThanks for bringing this to me,\n{{fun_00080005 arg=\"\"}}!"
  },
  {
    "label": "043",
    "text": "{{anim id=\"1\"}}Well,{{delay frames=\"20\"}} I'm sure I'll find a use for it\nat some point!{{delay frames=\"20\"}} Thanks for bringing\nit to me,{{delay frames=\"8\"}} {{fun_00070005 arg=\"\"}}."
  },
  {
    "label": "044",
    "text": "{{fun_000D0007 arg=\"\"}}Say, {{fun_00080005 arg=\"\"}},{{delay frames=\"40\"}} {{anim id=\"23\"}}would you like to\nbuy it off of me for {{color id=\"2\"}}{{fun_000A0004 arg=\"0x0000\"}}\nBells{{color id=\"65535\"}}?{{fun_0008000D arg=\"0x02CD\"}}{{fun_0005000F arg=\"0x15002800\"}}\nSure!\nNo, thanks."
  },
  {
    "label": "045",
    "text": "{{anim id=\"27\"}}Alrighty then.{{delay frames=\"20\"}} Maybe someone\nelse wants it,{{delay frames=\"8\"}} {{fun_00070005 arg=\"\"}}."
  },
  {
    "label": "046",
    "text": "{{anim id=\"3\"}}Sweeeeet!{{delay frames=\"20\"}}"
  },
  {
    "label": "047",
    "text": "{{anim id=\"32\"}}Well, I'll see you around!{{delay frames=\"40\"}} Thanks a\nlot for the delivery,{{delay frames=\"8\"}} {{fun_00070005 arg=\"\"}}."
  },
  {
    "label": "048",
    "text": "{{anim id=\"9\"}}Wait a second.{{delay frames=\"20\"}} It looks like you\ndon't have enough money."
  },
  {
    "label": "049",
    "text": "{{anim id=\"1\"}}But since you went to the trouble\nof bringing it to me,{{delay frames=\"40\"}} I'll just take\nwhatever money you have on you."
  },
  {
    "label": "050",
    "text": "{{anim id=\"1\"}}But since you went to the trouble\nof bringing it to me,{{delay frames=\"40\"}} {{anim id=\"38\"}}I'll let you have\nit for free!"
  },
  {
    "label": "051",
    "text": "{{anim id=\"0\"}}Well, that's too bad.{{delay frames=\"20\"}} Um, bye then,{{delay frames=\"8\"}}\n{{fun_00070005 arg=\"\"}}."
  },
  {
    "label": "052",
    "text": "{{anim id=\"13\"}}What?!{{delay frames=\"20\"}} You don't even have ONE\nBell?{{delay frames=\"20\"}} How is that even possible?"
  },
  {
    "label": "053",
    "text": "{{anim id=\"9\"}}Well, sorry, but I can't just let you\nhave it{{delay frames=\"8\"}}.{{delay frames=\"8\"}}.{{delay frames=\"8\"}}.{{delay frames=\"20\"}} Um,{{delay frames=\"8\"}} bye,{{delay frames=\"8\"}} I guess,{{delay frames=\"8\"}}\n{{fun_00070005 arg=\"\"}}."
  },
  {
    "label": "054",
    "text": "{{anim id=\"11\"}}Hmmm{{delay frames=\"8\"}}.{{delay frames=\"8\"}}.{{delay frames=\"8\"}}.{{delay frames=\"20\"}} Well, you did go to the\ntrouble of bringing that to me{{delay frames=\"8\"}}.{{delay frames=\"8\"}}.{{delay frames=\"8\"}}.{{delay frames=\"8\"}}\n{{anim id=\"1\"}}So why don't you just take it?"
  },
  {
    "label": "055",
    "text": "{{anim id=\"1\"}}You really helped me out,{{delay frames=\"8\"}}\n{{fun_00070005 arg=\"\"}}.{{delay frames=\"40\"}} Thanks!"
  },
  {
    "label": "056",
    "text": "Hmmm.{{delay frames=\"20\"}} I wonder what it is."
  },
  {
    "label": "057",
    "text": "{{anim id=\"15\"}}{{fun_000B0007 arg=\"\"}}Wow!{{delay frames=\"20\"}}\n{{fun_0003000E arg=\"\"}}{{fun_0002000E arg=\"\"}}{{fun_00030011 arg=\"0x0000\"}}!"
  },
  {
    "label": "058",
    "text": "{{anim id=\"11\"}}I think I ordered this a while back.{{delay frames=\"20\"}}\nBut 'cause it didn't show up for so\nlong, I bought another one.\n{{anim id=\"22\"}}{{fun_000B0007 arg=\"\"}}Oh,{{delay frames=\"20\"}} I have an idea!{{delay frames=\"40\"}} {{anim id=\"1\"}}How about I sell\nyou this{{delay frames=\"20\"}} without opening it?{{pageBreak}}If you're lucky, there could be \nsomething awesome inside,{{delay frames=\"8\"}}\n{{fun_00070005 arg=\"\"}}.\n{{fun_000D0007 arg=\"\"}}Let's say {{delay frames=\"20\"}}{{color id=\"2\"}}{{anim id=\"32\"}}{{fun_000A0004 arg=\"0x0000\"}} Bells{{color id=\"65535\"}}!{{delay frames=\"40\"}}\nWhat do you think?{{fun_0008000D arg=\"0x02CD\"}}{{fun_0005000F arg=\"0x15002800\"}}\nI'll buy it!\nNo, thanks."
  },
  {
    "label": "059",
    "text": "{{anim id=\"9\"}}Seriously?{{delay frames=\"20\"}} You're not gonna buy it?{{fun_00010007 arg=\"\"}}\n{{anim id=\"0\"}}Not that it matters now, but it was{{delay frames=\"20\"}}\n{{fun_0002000E arg=\"\"}}{{fun_00030011 arg=\"0x0000\"}}!\n{{anim id=\"1\"}}Well,{{delay frames=\"20\"}} thanks for the delivery\nanyway.{{delay frames=\"40\"}} Tell {{fun_00010011 arg=\"0x0100\"}} thanks too,{{delay frames=\"8\"}}\n{{fun_00070005 arg=\"\"}}."
  },
  {
    "label": "060",
    "text": "{{anim id=\"5\"}}Awesome!{{delay frames=\"20\"}} Here you go then!"
  },
  {
    "label": "061",
    "text": "{{anim id=\"38\"}}Aren't you excited to see what's \ninside?{{fun_00010007 arg=\"\"}} {{anim id=\"32\"}}Anyway, thanks a lot.{{delay frames=\"20\"}}\nSay thanks to {{fun_00010011 arg=\"0x0100\"}} too."
  },
  {
    "label": "062",
    "text": "{{anim id=\"9\"}}This is awkward for me to tell you,{{delay frames=\"8\"}}\nbut you don't have enough money."
  },
  {
    "label": "063",
    "text": "{{anim id=\"11\"}}But{{delay frames=\"20\"}} you were nice enough to bring\nit out to me,{{delay frames=\"20\"}} so I'll give you a\ndiscount.\n{{anim id=\"1\"}}What you've got on you will be fine,{{delay frames=\"8\"}}\n{{fun_00070005 arg=\"\"}}."
  },
  {
    "label": "064",
    "text": "{{anim id=\"11\"}}But you did go to the trouble of\nbringing it to me{{delay frames=\"8\"}}.{{delay frames=\"8\"}}.{{delay frames=\"8\"}}.{{fun_00010007 arg=\"\"}} {{anim id=\"21\"}}OK!{{delay frames=\"40\"}} {{anim id=\"1\"}}I'll give it to\nyou for free!"
  },
  {
    "label": "065",
    "text": "{{anim id=\"9\"}}Well, that's too bad.{{delay frames=\"20\"}} {{anim id=\"1\"}}But thanks for\nmaking the delivery!{{delay frames=\"20\"}} Bye now,{{delay frames=\"8\"}}\n{{fun_00070005 arg=\"\"}}."
  },
  {
    "label": "066",
    "text": "{{anim id=\"13\"}}Wait—what?{{delay frames=\"20\"}} You don't have a single\nBell?{{delay frames=\"20\"}} Are you doing OK?"
  },
  {
    "label": "067",
    "text": "{{anim id=\"11\"}}But you did go to the trouble of\nbringing it to me{{delay frames=\"8\"}}.{{delay frames=\"8\"}}.{{delay frames=\"8\"}}.{{fun_00010007 arg=\"\"}} {{anim id=\"1\"}}So I'll give it to\nyou for free!"
  },
  {
    "label": "068",
    "text": "{{anim id=\"9\"}}Wow, times sure are tough.{{delay frames=\"40\"}} Well,\nI'm sorry I can't help you out.{{fun_00010007 arg=\"\"}}\n{{anim id=\"32\"}}Still,{{delay frames=\"20\"}} thanks for the delivery!"
  },
  {
    "label": "069",
    "text": "{{anim id=\"32\"}}Thanks for helping me out.{{delay frames=\"20\"}}\nAnd say thanks to {{fun_00010011 arg=\"0x0100\"}} for\nme too."
  },
  {
    "label": "070",
    "text": "{{anim id=\"15\"}}{{fun_000B0007 arg=\"\"}}It's funny that it would get sent to\nthe wrong place{{delay frames=\"8\"}} and that YOU\nwould be the one to bring it to me.\n{{anim id=\"26\"}}'Cause see,{{delay frames=\"8\"}} I ordered this as a\npresent for you!{{delay frames=\"40\"}} {{anim id=\"1\"}}OK!{{delay frames=\"20\"}} Here you go,{{delay frames=\"8\"}}\n{{fun_00070005 arg=\"\"}}."
  },
  {
    "label": "071",
    "text": "{{anim id=\"39\"}}Um,{{delay frames=\"20\"}} so{{delay frames=\"8\"}}.{{delay frames=\"8\"}}.{{delay frames=\"8\"}}.{{delay frames=\"20\"}} Are you gonna open\nit now?{{fun_0005000F arg=\"0x00000000\"}}\nYeah!\nI'll do it later."
  },
  {
    "label": "072",
    "text": "{{anim id=\"1\"}}Yeah, you're right.{{delay frames=\"20\"}} You should open\nit in private so you can really\nsavor it."
  },
  {
    "label": "073",
    "text": "{{anim id=\"3\"}}It's {{fun_0002000E arg=\"\"}}{{fun_00030011 arg=\"0x0000\"}}!{{fun_00010007 arg=\"\"}}\n{{anim id=\"5\"}}I thought it might look good on you,\n{{fun_00080005 arg=\"\"}}!"
  },
  {
    "label": "074",
    "text": "{{anim id=\"3\"}}It's {{fun_0002000E arg=\"\"}}{{fun_00030011 arg=\"0x0000\"}}!"
  },
  {
    "label": "075",
    "text": "{{anim id=\"4\"}}I bought it{{delay frames=\"20\"}} because I thought\nyou'd like the way it looks."
  },
  {
    "label": "076",
    "text": "{{anim id=\"1\"}}I think this furniture would look\ngreat in your house!"
  },
  {
    "label": "077",
    "text": "{{anim id=\"1\"}}I think this flooring{{delay frames=\"20\"}} would really\nwork in your house.{{delay frames=\"40\"}} Use it if\nyou like!"
  },
  {
    "label": "078",
    "text": "{{anim id=\"1\"}}I think this wallpaper{{delay frames=\"20\"}} would look\nreally good in your house.{{delay frames=\"40\"}} Use it if\nyou like!"
  },
  {
    "label": "079",
    "text": "{{anim id=\"26\"}}The thing is,{{delay frames=\"8\"}} I actually got this to\ngive to you.{{delay frames=\"20\"}} I guess the secret is\nout now!\n{{anim id=\"1\"}}All right!{{delay frames=\"20\"}} Here you go,{{delay frames=\"8\"}}\n{{fun_00070005 arg=\"\"}}."
  },
  {
    "label": "080",
    "text": "{{anim id=\"1\"}}All right!{{delay frames=\"20\"}} Let's open this up!"
  },
  {
    "label": "081",
    "text": "It's {{fun_0002000E arg=\"\"}}{{fun_00030011 arg=\"0x0000\"}}!{{delay frames=\"20\"}}\nWow!"
  },
  {
    "label": "082",
    "text": "{{anim id=\"5\"}}A huh huh huh!{{delay frames=\"20\"}} It's so cool!"
  },
  {
    "label": "083",
    "text": "{{anim id=\"3\"}}Awesome!{{delay frames=\"20\"}} This is the real deal,{{delay frames=\"8\"}}\n{{fun_00070005 arg=\"\"}}!"
  },
  {
    "label": "084",
    "text": "{{anim id=\"1\"}}This is great!{{delay frames=\"20\"}} I've wanted one of\nthese for forEVER!"
  },
  {
    "label": "085",
    "text": "{{anim id=\"5\"}}Man, it feels so fresh!{{delay frames=\"40\"}} It's so\nshiny and new!"
  },
  {
    "label": "086",
    "text": "{{anim id=\"33\"}}What do you think?{{delay frames=\"20\"}} Do I look good\nor what?{{fun_0001000F arg=\"0x000000000000\"}}\nYou look awesome.\nIt's fine.\nIt's kinda lame..."
  },
  {
    "label": "087",
    "text": "{{anim id=\"5\"}}I'm glad we agree!{{delay frames=\"20\"}} This is definitely\nmy style!"
  },
  {
    "label": "088",
    "text": "{{anim id=\"1\"}}Thanks for the compliment.{{delay frames=\"20\"}}\nHere. You can have the clothes\nI was wearing!"
  },
  {
    "label": "089",
    "text": "{{anim id=\"38\"}}Since I was just wearing that\n{{fun_00030011 arg=\"0x0100\"}},{{delay frames=\"8\"}} it's all\nwarmed up for you!"
  },
  {
    "label": "090",
    "text": "{{anim id=\"9\"}}Really?{{delay frames=\"20\"}} Just fine?"
  },
  {
    "label": "091",
    "text": "{{anim id=\"12\"}}What?!{{delay frames=\"40\"}} That's harsh!"
  },
  {
    "label": "092",
    "text": "{{anim id=\"40\"}}I just need to grow into it, that's all!{{delay frames=\"40\"}}\nOne day, I'm gonna become the\ntype of guy who looks good in this!"
  },
  {
    "label": "093",
    "text": "{{anim id=\"0\"}}I don't need the outfit I was\nwearing,{{delay frames=\"20\"}} so you can have it!{{fun_00010007 arg=\"\"}} {{anim id=\"38\"}}Here!{{delay frames=\"20\"}}\n{{fun_0003000E arg=\"\"}}{{fun_0002000E arg=\"\"}}{{fun_00030011 arg=\"0x0100\"}}!"
  },
  {
    "label": "094",
    "text": "{{anim id=\"26\"}}And as a bonus,{{delay frames=\"20\"}} I warmed it up\nfor you.{{fun_00010007 arg=\"\"}}{{anim id=\"0\"}} Thanks for the delivery,\n{{fun_00080005 arg=\"\"}}."
  },
  {
    "label": "095",
    "text": "{{anim id=\"9\"}}Hmmm.{{delay frames=\"20\"}} Well, if it doesn't look\ngood, I guess I'll take it off."
  },
  {
    "label": "096",
    "text": "{{anim id=\"27\"}}It's a bummer it didn't work out.{{delay frames=\"20\"}}\nNext time I'll pick something out\nthat'll look really good on me!\n{{anim id=\"0\"}}Thanks for the delivery, {{fun_00080005 arg=\"\"}}."
  },
  {
    "label": "097",
    "text": "{{anim id=\"22\"}}{{fun_000B0007 arg=\"\"}}Oh, you know what?{{delay frames=\"40\"}} This would\nlook great on you!"
  },
  {
    "label": "098",
    "text": "{{anim id=\"21\"}}Yeah!{{delay frames=\"40\"}} {{anim id=\"1\"}}It's definitely more your style."
  },
  {
    "label": "099",
    "text": "{{anim id=\"5\"}}Pretty tasty looking, huh?{{delay frames=\"40\"}} Try some\nif you like!"
  }
]