﻿[
  {
    "label": "001",
    "text": "{{anim id=\"9\"}}Oh,{{delay frames=\"20\"}} so you don't have anything\nfor me?"
  },
  {
    "label": "002",
    "text": "{{anim id=\"10\"}}Aw, man!{{delay frames=\"20\"}} You didn't bring anything?"
  },
  {
    "label": "003",
    "text": "{{anim id=\"5\"}}Awesome!{{delay frames=\"20\"}} I can't believe you\nactually caught one of these for\nme,{{delay frames=\"8\"}} {{fun_00070005 arg=\"\"}}!"
  },
  {
    "label": "004",
    "text": "{{anim id=\"15\"}}Wow! I didn't think you'd actually\nbring me one.{{fun_00010007 arg=\"\"}} {{anim id=\"5\"}}This is great,{{delay frames=\"8\"}}\n{{fun_00070005 arg=\"\"}}!"
  },
  {
    "label": "005",
    "text": "{{anim id=\"3\"}}Sweet!{{delay frames=\"8\"}} I can't believe I'm seeing\n{{fun_0002000E arg=\"\"}}{{fun_00030011 arg=\"0x0000\"}} in real\nlife!"
  },
  {
    "label": "006",
    "text": "{{anim id=\"15\"}}Is this{{delay frames=\"8\"}}.{{delay frames=\"8\"}}.{{delay frames=\"8\"}}.{{delay frames=\"20\"}}\n{{fun_0002000E arg=\"\"}}{{fun_00030011 arg=\"0x0000\"}}?!{{pageBreak}}{{anim id=\"3\"}}This is amazing!{{delay frames=\"20\"}} I never thought I'd\nsee one up close like this!"
  },
  {
    "label": "007",
    "text": "{{anim id=\"5\"}}Nice! {{delay frames=\"20\"}}{{fun_0003000E arg=\"\"}}{{fun_0002000E arg=\"\"}}{{fun_00030011 arg=\"0x0000\"}}!{{delay frames=\"40\"}}\n{{anim id=\"1\"}}Thanks a bunch!"
  },
  {
    "label": "008",
    "text": "{{anim id=\"15\"}}Wow!{{delay frames=\"20\"}} You brought me {{fun_0002000E arg=\"\"}}\n{{fun_00030011 arg=\"0x0000\"}}!{{delay frames=\"40\"}} {{anim id=\"1\"}}Thanks!"
  },
  {
    "label": "009",
    "text": "{{anim id=\"15\"}}This is amazing!{{delay frames=\"40\"}} {{anim id=\"1\"}}I don't even know\nhow to express my thanks for this\n{{fun_00030011 arg=\"0x0000\"}}!"
  },
  {
    "label": "010",
    "text": "{{anim id=\"16\"}}{{fun_0003000E arg=\"\"}}{{fun_0002000E arg=\"\"}}{{fun_00030011 arg=\"0x0000\"}}!{{delay frames=\"20\"}}\nScore!{{fun_00010007 arg=\"\"}}\n{{anim id=\"26\"}}Is this really for me?"
  },
  {
    "label": "011",
    "text": "{{anim id=\"18\"}}{{fun_000B0007 arg=\"\"}}No way!{{delay frames=\"40\"}} You brought me {{fun_0002000E arg=\"\"}}\n{{fun_00030011 arg=\"0x0000\"}}? How did\nyou manage to nab such a rare bug?\n{{anim id=\"0\"}}Tell me the truth{{delay frames=\"8\"}}.{{delay frames=\"8\"}}.{{delay frames=\"8\"}}.{{delay frames=\"20\"}} Did you use\nmagic?{{fun_00010007 arg=\"\"}} {{anim id=\"26\"}}A huh huh huh!{{delay frames=\"20\"}} Man,{{delay frames=\"20\"}} this is\nlike some kind of dream!"
  },
  {
    "label": "012",
    "text": "{{anim id=\"18\"}}{{fun_000B0007 arg=\"\"}}Oh!{{delay frames=\"40\"}} Is this {{delay frames=\"20\"}}{{fun_0002000E arg=\"\"}}\n{{fun_00030011 arg=\"0x0000\"}}?!{{pageBreak}}{{anim id=\"14\"}}This is so awesome,{{delay frames=\"8\"}} it's making me\ncry with happiness!"
  },
  {
    "label": "013",
    "text": "{{anim id=\"1\"}}Thanks!{{delay frames=\"8\"}} I knew I could count on\nyou, {{fun_00080005 arg=\"\"}}!"
  },
  {
    "label": "014",
    "text": "{{anim id=\"3\"}}Wowzer!{{delay frames=\"20\"}} Is this really for me?"
  },
  {
    "label": "015",
    "text": "{{anim id=\"15\"}}{{fun_000B0007 arg=\"\"}}Oh, wow!{{delay frames=\"20\"}} You brought me {{fun_0002000E arg=\"\"}}\n{{fun_00030011 arg=\"0x0000\"}}, just like\nyou promised!\n{{anim id=\"4\"}}You're so good at fishing,{{delay frames=\"20\"}} I'm\nactually glad I'm not a fish."
  },
  {
    "label": "016",
    "text": "{{anim id=\"15\"}}{{fun_000B0007 arg=\"\"}}Wow!{{delay frames=\"20\"}} {{fun_0003000E arg=\"\"}}{{fun_0002000E arg=\"\"}}\n{{fun_00030011 arg=\"0x0000\"}}!{{pageBreak}}{{anim id=\"5\"}}Awesome!{{delay frames=\"20\"}} I can't believe you\ncaught one of these!"
  },
  {
    "label": "017",
    "text": "{{anim id=\"15\"}}Nice!{{delay frames=\"20\"}}{{anim id=\"1\"}} This {{fun_00030011 arg=\"0x0000\"}}\nis for me, right?"
  },
  {
    "label": "018",
    "text": "{{anim id=\"15\"}}Whoa! Nice!{{delay frames=\"20\"}} You brought me {{fun_0002000E arg=\"\"}}\n{{fun_00030011 arg=\"0x0000\"}}!{{fun_00010007 arg=\"\"}} {{anim id=\"1\"}}Thanks,{{delay frames=\"8\"}}\n{{fun_00070005 arg=\"\"}}!"
  },
  {
    "label": "019",
    "text": "{{anim id=\"15\"}}Wow!{{delay frames=\"40\"}}{{anim id=\"3\"}} Thanks a bunch for bringing\nme {{fun_0002000E arg=\"\"}}{{fun_00030011 arg=\"0x0000\"}}!"
  },
  {
    "label": "020",
    "text": "{{anim id=\"15\"}}Wow!{{delay frames=\"20\"}} Is this {{fun_00030011 arg=\"0x0000\"}}\nfor me?{{delay frames=\"20\"}} {{anim id=\"1\"}}It's so sweet!"
  },
  {
    "label": "021",
    "text": "{{anim id=\"18\"}}{{fun_000B0007 arg=\"\"}}Seriously?!{{delay frames=\"20\"}} You caught this\n{{fun_00030011 arg=\"0x0000\"}} for me?{{fun_00010007 arg=\"\"}}\n{{anim id=\"5\"}}You're the best!"
  },
  {
    "label": "022",
    "text": "{{anim id=\"18\"}}{{fun_000B0007 arg=\"\"}}Whoa!{{delay frames=\"20\"}} {{fun_0003000E arg=\"\"}}{{fun_0002000E arg=\"\"}}{{fun_00030011 arg=\"0x0000\"}}?!{{delay frames=\"20\"}}\n{{anim id=\"1\"}}I can't believe you caught one!{{delay frames=\"20\"}}\nIt's so much cooler looking up close!"
  },
  {
    "label": "023",
    "text": "{{anim id=\"22\"}}Oh, right!{{delay frames=\"40\"}} Here's a gift to say\nthanks!"
  },
  {
    "label": "024",
    "text": "{{anim id=\"1\"}}A huh huh huh!{{delay frames=\"20\"}} And here's a little\nsomething for you!"
  },
  {
    "label": "025",
    "text": "{{anim id=\"1\"}}Here's a present to say thanks!"
  },
  {
    "label": "026",
    "text": "{{anim id=\"1\"}}Here.{{delay frames=\"40\"}} Take this as my way of\nsaying thanks,{{delay frames=\"8\"}} {{fun_00070005 arg=\"\"}}."
  },
  {
    "label": "027",
    "text": "{{anim id=\"1\"}}A huh huh huh!{{delay frames=\"20\"}} I have something\nfor you too!"
  },
  {
    "label": "028",
    "text": "{{anim id=\"22\"}}Oh, right!{{delay frames=\"40\"}} I have something for\nyou too!"
  },
  {
    "label": "029",
    "text": "{{anim id=\"5\"}}A huh huh huh!{{delay frames=\"20\"}} Here's a present\nfor you!"
  },
  {
    "label": "030",
    "text": "{{anim id=\"15\"}}I almost forgot!{{delay frames=\"20\"}} I have something\nfor you too!{{fun_00010007 arg=\"\"}} {{anim id=\"1\"}}Here—take this!"
  },
  {
    "label": "031",
    "text": "{{anim id=\"1\"}}Take this as my way of saying\nthanks,{{delay frames=\"8\"}} {{fun_00070005 arg=\"\"}}!"
  },
  {
    "label": "032",
    "text": "{{anim id=\"9\"}}Hmm{{delay frames=\"8\"}}.{{delay frames=\"8\"}}.{{delay frames=\"8\"}}.{{delay frames=\"20\"}} So what sort of gift should\nI give you?{{fun_00010007 arg=\"\"}} {{anim id=\"1\"}}How about this?"
  },
  {
    "label": "033",
    "text": "{{anim id=\"1\"}}It's {{fun_0002000E arg=\"\"}}{{fun_00030011 arg=\"0x0100\"}}!{{fun_00010007 arg=\"\"}}\nI hope you like it!{{delay frames=\"20\"}} Thanks,\n{{fun_00080005 arg=\"\"}}!"
  },
  {
    "label": "034",
    "text": "{{anim id=\"5\"}}It's {{fun_0002000E arg=\"\"}}{{fun_00030011 arg=\"0x0100\"}}!{{delay frames=\"40\"}}\nHope you like it!{{pageBreak}}{{anim id=\"1\"}}Thanks again for your help,\n{{fun_00080005 arg=\"\"}}!{{delay frames=\"40\"}} Maybe I'll bug you for\nhelp again sometime!"
  },
  {
    "label": "035",
    "text": ""
  },
  {
    "label": "036",
    "text": "{{anim id=\"1\"}}Catch me {{fun_0002000E arg=\"\"}}\n{{fun_00030011 arg=\"0x0000\"}}, OK?{{delay frames=\"20\"}} I'm\ncounting on you,{{delay frames=\"8\"}} {{fun_00070005 arg=\"\"}}!"
  },
  {
    "label": "037",
    "text": "Do your best to bring me back\n{{fun_0002000E arg=\"\"}}{{fun_00030011 arg=\"0x0000\"}}!{{fun_00010007 arg=\"\"}}\n{{anim id=\"4\"}}I'm rooting for you, {{fun_00080005 arg=\"\"}}!"
  },
  {
    "label": "038",
    "text": "{{anim id=\"5\"}}I'm counting on you to bring me a\n{{color id=\"2\"}}butterfly{{color id=\"65535\"}},{{delay frames=\"8\"}} {{fun_00080005 arg=\"\"}}. Any kind\nis fine!"
  },
  {
    "label": "039",
    "text": "{{anim id=\"5\"}}I'm counting on you to bring me a\n{{color id=\"2\"}}horned beetle{{color id=\"65535\"}},{{delay frames=\"8\"}} {{fun_00080005 arg=\"\"}}. Any kind\nis fine!"
  },
  {
    "label": "040",
    "text": "{{anim id=\"5\"}}I'm counting on you to bring me a\n{{color id=\"2\"}}stag beetle{{color id=\"65535\"}},{{delay frames=\"8\"}} {{fun_00080005 arg=\"\"}}. Any kind\nis fine!"
  },
  {
    "label": "041",
    "text": "{{anim id=\"5\"}}I'm counting on you to bring me a\n{{color id=\"2\"}}cicada{{color id=\"65535\"}},{{delay frames=\"8\"}} {{fun_00080005 arg=\"\"}}. Any kind is fine!"
  },
  {
    "label": "042",
    "text": "{{anim id=\"5\"}}I'm counting on you to bring me a\n{{color id=\"2\"}}dragonfly{{color id=\"65535\"}},{{delay frames=\"8\"}} {{fun_00080005 arg=\"\"}}. Any kind\nis fine!"
  },
  {
    "label": "043",
    "text": "{{anim id=\"1\"}}Can you please bring me {{fun_0002000E arg=\"\"}}\n{{fun_00030011 arg=\"0x0000\"}}?"
  },
  {
    "label": "044",
    "text": "{{anim id=\"6\"}}{{fun_0004000E arg=\"\"}}{{fun_00030011 arg=\"0x0000\"}} catching\nisn't going to be easy.{{delay frames=\"20\"}}{{anim id=\"1\"}} But I know\nyou can do it, {{fun_00080005 arg=\"\"}}!"
  },
  {
    "label": "045",
    "text": "{{anim id=\"5\"}}Can you please bring me a {{color id=\"2\"}}river\nfish{{color id=\"65535\"}}?{{delay frames=\"20\"}} Thanks,{{delay frames=\"8\"}} {{fun_00070005 arg=\"\"}}!"
  },
  {
    "label": "046",
    "text": "{{anim id=\"5\"}}Can you please bring me an {{color id=\"2\"}}ocean\n{{color id=\"65535\"}}{{color id=\"2\"}}fish{{color id=\"65535\"}}?{{delay frames=\"20\"}} Thanks,{{delay frames=\"8\"}} {{fun_00070005 arg=\"\"}}!"
  }
]