﻿[
  {
    "label": "001",
    "text": "{{anim id=\"13\"}}Eek! {{delay frames=\"20\"}}It's an o{{delay frames=\"8\"}}-ogre!"
  },
  {
    "label": "002",
    "text": "{{anim id=\"15\"}}What?!{{delay frames=\"20\"}} An ogre?!"
  },
  {
    "label": "003",
    "text": "{{anim id=\"17\"}}An ogre?!"
  },
  {
    "label": "004",
    "text": "Be gone,{{delay frames=\"8\"}} ogre!{{delay frames=\"40\"}}{{anim id=\"31\"}} Out with your bad\nluck,{{delay frames=\"8\"}} and in with good fortune!"
  },
  {
    "label": "005",
    "text": "{{anim id=\"1\"}}Hee hee.{{delay frames=\"20\"}} Throwing my own beans\nreally makes it feel like {{color id=\"2\"}}Bean Day{{color id=\"65535\"}}.{{delay frames=\"20\"}}\nThanks for helping,{{delay frames=\"8\"}} bad ogre!"
  },
  {
    "label": "006",
    "text": "{{anim id=\"21\"}}You can't have {{color id=\"2\"}}Bean Day{{color id=\"65535\"}} without\nthe beans!{{fun_00010007 arg=\"\"}}{{anim id=\"36\"}} I didn't hit you in the eye\nor anything, did I?"
  },
  {
    "label": "007",
    "text": "{{anim id=\"11\"}}It seems like a shame to throw out\nperfectly good beans.{{delay frames=\"40\"}} {{anim id=\"37\"}}Still, it's an\nimportant part of the tradition!"
  },
  {
    "label": "008",
    "text": "{{anim id=\"23\"}}Wait{{delay frames=\"8\"}}.{{delay frames=\"8\"}}.{{delay frames=\"8\"}}.{{delay frames=\"20\"}} You're an ogre,{{delay frames=\"8\"}} but you're\ncarrying beans.{{pageBreak}}Do I still throw my beans at you?{{delay frames=\"20\"}}\nAre you carrying fake beans?{{anim id=\"13\"}} I'm\nnot sure how to proceed.{{delay frames=\"40\"}}{{anim id=\"0\"}}"
  },
  {
    "label": "009",
    "text": "{{anim id=\"23\"}}What's this?{{delay frames=\"20\"}} You're an ogre,{{delay frames=\"8\"}} but you\nwant to throw beans?{{pageBreak}}{{anim id=\"1\"}}Oh!{{delay frames=\"20\"}} I suppose it is a lot of fun.{{delay frames=\"20\"}} I'm\nsorry—I never realized ogres might\nenjoy it too!"
  },
  {
    "label": "010",
    "text": "{{anim id=\"16\"}}Really?{{delay frames=\"20\"}} An ogre carrying beans?{{delay frames=\"20\"}} {{anim id=\"37\"}}I've\nnever met an ogre who does that.{{delay frames=\"20\"}}\nYou must be very avant-garde."
  },
  {
    "label": "011",
    "text": "{{anim id=\"1\"}}Today is {{color id=\"2\"}}Bean Day{{color id=\"65535\"}},{{delay frames=\"8\"}} so don't forget\nto stock up on beans!{{delay frames=\"20\"}} You'll need\nthem in case you run into any ogres."
  },
  {
    "label": "012",
    "text": "{{anim id=\"1\"}}I've got a pocket full of beans in\ncase I run into any ogres today!"
  },
  {
    "label": "013",
    "text": "{{anim id=\"1\"}}Don't forget that today is {{color id=\"2\"}}Bean\nDay{{color id=\"65535\"}}!{{delay frames=\"20\"}} If you don't throw any beans,\nyou could have an unlucky year!"
  },
  {
    "label": "014",
    "text": "{{anim id=\"1\"}}It's nice that you have beans for\nthrowing.{{delay frames=\"20\"}} I like to make a hearty\nsoup with my leftover beans."
  },
  {
    "label": "015",
    "text": "{{anim id=\"1\"}}Oh,{{delay frames=\"8\"}} a bean thrower!{{delay frames=\"20\"}} Thank you for\nhelping to control the town's ogre\npopulation."
  },
  {
    "label": "016",
    "text": "{{anim id=\"37\"}}Are those beans for {{color id=\"2\"}}Bean Day{{color id=\"65535\"}}?{{delay frames=\"20\"}} I'm\nglad you're participating in our\ntraditions.{{delay frames=\"20\"}} You're a great sport!"
  },
  {
    "label": "017",
    "text": "{{anim id=\"37\"}}Hooray for us,{{delay frames=\"8\"}} the bean-throwing\nsquad!{{delay frames=\"20\"}} Let's do our best to banish\nbad luck and bring in good luck!"
  },
  {
    "label": "018",
    "text": "{{anim id=\"37\"}}I see someone else has beans for\n{{color id=\"2\"}}Bean Day{{color id=\"65535\"}}!{{delay frames=\"20\"}}{{anim id=\"21\"}} It's up to us to make sure\nthis town is lucky all year long."
  },
  {
    "label": "019",
    "text": "{{anim id=\"1\"}}Hello,{{delay frames=\"8\"}} fellow bean enthusiast!{{delay frames=\"20\"}} Are\nyou ready to banish bad luck from \nour lovely town?"
  },
  {
    "label": "020",
    "text": "{{anim id=\"23\"}}Are you trying to escape having\nbeans thrown at you?{{pageBreak}}Well,{{delay frames=\"8\"}} I can't let you stay too long,{{delay frames=\"8\"}}\nbut you can have some tea.{{delay frames=\"20\"}} Then\nyou should leave town, please!"
  },
  {
    "label": "021",
    "text": "{{anim id=\"37\"}}As a guest in my home,{{delay frames=\"8\"}} it would be\nrude to chase you out.{{delay frames=\"20\"}} We'll resume\nour bean-throwing tradition outside."
  },
  {
    "label": "022",
    "text": "{{anim id=\"37\"}}I suppose it wouldn't be {{color id=\"2\"}}Bean Day{{color id=\"65535\"}}\nwithout you ogres.{{delay frames=\"20\"}} Rest here for a\nfew minutes.{{delay frames=\"8\"}} Then it's back outside!"
  }
]