﻿[
  {
    "label": "001",
    "text": "{{fun_00010009 arg=\"0x030007001400\"}}"
  },
  {
    "label": "002",
    "text": "{{fun_00010009 arg=\"0x0B000F001400\"}}"
  },
  {
    "label": "003",
    "text": "{{anim id=\"1\"}}There's a lot to see and do here in\n{{fun_00050005 arg=\"\"}},{{delay frames=\"8\"}} {{fun_00080005 arg=\"\"}}.{{delay frames=\"20\"}} What have\nyou seen so far?{{fun_00010008 arg=\"0x040000000500000006000000\"}}\nOh, this.\nOh, that.\nThis and that."
  },
  {
    "label": "004",
    "text": "{{anim id=\"1\"}}Is that so?{{delay frames=\"20\"}} I hope you'll stay awhile\nand visit all the other residents.{{delay frames=\"20\"}}\nI know they'd love to meet you."
  },
  {
    "label": "005",
    "text": "{{anim id=\"1\"}}Really?{{delay frames=\"20\"}} You've seen a lot!{{delay frames=\"20\"}} If you\ndiscover an especially great spot,{{delay frames=\"8\"}}\nwill you please tell me about it?"
  },
  {
    "label": "006",
    "text": "{{anim id=\"21\"}}I've heard this and that are both\nvery interesting,{{delay frames=\"8\"}} and there's a lot\nmore to do in town!"
  },
  {
    "label": "007",
    "text": "{{anim id=\"1\"}}May I ask what you think of our\ntown so far?{{fun_00010008 arg=\"0x08000000090000000A000000\"}}\nIt's great!\nIt's OK.\nI've seen better."
  },
  {
    "label": "008",
    "text": "{{anim id=\"5\"}}I'm so happy to hear that!{{delay frames=\"20\"}} Please\nbe sure to see the whole town{{delay frames=\"8\"}} to\nget the full {{fun_00050005 arg=\"\"}} experience!"
  },
  {
    "label": "009",
    "text": "{{anim id=\"37\"}}I'm glad to hear that.{{delay frames=\"20\"}} Please don't\nleave without meeting a few other\nresidents.{{delay frames=\"20\"}} We love having company!"
  },
  {
    "label": "010",
    "text": "{{anim id=\"9\"}}Oh{{delay frames=\"8\"}}.{{delay frames=\"8\"}}.{{delay frames=\"8\"}}. I'm sorry to hear that.{{fun_00010007 arg=\"\"}}{{anim id=\"37\"}} I hope\nyou stay a little longer,{{delay frames=\"8\"}} at least. In\ncase you missed seeing something."
  },
  {
    "label": "011",
    "text": "{{anim id=\"1\"}}Did you get a chance to meet all the\nresidents of {{fun_00050005 arg=\"\"}}?{{fun_00010008 arg=\"0x0C0015000D0000000E002800\"}}\nI sure did!\nJust a few.\nNot yet!"
  },
  {
    "label": "012",
    "text": "{{anim id=\"1\"}}That's great!{{delay frames=\"20\"}} I hope you'll spend\nmore time with everyone.{{delay frames=\"20\"}} We love\ngetting to know visitors."
  },
  {
    "label": "013",
    "text": "{{anim id=\"37\"}}Oh.{{delay frames=\"8\"}} Well, please continue to chat\nwith everyone.{{delay frames=\"20\"}} We love talking to\nguests!"
  },
  {
    "label": "014",
    "text": "{{anim id=\"37\"}}Oh,{{delay frames=\"8\"}} you should meet them!{{delay frames=\"20\"}}\nEspecially since you came\nall this way."
  },
  {
    "label": "015",
    "text": "{{fun_00010009 arg=\"0x100011001200\"}}"
  },
  {
    "label": "016",
    "text": "{{anim id=\"1\"}}I really enjoy living here.{{delay frames=\"20\"}} It's a very\npretty place to call home,{{delay frames=\"8\"}} with nice\nneighbors too."
  },
  {
    "label": "017",
    "text": "{{anim id=\"1\"}}Isn't the air here crisp and clean?{{delay frames=\"20\"}}\nIt's just one of many things I love\nabout living here,{{delay frames=\"8\"}} {{fun_00070005 arg=\"\"}}."
  },
  {
    "label": "018",
    "text": "When {{fun_001E0005 arg=\"0x00CD\"}} rolls around,{{delay frames=\"8\"}} I find\nmyself thinking about our old town.{{delay frames=\"20\"}}\nThat's why I'm so glad you're here!"
  },
  {
    "label": "019",
    "text": ""
  },
  {
    "label": "020",
    "text": "{{anim id=\"37\"}}Oh,{{delay frames=\"8\"}} do you know how to bring items\nwith you when you visit another\ntown?\nYou can put things into,{{delay frames=\"8\"}} and take\nthings out of,{{delay frames=\"8\"}} the storage locker at\nyour local train station.\nThe train company will move your\nthings back and forth for you.{{delay frames=\"20\"}}{{anim id=\"1\"}} It's\neasy,{{delay frames=\"8\"}} {{fun_00070005 arg=\"\"}}."
  },
  {
    "label": "021",
    "text": ""
  },
  {
    "label": "022",
    "text": ""
  },
  {
    "label": "023",
    "text": ""
  },
  {
    "label": "024",
    "text": ""
  },
  {
    "label": "025",
    "text": ""
  },
  {
    "label": "026",
    "text": ""
  },
  {
    "label": "027",
    "text": ""
  },
  {
    "label": "028",
    "text": ""
  },
  {
    "label": "029",
    "text": ""
  },
  {
    "label": "030",
    "text": ""
  },
  {
    "label": "031",
    "text": ""
  },
  {
    "label": "032",
    "text": ""
  },
  {
    "label": "033",
    "text": ""
  },
  {
    "label": "034",
    "text": ""
  },
  {
    "label": "035",
    "text": ""
  },
  {
    "label": "036",
    "text": ""
  },
  {
    "label": "037",
    "text": ""
  },
  {
    "label": "038",
    "text": ""
  },
  {
    "label": "039",
    "text": ""
  },
  {
    "label": "040",
    "text": ""
  },
  {
    "label": "041",
    "text": ""
  },
  {
    "label": "042",
    "text": ""
  },
  {
    "label": "043",
    "text": ""
  },
  {
    "label": "044",
    "text": ""
  },
  {
    "label": "045",
    "text": ""
  },
  {
    "label": "046",
    "text": ""
  },
  {
    "label": "047",
    "text": ""
  },
  {
    "label": "048",
    "text": ""
  },
  {
    "label": "049",
    "text": ""
  },
  {
    "label": "050",
    "text": "{{anim id=\"1\"}}By the way,{{delay frames=\"8\"}} I heard you were made\nthe mayor of {{fun_00060005 arg=\"\"}}!{{delay frames=\"20\"}} That's\nquite an honor.{{pageBreak}}Did you come here{{anim id=\"23\"}} to see your old\nfriends?{{delay frames=\"35\"}} {{anim id=\"5\"}}I hope you enjoy visiting\n{{fun_00050005 arg=\"\"}} again."
  }
]