﻿[
  {
    "label": "001",
    "text": "{{anim id=\"1\"}}Please don't forget to bury that\n{{color id=\"2\"}}time capsule {{color id=\"65535\"}}I gave you.{{pageBreak}}{{anim id=\"0\"}}I put it in your pockets where you\nkeep the rest of your letters.{{pageBreak}}{{anim id=\"16\"}}Also, {{delay frames=\"8\"}}please don't open it!{{fun_00010007 arg=\"\"}} {{anim id=\"37\"}}It might\nspoil the surprise for me later.{{delay frames=\"20\"}} Just\nbury it straightaway."
  },
  {
    "label": "002",
    "text": "{{anim id=\"1\"}}Thanks for agreeing to bury my\n{{color id=\"2\"}}time capsule{{color id=\"65535\"}}.{{fun_00010007 arg=\"\"}} Did you notice I put it\nwith your letters to keep it safe?\n{{anim id=\"21\"}}Also,{{delay frames=\"8\"}} please remember not to open\nit.{{delay frames=\"20\"}} I'm counting on you to bury it\nwithout peeking."
  },
  {
    "label": "003",
    "text": "{{anim id=\"1\"}}Please don't forget to bury my\n{{color id=\"2\"}}time capsule{{color id=\"65535\"}}.{{fun_00010007 arg=\"\"}} {{anim id=\"21\"}}It's with the rest of\nyour letters for safekeeping.\n{{anim id=\"0\"}}Also, please don't try to open it,{{delay frames=\"8\"}}\n{{fun_00070005 arg=\"\"}}.{{delay frames=\"20\"}} If you do,{{delay frames=\"8\"}} you won't\nbe able to close it again!"
  }
]