﻿[
  {
    "label": "001",
    "text": "{{anim id=\"5\"}}Hey, {{fun_00080005 arg=\"\"}}!{{delay frames=\"20\"}} {{anim id=\"1\"}}Thanks for helping\nme out the other day!{{delay frames=\"20\"}} See how\nenergetic I am because of you?{{pageBreak}}{{anim id=\"37\"}}In order to thank you,{{delay frames=\"8\"}} I brought you\n{{fun_0002000E arg=\"\"}}{{fun_00030011 arg=\"0x0000\"}}.\n{{anim id=\"5\"}}Please accept it, {{delay frames=\"8\"}}{{fun_00070005 arg=\"\"}}!"
  },
  {
    "label": "002",
    "text": "{{anim id=\"1\"}}Thanks for taking such good care\nof me,{{delay frames=\"8\"}} {{fun_00080005 arg=\"\"}}!{{pageBreak}}{{anim id=\"5\"}}That {{color id=\"2\"}}medicine{{color id=\"65535\"}} you gave me really\nhelped me get my strength back.{{pageBreak}}{{anim id=\"22\"}}Oh,{{delay frames=\"8\"}} before I forget!{{delay frames=\"20\"}} {{anim id=\"37\"}}I got {{fun_0002000E arg=\"\"}}\n{{fun_00030011 arg=\"0x0000\"}} to thank\nyou!{{delay frames=\"20\"}} {{anim id=\"1\"}}Here you go."
  },
  {
    "label": "003",
    "text": "{{anim id=\"1\"}}Thanks for your help the other day,\n{{fun_00080005 arg=\"\"}}!{{pageBreak}}{{anim id=\"37\"}}Remember?{{delay frames=\"20\"}} You helped me fight off\na nasty cold.{{fun_00010007 arg=\"\"}} {{anim id=\"21\"}}As you can see,{{delay frames=\"8\"}} I'm\ncompletely over it now!\n{{anim id=\"37\"}}I wanted to thank you, so{{delay frames=\"8\"}} I brought\nyou {{fun_0002000E arg=\"\"}}{{fun_00030011 arg=\"0x0000\"}}."
  }
]