﻿[
  {
    "label": "001",
    "text": "{{anim id=\"1\"}}I have a little favor to ask you.{{fun_00010007 arg=\"\"}}\n{{fun_0003000E arg=\"\"}}{{fun_00020005 arg=\"\"}} and I have been working\non a {{color id=\"2\"}}time-capsule {{color id=\"65535\"}}project.\n{{anim id=\"1\"}}I got one put together,{{delay frames=\"10\"}} {{anim id=\"9\"}}but I've been\nhaving a hard time figuring out\nwhere to bury it.\n{{anim id=\"0\"}}Since you're so decisive,{{delay frames=\"8\"}} how would\nyou feel about burying it somewhere\nfor me?{{delay frames=\"20\"}} {{fun_0003000E arg=\"\"}}{{fun_00070005 arg=\"\"}}?{{fun_0005000F arg=\"0x15002800\"}}\nSure!\nI can't."
  },
  {
    "label": "002",
    "text": "{{anim id=\"1\"}}Do you have a minute?{{pageBreak}}{{anim id=\"0\"}}Last week,{{delay frames=\"8\"}} I decided to create a\n{{color id=\"2\"}}time capsule{{color id=\"65535\"}} as a sort of gift for\nmy future self.\n{{anim id=\"9\"}}But I haven't buried it yet.{{delay frames=\"20\"}} Knowing\nme,{{delay frames=\"8\"}} I'll end up losing it,{{delay frames=\"8\"}} and I don't\nwant that to happen!\nSo do you think you could bury it\nfor me?{{delay frames=\"8\"}} Please?{{fun_0005000F arg=\"0x15002800\"}}\nSure!\nI don't think so."
  },
  {
    "label": "003",
    "text": "{{anim id=\"1\"}}Sorry to spring this on you,{{delay frames=\"10\"}} but\nwould you be interested in burying\nmy {{color id=\"2\"}}time capsule {{color id=\"65535\"}}for me?\n{{anim id=\"9\"}}If I bury it myself,{{delay frames=\"8\"}} I won't be able\nto resist the urge to dig it right\nback up.{{fun_0005000F arg=\"0x15002800\"}}\nNo problem!\nSorry."
  },
  {
    "label": "004",
    "text": "{{anim id=\"1\"}}Thank you!{{delay frames=\"20\"}} Here it is.{{fun_00010007 arg=\"\"}} {{anim id=\"0\"}}I'll hand it to\nyou now{{delay frames=\"8\"}} so you can keep it with\nyour letters, OK?"
  },
  {
    "label": "005",
    "text": "{{anim id=\"1\"}}Do you really mean it?{{delay frames=\"20\"}} Well then,{{delay frames=\"10\"}}\nI leave my future in your capable\nhands.\n{{anim id=\"0\"}}You can keep it with the rest\nof your letters for now.{{anim id=\"38\"}}"
  },
  {
    "label": "006",
    "text": "{{anim id=\"1\"}}Oh, that's great!{{delay frames=\"20\"}} I don't want you to\nlose it,{{delay frames=\"8\"}} so please keep it with your\nletters until you're ready to bury it."
  },
  {
    "label": "007",
    "text": "{{anim id=\"37\"}}Oh.{{delay frames=\"20\"}} I see.{{delay frames=\"20\"}} Well, maybe some other\ntime."
  },
  {
    "label": "008",
    "text": "{{anim id=\"37\"}}It's in your pockets{{delay frames=\"8\"}} where you keep\nyour letters.{{fun_00010007 arg=\"\"}}{{anim id=\"1\"}} Make sure you bury it\nwithout peeking or anything!"
  },
  {
    "label": "009",
    "text": "{{anim id=\"1\"}}By the way,{{delay frames=\"10\"}} do you still have that\ntime capsule?{{pageBreak}}{{anim id=\"0\"}}I've decided that since I made it,{{delay frames=\"8\"}}\nI should probably bury it myself.\n{{anim id=\"1\"}}Can I please have it back?"
  },
  {
    "label": "010",
    "text": "{{anim id=\"16\"}}What?!{{delay frames=\"20\"}} You lost it?!{{delay frames=\"20\"}} But I poured my\nheart and soul into it.{{anim id=\"10\"}}{{delay frames=\"20\"}} I can't believe\nyou,{{delay frames=\"8\"}} {{fun_00070005 arg=\"\"}}."
  },
  {
    "label": "011",
    "text": "{{anim id=\"13\"}}Wha—?! {{delay frames=\"20\"}}Did you open the capsule,\n{{fun_00080005 arg=\"\"}}?{{pageBreak}}{{anim id=\"9\"}}I understand you're curious, but\nthat's pretty rude{{delay frames=\"8\"}}.{{delay frames=\"8\"}}.{{delay frames=\"8\"}}.{{delay frames=\"8\"}}"
  },
  {
    "label": "012",
    "text": "{{anim id=\"37\"}}Sorry to take it back now after\nhanding it over earlier."
  },
  {
    "label": "013",
    "text": "{{anim id=\"37\"}}Um{{delay frames=\"8\"}}.{{delay frames=\"8\"}}.{{delay frames=\"8\"}}.{{delay frames=\"8\"}}what's this?"
  },
  {
    "label": "014",
    "text": "{{anim id=\"16\"}}Huh? {{delay frames=\"20\"}}Don't tell me you opened it\nalready!{{pageBreak}}{{anim id=\"9\"}}I was hoping we could look inside it\ntogether{{delay frames=\"8\"}}.{{delay frames=\"8\"}}.{{delay frames=\"8\"}}.{{delay frames=\"8\"}} What a shame.{{fun_00010007 arg=\"\"}} That was\nreally inconsiderate of you."
  },
  {
    "label": "015",
    "text": "{{anim id=\"16\"}}What?!{{delay frames=\"20\"}} You took it upon yourself\nto open it?!{{fun_00010007 arg=\"\"}} {{anim id=\"13\"}}And it's empty?!{{pageBreak}}{{anim id=\"9\"}}I was really looking forward to\nopening it together,{{delay frames=\"5\"}} but now I'm\njust really disappointed."
  },
  {
    "label": "016",
    "text": "{{anim id=\"5\"}}Ooh! Ooh! {{delay frames=\"20\"}}Thank you!{{fun_00010007 arg=\"\"}} Let's open it\nand take a look!"
  },
  {
    "label": "017",
    "text": "{{anim id=\"1\"}}Aah!{{delay frames=\"20\"}} The {{fun_00030011 arg=\"0x0000\"}}\nI loved so much!{{fun_00010007 arg=\"\"}}{{anim id=\"5\"}} And look! {{delay frames=\"20\"}}There's\na letter inside too!"
  },
  {
    "label": "018",
    "text": "{{anim id=\"5\"}}My {{fun_00030011 arg=\"0x0000\"}}! {{delay frames=\"20\"}}\nSuch a favorite of mine!{{fun_00010007 arg=\"\"}}\n{{anim id=\"1\"}}Oh, there's a letter too!"
  },
  {
    "label": "019",
    "text": "{{anim id=\"5\"}}Look! {{delay frames=\"20\"}}My {{fun_00030011 arg=\"0x0000\"}}!{{delay frames=\"20\"}}\n{{anim id=\"37\"}}I just thought I'd lost that,{{delay frames=\"8\"}}\n{{fun_00070005 arg=\"\"}}!{{pageBreak}}{{anim id=\"1\"}}Oh, {{delay frames=\"10\"}}and I wrote a letter!{{delay frames=\"20\"}} Shall we\nread it?"
  },
  {
    "label": "020",
    "text": "{{anim id=\"1\"}}It's funny to look back on what I\nwrote,{{delay frames=\"30\"}}{{anim id=\"39\"}} but it's also kind of\nembarrassing."
  },
  {
    "label": "021",
    "text": "{{anim id=\"22\"}}Oh, right!{{delay frames=\"20\"}} Let me thank you with\na gift.{{delay frames=\"20\"}} {{anim id=\"1\"}}Please accept my\n{{fun_00030011 arg=\"0x0100\"}}!"
  },
  {
    "label": "022",
    "text": "{{anim id=\"22\"}}And now let me give you a present!{{delay frames=\"20\"}}\n{{anim id=\"1\"}}I want you to have my\n{{fun_00030011 arg=\"0x0100\"}}."
  },
  {
    "label": "023",
    "text": "{{anim id=\"16\"}}Right!{{delay frames=\"20\"}} {{anim id=\"5\"}}To repay you for helping me,{{delay frames=\"8\"}}\nI'll send a present to your house.{{delay frames=\"20\"}}\n{{anim id=\"1\"}}Thank you!"
  },
  {
    "label": "024",
    "text": "{{anim id=\"1\"}}Thank you.{{delay frames=\"20\"}} I hope you'll help me\nagain sometime!"
  },
  {
    "label": "025",
    "text": "{{anim id=\"37\"}}Um,{{delay frames=\"20\"}} yes?"
  },
  {
    "label": "026",
    "text": "{{anim id=\"5\"}}Wow,{{delay frames=\"8\"}} you found it for me!{{delay frames=\"20\"}} Thanks!{{delay frames=\"20\"}}\nI was just about to dig it up myself.{{pageBreak}}{{anim id=\"15\"}}Wait a second!{{delay frames=\"20\"}} Did you{{delay frames=\"8\"}}.{{delay frames=\"8\"}}.{{delay frames=\"8\"}}.{{delay frames=\"8\"}} Did you\nopen it?{{fun_00010007 arg=\"\"}} {{anim id=\"12\"}}But{{delay frames=\"8\"}}.{{delay frames=\"8\"}}.{{delay frames=\"8\"}}.{{delay frames=\"8\"}}opening it would have\nbeen the best part."
  },
  {
    "label": "027",
    "text": "{{anim id=\"5\"}}Oh!{{delay frames=\"20\"}} You found it?{{fun_00010007 arg=\"\"}} Perfect timing.{{delay frames=\"10\"}}\nI was just going to go dig it up\nmyself,{{delay frames=\"8\"}} {{fun_00070005 arg=\"\"}}.\n{{anim id=\"15\"}}But what's this?{{delay frames=\"20\"}} Did you open\nmy capsule?!{{fun_00010007 arg=\"\"}} {{anim id=\"9\"}}AND you took the\nstuff inside?!{{delay frames=\"10\"}} {{anim id=\"14\"}}I can't believe this!"
  },
  {
    "label": "028",
    "text": "{{anim id=\"1\"}}Wow! {{delay frames=\"20\"}}You found it for me?!{{delay frames=\"20\"}}\n{{anim id=\"5\"}}You know, {{delay frames=\"10\"}}I was just thinking it was\nabout time to dig that thing up.\n{{anim id=\"1\"}}You know me so well, {{fun_00080005 arg=\"\"}}.{{delay frames=\"20\"}}\nOK,{{delay frames=\"8\"}} let's open it up."
  },
  {
    "label": "029",
    "text": "{{anim id=\"5\"}}Yay!{{delay frames=\"20\"}} My {{fun_00030011 arg=\"0x0000\"}}!{{delay frames=\"20\"}}\n{{anim id=\"1\"}}Oh,{{delay frames=\"20\"}} and there's a letter!"
  },
  {
    "label": "030",
    "text": "{{anim id=\"5\"}}My {{fun_00030011 arg=\"0x0000\"}}!{{delay frames=\"30\"}} What\na great find!{{delay frames=\"20\"}} {{anim id=\"1\"}}Oh,{{delay frames=\"8\"}} and a letter{{delay frames=\"8\"}}.{{delay frames=\"8\"}}.{{delay frames=\"8\"}}."
  },
  {
    "label": "031",
    "text": "{{anim id=\"1\"}}My {{fun_00030011 arg=\"0x0000\"}}!{{delay frames=\"20\"}} Wow!{{delay frames=\"20\"}}\nAnd here I thought I'd lost all this.{{pageBreak}}{{anim id=\"5\"}}Oooh,{{delay frames=\"8\"}} and there's a letter too!{{delay frames=\"8\"}}\n{{fun_0003000E arg=\"\"}}{{fun_00070005 arg=\"\"}}!"
  },
  {
    "label": "032",
    "text": "{{anim id=\"37\"}}I completely forgot what I wrote\nin that letter.{{delay frames=\"8\"}} What a nice surprise."
  },
  {
    "label": "033",
    "text": "{{anim id=\"5\"}}I'd like to repay you for finding\nit for me!{{delay frames=\"20\"}} {{anim id=\"1\"}}Please take my\n{{fun_00030011 arg=\"0x0100\"}} as a gift."
  },
  {
    "label": "034",
    "text": "{{anim id=\"5\"}}Now, {{delay frames=\"10\"}}since you were nice enough to\nfind it for me,{{delay frames=\"5\"}} {{anim id=\"37\"}}I'd like to give you\nmy {{fun_00030011 arg=\"0x0100\"}}. {{delay frames=\"15\"}}Here!"
  },
  {
    "label": "035",
    "text": "{{anim id=\"5\"}}Thank you so much for bringing my\ncapsule to me!{{pageBreak}}{{anim id=\"1\"}}I want to repay the favor somehow,{{delay frames=\"10\"}}\nso I'll be sending a little present to\nyour house."
  },
  {
    "label": "036",
    "text": "{{anim id=\"1\"}}Thank you again!"
  },
  {
    "label": "037",
    "text": ""
  },
  {
    "label": "038",
    "text": ""
  },
  {
    "label": "039",
    "text": ""
  },
  {
    "label": "040",
    "text": ""
  },
  {
    "label": "041",
    "text": ""
  },
  {
    "label": "042",
    "text": ""
  },
  {
    "label": "043",
    "text": ""
  },
  {
    "label": "044",
    "text": ""
  },
  {
    "label": "045",
    "text": ""
  },
  {
    "label": "046",
    "text": ""
  },
  {
    "label": "047",
    "text": ""
  },
  {
    "label": "048",
    "text": ""
  },
  {
    "label": "049",
    "text": ""
  },
  {
    "label": "050",
    "text": "{{anim id=\"9\"}}Hey!{{delay frames=\"20\"}} Did you open it?!{{fun_00010007 arg=\"\"}} {{anim id=\"40\"}}Now it can't\nbe buried!{{delay frames=\"20\"}} {{anim id=\"9\"}}Just give it back to me."
  },
  {
    "label": "051",
    "text": "{{anim id=\"9\"}}I can understand wanting to peek\ninside,{{delay frames=\"10\"}} but it's not right to snoop\nthrough people's stuff."
  },
  {
    "label": "052",
    "text": "{{anim id=\"16\"}}Hey! {{delay frames=\"20\"}}Did you lose what was inside\nthe capsule?!{{fun_00010007 arg=\"\"}}{{anim id=\"12\"}} I'm so disappointed."
  },
  {
    "label": "053",
    "text": "{{anim id=\"16\"}}Wait. {{delay frames=\"20\"}}You opened the capsule?!{{delay frames=\"20\"}} {{anim id=\"9\"}}And\nyou lost what was inside?!{{fun_00010007 arg=\"\"}} {{anim id=\"12\"}}To think\nI trusted you,{{delay frames=\"8\"}} {{fun_00080005 arg=\"\"}}."
  }
]