﻿[
  {
    "label": "001",
    "text": "{{fun_00040009 arg=\"0x46004700480049004A004B00\"}}"
  },
  {
    "label": "002",
    "text": "{{anim id=\"1\"}}That {{fun_00030011 arg=\"0x0000\"}} is,{{delay frames=\"5\"}}\nlike,{{delay frames=\"5\"}} right at home in {{fun_00010011 arg=\"0x0000\"}}'s\nroom. \n{{anim id=\"37\"}}I bet he could tell you {{delay frames=\"10\"}}ALL about\nthe color and light and stuff{{delay frames=\"8\"}}.{{delay frames=\"8\"}}.{{delay frames=\"8\"}}.{{delay frames=\"8\"}}{{anim id=\"27\"}}even\nif {{delay frames=\"5\"}}you didn't want to hear about it! "
  },
  {
    "label": "003",
    "text": "{{anim id=\"21\"}}I bet {{fun_00010011 arg=\"0x0000\"}} talks to his\n{{fun_00030011 arg=\"0x0000\"}} all the\ntime! {{delay frames=\"10\"}}{{anim id=\"37\"}}Not to help the plant grow...\n{{anim id=\"2\"}}but just so he can hear the sound{{delay frames=\"5\"}}\nof his own voice, {{fun_00070005 arg=\"\"}}!"
  },
  {
    "label": "004",
    "text": "{{anim id=\"5\"}}Do I hear {{fun_00030011 arg=\"0x0100\"}}?\n{{delay frames=\"5\"}}I bet he likes to listen to songs\nand {{delay frames=\"5\"}}daydream about{{delay frames=\"8\"}}.{{delay frames=\"8\"}}.{{delay frames=\"8\"}}.{{delay frames=\"8\"}}stuff."
  },
  {
    "label": "005",
    "text": "{{anim id=\"1\"}}{{fun_00010011 arg=\"0x0000\"}} must watch a {{delay frames=\"5\"}}TON of\nsoap operas on TV. {{delay frames=\"10\"}}{{anim id=\"2\"}}That's where he\nlearned to talk all slick and smooth!"
  },
  {
    "label": "006",
    "text": "{{anim id=\"1\"}}{{fun_00010011 arg=\"0x0000\"}} must like to play his\n{{fun_00030011 arg=\"0x0000\"}}.{{delay frames=\"30\"}}{{anim id=\"4\"}} I bet that's\nhow he writes his sappy love songs!"
  },
  {
    "label": "007",
    "text": "{{anim id=\"1\"}}{{fun_00010011 arg=\"0x0000\"}} must be a really good\nchef!{{delay frames=\"10\"}} {{anim id=\"3\"}}He's got some fancy cooking\nequipment in here, {{delay frames=\"15\"}}{{fun_00070005 arg=\"\"}}.\n{{anim id=\"43\"}}What kind of{{delay frames=\"5\"}} yummers dish do\nyou think he could whip up {{delay frames=\"10\"}}using\nhis {{fun_00030011 arg=\"0x0000\"}}?"
  },
  {
    "label": "008",
    "text": "{{anim id=\"35\"}}{{fun_00010011 arg=\"0x0000\"}}{{delay frames=\"10\"}} probably talks WAY too\nmuch in his sleep.{{delay frames=\"10\"}} {{anim id=\"2\"}}He talks too much\nwhen he's awake, {{delay frames=\"15\"}}{{fun_00070005 arg=\"\"}}!"
  },
  {
    "label": "009",
    "text": "{{anim id=\"35\"}}{{fun_00010011 arg=\"0x0000\"}}{{delay frames=\"10\"}} probably talks WAY too\nmuch in his sleep.{{delay frames=\"10\"}} {{anim id=\"2\"}}He talks too much\nwhen he's awake, {{delay frames=\"15\"}}{{fun_00070005 arg=\"\"}}!"
  },
  {
    "label": "010",
    "text": "{{anim id=\"1\"}}This {{fun_00030011 arg=\"0x0000\"}} is,\nlike, totally perfect for {{fun_00010011 arg=\"0x0000\"}}.{{delay frames=\"5\"}}\n{{anim id=\"3\"}}It's a really nice touch!\n{{anim id=\"43\"}}Plus,{{delay frames=\"5\"}} I bet he likes to sit there and\nread fancy French poetry. {{delay frames=\"15\"}}{{anim id=\"27\"}}Doesn't\nthat sound SO like {{fun_00010011 arg=\"0x0000\"}}?"
  },
  {
    "label": "011",
    "text": "{{anim id=\"23\"}}I wonder if {{fun_00010011 arg=\"0x0000\"}} ever invites\nanyone else {{delay frames=\"5\"}}to sit with him on that\n{{fun_00030011 arg=\"0x0000\"}}.\n{{anim id=\"39\"}}I wouldn't mind sitting there with\nhim. {{delay frames=\"15\"}}{{anim id=\"38\"}}We could talk about all sorts\nof {{delay frames=\"5\"}}super-fancy things and ideas!"
  },
  {
    "label": "012",
    "text": "{{anim id=\"23\"}}Do you think {{fun_00010011 arg=\"0x0000\"}} {{delay frames=\"10\"}}would pull\nout that {{fun_00030011 arg=\"0x0000\"}} for\na lady {{delay frames=\"5\"}}so she could sit down?\n{{anim id=\"27\"}}Honestly! {{delay frames=\"15\"}}Sometimes I think chivalry\nis, {{delay frames=\"5\"}}like,{{delay frames=\"5\"}} totally dead! "
  },
  {
    "label": "013",
    "text": "{{fun_00040009 arg=\"0x46004700480049004A004B00\"}}"
  },
  {
    "label": "014",
    "text": "{{anim id=\"22\"}}I wonder what {{fun_00010011 arg=\"0x0000\"}} is hiding\nin that {{fun_00030011 arg=\"0x0000\"}}{{delay frames=\"8\"}}.{{delay frames=\"8\"}}.{{delay frames=\"8\"}}.{{delay frames=\"8\"}}\n{{anim id=\"35\"}}Don't tell, {{delay frames=\"5\"}}but I'm gonna peek later!"
  },
  {
    "label": "015",
    "text": "{{anim id=\"37\"}}{{fun_00010011 arg=\"0x0000\"}} is probably really picky{{delay frames=\"5\"}}\nabout his coffee. {{delay frames=\"10\"}}{{anim id=\"3\"}}No wonder he has\nsuch a nice {{fun_00030011 arg=\"0x0000\"}}!"
  },
  {
    "label": "016",
    "text": "{{fun_00040009 arg=\"0x46004700480049004A004B00\"}}"
  },
  {
    "label": "017",
    "text": "{{anim id=\"4\"}}I bet {{fun_00010011 arg=\"0x0000\"}}{{delay frames=\"10\"}} looks really dapper\nin his {{fun_00030011 arg=\"0x0000\"}}. He\nis,{{delay frames=\"5\"}} like, {{delay frames=\"5\"}}{{anim id=\"38\"}}totally stylin'!\n{{anim id=\"39\"}}Maybe he and I can dress up{{delay frames=\"5\"}} in\nmatching outfits sometime. {{delay frames=\"15\"}}{{anim id=\"2\"}}No\none will be able to tell us apart!"
  },
  {
    "label": "018",
    "text": "{{anim id=\"16\"}}Ha! {{delay frames=\"15\"}}I totally knew we were gonna\nfind {{fun_0002000E arg=\"\"}}{{fun_00030011 arg=\"0x0000\"}}\nin {{fun_00010011 arg=\"0x0000\"}}'s place. {{delay frames=\"10\"}}{{anim id=\"27\"}}Typical!\n{{anim id=\"21\"}}He's definitely the kind of guy {{delay frames=\"5\"}}who\nwould be into a grown-up hobby.{{delay frames=\"15\"}}\n{{anim id=\"29\"}}Nothing immature about that one!"
  },
  {
    "label": "019",
    "text": "{{fun_00040009 arg=\"0x46004700480049004A004B00\"}}"
  },
  {
    "label": "020",
    "text": "{{fun_00040009 arg=\"0x46004700480049004A004B00\"}}"
  },
  {
    "label": "021",
    "text": "{{anim id=\"16\"}}{{fun_00010011 arg=\"0x0000\"}} is a total neat freak!{{delay frames=\"15\"}}\nI knew it {{anim id=\"21\"}}as soon as I saw his\n{{fun_00030011 arg=\"0x0000\"}}.\n{{anim id=\"37\"}}And he keeps it right out in the\nopen, {{delay frames=\"10\"}}which means {{anim id=\"3\"}}he probably\nuses it {{delay frames=\"15\"}}all the time, {{delay frames=\"15\"}}{{fun_00070005 arg=\"\"}}!"
  },
  {
    "label": "022",
    "text": "{{anim id=\"1\"}}I never thought {{fun_00010011 arg=\"0x0000\"}} would\nbe willing to get his hands dirty.{{delay frames=\"15\"}}\n{{anim id=\"29\"}}But he must have!\n{{anim id=\"43\"}}I mean,{{delay frames=\"5\"}} how else could he dig up\nhis {{fun_00030011 arg=\"0x0000\"}}?\n{{anim id=\"2\"}}His clothes probably got filthy!"
  },
  {
    "label": "023",
    "text": "{{anim id=\"1\"}}Did you know {{fun_00010011 arg=\"0x0000\"}} had\n{{fun_0002000E arg=\"\"}}{{fun_00030011 arg=\"0x0000\"}}?{{pageBreak}}{{anim id=\"3\"}}Oooh,{{delay frames=\"5\"}} I hope he has a tea party\nand {{delay frames=\"10\"}}invites me! {{delay frames=\"10\"}}I bet he throws,{{delay frames=\"5\"}}\nlike,{{delay frames=\"5\"}} the most epic parties!"
  },
  {
    "label": "024",
    "text": "{{fun_00040009 arg=\"0x46004700480049004A004B00\"}}"
  },
  {
    "label": "025",
    "text": "{{fun_00040009 arg=\"0x46004700480049004A004B00\"}}"
  },
  {
    "label": "026",
    "text": "{{anim id=\"5\"}}He really knows {{delay frames=\"5\"}}how to brighten up\na room. {{delay frames=\"10\"}}All you have to do is add\n{{fun_0002000E arg=\"\"}}{{fun_00030011 arg=\"0x0000\"}}.\n{{anim id=\"21\"}}{{fun_00010011 arg=\"0x0000\"}} obviously pays {{delay frames=\"5\"}}close\nattention to the details. {{delay frames=\"10\"}}{{anim id=\"4\"}}That's\nso like him, {{delay frames=\"5\"}}{{fun_00070005 arg=\"\"}}!"
  },
  {
    "label": "027",
    "text": "{{anim id=\"21\"}}Can't you totally picture {{fun_00010011 arg=\"0x0000\"}}\nstoring all sorts of fancy ingredients\nin that {{fun_00030011 arg=\"0x0000\"}}?\n{{anim id=\"3\"}}He probably eats, {{delay frames=\"5\"}}like,{{delay frames=\"5\"}} the trendiest\nfoods in town!"
  },
  {
    "label": "028",
    "text": "{{fun_00040009 arg=\"0x46004700480049004A004B00\"}}"
  },
  {
    "label": "029",
    "text": "{{fun_00040009 arg=\"0x46004700480049004A004B00\"}}"
  },
  {
    "label": "030",
    "text": "{{anim id=\"15\"}}{{fun_00010011 arg=\"0x0000\"}} is a hard-core gamer?{{delay frames=\"10\"}} I\nnever thought I'd actually see {{fun_0002000E arg=\"\"}}{{delay frames=\"10\"}}\n{{fun_00030011 arg=\"0x0000\"}} in here!\n{{anim id=\"28\"}}Should we tell everyone{{delay frames=\"10\"}} that he\nsits around{{delay frames=\"5\"}} and plays video games?\n{{anim id=\"35\"}}It'll, {{delay frames=\"5\"}}like, {{delay frames=\"5\"}}totally ruin his image!"
  },
  {
    "label": "031",
    "text": "{{anim id=\"16\"}}Whoa! {{delay frames=\"15\"}}Check out {{fun_00010011 arg=\"0x0000\"}}'s little\n{{fun_00030011 arg=\"0x0000\"}}. {{delay frames=\"15\"}}{{anim id=\"3\"}}I just want\nto cuddle it {{delay frames=\"10\"}}forever and ever!\n{{anim id=\"11\"}}Maybe some cute girl won it for\nhim {{delay frames=\"10\"}}at an amusement park or\nsomething! {{delay frames=\"10\"}}{{anim id=\"4\"}}How sweet!"
  },
  {
    "label": "032",
    "text": "{{anim id=\"1\"}}Isn't that adorable?{{delay frames=\"10\"}} {{fun_00010011 arg=\"0x0000\"}} has\n{{fun_0002000E arg=\"\"}}{{fun_00030011 arg=\"0x0000\"}}.{{delay frames=\"10\"}}{{anim id=\"43\"}} I\nwonder if he got it as a gift..."
  },
  {
    "label": "033",
    "text": "{{fun_00040009 arg=\"0x46004700480049004A004B00\"}}"
  },
  {
    "label": "034",
    "text": "{{fun_00040009 arg=\"0x46004700480049004A004B00\"}}"
  },
  {
    "label": "035",
    "text": "{{anim id=\"16\"}}I wonder if everyone in town knows\n{{fun_00010011 arg=\"0x0000\"}} {{delay frames=\"10\"}}actually has {{fun_0002000E arg=\"\"}}\n{{fun_00030011 arg=\"0x0000\"}}.\n{{anim id=\"27\"}}He walks around like he's all cool,{{delay frames=\"10\"}}\nso it's pretty funny to picture him{{delay frames=\"10\"}}\nwith {{anim id=\"2\"}}this furniture, {{delay frames=\"15\"}}{{fun_00070005 arg=\"\"}}!"
  },
  {
    "label": "036",
    "text": "{{fun_00040009 arg=\"0x46004700480049004A004B00\"}}"
  },
  {
    "label": "037",
    "text": "{{anim id=\"40\"}}I totally can't picture {{fun_00010011 arg=\"0x0000\"}} as{{delay frames=\"5\"}}\na pumped-up bodybuilder. {{delay frames=\"10\"}}{{anim id=\"16\"}}But he\nhas {{fun_0002000E arg=\"\"}}{{fun_00030011 arg=\"0x0000\"}}!\n{{anim id=\"35\"}}He's probably trying to get all\nmacho.{{delay frames=\"15\"}}{{anim id=\"36\"}} I wonder if he's trying to\nimpress anyone {{delay frames=\"5\"}}with his muscles..."
  },
  {
    "label": "038",
    "text": "{{anim id=\"40\"}}I totally can't picture {{fun_00010011 arg=\"0x0000\"}} as{{delay frames=\"5\"}}\na pumped-up bodybuilder. {{delay frames=\"10\"}}{{anim id=\"16\"}}But he\nhas {{fun_0002000E arg=\"\"}}{{fun_00030011 arg=\"0x0000\"}}!\n{{anim id=\"35\"}}He's probably trying to get all\nmacho.{{delay frames=\"15\"}}{{anim id=\"36\"}} I wonder if he's trying to\nimpress anyone {{delay frames=\"5\"}}with his muscles..."
  },
  {
    "label": "039",
    "text": "{{fun_00040009 arg=\"0x46004700480049004A004B00\"}}"
  },
  {
    "label": "040",
    "text": "{{fun_00040009 arg=\"0x46004700480049004A004B00\"}}"
  },
  {
    "label": "041",
    "text": "{{anim id=\"16\"}}{{fun_0003000E arg=\"\"}}{{fun_0002000E arg=\"\"}}{{fun_00030011 arg=\"0x0000\"}}{{delay frames=\"8\"}}.{{delay frames=\"8\"}}.{{delay frames=\"8\"}}.{{delay frames=\"8\"}}in\nthe middle of the room?{{delay frames=\"10\"}}{{anim id=\"9\"}} I'm, {{delay frames=\"5\"}}like,{{delay frames=\"5\"}}\ntotally speechless right now.\n{{anim id=\"27\"}}I know {{fun_00010011 arg=\"0x0000\"}} doesn't really\ncare {{delay frames=\"10\"}}what other people think, {{delay frames=\"5\"}}{{anim id=\"40\"}}but\nthis is just too much!"
  },
  {
    "label": "042",
    "text": "{{fun_00040009 arg=\"0x46004700480049004A004B00\"}}"
  },
  {
    "label": "043",
    "text": "{{fun_00040009 arg=\"0x46004700480049004A004B00\"}}"
  },
  {
    "label": "044",
    "text": "{{fun_00040009 arg=\"0x46004700480049004A004B00\"}}"
  },
  {
    "label": "045",
    "text": ""
  },
  {
    "label": "046",
    "text": ""
  },
  {
    "label": "047",
    "text": ""
  },
  {
    "label": "048",
    "text": ""
  },
  {
    "label": "049",
    "text": ""
  },
  {
    "label": "050",
    "text": ""
  },
  {
    "label": "051",
    "text": ""
  },
  {
    "label": "052",
    "text": ""
  },
  {
    "label": "053",
    "text": ""
  },
  {
    "label": "054",
    "text": ""
  },
  {
    "label": "055",
    "text": ""
  },
  {
    "label": "056",
    "text": ""
  },
  {
    "label": "057",
    "text": ""
  },
  {
    "label": "058",
    "text": ""
  },
  {
    "label": "059",
    "text": ""
  },
  {
    "label": "060",
    "text": ""
  },
  {
    "label": "061",
    "text": ""
  },
  {
    "label": "062",
    "text": ""
  },
  {
    "label": "063",
    "text": ""
  },
  {
    "label": "064",
    "text": ""
  },
  {
    "label": "065",
    "text": ""
  },
  {
    "label": "066",
    "text": ""
  },
  {
    "label": "067",
    "text": ""
  },
  {
    "label": "068",
    "text": ""
  },
  {
    "label": "069",
    "text": ""
  },
  {
    "label": "070",
    "text": "{{anim id=\"1\"}}I adore {{fun_00010011 arg=\"0x0000\"}}'s furniture!{{delay frames=\"8\"}}\n{{anim id=\"3\"}}If my fashion sense had taste buds,\nthey'd totally be tingling right now!"
  },
  {
    "label": "071",
    "text": "{{anim id=\"1\"}}{{fun_00010011 arg=\"0x0000\"}}'s done a pretty good\njob of making his house a home,{{delay frames=\"5\"}}\ndon't you think?"
  },
  {
    "label": "072",
    "text": "{{anim id=\"1\"}}Let me know if you see any trendy\nfurniture items lying around here{{delay frames=\"5\"}}\nI may have missed.\n{{anim id=\"5\"}}I want to make sure I see everything\n{{fun_00010011 arg=\"0x0000\"}} owns!"
  },
  {
    "label": "073",
    "text": "{{anim id=\"37\"}}I feel like I know him on a much\nmore personal level {{delay frames=\"8\"}}{{anim id=\"35\"}}now that I\ncan see {{delay frames=\"5\"}}how he decorates!"
  },
  {
    "label": "074",
    "text": "{{anim id=\"37\"}}Don't tell {{fun_00010011 arg=\"0x0000\"}}, {{delay frames=\"5\"}}but I may\n{{anim id=\"35\"}}steal some of his interior-design\nideas, {{delay frames=\"10\"}}{{fun_00070005 arg=\"\"}}!"
  },
  {
    "label": "075",
    "text": "{{anim id=\"1\"}}Not a bad setup in here!{{delay frames=\"8\"}} {{anim id=\"29\"}}Remind\nme to take notes {{delay frames=\"10\"}}so I can borrow\nsome of these ideas later!"
  }
]