﻿[
  {
    "label": "001",
    "text": "{{anim id=\"20\"}}Hi th-th-there, {{fun_00080005 arg=\"\"}}.{{fun_00010007 arg=\"\"}}\nSorry, but I f-feel so awful today.{{delay frames=\"10\"}}\nI c-can't do anything!"
  },
  {
    "label": "002",
    "text": "{{anim id=\"20\"}}W-w-well, hello, {{fun_00080005 arg=\"\"}}.{{fun_00010007 arg=\"\"}}\nI'm f-f-feeling sick today, so\nmy sparkle is g-g-gone!"
  },
  {
    "label": "003",
    "text": "{{anim id=\"20\"}}What a t-t-time to visit, {{fun_00080005 arg=\"\"}}!{{fun_00010007 arg=\"\"}}\nI th-th-think I'll never shake this\ncold. {{delay frames=\"10\"}}I'm so t-t-tired."
  },
  {
    "label": "004",
    "text": "{{anim id=\"20\"}}These ch-ch-chills.{{delay frames=\"5\"}}.{{delay frames=\"5\"}}.{{delay frames=\"5\"}} I'm never\ngoing to get rid of this.{{delay frames=\"5\"}}.{{delay frames=\"5\"}}.{{delay frames=\"5\"}}!{{anim id=\"30\"}}{{pageBreak}}This awful.{{delay frames=\"5\"}}.{{delay frames=\"5\"}}.{{delay frames=\"5\"}}{{anim id=\"30\"}}cold!{{pageBreak}}{{anim id=\"20\"}}I'm useless today. C-c-come back\nanother time, OK?"
  },
  {
    "label": "005",
    "text": "{{anim id=\"20\"}}This c-c-cold.{{delay frames=\"5\"}}.{{delay frames=\"5\"}}.{{delay frames=\"5\"}} I'm going to be\nsick forever!{{pageBreak}}Come b-b-back.{{delay frames=\"5\"}}.{{delay frames=\"5\"}}.{{delay frames=\"5\"}}{{anim id=\"30\"}}{{delay frames=\"30\"}}when I'm feeling\nb-b-better, {{fun_00080005 arg=\"\"}}."
  },
  {
    "label": "006",
    "text": "{{anim id=\"20\"}}I'm so s-s-sick!{{pageBreak}}I c-c-can't spend time with you\nnow, {{fun_00080005 arg=\"\"}}. I've been.{{delay frames=\"5\"}}.{{delay frames=\"5\"}}.{{delay frames=\"30\"}}{{anim id=\"30\"}}{{delay frames=\"30\"}}{{anim id=\"30\"}}\n{{delay frames=\"5\"}}er, {{delay frames=\"5\"}}yes, all day!"
  },
  {
    "label": "007",
    "text": "{{anim id=\"12\"}}{{size value=\"150\"}}Graack{{delay frames=\"8\"}}.{{delay frames=\"8\"}}.{{delay frames=\"8\"}}.{{delay frames=\"8\"}} Aack-hack!{{pageBreak}}{{size value=\"100\"}}{{anim id=\"30\"}}{{delay frames=\"30\"}}So s-s-sick!"
  },
  {
    "label": "008",
    "text": "{{anim id=\"12\"}}{{size value=\"150\"}}Hrack{{delay frames=\"8\"}}.{{delay frames=\"8\"}}.{{delay frames=\"8\"}}.{{delay frames=\"8\"}} Aack-grack!{{pageBreak}}{{size value=\"100\"}}I've g-g-got a.{{delay frames=\"5\"}}.{{delay frames=\"5\"}}.{{anim id=\"30\"}}{{delay frames=\"30\"}}cold!"
  },
  {
    "label": "009",
    "text": "{{anim id=\"12\"}}{{size value=\"150\"}}Aack{{delay frames=\"8\"}}.{{delay frames=\"8\"}}.{{delay frames=\"8\"}}.{{delay frames=\"8\"}}gaak-gaak!{{size value=\"100\"}}\nI've n-n-never felt so.{{delay frames=\"5\"}}.{{delay frames=\"5\"}}.{{anim id=\"30\"}}{{delay frames=\"30\"}}awful!"
  }
]