﻿[
  {
    "label": "001",
    "text": "{{anim id=\"16\"}}Hey! {{delay frames=\"10\"}}Don't think I forgot how you\nhelped me get over my cold,\n{{fun_00080005 arg=\"\"}}!\n{{anim id=\"3\"}}You brought me that {{color id=\"2\"}}medicine{{color id=\"65535\"}},\nand you deserve a really good\nreward, {{fun_00070005 arg=\"\"}}.\n{{anim id=\"1\"}}So here, {{fun_00080005 arg=\"\"}}. {{delay frames=\"10\"}}Take {{fun_0002000E arg=\"\"}}\n{{fun_00030011 arg=\"0x0000\"}}!"
  },
  {
    "label": "002",
    "text": "{{anim id=\"1\"}}Hey! {{delay frames=\"10\"}}I got over that awful cold\nI had. Wow, I was SO sick of\nsneezing all the time!\n{{anim id=\"5\"}}I'm so happy about that {{color id=\"2\"}}medicine{{color id=\"65535\"}}\nyou got for me! {{delay frames=\"20\"}}Here. Take {{fun_0002000E arg=\"\"}}\n{{fun_00030011 arg=\"0x0000\"}} as thanks!"
  },
  {
    "label": "003",
    "text": "{{anim id=\"20\"}}Ugh, {{fun_00080005 arg=\"\"}}! {{delay frames=\"10\"}}I'm s-s-so.{{delay frames=\"5\"}}.{{delay frames=\"5\"}}.{{delay frames=\"30\"}}{{anim id=\"30\"}}{{pageBreak}}{{anim id=\"2\"}}Ha! {{delay frames=\"10\"}}Just faking! {{delay frames=\"10\"}}I'm totally over\nthat cold, thanks to the great\n{{color id=\"2\"}}medicine{{color id=\"65535\"}} you brought me.\n{{anim id=\"1\"}}I really owe you. So have {{fun_0002000E arg=\"\"}}\n{{fun_00030011 arg=\"0x0000\"}} as thanks!"
  }
]