﻿[
  {
    "label": "001",
    "text": "{{anim id=\"1\"}}Then it's settled! {{delay frames=\"30\"}}{{anim id=\"5\"}}Let's get going!"
  },
  {
    "label": "002",
    "text": "{{anim id=\"5\"}}Yay! Lead the way, {{fun_00070005 arg=\"\"}}!"
  },
  {
    "label": "003",
    "text": "{{anim id=\"1\"}}OK, I'm just going to follow you,\nso let's head to your place,\n{{fun_00070005 arg=\"\"}}!"
  }
]