﻿[
  {
    "label": "001",
    "text": "{{anim id=\"23\"}}Uh{{delay frames=\"8\"}}.{{delay frames=\"8\"}}.{{delay frames=\"8\"}}.{{delay frames=\"8\"}}{{fun_00080005 arg=\"\"}}?{{fun_00010007 arg=\"\"}}\n{{anim id=\"37\"}}You're looking {{delay frames=\"5\"}}kinda tired. {{delay frames=\"20\"}}{{anim id=\"11\"}}Maybe\nit's time {{delay frames=\"10\"}}you took a rest,{{delay frames=\"10\"}} huh?\n{{anim id=\"40\"}}No one's gonna judge you{{delay frames=\"10\"}} if you\nneed to take a little break {{delay frames=\"10\"}}{{anim id=\"35\"}}once in\na while, {{delay frames=\"15\"}}{{fun_00070005 arg=\"\"}}!"
  },
  {
    "label": "002",
    "text": "{{anim id=\"15\"}}You look {{delay frames=\"30\"}}EXHAUSTED.{{delay frames=\"50\"}}\nMaybe it's time {{delay frames=\"10\"}}to take a break. {{anim id=\"27\"}}{{delay frames=\"15\"}}You\ndon't want{{delay frames=\"5\"}} to wear yourself out!"
  },
  {
    "label": "003",
    "text": "{{anim id=\"16\"}}{{fun_0003000E arg=\"\"}}{{fun_00080005 arg=\"\"}}!{{delay frames=\"10\"}}\nWhat happened {{delay frames=\"5\"}}to the spark in your\neyes?{{delay frames=\"30\"}} You look all tuckered out!\n{{anim id=\"37\"}}Sometimes when we're having\nfun, {{delay frames=\"10\"}}it's hard to call a time-out.\n{{delay frames=\"30\"}}{{anim id=\"9\"}}But you look like{{delay frames=\"10\"}} you need a rest!\n{{anim id=\"27\"}}The body is like a battery, {{delay frames=\"15\"}}you\nknow. {{delay frames=\"30\"}}{{anim id=\"38\"}}Every now and then,{{delay frames=\"20\"}} you\nneed to recharge a little!"
  }
]