﻿[
  {
    "label": "001",
    "text": "Yeah, I've been working my biceps\nlike crazy lately{{delay frames=\"8\"}}.{{delay frames=\"8\"}}.{{delay frames=\"8\"}}.{{delay frames=\"20\"}} {{anim id=\"4\"}}I'd love to show\noff for some out-of-towners.\n{{anim id=\"1\"}}You should invite some friends from\nother towns to come and see the\ngun show, {{delay frames=\"8\"}}{{fun_00070005 arg=\"\"}}!\n{{anim id=\"2\"}}Haha! The \"guns\" are my muscles, of\ncourse. {{delay frames=\"40\"}}{{anim id=\"6\"}}I'm gonna train my butt off\nuntil your pals show up!{{delay frames=\"40\"}}{{anim id=\"37\"}}"
  },
  {
    "label": "002",
    "text": "{{anim id=\"6\"}}You gotta take a look at this!"
  },
  {
    "label": "003",
    "text": ""
  },
  {
    "label": "004",
    "text": "Hey, you're buddies with\n{{fun_00000011 arg=\"0x0000\"}},{{anim id=\"23\"}} right?{{pageBreak}}{{anim id=\"1\"}}{{fun_0008000E arg=\"0x00CD080048006500270073000A00530068006500270073000000\"}} got a lot of flair, especially\nwhen it comes to being {{fun_0002000E arg=\"\"}}\n{{fun_00040011 arg=\"0x0000\"}}!{{pageBreak}}{{anim id=\"21\"}}We could use more interesting folks\nlike that in this town.{{fun_00010007 arg=\"\"}} {{anim id=\"3\"}}It sure would\nmake things lively, {{delay frames=\"8\"}}{{fun_00070005 arg=\"\"}}!"
  },
  {
    "label": "005",
    "text": "Is {{fun_00000011 arg=\"0x0000\"}} a{{anim id=\"23\"}} friend of yours?{{pageBreak}}{{anim id=\"1\"}}{{fun_0008000E arg=\"0x00CD04004800650006005300680065000000\"}} is quite the {{fun_00040011 arg=\"0x0000\"}},\ndon't you think?{{pageBreak}}{{anim id=\"38\"}}That's {{fun_00050005 arg=\"\"}} for you, though.\nIt's a happenin' place full of exciting\npeople!"
  },
  {
    "label": "006",
    "text": "{{anim id=\"23\"}}Do you talk with {{fun_00000011 arg=\"0x0000\"}} much?{{fun_00010007 arg=\"\"}}\n{{anim id=\"9\"}}I actually don't know {{fun_0008000E arg=\"0x00CD0600680069006D0006006800650072000000\"}} that well.{{pageBreak}}{{anim id=\"11\"}}From a distance I get the idea that\n{{fun_0008000E arg=\"0x00CD080068006500270073000A00730068006500270073000000\"}} quite the {{fun_00040011 arg=\"0x0000\"}}.{{pageBreak}}I'm curious to know what makes {{fun_0008000E arg=\"0x00CD0600680069006D0006006800650072000000\"}}\ntick{{delay frames=\"8\"}}.{{delay frames=\"8\"}}.{{delay frames=\"8\"}}.{{pageBreak}}{{anim id=\"22\"}}{{fun_000B0007 arg=\"\"}}I guess it's simple, {{fun_00080005 arg=\"\"}}!{{delay frames=\"30\"}}\n{{anim id=\"2\"}}I should go talk to {{fun_0008000E arg=\"0x00CD0600680069006D0006006800650072000000\"}} myself!\n{{delay frames=\"8\"}}{{fun_0003000E arg=\"\"}}{{fun_00070005 arg=\"\"}}!{{delay frames=\"40\"}}{{anim id=\"37\"}}"
  },
  {
    "label": "007",
    "text": "{{anim id=\"22\"}}{{fun_000B0007 arg=\"\"}}Hey! Wanna see something cool?"
  },
  {
    "label": "008",
    "text": "The other day, {{fun_00000011 arg=\"0x0000\"}} gave me\n{{fun_0002000E arg=\"\"}}{{fun_00030011 arg=\"0x0000\"}}!{{pageBreak}}{{anim id=\"11\"}}I'm not quite sure how to\nincorporate it into my training{{delay frames=\"8\"}}.{{delay frames=\"8\"}}.{{delay frames=\"8\"}}. {{anim id=\"38\"}}But\nit was a really nice gesture!\n{{anim id=\"39\"}}Should I thank {{fun_0008000E arg=\"0x00CD0600680069006D0006006800650072000000\"}} for it right\naway? I'm not used to this kind of\nthing, {{delay frames=\"8\"}}{{fun_00070005 arg=\"\"}}!"
  },
  {
    "label": "009",
    "text": "{{anim id=\"1\"}}So I talked to {{fun_00000011 arg=\"0x0000\"}} from\n{{fun_00020011 arg=\"0x0000\"}} the other day!{{pageBreak}}{{anim id=\"28\"}}From what I've seen, {{fun_0008000E arg=\"0x00CD080068006500270073000A00730068006500270073000000\"}} a total\n{{fun_00040011 arg=\"0x0000\"}}.{{pageBreak}}{{anim id=\"5\"}}Next time you guys hang out, bring\nme along! We can lift some weights\ntogether!"
  },
  {
    "label": "010",
    "text": "{{anim id=\"1\"}}Take a look at this letter I got!\n{{fun_0003000E arg=\"\"}}{{fun_00000011 arg=\"0x0000\"}} from {{fun_00020011 arg=\"0x0000\"}} sent\nit to me!"
  },
  {
    "label": "011",
    "text": "{{anim id=\"43\"}}When I see your face, it kinda\nreminds me of {{fun_00000011 arg=\"0x0000\"}} who used\nto live in {{fun_00020011 arg=\"0x0000\"}}.\n{{anim id=\"1\"}}We used to shoot the breeze all the\ntime. If I remember correctly, {{fun_0008000E arg=\"0x00CD04006800650006007300680065000000\"}}\nwas quite {{fun_0002000E arg=\"\"}}{{fun_00040011 arg=\"0x0000\"}}!{{pageBreak}}{{anim id=\"11\"}}I'm a little concerned about whether\n{{fun_0008000E arg=\"0x00CD080068006500270073000A00730068006500270073000000\"}} keeping up {{fun_0008000E arg=\"0x00CD060068006900730006006800650072000000\"}} training when\nI'm not around, {{delay frames=\"8\"}}{{fun_00070005 arg=\"\"}}!"
  },
  {
    "label": "012",
    "text": "{{fun_0003000E arg=\"\"}}{{fun_00000011 arg=\"0x0000\"}} appeared in my dream\nyesterday!{{pageBreak}}I know {{fun_0008000E arg=\"0x00CD04006800650006007300680065000000\"}} used to live in\n{{fun_00020011 arg=\"0x0000\"}}, but {{anim id=\"11\"}}{{fun_0008000E arg=\"0x00CD04006800650006007300680065000000\"}} didn't leave a\nbig impression on me{{delay frames=\"8\"}}.{{delay frames=\"8\"}}.{{delay frames=\"8\"}}.{{pageBreak}}{{anim id=\"0\"}}Or so I thought. {{delay frames=\"20\"}}{{anim id=\"2\"}}But If I'm dreaming\nabout {{fun_0008000E arg=\"0x00CD0600680069006D0006006800650072000000\"}}, maybe I owe {{fun_0008000E arg=\"0x00CD0600680069006D0006006800650072000000\"}} a favor\nand just forgot about it!{{delay frames=\"40\"}}{{anim id=\"37\"}}"
  },
  {
    "label": "013",
    "text": "{{anim id=\"9\"}}Hmm{{delay frames=\"8\"}}.{{delay frames=\"8\"}}.{{delay frames=\"8\"}}.{{delay frames=\"20\"}} What was that person's\nname?{{pageBreak}}Back when I lived in {{fun_00020011 arg=\"0x0000\"}},\nthere was this person who looked a\nlittle like you{{delay frames=\"8\"}}.{{delay frames=\"8\"}}.{{delay frames=\"8\"}}.{{pageBreak}}{{anim id=\"16\"}}{{fun_000B0007 arg=\"\"}}Oh! I know! It was {{fun_00000011 arg=\"0x0000\"}}!{{delay frames=\"40\"}}{{anim id=\"3\"}} I'm\nglad I remembered! That would have\nbugged me all day!\n{{anim id=\"11\"}}It's weird, though. I never really got\nto know {{fun_0008000E arg=\"0x00CD0600680069006D0006006800650072000000\"}}. And then I moved.{{pageBreak}}{{anim id=\"1\"}}If I ever run into {{fun_0008000E arg=\"0x00CD0600680069006D0006006800650072000000\"}} again, I'll have\na nice, long chat with {{fun_0008000E arg=\"0x00CD0600680069006D0006006800650072000000\"}} and get\nbetter acquainted, {{delay frames=\"8\"}}{{fun_00070005 arg=\"\"}}!"
  },
  {
    "label": "014",
    "text": "You should let me play you some of\nmy jogging battle music.{{fun_00010007 arg=\"\"}}{{anim id=\"33\"}} It gets me\nso fired up!{{delay frames=\"60\"}}{{fun_0003000D arg=\"0x00CD\"}}"
  },
  {
    "label": "015",
    "text": "{{anim id=\"23\"}}Do you remember?{{delay frames=\"40\"}} {{anim id=\"35\"}}The first letter \nyou sent me?{{pageBreak}}{{anim id=\"2\"}}Ha ha! It's one of my most prized\npossessions!{{pageBreak}}You can't have it back, though, even\nif it makes you embarrassed!{{delay frames=\"40\"}}{{anim id=\"37\"}}"
  },
  {
    "label": "016",
    "text": "{{anim id=\"23\"}}What do you think? Pretty cool\nwriting paper, huh?{{pageBreak}}{{anim id=\"6\"}}The contents of a letter are what's\nimportant.{{delay frames=\"20\"}}{{anim id=\"1\"}} But it's nice to think this\npaper was chosen just for me!\n{{anim id=\"5\"}}I'm so happy! I'm gonna show it to\neveryone! {{delay frames=\"8\"}}{{fun_0003000E arg=\"\"}}{{fun_00070005 arg=\"\"}}!"
  },
  {
    "label": "017",
    "text": "{{anim id=\"23\"}}You'll let me know if you detect \nsome underlying, earth-shattering\nsecret-code message in it, right?"
  },
  {
    "label": "018",
    "text": "This song is the town tune of\n{{fun_00020011 arg=\"0x0000\"}}, where I used to live!{{delay frames=\"40\"}}\n{{anim id=\"5\"}}It's actually pretty famous!"
  }
]