﻿[
  {
    "label": "001",
    "text": "{{anim id=\"23\"}}You haven't made that delivery to\n{{fun_00010011 arg=\"0x0000\"}} yet?{{pageBreak}}{{anim id=\"6\"}}I was counting on you!{{delay frames=\"20\"}} Fine.{{delay frames=\"8\"}} Give it\nback to me then."
  },
  {
    "label": "002",
    "text": "{{anim id=\"23\"}}Why haven't you made that delivery\nto {{fun_00010011 arg=\"0x0000\"}}?{{pageBreak}}{{anim id=\"6\"}}What are you waiting for?{{delay frames=\"20\"}} Ugh.{{delay frames=\"8\"}}\nNever mind.{{delay frames=\"8\"}} Just give it back to me."
  },
  {
    "label": "003",
    "text": "{{anim id=\"9\"}}Hey!{{delay frames=\"20\"}} {{fun_0003000E arg=\"\"}}{{fun_00080005 arg=\"\"}}!{{delay frames=\"20\"}}\nYou haven't given that thing to\n{{fun_00010011 arg=\"0x0000\"}} yet?{{pageBreak}}{{anim id=\"27\"}}Well, that's just silly.{{delay frames=\"40\"}} It shouldn't\ntake that long.{{delay frames=\"8\"}} Hand it over, and I'll\ntake care of it myself."
  },
  {
    "label": "004",
    "text": "Did you return that lost item to\n{{fun_00010011 arg=\"0x0000\"}} for me?{{delay frames=\"20\"}}{{anim id=\"23\"}}{{pageBreak}}{{anim id=\"10\"}}Ummm{{delay frames=\"8\"}}.{{delay frames=\"8\"}}.{{delay frames=\"8\"}}.{{delay frames=\"40\"}} OK.{{delay frames=\"8\"}} I guess I'll do it then.{{delay frames=\"8\"}}\nHand it over, {{fun_0006000E arg=\"0x0600620072006F000E006C00610064007900620072006F00\"}}.\n"
  },
  {
    "label": "005",
    "text": "{{anim id=\"6\"}}Heya, {{fun_00080005 arg=\"\"}}!{{delay frames=\"20\"}}\nYou haven't taken that package to\n{{fun_00010011 arg=\"0x0000\"}} yet, have you?{{pageBreak}}{{anim id=\"0\"}}Ugh.{{delay frames=\"20\"}} Just give it to me, and I'll take\ncare of it. {{delay frames=\"8\"}}{{fun_0003000E arg=\"\"}}{{fun_00070005 arg=\"\"}}!"
  },
  {
    "label": "006",
    "text": "{{anim id=\"6\"}}What's the holdup?{{delay frames=\"8\"}} Why haven't you\ndelivered that item to {{fun_00010011 arg=\"0x0000\"}}?{{delay frames=\"20\"}}{{pageBreak}}{{anim id=\"12\"}}Oh, just forget it!{{delay frames=\"20\"}} Hand it over, and\nI'll take care of it, {{delay frames=\"8\"}}{{fun_00070005 arg=\"\"}}!"
  },
  {
    "label": "007",
    "text": "I'll have to use my blazing-fast\nspeed to make up for your \ninexplicable dillydallying!\n{{anim id=\"1\"}}I'll go run this over{{delay frames=\"8\"}}.{{delay frames=\"8\"}}.{{delay frames=\"8\"}}.{{delay frames=\"20\"}} Later!"
  },
  {
    "label": "008",
    "text": "{{anim id=\"9\"}}Yeah, this is the kind of thing I really\nshould handle myself."
  },
  {
    "label": "009",
    "text": "{{anim id=\"27\"}}Man, you just take your own sweet\ntime, don't you?{{pageBreak}}{{anim id=\"2\"}}I should have just run over and\nreturned it myself at the first\nopportunity, {{delay frames=\"8\"}}{{fun_00070005 arg=\"\"}}!{{delay frames=\"40\"}}{{anim id=\"1\"}}"
  },
  {
    "label": "010",
    "text": "{{anim id=\"1\"}}All right!{{delay frames=\"20\"}} Time to shatter the old\ndelivery record,{{delay frames=\"20\"}} whatever that was.{{pageBreak}}{{anim id=\"6\"}}My target time is{{delay frames=\"8\"}}.{{delay frames=\"8\"}}.{{delay frames=\"8\"}}.{{delay frames=\"40\"}}{{anim id=\"32\"}}{{fun_000B0007 arg=\"\"}}three seconds!"
  },
  {
    "label": "011",
    "text": "{{anim id=\"27\"}}You're kind of forgettable{{delay frames=\"8\"}}.{{delay frames=\"8\"}}.{{delay frames=\"8\"}}.{{delay frames=\"20\"}} I mean\nforgettingful{{delay frames=\"8\"}}.{{delay frames=\"8\"}}.{{delay frames=\"8\"}}.{{delay frames=\"20\"}} Fuhgettaful?{{delay frames=\"40\"}}{{anim id=\"6\"}} You're\nfull of forgets!{{pageBreak}}I'll deliver this later."
  },
  {
    "label": "012",
    "text": "{{anim id=\"21\"}}In the end, {{delay frames=\"20\"}}you have to rely on \nyourself,{{delay frames=\"8\"}} {{fun_00070005 arg=\"\"}}!"
  },
  {
    "label": "013",
    "text": "{{anim id=\"18\"}}{{fun_000B0007 arg=\"\"}}Did you open this?!{{delay frames=\"20\"}}{{pageBreak}}{{anim id=\"12\"}}Everything about the way this went\ndown is just wrong{{delay frames=\"8\"}}.{{delay frames=\"8\"}}.{{delay frames=\"8\"}}."
  },
  {
    "label": "014",
    "text": "{{anim id=\"18\"}}{{fun_000B0007 arg=\"\"}}What?!{{delay frames=\"20\"}} You opened this?!{{delay frames=\"40\"}} {{anim id=\"12\"}}What{{delay frames=\"20\"}}\nwere you thinking?!"
  },
  {
    "label": "015",
    "text": "{{anim id=\"18\"}}{{fun_000B0007 arg=\"\"}}Whoa!{{delay frames=\"20\"}} What's your deal? This\ndoesn't belong to you!{{pageBreak}}{{anim id=\"6\"}}Unbelievable!{{delay frames=\"20\"}} Wrap this back up!"
  },
  {
    "label": "016",
    "text": "{{anim id=\"23\"}}What{{delay frames=\"8\"}}.{{delay frames=\"8\"}}.{{delay frames=\"8\"}}.{{delay frames=\"20\"}}?{{delay frames=\"20\"}} This thing is open{{delay frames=\"8\"}}.{{delay frames=\"8\"}}.{{delay frames=\"8\"}}.?{{pageBreak}}{{anim id=\"6\"}}I went to all the trouble to wrap it,\nand you just open it like it's yours?!\n{{fun_0003000E arg=\"\"}}{{delay frames=\"8\"}}{{fun_00070005 arg=\"\"}}!"
  },
  {
    "label": "017",
    "text": "{{anim id=\"18\"}}{{fun_000B0007 arg=\"\"}}Whaaaa—?!{{delay frames=\"20\"}} Why is it open?!{{fun_00010007 arg=\"\"}}{{anim id=\"9\"}} This\nwas not meant for you!{{delay frames=\"40\"}} You can't\njust open it all willy-nilly{{delay frames=\"8\"}}.{{delay frames=\"8\"}}.{{delay frames=\"8\"}}."
  },
  {
    "label": "018",
    "text": "{{anim id=\"18\"}}{{fun_000B0007 arg=\"\"}}Whoa!{{delay frames=\"20\"}} You can't open something\nthat doesn't belong to you!{{fun_00010007 arg=\"\"}} {{anim id=\"12\"}}What's\nthe matter with you?"
  },
  {
    "label": "019",
    "text": "{{anim id=\"18\"}}{{fun_000B0007 arg=\"\"}}What? How can you not have it?{{pageBreak}}{{anim id=\"8\"}}{{fun_000B0007 arg=\"\"}}Arghhh!{{delay frames=\"20\"}} {{delay frames=\"8\"}}.{{delay frames=\"8\"}}.{{delay frames=\"8\"}}.{{delay frames=\"20\"}}{{fun_000B0007 arg=\"\"}}Aaaaaaarrrrgghhh!{{delay frames=\"40\"}}{{anim id=\"6\"}}"
  },
  {
    "label": "020",
    "text": "{{anim id=\"18\"}}{{fun_000B0007 arg=\"\"}}Gaaaah!{{delay frames=\"20\"}} You don't have it?!{{delay frames=\"40\"}}{{anim id=\"12\"}} That's\nterrible{{delay frames=\"8\"}}.{{delay frames=\"8\"}}.{{delay frames=\"8\"}}.{{delay frames=\"20\"}} Just terrible."
  },
  {
    "label": "021",
    "text": "{{anim id=\"18\"}}{{fun_000B0007 arg=\"\"}}You{{delay frames=\"8\"}}.{{delay frames=\"8\"}}.{{delay frames=\"8\"}}.{{delay frames=\"20\"}}lost it?!{{delay frames=\"40\"}}{{anim id=\"13\"}} We're in big trouble!"
  },
  {
    "label": "022",
    "text": "{{anim id=\"18\"}}{{fun_000B0007 arg=\"\"}}You{{delay frames=\"8\"}}.{{delay frames=\"8\"}}.{{delay frames=\"8\"}}.{{delay frames=\"20\"}}lost it?!{{delay frames=\"40\"}}{{anim id=\"12\"}} It was already lost!{{delay frames=\"20\"}}\nNow it's super lost!"
  },
  {
    "label": "023",
    "text": "{{anim id=\"18\"}}{{fun_000B0007 arg=\"\"}}What?!{{delay frames=\"20\"}} Don't tell me you lost it!{{delay frames=\"40\"}}\n{{anim id=\"12\"}}What are you gonna do?"
  },
  {
    "label": "024",
    "text": "{{anim id=\"18\"}}{{fun_000B0007 arg=\"\"}}What?!{{delay frames=\"40\"}} Don't tell me you lost it!{{fun_00010007 arg=\"\"}}\n{{anim id=\"12\"}}Man, what a bummer{{delay frames=\"8\"}}.{{delay frames=\"8\"}}.{{delay frames=\"8\"}}."
  }
]