﻿[
  {
    "label": "001",
    "text": "{{anim id=\"17\"}}Ooops!{{delay frames=\"20\"}} You found me!{{delay frames=\"20\"}} {{delay frames=\"8\"}}.{{delay frames=\"8\"}}.{{delay frames=\"8\"}}.{{delay frames=\"20\"}}{{anim id=\"27\"}}Or wait a\nsec.{{delay frames=\"20\"}} You're not a seeker, are you?{{pageBreak}}{{anim id=\"21\"}}What I mean is, I'm in the middle of\na high-stakes hide-and-seek match\nright now!{{delay frames=\"40\"}} You never saw me!"
  },
  {
    "label": "002",
    "text": "{{anim id=\"13\"}}I'm playing hide-and-seek!{{delay frames=\"40\"}}\nKeep quiet! {{delay frames=\"20\"}}{{fun_0003000E arg=\"\"}}{{fun_00070005 arg=\"\"}}!"
  },
  {
    "label": "003",
    "text": "{{anim id=\"18\"}}Hey!{{delay frames=\"20\"}} I'm busy playing hide-and-seek!{{pageBreak}}{{anim id=\"6\"}}If you tell the seeker where I'm\nhiding, I'll tickle you until you blow\nbubbles out your nose!"
  },
  {
    "label": "004",
    "text": "{{anim id=\"13\"}}{{fun_000C0007 arg=\"\"}}What have you done?!"
  }
]