﻿[
  {
    "label": "001",
    "text": "{{anim id=\"16\"}}{{fun_000B0007 arg=\"\"}}Oh! My {{fun_00030011 arg=\"0x0000\"}}!{{delay frames=\"40\"}}\nI'm surprised you found it!{{pageBreak}}{{anim id=\"1\"}}I don't use it very much, so you can\nhave it if you want!{{fun_0005000F arg=\"0x00002800\"}}\nI'll take it!\nNo, thanks."
  },
  {
    "label": "002",
    "text": "{{anim id=\"15\"}}Whoa! You found my\n{{fun_00030011 arg=\"0x0000\"}}!{{pageBreak}}{{anim id=\"1\"}}You can keep that! It always used to\nget in the way when I worked out!\n{{fun_0005000F arg=\"0x00002800\"}}\nI'll take it!\nNo, thanks."
  },
  {
    "label": "003",
    "text": "{{anim id=\"6\"}}Hey, {{fun_00080005 arg=\"\"}}!{{delay frames=\"40\"}} Don't go around\ntouching my things like that!{{pageBreak}}{{delay frames=\"8\"}}.{{delay frames=\"8\"}}.{{delay frames=\"8\"}}.{{delay frames=\"8\"}}{{anim id=\"23\"}}Huh? My {{fun_00030011 arg=\"0x0000\"}}?{{pageBreak}}{{anim id=\"1\"}}I didn't really have a place to keep\nthat, so you can have it if you want!\n{{delay frames=\"8\"}}{{fun_0003000E arg=\"\"}}{{fun_00070005 arg=\"\"}}.{{fun_0005000F arg=\"0x15002800\"}}\nI'll take it!\nNo, thanks."
  },
  {
    "label": "004",
    "text": "{{anim id=\"15\"}}What are you planning to do with\nmy {{fun_00030011 arg=\"0x0000\"}}?{{pageBreak}}{{anim id=\"9\"}}I don't really feel like putting it\naway, so please take it with you if\nyou want it! {{delay frames=\"8\"}}{{fun_0003000E arg=\"\"}}{{fun_00070005 arg=\"\"}}!{{fun_0005000F arg=\"0x15002800\"}}\nI'll take it!\nNo, thanks."
  },
  {
    "label": "005",
    "text": "{{anim id=\"16\"}}{{fun_000B0007 arg=\"\"}}D-{{delay frames=\"20\"}}did you find something?!{{fun_00010007 arg=\"\"}}{{delay frames=\"20\"}}{{anim id=\"10\"}} Oh, it's\njust my {{fun_00030011 arg=\"0x0000\"}}{{delay frames=\"8\"}}.{{delay frames=\"8\"}}.{{delay frames=\"8\"}}.{{pageBreak}}{{anim id=\"1\"}}I was thinking about recycling it.{{delay frames=\"40\"}}\nYou can have it if you want it.{{fun_0005000F arg=\"0x15002800\"}}\nI'll take it!\nNo, thanks."
  },
  {
    "label": "006",
    "text": "{{anim id=\"9\"}}Oh, you don't want it?{{delay frames=\"8\"}}\n{{fun_0003000E arg=\"\"}}{{fun_00070005 arg=\"\"}}?"
  },
  {
    "label": "007",
    "text": "{{anim id=\"6\"}}Aw, barbells! I kinda wanted you to\ntake it with you! {{delay frames=\"8\"}}{{fun_0003000E arg=\"\"}}{{fun_00070005 arg=\"\"}}!"
  },
  {
    "label": "008",
    "text": "{{anim id=\"12\"}}Awww{{delay frames=\"8\"}}.{{delay frames=\"8\"}}.{{delay frames=\"8\"}}.{{delay frames=\"20\"}} I wanted you to take it!"
  },
  {
    "label": "009",
    "text": "{{anim id=\"1\"}}Yeah! Just take it home with you!"
  },
  {
    "label": "010",
    "text": "{{anim id=\"2\"}}Woohoo! I'm glad it's going to a\ngood home! {{delay frames=\"8\"}}{{fun_0003000E arg=\"\"}}{{fun_00070005 arg=\"\"}}!"
  },
  {
    "label": "011",
    "text": "{{anim id=\"2\"}}You're pretty lucky, you know?"
  }
]