﻿[
  {
    "label": "001",
    "text": "You know,{{delay frames=\"8\"}} it bugs me that people \ncall it a grocery store {{anim id=\"1\"}}when it sells\na lot more than just groceries!\n{{anim id=\"11\"}}Come to think of it{{delay frames=\"8\"}}.{{delay frames=\"8\"}}.{{delay frames=\"8\"}}.{{delay frames=\"8\"}}do you see\nANY groceries here at all{{delay frames=\"8\"}}.{{delay frames=\"8\"}}.{{delay frames=\"8\"}}.{{delay frames=\"8\"}}?"
  },
  {
    "label": "002",
    "text": "{{anim id=\"37\"}}Seeing all this stuff for sale just\nmakes you feel good, {{delay frames=\"8\"}}you know?!"
  },
  {
    "label": "003",
    "text": "They sell all this stuff,{{delay frames=\"8\"}} {{anim id=\"6\"}}and I still\ndon't know what I want!{{delay frames=\"30\"}} {{anim id=\"0\"}}It's just\nthat kinda day!"
  },
  {
    "label": "004",
    "text": "{{anim id=\"1\"}}I decided to take a little trip{{delay frames=\"15\"}} and\nsee what the supermarket in\n{{fun_00050005 arg=\"\"}} was offering today!"
  },
  {
    "label": "005",
    "text": "You really should try not to buy\nanything{{delay frames=\"8\"}} more than what you need!{{delay frames=\"8\"}}{{anim id=\"33\"}}{{delay frames=\"15\"}}\nThat's how I do it!"
  }
]