﻿[
  {
    "label": "001",
    "text": "We both know this is just a dream.{{delay frames=\"15\"}}\n{{anim id=\"37\"}}There's no need to worry when we\nmeet someone new in here!"
  },
  {
    "label": "002",
    "text": "Things are so different {{anim id=\"37\"}}in other\ntowns, aren't they?"
  },
  {
    "label": "003",
    "text": "{{anim id=\"37\"}}It feels kind of strange meeting you\nlike this in a dream.{{delay frames=\"8\"}} {{anim id=\"36\"}}How bizarre!"
  },
  {
    "label": "004",
    "text": "This is like a once-in-a-lifetime\nencounter, isn't it?{{delay frames=\"8\"}} {{anim id=\"1\"}}It's strange to\nsee someone entirely new in here!"
  },
  {
    "label": "005",
    "text": "The mayor of our town is Mayor\n{{fun_00000011 arg=\"0x0000\"}}, but I hear {{fun_0005000E arg=\"0x0400680065000600730068006500\"}} lives in\na tent or something!\n{{anim id=\"11\"}}Maybe {{fun_0005000E arg=\"0x0400680065000600730068006500\"}} just moved here really\nrecently then..."
  },
  {
    "label": "006",
    "text": "Have you seen Mayor {{fun_00000011 arg=\"0x0000\"}}'s{{delay frames=\"8\"}}\nhouse yet?{{delay frames=\"30\"}} {{anim id=\"27\"}}It's a pretty dinky thing,\nya know?"
  },
  {
    "label": "007",
    "text": "Have you seen Mayor {{fun_00000011 arg=\"0x0000\"}}'s{{delay frames=\"8\"}}\nhouse yet?{{delay frames=\"30\"}} {{anim id=\"27\"}}It's a pretty boring place\nto live, ya know?"
  },
  {
    "label": "008",
    "text": "Have you seen Mayor {{fun_00000011 arg=\"0x0000\"}}'s{{delay frames=\"8\"}}\nhouse yet?{{delay frames=\"30\"}} {{anim id=\"1\"}}It's a fairly decent place\nto live! Lots of space!"
  },
  {
    "label": "009",
    "text": "Have you seen Mayor {{fun_00000011 arg=\"0x0000\"}}'s{{delay frames=\"8\"}}\nhouse yet?{{delay frames=\"30\"}} Thing's huge! {{anim id=\"1\"}}It's gotta\nbe two stories tall!"
  },
  {
    "label": "010",
    "text": "Have you seen Mayor {{fun_00000011 arg=\"0x0000\"}}'s{{delay frames=\"8\"}}\nhouse yet?{{delay frames=\"30\"}} {{anim id=\"1\"}}It's even bigger on the\ninside than it looks! So much space!"
  },
  {
    "label": "011",
    "text": "Have you seen Mayor {{fun_00000011 arg=\"0x0000\"}}'s{{delay frames=\"8\"}}\nhouse yet?{{delay frames=\"30\"}} {{anim id=\"31\"}}It's stupidly huge!"
  },
  {
    "label": "012",
    "text": "{{anim id=\"11\"}}I can't say I know Mayor {{fun_00000011 arg=\"0x0000\"}}\nall that well, but{{delay frames=\"8\"}}.{{delay frames=\"8\"}}.{{delay frames=\"8\"}}.{{delay frames=\"8\"}}{{pageBreak}}{{fun_0005000E arg=\"0x080048006500270073000A0053006800650027007300\"}} sort of what you'd call\n{{anim id=\"1\"}}{{fun_0002000E arg=\"\"}}{{fun_00040011 arg=\"0x0000\"}}!{{delay frames=\"8\"}} {{anim id=\"21\"}}Yeah!"
  },
  {
    "label": "013",
    "text": "{{anim id=\"1\"}}There's a person in this town named\n{{fun_00000011 arg=\"0x0100\"}} who lives in a tent!{{pageBreak}}{{anim id=\"0\"}}I'm not sure if that's {{fun_0005000E arg=\"0x06006800690073000600680065007200\"}} thing or if\n{{fun_0005000E arg=\"0x0400680065000600730068006500\"}} was forced into it by some odd\ncircumstances or something{{delay frames=\"8\"}}.{{delay frames=\"8\"}}.{{delay frames=\"8\"}}.\n{{anim id=\"1\"}}I actually think it's pretty cool, all\nthings considered!"
  },
  {
    "label": "014",
    "text": "There's a person named {{fun_00000011 arg=\"0x0100\"}}\nwho lives in town here.{{delay frames=\"8\"}} Have you\nchecked out {{fun_0005000E arg=\"0x06006800690073000600680065007200\"}} house yet?\n{{anim id=\"1\"}}It's still pretty small, but it's got\nthe new-house smell going for it!"
  },
  {
    "label": "015",
    "text": "There's a person named {{fun_00000011 arg=\"0x0100\"}}\nwho lives in town here.{{delay frames=\"8\"}} Have you\nchecked out {{fun_0005000E arg=\"0x06006800690073000600680065007200\"}} house yet?\n{{anim id=\"1\"}}It makes you wonder how it'll grow\nfrom here on out. You can't help but\nstart wondering!"
  },
  {
    "label": "016",
    "text": "There's a person named {{fun_00000011 arg=\"0x0100\"}}\nwho lives in town here.{{delay frames=\"8\"}} Have you\nchecked out {{fun_0005000E arg=\"0x06006800690073000600680065007200\"}} house yet?\n{{anim id=\"1\"}}It kinda makes you feel as if {{fun_0005000E arg=\"0x080068006500270073000A0073006800650027007300\"}}\nreally enjoying life here in town!"
  },
  {
    "label": "017",
    "text": "There's a person named {{fun_00000011 arg=\"0x0100\"}}\nwho lives in town here.{{delay frames=\"8\"}} Have you\nchecked out {{fun_0005000E arg=\"0x06006800690073000600680065007200\"}} house yet?\n{{anim id=\"1\"}}Once you step inside, {{anim id=\"43\"}}you sorta get\noverwhelmed by the size of it!{{delay frames=\"30\"}}\n{{anim id=\"21\"}}After all, it's two stories tall!"
  },
  {
    "label": "018",
    "text": "There's a person named {{fun_00000011 arg=\"0x0100\"}}\nwho lives in town here.{{delay frames=\"8\"}} Have you\nchecked out {{fun_0005000E arg=\"0x06006800690073000600680065007200\"}} house yet?\n{{anim id=\"1\"}}All I can say is that it's HUGE.{{delay frames=\"8\"}}\nAnd {{fun_0005000E arg=\"0x080068006500270073000A0073006800650027007300\"}} STILL hard at work!"
  },
  {
    "label": "019",
    "text": "There's a person named {{fun_00000011 arg=\"0x0100\"}}\nwho lives in town here.{{delay frames=\"8\"}} Have you\nchecked out {{fun_0005000E arg=\"0x06006800690073000600680065007200\"}} house yet?\n{{anim id=\"1\"}}That big of a house would just be\ntoo much for me,{{delay frames=\"8\"}} {{anim id=\"2\"}}but everyone's\ngot different tastes, I guess!"
  },
  {
    "label": "020",
    "text": "In town, there's a person named\n{{fun_00000011 arg=\"0x0100\"}} who's sorta what they\ncall {{fun_0002000E arg=\"\"}}{{fun_00040011 arg=\"0x0100\"}}.\n{{anim id=\"1\"}}Then again, it's not good to judge\na book by its cover, am I right?!{{delay frames=\"16\"}}\n{{anim id=\"2\"}}Of course I am! {{delay frames=\"20\"}}{{fun_0003000E arg=\"\"}}{{fun_00070005 arg=\"\"}}!"
  }
]