﻿[
  {
    "label": "001",
    "text": "{{anim id=\"21\"}}When we go from fall to winter,\nthe days get colder and colder{{delay frames=\"8\"}}.{{delay frames=\"8\"}}.{{delay frames=\"8\"}}.{{delay frames=\"20\"}}{{pageBreak}}And then the season really kicks in\nat the {{color id=\"2\"}}Winter Solstice{{color id=\"65535\"}}!{{pageBreak}}{{anim id=\"37\"}}Things are just gonna keep getting\nmore and more bitterly cold as we\nmove toward the inevitable spring!\n{{anim id=\"6\"}}Hey!{{delay frames=\"8\"}} Planet!{{delay frames=\"8\"}} Why don't you just\nmake up your mind and keep things\nthe same!{{delay frames=\"8\"}} {{anim id=\"27\"}}Sheesh."
  },
  {
    "label": "002",
    "text": "I feel like it starts to get really cold\nright after the {{color id=\"2\"}}Winter Solstice{{color id=\"65535\"}}!{{pageBreak}}{{anim id=\"37\"}}We'll both have to be careful not to\ncatch colds,{{delay frames=\"20\"}} {{fun_00070005 arg=\"\"}}!"
  },
  {
    "label": "003",
    "text": "{{anim id=\"21\"}}\"The shortest day of the year.\"{{delay frames=\"8\"}}\nHearing that when I was a kid\nwould always get me excited!{{delay frames=\"20\"}}\n{{anim id=\"37\"}}It made me think I could start\nstaying up even past sunset!{{pageBreak}}{{anim id=\"27\"}}Nowadays{{delay frames=\"8\"}}.{{delay frames=\"8\"}}.{{delay frames=\"8\"}}.{{delay frames=\"20\"}}it just feels like a safety\nhazard that I don't wanna deal with!{{pageBreak}}{{anim id=\"10\"}}Ugh. It's hard becoming an adult."
  },
  {
    "label": "004",
    "text": "{{anim id=\"21\"}}They say the sun rises later in the\nwinter, but{{delay frames=\"8\"}}.{{delay frames=\"8\"}}.{{delay frames=\"8\"}}.{{delay frames=\"20\"}}I hardly notice it!{{pageBreak}}{{anim id=\"37\"}}After all, {{delay frames=\"8\"}}why should I care if I'm\nasleep during sunrise?{{delay frames=\"20\"}} {{anim id=\"2\"}}GAHAHA!{{delay frames=\"30\"}}{{anim id=\"1\"}}"
  },
  {
    "label": "005",
    "text": "{{anim id=\"10\"}}{{delay frames=\"20\"}}Anyway,{{delay frames=\"20\"}} doesn't today seem\nespecially chilly to you?{{delay frames=\"40\"}} {{anim id=\"23\"}}Is it\n'cause the sun won't come up?\n{{anim id=\"36\"}}I suppose it's not very mature to\nwhine and complain all day{{delay frames=\"8\"}}.{{delay frames=\"8\"}}.{{delay frames=\"8\"}}.{{delay frames=\"8\"}}{{anim id=\"6\"}}but\nflib-flabbert, I'm old and I'm cold!"
  }
]