﻿[
  {
    "label": "001",
    "text": "{{fun_0004000D arg=\"0x02CD\"}}Who?! {{delay frames=\"15\"}}Who {{fun_000B0007 arg=\"\"}}did this?!{{delay frames=\"20\"}}\nI'll get youuuuuu!{{fun_0005000D arg=\"\"}}"
  },
  {
    "label": "002",
    "text": "{{fun_0004000D arg=\"0x02CD\"}}Rawrr{{fun_000B0007 arg=\"\"}}rrrgh!{{delay frames=\"30\"}}\nI'm traaaaaapped!{{fun_0005000D arg=\"\"}}"
  },
  {
    "label": "003",
    "text": "{{fun_0004000D arg=\"0x03CD\"}}Help!{{delay frames=\"15\"}} {{fun_000B0007 arg=\"\"}}Somebody help meeee!{{fun_0005000D arg=\"\"}}"
  }
]