﻿[
  {
    "label": "001",
    "text": "{{anim id=\"15\"}}Ah!{{delay frames=\"15\"}} {{anim id=\"7\"}}You totally skipped out on your\npromise to come visit me!{{pageBreak}}{{anim id=\"9\"}}I waited so long that I almost forgot{{delay frames=\"8\"}}\nwho I was waiting for!{{delay frames=\"20\"}} {{anim id=\"6\"}}This better\nnot ever happen again!"
  },
  {
    "label": "002",
    "text": "{{anim id=\"15\"}}Ah,{{delay frames=\"8\"}} {{fun_00080005 arg=\"\"}}!{{delay frames=\"20\"}} {{anim id=\"9\"}}I gotta break our\npromise! Sorry! I'm real sorry!{{pageBreak}}Something's come up I can't get\nout of.{{delay frames=\"20\"}} Don't hate me!{{pageBreak}}{{anim id=\"0\"}}I promise next time I'll totally be\nhome, {{anim id=\"1\"}}so let's reschedule for\nanother time!{{delay frames=\"8\"}} {{fun_0003000E arg=\"\"}}{{fun_00070005 arg=\"\"}}!"
  },
  {
    "label": "003",
    "text": "{{anim id=\"15\"}}Ah,{{delay frames=\"8\"}} {{fun_00080005 arg=\"\"}}!{{delay frames=\"20\"}} {{anim id=\"9\"}}I'm really sorry\nabout that thing that happened!{{pageBreak}}{{anim id=\"13\"}}I know you came to see me, but I'm\na bit scatterbrained and I totally\nforgot about something I had to do!\n{{anim id=\"9\"}}I promise I'll be more reliable next\ntime, {{anim id=\"1\"}}so I hope we'll get a chance to\nhang out soon!"
  },
  {
    "label": "004",
    "text": "{{anim id=\"15\"}}Oooooh,{{delay frames=\"8\"}} {{fun_00080005 arg=\"\"}}!{{delay frames=\"20\"}} {{anim id=\"23\"}}Seriously,\nwhat happened?!{{pageBreak}}{{anim id=\"0\"}}I was really shocked when I lost\ntrack of you!{{delay frames=\"20\"}} {{fun_0003000E arg=\"\"}}{{fun_00070005 arg=\"\"}}!{{pageBreak}}{{anim id=\"28\"}}I'm sorta impressed you were able\nto trick someone of my caliber!{{delay frames=\"20\"}}\n{{anim id=\"2\"}}GAHAHA!{{delay frames=\"30\"}} {{fun_0003000E arg=\"\"}}{{fun_00070005 arg=\"\"}}!{{anim id=\"1\"}}"
  }
]