﻿[
  {
    "label": "001",
    "text": "So{{delay frames=\"10\"}}.{{delay frames=\"10\"}}.{{delay frames=\"10\"}}.{{delay frames=\"10\"}}you ready to {{color id=\"2\"}}catch some bugs{{color id=\"65535\"}}?{{pageBreak}}You have {{color id=\"2\"}}{{fun_00070004 arg=\"0x0500\"}} minutes{{color id=\"65535\"}} to catch as\nmany bugs as you can."
  },
  {
    "label": "002",
    "text": "If you catch at least {{color id=\"2\"}}{{color id=\"2\"}}{{fun_00070004 arg=\"0x0600\"}}{{color id=\"2\"}} bugs {{color id=\"65535\"}}before\ntime runs out,{{delay frames=\"10\"}} I'll give you some\nmedals!"
  },
  {
    "label": "003",
    "text": "If the two of you catch at least\n{{color id=\"2\"}}{{color id=\"2\"}}{{fun_00070004 arg=\"0x0600\"}}{{color id=\"2\"}} bugs {{color id=\"65535\"}}before time runs out,\n{{delay frames=\"20\"}}I'll give you some medals!"
  },
  {
    "label": "004",
    "text": "If you sprouts can catch {{color id=\"2\"}}{{color id=\"2\"}}{{fun_00070004 arg=\"0x0600\"}}{{color id=\"2\"}} bugs\n{{color id=\"65535\"}}before time runs out,{{delay frames=\"10\"}} I'll give you\nsome medals!"
  },
  {
    "label": "005",
    "text": ""
  },
  {
    "label": "006",
    "text": "So{{delay frames=\"10\"}}.{{delay frames=\"10\"}}.{{delay frames=\"10\"}}.{{delay frames=\"10\"}}you ready to {{color id=\"2\"}}catch some bugs{{color id=\"65535\"}}?{{pageBreak}}You have {{color id=\"2\"}}{{fun_00070004 arg=\"0x0500\"}} minutes{{color id=\"65535\"}} to catch as\nmany valuable bugs as you can."
  },
  {
    "label": "007",
    "text": "If you catch{{color id=\"2\"}} {{fun_000B0004 arg=\"0x0600\"}} Bells{{color id=\"65535\"}}' worth\nof bugs within the time limit, I'll\ngive you some medals!"
  },
  {
    "label": "008",
    "text": "If you two catch{{color id=\"2\"}} {{fun_000B0004 arg=\"0x0600\"}} Bells{{color id=\"65535\"}}'\nworth of bugs within the time\nlimit, I'll give you some medals!"
  },
  {
    "label": "009",
    "text": "If you youngsters can catch\n{{color id=\"2\"}}{{fun_000B0004 arg=\"0x0600\"}} Bells{{color id=\"65535\"}}' worth of bugs within\nthe time limit, I'll give you medals!"
  },
  {
    "label": "010",
    "text": ""
  },
  {
    "label": "011",
    "text": "If you catch{{color id=\"2\"}} {{fun_00070004 arg=\"0x0600\"}}{{color id=\"65535\"}} within {{color id=\"2\"}}{{fun_00070004 arg=\"0x0500\"}} minutes{{color id=\"65535\"}},\n{{delay frames=\"10\"}}I'll give you some medals!"
  },
  {
    "label": "012",
    "text": "If you two catch{{color id=\"2\"}} {{fun_00070004 arg=\"0x0600\"}}{{color id=\"65535\"}} within\n{{color id=\"2\"}}{{fun_00070004 arg=\"0x0500\"}} minutes{{color id=\"65535\"}}, {{delay frames=\"10\"}}I'll give you some\nmedals!"
  },
  {
    "label": "013",
    "text": "If together you catch{{color id=\"2\"}} {{fun_00070004 arg=\"0x0600\"}}{{color id=\"65535\"}} within\n{{color id=\"2\"}}{{fun_00070004 arg=\"0x0500\"}} minutes{{color id=\"65535\"}}, {{delay frames=\"10\"}}I'll give you some\nmedals!"
  },
  {
    "label": "014",
    "text": ""
  },
  {
    "label": "015",
    "text": ""
  },
  {
    "label": "016",
    "text": ""
  },
  {
    "label": "017",
    "text": ""
  },
  {
    "label": "018",
    "text": ""
  },
  {
    "label": "019",
    "text": "Use that {{color id=\"2\"}}net{{color id=\"65535\"}} you're holding to\ncatch them!"
  },
  {
    "label": "021",
    "text": "Do your best to catch{{delay frames=\"5\"}} {{color id=\"2\"}}at least{{color id=\"65535\"}}\n{{color id=\"2\"}}{{fun_00070004 arg=\"0x0600\"}} {{fun_0009000E arg=\"0x06CD08006200750067007300060062007500670008006200750067007300\"}}{{color id=\"65535\"}}!"
  },
  {
    "label": "022",
    "text": "The two of you need to work\ntogether to catch{{delay frames=\"5\"}} {{color id=\"2\"}}at least {{color id=\"65535\"}}{{color id=\"2\"}}{{fun_00070004 arg=\"0x0600\"}} {{color id=\"2\"}}{{fun_0009000E arg=\"0x06CD08006200750067007300060062007500670008006200750067007300\"}}{{color id=\"2\"}}{{color id=\"65535\"}}!"
  },
  {
    "label": "023",
    "text": "Work together to catch{{delay frames=\"5\"}} {{color id=\"2\"}}at least{{color id=\"65535\"}}\n{{color id=\"2\"}}{{fun_00070004 arg=\"0x0600\"}} {{color id=\"2\"}}{{fun_0009000E arg=\"0x06CD08006200750067007300060062007500670008006200750067007300\"}}{{color id=\"2\"}}{{color id=\"65535\"}}!"
  },
  {
    "label": "024",
    "text": ""
  },
  {
    "label": "025",
    "text": "Try to catch bugs that look\nvaluable. You need to catch at\nleast {{color id=\"2\"}}{{fun_000B0004 arg=\"0x0600\"}} Bells{{color id=\"65535\"}}' worth of bugs!"
  },
  {
    "label": "026",
    "text": "Try to catch bugs that look\nvaluable. You two need to catch\n{{color id=\"2\"}}{{fun_000B0004 arg=\"0x0600\"}} Bells{{color id=\"65535\"}}' worth of bugs!"
  },
  {
    "label": "027",
    "text": "Try to catch bugs that look\nvaluable. Your group needs to catch\n{{color id=\"2\"}}{{fun_000B0004 arg=\"0x0600\"}} Bells{{color id=\"65535\"}}' worth of bugs!"
  },
  {
    "label": "028",
    "text": ""
  },
  {
    "label": "029",
    "text": "Try to catch {{color id=\"2\"}}at least {{fun_00070004 arg=\"0x0600\"}} bugs{{color id=\"65535\"}}\nbefore you run out of time!"
  },
  {
    "label": "030",
    "text": "Work to catch {{color id=\"2\"}}at least {{fun_00070004 arg=\"0x0600\"}} bugs{{color id=\"65535\"}}\nbefore you run out of time!\nUse teamwork, you two! "
  },
  {
    "label": "031",
    "text": "Try to catch {{color id=\"2\"}}at least {{fun_00070004 arg=\"0x0600\"}} bugs{{color id=\"65535\"}}\nbefore you run out of time!\nUse teamwork!"
  },
  {
    "label": "032",
    "text": ""
  },
  {
    "label": "033",
    "text": "You did it! Good job!{{pageBreak}}But don't drop that net yet! I'll toss\nin some bonus medals if you catch\nmore."
  },
  {
    "label": "034",
    "text": ""
  },
  {
    "label": "035",
    "text": ""
  },
  {
    "label": "036",
    "text": ""
  },
  {
    "label": "037",
    "text": "You did it! Good job!{{pageBreak}}But don't drop that net yet! I'll toss\nin some bonus medals if you catch\nmore."
  },
  {
    "label": "038",
    "text": ""
  },
  {
    "label": "039",
    "text": ""
  },
  {
    "label": "040",
    "text": ""
  },
  {
    "label": "041",
    "text": "You did it! Good job!{{pageBreak}}But don't drop that net yet! I'll toss\nin some bonus medals if you catch\nmore."
  },
  {
    "label": "042",
    "text": ""
  },
  {
    "label": "043",
    "text": ""
  },
  {
    "label": "044",
    "text": ""
  },
  {
    "label": "045",
    "text": ""
  },
  {
    "label": "046",
    "text": ""
  },
  {
    "label": "047",
    "text": ""
  },
  {
    "label": "048",
    "text": "We only allow catch and release\nhere on the island, so you can't\ntake any of the bugs home with you.\nRemoving even a single bug could\ndisrupt the island's ecosystem!"
  },
  {
    "label": "049",
    "text": "Aside from bugs, you can take home\nanything else you find here on the\nisland!\nIf you're looking for supplies,{{delay frames=\"10\"}}\nyou can rent them from {{color id=\"4\"}}Lloid{{color id=\"65535\"}}!"
  },
  {
    "label": "051",
    "text": "Let's see here{{delay frames=\"20\"}}.{{delay frames=\"20\"}}.{{delay frames=\"20\"}}.{{delay frames=\"40\"}}\nYou caught {{color id=\"2\"}}{{fun_00070004 arg=\"0x0700\"}} {{fun_0009000E arg=\"0x07CD08006200750067007300060062007500670008006200750067007300\"}}{{color id=\"65535\"}}!"
  },
  {
    "label": "052",
    "text": "Let's see here{{delay frames=\"20\"}}.{{delay frames=\"20\"}}.{{delay frames=\"20\"}}.{{delay frames=\"40\"}}\nYou caught {{color id=\"2\"}}{{fun_000B0004 arg=\"0x0700\"}} Bells{{color id=\"65535\"}}'\nworth of bugs!"
  },
  {
    "label": "053",
    "text": "{{anim id=\"9\"}}You didn't catch enough to earn a\nprize this time around.\n{{anim id=\"0\"}}Better luck next time!"
  },
  {
    "label": "054",
    "text": "{{anim id=\"1\"}}Nicely done!{{delay frames=\"15\"}}\nYou've earned {{color id=\"2\"}}{{fun_00070004 arg=\"0x0000\"}} {{color id=\"2\"}}{{fun_0009000E arg=\"0x00CD0C006D006500640061006C0073000A006D006500640061006C000C006D006500640061006C007300\"}}{{color id=\"2\"}}{{color id=\"65535\"}}!"
  },
  {
    "label": "055",
    "text": "{{anim id=\"1\"}}That's enough to net you\na Bronze Tortimer award\nand {{color id=\"2\"}}{{fun_00070004 arg=\"0x0000\"}} {{color id=\"2\"}}{{fun_0009000E arg=\"0x00CD0C006D006500640061006C0073000A006D006500640061006C000C006D006500640061006C007300\"}}{{color id=\"2\"}}{{color id=\"65535\"}}!"
  },
  {
    "label": "056",
    "text": "{{anim id=\"1\"}}That's enough to net you\na Silver Tortimer award\nand {{color id=\"2\"}}{{fun_00070004 arg=\"0x0000\"}} {{color id=\"2\"}}{{fun_0009000E arg=\"0x00CD0C006D006500640061006C0073000A006D006500640061006C000C006D006500640061006C007300\"}}{{color id=\"2\"}}{{color id=\"65535\"}}!"
  },
  {
    "label": "057",
    "text": "{{anim id=\"1\"}}That's enough to net you\na Gold Tortimer award\nand {{color id=\"2\"}}{{fun_00070004 arg=\"0x0000\"}} {{color id=\"2\"}}{{fun_0009000E arg=\"0x00CD0C006D006500640061006C0073000A006D006500640061006C000C006D006500640061006C007300\"}}{{color id=\"2\"}}{{color id=\"65535\"}}!"
  },
  {
    "label": "058",
    "text": ""
  },
  {
    "label": "059",
    "text": ""
  },
  {
    "label": "060",
    "text": ""
  },
  {
    "label": "061",
    "text": ""
  },
  {
    "label": "062",
    "text": ""
  },
  {
    "label": "063",
    "text": ""
  },
  {
    "label": "064",
    "text": ""
  },
  {
    "label": "065",
    "text": ""
  },
  {
    "label": "066",
    "text": ""
  },
  {
    "label": "067",
    "text": ""
  },
  {
    "label": "068",
    "text": ""
  },
  {
    "label": "069",
    "text": ""
  },
  {
    "label": "070",
    "text": ""
  },
  {
    "label": "071",
    "text": ""
  },
  {
    "label": "072",
    "text": ""
  },
  {
    "label": "073",
    "text": ""
  },
  {
    "label": "074",
    "text": ""
  },
  {
    "label": "075",
    "text": ""
  },
  {
    "label": "076",
    "text": ""
  },
  {
    "label": "077",
    "text": ""
  },
  {
    "label": "078",
    "text": ""
  },
  {
    "label": "079",
    "text": ""
  },
  {
    "label": "081",
    "text": "Let's catch some{{color id=\"2\"}} butterflies{{color id=\"65535\"}}!{{pageBreak}}Keep an eye out for {{color id=\"2\"}}common\nbutterflies{{color id=\"65535\"}},{{delay frames=\"5\"}} {{color id=\"2\"}}yellow butterflies{{color id=\"65535\"}},{{delay frames=\"5\"}}\n{{color id=\"2\"}}tiger butterflies{{color id=\"65535\"}}, and any others."
  },
  {
    "label": "082",
    "text": "You ready to catch some {{color id=\"2\"}}beetles{{color id=\"65535\"}}?{{delay frames=\"10\"}}\nWe'll be catching {{color id=\"2\"}}dynastid beetles{{color id=\"65535\"}},\n{{color id=\"2\"}}stag beetles{{color id=\"65535\"}}... All types of beetles!"
  },
  {
    "label": "083",
    "text": "Let's catch some {{color id=\"2\"}}dragonflies{{color id=\"65535\"}}!{{pageBreak}}{{color id=\"2\"}}Darner dragonflies{{color id=\"65535\"}},{{delay frames=\"5\"}}\n{{color id=\"2\"}}banded dragonflies{{color id=\"65535\"}}{{delay frames=\"5\"}}.{{delay frames=\"5\"}}.{{delay frames=\"5\"}}.{{delay frames=\"15\"}}\nIf it's a dragonfly, it's fair game!"
  },
  {
    "label": "084",
    "text": "You ready to catch some {{color id=\"2\"}}noisy\nbugs{{color id=\"65535\"}}?{{pageBreak}}I'm talking {{color id=\"2\"}}crickets{{color id=\"65535\"}}, {{color id=\"2\"}}grasshoppers{{color id=\"65535\"}}—\nthose types of bugs!"
  },
  {
    "label": "085",
    "text": "Let's catch some {{color id=\"2\"}}cicadas{{color id=\"65535\"}}, eh?{{pageBreak}}As long as it's in the cicada family,{{delay frames=\"5\"}}\nit's fair game!"
  },
  {
    "label": "086",
    "text": "You ready to catch some {{color id=\"2\"}}locusts{{color id=\"65535\"}}?{{pageBreak}}You'll find both {{color id=\"2\"}}long locusts{{color id=\"65535\"}} and{{delay frames=\"5\"}}\n{{color id=\"2\"}}migratory locusts{{color id=\"65535\"}} on the island."
  },
  {
    "label": "087",
    "text": "Just as the tour name implies,{{delay frames=\"10\"}}\nyour goal is to play hide-and-seek\nwith a bunch of bugs{{delay frames=\"5\"}}.{{delay frames=\"5\"}}.{{delay frames=\"5\"}}.{{delay frames=\"10\"}}\nThat's right! You're looking for\n{{color id=\"2\"}}hidden bugs{{color id=\"65535\"}}!{{pageBreak}}On this island,{{delay frames=\"5\"}} there are plenty of\n{{color id=\"2\"}}centipedes{{color id=\"65535\"}},{{delay frames=\"5\"}} {{color id=\"2\"}}walking sticks{{color id=\"65535\"}},\n{{color id=\"2\"}}pill bugs{{color id=\"65535\"}}, and {{color id=\"2\"}}mole crickets{{color id=\"65535\"}}!\nYou'll need to tap rocks, {{delay frames=\"5\"}}dig holes,{{delay frames=\"5\"}}\nand generally look carefully at trees\nto find them!"
  },
  {
    "label": "088",
    "text": "You ready to catch some {{color id=\"2\"}}fireflies{{color id=\"65535\"}}?\nThose soft lights hovering in the air{{delay frames=\"5\"}}\nare {{color id=\"2\"}}fireflies{{color id=\"65535\"}}!"
  },
  {
    "label": "089",
    "text": "Today we'll be hunting for\n{{color id=\"2\"}}giant dragonflies{{color id=\"65535\"}}.{{pageBreak}}You can find {{color id=\"2\"}}banded dragonflies {{color id=\"65535\"}}and\n{{color id=\"2\"}}petaltail dragonflies {{color id=\"65535\"}}here on the\nisland.{{pageBreak}}But those things are FAST,\nso good luck catching them!"
  }
]