﻿[
  {
    "label": "001",
    "text": "{{anim id=\"1\"}}Good morning, {{fun_00000005 arg=\"\"}}!{{delay frames=\"20\"}} I see\nyou're up bright and early, just\nlike me!\nI really prefer the early-morning\natmosphere of a quiet café."
  },
  {
    "label": "002",
    "text": "{{anim id=\"1\"}}Oh!{{delay frames=\"20\"}} Good morning!{{delay frames=\"40\"}} Nothing quite\nwakes you up like a cup of coffee\nin the morning, am I right?"
  },
  {
    "label": "003",
    "text": "{{anim id=\"1\"}}Good morning, {{fun_00000005 arg=\"\"}}.{{delay frames=\"20\"}}\nYou sure are up early!"
  },
  {
    "label": "004",
    "text": "I don't think any single coffee bean\ncan beat the taste of the {{color id=\"2\"}}blend{{color id=\"65535\"}}.{{pageBreak}}{{anim id=\"4\"}}The blend {{color id=\"4\"}}Brewster{{color id=\"65535\"}} makes is\nespecially delicious."
  },
  {
    "label": "005",
    "text": "I like the {{color id=\"2\"}}regular{{color id=\"65535\"}} {{color id=\"2\"}}amount{{color id=\"65535\"}} of milk in\nmy morning coffee.{{delay frames=\"40\"}} Mild coffee is\njust easier to drink, don't you think?"
  },
  {
    "label": "006",
    "text": "I always get {{color id=\"2\"}}2 spoons {{color id=\"65535\"}}of sugar in\nmy morning coffee.{{pageBreak}}The more tired I am,{{delay frames=\"20\"}} the more I just\ncrave sweet things."
  },
  {
    "label": "007",
    "text": ""
  },
  {
    "label": "008",
    "text": "{{fun_00010009 arg=\"0x0C000D000E00\"}}"
  },
  {
    "label": "009",
    "text": "{{i10_9 arg=\"0x1F001F001F001F001F0020002000\"}}"
  },
  {
    "label": "010",
    "text": "{{fun_00010009 arg=\"0x080008001000\"}}"
  },
  {
    "label": "011",
    "text": ""
  },
  {
    "label": "012",
    "text": "You have to be very careful not to\nspill your coffee. Otherwise...{{pageBreak}}{{anim id=\"18\"}}{{fun_000A0007 arg=\"\"}}Ho{{fun_000A0007 arg=\"\"}}thothot!{{delay frames=\"40\"}} {{anim id=\"10\"}}{{delay frames=\"15\"}}Whew...{{delay frames=\"20\"}} Safe{{delay frames=\"8\"}}.{{delay frames=\"8\"}}.{{delay frames=\"8\"}}."
  },
  {
    "label": "013",
    "text": "{{anim id=\"23\"}}Why don't you take a seat next to\nme and join me for a cup of coffee?{{delay frames=\"40\"}}\n{{anim id=\"1\"}}A morning cup'll wake you right up!"
  },
  {
    "label": "014",
    "text": "{{anim id=\"1\"}}Ahhh...{{delay frames=\"20\"}} Sitting here like this helps\nme feel ready to power through\nanother long day of deliveries."
  },
  {
    "label": "015",
    "text": ""
  },
  {
    "label": "016",
    "text": "{{fun_00010009 arg=\"0x110014001800\"}}"
  },
  {
    "label": "017",
    "text": "There's nothing like a cup of\n{{color id=\"2\"}}blended{{color id=\"65535\"}} coffee.{{pageBreak}}{{anim id=\"4\"}}Hmm...{{delay frames=\"40\"}} I wonder what kind of\ncoffee {{color id=\"4\"}}Phyllis{{color id=\"65535\"}} likes{{delay frames=\"8\"}}.{{delay frames=\"8\"}}.{{delay frames=\"8\"}}.{{delay frames=\"8\"}}{{pageBreak}}{{anim id=\"0\"}}{{fun_0001000C arg=\"\"}}{{fun_0007000C arg=\"\"}}Do you know, {{color id=\"4\"}}Brewster{{color id=\"65535\"}}?{{fun_0009000C arg=\"\"}}"
  },
  {
    "label": "018",
    "text": "{{fun_0000000C arg=\"\"}}{{fun_0007000C arg=\"\"}}{{delay frames=\"20\"}}That's confidential information{{delay frames=\"8\"}}.{{delay frames=\"8\"}}.{{delay frames=\"8\"}}.{{delay frames=\"8\"}}{{fun_0009000C arg=\"\"}}"
  },
  {
    "label": "019",
    "text": "{{fun_0000000C arg=\"\"}}{{fun_0005000C arg=\"\"}}{{anim id=\"27\"}}I thought you'd say that{{delay frames=\"8\"}}.{{delay frames=\"8\"}}.{{delay frames=\"8\"}}."
  },
  {
    "label": "020",
    "text": "It's so fashionable to meet up in a\ncafé like this.{{fun_0009000C arg=\"\"}}"
  },
  {
    "label": "021",
    "text": "{{fun_0001000C arg=\"\"}}{{fun_0007000C arg=\"\"}}{{fun_0000000C arg=\"\"}}{{fun_0007000C arg=\"\"}}{{delay frames=\"8\"}}.{{delay frames=\"8\"}}.{{delay frames=\"8\"}}.{{delay frames=\"20\"}}Who would you be waiting for?{{delay frames=\"15\"}}{{fun_0009000C arg=\"\"}}"
  },
  {
    "label": "022",
    "text": "{{fun_0000000C arg=\"\"}}{{fun_0005000C arg=\"\"}}{{anim id=\"4\"}}{{color id=\"4\"}}Phyllis{{color id=\"65535\"}}, of course!{{delay frames=\"40\"}} She'd just quietly\nslide into the seat next to me here.{{pageBreak}}I've been waiting forever for that\nday to come.{{fun_0009000C arg=\"\"}}"
  },
  {
    "label": "023",
    "text": "{{fun_0000000C arg=\"\"}}{{fun_0007000C arg=\"\"}}{{delay frames=\"8\"}}.{{delay frames=\"8\"}}.{{delay frames=\"8\"}}.{{delay frames=\"20\"}}You're free to wait after an order."
  },
  {
    "label": "024",
    "text": "{{fun_0001000C arg=\"\"}}{{fun_0007000C arg=\"\"}}Hey, {{color id=\"4\"}}Brewster{{color id=\"65535\"}},{{delay frames=\"20\"}} what kinds of things\ndoes {{color id=\"4\"}}Phyllis {{color id=\"65535\"}}talk about when she\ncomes by here?{{fun_0009000C arg=\"\"}}"
  },
  {
    "label": "025",
    "text": "{{fun_0000000C arg=\"\"}}{{fun_0007000C arg=\"\"}}{{delay frames=\"8\"}}.{{delay frames=\"8\"}}.{{delay frames=\"8\"}}.{{delay frames=\"20\"}}About you, {{color id=\"4\"}}Pete{{color id=\"65535\"}}.{{fun_0009000C arg=\"\"}}"
  },
  {
    "label": "026",
    "text": "{{fun_0000000C arg=\"\"}}{{fun_0005000C arg=\"\"}}{{anim id=\"15\"}}Really?!{{delay frames=\"40\"}} Oh, whoa! What has she\nsaid about me?!{{fun_0009000C arg=\"\"}}"
  },
  {
    "label": "027",
    "text": "{{fun_0000000C arg=\"\"}}{{fun_0007000C arg=\"\"}}{{fun_0002000C arg=\"\"}}{{fun_0005000C arg=\"\"}}That you're like milk in coffee{{delay frames=\"8\"}}.{{delay frames=\"8\"}}.{{delay frames=\"8\"}}.{{fun_0009000C arg=\"\"}}"
  },
  {
    "label": "028",
    "text": "{{fun_0000000C arg=\"\"}}{{fun_0005000C arg=\"\"}}{{anim id=\"18\"}}Whaaaat?!{{delay frames=\"40\"}} I'm like milk?!{{delay frames=\"40\"}} Something\nthat coffee can't be without?{{pageBreak}}{{anim id=\"5\"}}Then that would mean that I'm\nsomeone {{color id=\"4\"}}Phyllis{{color id=\"65535\"}} can't live without,{{delay frames=\"20\"}}\nright?\n{{anim id=\"4\"}}Heh heh heh{{delay frames=\"8\"}}.{{delay frames=\"8\"}}.{{delay frames=\"8\"}}.{{delay frames=\"8\"}}\nGuheh heh heh{{delay frames=\"8\"}}.{{delay frames=\"8\"}}.{{delay frames=\"8\"}}.{{fun_0009000C arg=\"\"}}"
  },
  {
    "label": "029",
    "text": "{{fun_0000000C arg=\"\"}}{{fun_0005000C arg=\"\"}}{{fun_0002000C arg=\"\"}}{{fun_0003000C arg=\"\"}}{{delay frames=\"20\"}}{{anim id=\"40\"}}{{color id=\"5\"}}But Phyllis prefers her coffee\nwithout milk{{delay frames=\"8\"}}.{{delay frames=\"8\"}}.{{delay frames=\"8\"}}.{{delay frames=\"15\"}}{{color id=\"65535\"}}"
  },
  {
    "label": "030",
    "text": ""
  },
  {
    "label": "031",
    "text": "{{fun_00020009 arg=\"0x2100220023002400\"}}"
  },
  {
    "label": "032",
    "text": "{{fun_00010009 arg=\"0x280029002A00\"}}"
  },
  {
    "label": "033",
    "text": "{{anim id=\"1\"}}Well, after this it's back to work for\nme!{{delay frames=\"40\"}} I'm wide awake, thanks to the\nboost from the coffee."
  },
  {
    "label": "034",
    "text": "Hee hee hee!{{delay frames=\"20\"}} I'm feeling good and\nready to get back in the game!"
  },
  {
    "label": "035",
    "text": "{{anim id=\"11\"}}Maybe today I'll start my delivery\nroute with her house{{delay frames=\"8\"}}.{{delay frames=\"8\"}}.{{delay frames=\"8\"}}.{{delay frames=\"20\"}} Oops!{{pageBreak}}{{anim id=\"1\"}}My daily routine always starts with\nplanning my delivery route over a\ncup of coffee here at the{{color id=\"2\"}} Roost{{color id=\"65535\"}}."
  },
  {
    "label": "036",
    "text": "{{fun_0001000C arg=\"\"}}{{fun_0007000C arg=\"\"}}{{color id=\"4\"}}Brewster{{color id=\"65535\"}},{{delay frames=\"20\"}} do you have any letters\nthat need to be delivered?{{fun_0009000C arg=\"\"}}"
  },
  {
    "label": "037",
    "text": "{{fun_0000000C arg=\"\"}}{{fun_0007000C arg=\"\"}}{{delay frames=\"20\"}}Not today{{delay frames=\"8\"}}.{{delay frames=\"8\"}}.{{delay frames=\"8\"}}.{{fun_0009000C arg=\"\"}}"
  },
  {
    "label": "038",
    "text": "{{fun_0000000C arg=\"\"}}{{fun_0005000C arg=\"\"}}OK.{{delay frames=\"40\"}} If you ever have any, just let me\nknow, all right?{{fun_0009000C arg=\"\"}}"
  },
  {
    "label": "039",
    "text": "{{fun_0000000C arg=\"\"}}{{fun_0007000C arg=\"\"}}.{{delay frames=\"8\"}}.{{delay frames=\"8\"}}.{{delay frames=\"20\"}}Coo."
  },
  {
    "label": "040",
    "text": "I just love my days off.{{pageBreak}}I like that I don't have to rush in the\nmorning. It's good to enjoy a cup of\ncoffee at my leisure. Mmm{{delay frames=\"10\"}}.{{delay frames=\"10\"}}.{{delay frames=\"10\"}}.{{delay frames=\"10\"}}"
  },
  {
    "label": "041",
    "text": "{{anim id=\"11\"}}I know I could have slept in today,{{delay frames=\"8\"}}\nbut {{anim id=\"26\"}}I always end up waking up early\nout of habit anyway."
  },
  {
    "label": "042",
    "text": "Oh,{{delay frames=\"20\"}} my uniform?{{pageBreak}}{{anim id=\"41\"}}Even during my days off I end up\nputting it on without really thinking."
  }
]