﻿[
  {
    "label": "001",
    "text": "{{anim id=\"1\"}}I'd like to order a cup of coffee,\nif you don't mind!"
  },
  {
    "label": "002",
    "text": "{{anim id=\"1\"}}I'd like to order a cup of {{color id=\"2\"}}mocha\n{{color id=\"65535\"}}coffee, please!"
  },
  {
    "label": "003",
    "text": "{{anim id=\"1\"}}I'd like to order a cup of coffee,\nplease!{{fun_00010007 arg=\"\"}} If you could, please make\nsure it has {{color id=\"2\"}}a lot {{color id=\"65535\"}}of milk!"
  },
  {
    "label": "004",
    "text": "{{anim id=\"1\"}}I'd like to order a cup of coffee,\nplease!{{fun_00010007 arg=\"\"}} If you could, please put\n{{color id=\"2\"}}3{{color id=\"65535\"}} sugars in it!"
  },
  {
    "label": "005",
    "text": "{{anim id=\"1\"}}Thank you very much!"
  },
  {
    "label": "006",
    "text": "{{delay frames=\"8\"}}.{{delay frames=\"8\"}}.{{delay frames=\"8\"}}.{{delay frames=\"8\"}}{{anim id=\"15\"}}{{delay frames=\"10\"}}Oh my!{{delay frames=\"20\"}} This coffee\n{{anim id=\"1\"}}smells quite delicious!{{fun_000E0007 arg=\"\"}}{{pageBreak}}I don't want to drink{{anim id=\"3\"}} anything but\nmocha coffee with plenty of milk\nand sugar! It's my favorite!"
  },
  {
    "label": "007",
    "text": "{{delay frames=\"8\"}}.{{delay frames=\"8\"}}.{{delay frames=\"8\"}}.{{delay frames=\"8\"}}{{anim id=\"15\"}}{{delay frames=\"10\"}}Oh my!{{delay frames=\"20\"}} This coffee\n{{anim id=\"1\"}}smells delicious!{{pageBreak}}It isn't made with the same type of\n{{color id=\"2\"}}beans{{color id=\"65535\"}} I normally order, but it's still\nquite nice!"
  },
  {
    "label": "008",
    "text": "{{delay frames=\"8\"}}.{{delay frames=\"8\"}}.{{delay frames=\"8\"}}.{{delay frames=\"8\"}}{{anim id=\"15\"}}{{delay frames=\"10\"}}Oh my!{{delay frames=\"20\"}} This coffee\n{{anim id=\"1\"}}smells delicious!{{pageBreak}}Normally I drink my coffee with\nplenty of {{color id=\"2\"}}milk{{color id=\"65535\"}}, but this is still\nquite nice as well!"
  },
  {
    "label": "009",
    "text": "{{delay frames=\"8\"}}.{{delay frames=\"8\"}}.{{delay frames=\"8\"}}.{{delay frames=\"8\"}}{{anim id=\"15\"}}{{delay frames=\"10\"}}Oh my!{{delay frames=\"20\"}} This coffee\n{{anim id=\"1\"}}smells delicious!{{pageBreak}}Normally I drink my coffee with\nplenty of {{color id=\"2\"}}sugar{{color id=\"65535\"}}, but this is still\nquite nice as well!"
  },
  {
    "label": "010",
    "text": ""
  },
  {
    "label": "011",
    "text": ""
  },
  {
    "label": "012",
    "text": ""
  },
  {
    "label": "013",
    "text": "{{delay frames=\"8\"}}.{{delay frames=\"8\"}}.{{delay frames=\"8\"}}.{{delay frames=\"8\"}}{{anim id=\"15\"}}{{delay frames=\"10\"}}Oh my!{{delay frames=\"20\"}} I get the feeling{{anim id=\"0\"}} this\ncoffee is a bit different from\nmy normal drink!\n{{anim id=\"11\"}}Who would think that changing the\namount of {{color id=\"2\"}}milk{{color id=\"65535\"}} and {{color id=\"2\"}}sugar{{color id=\"65535\"}} would\naffect it so much{{delay frames=\"8\"}}.{{delay frames=\"8\"}}.{{delay frames=\"8\"}}.{{delay frames=\"20\"}}\n{{anim id=\"1\"}}{{delay frames=\"10\"}}Well,{{delay frames=\"10\"}} it's still nice!"
  },
  {
    "label": "014",
    "text": "{{delay frames=\"8\"}}.{{delay frames=\"8\"}}.{{delay frames=\"8\"}}.{{delay frames=\"8\"}}{{anim id=\"15\"}}{{delay frames=\"10\"}}Oh my!{{delay frames=\"20\"}} I get the feeling{{anim id=\"0\"}} this\ncoffee is a bit different from\nmy normal cup!\n{{anim id=\"11\"}}Who would think that changing the\namount of {{color id=\"2\"}}sugar{{color id=\"65535\"}} and the type of\n{{color id=\"2\"}}beans{{color id=\"65535\"}} would affect it so much{{delay frames=\"8\"}}.{{delay frames=\"8\"}}.{{delay frames=\"8\"}}.{{delay frames=\"20\"}}\n{{anim id=\"1\"}}{{delay frames=\"10\"}}Anyway,{{delay frames=\"10\"}} it's still nice!"
  },
  {
    "label": "015",
    "text": "{{delay frames=\"8\"}}.{{delay frames=\"8\"}}.{{delay frames=\"8\"}}.{{delay frames=\"8\"}}{{anim id=\"15\"}}{{delay frames=\"10\"}}Oh my!{{delay frames=\"20\"}} I get the feeling{{anim id=\"0\"}} this\ncoffee is a bit off from what\nI normally drink!{{pageBreak}}{{anim id=\"11\"}}Who would think that changing the\namount of {{color id=\"2\"}}milk{{color id=\"65535\"}} and the type of\n{{color id=\"2\"}}beans{{color id=\"65535\"}} would affect it so much{{delay frames=\"8\"}}.{{delay frames=\"8\"}}.{{delay frames=\"8\"}}.{{delay frames=\"20\"}}\n{{anim id=\"1\"}}{{delay frames=\"10\"}}However,{{delay frames=\"10\"}} it's still nice!"
  },
  {
    "label": "016",
    "text": "{{delay frames=\"8\"}}.{{delay frames=\"8\"}}.{{delay frames=\"8\"}}.{{delay frames=\"8\"}}{{anim id=\"15\"}}{{delay frames=\"10\"}}Oh my!{{delay frames=\"20\"}} {{anim id=\"11\"}}This cup of coffee{{delay frames=\"10\"}}{{anim id=\"0\"}} is\ncompletely different from what\nI usually get{{delay frames=\"8\"}}.{{delay frames=\"8\"}}.{{delay frames=\"8\"}}.{{pageBreak}}{{anim id=\"0\"}}I'm really not used to it, but {{anim id=\"1\"}}as it is,\nit's not so bad!"
  },
  {
    "label": "017",
    "text": ""
  },
  {
    "label": "018",
    "text": ""
  },
  {
    "label": "019",
    "text": ""
  },
  {
    "label": "021",
    "text": "{{delay frames=\"5\"}}{{anim id=\"15\"}}{{delay frames=\"10\"}}Oh my,{{delay frames=\"10\"}} Mayor!{{delay frames=\"20\"}} {{anim id=\"0\"}}You're always so\nbusy, but here you are working\npart-time as well{{delay frames=\"8\"}}.{{delay frames=\"8\"}}.{{delay frames=\"8\"}}.\n{{anim id=\"1\"}}You have my utmost respect!{{pageBreak}}{{anim id=\"11\"}}Hmmm.{{delay frames=\"10\"}} Well then{{delay frames=\"8\"}}.{{delay frames=\"8\"}}.{{delay frames=\"8\"}}."
  },
  {
    "label": "022",
    "text": "{{delay frames=\"5\"}}{{anim id=\"15\"}}{{delay frames=\"10\"}}Oh my,{{delay frames=\"10\"}} {{fun_00000005 arg=\"\"}}!{{delay frames=\"20\"}}\n{{anim id=\"1\"}}Are you working today?{{delay frames=\"15\"}}\nPlease do your very best!\n{{anim id=\"11\"}}Hmmm.{{delay frames=\"10\"}} Well then{{delay frames=\"8\"}}.{{delay frames=\"8\"}}.{{delay frames=\"8\"}}."
  },
  {
    "label": "023",
    "text": "{{anim id=\"1\"}}Well then,{{delay frames=\"5\"}} Mayor,{{delay frames=\"10\"}} I'll see you soon!"
  },
  {
    "label": "024",
    "text": "{{anim id=\"1\"}}Well then,{{delay frames=\"5\"}} {{fun_00000005 arg=\"\"}},{{delay frames=\"10\"}} see you soon!"
  },
  {
    "label": "025",
    "text": ""
  }
]