﻿[
  {
    "label": "001",
    "text": "{{size value=\"75\"}}{{fun_0007000D arg=\"\"}}I {{fun_0007000D arg=\"\"}}love {{fun_0007000D arg=\"\"}}me {{fun_0007000D arg=\"\"}}li'l {{fun_0007000D arg=\"\"}}girl, {{fun_0007000D arg=\"\"}}she's {{fun_0007000D arg=\"\"}}me {{fun_0007000D arg=\"\"}}pride {{fun_0007000D arg=\"\"}}an' {{fun_0007000D arg=\"\"}}joy.\n{{fun_0007000D arg=\"\"}}Can {{fun_0007000D arg=\"\"}}ye {{fun_0007000D arg=\"\"}}guess {{fun_0007000D arg=\"\"}}her {{fun_0007000D arg=\"\"}}first {{fun_0007000D arg=\"\"}}word? {{fun_0007000D arg=\"\"}}It {{fun_0007000D arg=\"\"}}was {{fun_0007000D arg=\"\"}}\"a{{fun_0007000D arg=\"\"}}hoy!\"{{pageBreak}}{{fun_0007000D arg=\"\"}}She's {{fun_0007000D arg=\"\"}}grown {{fun_0007000D arg=\"\"}}to {{fun_0007000D arg=\"\"}}love {{fun_0007000D arg=\"\"}}the {{fun_0007000D arg=\"\"}}sea. {{fun_0007000D arg=\"\"}}Oh, {{fun_0007000D arg=\"\"}}she {{fun_0007000D arg=\"\"}}is {{fun_0007000D arg=\"\"}}just {{fun_0007000D arg=\"\"}}like\n{{fun_0007000D arg=\"\"}}me! {{fun_0007000D arg=\"\"}}Ties {{fun_0007000D arg=\"\"}}the {{fun_0007000D arg=\"\"}}knots {{fun_0007000D arg=\"\"}}at {{fun_0007000D arg=\"\"}}the {{fun_0007000D arg=\"\"}}docks, {{fun_0007000D arg=\"\"}}makes {{fun_0007000D arg=\"\"}}me {{fun_0007000D arg=\"\"}}so\n{{fun_0007000D arg=\"\"}}hap{{fun_0007000D arg=\"\"}}py!{{size value=\"100\"}}"
  },
  {
    "label": "002",
    "text": "{{size value=\"75\"}}{{fun_0007000D arg=\"\"}}Ev'{{fun_0007000D arg=\"\"}}ry {{fun_0007000D arg=\"\"}}guy {{fun_0007000D arg=\"\"}}dreams {{fun_0007000D arg=\"\"}}'bout {{fun_0007000D arg=\"\"}}girls {{fun_0007000D arg=\"\"}}fight{{fun_0007000D arg=\"\"}}in' {{fun_0007000D arg=\"\"}}o'er {{fun_0007000D arg=\"\"}}him.\n{{fun_0007000D arg=\"\"}}But {{fun_0007000D arg=\"\"}}if {{fun_0007000D arg=\"\"}}ye {{fun_0007000D arg=\"\"}}think {{fun_0007000D arg=\"\"}}a{{fun_0007000D arg=\"\"}}bout {{fun_0007000D arg=\"\"}}it, {{fun_0007000D arg=\"\"}}chan{{fun_0007000D arg=\"\"}}ces {{fun_0007000D arg=\"\"}}are {{fun_0007000D arg=\"\"}}slim.{{pageBreak}}{{fun_0007000D arg=\"\"}}Girls {{fun_0007000D arg=\"\"}}stick {{fun_0007000D arg=\"\"}}to{{fun_0007000D arg=\"\"}}geth{{fun_0007000D arg=\"\"}}er. {{fun_0007000D arg=\"\"}}They {{fun_0007000D arg=\"\"}}don't {{fun_0007000D arg=\"\"}}likes {{fun_0007000D arg=\"\"}}ta {{fun_0007000D arg=\"\"}}fight.\n{{fun_0007000D arg=\"\"}}Not {{fun_0007000D arg=\"\"}}a {{fun_0007000D arg=\"\"}}good {{fun_0007000D arg=\"\"}}dream, {{fun_0007000D arg=\"\"}}ye {{fun_0007000D arg=\"\"}}guys. {{fun_0007000D arg=\"\"}}Real{{fun_0007000D arg=\"\"}}ly {{fun_0007000D arg=\"\"}}not {{fun_0007000D arg=\"\"}}bright.{{size value=\"100\"}}"
  },
  {
    "label": "003",
    "text": "{{size value=\"75\"}}{{fun_0007000D arg=\"\"}}I {{fun_0007000D arg=\"\"}}asked {{fun_0007000D arg=\"\"}}fer {{fun_0007000D arg=\"\"}}me {{fun_0007000D arg=\"\"}}wife's {{fun_0007000D arg=\"\"}}hand {{fun_0007000D arg=\"\"}}at {{fun_0007000D arg=\"\"}}sea. {{fun_0007000D arg=\"\"}}(She {{fun_0007000D arg=\"\"}}said\n{{fun_0007000D arg=\"\"}}yes.) {{fun_0007000D arg=\"\"}}Since {{fun_0007000D arg=\"\"}}then {{fun_0007000D arg=\"\"}}not {{fun_0007000D arg=\"\"}}a {{fun_0007000D arg=\"\"}}day {{fun_0007000D arg=\"\"}}goes {{fun_0007000D arg=\"\"}}by {{fun_0007000D arg=\"\"}}I {{fun_0007000D arg=\"\"}}don't {{fun_0007000D arg=\"\"}}feel\n{{fun_0007000D arg=\"\"}}blessed.{{pageBreak}}{{fun_0007000D arg=\"\"}}Said, {{fun_0007000D arg=\"\"}}\"I {{fun_0007000D arg=\"\"}}needs {{fun_0007000D arg=\"\"}}ta {{fun_0007000D arg=\"\"}}raise {{fun_0007000D arg=\"\"}}me {{fun_0007000D arg=\"\"}}ol' {{fun_0007000D arg=\"\"}}crew {{fun_0007000D arg=\"\"}}num{{fun_0007000D arg=\"\"}}ber.\"\n{{fun_0007000D arg=\"\"}}Told {{fun_0007000D arg=\"\"}}her {{fun_0007000D arg=\"\"}}she {{fun_0007000D arg=\"\"}}was {{fun_0007000D arg=\"\"}}me {{fun_0007000D arg=\"\"}}li'l {{fun_0007000D arg=\"\"}}cu{{fun_0007000D arg=\"\"}}cum{{fun_0007000D arg=\"\"}}ber.{{size value=\"100\"}}"
  },
  {
    "label": "004",
    "text": "{{size value=\"75\"}}{{fun_0007000D arg=\"\"}}Hair {{fun_0007000D arg=\"\"}}in {{fun_0007000D arg=\"\"}}a {{fun_0007000D arg=\"\"}}rain{{fun_0007000D arg=\"\"}}storm, {{fun_0007000D arg=\"\"}}it {{fun_0007000D arg=\"\"}}looks {{fun_0007000D arg=\"\"}}might{{fun_0007000D arg=\"\"}}y {{fun_0007000D arg=\"\"}}sweet.\n{{fun_0007000D arg=\"\"}}Hair {{fun_0007000D arg=\"\"}}in {{fun_0007000D arg=\"\"}}a {{fun_0007000D arg=\"\"}}wind{{fun_0007000D arg=\"\"}}storm {{fun_0007000D arg=\"\"}}is{{fun_0007000D arg=\"\"}}n't {{fun_0007000D arg=\"\"}}so {{fun_0007000D arg=\"\"}}neat.{{pageBreak}}{{fun_0007000D arg=\"\"}}Rain-{{fun_0007000D arg=\"\"}}slick {{fun_0007000D arg=\"\"}}wet {{fun_0007000D arg=\"\"}}hair {{fun_0007000D arg=\"\"}}is {{fun_0007000D arg=\"\"}}so {{fun_0007000D arg=\"\"}}cool, {{fun_0007000D arg=\"\"}}it {{fun_0007000D arg=\"\"}}just {{fun_0007000D arg=\"\"}}can't {{fun_0007000D arg=\"\"}}be\n{{fun_0007000D arg=\"\"}}beat. {{fun_0007000D arg=\"\"}}Mes{{fun_0007000D arg=\"\"}}sy {{fun_0007000D arg=\"\"}}wind{{fun_0007000D arg=\"\"}}blown {{fun_0007000D arg=\"\"}}hair, {{fun_0007000D arg=\"\"}}that's {{fun_0007000D arg=\"\"}}not {{fun_0007000D arg=\"\"}}such {{fun_0007000D arg=\"\"}}a \n{{fun_0007000D arg=\"\"}}treat.{{size value=\"100\"}}"
  },
  {
    "label": "005",
    "text": "{{size value=\"75\"}}{{fun_0007000D arg=\"\"}}I {{fun_0007000D arg=\"\"}}showed {{fun_0007000D arg=\"\"}}up {{fun_0007000D arg=\"\"}}fer {{fun_0007000D arg=\"\"}}try{{fun_0007000D arg=\"\"}}outs {{fun_0007000D arg=\"\"}}in {{fun_0007000D arg=\"\"}}me {{fun_0007000D arg=\"\"}}best {{fun_0007000D arg=\"\"}}sports {{fun_0007000D arg=\"\"}}gear.\n{{fun_0007000D arg=\"\"}}Played {{fun_0007000D arg=\"\"}}like {{fun_0007000D arg=\"\"}}I {{fun_0007000D arg=\"\"}}was {{fun_0007000D arg=\"\"}}in {{fun_0007000D arg=\"\"}}a {{fun_0007000D arg=\"\"}}trance; {{fun_0007000D arg=\"\"}}I {{fun_0007000D arg=\"\"}}showed {{fun_0007000D arg=\"\"}}no {{fun_0007000D arg=\"\"}}fear!{{pageBreak}}{{fun_0007000D arg=\"\"}}But {{fun_0007000D arg=\"\"}}when {{fun_0007000D arg=\"\"}}I {{fun_0007000D arg=\"\"}}op{{fun_0007000D arg=\"\"}}ened {{fun_0007000D arg=\"\"}}me {{fun_0007000D arg=\"\"}}eyes, {{fun_0007000D arg=\"\"}}I {{fun_0007000D arg=\"\"}}was {{fun_0007000D arg=\"\"}}so {{fun_0007000D arg=\"\"}}sur{{fun_0007000D arg=\"\"}}prised!\n{{fun_0007000D arg=\"\"}}I'd {{fun_0007000D arg=\"\"}}made {{fun_0007000D arg=\"\"}}the {{fun_0007000D arg=\"\"}}girls' {{fun_0007000D arg=\"\"}}team, {{fun_0007000D arg=\"\"}}and {{fun_0007000D arg=\"\"}}there {{fun_0007000D arg=\"\"}}weren't {{fun_0007000D arg=\"\"}}a{{fun_0007000D arg=\"\"}}ny\n{{fun_0007000D arg=\"\"}}guys!{{size value=\"100\"}}"
  },
  {
    "label": "006",
    "text": "{{size value=\"75\"}}{{fun_0007000D arg=\"\"}}I {{fun_0007000D arg=\"\"}}can't {{fun_0007000D arg=\"\"}}eat {{fun_0007000D arg=\"\"}}cu{{fun_0007000D arg=\"\"}}cum{{fun_0007000D arg=\"\"}}bers {{fun_0007000D arg=\"\"}}with{{fun_0007000D arg=\"\"}}out {{fun_0007000D arg=\"\"}}me {{fun_0007000D arg=\"\"}}good {{fun_0007000D arg=\"\"}}may{{fun_0007000D arg=\"\"}}o.\n{{fun_0007000D arg=\"\"}}There's {{fun_0007000D arg=\"\"}}no {{fun_0007000D arg=\"\"}}point {{fun_0007000D arg=\"\"}}with{{fun_0007000D arg=\"\"}}out {{fun_0007000D arg=\"\"}}it. {{fun_0007000D arg=\"\"}}Just {{fun_0007000D arg=\"\"}}no {{fun_0007000D arg=\"\"}}way-{{fun_0007000D arg=\"\"}}oh!{{pageBreak}}{{fun_0007000D arg=\"\"}}Me {{fun_0007000D arg=\"\"}}mum's {{fun_0007000D arg=\"\"}}top-{{fun_0007000D arg=\"\"}}sec{{fun_0007000D arg=\"\"}}ret {{fun_0007000D arg=\"\"}}re{{fun_0007000D arg=\"\"}}ci{{fun_0007000D arg=\"\"}}pe, {{fun_0007000D arg=\"\"}}oh, {{fun_0007000D arg=\"\"}}it's {{fun_0007000D arg=\"\"}}the {{fun_0007000D arg=\"\"}}best!\n{{fun_0007000D arg=\"\"}}We {{fun_0007000D arg=\"\"}}should {{fun_0007000D arg=\"\"}}start {{fun_0007000D arg=\"\"}}a {{fun_0007000D arg=\"\"}}ma{{fun_0007000D arg=\"\"}}yo {{fun_0007000D arg=\"\"}}biz, {{fun_0007000D arg=\"\"}}and {{fun_0007000D arg=\"\"}}you {{fun_0007000D arg=\"\"}}should\n{{fun_0007000D arg=\"\"}}in{{fun_0007000D arg=\"\"}}vest!{{size value=\"100\"}}"
  },
  {
    "label": "007",
    "text": "{{size value=\"75\"}}{{fun_0007000D arg=\"\"}}Sun{{fun_0007000D arg=\"\"}}light {{fun_0007000D arg=\"\"}}and {{fun_0007000D arg=\"\"}}moon{{fun_0007000D arg=\"\"}}light {{fun_0007000D arg=\"\"}}can {{fun_0007000D arg=\"\"}}be {{fun_0007000D arg=\"\"}}rough {{fun_0007000D arg=\"\"}}on {{fun_0007000D arg=\"\"}}the\n{{fun_0007000D arg=\"\"}}eyes, {{fun_0007000D arg=\"\"}}but {{fun_0007000D arg=\"\"}}I'll {{fun_0007000D arg=\"\"}}still {{fun_0007000D arg=\"\"}}take {{fun_0007000D arg=\"\"}}'em {{fun_0007000D arg=\"\"}}o'er {{fun_0007000D arg=\"\"}}yer {{fun_0007000D arg=\"\"}}cloud{{fun_0007000D arg=\"\"}}y {{fun_0007000D arg=\"\"}}skies.{{pageBreak}}{{fun_0007000D arg=\"\"}}Cloud{{fun_0007000D arg=\"\"}}y {{fun_0007000D arg=\"\"}}skies {{fun_0007000D arg=\"\"}}mean {{fun_0007000D arg=\"\"}}storms, {{fun_0007000D arg=\"\"}}and {{fun_0007000D arg=\"\"}}storms {{fun_0007000D arg=\"\"}}can{{fun_0007000D arg=\"\"}}cel\n{{fun_0007000D arg=\"\"}}din{{fun_0007000D arg=\"\"}}ner. {{fun_0007000D arg=\"\"}}I {{fun_0007000D arg=\"\"}}guess {{fun_0007000D arg=\"\"}}ye {{fun_0007000D arg=\"\"}}could {{fun_0007000D arg=\"\"}}say {{fun_0007000D arg=\"\"}}that {{fun_0007000D arg=\"\"}}storms {{fun_0007000D arg=\"\"}}make\n{{fun_0007000D arg=\"\"}}ye {{fun_0007000D arg=\"\"}}thin{{fun_0007000D arg=\"\"}}ner!{{size value=\"100\"}}"
  },
  {
    "label": "008",
    "text": "{{size value=\"75\"}}{{fun_0007000D arg=\"\"}}Me {{fun_0007000D arg=\"\"}}wife {{fun_0007000D arg=\"\"}}wears {{fun_0007000D arg=\"\"}}per{{fun_0007000D arg=\"\"}}fume. {{fun_0007000D arg=\"\"}}She {{fun_0007000D arg=\"\"}}smells {{fun_0007000D arg=\"\"}}just {{fun_0007000D arg=\"\"}}like \n{{fun_0007000D arg=\"\"}}ros{{fun_0007000D arg=\"\"}}es. {{fun_0007000D arg=\"\"}}The {{fun_0007000D arg=\"\"}}way {{fun_0007000D arg=\"\"}}to {{fun_0007000D arg=\"\"}}men's {{fun_0007000D arg=\"\"}}hearts {{fun_0007000D arg=\"\"}}is {{fun_0007000D arg=\"\"}}through {{fun_0007000D arg=\"\"}}their\n{{fun_0007000D arg=\"\"}}nos{{fun_0007000D arg=\"\"}}es.{{pageBreak}}{{fun_0007000D arg=\"\"}}It's {{fun_0007000D arg=\"\"}}not {{fun_0007000D arg=\"\"}}through {{fun_0007000D arg=\"\"}}their {{fun_0007000D arg=\"\"}}tum{{fun_0007000D arg=\"\"}}mies, {{fun_0007000D arg=\"\"}}just {{fun_0007000D arg=\"\"}}'cause {{fun_0007000D arg=\"\"}}some\n{{fun_0007000D arg=\"\"}}folks {{fun_0007000D arg=\"\"}}say. {{fun_0007000D arg=\"\"}}A {{fun_0007000D arg=\"\"}}sweet-{{fun_0007000D arg=\"\"}}smell{{fun_0007000D arg=\"\"}}ing {{fun_0007000D arg=\"\"}}a{{fun_0007000D arg=\"\"}}rom{{fun_0007000D arg=\"\"}}a, {{fun_0007000D arg=\"\"}}I {{fun_0007000D arg=\"\"}}know {{fun_0007000D arg=\"\"}}that's\n{{fun_0007000D arg=\"\"}}the {{fun_0007000D arg=\"\"}}way!{{size value=\"100\"}}"
  },
  {
    "label": "009",
    "text": "{{size value=\"75\"}}{{fun_0007000D arg=\"\"}}Used {{fun_0007000D arg=\"\"}}to {{fun_0007000D arg=\"\"}}sail {{fun_0007000D arg=\"\"}}all {{fun_0007000D arg=\"\"}}year {{fun_0007000D arg=\"\"}}long. {{fun_0007000D arg=\"\"}}Can't {{fun_0007000D arg=\"\"}}do {{fun_0007000D arg=\"\"}}that {{fun_0007000D arg=\"\"}}no {{fun_0007000D arg=\"\"}}more.\n{{fun_0007000D arg=\"\"}}Me {{fun_0007000D arg=\"\"}}sin{{fun_0007000D arg=\"\"}}gle {{fun_0007000D arg=\"\"}}days {{fun_0007000D arg=\"\"}}be {{fun_0007000D arg=\"\"}}done. {{fun_0007000D arg=\"\"}}I've {{fun_0007000D arg=\"\"}}put {{fun_0007000D arg=\"\"}}to {{fun_0007000D arg=\"\"}}shore.{{pageBreak}}{{fun_0007000D arg=\"\"}}When {{fun_0007000D arg=\"\"}}yer {{fun_0007000D arg=\"\"}}a {{fun_0007000D arg=\"\"}}fam'{{fun_0007000D arg=\"\"}}ly {{fun_0007000D arg=\"\"}}man, {{fun_0007000D arg=\"\"}}yer {{fun_0007000D arg=\"\"}}fam'{{fun_0007000D arg=\"\"}}ly {{fun_0007000D arg=\"\"}}must {{fun_0007000D arg=\"\"}}come\n{{fun_0007000D arg=\"\"}}first. {{fun_0007000D arg=\"\"}}Still {{fun_0007000D arg=\"\"}}get {{fun_0007000D arg=\"\"}}to {{fun_0007000D arg=\"\"}}boat {{fun_0007000D arg=\"\"}}at {{fun_0007000D arg=\"\"}}work. {{fun_0007000D arg=\"\"}}I {{fun_0007000D arg=\"\"}}could {{fun_0007000D arg=\"\"}}do {{fun_0007000D arg=\"\"}}worse!{{size value=\"100\"}}"
  },
  {
    "label": "010",
    "text": "{{size value=\"75\"}}{{fun_0007000D arg=\"\"}}Don't {{fun_0007000D arg=\"\"}}have {{fun_0007000D arg=\"\"}}much {{fun_0007000D arg=\"\"}}hair {{fun_0007000D arg=\"\"}}to {{fun_0007000D arg=\"\"}}comb, {{fun_0007000D arg=\"\"}}no{{fun_0007000D arg=\"\"}}thing {{fun_0007000D arg=\"\"}}to {{fun_0007000D arg=\"\"}}style.\n{{fun_0007000D arg=\"\"}}If {{fun_0007000D arg=\"\"}}I {{fun_0007000D arg=\"\"}}had {{fun_0007000D arg=\"\"}}one {{fun_0007000D arg=\"\"}}lock, {{fun_0007000D arg=\"\"}}it'd {{fun_0007000D arg=\"\"}}be {{fun_0007000D arg=\"\"}}wild!{{pageBreak}}{{fun_0007000D arg=\"\"}}I'd {{fun_0007000D arg=\"\"}}tease {{fun_0007000D arg=\"\"}}it {{fun_0007000D arg=\"\"}}so {{fun_0007000D arg=\"\"}}high, {{fun_0007000D arg=\"\"}}you {{fun_0007000D arg=\"\"}}would {{fun_0007000D arg=\"\"}}not {{fun_0007000D arg=\"\"}}see {{fun_0007000D arg=\"\"}}the {{fun_0007000D arg=\"\"}}end.\n{{fun_0007000D arg=\"\"}}I'd {{fun_0007000D arg=\"\"}}want {{fun_0007000D arg=\"\"}}to {{fun_0007000D arg=\"\"}}let {{fun_0007000D arg=\"\"}}kids {{fun_0007000D arg=\"\"}}climb {{fun_0007000D arg=\"\"}}it, {{fun_0007000D arg=\"\"}}but {{fun_0007000D arg=\"\"}}it {{fun_0007000D arg=\"\"}}might {{fun_0007000D arg=\"\"}}bend!{{size value=\"100\"}}"
  }
]