﻿[
  {
    "label": "001",
    "text": "{{anim id=\"20\"}}{{fun_0003000E arg=\"\"}}{{fun_00060007 arg=\"\"}}Hello{{fun_00070007 arg=\"\"}}, {{fun_00080005 arg=\"\"}}.{{delay frames=\"10\"}}\nCold, isn't it!"
  },
  {
    "label": "002",
    "text": "{{anim id=\"20\"}}{{fun_0003000E arg=\"\"}}{{fun_00060007 arg=\"\"}}Hi there{{fun_00070007 arg=\"\"}}, {{fun_00080005 arg=\"\"}}.{{delay frames=\"10\"}}\nBundle up! It's freezing out here."
  },
  {
    "label": "003",
    "text": "{{anim id=\"20\"}}Could it BE any colder, {{fun_00080005 arg=\"\"}}?"
  },
  {
    "label": "004",
    "text": "{{anim id=\"37\"}}What's your secret, {{fun_00080005 arg=\"\"}}?{{delay frames=\"10\"}}\nIt's freezing outside, but you\ndon't even seem to feel it!"
  },
  {
    "label": "005",
    "text": "{{anim id=\"15\"}}Oh! You're out in this cold too?{{delay frames=\"10\"}}\n{{anim id=\"20\"}}It's awful right now, {{fun_00080005 arg=\"\"}}!"
  },
  {
    "label": "006",
    "text": "{{anim id=\"37\"}}{{fun_0003000E arg=\"\"}}{{fun_00060007 arg=\"\"}}Good morning{{fun_00070007 arg=\"\"}}, {{fun_00080005 arg=\"\"}}.{{delay frames=\"10\"}}\n{{anim id=\"20\"}}It's so cold, I almost stayed\ninside, {{fun_00070005 arg=\"\"}}."
  },
  {
    "label": "007",
    "text": "{{anim id=\"37\"}}Oh, good morning, {{fun_00080005 arg=\"\"}}.{{delay frames=\"10\"}}\nJust couldn't wait to get out\nin this snow, {{fun_00070005 arg=\"\"}}?"
  },
  {
    "label": "008",
    "text": "{{anim id=\"37\"}}{{fun_0003000E arg=\"\"}}{{fun_00060007 arg=\"\"}}Good evening{{fun_00070007 arg=\"\"}}, {{fun_00080005 arg=\"\"}}.{{delay frames=\"10\"}}\n{{anim id=\"20\"}}I think I'm going to freeze if I stay\nout much longer, {{fun_00070005 arg=\"\"}}!"
  },
  {
    "label": "009",
    "text": "{{anim id=\"15\"}}What are you doing out here,\n{{fun_00080005 arg=\"\"}}? {{delay frames=\"20\"}}{{anim id=\"13\"}}You'll catch a cold if\nyou stay out all night, {{fun_00070005 arg=\"\"}}!"
  }
]