﻿[
  {
    "label": "001",
    "text": "{{anim id=\"5\"}}Nothing like a nice walk to get the\nendorphins pumping. {{delay frames=\"16\"}}I feel like a \nmillion Bells, {{delay frames=\"8\"}}{{fun_00080005 arg=\"\"}}!"
  },
  {
    "label": "002",
    "text": "{{anim id=\"11\"}}{{delay frames=\"16\"}}Funny,{{delay frames=\"8\"}} {{fun_00010011 arg=\"0x0000\"}} isn't usually the \ntype for a last-minute \nmeet and greet. {{delay frames=\"16\"}}So curious{{delay frames=\"8\"}}.{{delay frames=\"8\"}}.{{delay frames=\"8\"}}.{{delay frames=\"8\"}}"
  },
  {
    "label": "003",
    "text": "{{anim id=\"26\"}}Hey,{{delay frames=\"8\"}} {{fun_00080005 arg=\"\"}}{{delay frames=\"8\"}}.{{delay frames=\"8\"}}.{{delay frames=\"8\"}}.{{delay frames=\"8\"}} Have you been\nworking out? {{delay frames=\"8\"}}Your abs are like{{delay frames=\"8\"}}.{{delay frames=\"8\"}}.{{delay frames=\"8\"}}.\niron{{delay frames=\"8\"}}.{{delay frames=\"8\"}}.{{delay frames=\"8\"}}.or aluminum{{delay frames=\"8\"}}.{{delay frames=\"8\"}}.{{delay frames=\"8\"}}.or something.{{delay frames=\"8\"}} "
  },
  {
    "label": "004",
    "text": "{{anim id=\"36\"}}Funny, I thought a walk with you{{delay frames=\"32\"}} \nmight be awkward. And.{{delay frames=\"4\"}}.{{delay frames=\"4\"}}.{{delay frames=\"4\"}}now it is.\n{{delay frames=\"16\"}}Sorry about that."
  },
  {
    "label": "005",
    "text": "{{anim id=\"37\"}}Don't worry, {{fun_00080005 arg=\"\"}}.{{delay frames=\"16\"}} I'm still \nright behind you. Keep on truckin'.{{delay frames=\"8\"}}"
  }
]