﻿[
  {
    "label": "001",
    "text": ""
  },
  {
    "label": "002",
    "text": "{{fun_001F000A arg=\"0x000B000B000C000C000C000C000D000D000D000E000E000F00CD\"}}"
  },
  {
    "label": "003",
    "text": "{{fun_001F000A arg=\"0x00110011001200120012001200130013001300140014001500CD\"}}"
  },
  {
    "label": "004",
    "text": ""
  },
  {
    "label": "005",
    "text": ""
  },
  {
    "label": "006",
    "text": ""
  },
  {
    "label": "007",
    "text": ""
  },
  {
    "label": "008",
    "text": ""
  },
  {
    "label": "009",
    "text": ""
  },
  {
    "label": "010",
    "text": ""
  },
  {
    "label": "011",
    "text": "{{anim id=\"6\"}}I've seen a greater selection of fish\nthan this at the supermarket.{{pageBreak}}{{anim id=\"9\"}}I hope the rest of the museum has\nmore to offer{{delay frames=\"8\"}}.{{delay frames=\"8\"}}.{{delay frames=\"8\"}}.{{delay frames=\"8\"}}"
  },
  {
    "label": "012",
    "text": "The collection appears to be\ngrowing, {{delay frames=\"8\"}}{{anim id=\"11\"}}but I bet there are still a\nton of exotic species to discover."
  },
  {
    "label": "013",
    "text": "{{anim id=\"21\"}}{{fun_0003000E arg=\"\"}}{{fun_00070005 arg=\"\"}}, {{delay frames=\"8\"}}this aquarium is\nstarting to build an impressive\ncollection.\n{{anim id=\"36\"}}I can only imagine how much hard\nwork it has taken to collect all\nthese weird fish!"
  },
  {
    "label": "014",
    "text": "There are a lot of fascinating\ncreatures swimming around in here,{{delay frames=\"8\"}}\n{{anim id=\"11\"}}but I don't see any mermaids{{delay frames=\"8\"}}.{{delay frames=\"8\"}}.{{delay frames=\"8\"}}.{{delay frames=\"8\"}}\n{{anim id=\"33\"}}Ha! {{delay frames=\"16\"}}I got you, {{delay frames=\"8\"}}didn't I? {{delay frames=\"16\"}}You thought\nthat I thought that mermaids exist.\nAt least, {{delay frames=\"8\"}}{{anim id=\"23\"}}I think you thought that{{delay frames=\"8\"}}.{{delay frames=\"8\"}}.{{delay frames=\"8\"}}.{{delay frames=\"8\"}}"
  },
  {
    "label": "015",
    "text": "{{anim id=\"29\"}}This aquarium is amazing! {{delay frames=\"16\"}}Every\ntype of fish and sea creature is\nrepresented.\n{{anim id=\"2\"}}There's even a silly-looking grouper\nthat reminds me of {{fun_00040005 arg=\"0x00CD\"}}!"
  },
  {
    "label": "016",
    "text": ""
  },
  {
    "label": "017",
    "text": "There are hardly any fish;{{delay frames=\"8\"}} I wouldn't\nwaste my time here.{{pageBreak}}{{anim id=\"9\"}}But wait. {{delay frames=\"16\"}}I {{delay frames=\"8\"}}am{{delay frames=\"8\"}} wasting my time\nhere!{{delay frames=\"16\"}} {{fun_0003000E arg=\"\"}}{{fun_00070005 arg=\"\"}},{{anim id=\"15\"}} I need to get\nout of here!"
  },
  {
    "label": "018",
    "text": "{{anim id=\"43\"}}These fish are marvelous{{delay frames=\"8\"}}.{{delay frames=\"8\"}}.{{delay frames=\"8\"}}.{{delay frames=\"8\"}}{{anim id=\"16\"}}but I bet\nthere are species out there we still\nhaven't seen!"
  },
  {
    "label": "019",
    "text": "{{anim id=\"11\"}}That fish looks awfully familiar.{{delay frames=\"16\"}}\nWhere have I seen it before?{{pageBreak}}{{anim id=\"16\"}}Oh! {{delay frames=\"16\"}}I've never seen it before—but it\nlooks exactly like {{fun_00030005 arg=\"\"}},{{delay frames=\"8\"}}\ndoesn't it? {{delay frames=\"16\"}}{{fun_0003000E arg=\"\"}}{{fun_00070005 arg=\"\"}}!"
  },
  {
    "label": "020",
    "text": "{{anim id=\"11\"}}I think some of these fish can tell\nthat I had sushi for lunch.{{delay frames=\"16\"}} I'm\nfeeling{{anim id=\"9\"}}{{delay frames=\"8\"}}.{{delay frames=\"8\"}}.{{delay frames=\"8\"}}.{{delay frames=\"8\"}}outnumbered."
  },
  {
    "label": "021",
    "text": "{{anim id=\"4\"}}This place is amazing! {{delay frames=\"16\"}}They have\nevery single type of fish and sea\ncreature on display.\n{{anim id=\"31\"}}And it's all thanks to the hard work\nof everyone in {{fun_00050005 arg=\"\"}}.{{delay frames=\"16\"}} Well,{{delay frames=\"8\"}}\neveryone except me. {{delay frames=\"32\"}}Ha!"
  }
]