﻿[
  {
    "label": "001",
    "text": "{{anim id=\"32\"}}Hey, {{delay frames=\"8\"}}{{fun_00000005 arg=\"\"}}! {{delay frames=\"8\"}}How are you doing\ntoday?{{delay frames=\"8\"}} {{fun_0003000E arg=\"\"}}{{fun_00070005 arg=\"\"}}?{{pageBreak}}I just wanted to let you know that\nI'm also playing in this league.{{delay frames=\"8\"}}{{anim id=\"7\"}}\nSo don't expect to win!"
  },
  {
    "label": "002",
    "text": "{{anim id=\"43\"}}Yes, {{delay frames=\"8\"}}once I run the Puzzle League, {{delay frames=\"8\"}}I\ncan finally enact my compulsory\n{{fun_000E0005 arg=\"0x0000\"}}-drinking ordinance.\n{{anim id=\"6\"}}It will be a required beverage at\nprecisely 3:00 p.m. each afternoon.{{delay frames=\"20\"}}{{anim id=\"25\"}}\nFollowed by a nap, {{delay frames=\"8\"}}of course."
  },
  {
    "label": "003",
    "text": "{{anim id=\"37\"}}Well then. {{delay frames=\"8\"}}I should really make a\ntour of the area and meet the folks\nwho will be bowing down to me.\nSorry. {{delay frames=\"8\"}}Was that too friendly for\nsomeone who's about to become\nyour bitter enemy?{{delay frames=\"8\"}}{{anim id=\"35\"}} Haha!"
  },
  {
    "label": "004",
    "text": "{{fun_00020007 arg=\"\"}}To win this round, you need to\nearn a 100% approval rating within\n{{color id=\"2\"}}2 minutes{{color id=\"65535\"}}.{{fun_00030007 arg=\"\"}}{{delay frames=\"40\"}}"
  },
  {
    "label": "006",
    "text": "Oh, {{delay frames=\"8\"}}did I make you wait? {{delay frames=\"8\"}}{{anim id=\"9\"}}So\nsorry about that{{delay frames=\"4\"}}.{{delay frames=\"4\"}}.{{delay frames=\"4\"}}."
  },
  {
    "label": "007",
    "text": "{{anim id=\"37\"}}Without further ado{{delay frames=\"4\"}}.{{delay frames=\"4\"}}.{{delay frames=\"4\"}}.let's\nget started!"
  },
  {
    "label": "008",
    "text": ""
  },
  {
    "label": "009",
    "text": ""
  },
  {
    "label": "011",
    "text": "{{anim id=\"41\"}}Whoops! {{delay frames=\"8\"}}I guess I lost.{{delay frames=\"30\"}} {{anim id=\"1\"}}You weren't\nmessing around, were you?"
  },
  {
    "label": "012",
    "text": "{{anim id=\"37\"}}That's OK—{{delay frames=\"8\"}}this is probably for the\nbest. {{delay frames=\"25\"}}{{anim id=\"35\"}}You'll make a great league\ndictator—{{delay frames=\"20\"}}I mean,{{delay frames=\"8\"}} champion.\n{{anim id=\"36\"}}After all, {{delay frames=\"8\"}}you beat me.{{delay frames=\"8\"}} That means\nyou can do anything!"
  },
  {
    "label": "013",
    "text": ""
  },
  {
    "label": "014",
    "text": ""
  },
  {
    "label": "016",
    "text": "Well, {{delay frames=\"8\"}}look at that.{{delay frames=\"8\"}} I guess I won.{{delay frames=\"8\"}}{{anim id=\"2\"}}\nWhat a surprise! {{delay frames=\"8\"}}{{fun_0003000E arg=\"\"}}{{fun_00070005 arg=\"\"}}!"
  },
  {
    "label": "017",
    "text": "{{anim id=\"23\"}}Want to try again?{{delay frames=\"30\"}}\n{{delay frames=\"4\"}}.{{delay frames=\"4\"}}.{{delay frames=\"4\"}}.{{anim id=\"36\"}}You didn't expect to beat me\nright away, {{delay frames=\"8\"}}did you?"
  },
  {
    "label": "018",
    "text": ""
  },
  {
    "label": "019",
    "text": ""
  }
]