﻿[
  {
    "label": "001",
    "text": "{{fun_00040009 arg=\"0x4700480049004A004B004C00\"}}"
  },
  {
    "label": "002",
    "text": "{{fun_00040009 arg=\"0x4700480049004A004B004C00\"}}"
  },
  {
    "label": "003",
    "text": "{{fun_00040009 arg=\"0x4700480049004A004B004C00\"}}"
  },
  {
    "label": "004",
    "text": "{{anim id=\"36\"}}Huh.{{delay frames=\"16\"}} I didn't know {{fun_00010011 arg=\"0x0000\"}} was\ninto {{color id=\"2\"}}{{fun_00030011 arg=\"0x0100\"}}{{color id=\"65535\"}}{{delay frames=\"8\"}}.{{delay frames=\"8\"}}.{{delay frames=\"8\"}}.{{delay frames=\"8\"}}{{pageBreak}}{{anim id=\"6\"}}The {{fun_00030011 arg=\"0x0000\"}} creates\na really great sound too{{delay frames=\"8\"}}.{{delay frames=\"8\"}}.{{delay frames=\"8\"}}.{{delay frames=\"8\"}}{{pageBreak}}{{anim id=\"37\"}}I feel like I just found out something\nnew about him,{{delay frames=\"8\"}} {{fun_00070005 arg=\"\"}}."
  },
  {
    "label": "005",
    "text": "{{fun_00040009 arg=\"0x4700480049004A004B004C00\"}}"
  },
  {
    "label": "006",
    "text": "{{fun_00040009 arg=\"0x4700480049004A004B004C00\"}}"
  },
  {
    "label": "007",
    "text": "{{fun_00040009 arg=\"0x4700480049004A004B004C00\"}}"
  },
  {
    "label": "008",
    "text": "{{fun_00040009 arg=\"0x4700480049004A004B004C00\"}}"
  },
  {
    "label": "009",
    "text": "{{anim id=\"37\"}}{{fun_00010011 arg=\"0x0000\"}} has quite a big bed!{{pageBreak}}{{anim id=\"36\"}}Heh heh heh.{{delay frames=\"16\"}} I wonder if he's busy\nworking out even when he's asleep,{{delay frames=\"8\"}}\n{{fun_00070005 arg=\"\"}}. {{anim id=\"2\"}}I wouldn't doubt it!"
  },
  {
    "label": "010",
    "text": "{{fun_00040009 arg=\"0x4700480049004A004B004C00\"}}"
  },
  {
    "label": "011",
    "text": "{{anim id=\"11\"}}{{delay frames=\"16\"}}{{fun_00010011 arg=\"0x0000\"}}{{delay frames=\"16\"}} lives on his own, yeah?{{delay frames=\"16\"}}\nSo why does he have a two-seater\ncouch in his room?\n{{anim id=\"36\"}}Heh heh heh.{{delay frames=\"16\"}} Knowing how he is,{{delay frames=\"16\"}}\nhe's probably using it as training\nequipment,{{delay frames=\"8\"}} {{fun_00070005 arg=\"\"}}!"
  },
  {
    "label": "012",
    "text": "{{anim id=\"6\"}}Listen up,{{delay frames=\"8\"}} {{fun_00080005 arg=\"\"}}!{{delay frames=\"32\"}} If you take a\nlook at a person's chair, you'll get\nan idea of that person's tastes.\n{{anim id=\"11\"}}{{delay frames=\"16\"}}Let's see.{{delay frames=\"16\"}} {{fun_0003000E arg=\"\"}}{{fun_00010011 arg=\"0x0000\"}}'s chair{{delay frames=\"8\"}}.{{delay frames=\"8\"}}.{{delay frames=\"8\"}}.{{delay frames=\"8\"}}\n{{anim id=\"15\"}}It's {{fun_0002000E arg=\"\"}}{{fun_00030011 arg=\"0x0000\"}}!{{pageBreak}}{{anim id=\"36\"}}Heh heh heh.{{delay frames=\"16\"}} I can definitely see\nhim choosing that! The reason is\nobvious, isn't it?\n{{anim id=\"18\"}}Oh!{{delay frames=\"16\"}} {{anim id=\"23\"}}You can't read people based on\ntheir chairs? {{anim id=\"27\"}}Must be something I\nlearned as {{fun_0002000E arg=\"\"}}{{fun_001F0005 arg=\"0x00CD\"}}."
  },
  {
    "label": "013",
    "text": "{{fun_00040009 arg=\"0x4700480049004A004B004C00\"}}"
  },
  {
    "label": "014",
    "text": "{{anim id=\"43\"}}{{delay frames=\"16\"}}Hmm. So {{fun_00010011 arg=\"0x0000\"}}'s{{delay frames=\"16\"}}\n{{fun_00030011 arg=\"0x0000\"}}{{delay frames=\"8\"}}.{{delay frames=\"8\"}}.{{delay frames=\"8\"}}.{{delay frames=\"8\"}}{{pageBreak}}{{anim id=\"9\"}}I don't feel like peeking inside at\nall{{delay frames=\"8\"}}.{{delay frames=\"8\"}}.{{delay frames=\"8\"}}.{{delay frames=\"8\"}} I just assume it's full of gym\nsocks and barbells."
  },
  {
    "label": "015",
    "text": "{{fun_00040009 arg=\"0x4700480049004A004B004C00\"}}"
  },
  {
    "label": "016",
    "text": "{{fun_00040009 arg=\"0x4700480049004A004B004C00\"}}"
  },
  {
    "label": "017",
    "text": "{{fun_0003000E arg=\"\"}}{{fun_0002000E arg=\"\"}}{{fun_00030011 arg=\"0x0000\"}} is\nsitting out here,{{delay frames=\"16\"}} so I wonder if these\nare {{fun_00010011 arg=\"0x0000\"}}'s {{delay frames=\"8\"}}{{anim id=\"23\"}}workout clothes.{{delay frames=\"32\"}}\n{{anim id=\"36\"}}I can almost feel the burn just by\nlooking at them{{delay frames=\"8\"}}.{{delay frames=\"8\"}}.{{delay frames=\"8\"}}.{{delay frames=\"8\"}}"
  },
  {
    "label": "018",
    "text": "{{fun_00040009 arg=\"0x4700480049004A004B004C00\"}}"
  },
  {
    "label": "019",
    "text": "{{anim id=\"11\"}}{{delay frames=\"16\"}}There's something I didn't expect to\nsee in here{{delay frames=\"8\"}}.{{delay frames=\"8\"}}.{{delay frames=\"8\"}}.{{delay frames=\"8\"}} I wonder what the\n{{fun_00030011 arg=\"0x0000\"}} is for.\n{{anim id=\"6\"}}Perhaps {{fun_00010011 arg=\"0x0000\"}} started flexing\nin front of the mirror {{anim id=\"23\"}}to see how his\ntraining sessions are going?\n{{anim id=\"33\"}}I just flex in front of mirrors\nbecause I know my training\nsessions {{anim id=\"44\"}}have all paid off!"
  },
  {
    "label": "020",
    "text": "Earlier{{delay frames=\"16\"}} I found a book{{delay frames=\"8\"}} called\n{{fun_001D0005 arg=\"0x0000\"}}{{delay frames=\"32\"}}\non the {{fun_00030011 arg=\"0x0000\"}}.\n{{anim id=\"11\"}}{{delay frames=\"16\"}}Makes me wonder what {{fun_00010011 arg=\"0x0000\"}}\nis aiming for with his life{{delay frames=\"8\"}}.{{delay frames=\"8\"}}.{{delay frames=\"8\"}}.{{delay frames=\"32\"}}"
  },
  {
    "label": "021",
    "text": "{{fun_00040009 arg=\"0x4700480049004A004B004C00\"}}"
  },
  {
    "label": "022",
    "text": "{{fun_00040009 arg=\"0x4700480049004A004B004C00\"}}"
  },
  {
    "label": "023",
    "text": "{{anim id=\"15\"}}Ah,{{delay frames=\"8\"}} looks as if {{fun_00010011 arg=\"0x0000\"}} has made\nsome tea for us,{{delay frames=\"8\"}} {{fun_00080005 arg=\"\"}}!{{pageBreak}}{{anim id=\"36\"}}Despite his insistence on working\nout, I suppose he knows how to\nenjoy the finer things in life too!"
  },
  {
    "label": "024",
    "text": "{{anim id=\"26\"}}{{delay frames=\"16\"}}Whoa!{{delay frames=\"16\"}} I didn't know {{fun_00010011 arg=\"0x0000\"}}{{delay frames=\"32\"}}\nhad {{fun_0002000E arg=\"\"}}{{fun_00030011 arg=\"0x0000\"}},{{delay frames=\"8\"}}\n{{fun_00070005 arg=\"\"}}!\n{{anim id=\"36\"}}Wow, you think he just uses it for\nbench pressing{{delay frames=\"8\"}}.{{delay frames=\"8\"}}.{{delay frames=\"8\"}}.{{delay frames=\"8\"}}? I bet it's not even\nhooked up{{delay frames=\"8\"}}.{{delay frames=\"8\"}}.{{delay frames=\"8\"}}.{{delay frames=\"8\"}}"
  },
  {
    "label": "025",
    "text": "{{anim id=\"15\"}}Oh? {{delay frames=\"16\"}}Heh. I wonder if {{fun_00010011 arg=\"0x0000\"}}\n{{anim id=\"0\"}}actually knows how to use his\n{{fun_00030011 arg=\"0x0000\"}}.{{delay frames=\"8\"}}\n{{anim id=\"36\"}}I get the feeling he just sits around\nbench-pressing it{{delay frames=\"8\"}}.{{delay frames=\"8\"}}.{{delay frames=\"8\"}}.{{delay frames=\"8\"}}"
  },
  {
    "label": "026",
    "text": "{{anim id=\"1\"}}Oh,{{delay frames=\"8\"}} {{fun_0002000E arg=\"\"}}{{fun_00030011 arg=\"0x0000\"}}!{{delay frames=\"16\"}}\n{{anim id=\"38\"}}My favorite flower type of the day!{{pageBreak}}{{anim id=\"36\"}}Maybe {{fun_00010011 arg=\"0x0000\"}} decorated his\nplace just for me?{{delay frames=\"8\"}} {{anim id=\"32\"}}I bet he's flexing\nhis sensitive side! {{fun_0003000E arg=\"\"}}{{fun_00070005 arg=\"\"}}!"
  },
  {
    "label": "027",
    "text": "Oh, hey now! That's {{fun_00010011 arg=\"0x0000\"}}'s{{delay frames=\"16\"}}\n{{fun_00030011 arg=\"0x0000\"}}!{{pageBreak}}{{anim id=\"36\"}}Heh heh heh.{{delay frames=\"16\"}} I bet there are a ton of\ndifferent sports drinks inside,{{delay frames=\"8\"}}\n{{fun_00070005 arg=\"\"}}!"
  },
  {
    "label": "028",
    "text": "{{fun_00040009 arg=\"0x4700480049004A004B004C00\"}}"
  },
  {
    "label": "029",
    "text": "{{anim id=\"15\"}}Oh,{{delay frames=\"16\"}} {{fun_00010011 arg=\"0x0000\"}} decided to have\n{{fun_0002000E arg=\"\"}}{{fun_00030011 arg=\"0x0000\"}}{{delay frames=\"8\"}} here{{delay frames=\"8\"}}.{{delay frames=\"8\"}}.{{delay frames=\"8\"}}.{{delay frames=\"8\"}}{{pageBreak}}{{anim id=\"36\"}}I guess that makes sense. He'd need\nto know how well his training\nregimen is going."
  },
  {
    "label": "030",
    "text": "Ooh! {{fun_0003000E arg=\"\"}}{{fun_0002000E arg=\"\"}}{{fun_00030011 arg=\"0x0000\"}}\nis hooked up in {{fun_00010011 arg=\"0x0000\"}}'s house!{{delay frames=\"16\"}}\n{{fun_0003000E arg=\"\"}}{{fun_00070005 arg=\"\"}}!\n{{anim id=\"21\"}}Makes total sense. I mean, {{anim id=\"38\"}}how else\nis he gonna end up working out his\nthumbs?"
  },
  {
    "label": "031",
    "text": "{{anim id=\"15\"}}Huh?{{delay frames=\"32\"}} I wonder why {{fun_00010011 arg=\"0x0000\"}} has\n{{fun_0002000E arg=\"\"}}{{fun_00030011 arg=\"0x0000\"}} here.{{pageBreak}}{{anim id=\"11\"}}{{delay frames=\"16\"}}It feels a little weird to see it in\n{{fun_00010011 arg=\"0x0000\"}}'s place{{delay frames=\"8\"}}.{{delay frames=\"8\"}}.{{delay frames=\"8\"}}.{{delay frames=\"8\"}} {{anim id=\"36\"}}Heh heh heh.{{delay frames=\"16\"}}\nMaybe it's his training partner!"
  },
  {
    "label": "032",
    "text": "{{fun_00040009 arg=\"0x4700480049004A004B004C00\"}}"
  },
  {
    "label": "033",
    "text": "{{fun_00040009 arg=\"0x4700480049004A004B004C00\"}}"
  },
  {
    "label": "034",
    "text": "{{fun_00040009 arg=\"0x4700480049004A004B004C00\"}}"
  },
  {
    "label": "035",
    "text": "{{anim id=\"15\"}}Oh, weird.{{delay frames=\"16\"}} {{fun_00010011 arg=\"0x0000\"}} has {{fun_0002000E arg=\"\"}}\n{{fun_00030011 arg=\"0x0000\"}}{{delay frames=\"8\"}}.{{delay frames=\"8\"}}.{{delay frames=\"8\"}}.{{delay frames=\"8\"}}{{pageBreak}}{{anim id=\"6\"}}I get it{{delay frames=\"8\"}}.{{delay frames=\"8\"}}.{{delay frames=\"8\"}}.{{delay frames=\"32\"}} {{anim id=\"27\"}}Working out so much would\nmake me want to curl up in a fetal\nposition and cry too."
  },
  {
    "label": "036",
    "text": "{{anim id=\"15\"}}Oh wow,{{delay frames=\"16\"}} I didn't expect to see\n{{fun_0002000E arg=\"\"}}{{fun_00030011 arg=\"0x0000\"}}{{delay frames=\"8\"}}.{{delay frames=\"8\"}}.{{delay frames=\"8\"}}.{{delay frames=\"8\"}}{{pageBreak}}{{anim id=\"36\"}}Judging from {{fun_00010011 arg=\"0x0000\"}}'s usual\npersonality,{{delay frames=\"16\"}} I was expecting maybe\nsomething with more weights on it?{{delay frames=\"8\"}}"
  },
  {
    "label": "037",
    "text": "{{fun_00040009 arg=\"0x4700480049004A004B004C00\"}}"
  },
  {
    "label": "038",
    "text": "{{fun_00040009 arg=\"0x4700480049004A004B004C00\"}}"
  },
  {
    "label": "039",
    "text": "{{fun_00040009 arg=\"0x4700480049004A004B004C00\"}}"
  },
  {
    "label": "040",
    "text": "{{anim id=\"15\"}}Oh! Heh.{{delay frames=\"16\"}} There's {{fun_00010011 arg=\"0x0000\"}}'s\n{{fun_00030011 arg=\"0x0000\"}}{{delay frames=\"8\"}}.{{delay frames=\"8\"}}.{{delay frames=\"8\"}}.{{delay frames=\"8\"}}{{pageBreak}}{{anim id=\"19\"}}Can you just imagine how many\ntimes he's had to use this to clean\noff after a huge workout{{delay frames=\"8\"}}.{{delay frames=\"8\"}}.{{delay frames=\"8\"}}.{{delay frames=\"8\"}}?\n{{anim id=\"13\"}}Ack! I just did!"
  },
  {
    "label": "041",
    "text": "{{anim id=\"15\"}}Whoa,{{delay frames=\"8\"}} not a lot of people have\n{{fun_0002000E arg=\"\"}}{{fun_00030011 arg=\"0x0000\"}}{{delay frames=\"16\"}}\nin their room{{delay frames=\"8\"}}.{{delay frames=\"8\"}}.{{delay frames=\"8\"}}.{{delay frames=\"8\"}}\n{{anim id=\"36\"}}{{fun_00010011 arg=\"0x0000\"}} must be very particular\nabout the image of manliness this\nroom gives off."
  },
  {
    "label": "042",
    "text": "{{anim id=\"37\"}}Heh heh heh{{delay frames=\"8\"}}.{{delay frames=\"8\"}}.{{delay frames=\"8\"}}.{{delay frames=\"8\"}} I never expected to\nsee {{fun_0002000E arg=\"\"}}{{fun_00030011 arg=\"0x0000\"}}{{delay frames=\"16\"}}\nin {{fun_00010011 arg=\"0x0000\"}}'s room.\n{{anim id=\"36\"}}Well, I guess fruit is essential for\nstrong bodies, {{anim id=\"1\"}}so it makes sense!\n{{anim id=\"2\"}}Hah ha!{{delay frames=\"8\"}} {{fun_0003000E arg=\"\"}}{{fun_00070005 arg=\"\"}}!"
  },
  {
    "label": "043",
    "text": "{{anim id=\"11\"}}{{delay frames=\"16\"}}{{fun_0003000E arg=\"\"}}{{fun_0002000E arg=\"\"}}{{fun_00030011 arg=\"0x0000\"}}?{{delay frames=\"16\"}}\nDoes {{fun_00010011 arg=\"0x0000\"}} even know how to\nuse one of these{{delay frames=\"4\"}}.{{delay frames=\"4\"}}.{{delay frames=\"4\"}}.{{delay frames=\"4\"}}?\nMaybe he just got it confused with\nsome sort of exercise equipment\nand no one told him otherwise{{delay frames=\"8\"}}.{{delay frames=\"8\"}}.{{delay frames=\"8\"}}.{{delay frames=\"8\"}}?"
  },
  {
    "label": "044",
    "text": "{{fun_00040009 arg=\"0x4700480049004A004B004C00\"}}"
  },
  {
    "label": "045",
    "text": ""
  },
  {
    "label": "046",
    "text": ""
  },
  {
    "label": "047",
    "text": ""
  },
  {
    "label": "048",
    "text": ""
  },
  {
    "label": "049",
    "text": ""
  },
  {
    "label": "050",
    "text": ""
  },
  {
    "label": "051",
    "text": ""
  },
  {
    "label": "052",
    "text": ""
  },
  {
    "label": "053",
    "text": ""
  },
  {
    "label": "054",
    "text": ""
  },
  {
    "label": "055",
    "text": ""
  },
  {
    "label": "056",
    "text": ""
  },
  {
    "label": "057",
    "text": ""
  },
  {
    "label": "058",
    "text": ""
  },
  {
    "label": "059",
    "text": ""
  },
  {
    "label": "060",
    "text": ""
  },
  {
    "label": "061",
    "text": ""
  },
  {
    "label": "062",
    "text": ""
  },
  {
    "label": "063",
    "text": ""
  },
  {
    "label": "064",
    "text": ""
  },
  {
    "label": "065",
    "text": ""
  },
  {
    "label": "066",
    "text": ""
  },
  {
    "label": "067",
    "text": ""
  },
  {
    "label": "068",
    "text": ""
  },
  {
    "label": "069",
    "text": ""
  },
  {
    "label": "070",
    "text": ""
  },
  {
    "label": "071",
    "text": "{{anim id=\"4\"}}{{delay frames=\"16\"}}It smells like {{fun_00010011 arg=\"0x0000\"}} in here{{delay frames=\"8\"}}.{{delay frames=\"8\"}}.{{delay frames=\"8\"}}.\n{{anim id=\"15\"}}Whoa,{{delay frames=\"16\"}} {{anim id=\"36\"}}{{fun_00010011 arg=\"0x0000\"}} and deodorant."
  },
  {
    "label": "072",
    "text": "{{anim id=\"21\"}}I see,{{delay frames=\"20\"}} so this is {{fun_00010011 arg=\"0x0000\"}}'s room!\nIt makes total sense to me!"
  },
  {
    "label": "073",
    "text": "{{anim id=\"36\"}}Heh heh heh.{{delay frames=\"15\"}} {{fun_0003000E arg=\"\"}}{{fun_00080005 arg=\"\"}}!{{delay frames=\"30\"}}\n{{fun_00010011 arg=\"0x0000\"}} might not like it if you\nkeep looking around like that."
  },
  {
    "label": "074",
    "text": "{{anim id=\"15\"}}Weird{{delay frames=\"8\"}}.{{delay frames=\"8\"}}.{{delay frames=\"8\"}}.{{delay frames=\"20\"}}{{anim id=\"11\"}}{{delay frames=\"16\"}} For some reason,{{delay frames=\"20\"}} it smells\nlike {{fun_00130005 arg=\"0x0000\"}} in here{{delay frames=\"8\"}}.{{delay frames=\"8\"}}.{{delay frames=\"8\"}}.{{delay frames=\"30\"}}\n{{anim id=\"23\"}}Or is it all just in my head?"
  },
  {
    "label": "075",
    "text": "{{anim id=\"33\"}}This is {{fun_00010011 arg=\"0x0000\"}}'s room!{{delay frames=\"30\"}}\nPlease make yourself at home!{{pageBreak}}{{anim id=\"36\"}}Well,{{delay frames=\"8\"}} it's a bit weird for me to say\nthat since this isn't my house, but{{delay frames=\"8\"}}.{{delay frames=\"8\"}}.{{delay frames=\"8\"}}."
  },
  {
    "label": "076",
    "text": "{{anim id=\"36\"}}Heh heh heh.{{delay frames=\"15\"}} I wonder if {{fun_00010011 arg=\"0x0000\"}}{{delay frames=\"15\"}}\nactually picked out all the furniture\nby himself..."
  },
  {
    "label": "077",
    "text": ""
  },
  {
    "label": "078",
    "text": ""
  },
  {
    "label": "079",
    "text": ""
  },
  {
    "label": "080",
    "text": ""
  }
]