﻿[
  {
    "label": "001",
    "text": "Mjam, mjam! {{fun_00010005 arg=\"\"}}"
  },
  {
    "label": "002",
    "text": "Danke! Dein {{fun_00010005 arg=\"\"}}"
  },
  {
    "label": "003",
    "text": "Dein Freund {{fun_00010005 arg=\"\"}}"
  },
  {
    "label": "004",
    "text": "Dein total netter {{fun_00010005 arg=\"\"}}"
  },
  {
    "label": "005",
    "text": "Dein Freund {{fun_00010005 arg=\"\"}}"
  },
  {
    "label": "006",
    "text": "Dein {{fun_00010005 arg=\"\"}}"
  },
  {
    "label": "007",
    "text": "Dein {{fun_00010005 arg=\"\"}}"
  },
  {
    "label": "008",
    "text": "In Erwartung, {{fun_00010005 arg=\"\"}}"
  },
  {
    "label": "009",
    "text": "{{fun_00010005 arg=\"\"}}"
  }
]