﻿[
  {
    "label": "001",
    "text": "Tu querido {{fun_00010005 arg=\"\"}}"
  },
  {
    "label": "002",
    "text": "El repostero {{fun_00010005 arg=\"\"}}"
  },
  {
    "label": "003",
    "text": "Atentamente, {{fun_00010005 arg=\"\"}}"
  },
  {
    "label": "004",
    "text": "{{fun_00010005 arg=\"\"}}"
  },
  {
    "label": "005",
    "text": "Con cariño, {{fun_00010005 arg=\"\"}}"
  },
  {
    "label": "006",
    "text": "Un saludo, {{fun_00010005 arg=\"\"}}"
  },
  {
    "label": "007",
    "text": "Tu amigo, {{fun_00010005 arg=\"\"}}"
  },
  {
    "label": "008",
    "text": "{{fun_00010005 arg=\"\"}}"
  },
  {
    "label": "009",
    "text": "{{fun_00010005 arg=\"\"}}"
  }
]