﻿[
  {
    "label": "001",
    "text": "Felizmente sano, {{fun_00010005 arg=\"\"}}"
  },
  {
    "label": "002",
    "text": "Sano cual pera, {{fun_00010005 arg=\"\"}}"
  },
  {
    "label": "003",
    "text": "Del saludable Sr. {{fun_00010005 arg=\"\"}}"
  }
]