﻿[
  {
    "label": "001",
    "locale": {
      "EUde": "Ich grüße dich, \n!",
      "EUen": "Dear \n,",
      "EUes": "Querid{{fun_0006000E arg=\"0x02006F0002006100\"}} \n:",
      "EUfr": "{{fun_0006000E arg=\"0x080043006800650072000A0043006800E80072006500\"}} \n,",
      "EUit": "Carissim{{fun_0006000E arg=\"0x02006F0002006100\"}} \n,",
      "JPja": "\n{{fun_000D0005 arg=\"\"}}へ",
      "KRko": "\n!",
      "USen": "Dear \n,",
      "USes": "Querid{{fun_0006000E arg=\"0x02006F0002006100\"}} \n:",
      "USfr": "{{fun_0006000E arg=\"0x080043006800650072000A0043006800E80072006500\"}} \n,"
    }
  },
  {
    "label": "002",
    "locale": {
      "EUde": "Sei gegrüßt, \n!",
      "EUen": "My dear \n,",
      "EUes": "Mi pastelito, \n:",
      "EUfr": "{{fun_0006000E arg=\"0x10004D006F006E002000630068006500720010004D006100200063006800E80072006500\"}} \n,",
      "EUit": "Mi{{fun_0006000E arg=\"0x02006F0002006100\"}} car{{fun_0006000E arg=\"0x02006F0002006100\"}} \n,",
      "JPja": "はいけい　\n{{fun_000D0005 arg=\"\"}}",
      "KRko": "To \n",
      "USen": "My dear \n,",
      "USes": "Mi pastelito, \n:",
      "USfr": "{{fun_0006000E arg=\"0x10004D006F006E002000630068006500720010004D006100200063006800E80072006500\"}} \n,"
    }
  },
  {
    "label": "003",
    "locale": {
      "EUde": "Ach, \n!",
      "EUen": "Dear \n,",
      "EUes": "Para \n:",
      "EUfr": "{{fun_0006000E arg=\"0x080043006800650072000A0043006800E80072006500\"}} \n,",
      "EUit": "Car{{fun_0006000E arg=\"0x02006F0002006100\"}} \n,",
      "JPja": "ぜんりゃく　\n{{fun_000D0005 arg=\"\"}}",
      "KRko": "Dear \n",
      "USen": "Dear \n,",
      "USes": "Para \n:",
      "USfr": "{{fun_0006000E arg=\"0x080043006800650072000A0043006800E80072006500\"}} \n,"
    }
  },
  {
    "label": "004",
    "locale": {
      "EUde": "{{fun_0006000E arg=\"0x16004D00650069006E0020006C006900650062006500720016004D00650069006E00650020006C006900650062006500\"}} \n!",
      "EUen": "My dear \n,",
      "EUes": "Querid{{fun_0006000E arg=\"0x02006F0002006100\"}} \n:",
      "EUfr": "{{fun_0006000E arg=\"0x10004D006F006E002000630068006500720010004D006100200063006800E80072006500\"}} \n,",
      "EUit": "Mi{{fun_0006000E arg=\"0x02006F0002006100\"}} car{{fun_0006000E arg=\"0x02006F0002006100\"}} \n,",
      "JPja": "\n{{fun_000D0005 arg=\"\"}}",
      "KRko": "\n!",
      "USen": "My dear \n,",
      "USes": "Querid{{fun_0006000E arg=\"0x02006F0002006100\"}} \n:",
      "USfr": "{{fun_0006000E arg=\"0x10004D006F006E002000630068006500720010004D006100200063006800E80072006500\"}} \n,"
    }
  },
  {
    "label": "005",
    "locale": {
      "EUde": "{{fun_0006000E arg=\"0x0C004C00690065006200650072000A004C006900650062006500\"}} \n!",
      "EUen": "Dear \n,",
      "EUes": "Hola, \n:",
      "EUfr": "{{fun_0006000E arg=\"0x080043006800650072000A0043006800E80072006500\"}} \n,",
      "EUit": "Car{{fun_0006000E arg=\"0x02006F0002006100\"}} \n,",
      "JPja": "ねぇ、\n{{fun_000D0005 arg=\"\"}}",
      "KRko": "To \n",
      "USen": "Dear \n,",
      "USes": "Hola, \n:",
      "USfr": "{{fun_0006000E arg=\"0x080043006800650072000A0043006800E80072006500\"}} \n,"
    }
  }
]