﻿[
  {
    "label": "001",
    "locale": {
      "EUde": "Hallo, \n!",
      "EUen": "Yo, \n!",
      "EUes": "Buenas, \n:",
      "EUfr": "Bonjour \n,",
      "EUit": "Aloha, \n!",
      "JPja": "\n！",
      "KRko": "\n!",
      "USen": "Yo, \n!",
      "USes": "Buenas, \n:",
      "USfr": "Bonjour \n,"
    }
  },
  {
    "label": "002",
    "locale": {
      "EUde": "Na, \n?",
      "EUen": "Hey, \n,",
      "EUes": "A las buenas, \n:",
      "EUfr": "Bonjour \n,",
      "EUit": "Ehi, \n!",
      "JPja": "よう、\n",
      "KRko": "이봐, \n",
      "USen": "Hey, \n,",
      "USes": "A las buenas, \n:",
      "USfr": "Bonjour \n,"
    }
  },
  {
    "label": "003",
    "locale": {
      "EUde": "{{fun_0003000E arg=\"\"}}\n!",
      "EUen": "To \n,",
      "EUes": "Muy buenas, \n:",
      "EUfr": "Pour \n :",
      "EUit": "Ehilà, \n!",
      "JPja": "\nへ",
      "KRko": "\n에게",
      "USen": "To \n,",
      "USes": "Muy buenas, \n:",
      "USfr": "Pour \n :"
    }
  },
  {
    "label": "004",
    "locale": {
      "EUde": "Hallo, \n!",
      "EUen": "Oy, \n!",
      "EUes": "¡Para \n!",
      "EUfr": "Parlons un peu, \n...",
      "EUit": "Oh, \n!",
      "JPja": "\n！",
      "KRko": "\n!",
      "USen": "Oy, \n!",
      "USes": "¡Para \n!",
      "USfr": "Parlons un peu, \n..."
    }
  },
  {
    "label": "005",
    "locale": {
      "EUde": "Na, \n?",
      "EUen": "Hey, \n,",
      "EUes": "Para \n:",
      "EUfr": "Salut \n,",
      "EUit": "Aloha, \n!",
      "JPja": "よう、\n",
      "KRko": "이봐, \n",
      "USen": "Hey, \n,",
      "USes": "Para \n:",
      "USfr": "Salut \n,"
    }
  },
  {
    "label": "006",
    "locale": {
      "EUde": "{{fun_0003000E arg=\"\"}}\n!",
      "EUen": "To \n,",
      "EUes": "Para mi amig{{fun_0006000E arg=\"0x02006F0002006100\"}} \n:",
      "EUfr": "Salut \n,",
      "EUit": "Ehi, \n!",
      "JPja": "\nへ",
      "KRko": "\n에게",
      "USen": "To \n,",
      "USes": "Para mi amig{{fun_0006000E arg=\"0x02006F0002006100\"}} \n:",
      "USfr": "Salut \n,"
    }
  },
  {
    "label": "007",
    "locale": {
      "EUde": "Hallo, \n!",
      "EUen": "Heya, \n!",
      "EUes": "¡Para \n!",
      "EUfr": "Hello \n,",
      "EUit": "Ehilà, \n!",
      "JPja": "\n！",
      "KRko": "\n!",
      "USen": "Heya, \n!",
      "USes": "¡Para \n!",
      "USfr": "Hello \n,"
    }
  },
  {
    "label": "008",
    "locale": {
      "EUde": "Na, \n?",
      "EUen": "Hey, \n,",
      "EUes": "A mi amig{{fun_0006000E arg=\"0x02006F0002006100\"}} \n:",
      "EUfr": "Bonjour \n,",
      "EUit": "Oh, \n!",
      "JPja": "よう、\n",
      "KRko": "이봐, \n",
      "USen": "Hey, \n,",
      "USes": "A mi amig{{fun_0006000E arg=\"0x02006F0002006100\"}} \n:",
      "USfr": "Bonjour \n,"
    }
  },
  {
    "label": "009",
    "locale": {
      "EUde": "{{fun_0003000E arg=\"\"}}\n!",
      "EUen": "To \n,",
      "EUes": "Para {{fun_0006000E arg=\"0x060064006F006E00080064006F00F1006100\"}} \n:",
      "EUfr": "Pour \n :",
      "EUit": "Ehi, \n!",
      "JPja": "\nへ",
      "KRko": "\n에게",
      "USen": "To \n,",
      "USes": "Para {{fun_0006000E arg=\"0x060064006F006E00080064006F00F1006100\"}} \n:",
      "USfr": "Pour \n :"
    }
  },
  {
    "label": "010",
    "locale": {
      "EUde": "An \n!",
      "EUen": "Hey, \n!",
      "EUes": "¡Hola, \n!",
      "EUfr": "Pour \n :",
      "EUit": "Ehilà, \n!",
      "JPja": "\n！",
      "KRko": "\n!",
      "USen": "Hey, \n!",
      "USes": "¡Hola, \n!",
      "USfr": "Pour \n :"
    }
  }
]