﻿[
  {
    "label": "001",
    "locale": {
      "EUde": "An \n:",
      "EUen": "Dear \n,",
      "EUes": "Hola, \n:",
      "EUfr": "{{fun_0006000E arg=\"0x080043006800650072000A0043006800E80072006500\"}} \n,",
      "EUit": "Car{{fun_0006000E arg=\"0x02006F0002006100\"}} \n,",
      "JPja": "\n{{fun_000D0005 arg=\"\"}}へ",
      "KRko": "To \n",
      "USen": "Dear \n,",
      "USes": "Hola, \n:",
      "USfr": "{{fun_0006000E arg=\"0x080043006800650072000A0043006800E80072006500\"}} \n,"
    }
  },
  {
    "label": "002",
    "locale": {
      "EUde": "{{fun_0006000E arg=\"0x0C004C00690065006200650072000A004C006900650062006500\"}} \n!",
      "EUen": "My dear \n,",
      "EUes": "Mi querid{{fun_0006000E arg=\"0x02006F0002006100\"}} \n:",
      "EUfr": "{{fun_0006000E arg=\"0x10004D006F006E002000630068006500720010004D006100200063006800E80072006500\"}} \n,",
      "EUit": "Mi{{fun_0006000E arg=\"0x02006F0002006100\"}} car{{fun_0006000E arg=\"0x02006F0002006100\"}} \n,",
      "JPja": "ねぇ、\n{{fun_000D0005 arg=\"\"}}",
      "KRko": "\n～",
      "USen": "My dear \n,",
      "USes": "Mi querid{{fun_0006000E arg=\"0x02006F0002006100\"}} \n:",
      "USfr": "{{fun_0006000E arg=\"0x10004D006F006E002000630068006500720010004D006100200063006800E80072006500\"}} \n,"
    }
  },
  {
    "label": "003",
    "locale": {
      "EUde": "Ich grüße dich, \n!",
      "EUen": "Dear \n,",
      "EUes": "Para \n:",
      "EUfr": "{{fun_0006000E arg=\"0x080043006800650072000A0043006800E80072006500\"}} \n,",
      "EUit": "Car{{fun_0006000E arg=\"0x02006F0002006100\"}} \n,",
      "JPja": "\n{{fun_000D0005 arg=\"\"}}へ",
      "KRko": "근데 \n",
      "USen": "Dear \n,",
      "USes": "Para \n:",
      "USfr": "{{fun_0006000E arg=\"0x080043006800650072000A0043006800E80072006500\"}} \n,"
    }
  },
  {
    "label": "004",
    "locale": {
      "EUde": "Sei gegrüßt, \n!",
      "EUen": "Help me, \n!",
      "EUes": "¡Ayúdame, \n!",
      "EUfr": "{{fun_0006000E arg=\"0x080043006800650072000A0043006800E80072006500\"}} \n,",
      "EUit": "Aiutami, \n!",
      "JPja": "たすけて　\n{{fun_000D0005 arg=\"\"}}",
      "KRko": "To \n",
      "USen": "Help me, \n!",
      "USes": "¡Ayúdame, \n!",
      "USfr": "{{fun_0006000E arg=\"0x080043006800650072000A0043006800E80072006500\"}} \n,"
    }
  },
  {
    "label": "005",
    "locale": {
      "EUde": "{{fun_0006000E arg=\"0x0C004C00690065006200650072000A004C006900650062006500\"}} \n!",
      "EUen": "My dear \n,",
      "EUes": "Hola, \n:",
      "EUfr": "{{fun_0006000E arg=\"0x10004D006F006E002000630068006500720010004D006100200063006800E80072006500\"}} \n,",
      "EUit": "Mi{{fun_0006000E arg=\"0x02006F0002006100\"}} car{{fun_0006000E arg=\"0x02006F0002006100\"}} \n,",
      "JPja": "ねぇ、\n{{fun_000D0005 arg=\"\"}}",
      "KRko": "To \n",
      "USen": "My dear \n,",
      "USes": "Hola, \n:",
      "USfr": "{{fun_0006000E arg=\"0x10004D006F006E002000630068006500720010004D006100200063006800E80072006500\"}} \n,"
    }
  },
  {
    "label": "006",
    "locale": {
      "EUde": "{{fun_0006000E arg=\"0x0C004C00690065006200650072000A004C006900650062006500\"}} \n!",
      "EUen": "Dear \n,",
      "EUes": "Mi querid{{fun_0006000E arg=\"0x02006F0002006100\"}} \n:",
      "EUfr": "{{fun_0006000E arg=\"0x080043006800650072000A0043006800E80072006500\"}} \n,",
      "EUit": "Car{{fun_0006000E arg=\"0x02006F0002006100\"}} \n,",
      "JPja": "ねぇ、\n{{fun_000D0005 arg=\"\"}}",
      "KRko": "있잖아 \n",
      "USen": "Dear \n,",
      "USes": "Mi querid{{fun_0006000E arg=\"0x02006F0002006100\"}} \n:",
      "USfr": "{{fun_0006000E arg=\"0x080043006800650072000A0043006800E80072006500\"}} \n,"
    }
  },
  {
    "label": "007",
    "locale": {
      "EUde": "Sei gegrüßt, \n!",
      "EUen": "My dear \n,",
      "EUes": "Para \n:",
      "EUfr": "{{fun_0006000E arg=\"0x10004D006F006E002000630068006500720010004D006100200063006800E80072006500\"}} \n,",
      "EUit": "Mi{{fun_0006000E arg=\"0x02006F0002006100\"}} car{{fun_0006000E arg=\"0x02006F0002006100\"}} \n,",
      "JPja": "ぜんりゃく　\n{{fun_000D0005 arg=\"\"}}",
      "KRko": "\n!",
      "USen": "My dear \n,",
      "USes": "Para \n:",
      "USfr": "{{fun_0006000E arg=\"0x10004D006F006E002000630068006500720010004D006100200063006800E80072006500\"}} \n,"
    }
  },
  {
    "label": "008",
    "locale": {
      "EUde": "{{fun_0006000E arg=\"0x0C004C00690065006200650072000A004C006900650062006500\"}} \n!",
      "EUen": "Greetings, \n!",
      "EUes": "Querid{{fun_0006000E arg=\"0x02006F0002006100\"}} \n:",
      "EUfr": "Hello, \n !",
      "EUit": "Ciao, \n!",
      "JPja": "はいけい　\n{{fun_000D0005 arg=\"\"}}",
      "KRko": "To \n",
      "USen": "Greetings, \n!",
      "USes": "Querid{{fun_0006000E arg=\"0x02006F0002006100\"}} \n:",
      "USfr": "Hello, \n!"
    }
  },
  {
    "label": "009",
    "locale": {
      "EUde": "{{fun_0006000E arg=\"0x16004D00650069006E0020006C006900650062006500720016004D00650069006E00650020006C006900650062006500\"}} \n!",
      "EUen": "Dear \n,",
      "EUes": "Hola, \n:",
      "EUfr": "{{fun_0006000E arg=\"0x080043006800650072000A0043006800E80072006500\"}} \n,",
      "EUit": "Car{{fun_0006000E arg=\"0x02006F0002006100\"}} \n,",
      "JPja": "\n{{fun_000D0005 arg=\"\"}}へ",
      "KRko": "\n에게",
      "USen": "Dear \n,",
      "USes": "Hola, \n:",
      "USfr": "{{fun_0006000E arg=\"0x080043006800650072000A0043006800E80072006500\"}} \n,"
    }
  },
  {
    "label": "010",
    "locale": {
      "EUde": "{{fun_0006000E arg=\"0x0C004C00690065006200650072000A004C006900650062006500\"}} \n!",
      "EUen": "My dear \n,",
      "EUes": "Para \n:",
      "EUfr": "{{fun_0006000E arg=\"0x10004D006F006E002000630068006500720010004D006100200063006800E80072006500\"}} \n,",
      "EUit": "Mi{{fun_0006000E arg=\"0x02006F0002006100\"}} car{{fun_0006000E arg=\"0x02006F0002006100\"}} \n,",
      "JPja": "\n{{fun_000D0005 arg=\"\"}}へ",
      "KRko": "\n에게",
      "USen": "My dear \n,",
      "USes": "Para \n:",
      "USfr": "{{fun_0006000E arg=\"0x10004D006F006E002000630068006500720010004D006100200063006800E80072006500\"}} \n,"
    }
  }
]