﻿[
  {
    "label": "001",
    "text": "Gentile \n,"
  },
  {
    "label": "002",
    "text": "Mi{{fun_0006000E arg=\"0x02006F0002006100\"}} car{{fun_0006000E arg=\"0x02006F0002006100\"}} \n,"
  },
  {
    "label": "003",
    "text": "Gentile \n,"
  }
]