﻿[
  {
    "label": "001",
    "text": "Ragazzuol{{fun_0006000E arg=\"0x02006F0002006100\"}}!"
  },
  {
    "label": "002",
    "text": "Ragazzuol{{fun_0006000E arg=\"0x02006F0002006100\"}}!"
  },
  {
    "label": "003",
    "text": "Ragazzuol{{fun_0006000E arg=\"0x02006F0002006100\"}}!"
  }
]