﻿[
  {
    "label": "001",
    "text": "{{fun_0000000C arg=\"\"}}{{fun_0005000C arg=\"\"}}{{fun_0002000C arg=\"\"}}{{fun_0006000C arg=\"\"}}{{fun_0001000C arg=\"\"}}{{fun_0008000C arg=\"\"}}{{delay frames=\"20\"}}{{anim id=\"6\"}}그러니까 겉과 속이 다르면\n겉은 나쁜 녀석이고{{delay frames=\"8\"}}・{{delay frames=\"8\"}}・{{delay frames=\"8\"}}・{{delay frames=\"20\"}}\n속이 좋은 녀석이라는 거잖아?{{fun_0009000C arg=\"\"}}"
  },
  {
    "label": "002",
    "text": "{{fun_0000000C arg=\"\"}}{{fun_0005000C arg=\"\"}}{{fun_0002000C arg=\"\"}}{{fun_0006000C arg=\"\"}}{{fun_0001000C arg=\"\"}}{{fun_0008000C arg=\"\"}}{{delay frames=\"20\"}}{{anim id=\"37\"}}야 {{fun_00010011 arg=\"0x0100\"}}{{delay frames=\"8\"}}・{{delay frames=\"8\"}}・{{delay frames=\"8\"}}・{{delay frames=\"8\"}}{{delay frames=\"8\"}}\n넌 {{delay frames=\"40\"}}별명 있냐?\n{{anim id=\"0\"}}지금 내 별명을 생각 중이거든{{delay frames=\"8\"}}・{{delay frames=\"8\"}}・{{delay frames=\"8\"}}・{{delay frames=\"8\"}}{{fun_0009000C arg=\"\"}}"
  },
  {
    "label": "003",
    "text": "{{fun_0000000C arg=\"\"}}{{fun_0005000C arg=\"\"}}{{fun_0002000C arg=\"\"}}{{fun_0006000C arg=\"\"}}{{fun_0001000C arg=\"\"}}{{fun_0008000C arg=\"\"}}{{delay frames=\"8\"}}・{{delay frames=\"8\"}}・{{delay frames=\"8\"}}・{{delay frames=\"20\"}}{{anim id=\"21\"}}나 말인데{{delay frames=\"40\"}}\n이제 슬슬 필살기 같은 걸\n익혀볼까 해!{{fun_0009000C arg=\"\"}}{{fun_00010009 arg=\"0x1F0021002300\"}}"
  },
  {
    "label": "004",
    "text": ""
  },
  {
    "label": "005",
    "text": ""
  },
  {
    "label": "006",
    "text": "{{fun_0000000C arg=\"\"}}{{fun_0007000C arg=\"\"}}{{fun_0002000C arg=\"\"}}{{anim id=\"22\"}}뭐야! 그럼 나쁜 녀석도{{delay frames=\"8\"}}・{{delay frames=\"8\"}}・{{delay frames=\"8\"}}・{{delay frames=\"20\"}}\n겉과 속을 뒤집으면\n좋은 녀석이 된다는 건가?{{fun_0009000C arg=\"\"}}"
  },
  {
    "label": "007",
    "text": "{{fun_0000000C arg=\"\"}}{{fun_0005000C arg=\"\"}}{{fun_0001000C arg=\"\"}}{{anim id=\"33\"}}뭐 그렇겠지!{{delay frames=\"40\"}}\n{{delay frames=\"8\"}}・{{delay frames=\"8\"}}・{{delay frames=\"8\"}}・{{delay frames=\"20\"}}{{anim id=\"15\"}}어라?{{delay frames=\"20\"}}\n그럼 위에서 보면 어떻게 되는 거지?{{fun_0009000C arg=\"\"}}"
  },
  {
    "label": "008",
    "text": "{{fun_0000000C arg=\"\"}}{{fun_0007000C arg=\"\"}}{{fun_0002000C arg=\"\"}}{{anim id=\"23\"}}반은 나쁘고 반은 좋은 녀석?{{delay frames=\"40\"}}\n{{delay frames=\"8\"}}・{{delay frames=\"8\"}}・{{delay frames=\"8\"}}・{{delay frames=\"20\"}}{{anim id=\"9\"}}이거 보통 일이 아닌데!{{pageBreak}}{{anim id=\"13\"}}{{fun_00100005 arg=\"0x0000\"}} 먹으면서\n{{fun_00110005 arg=\"0x0000\"}} 하는 거랑\n비슷하지 않냐?{{delay frames=\"40\"}}{{anim id=\"9\"}}{{fun_0009000C arg=\"\"}}"
  },
  {
    "label": "009",
    "text": "{{fun_0000000C arg=\"\"}}{{fun_0005000C arg=\"\"}}{{fun_0001000C arg=\"\"}}{{anim id=\"27\"}}골치가 아프구만{{delay frames=\"8\"}}・{{delay frames=\"8\"}}・{{delay frames=\"8\"}}・{{delay frames=\"20\"}}\n입장을 명확하게 해주지 않으면\n이쪽도 대응하기가 쉽지 않은데{{delay frames=\"8\"}}・{{delay frames=\"8\"}}・{{delay frames=\"8\"}}・{{delay frames=\"8\"}}{{fun_0009000C arg=\"\"}}"
  },
  {
    "label": "010",
    "text": "{{fun_0000000C arg=\"\"}}{{fun_0007000C arg=\"\"}}{{fun_0002000C arg=\"\"}}{{anim id=\"36\"}}근데 잘 생각해보면\n{{fun_00100005 arg=\"0x0000\"}} 먹는 나쁜 녀석은\n왠지 좋은 녀석일 거 같지 않냐{{delay frames=\"8\"}}・{{delay frames=\"8\"}}・{{delay frames=\"8\"}}・{{delay frames=\"8\"}}?{{delay frames=\"8\"}}{{anim id=\"37\"}}{{fun_0009000C arg=\"\"}}"
  },
  {
    "label": "011",
    "text": "{{fun_0000000C arg=\"\"}}{{fun_0005000C arg=\"\"}}{{fun_0001000C arg=\"\"}}{{anim id=\"38\"}}듣고 보니 그렇네! {{delay frames=\"20\"}}{{fun_00070005 arg=\"\"}}!"
  },
  {
    "label": "012",
    "text": ""
  },
  {
    "label": "013",
    "text": ""
  },
  {
    "label": "014",
    "text": ""
  },
  {
    "label": "015",
    "text": ""
  },
  {
    "label": "016",
    "text": "{{fun_0000000C arg=\"\"}}{{fun_0007000C arg=\"\"}}{{fun_0002000C arg=\"\"}}{{anim id=\"15\"}}별명?{{delay frames=\"40\"}}\n{{anim id=\"0\"}}있는 것 같기도 하고{{delay frames=\"8\"}}\n없는 것 같기도 한데{{delay frames=\"8\"}}・{{delay frames=\"8\"}}・{{delay frames=\"8\"}}・{{delay frames=\"8\"}}\n{{delay frames=\"20\"}}그래서?{{delay frames=\"40\"}}\n{{anim id=\"23\"}}니가 생각한 건 뭔데?{{fun_0009000C arg=\"\"}}"
  },
  {
    "label": "017",
    "text": "{{fun_0000000C arg=\"\"}}{{fun_0005000C arg=\"\"}}{{fun_0001000C arg=\"\"}}{{anim id=\"35\"}}훗훗훗{{delay frames=\"8\"}}・{{delay frames=\"8\"}}・{{delay frames=\"8\"}}・{{delay frames=\"20\"}}\n{{fun_001F0005 arg=\"0x00CD\"}}의 여왕 {{fun_00010011 arg=\"0x0000\"}}!{{delay frames=\"40\"}}\n{{anim id=\"0\"}}어떠냐?{{fun_0009000C arg=\"\"}}"
  },
  {
    "label": "018",
    "text": "{{fun_0000000C arg=\"\"}}{{fun_0007000C arg=\"\"}}{{fun_0002000C arg=\"\"}}{{anim id=\"19\"}}어떠냐니{{delay frames=\"20\"}}・{{delay frames=\"20\"}}・{{delay frames=\"20\"}}・{{delay frames=\"40\"}}\n{{anim id=\"9\"}}너무 평범하잖아!\n{{anim id=\"21\"}}좀 새로운 거 없냐{{delay frames=\"8\"}}・{{delay frames=\"8\"}}・{{delay frames=\"8\"}}・{{delay frames=\"8\"}}?{{delay frames=\"8\"}}{{fun_0009000C arg=\"\"}}"
  },
  {
    "label": "019",
    "text": "{{fun_0000000C arg=\"\"}}{{fun_0005000C arg=\"\"}}{{fun_0001000C arg=\"\"}}{{anim id=\"11\"}}그래{{delay frames=\"8\"}}・{{delay frames=\"8\"}}・{{delay frames=\"8\"}}・{{delay frames=\"8\"}}?{{delay frames=\"8\"}}\n{{anim id=\"22\"}}그럼 {{fun_000F0005 arg=\"0x0000\"}}{{fun_000E000E arg=\"0x020040C7020094B2\"}} 어때?{{delay frames=\"40\"}}\n{{anim id=\"37\"}}{{fun_000F0005 arg=\"0x0000\"}}의 여왕 {{fun_00010011 arg=\"0x0000\"}}!\n{{anim id=\"0\"}}붙이는 김에 너는\n{{fun_000F0005 arg=\"0x0100\"}}의 마왕 {{fun_00010011 arg=\"0x0100\"}}!{{delay frames=\"40\"}}\n{{fun_0002000C arg=\"\"}}{{fun_0003000C arg=\"\"}}{{fun_0001000C arg=\"\"}}{{fun_0003000C arg=\"\"}}그리고 {{fun_00080005 arg=\"\"}} 너는{{delay frames=\"8\"}}・{{delay frames=\"8\"}}・{{delay frames=\"8\"}}・{{delay frames=\"20\"}}\n{{anim id=\"37\"}}{{fun_000F0005 arg=\"0x0200\"}}의 화신 {{fun_00080005 arg=\"\"}}!{{delay frames=\"40\"}}\n{{anim id=\"23\"}}어때?{{fun_0009000C arg=\"\"}}{{fun_00010008 arg=\"0x14000000170000001A000000\"}}\n괜찮네!\n그게 뭐야\n・・・"
  },
  {
    "label": "020",
    "text": "{{fun_0000000C arg=\"\"}}{{fun_0007000C arg=\"\"}}{{fun_0001000C arg=\"\"}}{{fun_0007000C arg=\"\"}}{{fun_0002000C arg=\"\"}}{{fun_0004000C arg=\"\"}}{{delay frames=\"20\"}}{{anim id=\"6\"}}{{fun_00080005 arg=\"\"}}{{delay frames=\"8\"}}・{{delay frames=\"8\"}}・{{delay frames=\"8\"}}・{{delay frames=\"8\"}}{{delay frames=\"20\"}}\n그쯤 해 둬!{{delay frames=\"40\"}}{{anim id=\"0\"}}{{pageBreak}}{{fun_0002000C arg=\"\"}}{{fun_0005000C arg=\"\"}}이 녀석은 한 번 까불기 시작하면\n적당한 선이란 걸 모른다니까{{delay frames=\"8\"}}・{{delay frames=\"8\"}}・{{delay frames=\"8\"}}・{{delay frames=\"20\"}}{{pageBreak}}{{anim id=\"27\"}}애당초 내가 왜 {{fun_000F0005 arg=\"0x0100\"}}{{fun_000E000E arg=\"0x040074C7D0B00200D0B0\"}}고!{{fun_0009000C arg=\"\"}}"
  },
  {
    "label": "021",
    "text": "{{fun_0000000C arg=\"\"}}{{fun_0005000C arg=\"\"}}{{fun_0001000C arg=\"\"}}{{fun_0007000C arg=\"\"}}{{delay frames=\"20\"}}{{anim id=\"16\"}}왜? 멋지잖아!\n{{fun_000F0005 arg=\"0x0100\"}}의 마왕 {{fun_00010011 arg=\"0x0100\"}}!{{delay frames=\"20\"}}\n아직 아무도 쓴 적 없는 별명일걸!{{fun_0009000C arg=\"\"}}"
  },
  {
    "label": "022",
    "text": "{{fun_0000000C arg=\"\"}}{{fun_0007000C arg=\"\"}}{{fun_0002000C arg=\"\"}}{{anim id=\"11\"}}그렇군{{delay frames=\"8\"}}・{{delay frames=\"8\"}}・{{delay frames=\"8\"}}・{{delay frames=\"20\"}}\n그렇게 새롭다면{{delay frames=\"8\"}}・{{delay frames=\"8\"}}・{{delay frames=\"8\"}}・{{delay frames=\"8\"}}\n{{fun_000F0005 arg=\"0x0100\"}}도 괜찮은가?\n{{anim id=\"17\"}}아니야{{delay frames=\"8\"}}・{{delay frames=\"8\"}}・{{delay frames=\"8\"}}・{{delay frames=\"8\"}} 아무리 생각해도 이건 아냐!{{delay frames=\"40\"}}\n{{anim id=\"13\"}}남 일이라고 적당히 그러지 말라구!\n{{delay frames=\"20\"}}{{fun_00070005 arg=\"\"}}!{{delay frames=\"20\"}}{{anim id=\"9\"}}"
  },
  {
    "label": "023",
    "text": "{{fun_0002000C arg=\"\"}}{{fun_0004000C arg=\"\"}}{{fun_0001000C arg=\"\"}}{{fun_0007000C arg=\"\"}}{{fun_0002000C arg=\"\"}}{{anim id=\"37\"}}그래!{{delay frames=\"20\"}}\n잘했어 {{fun_00080005 arg=\"\"}}!{{anim id=\"0\"}}{{pageBreak}}{{fun_0002000C arg=\"\"}}{{fun_0005000C arg=\"\"}}{{anim id=\"9\"}}아무리 새로워도 그렇지\n{{fun_000F0005 arg=\"0x0100\"}} 같은 건 싫다고!{{delay frames=\"40\"}}\n{{anim id=\"27\"}}너무 약해 보이잖아{{delay frames=\"8\"}}・{{delay frames=\"8\"}}・{{delay frames=\"8\"}}・{{delay frames=\"8\"}}{{fun_0009000C arg=\"\"}}"
  },
  {
    "label": "024",
    "text": "{{fun_0000000C arg=\"\"}}{{fun_0005000C arg=\"\"}}{{fun_0001000C arg=\"\"}}{{anim id=\"16\"}}그래?{{delay frames=\"40\"}}\n{{anim id=\"35\"}}특수한 기술이 있을 것 같지 않냐?{{delay frames=\"40\"}}\n{{fun_000F0005 arg=\"0x0100\"}}의 마왕 {{fun_00010011 arg=\"0x0100\"}}!{{fun_0009000C arg=\"\"}}"
  },
  {
    "label": "025",
    "text": "{{fun_0000000C arg=\"\"}}{{fun_0007000C arg=\"\"}}{{fun_0002000C arg=\"\"}}{{anim id=\"11\"}}오～ 그것도 그런가?{{delay frames=\"20\"}}\n{{fun_000F0005 arg=\"0x0100\"}}{{fun_000E000E arg=\"0x040074C77CB702007CB7\"}}고 할 정도면{{delay frames=\"10\"}}\n역시{{delay frames=\"8\"}}・{{delay frames=\"8\"}}・{{delay frames=\"8\"}}・{{delay frames=\"20\"}}\n{{anim id=\"17\"}}윽! {{delay frames=\"20\"}}아니지! 아니야!{{delay frames=\"40\"}}\n{{anim id=\"13\"}}깜빡 넘어갈 뻔했네!{{delay frames=\"20\"}}\n{{fun_00070005 arg=\"\"}}!{{delay frames=\"40\"}}{{anim id=\"9\"}}"
  },
  {
    "label": "026",
    "text": "{{fun_0000000C arg=\"\"}}{{fun_0007000C arg=\"\"}}{{fun_0001000C arg=\"\"}}{{fun_0007000C arg=\"\"}}{{fun_0002000C arg=\"\"}}{{delay frames=\"20\"}}{{anim id=\"36\"}}저런, {{fun_00080005 arg=\"\"}}!{{delay frames=\"20\"}}\n설마 심각하게 생각하는 건 아니지?{{delay frames=\"20\"}}\n농담이야 농담!{{anim id=\"0\"}}\n{{fun_0002000C arg=\"\"}}{{fun_0005000C arg=\"\"}}{{delay frames=\"8\"}}{{anim id=\"21\"}}애당초 {{fun_000F0005 arg=\"0x0200\"}}{{fun_000E000E arg=\"0x040074C77CB702007CB7\"}}니{{delay frames=\"8\"}}・{{delay frames=\"8\"}}・{{delay frames=\"8\"}}・{{delay frames=\"8\"}}\n무슨 생각인지 모르겠다니까!{{delay frames=\"40\"}}\n가도 너무 갔어!{{fun_0009000C arg=\"\"}}"
  },
  {
    "label": "027",
    "text": "{{fun_0000000C arg=\"\"}}{{fun_0005000C arg=\"\"}}{{fun_0001000C arg=\"\"}}{{anim id=\"9\"}}난 꽤 진지했는데{{delay frames=\"8\"}}・{{delay frames=\"8\"}}・{{delay frames=\"8\"}}・{{delay frames=\"20\"}} {{fun_00070005 arg=\"\"}}{{fun_0009000C arg=\"\"}}"
  },
  {
    "label": "028",
    "text": "{{fun_0000000C arg=\"\"}}{{fun_0007000C arg=\"\"}}{{fun_0002000C arg=\"\"}}{{delay frames=\"20\"}}{{anim id=\"9\"}}윽{{delay frames=\"8\"}}・{{delay frames=\"8\"}}・{{delay frames=\"8\"}}・{{delay frames=\"20\"}} {{fun_00070005 arg=\"\"}}"
  },
  {
    "label": "029",
    "text": ""
  },
  {
    "label": "030",
    "text": ""
  },
  {
    "label": "031",
    "text": "{{fun_0000000C arg=\"\"}}{{fun_0007000C arg=\"\"}}{{fun_0002000C arg=\"\"}}{{anim id=\"23\"}}필살기?{{delay frames=\"40\"}}\n바다를 가른다든지{{delay frames=\"20\"}}\n바람을 부린다든지 그런 거?{{fun_0009000C arg=\"\"}}"
  },
  {
    "label": "032",
    "text": "{{fun_0000000C arg=\"\"}}{{fun_0005000C arg=\"\"}}{{fun_0001000C arg=\"\"}}{{anim id=\"5\"}}그래{{delay frames=\"8\"}} 맞아!{{delay frames=\"40\"}}\n빛의 속도로 펀치를 날린다든가\n그런 거 말야!\n{{anim id=\"35\"}}어느 날 아침에 일어났더니{{delay frames=\"8\"}}\n갑자기 쓸 수 있게 되었다든지\n그럼 좋을 텐데～{{fun_0009000C arg=\"\"}}"
  },
  {
    "label": "033",
    "text": "{{fun_0000000C arg=\"\"}}{{fun_0007000C arg=\"\"}}{{fun_0002000C arg=\"\"}}{{anim id=\"11\"}}필살기라{{delay frames=\"8\"}}・{{delay frames=\"8\"}}・{{delay frames=\"8\"}}・{{delay frames=\"20\"}}\n{{anim id=\"23\"}}왠지 그런 건{{delay frames=\"8\"}} 베일에 싸인\n마법사한테 배워야 할 것 같지 않냐?{{fun_0009000C arg=\"\"}}"
  },
  {
    "label": "034",
    "text": "{{fun_0000000C arg=\"\"}}{{fun_0005000C arg=\"\"}}{{fun_0001000C arg=\"\"}}{{anim id=\"5\"}}그래 맞아! 맞아!{{delay frames=\"20\"}}\n젊은 시절에는 전설이라고 불렸던\n할아버지라든가?!\n{{anim id=\"21\"}}어릴 때부터 왠지 그런 걸 동경해서\n근처에 사는 평범한 할아버지한테\n질문 공세를 퍼붓곤 했었는데!{{fun_0009000C arg=\"\"}}"
  },
  {
    "label": "035",
    "text": "{{fun_0000000C arg=\"\"}}{{fun_0007000C arg=\"\"}}{{fun_0002000C arg=\"\"}}{{anim id=\"11\"}}필살기라{{delay frames=\"8\"}}・{{delay frames=\"8\"}}・{{delay frames=\"8\"}}・{{delay frames=\"20\"}}\n{{anim id=\"9\"}}사용하면 죽을지도 모르는\n금단의 기술 같은 거 아냐?{{fun_0009000C arg=\"\"}}"
  },
  {
    "label": "036",
    "text": "{{fun_0000000C arg=\"\"}}{{fun_0005000C arg=\"\"}}{{fun_0001000C arg=\"\"}}{{anim id=\"5\"}}오～ {{delay frames=\"8\"}}그거야 그거!{{delay frames=\"40\"}}\n그 기술을 사용하면 {{delay frames=\"8\"}}\n이마에 표식이 나타나는 그런 거지!\n{{anim id=\"21\"}}어릴 때는 그런 걸 동경한 나머지\n이마에 매직으로 {{delay frames=\"8\"}}\n직접 그려 넣기도 했었는데!{{fun_0009000C arg=\"\"}}"
  },
  {
    "label": "037",
    "text": "{{fun_0000000C arg=\"\"}}{{fun_0007000C arg=\"\"}}{{fun_0002000C arg=\"\"}}{{anim id=\"37\"}}왜, 만화에서 보면\n주인공들이 곧잘 위기에 몰렸을 때\n갑자기 필살기에 눈뜨게 되지 않냐?\n{{anim id=\"21\"}}소중한 사람을 구하지 못했을 때\n자신의 무력함을 절실하게 느껴서\n갑자기 변화한다든가{{delay frames=\"8\"}}・{{delay frames=\"8\"}}・{{delay frames=\"8\"}}・{{delay frames=\"20\"}}{{fun_0009000C arg=\"\"}}"
  },
  {
    "label": "038",
    "text": "{{fun_0000000C arg=\"\"}}{{fun_0005000C arg=\"\"}}{{fun_0001000C arg=\"\"}}{{anim id=\"21\"}}그렇지!{{delay frames=\"20\"}}\n레벨 업을 위해 분노의 에너지를 쓰는 게\n일종의 공식처럼 되어 있잖아\n{{anim id=\"37\"}}대개는 친구라든지\n가족이 위기에 몰리던데{{delay frames=\"8\"}}・{{delay frames=\"8\"}}・{{delay frames=\"8\"}}・{{delay frames=\"20\"}}{{fun_0009000C arg=\"\"}}"
  },
  {
    "label": "039",
    "text": "{{fun_0000000C arg=\"\"}}{{fun_0007000C arg=\"\"}}{{fun_0002000C arg=\"\"}}{{anim id=\"11\"}}{{delay frames=\"40\"}}가족이라{{delay frames=\"8\"}}・{{delay frames=\"8\"}}・{{delay frames=\"8\"}}・{{delay frames=\"20\"}}{{fun_0009000C arg=\"\"}}"
  },
  {
    "label": "040",
    "text": "{{fun_0000000C arg=\"\"}}{{fun_0005000C arg=\"\"}}{{fun_0001000C arg=\"\"}}친구{{delay frames=\"20\"}}・{{delay frames=\"20\"}}・{{delay frames=\"20\"}}・{{delay frames=\"40\"}}{{anim id=\"22\"}} 앗!{{delay frames=\"60\"}}{{anim id=\"0\"}}{{pageBreak}}{{fun_0002000C arg=\"\"}}{{fun_0003000C arg=\"\"}}{{fun_0001000C arg=\"\"}}{{fun_0004000C arg=\"\"}}{{delay frames=\"20\"}}{{anim id=\"37\"}}야 {{fun_00080005 arg=\"\"}}{{delay frames=\"8\"}}・{{delay frames=\"8\"}}・{{delay frames=\"8\"}}・{{delay frames=\"8\"}}\n혹시 지금 너 위기 아니냐?{{fun_00010008 arg=\"0x290000002B0000002D000000\"}}\n위기야\n전혀 아닌데\n・・・"
  },
  {
    "label": "041",
    "text": "{{fun_0002000C arg=\"\"}}{{fun_0004000C arg=\"\"}}{{fun_0001000C arg=\"\"}}{{delay frames=\"8\"}}{{anim id=\"29\"}}오옷!{{delay frames=\"40\"}}\n여기 있네!{{delay frames=\"20\"}} 위기에 몰린 친구!{{delay frames=\"40\"}}{{anim id=\"0\"}}{{pageBreak}}{{anim id=\"37\"}}뭐{{delay frames=\"8\"}}・{{delay frames=\"8\"}}・{{delay frames=\"8\"}}・{{delay frames=\"8\"}} 딱 봐도 위기에 몰린 것 같은\n그런 몰골이 아닌 게 좀 아쉽긴 하지만!{{delay frames=\"20\"}}\n{{fun_00070005 arg=\"\"}}!{{fun_0009000C arg=\"\"}}"
  },
  {
    "label": "042",
    "text": "{{fun_0000000C arg=\"\"}}{{fun_0007000C arg=\"\"}}{{fun_0002000C arg=\"\"}}{{delay frames=\"8\"}}{{anim id=\"21\"}}맞아 맞아!{{delay frames=\"20\"}}\n친구가 딱 위기에 처했을 때\n짠 하고 나타나서 이렇게 외치는 거지!{{delay frames=\"40\"}}\n{{anim id=\"42\"}}{{delay frames=\"20\"}}{{delay frames=\"8\"}}・{{delay frames=\"8\"}}・{{delay frames=\"8\"}}・{{delay frames=\"20\"}}누가 그랬어ー!!{{pageBreak}}{{anim id=\"5\"}}어때! 죽이지～\n바로 이거라니까! {{delay frames=\"20\"}}{{fun_00070005 arg=\"\"}}!"
  },
  {
    "label": "043",
    "text": "{{fun_0002000C arg=\"\"}}{{fun_0005000C arg=\"\"}}{{fun_0001000C arg=\"\"}}{{delay frames=\"8\"}}{{anim id=\"36\"}}그래{{delay frames=\"8\"}}・{{delay frames=\"8\"}}・{{delay frames=\"8\"}}・{{delay frames=\"8\"}}?{{delay frames=\"20\"}}\n아쉽네～{{delay frames=\"40\"}}{{anim id=\"0\"}}{{pageBreak}}{{fun_0001000C arg=\"\"}}{{fun_0008000C arg=\"\"}}{{delay frames=\"8\"}}{{anim id=\"27\"}}근데 잘 생각해보면 이 마을에서는\n애당초 도움이 필요할 만큼\n위기에 몰릴 일이 없을 것 같아{{fun_0009000C arg=\"\"}}"
  },
  {
    "label": "044",
    "text": "{{fun_0000000C arg=\"\"}}{{fun_0007000C arg=\"\"}}{{fun_0002000C arg=\"\"}}{{anim id=\"21\"}}{{fun_00050005 arg=\"\"}} 마을의 위기라면\n벌이나 함정{{delay frames=\"8\"}}・{{delay frames=\"8\"}}・{{delay frames=\"8\"}}・{{delay frames=\"20\"}}\n{{anim id=\"37\"}}아니면 기껏해야 과식 정도 아닐까?\n{{anim id=\"36\"}}{{delay frames=\"8\"}}필살기 익히고 싶으면{{delay frames=\"8\"}}\n낚시나 곤충채집처럼\n도움이 되는 걸로 해라 그냥!"
  },
  {
    "label": "045",
    "text": "{{fun_0002000C arg=\"\"}}{{fun_0005000C arg=\"\"}}{{fun_0001000C arg=\"\"}}{{anim id=\"9\"}}뭐야{{delay frames=\"8\"}}・{{delay frames=\"8\"}}・{{delay frames=\"8\"}}・{{delay frames=\"20\"}}{{anim id=\"15\"}} 앗!{{delay frames=\"20\"}}\n혹시 너도 필살기의 찬스를\n노리고 있는 거 아냐?\n{{anim id=\"27\"}}이렇다니까ー!{{delay frames=\"20\"}}\n{{fun_00050005 arg=\"\"}} 마을에 이런 녀석밖에 없으니{{delay frames=\"40\"}}\n평화로울 수밖에!{{fun_0009000C arg=\"\"}}"
  },
  {
    "label": "046",
    "text": "{{fun_0000000C arg=\"\"}}{{fun_0007000C arg=\"\"}}{{fun_0001000C arg=\"\"}}{{fun_0007000C arg=\"\"}}{{fun_0002000C arg=\"\"}}{{fun_0004000C arg=\"\"}}{{delay frames=\"20\"}}{{anim id=\"2\"}}앗하하하!\n그럼 이렇게 하면 되겠네!{{delay frames=\"40\"}}{{pageBreak}}{{anim id=\"37\"}}{{fun_00050005 arg=\"\"}} 마을이 위기에 빠지면\n3명이 싸우는 거지!{{pageBreak}}{{anim id=\"35\"}}합체 필살기도 꽤 멋지잖냐{{delay frames=\"8\"}}・{{delay frames=\"8\"}}・{{delay frames=\"8\"}}・{{delay frames=\"8\"}}\n{{delay frames=\"20\"}}{{fun_00070005 arg=\"\"}}"
  },
  {
    "label": "047",
    "text": ""
  },
  {
    "label": "048",
    "text": ""
  },
  {
    "label": "049",
    "text": ""
  },
  {
    "label": "050",
    "text": ""
  }
]