﻿[
  {
    "label": "001",
    "text": "{{anim id=\"32\"}}{{fun_00060007 arg=\"\"}}{{fun_00080005 arg=\"\"}}{{fun_000E000E arg=\"0x060074C724B12100040024B12100\"}}{{fun_00070007 arg=\"\"}}{{delay frames=\"40\"}}\n야, 마침 잘 만났다! {{delay frames=\"20\"}}{{fun_00070005 arg=\"\"}}!"
  },
  {
    "label": "002",
    "text": "{{anim id=\"32\"}}{{fun_00080005 arg=\"\"}}!{{delay frames=\"40\"}}\n하아{{delay frames=\"8\"}}・{{delay frames=\"8\"}}・{{delay frames=\"8\"}}・{{delay frames=\"20\"}} 이제야 찾았네!{{delay frames=\"20\"}}\n{{fun_00070005 arg=\"\"}}!"
  },
  {
    "label": "003",
    "text": "{{anim id=\"32\"}}{{fun_00080005 arg=\"\"}}{{fun_000E000E arg=\"0x080074C796C744C52100060096C744C52100\"}}{{delay frames=\"20\"}}\n마침 잘됐다! {{delay frames=\"20\"}}{{fun_00070005 arg=\"\"}}!"
  }
]