﻿[
  {
    "label": "001",
    "text": "{{anim id=\"38\"}}물건이 많아서 눈이 즐겁다{{delay frames=\"8\"}}・{{delay frames=\"8\"}}・{{delay frames=\"8\"}}・{{delay frames=\"20\"}}\n바로 이 맛에 쇼핑하는 거\n아니겠어! {{delay frames=\"20\"}}{{fun_00070005 arg=\"\"}}!"
  },
  {
    "label": "002",
    "text": "{{anim id=\"21\"}}지난번엔 못 사고 가서\n후회한 게 너무 많아서{{delay frames=\"8\"}}・{{delay frames=\"8\"}}・{{delay frames=\"8\"}}・{{delay frames=\"20\"}}\n{{anim id=\"6\"}}오늘은 적금 깨서 들고 왔다구!"
  },
  {
    "label": "003",
    "text": "{{anim id=\"21\"}}여기 점원들은 꼬맹이들이\n참 일도 잘한단 말야{{delay frames=\"8\"}}・{{delay frames=\"8\"}}・{{delay frames=\"8\"}}・{{delay frames=\"20\"}}\n{{anim id=\"37\"}}좋은 가게 같아! {{delay frames=\"20\"}}암! {{fun_00070005 arg=\"\"}}!"
  },
  {
    "label": "004",
    "text": "{{i10_16 arg=\"6\"}}"
  },
  {
    "label": "005",
    "text": "{{anim id=\"23\"}}이렇게 넓은데\n길 잃어버리는 녀석이\n하나도 없단 말야? {{delay frames=\"20\"}}{{fun_00070005 arg=\"\"}}?"
  },
  {
    "label": "006",
    "text": "{{anim id=\"15\"}}좋아{{delay frames=\"8\"}}・{{delay frames=\"8\"}}・{{delay frames=\"8\"}}・{{delay frames=\"20\"}}\n내 눈에 들 만한 게 있나 어디 보자!{{delay frames=\"20\"}}\n{{fun_00070005 arg=\"\"}}!{{anim id=\"0\"}}"
  },
  {
    "label": "007",
    "text": "{{anim id=\"21\"}}밖은 한여름이라 더위가 한창인데{{delay frames=\"8\"}}・{{delay frames=\"8\"}}・{{delay frames=\"8\"}}・{{delay frames=\"20\"}}\n{{anim id=\"37\"}}여긴 시원한 게 천국이 따로 없네!{{delay frames=\"20\"}}\n{{fun_00070005 arg=\"\"}}!"
  },
  {
    "label": "008",
    "text": "{{anim id=\"21\"}}밖은 한겨울이라 추워 죽겠는데{{delay frames=\"8\"}}・{{delay frames=\"8\"}}・{{delay frames=\"8\"}}・{{delay frames=\"20\"}}\n여긴 따뜻하니 천국이 따로 없네!{{delay frames=\"40\"}}\n{{anim id=\"29\"}}포근!{{delay frames=\"20\"}} {{fun_00070005 arg=\"\"}}!{{delay frames=\"20\"}}{{anim id=\"37\"}}"
  }
]