﻿[
  {
    "label": "001",
    "text": "{{anim id=\"32\"}}유후! {{fun_00080005 arg=\"\"}}!{{delay frames=\"20\"}}\n너 오늘 시간 있지?{{delay frames=\"20\"}}\n{{anim id=\"0\"}}잠깐 나 좀 따라와봐!"
  },
  {
    "label": "002",
    "text": "{{anim id=\"32\"}}앗! {{fun_00080005 arg=\"\"}}!{{delay frames=\"20\"}}\n나 너한테 진짜 중요한 볼일 있거든\n{{anim id=\"0\"}}잠깐 나 좀 따라와봐! {{delay frames=\"20\"}}{{fun_00070005 arg=\"\"}}!"
  },
  {
    "label": "003",
    "text": "{{anim id=\"32\"}}{{fun_00080005 arg=\"\"}}!{{delay frames=\"20\"}}\n마침 잘됐다!{{delay frames=\"20\"}}\n너 나랑 잠깐 어디 좀 가자!"
  },
  {
    "label": "004",
    "text": "{{size value=\"150\"}}{{anim id=\"31\"}}{{size value=\"150\"}}{{delay frames=\"15\"}}{{fun_000B0007 arg=\"\"}}{{fun_0009000D arg=\"\"}}해피{{size value=\"150\"}}～～　{{delay frames=\"20\"}}\n{{size value=\"150\"}}{{fun_000B0007 arg=\"\"}}버{{size value=\"150\"}}～스데이～～!!{{size value=\"100\"}}{{fun_000A000D arg=\"\"}}{{delay frames=\"40\"}}{{anim id=\"37\"}}"
  },
  {
    "label": "005",
    "text": "{{anim id=\"37\"}}{{fun_00080005 arg=\"\"}}{{fun_000E000E arg=\"0x020044C702007CB9\"}} 위해서\n모두 함께 준비한 생일잔치야!\n\n{{anim id=\"15\"}}자! {{delay frames=\"20\"}}오늘의 주인공!{{delay frames=\"20\"}}\n{{anim id=\"37\"}}소원을 빌고\n촛불을 꺼봐! {{delay frames=\"20\"}}{{fun_00070005 arg=\"\"}}!"
  },
  {
    "label": "006",
    "text": "{{anim id=\"37\"}}{{fun_00080005 arg=\"\"}}{{fun_000E000E arg=\"0x020044C702007CB9\"}} 위해서\n우리가 준비 좀 했어!\n\n{{anim id=\"21\"}}올해는 윤년이 아니라\n하루 빠르긴 하지만{{delay frames=\"8\"}}・{{delay frames=\"8\"}}・{{delay frames=\"8\"}}・{{delay frames=\"20\"}}\n아무렴 어때!\n{{anim id=\"37\"}}자! 오늘의 주인공!{{delay frames=\"20\"}}\n어서 소원을 빌고\n케이크의 촛불 좀 꺼봐! {{delay frames=\"20\"}}{{fun_00070005 arg=\"\"}}!"
  },
  {
    "label": "007",
    "text": "{{anim id=\"37\"}}{{fun_00080005 arg=\"\"}}{{fun_000E000E arg=\"0x020044C702007CB9\"}} 위해서\n우리가 준비 좀 해봤어!\n\n{{anim id=\"21\"}}게다가 올해는 윤년이니까{{delay frames=\"20\"}}\n2월 29일이 생일인 너한테는\n놓칠 수 없는 진짜 생일이잖아! \n{{anim id=\"37\"}}자! {{delay frames=\"20\"}}오늘의 주인공!{{delay frames=\"20\"}}\n어서 소원 빌고\n케이크의 촛불 좀 꺼봐! {{delay frames=\"20\"}}{{fun_00070005 arg=\"\"}}!"
  },
  {
    "label": "008",
    "text": "{{anim id=\"15\"}}야! 야! 어디 가!{{delay frames=\"40\"}}\n{{anim id=\"13\"}}얼마나 힘들게 준비했는데\n촛불이라도 끄고 가야지!"
  },
  {
    "label": "009",
    "text": "{{anim id=\"13\"}}{{fun_00080005 arg=\"\"}}～!{{delay frames=\"20\"}}\n기껏 준비했는데\n촛불은 끄고 가야지! {{delay frames=\"20\"}}{{fun_00070005 arg=\"\"}}!"
  },
  {
    "label": "010",
    "text": "{{anim id=\"15\"}}야! 뭐해!{{delay frames=\"40\"}}\n{{anim id=\"13\"}}뭐가 그렇게 바쁜진 모르겠지만\n일단 촛불부터 끄라구!"
  },
  {
    "label": "011",
    "text": "{{anim id=\"29\"}}축하해ー!{{delay frames=\"40\"}}{{anim id=\"37\"}}\n\n\n{{anim id=\"22\"}}대단한데?{{delay frames=\"20\"}}\n한 번에 전부 끄다니\n\n{{anim id=\"37\"}}그럼 이번엔{{delay frames=\"8\"}}・{{delay frames=\"8\"}}・{{delay frames=\"8\"}}・{{delay frames=\"20\"}}\n기다리고 기다리던 선물 타임!\n{{delay frames=\"20\"}}{{fun_00070005 arg=\"\"}}!"
  },
  {
    "label": "012",
    "text": "{{anim id=\"37\"}}우리 셋이 축하의 뜻으로\n한번 준비해봤어!"
  },
  {
    "label": "013",
    "text": "{{anim id=\"37\"}}우리 셋이 머리를 모아서\n니가 좋아할 만한 걸로\n준비해봤어!"
  },
  {
    "label": "014",
    "text": "{{anim id=\"37\"}}오랜 친구인 널 위해서\n실력 좀 발휘했지!{{delay frames=\"20\"}}\n끝내주는 녀석을 준비했어!"
  },
  {
    "label": "015",
    "text": "{{anim id=\"15\"}}앗, 근데{{delay frames=\"8\"}}・{{delay frames=\"8\"}}・{{delay frames=\"8\"}}・{{delay frames=\"8\"}}\n너 뭘 그렇게 많이 갖고 다녀?{{delay frames=\"40\"}}\n{{anim id=\"9\"}}더 안 들어가겠는데?\n{{anim id=\"11\"}}으음{{delay frames=\"8\"}}・{{delay frames=\"8\"}}・{{delay frames=\"8\"}}・{{delay frames=\"8\"}}\n갑자기 데려오긴 했으니까{{delay frames=\"8\"}}・{{delay frames=\"8\"}}・{{delay frames=\"8\"}}・{{fun_00010007 arg=\"\"}}\n{{anim id=\"37\"}}됐어! {{delay frames=\"20\"}}나중에 편지로 보내지 뭐!\n{{anim id=\"5\"}}그냥 오늘은 맘 편하게\n놀다 가! {{delay frames=\"20\"}}{{fun_00070005 arg=\"\"}}!"
  },
  {
    "label": "016",
    "text": "짜자ー안! {{delay frames=\"20\"}}이거야!"
  },
  {
    "label": "017",
    "text": "{{anim id=\"37\"}}뭐{{delay frames=\"8\"}}・{{delay frames=\"8\"}}・{{delay frames=\"8\"}}・{{delay frames=\"8\"}} 내용물은\n집에 가서 천천히 열어봐!\n{{delay frames=\"20\"}}{{fun_00070005 arg=\"\"}}!"
  },
  {
    "label": "018",
    "text": "{{anim id=\"15\"}}앗 {{fun_00080005 arg=\"\"}}!{{delay frames=\"20\"}}\n벌써 가려고?\n\n{{anim id=\"0\"}}오늘은 마음대로 끌고 와서 미안!\n{{delay frames=\"8\"}}・{{delay frames=\"8\"}}・{{delay frames=\"8\"}}・{{delay frames=\"20\"}}{{anim id=\"37\"}}그래도 따라오길 잘했지?{{delay frames=\"20\"}}\n그럼 또 보자! {{delay frames=\"20\"}}{{fun_00070005 arg=\"\"}}!"
  },
  {
    "label": "019",
    "text": "{{anim id=\"5\"}}야아ー!{{delay frames=\"20\"}} 정말 경사스러운 날이지!{{delay frames=\"20\"}}\n나도 모르게 자꾸 덩실덩실\n춤이 춰지네! {{delay frames=\"20\"}}{{fun_00070005 arg=\"\"}}!"
  },
  {
    "label": "020",
    "text": "{{anim id=\"21\"}}오늘로 나이 한 살\n더 먹는구나{{delay frames=\"8\"}}・{{delay frames=\"8\"}}・{{delay frames=\"8\"}}・{{delay frames=\"20\"}}{{anim id=\"37\"}}\n생각해보면 참 대단한 일이란 말야!"
  },
  {
    "label": "021",
    "text": "{{anim id=\"5\"}}생일은 역시 여럿이 모여\n시끌벅적하게 축하해야 제맛이지!\n{{delay frames=\"20\"}}{{fun_00070005 arg=\"\"}}!"
  },
  {
    "label": "022",
    "text": "{{anim id=\"39\"}}후후후{{delay frames=\"8\"}}・{{delay frames=\"8\"}}・{{delay frames=\"8\"}}・{{delay frames=\"20\"}}\n아무튼 올 한 해도 좋은 일만\n가득하길 바라! {{delay frames=\"20\"}}{{fun_00070005 arg=\"\"}}!"
  },
  {
    "label": "023",
    "text": "{{anim id=\"21\"}}역시 생일이란 게 참\n특별하긴 하지 않냐?{{delay frames=\"20\"}}\n{{anim id=\"37\"}}무려 니가 태어난 날이잖아!\n{{anim id=\"5\"}}아무튼 절친의 생일을\n이렇게 축하할 수 있어서\n참 다행이야! {{delay frames=\"20\"}}{{fun_00070005 arg=\"\"}}!"
  },
  {
    "label": "024",
    "text": ""
  },
  {
    "label": "025",
    "text": "{{anim id=\"21\"}}니가 빈 소원이\n「{{fun_00140012 arg=\"\"}}」\n{{delay frames=\"8\"}}・{{delay frames=\"8\"}}・{{delay frames=\"8\"}}・{{delay frames=\"40\"}}{{anim id=\"38\"}}이거 맞지?\n{{anim id=\"5\"}}하루빨리 이루어지도록\n다른 사람들한테도\n널리 알려줄게! {{delay frames=\"20\"}}{{fun_00070005 arg=\"\"}}!"
  },
  {
    "label": "026",
    "text": "{{anim id=\"13\"}}야～ {{fun_00080005 arg=\"\"}}～!{{delay frames=\"20\"}}\n이러다 촛불 다 녹는다?\n빨리 촛불부터 꺼～"
  },
  {
    "label": "027",
    "text": "{{anim id=\"37\"}}한 번에 모두 끄면\n좋은 일 있을걸?!{{delay frames=\"40\"}}\n{{anim id=\"5\"}}인정사정없이 한 번에 꺼봐!"
  },
  {
    "label": "028",
    "text": "{{anim id=\"6\"}}{{fun_00080005 arg=\"\"}}!{{delay frames=\"40\"}}\n{{anim id=\"0\"}}감동은 이제 그만하고\n어서 촛불부터 꺼!"
  },
  {
    "label": "029",
    "text": ""
  },
  {
    "label": "030",
    "text": ""
  },
  {
    "label": "031",
    "text": "{{anim id=\"37\"}}에헤헤 케이크 엄청 크지?{{delay frames=\"20\"}}\n오늘을 위한 특제품이라니까!\n\n{{anim id=\"21\"}}이 케이크를 두고\n소원을 빈 다음 촛불을 끄면\n그렇게 잘 이뤄진다나 뭐라나!\n{{anim id=\"37\"}}자! {{fun_00080005 arg=\"\"}}!{{delay frames=\"20\"}}\n니 소원은 뭐냐?"
  },
  {
    "label": "032",
    "text": "{{anim id=\"15\"}}그냥 넘기는 거야?{{delay frames=\"40\"}}\n{{anim id=\"0\"}}그럼 숨이나 크게 쉬고\n촛불 한번 꺼봐!\n{{anim id=\"37\"}}후～{{delay frames=\"20\"}} 하고!"
  },
  {
    "label": "033",
    "text": "{{anim id=\"0\"}}좋～아!{{delay frames=\"20\"}}\n그럼 숨을 크게 들이쉬었다가\n한번에 촛불을 꺼봐!\n{{anim id=\"37\"}}후～{{delay frames=\"20\"}} 하고!"
  },
  {
    "label": "034",
    "text": "{{anim id=\"15\"}}근데 너{{delay frames=\"8\"}}・{{delay frames=\"8\"}}・{{delay frames=\"8\"}}・{{delay frames=\"8\"}}\n무슨 소원 빌었냐?\n\n{{anim id=\"35\"}}내가 그거 빨리 이뤄지도록\n마을 녀석들한테 소문내줄게{{delay frames=\"8\"}}・{{delay frames=\"8\"}}・{{delay frames=\"8\"}}・{{delay frames=\"20\"}}\n살짝 말해봐{{fun_0005000F arg=\"0x00002800\"}}\n뭐냐면・・・\n비밀이야!"
  },
  {
    "label": "035",
    "text": "{{anim id=\"37\"}}그래?{{delay frames=\"20\"}}\n하긴 뭐{{delay frames=\"8\"}}・{{delay frames=\"8\"}}・{{delay frames=\"8\"}}・{{delay frames=\"8\"}} 말하지 않는 편이\n나을 수도 있지!\n{{anim id=\"5\"}}아무튼 니 소원\n이루어지길 바란다! {{delay frames=\"20\"}}{{fun_00070005 arg=\"\"}}!"
  },
  {
    "label": "036",
    "text": "{{anim id=\"15\"}}호오{{delay frames=\"8\"}}・{{delay frames=\"8\"}}・{{delay frames=\"8\"}}・{{delay frames=\"20\"}}\n「{{fun_00140012 arg=\"\"}}」\n이거냐?\n{{anim id=\"1\"}}좋～아! 나만 믿어!\n모두한테 알려서\n응원해달라고 할게! {{delay frames=\"20\"}}{{fun_00070005 arg=\"\"}}!"
  },
  {
    "label": "037",
    "text": ""
  },
  {
    "label": "038",
    "text": ""
  },
  {
    "label": "039",
    "text": ""
  },
  {
    "label": "040",
    "text": ""
  }
]