﻿[
  {
    "label": "001",
    "text": "{{anim id=\"1\"}}오늘은 낚시대회야!{{delay frames=\"20\"}}\n나 오늘은 말리지 마라!{{fun_00010007 arg=\"\"}}\n{{anim id=\"44\"}}{{delay frames=\"20\"}}다～ 낚아 버릴 테다ー! {{delay frames=\"20\"}}{{fun_00070005 arg=\"\"}}!"
  },
  {
    "label": "002",
    "text": "{{anim id=\"25\"}}후암{{delay frames=\"8\"}}・{{delay frames=\"8\"}}・{{delay frames=\"8\"}}・{{delay frames=\"20\"}} 졸려!{{delay frames=\"40\"}}\n{{anim id=\"9\"}}낚시대회 생각하느라\n한잠도 못 잤더니, {{delay frames=\"20\"}}{{fun_00070005 arg=\"\"}}"
  },
  {
    "label": "003",
    "text": "{{anim id=\"1\"}}곧 시작되겠군! 낚시대회!{{delay frames=\"40\"}}\n\n\n{{anim id=\"21\"}}사실 내가 뭐 낚시를\n특별히 좋아하는 건 아닌데{{delay frames=\"8\"}}・{{delay frames=\"8\"}}・{{delay frames=\"8\"}}・{{delay frames=\"20\"}}\n{{anim id=\"5\"}}이벤트라면 죽고 못 살거든!"
  },
  {
    "label": "004",
    "text": "{{anim id=\"5\"}}아～! {{delay frames=\"20\"}}떨려!{{delay frames=\"40\"}}\n낚시대회 시작할 때까지는\n아무것도 못 하겠네! {{delay frames=\"20\"}}{{fun_00070005 arg=\"\"}}!"
  },
  {
    "label": "005",
    "text": ""
  },
  {
    "label": "006",
    "text": "{{anim id=\"1\"}}좋ー아! 간다!{{delay frames=\"20\"}}\n시작 직후 1시간이\n제일 중요한 법!\n{{anim id=\"36\"}}초반에 안 낚이면\n의욕도 떨어지고 말이지{{delay frames=\"8\"}}・{{delay frames=\"8\"}}・{{delay frames=\"8\"}}・{{delay frames=\"20\"}}\n{{anim id=\"37\"}}서로 잘해보자구! {{delay frames=\"20\"}}{{fun_00070005 arg=\"\"}}!"
  },
  {
    "label": "007",
    "text": "{{anim id=\"21\"}}난 오늘{{delay frames=\"8\"}}・{{delay frames=\"8\"}}・{{delay frames=\"8\"}}・{{delay frames=\"8\"}}\n초반에 몰아치는 작전으로\n가기로 했어!\n{{anim id=\"6\"}}초반에 잘해야\n운도 따를 거 같거든!\n{{delay frames=\"20\"}}{{fun_00070005 arg=\"\"}}!"
  },
  {
    "label": "008",
    "text": "{{anim id=\"21\"}}오늘은 하루 종일\n집중력을 유지해야 하니까{{delay frames=\"8\"}}・{{delay frames=\"8\"}}・{{delay frames=\"8\"}}・{{delay frames=\"20\"}}\n{{anim id=\"9\"}}아! 무슨 이벤트가 이렇게 힘드냐!\n{{anim id=\"27\"}}이 마을 녀석들은 과도하게\n낚시를 좋아하는 경향이 있어{{delay frames=\"8\"}}・{{delay frames=\"8\"}}・{{delay frames=\"8\"}}・{{delay frames=\"20\"}}{{fun_00010007 arg=\"\"}}\n{{anim id=\"37\"}}나도 뭐 남 말할 처지는 아니지만!"
  },
  {
    "label": "009",
    "text": "{{anim id=\"37\"}}어때? 잘 되냐?{{delay frames=\"40\"}}\n{{anim id=\"5\"}}나는{{delay frames=\"8\"}}・{{delay frames=\"8\"}}・{{delay frames=\"8\"}}・{{delay frames=\"20\"}} 감 잡았지!{{delay frames=\"40\"}}\n대어야! 내가 간다ー! {{delay frames=\"20\"}}{{fun_00070005 arg=\"\"}}!"
  },
  {
    "label": "010",
    "text": "{{anim id=\"21\"}}포인트를 찾는 것도 중요하지만{{delay frames=\"8\"}}・{{delay frames=\"8\"}}・{{delay frames=\"8\"}}・{{delay frames=\"20\"}}\n일단 물고기가 보이면\n어느 정도는 버텨야지!\n{{anim id=\"6\"}}낚시는\n물고기와 인내력 대결이라구!\n{{delay frames=\"20\"}}{{fun_00070005 arg=\"\"}}!"
  },
  {
    "label": "011",
    "text": "{{anim id=\"21\"}}내가 노리던 물고기를\n다른 녀석한테 뺏기면{{delay frames=\"8\"}}・{{delay frames=\"8\"}}・{{delay frames=\"8\"}}・{{delay frames=\"20\"}}\n{{anim id=\"6\"}}그야 당연히 짜증 나지!\n{{anim id=\"37\"}}하지만 오늘은 낚시대회니까!{{delay frames=\"40\"}}\n실랑이할 시간에 다른 물고기를\n낚는 게 이득이야!\n{{anim id=\"5\"}}역시 기본은 양보하는 정신이지!\n{{delay frames=\"20\"}}{{fun_00070005 arg=\"\"}}!"
  },
  {
    "label": "012",
    "text": "{{anim id=\"15\"}}응?{{delay frames=\"20\"}}\n어디에 대어가 있냐고?{{delay frames=\"40\"}}\n{{anim id=\"9\"}}그걸 알면 내가 이러고 있겠냐?!\n{{anim id=\"21\"}}바다나 강{{delay frames=\"8\"}}・{{delay frames=\"8\"}}・{{delay frames=\"8\"}}・{{delay frames=\"20\"}}\n자신 있는 곳으로 다니면서\n눈 크게 뜨고 봐 봐! {{delay frames=\"20\"}}{{fun_00070005 arg=\"\"}}!"
  },
  {
    "label": "013",
    "text": "{{anim id=\"15\"}}시간이 얼마 안 남았구만{{delay frames=\"8\"}}・{{delay frames=\"8\"}}・{{delay frames=\"8\"}}・{{delay frames=\"20\"}}\n{{anim id=\"21\"}}하지만 여기서 방심하면 지금까지\n노력한 게 {{delay frames=\"20\"}}헛수고가 되는 수가 있어!\n{{anim id=\"13\"}}끝까지 힘내! {{fun_00010005 arg=\"\"}}!{{delay frames=\"20\"}}\n{{fun_00070005 arg=\"\"}}!"
  },
  {
    "label": "014",
    "text": "{{anim id=\"9\"}}으으{{delay frames=\"8\"}}・{{delay frames=\"8\"}}・{{delay frames=\"8\"}}・{{delay frames=\"20\"}} 이제\n낚싯대 들고 다닐 힘도 없어!{{delay frames=\"40\"}}\n{{anim id=\"23\"}}넌 멀쩡하냐?\n{{anim id=\"37\"}}우리 끝까지 잘해보자!\n{{delay frames=\"20\"}}{{fun_00070005 arg=\"\"}}!\n"
  },
  {
    "label": "015",
    "text": "{{anim id=\"15\"}}낚시대회{{delay frames=\"8\"}}・{{delay frames=\"8\"}}・{{delay frames=\"8\"}}・{{delay frames=\"20\"}}\n끝날 때가 다 됐네!\n\n{{anim id=\"13\"}}큰 녀석으로 1마리만 더\n잡았으면 좋겠는데! {{delay frames=\"20\"}}{{fun_00070005 arg=\"\"}}!"
  },
  {
    "label": "016",
    "text": ""
  },
  {
    "label": "017",
    "text": "{{anim id=\"1\"}}자! {{delay frames=\"8\"}}이제 시상식이다!{{delay frames=\"40\"}}\n어서 텐트로 집합해!\n{{delay frames=\"20\"}}{{fun_00070005 arg=\"\"}}!"
  },
  {
    "label": "018",
    "text": "{{anim id=\"11\"}}나름 잘한 것 같은 기분은 드는데{{delay frames=\"8\"}}・{{delay frames=\"8\"}}・{{delay frames=\"8\"}}・{{delay frames=\"20\"}}\n{{anim id=\"0\"}}결과가 어떠려나?\n\n{{anim id=\"37\"}}시상식이 기대되는데! {{delay frames=\"20\"}}{{fun_00070005 arg=\"\"}}!"
  },
  {
    "label": "019",
    "text": "{{anim id=\"6\"}}오늘의 낚시대회는{{delay frames=\"10\"}}\n날{{delay frames=\"8\"}}・{{delay frames=\"8\"}}・{{delay frames=\"8\"}}・{{delay frames=\"20\"}}\n하얗게 불태운 대회였어!\n{{anim id=\"13\"}}아～!{{delay frames=\"40\"}}\n상 하나 받을 수 있으려나～ {{delay frames=\"20\"}}\n{{fun_00070005 arg=\"\"}}"
  },
  {
    "label": "020",
    "text": ""
  },
  {
    "label": "021",
    "text": ""
  },
  {
    "label": "022",
    "text": "{{anim id=\"38\"}}낚시대회 입상 축하해!\n{{fun_00080005 arg=\"\"}}!{{delay frames=\"20\"}}{{anim id=\"37\"}}\n\n{{anim id=\"21\"}}후반에 나도 꽤\n열심히 했는데{{delay frames=\"8\"}}・{{delay frames=\"8\"}}・{{delay frames=\"8\"}}・{{delay frames=\"20\"}}{{anim id=\"37\"}}\n너한텐 졌다! {{delay frames=\"20\"}}{{fun_00070005 arg=\"\"}}!"
  },
  {
    "label": "023",
    "text": "{{anim id=\"32\"}}유후! {{delay frames=\"20\"}}{{fun_00080005 arg=\"\"}}!{{delay frames=\"20\"}}\n낚시대회 입상 축하한다!\n\n{{anim id=\"21\"}}짜식! 그냥 어슬렁거리고\n다니는 줄 알았더니{{delay frames=\"8\"}}・{{delay frames=\"8\"}}・{{delay frames=\"8\"}}・{{delay frames=\"20\"}}\n{{anim id=\"37\"}}언제 그렇게 잡았냐?{{delay frames=\"20\"}} {{fun_00070005 arg=\"\"}}?"
  },
  {
    "label": "024",
    "text": "{{anim id=\"32\"}}앗!{{delay frames=\"8\"}} {{fun_00080005 arg=\"\"}}!{{delay frames=\"40\"}}\n{{anim id=\"37\"}}시상식 봤어!\n너 대단하던데!{{delay frames=\"20\"}}\n{{anim id=\"21\"}}너 같은 물고기 박사가\n본격적으로 나서니\n내가 낄 자리가 없잖냐{{delay frames=\"8\"}}・{{delay frames=\"8\"}}・{{delay frames=\"8\"}}・{{delay frames=\"20\"}}\n{{anim id=\"38\"}}아무튼 잘했어!{{delay frames=\"20\"}}\n축하해! {{delay frames=\"20\"}}{{fun_00070005 arg=\"\"}}!{{anim id=\"37\"}}"
  },
  {
    "label": "025",
    "text": "{{anim id=\"16\"}}앗! {{fun_00080005 arg=\"\"}}!{{delay frames=\"40\"}}\n{{anim id=\"1\"}}낚시대회 입상 축하해!\n\n{{anim id=\"21\"}}아마추어가 그 정도면\n나쁘지 않지 뭐!{{delay frames=\"20\"}}\n{{anim id=\"37\"}}얼굴 좀 펴라!{{delay frames=\"20\"}} {{fun_00070005 arg=\"\"}}!"
  },
  {
    "label": "026",
    "text": "{{anim id=\"16\"}}앗! {{delay frames=\"20\"}}{{fun_00080005 arg=\"\"}}!{{delay frames=\"40\"}}\n{{anim id=\"37\"}}시상식 수고했어!{{delay frames=\"20\"}}\n\n{{anim id=\"5\"}}헤헤헤{{delay frames=\"8\"}}・{{delay frames=\"8\"}}・{{delay frames=\"8\"}}・{{delay frames=\"20\"}} 내가 이겼네!{{delay frames=\"40\"}}\n내가 낚시대회에서 이 정도\n성과를 올릴 줄이야!{{delay frames=\"40\"}}\n{{anim id=\"37\"}}마지막까지 포기 안 하길\n잘했지! {{delay frames=\"20\"}}{{fun_00070005 arg=\"\"}}!"
  },
  {
    "label": "027",
    "text": "{{anim id=\"32\"}}야호! {{fun_00080005 arg=\"\"}}!{{delay frames=\"20\"}}\n{{anim id=\"37\"}}우리 둘 다 입상해서 다행이네!{{delay frames=\"40\"}}\n\n{{anim id=\"21\"}}열심히 했으니까\n상 하나 받지 않을까\n짐작은 했었는데{{delay frames=\"8\"}}・{{delay frames=\"8\"}}・{{delay frames=\"8\"}}・{{delay frames=\"20\"}}\n{{anim id=\"5\"}}설마 내가 너보다\n좋은 상을 받게 될 줄이야!{{delay frames=\"40\"}}\n나도 놀랐지 뭐냐! {{delay frames=\"20\"}}{{fun_00070005 arg=\"\"}}!{{delay frames=\"40\"}}{{anim id=\"37\"}}"
  },
  {
    "label": "028",
    "text": "{{anim id=\"32\"}}유후ー {{fun_00080005 arg=\"\"}}!{{delay frames=\"20\"}}\n낚시대회 수고 많았다!\n\n{{anim id=\"36\"}}응?{{delay frames=\"20\"}}\n입상을 못 했다고?\n\n{{anim id=\"37\"}}그런 게 무슨 상관이야!{{delay frames=\"20\"}}\n최선을 다했으면 그걸로 된 거지!\n{{delay frames=\"20\"}}{{fun_00070005 arg=\"\"}}!"
  },
  {
    "label": "029",
    "text": "{{anim id=\"32\"}}유후～! {{delay frames=\"8\"}}{{fun_00080005 arg=\"\"}}!{{delay frames=\"20\"}}\n낚시대회 재밌었지?!\n\n{{anim id=\"9\"}}설마 너{{delay frames=\"8\"}}・{{delay frames=\"8\"}}・{{delay frames=\"8\"}}・{{delay frames=\"8\"}}\n입상 못 했다고\n꽁해 있는 거 아니지?\n{{anim id=\"2\"}}그러지 마!{{delay frames=\"20\"}}\n그래 봐야 마을 이벤트인데{{delay frames=\"8\"}}\n재밌으면 되는 거지! {{delay frames=\"20\"}}{{fun_00070005 arg=\"\"}}!{{delay frames=\"40\"}}{{anim id=\"37\"}}"
  },
  {
    "label": "030",
    "text": "{{anim id=\"32\"}}유후ー {{fun_00080005 arg=\"\"}}!{{delay frames=\"40\"}}\n{{anim id=\"37\"}}낚시대회가 끝나 버렸네!{{pageBreak}}{{anim id=\"21\"}}그래도 뭐{{delay frames=\"8\"}}・{{delay frames=\"8\"}}・{{delay frames=\"8\"}}・{{delay frames=\"8\"}}\n너도 노력할 만큼은 한 거 알아!{{pageBreak}}{{delay frames=\"8\"}}・{{delay frames=\"8\"}}・{{delay frames=\"8\"}}・{{anim id=\"37\"}}{{delay frames=\"20\"}}이런 얘긴 그만하고\n{{anim id=\"5\"}}즐겁게 낚시한 것만\n기억하도록 해! {{delay frames=\"20\"}}{{fun_00070005 arg=\"\"}}!"
  },
  {
    "label": "031",
    "text": "{{anim id=\"32\"}}{{fun_00080005 arg=\"\"}}～!{{delay frames=\"40\"}}\n낚시대회 시상식이\n무사히 끝났어\n{{anim id=\"21\"}}시상식도 볼만하던데?\n다음에는 너도\n직접 봐 봐! {{delay frames=\"20\"}}{{anim id=\"37\"}}{{fun_00070005 arg=\"\"}}!"
  },
  {
    "label": "032",
    "text": "{{anim id=\"32\"}}앗! {{delay frames=\"20\"}}{{fun_00080005 arg=\"\"}}!{{delay frames=\"40\"}}\n{{anim id=\"37\"}}낚시대회 시상식{{delay frames=\"8\"}}・{{delay frames=\"8\"}}・{{delay frames=\"8\"}}・{{delay frames=\"8\"}}\n꽤 재밌었는데!\n{{anim id=\"5\"}}다음에는 너도 같이 보자!\n{{delay frames=\"20\"}}{{fun_00070005 arg=\"\"}}!"
  },
  {
    "label": "033",
    "text": "{{anim id=\"10\"}}아ー 피곤해{{delay frames=\"8\"}}・{{delay frames=\"8\"}}・{{delay frames=\"8\"}}・{{delay frames=\"40\"}}\n오늘 낚시대회에서\n너무 무리했나\n{{anim id=\"37\"}}덕분에 오늘밤은\n곯아떨어지게 생겼네! {{delay frames=\"20\"}}{{fun_00070005 arg=\"\"}}!"
  },
  {
    "label": "034",
    "text": "{{anim id=\"10\"}}아ー 배고파{{delay frames=\"8\"}}・{{delay frames=\"8\"}}・{{delay frames=\"8\"}}・{{delay frames=\"40\"}}\n낚시대회 때문에\n너무 무리했나?\n{{anim id=\"37\"}}너무 배가 고파서\n돌도 씹어 먹을 지경이야! {{delay frames=\"20\"}}\n{{fun_00070005 arg=\"\"}}!"
  },
  {
    "label": "035",
    "text": ""
  },
  {
    "label": "036",
    "text": ""
  },
  {
    "label": "037",
    "text": ""
  },
  {
    "label": "038",
    "text": ""
  },
  {
    "label": "039",
    "text": ""
  },
  {
    "label": "040",
    "text": "{{anim id=\"15\"}}너도 들었냐?{{delay frames=\"20\"}}\n낚시대회 시상식이{{delay frames=\"40\"}}\n중지됐다는데?\n{{anim id=\"10\"}}하아{{delay frames=\"8\"}}・{{delay frames=\"8\"}}・{{delay frames=\"8\"}}・{{delay frames=\"20\"}}\n살짝 기대했는데 실망!{{delay frames=\"20\"}}\n{{fun_00070005 arg=\"\"}}!"
  },
  {
    "label": "041",
    "text": "{{anim id=\"9\"}}시상식 중지됐나 보네\n{{delay frames=\"8\"}}・{{delay frames=\"8\"}}・{{delay frames=\"8\"}}・{{delay frames=\"20\"}}{{anim id=\"21\"}}대회 진행이 너무\n부실한 거 아냐? {{delay frames=\"20\"}}{{fun_00070005 arg=\"\"}}?"
  },
  {
    "label": "042",
    "text": ""
  },
  {
    "label": "043",
    "text": "낚싯대를 너무 오래 들고 있었더니\n팔이 빠질 지경이야{{delay frames=\"8\"}}・{{delay frames=\"8\"}}・{{delay frames=\"8\"}}・{{delay frames=\"20\"}} {{fun_00070005 arg=\"\"}}"
  },
  {
    "label": "044",
    "text": "이렇게 낚싯대를 드리워서{{delay frames=\"8\"}}・{{delay frames=\"8\"}}・{{delay frames=\"8\"}}・{{delay frames=\"20\"}}\n물고기와의 간격을 재는 거야! {{delay frames=\"20\"}}\n{{fun_00070005 arg=\"\"}}!"
  }
]