﻿[
  {
    "label": "001",
    "text": "{{anim id=\"23\"}}어? {{delay frames=\"40\"}}아까 서명했는데?!{{delay frames=\"40\"}}\n{{anim id=\"2\"}}아하핫! 너 정신없구나?{{delay frames=\"20\"}}\n진정해 진정! {{delay frames=\"20\"}}{{fun_00070005 arg=\"\"}}!{{delay frames=\"40\"}}{{anim id=\"37\"}}"
  },
  {
    "label": "002",
    "text": "{{anim id=\"15\"}}뭐야! {{delay frames=\"20\"}}\n난 아까 서명했잖아!{{delay frames=\"40\"}}\n{{anim id=\"0\"}}다른 녀석 찾아봐! {{delay frames=\"20\"}}{{fun_00070005 arg=\"\"}}!"
  },
  {
    "label": "003",
    "text": "{{anim id=\"15\"}}엉?{{delay frames=\"20\"}}\n아까 서명했는데{{delay frames=\"8\"}}・{{delay frames=\"8\"}}・{{delay frames=\"8\"}}・{{delay frames=\"20\"}}\n{{anim id=\"0\"}}다른 녀석한테 물어보지그래?"
  },
  {
    "label": "004",
    "text": "{{anim id=\"15\"}}{{fun_00010012 arg=\"\"}}{{delay frames=\"8\"}}・{{delay frames=\"8\"}}・{{delay frames=\"8\"}}・{{delay frames=\"20\"}}\n{{anim id=\"27\"}}안타깝지만 난 별로 안 땡기네{{pageBreak}}{{anim id=\"21\"}}일부러 와줬는데 미안{{delay frames=\"8\"}}・{{delay frames=\"8\"}}・{{delay frames=\"8\"}}・{{delay frames=\"20\"}}{{anim id=\"37\"}}\n다른 데 알아봐라!\n{{delay frames=\"20\"}}{{fun_00070005 arg=\"\"}}!"
  },
  {
    "label": "005",
    "text": "{{anim id=\"15\"}}엇!{{delay frames=\"8\"}}\n{{fun_00010012 arg=\"\"}}?{{pageBreak}}{{delay frames=\"8\"}}・{{delay frames=\"8\"}}・{{delay frames=\"8\"}}・{{delay frames=\"20\"}}{{anim id=\"0\"}}미안하지만 난 패스다!{{delay frames=\"40\"}}\n{{anim id=\"37\"}}다른 데 가서 알아봐!\n{{delay frames=\"20\"}}{{fun_00070005 arg=\"\"}}!"
  },
  {
    "label": "006",
    "text": "{{anim id=\"15\"}}{{fun_00010012 arg=\"\"}}?{{delay frames=\"40\"}}\n{{anim id=\"9\"}}난 좀 별로인 거 같은데{{delay frames=\"8\"}}・{{delay frames=\"8\"}}・{{delay frames=\"8\"}}・{{delay frames=\"8\"}}{{pageBreak}}{{anim id=\"21\"}}여기까지 와줬는데 미안하지만{{delay frames=\"8\"}}\n다른 녀석 찾아봐!\n{{delay frames=\"20\"}}{{fun_00070005 arg=\"\"}}!"
  },
  {
    "label": "007",
    "text": "{{anim id=\"21\"}}흐음{{delay frames=\"8\"}}・{{delay frames=\"8\"}}・{{delay frames=\"8\"}}・{{delay frames=\"20\"}}\n{{fun_00010012 arg=\"\"}}?{{pageBreak}}{{anim id=\"38\"}}좋은 생각이네!{{delay frames=\"20\"}}\n기꺼이 서명하지!{{delay frames=\"40\"}}{{anim id=\"37\"}}"
  },
  {
    "label": "008",
    "text": "으음{{delay frames=\"8\"}}・{{delay frames=\"8\"}}・{{delay frames=\"8\"}}・{{delay frames=\"20\"}}\n{{anim id=\"23\"}}{{fun_00010012 arg=\"\"}}?{{pageBreak}}{{anim id=\"38\"}}재미있는데?!{{delay frames=\"40\"}}\n{{anim id=\"0\"}}까짓거, 서명해주지 뭐!"
  },
  {
    "label": "009",
    "text": "{{anim id=\"15\"}}앗!{{delay frames=\"20\"}}\n{{fun_00010012 arg=\"\"}}?{{delay frames=\"40\"}}\n{{anim id=\"0\"}}서명 운동이라는 게 이거였구만?!\n{{anim id=\"21\"}}알아 알아!{{delay frames=\"40\"}}\n까짓거, 나도 참가할게!\n"
  },
  {
    "label": "010",
    "text": "{{anim id=\"37\"}}자, 여기!{{delay frames=\"20\"}}{{pageBreak}}{{anim id=\"21\"}}다른 마을에서 여기까지 오다니{{delay frames=\"8\"}}\n열성이 대단한데!{{pageBreak}}{{anim id=\"37\"}}응원할 테니까\n힘내! {{delay frames=\"20\"}}{{fun_00070005 arg=\"\"}}!"
  },
  {
    "label": "011",
    "text": "{{delay frames=\"8\"}}・{{delay frames=\"8\"}}・{{delay frames=\"8\"}}・{{delay frames=\"20\"}}자, {{delay frames=\"8\"}}됐지?!{{pageBreak}}{{anim id=\"21\"}}다른 마을까지 받으러 오다니{{delay frames=\"8\"}}\n열의가 대단한데{{delay frames=\"8\"}}・{{delay frames=\"8\"}}・{{delay frames=\"8\"}}・{{delay frames=\"20\"}}\n{{anim id=\"37\"}}좋아! 그 자세 맘에 든다\n{{anim id=\"5\"}}나도 응원할 테니\n열심히 해봐!{{delay frames=\"20\"}} {{fun_00070005 arg=\"\"}}!"
  },
  {
    "label": "012",
    "text": "{{delay frames=\"8\"}}・{{delay frames=\"8\"}}・{{delay frames=\"8\"}}・{{delay frames=\"20\"}}{{anim id=\"37\"}}자, {{delay frames=\"8\"}}됐지?{{pageBreak}}{{anim id=\"0\"}}아직 더 받아야겠네?{{delay frames=\"20\"}}\n{{anim id=\"21\"}}{{fun_00050005 arg=\"\"}} 마을 촌구석까지 와서\n고생이 많다{{delay frames=\"8\"}}・{{delay frames=\"8\"}}・{{delay frames=\"8\"}}・{{delay frames=\"20\"}}\n{{anim id=\"37\"}}응원할 테니까\n힘내! {{delay frames=\"20\"}}{{fun_00070005 arg=\"\"}}!"
  },
  {
    "label": "013",
    "text": "{{anim id=\"37\"}}자, 여기{{delay frames=\"8\"}}・{{delay frames=\"8\"}}・{{delay frames=\"8\"}}・{{delay frames=\"20\"}}\n{{anim id=\"22\"}}오! {{delay frames=\"20\"}}목표 개수 다 채웠잖아?!{{pageBreak}}{{anim id=\"29\"}}축하 축하～!{{delay frames=\"20\"}}\n여기까지 온 보람이 있구만!\n{{delay frames=\"20\"}}{{fun_00070005 arg=\"\"}}!{{delay frames=\"40\"}}{{anim id=\"37\"}}"
  },
  {
    "label": "014",
    "text": "{{delay frames=\"8\"}}・{{delay frames=\"8\"}}・{{delay frames=\"8\"}}・{{delay frames=\"20\"}}이거면 {{delay frames=\"8\"}}됐지?{{pageBreak}}{{anim id=\"16\"}}앗! {{delay frames=\"10\"}}서명용지{{delay frames=\"8\"}}・{{delay frames=\"8\"}}・{{delay frames=\"8\"}}・{{delay frames=\"20\"}}\n다 채워진 것 같은데?{{delay frames=\"10\"}}{{pageBreak}}{{anim id=\"29\"}}해냈네!{{delay frames=\"20\"}}\n멀리 온 보람이 있잖아!\n{{delay frames=\"20\"}}{{fun_00070005 arg=\"\"}}!{{delay frames=\"40\"}}{{anim id=\"37\"}}"
  },
  {
    "label": "015",
    "text": "{{delay frames=\"8\"}}・{{delay frames=\"8\"}}・{{delay frames=\"8\"}}・{{delay frames=\"20\"}}{{anim id=\"37\"}}자, {{delay frames=\"8\"}}됐지?{{pageBreak}}{{anim id=\"16\"}}앗! {{delay frames=\"20\"}}서명용지\n다 찬 거 같은데?{{pageBreak}}{{anim id=\"29\"}}축하해!{{delay frames=\"20\"}}\n당당하게 마을로 돌아갈 수 있겠는데!{{delay frames=\"20\"}}\n{{fun_00070005 arg=\"\"}}!{{delay frames=\"40\"}}{{anim id=\"37\"}}"
  }
]