﻿[
  {
    "label": "001",
    "text": "{{anim id=\"15\"}}{{fun_00010011 arg=\"0x0000\"}}{{fun_000E000E arg=\"0x040074C77CB702007CB7\"}}니까!?{{delay frames=\"40\"}}\n{{delay frames=\"8\"}}・{{delay frames=\"8\"}}・{{delay frames=\"8\"}}・{{delay frames=\"20\"}}{{anim id=\"37\"}}부탁 좀 하자! {{delay frames=\"20\"}}{{fun_00070005 arg=\"\"}}!"
  },
  {
    "label": "002",
    "text": "{{anim id=\"37\"}}{{fun_00010011 arg=\"0x0000\"}}한테 갖다줘!{{delay frames=\"40\"}}\n{{anim id=\"21\"}}내 마음이니까{{delay frames=\"8\"}}・{{delay frames=\"8\"}}・{{delay frames=\"8\"}}・{{delay frames=\"20\"}}\n잘 좀 전해줘! {{delay frames=\"20\"}}{{fun_00070005 arg=\"\"}}!"
  },
  {
    "label": "003",
    "text": "{{anim id=\"21\"}}{{fun_00010011 arg=\"0x0000\"}}한테\n주기로 한 거 잊지 않았지?{{delay frames=\"40\"}}\n{{anim id=\"37\"}}잘 부탁해! {{delay frames=\"20\"}}{{fun_00070005 arg=\"\"}}!"
  },
  {
    "label": "004",
    "text": "{{anim id=\"37\"}}그래! {{fun_00010011 arg=\"0x0000\"}} 맞아!{{delay frames=\"40\"}}\n{{anim id=\"0\"}}뭐라고 한마디 해줘!{{delay frames=\"20\"}}\n{{fun_00070005 arg=\"\"}}!"
  },
  {
    "label": "005",
    "text": "{{anim id=\"21\"}}아～ {{delay frames=\"20\"}}그거\n{{fun_00010011 arg=\"0x0000\"}}한테 주면 돼!{{delay frames=\"40\"}}\n{{anim id=\"37\"}}부탁할게! {{delay frames=\"20\"}}{{fun_00070005 arg=\"\"}}!"
  },
  {
    "label": "006",
    "text": "{{anim id=\"21\"}}{{fun_00010011 arg=\"0x0000\"}}한테 전해줘!{{delay frames=\"40\"}}\n{{anim id=\"37\"}}내가 주는 거라고 하면\n금방 알 거야! {{delay frames=\"20\"}}{{fun_00070005 arg=\"\"}}!"
  }
]