﻿[
  {
    "label": "001",
    "text": "{{anim id=\"23\"}}어라아?{{delay frames=\"20\"}}\n혹시{{delay frames=\"8\"}}\n나한테 볼일 있어～?"
  },
  {
    "label": "002",
    "text": "{{anim id=\"0\"}}어어～{{delay frames=\"20\"}}\n{{anim id=\"23\"}}나한테 할 말 있어～?"
  },
  {
    "label": "003",
    "text": "{{anim id=\"23\"}}혹시{{delay frames=\"20\"}}\n나한테 용건이라도～?"
  }
]