﻿[
  {
    "label": "001",
    "text": "{{fun_0001000C arg=\"\"}}{{fun_0004000C arg=\"\"}}{{fun_0002000C arg=\"\"}}{{fun_0006000C arg=\"\"}}와아～{{delay frames=\"20\"}}\n{{anim id=\"1\"}}{{fun_00080005 arg=\"\"}}{{fun_000E000E arg=\"0x020044C502007CC5\"}}\n어서 와아, {{delay frames=\"8\"}}{{fun_00070005 arg=\"\"}}{{fun_0009000C arg=\"\"}}"
  },
  {
    "label": "002",
    "text": "{{fun_0001000C arg=\"\"}}{{fun_0004000C arg=\"\"}}{{fun_0002000C arg=\"\"}}{{fun_0006000C arg=\"\"}}앗, {{fun_00080005 arg=\"\"}}{{fun_000E000E arg=\"0x020044C502007CC5\"}}{{delay frames=\"20\"}}\n드디어 돌아왔구나아～{{fun_0009000C arg=\"\"}}"
  },
  {
    "label": "003",
    "text": "{{fun_0001000C arg=\"\"}}{{fun_0004000C arg=\"\"}}{{fun_0002000C arg=\"\"}}{{fun_0006000C arg=\"\"}}{{fun_00080005 arg=\"\"}}{{fun_000E000E arg=\"0x020044C502007CC5\"}}, 어서 와아～!{{delay frames=\"20\"}}\n수고 많았어, {{delay frames=\"8\"}}{{fun_00070005 arg=\"\"}}{{fun_0009000C arg=\"\"}}"
  },
  {
    "label": "004",
    "text": "{{fun_0001000C arg=\"\"}}{{fun_0004000C arg=\"\"}}{{fun_0002000C arg=\"\"}}{{fun_0006000C arg=\"\"}}왜 이렇게 늦게 온 거야아～{{delay frames=\"20\"}}\n나랑 한 약속 까먹고\n둘이서만 어디 놀러 간 줄 알았어{{delay frames=\"8\"}}・{{delay frames=\"8\"}}・{{delay frames=\"8\"}}・{{fun_0009000C arg=\"\"}}"
  },
  {
    "label": "005",
    "text": "{{fun_0000000C arg=\"\"}}{{fun_0007000C arg=\"\"}}{{fun_0002000C arg=\"\"}}{{fun_0005000C arg=\"\"}}{{fun_0001000C arg=\"\"}}{{fun_0008000C arg=\"\"}}{{anim id=\"32\"}}여어ー!{{delay frames=\"20\"}}\n무슨 일로\n날 부른 거야? {{fun_00010011 arg=\"0x0000\"}}!{{fun_0009000C arg=\"\"}}"
  },
  {
    "label": "006",
    "text": "{{fun_0000000C arg=\"\"}}{{fun_0007000C arg=\"\"}}{{fun_0002000C arg=\"\"}}{{fun_0005000C arg=\"\"}}{{fun_0001000C arg=\"\"}}{{fun_0008000C arg=\"\"}}여어ー {{fun_00010011 arg=\"0x0000\"}}{{fun_000E000E arg=\"0x020044C502007CC5\"}}!{{delay frames=\"20\"}}\n날 여기까지 불러내고{{delay frames=\"8\"}}\n무슨 일이야?!{{fun_0009000C arg=\"\"}}"
  },
  {
    "label": "007",
    "text": "{{fun_0000000C arg=\"\"}}{{fun_0007000C arg=\"\"}}{{fun_0002000C arg=\"\"}}{{fun_0005000C arg=\"\"}}{{fun_0001000C arg=\"\"}}{{fun_0008000C arg=\"\"}}어ー이!{{delay frames=\"20\"}} {{fun_00010011 arg=\"0x0000\"}}!{{delay frames=\"20\"}}\n나한테 무슨 볼일이냐?{{fun_0009000C arg=\"\"}}"
  },
  {
    "label": "008",
    "text": ""
  },
  {
    "label": "009",
    "text": "{{fun_0000000C arg=\"\"}}{{fun_0005000C arg=\"\"}}음, 그게 {{delay frames=\"20\"}}{{anim id=\"1\"}}{{fun_00010011 arg=\"0x0100\"}}한테 빌렸던\n{{fun_00030011 arg=\"0x0000\"}} 말야!{{delay frames=\"20\"}}\n이제 돌려주려구우～{{pageBreak}}{{anim id=\"9\"}}근데 땀 냄새가 좀\n배어 버렸어{{delay frames=\"8\"}}・{{delay frames=\"8\"}}・{{delay frames=\"8\"}}・\n미안～ {{delay frames=\"8\"}}{{fun_00070005 arg=\"\"}}{{fun_0009000C arg=\"\"}}"
  },
  {
    "label": "010",
    "text": "{{fun_0000000C arg=\"\"}}{{fun_0007000C arg=\"\"}}{{anim id=\"23\"}}어?{{delay frames=\"20\"}} 이제 필요 없냐?{{delay frames=\"40\"}}\n{{anim id=\"1\"}}난 아무 때나 돌려줘도\n상관없는데!{{pageBreak}}{{anim id=\"2\"}}아참, {{delay frames=\"20\"}}땀 냄새는\n내꺼니까\n신경 쓰지 마라ー {{delay frames=\"8\"}}{{fun_00070005 arg=\"\"}}{{delay frames=\"40\"}}{{anim id=\"1\"}}"
  },
  {
    "label": "011",
    "text": "{{fun_0000000C arg=\"\"}}{{fun_0005000C arg=\"\"}}{{fun_00010011 arg=\"0x0100\"}}{{fun_000E000E arg=\"0x020074C7020000AC\"}}\n부탁한 대로{{delay frames=\"20\"}}\n이거 사 뒀어～{{pageBreak}}{{anim id=\"1\"}}내가 제대로 산 거 맞나\n한번 확인해봐아, {{delay frames=\"8\"}}{{fun_00070005 arg=\"\"}}{{fun_0009000C arg=\"\"}}"
  },
  {
    "label": "012",
    "text": "{{fun_0000000C arg=\"\"}}{{fun_0007000C arg=\"\"}}{{delay frames=\"8\"}}・{{delay frames=\"8\"}}・{{delay frames=\"8\"}}・{{delay frames=\"20\"}}{{anim id=\"23\"}}{{fun_00030011 arg=\"0x0000\"}}?{{delay frames=\"20\"}}\n내가 이런 걸\n부탁했었나?{{pageBreak}}{{anim id=\"2\"}}뭐, 일부러 사 온 거니까\n잘 받을게!{{delay frames=\"20\"}}\n하하!{{delay frames=\"40\"}}{{anim id=\"1\"}}"
  },
  {
    "label": "013",
    "text": "{{fun_0000000C arg=\"\"}}{{fun_0005000C arg=\"\"}}사실은{{delay frames=\"20\"}} 우리 집 근처에\n이게 떨어져 있었는데,{{delay frames=\"20\"}}\n혹시 너꺼 아니야아～?{{fun_0009000C arg=\"\"}}"
  },
  {
    "label": "014",
    "text": "{{fun_0000000C arg=\"\"}}{{fun_0007000C arg=\"\"}}{{anim id=\"16\"}}{{fun_000B0007 arg=\"\"}}오ー!{{delay frames=\"40\"}}\n이건\n내 {{fun_00030011 arg=\"0x0000\"}}!{{pageBreak}}{{anim id=\"1\"}}조깅하다가 \n떨어뜨렸나보다{{delay frames=\"20\"}}\n고마워, {{fun_00010011 arg=\"0x0000\"}}{{fun_000E000E arg=\"0x020044C502007CC5\"}}"
  },
  {
    "label": "015",
    "text": "{{fun_0000000C arg=\"\"}}{{fun_0005000C arg=\"\"}}{{anim id=\"11\"}}사실은 {{fun_00010011 arg=\"0x0100\"}}{{fun_000E000E arg=\"0x020074C7020000AC\"}} \n부탁했던{{delay frames=\"20\"}} {{fun_00110005 arg=\"0x0000\"}} 시합\n녹화 말인데에{{delay frames=\"8\"}}・{{delay frames=\"8\"}}・{{delay frames=\"8\"}}・{{pageBreak}}{{anim id=\"41\"}}실수로 {{delay frames=\"20\"}}요리 방송을\n녹화해 버렸어, {{delay frames=\"8\"}}{{fun_00070005 arg=\"\"}}{{pageBreak}}{{anim id=\"3\"}}그치만 {{delay frames=\"20\"}}거기 나온 요리들\n진짜 다 맛있어 보였어～{{fun_0009000C arg=\"\"}}"
  },
  {
    "label": "016",
    "text": "{{fun_0000000C arg=\"\"}}{{fun_0007000C arg=\"\"}}{{anim id=\"18\"}}{{fun_000B0007 arg=\"\"}}뭐라고?!{{delay frames=\"20\"}}\n{{fun_00110005 arg=\"0x0000\"}} 시합이 아니고\n요리 방송?!{{pageBreak}}{{anim id=\"12\"}}내가{{delay frames=\"20\"}} 그 시합을\n얼마나 기대하고 있었는데ー{{pageBreak}}하아{{delay frames=\"8\"}}・{{delay frames=\"8\"}}・{{delay frames=\"8\"}}・{{delay frames=\"20\"}} 다음부턴 그냥 \n내가 직접 녹화할게, {{delay frames=\"8\"}}{{fun_00070005 arg=\"\"}}"
  },
  {
    "label": "017",
    "text": "{{fun_0000000C arg=\"\"}}{{fun_0005000C arg=\"\"}}{{anim id=\"33\"}}사실은 나 말야\n요즘에 스포츠의 매력에 눈떴어～{{pageBreak}}그래서 {{fun_00010011 arg=\"0x0100\"}}한테\n이것저것 이야기 좀 들어볼까 해서어!{{pageBreak}}{{anim id=\"1\"}}스포츠맨의 입장에서\n얘기 좀 해줘어, {{delay frames=\"8\"}}{{fun_00070005 arg=\"\"}}!{{fun_0009000C arg=\"\"}}"
  },
  {
    "label": "018",
    "text": "{{fun_0000000C arg=\"\"}}{{fun_0007000C arg=\"\"}}정말 스포츠의 매력에 눈을 떴다면{{delay frames=\"20\"}}\n{{anim id=\"7\"}}날 부르러 오는 것 정도는 \n니가 직접 해ー!{{pageBreak}}{{anim id=\"27\"}}결과적으로{{delay frames=\"20\"}}\n운동한 건 {{fun_00080005 arg=\"\"}}{{fun_000E000E arg=\"0x020074C70000\"}}라구ー{{delay frames=\"20\"}}"
  },
  {
    "label": "019",
    "text": ""
  },
  {
    "label": "020",
    "text": "{{anim id=\"38\"}}그럼, {{delay frames=\"20\"}}볼일도 다 봤으니\n난 돌아가련다ー!{{pageBreak}}{{anim id=\"33\"}}물론!{{delay frames=\"20\"}}\n전속력으로 갈 거야! {{delay frames=\"8\"}}{{fun_00070005 arg=\"\"}}!"
  },
  {
    "label": "021",
    "text": "{{anim id=\"1\"}}그럼{{delay frames=\"20\"}}\n난 슬슬 돌아갈게{{anim id=\"0\"}}{{pageBreak}}{{fun_0002000C arg=\"\"}}{{fun_0004000C arg=\"\"}}다음에 보자!{{delay frames=\"20\"}} {{fun_00080005 arg=\"\"}}{{fun_000E000E arg=\"0x020044C502007CC5\"}}!{{delay frames=\"20\"}}\n{{anim id=\"1\"}}일부러 알려주러 와줘서\n고마웠어, {{delay frames=\"8\"}}{{fun_00070005 arg=\"\"}}"
  },
  {
    "label": "022",
    "text": "{{anim id=\"15\"}}{{fun_000A0007 arg=\"\"}}오!{{delay frames=\"20\"}}\n시간이 벌써 이렇게 되다니!{{pageBreak}}{{anim id=\"1\"}}다음은 복근 운동 100회씩 5세트다!{{delay frames=\"40\"}}\n얼른 돌아가야지, {{delay frames=\"8\"}}{{fun_00070005 arg=\"\"}}"
  },
  {
    "label": "023",
    "text": ""
  }
]