﻿[
  {
    "label": "001",
    "text": ""
  },
  {
    "label": "002",
    "text": "{{fun_001F000A arg=\"0x03070007000500050005000500050005000500090009000C00CD\"}}"
  },
  {
    "label": "003",
    "text": "{{fun_001F000A arg=\"0x030700070006000600060006000600060006000A000A000D00CD\"}}"
  },
  {
    "label": "004",
    "text": ""
  },
  {
    "label": "005",
    "text": "{{fun_00000009 arg=\"0x15001600\"}}"
  },
  {
    "label": "006",
    "text": "{{fun_00000009 arg=\"0x17001800\"}}"
  },
  {
    "label": "007",
    "text": "{{fun_00020009 arg=\"0x0E000F0013001400\"}}"
  },
  {
    "label": "008",
    "text": ""
  },
  {
    "label": "009",
    "text": "{{fun_00010009 arg=\"0x100015001600\"}}"
  },
  {
    "label": "010",
    "text": "{{fun_00010009 arg=\"0x100017001800\"}}"
  },
  {
    "label": "011",
    "text": ""
  },
  {
    "label": "012",
    "text": "{{fun_00020009 arg=\"0x1000110015001600\"}}"
  },
  {
    "label": "013",
    "text": "{{fun_00020009 arg=\"0x1000110017001800\"}}"
  },
  {
    "label": "014",
    "text": "아직 전시된 작품 수는 적지만{{delay frames=\"20\"}}\n이 조용한 분위기가{{delay frames=\"8\"}}・{{delay frames=\"8\"}}・{{delay frames=\"8\"}}・{{delay frames=\"40\"}}\n{{anim id=\"25\"}}낮잠 자기에는 딱이야아, {{delay frames=\"8\"}}{{fun_00070005 arg=\"\"}}"
  },
  {
    "label": "015",
    "text": "{{anim id=\"19\"}}여기{{delay frames=\"8\"}}・{{delay frames=\"8\"}}・{{delay frames=\"8\"}}・{{delay frames=\"20\"}}\n아직 너무 허전하네에, {{delay frames=\"8\"}}{{fun_00070005 arg=\"\"}}{{pageBreak}}{{anim id=\"35\"}}이대로 두면 좀 허전하니까{{delay frames=\"20\"}}\n내 작품을 전시해볼까아～?"
  },
  {
    "label": "016",
    "text": "{{anim id=\"3\"}}이렇게 많～은 작품이\n모여 있다니 {{delay frames=\"8\"}}대단하다아!{{pageBreak}}여기에 있는 컬렉션은{{delay frames=\"8\"}}\n{{fun_00050005 arg=\"\"}} 마을의 자랑이야아～!"
  },
  {
    "label": "017",
    "text": "{{anim id=\"5\"}}대단해～!{{delay frames=\"20\"}}\n정말 완벽한\n컬렉션이야아～{{pageBreak}}이걸 모아준 애한테\n감사해야겠다아!"
  },
  {
    "label": "018",
    "text": ""
  },
  {
    "label": "019",
    "text": "내가 그린 그림을\n걸어달라고 했는데에{{pageBreak}}{{anim id=\"10\"}}아까 {{color id=\"4\"}}부엉 {{color id=\"65535\"}}아저씨가\n거절했어{{delay frames=\"8\"}}・{{delay frames=\"8\"}}・{{delay frames=\"8\"}}・ {{delay frames=\"8\"}}{{fun_00070005 arg=\"\"}}"
  },
  {
    "label": "020",
    "text": "난 {{delay frames=\"20\"}}이렇게 깨끗한\n장소에 있으면\n{{anim id=\"13\"}}진정이 안 되더라아～ {{delay frames=\"8\"}}{{fun_00070005 arg=\"\"}}"
  },
  {
    "label": "021",
    "text": "여기에 걸려 있다는 건\n분명 대단한 그림이라는 소리겠지이?{{fun_00010007 arg=\"\"}}\n{{anim id=\"3\"}}감동이 밀려온다아!"
  },
  {
    "label": "022",
    "text": "{{anim id=\"15\"}}우와～{{delay frames=\"20\"}}\n진짜 잘 그렸네에～!{{delay frames=\"40\"}}\n너가 그렸어～?{{pageBreak}}{{anim id=\"0\"}}{{delay frames=\"8\"}}・{{delay frames=\"8\"}}・{{delay frames=\"8\"}}・{{delay frames=\"8\"}}{{anim id=\"13\"}}아!\n아니구나아, {{delay frames=\"8\"}}{{fun_00070005 arg=\"\"}}"
  },
  {
    "label": "023",
    "text": "{{anim id=\"1\"}}우리 마을의 컬렉션을{{delay frames=\"20\"}}\n천천히 구경하도록 해～!"
  },
  {
    "label": "024",
    "text": "다른 마을까지 보러 오다니{{delay frames=\"20\"}}\n{{anim id=\"35\"}}너도 꽤나\n아트 마니아구나아, {{delay frames=\"8\"}}{{fun_00070005 arg=\"\"}}"
  }
]