﻿[
  {
    "label": "001",
    "text": "{{anim id=\"1\"}}여어!{{delay frames=\"20\"}}\n{{anim id=\"0\"}}당신도 이 마을에 놀러 왔나요?"
  },
  {
    "label": "002",
    "text": "{{i10_7 arg=\"0x0C000C000B000B000C000C00\"}}"
  },
  {
    "label": "003",
    "text": "{{i10_7 arg=\"0x0C000C000B000B000C000C00\"}}"
  },
  {
    "label": "004",
    "text": ""
  },
  {
    "label": "005",
    "text": ""
  },
  {
    "label": "006",
    "text": "{{fun_00030009 arg=\"0x0D000E000F0010001100\"}}"
  },
  {
    "label": "007",
    "text": "{{fun_00030009 arg=\"0x0D000E000F0010001100\"}}"
  },
  {
    "label": "008",
    "text": ""
  },
  {
    "label": "009",
    "text": ""
  },
  {
    "label": "011",
    "text": "{{anim id=\"1\"}}여어!{{delay frames=\"20\"}}\n실례가 많아요!{{pageBreak}}{{anim id=\"0\"}}이 오토캠핑장은{{delay frames=\"12\"}}\n참 좋은 것 같아요"
  },
  {
    "label": "012",
    "text": "{{anim id=\"1\"}}여어!{{delay frames=\"20\"}}\n{{anim id=\"0\"}}당신은 이 마을 사람인가요?{{delay frames=\"30\"}}\n{{anim id=\"1\"}}실례가 많아요"
  },
  {
    "label": "013",
    "text": "{{anim id=\"1\"}}캠핑 하면 {{delay frames=\"8\"}}카레라이스죠!{{fun_00010007 arg=\"\"}}\n{{anim id=\"0\"}}그릇에 카레를 덜고{{delay frames=\"16\"}} {{anim id=\"21\"}}올리브 오일을\n살짝 떨어뜨려도{{delay frames=\"8\"}} 별미죠"
  },
  {
    "label": "014",
    "text": "{{anim id=\"21\"}}곡의 멜로디가 {{delay frames=\"4\"}}떠올랐다는{{delay frames=\"20\"}}\n표현들을 많이 하는데{{delay frames=\"8\"}}・{{delay frames=\"8\"}}・{{delay frames=\"8\"}}・{{pageBreak}}{{anim id=\"11\"}}개인적으로는{{delay frames=\"12\"}} 뭐랄까,{{delay frames=\"30\"}}\n{{anim id=\"0\"}}서랍장에 넣어 둔 것이{{delay frames=\"16\"}}\n갑자기 튀어나오는 느낌에{{delay frames=\"8\"}} 가까워요"
  },
  {
    "label": "015",
    "text": "캠핑을 하면{{delay frames=\"20\"}} 사시{{delay frames=\"12\"}}사철{{delay frames=\"4\"}}\n{{anim id=\"21\"}}새로운 즐거움을 찾을 수 있어요"
  },
  {
    "label": "016",
    "text": "{{anim id=\"27\"}}다른 곡을 리메이크하는 것도 좋지만{{delay frames=\"40\"}}\n{{anim id=\"21\"}}라이브 때는 주로{{delay frames=\"8\"}} 자작곡을 부르곤 해요"
  },
  {
    "label": "017",
    "text": "캠핑카에{{delay frames=\"8\"}}\n접이식 자전거를 싣고 다니면{{delay frames=\"20\"}}\n{{anim id=\"1\"}}여러모로 편할 것 같아요"
  }
]