﻿[
  {
    "label": "001",
    "text": "{{fun_0000000C arg=\"\"}}{{fun_0005000C arg=\"\"}}{{fun_0001000C arg=\"\"}}{{anim id=\"1\"}}가만히 보면{{delay frames=\"10\"}}\n항상 자신만만한 느낌이세요{{fun_0009000C arg=\"\"}}"
  },
  {
    "label": "002",
    "text": "{{fun_0000000C arg=\"\"}}{{fun_0007000C arg=\"\"}}{{fun_0002000C arg=\"\"}}{{anim id=\"23\"}}어?!{{delay frames=\"20\"}} 내가 그런가～?{{delay frames=\"30\"}}\n{{anim id=\"5\"}}하긴{{delay frames=\"10\"}} 난 아이돌이니까{{delay frames=\"10\"}}\n늘 빛이 나기는 하겠지!{{fun_0009000C arg=\"\"}}"
  },
  {
    "label": "003",
    "text": "{{fun_0000000C arg=\"\"}}{{fun_0005000C arg=\"\"}}{{fun_0001000C arg=\"\"}}{{anim id=\"39\"}}저도 그런 모습을\n닮고 싶어요{{delay frames=\"8\"}}・{{delay frames=\"8\"}}・{{delay frames=\"8\"}}・{{delay frames=\"8\"}}{{fun_0009000C arg=\"\"}}"
  },
  {
    "label": "004",
    "text": "{{fun_0000000C arg=\"\"}}{{fun_0007000C arg=\"\"}}{{fun_0002000C arg=\"\"}}{{anim id=\"17\"}}뭐?!{{delay frames=\"20\"}}\n너도 아이돌이 되고 싶다구?!{{fun_0009000C arg=\"\"}}"
  },
  {
    "label": "005",
    "text": "{{fun_0000000C arg=\"\"}}{{fun_0005000C arg=\"\"}}{{fun_0001000C arg=\"\"}}{{anim id=\"13\"}}아, 아니요!{{delay frames=\"10\"}}\n저도 자신감을 갖고 싶다구요!{{fun_0009000C arg=\"\"}}"
  },
  {
    "label": "006",
    "text": "{{fun_0000000C arg=\"\"}}{{fun_0007000C arg=\"\"}}{{fun_0002000C arg=\"\"}}{{anim id=\"27\"}}흠～{{delay frames=\"30\"}}\n그럼 {{delay frames=\"10\"}}내가 특별히\n훈련시켜줄게!{{pageBreak}}{{anim id=\"5\"}}우선{{delay frames=\"10\"}}\n{{anim id=\"4\"}}내가 최고야!{{delay frames=\"10\"}}\n이렇게 생각하는 게 중요해!{{fun_0009000C arg=\"\"}}"
  },
  {
    "label": "007",
    "text": "{{fun_0000000C arg=\"\"}}{{fun_0005000C arg=\"\"}}{{fun_0001000C arg=\"\"}}{{anim id=\"36\"}}・・・아, 네에～{{delay frames=\"30\"}}\n제가 최고라구요・・・{{pageBreak}}{{anim id=\"13\"}}하지만 너무 창피한걸요{{delay frames=\"30\"}}\n{{anim id=\"0\"}}{{fun_0003000C arg=\"\"}}그렇지 않아요? {{delay frames=\"10\"}}{{fun_0002000C arg=\"\"}}{{fun_0003000C arg=\"\"}}{{fun_0001000C arg=\"\"}}{{fun_00080005 arg=\"\"}}님?{{fun_00000008 arg=\"0x080000000A000000\"}}\n쑥스럽긴 해\n네가 최고야!"
  },
  {
    "label": "008",
    "text": "{{fun_0002000C arg=\"\"}}{{fun_0005000C arg=\"\"}}{{fun_0001000C arg=\"\"}}{{anim id=\"1\"}}역시 그렇죠?{{delay frames=\"20\"}}\n같은 생각이셔서 다행이에요{{fun_0009000C arg=\"\"}}"
  },
  {
    "label": "009",
    "text": "{{fun_0000000C arg=\"\"}}{{fun_0007000C arg=\"\"}}{{fun_0002000C arg=\"\"}}{{anim id=\"11\"}}흐음{{delay frames=\"8\"}}・{{delay frames=\"8\"}}・{{delay frames=\"8\"}}・{{delay frames=\"8\"}} 그런가～?{{delay frames=\"20\"}}\n{{anim id=\"2\"}}하긴{{delay frames=\"20\"}} 최고는\n나밖에 없으니까 말이야!"
  },
  {
    "label": "010",
    "text": "{{fun_0001000A arg=\"0x0B000D00\"}}"
  },
  {
    "label": "011",
    "text": "{{fun_0001000C arg=\"\"}}{{anim id=\"26\"}}아・・・{{delay frames=\"20\"}} 그렇게 말씀하시니{{delay frames=\"10\"}}\n얼굴이 화끈거려요・・・!!{{fun_0009000C arg=\"\"}}"
  },
  {
    "label": "012",
    "text": "{{fun_0000000C arg=\"\"}}{{fun_0007000C arg=\"\"}}{{fun_0002000C arg=\"\"}}{{anim id=\"7\"}}뭐야～!{{delay frames=\"20\"}}\n내 앞에서 지금 둘이{{delay frames=\"5\"}}\n무슨 얘기들을 하고 있는 거야～!\n누가 뭐래도 최고는{{delay frames=\"8\"}}\n{{anim id=\"44\"}}바로 나라구～!"
  },
  {
    "label": "013",
    "text": "{{fun_0001000C arg=\"\"}}{{anim id=\"13\"}}아유～ 별말씀을 다하세요!{{delay frames=\"20\"}}\n{{anim id=\"1\"}}{{fun_00080005 arg=\"\"}}님이\n저보다 훨씬 더 멋지신걸요!{{fun_0009000C arg=\"\"}}"
  },
  {
    "label": "014",
    "text": "{{fun_0000000C arg=\"\"}}{{fun_0007000C arg=\"\"}}{{fun_0002000C arg=\"\"}}{{anim id=\"7\"}}지금 무슨 소리들을 하는 거야～!{{delay frames=\"20\"}}\n최고는 바로{{delay frames=\"8\"}}{{anim id=\"44\"}} 나란 말이야～!"
  },
  {
    "label": "015",
    "text": ""
  },
  {
    "label": "016",
    "text": ""
  },
  {
    "label": "017",
    "text": "{{fun_0000000C arg=\"\"}}{{fun_0005000C arg=\"\"}}{{fun_0001000C arg=\"\"}}{{anim id=\"1\"}}저요,{{delay frames=\"10\"}} 추천해드리고 싶은 책이 있어요!{{delay frames=\"20\"}}\n{{anim id=\"37\"}}「{{fun_001D0005 arg=\"0x0000\"}}」{{delay frames=\"20\"}}\n꼭 한번{{delay frames=\"10\"}} 읽어보세요!{{fun_0009000C arg=\"\"}}"
  },
  {
    "label": "018",
    "text": "{{fun_0000000C arg=\"\"}}{{fun_0007000C arg=\"\"}}{{fun_0002000C arg=\"\"}}{{anim id=\"11\"}}우웅{{delay frames=\"8\"}}・{{delay frames=\"8\"}}・{{delay frames=\"8\"}}・{{delay frames=\"8\"}}\n왠지 내용이 어려울 것 같아～!{{fun_0009000C arg=\"\"}}"
  },
  {
    "label": "019",
    "text": "{{fun_0000000C arg=\"\"}}{{fun_0005000C arg=\"\"}}{{fun_0001000C arg=\"\"}}{{anim id=\"1\"}}그럼{{delay frames=\"10\"}} 이건 어떨까요?{{delay frames=\"30\"}}\n「{{fun_001D0005 arg=\"0x0100\"}}」{{fun_0009000C arg=\"\"}}"
  },
  {
    "label": "020",
    "text": "{{fun_0000000C arg=\"\"}}{{fun_0007000C arg=\"\"}}{{fun_0002000C arg=\"\"}}{{anim id=\"27\"}}조금 더{{delay frames=\"8\"}}・{{delay frames=\"8\"}}・{{delay frames=\"8\"}}・{{delay frames=\"8\"}} 뭐랄까～?{{delay frames=\"20\"}}\n패션이라든지{{delay frames=\"10\"}} 메이크업 사진이{{delay frames=\"10\"}}\n잔뜩 있는 책 없을까?{{fun_0009000C arg=\"\"}}"
  },
  {
    "label": "021",
    "text": "{{fun_0000000C arg=\"\"}}{{fun_0005000C arg=\"\"}}{{fun_0001000C arg=\"\"}}{{anim id=\"12\"}}죄송해요{{delay frames=\"30\"}}\n{{anim id=\"13\"}}전{{delay frames=\"10\"}} 그런 책에 흥미가 없어서{{delay frames=\"8\"}}・{{delay frames=\"8\"}}・{{delay frames=\"8\"}}・{{delay frames=\"8\"}}{{pageBreak}}{{anim id=\"36\"}}그래도 가끔은{{delay frames=\"10\"}}\n글자만 있는 책도{{delay frames=\"10\"}}\n괜찮지 않으시겠어요?{{fun_0009000C arg=\"\"}}"
  },
  {
    "label": "022",
    "text": "{{fun_0000000C arg=\"\"}}{{fun_0007000C arg=\"\"}}{{fun_0002000C arg=\"\"}}{{anim id=\"9\"}}히잉～ 그래두{{delay frames=\"8\"}}・{{delay frames=\"8\"}}・{{delay frames=\"8\"}}・{{delay frames=\"8\"}}{{fun_0009000C arg=\"\"}}"
  },
  {
    "label": "023",
    "text": "{{fun_0000000C arg=\"\"}}{{fun_0005000C arg=\"\"}}{{fun_0001000C arg=\"\"}}{{anim id=\"37\"}}「{{fun_001D0005 arg=\"0x0200\"}}」\n책은{{delay frames=\"10\"}} {{anim id=\"33\"}}당신께{{delay frames=\"10\"}} 특별히\n더 잘 맞을 것 같은데요!{{fun_0009000C arg=\"\"}}"
  },
  {
    "label": "024",
    "text": "{{fun_0000000C arg=\"\"}}{{fun_0007000C arg=\"\"}}{{fun_0002000C arg=\"\"}}{{anim id=\"27\"}}알았어, 알았다구～{{delay frames=\"20\"}}\n{{anim id=\"36\"}}그럼{{delay frames=\"10\"}} 다음에 빌려 갈게!{{delay frames=\"30\"}}\n{{anim id=\"1\"}}오늘은 좀 그래{{anim id=\"38\"}}{{fun_0009000C arg=\"\"}}"
  },
  {
    "label": "025",
    "text": "{{fun_0000000C arg=\"\"}}{{fun_0005000C arg=\"\"}}{{fun_0001000C arg=\"\"}}{{anim id=\"0\"}}그래요?{{delay frames=\"20\"}}\n{{anim id=\"1\"}}언제든지{{delay frames=\"10\"}} 말씀만 하세요"
  },
  {
    "label": "026",
    "text": ""
  },
  {
    "label": "027",
    "text": ""
  },
  {
    "label": "028",
    "text": "{{fun_0000000C arg=\"\"}}{{fun_0005000C arg=\"\"}}{{fun_0001000C arg=\"\"}}{{anim id=\"37\"}}언제 봐도{{delay frames=\"10\"}} 항상 럭셔리하세요～{{delay frames=\"30\"}}\n{{anim id=\"3\"}}역시 맛집이나 요리 같은 거에도\n관심이 많으신가요?{{delay frames=\"30\"}}{{anim id=\"37\"}}{{fun_0009000C arg=\"\"}}"
  },
  {
    "label": "029",
    "text": "{{fun_0000000C arg=\"\"}}{{fun_0007000C arg=\"\"}}{{fun_0002000C arg=\"\"}}{{anim id=\"21\"}}물론이지!{{delay frames=\"20\"}}\n{{anim id=\"5\"}}난 미식가거든!{{fun_0009000C arg=\"\"}}"
  },
  {
    "label": "030",
    "text": "{{fun_0000000C arg=\"\"}}{{fun_0005000C arg=\"\"}}{{fun_0001000C arg=\"\"}}{{anim id=\"22\"}}그럼{{delay frames=\"10\"}} 요리 실력도\n상당하시겠네요!{{fun_00010007 arg=\"\"}}\n{{anim id=\"37\"}}부디{{delay frames=\"10\"}} 제게도 좀 가르쳐주세요{{fun_0009000C arg=\"\"}}"
  },
  {
    "label": "031",
    "text": "{{fun_0000000C arg=\"\"}}{{fun_0007000C arg=\"\"}}{{fun_0002000C arg=\"\"}}{{anim id=\"17\"}}어{{delay frames=\"8\"}}・{{delay frames=\"8\"}}・{{delay frames=\"8\"}}・{{delay frames=\"8\"}} {{anim id=\"39\"}}음{{delay frames=\"8\"}}・{{delay frames=\"8\"}}・{{delay frames=\"8\"}}・{{delay frames=\"8\"}}{{delay frames=\"30\"}}\n그게 그러니까{{delay frames=\"8\"}}・{{delay frames=\"8\"}}・{{delay frames=\"8\"}}・{{delay frames=\"8\"}} 아, 알았어{{fun_0009000C arg=\"\"}}"
  },
  {
    "label": "032",
    "text": "{{fun_00010009 arg=\"0x210024002700\"}}"
  },
  {
    "label": "033",
    "text": "{{fun_0000000C arg=\"\"}}{{fun_0005000C arg=\"\"}}{{fun_0001000C arg=\"\"}}{{anim id=\"2\"}}와～!{{delay frames=\"20\"}} 신 난다!{{delay frames=\"30\"}}{{anim id=\"37\"}}{{pageBreak}}{{anim id=\"1\"}}저요,{{delay frames=\"10\"}} 럭셔리한 요리를\n만들어보고 싶거든요!{{pageBreak}}{{anim id=\"0\"}}예를 들면{{delay frames=\"10\"}}\n프랑스 전원풍{{delay frames=\"10\"}} 연어 마리네이드라든지{{delay frames=\"15\"}}\n푸아그라 콩피라든지!{{fun_0009000C arg=\"\"}}"
  },
  {
    "label": "034",
    "text": "{{fun_0000000C arg=\"\"}}{{fun_0007000C arg=\"\"}}{{fun_0002000C arg=\"\"}}{{anim id=\"9\"}}으{{delay frames=\"8\"}}・{{delay frames=\"8\"}}・{{delay frames=\"8\"}}・{{delay frames=\"30\"}}{{fun_0009000C arg=\"\"}}"
  },
  {
    "label": "035",
    "text": "{{fun_0000000C arg=\"\"}}{{fun_0005000C arg=\"\"}}{{fun_0001000C arg=\"\"}}{{anim id=\"37\"}}그리고 또{{delay frames=\"10\"}}\n파스타 아마트리체라든지{{delay frames=\"8\"}}・{{delay frames=\"8\"}}・{{delay frames=\"8\"}}・{{delay frames=\"8\"}}{{fun_0009000C arg=\"\"}}"
  },
  {
    "label": "036",
    "text": "{{fun_0000000C arg=\"\"}}{{fun_0005000C arg=\"\"}}{{fun_0001000C arg=\"\"}}{{anim id=\"5\"}}어머나!{{delay frames=\"20\"}} 감사합니다!{{pageBreak}}{{anim id=\"4\"}}사실 저,{{delay frames=\"10\"}} 건강에 좋은 요리를\n만들어보고 싶었거든요!{{pageBreak}}{{anim id=\"37\"}}예를 들면{{delay frames=\"15\"}}\n유기농 야채 바냐카우더라든지{{delay frames=\"10\"}}\n웰빙 보쌈이라든지!{{fun_0009000C arg=\"\"}}"
  },
  {
    "label": "037",
    "text": "{{fun_0000000C arg=\"\"}}{{fun_0007000C arg=\"\"}}{{fun_0002000C arg=\"\"}}{{anim id=\"18\"}}{{delay frames=\"8\"}}・{{delay frames=\"8\"}}・{{delay frames=\"8\"}}・{{delay frames=\"30\"}}{{delay frames=\"40\"}}{{fun_0009000C arg=\"\"}}"
  },
  {
    "label": "038",
    "text": "{{fun_0000000C arg=\"\"}}{{fun_0005000C arg=\"\"}}{{fun_0001000C arg=\"\"}}{{anim id=\"37\"}}그리고 또{{delay frames=\"10\"}}\n자연산 장어 허브 튀김이라든지{{delay frames=\"8\"}}・{{delay frames=\"8\"}}・{{delay frames=\"8\"}}・{{delay frames=\"8\"}}{{fun_0009000C arg=\"\"}}"
  },
  {
    "label": "039",
    "text": "{{fun_0000000C arg=\"\"}}{{fun_0005000C arg=\"\"}}{{fun_0001000C arg=\"\"}}{{anim id=\"5\"}}어머!{{delay frames=\"20\"}} 정말이세요?{{pageBreak}}{{anim id=\"3\"}}저는요,{{delay frames=\"10\"}} 럭셔리한 디저트를\n만들어보고 싶어요!{{pageBreak}}{{anim id=\"37\"}}예를 들면{{delay frames=\"10\"}}\n루바브 무스라든지{{delay frames=\"10\"}}\n체리와 복숭아 콤포트라든지{{delay frames=\"8\"}}・{{delay frames=\"8\"}}・{{delay frames=\"8\"}}・{{delay frames=\"8\"}}{{fun_0009000C arg=\"\"}}"
  },
  {
    "label": "040",
    "text": "{{fun_0000000C arg=\"\"}}{{fun_0007000C arg=\"\"}}{{fun_0002000C arg=\"\"}}{{anim id=\"19\"}}어{{delay frames=\"8\"}}・{{delay frames=\"8\"}}・{{delay frames=\"8\"}}・{{delay frames=\"8\"}}{{delay frames=\"40\"}}{{fun_0009000C arg=\"\"}}"
  },
  {
    "label": "041",
    "text": "{{fun_0000000C arg=\"\"}}{{fun_0005000C arg=\"\"}}{{fun_0001000C arg=\"\"}}{{anim id=\"37\"}}또 망고스틴 마카롱이나・・・{{delay frames=\"30\"}}{{fun_0009000C arg=\"\"}}"
  },
  {
    "label": "042",
    "text": "{{fun_00010009 arg=\"0x2B002D002F00\"}}"
  },
  {
    "label": "043",
    "text": "{{fun_0000000C arg=\"\"}}{{fun_0007000C arg=\"\"}}{{fun_0002000C arg=\"\"}}{{anim id=\"13\"}}{{delay frames=\"8\"}}・{{delay frames=\"8\"}}・{{delay frames=\"8\"}}・{{delay frames=\"40\"}}{{anim id=\"7\"}}으아아아～～～～!!{{delay frames=\"30\"}}\n그런 걸{{delay frames=\"10\"}} 내가 만들 수\n있을 리가 없잖아～!{{pageBreak}}{{anim id=\"14\"}}내가 제일 잘하는 요리는{{delay frames=\"10\"}}\n라면이란 말이야!{{fun_0009000C arg=\"\"}}"
  },
  {
    "label": "044",
    "text": "{{fun_0000000C arg=\"\"}}{{fun_0005000C arg=\"\"}}{{fun_0001000C arg=\"\"}}{{anim id=\"13\"}}{{delay frames=\"8\"}}・{{delay frames=\"8\"}}・{{delay frames=\"8\"}}・{{delay frames=\"8\"}}{{pageBreak}}{{anim id=\"37\"}}하지만{{delay frames=\"10\"}} 라면도{{delay frames=\"10\"}}\n물의 양을 맞추는 걸 생각하면{{delay frames=\"15\"}}\n어려운 요리인걸요"
  },
  {
    "label": "045",
    "text": "{{fun_0000000C arg=\"\"}}{{fun_0007000C arg=\"\"}}{{fun_0002000C arg=\"\"}}{{anim id=\"13\"}}{{delay frames=\"8\"}}・{{delay frames=\"8\"}}・{{delay frames=\"8\"}}・{{delay frames=\"40\"}}{{anim id=\"14\"}}흐아앙～～!{{delay frames=\"30\"}}\n내가 그런 걸 어떻게 만들어～!{{pageBreak}}{{anim id=\"6\"}}내가 제일 잘하는 요리는{{delay frames=\"10\"}}\n삶은 계란이란 말이야!{{fun_0009000C arg=\"\"}}"
  },
  {
    "label": "046",
    "text": "{{fun_0000000C arg=\"\"}}{{fun_0005000C arg=\"\"}}{{fun_0001000C arg=\"\"}}{{anim id=\"13\"}}{{delay frames=\"8\"}}・{{delay frames=\"8\"}}・{{delay frames=\"8\"}}・{{delay frames=\"8\"}}{{pageBreak}}{{anim id=\"37\"}}하지만 삶은 계란도{{delay frames=\"10\"}}\n반숙과 완숙을 나누는 타이밍이{{delay frames=\"15\"}}\n아주 어려운 요리인걸요{{anim id=\"38\"}}"
  },
  {
    "label": "047",
    "text": "{{fun_0000000C arg=\"\"}}{{fun_0007000C arg=\"\"}}{{fun_0002000C arg=\"\"}}{{anim id=\"13\"}}{{delay frames=\"8\"}}・{{delay frames=\"8\"}}・{{delay frames=\"8\"}}・{{delay frames=\"40\"}}{{anim id=\"14\"}}우아아앙～～～!{{delay frames=\"30\"}}\n나 그런 거 모른단 말이야～!{{pageBreak}}{{anim id=\"9\"}}내가 제일 잘하는 요리는{{delay frames=\"10\"}}\n{{anim id=\"7\"}}소시지구이인걸!{{fun_0009000C arg=\"\"}}"
  },
  {
    "label": "048",
    "text": "{{fun_0000000C arg=\"\"}}{{fun_0005000C arg=\"\"}}{{fun_0001000C arg=\"\"}}{{anim id=\"13\"}}{{delay frames=\"8\"}}・{{delay frames=\"8\"}}・{{delay frames=\"8\"}}・{{delay frames=\"30\"}}{{pageBreak}}{{anim id=\"37\"}}하지만 소시지구이도{{delay frames=\"15\"}}\n얼마나{{delay frames=\"10\"}} 익혀야 하는지 등등{{delay frames=\"10\"}}\n여러모로{{delay frames=\"5\"}} 어려운 요리인걸요"
  },
  {
    "label": "049",
    "text": ""
  },
  {
    "label": "050",
    "text": ""
  }
]