﻿[
  {
    "label": "001",
    "text": "{{anim id=\"39\"}}저기{{delay frames=\"8\"}}・{{delay frames=\"8\"}}・{{delay frames=\"8\"}}・{{delay frames=\"8\"}}{{pageBreak}}지난번에{{delay frames=\"10\"}} 제가 이사 얘기를\n한 적이 있잖아요?{{delay frames=\"15\"}}\n{{anim id=\"36\"}}그냥{{delay frames=\"10\"}} 없던 일로 하려구요!{{pageBreak}}여러 가지 사정이 생겨서{{delay frames=\"10\"}}\n취소하기로 했답니다!{{pageBreak}}{{anim id=\"1\"}}아무튼 그렇게 됐으니{{delay frames=\"10\"}}\n앞으로도 친하게 지내주세요,\n{{delay frames=\"15\"}}{{fun_00070005 arg=\"\"}}"
  },
  {
    "label": "002",
    "text": "{{fun_00010009 arg=\"0x030004000500\"}}"
  },
  {
    "label": "003",
    "text": "{{anim id=\"16\"}}맞다!{{delay frames=\"20\"}} {{fun_00080005 arg=\"\"}}님!{{pageBreak}}{{anim id=\"36\"}}전에{{delay frames=\"10\"}} 제가 이사 얘기를 꺼냈던 거{{delay frames=\"10\"}}\n혹시 기억하고 계시나요?{{pageBreak}}{{anim id=\"37\"}}그 이후에 {{delay frames=\"10\"}}{{fun_00000011 arg=\"0x0000\"}}님과도\n얘기를 했었는데{{delay frames=\"10\"}}\n마음이 바뀌었어요{{delay frames=\"8\"}}・{{delay frames=\"8\"}}・{{delay frames=\"8\"}}・{{delay frames=\"8\"}}\n{{anim id=\"1\"}}아직 우리 마을에 대해서도{{delay frames=\"8\"}}\n제가 모르는 게 많더라구요{{fun_00010007 arg=\"\"}}\n그래서 이사는{{delay frames=\"10\"}} 취소했어요!\n앞으로도{{delay frames=\"8\"}} 쭉 잘 부탁드려요!"
  },
  {
    "label": "004",
    "text": "{{anim id=\"39\"}}있잖아요, {{delay frames=\"20\"}}{{fun_00080005 arg=\"\"}}님{{delay frames=\"8\"}}・{{delay frames=\"8\"}}・{{delay frames=\"8\"}}・{{delay frames=\"8\"}}{{pageBreak}}저{{delay frames=\"10\"}} 그때 이후로\n신중하게 생각해봤는데{{delay frames=\"8\"}}・{{delay frames=\"8\"}}・{{delay frames=\"8\"}}・{{delay frames=\"8\"}}{{pageBreak}}{{fun_00000011 arg=\"0x0000\"}}님이{{delay frames=\"10\"}}\n열심히{{delay frames=\"8\"}} 설득하신 것도 있고 해서{{delay frames=\"10\"}}\n{{anim id=\"22\"}}결국 결정을 내렸어요!!\n{{anim id=\"37\"}}{{delay frames=\"8\"}}・{{delay frames=\"8\"}}・{{delay frames=\"8\"}}・{{delay frames=\"8\"}}아!{{delay frames=\"20\"}} 전에 말한 이사 얘기예요{{fun_00010007 arg=\"\"}}\n{{anim id=\"1\"}}역시 이 마을에서{{delay frames=\"10\"}} 더 지내려구요!\n{{anim id=\"38\"}}앞으로도{{delay frames=\"5\"}} 잘 부탁드려요!"
  },
  {
    "label": "005",
    "text": "{{anim id=\"16\"}}아!{{delay frames=\"20\"}} 저기요～{{delay frames=\"30\"}}\n{{anim id=\"1\"}}전에 제가{{delay frames=\"10\"}} 이사가겠다고\n말씀드린 거 기억하세요?\n{{anim id=\"36\"}}그땐{{delay frames=\"8\"}} 제가{{delay frames=\"10\"}} 생각이 좀\n과했다고 할까{{delay frames=\"5\"}}・{{delay frames=\"5\"}}・{{delay frames=\"5\"}}・{{delay frames=\"5\"}}{{pageBreak}}{{anim id=\"1\"}}아무튼 {{fun_00000011 arg=\"0x0000\"}}님과\n얘기하다 보니{{delay frames=\"10\"}} 마음이 바뀌었어요!{{pageBreak}}{{anim id=\"37\"}}이사는 가지 않기로 했어요!{{delay frames=\"10\"}}\n그러니 앞으로도 우리{{delay frames=\"8\"}}\n친하게 지내요, {{delay frames=\"10\"}}{{fun_00070005 arg=\"\"}}"
  }
]