﻿[
  {
    "label": "001",
    "text": "{{anim id=\"1\"}}{{fun_00080005 arg=\"\"}}님,{{delay frames=\"10\"}}\n또 만났군요!{{pageBreak}}{{anim id=\"5\"}}{{fun_00050005 arg=\"\"}} 마을을{{delay frames=\"8\"}}\n만끽하고 계신 것 같아{{delay frames=\"10\"}}\n제가 다 뿌듯하네요, {{delay frames=\"15\"}}{{fun_00070005 arg=\"\"}}!"
  },
  {
    "label": "002",
    "text": "{{anim id=\"1\"}}{{fun_00060007 arg=\"\"}}어머나, {{fun_00000005 arg=\"\"}}님!{{fun_00070007 arg=\"\"}}{{pageBreak}}이렇게 와 계시니{{delay frames=\"10\"}}\n{{fun_00050005 arg=\"\"}} 마을도{{delay frames=\"8\"}} 분위기가 평소와\n다른 것 같아요, {{delay frames=\"15\"}}{{fun_00070005 arg=\"\"}}!"
  },
  {
    "label": "003",
    "text": "{{anim id=\"1\"}}우리 마을을{{delay frames=\"8\"}} 마음에\n들어하시는 것 같아 기뻐요,\n{{delay frames=\"15\"}}{{fun_00070005 arg=\"\"}}"
  },
  {
    "label": "004",
    "text": "{{anim id=\"1\"}}어머나, {{fun_00000005 arg=\"\"}}님!{{delay frames=\"20\"}}\n마치 우리 마을 주민처럼{{delay frames=\"8\"}}\n자연스럽게 느껴지네요!\n{{anim id=\"38\"}}즐거운 추억을{{delay frames=\"5\"}} 잔뜩\n만드시길 바랄게요, {{delay frames=\"15\"}}{{fun_00070005 arg=\"\"}}!"
  },
  {
    "label": "005",
    "text": "{{anim id=\"1\"}}{{fun_00060007 arg=\"\"}}안녕하세요!{{fun_00070007 arg=\"\"}}{{delay frames=\"20\"}}\n손님이 와 계신다는 건{{delay frames=\"10\"}}\n무척 기쁜 일이네요, {{delay frames=\"15\"}}{{fun_00070005 arg=\"\"}}!"
  },
  {
    "label": "006",
    "text": "{{anim id=\"1\"}}{{fun_00060007 arg=\"\"}}안녕하세요!{{fun_00070007 arg=\"\"}}{{delay frames=\"20\"}}\n{{fun_00050005 arg=\"\"}} 마을은{{delay frames=\"10\"}} 어떤가요?\n즐거우신가요, {{delay frames=\"15\"}}{{fun_00070005 arg=\"\"}}?"
  },
  {
    "label": "007",
    "text": "{{anim id=\"1\"}}어머나,{{delay frames=\"20\"}}\n늦은 시간까지 {{delay frames=\"8\"}}바쁘신가 보군요,\n{{delay frames=\"15\"}}{{fun_00070005 arg=\"\"}}!"
  },
  {
    "label": "008",
    "text": ""
  }
]