﻿[
  {
    "label": "001",
    "text": "오늘은 추수감사절이라서{{delay frames=\"15\"}}\n우리 마을분들을 위해{{delay frames=\"5\"}}\n요리를 만들고 있답니다, {{delay frames=\"15\"}}{{fun_00070005 arg=\"\"}}!{{pageBreak}}{{anim id=\"1\"}}이것도 기회니까{{delay frames=\"10\"}} 새로운 레시피도{{delay frames=\"3\"}}\n이것저것 도전해볼까\n생각 중이에요!"
  },
  {
    "label": "002",
    "text": "{{anim id=\"3\"}}오늘은 기다리고 기다리던{{delay frames=\"5\"}}\n추수감사절이에요{{pageBreak}}{{anim id=\"1\"}}먹는 것도 즐겁지만{{delay frames=\"10\"}}\n전 오늘{{delay frames=\"10\"}} 만드는 일에\n집중해보려구요!"
  },
  {
    "label": "003",
    "text": "{{anim id=\"23\"}}{{fun_00080005 arg=\"\"}}님{{delay frames=\"15\"}} 어때요?{{delay frames=\"25\"}}\n밖은 축제 분위기가\n한껏 무르익었나요? {{delay frames=\"15\"}}{{fun_00070005 arg=\"\"}}?{{pageBreak}}{{anim id=\"39\"}}저도 웬만하면{{delay frames=\"8\"}}\n밖에 구경하러 가고 싶지만{{delay frames=\"10\"}}\n지금은 요리에 바빠서요{{delay frames=\"8\"}}・{{delay frames=\"8\"}}・{{delay frames=\"8\"}}・"
  },
  {
    "label": "004",
    "text": "{{anim id=\"13\"}}가만있자～{{delay frames=\"20\"}} 지금부터 미리{{delay frames=\"10\"}}\n다음 요리 준비를{{delay frames=\"3\"}}\n해 두는 게 좋을까{{delay frames=\"8\"}}・{{delay frames=\"8\"}}・{{delay frames=\"8\"}}・{{pageBreak}}{{delay frames=\"5\"}}{{anim id=\"15\"}}{{delay frames=\"10\"}}앗,{{delay frames=\"10\"}} 죄송해요!{{delay frames=\"25\"}}\n{{anim id=\"39\"}}여러 가지 요리를 만들려다 보니까{{delay frames=\"10\"}}\n저도 모르게 초조해져서요{{delay frames=\"8\"}}・{{delay frames=\"8\"}}・{{delay frames=\"8\"}}・"
  },
  {
    "label": "005",
    "text": "그런데 {{fun_00080005 arg=\"\"}}님,{{delay frames=\"15\"}}\n저는 지금 {{delay frames=\"10\"}}{{fun_00030011 arg=\"0x0000\"}}{{fun_000E000E arg=\"0x020074C7020000AC\"}}{{delay frames=\"5\"}}\n필요한데요{{delay frames=\"8\"}}・{{delay frames=\"8\"}}・{{delay frames=\"8\"}}・{{pageBreak}}혹시라도 구하시게 되면{{delay frames=\"10\"}}\n우리 집의 다른 식재료랑{{delay frames=\"5\"}}\n{{anim id=\"23\"}}교환하지 않으실래요?\n{{anim id=\"0\"}}우연히 여분이 생겼을\n때라도 상관없으니까{{delay frames=\"10\"}}\n{{anim id=\"1\"}}꼭 좀 부탁드려요, {{delay frames=\"15\"}}{{fun_00070005 arg=\"\"}}!"
  },
  {
    "label": "006",
    "text": "{{anim id=\"11\"}}우웅{{delay frames=\"8\"}}・{{delay frames=\"8\"}}・{{delay frames=\"8\"}}・{{delay frames=\"30\"}} 지금부터 만들 요리에{{delay frames=\"10\"}}\n꼭 {{delay frames=\"8\"}}{{fun_00030011 arg=\"0x0000\"}}{{fun_000E000E arg=\"0x020044C702007CB9\"}}{{delay frames=\"5\"}}\n넣고 싶은데{{delay frames=\"8\"}}・{{delay frames=\"8\"}}・{{delay frames=\"8\"}}・{{fun_0005000F arg=\"0x15002800\"}}\n이거 줄게!\n나도 없어"
  },
  {
    "label": "007",
    "text": "{{fun_00080005 arg=\"\"}}님 {{delay frames=\"15\"}}혹시{{delay frames=\"5\"}}\n{{fun_00030011 arg=\"0x0000\"}}{{fun_000E000E arg=\"0x020044C702007CB9\"}} 갖고 계시면{{delay frames=\"10\"}}\n저한테 하나만 양보해주시겠어요?{{fun_0005000F arg=\"0x15002800\"}}\n줄게!\n안 갖고 있는데"
  },
  {
    "label": "008",
    "text": "알겠습니다{{delay frames=\"10\"}}\n혹시라도 남는 게 생기면\n그땐 좀 부탁드릴게요!{{pageBreak}}{{anim id=\"1\"}}우리 집에 있는 식재료랑 교환해서{{delay frames=\"5\"}}\n서로의 레시피를 더욱 다양하게\n만들어보아요! {{delay frames=\"15\"}}{{fun_00070005 arg=\"\"}}!"
  },
  {
    "label": "009",
    "text": "{{anim id=\"9\"}}역시 쉽게 구할 수\n없는 모양이에요{{delay frames=\"8\"}}・{{delay frames=\"8\"}}・{{delay frames=\"8\"}}・{{delay frames=\"8\"}} {{fun_00070005 arg=\"\"}}"
  },
  {
    "label": "010",
    "text": "{{anim id=\"23\"}}어머?{{delay frames=\"15\"}}\n{{anim id=\"9\"}}{{delay frames=\"8\"}}・{{delay frames=\"8\"}}・{{delay frames=\"8\"}}・{{delay frames=\"8\"}}저한테{{delay frames=\"3\"}} 주시려는 줄 알았는데요?"
  },
  {
    "label": "011",
    "text": "{{anim id=\"9\"}}저기{{delay frames=\"10\"}} 죄송한데요{{delay frames=\"8\"}}・{{delay frames=\"8\"}}・{{delay frames=\"8\"}}・{{delay frames=\"15\"}}\n제가 필요한 건{{delay frames=\"5\"}}\n{{fun_00030011 arg=\"0x0000\"}}{{fun_000E000E arg=\"0x040074C7D0C5020008C6\"}}요{{delay frames=\"8\"}}・{{delay frames=\"8\"}}・{{delay frames=\"8\"}}・{{pageBreak}}{{anim id=\"0\"}}만약에 구하시게 되면{{delay frames=\"10\"}}\n우리 집의 식재료와 교환해요!{{delay frames=\"20\"}}\n{{delay frames=\"8\"}}{{fun_00070005 arg=\"\"}}!"
  },
  {
    "label": "012",
    "text": "{{delay frames=\"5\"}}{{anim id=\"15\"}}{{delay frames=\"10\"}}정말요?{{delay frames=\"15\"}} 진짜로 주시는 거예요?{{delay frames=\"25\"}}\n{{anim id=\"1\"}}덕분에 살았어요!{{pageBreak}}그럼 우리 집에 있는{{delay frames=\"3\"}}\n{{fun_00030011 arg=\"0x0100\"}}{{fun_000E000E arg=\"0x020074C70000\"}}랑{{delay frames=\"5\"}}\n교환하는 걸로 하죠!"
  },
  {
    "label": "013",
    "text": "{{anim id=\"3\"}}이걸로 제 비장의{{delay frames=\"5\"}}\n새 레시피가 완성될 거예요!{{delay frames=\"20\"}}\n정말 감사합니다!"
  },
  {
    "label": "014",
    "text": "{{anim id=\"39\"}}그리고 도움을 주셨으니{{delay frames=\"5\"}}\n한 가지 더{{delay frames=\"5\"}}・{{delay frames=\"5\"}}・{{delay frames=\"5\"}}・{{pageBreak}}{{anim id=\"37\"}}제가 우연히 발견한,{{delay frames=\"5\"}}\n요리를 더 맛있게 해주는 비결을{{delay frames=\"3\"}}\n알려드릴게요! {{delay frames=\"10\"}}{{fun_00070005 arg=\"\"}}!"
  },
  {
    "label": "015",
    "text": "{{anim id=\"11\"}}전에 {{delay frames=\"5\"}}{{fun_00050012 arg=\"0x00CD\"}}{{fun_000E000E arg=\"0x020044C702007CB9\"}}\n만들 때 일이었어요{{delay frames=\"8\"}}・{{delay frames=\"8\"}}・{{delay frames=\"8\"}}・{{pageBreak}}{{anim id=\"0\"}}실수로 {{color id=\"2\"}}레몬{{color id=\"65535\"}}의 즙을 넣었는데{{delay frames=\"10\"}}\n새콤한 맛이 더해지니까{{delay frames=\"5\"}}\n환상적인 맛이 나는 거예요!{{pageBreak}}{{anim id=\"1\"}}{{fun_00080005 arg=\"\"}}님도{{delay frames=\"5\"}}\n혹시 만드실 기회가 있으면{{delay frames=\"10\"}}\n꼭 그렇게 해보세요!"
  },
  {
    "label": "016",
    "text": "{{anim id=\"11\"}}바로 {{delay frames=\"5\"}}{{fun_00050012 arg=\"0x00CD\"}}{{fun_000E000E arg=\"0x020044C702007CB9\"}}\n만들다가{{delay frames=\"3\"}} 발견한 건데요{{delay frames=\"8\"}}・{{delay frames=\"8\"}}・{{delay frames=\"8\"}}・{{pageBreak}}{{anim id=\"0\"}}잘게 다진 {{color id=\"2\"}}사과{{color id=\"65535\"}}를 넣었더니{{delay frames=\"10\"}}\n아삭아삭한 식감이 더해져서{{delay frames=\"5\"}}\n너무너무 맛있어지더라구요!{{pageBreak}}{{anim id=\"1\"}}{{fun_00080005 arg=\"\"}}님도{{delay frames=\"5\"}}\n나중에 만드실 기회가 있으면{{delay frames=\"10\"}}\n꼭 시도해보세요!"
  },
  {
    "label": "017",
    "text": "{{anim id=\"11\"}}요전에 {{delay frames=\"5\"}}{{fun_00050012 arg=\"0x00CD\"}}{{fun_000E000E arg=\"0x020044C702007CB9\"}}\n만들 기회가 있었는데요{{delay frames=\"8\"}}・{{delay frames=\"8\"}}・{{delay frames=\"8\"}}・{{pageBreak}}{{anim id=\"0\"}}포인트를 주려고 {{delay frames=\"3\"}}{{color id=\"2\"}}벌집{{color id=\"65535\"}}에서 얻은\n벌꿀을 넣었더니{{delay frames=\"10\"}} 자연스러운 단맛이{{delay frames=\"5\"}}\n아주 잘 어울리더라구요!{{pageBreak}}{{anim id=\"1\"}}{{fun_00080005 arg=\"\"}}님도{{delay frames=\"5\"}}\n만약에 만드실 기회가 있으면{{delay frames=\"10\"}}\n꼭 그렇게 해보세요!"
  },
  {
    "label": "018",
    "text": "{{anim id=\"11\"}}그건 {{delay frames=\"3\"}}{{fun_00050012 arg=\"0x00CD\"}}{{fun_000E000E arg=\"0x020044C702007CB9\"}}\n만들 때 발견한 건데요{{delay frames=\"8\"}}・{{delay frames=\"8\"}}・{{delay frames=\"8\"}}・{{pageBreak}}{{anim id=\"0\"}}{{color id=\"2\"}}비니거{{color id=\"65535\"}}를 살짝 넣었더니{{delay frames=\"10\"}}\n맛이 깔끔해졌을 뿐 아니라{{delay frames=\"5\"}} 독특한\n풍미가 더해져서{{delay frames=\"3\"}} 아주 맛있는 거예요!{{pageBreak}}{{anim id=\"1\"}}{{fun_00080005 arg=\"\"}}님도{{delay frames=\"5\"}}\n나중에 만드실 일이 생기면{{delay frames=\"10\"}}\n그렇게 해보세요!"
  },
  {
    "label": "019",
    "text": "{{anim id=\"11\"}}그때가 아마 {{delay frames=\"5\"}}{{fun_00050012 arg=\"0x00CD\"}}{{fun_000E000E arg=\"0x020044C702007CB9\"}}\n만들 때의 일이었을 거예요{{delay frames=\"8\"}}・{{delay frames=\"8\"}}・{{delay frames=\"8\"}}・{{pageBreak}}{{anim id=\"0\"}}실수로 {{color id=\"2\"}}버터{{color id=\"65535\"}}를 요리에 넣었는데{{delay frames=\"10\"}}\n부드럽고 깊은 맛이 나면서{{delay frames=\"15\"}}\n정말 맛있더라구요!{{pageBreak}}{{anim id=\"1\"}}{{fun_00080005 arg=\"\"}}님도{{delay frames=\"5\"}}\n혹시 만들 기회가 있으시면{{delay frames=\"10\"}}\n꼭 그걸 넣어보세요!"
  },
  {
    "label": "020",
    "text": "{{anim id=\"11\"}}이건 {{delay frames=\"5\"}}{{fun_00050012 arg=\"0x00CD\"}}{{fun_000E000E arg=\"0x020044C702007CB9\"}}\n만들다가 발견한 건데요{{delay frames=\"8\"}}・{{delay frames=\"8\"}}・{{delay frames=\"8\"}}・{{pageBreak}}{{anim id=\"0\"}}{{color id=\"2\"}}야자열매{{color id=\"65535\"}}의 과즙을 넣어주면{{delay frames=\"10\"}}\n매운맛과 단맛이 어우러지면서{{delay frames=\"5\"}}\n아주 풍부한 맛이 난답니다!{{pageBreak}}{{anim id=\"1\"}}{{fun_00080005 arg=\"\"}}님도{{delay frames=\"5\"}}\n만드실 일이 생기면{{delay frames=\"10\"}}\n절 믿고 꼭 넣어보세요!"
  },
  {
    "label": "021",
    "text": "요리가 일단락되면{{delay frames=\"10\"}}\n광장의 파티장에{{delay frames=\"3\"}}\n저도 가볼까 봐요, {{delay frames=\"15\"}}{{fun_00070005 arg=\"\"}}"
  },
  {
    "label": "022",
    "text": "{{anim id=\"1\"}}오늘은{{delay frames=\"10\"}}\n다양한 신메뉴에 도전해서인지{{delay frames=\"10\"}}\n요리 실력이 좋아진 것 같아요!"
  },
  {
    "label": "023",
    "text": "{{anim id=\"11\"}}그것도 만들어보고 싶고{{delay frames=\"10\"}}\n또 요전에 TV에서 봤던{{delay frames=\"3\"}}\n그 레시피도{{delay frames=\"8\"}}・{{delay frames=\"8\"}}・{{delay frames=\"8\"}}・{{pageBreak}}{{anim id=\"13\"}}만들고 싶은 요리가 너무 많아서{{delay frames=\"10\"}}\n도저히 먹을 시간이 나질 않아요!\n{{delay frames=\"15\"}}{{fun_00070005 arg=\"\"}}!"
  },
  {
    "label": "024",
    "text": "{{anim id=\"4\"}}{{fun_00080005 arg=\"\"}}님께 받은 식재료가{{delay frames=\"15\"}}\n아주 신선해서{{delay frames=\"8\"}} 덕분에\n맛있는 요리가 완성됐어요!"
  },
  {
    "label": "025",
    "text": "{{anim id=\"1\"}}{{fun_00080005 arg=\"\"}}님,{{delay frames=\"15\"}}\n아까는 식재료를 나눠주셔서{{delay frames=\"8\"}}\n정말 감사했어요, {{delay frames=\"15\"}}{{fun_00070005 arg=\"\"}}!"
  },
  {
    "label": "026",
    "text": "{{anim id=\"13\"}}오늘은 추수감사절이라서{{delay frames=\"15\"}}\n눈코 뜰 새 없이 바쁘네요!"
  },
  {
    "label": "027",
    "text": "{{anim id=\"3\"}}1년에 한 번뿐인 추수감사절!{{delay frames=\"20\"}}\n함께 신 나게 즐겨보아요!{{delay frames=\"40\"}}{{anim id=\"37\"}}"
  },
  {
    "label": "028",
    "text": "{{anim id=\"13\"}}오늘은{{delay frames=\"10\"}} 요리를 만드느라{{delay frames=\"8\"}}\n무척 바쁘네요!"
  },
  {
    "label": "029",
    "text": ""
  },
  {
    "label": "030",
    "text": ""
  },
  {
    "label": "031",
    "text": "{{anim id=\"1\"}}후후후!{{fun_00010007 arg=\"\"}}\n{{anim id=\"5\"}}올해 추수감사절도{{delay frames=\"10\"}}\n아주 즐거웠어요, {{delay frames=\"8\"}}{{fun_00070005 arg=\"\"}}!"
  },
  {
    "label": "032",
    "text": "{{anim id=\"1\"}}오늘은 {{delay frames=\"10\"}}배가 터질 정도로{{delay frames=\"10\"}}\n요리를 많이 먹었어요!\n{{delay frames=\"8\"}}{{fun_00070005 arg=\"\"}}!"
  },
  {
    "label": "033",
    "text": "{{anim id=\"1\"}}오늘은 {{delay frames=\"10\"}}제 평소 요리 공부의{{delay frames=\"5\"}}\n성과를 선보일 수 있는 날이라서{{delay frames=\"10\"}}\n아주 뜻깊었답니다!"
  },
  {
    "label": "034",
    "text": "{{fun_00080005 arg=\"\"}}님 덕분에{{delay frames=\"10\"}}\n{{anim id=\"1\"}}완벽한 요리가{{delay frames=\"15\"}} 완성됐어요!"
  },
  {
    "label": "035",
    "text": "{{anim id=\"1\"}}{{fun_00080005 arg=\"\"}}님이{{delay frames=\"8\"}}\n나눠주신 식재료 덕분에{{delay frames=\"15\"}}\n맛난 요리를 만들 수 있었어요!\n{{anim id=\"3\"}}몇몇 이웃들께도 나눠드렸는데{{delay frames=\"10\"}}\n반응이 아주 좋았답니다! {{delay frames=\"8\"}}{{fun_00070005 arg=\"\"}}!{{delay frames=\"40\"}}{{anim id=\"37\"}}"
  },
  {
    "label": "036",
    "text": "{{anim id=\"5\"}}멋진 추수감사절이었어요!{{pageBreak}}{{anim id=\"1\"}}이제부터는 내년을 위해{{delay frames=\"10\"}}\n저만의 창작 레시피를{{delay frames=\"8\"}}\n차근차근 만들어야겠어요"
  },
  {
    "label": "037",
    "text": "{{anim id=\"1\"}}역시{{delay frames=\"10\"}} 추수감사절은{{delay frames=\"10\"}}\n최고인 것 같아요, {{delay frames=\"8\"}}{{fun_00070005 arg=\"\"}}!{{pageBreak}}{{anim id=\"13\"}}조금 더{{delay frames=\"5\"}} 먹고 싶은 마음도 있지만{{delay frames=\"15\"}}\n{{anim id=\"1\"}}지금처럼 적당히 배부를 때\n참는 게 가장 좋겠죠?"
  },
  {
    "label": "038",
    "text": "{{fun_00080005 arg=\"\"}}님도\n이번 추수감사절을{{delay frames=\"10\"}}\n{{anim id=\"23\"}}만끽하셨나요?\n{{anim id=\"1\"}}내년에도{{delay frames=\"10\"}} 풍년을\n함께 기뻐할 수 있었으면\n좋겠네요, {{delay frames=\"8\"}}{{fun_00070005 arg=\"\"}}!"
  },
  {
    "label": "039",
    "text": "{{anim id=\"1\"}}역시{{delay frames=\"8\"}} 추수감사절은{{delay frames=\"10\"}}\n즐거운 날이네요, {{delay frames=\"8\"}}{{fun_00070005 arg=\"\"}}!{{pageBreak}}{{anim id=\"9\"}}{{color id=\"4\"}}프랭클린{{color id=\"65535\"}}님의 요리를{{delay frames=\"10\"}}\n조금밖에 못 먹은 건{{delay frames=\"8\"}} 아쉬웠지만{{delay frames=\"10\"}}\n{{anim id=\"4\"}}맛은 정말 훌륭했어요!"
  },
  {
    "label": "040",
    "text": "{{anim id=\"1\"}}내년 추수감사절에는{{delay frames=\"10\"}}\n어떤 요리가 나올지{{delay frames=\"8\"}} 기대되네요!{{pageBreak}}{{anim id=\"5\"}}저도{{delay frames=\"10\"}}\n{{color id=\"4\"}}프랭클린{{color id=\"65535\"}}님께 지지 않도록{{delay frames=\"10\"}}\n실력을 갈고닦아 둘래요, {{delay frames=\"15\"}}{{fun_00070005 arg=\"\"}}!"
  },
  {
    "label": "041",
    "text": "{{anim id=\"26\"}}올해 추수감사절도{{delay frames=\"10\"}}\n참 즐거웠어요!{{pageBreak}}{{anim id=\"13\"}}{{color id=\"4\"}}프랭클린{{color id=\"65535\"}}님의 메인 요리를{{delay frames=\"10\"}}\n맛볼 수는 없었지만{{pageBreak}}{{anim id=\"1\"}}오늘은 이웃분들이{{delay frames=\"10\"}}\n요리를 많이{{delay frames=\"8\"}} 나눠주셔서{{delay frames=\"15\"}}\n무척 배부르답니다, {{delay frames=\"8\"}}{{fun_00070005 arg=\"\"}}!"
  },
  {
    "label": "042",
    "text": "올해 {{color id=\"4\"}}프랭클린{{color id=\"65535\"}}님의 요리는{{delay frames=\"10\"}}\n다이어트 스타일이었어요! {{delay frames=\"8\"}}{{fun_00070005 arg=\"\"}}!{{pageBreak}}{{anim id=\"1\"}}하지만{{delay frames=\"10\"}} 마을의 다른 분들이\n이런저런 요리를{{delay frames=\"5\"}} 나눠주셔서{{delay frames=\"15\"}}\n{{anim id=\"5\"}}앞으로 3일은{{delay frames=\"10\"}} 굶어도 끄떡없겠어요!"
  },
  {
    "label": "043",
    "text": "{{anim id=\"13\"}}오늘은{{delay frames=\"10\"}} 저도 모르게\n과식하고 말았어요{{delay frames=\"5\"}}・{{delay frames=\"5\"}}・{{delay frames=\"5\"}}・{{pageBreak}}{{anim id=\"39\"}}하지만{{delay frames=\"10\"}} 만약\n디저트까지 나왔다면{{delay frames=\"10\"}}\n꿋꿋이{{delay frames=\"8\"}} 먹었을 거예요"
  },
  {
    "label": "044",
    "text": "{{anim id=\"26\"}}오늘은{{delay frames=\"10\"}} 정말 즐거웠어요!{{delay frames=\"20\"}}\n{{anim id=\"1\"}}특히{{delay frames=\"8\"}} 메인 요리가{{delay frames=\"10\"}}\n최고였답니다!\n{{anim id=\"4\"}}저도{{delay frames=\"10\"}} 그런 맛을\n흉내 내고 싶어요, {{delay frames=\"10\"}}{{fun_00070005 arg=\"\"}}"
  },
  {
    "label": "045",
    "text": "{{anim id=\"1\"}}올해 {{delay frames=\"5\"}}추수감사절은{{delay frames=\"10\"}}\n정말 굉장했어요! {{delay frames=\"8\"}}{{fun_00070005 arg=\"\"}}!{{pageBreak}}{{anim id=\"5\"}}맛있는 요리에{{delay frames=\"10\"}}\n디저트로 마무리까지{{delay frames=\"5\"}}・{{delay frames=\"5\"}}・{{delay frames=\"5\"}}・{{delay frames=\"15\"}}\n얼마나{{delay frames=\"8\"}} 행복했는지 몰라요"
  },
  {
    "label": "046",
    "text": "{{anim id=\"1\"}}{{fun_00080005 arg=\"\"}}님,{{delay frames=\"15\"}}\n오늘 {{color id=\"4\"}}프랭클린{{color id=\"65535\"}}님의{{delay frames=\"8\"}}\n조수 역할을 맡으셨었죠?{{pageBreak}}{{anim id=\"15\"}}역시～!{{fun_00010007 arg=\"\"}}\n{{anim id=\"5\"}}유독 오늘따라 요리가{{delay frames=\"15\"}}\n더 맛있더라구요!\n{{anim id=\"1\"}}맛에 포인트가 살아 있어서{{delay frames=\"10\"}}\n나중에 저도 참고하고 싶어요,\n{{delay frames=\"15\"}}{{fun_00070005 arg=\"\"}}!"
  },
  {
    "label": "047",
    "text": "{{anim id=\"1\"}}이번 추수감사절도{{delay frames=\"15\"}}\n대성공이네요! {{delay frames=\"8\"}}{{fun_00070005 arg=\"\"}}!{{pageBreak}}{{anim id=\"43\"}}{{color id=\"4\"}}프랭클린{{color id=\"65535\"}}님의 풀코스는{{delay frames=\"10\"}}\n정말 맛있었어요{{delay frames=\"8\"}}・{{delay frames=\"8\"}}・{{delay frames=\"8\"}}・"
  },
  {
    "label": "048",
    "text": "{{anim id=\"13\"}}아아!{{delay frames=\"20\"}}\n너무 배불러요! {{delay frames=\"8\"}}{{fun_00070005 arg=\"\"}}!{{pageBreak}}{{anim id=\"1\"}}{{fun_00080005 arg=\"\"}}님도{{delay frames=\"8\"}}\n오늘 고생 많으셨어요!{{fun_00010007 arg=\"\"}}\n내년은 어떨지{{delay frames=\"10\"}} 기대되네요!"
  },
  {
    "label": "049",
    "text": ""
  },
  {
    "label": "050",
    "text": ""
  },
  {
    "label": "051",
    "text": "저는 {{delay frames=\"10\"}}{{color id=\"2\"}}굴{{color id=\"65535\"}}을 먹을 때{{delay frames=\"10\"}}\n반드시 {{color id=\"2\"}}레몬{{color id=\"65535\"}}을 그 위에 짜서{{delay frames=\"5\"}}\n먹는답니다{{pageBreak}}그렇게 하면{{delay frames=\"10\"}}\n비린내가 좀 덜해져서{{delay frames=\"5\"}}\n먹기가 훨씬 수월하거든요{{pageBreak}}{{anim id=\"1\"}}이 조합은{{delay frames=\"10\"}} 굴을 사용하는 요리라면{{delay frames=\"3\"}}\n어디든지 활용할 수 있어요, {{delay frames=\"15\"}}{{fun_00070005 arg=\"\"}}!"
  },
  {
    "label": "052",
    "text": "{{anim id=\"11\"}}{{color id=\"2\"}}버섯{{color id=\"65535\"}}이 주재료인 샐러드는{{delay frames=\"10\"}}\n자칫하면 씹는 맛이 그저 그렇다는\n평가를 받기 쉬운데요{{delay frames=\"8\"}}・{{delay frames=\"8\"}}・{{delay frames=\"8\"}}・\n{{anim id=\"1\"}}제가 요전에 시험 삼아{{delay frames=\"5\"}}\n잘게 다진 {{color id=\"2\"}}사과{{color id=\"65535\"}}를 넣었더니{{delay frames=\"10\"}}\n아주 그만이더라구요!{{pageBreak}}{{anim id=\"0\"}}티가 날 듯 안 날 듯 살짝{{delay frames=\"5\"}}・{{delay frames=\"5\"}}・{{delay frames=\"5\"}}・{{delay frames=\"15\"}}\n이런 느낌이{{delay frames=\"5\"}}{{anim id=\"23\"}} 적중한 걸까요?{{pageBreak}}{{anim id=\"1\"}}아무튼 상당히 괜찮은 방법이니까{{delay frames=\"10\"}}\n혹시 만드실 기회가 있으면\n그렇게 해보세요, {{delay frames=\"15\"}}{{fun_00070005 arg=\"\"}}!"
  },
  {
    "label": "053",
    "text": "{{color id=\"2\"}}과일{{color id=\"65535\"}}을 주재료로 샐러드를{{delay frames=\"10\"}}\n{{anim id=\"23\"}}만들어보신 적 있으세요?{{pageBreak}}{{anim id=\"0\"}}샐러드를 만들 때는{{delay frames=\"10\"}} 아무래도{{delay frames=\"3\"}}\n드레싱에 비니거를 넣는 경우가{{delay frames=\"3\"}}\n많은데요{{delay frames=\"8\"}}・{{delay frames=\"8\"}}・{{delay frames=\"8\"}}・{{pageBreak}}{{anim id=\"1\"}}저라면 그럴 때{{delay frames=\"15\"}}\n{{color id=\"2\"}}벌집{{color id=\"65535\"}}에서 채취한{{delay frames=\"10\"}} 벌꿀을\n넣는 걸{{delay frames=\"3\"}} 추천하겠어요!{{pageBreak}}{{anim id=\"0\"}}양을 잘못 넣으면{{delay frames=\"5\"}} 순식간에\n디저트가 되어 버리니까{{delay frames=\"10\"}}\n아주 살짝 넣는 게 좋답니다!"
  },
  {
    "label": "054",
    "text": "여러 가지 식재료를 사용한 샐러드는{{delay frames=\"15\"}}\n{{anim id=\"23\"}}드레싱을 어떻게 만들지 고민되지 않나요?{{pageBreak}}{{anim id=\"36\"}}제가 {{delay frames=\"5\"}}최근에 발견한 건데{{delay frames=\"10\"}}\n제일 안전한 선택지는{{delay frames=\"8\"}}\n바로 {{color id=\"2\"}}비니거{{color id=\"65535\"}}랍니다!{{pageBreak}}{{anim id=\"37\"}}{{fun_00080005 arg=\"\"}}님도{{delay frames=\"10\"}}\n{{color id=\"2\"}}믹스 샐러드{{color id=\"65535\"}}를 만드실 때는{{delay frames=\"5\"}}\n안전을 택하시는 게 좋겠어요!"
  },
  {
    "label": "055",
    "text": "{{color id=\"2\"}}물고기{{color id=\"65535\"}}를 잔뜩 사용한 샐러드는{{delay frames=\"10\"}}\n아무래도 비린내가{{delay frames=\"5\"}}\n{{anim id=\"23\"}}신경 쓰이잖아요?{{pageBreak}}{{anim id=\"39\"}}어떻게 보면 당연한 거라서{{delay frames=\"8\"}}\n새삼스럽게 말씀드리기\n부끄럽긴 하지만{{delay frames=\"8\"}}・{{delay frames=\"8\"}}・{{delay frames=\"8\"}}・{{pageBreak}}{{anim id=\"1\"}}누가 뭐래도{{delay frames=\"10\"}}\n비린내 제거에는{{delay frames=\"5\"}}\n{{color id=\"2\"}}레몬{{color id=\"65535\"}}만 한 게 없죠! {{delay frames=\"15\"}}{{fun_00070005 arg=\"\"}}!"
  },
  {
    "label": "056",
    "text": "요맘때에는 {{color id=\"2\"}}버섯{{color id=\"65535\"}}이 많이 나와서{{delay frames=\"15\"}}\n포타주를 만들어 먹는 분들도{{delay frames=\"5\"}}\n많을 것 같은데요{{delay frames=\"5\"}}・{{delay frames=\"5\"}}・{{delay frames=\"5\"}}・\n전 그럴 때{{delay frames=\"10\"}} 항상{{delay frames=\"5\"}}\n마지막에 {{color id=\"2\"}}버터{{color id=\"65535\"}}를 한 조각 넣어\n녹인답니다{{pageBreak}}{{anim id=\"1\"}}그렇게 하면{{delay frames=\"3\"}}\n부드럽고 깊은 맛이 살아나서{{delay frames=\"5\"}}\n정말 맛있거든요!"
  },
  {
    "label": "057",
    "text": "{{color id=\"2\"}}조개{{color id=\"65535\"}}가 많이 잡히는 시기에는{{delay frames=\"10\"}}\n수프로 요리해 먹는 경우도{{delay frames=\"3\"}}\n많을 텐데요{{delay frames=\"5\"}}・{{delay frames=\"5\"}}・{{delay frames=\"5\"}}・\n전 그럴 때{{delay frames=\"10\"}} 언제나{{delay frames=\"5\"}}\n마지막에 {{color id=\"2\"}}버터{{color id=\"65535\"}}를 한 조각\n넣어준답니다{{pageBreak}}{{anim id=\"1\"}}그렇게 하면{{delay frames=\"3\"}}\n더욱 깊고 풍부한 맛이 나서{{delay frames=\"10\"}}\n아주 좋거든요!"
  },
  {
    "label": "058",
    "text": "{{anim id=\"4\"}}다양한 종류의 {{color id=\"2\"}}물고기{{color id=\"65535\"}}를{{delay frames=\"8\"}}\n듬뿍 넣어 만든 수프는{{delay frames=\"5\"}}\n참 맛있죠～ {{delay frames=\"15\"}}{{fun_00070005 arg=\"\"}}～{{pageBreak}}{{anim id=\"11\"}}저는 그걸 만들 때 항상{{delay frames=\"15\"}}\n마지막에 {{color id=\"2\"}}레몬{{color id=\"65535\"}} 과즙을\n살짝 넣는데요{{delay frames=\"8\"}}・{{delay frames=\"8\"}}・{{delay frames=\"8\"}}・{{pageBreak}}{{anim id=\"1\"}}그렇게 하면 비린내를 잡을 수 있어서{{delay frames=\"15\"}}\n먹기 훨씬 수월해진답니다!"
  },
  {
    "label": "059",
    "text": "{{fun_00080005 arg=\"\"}}님은{{delay frames=\"10\"}}\n{{color id=\"2\"}}과일{{color id=\"65535\"}}만 사용한 수프를{{delay frames=\"8\"}}\n{{anim id=\"23\"}}드셔보신 적이 있나요?{{pageBreak}}{{anim id=\"0\"}}설명만 들으면{{delay frames=\"10\"}}\n마치 주스나{{delay frames=\"3\"}} 디저트 같을 거라고{{delay frames=\"3\"}}\n생각하실 수도 있겠지만{{delay frames=\"8\"}}・{{delay frames=\"8\"}}・{{delay frames=\"8\"}}・{{pageBreak}}{{anim id=\"1\"}}이게 생각보다{{delay frames=\"10\"}}\n제대로 된 코스 요리의 수프로{{delay frames=\"3\"}}\n한몫한답니다! {{delay frames=\"8\"}}{{fun_00070005 arg=\"\"}}!{{pageBreak}}맛있게 만드는 비결은{{delay frames=\"10\"}} 마지막에{{delay frames=\"3\"}}\n{{color id=\"2\"}}레몬{{color id=\"65535\"}}을 가볍게 짜서 과즙을 넣는 거예요{{fun_00010007 arg=\"\"}}\n{{anim id=\"1\"}}기회가 되시면{{delay frames=\"10\"}} 도전해보세요"
  },
  {
    "label": "060",
    "text": "아주 매운 요리에{{delay frames=\"10\"}} 약간 단맛이 더해지면{{delay frames=\"10\"}}\n서로 어우러지면서{{delay frames=\"8\"}}\n더 맛있게 느껴지는 법이잖아요?{{pageBreak}}{{anim id=\"1\"}}열대 지역에{{delay frames=\"5\"}} 고추와 코코넛을\n사용한 요리가 많은 것도{{delay frames=\"15\"}}\n아마 비슷한 맥락일 거예요{{pageBreak}}{{anim id=\"0\"}}저도 최근에{{delay frames=\"10\"}} 잠수해서 잡은{{delay frames=\"3\"}}\n바닷가재를 사용해서{{delay frames=\"15\"}}\n{{color id=\"2\"}}톰얌쿵{{color id=\"65535\"}}을 만들었는데요\n{{anim id=\"1\"}}{{color id=\"2\"}}야자열매{{color id=\"65535\"}}를 넣어{{delay frames=\"3\"}} 맛에 포인트를 줬더니{{delay frames=\"10\"}}\n맛이 아주 좋아졌답니다!{{delay frames=\"30\"}}\n{{anim id=\"21\"}}이 조합은{{delay frames=\"10\"}} 자신 있게 추천할 수 있어요!"
  },
  {
    "label": "061",
    "text": "{{color id=\"2\"}}물고기{{color id=\"65535\"}} 요리에는{{delay frames=\"10\"}}\n{{color id=\"2\"}}레몬{{color id=\"65535\"}}이나 {{color id=\"2\"}}비니거{{color id=\"65535\"}}로{{delay frames=\"8\"}}\n새콤한 맛을 첨가하는 게 정석이랍니다!{{pageBreak}}{{anim id=\"11\"}}둘 중에 뭘 넣을지{{delay frames=\"3\"}}\n종종 고민하게 되는데요{{delay frames=\"8\"}}・{{delay frames=\"8\"}}・{{delay frames=\"8\"}}・{{pageBreak}}{{anim id=\"36\"}}사실 그런 건{{delay frames=\"10\"}}\n개인적인 취향 문제니까{{delay frames=\"3\"}}\n어느 쪽이든 상관없는 것 같아요, {{delay frames=\"8\"}}{{fun_00070005 arg=\"\"}}"
  },
  {
    "label": "062",
    "text": "{{color id=\"2\"}}물고기{{color id=\"65535\"}}를 사용한 요리에는{{delay frames=\"10\"}}\n{{color id=\"2\"}}레몬{{color id=\"65535\"}}이나 {{color id=\"2\"}}비니거{{color id=\"65535\"}} 같은{{delay frames=\"8\"}} 새콤한 맛을 넣는 게\n기본처럼 여겨지고 있답니다!{{pageBreak}}{{anim id=\"11\"}}둘 중에 뭘 선택할지{{delay frames=\"3\"}}\n고민이 되는 부분이지만{{delay frames=\"8\"}}・{{delay frames=\"8\"}}・{{delay frames=\"8\"}}・{{pageBreak}}{{anim id=\"36\"}}생각해보면{{delay frames=\"10\"}} 취향에 따른\n문제라고 해도{{delay frames=\"3\"}} 과언이 아니라서\n적당히 고르면 되더라구요, {{delay frames=\"8\"}}{{fun_00070005 arg=\"\"}}"
  },
  {
    "label": "063",
    "text": "{{color id=\"2\"}}물고기{{color id=\"65535\"}} 요리에는{{delay frames=\"10\"}}\n{{color id=\"2\"}}레몬{{color id=\"65535\"}}이나 {{color id=\"2\"}}비니거{{color id=\"65535\"}}처럼{{delay frames=\"8\"}} 새콤한 맛을\n추가하는 게 당연시되고 있죠!{{pageBreak}}{{anim id=\"11\"}}둘 중 뭘 넣을지{{delay frames=\"3\"}}\n고민하는 경우도 많은데{{delay frames=\"8\"}}・{{delay frames=\"8\"}}・{{delay frames=\"8\"}}・{{pageBreak}}{{anim id=\"36\"}}그런 건 사실{{delay frames=\"10\"}} 취향 문제라서{{delay frames=\"3\"}}\n어느 쪽이든 상관없다고 생각해요,\n{{delay frames=\"8\"}}{{fun_00070005 arg=\"\"}}"
  },
  {
    "label": "064",
    "text": "{{color id=\"2\"}}물고기{{color id=\"65535\"}} 요리에는{{delay frames=\"10\"}}\n{{color id=\"2\"}}레몬{{color id=\"65535\"}}이나 {{color id=\"2\"}}비니거{{color id=\"65535\"}}를 넣어{{delay frames=\"8\"}} 새콤한 맛으로\n포인트를 주기 마련이죠!{{pageBreak}}{{anim id=\"11\"}}어느 쪽을 선택하면 좋을지{{delay frames=\"3\"}}\n고민하는 상황도\n종종 보게 되는데요{{delay frames=\"8\"}}・{{delay frames=\"8\"}}・{{delay frames=\"8\"}}・{{pageBreak}}{{anim id=\"36\"}}따지고 보면 사실 그런 건{{delay frames=\"10\"}}\n취향 문제에 불과한 거라서{{delay frames=\"3\"}}\n둘 다 좋답니다, {{delay frames=\"8\"}}{{fun_00070005 arg=\"\"}}"
  },
  {
    "label": "065",
    "text": "{{color id=\"2\"}}물고기{{color id=\"65535\"}} 요리에는{{delay frames=\"10\"}}\n{{color id=\"2\"}}레몬{{color id=\"65535\"}}이나 {{color id=\"2\"}}비니거{{color id=\"65535\"}}의{{delay frames=\"8\"}} 새콤함으로\n비린내를 잡는 게 정석이랍니다!{{pageBreak}}{{anim id=\"11\"}}둘 중에 뭘 사용할지가{{delay frames=\"3\"}}\n종종 고민거리로\n떠오르기도 하는데요{{delay frames=\"8\"}}・{{delay frames=\"8\"}}・{{delay frames=\"8\"}}・{{pageBreak}}{{anim id=\"36\"}}어떻게 보면 그건 그냥{{delay frames=\"10\"}}\n취향의 차이니까{{delay frames=\"3\"}} 전 어느 쪽이든\n다 괜찮다고 봐요, {{delay frames=\"8\"}}{{fun_00070005 arg=\"\"}}"
  },
  {
    "label": "066",
    "text": "{{color id=\"2\"}}과일{{color id=\"65535\"}} 파이를 만들 때는{{delay frames=\"10\"}}\n되도록 과일 자체의 단맛을{{delay frames=\"3\"}}\n살리는 게 좋아요{{pageBreak}}그럴 때 저는{{delay frames=\"10\"}} 벌꿀로{{delay frames=\"3\"}}\n단맛을 조절한답니다{{pageBreak}}{{anim id=\"43\"}}우리 마을의 과일과{{delay frames=\"15\"}}\n{{color id=\"2\"}}벌집{{color id=\"65535\"}}에서 채취한{{delay frames=\"3\"}} 벌꿀로\n만든 파이{{delay frames=\"8\"}}・{{delay frames=\"8\"}}・{{delay frames=\"8\"}}・{{pageBreak}}{{anim id=\"4\"}}한 해의 수확을 기뻐하는{{delay frames=\"5\"}}\n추수감사절에{{delay frames=\"8\"}} 딱 걸맞는\n디저트죠, {{delay frames=\"15\"}}{{fun_00070005 arg=\"\"}}!"
  },
  {
    "label": "067",
    "text": "{{color id=\"2\"}}과일{{color id=\"65535\"}} 파이를 구울 때는{{delay frames=\"10\"}}\n가급적 과일 자체의 단맛을{{delay frames=\"3\"}}\n살리는 게 가장 좋아요{{pageBreak}}저 같은 경우에는 그럴 때{{delay frames=\"10\"}}\n벌꿀로 {{delay frames=\"3\"}}단맛을 조절하는데요{{pageBreak}}{{anim id=\"43\"}}마을에서 수확한 과일과{{delay frames=\"15\"}}\n마을의 {{color id=\"2\"}}벌집{{color id=\"65535\"}}에서 난{{delay frames=\"3\"}} 벌꿀로\n파이를 만들면{{delay frames=\"8\"}}・{{delay frames=\"8\"}}・{{delay frames=\"8\"}}・{{pageBreak}}{{anim id=\"4\"}}수확의 기쁨을 나누는{{delay frames=\"5\"}}\n추수감사절에{{delay frames=\"8\"}} 이보다 더 좋은\n디저트가 어딨겠어요, {{delay frames=\"15\"}}{{fun_00070005 arg=\"\"}}!"
  },
  {
    "label": "068",
    "text": "{{anim id=\"11\"}}다양한 파이 중에서{{delay frames=\"15\"}}\n많은 종류의 {{color id=\"2\"}}과일{{color id=\"65535\"}}을 사용하는{{delay frames=\"3\"}}\n파이를 만들 때 얘긴데요{{delay frames=\"8\"}}・{{delay frames=\"8\"}}・{{delay frames=\"8\"}}・{{pageBreak}}{{anim id=\"0\"}}그런 파이는{{delay frames=\"10\"}} 각각의 과일이 내는\n단맛만으로도 충분하니까{{delay frames=\"10\"}}\n전 다른 건{{delay frames=\"3\"}} 넣지 않으려고 해요\n{{anim id=\"43\"}}{{color id=\"2\"}}레몬{{color id=\"65535\"}}을 살짝 짜서 과즙을 넣어{{delay frames=\"10\"}}\n약간 새콤한 맛이 더해지면{{delay frames=\"8\"}}・{{delay frames=\"8\"}}・{{delay frames=\"8\"}}・{{pageBreak}}{{anim id=\"1\"}}과일의 자연스러운 단맛이 돋보이면서{{delay frames=\"10\"}}\n맛도 좋아지니까 다른 건\n필요 없답니다, {{delay frames=\"15\"}}{{fun_00070005 arg=\"\"}}!"
  },
  {
    "label": "069",
    "text": "{{color id=\"2\"}}과일{{color id=\"65535\"}}을 사용해서 파이를 만들 때는{{delay frames=\"10\"}}\n가능한 한 과일 자체의 단맛을{{delay frames=\"3\"}}\n살리고 싶기 마련이잖아요?{{pageBreak}}저는 그럴 때{{delay frames=\"10\"}} 벌꿀로{{delay frames=\"3\"}}\n단맛을 조절하는 걸 추천해요{{pageBreak}}{{anim id=\"43\"}}우리 마을에서 딴 과일과{{delay frames=\"15\"}}\n우리 마을 {{color id=\"2\"}}벌집{{color id=\"65535\"}}에서 채취한{{delay frames=\"3\"}}\n벌꿀이 어우러진 파이{{delay frames=\"8\"}}・{{delay frames=\"8\"}}・{{delay frames=\"8\"}}・{{pageBreak}}{{anim id=\"4\"}}수확의 기쁨을 함께 나누는{{delay frames=\"5\"}}\n추수감사절에{{delay frames=\"8\"}} 그야말로\n제격인 디저트죠, {{delay frames=\"15\"}}{{fun_00070005 arg=\"\"}}!"
  },
  {
    "label": "070",
    "text": "{{color id=\"2\"}}과일{{color id=\"65535\"}}이 주재료인 파이를 구울 때{{delay frames=\"10\"}}\n기왕이면 과일 자체의 단맛을{{delay frames=\"3\"}}\n살리는 게 더 좋잖아요?{{pageBreak}}저는 그럴 때{{delay frames=\"10\"}} 벌꿀로\n{{delay frames=\"3\"}}단맛을 조절한답니다{{pageBreak}}{{anim id=\"43\"}}우리 마을에서 난 과일과{{delay frames=\"15\"}}\n우리 마을의 {{color id=\"2\"}}벌집{{color id=\"65535\"}}에서 채취한{{delay frames=\"3\"}}\n벌꿀로 파이를 만들면{{delay frames=\"8\"}}・{{delay frames=\"8\"}}・{{delay frames=\"8\"}}・{{pageBreak}}{{anim id=\"4\"}}한 해의 수확을 기뻐하는{{delay frames=\"5\"}}\n추수감사절에{{delay frames=\"8\"}} 걸맞는\n디저트가 완성될 거예요, {{delay frames=\"15\"}}{{fun_00070005 arg=\"\"}}!"
  },
  {
    "label": "071",
    "text": "{{anim id=\"1\"}}오늘은{{delay frames=\"3\"}} 추수감사절이니까{{delay frames=\"15\"}}\n열심히 요리 중인 분들이 {{delay frames=\"10\"}}많겠죠?{{pageBreak}}{{anim id=\"0\"}}저도{{delay frames=\"5\"}} 여기저기 구경하면서{{delay frames=\"15\"}}\n{{anim id=\"5\"}}요리 비결을 좀 배워야겠어요"
  },
  {
    "label": "072",
    "text": "{{anim id=\"43\"}}어쩐지 좋은 냄새가{{delay frames=\"3\"}} 난다 싶더라니{{delay frames=\"15\"}}\n모두들 집에서{{delay frames=\"10\"}} 요리를\n하고 계시나 봐요\n{{anim id=\"22\"}}혹시 다른 분들 집에 놀러 가면{{delay frames=\"10\"}}\n남은 식재료를{{delay frames=\"8\"}} {{anim id=\"37\"}}얻을 수 있을지도\n모르겠네요! {{delay frames=\"15\"}}{{fun_00070005 arg=\"\"}}!"
  },
  {
    "label": "073",
    "text": "{{anim id=\"1\"}}이번 추수감사절을{{delay frames=\"15\"}}\n무척{{delay frames=\"3\"}} 기대했었답니다～{{pageBreak}}{{anim id=\"37\"}}요리는 만드는 것도 중요하지만{{delay frames=\"15\"}}\n여러 가지를 맛보며{{delay frames=\"10\"}} 미각을\n갈고닦는 것도{{delay frames=\"5\"}} 중요한 것 같아요"
  },
  {
    "label": "074",
    "text": "{{anim id=\"5\"}}후후후!{{delay frames=\"30\"}}\n오늘따라 {{fun_00050005 arg=\"\"}} 마을에{{delay frames=\"15\"}}\n좋은 냄새가 감돌지 않나요?\n{{anim id=\"1\"}}바로 {{delay frames=\"10\"}}오늘이 추수감사절이기{{delay frames=\"3\"}}\n때문이랍니다, {{delay frames=\"15\"}}{{fun_00070005 arg=\"\"}}!{{pageBreak}}{{anim id=\"0\"}}{{fun_00080005 arg=\"\"}}님이{{delay frames=\"10\"}}\n분위기만이라도{{delay frames=\"3\"}}\n{{anim id=\"37\"}}마음껏 즐기셨으면 좋겠네요{{anim id=\"38\"}}"
  },
  {
    "label": "075",
    "text": "{{anim id=\"1\"}}오늘은 추수감사절이라서{{delay frames=\"15\"}}\n집에 계신 분들은{{delay frames=\"10\"}} 아마\n요리 만들기가 한창일 거예요\n{{anim id=\"0\"}}어쩌면 {{delay frames=\"3\"}}다들 너무 바빠서{{delay frames=\"15\"}}\n{{anim id=\"36\"}}얘기하실 짬이 없으실지도 모르겠네요"
  },
  {
    "label": "076",
    "text": "{{anim id=\"1\"}}가을이라고 하면{{delay frames=\"10\"}}\n역시 식욕의 계절 아니겠어요?{{pageBreak}}{{anim id=\"5\"}}이런 계절에 딱 맞는 이벤트인{{delay frames=\"15\"}}\n추수감사절이{{delay frames=\"3\"}} 바로 오늘이랍니다!{{pageBreak}}{{anim id=\"1\"}}광장에는{{delay frames=\"3\"}} 프로 요리사가 오셔서{{delay frames=\"15\"}}\n축제 분위기를 한껏 돋우고 계시죠{{pageBreak}}{{anim id=\"0\"}}{{fun_00080005 arg=\"\"}}님도{{delay frames=\"10\"}}\n{{anim id=\"1\"}}맛있는 요리의 향기만이라도{{delay frames=\"10\"}}\n즐길 수 있으시길 바랄게요!"
  },
  {
    "label": "077",
    "text": "{{anim id=\"5\"}}이번 추수감사절,{{delay frames=\"15\"}}\n참 즐거웠어요～!{{pageBreak}}{{anim id=\"37\"}}다른 주민분들도{{delay frames=\"10\"}}\n{{anim id=\"38\"}}충분히 만끽하셨겠죠?"
  },
  {
    "label": "078",
    "text": "{{anim id=\"1\"}}이벤트는 끝났지만{{delay frames=\"15\"}}\n{{anim id=\"0\"}}전 오늘{{delay frames=\"10\"}} 배운 요리 지식을 활용해서{{delay frames=\"10\"}}\n{{anim id=\"1\"}}내일부터 또{{delay frames=\"3\"}} 열심히 요리할 거예요"
  },
  {
    "label": "079",
    "text": "{{anim id=\"1\"}}{{color id=\"4\"}}프랭클린{{color id=\"65535\"}}님도{{delay frames=\"10\"}} 이벤트를\n참 흥겹게 만들어주셨죠?{{delay frames=\"15\"}}\n{{anim id=\"5\"}}덕분에 저도 재밌었어요"
  },
  {
    "label": "080",
    "text": "{{anim id=\"39\"}}{{color id=\"4\"}}프랭클린{{color id=\"65535\"}}님의 요리를{{delay frames=\"10\"}}\n맛보지 못한 건 안타까웠지만{{delay frames=\"15\"}}\n{{anim id=\"1\"}}내년을{{delay frames=\"5\"}} 기약해야겠네요"
  },
  {
    "label": "081",
    "text": "{{anim id=\"37\"}}{{color id=\"4\"}}프랭클린{{color id=\"65535\"}}님의 올해 요리는{{delay frames=\"10\"}}\n웰빙 스타일이었네요{{pageBreak}}{{anim id=\"0\"}}아무튼 우리들을 위해{{delay frames=\"15\"}}\n{{anim id=\"37\"}}온 힘을 다해{{delay frames=\"3\"}} 노력해주신 건{{delay frames=\"15\"}}\n{{anim id=\"21\"}}무척 기뻤답니다"
  },
  {
    "label": "082",
    "text": "{{anim id=\"1\"}}{{color id=\"4\"}}프랭클린{{color id=\"65535\"}}님의 요리는{{delay frames=\"10\"}}\n드셨나요?{{pageBreak}}{{anim id=\"0\"}}양이 많은 편은 아니었지만{{delay frames=\"15\"}}\n{{anim id=\"1\"}}하나하나{{delay frames=\"5\"}} 깔끔하게 담겨 있는 게{{delay frames=\"10\"}}\n아주 인상적이었어요, {{delay frames=\"15\"}}{{fun_00070005 arg=\"\"}}\n{{anim id=\"5\"}}다음에{{delay frames=\"3\"}} 손님에게 요리를 대접할 때{{delay frames=\"10\"}}\n그 데코레이션을{{delay frames=\"3\"}} 따라 해봐야겠어요"
  },
  {
    "label": "083",
    "text": "{{anim id=\"1\"}}추수감사절은{{delay frames=\"10\"}}\n즐거우셨나요?{{pageBreak}}{{anim id=\"5\"}}저는 {{delay frames=\"10\"}}{{color id=\"4\"}}프랭클린{{color id=\"65535\"}}님의\n요리를 맛볼 수 있어서{{delay frames=\"15\"}}\n무척 만족스러웠답니다{{pageBreak}}{{anim id=\"43\"}}메인 요리도{{delay frames=\"3\"}} 참 맛있었어요{{delay frames=\"15\"}}\n{{anim id=\"1\"}}배가{{delay frames=\"5\"}} 빵빵하게 불렀지 뭐예요?"
  },
  {
    "label": "084",
    "text": "{{anim id=\"5\"}}{{color id=\"4\"}}프랭클린{{color id=\"65535\"}}님의 올해 요리는{{delay frames=\"15\"}}\n풀코스로 나와서{{delay frames=\"3\"}} 아주 호화로웠어요!{{pageBreak}}{{anim id=\"39\"}}저는 메인 요리를 먹고 나서{{delay frames=\"10\"}}\n꽤 배가 불렀지만{{delay frames=\"8\"}}・{{delay frames=\"8\"}}・{{delay frames=\"8\"}}・{{delay frames=\"20\"}}\n{{anim id=\"37\"}}역시{{delay frames=\"3\"}}{{anim id=\"38\"}} 디저트가 들어갈 배는 따로 있었어요!"
  },
  {
    "label": "085",
    "text": "{{anim id=\"5\"}}이번 추수감사절은{{delay frames=\"10\"}}\n정말 즐거웠어요, {{delay frames=\"15\"}}{{fun_00070005 arg=\"\"}}{{pageBreak}}{{anim id=\"43\"}}동네방네{{delay frames=\"10\"}} 맛있는 냄새로\n가득했던{{delay frames=\"8\"}}・{{delay frames=\"8\"}}・{{delay frames=\"8\"}}・{{delay frames=\"20\"}}\n{{anim id=\"1\"}}아주 행복한 이벤트였답니다"
  },
  {
    "label": "086",
    "text": "{{anim id=\"1\"}}맛있는 요리에 둘러싸이면{{delay frames=\"15\"}}\n누구나{{delay frames=\"8\"}} 행복한 기분이 들잖아요?{{pageBreak}}{{anim id=\"21\"}}이번 추수감사절은{{delay frames=\"15\"}}\n{{anim id=\"38\"}}그런 행복이 가득했던 하루였어요"
  },
  {
    "label": "087",
    "text": "{{anim id=\"1\"}}이벤트도 무사히 끝났고{{delay frames=\"15\"}}\n배도 불러서 만족스럽네요, {{delay frames=\"15\"}}{{fun_00070005 arg=\"\"}}{{pageBreak}}{{anim id=\"2\"}}이 정도라면{{delay frames=\"5\"}} 앞으로 며칠 동안{{delay frames=\"15\"}}\n아무것도 안 먹어도{{delay frames=\"3\"}}\n버틸 수 있지 않을까요?{{delay frames=\"30\"}}{{anim id=\"37\"}}"
  }
]