﻿[
  {
    "label": "001",
    "text": "{{i10_16 arg=\"2\"}}"
  },
  {
    "label": "002",
    "text": "{{anim id=\"1\"}}저에게 봄은{{delay frames=\"10\"}} 새로운 책들과{{delay frames=\"5\"}}\n만나는 계절이기도 하답니다!\n{{delay frames=\"10\"}}{{fun_00070005 arg=\"\"}}!{{pageBreak}}{{anim id=\"43\"}}어떤 책이{{delay frames=\"10\"}} 저와의\n만남을 기다리고 있을지{{delay frames=\"8\"}}・{{delay frames=\"8\"}}・{{delay frames=\"8\"}}・{{fun_00010007 arg=\"\"}}\n{{anim id=\"5\"}}생각만 해도 가슴이 설레어요!"
  },
  {
    "label": "003",
    "text": "{{anim id=\"1\"}}여름에는{{delay frames=\"10\"}} 바닷가에서\n독서를 하면{{delay frames=\"10\"}} 아주 그만이에요!\n{{delay frames=\"15\"}}{{fun_00070005 arg=\"\"}}!{{pageBreak}}바다가 아니라{{delay frames=\"10\"}}\n{{anim id=\"21\"}}이야기의 세계로\n풍덩 뛰어드는 거죠!"
  },
  {
    "label": "004",
    "text": "{{anim id=\"1\"}}요즘 같은 계절은{{delay frames=\"10\"}}\n조용한 밤에{{delay frames=\"5\"}} 책을 읽기에\n안성맞춤이랍니다{{pageBreak}}{{anim id=\"0\"}}얼마 전에도{{delay frames=\"5\"}} 도감을 좀 보려다가{{delay frames=\"15\"}}\n식물, {{delay frames=\"8\"}}동물, {{delay frames=\"8\"}}화석{{delay frames=\"8\"}}・{{delay frames=\"8\"}}・{{delay frames=\"8\"}}・{{delay frames=\"8\"}} 등등{{delay frames=\"15\"}}\n{{anim id=\"1\"}}총 10권이 넘는{{delay frames=\"3\"}} 책을 읽어 버렸지 뭐예요!"
  },
  {
    "label": "005",
    "text": "{{anim id=\"1\"}}겨울에는 따뜻한 침대 속에서{{delay frames=\"10\"}}\n{{anim id=\"5\"}}이불을 둘둘 몸에 말고 독서하면{{delay frames=\"15\"}}\n최고랍니다～ {{delay frames=\"15\"}}{{fun_00070005 arg=\"\"}}～{{pageBreak}}{{anim id=\"43\"}}거기에 제가 좋아하는 책과{{delay frames=\"5\"}}\n귤만 있으면{{delay frames=\"8\"}}・{{delay frames=\"8\"}}・{{delay frames=\"8\"}}・{{delay frames=\"20\"}}\n{{anim id=\"4\"}}천국이 따로 없어요!"
  },
  {
    "label": "006",
    "text": ""
  },
  {
    "label": "007",
    "text": ""
  },
  {
    "label": "008",
    "text": "{{fun_00020009 arg=\"0x0900100013001600\"}}"
  },
  {
    "label": "009",
    "text": "{{anim id=\"37\"}}갑작스러운 질문이지만{{delay frames=\"10\"}}\n제가{{delay frames=\"10\"}} 지금 무엇에 대해 생각하고 있는지{{delay frames=\"5\"}}\n맞혀보시겠어요?{{fun_00000008 arg=\"0x0A0000000D000000\"}}\n미래에 대해\n과거에 대해"
  },
  {
    "label": "010",
    "text": "{{fun_00000009 arg=\"0x0B000C00\"}}"
  },
  {
    "label": "011",
    "text": "{{anim id=\"16\"}}어떻게 아셨어요?{{pageBreak}}{{anim id=\"0\"}}앞으로 어떻게 해야{{delay frames=\"10\"}}\n저다운 인생을 살 수 있을지{{delay frames=\"15\"}}\n{{anim id=\"21\"}}계속 생각하고 있었답니다\n{{anim id=\"11\"}}그런데{{delay frames=\"10\"}} 저다운 게{{delay frames=\"8\"}} 어떤 걸까요{{delay frames=\"8\"}}・{{delay frames=\"8\"}}・{{delay frames=\"8\"}}・{{delay frames=\"8\"}}?{{fun_00010007 arg=\"\"}}\n{{anim id=\"37\"}}우선은 저에 대해{{delay frames=\"15\"}} 더 자세히 아는 게{{delay frames=\"5\"}}\n급선무일 것 같아요!"
  },
  {
    "label": "012",
    "text": "{{anim id=\"13\"}}아,{{delay frames=\"10\"}} 아니에요～!{{delay frames=\"30\"}}\n{{anim id=\"0\"}}앞으로 한참 뒤의 이야기를{{delay frames=\"10\"}}\n제가 어떻게 알 수 있겠어요!{{pageBreak}}그게 아니라{{delay frames=\"10\"}} 어제 산\n{{fun_000F0005 arg=\"0x0000\"}}{{fun_000E000E arg=\"0x020044C702007CB9\"}}{{delay frames=\"15\"}} {{anim id=\"9\"}}어디에 뒀는지\n생각이 안 나서{{delay frames=\"10\"}} 고민 중이었답니다"
  },
  {
    "label": "013",
    "text": "{{fun_00000009 arg=\"0x0E000F00\"}}"
  },
  {
    "label": "014",
    "text": "{{anim id=\"16\"}}맞아요!{{delay frames=\"20\"}}\n한눈에 알아보셨네요～{{pageBreak}}{{anim id=\"0\"}}어제 먹다 남긴 {{fun_00100005 arg=\"0x0000\"}}{{fun_000E000E arg=\"0x020044C702007CB9\"}}{{delay frames=\"15\"}}\n{{anim id=\"9\"}}어디에 두었는지 생각이 안 나서{{delay frames=\"10\"}}\n열심히 기억해 내려던 참이었어요"
  },
  {
    "label": "015",
    "text": "{{anim id=\"40\"}}전 어제의 일보다는{{delay frames=\"10\"}}\n미래에 관한 생각으로{{delay frames=\"8\"}}\n머릿속이 복잡해요{{delay frames=\"8\"}}・{{delay frames=\"8\"}}・{{delay frames=\"8\"}}・{{delay frames=\"8\"}}{{pageBreak}}{{anim id=\"37\"}}하고 싶은 일이{{delay frames=\"3\"}} 무척 많아서{{delay frames=\"10\"}}\n어떻게 전부 실현시킬지{{delay frames=\"15\"}}\n계획을 세워야 하거든요"
  },
  {
    "label": "016",
    "text": "{{anim id=\"37\"}}깜짝 질문 하나 할게요{{delay frames=\"10\"}}\n제가{{delay frames=\"10\"}} 지금 무슨 생각을{{delay frames=\"5\"}}\n하고 있을까요?{{fun_00000008 arg=\"0x1100000012000000\"}}\n이 세상에 대한 생각\n아무 생각도 안 했지?"
  },
  {
    "label": "017",
    "text": "{{anim id=\"16\"}}맞아요!{{delay frames=\"20\"}}\n{{anim id=\"21\"}}어떻게 하면 이 세상이\n평화로워질지{{delay frames=\"15\"}} 생각하고 있었답니다\n{{anim id=\"5\"}}우선{{delay frames=\"10\"}} 우리 마을부터\n평화로워지면{{delay frames=\"10\"}} 점점 세계로{{delay frames=\"5\"}}\n퍼져 나가지 않을까 하구요\n{{anim id=\"1\"}}작은 시작에 불과하지만{{delay frames=\"15\"}}\n이웃분들과 힘을 모아{{delay frames=\"10\"}}\n행복하고 평화로운 마을로{{delay frames=\"5\"}} 만들고 싶어요"
  },
  {
    "label": "018",
    "text": "{{anim id=\"6\"}}분명히{{delay frames=\"5\"}} 생각하고 있었거든요～!{{pageBreak}}{{anim id=\"13\"}}저도{{delay frames=\"10\"}} 이런 일, {{delay frames=\"5\"}}저런 일 등등{{delay frames=\"8\"}}・{{delay frames=\"8\"}}・{{delay frames=\"8\"}}・{{delay frames=\"30\"}}\n{{anim id=\"21\"}}여러 가지 생각을 하고 있었다구요!"
  },
  {
    "label": "019",
    "text": "{{anim id=\"37\"}}뭐 하나 여쭤봐도 될까요?{{delay frames=\"10\"}}\n지금 제가{{delay frames=\"10\"}} 무슨 생각을{{delay frames=\"5\"}}\n하고 있는 것 같나요?{{fun_00000008 arg=\"0x1400000015000000\"}}\n계란에 대한 생각\n병아리에 대한 생각"
  },
  {
    "label": "020",
    "text": "{{anim id=\"21\"}}네! 맞아요!{{pageBreak}}{{anim id=\"37\"}}계란은{{delay frames=\"10\"}} 설탕을 넣어 푸딩을 만들 수도 있고{{delay frames=\"15\"}}\n{{anim id=\"0\"}}소금을 넣어{{delay frames=\"10\"}} 계란찜을\n만들 수도 있고{{delay frames=\"8\"}}・{{delay frames=\"8\"}}・{{delay frames=\"8\"}}・{{delay frames=\"8\"}}\n{{anim id=\"5\"}}요리 재료로{{delay frames=\"10\"}}\n만능이라는 생각을\n하고 있었답니다"
  },
  {
    "label": "021",
    "text": "{{anim id=\"21\"}}네!{{delay frames=\"20\"}} 바로 보셨어요{{pageBreak}}병아리는 노란색이지만{{delay frames=\"10\"}}\n왜 어른이 되면{{delay frames=\"10\"}}\n색깔이 바뀌는 걸까요{{delay frames=\"8\"}}・{{delay frames=\"8\"}}・{{delay frames=\"8\"}}・{{delay frames=\"8\"}}?\n{{anim id=\"16\"}}저도 어른이 되면{{delay frames=\"10\"}}\n혹시 색깔이{{delay frames=\"5\"}} 바뀌는 건가요?!"
  },
  {
    "label": "022",
    "text": "{{anim id=\"37\"}}갑작스러우시겠지만{{delay frames=\"10\"}}\n제가 지금{{delay frames=\"10\"}} 무슨 생각을 하는지{{delay frames=\"5\"}}\n맞혀보시겠어요?{{fun_00000008 arg=\"0x170000001A000000\"}}\n장갑에 대한 생각\n양말에 대한 생각"
  },
  {
    "label": "023",
    "text": "{{i10_16 arg=\"24\"}}"
  },
  {
    "label": "024",
    "text": "{{anim id=\"21\"}}맞아요{{pageBreak}}{{anim id=\"0\"}}전 더 이상 쓰지 않게 된 장갑에{{delay frames=\"10\"}}\n동전을 넣어서{{delay frames=\"5\"}}\n갖고 다니는데요\n{{anim id=\"9\"}}쇼핑을 할 때{{delay frames=\"10\"}}\n가게 점원이 자꾸 깜짝 놀라서{{delay frames=\"15\"}}\n이제 그만둘까 고민 중이었어요"
  },
  {
    "label": "025",
    "text": "{{anim id=\"1\"}}정답이에요!{{fun_00010007 arg=\"\"}}\n요즘{{delay frames=\"10\"}} 새 장갑을{{delay frames=\"5\"}}\n뜨개질로 만들어볼까 생각 중이었어요\n{{anim id=\"39\"}}지난번에 만들다가{{delay frames=\"10\"}} 실수로{{delay frames=\"3\"}}\n손가락 부분을 6개나 만들어서{{delay frames=\"10\"}}\n이번엔 조심하려구요, {{delay frames=\"15\"}}{{fun_00070005 arg=\"\"}}"
  },
  {
    "label": "026",
    "text": "{{i10_16 arg=\"27\"}}"
  },
  {
    "label": "027",
    "text": "{{anim id=\"21\"}}네!{{delay frames=\"10\"}} 바로 그거였어요{{pageBreak}}{{anim id=\"37\"}}요전에 {{delay frames=\"10\"}}{{fun_00020005 arg=\"\"}}님의 집에{{delay frames=\"8\"}}\n놀러 갈 기회가 있었는데요{{pageBreak}}{{anim id=\"9\"}}글쎄, 제 양말에{{delay frames=\"10\"}}\n구멍이 나 있던 거예요!{{pageBreak}}{{anim id=\"39\"}}너무 창피해서{{delay frames=\"10\"}}\n들키지 않으려고{{delay frames=\"10\"}} 발을 질질 끌며\n걸어 다녔는데요\n{{anim id=\"0\"}}오히려{{delay frames=\"3\"}} 걷는 게 부자연스러워서{{delay frames=\"15\"}}\n{{anim id=\"27\"}}더 주목받고 말았답니다"
  },
  {
    "label": "028",
    "text": "{{anim id=\"21\"}}네,{{delay frames=\"10\"}} 정답이에요{{fun_00010007 arg=\"\"}}\n{{anim id=\"37\"}}저는 요새 잠을 잘 때도{{delay frames=\"10\"}}\n양말을 신고 자는데요{{pageBreak}}{{anim id=\"0\"}}어느새{{delay frames=\"5\"}} 자꾸 벗겨지는지{{delay frames=\"8\"}}・{{delay frames=\"8\"}}・{{delay frames=\"8\"}}・{{delay frames=\"20\"}}\n{{anim id=\"27\"}}아침에{{delay frames=\"10\"}} 발이 시려워서{{delay frames=\"10\"}}\n잠을 깨게 된답니다{{pageBreak}}{{anim id=\"1\"}}앞으로는{{delay frames=\"5\"}} 벗겨지지 않게{{delay frames=\"15\"}}\n양말을 발에{{delay frames=\"8\"}} 테이프로{{delay frames=\"3\"}}\n고정시킬까 생각하고 있었어요"
  },
  {
    "label": "029",
    "text": ""
  },
  {
    "label": "030",
    "text": "{{fun_00030009 arg=\"0x1F002000210022002300\"}}"
  },
  {
    "label": "031",
    "text": "{{anim id=\"39\"}}요전에{{delay frames=\"10\"}} 제가 어떤 분의\n러브 레터를{{delay frames=\"3\"}} 주웠는데요{{delay frames=\"8\"}}・{{delay frames=\"8\"}}・{{delay frames=\"8\"}}・{{delay frames=\"8\"}}{{pageBreak}}{{anim id=\"13\"}}{{fun_00040005 arg=\"0x00CD\"}}님을 향한{{delay frames=\"10\"}}\n뜨거운 메시지가{{delay frames=\"3\"}}\n가득 적혀 있었어요\n{{anim id=\"0\"}}읽다 보니{{delay frames=\"10\"}} 저도 모르게\n얼굴이 빨개져서{{delay frames=\"10\"}} 그 자리에{{delay frames=\"10\"}}\n그대로{{delay frames=\"3\"}} 두고 왔답니다{{delay frames=\"8\"}}・{{delay frames=\"8\"}}・{{delay frames=\"8\"}}・{{delay frames=\"8\"}}\n{{anim id=\"11\"}}혹시{{delay frames=\"10\"}} 제가 대신 전해드리는 게{{delay frames=\"3\"}}\n더 나았을까요{{delay frames=\"8\"}}・{{delay frames=\"8\"}}・{{delay frames=\"8\"}}・{{delay frames=\"8\"}}?{{delay frames=\"30\"}}\n{{anim id=\"36\"}}자꾸 신경이 쓰이더라구요{{delay frames=\"30\"}}{{anim id=\"37\"}}"
  },
  {
    "label": "032",
    "text": "{{anim id=\"37\"}}얼마 전에{{delay frames=\"10\"}} 장화 한 짝을{{delay frames=\"5\"}}\n우연히 발견했는데요{{pageBreak}}{{anim id=\"0\"}}그때 전 {{delay frames=\"10\"}}{{fun_00040005 arg=\"0x00CD\"}}님의 집에{{delay frames=\"3\"}}\n가던 길이어서{{delay frames=\"15\"}} 그대로\n장화를 가지고 갔거든요\n{{anim id=\"1\"}}그런데 {{fun_00040005 arg=\"0x00CD\"}}님은{{delay frames=\"10\"}}\n장화를{{delay frames=\"3\"}} 꽃병 삼아{{delay frames=\"10\"}}\n꽃을 장식하시더라구요\n{{anim id=\"5\"}}정말 좋은 아이디어 아닌가요?{{delay frames=\"25\"}}\n저도{{delay frames=\"10\"}} 그렇게 해보려구요"
  },
  {
    "label": "033",
    "text": "{{anim id=\"37\"}}지난번에{{delay frames=\"10\"}} 누군가가 직접 만든\n만화경을{{delay frames=\"5\"}} 길에서 주웠어요{{pageBreak}}{{anim id=\"0\"}}안을 들여다보니까{{delay frames=\"10\"}}\n구슬이나 유리가 아닌{{delay frames=\"15\"}}\n검은콩과{{delay frames=\"5\"}} 쌀이 들어 있더라구요\n{{anim id=\"11\"}}생전 처음 보는 신기한{{delay frames=\"3\"}}\n만화경이었어요{{delay frames=\"8\"}}・{{delay frames=\"8\"}}・{{delay frames=\"8\"}}・{{delay frames=\"8\"}}{{pageBreak}}{{anim id=\"37\"}}참고로 검은 매직펜으로{{delay frames=\"15\"}}\n이렇게 적혀 있었어요{{delay frames=\"10\"}}\n「{{fun_00040005 arg=\"0x00CD\"}}」"
  },
  {
    "label": "034",
    "text": "{{anim id=\"37\"}}전에 길을 가다가{{delay frames=\"10\"}} 우연히\n일기장을 주운 적이 있답니다{{pageBreak}}{{anim id=\"39\"}}그러면 안 되는 줄 알면서도{{delay frames=\"15\"}}\n일기장을{{delay frames=\"3\"}} 펼쳐봤는데요{{pageBreak}}{{anim id=\"0\"}}첫째 날은{{delay frames=\"10\"}} 「잔뜩 먹었다」{{delay frames=\"20\"}}\n둘째 날은{{delay frames=\"10\"}} 「오늘도 잔뜩 먹었다」{{delay frames=\"30\"}}\n{{anim id=\"9\"}}셋째 날은{{delay frames=\"10\"}} 「오늘도 잔뜩 먹었다」{{delay frames=\"8\"}}・{{delay frames=\"8\"}}・{{delay frames=\"8\"}}・\n{{anim id=\"13\"}}계속{{delay frames=\"10\"}} 그것밖에{{delay frames=\"5\"}} 안 나오는 거 있죠?!{{fun_00010007 arg=\"\"}}\n{{anim id=\"9\"}}그런 걸{{delay frames=\"10\"}} 일기라고{{delay frames=\"5\"}}\n부를 수 있는 걸까요?"
  },
  {
    "label": "035",
    "text": "{{anim id=\"37\"}}예전에{{delay frames=\"10\"}} 어떤 메모를{{delay frames=\"3\"}}\n주운 적이 있었는데요{{pageBreak}}{{anim id=\"0\"}}「오른쪽부터 갈까,{{delay frames=\"10\"}} 왼쪽부터 갈까{{delay frames=\"10\"}}\n　　　　　　　　{{delay frames=\"8\"}}・{{delay frames=\"8\"}}・{{delay frames=\"8\"}}・{{delay frames=\"8\"}}그것이 문제로다」{{delay frames=\"20\"}}\n이렇게 적혀 있었어요\n그렇게 심각하게 고민할 만한{{delay frames=\"3\"}}\n문제였을까요?{{fun_00010007 arg=\"\"}}\n지금도 정말 궁금하네요"
  },
  {
    "label": "036",
    "text": ""
  },
  {
    "label": "037",
    "text": ""
  },
  {
    "label": "038",
    "text": "{{fun_00020009 arg=\"0x2700280029002A00\"}}"
  },
  {
    "label": "039",
    "text": "{{anim id=\"1\"}}요즘{{delay frames=\"10\"}} 저는{{delay frames=\"15\"}}\n파자마를{{delay frames=\"3\"}} 뒤집어 입는 일에{{delay frames=\"10\"}}\n푹 빠져 있답니다{{pageBreak}}{{anim id=\"21\"}}그렇게 입기 시작한 이후로{{delay frames=\"10\"}}\n더 이상 악몽을{{delay frames=\"3\"}} 꾸지 않게 되었어요"
  },
  {
    "label": "040",
    "text": "{{anim id=\"1\"}}저는 요새{{delay frames=\"15\"}} 침대와 벽 사이에{{delay frames=\"8\"}}\n끼어서 자는 일에{{delay frames=\"10\"}} 푹 빠져 있어요{{pageBreak}}{{anim id=\"21\"}}그렇게 자기 시작한 이후로{{delay frames=\"10\"}}\n아침에 일어날 때\n목이 뻐근한 증상이 덜해졌어요"
  },
  {
    "label": "041",
    "text": "{{anim id=\"1\"}}요즘 저는{{delay frames=\"15\"}}\n서예에 한창 빠져 있답니다{{pageBreak}}{{anim id=\"0\"}}서예라고 해서{{delay frames=\"10\"}} 평범한 걸\n생각하시면 안 돼요!{{delay frames=\"30\"}}\n{{anim id=\"1\"}}왜냐하면 전 티슈에 쓰거든요!\n{{anim id=\"5\"}}찢어지지 않게{{delay frames=\"10\"}} 잘 썼을 때의\n그 감동이란{{delay frames=\"15\"}} 이루\n말로 다 표현할 수 없어요!"
  },
  {
    "label": "042",
    "text": "{{anim id=\"1\"}}저는 요새{{delay frames=\"10\"}} {{fun_00210005 arg=\"0x00CD\"}}{{fun_000E000E arg=\"0x020044C702007CB9\"}}{{delay frames=\"10\"}}\n납작하게 말려서 보관하는\n취미가 생겼답니다\n{{anim id=\"9\"}}그런데 얼마 전에 제가{{delay frames=\"15\"}}\n그걸 찻잎이라고 착각했지 뭐예요!{{pageBreak}}{{anim id=\"13\"}}그래서 졸지에 {{fun_00040005 arg=\"0x00CD\"}}님께{{delay frames=\"10\"}}\n그 꽃을 차로 우려서{{delay frames=\"5\"}}\n대접한 거 있죠!?{{pageBreak}}{{anim id=\"16\"}}아!{{delay frames=\"20\"}} {{anim id=\"9\"}}그분은 이 사실을\n아직 모르시니까{{delay frames=\"10\"}}\n부디 비밀로 해주세요"
  },
  {
    "label": "043",
    "text": ""
  },
  {
    "label": "044",
    "text": ""
  },
  {
    "label": "045",
    "text": "{{fun_00000009 arg=\"0x2E003300\"}}"
  },
  {
    "label": "046",
    "text": "{{anim id=\"37\"}}요즘 들어{{delay frames=\"10\"}} 제가 빨래를 말리는 방법이{{delay frames=\"10\"}}\n{{anim id=\"9\"}}좀 구식으로 느껴진달까{{delay frames=\"8\"}}・{{delay frames=\"8\"}}・{{delay frames=\"8\"}}・{{delay frames=\"8\"}}{{pageBreak}}{{anim id=\"1\"}}지금까지와는 다른 방법으로 말리면{{delay frames=\"15\"}}\n새롭고{{delay frames=\"3\"}} 좋지 않을까 싶어서{{delay frames=\"10\"}}\n이것저것 시도해보고 있답니다{{fun_00000008 arg=\"0x2F00000032000000\"}}\n예를 들면 어떻게?\n아, 그래～?"
  },
  {
    "label": "047",
    "text": "{{fun_00000009 arg=\"0x30003100\"}}"
  },
  {
    "label": "048",
    "text": "{{anim id=\"1\"}}예를 들면 세탁이 끝난 옷을{{delay frames=\"10\"}}\n허수아비에게 입혀서{{delay frames=\"8\"}}\n말리는 거예요{{pageBreak}}{{anim id=\"36\"}}가끔씩 {{delay frames=\"10\"}}{{fun_00040005 arg=\"0x00CD\"}}님이\n그게 저인 줄 알고{{delay frames=\"15\"}}\n말을 거시는 게 흠이지만요"
  },
  {
    "label": "049",
    "text": "{{anim id=\"1\"}}예를 들면 빨래 하나하나를{{delay frames=\"15\"}}\n낚싯대에 걸어서{{delay frames=\"10\"}}\n밖에 널어 놓는 거예요{{pageBreak}}{{anim id=\"36\"}}물고기 냄새가\n조금 나긴 하지만{{delay frames=\"15\"}}\n그 정도는 그러려니 해야죠, 뭐!"
  },
  {
    "label": "050",
    "text": "{{anim id=\"1\"}}{{fun_00080005 arg=\"\"}}님도{{delay frames=\"10\"}}\n좋은 아이디어가 있으시면{{delay frames=\"10\"}}\n저한테 좀 알려주세요!"
  },
  {
    "label": "051",
    "text": "{{anim id=\"37\"}}요즘 들어{{delay frames=\"10\"}} 제가 양배추를 써는 방법이{{delay frames=\"10\"}}\n{{anim id=\"9\"}}왠지 구닥다리처럼 느껴진달까{{delay frames=\"8\"}}・{{delay frames=\"8\"}}・{{delay frames=\"8\"}}・{{delay frames=\"8\"}}{{pageBreak}}{{anim id=\"11\"}}지금까지와 다른 방법이라면{{delay frames=\"10\"}}\n기분도 새롭고 좋을 것 같아서{{delay frames=\"15\"}}\n여러 방법을 시도해보고 있어요{{fun_00000008 arg=\"0x3400000035000000\"}}\n예를 들면 어떻게?\n그렇구나～"
  },
  {
    "label": "052",
    "text": "{{anim id=\"37\"}}「{{fun_00150005 arg=\"0x0000\"}}」 음악을 틀고{{delay frames=\"10\"}}\n그 박자에 맞춰서{{delay frames=\"8\"}}\n양배추를 써는 거예요\n{{anim id=\"39\"}}혹시라도 누가 보고 있을까 봐{{delay frames=\"10\"}}\n조금{{delay frames=\"3\"}} 불안하기는 하지만요"
  },
  {
    "label": "053",
    "text": "{{anim id=\"1\"}}{{fun_00080005 arg=\"\"}}님도{{delay frames=\"10\"}}\n혹시 좋은 아이디어가 떠오르시면{{delay frames=\"10\"}}\n저한테 말씀해주셔야 해요!"
  },
  {
    "label": "054",
    "text": ""
  },
  {
    "label": "055",
    "text": ""
  },
  {
    "label": "056",
    "text": "{{fun_00010009 arg=\"0x39003A003B00\"}}"
  },
  {
    "label": "057",
    "text": "{{anim id=\"1\"}}{{fun_00080005 arg=\"\"}}님은{{delay frames=\"10\"}}\n어떤 책을{{delay frames=\"5\"}} 좋아하시나요?{{fun_00010008 arg=\"0x3C0000003F00000040000000\"}}\n판타지\n소설\n사전"
  },
  {
    "label": "058",
    "text": "{{anim id=\"1\"}}{{fun_00080005 arg=\"\"}}님은{{delay frames=\"10\"}}\n어떤 책을{{delay frames=\"5\"}} 좋아하세요?{{fun_00010008 arg=\"0x3E0000003D00000041000000\"}}\n그림책\n도감\n시집"
  },
  {
    "label": "059",
    "text": "{{anim id=\"1\"}}{{fun_00080005 arg=\"\"}}님은{{delay frames=\"10\"}}\n어떤 책을{{delay frames=\"5\"}} 즐겨 보세요?{{fun_00010008 arg=\"0x3E0000003F0000003D000000\"}}\n그림책\n소설\n도감"
  },
  {
    "label": "060",
    "text": "{{anim id=\"1\"}}어머!{{delay frames=\"20\"}} 그렇군요{{delay frames=\"30\"}}\n{{anim id=\"5\"}}저도 판타지를{{delay frames=\"5\"}}\n즐겨 읽는답니다\n{{anim id=\"1\"}}요정과 놀기도 하고{{delay frames=\"15\"}}\n영웅을 만나기도 하고{{delay frames=\"10\"}}\n{{anim id=\"4\"}}즐겁고 신비한 세계가{{delay frames=\"5\"}} 펼쳐지잖아요!"
  },
  {
    "label": "061",
    "text": "{{anim id=\"5\"}}아～{{delay frames=\"10\"}} 그러시구나～{{pageBreak}}{{anim id=\"1\"}}도감도{{delay frames=\"10\"}} 하나하나\n자세히 읽어보면{{delay frames=\"10\"}}\n여러모로 배우는 것이 많잖아요\n{{anim id=\"21\"}}지식이 가득한 보물 상자 같은 점이{{delay frames=\"15\"}}\n바로{{delay frames=\"10\"}} 도감의 매력이죠"
  },
  {
    "label": "062",
    "text": "{{anim id=\"21\"}}저랑 같으시네요!{{pageBreak}}{{anim id=\"0\"}}옛날에는 자기 전에{{delay frames=\"10\"}}\n엄마가 곁에서 그림책을\n읽어주시곤 했어요{{delay frames=\"8\"}}・{{delay frames=\"8\"}}・{{delay frames=\"8\"}}・{{delay frames=\"8\"}}{{pageBreak}}{{anim id=\"1\"}}그래서{{delay frames=\"10\"}} 그림책을 펼칠 때마다{{delay frames=\"15\"}}\n따스하고 포근한 추억이{{delay frames=\"10\"}}\n되살아난답니다"
  },
  {
    "label": "063",
    "text": "{{anim id=\"16\"}}어머,{{delay frames=\"10\"}} 그러세요～?{{delay frames=\"20\"}}\n{{anim id=\"5\"}}저도 {{delay frames=\"10\"}}자주 읽는답니다{{pageBreak}}{{anim id=\"1\"}}추리 소설을 읽기 시작하면{{delay frames=\"15\"}}\n결말이 너무 궁금해서{{delay frames=\"10\"}}\n중간에 책을 덮을 수가 없더라구요"
  },
  {
    "label": "064",
    "text": "{{anim id=\"1\"}}아～{{delay frames=\"20\"}} 그렇군요{{pageBreak}}{{anim id=\"0\"}}사전에는{{delay frames=\"10\"}}\n온 세상의 모든 것들이{{delay frames=\"5\"}}\n한 단어씩으로 표현되어 있어서\n{{anim id=\"1\"}}하나하나 읽어보면{{delay frames=\"15\"}}\n의외로 은근히 재밌더라구요"
  },
  {
    "label": "065",
    "text": "{{anim id=\"21\"}}어머, 근사하네요{{pageBreak}}{{anim id=\"1\"}}시는{{delay frames=\"10\"}} 짧은 글귀 안에{{delay frames=\"15\"}}\n우주처럼 넓은 세계를{{delay frames=\"10\"}}\n담고는 하죠\n{{anim id=\"0\"}}맘에 드는 시집이 있으시면{{delay frames=\"10\"}}\n나중에{{delay frames=\"5\"}} 저한테도 추천해주세요{{anim id=\"38\"}}"
  },
  {
    "label": "066",
    "text": ""
  },
  {
    "label": "067",
    "text": ""
  },
  {
    "label": "068",
    "text": "{{fun_00020009 arg=\"0x4500460047004800\"}}"
  },
  {
    "label": "069",
    "text": "요즘 들어 미래에 대한 일이 걱정되어서{{delay frames=\"10\"}}\n{{anim id=\"9\"}}뭔가{{delay frames=\"5\"}} 자격증을 따볼까 해요{{fun_00010007 arg=\"\"}}\n{{anim id=\"11\"}}근데{{delay frames=\"10\"}} 어떤 자격증이 좋을까요{{delay frames=\"8\"}}・{{delay frames=\"8\"}}・{{delay frames=\"8\"}}・{{delay frames=\"8\"}}?\n{{anim id=\"1\"}}마멀레이드 자격증 시험\n같은 게 있으면{{delay frames=\"5\"}}\n정말 좋을 텐데요!{{pageBreak}}전 마멀레이드를 사용해서{{delay frames=\"3\"}}\n온갖 과자를{{delay frames=\"15\"}} 다 만들 수 있거든요!{{anim id=\"38\"}}"
  },
  {
    "label": "070",
    "text": "미래를 대비해서{{delay frames=\"10\"}}\n{{anim id=\"9\"}}자격증을{{delay frames=\"5\"}} 하나 딸 생각이에요{{fun_00010007 arg=\"\"}}\n{{anim id=\"11\"}}근데{{delay frames=\"10\"}} 어떤 자격증이 좋을까요{{delay frames=\"8\"}}・{{delay frames=\"8\"}}・{{delay frames=\"8\"}}・{{delay frames=\"8\"}}?\n{{anim id=\"22\"}}저는 사전 검정 시험 같은 게 있으면{{delay frames=\"5\"}}\n정말 좋을 것 같아요{{pageBreak}}{{anim id=\"1\"}}어떤 사전이{{delay frames=\"10\"}}\n몇 페이지로 구성되어 있는지{{delay frames=\"10\"}}\n전 단번에 대답할 수 있거든요!"
  },
  {
    "label": "071",
    "text": "앞으로 무슨 일이 있을지 모르니까{{delay frames=\"10\"}}\n{{anim id=\"9\"}}자격증{{delay frames=\"5\"}} 하나쯤은 따 둘까 해요{{fun_00010007 arg=\"\"}}\n{{anim id=\"11\"}}어떤 게 좋을까요{{delay frames=\"8\"}}・{{delay frames=\"8\"}}・{{delay frames=\"8\"}}・{{delay frames=\"8\"}}?\n{{anim id=\"22\"}}바게트 능력 시험이 있다면{{delay frames=\"10\"}}\n정말 좋을 텐데요!{{pageBreak}}{{anim id=\"1\"}}바게트를{{delay frames=\"10\"}} 한 번만 딱 봐도{{delay frames=\"15\"}}\n길이가 어떻게 되는지{{delay frames=\"10\"}}\n바로 맞힐 자신이 있거든요"
  },
  {
    "label": "072",
    "text": "저의 미래를 위해{{delay frames=\"10\"}}\n{{anim id=\"9\"}}뭔가{{delay frames=\"5\"}} 자격증을 따야겠어요{{fun_00010007 arg=\"\"}}\n{{anim id=\"11\"}}근데{{delay frames=\"10\"}} 어떤 자격증이 좋을지{{delay frames=\"8\"}}・{{delay frames=\"8\"}}・{{delay frames=\"8\"}}・{{delay frames=\"8\"}}\n{{anim id=\"22\"}}만년필 검정 시험이 있으면{{delay frames=\"10\"}}\n정말 딱일 텐데!{{pageBreak}}{{anim id=\"1\"}}눈을 감고{{delay frames=\"10\"}} 만년필을 쥐기만 해도{{delay frames=\"15\"}}\n어느 회사 제품인지{{delay frames=\"3\"}}\n제가 금방 맞힐 수 있거든요"
  },
  {
    "label": "073",
    "text": ""
  },
  {
    "label": "074",
    "text": ""
  },
  {
    "label": "075",
    "text": ""
  },
  {
    "label": "076",
    "text": "{{fun_00020009 arg=\"0x4D004E004F005200\"}}"
  },
  {
    "label": "077",
    "text": "{{anim id=\"1\"}}책은{{delay frames=\"10\"}} 읽는 것도 좋지만{{delay frames=\"10\"}}\n제가 직접 쓰는 것도 재밌을 것 같아요{{pageBreak}}{{anim id=\"22\"}}이렇게 {{delay frames=\"10\"}}{{fun_00080005 arg=\"\"}}님과{{delay frames=\"3\"}}\n즐겁게 나눈 대화를{{pageBreak}}{{anim id=\"5\"}}수필로 써서{{delay frames=\"3\"}} 책으로 만들면{{delay frames=\"5\"}}\n좋지 않을까요? {{delay frames=\"15\"}}{{fun_00070005 arg=\"\"}}?"
  },
  {
    "label": "078",
    "text": "{{anim id=\"1\"}}책은{{delay frames=\"10\"}} 읽는 것뿐 아니라{{delay frames=\"10\"}}\n직접 쓰는 것도 재밌을 것 같아요{{pageBreak}}{{anim id=\"5\"}}사실 책 제목은{{delay frames=\"10\"}}\n벌써 생각해 두었답니다!{{delay frames=\"10\"}}\n「달려라, {{fun_00080005 arg=\"\"}}」!\n{{anim id=\"0\"}}{{fun_00080005 arg=\"\"}}님이 주인공인데{{delay frames=\"10\"}}\n{{fun_00040005 arg=\"0x00CD\"}}님과{{delay frames=\"5\"}} 우정을\n쌓아 가는 이야기예요{{pageBreak}}{{anim id=\"1\"}}괜찮은 작품으로 완성되면{{delay frames=\"10\"}}\n제일 먼저 보여드릴게요!"
  },
  {
    "label": "079",
    "text": "{{anim id=\"1\"}}책은{{delay frames=\"10\"}} 읽는 것도 재밌지만{{delay frames=\"10\"}}\n제가 직접 쓰면 더 재밌을 것 같아요{{pageBreak}}{{anim id=\"5\"}}어젯밤에 문득 생각난 건데요{{delay frames=\"10\"}}\n「{{fun_00050005 arg=\"\"}} 마을의 유쾌한 친구들」을{{delay frames=\"10\"}}\n주제로 쓰면{{delay frames=\"15\"}} 재밌지 않을까요?{{fun_00000008 arg=\"0x5000000051000000\"}}\n좋은 생각이네\n글쎄～"
  },
  {
    "label": "080",
    "text": "{{anim id=\"1\"}}그렇죠? {{delay frames=\"20\"}}{{fun_00040005 arg=\"0x00CD\"}}님이랑\n{{fun_00040005 arg=\"0x01CD\"}}님을 등장시켜서{{delay frames=\"10\"}}\n우리 마을의 유쾌한 일상을{{delay frames=\"10\"}} 담을 거예요\n{{anim id=\"0\"}}괜찮은 작품이 완성되면{{delay frames=\"10\"}}\n꼭 보여드릴게요!{{anim id=\"38\"}}"
  },
  {
    "label": "081",
    "text": "아{{delay frames=\"8\"}}・{{delay frames=\"8\"}}・{{delay frames=\"8\"}}・{{delay frames=\"8\"}}{{pageBreak}}{{anim id=\"9\"}}{{fun_00080005 arg=\"\"}}님을{{delay frames=\"10\"}}\n주인공으로 쓸 생각이었는데{{delay frames=\"8\"}}・{{delay frames=\"8\"}}・{{delay frames=\"8\"}}・{{delay frames=\"20\"}}\n아쉽네요"
  },
  {
    "label": "082",
    "text": "{{anim id=\"1\"}}책은{{delay frames=\"10\"}} 읽는 것뿐 아니라{{delay frames=\"10\"}}\n직접 쓰는 것도 재밌지 않을까?\n하는 생각이 문득 들었어요{{fun_00000008 arg=\"0x5300000054000000\"}}\n나도 동감이야\n파이팅!"
  },
  {
    "label": "083",
    "text": "{{anim id=\"9\"}}그렇지만{{delay frames=\"10\"}} 사실은 저의\n평범한 생활 속에서는{{delay frames=\"10\"}}\n도저히{{delay frames=\"5\"}} 글감을 못 찾겠더라구요{{delay frames=\"8\"}}・{{delay frames=\"8\"}}・{{delay frames=\"8\"}}・{{delay frames=\"8\"}}\n{{anim id=\"22\"}}일단{{delay frames=\"10\"}} 제 생활에{{delay frames=\"3\"}}\n변화를 좀 줘봐야겠어요,\n{{delay frames=\"15\"}}{{fun_00070005 arg=\"\"}}!"
  },
  {
    "label": "084",
    "text": "{{anim id=\"11\"}}그런데{{delay frames=\"10\"}}\n뭐에 대해 쓰면 좋을지{{delay frames=\"8\"}}・{{delay frames=\"8\"}}・{{delay frames=\"8\"}}・{{delay frames=\"8\"}}{{pageBreak}}{{anim id=\"22\"}}아! {{delay frames=\"20\"}}친구들을 인터뷰해서{{delay frames=\"10\"}}\n{{anim id=\"1\"}}그걸 바탕으로 이야기를 쓰면{{delay frames=\"10\"}}\n어떨까요?\n{{anim id=\"5\"}}우선{{delay frames=\"10\"}} 소재부터 모으는 거예요!{{delay frames=\"20\"}}\n갑자기 가슴이 설레는데요?"
  },
  {
    "label": "085",
    "text": ""
  },
  {
    "label": "086",
    "text": ""
  },
  {
    "label": "087",
    "text": "{{fun_00010009 arg=\"0x58005B005E00\"}}"
  },
  {
    "label": "088",
    "text": "{{anim id=\"1\"}}{{fun_00080005 arg=\"\"}}님은{{delay frames=\"10\"}}\n편지 쓰는 걸{{delay frames=\"5\"}} 좋아하시나요?{{fun_00000008 arg=\"0x590015005A002800\"}}\n응!\n그다지・・・"
  },
  {
    "label": "089",
    "text": "{{anim id=\"5\"}}그렇군요!{{delay frames=\"20\"}}\n저도 무척 좋아한답니다{{pageBreak}}{{anim id=\"39\"}}하지만{{delay frames=\"10\"}} 열심히 썼는데{{delay frames=\"10\"}}\n마지막 인사말이 생각나지 않아서{{delay frames=\"10\"}}\n보내지 못하는 경우도 있어요"
  },
  {
    "label": "090",
    "text": "{{anim id=\"16\"}}그렇군요～{{pageBreak}}{{anim id=\"37\"}}직접 얘기를 나누는 것도 즐겁지만{{delay frames=\"10\"}}\n때로는 편지로 마음을 전하는 것도{{delay frames=\"15\"}}\n아주 좋답니다, {{delay frames=\"15\"}}{{fun_00070005 arg=\"\"}}"
  },
  {
    "label": "091",
    "text": "{{anim id=\"1\"}}저는 편지 쓰는 걸{{delay frames=\"10\"}}\n참 좋아하는데요{{delay frames=\"15\"}}\n{{fun_00080005 arg=\"\"}}님은 어때요?{{fun_00000008 arg=\"0x5C0015005D002800\"}}\n좋아해～\n난 별로・・・"
  },
  {
    "label": "092",
    "text": "{{anim id=\"21\"}}그러실 줄 알았어요～{{delay frames=\"20\"}}\n{{anim id=\"1\"}}그냥{{delay frames=\"5\"}} 그런 느낌이 들었거든요{{pageBreak}}{{anim id=\"0\"}}평소에 고마웠던 마음이라든지{{delay frames=\"10\"}}\n{{anim id=\"1\"}}직접 말하기엔 쑥스러운 일들도{{delay frames=\"15\"}}\n편지에는{{delay frames=\"10\"}} 솔직히 쓸 수 있잖아요"
  },
  {
    "label": "093",
    "text": "{{anim id=\"0\"}}그러셨군요～{{pageBreak}}{{anim id=\"1\"}}바빠서{{delay frames=\"10\"}} 직접 만날 수 없을 때{{delay frames=\"10\"}}\n편지에는 선물을 넣어 보낼 수 있어서{{delay frames=\"10\"}}\n저는 편지를 자주 활용하고 있어요"
  },
  {
    "label": "094",
    "text": "{{anim id=\"1\"}}{{fun_00080005 arg=\"\"}}님은{{delay frames=\"10\"}}\n편지 받는 걸{{delay frames=\"5\"}} 좋아하시나요?{{fun_00000008 arg=\"0x5F00150060002800\"}}\n그럼, 좋아하지～\n별로・・・"
  },
  {
    "label": "095",
    "text": "{{anim id=\"5\"}}저도 정말 좋답니다!{{pageBreak}}{{anim id=\"1\"}}직접{{delay frames=\"10\"}} 대화하는 것도{{delay frames=\"3\"}} 좋지만{{delay frames=\"15\"}}\n편지는{{delay frames=\"10\"}} 언제든지 몇 번이고\n다시 읽어볼 수가 있잖아요"
  },
  {
    "label": "096",
    "text": "{{anim id=\"37\"}}그렇군요{{delay frames=\"8\"}}・{{delay frames=\"8\"}}・{{delay frames=\"8\"}}・{{delay frames=\"8\"}}{{pageBreak}}{{anim id=\"0\"}}{{fun_00080005 arg=\"\"}}님께{{delay frames=\"10\"}} 편지를 쓸 때는{{delay frames=\"10\"}}\n{{anim id=\"1\"}}관심을 가지실 만한 내용을{{delay frames=\"10\"}}\n적어야겠네요!"
  },
  {
    "label": "097",
    "text": ""
  },
  {
    "label": "098",
    "text": "{{anim id=\"1\"}}전 매년 요맘때가 되면{{delay frames=\"10\"}}\n떠오르는 게 있어요{{delay frames=\"8\"}}・{{delay frames=\"8\"}}・{{delay frames=\"8\"}}・{{delay frames=\"8\"}}"
  },
  {
    "label": "099",
    "text": "{{i10_16 arg=\"100\"}}"
  },
  {
    "label": "100",
    "text": "{{fun_00000009 arg=\"0x65006600\"}}"
  },
  {
    "label": "101",
    "text": "{{anim id=\"1\"}}바로 엄마가 만들어주던{{delay frames=\"10\"}}\n봄나물 요리랍니다{{pageBreak}}{{anim id=\"5\"}}싱그러운 봄나물을{{delay frames=\"5\"}}\n부엌에서{{delay frames=\"15\"}} 새콤달콤한\n양념에 무쳐주셨었죠{{delay frames=\"8\"}}・{{delay frames=\"8\"}}・{{delay frames=\"8\"}}・{{delay frames=\"8\"}}{{pageBreak}}{{anim id=\"0\"}}엄마의 봄나물을{{delay frames=\"10\"}}\n{{anim id=\"4\"}}다시 한 번{{delay frames=\"3\"}} 맛보고 싶어요"
  },
  {
    "label": "102",
    "text": "{{anim id=\"1\"}}엄마가{{delay frames=\"10\"}} 갓 딴 딸기로{{delay frames=\"10\"}}\n잼을 만들어주시던 추억이랍니다!{{pageBreak}}{{anim id=\"5\"}}방금 구운 따끈따끈한 빵에{{delay frames=\"10\"}}\n잼을 듬뿍 발라 한 입 먹으면{{delay frames=\"10\"}}\n새콤달콤한 맛이 입안 가득 퍼졌죠\n{{anim id=\"4\"}}아아{{delay frames=\"8\"}}・{{delay frames=\"8\"}}・{{delay frames=\"8\"}}・{{delay frames=\"30\"}}\n생각만 했는데{{delay frames=\"10\"}}\n배가 고프기 시작하네요"
  },
  {
    "label": "103",
    "text": "{{fun_00000009 arg=\"0x68006900\"}}"
  },
  {
    "label": "104",
    "text": "{{anim id=\"1\"}}아빠가 집에 오실 때{{delay frames=\"10\"}} 한 손에\n수박을 들고 오시던 추억이랍니다{{delay frames=\"8\"}}・{{delay frames=\"8\"}}・{{delay frames=\"8\"}}・{{delay frames=\"8\"}}{{pageBreak}}{{anim id=\"5\"}}그걸 냉장고에 넣어 식혔다가{{delay frames=\"15\"}}\n칼로{{delay frames=\"10\"}} 썽둥 잘라 먹는 거예요{{pageBreak}}{{anim id=\"43\"}}삼각형으로 잘린 수박을{{delay frames=\"5\"}} 앙 물면{{delay frames=\"15\"}}\n입안 가득{{delay frames=\"10\"}} 시원하고 달콤한 맛이{{delay frames=\"8\"}}・{{delay frames=\"8\"}}・{{delay frames=\"8\"}}・{{delay frames=\"8\"}}{{fun_00010007 arg=\"\"}}\n{{anim id=\"1\"}}저의 행복했던 추억 중{{delay frames=\"3\"}} 하나랍니다"
  },
  {
    "label": "105",
    "text": "{{anim id=\"1\"}}엄마가{{delay frames=\"10\"}} 방금 딴 토마토로\n만들어주시던{{delay frames=\"5\"}} 샐러드가 생각나요{{pageBreak}}{{anim id=\"5\"}}엄마의 특제 드레싱은{{delay frames=\"10\"}}\n정말 최고였어요{{delay frames=\"8\"}}・{{delay frames=\"8\"}}・{{delay frames=\"8\"}}・{{delay frames=\"8\"}}\n{{anim id=\"1\"}}그 맛을{{delay frames=\"10\"}} 저도 꼭 재현하고 싶어요"
  },
  {
    "label": "106",
    "text": "{{fun_00000009 arg=\"0x6B006C00\"}}"
  },
  {
    "label": "107",
    "text": "{{anim id=\"1\"}}엄마가{{delay frames=\"10\"}} 간식으로 군고구마를{{delay frames=\"5\"}}\n만들어주시고는 했었거든요{{pageBreak}}{{anim id=\"5\"}}고구마 껍질을{{delay frames=\"10\"}}\n호호 불어 가며 벗겨주시던\n그 모습이{{delay frames=\"10\"}} 정말 그립답니다"
  },
  {
    "label": "108",
    "text": "{{anim id=\"1\"}}아빠가 {{delay frames=\"5\"}}한 손에\n붕어빵 봉투를 들고\n대문을 들어오시던 모습이 생각나요{{pageBreak}}{{anim id=\"5\"}}한 입 베어 물면{{delay frames=\"10\"}}\n따끈하고 달콤한 팥이{{delay frames=\"8\"}}・{{delay frames=\"8\"}}・{{delay frames=\"8\"}}・{{delay frames=\"8\"}}\n정말 맛있었어요!"
  },
  {
    "label": "109",
    "text": "{{fun_00000009 arg=\"0x6E006F00\"}}"
  },
  {
    "label": "110",
    "text": "{{anim id=\"1\"}}길을 걷다가 친구들과 사 먹었던{{delay frames=\"10\"}}\n호떡이 자꾸 생각난답니다{{pageBreak}}{{anim id=\"43\"}}쫄깃쫄깃한 반죽 속에{{delay frames=\"10\"}}\n달콤한 꿀이 주르륵{{delay frames=\"8\"}}・{{delay frames=\"8\"}}・{{delay frames=\"8\"}}・{{delay frames=\"8\"}}{{fun_00010007 arg=\"\"}}\n{{anim id=\"1\"}}겨울철 별미였죠!"
  },
  {
    "label": "111",
    "text": "{{anim id=\"1\"}}아빠가 자주 사 오시던{{delay frames=\"10\"}}\n호빵이 생각난답니다{{pageBreak}}{{anim id=\"5\"}}반으로 쪼개서{{delay frames=\"15\"}} 호호 불어 가며\n온 가족이 한 입씩 나눠 먹었어요{{fun_00010007 arg=\"\"}}\n{{delay frames=\"8\"}}・{{delay frames=\"8\"}}・{{delay frames=\"8\"}}・{{delay frames=\"8\"}}{{anim id=\"4\"}}정말 맛있었는데\n{{anim id=\"39\"}}히잉～{{delay frames=\"20\"}} 생각만 했을 뿐인데{{delay frames=\"10\"}}\n배가 고파지네요"
  },
  {
    "label": "112",
    "text": ""
  },
  {
    "label": "113",
    "text": ""
  },
  {
    "label": "114",
    "text": "{{fun_00010009 arg=\"0x730074007500\"}}"
  },
  {
    "label": "115",
    "text": "{{anim id=\"1\"}}도시락으로{{delay frames=\"10\"}}\n주먹밥을 싸봤는데요{{pageBreak}}{{anim id=\"0\"}}도저히 엄마가 만든 것 같은{{delay frames=\"10\"}}\n그런 맛이 나질 않네요～{{pageBreak}}{{anim id=\"1\"}}엄마의{{delay frames=\"10\"}} 주먹밥이 맛있었던 건{{delay frames=\"15\"}}\n어떤 특별한 마법이{{delay frames=\"10\"}}\n걸려 있어서 그랬던 것 같아요"
  },
  {
    "label": "116",
    "text": "{{anim id=\"1\"}}얼마 전에 도시락을 싸서{{delay frames=\"10\"}}\n가까운 데로 소풍을 갔었는데{{delay frames=\"10\"}}\n{{anim id=\"9\"}}글쎄, 젓가락을 깜빡한 거예요!\n{{anim id=\"0\"}}하는 수 없이{{delay frames=\"10\"}} 근처 나무의\n나뭇가지를 꺾어서 썼는데{{delay frames=\"8\"}}・{{delay frames=\"8\"}}・{{delay frames=\"8\"}}・{{delay frames=\"8\"}}{{fun_00010007 arg=\"\"}}\n{{anim id=\"2\"}}나름 야생 느낌도 나고{{delay frames=\"5\"}} 재밌더라구요{{delay frames=\"40\"}}{{anim id=\"37\"}}"
  },
  {
    "label": "117",
    "text": "{{anim id=\"1\"}}{{fun_00080005 arg=\"\"}}님은{{delay frames=\"10\"}}\n도시락 만들기에{{delay frames=\"5\"}} 관심이 있으신가요?{{fun_00000008 arg=\"0x7600150077002800\"}}\n관심 있어!\n그다지・・・"
  },
  {
    "label": "118",
    "text": "{{anim id=\"5\"}}그렇군요!{{delay frames=\"20\"}}\n저도{{delay frames=\"10\"}} 도시락 만드는 게 좋아요{{pageBreak}}{{anim id=\"1\"}}내용물을 적당히 식힌 다음에{{delay frames=\"10\"}}\n뚜껑을 닫아야 한다든지{{delay frames=\"8\"}}・{{delay frames=\"8\"}}・{{delay frames=\"8\"}}・{{delay frames=\"15\"}}\n{{anim id=\"0\"}}유용한 정보가 있으시면{{delay frames=\"10\"}}{{anim id=\"32\"}} 같이 교환해요!"
  },
  {
    "label": "119",
    "text": "{{anim id=\"36\"}}아쉽네요{{delay frames=\"8\"}}・{{delay frames=\"8\"}}・{{delay frames=\"8\"}}・{{delay frames=\"8\"}}{{pageBreak}}{{anim id=\"1\"}}하지만{{delay frames=\"10\"}} 제가 만든 도시락을{{delay frames=\"10\"}}\n한번 맛보시면{{delay frames=\"15\"}} 분명 관심이{{delay frames=\"10\"}}\n생기실 거예요!"
  },
  {
    "label": "120",
    "text": ""
  },
  {
    "label": "121",
    "text": ""
  },
  {
    "label": "122",
    "text": "{{fun_00010009 arg=\"0x7B007C007D00\"}}"
  },
  {
    "label": "123",
    "text": "{{anim id=\"1\"}}햇볕에서 잘 말린 옷에서는{{delay frames=\"15\"}}\n해님 냄새가{{delay frames=\"10\"}} 나서 좋아요{{pageBreak}}{{anim id=\"5\"}}그 냄새가{{delay frames=\"10\"}} 너무나 좋아서{{delay frames=\"15\"}}\n옷에{{delay frames=\"3\"}} 얼굴을 푹 묻은 채{{delay frames=\"15\"}}\n잠들어 버린 적도 있답니다"
  },
  {
    "label": "124",
    "text": "{{anim id=\"1\"}}빨래를 널기 전에는{{delay frames=\"10\"}}\n팡팡{{delay frames=\"5\"}} 잘 털어야 한다고{{delay frames=\"10\"}}\n엄마가 늘 말씀하셨어요\n{{anim id=\"5\"}}팡팡 잘 털고 말리면{{delay frames=\"15\"}}\n주름이 쫙쫙 펴져서{{delay frames=\"10\"}}\n모양이 깔끔해지거든요"
  },
  {
    "label": "125",
    "text": "제가 요전에 빨래를 하다가{{delay frames=\"10\"}}\n세제의 양을 잘못 넣었거든요?{{pageBreak}}{{anim id=\"13\"}}그랬더니 세탁기에서{{delay frames=\"10\"}}\n거품이 계속 쏟아져 나오는 거예요!{{pageBreak}}{{anim id=\"37\"}}마치 구름 속에 있는 것 같아서{{delay frames=\"10\"}}\n그것도 나름대로 재미있었지만요"
  },
  {
    "label": "126",
    "text": ""
  },
  {
    "label": "127",
    "text": ""
  },
  {
    "label": "128",
    "text": "{{fun_00080005 arg=\"\"}}님은{{delay frames=\"20\"}}\n{{anim id=\"23\"}}눈사람을 만들 줄 아시나요?{{pageBreak}}{{anim id=\"1\"}}눈덩이를 데굴데굴 굴려서{{delay frames=\"15\"}}\n머리와 몸을 만들고{{delay frames=\"8\"}}・{{delay frames=\"8\"}}・{{delay frames=\"8\"}}・{{pageBreak}}그 2개의 눈덩이를 위아래로 쌓으면{{delay frames=\"10\"}}\n눈사람이 만들어진답니다{{pageBreak}}{{anim id=\"5\"}}역시 겨울철 놀이로는{{delay frames=\"10\"}}\n이것만 한 게 없죠, {{delay frames=\"15\"}}{{fun_00070005 arg=\"\"}}!{{pageBreak}}{{anim id=\"0\"}}밸런스를{{delay frames=\"3\"}} 딱 맞춘다는 게{{delay frames=\"10\"}}\n결코 쉬운 일은 아니지만요{{pageBreak}}{{anim id=\"21\"}}{{fun_00080005 arg=\"\"}}님이라면{{delay frames=\"10\"}}\n분명 근사한 눈사람을{{delay frames=\"10\"}}\n{{anim id=\"1\"}}만드실 수 있을 거예요"
  },
  {
    "label": "129",
    "text": "{{fun_00080005 arg=\"\"}}님!{{delay frames=\"20\"}}\n{{anim id=\"23\"}}눈사람은{{delay frames=\"5\"}} 만들고 계신가요?{{pageBreak}}{{anim id=\"1\"}}눈덩이 2개를 위아래로 쌓으면{{delay frames=\"10\"}}\n눈사람이 만들어진답니다{{pageBreak}}{{anim id=\"43\"}}그렇게 만들어진 눈사람은{{delay frames=\"15\"}}\n우리와 마찬가지로{{delay frames=\"8\"}}\n마음을 가지게 된대요{{pageBreak}}{{anim id=\"0\"}}게다가{{delay frames=\"10\"}} 몸의 크기에 따라{{delay frames=\"10\"}}\n다양한 성격의{{delay frames=\"3\"}} 눈사람이\n있다지 뭐예요?! {{delay frames=\"15\"}}{{fun_00070005 arg=\"\"}}!{{pageBreak}}{{anim id=\"1\"}}후후후{{delay frames=\"8\"}}・{{delay frames=\"8\"}}・{{delay frames=\"8\"}}・{{delay frames=\"20\"}}\n전 상상만 했는데도{{delay frames=\"8\"}}\n벌써 즐거워지는걸요!"
  },
  {
    "label": "130",
    "text": ""
  },
  {
    "label": "131",
    "text": ""
  },
  {
    "label": "132",
    "text": ""
  },
  {
    "label": "133",
    "text": ""
  },
  {
    "label": "134",
    "text": ""
  },
  {
    "label": "135",
    "text": ""
  },
  {
    "label": "136",
    "text": ""
  }
]