﻿[
  {
    "label": "001",
    "text": "{{anim id=\"1\"}}어머나!{{delay frames=\"10\"}} 멋진 모자를{{delay frames=\"3\"}}\n쓰고 계시는군요!{{pageBreak}}{{anim id=\"5\"}}혹시{{delay frames=\"8\"}} 오늘 축제 때문에\n준비해 오신 건가요?!{{pageBreak}}{{anim id=\"4\"}}역시 패션 센스가 뛰어나신 분들은{{delay frames=\"10\"}}\n축제를 즐기는 방법도{{delay frames=\"5\"}}\n뭔가 다르네요!"
  },
  {
    "label": "002",
    "text": "{{anim id=\"1\"}}그거{{delay frames=\"8\"}}\n성패트릭 모자 아닌가요?!{{pageBreak}}{{anim id=\"2\"}}후후후!{{delay frames=\"15\"}}\n{{anim id=\"5\"}}오늘 축제와\n아주 잘 어울려요, {{delay frames=\"15\"}}{{fun_00070005 arg=\"\"}}!"
  },
  {
    "label": "003",
    "text": "{{anim id=\"38\"}}어머나!{{delay frames=\"8\"}} 그 모자?!{{fun_00010007 arg=\"\"}}\n{{anim id=\"1\"}}성패트릭 데이 하면{{delay frames=\"10\"}}\n바로 그 모자죠!\n{{anim id=\"5\"}}같이{{delay frames=\"8\"}} 축제를 즐겨요!"
  }
]