﻿[
  {
    "label": "001",
    "text": "{{anim id=\"15\"}}꺄아악!{{delay frames=\"20\"}}\n{{fun_00080005 arg=\"\"}}님{{delay frames=\"8\"}}・{{delay frames=\"8\"}}・{{delay frames=\"8\"}}・{{delay frames=\"8\"}}?!{{delay frames=\"20\"}}{{pageBreak}}{{anim id=\"9\"}}벌에 쏘이셨군요?{{delay frames=\"20\"}}\n가여워라, {{delay frames=\"15\"}}{{fun_00070005 arg=\"\"}}!{{pageBreak}}{{anim id=\"11\"}}이럴 때{{delay frames=\"5\"}} 어떻게 해야 하는지{{delay frames=\"15\"}}\n분명히 전에{{delay frames=\"10\"}} 어느 책에서\n제가 읽었는데요{{delay frames=\"8\"}}・{{delay frames=\"8\"}}・{{delay frames=\"8\"}}・{{delay frames=\"8\"}}\n{{anim id=\"13\"}}우웅～{{delay frames=\"20\"}} 아무튼{{delay frames=\"10\"}}\n일단 약부터 드시고{{delay frames=\"10\"}}\n부기를 가라앉히는 게 좋겠어요!"
  },
  {
    "label": "002",
    "text": "{{anim id=\"15\"}}어머나!{{delay frames=\"20\"}} 누구신가 했더니{{delay frames=\"10\"}}\n{{fun_00080005 arg=\"\"}}님 아니세요!{{fun_00010007 arg=\"\"}}\n{{anim id=\"13\"}}얼굴 상태가{{delay frames=\"10\"}} 말이 아니네요!\n{{anim id=\"9\"}}갑자기{{delay frames=\"5\"}} 쏘이셨나 봐요{{delay frames=\"8\"}}・{{delay frames=\"8\"}}・{{delay frames=\"8\"}}・{{delay frames=\"20\"}}\n얼마나 놀라셨을까～{{pageBreak}}{{anim id=\"37\"}}얼른 약 드시고{{delay frames=\"10\"}}\n빨리 나으셨으면 좋겠네요"
  },
  {
    "label": "003",
    "text": "{{anim id=\"17\"}}어머! {{delay frames=\"20\"}}괜찮으세요?!{{delay frames=\"20\"}}\n{{anim id=\"13\"}}얼굴이{{delay frames=\"8\"}}・{{delay frames=\"8\"}}・{{delay frames=\"8\"}}・{{delay frames=\"8\"}} 보기만 해도{{delay frames=\"10\"}}\n너무 아플 것 같아요{{fun_001B000A arg=\"0x010004000800\"}}"
  },
  {
    "label": "004",
    "text": "{{fun_0000000A arg=\"0x0305000800CD\"}}"
  },
  {
    "label": "005",
    "text": "{{fun_00010009 arg=\"0x060006000800\"}}"
  },
  {
    "label": "006",
    "text": "{{anim id=\"22\"}}아, 맞다!{{delay frames=\"15\"}}\n{{anim id=\"1\"}}마침 제가{{delay frames=\"5\"}} 약을 갖고 있어요!{{fun_00010007 arg=\"\"}}\n이거 드시면{{delay frames=\"10\"}} 괜찮아지실 거예요"
  },
  {
    "label": "007",
    "text": "{{anim id=\"1\"}}빨리 나았으면 좋겠네요"
  },
  {
    "label": "008",
    "text": "{{anim id=\"36\"}}벌집은{{delay frames=\"10\"}} 정말 위험하니까{{delay frames=\"10\"}}\n항상 조심하세요!{{pageBreak}}{{anim id=\"9\"}}아～{{delay frames=\"20\"}} 빨리 나으셔야 할 텐데!"
  }
]