﻿[
  {
    "label": "001",
    "text": "{{anim id=\"16\"}}어머, {{delay frames=\"20\"}}{{fun_00000005 arg=\"\"}}{{fun_000E000E arg=\"0x020074C70000\"}}잖아! {{delay frames=\"15\"}}\n안녕?{{fun_00010007 arg=\"\"}}\n{{anim id=\"5\"}}오늘은 {{delay frames=\"15\"}}늦게까지 놀다 갈 거야～!{{delay frames=\"10\"}}"
  },
  {
    "label": "002",
    "text": "{{anim id=\"1\"}}얏호ー!{{delay frames=\"15\"}}\n{{fun_00080005 arg=\"\"}}{{fun_000E000E arg=\"0x020044C502007CC5\"}}! {{delay frames=\"10\"}}안녕?{{pageBreak}}{{anim id=\"5\"}}{{fun_00050005 arg=\"\"}} 마을 상점가는{{delay frames=\"10\"}}\n여전히 {{delay frames=\"8\"}}진짜 즐거운 곳이네～"
  },
  {
    "label": "003",
    "text": "{{anim id=\"15\"}}앗～! {{delay frames=\"20\"}}{{fun_00080005 arg=\"\"}}{{fun_000E000E arg=\"0x020044C502007CC5\"}}!{{delay frames=\"20\"}}\n{{anim id=\"5\"}}여전히 {{delay frames=\"5\"}}옷차림이 근사하구나～{{pageBreak}}{{anim id=\"1\"}}나도 {{delay frames=\"8\"}}{{fun_00050005 arg=\"\"}} 마을 상점가에서{{delay frames=\"15\"}}\n센스 있는 여자로 {{delay frames=\"3\"}}거듭나려구～!"
  },
  {
    "label": "004",
    "text": "{{anim id=\"16\"}}와! {{delay frames=\"15\"}}{{fun_00080005 arg=\"\"}}{{fun_000E000E arg=\"0x020044C502007CC5\"}}{{fun_00010007 arg=\"\"}}\n{{anim id=\"1\"}}여기에 오면{{delay frames=\"10\"}}\n만날 줄 알았어～"
  },
  {
    "label": "005",
    "text": "{{anim id=\"15\"}}어머～! {{delay frames=\"10\"}}{{fun_00080005 arg=\"\"}}{{fun_000E000E arg=\"0x020044C502007CC5\"}}!{{delay frames=\"15\"}}\n너의 패션 센스는 {{delay frames=\"10\"}}변함없구나!"
  }
]