﻿[
  {
    "label": "001",
    "text": "{{anim id=\"1\"}}있지, {{delay frames=\"10\"}}그거 알아?{{delay frames=\"20\"}}\n오늘이 {{delay frames=\"10\"}}2월 29일이라는 건{{delay frames=\"10\"}}\n{{anim id=\"5\"}}올해가 윤년이라는 뜻이야～!{{fun_00010009 arg=\"0x020003000400\"}}"
  },
  {
    "label": "002",
    "text": "{{anim id=\"37\"}}그렇다면 {{delay frames=\"10\"}}4년 만에\n29일과 {{anim id=\"23\"}}만난 거네?{{pageBreak}}그럼 이 말을 꼭 해야겠어!{{delay frames=\"20\"}}\n{{anim id=\"5\"}}「오랜만이야～!{{delay frames=\"10\"}}\n29일아, 잘 지냈니～?」"
  },
  {
    "label": "003",
    "text": "{{anim id=\"37\"}}그 말은 {{delay frames=\"10\"}}오늘이 4년에 한 번밖에 없는\n특별한 날이라는 거야!{{delay frames=\"20\"}}\n{{anim id=\"5\"}}그러니까 평소의 {{delay frames=\"10\"}}4배는 놀아야겠어!"
  },
  {
    "label": "004",
    "text": "{{anim id=\"37\"}}오늘은 {{delay frames=\"10\"}}4년 만에 돌아온 특별한 날이야!{{delay frames=\"30\"}}\n{{anim id=\"5\"}}어쩐지 {{delay frames=\"10\"}}신 나는데～?{{anim id=\"38\"}}"
  },
  {
    "label": "005",
    "text": "올해는 {{delay frames=\"10\"}}4년마다 한 번씩 \n돌아오는 윤년이야!{{fun_00000009 arg=\"0x06000700\"}}"
  },
  {
    "label": "006",
    "text": "{{anim id=\"1\"}}다른 해와는 달리 {{delay frames=\"10\"}}\n2월이 하루 더 많아서{{delay frames=\"10\"}}\n왠지 이득 보는 기분이야, {{delay frames=\"15\"}}{{fun_00070005 arg=\"\"}}!"
  },
  {
    "label": "007",
    "text": "{{anim id=\"1\"}}그럼 올해는{{delay frames=\"10\"}}\n366일이라는 거겠네?{{fun_00010007 arg=\"\"}}\n어쩐지 올해가 {{delay frames=\"10\"}}갑자기 특별하게 느껴져～!"
  }
]