﻿[
  {
    "label": "001",
    "text": "{{anim id=\"35\"}}{{fun_00010011 arg=\"0x0000\"}}{{fun_000E000E arg=\"0x020040C7020094B2\"}}{{delay frames=\"10\"}}\n저래 보여도 물속 생물을{{delay frames=\"8\"}}\n좋아하나 봐!\n{{anim id=\"1\"}}저거 봐봐! {{delay frames=\"20\"}}{{fun_00030011 arg=\"0x0000\"}}{{fun_000E000E arg=\"0x020074C7020000AC\"}}{{delay frames=\"10\"}}\n사랑을 많이 받은 얼굴을{{delay frames=\"5\"}}\n하고 있잖아! {{delay frames=\"20\"}}{{fun_00070005 arg=\"\"}}!"
  },
  {
    "label": "002",
    "text": "{{anim id=\"1\"}}{{fun_00010011 arg=\"0x0000\"}}{{fun_000E000E arg=\"0x020040C7020094B2\"}}{{delay frames=\"10\"}}\n{{fun_00030011 arg=\"0x0000\"}}{{fun_000E000E arg=\"0x020044C702007CB9\"}}{{delay frames=\"8\"}}\n장식해 놨더라～!\n{{anim id=\"35\"}}근데 {{delay frames=\"10\"}}혹시 가짜면{{delay frames=\"8\"}}・{{delay frames=\"8\"}}・{{delay frames=\"8\"}}・{{delay frames=\"8\"}}\n무지 화내겠지?"
  },
  {
    "label": "003",
    "text": "{{anim id=\"1\"}}{{fun_00010011 arg=\"0x0000\"}}{{fun_000E000E arg=\"0x020040C7020094B2\"}} \n{{fun_00030011 arg=\"0x0000\"}}{{fun_000E000E arg=\"0x020044C702007CB9\"}} \n키우는구나～{{pageBreak}}{{anim id=\"21\"}}인테리어 때문이라기보다{{delay frames=\"10\"}}\n그냥 {{delay frames=\"10\"}}식물을 사랑하는 느낌이야!\n{{anim id=\"1\"}}저 애랑 {{delay frames=\"5\"}}잘 어울려! {{delay frames=\"15\"}}{{fun_00070005 arg=\"\"}}!"
  },
  {
    "label": "004",
    "text": "{{anim id=\"1\"}}{{fun_00030011 arg=\"0x0100\"}}{{fun_000E000E arg=\"0x020044C702007CB9\"}}{{delay frames=\"5\"}}\n틀어 놨네～!{{fun_00010007 arg=\"\"}}\n{{anim id=\"21\"}}오～ {{delay frames=\"10\"}}취향이 꽤 괜찮은데?\n{{anim id=\"37\"}}만약에 {{delay frames=\"10\"}}{{fun_00010011 arg=\"0x0000\"}}네서\n파티를 하게 되면{{pageBreak}}{{anim id=\"5\"}}이렇게 {{delay frames=\"3\"}}한 번만 들어도 \n귀에 팍 꽂히는 노래를{{delay frames=\"10\"}} \n가져와야겠다, {{delay frames=\"20\"}}{{fun_00070005 arg=\"\"}}!"
  },
  {
    "label": "005",
    "text": "{{anim id=\"37\"}}{{fun_00010011 arg=\"0x0000\"}}{{fun_000E000E arg=\"0x020040C7020094B2\"}}{{delay frames=\"10\"}}\n{{fun_00030011 arg=\"0x0000\"}}{{fun_000E000E arg=\"0x04003CC75CB802005CB8\"}}{{delay frames=\"5\"}}\n어떤 방송을 볼까～?\n{{anim id=\"11\"}}이미지로 생각해보자면{{delay frames=\"8\"}}・{{delay frames=\"8\"}}・{{delay frames=\"8\"}}・{{delay frames=\"30\"}}\n{{anim id=\"22\"}}정열적인 스포츠 드라마가 {{delay frames=\"10\"}}아닐까?"
  },
  {
    "label": "006",
    "text": "{{fun_00040009 arg=\"0x46004700480049004A004B00\"}}"
  },
  {
    "label": "007",
    "text": "{{anim id=\"1\"}}{{fun_00010011 arg=\"0x0000\"}}네 집에{{delay frames=\"10\"}}\n{{fun_00030011 arg=\"0x0000\"}}{{fun_000E000E arg=\"0x020074C7020000AC\"}} 있어～{{pageBreak}}{{anim id=\"21\"}}저래 보여도{{delay frames=\"10\"}}\n사실은 {{delay frames=\"5\"}}가정적인 면이 있나 봐!"
  },
  {
    "label": "008",
    "text": "{{anim id=\"37\"}}{{fun_00010011 arg=\"0x0000\"}}{{fun_000E000E arg=\"0x020040C7020094B2\"}}{{delay frames=\"10\"}}\n{{fun_00030011 arg=\"0x0000\"}}에서{{delay frames=\"5\"}}\n자는구나～\n{{anim id=\"35\"}}왠지 {{delay frames=\"5\"}}잠꼬대도{{delay frames=\"10\"}}\n무지 큰 소리로 할 거 같지 않아?!"
  },
  {
    "label": "009",
    "text": "{{anim id=\"1\"}}{{fun_00010011 arg=\"0x0000\"}}{{fun_000E000E arg=\"0x020040C7020094B2\"}}{{delay frames=\"10\"}}\n겉보기랑 다르게 {{delay frames=\"10\"}}\n소녀 같은 면이 {{delay frames=\"10\"}}있을 거 같애\n{{anim id=\"35\"}}이따가 {{delay frames=\"10\"}}침대 베개 밑에{{delay frames=\"10\"}}\n좋아하는 사람 사진 같은 건 없나{{delay frames=\"15\"}}\n살펴봐야지～ {{delay frames=\"15\"}}{{fun_00070005 arg=\"\"}}"
  },
  {
    "label": "010",
    "text": "{{anim id=\"1\"}}{{fun_00030011 arg=\"0x0000\"}} 같은{{delay frames=\"10\"}}\n소파가 하나 있으면 {{delay frames=\"10\"}}무지 편해～{{pageBreak}}{{anim id=\"5\"}}이상형과 {{delay frames=\"20\"}}데이트하는 모습을{{delay frames=\"3\"}}\n상상하기엔 {{delay frames=\"10\"}}딱이잖아!"
  },
  {
    "label": "011",
    "text": "{{fun_00040009 arg=\"0x46004700480049004A004B00\"}}"
  },
  {
    "label": "012",
    "text": "{{anim id=\"37\"}}{{fun_00010011 arg=\"0x0000\"}}네 집에{{delay frames=\"10\"}}\n{{fun_00030011 arg=\"0x0000\"}}{{fun_000E000E arg=\"0x020074C7020000AC\"}}\n있었네, {{fun_00070005 arg=\"\"}}?{{pageBreak}}{{anim id=\"5\"}}편한지 어떤지 {{delay frames=\"10\"}}전부터 궁금했으니까{{delay frames=\"10\"}}\n이따가 {{delay frames=\"5\"}}앉아봐도 되냐고 물어봐야지～"
  },
  {
    "label": "013",
    "text": "{{anim id=\"37\"}}{{fun_00010011 arg=\"0x0000\"}}{{fun_000E000E arg=\"0x020074C7020000AC\"}}{{delay frames=\"10\"}}\n{{fun_00030011 arg=\"0x0000\"}}도 키우네?{{pageBreak}}{{anim id=\"0\"}}딱 보기에도 쟤는{{delay frames=\"10\"}} {{anim id=\"21\"}}잠자리채 휘두르기에는\n{{delay frames=\"5\"}}일가견이 있을 것 같으니까{{delay frames=\"15\"}}\n{{anim id=\"1\"}}아마 곤충도 {{delay frames=\"10\"}}잘 잡을 거야～"
  },
  {
    "label": "014",
    "text": "{{fun_00010011 arg=\"0x0000\"}}{{fun_000E000E arg=\"0x020040C7020094B2\"}}{{delay frames=\"10\"}}\n{{fun_00030011 arg=\"0x0000\"}}에{{delay frames=\"10\"}}\n{{anim id=\"28\"}}뭘 숨겨 놨을까?\n{{anim id=\"5\"}}옛날 사진 같은 건 {{delay frames=\"5\"}}안 나오려나?!{{delay frames=\"30\"}}\n완전 궁금해～! {{delay frames=\"20\"}}{{fun_00070005 arg=\"\"}}!"
  },
  {
    "label": "015",
    "text": "{{fun_00040009 arg=\"0x46004700480049004A004B00\"}}"
  },
  {
    "label": "016",
    "text": "{{fun_00010011 arg=\"0x0000\"}}{{fun_000E000E arg=\"0x020074C7020000AC\"}}{{delay frames=\"10\"}}\n자꾸 {{delay frames=\"10\"}}삽을 들고 어슬렁거리길래{{delay frames=\"10\"}}\n{{anim id=\"13\"}}심기라도 건드릴라 피해 다녔는데{{delay frames=\"8\"}}・{{delay frames=\"8\"}}・{{delay frames=\"8\"}}・{{delay frames=\"10\"}}\n{{anim id=\"1\"}}{{fun_00030011 arg=\"0x0000\"}}{{fun_000E000E arg=\"0x020044C702007CB9\"}}\n파내려고 그랬었구나～ {{delay frames=\"15\"}}{{fun_00070005 arg=\"\"}}"
  },
  {
    "label": "017",
    "text": "{{anim id=\"5\"}}{{fun_00010011 arg=\"0x0000\"}}{{fun_000E000E arg=\"0x020074C7020000AC\"}}{{delay frames=\"10\"}}\n방에 {{delay frames=\"10\"}}{{fun_00030011 arg=\"0x0000\"}}{{fun_000E000E arg=\"0x020044C702007CB9\"}}\n장식해 놨어～!\n{{anim id=\"37\"}}분명히 {{delay frames=\"8\"}}제일 맘에 들어하는\n옷일 거야～!{{pageBreak}}{{anim id=\"5\"}}내가 다음에 {{delay frames=\"10\"}}패션 체크나{{delay frames=\"3\"}}\n해줘야겠어～! {{delay frames=\"15\"}}{{fun_00070005 arg=\"\"}}!"
  },
  {
    "label": "018",
    "text": "{{fun_00040009 arg=\"0x46004700480049004A004B00\"}}"
  },
  {
    "label": "019",
    "text": "{{fun_00040009 arg=\"0x46004700480049004A004B00\"}}"
  },
  {
    "label": "020",
    "text": "{{anim id=\"37\"}}{{fun_00010011 arg=\"0x0000\"}}{{fun_000E000E arg=\"0x020040C7020094B2\"}}{{delay frames=\"10\"}}\n사실 {{delay frames=\"5\"}}독서광인가～?!{{pageBreak}}{{anim id=\"0\"}}{{fun_00030011 arg=\"0x0000\"}}{{fun_000E000E arg=\"0x020074C7020000AC\"}}\n있다는 건 {{delay frames=\"10\"}}{{anim id=\"21\"}}그렇다는 거겠지?"
  },
  {
    "label": "021",
    "text": "{{anim id=\"37\"}}{{fun_00010011 arg=\"0x0000\"}}{{fun_000E000E arg=\"0x020040C7020094B2\"}}{{delay frames=\"10\"}}\n사실 {{delay frames=\"10\"}}깔끔한 걸 좋아하나?!{{pageBreak}}{{anim id=\"11\"}}{{fun_00030011 arg=\"0x0000\"}}{{fun_000E000E arg=\"0x020074C7020000AC\"}}\n있다는 건 {{delay frames=\"10\"}}그렇다는 소리겠지～?{{fun_00010007 arg=\"\"}}\n{{anim id=\"37\"}}왠지 주변 청소는 {{delay frames=\"10\"}}확실하게 할 거 같애!"
  },
  {
    "label": "022",
    "text": "{{anim id=\"37\"}}{{fun_00010011 arg=\"0x0000\"}}{{fun_000E000E arg=\"0x020040C7020094B2\"}}{{delay frames=\"10\"}}\n{{fun_00030011 arg=\"0x0000\"}}{{fun_000E000E arg=\"0x020074C7020000AC\"}}{{delay frames=\"5\"}}\n맘에 드나 봐～!{{pageBreak}}{{anim id=\"21\"}}하긴, {{delay frames=\"10\"}}공룡을 좋아하게 생기긴 했어～{{fun_00010007 arg=\"\"}}\n{{anim id=\"5\"}}크고 힘센 생물을{{delay frames=\"10\"}}\n존경할 것 같은 이미지잖아!"
  },
  {
    "label": "023",
    "text": "{{anim id=\"11\"}}{{fun_00010011 arg=\"0x0000\"}}{{fun_000E000E arg=\"0x020074C7020000AC\"}}{{delay frames=\"10\"}}\n{{fun_00030011 arg=\"0x0000\"}}{{fun_000E000E arg=\"0x04003CC75CB802005CB8\"}}{{delay frames=\"10\"}}\n우아하게 {{delay frames=\"5\"}}차를 마실 이미지는 아닌데～\n{{anim id=\"1\"}}아마 누군가한테{{delay frames=\"10\"}}\n빌린 거겠지～! {{delay frames=\"20\"}}{{fun_00070005 arg=\"\"}}!"
  },
  {
    "label": "024",
    "text": "{{fun_00010011 arg=\"0x0000\"}}도 참{{delay frames=\"8\"}}・{{delay frames=\"8\"}}・{{delay frames=\"8\"}}・{{delay frames=\"10\"}}\n호탕한 건 좋지만{{pageBreak}}{{anim id=\"27\"}}그래도 손님이 왔는데{{delay frames=\"15\"}}\n{{fun_00030011 arg=\"0x0000\"}}{{fun_000E000E arg=\"0x020044C702007CB9\"}} 두는 건{{delay frames=\"8\"}}\n좀 그렇지 않나～?\n{{anim id=\"1\"}}그치만 그런 점이{{delay frames=\"10\"}}\n쟤 나름의 장점일지도 몰라!"
  },
  {
    "label": "025",
    "text": "{{anim id=\"37\"}}{{fun_00010011 arg=\"0x0000\"}}{{fun_000E000E arg=\"0x020040C7020094B2\"}}{{delay frames=\"10\"}}\n맨손으로 승부하는{{delay frames=\"5\"}}\n아날로그형 인간인 줄 알았는데\n{{anim id=\"21\"}}{{fun_00030011 arg=\"0x0000\"}}{{fun_000E000E arg=\"0x020044C702007CB9\"}}\n갖고 있구나!{{fun_00010007 arg=\"\"}}\n{{anim id=\"5\"}}좀 의외다～!"
  },
  {
    "label": "026",
    "text": "{{anim id=\"5\"}}{{fun_00010011 arg=\"0x0000\"}}{{fun_000E000E arg=\"0x020040C7020094B2\"}} 방에{{delay frames=\"10\"}}\n{{fun_00030011 arg=\"0x0000\"}}{{fun_000E000E arg=\"0x020044C702007CB9\"}}\n장식해 놨네? {{delay frames=\"10\"}}근사하다～\n{{anim id=\"1\"}}알고 보면{{delay frames=\"10\"}}\n무지 섬세한 성격인 거 아냐～? {{delay frames=\"15\"}}{{fun_00070005 arg=\"\"}}!"
  },
  {
    "label": "027",
    "text": "{{anim id=\"5\"}}{{fun_00010011 arg=\"0x0000\"}}네{{delay frames=\"10\"}}\n냉장고 안이 {{delay frames=\"10\"}}영 신경 쓰여～{{pageBreak}}{{anim id=\"13\"}}나중에 {{delay frames=\"10\"}}{{fun_00030011 arg=\"0x0000\"}}{{fun_000E000E arg=\"0x020044C702007CB9\"}}\n훔쳐보려고 하는데{{delay frames=\"10\"}}\n{{anim id=\"9\"}}들키면 {{delay frames=\"5\"}}무지 혼나겠지～? {{delay frames=\"15\"}}{{fun_00070005 arg=\"\"}}!"
  },
  {
    "label": "028",
    "text": "{{anim id=\"1\"}}{{fun_00010011 arg=\"0x0000\"}}{{fun_000E000E arg=\"0x020040C7020094B2\"}}{{delay frames=\"10\"}}\n{{fun_00030011 arg=\"0x0000\"}}{{fun_000E000E arg=\"0x020044C702007CB9\"}} {{delay frames=\"5\"}}좋아하나?{{fun_00010007 arg=\"\"}}\n{{anim id=\"21\"}}방에 장식했다는 건 {{delay frames=\"10\"}}그렇다는 소리겠지?{{pageBreak}}{{anim id=\"5\"}}다음에 놀러 올 땐{{delay frames=\"10\"}}\n{{fun_00030011 arg=\"0x0000\"}}{{fun_000E000E arg=\"0x020044C702007CB9\"}}{{delay frames=\"10\"}}\n선물로 가져와야겠다!"
  },
  {
    "label": "029",
    "text": "{{fun_00040009 arg=\"0x46004700480049004A004B00\"}}"
  },
  {
    "label": "030",
    "text": "{{anim id=\"5\"}}{{fun_00010011 arg=\"0x0000\"}}{{fun_000E000E arg=\"0x020040C7020094B2\"}}{{delay frames=\"10\"}}\n{{fun_00030011 arg=\"0x0000\"}}도 하는구나!{{pageBreak}}{{anim id=\"2\"}}격투 게임을 할 땐{{delay frames=\"10\"}}\n필살기를 {{delay frames=\"5\"}}마구 쓸 거 같아!{{delay frames=\"30\"}}{{anim id=\"37\"}}"
  },
  {
    "label": "031",
    "text": "{{anim id=\"1\"}}{{fun_00010011 arg=\"0x0000\"}}한테{{delay frames=\"10\"}}\n{{fun_00030011 arg=\"0x0000\"}}도 {{delay frames=\"5\"}}있더라!{{pageBreak}}{{anim id=\"11\"}}귀여운 물건엔{{delay frames=\"5\"}}\n관심도 없는 줄 알았는데 말야～{{delay frames=\"15\"}}\n{{anim id=\"35\"}}사실은 소녀 감성이었어～ {{delay frames=\"15\"}}{{fun_00070005 arg=\"\"}}"
  },
  {
    "label": "032",
    "text": "{{anim id=\"1\"}}{{fun_00010011 arg=\"0x0000\"}}한테{{delay frames=\"10\"}}\n{{fun_00030011 arg=\"0x0000\"}}{{fun_000E000E arg=\"0x020074C7020000AC\"}} {{delay frames=\"5\"}}있더라～!{{pageBreak}}{{anim id=\"11\"}}인형 같은 건{{delay frames=\"5\"}}\n전혀 관심 없는 줄 알았는데{{delay frames=\"15\"}}\n{{anim id=\"35\"}}귀여운 걸 꽤 좋아하나 봐～!"
  },
  {
    "label": "033",
    "text": "{{fun_00040009 arg=\"0x46004700480049004A004B00\"}}"
  },
  {
    "label": "034",
    "text": "{{fun_00040009 arg=\"0x46004700480049004A004B00\"}}"
  },
  {
    "label": "035",
    "text": "{{anim id=\"1\"}}{{fun_00010011 arg=\"0x0000\"}}한테{{delay frames=\"10\"}}\n{{fun_00030011 arg=\"0x0000\"}}{{fun_000E000E arg=\"0x020074C7020000AC\"}} {{delay frames=\"5\"}}있네?{{pageBreak}}{{anim id=\"11\"}}애들 물건엔{{delay frames=\"5\"}}\n관심 없는 줄 알았는데{{delay frames=\"8\"}}・{{delay frames=\"8\"}}・{{delay frames=\"8\"}}・{{delay frames=\"15\"}}\n{{anim id=\"5\"}}사실은 순수한 사람이었구나～"
  },
  {
    "label": "036",
    "text": "{{fun_00040009 arg=\"0x46004700480049004A004B00\"}}"
  },
  {
    "label": "037",
    "text": "{{anim id=\"13\"}}{{fun_00030011 arg=\"0x0000\"}}{{fun_000E000E arg=\"0x020074C70000\"}}다～!!{{delay frames=\"10\"}}\n{{fun_00010011 arg=\"0x0000\"}}{{fun_000E000E arg=\"0x020040C7020094B2\"}}{{delay frames=\"10\"}}\n몰래 훈련이라도 하나?!\n{{anim id=\"22\"}}아니면 {{delay frames=\"10\"}}예전에 쓰던 게{{delay frames=\"5\"}}\n남아 있는 걸지도 모르겠다!"
  },
  {
    "label": "038",
    "text": "{{anim id=\"13\"}}{{fun_00030011 arg=\"0x0000\"}}{{fun_000E000E arg=\"0x020074C70000\"}}다～!!{{delay frames=\"10\"}}\n{{fun_00010011 arg=\"0x0000\"}}{{fun_000E000E arg=\"0x020040C7020094B2\"}}{{delay frames=\"10\"}}\n몰래 훈련이라도 하나?!\n{{anim id=\"22\"}}아니면 {{delay frames=\"10\"}}예전에 쓰던 게{{delay frames=\"5\"}}\n남아 있는 걸지도 모르겠다!"
  },
  {
    "label": "039",
    "text": "{{fun_00040009 arg=\"0x46004700480049004A004B00\"}}"
  },
  {
    "label": "040",
    "text": "{{fun_00040009 arg=\"0x46004700480049004A004B00\"}}"
  },
  {
    "label": "041",
    "text": "{{anim id=\"9\"}}{{fun_00030011 arg=\"0x0000\"}}{{fun_000E000E arg=\"0x020074C7020000AC\"}}{{delay frames=\"10\"}}\n왜 여기에 있지?!{{pageBreak}}{{anim id=\"22\"}}어디서 {{delay frames=\"5\"}}그냥 들고 온 거 아냐?!{{delay frames=\"30\"}}\n{{anim id=\"2\"}}{{fun_00010011 arg=\"0x0000\"}}도 참 {{delay frames=\"10\"}}터프하다～{{delay frames=\"30\"}}{{anim id=\"37\"}}"
  },
  {
    "label": "042",
    "text": "{{fun_00040009 arg=\"0x46004700480049004A004B00\"}}"
  },
  {
    "label": "043",
    "text": "{{fun_00040009 arg=\"0x46004700480049004A004B00\"}}"
  },
  {
    "label": "044",
    "text": "{{fun_00040009 arg=\"0x46004700480049004A004B00\"}}"
  },
  {
    "label": "045",
    "text": ""
  },
  {
    "label": "046",
    "text": ""
  },
  {
    "label": "047",
    "text": ""
  },
  {
    "label": "048",
    "text": ""
  },
  {
    "label": "049",
    "text": ""
  },
  {
    "label": "050",
    "text": ""
  },
  {
    "label": "051",
    "text": ""
  },
  {
    "label": "052",
    "text": ""
  },
  {
    "label": "053",
    "text": ""
  },
  {
    "label": "054",
    "text": ""
  },
  {
    "label": "055",
    "text": ""
  },
  {
    "label": "056",
    "text": ""
  },
  {
    "label": "057",
    "text": ""
  },
  {
    "label": "058",
    "text": ""
  },
  {
    "label": "059",
    "text": ""
  },
  {
    "label": "060",
    "text": ""
  },
  {
    "label": "061",
    "text": ""
  },
  {
    "label": "062",
    "text": ""
  },
  {
    "label": "063",
    "text": ""
  },
  {
    "label": "064",
    "text": ""
  },
  {
    "label": "065",
    "text": ""
  },
  {
    "label": "066",
    "text": ""
  },
  {
    "label": "067",
    "text": ""
  },
  {
    "label": "068",
    "text": ""
  },
  {
    "label": "069",
    "text": ""
  },
  {
    "label": "070",
    "text": "{{anim id=\"1\"}}{{fun_00010011 arg=\"0x0000\"}}네 집 가구는{{delay frames=\"10\"}}\n{{anim id=\"5\"}}내 인테리어 혼에 {{delay frames=\"5\"}}불을 지른단 말이지～"
  },
  {
    "label": "071",
    "text": "{{anim id=\"1\"}}{{fun_00010011 arg=\"0x0000\"}}네 집 말야,{{delay frames=\"15\"}}\n꽤 {{delay frames=\"10\"}}{{anim id=\"5\"}}느낌이 괜찮은 것 같네～!"
  },
  {
    "label": "072",
    "text": "{{anim id=\"1\"}}응? {{delay frames=\"30\"}}멋진 가구라도{{delay frames=\"10\"}} 발견했어?!{{delay frames=\"30\"}}\n{{anim id=\"5\"}}나도 {{delay frames=\"5\"}}구석구석 둘러봐야겠다～ {{delay frames=\"15\"}}{{fun_00070005 arg=\"\"}}"
  },
  {
    "label": "073",
    "text": "{{anim id=\"1\"}}집에 있는 물건들을 보면{{delay frames=\"15\"}}\n{{anim id=\"28\"}}어쩐지 사는 사람의 심리가{{delay frames=\"15\"}}\n눈에 보이는 느낌이야～"
  },
  {
    "label": "074",
    "text": "{{fun_00010011 arg=\"0x0000\"}}네 집 가구를 보고{{delay frames=\"10\"}}\n인테리어 공부를{{delay frames=\"10\"}}\n하는 중이니?"
  },
  {
    "label": "075",
    "text": "{{anim id=\"1\"}}이런 배치도 {{delay frames=\"10\"}}꽤 괜찮네～!{{delay frames=\"30\"}}\n{{anim id=\"21\"}}잘 봐 뒀다가 {{delay frames=\"8\"}}나중에 참고해야지, {{delay frames=\"15\"}}{{fun_00070005 arg=\"\"}}"
  }
]