﻿[
  {
    "label": "001",
    "text": "{{anim id=\"2\"}}꺄하핫!{{delay frames=\"30\"}}\n너네 집 {{delay frames=\"5\"}}진짜 기대된다～ {{delay frames=\"10\"}}{{fun_00070005 arg=\"\"}}!{{delay frames=\"10\"}}{{anim id=\"37\"}}{{fun_00010007 arg=\"\"}}\n{{anim id=\"35\"}}여기저기 꼼꼼히 봐야지!"
  },
  {
    "label": "002",
    "text": "{{anim id=\"1\"}}{{fun_00080005 arg=\"\"}}{{fun_000E000E arg=\"0x020044C502007CC5\"}},{{delay frames=\"10\"}}\n우리 뭐하고 놀까～?{{fun_00010007 arg=\"\"}}\n완전 기대된다!"
  },
  {
    "label": "003",
    "text": "{{anim id=\"5\"}}친구 집에 가는 건{{delay frames=\"10\"}}\n참 즐거워, {{delay frames=\"10\"}}{{fun_00070005 arg=\"\"}}!"
  },
  {
    "label": "004",
    "text": "{{anim id=\"1\"}}{{fun_00080005 arg=\"\"}}네 집이라～!{{pageBreak}}{{anim id=\"22\"}}이런 기회도 흔치 않으니까{{delay frames=\"10\"}}\n{{fun_00100005 arg=\"0x0000\"}} 파티 같은 거\n할까? {{fun_00070005 arg=\"\"}}!"
  },
  {
    "label": "005",
    "text": "{{anim id=\"5\"}}집 인테리어에{{delay frames=\"15\"}}\n신경 쓴 부분 있으면{{delay frames=\"10\"}}\n자세히 볼 테니까 꼭 알려줘～"
  },
  {
    "label": "006",
    "text": "{{anim id=\"5\"}}어떤 집인지{{delay frames=\"10\"}}\n꼼꼼히 보고 돌아갈 거야～"
  },
  {
    "label": "007",
    "text": "{{anim id=\"1\"}}{{fun_00080005 arg=\"\"}}네 집은 {{delay frames=\"8\"}}처음이야～{{delay frames=\"10\"}}\n{{anim id=\"4\"}}우왕, 두근거려～!"
  },
  {
    "label": "008",
    "text": "{{anim id=\"5\"}}앞으로 {{delay frames=\"15\"}}{{fun_00080005 arg=\"\"}} 하우스{{delay frames=\"8\"}}\n단골손님 하고 싶어～!"
  },
  {
    "label": "009",
    "text": "{{anim id=\"3\"}}또 {{delay frames=\"8\"}}{{fun_00080005 arg=\"\"}}네 집에 가다니{{delay frames=\"10\"}}\n날아갈 것 같아～!{{delay frames=\"10\"}}{{anim id=\"37\"}}"
  },
  {
    "label": "010",
    "text": "{{anim id=\"11\"}}너네 집에 가는 게{{delay frames=\"10\"}}\n이걸로 몇 번째더라?{{pageBreak}}{{anim id=\"5\"}}아무튼{{delay frames=\"15\"}}\n가도 가도 {{delay frames=\"8\"}}또 가고 싶은 집이야!"
  },
  {
    "label": "011",
    "text": "{{anim id=\"1\"}}{{fun_00080005 arg=\"\"}}네 집\n인테리어는{{delay frames=\"10\"}}\n따라하고 싶어지더라～!"
  },
  {
    "label": "012",
    "text": "{{anim id=\"23\"}}어라?!{{fun_00010007 arg=\"\"}}\n오늘은 우리 집이 아니라{{delay frames=\"10\"}}\n{{fun_00080005 arg=\"\"}}, 너네 집에서 노는 거잖아!"
  },
  {
    "label": "013",
    "text": "{{anim id=\"23\"}}왜 그래?{{fun_00010007 arg=\"\"}}\n{{fun_00080005 arg=\"\"}}네는{{delay frames=\"10\"}}\n그쪽 아니잖아?!"
  },
  {
    "label": "014",
    "text": "{{anim id=\"15\"}}어?!{{fun_00010007 arg=\"\"}}\n{{fun_00000005 arg=\"\"}}{{fun_000E000E arg=\"0x020044C502007CC5\"}}, {{delay frames=\"10\"}}혹시\n어디 나갈 예정이야?{{pageBreak}}{{anim id=\"37\"}}그럼{{delay frames=\"15\"}} 너네 집에서 노는 건{{delay frames=\"10\"}}\n다음으로 미룰래?{{endTag}}\n안 나가도 돼!\n다음에 놀자"
  },
  {
    "label": "015",
    "text": "{{anim id=\"5\"}}다행이다～!{{delay frames=\"30\"}}\n그럼 {{delay frames=\"10\"}}얼른 가자!"
  },
  {
    "label": "016",
    "text": "{{anim id=\"12\"}}그래～{{delay frames=\"8\"}}・{{delay frames=\"8\"}}・{{delay frames=\"8\"}}・{{delay frames=\"8\"}} 흠, {{delay frames=\"15\"}}어쩔 수 없지{{fun_00010007 arg=\"\"}}\n{{anim id=\"1\"}}그럼 다음에 다시 물어볼게{{delay frames=\"10\"}}\n더 한가할 때 놀자!"
  },
  {
    "label": "017",
    "text": "{{anim id=\"23\"}}어?{{fun_00010007 arg=\"\"}}\n{{fun_00000005 arg=\"\"}}{{fun_000E000E arg=\"0x020044C502007CC5\"}}{{delay frames=\"10\"}}\n어디 나가야 돼?{{pageBreak}}{{anim id=\"1\"}}그럼{{delay frames=\"10\"}}\n그냥 다음에{{delay frames=\"8\"}} 놀까?{{endTag}}\n아냐, 괜찮아!\n다음에 놀자"
  },
  {
    "label": "018",
    "text": "{{anim id=\"1\"}}오케이ー!{{delay frames=\"20\"}}\n그럼 {{delay frames=\"8\"}}렛츠 고ー!"
  },
  {
    "label": "019",
    "text": "{{anim id=\"10\"}}흐음～{{delay frames=\"8\"}}・{{delay frames=\"8\"}}・{{delay frames=\"8\"}}・{{delay frames=\"20\"}}\n{{anim id=\"1\"}}뭐, {{delay frames=\"15\"}}어쩔 수 없지!{{delay frames=\"20\"}}\n다음에 다시 봐"
  },
  {
    "label": "020",
    "text": "{{anim id=\"15\"}}잠깐만, {{delay frames=\"5\"}}어디 가!{{delay frames=\"20\"}}\n{{anim id=\"9\"}}거긴{{delay frames=\"10\"}}\n{{fun_00010011 arg=\"0x0000\"}}네 집이야!"
  },
  {
    "label": "021",
    "text": "{{anim id=\"23\"}}왜 그래?{{delay frames=\"30\"}}\n{{anim id=\"1\"}}얼른 가자～ {{delay frames=\"10\"}}{{fun_00070005 arg=\"\"}}"
  },
  {
    "label": "022",
    "text": "{{anim id=\"36\"}}저기, {{delay frames=\"20\"}}오늘은 {{delay frames=\"8\"}}그냥 그만두자{{fun_00010007 arg=\"\"}}\n나도 {{delay frames=\"10\"}}다른 약속이 많단 말이지{{delay frames=\"20\"}}\n{{anim id=\"37\"}}다음에 또 봐!"
  },
  {
    "label": "023",
    "text": "{{anim id=\"15\"}}앗! {{delay frames=\"30\"}}시간이 벌써!{{delay frames=\"30\"}}\n{{anim id=\"13\"}}어쩐지 {{delay frames=\"10\"}}눈이 자꾸 감긴다 했어{{pageBreak}}{{anim id=\"27\"}}그럼{{delay frames=\"10\"}}\n오늘은 여기까지 하고{{delay frames=\"15\"}}\n{{anim id=\"37\"}}나중에 다시 놀자!"
  },
  {
    "label": "024",
    "text": "{{anim id=\"13\"}}잠깐만～!"
  },
  {
    "label": "025",
    "text": "{{anim id=\"6\"}}기다리랬잖아～!{{delay frames=\"30\"}}\n{{anim id=\"7\"}}됐어! 관둬!{{fun_0003000B arg=\"0x03CD\"}}"
  }
]