﻿[
  {
    "label": "001",
    "text": "{{anim id=\"15\"}}꺅!{{delay frames=\"20\"}}\n들킨 줄 알았잖아～{{pageBreak}}{{anim id=\"13\"}}저리 가! 얼른～{{delay frames=\"20\"}}\n지금 숨바꼭질 중이란 말야{{delay frames=\"10\"}}\n{{anim id=\"37\"}}나중에 얘기하자, {{delay frames=\"10\"}}{{fun_00070005 arg=\"\"}}!"
  },
  {
    "label": "002",
    "text": "{{anim id=\"6\"}}야! {{delay frames=\"20\"}}조용히 좀 해～!{{fun_00010007 arg=\"\"}}\n{{anim id=\"36\"}}나 {{delay frames=\"10\"}}지금 숨바꼭질한단 말야{{delay frames=\"20\"}}\n{{anim id=\"1\"}}나중에 {{delay frames=\"8\"}}놀자～"
  },
  {
    "label": "003",
    "text": "{{anim id=\"13\"}}쉬～～～잇!{{delay frames=\"30\"}}\n나 지금{{delay frames=\"10\"}}\n나쁜 사람한테 쫓기는 중이라{{delay frames=\"10\"}}・{{delay frames=\"10\"}}・{{delay frames=\"10\"}}・{{delay frames=\"10\"}}\n{{anim id=\"35\"}}키킥, {{delay frames=\"8\"}}뻥이지～{{delay frames=\"30\"}}\n{{anim id=\"1\"}}사실은 {{delay frames=\"10\"}}숨바꼭질 중이야{{delay frames=\"20\"}}\n내가 여기 있는 거 {{delay frames=\"10\"}}알려주면 안 돼!"
  },
  {
    "label": "004",
    "text": "{{anim id=\"13\"}}{{fun_000C0007 arg=\"\"}}야단났네～!{{delay frames=\"20\"}}\n들키겠어～!"
  }
]