﻿[
  {
    "label": "001",
    "text": "{{anim id=\"1\"}}안녕, 난 {{delay frames=\"10\"}}{{fun_00010005 arg=\"\"}}{{fun_000E000E arg=\"0x020074C70000\"}}야～{{fun_00010007 arg=\"\"}}\n{{anim id=\"5\"}}벌써 {{delay frames=\"10\"}}날 알아챈 거야?{{delay frames=\"30\"}}\n하긴 {{delay frames=\"10\"}}내 오라를 무시할 순 없었겠지\n{{anim id=\"1\"}}난 아이돌의 경험을\n더 쌓기 위해서{{delay frames=\"12\"}}\n이 마을에 이사 왔어～\n{{anim id=\"0\"}}오늘은 집 정리를 해야 하니까{{delay frames=\"10\"}}\n{{anim id=\"37\"}}다음에 다시 {{delay frames=\"5\"}}놀러 와, {{fun_00070005 arg=\"\"}}!"
  },
  {
    "label": "002",
    "text": "{{anim id=\"23\"}}혹시 {{delay frames=\"10\"}}이 마을 사람이야?{{delay frames=\"30\"}}\n{{anim id=\"1\"}}난 {{delay frames=\"10\"}}{{fun_00010005 arg=\"\"}}{{fun_000E000E arg=\"0x020074C70000\"}}야!{{pageBreak}}{{anim id=\"0\"}}아이돌로 생활하기 너무 바빠서{{delay frames=\"20\"}}\n{{anim id=\"27\"}}요리나 정리 같은 건\n잘 못 하는 편이야～\n{{anim id=\"1\"}}암튼{{delay frames=\"10\"}}\n앞으로 잘 부탁해!{{delay frames=\"10\"}} {{fun_00070005 arg=\"\"}}!"
  },
  {
    "label": "003",
    "text": "{{anim id=\"16\"}}아! {{delay frames=\"20\"}}우리 처음 만난 거 맞지?{{delay frames=\"30\"}}\n{{anim id=\"1\"}}난 {{delay frames=\"10\"}}{{fun_00010005 arg=\"\"}}{{fun_000E000E arg=\"0x020074C70000\"}}야～{{pageBreak}}{{anim id=\"15\"}}・{{delay frames=\"8\"}}・{{delay frames=\"8\"}}・{{delay frames=\"8\"}}어?\n{{anim id=\"11\"}}이 느낌, {{delay frames=\"8\"}}왠지 낯설지가 않아{{delay frames=\"8\"}}・{{delay frames=\"8\"}}・{{delay frames=\"8\"}}・{{delay frames=\"30\"}}\n{{anim id=\"0\"}}이런 게 데자뷔인가?{{delay frames=\"40\"}}\n{{anim id=\"38\"}}에잇, {{delay frames=\"12\"}}아무렴 어때!{{delay frames=\"40\"}}\n{{anim id=\"1\"}}지금은 {{delay frames=\"8\"}}정리하느라 정신없이 바쁘니까{{delay frames=\"20\"}}\n다음에 {{delay frames=\"10\"}}얘기하자!"
  },
  {
    "label": "004",
    "text": "{{anim id=\"1\"}}아! {{delay frames=\"20\"}}겨우 만났네～{{delay frames=\"20\"}}\n{{fun_00000005 arg=\"\"}} 맞지?{{pageBreak}}{{anim id=\"37\"}}난 {{delay frames=\"8\"}}{{fun_00010005 arg=\"\"}}{{fun_000E000E arg=\"0x020074C70000\"}}야{{delay frames=\"20\"}}\n얼마 전에 이사 왔어～{{pageBreak}}{{anim id=\"43\"}}처음인데도 왠지 낯설지가 않아서{{delay frames=\"20\"}}\n{{anim id=\"1\"}}{{fun_00060005 arg=\"\"}} 마을에{{delay frames=\"8\"}}\n금방 익숙해졌어\n우리 친하게 지내자, {{delay frames=\"10\"}}{{fun_00070005 arg=\"\"}}!"
  },
  {
    "label": "005",
    "text": "{{anim id=\"1\"}}아! {{delay frames=\"20\"}}소문으로만 듣던\n{{fun_00000005 arg=\"\"}} 맞지?{{fun_00010007 arg=\"\"}}\n난 {{delay frames=\"10\"}}{{fun_00010005 arg=\"\"}}{{fun_000E000E arg=\"0x020074C70000\"}}야!\n{{anim id=\"33\"}}벌써 적응기를 마치고{{delay frames=\"20\"}}\n{{fun_00060005 arg=\"\"}} 마을의\n인기 아이돌이 됐어!{{delay frames=\"20\"}} {{anim id=\"38\"}}꺄하핫!\n{{anim id=\"37\"}}우리 친하게 지내자!{{delay frames=\"20\"}}\n잘 부탁해～ {{delay frames=\"10\"}}{{fun_00070005 arg=\"\"}}!"
  },
  {
    "label": "006",
    "text": "{{anim id=\"20\"}}콜록!{{delay frames=\"30\"}}\n아{{delay frames=\"8\"}}・{{delay frames=\"8\"}}・{{delay frames=\"8\"}}・{{delay frames=\"8\"}} 처음 보는 얼굴이네～{{delay frames=\"20\"}}\n{{anim id=\"37\"}}난 {{delay frames=\"10\"}}{{fun_00010005 arg=\"\"}}{{fun_000E000E arg=\"0x020074C70000\"}}야\n{{anim id=\"20\"}}내가 너무{{delay frames=\"8\"}}・{{delay frames=\"8\"}}・{{delay frames=\"8\"}}・{{delay frames=\"8\"}} 무리했나 봐{{delay frames=\"10\"}}\n감기에 걸렸어{{pageBreak}}{{anim id=\"37\"}}우리 다음에 놀자!{{delay frames=\"20\"}}\n꼭이야～ {{delay frames=\"10\"}}{{fun_00070005 arg=\"\"}}～"
  }
]