﻿[
  {
    "label": "001",
    "text": "{{anim id=\"1\"}}난 이렇게 {{delay frames=\"10\"}}평소에도\n카페에서 커피를 즐겨～{{delay frames=\"15\"}}\n{{anim id=\"4\"}}무지 세련됐지?!"
  },
  {
    "label": "002",
    "text": "{{anim id=\"1\"}}금요일엔{{delay frames=\"10\"}}\n카페에서 느긋하게 보내고 싶어～"
  },
  {
    "label": "003",
    "text": "{{anim id=\"1\"}}토요일엔 카페에서{{delay frames=\"10\"}}\n{{anim id=\"5\"}}불타는 커피 타임을 가질 거야!"
  },
  {
    "label": "004",
    "text": "쉬는 날엔 카페에서{{delay frames=\"8\"}}\n생각에 잠기는 나{{delay frames=\"8\"}}・{{delay frames=\"8\"}}・{{delay frames=\"8\"}}・{{delay frames=\"8\"}}{{pageBreak}}{{anim id=\"1\"}}모두 이런 날 보면{{delay frames=\"10\"}}\n평소랑 다른 모습에{{delay frames=\"10\"}}\n{{anim id=\"5\"}}홀딱 반하는 거 아냐?!"
  },
  {
    "label": "005",
    "text": "{{anim id=\"1\"}}아무리 졸린 오전이라도 {{delay frames=\"8\"}}\n뜨거운 커피 한 잔이면{{delay frames=\"10\"}}\n정신이 번쩍 들더라!"
  },
  {
    "label": "006",
    "text": "{{anim id=\"1\"}}커피 냄새를 맡으면{{delay frames=\"10\"}}\n스트레스가 날아가는 거 같애～{{pageBreak}}{{anim id=\"5\"}}혹시 커피는{{delay frames=\"10\"}}\n건강에도 좋은 건가?!"
  },
  {
    "label": "007",
    "text": "{{anim id=\"1\"}}너무 놀아서 지쳤을 땐{{delay frames=\"10\"}}\n여기서 커피를 마시며{{delay frames=\"8\"}}\n에너지를 충전하곤 해!\n{{anim id=\"5\"}}저녁은 길다구～{{delay frames=\"10\"}}\n더 열심히 놀자!"
  },
  {
    "label": "008",
    "text": "{{anim id=\"1\"}}저녁 한때를{{delay frames=\"10\"}} 카페에서 보내는 나{{delay frames=\"8\"}}・{{delay frames=\"8\"}}・{{delay frames=\"8\"}}・{{delay frames=\"8\"}}!{{fun_00010007 arg=\"\"}}\n{{anim id=\"3\"}}이게 바로 여유로운 도시 여자의 \n모습일까?!"
  },
  {
    "label": "009",
    "text": "{{anim id=\"1\"}}잠이 잘 오지 않을 땐{{delay frames=\"10\"}}\n카페에서 느긋하게 있는 것도 좋아!{{pageBreak}}{{anim id=\"5\"}}커피나 한잔 마시고{{delay frames=\"10\"}}\n아예 밤을 새 버리려구!"
  },
  {
    "label": "010",
    "text": "{{anim id=\"1\"}}난 {{delay frames=\"15\"}}커피콩 중에서{{delay frames=\"10\"}}\n{{color id=\"2\"}}블루마운틴{{color id=\"65535\"}}이 제일 좋아～{{pageBreak}}{{anim id=\"43\"}}향기가 끝내주거든!"
  },
  {
    "label": "011",
    "text": "{{anim id=\"1\"}}내가 좋아하는 {{delay frames=\"15\"}}커피콩은{{delay frames=\"10\"}}\n{{color id=\"2\"}}모카{{color id=\"65535\"}}야!{{pageBreak}}{{anim id=\"5\"}}향기와 맛도 물론 좋지만,\n모카라는 이름 자체가 {{delay frames=\"8\"}}\n넘 귀엽잖아～!"
  },
  {
    "label": "012",
    "text": "{{anim id=\"1\"}}내 취향의 {{delay frames=\"15\"}}커피콩은\n{{color id=\"2\"}}킬리만자로{{color id=\"65535\"}}야{{pageBreak}}{{anim id=\"37\"}}신맛이 강하기 때문에{{delay frames=\"10\"}}\n{{anim id=\"1\"}}자꾸 생각나거든～!"
  },
  {
    "label": "013",
    "text": "{{anim id=\"1\"}}커피콩은{{delay frames=\"10\"}}\n역시 {{delay frames=\"8\"}}{{color id=\"2\"}}블렌드{{color id=\"65535\"}}가 최고야!\n제일 맛있잖아～"
  },
  {
    "label": "014",
    "text": "{{anim id=\"1\"}}커피엔 {{delay frames=\"15\"}}우유가 {{color id=\"2\"}}듬뿍 {{color id=\"65535\"}}들어가야{{delay frames=\"10\"}}\n부드럽고 맛있는 거 같애!{{pageBreak}}{{anim id=\"5\"}}나처럼{{delay frames=\"8\"}}\n부드러운 소녀에게 딱이지?!"
  },
  {
    "label": "015",
    "text": "{{anim id=\"1\"}}우유가 {{delay frames=\"10\"}}{{color id=\"2\"}}적당히 {{color id=\"65535\"}}들어가야\n커피가 {{delay frames=\"8\"}}맛있다구!{{pageBreak}}{{anim id=\"37\"}}너무 적어도 안 되고 {{delay frames=\"10\"}}많은 것도 싫고,{{delay frames=\"15\"}}\n{{anim id=\"21\"}}적당히 넣는 게 최고야!"
  },
  {
    "label": "016",
    "text": "{{anim id=\"1\"}}난 {{delay frames=\"10\"}}우유를 {{color id=\"2\"}}살짝 {{color id=\"65535\"}}넣는 걸 좋아해!{{pageBreak}}{{anim id=\"4\"}}그래야 어른스럽잖아～"
  },
  {
    "label": "017",
    "text": "{{anim id=\"1\"}}커피는 {{delay frames=\"5\"}}어른스럽게{{delay frames=\"15\"}}\n우유 {{color id=\"2\"}}없이 {{color id=\"65535\"}}마시는 게{{delay frames=\"10\"}}\n{{anim id=\"4\"}}내 스타일이야～"
  },
  {
    "label": "018",
    "text": "{{anim id=\"1\"}}난 {{delay frames=\"15\"}}커피에{{delay frames=\"5\"}}\n설탕을 {{color id=\"2\"}}3개{{color id=\"65535\"}} 넣어서{{delay frames=\"15\"}}\n{{anim id=\"3\"}}달달～하게 마시는 걸 좋아해!{{delay frames=\"40\"}}{{anim id=\"37\"}}"
  },
  {
    "label": "019",
    "text": "{{anim id=\"1\"}}커피에는{{delay frames=\"15\"}}\n설탕을 {{color id=\"2\"}}2개 {{color id=\"65535\"}}정도 넣는 게{{delay frames=\"10\"}}\n딱 좋아!"
  },
  {
    "label": "020",
    "text": "{{anim id=\"1\"}}커피에 {{delay frames=\"10\"}}설탕은{{delay frames=\"15\"}}\n당연히 {{delay frames=\"5\"}}{{color id=\"2\"}}1개{{color id=\"65535\"}}만 넣어야지～"
  },
  {
    "label": "021",
    "text": "{{anim id=\"1\"}}난 {{delay frames=\"15\"}}커피에 설탕을 {{color id=\"2\"}}안 넣고{{color id=\"65535\"}}{{delay frames=\"15\"}}\n{{anim id=\"37\"}}쓴맛을 음미하려고 노력 중이야!{{fun_00010007 arg=\"\"}}\n{{anim id=\"5\"}}나 꼭 {{delay frames=\"5\"}}어른 같지?!"
  },
  {
    "label": "022",
    "text": ""
  },
  {
    "label": "023",
    "text": ""
  },
  {
    "label": "024",
    "text": ""
  },
  {
    "label": "025",
    "text": ""
  },
  {
    "label": "026",
    "text": "{{anim id=\"1\"}}카페는{{delay frames=\"10\"}}\n정말 분위기가 좋은 것 같애～!{{pageBreak}}이런 데서{{delay frames=\"10\"}}\n분위기 있게 {{anim id=\"4\"}}연애하고 싶다～"
  },
  {
    "label": "027",
    "text": "{{anim id=\"1\"}}커피에서 올라오는 김을 쐬서{{delay frames=\"15\"}}\n피부에 수분을 보충하는 중이야{{pageBreak}}{{anim id=\"5\"}}여자라면 당연히{{delay frames=\"10\"}}\n항상 피부 미용을 {{delay frames=\"10\"}}신경 써야 하잖아!"
  },
  {
    "label": "028",
    "text": "{{anim id=\"39\"}}커피의 쓴맛이 좋아지면{{delay frames=\"15\"}}\n그게 바로 {{delay frames=\"10\"}}어른이 됐다는 증거 아닐까～?"
  }
]