﻿[
  {
    "label": "001",
    "text": "{{anim id=\"1\"}}{{fun_00060007 arg=\"\"}}여어!{{fun_00070007 arg=\"\"}}{{delay frames=\"20\"}}\n너도 {{fun_00010011 arg=\"0x0000\"}} 녀석을\n만나러 왔냐? {{delay frames=\"8\"}}{{fun_00070005 arg=\"\"}}?"
  },
  {
    "label": "002",
    "text": "{{anim id=\"1\"}}오오ー!{{delay frames=\"8\"}} {{fun_00080005 arg=\"\"}}!{{delay frames=\"20\"}}\n{{fun_00010011 arg=\"0x0000\"}}네 집은 왠지\n편안하지 않냐, {{delay frames=\"8\"}}{{fun_00070005 arg=\"\"}}?"
  },
  {
    "label": "003",
    "text": "{{anim id=\"32\"}}여어!{{delay frames=\"20\"}}\n여기서 보니 반갑다, {{fun_00080005 arg=\"\"}}!\n{{delay frames=\"8\"}}{{fun_00070005 arg=\"\"}}"
  }
]