﻿[
  {
    "label": "001",
    "text": "나도 이런저런 도구를 사서{{delay frames=\"20\"}}\n취미 생활을 좀 해볼까ー?"
  },
  {
    "label": "002",
    "text": "난 마트만 오면\n가슴이 막 뛰어ー!{{delay frames=\"20\"}}\n내 안에 뭔가가 끓어오르는 것 같아ー"
  },
  {
    "label": "003",
    "text": "{{anim id=\"22\"}}{{fun_000B0007 arg=\"\"}}오오ー!{{delay frames=\"20\"}} 저런 것도 팔고 있네ー!{{delay frames=\"40\"}}\n{{anim id=\"1\"}}생각보다 예상치 못한\n물건이 많아ー!"
  },
  {
    "label": "004",
    "text": "{{anim id=\"23\"}}너도 뭐 사러 왔어ー?"
  },
  {
    "label": "005",
    "text": "{{anim id=\"1\"}}난 고급스러운 가게보다{{delay frames=\"20\"}}\n이런 데가 더 편하더라,\n{{delay frames=\"8\"}}{{fun_00070005 arg=\"\"}}"
  }
]