﻿[
  {
    "label": "001",
    "text": "{{anim id=\"1\"}}가져다줘서 완전 고마워ー!{{delay frames=\"20\"}}\n{{fun_00080005 arg=\"\"}}!"
  },
  {
    "label": "002",
    "text": "{{anim id=\"1\"}}{{fun_00080005 arg=\"\"}}{{fun_000E000E arg=\"0x020044C502007CC5\"}}ー!{{delay frames=\"20\"}} 땡큐!{{delay frames=\"20\"}}\n덕분에 그 녀석과\n화해할 수 있을 것 같다ー!"
  },
  {
    "label": "003",
    "text": "{{anim id=\"22\"}}{{fun_000B0007 arg=\"\"}}아,{{delay frames=\"20\"}} 그래!{{delay frames=\"40\"}}\n{{anim id=\"1\"}}내가 지금까지 입고 있던 옷은\n너한테 선물할게!{{pageBreak}}{{anim id=\"38\"}}헤헷!{{delay frames=\"20\"}}\n{{fun_00030011 arg=\"0x0100\"}}{{fun_000E000E arg=\"0x020074C70000\"}}야!{{delay frames=\"40\"}}\n작은 감사의 표시다ー"
  },
  {
    "label": "004",
    "text": "{{anim id=\"26\"}}나의 격렬한 트레이닝 때문에{{delay frames=\"20\"}}\n소매가 찢어져 있을지도 몰라{{delay frames=\"8\"}}\n만약 그렇다면 미안하다!"
  },
  {
    "label": "005",
    "text": "{{anim id=\"1\"}}아 참!{{delay frames=\"20\"}}\n사례로 이걸 줄게ー{{delay frames=\"40\"}}\n{{fun_00030011 arg=\"0x0100\"}}{{fun_000E000E arg=\"0x020074C70000\"}}다!"
  },
  {
    "label": "006",
    "text": "{{anim id=\"2\"}}헤헤헷!{{delay frames=\"20\"}}\n나도 이 정도 예의는 있거든ー!{{delay frames=\"40\"}}{{anim id=\"1\"}}"
  },
  {
    "label": "007",
    "text": "{{anim id=\"1\"}}가져와준 거 땡큐다ー!{{delay frames=\"20\"}}\n답례품으로 이걸 줄게{{delay frames=\"20\"}}\n어서 받아라ー!"
  },
  {
    "label": "008",
    "text": "땡큐ー!{{delay frames=\"20\"}}\n니 덕분에 그 녀석이랑\n화해할 수 있겠어, {{delay frames=\"8\"}}{{fun_00070005 arg=\"\"}}!{{pageBreak}}{{anim id=\"1\"}}아, 맞다!{{delay frames=\"40\"}}\n이건 작은 답례품이야ー!"
  },
  {
    "label": "009",
    "text": "{{anim id=\"1\"}}{{fun_00030011 arg=\"0x0100\"}}{{fun_000E000E arg=\"0x020074C70000\"}}야ー!{{fun_00010007 arg=\"\"}}\n너한테 아직 없는 거면{{delay frames=\"20\"}}\n좋겠는데・{{delay frames=\"8\"}}・{{delay frames=\"8\"}}・"
  },
  {
    "label": "010",
    "text": "짠! {{anim id=\"1\"}}{{fun_00030011 arg=\"0x0100\"}}ー!{{delay frames=\"40\"}}\n방 분위기가 한껏 멋있어질 거다!"
  },
  {
    "label": "011",
    "text": "{{anim id=\"1\"}}{{fun_00030011 arg=\"0x0100\"}}{{fun_000E000E arg=\"0x020074C70000\"}}야ー!{{delay frames=\"40\"}}\n너랑 잘 어울릴 것 같다!\n{{delay frames=\"8\"}}{{fun_00070005 arg=\"\"}}!"
  },
  {
    "label": "012",
    "text": "{{anim id=\"1\"}}{{fun_00030011 arg=\"0x0100\"}}{{fun_000E000E arg=\"0x020074C70000\"}}야ー!{{delay frames=\"30\"}}\n운동하다가 출출하면 먹으라고ー!"
  },
  {
    "label": "013",
    "text": ""
  },
  {
    "label": "014",
    "text": ""
  }
]