﻿[
  {
    "label": "001",
    "text": "{{anim id=\"1\"}}다른 방도 있지ー?{{delay frames=\"20\"}}\n거기도 보여주라ー!"
  },
  {
    "label": "002",
    "text": "{{anim id=\"18\"}}저기는 뭐냐?!{{delay frames=\"40\"}}\n통로에 가구가 있으면\n지나갈 수가 없잖아!{{pageBreak}}{{anim id=\"28\"}}뭐지{{delay frames=\"8\"}}・{{delay frames=\"8\"}}・{{delay frames=\"8\"}}・{{delay frames=\"8\"}}?{{delay frames=\"20\"}}\n저 가구 뒤쪽은\n비밀로 가득한 거냐?"
  },
  {
    "label": "003",
    "text": "{{anim id=\"9\"}}뭔가 어수선한 느낌이군{{delay frames=\"8\"}}・{{delay frames=\"8\"}}・{{delay frames=\"8\"}}・{{pageBreak}}{{anim id=\"2\"}}괜찮아!{{delay frames=\"20\"}}\n난 이런 분위기가 더 좋거든!{{delay frames=\"40\"}}{{anim id=\"37\"}}"
  },
  {
    "label": "004",
    "text": "{{anim id=\"11\"}}가구가 벽을 보고 있네{{delay frames=\"8\"}}・{{delay frames=\"8\"}}・{{delay frames=\"8\"}}・{{delay frames=\"40\"}}\n{{anim id=\"27\"}}저건 대체 무슨 의미냐?"
  },
  {
    "label": "005",
    "text": "{{anim id=\"15\"}}오오ー!{{delay frames=\"20\"}}\n이 방은 정체가 뭐냐?!{{pageBreak}}{{anim id=\"9\"}}침대도 없고, 테이블도 없고,{{delay frames=\"8\"}}\n옷장도 없으면{{delay frames=\"8\"}}・{{delay frames=\"8\"}}・{{delay frames=\"8\"}}・{{delay frames=\"20\"}}\n불편하지 않냐ー?"
  },
  {
    "label": "006",
    "text": "{{anim id=\"15\"}}오오!{{delay frames=\"40\"}}\n여기는{{delay frames=\"20\"}} 필요한 게\n다 갖춰져 있군!{{pageBreak}}{{anim id=\"2\"}}내가 들어와서\n살고 싶을 정도야ー!{{delay frames=\"20\"}}\n하하핫!{{delay frames=\"40\"}}{{anim id=\"37\"}}"
  },
  {
    "label": "007",
    "text": "{{anim id=\"27\"}}이런 이런!{{delay frames=\"20\"}}\n벽이 너무 허전하지 않냐ー?{{pageBreak}}{{anim id=\"38\"}}손이 안 닿아서\n아무것도 못 단 거면\n내가 도와줄 수 있는데ー"
  },
  {
    "label": "008",
    "text": "{{anim id=\"15\"}}으헉ー!{{delay frames=\"40\"}}\n생전 처음 보는 게 잔뜩 있네ー?{{pageBreak}}{{anim id=\"1\"}}여기가 너네 집\n보물 창고냐ー?"
  },
  {
    "label": "009",
    "text": "{{anim id=\"15\"}}우와ー!{{delay frames=\"20\"}}\n비싸 보이는 게 엄청 많잖아?!{{pageBreak}}{{anim id=\"6\"}}당장 여기서 나랑 레슬링 한판 하자!{{delay frames=\"40\"}}\n{{anim id=\"2\"}}이렇게 말하면 니가 화내겠지ー?{{delay frames=\"20\"}}\n하하핫!{{delay frames=\"40\"}}{{anim id=\"37\"}}"
  },
  {
    "label": "010",
    "text": "{{anim id=\"16\"}}오ー!{{delay frames=\"20\"}}\n바닥이 휑한 이 공간은{{delay frames=\"8\"}}・{{delay frames=\"8\"}}・{{delay frames=\"8\"}}・{{pageBreak}}{{anim id=\"21\"}}그래,{{delay frames=\"8\"}} 그것밖에 없어!{{delay frames=\"20\"}}\n당연히 운동을 하기 위한\n공간이겠지?"
  },
  {
    "label": "011",
    "text": "{{anim id=\"15\"}}으악ー!{{delay frames=\"40\"}}\n여기는 뭐가 엄청 많네ー!{{pageBreak}}{{anim id=\"5\"}}미로 같아서 멋지다,\n{{delay frames=\"8\"}}{{fun_00070005 arg=\"\"}}"
  },
  {
    "label": "012",
    "text": "{{fun_00010009 arg=\"0x0D000E000F00\"}}"
  },
  {
    "label": "013",
    "text": "우와ー!{{delay frames=\"20\"}}\n뭐가 뭔지 잘 모르겠지만 멋지다!"
  },
  {
    "label": "014",
    "text": "{{anim id=\"15\"}}헉ー!{{delay frames=\"20\"}}\n너네 집 이런 느낌이었구나ー?"
  },
  {
    "label": "015",
    "text": "{{anim id=\"1\"}}헤헤헷!{{delay frames=\"20\"}}\n이렇게 구경하는 거{{delay frames=\"20\"}}\n꽤 재밌다!"
  }
]