﻿[
  {
    "label": "001",
    "text": "{{anim id=\"11\"}}너 왠지 피곤한 듯한\n표정이다, {{delay frames=\"8\"}}{{fun_00070005 arg=\"\"}}{{pageBreak}}{{anim id=\"1\"}}너무 많이 놀아도 안 좋다구ー!{{delay frames=\"20\"}}\n잠깐 쉬는 게 어때ー?"
  },
  {
    "label": "002",
    "text": "너 한참 전부터\n쭉 놀고 있는 것 같은데{{delay frames=\"20\"}}\n{{anim id=\"23\"}}좀 쉬면 어떠냐ー?{{pageBreak}}{{anim id=\"6\"}}휴식은 아주 중요하다구!{{delay frames=\"20\"}}\n제대로 휴식을 취하지 않으면\n근육도 잘 안 생겨, {{delay frames=\"8\"}}{{fun_00070005 arg=\"\"}}"
  },
  {
    "label": "003",
    "text": "{{anim id=\"40\"}}{{fun_00080005 arg=\"\"}}{{fun_000E000E arg=\"0x020044C502007CC5\"}}!{{delay frames=\"20\"}} 타임ー!{{delay frames=\"20\"}}\n{{anim id=\"1\"}}이제 휴식 시간이다!{{delay frames=\"40\"}}\n그렇게 놀다간 녹초가 될 거야ー!"
  }
]