﻿[
  {
    "label": "001",
    "text": "혹시나 해서 물어보는데\n{{anim id=\"23\"}}넌 조례에{{delay frames=\"20\"}} {{delay frames=\"8\"}}흥미가 없는 거냐?{{pageBreak}}{{anim id=\"9\"}}아니, {{delay frames=\"20\"}}딱히 조례를{{delay frames=\"8\"}}\n만들어달라는 얘긴 아냐{{pageBreak}}{{anim id=\"37\"}}오히려 조례가 없더라도{{delay frames=\"20\"}}\n잘 굴러가는 게 {{delay frames=\"8\"}}좋은 마을 아니겠냐?{{pageBreak}}{{anim id=\"36\"}}아무튼 {{delay frames=\"8\"}}우리들은 촌장의 결정을{{delay frames=\"20\"}}\n따를 테니까 그렇게 알아라!\n{{delay frames=\"20\"}}{{fun_00070005 arg=\"\"}}!"
  },
  {
    "label": "002",
    "text": "우리 마을엔 지금 {{delay frames=\"8\"}}{{anim id=\"23\"}}조례가 없잖냐～{{pageBreak}}{{anim id=\"9\"}}아무 제약이 없어서{{delay frames=\"8\"}}\n자유로운 것 같기도 하지만{{delay frames=\"15\"}}\n살짝 심심한 것 같기도 해{{delay frames=\"8\"}}・{{delay frames=\"8\"}}・{{delay frames=\"8\"}}・\n{{anim id=\"36\"}}어찌 보면 {{delay frames=\"8\"}}조례가 필요 없을 정도로{{delay frames=\"8\"}}\n잘 굴러가는 마을이란 얘기 아니겠냐?!{{delay frames=\"20\"}}\n{{anim id=\"2\"}}으ー하하핫!{{delay frames=\"30\"}}{{anim id=\"1\"}}"
  },
  {
    "label": "003",
    "text": "너네 마을엔{{delay frames=\"8\"}} {{anim id=\"23\"}}조례가 있냐?{{delay frames=\"30\"}}\n{{anim id=\"36\"}}여긴 지금 아무 조례도 없어!{{pageBreak}}{{anim id=\"37\"}}그게 촌장의 방침인 거지{{delay frames=\"15\"}}\n뭐, {{delay frames=\"8\"}}덕분에 느긋하게 살고 있어!"
  },
  {
    "label": "004",
    "text": "{{anim id=\"6\"}}니가 만든 부지런한 마을 조례 말이야\n{{delay frames=\"20\"}}{{anim id=\"36\"}}나처럼 {{delay frames=\"8\"}}야행성한테는{{delay frames=\"20\"}}\n엄청 힘들다는 걸 알긴 하냐?!\n{{anim id=\"37\"}}그래도 {{delay frames=\"8\"}}일찍 일어나니까{{delay frames=\"8\"}}\n하루가 이렇게 길었구나 싶어서{{delay frames=\"20\"}}\n새삼 놀랍긴 하더라, {{delay frames=\"20\"}}{{fun_00070005 arg=\"\"}}!"
  },
  {
    "label": "005",
    "text": "지금 {{delay frames=\"8\"}}{{anim id=\"23\"}}부지런한 마을 조례가 시행 중이지?!{{delay frames=\"30\"}}\n{{anim id=\"9\"}}나처럼 {{delay frames=\"8\"}}밤에 활동하는 애들한텐{{delay frames=\"20\"}}\n상당히{{delay frames=\"8\"}} 고통스러운 조례라구\n{{anim id=\"37\"}}뭐, {{delay frames=\"8\"}}일찍 일어나니까{{delay frames=\"8\"}}\n하루가 이렇게 길었구나 싶어서{{delay frames=\"20\"}}\n고마운 기분도 들지만, {{delay frames=\"20\"}}{{fun_00070005 arg=\"\"}}!"
  },
  {
    "label": "006",
    "text": "지금 우리 마을엔{{delay frames=\"20\"}}\n부지런한 마을 조례가 시행 중이야{{pageBreak}}{{anim id=\"1\"}}가게 영업 시간도 당겨져서{{delay frames=\"15\"}}\n아침부터 활동하는 녀석들은{{delay frames=\"8\"}}\n엄청 편리할 것 같던데?!\n{{anim id=\"0\"}}나야 졸려서\n{{anim id=\"33\"}}{{delay frames=\"8\"}}정신을 못 차리지만!{{delay frames=\"20\"}}\n{{anim id=\"2\"}}으ー하하핫!{{delay frames=\"30\"}}{{anim id=\"1\"}}"
  },
  {
    "label": "007",
    "text": "{{anim id=\"37\"}}니가{{delay frames=\"8\"}}\n잠들지 않는 마을 조례를 만든 덕분에{{delay frames=\"20\"}}\n밤에도 활기차졌어!\n{{anim id=\"6\"}}내가 잘 지켜볼 테니까{{delay frames=\"20\"}}\n마을 치안은 걱정 말라구!{{delay frames=\"20\"}}\n{{anim id=\"2\"}}으ー하하핫!{{delay frames=\"30\"}}{{anim id=\"1\"}}"
  },
  {
    "label": "008",
    "text": "{{anim id=\"37\"}}조례 덕분에{{delay frames=\"8\"}}\n가게가 밤늦게까지 영업하는 건{{delay frames=\"20\"}}\n정말 마음에 들어!\n{{anim id=\"36\"}}평소엔 일찍 자던 녀석들이{{delay frames=\"8\"}}\n늦게까지 안 자고 떠드는 건{{delay frames=\"20\"}}\n조금 시끄럽긴 하지만 말이야!"
  },
  {
    "label": "009",
    "text": "{{anim id=\"36\"}}너희 마을 가게는 문을 닫아도{{delay frames=\"20\"}}\n우리 마을 가게는 열려 있을걸?!{{pageBreak}}{{anim id=\"33\"}}조례 덕분에{{delay frames=\"8\"}}\n밤늦게까지 영업하거든!"
  },
  {
    "label": "010",
    "text": "{{anim id=\"11\"}}{{delay frames=\"16\"}}니가 정한 {{delay frames=\"8\"}}조례 때문에{{delay frames=\"20\"}}\n물가는 올랐지만{{delay frames=\"8\"}}・{{delay frames=\"8\"}}・{{delay frames=\"8\"}}・{{pageBreak}}{{anim id=\"37\"}}팔 때의 가격도 올랐으니까{{delay frames=\"20\"}}\n결국엔 그게 그건가?{{pageBreak}}{{anim id=\"36\"}}자세히는 모르겠다만{{delay frames=\"20\"}}\n마을의 경제를 생각하면{{delay frames=\"8\"}}\n좋은 일인 거지? {{delay frames=\"20\"}}{{fun_00070005 arg=\"\"}}?"
  },
  {
    "label": "011",
    "text": "{{anim id=\"37\"}}촌장이 정한 조례 덕분에{{delay frames=\"20\"}}\n중고품점에 물건을 팔 때{{delay frames=\"8\"}}\n평소보다 비싸게 팔 수 있잖냐～\n{{anim id=\"36\"}}이걸 잘 활용하면{{delay frames=\"8\"}}\n꽤 이득을 볼 수 있지 않을까?!\n{{delay frames=\"20\"}}{{fun_00070005 arg=\"\"}}?!"
  },
  {
    "label": "012",
    "text": "지금 {{delay frames=\"8\"}}우리 마을은{{delay frames=\"20\"}}\n어쩌고저쩌고 조례 때문에{{delay frames=\"20\"}}\n물가가 비싸\n{{anim id=\"11\"}}{{delay frames=\"16\"}}그러니까 여기에서 쇼핑을 하면{{delay frames=\"20\"}}\n물건이 살짝 비싸게{{delay frames=\"30\"}}\n느껴질 수도 있지{{delay frames=\"8\"}}・{{delay frames=\"8\"}}・{{delay frames=\"8\"}}・\n{{anim id=\"37\"}}대신 반대로 중고품점에{{delay frames=\"8\"}}\n물건을 비싸게 팔 수 있으니까{{delay frames=\"20\"}}\n팔 물건이 있다면 지금이 찬스야!\n{{anim id=\"6\"}}너도 혹시{{delay frames=\"8\"}} 필요 없는 게 있으면{{delay frames=\"30\"}}\n{{anim id=\"33\"}}여기서 파는 게 좋을걸?!"
  },
  {
    "label": "013",
    "text": "요즘 우리 마을은{{delay frames=\"20\"}}\n잡초랑 {{anim id=\"23\"}}쓰레기가 거의 안 보이지 않냐?!{{delay frames=\"30\"}}\n시들어 있는 꽃도 거의 없고 말이야{{delay frames=\"8\"}}・{{delay frames=\"8\"}}・{{delay frames=\"8\"}}・\n{{anim id=\"11\"}}{{delay frames=\"16\"}}혹시 니가 만든 조례의{{delay frames=\"20\"}}\n효과가 나타나는 건가?{{pageBreak}}{{anim id=\"36\"}}그것 참 {{delay frames=\"8\"}}괜찮은 조례구만!{{delay frames=\"20\"}}\n{{anim id=\"2\"}}으ー하하핫!{{delay frames=\"30\"}}{{anim id=\"1\"}}"
  },
  {
    "label": "014",
    "text": "{{anim id=\"1\"}}요즘 말이야{{delay frames=\"20\"}}\n어쩌고저쩌고 조례 덕분에{{delay frames=\"8\"}}\n마을이 깔끔해진 것 같지 않냐?!\n{{anim id=\"15\"}}아! {{delay frames=\"8\"}}집 안은 열외야!{{fun_00010007 arg=\"\"}}\n{{anim id=\"6\"}}자기 집은 자기가 청소해야지!{{delay frames=\"20\"}}\n{{anim id=\"2\"}}으ー하하핫!{{delay frames=\"30\"}}{{anim id=\"1\"}}"
  },
  {
    "label": "015",
    "text": "우리 마을은 지금{{delay frames=\"20\"}}\n마을 전체가 하나가 돼서\n환경 미화에 힘쓰는 중이야!\n{{anim id=\"37\"}}너도 함부로 쓰레기{{delay frames=\"8\"}}\n버리지 말고{{delay frames=\"20\"}} 협조 부탁한다!"
  }
]