﻿[
  {
    "label": "001",
    "text": "{{fun_0000000C arg=\"\"}}{{fun_0006000C arg=\"\"}}{{fun_0001000C arg=\"\"}}{{fun_0004000C arg=\"\"}}{{fun_0002000C arg=\"\"}}{{fun_0006000C arg=\"\"}}{{anim id=\"1\"}}오! {{delay frames=\"8\"}}{{fun_00080005 arg=\"\"}}!{{delay frames=\"20\"}}\n돌아왔네?{{fun_0009000C arg=\"\"}}"
  },
  {
    "label": "002",
    "text": "{{fun_0000000C arg=\"\"}}{{fun_0006000C arg=\"\"}}{{fun_0001000C arg=\"\"}}{{fun_0004000C arg=\"\"}}{{fun_0002000C arg=\"\"}}{{fun_0006000C arg=\"\"}}{{anim id=\"1\"}}오, {{fun_00080005 arg=\"\"}}{{delay frames=\"40\"}}\n바쁜데 불러와줘서\n고맙다{{fun_0009000C arg=\"\"}}"
  },
  {
    "label": "003",
    "text": "{{fun_0000000C arg=\"\"}}{{fun_0006000C arg=\"\"}}{{fun_0001000C arg=\"\"}}{{fun_0004000C arg=\"\"}}{{fun_0002000C arg=\"\"}}{{fun_0006000C arg=\"\"}}오우! {{delay frames=\"20\"}}갔다 왔구나!{{fun_0009000C arg=\"\"}}"
  },
  {
    "label": "004",
    "text": "{{fun_0000000C arg=\"\"}}{{fun_0006000C arg=\"\"}}{{fun_0001000C arg=\"\"}}{{fun_0004000C arg=\"\"}}{{fun_0002000C arg=\"\"}}{{fun_0006000C arg=\"\"}}{{anim id=\"6\"}}이봐!{{delay frames=\"8\"}} {{fun_00080005 arg=\"\"}}!{{delay frames=\"20\"}}\n어디서 농땡이 부렸냐?!{{delay frames=\"40\"}}\n{{anim id=\"27\"}}기다리다가 목 빠지는 줄 알았잖아!{{fun_0009000C arg=\"\"}}"
  },
  {
    "label": "005",
    "text": "{{fun_0000000C arg=\"\"}}{{fun_0007000C arg=\"\"}}{{fun_0002000C arg=\"\"}}{{fun_0005000C arg=\"\"}}{{fun_0001000C arg=\"\"}}{{fun_0008000C arg=\"\"}}얏호～!{{delay frames=\"20\"}}\n뭔데 뭔데? {{fun_00010011 arg=\"0x0000\"}}{{fun_000E000E arg=\"0x020044C502007CC5\"}}!{{delay frames=\"20\"}}\n나한테 할 말이 뭔데～?{{fun_0009000C arg=\"\"}}"
  },
  {
    "label": "006",
    "text": "{{fun_0000000C arg=\"\"}}{{fun_0007000C arg=\"\"}}{{fun_0002000C arg=\"\"}}{{fun_0005000C arg=\"\"}}{{fun_0001000C arg=\"\"}}{{fun_0008000C arg=\"\"}}{{fun_00010011 arg=\"0x0000\"}}{{fun_000E000E arg=\"0x020044C502007CC5\"}}{{delay frames=\"20\"}}\n날 여기까지 부르다니\n대체 무슨 일인데～?!{{fun_0009000C arg=\"\"}}"
  },
  {
    "label": "007",
    "text": "{{fun_0000000C arg=\"\"}}{{fun_0007000C arg=\"\"}}{{fun_0002000C arg=\"\"}}{{fun_0005000C arg=\"\"}}{{fun_0001000C arg=\"\"}}{{fun_0008000C arg=\"\"}}나 왔어, {{fun_00010011 arg=\"0x0000\"}}{{fun_000E000E arg=\"0x020044C502007CC5\"}}!{{delay frames=\"20\"}}\n뭔데～?{{delay frames=\"20\"}} 무슨 일인데～?{{pageBreak}}{{anim id=\"33\"}}난 아이돌 급으로 바쁘니까{{delay frames=\"20\"}}\n빨리빨리 얘기해봐, {{delay frames=\"8\"}}{{fun_00070005 arg=\"\"}}{{fun_0009000C arg=\"\"}}"
  },
  {
    "label": "008",
    "text": ""
  },
  {
    "label": "009",
    "text": "{{fun_0000000C arg=\"\"}}{{fun_0005000C arg=\"\"}}너한테 빌린 이거 말이야{{delay frames=\"20\"}}\n슬슬 돌려주려고!{{delay frames=\"40\"}}\n{{anim id=\"1\"}}고맙다, {{delay frames=\"8\"}}{{fun_00070005 arg=\"\"}}{{fun_0009000C arg=\"\"}}"
  },
  {
    "label": "010",
    "text": "{{fun_0000000C arg=\"\"}}{{fun_0007000C arg=\"\"}}{{anim id=\"15\"}}아아!{{delay frames=\"20\"}} 뭔가 했더니\n{{fun_00030011 arg=\"0x0000\"}}{{fun_000E000E arg=\"0x020074C70000\"}}네!{{pageBreak}}{{anim id=\"2\"}}난 {{delay frames=\"20\"}}빌려줬단 것도\n잊고 있었지 뭐야, {{delay frames=\"8\"}}{{fun_00070005 arg=\"\"}}{{delay frames=\"40\"}}{{anim id=\"37\"}}"
  },
  {
    "label": "011",
    "text": "{{fun_0000000C arg=\"\"}}{{fun_0005000C arg=\"\"}}니가{{delay frames=\"40\"}}{{fun_0004000D arg=\"0x02CD\"}} 이걸 보면\n꼭 사 놓으라고{{fun_0005000D arg=\"\"}}{{delay frames=\"40\"}} 부탁했었지?{{pageBreak}}{{anim id=\"21\"}}우연히 발견해서 사 뒀지!{{delay frames=\"40\"}}\n자, 받으라구!{{fun_0009000C arg=\"\"}}"
  },
  {
    "label": "012",
    "text": "{{fun_0000000C arg=\"\"}}{{fun_0007000C arg=\"\"}}{{anim id=\"15\"}}어머～!{{delay frames=\"40\"}}\n이거 {{fun_00030011 arg=\"0x0000\"}}{{fun_000E000E arg=\"0x020074C70000\"}}잖아!{{pageBreak}}{{anim id=\"5\"}}잘도 찾았네, {{fun_00010011 arg=\"0x0000\"}}{{fun_000E000E arg=\"0x020044C502007CC5\"}}!{{delay frames=\"40\"}}\n완～전 고마워!{{pageBreak}}{{anim id=\"0\"}}지금 당장 사례를 하고 싶지만{{delay frames=\"20\"}}\n{{anim id=\"12\"}}내가 가진 게{{delay frames=\"20\"}} 아무것도 없거든{{delay frames=\"8\"}}・{{delay frames=\"8\"}}・{{delay frames=\"8\"}}・{{pageBreak}}{{anim id=\"1\"}}다음에 {{delay frames=\"20\"}}제대로\n답례할게, {{delay frames=\"8\"}}{{fun_00070005 arg=\"\"}}"
  },
  {
    "label": "013",
    "text": "{{fun_0000000C arg=\"\"}}{{fun_0005000C arg=\"\"}}{{anim id=\"11\"}}우리 집 근처에서\n이걸 주웠는데{{delay frames=\"8\"}}・{{delay frames=\"8\"}}・{{delay frames=\"8\"}}・{{pageBreak}}{{anim id=\"36\"}}구석에 아이돌이나 할 것 같은\n사인을 해 놨더라구, {{delay frames=\"8\"}}{{fun_00070005 arg=\"\"}}{{pageBreak}}{{anim id=\"27\"}}이런 짓을 하는 건{{delay frames=\"20\"}}\n{{fun_00050005 arg=\"\"}} 마을에\n너밖에 없잖아?{{pageBreak}}{{anim id=\"0\"}}자! {{delay frames=\"20\"}}확인해봐!{{fun_0009000C arg=\"\"}}"
  },
  {
    "label": "014",
    "text": "{{fun_0000000C arg=\"\"}}{{fun_0007000C arg=\"\"}}{{anim id=\"15\"}}아, {{delay frames=\"20\"}}이건{{delay frames=\"8\"}}・{{delay frames=\"8\"}}・{{delay frames=\"8\"}}・{{delay frames=\"20\"}}\n{{anim id=\"4\"}}내가 사인해 둔\n{{fun_00030011 arg=\"0x0000\"}}{{fun_000E000E arg=\"0x020074C70000\"}}잖아!{{pageBreak}}{{anim id=\"8\"}}아이 {{delay frames=\"20\"}}정말～{{delay frames=\"20\"}} 누구야 대체!{{delay frames=\"40\"}}\n땅바닥에 내팽개쳐 둔 게!{{pageBreak}}내가 정～말 아끼는 아이템인데 말이야\n완전 어이없네!{{pageBreak}}{{anim id=\"1\"}}그렇지,{{delay frames=\"20\"}} {{fun_00010011 arg=\"0x0000\"}}{{fun_000E000E arg=\"0x020044C502007CC5\"}}{{delay frames=\"20\"}}\n갖고 싶으면 너 줄까?{{pageBreak}}{{delay frames=\"20\"}}{{anim id=\"36\"}}아{{delay frames=\"8\"}}・{{delay frames=\"8\"}}・{{delay frames=\"8\"}}・{{delay frames=\"40\"}}\n전혀 필요 없단 얼굴이네, {{delay frames=\"8\"}}{{fun_00070005 arg=\"\"}}"
  },
  {
    "label": "015",
    "text": "{{fun_0000000C arg=\"\"}}{{fun_0005000C arg=\"\"}}곧 {{delay frames=\"20\"}}오랜 친구의\n결혼 파티가 있는데 말이야{{pageBreak}}그런 곳에는{{delay frames=\"20\"}}{{anim id=\"23\"}} 장소에 어울리게\n멋을 내고 가야 하잖냐?{{pageBreak}}{{anim id=\"39\"}}미안하지만 니가{{delay frames=\"20\"}}\n파티에 어울릴 만한 옷을\n코디해줄래?{{fun_0009000C arg=\"\"}}"
  },
  {
    "label": "016",
    "text": "{{fun_0000000C arg=\"\"}}{{fun_0007000C arg=\"\"}}{{anim id=\"18\"}}{{fun_000B0007 arg=\"\"}}파티?!{{delay frames=\"40\"}}\n{{anim id=\"5\"}}와～!{{delay frames=\"20\"}} 멋지다～!{{delay frames=\"20\"}}\n나 완～전 의욕에 불타오르는데?!{{pageBreak}}{{anim id=\"42\"}}{{fun_00010011 arg=\"0x0000\"}}{{fun_000E000E arg=\"0x020044C702007CB9\"}} 반드시{{delay frames=\"20\"}}\n울트라 댄디 보이로\n코디해주겠어, {{delay frames=\"8\"}}{{fun_00070005 arg=\"\"}}{{pageBreak}}{{anim id=\"33\"}}내 손을 거치면{{delay frames=\"20\"}}\n파티에서 가장 눈에 띌 게\n분명하다구!{{pageBreak}}{{anim id=\"9\"}}아{{delay frames=\"8\"}}・{{delay frames=\"8\"}}・{{delay frames=\"8\"}}・{{delay frames=\"20\"}}\n{{anim id=\"9\"}}결혼 파티에선{{delay frames=\"20\"}}\n너무 눈에 띄면 안 되나?{{pageBreak}}{{anim id=\"11\"}}으음～{{delay frames=\"8\"}}・{{delay frames=\"8\"}}・{{delay frames=\"8\"}}・{{delay frames=\"20\"}} {{anim id=\"1\"}}참고해 둘게!"
  },
  {
    "label": "017",
    "text": "{{fun_0000000C arg=\"\"}}{{fun_0005000C arg=\"\"}}{{anim id=\"18\"}}{{fun_000B0007 arg=\"\"}}뭐?!{{delay frames=\"40\"}}\n너 잊고 있었냐?!{{pageBreak}}{{anim id=\"6\"}}낚시하는 방법을 알려달라고\n부탁한 건 너잖아!{{pageBreak}}{{anim id=\"8\"}}아무리 지나도 안 오길래{{delay frames=\"20\"}}\n내가 부른 거라구, {{delay frames=\"8\"}}{{fun_00070005 arg=\"\"}}{{fun_0009000C arg=\"\"}}"
  },
  {
    "label": "018",
    "text": "{{fun_0000000C arg=\"\"}}{{fun_0007000C arg=\"\"}}{{anim id=\"11\"}}뭐～?{{delay frames=\"20\"}} 낚시 배우기로 한 약속?{{delay frames=\"40\"}}\n내가 그런 걸\n부탁했었나{{delay frames=\"8\"}}・{{delay frames=\"8\"}}・{{delay frames=\"8\"}}・?{{pageBreak}}{{anim id=\"22\"}}아! {{delay frames=\"8\"}}생각났다!{{pageBreak}}{{anim id=\"26\"}}낚시가 취미인 여자가 인기 있다고{{delay frames=\"20\"}}\n잡지에 나와 있길래\n한번 해보고 싶었거든!{{pageBreak}}{{anim id=\"40\"}}근데 트렌드란 게\n매일같이 바뀌는 거라 말야～\n{{delay frames=\"8\"}}{{fun_00070005 arg=\"\"}}{{pageBreak}}{{anim id=\"38\"}}이제는 곤충채집을\n잘하는 여자들의 시대라구!{{pageBreak}}{{anim id=\"1\"}}다음에 {{delay frames=\"8\"}}곤충 잡는 법\n알려주지 않을래? {{delay frames=\"8\"}}{{fun_00070005 arg=\"\"}}?"
  },
  {
    "label": "019",
    "text": ""
  },
  {
    "label": "020",
    "text": "{{anim id=\"1\"}}자,{{delay frames=\"20\"}}\n난 이제 그만\n가봐야겠어!{{pageBreak}}{{anim id=\"4\"}}절대 놓치면 안 되는\n드라마가 있거든～{{delay frames=\"40\"}}{{anim id=\"0\"}}{{pageBreak}}{{fun_0002000C arg=\"\"}}{{fun_0004000C arg=\"\"}}{{fun_0000000C arg=\"\"}}{{fun_0008000C arg=\"\"}}그럼 안녕, {{fun_00080005 arg=\"\"}}{{fun_000E000E arg=\"0x020044C502007CC5\"}}{{delay frames=\"20\"}}\n{{anim id=\"1\"}}데리러 와줘서\n고마웠어, {{delay frames=\"8\"}}{{fun_00070005 arg=\"\"}}"
  },
  {
    "label": "021",
    "text": "{{anim id=\"16\"}}아!{{delay frames=\"20\"}}\n난 이제 가야 될 시간이야～{{pageBreak}}{{anim id=\"21\"}}아이돌은{{delay frames=\"20\"}}\n규칙적인 생활을 해야 하거든!{{anim id=\"0\"}}{{pageBreak}}{{fun_0002000C arg=\"\"}}{{fun_0004000C arg=\"\"}}{{fun_0000000C arg=\"\"}}{{fun_0008000C arg=\"\"}}{{fun_00080005 arg=\"\"}}{{fun_000E000E arg=\"0x020044C502007CC5\"}}\n오늘 고마웠어～!{{delay frames=\"20\"}}\n{{anim id=\"32\"}}또 봐～!"
  },
  {
    "label": "022",
    "text": "{{anim id=\"38\"}}그럼, {{delay frames=\"20\"}}난 이만!{{delay frames=\"20\"}}\n인기인은 항상 바쁘거든～{{anim id=\"0\"}}{{pageBreak}}{{fun_0002000C arg=\"\"}}{{fun_0004000C arg=\"\"}}{{fun_0000000C arg=\"\"}}{{fun_0008000C arg=\"\"}}{{fun_00080005 arg=\"\"}}{{fun_0006000E arg=\"0x020044C502007CC5\"}}{{delay frames=\"20\"}}\n너랑 산책하니까\n재밌더라, {{delay frames=\"8\"}}{{fun_00070005 arg=\"\"}}{{pageBreak}}{{anim id=\"32\"}}또 보자～!"
  },
  {
    "label": "023",
    "text": ""
  }
]