﻿[
  {
    "label": "001",
    "text": "{{anim id=\"37\"}}오!{{delay frames=\"20\"}}\n오랜만이네, {{fun_00080005 arg=\"\"}}!{{fun_00010007 arg=\"\"}}\n{{anim id=\"1\"}}바쁜 일이 있었나 보지?!"
  },
  {
    "label": "002",
    "text": "{{anim id=\"16\"}}오, {{fun_00080005 arg=\"\"}}!{{pageBreak}}{{anim id=\"0\"}}한동안 안 보여서\n걱정했는데!{{delay frames=\"30\"}}\n{{anim id=\"1\"}}잘 지냈냐?{{delay frames=\"20\"}} {{fun_00070005 arg=\"\"}}?"
  },
  {
    "label": "003",
    "text": "{{anim id=\"1\"}}오, {{fun_00080005 arg=\"\"}}!{{fun_00010007 arg=\"\"}}\n요즘 도통 얼굴을 못 봤네{{delay frames=\"20\"}}\n{{anim id=\"0\"}}잘 지냈냐?{{pageBreak}}마을 녀석들도\n{{anim id=\"1\"}}니 걱정을 하던데!{{delay frames=\"20\"}}\n{{fun_00070005 arg=\"\"}}!"
  },
  {
    "label": "004",
    "text": "{{anim id=\"1\"}}오, {{fun_00080005 arg=\"\"}}!{{delay frames=\"20\"}}\n오랜만이네?!{{pageBreak}}혹시 나 몰래 그동안{{delay frames=\"20\"}}\n{{anim id=\"35\"}}너만 어디 좋은 데{{delay frames=\"8\"}}\n놀러 다닌 거 아니냐?"
  },
  {
    "label": "005",
    "text": "{{anim id=\"1\"}}아, {{fun_00080005 arg=\"\"}}!{{delay frames=\"30\"}}\n오랜만이다?!{{pageBreak}}{{anim id=\"11\"}}너랑 마지막으로 얘기했던 게\n그때니까{{delay frames=\"8\"}}・{{delay frames=\"8\"}}・{{delay frames=\"8\"}}・{{delay frames=\"20\"}}\n1주일, {{delay frames=\"20\"}}{{anim id=\"0\"}}아니 {{delay frames=\"20\"}}좀 더 됐나?{{pageBreak}}{{anim id=\"1\"}}아무튼 너{{delay frames=\"20\"}}\n못 보던 사이에\n어른스러워졌다?!{{pageBreak}}・{{delay frames=\"8\"}}・{{delay frames=\"8\"}}・{{delay frames=\"8\"}}아, {{delay frames=\"15\"}}그럴 리가 없나?!{{delay frames=\"20\"}}\n{{anim id=\"2\"}}으ー하하핫!{{delay frames=\"30\"}}{{anim id=\"1\"}}"
  },
  {
    "label": "006",
    "text": "{{anim id=\"1\"}}오, {{fun_00080005 arg=\"\"}}!{{delay frames=\"30\"}}\n너랑 얘기하는 건 1주일 만이네{{delay frames=\"15\"}}\n아니 좀 더 됐나?\n{{anim id=\"0\"}}계속 니가 날 모른 척했으면{{delay frames=\"20\"}}\n{{anim id=\"6\"}}제아무리 나라도\n상처 받을 뻔했다고! {{delay frames=\"15\"}}{{anim id=\"1\"}}알겠냐?!"
  }
]