﻿[
  {
    "label": "001",
    "text": "아, {{delay frames=\"8\"}}{{anim id=\"1\"}}안녕하십니까!{{delay frames=\"30\"}}\n{{anim id=\"0\"}}다른 마을에서 {{anim id=\"37\"}}오신 분인가요?{{pageBreak}}{{anim id=\"0\"}}저는 {{delay frames=\"8\"}}평소에는 상점가 가게에서{{delay frames=\"8\"}}\n{{anim id=\"21\"}}일을 합니다만{{delay frames=\"8\"}}・{{delay frames=\"8\"}}・{{delay frames=\"8\"}}・{{pageBreak}}{{anim id=\"0\"}}오늘은 급하게 휴가를 내고{{delay frames=\"16\"}}\n{{anim id=\"37\"}}밖에 있는 동생과 둘이 캠핑 중입니다!"
  },
  {
    "label": "002",
    "text": "{{i10_7 arg=\"0x0D000D000C000C000D000D00\"}}"
  },
  {
    "label": "003",
    "text": "{{i10_7 arg=\"0x0D000D000C000C000D000D00\"}}"
  },
  {
    "label": "004",
    "text": ""
  },
  {
    "label": "005",
    "text": ""
  },
  {
    "label": "006",
    "text": "{{i10_7 arg=\"0x0D000D000C000C000D000D00\"}}"
  },
  {
    "label": "007",
    "text": "{{i10_7 arg=\"0x0F000F000E000E000F000F00\"}}"
  },
  {
    "label": "008",
    "text": "{{i10_7 arg=\"0x0F000F000E000E000F000F00\"}}"
  },
  {
    "label": "009",
    "text": ""
  },
  {
    "label": "010",
    "text": ""
  },
  {
    "label": "012",
    "text": "{{anim id=\"38\"}}{{fun_00000005 arg=\"\"}}님, 안녕하십니까!{{delay frames=\"8\"}}{{anim id=\"37\"}}{{pageBreak}}{{anim id=\"0\"}}실은{{delay frames=\"4\"}} 휴가를 내라는 말을 들어서{{delay frames=\"8\"}}\n{{anim id=\"37\"}}동생 {{color id=\"4\"}}밤돌이{{color id=\"65535\"}}와 둘이서\n오토캠핑장에 왔습니다～!{{pageBreak}}{{anim id=\"0\"}}{{color id=\"4\"}}밤돌이{{color id=\"65535\"}}는 아마{{delay frames=\"8\"}}\n{{anim id=\"21\"}}캠프파이어 주변에\n있을 겁니다!\n{{anim id=\"0\"}}가게를 다른 사람에게 부탁하긴 했는데{{delay frames=\"12\"}}\n{{anim id=\"11\"}}제대로 돌아가긴 할런지 걱정이네요{{delay frames=\"8\"}}・{{delay frames=\"8\"}}・{{delay frames=\"8\"}}・{{delay frames=\"30\"}}\n{{anim id=\"36\"}}실례가 많습니다! 죄송합니다!{{delay frames=\"8\"}}{{anim id=\"0\"}}"
  },
  {
    "label": "013",
    "text": "{{anim id=\"38\"}}{{fun_00000005 arg=\"\"}}님, 안녕하십니까!{{delay frames=\"8\"}}{{anim id=\"37\"}}{{pageBreak}}{{anim id=\"0\"}}실은{{delay frames=\"4\"}} 휴가를 내라는 말을 들어서{{delay frames=\"8\"}}\n{{anim id=\"37\"}}동생 {{color id=\"4\"}}밤돌이{{color id=\"65535\"}}와 둘이서\n오토캠핑장에 왔습니다～!{{pageBreak}}{{anim id=\"0\"}}{{color id=\"4\"}}밤돌이{{color id=\"65535\"}}는 아마{{delay frames=\"8\"}}\n{{anim id=\"21\"}}캠프파이어 주변에\n있을 겁니다!\n{{anim id=\"9\"}}갑자기 쉬게 돼서 죄송합니다!{{delay frames=\"16\"}}\n{{anim id=\"0\"}}돌아가면 열심히 일할 생각이니{{delay frames=\"8\"}}\n{{anim id=\"5\"}}잘 부탁드립니다ー!{{delay frames=\"10\"}} {{size value=\"75\"}}구리!{{size value=\"100\"}}{{anim id=\"37\"}}"
  },
  {
    "label": "014",
    "text": "{{anim id=\"38\"}}{{fun_00000005 arg=\"\"}}님, 안녕하십니까!{{delay frames=\"8\"}}{{anim id=\"37\"}}{{pageBreak}}{{anim id=\"0\"}}실은{{delay frames=\"4\"}} 휴가를 내라는 말을 들어서{{delay frames=\"8\"}}\n{{anim id=\"37\"}}동생 {{color id=\"4\"}}밤돌이{{color id=\"65535\"}}와 둘이서\n오토캠핑장에 왔습니다～!{{pageBreak}}{{anim id=\"0\"}}{{color id=\"4\"}}밤돌이{{color id=\"65535\"}}는 아마{{delay frames=\"8\"}}\n{{anim id=\"21\"}}캠프파이어 주변에\n있을 겁니다!\n{{anim id=\"9\"}}갑자기 쉬게 돼서 불편을\n끼쳐 드리는 것 같아 정말 죄송합니다!{{delay frames=\"8\"}}\n{{anim id=\"0\"}}부디 잘 부탁드립니다～!{{delay frames=\"10\"}} {{size value=\"75\"}}구리!{{size value=\"100\"}}{{anim id=\"37\"}}"
  },
  {
    "label": "015",
    "text": "{{anim id=\"38\"}}{{fun_00000005 arg=\"\"}}님, 안녕하십니까!{{delay frames=\"8\"}}{{anim id=\"37\"}}{{pageBreak}}{{anim id=\"0\"}}실은{{delay frames=\"4\"}} 휴가를 내라는 말을 들어서{{delay frames=\"8\"}}\n{{anim id=\"37\"}}동생 {{color id=\"4\"}}밤돌이{{color id=\"65535\"}}와 둘이서\n오토캠핑장에 왔습니다～!{{pageBreak}}{{anim id=\"0\"}}{{color id=\"4\"}}밤돌이{{color id=\"65535\"}}는 아마{{delay frames=\"8\"}}\n{{anim id=\"21\"}}캠프파이어 주변에\n있을 겁니다!\n{{anim id=\"9\"}}갑자기 쉬게 돼서 죄송합니다!{{delay frames=\"16\"}}\n{{anim id=\"0\"}}돌아가면 열심히 일할 생각이니{{delay frames=\"8\"}}\n{{anim id=\"5\"}}잘 부탁드립니다ー!{{delay frames=\"10\"}} {{size value=\"75\"}}구리!{{size value=\"100\"}}{{anim id=\"37\"}}"
  },
  {
    "label": "016",
    "text": "{{fun_00030009 arg=\"0x11001200130014001500\"}}"
  },
  {
    "label": "017",
    "text": "순서상{{delay frames=\"8\"}} {{anim id=\"21\"}}제가\n형이긴 합니다만{{delay frames=\"8\"}}・{{delay frames=\"8\"}}・{{delay frames=\"8\"}}・{{pageBreak}}{{anim id=\"36\"}}솔직히 말하면 {{color id=\"4\"}}밤돌이{{color id=\"65535\"}}가 저보다\n야무질 때가 많습니다!{{delay frames=\"16\"}} 그래서\n{{anim id=\"44\"}}지지 않으려고 최선을 다하고 있습니다!"
  },
  {
    "label": "018",
    "text": "{{anim id=\"27\"}}쌍둥이라고{{delay frames=\"8\"}} 모두 다 같을 거라는\n말을 들으면 화도 나지만{{delay frames=\"20\"}}\n{{anim id=\"37\"}}취향이 비슷하다는 건 부정할 수 없어요{{anim id=\"0\"}}\n그래도{{delay frames=\"8\"}} {{anim id=\"40\"}}간식 취향은 확실하게 갈립니다!{{delay frames=\"40\"}}\n{{anim id=\"0\"}}{{color id=\"4\"}}밤돌이{{color id=\"65535\"}}는 밤빵을 좋아하지만{{delay frames=\"16\"}}\n{{anim id=\"33\"}}저는 {{delay frames=\"8\"}}콩떡만 먹습니다!!"
  },
  {
    "label": "019",
    "text": "오늘은 {{color id=\"4\"}}깨빈{{color id=\"65535\"}}이라는 분에게{{delay frames=\"8\"}}\n가게를 맡기고 나왔는데{{delay frames=\"8\"}}・{{delay frames=\"8\"}}・{{delay frames=\"8\"}}・{{pageBreak}}{{anim id=\"11\"}}영 못 미더운\n분이더라고요{{delay frames=\"8\"}}・{{delay frames=\"8\"}}・{{delay frames=\"8\"}}・{{delay frames=\"20\"}}\n가게는 괜찮을까요～?"
  },
  {
    "label": "020",
    "text": "존경하는 인물은{{delay frames=\"8\"}}\n{{anim id=\"33\"}}물론 {{color id=\"4\"}}너굴{{color id=\"65535\"}}님입니다!{{pageBreak}}{{anim id=\"0\"}}{{color id=\"4\"}}너굴{{color id=\"65535\"}}님 앞에 서면{{delay frames=\"8\"}}\n{{anim id=\"20\"}}저는 다리가 떨린다니까요!{{delay frames=\"16\"}}{{anim id=\"0\"}}{{pageBreak}}{{anim id=\"9\"}}하나 섭섭한 게 있다면{{delay frames=\"12\"}}\n{{anim id=\"36\"}}아직도 저와 {{color id=\"4\"}}밤돌이{{color id=\"65535\"}}를{{delay frames=\"8\"}}\n구분하지 못하는 거예요ー{{anim id=\"9\"}}"
  },
  {
    "label": "021",
    "text": "구{{delay frames=\"4\"}}{{fun_0004000D arg=\"0x02CD\"}}리～{{delay frames=\"20\"}}{{fun_0005000D arg=\"\"}}{{anim id=\"0\"}}{{delay frames=\"20\"}}\n{{fun_0004000D arg=\"0x01CD\"}}구{{delay frames=\"4\"}}리～{{delay frames=\"20\"}}{{fun_0005000D arg=\"\"}}{{anim id=\"0\"}}{{delay frames=\"20\"}}\n{{size value=\"75\"}}구리・・・{{size value=\"100\"}}{{pageBreak}}말 끝에 구리를 자연스럽게 붙이는 게{{delay frames=\"8\"}}\n{{anim id=\"40\"}}사실은 쉽지 않습니다{{delay frames=\"8\"}}・{{delay frames=\"8\"}}・{{delay frames=\"8\"}}・"
  },
  {
    "label": "022",
    "text": "{{fun_00030009 arg=\"0x11001200130014001900\"}}"
  },
  {
    "label": "023",
    "text": "{{fun_00030009 arg=\"0x12001300140015001A00\"}}"
  },
  {
    "label": "024",
    "text": "{{fun_00030009 arg=\"0x12001300140015001B00\"}}"
  },
  {
    "label": "025",
    "text": "구{{delay frames=\"4\"}}{{fun_0004000D arg=\"0x02CD\"}}리～～{{delay frames=\"20\"}}{{fun_0005000D arg=\"\"}}{{anim id=\"0\"}}{{delay frames=\"20\"}}\n{{fun_0004000D arg=\"0x01CD\"}}구～{{delay frames=\"4\"}}리～{{delay frames=\"20\"}}{{fun_0005000D arg=\"\"}}{{anim id=\"0\"}}{{delay frames=\"20\"}}\n{{size value=\"75\"}}구리・・・{{size value=\"100\"}}{{pageBreak}}말 끝에 구리를 자연스럽게 붙이는 게{{delay frames=\"8\"}}\n{{anim id=\"40\"}}쉬운 일이 아니네요{{delay frames=\"8\"}}・{{delay frames=\"8\"}}・{{delay frames=\"8\"}}・"
  },
  {
    "label": "026",
    "text": "{{anim id=\"9\"}}모처럼 오게 된 캠핑인데{{delay frames=\"20\"}}\n{{anim id=\"27\"}}비가 와서 참 아쉬워요{{delay frames=\"8\"}}・{{delay frames=\"8\"}}・{{delay frames=\"8\"}}・{{delay frames=\"8\"}}"
  },
  {
    "label": "027",
    "text": "{{anim id=\"11\"}}{{color id=\"4\"}}밤돌이{{color id=\"65535\"}} 녀석,{{delay frames=\"16\"}}\n감기 걸리면 안 되는데{{delay frames=\"8\"}}・{{delay frames=\"8\"}}・{{delay frames=\"8\"}}・{{delay frames=\"20\"}}\n{{anim id=\"27\"}}빨리 차에 들어오면 좋겠어요!"
  },
  {
    "label": "028",
    "text": "{{fun_00030009 arg=\"0x12001300140019001A00\"}}"
  }
]