﻿[
  {
    "label": "001",
    "text": "{{delay frames=\"8\"}}・{{delay frames=\"8\"}}・{{delay frames=\"8\"}}・{{delay frames=\"8\"}}・{{delay frames=\"8\"}}・{{delay frames=\"8\"}}・{{delay frames=\"8\"}}"
  },
  {
    "label": "002",
    "text": "{{delay frames=\"8\"}}・{{delay frames=\"8\"}}・{{delay frames=\"8\"}}・{{delay frames=\"8\"}}어서 오세요"
  },
  {
    "label": "003",
    "text": "{{delay frames=\"8\"}}・{{delay frames=\"8\"}}・{{delay frames=\"8\"}}・{{delay frames=\"8\"}}・{{delay frames=\"8\"}}・{{delay frames=\"8\"}}・{{delay frames=\"8\"}}안녕하세요"
  },
  {
    "label": "004",
    "text": "{{delay frames=\"8\"}}・{{delay frames=\"8\"}}・{{delay frames=\"8\"}}・{{delay frames=\"8\"}}・{{delay frames=\"8\"}}・{{delay frames=\"8\"}}・{{delay frames=\"8\"}}오셨군요"
  },
  {
    "label": "005",
    "text": "어서 오세요{{delay frames=\"32\"}}\n잘 오셨습니다{{delay frames=\"8\"}}・{{delay frames=\"8\"}}・{{delay frames=\"8\"}}・{{delay frames=\"8\"}}"
  },
  {
    "label": "006",
    "text": "아아{{delay frames=\"8\"}}・{{delay frames=\"8\"}}・{{delay frames=\"8\"}}・{{delay frames=\"32\"}}\n또 찾아주셨군요{{delay frames=\"8\"}}・{{delay frames=\"8\"}}・{{delay frames=\"8\"}}・{{delay frames=\"8\"}}"
  },
  {
    "label": "007",
    "text": "아아{{delay frames=\"8\"}}・{{delay frames=\"8\"}}・{{delay frames=\"8\"}}・{{delay frames=\"32\"}}\n어서 오세요, {{delay frames=\"16\"}}{{fun_00000005 arg=\"\"}}님"
  },
  {
    "label": "008",
    "text": "언제나 감사합니다{{delay frames=\"32\"}}\n{{fun_00000005 arg=\"\"}}님{{delay frames=\"8\"}}・{{delay frames=\"8\"}}・{{delay frames=\"8\"}}・{{delay frames=\"8\"}}"
  },
  {
    "label": "009",
    "text": "{{fun_00000005 arg=\"\"}}님 오셨군요{{delay frames=\"8\"}}・{{delay frames=\"8\"}}・{{delay frames=\"8\"}}・{{delay frames=\"8\"}}"
  },
  {
    "label": "010",
    "text": "혼자 오셨다면{{delay frames=\"16\"}}\n카운터석으로{{delay frames=\"8\"}}・{{delay frames=\"8\"}}・{{delay frames=\"8\"}}・{{delay frames=\"8\"}}"
  },
  {
    "label": "011",
    "text": "자리{{delay frames=\"8\"}}・{{delay frames=\"8\"}}・{{delay frames=\"8\"}}・{{delay frames=\"8\"}}\n비어 있으니까요{{delay frames=\"8\"}}・{{delay frames=\"8\"}}・{{delay frames=\"8\"}}・{{delay frames=\"8\"}}"
  },
  {
    "label": "012",
    "text": "자리에{{delay frames=\"8\"}}・{{delay frames=\"8\"}}・{{delay frames=\"8\"}}・{{delay frames=\"8\"}} 앉아주세요"
  },
  {
    "label": "013",
    "text": "{{delay frames=\"8\"}}・{{delay frames=\"8\"}}・{{delay frames=\"8\"}}・{{delay frames=\"8\"}}무슨 일이신가요?{{fun_0005000F arg=\"0x15002800\"}}\n커피 주세요!\n아무것도 아니에요"
  },
  {
    "label": "014",
    "text": "{{delay frames=\"8\"}}・{{delay frames=\"8\"}}・{{delay frames=\"8\"}}・{{delay frames=\"8\"}}무슨 일이신가요?{{fun_0006000F arg=\"0x000015002800\"}}\n일하고 싶어요!\n커피 주세요!\n아무것도 아니에요"
  },
  {
    "label": "015",
    "text": "{{delay frames=\"8\"}}・{{delay frames=\"8\"}}・{{delay frames=\"8\"}}・{{delay frames=\"8\"}}그렇습니까"
  },
  {
    "label": "016",
    "text": "{{delay frames=\"8\"}}・{{delay frames=\"8\"}}・{{delay frames=\"8\"}}・{{delay frames=\"8\"}}알겠습니다"
  },
  {
    "label": "017",
    "text": "{{delay frames=\"8\"}}・{{delay frames=\"8\"}}・{{delay frames=\"8\"}}・{{delay frames=\"8\"}}그럼"
  },
  {
    "label": "018",
    "text": "{{delay frames=\"8\"}}・{{delay frames=\"8\"}}・{{delay frames=\"8\"}}・{{delay frames=\"8\"}}커피 마시고 싶으시다면{{delay frames=\"16\"}}\n언제든지 {{delay frames=\"8\"}}말 걸어주세요"
  },
  {
    "label": "019",
    "text": "{{delay frames=\"8\"}}・{{delay frames=\"8\"}}・{{delay frames=\"8\"}}・{{delay frames=\"8\"}}무슨 일이신가요?{{fun_0005000F arg=\"0x00002800\"}}\n일하고 싶어요!\n아무것도 아니에요"
  },
  {
    "label": "020",
    "text": "커피 테이크아웃 말씀이시군요{{delay frames=\"32\"}}\n한 잔에 {{color id=\"2\"}}200벨{{color id=\"65535\"}}입니다만{{delay frames=\"8\"}}・{{delay frames=\"8\"}}・{{delay frames=\"8\"}}・{{delay frames=\"8\"}}{{fun_0005000F arg=\"0x15002800\"}}\n한 잔 주세요\n됐어요"
  },
  {
    "label": "021",
    "text": "테이크아웃 커피{{delay frames=\"16\"}}\n한 잔에 {{color id=\"2\"}}200벨 {{color id=\"65535\"}}되겠습니다{{delay frames=\"8\"}}・{{delay frames=\"8\"}}・{{delay frames=\"8\"}}・{{delay frames=\"32\"}}\n{{anim id=\"35\"}}블렌드는 어떻게 하시겠습니까?{{fun_0005000F arg=\"0x15002800\"}}\n아무거나요!\n취소할래요"
  },
  {
    "label": "022",
    "text": "어떤 블렌드로 드릴까요?{{delay frames=\"32\"}}\n커피는 테이크아웃이라도{{delay frames=\"16\"}}\n한 잔에 {{color id=\"2\"}}200벨{{color id=\"65535\"}}입니다만{{delay frames=\"8\"}}・{{delay frames=\"8\"}}・{{delay frames=\"8\"}}・{{delay frames=\"8\"}}{{fun_0005000F arg=\"0x15002800\"}}\n아무거나요!\n취소할래요"
  },
  {
    "label": "023",
    "text": ""
  },
  {
    "label": "024",
    "text": "{{anim id=\"16\"}}구구구ー!{{fun_00010007 arg=\"\"}}\n{{anim id=\"9\"}}죄송합니다만{{delay frames=\"8\"}}・{{delay frames=\"8\"}}・{{delay frames=\"8\"}}・{{delay frames=\"8\"}}\n돈이 모자라신데요{{delay frames=\"8\"}}・{{delay frames=\"8\"}}・{{delay frames=\"8\"}}・{{delay frames=\"8\"}}"
  },
  {
    "label": "025",
    "text": "{{anim id=\"9\"}}넣을 데가 없으신가 보군요{{delay frames=\"8\"}}・{{delay frames=\"8\"}}・{{delay frames=\"8\"}}・{{delay frames=\"8\"}}"
  },
  {
    "label": "026",
    "text": "알겠습니다{{delay frames=\"8\"}}・{{delay frames=\"8\"}}・{{delay frames=\"8\"}}・{{delay frames=\"8\"}}"
  },
  {
    "label": "027",
    "text": "{{delay frames=\"8\"}}・{{delay frames=\"8\"}}・{{delay frames=\"8\"}}・{{delay frames=\"8\"}}감사합니다"
  },
  {
    "label": "028",
    "text": "{{delay frames=\"8\"}}・{{delay frames=\"8\"}}・{{delay frames=\"8\"}}・{{delay frames=\"8\"}}자리는 저쪽입니다{{delay frames=\"8\"}}・{{delay frames=\"8\"}}・{{delay frames=\"8\"}}・{{delay frames=\"8\"}}"
  },
  {
    "label": "029",
    "text": "항상 찾아주셔서{{delay frames=\"16\"}}\n감사합니다{{delay frames=\"8\"}}・{{delay frames=\"8\"}}・{{delay frames=\"8\"}}・{{delay frames=\"8\"}}"
  },
  {
    "label": "030",
    "text": "또{{delay frames=\"8\"}}・{{delay frames=\"8\"}}・{{delay frames=\"8\"}}・{{delay frames=\"8\"}} 들러주세요{{delay frames=\"8\"}}・{{delay frames=\"8\"}}・{{delay frames=\"8\"}}・{{delay frames=\"8\"}}"
  },
  {
    "label": "031",
    "text": "오늘의 커피콩은{{delay frames=\"16\"}} 보통 때랑은\n조금 다르니까요{{delay frames=\"8\"}}・{{delay frames=\"8\"}}・{{delay frames=\"8\"}}・{{delay frames=\"8\"}}"
  },
  {
    "label": "032",
    "text": "편히 쉬다 가세요{{delay frames=\"8\"}}・{{delay frames=\"8\"}}・{{delay frames=\"8\"}}・{{delay frames=\"8\"}}"
  },
  {
    "label": "033",
    "text": "오늘은 {{delay frames=\"16\"}}특별한 날이니까요{{delay frames=\"8\"}}・{{delay frames=\"8\"}}・{{delay frames=\"8\"}}・{{delay frames=\"8\"}}"
  },
  {
    "label": "034",
    "text": "{{delay frames=\"8\"}}・{{delay frames=\"8\"}}・{{delay frames=\"8\"}}・{{delay frames=\"8\"}}안녕하세요"
  },
  {
    "label": "035",
    "text": "죄송합니다{{delay frames=\"8\"}}・{{delay frames=\"8\"}}・{{delay frames=\"8\"}}・{{delay frames=\"8\"}}\n지금 기계 상태가{{delay frames=\"16\"}} 안 좋아서요{{delay frames=\"8\"}}・{{delay frames=\"8\"}}・{{delay frames=\"8\"}}・{{delay frames=\"8\"}}"
  },
  {
    "label": "036",
    "text": ""
  },
  {
    "label": "037",
    "text": ""
  },
  {
    "label": "038",
    "text": ""
  },
  {
    "label": "040",
    "text": "어서 오세요{{delay frames=\"8\"}}・{{delay frames=\"8\"}}・{{delay frames=\"8\"}}・{{delay frames=\"8\"}}"
  },
  {
    "label": "041",
    "text": "{{delay frames=\"8\"}}・{{delay frames=\"8\"}}・{{delay frames=\"8\"}}・{{delay frames=\"8\"}}테이크아웃 커피 말씀이시군요?{{delay frames=\"16\"}}\n1잔에 {{color id=\"2\"}}200벨{{color id=\"65535\"}}입니다만{{delay frames=\"8\"}}・{{delay frames=\"8\"}}・{{delay frames=\"8\"}}・{{delay frames=\"8\"}}{{fun_0005000F arg=\"0x15002800\"}}\n한 잔 주세요\n됐어요"
  },
  {
    "label": "042",
    "text": "알겠습니다{{delay frames=\"8\"}}・{{delay frames=\"8\"}}・{{delay frames=\"8\"}}・{{delay frames=\"8\"}}{{pageBreak}}{{anim id=\"37\"}}멀리서 오신 보람이 있도록{{delay frames=\"16\"}}\n맛있게 만들어드리지요{{delay frames=\"8\"}}・{{delay frames=\"8\"}}・{{delay frames=\"8\"}}・{{delay frames=\"8\"}}"
  },
  {
    "label": "043",
    "text": "{{delay frames=\"8\"}}・{{delay frames=\"8\"}}・{{delay frames=\"8\"}}・{{delay frames=\"8\"}}그렇습니까"
  },
  {
    "label": "044",
    "text": "{{delay frames=\"8\"}}・{{delay frames=\"8\"}}・{{delay frames=\"8\"}}・{{delay frames=\"8\"}}감사합니다"
  },
  {
    "label": "045",
    "text": ""
  },
  {
    "label": "046",
    "text": "{{delay frames=\"8\"}}・{{delay frames=\"8\"}}・{{delay frames=\"8\"}}・{{delay frames=\"8\"}}그렇군요{{delay frames=\"16\"}}\n{{fun_00060005 arg=\"\"}} 마을 분이시군요{{delay frames=\"8\"}}・{{delay frames=\"8\"}}・{{delay frames=\"8\"}}・{{delay frames=\"8\"}}"
  },
  {
    "label": "047",
    "text": "{{fun_00050005 arg=\"\"}} 마을은{{delay frames=\"8\"}}・{{delay frames=\"8\"}}・{{delay frames=\"8\"}}・{{delay frames=\"8\"}}\n마음에 드셨습니까?"
  },
  {
    "label": "048",
    "text": "{{fun_00050005 arg=\"\"}} 마을은{{delay frames=\"8\"}}・{{delay frames=\"8\"}}・{{delay frames=\"8\"}}・{{delay frames=\"8\"}}\n좋은 곳이에요{{delay frames=\"8\"}}・{{delay frames=\"8\"}}・{{delay frames=\"8\"}}・{{delay frames=\"8\"}}"
  },
  {
    "label": "049",
    "text": "또{{delay frames=\"8\"}}・{{delay frames=\"8\"}}・{{delay frames=\"8\"}}・{{delay frames=\"8\"}} 오세요{{delay frames=\"8\"}}・{{delay frames=\"8\"}}・{{delay frames=\"8\"}}・{{delay frames=\"8\"}}"
  },
  {
    "label": "050",
    "text": "편히 쉬다 가세요{{delay frames=\"8\"}}・{{delay frames=\"8\"}}・{{delay frames=\"8\"}}・{{delay frames=\"8\"}}"
  }
]