﻿[
  {
    "label": "001",
    "text": "커피 좀{{delay frames=\"10\"}} 줄래?"
  },
  {
    "label": "002",
    "text": "{{color id=\"2\"}}모카 {{color id=\"65535\"}}커피 좀 {{delay frames=\"10\"}}줄래?"
  },
  {
    "label": "003",
    "text": "커피 좀 {{delay frames=\"10\"}}줄래?{{fun_00010007 arg=\"\"}}\n우유도 {{color id=\"2\"}}살짝{{color id=\"65535\"}}만 넣어서"
  },
  {
    "label": "004",
    "text": "커피 좀 {{delay frames=\"10\"}}줄래?{{fun_00010007 arg=\"\"}}\n설탕은 {{color id=\"2\"}}2개{{color id=\"65535\"}} 넣어줘"
  },
  {
    "label": "005",
    "text": "아, {{delay frames=\"10\"}}고마워～!"
  },
  {
    "label": "006",
    "text": "{{delay frames=\"5\"}}{{anim id=\"4\"}}으음～!{{delay frames=\"15\"}} 최고야!{{fun_000E0007 arg=\"\"}}{{fun_00010007 arg=\"\"}}\n{{anim id=\"1\"}}맛있는 커피 {{delay frames=\"5\"}}정말 고마워!{{delay frames=\"15\"}}\n또 올게!"
  },
  {
    "label": "007",
    "text": "{{anim id=\"11\"}}{{delay frames=\"10\"}}음{{delay frames=\"10\"}}・{{delay frames=\"10\"}}・{{delay frames=\"10\"}}・{{delay frames=\"8\"}}?{{delay frames=\"25\"}}\n{{anim id=\"36\"}}난 {{delay frames=\"10\"}}{{color id=\"2\"}}모카{{color id=\"65535\"}}를 마시고 싶었는데{{delay frames=\"8\"}}・{{delay frames=\"8\"}}・{{delay frames=\"8\"}}・{{pageBreak}}{{anim id=\"1\"}}그냥 먹지 뭐!{{delay frames=\"15\"}}\n고마워～"
  },
  {
    "label": "008",
    "text": "{{anim id=\"11\"}}{{delay frames=\"10\"}}음{{delay frames=\"10\"}}・{{delay frames=\"10\"}}・{{delay frames=\"10\"}}・{{delay frames=\"8\"}}?{{delay frames=\"25\"}}\n{{anim id=\"36\"}}내가 {{delay frames=\"10\"}}{{color id=\"2\"}}우유{{color id=\"65535\"}}를 살짝만 넣어달라고\n부탁 안 했던가{{delay frames=\"8\"}}・{{delay frames=\"8\"}}・{{delay frames=\"8\"}}・?{{pageBreak}}{{anim id=\"1\"}}그냥 먹지 뭐!{{delay frames=\"15\"}}\n고마워～"
  },
  {
    "label": "009",
    "text": "{{anim id=\"11\"}}{{delay frames=\"10\"}}음{{delay frames=\"10\"}}・{{delay frames=\"10\"}}・{{delay frames=\"10\"}}・{{delay frames=\"8\"}}?{{delay frames=\"25\"}}\n{{anim id=\"36\"}}내가 {{delay frames=\"10\"}}{{color id=\"2\"}}설탕{{color id=\"65535\"}} 2개 넣어달라고\n부탁 안 했던가{{delay frames=\"8\"}}・{{delay frames=\"8\"}}・{{delay frames=\"8\"}}・?{{pageBreak}}{{anim id=\"1\"}}그냥 먹지 뭐!{{delay frames=\"15\"}}\n고마워～"
  },
  {
    "label": "010",
    "text": ""
  },
  {
    "label": "011",
    "text": ""
  },
  {
    "label": "012",
    "text": ""
  },
  {
    "label": "013",
    "text": "{{delay frames=\"8\"}}・{{delay frames=\"8\"}}・{{delay frames=\"8\"}}・{{anim id=\"15\"}}{{delay frames=\"10\"}}앗! {{delay frames=\"10\"}}이런!{{delay frames=\"20\"}}\n{{anim id=\"36\"}}늘 {{color id=\"4\"}}마스터{{color id=\"65535\"}}한테만 부탁하다 보니{{delay frames=\"10\"}}\n자세하게 주문하는 걸 잊었네!\n{{anim id=\"1\"}}{{delay frames=\"10\"}}아, {{delay frames=\"10\"}}그래도 {{color id=\"2\"}}모카{{color id=\"65535\"}} 커피는\n좋아하니까 {{delay frames=\"10\"}}그냥 마실게!{{delay frames=\"15\"}}\n고마워～"
  },
  {
    "label": "014",
    "text": "{{delay frames=\"8\"}}・{{delay frames=\"8\"}}・{{delay frames=\"8\"}}・{{anim id=\"15\"}}{{delay frames=\"10\"}}앗! {{delay frames=\"10\"}}이런!{{delay frames=\"20\"}}\n{{anim id=\"36\"}}늘 {{color id=\"4\"}}마스터{{color id=\"65535\"}}한테만 부탁하다 보니{{delay frames=\"10\"}}\n자세하게 주문하는 걸 잊었네!\n{{anim id=\"1\"}}{{delay frames=\"10\"}}아, {{delay frames=\"10\"}}그래도 {{color id=\"2\"}}우유의 양{{color id=\"65535\"}}은\n적당한 것 같으니 {{delay frames=\"10\"}}그냥 마실게!{{delay frames=\"15\"}}\n고마워～"
  },
  {
    "label": "015",
    "text": "{{delay frames=\"8\"}}・{{delay frames=\"8\"}}・{{delay frames=\"8\"}}・{{anim id=\"15\"}}{{delay frames=\"10\"}}앗! {{delay frames=\"10\"}}이런!{{delay frames=\"20\"}}\n{{anim id=\"36\"}}늘 {{color id=\"4\"}}마스터{{color id=\"65535\"}}한테만 부탁하다 보니{{delay frames=\"10\"}}\n자세하게 주문하는 걸 잊었네!\n{{anim id=\"1\"}}{{delay frames=\"10\"}}아, {{delay frames=\"10\"}}그래도 {{color id=\"2\"}}설탕의 양{{color id=\"65535\"}}은\n적당한 것 같으니 {{delay frames=\"10\"}}그냥 마실게!{{delay frames=\"15\"}}\n고마워～"
  },
  {
    "label": "016",
    "text": "{{delay frames=\"8\"}}・{{delay frames=\"8\"}}・{{delay frames=\"8\"}}・{{anim id=\"15\"}}{{delay frames=\"10\"}}앗! {{delay frames=\"10\"}}이런!{{delay frames=\"20\"}}\n{{anim id=\"36\"}}늘 {{color id=\"4\"}}마스터{{color id=\"65535\"}}한테만 부탁하다 보니{{delay frames=\"10\"}}\n자세하게 주문하는 걸 잊었네!\n{{anim id=\"36\"}}{{delay frames=\"10\"}}그래도 뭐, {{delay frames=\"10\"}}같은 커피긴 하니까{{delay frames=\"10\"}}\n그냥 마실게{{fun_00010007 arg=\"\"}}\n{{delay frames=\"5\"}}{{anim id=\"1\"}}{{delay frames=\"10\"}}고마워～"
  },
  {
    "label": "017",
    "text": ""
  },
  {
    "label": "018",
    "text": ""
  },
  {
    "label": "019",
    "text": ""
  }
]