﻿[
  {
    "label": "001",
    "text": "{{anim id=\"32\"}}또 오세요～!"
  },
  {
    "label": "002",
    "text": "{{anim id=\"1\"}}어서 오세요～"
  },
  {
    "label": "003",
    "text": "{{delay frames=\"8\"}}・{{delay frames=\"8\"}}・{{delay frames=\"8\"}}・{{delay frames=\"8\"}}{{anim id=\"15\"}}{{delay frames=\"15\"}}앗!{{delay frames=\"15\"}}\n처음 보는 손님이다아～!"
  },
  {
    "label": "004",
    "text": "{{anim id=\"3\"}}{{delay frames=\"10\"}}어서 와아～!{{delay frames=\"20\"}}\n나는 여기서\n꽃을 팔고 있어{{pageBreak}}그 외에도 {{delay frames=\"5\"}}나무 묘목이나 도구 등\n여러 가지가 있으니까{{delay frames=\"10\"}}\n{{anim id=\"1\"}}천천히 구경해～"
  },
  {
    "label": "005",
    "text": "{{anim id=\"15\"}}{{delay frames=\"10\"}}앗!{{delay frames=\"30\"}}\n{{anim id=\"0\"}}안녕, {{delay frames=\"5\"}}{{anim id=\"32\"}}{{delay frames=\"10\"}}{{fun_00000005 arg=\"\"}}님～!"
  },
  {
    "label": "006",
    "text": "가게 보고 {{delay frames=\"10\"}}{{delay frames=\"5\"}}{{anim id=\"23\"}}깜짝 놀랐어?{{fun_00010007 arg=\"\"}}\n{{anim id=\"1\"}}{{delay frames=\"10\"}}대단하지～{{pageBreak}}{{anim id=\"39\"}}{{color id=\"4\"}}콩돌이{{color id=\"65535\"}}랑 {{color id=\"4\"}}밤돌이{{color id=\"65535\"}}가\n가게를 크게 증축한다 그래서{{delay frames=\"10\"}}\n나도 그 덕 좀 봤어{{pageBreak}}{{anim id=\"0\"}}가게도 넓어져서\n새로운 상품도 진열해봤지{{pageBreak}}그리고 {{delay frames=\"10\"}}\n{{anim id=\"33\"}}{{color id=\"2\"}}잡초를 청소해주는 서비스{{color id=\"65535\"}}도\n시작하기로 했어{{pageBreak}}{{anim id=\"1\"}}여러 가지로 새단장했으니까{{delay frames=\"10\"}}\n앞으로도 자주 들러줘～"
  },
  {
    "label": "007",
    "text": "{{anim id=\"15\"}}{{delay frames=\"10\"}}앗!{{delay frames=\"30\"}}\n{{anim id=\"0\"}}안녕, {{delay frames=\"5\"}}{{anim id=\"32\"}}{{delay frames=\"10\"}}{{fun_00000005 arg=\"\"}}님～!{{pageBreak}}{{anim id=\"39\"}}있잖아, {{delay frames=\"15\"}}좀 갑작스럽지만{{delay frames=\"15\"}}\n나 오늘까지만 하구\n이 가게 접기로 했어～{{pageBreak}}{{anim id=\"26\"}}옆에 있던 슈퍼가 내일\n공사한다니까{{delay frames=\"10\"}}\n겸사겸사 잘 됐다 싶어서!{{pageBreak}}{{anim id=\"1\"}}그러니까{{delay frames=\"10\"}}\n필요한 게 있으면 오늘 중에{{delay frames=\"5\"}}\n잊지 말고 사 둬～"
  },
  {
    "label": "008",
    "text": "{{anim id=\"15\"}}{{delay frames=\"10\"}}앗!{{delay frames=\"30\"}}\n{{anim id=\"0\"}}안녕, {{delay frames=\"5\"}}{{anim id=\"32\"}}{{delay frames=\"10\"}}{{fun_00000005 arg=\"\"}}님～!{{pageBreak}}{{anim id=\"0\"}}이미 들었을지도 모르지만{{delay frames=\"10\"}}\n마트는 오늘로\n문을 닫게 됐어～{{pageBreak}}{{anim id=\"39\"}}이 원예 매장도 물론{{delay frames=\"10\"}}\n오늘로 끝이야{{delay frames=\"5\"}}・{{delay frames=\"5\"}}・{{delay frames=\"5\"}}・{{pageBreak}}{{anim id=\"1\"}}필요한 건 오늘 중에{{delay frames=\"5\"}}\n잊지 말고 사 둬～"
  },
  {
    "label": "009",
    "text": "{{anim id=\"9\"}}오늘은 이제 {{delay frames=\"5\"}}가게 문을\n닫을 건가 봐～{{fun_00010007 arg=\"\"}}\n{{anim id=\"32\"}}{{delay frames=\"5\"}}다음에 사러 와줘～"
  },
  {
    "label": "011",
    "text": "있잖아,{{delay frames=\"10\"}}\n그건 {{fun_00030011 arg=\"0x0000\"}}{{fun_000E000E arg=\"0x020074C70000\"}}야～{{fun_00010007 arg=\"\"}}\n가격은 있잖아, {{delay frames=\"10\"}}{{anim id=\"11\"}}얼마더라{{delay frames=\"8\"}}・{{delay frames=\"8\"}}・{{delay frames=\"8\"}}・{{delay frames=\"8\"}}・{{delay frames=\"8\"}}・{{delay frames=\"8\"}}・{{pageBreak}}{{delay frames=\"5\"}}{{anim id=\"22\"}}{{delay frames=\"10\"}}아, 맞다! {{delay frames=\"15\"}}{{color id=\"2\"}}{{fun_000C0004 arg=\"0x0000\"}}벨{{color id=\"65535\"}}이다!{{fun_00010007 arg=\"\"}}\n이거 {{anim id=\"23\"}}{{delay frames=\"10\"}}살 거야?{{fun_0008000D arg=\"0x02CD\"}}{{fun_0006000F arg=\"0x150017002800\"}}\n살래!\n이게 뭔데?\n안 살래"
  },
  {
    "label": "012",
    "text": "그렇구나～{{delay frames=\"15\"}}\n{{anim id=\"1\"}}나중에 마음이 변하면 {{delay frames=\"10\"}}말해줘"
  },
  {
    "label": "013",
    "text": "{{anim id=\"1\"}}와～아, {{delay frames=\"10\"}}고마워～!{{fun_00010007 arg=\"\"}}\n그럼 {{delay frames=\"5\"}}이거 {{color id=\"2\"}}{{fun_000C0004 arg=\"0x0000\"}}벨{{color id=\"65535\"}}이니까{{delay frames=\"10\"}}\n돈 갖고 와줘"
  },
  {
    "label": "014",
    "text": "{{anim id=\"1\"}}와～아, {{delay frames=\"10\"}}고마워～!{{fun_00010007 arg=\"\"}}\n그럼 {{delay frames=\"5\"}}가지고 갈 수 있도록{{delay frames=\"10\"}}\n주머니를 좀 비운 다음에 사러 와줘"
  },
  {
    "label": "015",
    "text": "{{anim id=\"1\"}}와～아, {{delay frames=\"10\"}}고마워～!"
  },
  {
    "label": "016",
    "text": "{{delay frames=\"5\"}}・{{delay frames=\"5\"}}・{{delay frames=\"5\"}}・{{delay frames=\"5\"}}어떻게 할래?{{delay frames=\"15\"}}\n{{fun_00030011 arg=\"0x0000\"}}{{fun_000E000E arg=\"0x020040C7020094B2\"}}\n{{color id=\"2\"}}{{fun_000C0004 arg=\"0x0000\"}}벨{{color id=\"65535\"}}인데{{anim id=\"23\"}}{{delay frames=\"10\"}} 살 거야?{{fun_0008000D arg=\"0x02CD\"}}{{fun_0005000F arg=\"0x15002800\"}}\n살래!\n안 살래"
  },
  {
    "label": "017",
    "text": "{{color id=\"2\"}}도끼{{color id=\"65535\"}}를 사용하면{{delay frames=\"10\"}}\n나무를 벨 수 있어～{{pageBreak}}{{anim id=\"1\"}}주머니에서 몸에 지닌 뒤에{{delay frames=\"10\"}}\n나무를 향해 통・{{delay frames=\"5\"}}통・{{delay frames=\"5\"}}토～옹 하고\n를 누르면 벨 수 있어!"
  },
  {
    "label": "018",
    "text": "그건 {{delay frames=\"10\"}}꽃에 물을 주는\n{{color id=\"2\"}}물뿌리개{{color id=\"65535\"}}야～{{pageBreak}}{{anim id=\"4\"}}물을 주면\n시든 꽃이 건강해지고{{delay frames=\"10\"}}\n꽃이 잔뜩 피기도 해\n{{anim id=\"1\"}}주머니에서 몸에 지닌 뒤에\n꽃을 향해 를 누르기만 하면\n쉽게 물을 줄 수 있어!"
  },
  {
    "label": "019",
    "text": "{{anim id=\"1\"}}그 {{fun_00030011 arg=\"0x0000\"}}{{fun_000E000E arg=\"0x020040C7020094B2\"}}{{delay frames=\"10\"}}\n밖이 아니라\n집 안에 장식하는 거야"
  },
  {
    "label": "020",
    "text": "{{anim id=\"1\"}}그 {{fun_00030011 arg=\"0x0000\"}}{{fun_000E000E arg=\"0x020040C7020094B2\"}}{{delay frames=\"10\"}}\n밖에 심는\n키가 작은 나무의 묘목이야{{pageBreak}}{{anim id=\"4\"}}여러 가지 작은 나무를 심어 두면{{delay frames=\"10\"}}\n계절마다 예쁜 꽃을\n볼 수 있을 거야아～"
  },
  {
    "label": "021",
    "text": "그건{{delay frames=\"10\"}}\n{{fun_00030011 arg=\"0x0000\"}}의 꽃씨야{{pageBreak}}{{anim id=\"1\"}}주머니에서 꺼내서\n땅에다 심으면{{delay frames=\"10\"}}\n쉽게 꽃을 피울 수 있어"
  },
  {
    "label": "022",
    "text": "{{fun_00030011 arg=\"0x0000\"}}{{fun_000E000E arg=\"0x020074C7020000AC\"}} 있으면{{delay frames=\"10\"}}\n밖에 새로운 나무를\n심을 수 있어\n{{anim id=\"1\"}}주머니에서 꺼내서\n땅에다 심으면 되니까{{delay frames=\"10\"}}\n굉장히 간단해{{pageBreak}}{{anim id=\"0\"}}그렇지만 {{delay frames=\"5\"}}다른 나무의 바로 옆이나{{delay frames=\"10\"}}\n건물 그늘이 있는 곳에 심으면\n말라 버리니까 조심해～"
  },
  {
    "label": "023",
    "text": "{{anim id=\"1\"}}그건{{delay frames=\"10\"}}\n꽃이나 과일나무한테\n영양을 주는 {{delay frames=\"5\"}}{{color id=\"2\"}}비료{{color id=\"65535\"}}야～{{pageBreak}}{{anim id=\"0\"}}건강하게 자라주었으면 하는\n꽃이나 나무의 바로 옆에{{delay frames=\"10\"}}\n삽으로 파서 묻은 뒤 며칠 놔둬봐{{pageBreak}}{{anim id=\"4\"}}그러면 꽃이 많이 피고{{delay frames=\"10\"}}\n맛있는 과일이\n잘 열리게 된다아～\n{{anim id=\"0\"}}{{delay frames=\"8\"}}・{{delay frames=\"8\"}}・{{delay frames=\"8\"}}・{{delay frames=\"20\"}}{{anim id=\"15\"}}{{delay frames=\"20\"}}아!{{delay frames=\"20\"}} 그리고～{{delay frames=\"8\"}}\n{{anim id=\"1\"}}마른 나무 옆에 묻으면\n마른 나무도 기운을 차릴 거야아～!"
  },
  {
    "label": "024",
    "text": "보다시피 {{color id=\"2\"}}죽순{{color id=\"65535\"}}이야{{fun_00010007 arg=\"\"}}\n먹어도 되지만{{delay frames=\"10\"}}\n밖에서 기르는 게 더 좋아\n{{anim id=\"1\"}}주머니에서 꺼내서\n땅에 심기만 하면 되니까{{delay frames=\"10\"}}\n다른 나무 묘목과 마찬가지로 아주 쉬워!{{pageBreak}}{{anim id=\"0\"}}그렇지만 {{delay frames=\"5\"}}다른 나무의 바로 옆이나{{delay frames=\"10\"}}\n건물 그늘이 있는 곳에 심으면\n말라 버리니까 조심해～"
  },
  {
    "label": "025",
    "text": "보다시피 {{color id=\"2\"}}감{{color id=\"65535\"}}이야{{fun_00010007 arg=\"\"}}\n먹어도 되지만{{delay frames=\"10\"}}\n밖에서 기르는 게 더 좋아\n{{anim id=\"1\"}}주머니에서 꺼내서\n땅에 심기만 하면 되니까{{delay frames=\"10\"}}\n다른 나무 묘목과 마찬가지로 아주 쉬워!{{pageBreak}}{{anim id=\"0\"}}그렇지만 {{delay frames=\"5\"}}다른 나무의 바로 옆이나{{delay frames=\"10\"}}\n건물 그늘이 있는 곳에 심으면\n말라 버리니까 조심해～"
  },
  {
    "label": "026",
    "text": ""
  },
  {
    "label": "027",
    "text": ""
  },
  {
    "label": "028",
    "text": ""
  },
  {
    "label": "029",
    "text": "{{delay frames=\"5\"}}・{{delay frames=\"5\"}}・{{delay frames=\"5\"}}・{{delay frames=\"5\"}}{{anim id=\"15\"}}{{delay frames=\"10\"}}앗, {{delay frames=\"10\"}}미안!{{delay frames=\"15\"}}\n내가 {{delay frames=\"5\"}}쇼핑을 방해했네"
  },
  {
    "label": "031",
    "text": "{{delay frames=\"8\"}}・{{delay frames=\"8\"}}・{{delay frames=\"8\"}}・{{delay frames=\"15\"}}{{anim id=\"22\"}}{{delay frames=\"15\"}}앗, {{delay frames=\"10\"}}맞다!"
  },
  {
    "label": "032",
    "text": "{{anim id=\"0\"}}{{color id=\"2\"}}은물뿌리개{{color id=\"65535\"}}라는 건데{{delay frames=\"10\"}}\n그걸 사용하면{{delay frames=\"10\"}}\n한 번에 많은 물을 줄 수 있어～{{pageBreak}}{{anim id=\"39\"}}{{fun_00000005 arg=\"\"}}님은 꽃씨를\n많이 사주니까{{delay frames=\"5\"}}・{{delay frames=\"5\"}}・{{delay frames=\"5\"}}・{{pageBreak}}{{anim id=\"1\"}}그 물뿌리개로{{delay frames=\"10\"}}\n{{fun_00000005 arg=\"\"}}님이 기르는 꽃을\n좀 더 해피하게 해줘～"
  },
  {
    "label": "033",
    "text": "{{anim id=\"0\"}}{{color id=\"2\"}}금도끼{{color id=\"65535\"}}라는 건데{{delay frames=\"10\"}}\n그건 아무리 나무를 많이 베어도\n절대로 망가지지 않아～{{pageBreak}}{{anim id=\"13\"}}아앗!{{delay frames=\"15\"}}\n그렇다고{{delay frames=\"10\"}} 나무를 많이\n베라는 얘기가 아냐\n{{anim id=\"39\"}}{{fun_00000005 arg=\"\"}}님은 나무 묘목을\n많이 사주니까{{delay frames=\"5\"}}・{{delay frames=\"5\"}}・{{delay frames=\"5\"}}・{{pageBreak}}{{anim id=\"1\"}}그 도끼로{{delay frames=\"10\"}}\n{{fun_00050005 arg=\"\"}} 마을에 멋진 숲을\n만들어줘～"
  },
  {
    "label": "034",
    "text": "{{anim id=\"0\"}}{{color id=\"2\"}}금삽{{color id=\"65535\"}}이라는 건데{{delay frames=\"10\"}}\n그걸 사용해서 비료를 묻으면{{delay frames=\"10\"}}\n효과가 대박이야～\n{{anim id=\"39\"}}{{fun_00000005 arg=\"\"}}님은 비료를\n많이 사주니까{{delay frames=\"5\"}}・{{delay frames=\"5\"}}・{{delay frames=\"5\"}}・{{pageBreak}}{{anim id=\"1\"}}그 삽으로 비료를 줘서{{delay frames=\"10\"}}\n마을의 꽃과 나무를\n더 건강하게 만들어줘～"
  },
  {
    "label": "035",
    "text": "{{anim id=\"1\"}}{{fun_00000005 arg=\"\"}}님한테 {{delay frames=\"5\"}}서비스로\n좋은 걸 줄게!"
  },
  {
    "label": "036",
    "text": ""
  },
  {
    "label": "037",
    "text": ""
  },
  {
    "label": "038",
    "text": ""
  },
  {
    "label": "039",
    "text": ""
  },
  {
    "label": "041",
    "text": "{{anim id=\"1\"}}사용법을 잘 모르겠으면{{delay frames=\"10\"}}\n나한테 물어봐"
  },
  {
    "label": "042",
    "text": "꽃씨나 나무 묘목은{{delay frames=\"10\"}}\n내가 그날그날 내 기분에 맞게\n선별해서 놔두는 거야～{{pageBreak}}{{anim id=\"39\"}}그러니까 매일\n놀러 와주면 기쁠 것 같애～"
  },
  {
    "label": "043",
    "text": "{{anim id=\"1\"}}가끔씩 마을을 산책하면서\n새롭게 핀 꽃을 바라보는 것이{{delay frames=\"10\"}}\n내 취미야～"
  },
  {
    "label": "044",
    "text": "오늘은 가게에 진열했던 게\n다 팔렸어～{{pageBreak}}{{anim id=\"3\"}}꽃을 좋아하는 사람이 많아서\n나도 해피해"
  },
  {
    "label": "045",
    "text": "{{anim id=\"1\"}}잡초 뽑기는 내일 아침까지는\n끝낼 수 있도록 힘낼게{{pageBreak}}{{anim id=\"0\"}}내일 아침에{{delay frames=\"7\"}}\n깨끗해진 마을을\n기대해줘!"
  },
  {
    "label": "046",
    "text": "가게 보고 {{delay frames=\"10\"}}{{delay frames=\"5\"}}{{anim id=\"23\"}}깜짝 놀랐어?{{fun_00010007 arg=\"\"}}\n{{anim id=\"1\"}}{{delay frames=\"10\"}}대단하지～{{pageBreak}}{{anim id=\"39\"}}{{color id=\"4\"}}콩돌이{{color id=\"65535\"}}랑 {{color id=\"4\"}}밤돌이{{color id=\"65535\"}}가\n가게를 또 넓힌다길래{{delay frames=\"10\"}}\n나도 가게 안으로 들어왔어{{pageBreak}}{{anim id=\"1\"}}전보다도 더 넓어진 덕에\n새로운 상품도 진열해봤으니{{delay frames=\"10\"}}\n앞으로도 잘 부탁해～"
  },
  {
    "label": "047",
    "text": "응응, {{delay frames=\"15\"}}\n{{fun_00000005 arg=\"\"}}님{{delay frames=\"5\"}}{{anim id=\"23\"}} 무슨 일이야아?{{fun_0008000D arg=\"0x02CD\"}}{{fun_0005000F arg=\"0x00002800\"}}\n잡초 뽑기 부탁해!\n아무것도 아냐"
  },
  {
    "label": "048",
    "text": "{{anim id=\"15\"}}뭐! {{delay frames=\"15\"}}잡초 뽑기?!{{fun_00010007 arg=\"\"}}\n{{anim id=\"11\"}}그런데 {{delay frames=\"10\"}}내가 산책했을 때는\n잡초 같은 건 없었는데{{delay frames=\"5\"}}・{{delay frames=\"5\"}}・{{delay frames=\"5\"}}・{{pageBreak}}{{anim id=\"0\"}}{{delay frames=\"5\"}}・{{delay frames=\"5\"}}・{{delay frames=\"5\"}}・{{delay frames=\"5\"}}{{anim id=\"38\"}}{{delay frames=\"5\"}}걱정 안 해도 돼,{{delay frames=\"10\"}}\n{{delay frames=\"10\"}}{{fun_00000005 arg=\"\"}}님!{{pageBreak}}{{anim id=\"3\"}}오늘의 {{fun_00050005 arg=\"\"}} 마을은\n너무나 깨끗하니까{{delay frames=\"10\"}}\n청소 안 해도 괜찮아!"
  },
  {
    "label": "049",
    "text": "{{anim id=\"15\"}}뭐! {{delay frames=\"15\"}}잡초 뽑기?!{{fun_00010007 arg=\"\"}}\n{{anim id=\"11\"}}그런데 {{delay frames=\"10\"}}내가 산책했을 때는\n그렇게 많이 없었는데{{delay frames=\"5\"}}・{{delay frames=\"5\"}}・{{delay frames=\"5\"}}・{{pageBreak}}{{anim id=\"0\"}}{{delay frames=\"5\"}}・{{delay frames=\"5\"}}・{{delay frames=\"5\"}}・{{delay frames=\"5\"}}{{anim id=\"38\"}}{{delay frames=\"5\"}}걱정 안 해도 돼,{{delay frames=\"10\"}}\n{{delay frames=\"10\"}}{{fun_00000005 arg=\"\"}}님!{{pageBreak}}{{anim id=\"3\"}}오늘의 {{fun_00050005 arg=\"\"}} 마을은\n그렇게 무성하지 않으니까{{delay frames=\"10\"}}\n청소 안 해도 괜찮아!"
  },
  {
    "label": "050",
    "text": "{{anim id=\"15\"}}아, {{delay frames=\"10\"}}잡초 뽑기?{{delay frames=\"15\"}}\n{{anim id=\"0\"}}맞아, 여기저기 드문드문 나 있어서{{delay frames=\"5\"}}\n청소해 두면 좋을 것 같아!{{pageBreak}}{{anim id=\"1\"}}지금 부탁해 두면 내일 아침까지는{{delay frames=\"10\"}}\n매끈 반짝으로 만들 수 있어～{{pageBreak}}{{anim id=\"0\"}}지금 상태라면{{delay frames=\"10\"}}\n비용은 {{color id=\"2\"}}10000벨 {{color id=\"65535\"}}정도\n들 거 같은데 {{delay frames=\"10\"}}{{anim id=\"23\"}}{{delay frames=\"10\"}}어떡할래?{{fun_0008000D arg=\"0x02CD\"}}{{fun_0005000F arg=\"0x15002800\"}}\n부탁해!\n역시 안 할래"
  },
  {
    "label": "051",
    "text": "{{anim id=\"15\"}}아, {{delay frames=\"10\"}}잡초 뽑기?{{delay frames=\"15\"}}\n{{anim id=\"0\"}}그래, 꽤 잡초가 나 있어서{{delay frames=\"5\"}}\n슬슬 청소할 때가 됐더라구!{{pageBreak}}{{anim id=\"1\"}}지금 부탁해 두면 내일 아침까지는{{delay frames=\"10\"}}\n매끈 반짝으로 만들 수 있어～{{pageBreak}}{{anim id=\"0\"}}지금 상태라면{{delay frames=\"10\"}}\n비용은 {{color id=\"2\"}}20000벨 {{color id=\"65535\"}}정도\n들 거 같은데 {{delay frames=\"10\"}}{{anim id=\"23\"}}{{delay frames=\"10\"}}어떡할래?{{fun_0008000D arg=\"0x02CD\"}}{{fun_0005000F arg=\"0x15002800\"}}\n부탁해!\n역시 안 할래"
  },
  {
    "label": "052",
    "text": "{{anim id=\"15\"}}아, {{delay frames=\"10\"}}잡초 뽑기?{{delay frames=\"15\"}}\n{{anim id=\"9\"}}그렇네, 상당히 잡초가 많아서{{delay frames=\"5\"}}\n이제 청소 안 하면 안 될 것 같던데{{delay frames=\"5\"}}・{{delay frames=\"5\"}}・{{delay frames=\"5\"}}・{{pageBreak}}{{anim id=\"38\"}}그래도 {{delay frames=\"10\"}}괜찮아!{{fun_00010007 arg=\"\"}}\n{{anim id=\"1\"}}지금 부탁해 두면 내일 아침까지는{{delay frames=\"10\"}}\n매끈 반짝하게 할 수 있어～{{pageBreak}}{{anim id=\"0\"}}조금 양이 많아서\n{{color id=\"2\"}}30000벨 {{color id=\"65535\"}}정도 들겠는데{{delay frames=\"10\"}}\n{{anim id=\"23\"}}{{delay frames=\"10\"}}어떡할래?{{fun_0008000D arg=\"0x02CD\"}}{{fun_0005000F arg=\"0x15002800\"}}\n부탁해!\n역시 안 할래"
  },
  {
    "label": "053",
    "text": "{{anim id=\"15\"}}아, {{delay frames=\"10\"}}잡초 뽑기?{{delay frames=\"15\"}}\n{{anim id=\"9\"}}그러게, 상당히 무성해서{{delay frames=\"10\"}}\n나도 신경이 쓰이더라구{{delay frames=\"5\"}}・{{delay frames=\"5\"}}・{{delay frames=\"5\"}}・{{pageBreak}}{{anim id=\"1\"}}그렇지만 {{delay frames=\"10\"}}지금 부탁해 두면{{delay frames=\"10\"}}\n어떻게든 내일 아침까지는\n매끈 반짝하게 해볼게～{{pageBreak}}{{anim id=\"0\"}}상당히 양이 많아서\n{{color id=\"2\"}}50000벨 {{color id=\"65535\"}}정도 들 거 같은데{{delay frames=\"10\"}}\n{{anim id=\"23\"}}{{delay frames=\"10\"}}어떻게 할래? {{fun_0008000D arg=\"0x02CD\"}}{{fun_0005000F arg=\"0x15002800\"}}\n부탁해!\n역시 안 할래"
  },
  {
    "label": "054",
    "text": "{{anim id=\"17\"}}뭐어! {{delay frames=\"10\"}}잡초 뽑기?!{{delay frames=\"15\"}}\n{{anim id=\"13\"}}지금 마을이 온통 잡초로{{delay frames=\"10\"}}\n뒤덮여 있는 상황이던데!{{pageBreak}}{{anim id=\"0\"}}{{delay frames=\"5\"}}{{anim id=\"10\"}}{{delay frames=\"10\"}}{{size value=\"75\"}}음음음음{{size value=\"75\"}}{{delay frames=\"15\"}}・{{delay frames=\"15\"}}・{{delay frames=\"15\"}}・{{size value=\"75\"}}{{delay frames=\"15\"}}・{{delay frames=\"15\"}}・{{delay frames=\"15\"}}・{{size value=\"100\"}}{{delay frames=\"30\"}}\n{{anim id=\"21\"}}{{delay frames=\"15\"}}좋～았어!{{delay frames=\"20\"}} {{anim id=\"1\"}}일단 해볼게!{{pageBreak}}{{anim id=\"11\"}}지금 부탁해 두면{{delay frames=\"5\"}}・{{delay frames=\"5\"}}・{{delay frames=\"5\"}}・{{delay frames=\"15\"}}\n{{anim id=\"1\"}}어디 보자, {{delay frames=\"10\"}}어떻게든 내일 아침까지는\n매끈 반짝하게 할 수 있을 것 같아～{{pageBreak}}{{anim id=\"0\"}}엄청나게 양이 많으니까\n{{color id=\"2\"}}100000벨 {{color id=\"65535\"}}정도 들 거 같은데{{delay frames=\"10\"}}\n{{anim id=\"23\"}}{{delay frames=\"10\"}}어떻게 할래?{{fun_0008000D arg=\"0x02CD\"}}{{fun_0005000F arg=\"0x15002800\"}}\n부탁해!\n역시 안 할래"
  },
  {
    "label": "055",
    "text": "{{anim id=\"1\"}}오케이～{{delay frames=\"10\"}}\n그럼 비용은 선불이니까\n먼저 갖고 와줘～"
  },
  {
    "label": "056",
    "text": "{{anim id=\"1\"}}오케이～!{{delay frames=\"15\"}}\n그럼 비용은 받았고{{delay frames=\"10\"}}\n접수 완료～{{pageBreak}}{{anim id=\"0\"}}오늘은 조금 신경이 쓰이겠지만{{delay frames=\"10\"}}\n{{anim id=\"33\"}}내일 아침까지는 잡초 따위\n눈에도 안 띄게 될 거야!\n{{anim id=\"1\"}}기대해～!"
  },
  {
    "label": "057",
    "text": "어라, {{delay frames=\"10\"}}정말?{{fun_00010007 arg=\"\"}}\n{{anim id=\"1\"}}그럼 나중에 마음이 바뀌면\n상담해줘～"
  },
  {
    "label": "058",
    "text": ""
  },
  {
    "label": "059",
    "text": ""
  },
  {
    "label": "060",
    "text": ""
  }
]