﻿[
  {
    "label": "001",
    "text": "꿈의 세계에 오신 걸 환영합니다{{delay frames=\"8\"}}・{{delay frames=\"8\"}}・{{delay frames=\"8\"}}・{{fun_00010007 arg=\"\"}}\n손님은 지금 {{delay frames=\"15\"}}{{fun_00050005 arg=\"\"}}{{fun_000E000E arg=\"0x020074C70000\"}}란 마을의{{delay frames=\"4\"}}\n꿈을 꾸시는 중이랍니다\n현실 세계로 돌아가고 싶어지시면{{delay frames=\"20\"}}\n다시 이쪽의 침대에{{delay frames=\"4\"}} 누워주세요{{pageBreak}}{{anim id=\"37\"}}자, 그럼{{delay frames=\"20\"}} 매력적인\n{{fun_00050005 arg=\"\"}} 월드를{{delay frames=\"4\"}}\n마음껏 즐기시길{{delay frames=\"10\"}}・{{delay frames=\"10\"}}・{{delay frames=\"10\"}}・"
  },
  {
    "label": "002",
    "text": ""
  },
  {
    "label": "003",
    "text": ""
  },
  {
    "label": "004",
    "text": ""
  },
  {
    "label": "005",
    "text": "{{anim id=\"37\"}}{{fun_00050005 arg=\"\"}} 월드를{{delay frames=\"15\"}}\n마음껏 즐기시기를{{delay frames=\"10\"}}・{{delay frames=\"10\"}}・{{delay frames=\"10\"}}・"
  },
  {
    "label": "006",
    "text": "{{anim id=\"37\"}}{{fun_00050005 arg=\"\"}} 마을의 꿈속에서{{delay frames=\"15\"}}\n{{fun_00000005 arg=\"\"}}님의 마음이{{delay frames=\"8\"}}\n치유되기를 바랍니다{{delay frames=\"10\"}}・{{delay frames=\"10\"}}・{{delay frames=\"10\"}}・"
  },
  {
    "label": "007",
    "text": "꿈에서 깨고 싶으실 때는{{delay frames=\"15\"}}\n이쪽 침대에{{delay frames=\"8\"}} 누워주세요"
  },
  {
    "label": "008",
    "text": ""
  },
  {
    "label": "009",
    "text": ""
  },
  {
    "label": "010",
    "text": ""
  },
  {
    "label": "011",
    "text": "{{anim id=\"15\"}}어머나{{delay frames=\"10\"}}・{{delay frames=\"10\"}}・{{delay frames=\"10\"}}・{{delay frames=\"15\"}}\n{{anim id=\"0\"}}슬슬 꿈에서 깨시려구요?{{fun_0008000D arg=\"0x02CD\"}}{{fun_0005000F arg=\"0x00000000\"}}\n그만 깰래\n조금 더 꿈꿀래"
  },
  {
    "label": "012",
    "text": "{{anim id=\"37\"}}만족스러우실 때까지{{delay frames=\"10\"}}\n마음껏 즐기시기를{{delay frames=\"10\"}}・{{delay frames=\"10\"}}・{{delay frames=\"10\"}}・"
  },
  {
    "label": "013",
    "text": "그럼{{delay frames=\"10\"}} 이쪽 침대에{{delay frames=\"8\"}}\n누우시기 바랍니다{{delay frames=\"10\"}}・{{delay frames=\"10\"}}・{{delay frames=\"10\"}}・ "
  },
  {
    "label": "014",
    "text": ""
  },
  {
    "label": "015",
    "text": ""
  }
]