﻿[
  {
    "label": "001",
    "text": "{{anim id=\"15\"}}어머, {{delay frames=\"8\"}}{{fun_00000005 arg=\"\"}}!\n{{anim id=\"0\"}}무슨 일이야? {{delay frames=\"8\"}}{{fun_00070005 arg=\"\"}}?"
  },
  {
    "label": "002",
    "text": "{{anim id=\"1\"}}{{fun_00060007 arg=\"\"}}어머, {{delay frames=\"8\"}}{{fun_00000005 arg=\"\"}}!{{fun_00070007 arg=\"\"}}{{delay frames=\"12\"}}\n나한테 무슨 볼일 있어? {{delay frames=\"8\"}}{{fun_00070005 arg=\"\"}}?"
  },
  {
    "label": "003",
    "text": "{{fun_00000005 arg=\"\"}}, {{delay frames=\"8\"}}\n무슨 할 말 있어?\n{{delay frames=\"8\"}}{{fun_00070005 arg=\"\"}}?"
  }
]