﻿[
  {
    "label": "001",
    "text": "{{anim id=\"6\"}}오늘이 하지라는 건{{delay frames=\"16\"}}\n이제 본격적으로\n여름이 시작된다는 뜻이야{{delay frames=\"8\"}}・{{delay frames=\"8\"}}・{{delay frames=\"8\"}}・{{delay frames=\"8\"}}\n{{anim id=\"9\"}}피부 관리를 꼼꼼하게 해야 하는{{delay frames=\"16\"}}\n계절이 찾아왔네, {{delay frames=\"8\"}}{{fun_00070005 arg=\"\"}}{{fun_0001000A arg=\"0x06000700\"}}"
  },
  {
    "label": "002",
    "text": "{{anim id=\"6\"}}결국 하지가 오고 말았어{{delay frames=\"32\"}}\n여자로서의 싸움이 시작되는 시기지,\n{{delay frames=\"8\"}}{{fun_00070005 arg=\"\"}}\n{{anim id=\"36\"}}자외선과의 싸움 말이야{{delay frames=\"8\"}}・{{delay frames=\"8\"}}・{{delay frames=\"8\"}}・{{delay frames=\"32\"}}\n{{anim id=\"35\"}}피부를 지키기 위한 {{delay frames=\"16\"}}치열한 싸움!"
  },
  {
    "label": "003",
    "text": "하지라니{{delay frames=\"8\"}}・{{delay frames=\"8\"}}・{{delay frames=\"8\"}}・{{delay frames=\"8\"}}{{delay frames=\"16\"}}\n진짜 여름이{{delay frames=\"8\"}}\n시작되려나 봐, {{delay frames=\"8\"}}{{fun_00070005 arg=\"\"}}\n{{anim id=\"23\"}}{{delay frames=\"16\"}}{{fun_00080005 arg=\"\"}}{{fun_000E000E arg=\"0x020040C7020094B2\"}} 여름이 좋아?{{fun_00010007 arg=\"\"}}\n{{anim id=\"36\"}}우후훗! {{delay frames=\"16\"}}좋아하긴{{delay frames=\"8\"}}・{{delay frames=\"8\"}}・{{delay frames=\"8\"}}・{{delay frames=\"8\"}}"
  },
  {
    "label": "004",
    "text": "동지엔 {{delay frames=\"16\"}}팥죽을 먹잖아{{delay frames=\"8\"}}・{{delay frames=\"8\"}}・{{delay frames=\"8\"}}・{{delay frames=\"8\"}}{{pageBreak}}{{anim id=\"9\"}}그럼 하지엔 {{delay frames=\"16\"}}뭘 먹는 거야?{{delay frames=\"8\"}}\n{{fun_00080005 arg=\"\"}}?{{pageBreak}}{{anim id=\"0\"}}일단 {{delay frames=\"16\"}}{{fun_001A0005 arg=\"0x00CD\"}}{{delay frames=\"8\"}}{{fun_000E000E arg=\"0x060074C77CB7C4B304007CB7C4B3\"}}\n먹을까{{delay frames=\"8\"}}・{{delay frames=\"8\"}}・{{delay frames=\"8\"}}・{{delay frames=\"8\"}}?{{delay frames=\"8\"}}"
  },
  {
    "label": "005",
    "text": "{{anim id=\"11\"}}{{delay frames=\"16\"}}계속 이렇게 밝으니까{{delay frames=\"8\"}}・{{delay frames=\"8\"}}・{{delay frames=\"8\"}}・{{delay frames=\"8\"}}\n언제 자야 할지 {{delay frames=\"16\"}}모르겠어～{{pageBreak}}{{anim id=\"6\"}}해님은 {{delay frames=\"8\"}}우리가 자도{{delay frames=\"32\"}}\n{{anim id=\"35\"}}뭐라고 하지 않겠지?"
  },
  {
    "label": "006",
    "text": "{{anim id=\"36\"}}{{fun_00080005 arg=\"\"}}{{fun_000E000E arg=\"0x020040C7020094B2\"}} 남자니까{{delay frames=\"16\"}}\n별 상관없겠지만{{delay frames=\"8\"}}・{{delay frames=\"8\"}}・{{delay frames=\"8\"}}・{{delay frames=\"8\"}}"
  },
  {
    "label": "007",
    "text": "{{anim id=\"37\"}}그러니까 {{delay frames=\"8\"}}{{fun_00080005 arg=\"\"}}!{{delay frames=\"32\"}}\n우리 서로 힘내자구!"
  },
  {
    "label": "008",
    "text": ""
  },
  {
    "label": "009",
    "text": ""
  },
  {
    "label": "010",
    "text": ""
  }
]