﻿[
  {
    "label": "001",
    "text": "{{fun_00040009 arg=\"0x4700480049004A004B004C00\"}}"
  },
  {
    "label": "002",
    "text": "{{fun_00010011 arg=\"0x0000\"}}네 집에\n{{fun_00030011 arg=\"0x0000\"}}{{fun_000E000E arg=\"0x020074C7020000AC\"}}{{delay frames=\"16\"}}\n놓여 있다니{{delay frames=\"8\"}}・{{delay frames=\"8\"}}・{{delay frames=\"8\"}}・{{delay frames=\"8\"}}{{pageBreak}}{{anim id=\"37\"}}{{fun_00010011 arg=\"0x0000\"}}{{fun_000E000E arg=\"0x020074C7020000AC\"}}{{delay frames=\"16\"}}\n이 작품에 깊은 감명이라도 받았나 봐!"
  },
  {
    "label": "003",
    "text": "{{fun_00010011 arg=\"0x0000\"}}네 집{{delay frames=\"16\"}}\n{{fun_00030011 arg=\"0x0000\"}}{{delay frames=\"8\"}}・{{delay frames=\"8\"}}・{{delay frames=\"8\"}}・{{delay frames=\"8\"}}\n{{anim id=\"37\"}}왠지 모르게 존재감이 있지 않니?\n{{anim id=\"1\"}}이 집이 왠지 편안하다 했더니{{delay frames=\"16\"}}\n다 이 식물 덕분인가 봐{{delay frames=\"32\"}}\n{{anim id=\"35\"}}아니면{{delay frames=\"8\"}}・{{delay frames=\"8\"}}・{{delay frames=\"8\"}}・{{delay frames=\"8\"}}"
  },
  {
    "label": "004",
    "text": "{{fun_00040009 arg=\"0x4700480049004A004B004C00\"}}"
  },
  {
    "label": "005",
    "text": "{{fun_00040009 arg=\"0x4700480049004A004B004C00\"}}"
  },
  {
    "label": "006",
    "text": "{{fun_00010011 arg=\"0x0000\"}}{{fun_000E000E arg=\"0x020040C7020094B2\"}}{{delay frames=\"16\"}}\n{{fun_00030011 arg=\"0x0000\"}}{{fun_000E000E arg=\"0x020044C702007CB9\"}}{{delay frames=\"8\"}}\n다룰 줄 아나 봐, {{delay frames=\"8\"}}{{fun_00070005 arg=\"\"}}\n{{anim id=\"9\"}}남자들은 곧잘 {{delay frames=\"16\"}}금방 달아올라서{{delay frames=\"16\"}}\n이것저것 배우기 시작했다가{{delay frames=\"8\"}}\n얼마 못 가 다 때려치우곤 하던데{{delay frames=\"8\"}}・{{delay frames=\"8\"}}・{{delay frames=\"8\"}}・{{delay frames=\"32\"}}\n{{anim id=\"35\"}}{{fun_00010011 arg=\"0x0000\"}}{{fun_000E000E arg=\"0x020040C7020094B2\"}} 과연 어떨까?"
  },
  {
    "label": "007",
    "text": "{{anim id=\"9\"}}{{fun_00030011 arg=\"0x0000\"}}{{fun_000E000E arg=\"0x060074C796C744C5040096C744C5\"}}?{{delay frames=\"16\"}}\n{{anim id=\"11\"}}{{delay frames=\"16\"}}역시 {{fun_00010011 arg=\"0x0000\"}}{{delay frames=\"8\"}}・{{delay frames=\"8\"}}・{{delay frames=\"8\"}}・{{delay frames=\"8\"}}\n근데 무슨 요리를 하는 걸까?\n{{anim id=\"36\"}}이것저것 할 수 있게 생겼지만{{delay frames=\"32\"}}\n사실은 파스타밖에 못 만든다거나{{delay frames=\"16\"}}\n그런 건 아니겠지{{delay frames=\"8\"}}・{{delay frames=\"8\"}}・{{delay frames=\"8\"}}・{{delay frames=\"8\"}}?{{delay frames=\"8\"}}"
  },
  {
    "label": "008",
    "text": "{{fun_00040009 arg=\"0x4700480049004A004B004C00\"}}"
  },
  {
    "label": "009",
    "text": "{{anim id=\"36\"}}{{fun_00010011 arg=\"0x0000\"}}{{delay frames=\"8\"}}・{{delay frames=\"8\"}}・{{delay frames=\"8\"}}・{{delay frames=\"8\"}}{{delay frames=\"32\"}}\n{{fun_00030011 arg=\"0x0000\"}} 같은{{delay frames=\"16\"}}\n커다란 침대를 쓰고 있었네?\n{{anim id=\"9\"}}하긴{{delay frames=\"8\"}}・{{delay frames=\"8\"}}・{{delay frames=\"8\"}}・{{delay frames=\"16\"}}\n왠지 잠자리에도 까다로울 것 같으니{{delay frames=\"32\"}}\n{{anim id=\"37\"}}무슨 침대를 써도 이상할 게 없지!"
  },
  {
    "label": "010",
    "text": "{{fun_00040009 arg=\"0x4700480049004A004B004C00\"}}"
  },
  {
    "label": "011",
    "text": "{{fun_00040009 arg=\"0x4700480049004A004B004C00\"}}"
  },
  {
    "label": "012",
    "text": "그거 알아? {{delay frames=\"8\"}}{{fun_00080005 arg=\"\"}}?{{delay frames=\"32\"}}\n의자는 주인의 취향을{{delay frames=\"16\"}}\n가장 많이 반영하는 가구래, {{delay frames=\"8\"}}{{fun_00070005 arg=\"\"}}\n{{anim id=\"6\"}}{{fun_00010011 arg=\"0x0000\"}}네 집에는{{delay frames=\"16\"}}\n{{fun_00030011 arg=\"0x0000\"}}{{fun_000E000E arg=\"0x040074C77CB702007CB7\"}}～{{fun_00010007 arg=\"\"}}\n{{delay frames=\"8\"}}・{{delay frames=\"8\"}}・{{delay frames=\"8\"}}・{{delay frames=\"8\"}}{{anim id=\"37\"}}취향 나쁘지 않은데?"
  },
  {
    "label": "013",
    "text": "{{fun_00040009 arg=\"0x4700480049004A004B004C00\"}}"
  },
  {
    "label": "014",
    "text": "{{fun_00010011 arg=\"0x0000\"}}네 집{{delay frames=\"16\"}}\n{{fun_00030011 arg=\"0x0000\"}}에는{{delay frames=\"8\"}}・{{delay frames=\"8\"}}・{{delay frames=\"8\"}}・{{delay frames=\"8\"}}{{pageBreak}}{{anim id=\"36\"}}왠지 장미만 한가득{{delay frames=\"16\"}}\n들어 있을 것 같은 느낌인데{{delay frames=\"8\"}}・{{delay frames=\"8\"}}・{{delay frames=\"8\"}}・{{delay frames=\"32\"}}\n{{anim id=\"13\"}}으아～ {{delay frames=\"16\"}}설마 진짜 그런 건 아니겠지!"
  },
  {
    "label": "015",
    "text": "{{fun_00040009 arg=\"0x4700480049004A004B004C00\"}}"
  },
  {
    "label": "016",
    "text": "{{fun_00040009 arg=\"0x4700480049004A004B004C00\"}}"
  },
  {
    "label": "017",
    "text": "{{anim id=\"9\"}}일부러{{delay frames=\"16\"}}\n{{fun_00030011 arg=\"0x0000\"}}{{fun_000E000E arg=\"0x020044C702007CB9\"}}\n디스플레이해 두다니{{delay frames=\"8\"}}・{{delay frames=\"8\"}}・{{delay frames=\"8\"}}・{{delay frames=\"8\"}}\n{{anim id=\"6\"}}이거 {{fun_00010011 arg=\"0x0000\"}}{{fun_000E000E arg=\"0x020074C7020000AC\"}} 아껴서{{delay frames=\"16\"}}\n특별한 날에만 착용한다는 그거지?\n{{delay frames=\"8\"}}{{fun_00070005 arg=\"\"}}?\n{{anim id=\"26\"}}{{delay frames=\"16\"}}왠지 봐서는 안 될 것을{{delay frames=\"16\"}}\n봐 버린 느낌이야{{delay frames=\"8\"}}・{{delay frames=\"8\"}}・{{delay frames=\"8\"}}・{{delay frames=\"8\"}}"
  },
  {
    "label": "018",
    "text": "{{fun_00040009 arg=\"0x4700480049004A004B004C00\"}}"
  },
  {
    "label": "019",
    "text": "{{fun_00040009 arg=\"0x4700480049004A004B004C00\"}}"
  },
  {
    "label": "020",
    "text": "{{anim id=\"37\"}}아까 {{delay frames=\"8\"}}{{fun_00010011 arg=\"0x0000\"}}네 집\n{{fun_00030011 arg=\"0x0000\"}}에서{{delay frames=\"16\"}}\n이상한 책을 봤어!\n{{anim id=\"6\"}}『{{fun_001D0005 arg=\"0x0001\"}}』{{fun_00010007 arg=\"\"}}\n{{anim id=\"36\"}}도대체 {{delay frames=\"8\"}}어디에 쓰려고{{delay frames=\"16\"}}\n그런 책을 읽는 걸까?"
  },
  {
    "label": "021",
    "text": "{{anim id=\"36\"}}우후훗! {{delay frames=\"16\"}}이것 좀 봐{{delay frames=\"8\"}}・{{delay frames=\"8\"}}・{{delay frames=\"8\"}}・{{delay frames=\"8\"}}\n{{fun_00030011 arg=\"0x0000\"}}{{fun_000E000E arg=\"0x020074C7020000AC\"}}{{delay frames=\"8\"}}\n밖에 나와 있네\n{{anim id=\"9\"}}{{fun_00010011 arg=\"0x0000\"}}{{delay frames=\"8\"}}・{{delay frames=\"8\"}}・{{delay frames=\"8\"}}・{{delay frames=\"8\"}}\n내가 온다고{{delay frames=\"16\"}} 일부러 청소까지 했나 봐"
  },
  {
    "label": "022",
    "text": "{{fun_00030011 arg=\"0x0000\"}}{{fun_000E000E arg=\"0x020074C7020000AC\"}}{{delay frames=\"16\"}}\n아무렇지도 않게{{delay frames=\"8\"}}\n집 안에 들어와 있네{{delay frames=\"8\"}}・{{delay frames=\"8\"}}・{{delay frames=\"8\"}}・{{delay frames=\"8\"}}\n{{anim id=\"36\"}}{{fun_00010011 arg=\"0x0000\"}}{{fun_000E000E arg=\"0x020040C7020094B2\"}} 의외로{{delay frames=\"16\"}}\n과거 지향적인 애였나 봐{{delay frames=\"8\"}}・{{delay frames=\"8\"}}・{{delay frames=\"8\"}}・{{delay frames=\"8\"}} {{fun_00070005 arg=\"\"}}"
  },
  {
    "label": "023",
    "text": "{{anim id=\"15\"}}어머, {{delay frames=\"8\"}}{{fun_00030011 arg=\"0x0000\"}}?{{delay frames=\"32\"}}\n{{anim id=\"37\"}}날 위해서{{delay frames=\"16\"}} 일부러 준비한 건가?{{pageBreak}}{{anim id=\"1\"}}역시 {{fun_00010011 arg=\"0x0000\"}}{{delay frames=\"8\"}}・{{delay frames=\"8\"}}・{{delay frames=\"8\"}}・{{delay frames=\"8\"}}\n이런 부분에는 참 주도면밀하단 말야～\n{{delay frames=\"8\"}}{{fun_00070005 arg=\"\"}}"
  },
  {
    "label": "024",
    "text": "{{anim id=\"9\"}}난{{delay frames=\"8\"}}・{{delay frames=\"8\"}}・{{delay frames=\"8\"}}・{{delay frames=\"8\"}} {{delay frames=\"16\"}}남자라도\n{{fun_00030011 arg=\"0x0000\"}}{{fun_000E000E arg=\"0x020044C702007CB9\"}} 쓸 때는{{delay frames=\"16\"}}\n앉아서 볼일을 봐야 한다고 생각해\n{{anim id=\"36\"}}{{fun_00010011 arg=\"0x0000\"}}{{fun_000E000E arg=\"0x020040C7020094B2\"}} 과연{{delay frames=\"16\"}}\n어떻게 하고 있을까? {{delay frames=\"8\"}}{{fun_00070005 arg=\"\"}}?"
  },
  {
    "label": "025",
    "text": "{{anim id=\"15\"}}어머! {{delay frames=\"8\"}}{{fun_00030011 arg=\"0x0000\"}}?{{delay frames=\"32\"}}\n{{anim id=\"39\"}}난 이런 거 잘 다루는 사람이{{delay frames=\"16\"}}\n정말 멋있어 보이더라～"
  },
  {
    "label": "026",
    "text": "{{anim id=\"15\"}}어? {{delay frames=\"8\"}}{{fun_00030011 arg=\"0x0000\"}}{{fun_000E000E arg=\"0x040074C724B1020024B1\"}}?{{delay frames=\"32\"}}\n{{anim id=\"37\"}}내가 온다고 {{delay frames=\"8\"}}신경 써서 꾸며 놓은 건가?{{pageBreak}}{{anim id=\"1\"}}역시 {{fun_00010011 arg=\"0x0000\"}}{{fun_000E000E arg=\"0x020074C7020000AC\"}}{{delay frames=\"16\"}}\n이런 센스는 참 좋다니까,{{delay frames=\"16\"}} {{delay frames=\"8\"}}{{fun_00070005 arg=\"\"}}"
  },
  {
    "label": "027",
    "text": "{{fun_00010011 arg=\"0x0000\"}}네 집{{delay frames=\"16\"}}\n{{fun_00030011 arg=\"0x0000\"}}{{delay frames=\"8\"}}・{{delay frames=\"8\"}}・{{delay frames=\"8\"}}・{{delay frames=\"8\"}}{{pageBreak}}{{anim id=\"37\"}}왠지 숙성된 치즈 같은 게{{delay frames=\"16\"}}\n들어 있을 것 같지 않니?\n{{delay frames=\"8\"}}{{fun_00070005 arg=\"\"}}?"
  },
  {
    "label": "028",
    "text": "{{fun_00040009 arg=\"0x4700480049004A004B004C00\"}}"
  },
  {
    "label": "029",
    "text": "{{fun_00040009 arg=\"0x4700480049004A004B004C00\"}}"
  },
  {
    "label": "030",
    "text": "{{fun_00040009 arg=\"0x4700480049004A004B004C00\"}}"
  },
  {
    "label": "031",
    "text": "{{anim id=\"15\"}}어머, {{delay frames=\"8\"}}{{fun_00010011 arg=\"0x0000\"}}네 집에{{delay frames=\"16\"}}\n{{fun_00030011 arg=\"0x0000\"}}{{fun_000E000E arg=\"0x060074C77CB7C8B204007CB7C8B2\"}}{{delay frames=\"8\"}}・{{delay frames=\"8\"}}・{{delay frames=\"8\"}}・{{delay frames=\"16\"}}\n재미있는 광경이네{{delay frames=\"8\"}}・{{delay frames=\"8\"}}・{{delay frames=\"8\"}}・{{delay frames=\"8\"}}\n{{anim id=\"36\"}}여자한테 선물했다가{{delay frames=\"16\"}} 거절당했지만\n차마 버리지는 못한{{delay frames=\"8\"}}・{{delay frames=\"8\"}}・{{delay frames=\"8\"}}・{{delay frames=\"32\"}}\n{{anim id=\"35\"}}뭐 그런 거 아닐까?"
  },
  {
    "label": "032",
    "text": "{{anim id=\"15\"}}어머, {{delay frames=\"8\"}}{{fun_00010011 arg=\"0x0000\"}}네 집에{{delay frames=\"16\"}}\n{{fun_00030011 arg=\"0x0000\"}}{{fun_000E000E arg=\"0x060074C77CB7C8B204007CB7C8B2\"}}{{delay frames=\"8\"}}・{{delay frames=\"8\"}}・{{delay frames=\"8\"}}・{{delay frames=\"16\"}}\n의외네{{delay frames=\"8\"}}・{{delay frames=\"8\"}}・{{delay frames=\"8\"}}・{{delay frames=\"8\"}}\n{{anim id=\"36\"}}여자한테 선물했다가{{delay frames=\"16\"}} 거절당했지만\n차마 버리지는 못한{{delay frames=\"8\"}}・{{delay frames=\"8\"}}・{{delay frames=\"8\"}}・{{delay frames=\"32\"}}\n{{anim id=\"35\"}}뭐 그런 거 아닐까?"
  },
  {
    "label": "033",
    "text": "{{fun_00040009 arg=\"0x4700480049004A004B004C00\"}}"
  },
  {
    "label": "034",
    "text": "{{fun_00040009 arg=\"0x4700480049004A004B004C00\"}}"
  },
  {
    "label": "035",
    "text": "{{anim id=\"27\"}}{{fun_00030011 arg=\"0x0000\"}}?{{delay frames=\"8\"}}\n남자는 {{delay frames=\"8\"}}언제까지나 어린애라더니{{delay frames=\"16\"}}　\n그 말이 맞나 봐{{delay frames=\"8\"}}・{{delay frames=\"8\"}}・{{delay frames=\"8\"}}・{{delay frames=\"8\"}}"
  },
  {
    "label": "036",
    "text": "{{fun_00040009 arg=\"0x4700480049004A004B004C00\"}}"
  },
  {
    "label": "037",
    "text": "{{fun_00030011 arg=\"0x0000\"}} 같은 걸{{delay frames=\"16\"}}\n집 안에 설치하다니{{delay frames=\"8\"}}・{{delay frames=\"8\"}}・{{delay frames=\"8\"}}・{{delay frames=\"8\"}}{{pageBreak}}{{anim id=\"9\"}}{{fun_00010011 arg=\"0x0000\"}}{{delay frames=\"8\"}}・{{delay frames=\"8\"}}・{{delay frames=\"8\"}}・{{delay frames=\"8\"}}{{delay frames=\"16\"}}\n집에서는 도대체 뭘 하고 지내는 거지?\n{{delay frames=\"8\"}}{{fun_00070005 arg=\"\"}}?"
  },
  {
    "label": "038",
    "text": "{{fun_00040009 arg=\"0x4700480049004A004B004C00\"}}"
  },
  {
    "label": "039",
    "text": "{{anim id=\"15\"}}어머\n{{delay frames=\"16\"}}{{fun_00030011 arg=\"0x0000\"}}{{fun_000E000E arg=\"0x060074C796C744C5040096C744C5\"}}?{{pageBreak}}{{anim id=\"36\"}}딱히 럭셔리한 느낌은 아니지만{{delay frames=\"32\"}}\n{{anim id=\"37\"}}그래도 물이 있으니{{delay frames=\"16\"}}\n마음이 차분해지고 좋네～ {{delay frames=\"8\"}}{{fun_00070005 arg=\"\"}}"
  },
  {
    "label": "040",
    "text": "{{fun_00040009 arg=\"0x4700480049004A004B004C00\"}}"
  },
  {
    "label": "041",
    "text": "{{fun_00040009 arg=\"0x4700480049004A004B004C00\"}}"
  },
  {
    "label": "042",
    "text": "{{fun_00040009 arg=\"0x4700480049004A004B004C00\"}}"
  },
  {
    "label": "043",
    "text": "{{fun_00040009 arg=\"0x4700480049004A004B004C00\"}}"
  },
  {
    "label": "044",
    "text": "{{fun_00040009 arg=\"0x4700480049004A004B004C00\"}}"
  },
  {
    "label": "045",
    "text": ""
  },
  {
    "label": "046",
    "text": ""
  },
  {
    "label": "047",
    "text": ""
  },
  {
    "label": "048",
    "text": ""
  },
  {
    "label": "049",
    "text": ""
  },
  {
    "label": "050",
    "text": ""
  },
  {
    "label": "051",
    "text": ""
  },
  {
    "label": "052",
    "text": ""
  },
  {
    "label": "053",
    "text": ""
  },
  {
    "label": "054",
    "text": ""
  },
  {
    "label": "055",
    "text": ""
  },
  {
    "label": "056",
    "text": ""
  },
  {
    "label": "057",
    "text": ""
  },
  {
    "label": "058",
    "text": ""
  },
  {
    "label": "059",
    "text": ""
  },
  {
    "label": "060",
    "text": ""
  },
  {
    "label": "061",
    "text": ""
  },
  {
    "label": "062",
    "text": ""
  },
  {
    "label": "063",
    "text": ""
  },
  {
    "label": "064",
    "text": ""
  },
  {
    "label": "065",
    "text": ""
  },
  {
    "label": "066",
    "text": ""
  },
  {
    "label": "067",
    "text": ""
  },
  {
    "label": "068",
    "text": ""
  },
  {
    "label": "069",
    "text": ""
  },
  {
    "label": "070",
    "text": ""
  },
  {
    "label": "071",
    "text": "{{anim id=\"11\"}}{{delay frames=\"16\"}}흐음{{delay frames=\"8\"}}・{{delay frames=\"8\"}}・{{delay frames=\"8\"}}・{{delay frames=\"8\"}}\n여기가 {{delay frames=\"15\"}}{{fun_00010011 arg=\"0x0000\"}}네 집이란 말이지"
  },
  {
    "label": "072",
    "text": "{{fun_00010011 arg=\"0x0000\"}}네 집은{{delay frames=\"8\"}}・{{delay frames=\"8\"}}・{{delay frames=\"8\"}}・{{delay frames=\"30\"}}\n{{anim id=\"40\"}}아니다{{delay frames=\"8\"}}・{{delay frames=\"8\"}}・{{delay frames=\"8\"}}・{{delay frames=\"8\"}} 아무것도 아냐"
  },
  {
    "label": "073",
    "text": "{{anim id=\"6\"}}얘! {{fun_00080005 arg=\"\"}}!{{fun_00010007 arg=\"\"}}\n{{anim id=\"9\"}}그렇게 노골적으로 두리번거리면{{delay frames=\"15\"}}\n{{fun_00010011 arg=\"0x0000\"}}한테 실례잖아{{delay frames=\"8\"}}・{{delay frames=\"8\"}}・{{delay frames=\"8\"}}・{{delay frames=\"8\"}}"
  },
  {
    "label": "074",
    "text": "{{fun_00010011 arg=\"0x0000\"}} 집 냄새{{delay frames=\"30\"}}・{{delay frames=\"8\"}}・{{delay frames=\"8\"}}・{{delay frames=\"8\"}}\n{{anim id=\"15\"}}어? {{delay frames=\"15\"}}이상하네?{{pageBreak}}{{anim id=\"11\"}}{{delay frames=\"16\"}}희미하게 {{delay frames=\"8\"}}{{fun_00130005 arg=\"0x0000\"}} 냄새가{{delay frames=\"20\"}}\n나는 것 같은데{{delay frames=\"8\"}}・{{delay frames=\"8\"}}・{{delay frames=\"8\"}}・{{delay frames=\"20\"}}\n기분 탓인가?"
  },
  {
    "label": "075",
    "text": "{{anim id=\"15\"}}아, {{delay frames=\"30\"}}{{anim id=\"0\"}}나는 신경 쓰지 마!\n{{delay frames=\"8\"}}{{fun_00080005 arg=\"\"}}{{pageBreak}}{{anim id=\"37\"}}{{fun_00010011 arg=\"0x0000\"}}{{fun_000E000E arg=\"0x020074C7020000AC\"}} 열심히 꾸민 것 같으니{{delay frames=\"8\"}}\n집 구경에만{{delay frames=\"15\"}} 집중해줘"
  },
  {
    "label": "076",
    "text": "{{anim id=\"11\"}}{{delay frames=\"16\"}}여기 있는 가구들{{delay frames=\"8\"}}・{{delay frames=\"8\"}}・{{delay frames=\"8\"}}・{{delay frames=\"15\"}}\n진짜 {{fun_00010011 arg=\"0x0000\"}}{{fun_000E000E arg=\"0x020074C7020000AC\"}} 고른 걸까?\n{{delay frames=\"8\"}}{{fun_00070005 arg=\"\"}}?"
  }
]