﻿[
  {
    "label": "001",
    "text": "{{anim id=\"39\"}}있잖아, {{fun_00080005 arg=\"\"}}{{delay frames=\"32\"}}\n{{fun_00010011 arg=\"0x0000\"}}한테{{delay frames=\"16\"}}\n전해줘야 할 물건이 있는데{{delay frames=\"8\"}}・{{delay frames=\"8\"}}・{{delay frames=\"8\"}}・{{delay frames=\"8\"}}\n내 대신에 좀{{delay frames=\"16\"}}\n전해줄 수 없을까?\n{{delay frames=\"8\"}}{{fun_00070005 arg=\"\"}}?\n{{delay frames=\"8\"}}・{{delay frames=\"8\"}}・{{delay frames=\"8\"}}・{{delay frames=\"8\"}}{{anim id=\"15\"}}왜냐고?{{delay frames=\"32\"}}\n{{anim id=\"37\"}}당신이라면 {{delay frames=\"8\"}}믿을 수 있을 것 같아서 그래{{delay frames=\"16\"}}\n부탁이야, {{delay frames=\"8\"}}{{fun_00080005 arg=\"\"}}"
  },
  {
    "label": "002",
    "text": "{{anim id=\"39\"}}있잖아, {{fun_00080005 arg=\"\"}}{{delay frames=\"32\"}}\n{{fun_00010011 arg=\"0x0000\"}}한테{{delay frames=\"16\"}}\n전해주고 싶은 물건이 있는데{{delay frames=\"8\"}}・{{delay frames=\"8\"}}・{{delay frames=\"8\"}}・{{delay frames=\"8\"}}\n혹시 내 대신에{{delay frames=\"16\"}}\n전해줄 수 있어?\n{{delay frames=\"8\"}}{{fun_00070005 arg=\"\"}}?\n{{delay frames=\"8\"}}・{{delay frames=\"8\"}}・{{delay frames=\"8\"}}・{{delay frames=\"8\"}}{{anim id=\"15\"}}이유가 뭐냐고?{{delay frames=\"32\"}}\n{{anim id=\"9\"}}실은 그 애랑 싸워서{{delay frames=\"16\"}}\n지금 좀 어색하거든{{delay frames=\"8\"}}・{{delay frames=\"8\"}}・{{delay frames=\"8\"}}・{{delay frames=\"8\"}}"
  },
  {
    "label": "003",
    "text": "{{anim id=\"15\"}}앗! {{delay frames=\"8\"}}맞다 {{delay frames=\"16\"}}{{fun_00080005 arg=\"\"}}!{{pageBreak}}{{anim id=\"0\"}}혹시 {{fun_00010011 arg=\"0x0000\"}}한테\n볼일 없어? {{delay frames=\"16\"}}볼일 있으면\n그 김에 뭣 좀 전해달라구!\n그 애한테 빌린 지 좀 지난{{delay frames=\"16\"}}\n물건이 있거든,\n{{delay frames=\"8\"}}{{fun_00070005 arg=\"\"}}"
  },
  {
    "label": "004",
    "text": "{{anim id=\"15\"}}앗! {{delay frames=\"8\"}}맞아 {{delay frames=\"16\"}}{{fun_00080005 arg=\"\"}}!{{pageBreak}}{{anim id=\"0\"}}혹시 {{fun_00010011 arg=\"0x0000\"}}한테\n볼일 있으면 {{delay frames=\"16\"}}겸사겸사\n뭣 좀 전해주지 않을래?\n그 애가 놓고 간 물건을{{delay frames=\"16\"}}\n내가 계속 보관하고 있었거든,\n{{delay frames=\"8\"}}{{fun_00070005 arg=\"\"}}"
  },
  {
    "label": "005",
    "text": "{{anim id=\"15\"}}앗! {{delay frames=\"8\"}}맞아 {{delay frames=\"16\"}}{{fun_00080005 arg=\"\"}}!{{pageBreak}}{{anim id=\"0\"}}혹시 {{fun_00010011 arg=\"0x0000\"}}한테\n볼일 있어? {{delay frames=\"16\"}}있으면 그 김에\n뭘 좀 전해주지 않을래?\n{{anim id=\"11\"}}{{delay frames=\"16\"}}무슨 착오가 있었는지{{delay frames=\"16\"}}\n{{fun_00010011 arg=\"0x0000\"}} 앞으로 갈 우편물이{{delay frames=\"8\"}}\n나한테 도착했거든"
  },
  {
    "label": "006",
    "text": "{{anim id=\"39\"}}있잖아, {{fun_00080005 arg=\"\"}}{{delay frames=\"16\"}}\n당신한테 부탁이 하나 있어{{pageBreak}}{{anim id=\"0\"}}실은 {{fun_00010011 arg=\"0x0000\"}}한테\n부탁받은 물건이 있어서{{delay frames=\"16\"}}\n그걸 사 두긴 했는데{{delay frames=\"16\"}}\n{{anim id=\"9\"}}요즘 {{delay frames=\"8\"}}내가 너무 바빠서{{delay frames=\"8\"}}・{{delay frames=\"8\"}}・{{delay frames=\"8\"}}・{{delay frames=\"8\"}}\n내 대신 {{fun_00010011 arg=\"0x0000\"}}한테{{delay frames=\"16\"}}\n그것 좀 전해주면 안 될까?"
  },
  {
    "label": "007",
    "text": ""
  },
  {
    "label": "008",
    "text": ""
  },
  {
    "label": "009",
    "text": ""
  },
  {
    "label": "010",
    "text": ""
  },
  {
    "label": "011",
    "text": "{{anim id=\"37\"}}고마워, {{delay frames=\"8\"}}{{fun_00080005 arg=\"\"}}!{{delay frames=\"32\"}}\n그럼 이건{{delay frames=\"16\"}} 당신한테 맡길게"
  },
  {
    "label": "012",
    "text": "{{anim id=\"37\"}}고마워, {{fun_00080005 arg=\"\"}}{{delay frames=\"32\"}}\n당신은 {{delay frames=\"8\"}}우리의\n큐피드 같은 존재야! {{delay frames=\"8\"}}{{fun_00070005 arg=\"\"}}!"
  },
  {
    "label": "013",
    "text": "{{anim id=\"37\"}}고마워, {{delay frames=\"8\"}}{{fun_00080005 arg=\"\"}}!{{delay frames=\"32\"}}\n그럼 이건{{delay frames=\"16\"}} 당신에게 맡길게"
  },
  {
    "label": "014",
    "text": "{{anim id=\"37\"}}고마워, {{fun_00080005 arg=\"\"}}!{{delay frames=\"32\"}}\n그럼 이건 {{delay frames=\"16\"}}당신을 믿고 맡길게"
  },
  {
    "label": "015",
    "text": "{{anim id=\"37\"}}미안, {{fun_00080005 arg=\"\"}}!{{delay frames=\"32\"}}\n그럼 이건 {{delay frames=\"16\"}}당신에게 맡길게"
  },
  {
    "label": "016",
    "text": "{{anim id=\"37\"}}그럼{{delay frames=\"16\"}}\n잘 부탁해, {{fun_00080005 arg=\"\"}}!"
  },
  {
    "label": "017",
    "text": "{{anim id=\"36\"}}귀찮은 일 시켜서 미안!{{delay frames=\"16\"}}\n오늘 중으로 어떻게든 부탁해!\n{{delay frames=\"8\"}}{{fun_00070005 arg=\"\"}}!"
  },
  {
    "label": "018",
    "text": "{{anim id=\"9\"}}오늘은 이미 늦었으니까{{delay frames=\"8\"}}・{{delay frames=\"8\"}}・{{delay frames=\"8\"}}・{{delay frames=\"8\"}}\n내일 중으로 해줄 수 있지?{{delay frames=\"16\"}}\n부탁해, {{delay frames=\"8\"}}{{fun_00080005 arg=\"\"}}!"
  },
  {
    "label": "019",
    "text": "{{anim id=\"9\"}}아직 시간이 이르니까{{delay frames=\"8\"}}・{{delay frames=\"8\"}}・{{delay frames=\"8\"}}・{{delay frames=\"8\"}}\n{{anim id=\"37\"}}아침이 된 다음에 해줘도 괜찮아,\n{{delay frames=\"8\"}}{{fun_00070005 arg=\"\"}}"
  },
  {
    "label": "020",
    "text": ""
  },
  {
    "label": "021",
    "text": "{{anim id=\"9\"}}그렇구나{{delay frames=\"8\"}}・{{delay frames=\"8\"}}・{{delay frames=\"8\"}}・{{delay frames=\"8\"}}\n당신 기분이 그렇다면 {{delay frames=\"8\"}}어쩔 수 없지{{fun_00010007 arg=\"\"}}\n{{anim id=\"0\"}}알았어, {{delay frames=\"16\"}}내가 알아서 할게"
  },
  {
    "label": "022",
    "text": "{{anim id=\"9\"}}그렇지{{delay frames=\"8\"}}・{{delay frames=\"8\"}}・{{delay frames=\"8\"}}・{{delay frames=\"8\"}} 역시 이런 걸\n남에게 부탁하는 건{{delay frames=\"16\"}}\n좀 그렇지? {{delay frames=\"8\"}}{{fun_00070005 arg=\"\"}}?"
  },
  {
    "label": "023",
    "text": "{{anim id=\"9\"}}그렇구나{{delay frames=\"8\"}}・{{delay frames=\"8\"}}・{{delay frames=\"8\"}}・{{delay frames=\"8\"}} 역시 이런 걸\n남한테 부탁하는 건 좀 이상한가?{{delay frames=\"32\"}}\n{{anim id=\"6\"}}알았어, 스스로 하면 되지!"
  },
  {
    "label": "024",
    "text": "{{anim id=\"9\"}}그래{{delay frames=\"8\"}}・{{delay frames=\"8\"}}・{{delay frames=\"8\"}}・{{delay frames=\"8\"}} 역시 이런 걸\n남한테 부탁하는 건\n좀 별로지? {{delay frames=\"8\"}}{{fun_00070005 arg=\"\"}}?"
  },
  {
    "label": "025",
    "text": "{{anim id=\"9\"}}어머, {{delay frames=\"16\"}}그렇구나{{delay frames=\"8\"}}・{{delay frames=\"8\"}}・{{delay frames=\"8\"}}・{{delay frames=\"8\"}}\n어쩔 수 없지, {{delay frames=\"8\"}}{{fun_00070005 arg=\"\"}}{{pageBreak}}{{anim id=\"11\"}}{{delay frames=\"16\"}}내가 왜 이러고 있지?{{delay frames=\"16\"}}\n잘못은 {{color id=\"4\"}}펠리오{{color id=\"65535\"}}가 했잖아{{delay frames=\"8\"}}・{{delay frames=\"8\"}}・{{delay frames=\"8\"}}・{{delay frames=\"8\"}}"
  },
  {
    "label": "026",
    "text": "{{anim id=\"9\"}}어머, {{delay frames=\"16\"}}그렇구나{{delay frames=\"8\"}}・{{delay frames=\"8\"}}・{{delay frames=\"8\"}}・{{delay frames=\"8\"}}\n어쩔 수 없지, {{delay frames=\"8\"}}{{fun_00070005 arg=\"\"}}{{pageBreak}}{{anim id=\"11\"}}{{delay frames=\"16\"}}이 일은 마지막까지{{delay frames=\"16\"}}　\n내가 맡아서 처리해야겠다{{delay frames=\"8\"}}・{{delay frames=\"8\"}}・{{delay frames=\"8\"}}・{{delay frames=\"8\"}}"
  },
  {
    "label": "027",
    "text": ""
  },
  {
    "label": "028",
    "text": ""
  },
  {
    "label": "029",
    "text": ""
  },
  {
    "label": "030",
    "text": ""
  }
]