﻿[
  {
    "label": "001",
    "text": "{{anim id=\"37\"}}안티에이징 대책의 일환으로{{delay frames=\"16\"}}\n모두 함께 숨바꼭질을\n해볼까 하는데 말야{{delay frames=\"8\"}}・{{delay frames=\"8\"}}・{{delay frames=\"8\"}}・{{delay frames=\"40\"}}\n지금 참가자를\n모집하는 중이거든?{{delay frames=\"16\"}}\n당신도 {{anim id=\"23\"}}같이하지 않을래?{{fun_0008000D arg=\"0x02CD\"}}{{fun_0005000F arg=\"0x15002800\"}}\n할래\n난 빼줘"
  },
  {
    "label": "002",
    "text": "{{anim id=\"6\"}}{{fun_00080005 arg=\"\"}}{{delay frames=\"8\"}}・{{delay frames=\"8\"}}・{{delay frames=\"8\"}}・{{delay frames=\"8\"}}\n나랑 게임하지 않을래?\n{{delay frames=\"8\"}}{{fun_00070005 arg=\"\"}}?\n지금부터 내가 이 마을의\n어딘가에 숨을 테니까{{delay frames=\"8\"}}・{{delay frames=\"8\"}}・{{delay frames=\"8\"}}・{{delay frames=\"8\"}}\n당신은 날 찾는 거야\n{{anim id=\"37\"}}제한 시간 내에 찾으면\n당신이 이기는 거구, {{delay frames=\"16\"}}찾지 못하면{{delay frames=\"32\"}}\n{{anim id=\"35\"}}내가 이기는 거지, {{delay frames=\"8\"}}{{fun_00070005 arg=\"\"}}{{fun_0008000D arg=\"0x02CD\"}}{{fun_0005000F arg=\"0x15002800\"}}\n할래 할래\n다음에 하자"
  },
  {
    "label": "003",
    "text": "{{anim id=\"39\"}}{{fun_00080005 arg=\"\"}}!{{delay frames=\"16\"}}\n혹시 내가 이 마을 어딘가로\n숨어 버리면{{delay frames=\"8\"}}・{{delay frames=\"8\"}}・{{delay frames=\"8\"}}・{{delay frames=\"8\"}}\n당신은{{delay frames=\"16\"}}\n날 찾아낼 수 있어?\n{{fun_00070005 arg=\"\"}}{{delay frames=\"8\"}}?{{fun_0008000D arg=\"0x02CD\"}}{{fun_0005000F arg=\"0x15002800\"}}\n그럼\n못 찾지"
  }
]