﻿[
  {
    "label": "001",
    "text": "당신{{delay frames=\"8\"}}・{{delay frames=\"8\"}}・{{delay frames=\"8\"}}・{{delay frames=\"8\"}} {{delay frames=\"8\"}}새내기야?{{fun_00010007 arg=\"\"}}\n{{anim id=\"15\"}}뭐? {{delay frames=\"16\"}}다른 마을에서 놀러 온{{delay frames=\"32\"}}\n{{delay frames=\"8\"}}・{{delay frames=\"8\"}}・{{delay frames=\"8\"}}・{{delay frames=\"8\"}}{{anim id=\"23\"}}{{fun_00080005 arg=\"\"}}{{fun_000E000E arg=\"0x040074C77CB702007CB7\"}}고?\n{{anim id=\"36\"}}낭만을 찾아 다른 마을로{{delay frames=\"16\"}}\n살짝 여행을 온 거야?{{delay frames=\"32\"}}\n{{anim id=\"35\"}}우후훗, {{delay frames=\"16\"}}내가 딱 맞혔지?\n{{anim id=\"37\"}}난 {{fun_00010005 arg=\"\"}}{{fun_000E000E arg=\"0x040074C77CC502007CC5\"}}{{delay frames=\"32\"}}\n잘 부탁해! {{delay frames=\"8\"}}{{fun_00080005 arg=\"\"}}!{{pageBreak}}{{anim id=\"9\"}}박스투성이라서 미안{{delay frames=\"8\"}}・{{delay frames=\"8\"}}・{{delay frames=\"8\"}}・{{delay frames=\"16\"}}\n집 안이 영 난잡하지{{delay frames=\"8\"}}・{{delay frames=\"8\"}}・{{delay frames=\"8\"}}・{{delay frames=\"8\"}}?{{delay frames=\"8\"}}"
  },
  {
    "label": "002",
    "text": "{{anim id=\"36\"}}뭐야～ {{delay frames=\"16\"}}{{fun_00050005 arg=\"\"}} 마을 사람들은{{delay frames=\"16\"}}\n원래 이렇게 무례해{{delay frames=\"8\"}}・{{delay frames=\"8\"}}・{{delay frames=\"8\"}}・{{delay frames=\"8\"}}?{{delay frames=\"8\"}}\n정리도 안 끝난 여자 집에 들어오다니～\n{{anim id=\"15\"}}뭐{{delay frames=\"8\"}}・{{delay frames=\"8\"}}・{{delay frames=\"8\"}}・{{delay frames=\"8\"}}?{{delay frames=\"8\"}}\n다른 마을에서 온{{delay frames=\"16\"}} {{fun_00080005 arg=\"\"}}?{{pageBreak}}{{anim id=\"37\"}}난 {{fun_00010005 arg=\"\"}}{{fun_000E000E arg=\"0x040074C77CC502007CC5\"}}{{delay frames=\"32\"}}\n이제 막 이 마을에 이사 온{{delay frames=\"16\"}}\n새내기지, {{delay frames=\"8\"}}{{fun_00070005 arg=\"\"}}\n{{anim id=\"9\"}}아직 {{delay frames=\"8\"}}손님을 대접할 만한\n상태가 아니라서 미안{{delay frames=\"8\"}}・{{delay frames=\"8\"}}・{{delay frames=\"8\"}}・{{delay frames=\"8\"}}"
  },
  {
    "label": "003",
    "text": "{{anim id=\"15\"}}어머! {{delay frames=\"16\"}}성질 한번 급하네{{delay frames=\"32\"}}\n{{anim id=\"36\"}}안 그래도 나중에 차분하게{{delay frames=\"16\"}}\n인사를 다 돌 텐데{{delay frames=\"4\"}}・{{delay frames=\"4\"}}・{{delay frames=\"4\"}}・{{delay frames=\"4\"}}\n{{anim id=\"0\"}}{{delay frames=\"8\"}}・{{delay frames=\"8\"}}・{{delay frames=\"8\"}}・{{delay frames=\"8\"}}{{anim id=\"23\"}}{{fun_00080005 arg=\"\"}}?{{delay frames=\"32\"}}\n당신은 이 마을 사람이 아니야?{{fun_00010007 arg=\"\"}}\n{{anim id=\"35\"}}혼자 여행 중인가 보구나{{delay frames=\"8\"}}・{{delay frames=\"8\"}}・{{delay frames=\"8\"}}・{{delay frames=\"8\"}}\n{{anim id=\"37\"}}인사가 좀 늦었네{{delay frames=\"16\"}}\n난 {{fun_00010005 arg=\"\"}}{{fun_000E000E arg=\"0x040074C77CC502007CC5\"}}{{delay frames=\"32\"}}\n잘 부탁해, {{delay frames=\"8\"}}{{fun_00080005 arg=\"\"}}"
  },
  {
    "label": "004",
    "text": "난 {{fun_00010005 arg=\"\"}}{{fun_000E000E arg=\"0x040074C77CB702007CB7\"}}고 해{{delay frames=\"32\"}}\n당신은{{delay frames=\"8\"}}・{{delay frames=\"8\"}}・{{delay frames=\"8\"}}・{{delay frames=\"8\"}} 이름이 뭐야?{{fun_00010007 arg=\"\"}}\n{{anim id=\"23\"}}{{fun_00080005 arg=\"\"}}?\n{{anim id=\"37\"}}그렇구나～ {{delay frames=\"16\"}}\n{{fun_00060005 arg=\"\"}} 마을에서 왔다구?{{delay frames=\"32\"}}\n먼 데서 오느라 고생이 많았겠어!"
  },
  {
    "label": "005",
    "text": "우리 초면이지?{{delay frames=\"32\"}}\n{{delay frames=\"8\"}}・{{delay frames=\"8\"}}・{{delay frames=\"8\"}}・{{delay frames=\"8\"}}{{fun_00060005 arg=\"\"}} 마을에서 온{{delay frames=\"16\"}}\n{{anim id=\"23\"}}{{fun_00080005 arg=\"\"}}?\n{{anim id=\"0\"}}정식으로 인사할게{{delay frames=\"8\"}}・{{delay frames=\"8\"}}・{{delay frames=\"8\"}}・{{delay frames=\"8\"}}\n{{anim id=\"37\"}}난 {{fun_00010005 arg=\"\"}}{{fun_000E000E arg=\"0x040074C77CB702007CB7\"}}고 해{{delay frames=\"32\"}}\n{{anim id=\"38\"}}잘 부탁해! {{delay frames=\"8\"}}{{fun_00080005 arg=\"\"}}!"
  },
  {
    "label": "006",
    "text": "{{anim id=\"37\"}}당신이구나?{{delay frames=\"32\"}}\n{{fun_00060005 arg=\"\"}} 마을에서 왔다는{{delay frames=\"8\"}}\n손님이{{delay frames=\"8\"}}・{{delay frames=\"8\"}}・{{delay frames=\"8\"}}・{{delay frames=\"8\"}}\n{{anim id=\"0\"}}{{delay frames=\"8\"}}・{{delay frames=\"8\"}}・{{delay frames=\"8\"}}・{{delay frames=\"8\"}}이름이 {{anim id=\"23\"}}{{fun_00080005 arg=\"\"}}{{fun_000E000E arg=\"0x040074C77CB702007CB7\"}}고?{{fun_00010007 arg=\"\"}}\n{{anim id=\"37\"}}난 {{fun_00010005 arg=\"\"}}{{fun_000E000E arg=\"0x040074C77CC502007CC5\"}}{{delay frames=\"32\"}}\n잘 부탁해! {{delay frames=\"8\"}}{{fun_00080005 arg=\"\"}}!"
  },
  {
    "label": "007",
    "text": "{{fun_00010009 arg=\"0x080009000A00\"}}"
  },
  {
    "label": "008",
    "text": "{{anim id=\"37\"}}고민거리가 생기면{{delay frames=\"16\"}}\n언제든 이야기 상대가 되어줄게!\n{{delay frames=\"8\"}}{{fun_00070005 arg=\"\"}}!"
  },
  {
    "label": "009",
    "text": "{{anim id=\"36\"}}대단한 낭만이\n있는 마을은 아니지만{{delay frames=\"32\"}}\n{{anim id=\"35\"}}{{fun_00050005 arg=\"\"}} 마을에 온 걸 환영해!"
  },
  {
    "label": "010",
    "text": "{{anim id=\"36\"}}낭만을 찾아{{delay frames=\"16\"}} 떠나온 것 같은\n얼굴을 하고 있는데? {{delay frames=\"16\"}}우후훗!"
  }
]