﻿[
  {
    "label": "001",
    "text": "{{fun_0004000D arg=\"0x03CD\"}}{{anim id=\"10\"}}{{delay frames=\"60\"}}난 정말 안 되나 봐{{delay frames=\"8\"}}・{{delay frames=\"8\"}}・{{delay frames=\"8\"}}・{{delay frames=\"8\"}}{{fun_0005000D arg=\"\"}}"
  },
  {
    "label": "002",
    "text": "{{fun_0004000D arg=\"0x03CD\"}}{{anim id=\"23\"}}위로해주는 거야?{{delay frames=\"32\"}}\n{{anim id=\"9\"}}미안하지만{{delay frames=\"16\"}} 지금은 그냥\n혼자 있게 해줘{{delay frames=\"8\"}}・{{delay frames=\"8\"}}・{{delay frames=\"8\"}}・{{delay frames=\"8\"}}{{fun_0005000D arg=\"\"}}"
  },
  {
    "label": "003",
    "text": "{{fun_0004000D arg=\"0x03CD\"}}{{anim id=\"6\"}}여자는 슬픔을 견디면서{{delay frames=\"16\"}}\n점점 강해지는 거야{{fun_00010007 arg=\"\"}}\n{{anim id=\"9\"}}그러니까 {{delay frames=\"16\"}}지금은 그냥 놔둬{{delay frames=\"8\"}}・{{delay frames=\"8\"}}・{{delay frames=\"8\"}}・{{delay frames=\"8\"}}{{fun_0005000D arg=\"\"}}"
  }
]