﻿[
  {
    "label": "001",
    "text": "{{anim id=\"16\"}}어머?{{delay frames=\"16\"}}\n너도 이 마을에 놀러 온 거야?{{delay frames=\"20\"}}\n{{anim id=\"1\"}}나도 그래!"
  },
  {
    "label": "002",
    "text": "{{i10_7 arg=\"0x0C000C000B000B000C000C00\"}}"
  },
  {
    "label": "003",
    "text": "{{i10_7 arg=\"0x0C000C000B000B000C000C00\"}}"
  },
  {
    "label": "004",
    "text": ""
  },
  {
    "label": "005",
    "text": ""
  },
  {
    "label": "006",
    "text": "{{fun_00030009 arg=\"0x0D000E000F0010001100\"}}"
  },
  {
    "label": "007",
    "text": "{{fun_00030009 arg=\"0x0D000E000F0010001100\"}}"
  },
  {
    "label": "008",
    "text": ""
  },
  {
    "label": "009",
    "text": ""
  },
  {
    "label": "011",
    "text": "{{anim id=\"38\"}}안녕!{{delay frames=\"20\"}}\n실례 좀 할게!{{delay frames=\"30\"}}\n{{anim id=\"37\"}}이 마을, 정말 멋진 곳이다!"
  },
  {
    "label": "012",
    "text": "{{anim id=\"16\"}}앗! 이 마을 사람이야?{{delay frames=\"30\"}}\n{{anim id=\"1\"}}실례 좀 할게ー!"
  },
  {
    "label": "013",
    "text": "{{anim id=\"21\"}}모처럼 자연 속에 있는 거잖아,{{delay frames=\"20\"}}\n{{anim id=\"5\"}}나도 민낯의 자연 그대로 모습으로{{delay frames=\"8\"}}\n릴랙스하고 있는 거야～{{anim id=\"37\"}}"
  },
  {
    "label": "014",
    "text": "{{anim id=\"1\"}}나, 평소에는{{delay frames=\"8\"}}\n해피홈 아카데미에서 일하고 있어!{{pageBreak}}{{anim id=\"21\"}}이 마을에 {{color id=\"4\"}}안심해씨{{color id=\"65535\"}}란 사람 온 적 없어?{{delay frames=\"40\"}}\n{{anim id=\"37\"}}{{color id=\"4\"}}안심해씨{{color id=\"65535\"}}, 내 삼촌이야～"
  },
  {
    "label": "015",
    "text": "오늘은 혼자서 캠핑하지만{{delay frames=\"20\"}}\n{{anim id=\"43\"}}언젠가는 {{color id=\"4\"}}켄트{{color id=\"65535\"}}와 함께{{delay frames=\"8\"}}・{{delay frames=\"8\"}}・{{delay frames=\"8\"}}・{{delay frames=\"20\"}}\n{{anim id=\"26\"}}꺅!"
  },
  {
    "label": "016",
    "text": "{{anim id=\"27\"}}요즘엔 매일같이 정말 바빴는데{{delay frames=\"20\"}}\n{{anim id=\"21\"}}오늘은 모처럼 얻은 휴가야～!{{pageBreak}}{{anim id=\"1\"}}우수한 신입이 들어온 덕분에{{delay frames=\"16\"}}\n드디어 쉴 기회가 생겼거든!"
  },
  {
    "label": "017",
    "text": "나 있잖아,{{delay frames=\"20\"}}\n{{anim id=\"1\"}}다양한 자격증을 따는 게{{delay frames=\"8\"}}\n취미야～\n{{fun_00010009 arg=\"0x120013001400\"}}"
  },
  {
    "label": "018",
    "text": "지금 생각하고 있는 건{{delay frames=\"16\"}}\n{{anim id=\"21\"}}벽지 시공 기능사 2급{{delay frames=\"8\"}} {{anim id=\"37\"}}자격증이야～"
  },
  {
    "label": "019",
    "text": "지금 생각하고 있는 건{{delay frames=\"16\"}}\n{{anim id=\"21\"}}웹 디자인 기능 검정 3급{{delay frames=\"8\"}} {{anim id=\"37\"}}자격증이야～"
  },
  {
    "label": "020",
    "text": "지금 생각하고 있는 건{{delay frames=\"16\"}}\n{{anim id=\"21\"}}야채 소믈리에{{delay frames=\"8\"}} {{anim id=\"37\"}}자격증이야～"
  }
]