﻿[
  {
    "label": "001",
    "text": "{{anim id=\"32\"}}나는 {{fun_00010005 arg=\"\"}}{{fun_000E000E arg=\"0x020074C70000\"}}야!{{delay frames=\"40\"}}\n{{anim id=\"6\"}}이 패널퐁 마을에{{delay frames=\"8\"}}\n새로운 바람을 일으키기 위해{{delay frames=\"8\"}}・{{delay frames=\"8\"}}・{{delay frames=\"8\"}}・\n{{anim id=\"33\"}}{{delay frames=\"16\"}}촌장 선거에 입후보하게 됐어!\n{{delay frames=\"8\"}}{{fun_00070005 arg=\"\"}}!"
  },
  {
    "label": "002",
    "text": "{{anim id=\"21\"}}내가 촌장이 된다면{{delay frames=\"16\"}}\n{{fun_00230005 arg=\"0x00CD\"}} 옷 착용을{{delay frames=\"8\"}}\n의무화할 생각이야!\n{{anim id=\"21\"}}그렇게 하면 이 마을은 하나가 될 수 있어!{{delay frames=\"30\"}}\n그래, 그런 기분이 들어! {{delay frames=\"8\"}}{{fun_00070005 arg=\"\"}}!"
  },
  {
    "label": "003",
    "text": "{{anim id=\"37\"}}그럼 마을 주민들에게{{delay frames=\"16\"}}\n내 뜨거운 마음을 전하고 올게!\n{{delay frames=\"8\"}}{{fun_00070005 arg=\"\"}}!\n{{anim id=\"32\"}}또 만나자! {{fun_00000005 arg=\"\"}}{{fun_0006000E arg=\"0x020070AD020091C5\"}}!{{delay frames=\"40\"}}\n{{anim id=\"35\"}}난 지지 않을 거야!"
  },
  {
    "label": "004",
    "text": "{{fun_00020007 arg=\"\"}}이 스테이지에는\n{{color id=\"2\"}}방해 블록{{color id=\"65535\"}}이 출현하며\n{{color id=\"2\"}}2분{{color id=\"65535\"}}의 제한 시간도 있습니다.{{fun_00030007 arg=\"\"}}{{delay frames=\"40\"}}"
  },
  {
    "label": "006",
    "text": "{{anim id=\"44\"}}기다렸지! {{delay frames=\"8\"}}{{fun_00000005 arg=\"\"}}{{fun_0006000E arg=\"0x020070AD020091C5\"}}!{{delay frames=\"16\"}}\n준비는 됐어?"
  },
  {
    "label": "007",
    "text": "{{anim id=\"6\"}}그럼{{delay frames=\"8\"}}・{{delay frames=\"8\"}}・{{delay frames=\"8\"}}・{{delay frames=\"20\"}}\n{{anim id=\"42\"}}렛츠 스타트!"
  },
  {
    "label": "008",
    "text": ""
  },
  {
    "label": "009",
    "text": ""
  },
  {
    "label": "011",
    "text": "{{anim id=\"41\"}}이런{{delay frames=\"8\"}}・{{delay frames=\"8\"}}・{{delay frames=\"8\"}}・{{delay frames=\"8\"}} 완패네!{{delay frames=\"16\"}}\n그대에겐 도저히 이길 수가 없겠어～"
  },
  {
    "label": "012",
    "text": "{{anim id=\"9\"}}나는 여기서 포기하지만{{delay frames=\"16\"}}\n{{fun_00000005 arg=\"\"}}{{fun_0006000E arg=\"0x020070AD020091C5\"}}의 활약을{{delay frames=\"8\"}}\n뒤에서 응원하고 있을게, {{delay frames=\"8\"}}{{fun_00070005 arg=\"\"}}!"
  },
  {
    "label": "013",
    "text": ""
  },
  {
    "label": "014",
    "text": ""
  },
  {
    "label": "016",
    "text": "{{anim id=\"36\"}}나의 승리인 것 같네!{{delay frames=\"16\"}}\n날 너무 미워하지 마, {{delay frames=\"8\"}}{{fun_00000005 arg=\"\"}}{{fun_0006000E arg=\"0x020070AD020091C5\"}}!"
  },
  {
    "label": "017",
    "text": "{{anim id=\"6\"}}촌장을 향한 그대의 마음이{{delay frames=\"8\"}}\n진심이라면{{delay frames=\"8\"}}・{{delay frames=\"8\"}}・{{delay frames=\"8\"}}・{{delay frames=\"8\"}}\n나는{{delay frames=\"16\"}}{{anim id=\"35\"}} 언제든 그대의 도전을 기다릴게!"
  },
  {
    "label": "018",
    "text": ""
  },
  {
    "label": "019",
    "text": ""
  }
]