﻿[
  {
    "label": "001",
    "text": "{{anim id=\"37\"}}후훗, {{delay frames=\"8\"}}\n{{fun_00080005 arg=\"\"}}{{fun_0006000E arg=\"0x020070AD020091C5\"}}이잖아～\n{{fun_0001000A arg=\"0x09000A00\"}}"
  },
  {
    "label": "002",
    "text": "{{anim id=\"32\"}}{{fun_00060007 arg=\"\"}}후훗, {{delay frames=\"8\"}}{{fun_00080005 arg=\"\"}}{{fun_0006000E arg=\"0x020070AD020091C5\"}}!{{fun_00070007 arg=\"\"}}"
  },
  {
    "label": "003",
    "text": "{{anim id=\"1\"}}후훗, {{delay frames=\"8\"}}잘 지내나? {{delay frames=\"8\"}}{{fun_00070005 arg=\"\"}}?"
  },
  {
    "label": "004",
    "text": "{{anim id=\"36\"}}후후후, {{delay frames=\"8\"}}{{fun_00080005 arg=\"\"}}{{fun_0006000E arg=\"0x020070AD020091C5\"}}은\n항상 활기차군～ {{delay frames=\"8\"}}{{fun_00070005 arg=\"\"}}"
  },
  {
    "label": "005",
    "text": "{{fun_0016000A arg=\"0x0207000200CD\"}}"
  },
  {
    "label": "006",
    "text": "{{fun_0016000A arg=\"0x0108000200CD\"}}"
  },
  {
    "label": "007",
    "text": "{{anim id=\"1\"}}후훗, {{delay frames=\"8\"}}대어는 낚았나?\n{{delay frames=\"8\"}}{{fun_00070005 arg=\"\"}}?"
  },
  {
    "label": "008",
    "text": "{{anim id=\"1\"}}후훗, {{delay frames=\"8\"}}곤충은 많이\n잡았나? {{delay frames=\"8\"}}{{fun_00070005 arg=\"\"}}?"
  },
  {
    "label": "009",
    "text": "{{anim id=\"1\"}}오늘은 우리 {{delay frames=\"16\"}}자주 만나는군,\n우후훗～ {{delay frames=\"8\"}}{{fun_00070005 arg=\"\"}}"
  },
  {
    "label": "010",
    "text": "{{anim id=\"35\"}}그대는 {{delay frames=\"8\"}}만날 때마다\n점점 아름다워지는군, {{delay frames=\"8\"}}{{fun_00070005 arg=\"\"}}"
  }
]