﻿[
  {
    "label": "001",
    "text": "{{anim id=\"15\"}}앗! {{delay frames=\"16\"}}그대도\n{{fun_00010011 arg=\"0x0000\"}}{{fun_0007000E arg=\"0x020070AD020091C5\"}}을 위해서\n온 거야?\n{{anim id=\"37\"}}하긴 생일 파티는 사람이 많을수록 좋지{{delay frames=\"32\"}}\n{{anim id=\"5\"}}같이 즐겁게 놀자!{{delay frames=\"8\"}}\n{{fun_00080005 arg=\"\"}}{{fun_0006000E arg=\"0x020070AD020091C5\"}}!"
  },
  {
    "label": "002",
    "text": "{{anim id=\"37\"}}아, {{delay frames=\"8\"}}{{fun_00080005 arg=\"\"}}{{fun_0006000E arg=\"0x020070AD020091C5\"}}{{delay frames=\"16\"}}\n그대도 축하해주러 온 거야?{{delay frames=\"32\"}}\n{{anim id=\"35\"}}{{fun_00010011 arg=\"0x0000\"}}{{fun_0007000E arg=\"0x020070AD020091C5\"}}의 생일 말이야\n{{anim id=\"5\"}}자, {{delay frames=\"16\"}}다 함께 뜨겁고{{delay frames=\"8\"}}\n정열적인 파티를 만들어보자!\n{{delay frames=\"8\"}}{{fun_00070005 arg=\"\"}}!"
  },
  {
    "label": "003",
    "text": "{{anim id=\"37\"}}후훗, {{fun_00080005 arg=\"\"}}{{fun_0006000E arg=\"0x020070AD020091C5\"}}{{delay frames=\"32\"}}\n그대도 {{fun_00010011 arg=\"0x0000\"}}{{fun_0007000E arg=\"0x020070AD020091C5\"}}을 위해서{{delay frames=\"16\"}}\n달려온 거야?\n{{anim id=\"6\"}}오늘은 {{fun_0007000E arg=\"0x0200F8AD0400F8AD40B1\"}}의 생일이니까,{{delay frames=\"32\"}}\n{{anim id=\"35\"}}{{fun_00010011 arg=\"0x0000\"}}{{fun_0007000E arg=\"0x020070AD020091C5\"}}을 위해{{delay frames=\"8\"}}\n신 나게 놀아보자구!"
  },
  {
    "label": "004",
    "text": "근데 {{delay frames=\"8\"}}{{fun_00010011 arg=\"0x0000\"}}{{fun_0007000E arg=\"0x020070AD020091C5\"}}한테{{delay frames=\"16\"}}\n선물은{{delay frames=\"16\"}}\n{{anim id=\"23\"}}전해줬어? {{delay frames=\"8\"}}{{fun_00070005 arg=\"\"}}?\n{{anim id=\"37\"}}나는 {{fun_0007000E arg=\"0x0200F8AD0400F8AD40B1\"}}를 위해서{{delay frames=\"16\"}}\n비장의 선물을 준비했지"
  },
  {
    "label": "005",
    "text": "혹시 줬어?{{delay frames=\"16\"}}\n{{fun_00010011 arg=\"0x0000\"}}{{fun_0007000E arg=\"0x020070AD020091C5\"}}의 생일 선물 말이야{{pageBreak}}{{anim id=\"37\"}}어떤 거든 상관없으니까{{delay frames=\"16\"}}\n뭔가 선물해봐!{{delay frames=\"32\"}}\n{{anim id=\"35\"}}{{fun_0007000E arg=\"0x0200F8AD0400F8AD40B1\"}}도 {{delay frames=\"8\"}}분명히 기뻐할 거야"
  },
  {
    "label": "006",
    "text": "나는 {{delay frames=\"8\"}}벌써\n{{fun_00010011 arg=\"0x0000\"}}{{fun_0007000E arg=\"0x020070AD020091C5\"}}에게{{delay frames=\"16\"}}\n선물을 건넸어, {{delay frames=\"8\"}}{{fun_00070005 arg=\"\"}}\n{{anim id=\"37\"}}{{fun_0007000E arg=\"0x0200F8AD0400F8AD40B1\"}}, {{delay frames=\"8\"}}많이 기뻐하더라{{delay frames=\"8\"}}・{{delay frames=\"8\"}}・{{delay frames=\"8\"}}・{{delay frames=\"32\"}}\n{{anim id=\"36\"}}나 몰래{{delay frames=\"16\"}}\n눈물을 훔치더라구"
  },
  {
    "label": "007",
    "text": "{{anim id=\"37\"}}생일 파티란 거 참 좋다{{delay frames=\"32\"}}\n사람들과 어울려 지내니까{{delay frames=\"16\"}}\n이렇게나 행복하구나"
  },
  {
    "label": "008",
    "text": "{{anim id=\"6\"}}정말 감사해{{delay frames=\"8\"}}・{{delay frames=\"8\"}}・{{delay frames=\"8\"}}・{{delay frames=\"8\"}}\n오늘 {{delay frames=\"8\"}}태어나준 {{fun_00010011 arg=\"0x0000\"}}{{fun_0007000E arg=\"0x020070AD020091C5\"}}과{{delay frames=\"16\"}}\n오늘 {{delay frames=\"32\"}}{{anim id=\"35\"}}축하해주러 온 그대에게!"
  },
  {
    "label": "009",
    "text": "{{anim id=\"36\"}}저렇게 좋아하는{{delay frames=\"16\"}}\n{{fun_00010011 arg=\"0x0000\"}}{{fun_0007000E arg=\"0x020070AD020091C5\"}}은{{delay frames=\"32\"}}\n처음 봐{{delay frames=\"8\"}}・{{delay frames=\"8\"}}・{{delay frames=\"8\"}}・{{delay frames=\"8\"}}\n{{anim id=\"37\"}}이게 다 그대 덕분이야,{{delay frames=\"16\"}}\n{{fun_00080005 arg=\"\"}}{{fun_0006000E arg=\"0x020070AD020091C5\"}}"
  },
  {
    "label": "010",
    "text": "{{fun_00010011 arg=\"0x0000\"}}{{fun_0007000E arg=\"0x020070AD020091C5\"}}{{delay frames=\"8\"}}・{{delay frames=\"8\"}}・{{delay frames=\"8\"}}・{{delay frames=\"32\"}}\n{{anim id=\"23\"}}엄청 기뻐하지? {{delay frames=\"8\"}}{{fun_00070005 arg=\"\"}}?{{pageBreak}}{{anim id=\"37\"}}뭘 줬는지는 모르겠지만{{delay frames=\"16\"}}\n분명히 그대의 마음은{{delay frames=\"16\"}}\n{{fun_0007000E arg=\"0x0200F8AD0400F8AD40B1\"}}에게 전해졌을 거야"
  },
  {
    "label": "011",
    "text": "{{anim id=\"4\"}}{{delay frames=\"16\"}}{{delay frames=\"8\"}}・{{delay frames=\"8\"}}・{{delay frames=\"8\"}}・{{delay frames=\"8\"}}어라? {{delay frames=\"16\"}}뭐지?{{delay frames=\"32\"}}\n이 느낌은{{delay frames=\"8\"}}・{{delay frames=\"8\"}}・{{delay frames=\"8\"}}・{{delay frames=\"8\"}}{{pageBreak}}{{anim id=\"36\"}}뭐라 표현할 수 없는\n{{delay frames=\"16\"}}오묘한 감정에 기분이 들뜨네,\n{{delay frames=\"8\"}}{{fun_00070005 arg=\"\"}}"
  },
  {
    "label": "012",
    "text": "{{anim id=\"15\"}}어라? {{delay frames=\"16\"}}우리 처음 보는 거지?{{delay frames=\"32\"}}\n{{delay frames=\"8\"}}・{{delay frames=\"8\"}}・{{delay frames=\"8\"}}・{{delay frames=\"8\"}}{{anim id=\"0\"}}아아, {{delay frames=\"16\"}}{{fun_00010011 arg=\"0x0000\"}}{{fun_0007000E arg=\"0x020070AD020091C5\"}}의 친구\n{{fun_00080005 arg=\"\"}}{{fun_0006000E arg=\"0x020070AD020091C5\"}}이구나?\n{{anim id=\"37\"}}나는 {{fun_00010005 arg=\"\"}}!{{fun_00010007 arg=\"\"}}\n{{fun_00010011 arg=\"0x0000\"}}{{fun_0007000E arg=\"0x020070AD020091C5\"}}하고는 친한 사이야{{delay frames=\"32\"}}\n{{anim id=\"36\"}}아, {{delay frames=\"16\"}}친구니까 당연한 건가?\n{{anim id=\"5\"}}자, {{delay frames=\"8\"}}인사는 이쯤 해 두고{{delay frames=\"16\"}}\n같이 {{fun_0007000E arg=\"0x0200F8AD0400F8AD40B1\"}}의 생일을\n축하해주자, {{delay frames=\"16\"}}{{fun_00080005 arg=\"\"}}{{fun_0006000E arg=\"0x020070AD020091C5\"}}!"
  },
  {
    "label": "013",
    "text": ""
  },
  {
    "label": "014",
    "text": "{{anim id=\"37\"}}생일 파티란 거 참 좋다{{delay frames=\"32\"}}\n사람들과 어울려 지내니까{{delay frames=\"16\"}}\n이렇게나 행복하구나"
  },
  {
    "label": "015",
    "text": "{{anim id=\"6\"}}정말 감사해{{delay frames=\"8\"}}・{{delay frames=\"8\"}}・{{delay frames=\"8\"}}・{{delay frames=\"8\"}}\n오늘 {{delay frames=\"8\"}}태어나준 {{fun_00010011 arg=\"0x0000\"}}{{fun_0007000E arg=\"0x020070AD020091C5\"}}과{{delay frames=\"16\"}}\n오늘 {{delay frames=\"32\"}}{{anim id=\"35\"}}축하해주러 온 그대에게!"
  },
  {
    "label": "016",
    "text": "{{anim id=\"36\"}}저렇게 좋아하는{{delay frames=\"16\"}}\n{{fun_00010011 arg=\"0x0000\"}}{{fun_0007000E arg=\"0x020070AD020091C5\"}}은{{delay frames=\"32\"}}\n처음 봐{{delay frames=\"8\"}}・{{delay frames=\"8\"}}・{{delay frames=\"8\"}}・{{delay frames=\"8\"}}\n{{anim id=\"37\"}}이게 다 그대 덕분이야,{{delay frames=\"16\"}}\n{{fun_00080005 arg=\"\"}}{{fun_0006000E arg=\"0x020070AD020091C5\"}}"
  },
  {
    "label": "017",
    "text": "{{anim id=\"21\"}}참고로 오늘은{{delay frames=\"16\"}}\n{{fun_00010011 arg=\"0x0100\"}}{{fun_0007000E arg=\"0x020070AD020091C5\"}}도 생일이야{{pageBreak}}{{anim id=\"9\"}}어디로 갈지 고민했지만{{delay frames=\"8\"}}・{{delay frames=\"8\"}}・{{delay frames=\"8\"}}・{{delay frames=\"20\"}}\n{{anim id=\"44\"}}나는 {{fun_00010011 arg=\"0x0000\"}}{{fun_0007000E arg=\"0x020070AD020091C5\"}}과의\n우정을 선택했어, {{delay frames=\"8\"}}{{fun_00070005 arg=\"\"}}!"
  },
  {
    "label": "018",
    "text": "{{anim id=\"37\"}}실은 오늘{{delay frames=\"16\"}}\n{{fun_00010011 arg=\"0x0100\"}}{{fun_0007000E arg=\"0x020070AD020091C5\"}}도 생일이야{{pageBreak}}{{anim id=\"1\"}}괜찮다면 {{fun_0007000E arg=\"0x0200F8AD0400F8AD40B1\"}}의 집에\n얼굴을 비쳐줬으면 좋겠어!{{delay frames=\"40\"}}\n{{anim id=\"21\"}}틀림없이 기뻐할 테니까, {{delay frames=\"8\"}}{{fun_00070005 arg=\"\"}}"
  }
]