﻿[
  {
    "label": "001",
    "text": "하지라는 건{{delay frames=\"16\"}}\n1년 중 낮이 가장 길고{{delay frames=\"8\"}}・{{delay frames=\"8\"}}・{{delay frames=\"8\"}}・{{delay frames=\"8\"}}\n밤이 가장 짧은 날이야\n이날을 시작으로{{delay frames=\"16\"}}\n무더운 여름이{{delay frames=\"16\"}}\n찾아온다는 말이지{{delay frames=\"8\"}}・{{delay frames=\"8\"}}・{{delay frames=\"8\"}}・{{delay frames=\"8\"}}\n{{anim id=\"35\"}}각오는 됐어?{{delay frames=\"16\"}}\n{{fun_00080005 arg=\"\"}}{{fun_0006000E arg=\"0x020070AD020091C5\"}}?"
  },
  {
    "label": "002",
    "text": "{{delay frames=\"8\"}}・{{delay frames=\"8\"}}・{{delay frames=\"8\"}}・{{delay frames=\"8\"}}오늘 {{delay frames=\"8\"}}태양이{{delay frames=\"16\"}}\n{{anim id=\"23\"}}지지 않는 이유?{{pageBreak}}{{anim id=\"36\"}}글쎄? {{delay frames=\"16\"}}태양이 나를{{delay frames=\"16\"}}\n질투하고 있는 것 아닐까?{{delay frames=\"32\"}}\n{{anim id=\"38\"}}하핫ー!"
  },
  {
    "label": "003",
    "text": "{{anim id=\"6\"}}오늘 밤 {{fun_00050005 arg=\"\"}} 마을은{{delay frames=\"16\"}}\n잠들지 않아{{delay frames=\"8\"}}・{{delay frames=\"8\"}}・{{delay frames=\"8\"}}・{{delay frames=\"8\"}}{{pageBreak}}{{anim id=\"39\"}}그러니까 {{delay frames=\"8\"}}오늘 밤 그대가{{delay frames=\"16\"}}\n잠이 오지 않는다면{{delay frames=\"16\"}}\n나의 곁에 놀러 와\n{{anim id=\"35\"}}함께 {{delay frames=\"8\"}}여러 이야기를 나누자구!{{delay frames=\"8\"}}\n{{fun_00080005 arg=\"\"}}{{fun_0006000E arg=\"0x020070AD020091C5\"}}!"
  },
  {
    "label": "004",
    "text": "{{anim id=\"6\"}}낮이 계속해서 이어지다니{{delay frames=\"16\"}}\n마치 꿈속에 있는 것 같아{{delay frames=\"8\"}}・{{delay frames=\"8\"}}・{{delay frames=\"8\"}}・{{delay frames=\"8\"}}{{pageBreak}}{{anim id=\"36\"}}이게 꿈이 맞다면{{delay frames=\"16\"}}\n내가 무슨 짓을 해도 상관없겠네?{{delay frames=\"32\"}}\n{{anim id=\"38\"}}하핫ー!"
  },
  {
    "label": "005",
    "text": "{{anim id=\"5\"}}들어봐, {{fun_00080005 arg=\"\"}}{{fun_0006000E arg=\"0x020070AD020091C5\"}}!{{delay frames=\"16\"}}\n멋진 프러포즈를{{delay frames=\"16\"}}\n생각해 냈어, {{delay frames=\"8\"}}{{fun_00070005 arg=\"\"}}!\n{{anim id=\"6\"}}그대는{{delay frames=\"8\"}}・{{delay frames=\"8\"}}・{{delay frames=\"8\"}}・{{delay frames=\"32\"}}\n{{anim id=\"35\"}}나의 지지 않는 태양이야!{{pageBreak}}{{anim id=\"37\"}}근데 오늘밖에 못 써먹겠네, {{delay frames=\"16\"}}후후훗{{fun_00010007 arg=\"\"}}\n{{anim id=\"11\"}}{{delay frames=\"16\"}}남은 건 상대방인데{{delay frames=\"8\"}}・{{delay frames=\"8\"}}・{{delay frames=\"8\"}}・{{delay frames=\"8\"}}"
  }
]