﻿[
  {
    "label": "001",
    "text": "{{anim id=\"37\"}}후후훗{{delay frames=\"4\"}}・{{delay frames=\"4\"}}・{{delay frames=\"4\"}}・{{delay frames=\"4\"}}\n그렇게 서두르지 않아도 돼,{{delay frames=\"16\"}}\n{{fun_00080005 arg=\"\"}}{{fun_0006000E arg=\"0x020070AD020091C5\"}}!"
  },
  {
    "label": "002",
    "text": "{{anim id=\"37\"}}다행이다{{delay frames=\"8\"}}・{{delay frames=\"8\"}}・{{delay frames=\"8\"}}・{{delay frames=\"8\"}}\n나랑 {{fun_00080005 arg=\"\"}}{{fun_0006000E arg=\"0x020070AD020091C5\"}} 말고도{{delay frames=\"16\"}}\n찬성해주는 사람들이 있었단 거네?\n{{anim id=\"0\"}}이걸로{{delay frames=\"8\"}}・{{delay frames=\"8\"}}・{{delay frames=\"8\"}}・{{delay frames=\"32\"}}\n{{anim id=\"35\"}}{{fun_00010012 arg=\"\"}} 실현에\n한 발자국 다가섰어!\n{{anim id=\"1\"}}고마워, {{fun_00080005 arg=\"\"}}{{fun_0006000E arg=\"0x020070AD020091C5\"}}!{{delay frames=\"16\"}}\n보답으로 이걸{{delay frames=\"16\"}}\n받아주지 않을래?"
  },
  {
    "label": "003",
    "text": "{{anim id=\"1\"}}그렇구나{{delay frames=\"8\"}}・{{delay frames=\"8\"}}・{{delay frames=\"8\"}}・{{delay frames=\"8\"}} 우리 말고도{{delay frames=\"16\"}}\n이해해주는 사람들이 있는 거네?{{pageBreak}}{{anim id=\"6\"}}좋았어～{{delay frames=\"16\"}} 이걸로{{delay frames=\"32\"}}\n{{anim id=\"21\"}}{{fun_00010012 arg=\"\"}}\n실현에 한 발 더 다가섰어!\n{{anim id=\"37\"}}고마워, {{fun_00080005 arg=\"\"}}{{fun_0006000E arg=\"0x020070AD020091C5\"}}!{{delay frames=\"16\"}}\n{{anim id=\"0\"}}보답이라고 하기엔 좀 그렇지만{{delay frames=\"16\"}}\n이걸 받아주지 않겠어?"
  },
  {
    "label": "004",
    "text": "{{anim id=\"10\"}}{{delay frames=\"60\"}}다행이다{{delay frames=\"4\"}}・{{delay frames=\"4\"}}・{{delay frames=\"4\"}}・{{delay frames=\"32\"}}\n{{anim id=\"36\"}}아무도 동참해주지 않을 줄\n알았어～ {{delay frames=\"8\"}}{{fun_00070005 arg=\"\"}}\n{{anim id=\"37\"}}음, {{delay frames=\"16\"}}서서히\n{{fun_00010012 arg=\"\"}}\n실현에 다가서고 있는 것 같아!\n{{anim id=\"1\"}}그대 덕분이야, {{delay frames=\"8\"}}{{fun_00080005 arg=\"\"}}{{fun_0006000E arg=\"0x020070AD020091C5\"}}!{{delay frames=\"32\"}}\n감사의 마음을 담아{{delay frames=\"16\"}}\n이걸 선물할게"
  },
  {
    "label": "005",
    "text": "{{fun_00030011 arg=\"0x0000\"}}{{fun_000E000E arg=\"0x020074C70000\"}}야{{pageBreak}}{{anim id=\"32\"}}앞으로도 계속해서{{delay frames=\"32\"}}\n{{fun_00010012 arg=\"\"}}{{fun_000E000E arg=\"0x020044C702007CB9\"}}\n응원해줘!"
  },
  {
    "label": "006",
    "text": "{{fun_00030011 arg=\"0x0000\"}}{{fun_000E000E arg=\"0x020074C70000\"}}야{{pageBreak}}{{anim id=\"6\"}}{{fun_00010012 arg=\"\"}}!{{delay frames=\"32\"}}\n{{anim id=\"43\"}}{{delay frames=\"16\"}}그대의 힘만 있으면{{delay frames=\"8\"}}・{{delay frames=\"8\"}}・{{delay frames=\"8\"}}・{{delay frames=\"8\"}}\n금방 실현될 것만 같아{{delay frames=\"8\"}}・{{delay frames=\"8\"}}・{{delay frames=\"8\"}}・{{delay frames=\"8\"}}"
  },
  {
    "label": "007",
    "text": "{{fun_00030011 arg=\"0x0000\"}}{{fun_000E000E arg=\"0x020074C70000\"}}야{{pageBreak}}{{anim id=\"6\"}}앞으로도 지켜봐줘{{delay frames=\"16\"}}\n우리의 꿈{{delay frames=\"8\"}}・{{delay frames=\"8\"}}・{{delay frames=\"8\"}}・{{delay frames=\"32\"}}\n{{anim id=\"35\"}}{{fun_00010012 arg=\"\"}} 실현을!"
  }
]