﻿[
  {
    "label": "001",
    "text": "{{anim id=\"11\"}}{{delay frames=\"16\"}}음{{delay frames=\"8\"}}・{{delay frames=\"8\"}}・{{delay frames=\"8\"}}・{{delay frames=\"32\"}}\n{{anim id=\"21\"}}올해의 {{fun_00010005 arg=\"\"}}{{fun_000E000E arg=\"0x020040C7020094B2\"}}{{delay frames=\"16\"}}\n댄스를 마스터하겠습니다!\n{{delay frames=\"8\"}}・{{delay frames=\"8\"}}・{{delay frames=\"8\"}}・{{delay frames=\"8\"}}{{anim id=\"15\"}}아, {{delay frames=\"8\"}}미안 미안!{{delay frames=\"32\"}}\n{{anim id=\"37\"}}올해 목표에 대해서{{delay frames=\"16\"}}\n답변을 연습하고 있었어\n{{anim id=\"36\"}}언제 어디에서 질문을 받아도{{delay frames=\"16\"}}\n문제없도록 말이야{{delay frames=\"8\"}}・{{delay frames=\"8\"}}・{{delay frames=\"8\"}}・{{delay frames=\"8\"}}"
  },
  {
    "label": "002",
    "text": "{{anim id=\"38\"}}해피 뉴 이어!{{delay frames=\"16\"}}\n올해도 잘 부탁해, {{delay frames=\"8\"}}{{fun_00070005 arg=\"\"}}!{{pageBreak}}{{anim id=\"5\"}}{{fun_00000004 arg=\"\"}}년에도 {{fun_00010005 arg=\"\"}}{{fun_000E000E arg=\"0x020040C7020094B2\"}}{{delay frames=\"16\"}}\n이 성격을 밀고 나가겠어～!{{fun_00010007 arg=\"\"}}\n{{anim id=\"35\"}}괜찮지? {{delay frames=\"8\"}}{{fun_00080005 arg=\"\"}}{{fun_0006000E arg=\"0x020070AD020091C5\"}}?"
  },
  {
    "label": "003",
    "text": "{{anim id=\"5\"}}새해 복 많이 받아!{{delay frames=\"8\"}}\n{{fun_00080005 arg=\"\"}}{{fun_0006000E arg=\"0x020070AD020091C5\"}}!{{pageBreak}}{{anim id=\"36\"}}올해엔 좀 더 그대와{{delay frames=\"16\"}}\n지내는 시간을 늘려볼까?{{delay frames=\"32\"}}\n{{anim id=\"38\"}}하핫ー!"
  },
  {
    "label": "004",
    "text": "{{anim id=\"15\"}}어라, {{delay frames=\"8\"}}{{fun_00080005 arg=\"\"}}{{fun_0006000E arg=\"0x020070AD020091C5\"}}!{{delay frames=\"32\"}}\n{{anim id=\"0\"}}아직 새해 인사도 못 했었네?\n{{delay frames=\"8\"}}{{fun_00070005 arg=\"\"}}?\n{{anim id=\"5\"}}해피 뉴 이어!{{delay frames=\"8\"}}\n{{fun_00080005 arg=\"\"}}{{fun_0006000E arg=\"0x020070AD020091C5\"}}!{{delay frames=\"32\"}}\n올해도 잘 부탁해!\n{{anim id=\"36\"}}올해는 그대와 함께{{delay frames=\"16\"}}\n느긋하게 보내고 싶다{{delay frames=\"32\"}}\n{{anim id=\"38\"}}하핫ー!"
  },
  {
    "label": "005",
    "text": "{{anim id=\"32\"}}후훗, {{delay frames=\"8\"}}{{fun_00080005 arg=\"\"}}{{fun_0006000E arg=\"0x020070AD020091C5\"}}!{{delay frames=\"32\"}}\n{{anim id=\"1\"}}새해 복 많이 받아!{{delay frames=\"16\"}}\n그리고 올해도 잘 부탁해!\n{{anim id=\"15\"}}응? {{delay frames=\"16\"}}올해 내 포부?{{fun_00010007 arg=\"\"}}\n{{anim id=\"11\"}}{{delay frames=\"16\"}}글쎄～ {{delay frames=\"16\"}}톱 여배우와{{delay frames=\"8\"}}\n사귀는 것? {{delay frames=\"32\"}}{{anim id=\"38\"}}하핫ー!"
  }
]