﻿[
  {
    "label": "001",
    "text": ""
  },
  {
    "label": "002",
    "text": "{{fun_001F000A arg=\"0x000B000B000C000C000C000C000D000D000D000E000E000F00CD\"}}"
  },
  {
    "label": "003",
    "text": "{{fun_001F000A arg=\"0x00110011001200120012001200130013001300140014001500CD\"}}"
  },
  {
    "label": "004",
    "text": ""
  },
  {
    "label": "005",
    "text": ""
  },
  {
    "label": "006",
    "text": ""
  },
  {
    "label": "007",
    "text": ""
  },
  {
    "label": "008",
    "text": ""
  },
  {
    "label": "009",
    "text": ""
  },
  {
    "label": "010",
    "text": ""
  },
  {
    "label": "011",
    "text": "{{anim id=\"9\"}}{{fun_00080005 arg=\"\"}}{{fun_0006000E arg=\"0x020070AD020091C5\"}}{{delay frames=\"8\"}}・{{delay frames=\"8\"}}・{{delay frames=\"8\"}}・{{delay frames=\"8\"}}\n이대로라면 이 물고기 전시실은{{delay frames=\"16\"}}\n문을 닫을지도 몰라{{delay frames=\"8\"}}・{{delay frames=\"8\"}}・{{delay frames=\"8\"}}・\n{{anim id=\"11\"}}{{delay frames=\"16\"}}물고기를 전시하는 곳인데{{delay frames=\"16\"}}\n물고기가 거의\n안 보이잖아{{delay frames=\"8\"}}・{{delay frames=\"8\"}}・{{delay frames=\"8\"}}・"
  },
  {
    "label": "012",
    "text": "{{anim id=\"6\"}}아직 우리가 만나지 못한{{delay frames=\"16\"}}\n미지의 물고기가 {{delay frames=\"16\"}}이 마을에는\n꽤 많을 거야, {{delay frames=\"8\"}}{{fun_00080005 arg=\"\"}}{{fun_0006000E arg=\"0x020070AD020091C5\"}}"
  },
  {
    "label": "013",
    "text": "{{anim id=\"4\"}}{{delay frames=\"16\"}}로맨틱하다, {{delay frames=\"8\"}}{{fun_00080005 arg=\"\"}}{{fun_0006000E arg=\"0x020070AD020091C5\"}}{{delay frames=\"32\"}}\n유리 벽 너머로 보이는 물고기 말이야{{delay frames=\"8\"}}・{{delay frames=\"8\"}}・{{delay frames=\"8\"}}・{{delay frames=\"8\"}}"
  },
  {
    "label": "014",
    "text": "{{anim id=\"43\"}}{{delay frames=\"16\"}}이 많은 물고기들과 어울려서{{delay frames=\"16\"}}\n나도 헤엄치고 싶다～{{delay frames=\"32\"}}\n자연 그대로의 모습으로{{delay frames=\"8\"}}・{{delay frames=\"8\"}}・{{delay frames=\"8\"}}・{{delay frames=\"8\"}}"
  },
  {
    "label": "015",
    "text": "{{anim id=\"39\"}}내가 이 마을의 주민이라니{{delay frames=\"16\"}}\n난 정말 행운아야,{{delay frames=\"8\"}}\n{{fun_00080005 arg=\"\"}}{{fun_0006000E arg=\"0x020070AD020091C5\"}}\n{{anim id=\"37\"}}여기에 오면 {{delay frames=\"8\"}}모든\n물고기와 해산물을{{delay frames=\"16\"}}\n만날 수 있거든{{delay frames=\"8\"}}・{{delay frames=\"8\"}}・{{delay frames=\"8\"}}・"
  },
  {
    "label": "016",
    "text": ""
  },
  {
    "label": "017",
    "text": "{{anim id=\"13\"}}자, 잠깐 기다려봐!{{delay frames=\"32\"}}\n여기는 관계자 외 {{delay frames=\"16\"}}출입 금지야!{{delay frames=\"8\"}}\n{{fun_00080005 arg=\"\"}}{{fun_0006000E arg=\"0x020070AD020091C5\"}}!\n{{anim id=\"11\"}}{{delay frames=\"16\"}}준비 중이랄까{{delay frames=\"8\"}}・{{delay frames=\"8\"}}・{{delay frames=\"8\"}}・{{delay frames=\"8\"}}\n아직 물고기가 {{delay frames=\"16\"}}별로 없거든{{delay frames=\"32\"}}\n{{anim id=\"38\"}}하핫ー!"
  },
  {
    "label": "018",
    "text": "{{anim id=\"36\"}}이래 봬도 처음과 비교하면{{delay frames=\"16\"}}\n여기도 꽤{{delay frames=\"16\"}} 수족관다워진 거라구"
  },
  {
    "label": "019",
    "text": "{{anim id=\"16\"}}저것 봐, {{delay frames=\"8\"}}{{fun_00080005 arg=\"\"}}{{fun_0006000E arg=\"0x020070AD020091C5\"}}!{{delay frames=\"32\"}}\n{{anim id=\"37\"}}저기 저 물고기{{delay frames=\"8\"}}・{{delay frames=\"8\"}}・{{delay frames=\"8\"}}・{{delay frames=\"8\"}}\n{{fun_00220005 arg=\"0x00CD\"}}{{fun_0007000E arg=\"0x020070AD020091C5\"}}하고 닮았어"
  },
  {
    "label": "020",
    "text": "{{anim id=\"16\"}}저것 봐, {{delay frames=\"8\"}}{{fun_00080005 arg=\"\"}}{{fun_0006000E arg=\"0x020070AD020091C5\"}}!{{delay frames=\"32\"}}\n{{anim id=\"37\"}}물고기가 여길 보고 있어!{{delay frames=\"32\"}}\n{{anim id=\"35\"}}날 보는 건가?"
  },
  {
    "label": "021",
    "text": "어때, {{delay frames=\"8\"}}{{anim id=\"23\"}}{{fun_00080005 arg=\"\"}}{{fun_0006000E arg=\"0x020070AD020091C5\"}}?{{pageBreak}}{{anim id=\"1\"}}이 물고기 전시실엔{{delay frames=\"8\"}}\n모든 물고기와 해산물이{{delay frames=\"8\"}}\n모여 있어!\n{{anim id=\"26\"}}{{delay frames=\"16\"}}이렇게나 많은 물고기와{{delay frames=\"16\"}}\n해산물을 보고 있자니{{delay frames=\"16\"}}\n가슴이 터질 것 같아～{{delay frames=\"8\"}}・{{delay frames=\"8\"}}・{{delay frames=\"8\"}}・"
  }
]