﻿[
  {
    "label": "001",
    "text": ""
  },
  {
    "label": "002",
    "text": "{{anim id=\"5\"}}그럼 {{delay frames=\"8\"}}시작한다～!\n\n{{fun_00090007 arg=\"0x5A000000\"}}\n{{anim id=\"15\"}}아차, {{delay frames=\"16\"}}그 전에\n규칙을 설명해야지! {{delay frames=\"8\"}}{{fun_00070005 arg=\"\"}}!{{pageBreak}}{{anim id=\"0\"}}내가 「참참～」이라고 하면{{delay frames=\"16\"}}\n을 눌러서{{delay frames=\"16\"}} 방향을 정해줘{{pageBreak}}{{anim id=\"37\"}}그래서 {{delay frames=\"8\"}}그대가 나랑{{delay frames=\"16\"}}\n같은 방향을 보면{{delay frames=\"16\"}}\n그대의 승리야, {{delay frames=\"8\"}}{{fun_00070005 arg=\"\"}}!\n{{anim id=\"6\"}}찬스는 3번!{{delay frames=\"32\"}}\n위냐 {{delay frames=\"8\"}}아래냐 {{delay frames=\"8\"}}오른쪽이냐 {{delay frames=\"8\"}}왼쪽이냐{{delay frames=\"8\"}}・{{delay frames=\"8\"}}・{{delay frames=\"8\"}}・{{delay frames=\"32\"}}\n{{anim id=\"35\"}}내 마음을 {{delay frames=\"16\"}}읽을 수 있겠어?\n{{anim id=\"5\"}}그럼 진짜 {{delay frames=\"8\"}}시작한다～!"
  },
  {
    "label": "003",
    "text": ""
  },
  {
    "label": "004",
    "text": "참참～{{fun_00090007 arg=\"0x14000000\"}}"
  },
  {
    "label": "005",
    "text": "\n{{fun_000A0007 arg=\"\"}}{{size value=\"200\"}}참!{{size value=\"100\"}}"
  },
  {
    "label": "006",
    "text": "{{anim id=\"16\"}}앗! {{delay frames=\"32\"}}{{anim id=\"36\"}}우리 지금{{delay frames=\"16\"}}\n같은 방향을 보고 있네{{delay frames=\"8\"}}・{{delay frames=\"8\"}}・{{delay frames=\"8\"}}・{{delay frames=\"8\"}}"
  },
  {
    "label": "007",
    "text": "{{anim id=\"36\"}}후후훗{{delay frames=\"8\"}}・{{delay frames=\"8\"}}・{{delay frames=\"8\"}}・{{delay frames=\"8\"}} 다른 방향이네?{{delay frames=\"32\"}}\n포기하긴 아직 일러!{{delay frames=\"32\"}}\n{{anim id=\"5\"}}한 번 더!"
  },
  {
    "label": "008",
    "text": "{{anim id=\"15\"}}이런{{delay frames=\"4\"}}・{{delay frames=\"4\"}}・{{delay frames=\"4\"}}・{{delay frames=\"4\"}} 이번에도 다른 방향이네?{{delay frames=\"32\"}}\n{{anim id=\"6\"}}다음이 마지막 찬스야!{{delay frames=\"32\"}}\n{{anim id=\"5\"}}그럼 {{delay frames=\"8\"}}간다～!"
  },
  {
    "label": "009",
    "text": "{{anim id=\"36\"}}마지막 찬스도{{delay frames=\"16\"}}\n놓쳐 버렸구나{{delay frames=\"8\"}}・{{delay frames=\"8\"}}・{{delay frames=\"8\"}}・{{delay frames=\"8\"}}"
  },
  {
    "label": "010",
    "text": "{{anim id=\"37\"}}그대 승리야!{{delay frames=\"32\"}}\n잘하네, {{delay frames=\"8\"}}{{fun_00070005 arg=\"\"}}!"
  },
  {
    "label": "011",
    "text": "{{anim id=\"36\"}}내가 졌어!{{delay frames=\"32\"}}\n잘하는구나 그대{{delay frames=\"8\"}}・{{delay frames=\"8\"}}・{{delay frames=\"8\"}}・{{delay frames=\"8\"}}"
  },
  {
    "label": "012",
    "text": "{{anim id=\"37\"}}아쉽겠지만 {{delay frames=\"15\"}}그대가 졌어!\n{{delay frames=\"8\"}}{{fun_00070005 arg=\"\"}}!"
  },
  {
    "label": "013",
    "text": "{{anim id=\"36\"}}승리의 여신은{{delay frames=\"16\"}}\n나를 향해 웃어주는군,\n{{delay frames=\"8\"}}{{fun_00070005 arg=\"\"}}\n{{anim id=\"37\"}}그치만 {{delay frames=\"8\"}}다음엔 어떻게 될지 모르잖아?{{delay frames=\"32\"}}\n승부란 그런 거야"
  }
]