﻿[
  {
    "label": "001",
    "text": "This is the birthday present\nI couldn't give you before.\nI just know you're gonna like\nit. I spent almost 10 minutes\npicking it out and another\n30 wrapping it."
  },
  {
    "label": "002",
    "text": "I'm sending you the birthday\npresent I couldn't give\nyou earlier. I sure hope you\nget this letter and it's not\nreturned to me. The post\noffice is a long walk away!"
  },
  {
    "label": "003",
    "text": "I had a present lying around\nmy house, and I didn't know\nwhere it came from. Then I\nrealized it was your birthday\npresent! I decided to mail it\nnow so I don't forget again."
  }
]