﻿[
  {
    "label": "001",
    "text": "I never expected to receive\nsuch a fiery letter from you.\nLetter writing is a classic\nskill, after all! So thanks for\npushing yourself so hard for\nme. Here's a little thank-you."
  },
  {
    "label": "002",
    "text": "That long letter you sent me\nmade me more emotional\nthan I've been in years. I feel\ncompletely rejuvenated! So\nplease accept this gift as a\ntoken of my appreciation."
  },
  {
    "label": "003",
    "text": "I didn't know you had it in\nyou to write an emotional\nletter like that! Seeing such\na triumph made me...really\nhappy somehow. You'll find\nall my thanks in this present."
  },
  {
    "label": "004",
    "text": "After reading that emotional\nletter you sent, I think that I\nunderstand you better. Now\nI want to try my best, as you\ndo! All this energy makes me\nfeel like a schoolgirl again..."
  },
  {
    "label": "005",
    "text": "That long letter from you\ndefinitely gave me something\nto think about. Who would\nhave thought that one day\nYOU would be teaching ME!\nWhat a valuable lesson..."
  },
  {
    "label": "006",
    "text": "Since you can say things in a\nletter you can't say out loud,\nit was the perfect medium\nfor expressing your deepest\nthoughts. I had no idea YOU\nhad deep thoughts, though!"
  }
]