﻿[
  {
    "label": "001",
    "text": "Happy Valentine's Day!\nToday you show the most-\nimportant people in your life\nhow special they are, right?\nThat's why I'm giving my\nsweet heart to you. Enjoy! "
  },
  {
    "label": "002",
    "text": "Happy Valentine's Day! \nYou've always been such a\ngreat friend to me, so this\nspecial chocolate is a thank-\nyou just for you! I hope you\nfeel the same way! "
  },
  {
    "label": "003",
    "text": " Happy Valentine's Day! \nIn honor of this special day,\nI made my favorite person...\nthis chocolate! That means\nYOU are my favorite, of\ncourse! I hope you like it!"
  },
  {
    "label": "004",
    "text": " Happy Valentine's Day! \nToday you're supposed to\ntell people you're close to\nhow great they are! So this\npresent is my way of saying\nthank you for being so great!"
  },
  {
    "label": "005",
    "text": "Happy Valentine's Day! \nYou must already know how\nI feel about you, but in case\nyou don't, all my feelings are\nin this present! You'll know\nwhat I mean when you see it!"
  },
  {
    "label": "006",
    "text": "Happy Valentine's Day! \nToday, to express how much\nour friendship means to me,\nI'm sending you this present!\nPlease stay my fan forever\nand give me your support!"
  },
  {
    "label": "007",
    "text": "Happy Valentine's Day!\nI just wanted to say thanks\nfor everything you've done\nfor me since we first met. \nPlease accept this present\nfrom me on this special day!"
  },
  {
    "label": "008",
    "text": "It's Valentine's Day! \nI was thinking how great it'd\nbe if we became even better\nfriends. This gift represents\nthat...or something! I hope\nyou'll happily accept it!"
  },
  {
    "label": "009",
    "text": "Today's Valentine's Day!\nYou were hoping to see this\nletter sitting in your mailbox,\nweren't you? Of course I'd\nsend you a gift today! \nI hope you really like it!"
  }
]