﻿[
  {
    "label": "001",
    "text": "That was some of the best\nSanta-ing I've ever seen!\nI'll be counting on you next\nyear too! I'm sending you\na little something special so\nyou won't forget about me!"
  }
]