﻿[
  {
    "label": "001",
    "text": "Happy Valentine's Day! Let\nme express the affection I\nfeel for precious you! Here's\nmy proof: I waited in line for\nover three hours to get this\nchocolate. Please accept it!"
  },
  {
    "label": "002",
    "text": "Happy Valentine's Day! As I\nstayed up all night making\nthis treat, I thought only of\nyou. That's why the flavor is\nextraordinary! Being up late\nis bad for your skin, though."
  },
  {
    "label": "003",
    "text": "Happy Valentine's Day!\nIt's the day to tell the most\nimportant person in your life\nhow you feel. It's as if this\nday was made just for me...\nPlease accept this treat!"
  },
  {
    "label": "004",
    "text": "Have you sent a present to\nyour dearest friend yet? Of\ncourse, this beautiful flower\nrepresenting my warmest\nfeelings is meant just for\nyou! Happy Valentine's Day!"
  },
  {
    "label": "005",
    "text": "Happy Valentine's Day! Has\nthinking about your most\nprecious friend been making\nyour heart ache? I so totally\nunderstand! I've been feeling\nthe same thing for days!"
  },
  {
    "label": "006",
    "text": "I want to tell you how I feel,\nmy dear friend. Or rather,\nthis pen will tell you for me.\nI know I'm usually pretty\nsecretive with my feelings,\nbut happy Valentine's Day!"
  },
  {
    "label": "007",
    "text": "How many are sending you\npresents today? I don't want\nto be forgotten, one among\na crowd. Remember, I will\nalways be by your side!\nHappy Valentine's Day!"
  },
  {
    "label": "008",
    "text": "I've been overwhelmed by a\npile of presents from girls\ntoday. I'm not complaining,\nthough! But I feel like giving\na gift to you. It seems right.\nHappy Valentine's Day!"
  },
  {
    "label": "009",
    "text": "Happy Valentine's Day!\nI wouldn't mind if every day\nwas Valentine's Day. Then I\ncould exchange presents and\nfeelings with my friends all\nthe time. It'd be the best!"
  }
]