﻿[
  {
    "label": "001",
    "text": "Ti aspetto. {{fun_00010005 arg=\"\"}}"
  },
  {
    "label": "002",
    "text": "Ci conto! {{fun_00010005 arg=\"\"}}"
  },
  {
    "label": "003",
    "text": "{{fun_00010005 arg=\"\"}}"
  },
  {
    "label": "004",
    "text": "Con affetto, {{fun_00010005 arg=\"\"}}"
  },
  {
    "label": "005",
    "text": "Il tuo amico {{fun_00010005 arg=\"\"}}"
  },
  {
    "label": "006",
    "text": "Tuo, {{fun_00010005 arg=\"\"}}"
  },
  {
    "label": "007",
    "text": "Grazie! {{fun_00010005 arg=\"\"}}"
  },
  {
    "label": "008",
    "text": "Con amicizia, {{fun_00010005 arg=\"\"}}"
  },
  {
    "label": "009",
    "text": "Ci vediamo. {{fun_00010005 arg=\"\"}}"
  }
]