﻿[
  {
    "label": "001",
    "text": "Gracias por la carta.\n¡Y por el regalo!\n"
  },
  {
    "label": "002",
    "text": "No me esperaba tu regalo.\n¡Muchas gracias!\n"
  },
  {
    "label": "003",
    "text": "Recibir un regalo tuyo me\nha alegrado el día. ¡Gracias!\n"
  },
  {
    "label": "004",
    "text": "¡Puedes hacerme regalos\nsiempre que quieras!\n"
  },
  {
    "label": "005",
    "text": "¡Gracias por duplicado,\npor la carta y el regalo!\n"
  }
]