﻿[
  {
    "label": "001",
    "text": "モダンな{{ruby charSpan=\"2\" value=\"こうばん\"}}交番"
  },
  {
    "label": "002",
    "text": "クラシックな{{ruby charSpan=\"2\" value=\"こうばん\"}}交番"
  },
  {
    "label": "003",
    "text": "カフェ"
  },
  {
    "label": "004",
    "text": "リセット{{ruby charSpan=\"2\" value=\"かんし\"}}監視センター"
  },
  {
    "label": "005",
    "text": "{{ruby charSpan=\"2\" value=\"やくば\"}}役場の{{ruby charSpan=\"2\" value=\"かいちく\"}}改築"
  },
  {
    "label": "006",
    "text": "{{ruby charSpan=\"1\" value=\"えき\"}}駅の{{ruby charSpan=\"2\" value=\"かいちく\"}}改築"
  },
  {
    "label": "007",
    "text": "{{ruby charSpan=\"2\" value=\"ゆめみ\"}}夢見の{{ruby charSpan=\"1\" value=\"やかた\"}}館"
  },
  {
    "label": "008",
    "text": "{{ruby charSpan=\"3\" value=\"はくぶつかん\"}}博物館の{{ruby charSpan=\"2\" value=\"かいちく\"}}改築"
  },
  {
    "label": "009",
    "text": "{{ruby charSpan=\"1\" value=\"いし\"}}石づくりの{{ruby charSpan=\"1\" value=\"はし\"}}橋"
  },
  {
    "label": "010",
    "text": "レンガの{{ruby charSpan=\"1\" value=\"はし\"}}橋"
  },
  {
    "label": "011",
    "text": "{{ruby charSpan=\"2\" value=\"わふう\"}}和風な{{ruby charSpan=\"1\" value=\"はし\"}}橋"
  },
  {
    "label": "012",
    "text": "つり{{ruby charSpan=\"1\" value=\"ばし\"}}橋"
  },
  {
    "label": "013",
    "text": "メルヘンな{{ruby charSpan=\"1\" value=\"はし\"}}橋"
  },
  {
    "label": "014",
    "text": "モダンな{{ruby charSpan=\"1\" value=\"はし\"}}橋"
  },
  {
    "label": "015",
    "text": "{{ruby charSpan=\"2\" value=\"こうえん\"}}公園のベンチ"
  },
  {
    "label": "016",
    "text": "{{ruby charSpan=\"2\" value=\"がいとう\"}}外灯"
  },
  {
    "label": "017",
    "text": "{{ruby charSpan=\"3\" value=\"ひゃくようばこ\"}}百葉箱"
  },
  {
    "label": "018",
    "text": "{{ruby charSpan=\"2\" value=\"とうだい\"}}灯台"
  },
  {
    "label": "019",
    "text": "バルーンアーチ"
  },
  {
    "label": "020",
    "text": "{{ruby charSpan=\"2\" value=\"とけい\"}}時計"
  },
  {
    "label": "021",
    "text": "{{ruby charSpan=\"2\" value=\"みずの\"}}水飲み{{ruby charSpan=\"1\" value=\"ば\"}}場"
  },
  {
    "label": "022",
    "text": "たいまつ"
  },
  {
    "label": "023",
    "text": "かかし"
  },
  {
    "label": "024",
    "text": "スフィンクス"
  },
  {
    "label": "025",
    "text": "トーテムポール"
  },
  {
    "label": "026",
    "text": "パラボラアンテナ"
  },
  {
    "label": "027",
    "text": "モアイ{{ruby charSpan=\"1\" value=\"ぞう\"}}像"
  },
  {
    "label": "028",
    "text": "{{ruby charSpan=\"3\" value=\"しょうかせん\"}}消火栓"
  },
  {
    "label": "029",
    "text": "ストーンヘンジ"
  },
  {
    "label": "030",
    "text": "{{ruby charSpan=\"2\" value=\"いど\"}}井戸"
  },
  {
    "label": "031",
    "text": "タイヤの{{ruby charSpan=\"2\" value=\"ゆうぐ\"}}遊具"
  },
  {
    "label": "032",
    "text": "ピラミッド"
  },
  {
    "label": "033",
    "text": "{{ruby charSpan=\"2\" value=\"せきひ\"}}石碑"
  },
  {
    "label": "034",
    "text": "ベッド"
  },
  {
    "label": "035",
    "text": ""
  },
  {
    "label": "036",
    "text": "ゴミ{{ruby charSpan=\"1\" value=\"ばこ\"}}箱"
  },
  {
    "label": "037",
    "text": "マイデザイン{{ruby charSpan=\"2\" value=\"かんばん\"}}看板"
  },
  {
    "label": "038",
    "text": "{{ruby charSpan=\"3\" value=\"かんけつせん\"}}間欠泉"
  },
  {
    "label": "039",
    "text": "{{ruby charSpan=\"2\" value=\"どかん\"}}土管"
  },
  {
    "label": "040",
    "text": "{{ruby charSpan=\"2\" value=\"かおだ\"}}顔出し{{ruby charSpan=\"2\" value=\"かんばん\"}}看板"
  },
  {
    "label": "041",
    "text": "{{ruby charSpan=\"4\" value=\"ふうりょくはつでん\"}}風力発電"
  },
  {
    "label": "042",
    "text": "{{ruby charSpan=\"2\" value=\"ふうしゃ\"}}風車"
  },
  {
    "label": "043",
    "text": "キャンプファイア"
  },
  {
    "label": "044",
    "text": "かだん"
  },
  {
    "label": "045",
    "text": "ソーラーパネル"
  },
  {
    "label": "046",
    "text": "プラスチックのベンチ"
  },
  {
    "label": "047",
    "text": "しらきのベンチ"
  },
  {
    "label": "048",
    "text": "きんぞくのベンチ"
  },
  {
    "label": "049",
    "text": "ふんすい"
  },
  {
    "label": "050",
    "text": "めがみぞう"
  },
  {
    "label": "051",
    "text": "{{ruby charSpan=\"2\" value=\"おんせん\"}}温泉"
  },
  {
    "label": "052",
    "text": "{{ruby charSpan=\"3\" value=\"しんごうき\"}}信号機"
  },
  {
    "label": "053",
    "text": "ガーデンチェア"
  },
  {
    "label": "054",
    "text": "アウトドアベッド"
  },
  {
    "label": "055",
    "text": "グローブジャングル"
  },
  {
    "label": "056",
    "text": "レトロな{{ruby charSpan=\"2\" value=\"がいとう\"}}外灯"
  },
  {
    "label": "057",
    "text": "まるい{{ruby charSpan=\"2\" value=\"がいとう\"}}外灯"
  },
  {
    "label": "058",
    "text": "スタジアムのライト"
  },
  {
    "label": "059",
    "text": "{{ruby charSpan=\"2\" value=\"すなば\"}}砂場"
  },
  {
    "label": "060",
    "text": "かれさんすい"
  },
  {
    "label": "061",
    "text": "{{ruby charSpan=\"3\" value=\"はなどけい\"}}花時計"
  },
  {
    "label": "062",
    "text": "{{ruby charSpan=\"2\" value=\"おおがた\"}}大型モニター"
  },
  {
    "label": "063",
    "text": "ハンモック"
  },
  {
    "label": "064",
    "text": "キャンプ{{ruby charSpan=\"1\" value=\"じょう\"}}場"
  },
  {
    "label": "065",
    "text": "ハートなイルミネーション"
  },
  {
    "label": "066",
    "text": "イルミネーションなアーチ"
  },
  {
    "label": "067",
    "text": "イルミネーションな{{ruby charSpan=\"2\" value=\"とけい\"}}時計"
  },
  {
    "label": "068",
    "text": "イルミネーションなタワー"
  },
  {
    "label": "069",
    "text": "{{ruby charSpan=\"2\" value=\"てお\"}}手押しポンプ"
  },
  {
    "label": "070",
    "text": "ふじだな"
  },
  {
    "label": "071",
    "text": "ベル"
  },
  {
    "label": "072",
    "text": "つりがね"
  },
  {
    "label": "073",
    "text": "いなほし"
  },
  {
    "label": "074",
    "text": "フラワーアーチ"
  },
  {
    "label": "075",
    "text": "タワー"
  },
  {
    "label": "076",
    "text": "まるいトピアリー"
  },
  {
    "label": "077",
    "text": "しかくいトピアリー"
  },
  {
    "label": "078",
    "text": "チューリップのトピアリー"
  },
  {
    "label": "079",
    "text": "モダンな{{ruby charSpan=\"2\" value=\"とけい\"}}時計"
  },
  {
    "label": "080",
    "text": "モダンなベンチ"
  },
  {
    "label": "081",
    "text": "モダンな{{ruby charSpan=\"2\" value=\"がいとう\"}}外灯"
  },
  {
    "label": "082",
    "text": "メルヘンな{{ruby charSpan=\"2\" value=\"とけい\"}}時計"
  },
  {
    "label": "083",
    "text": "メルヘンなベンチ"
  },
  {
    "label": "084",
    "text": "メルヘンな{{ruby charSpan=\"2\" value=\"がいとう\"}}外灯"
  },
  {
    "label": "085",
    "text": "{{ruby charSpan=\"2\" value=\"わふう\"}}和風な{{ruby charSpan=\"2\" value=\"とけい\"}}時計"
  },
  {
    "label": "086",
    "text": "{{ruby charSpan=\"2\" value=\"わふう\"}}和風なベンチ"
  },
  {
    "label": "087",
    "text": "{{ruby charSpan=\"2\" value=\"わふう\"}}和風な{{ruby charSpan=\"2\" value=\"がいとう\"}}外灯"
  },
  {
    "label": "088",
    "text": "ひしがたの{{ruby charSpan=\"2\" value=\"ひょうしき\"}}標識"
  },
  {
    "label": "089",
    "text": "まるい{{ruby charSpan=\"2\" value=\"ひょうしき\"}}標識"
  },
  {
    "label": "090",
    "text": "さんかくの{{ruby charSpan=\"2\" value=\"ひょうしき\"}}標識"
  },
  {
    "label": "091",
    "text": "まわるアート"
  },
  {
    "label": "092",
    "text": "くぐるアート"
  },
  {
    "label": "093",
    "text": "すわるアート"
  },
  {
    "label": "094",
    "text": "{{ruby charSpan=\"2\" value=\"せきゆ\"}}石油くっさくき"
  },
  {
    "label": "095",
    "text": "かこい"
  },
  {
    "label": "096",
    "text": "まるたのベンチ"
  },
  {
    "label": "097",
    "text": "{{ruby charSpan=\"3\" value=\"まちあいじょ\"}}待合所"
  },
  {
    "label": "098",
    "text": "レジャーシート"
  },
  {
    "label": "099",
    "text": "{{ruby charSpan=\"1\" value=\"うらな\"}}占いの{{ruby charSpan=\"1\" value=\"やかた\"}}館"
  }
]