﻿[
  {
    "label": "000",
    "text": "{{ruby charSpan=\"2\" value=\"かんこく\"}}韓国"
  },
  {
    "label": "001",
    "text": "タイ"
  },
  {
    "label": "002",
    "text": "インド"
  },
  {
    "label": "003",
    "text": "ベトナム"
  },
  {
    "label": "004",
    "text": "イースター{{ruby charSpan=\"1\" value=\"とう\"}}島"
  },
  {
    "label": "005",
    "text": "バリ{{ruby charSpan=\"1\" value=\"とう\"}}島"
  },
  {
    "label": "006",
    "text": "ヨースター{{ruby charSpan=\"1\" value=\"とう\"}}島"
  },
  {
    "label": "007",
    "text": "ハワイ{{ruby charSpan=\"1\" value=\"とう\"}}島"
  },
  {
    "label": "008",
    "text": "スコットランド"
  },
  {
    "label": "009",
    "text": "ニュージーランド"
  },
  {
    "label": "010",
    "text": "フィンランド"
  },
  {
    "label": "011",
    "text": "グリーンランド"
  },
  {
    "label": "012",
    "text": "ロシア"
  },
  {
    "label": "013",
    "text": "カナダ"
  },
  {
    "label": "014",
    "text": "スイス"
  },
  {
    "label": "015",
    "text": "アイスランド"
  },
  {
    "label": "016",
    "text": "シンガポール"
  },
  {
    "label": "017",
    "text": "フィリピン"
  },
  {
    "label": "018",
    "text": "インドネシア"
  },
  {
    "label": "019",
    "text": "パラオ"
  },
  {
    "label": "020",
    "text": "デンマーク"
  },
  {
    "label": "021",
    "text": "ノルウェー"
  },
  {
    "label": "022",
    "text": "{{ruby charSpan=\"2\" value=\"にっぽん\"}}日本"
  },
  {
    "label": "023",
    "text": "アメリカ"
  },
  {
    "label": "024",
    "text": "ベルギー"
  },
  {
    "label": "025",
    "text": "フランス"
  },
  {
    "label": "026",
    "text": "ガーナ"
  },
  {
    "label": "027",
    "text": "オーストリア"
  },
  {
    "label": "028",
    "text": "スペイン"
  },
  {
    "label": "029",
    "text": "チリ"
  },
  {
    "label": "030",
    "text": "アルゼンチン"
  },
  {
    "label": "031",
    "text": "キューバ"
  },
  {
    "label": "032",
    "text": "フランス"
  },
  {
    "label": "033",
    "text": "イギリス"
  },
  {
    "label": "034",
    "text": "イタリア"
  },
  {
    "label": "035",
    "text": "アメリカ"
  },
  {
    "label": "036",
    "text": "イタリア"
  },
  {
    "label": "037",
    "text": "チリ"
  },
  {
    "label": "038",
    "text": "{{ruby charSpan=\"2\" value=\"にっぽん\"}}日本"
  },
  {
    "label": "039",
    "text": "ドイツ"
  },
  {
    "label": "040",
    "text": "{{ruby charSpan=\"2\" value=\"にっぽん\"}}日本"
  },
  {
    "label": "041",
    "text": "{{ruby charSpan=\"2\" value=\"かんこく\"}}韓国"
  },
  {
    "label": "042",
    "text": "フィリピン"
  },
  {
    "label": "043",
    "text": "タイ"
  },
  {
    "label": "044",
    "text": "アイルランド"
  },
  {
    "label": "045",
    "text": "カナダ"
  },
  {
    "label": "046",
    "text": "グリーンランド"
  },
  {
    "label": "047",
    "text": "ブラジル"
  },
  {
    "label": "048",
    "text": "カナダ"
  },
  {
    "label": "049",
    "text": "ロシア"
  },
  {
    "label": "050",
    "text": "フィンランド"
  },
  {
    "label": "051",
    "text": "オーストラリア"
  },
  {
    "label": "052",
    "text": "メキシコ"
  },
  {
    "label": "053",
    "text": "タンザニア"
  },
  {
    "label": "054",
    "text": "エチオピア"
  },
  {
    "label": "055",
    "text": "ブラジル"
  },
  {
    "label": "056",
    "text": "ドイツ"
  },
  {
    "label": "057",
    "text": "フランス"
  },
  {
    "label": "058",
    "text": "ポーランド"
  },
  {
    "label": "059",
    "text": "チェコ"
  },
  {
    "label": "060",
    "text": "オランダ"
  },
  {
    "label": "061",
    "text": "カナダ"
  },
  {
    "label": "062",
    "text": "ニュージーランド"
  },
  {
    "label": "063",
    "text": "マレーシア"
  },
  {
    "label": "064",
    "text": "アメリカ"
  },
  {
    "label": "065",
    "text": "インド"
  },
  {
    "label": "066",
    "text": "フランス"
  },
  {
    "label": "067",
    "text": "{{ruby charSpan=\"2\" value=\"にっぽん\"}}日本"
  },
  {
    "label": "068",
    "text": "ケニア"
  },
  {
    "label": "069",
    "text": "モンゴル"
  },
  {
    "label": "070",
    "text": "オーストラリア"
  },
  {
    "label": "071",
    "text": "ブラジル"
  },
  {
    "label": "072",
    "text": "エジプト"
  },
  {
    "label": "073",
    "text": "{{ruby charSpan=\"2\" value=\"にっぽん\"}}日本"
  },
  {
    "label": "074",
    "text": "モンゴル"
  },
  {
    "label": "075",
    "text": "{{ruby charSpan=\"2\" value=\"ちゅうごく\"}}中国"
  },
  {
    "label": "076",
    "text": "{{ruby charSpan=\"2\" value=\"ちゅうごく\"}}中国"
  },
  {
    "label": "077",
    "text": "インド"
  },
  {
    "label": "078",
    "text": "{{ruby charSpan=\"2\" value=\"べいこく\"}}米国"
  },
  {
    "label": "079",
    "text": "ロシア"
  },
  {
    "label": "080",
    "text": "ギリシャ"
  },
  {
    "label": "081",
    "text": "スペイン"
  },
  {
    "label": "082",
    "text": "アメリカ"
  },
  {
    "label": "083",
    "text": "ブラジル"
  },
  {
    "label": "084",
    "text": "イギリス"
  },
  {
    "label": "085",
    "text": "フランス"
  },
  {
    "label": "086",
    "text": "ドイツ"
  },
  {
    "label": "087",
    "text": "オーストリア"
  },
  {
    "label": "088",
    "text": "オーストラリア"
  },
  {
    "label": "089",
    "text": "オーストリア"
  },
  {
    "label": "090",
    "text": "アラスカ"
  },
  {
    "label": "091",
    "text": "メキシコ"
  },
  {
    "label": "092",
    "text": "ベトナム"
  },
  {
    "label": "093",
    "text": "タイ"
  },
  {
    "label": "094",
    "text": "インド"
  },
  {
    "label": "095",
    "text": "カンボジア"
  },
  {
    "label": "096",
    "text": "スウェーデン"
  },
  {
    "label": "097",
    "text": "ノーベル"
  },
  {
    "label": "098",
    "text": "スリランカ"
  },
  {
    "label": "099",
    "text": "ドイツ"
  },
  {
    "label": "100",
    "text": "タイ"
  },
  {
    "label": "101",
    "text": "{{ruby charSpan=\"2\" value=\"にっぽん\"}}日本"
  },
  {
    "label": "102",
    "text": "ベトナム"
  },
  {
    "label": "103",
    "text": "ネパール"
  },
  {
    "label": "104",
    "text": "インド"
  },
  {
    "label": "105",
    "text": "タイ"
  },
  {
    "label": "106",
    "text": "ベトナム"
  },
  {
    "label": "107",
    "text": "{{ruby charSpan=\"2\" value=\"にっぽん\"}}日本"
  },
  {
    "label": "108",
    "text": "ペルー"
  },
  {
    "label": "109",
    "text": "メキシコ"
  },
  {
    "label": "110",
    "text": "アルジェリア"
  },
  {
    "label": "111",
    "text": "チリ"
  },
  {
    "label": "112",
    "text": "ハワイ"
  },
  {
    "label": "113",
    "text": "グアム"
  },
  {
    "label": "114",
    "text": "サイパン"
  },
  {
    "label": "115",
    "text": "モルディブ"
  },
  {
    "label": "116",
    "text": "ポルトガル"
  },
  {
    "label": "117",
    "text": "アメリカ"
  },
  {
    "label": "118",
    "text": "スペイン"
  },
  {
    "label": "119",
    "text": "インド"
  }
]