﻿[
  {
    "label": "00",
    "text": "プロデューサー"
  },
  {
    "label": "01",
    "text": "えぐち　かつや\n"
  },
  {
    "label": "02",
    "text": "ディレクター"
  },
  {
    "label": "03",
    "text": "もろ　いさお\nきょうごく　あや\n"
  },
  {
    "label": "04",
    "text": "スクリプト"
  },
  {
    "label": "05",
    "text": "わだ　まこと\n"
  },
  {
    "label": "06",
    "text": "プランニング"
  },
  {
    "label": "07",
    "text": "かたがい　はづき\nせんすい　かずよし\nわたなべ　くにお\nほさか　ありさ\nきのした　けいこ\n"
  },
  {
    "label": "08",
    "text": "デザインディレクター"
  },
  {
    "label": "09",
    "text": "たかはし　こうじ\nこばやし　りゅうじ\nおさない　あきと\n"
  },
  {
    "label": "10",
    "text": "キャラクターデザイン"
  },
  {
    "label": "11",
    "text": "ひろの　あきこ\nまるなみ　ともみ\nおくなか　みずき\n\nたかた　あゆみ\nふくち　しょうこ\n\nかわばた　まりこ\nみやはら　かずえ\n"
  },
  {
    "label": "12",
    "text": "フィールドデザイン"
  },
  {
    "label": "13",
    "text": "たかむら　じゅん\nひさだ　はなこ\nふるかわ　まゆ\nたけした　しんこ\n\nあさはら　ようすけ\nうおの　のりこ\nけがさ　たけひこ\nにしお　さとこ\n\nとみた　ゆきこ\n"
  },
  {
    "label": "14",
    "text": "オブジェクトデザイン"
  },
  {
    "label": "15",
    "text": "やました　じゅんぺい\nいまにし　あいり\n\nうちやま　ひろし\nきよなり　ひろこ\n\nあおき　りか\nいのうえ　ももこ\nうちやま　ひろみ\nながい　まゆこ\n"
  },
  {
    "label": "16",
    "text": "UIデザイン"
  },
  {
    "label": "17",
    "text": "まさき　よしふみ\nいで　めい\nたかばやし　ちはる\nなかむら　ゆうき\n"
  },
  {
    "label": "18",
    "text": "エフェクトデザイン"
  },
  {
    "label": "19",
    "text": "にしむら　さやか\nうえくさ　わたる\n"
  },
  {
    "label": "20",
    "text": "デザインアシスト"
  },
  {
    "label": "21",
    "text": "やまぐち　かずみ\nみねた　なおき\nあさかわ　さとみ\nもりもと　よしひさ\n\nやひろ　あきとし\n"
  },
  {
    "label": "22",
    "text": "サウンドディレクター"
  },
  {
    "label": "23",
    "text": "とたか　かずみ\n"
  },
  {
    "label": "24",
    "text": "サウンドプログラミング"
  },
  {
    "label": "25",
    "text": "きだ　みつひろ\n"
  },
  {
    "label": "26",
    "text": "サウンドエフェクト"
  },
  {
    "label": "27",
    "text": "うちだ　さなえ\nわたなべ　たかひろ\n"
  },
  {
    "label": "28",
    "text": "ミュージック"
  },
  {
    "label": "29",
    "text": "かたおか　まなか\nあさひ　あつこ\n"
  },
  {
    "label": "30",
    "text": "プログラムディレクター"
  },
  {
    "label": "31",
    "text": "たかき　げんたろう\n"
  },
  {
    "label": "32",
    "text": "プレイヤープログラミング"
  },
  {
    "label": "33",
    "text": "みやけ　ひろみち\n"
  },
  {
    "label": "34",
    "text": "キャラクタープログラミング"
  },
  {
    "label": "35",
    "text": "たけした　よしたか\nにしかわ　えいじ\nかわい　としのり\nおかだ　ちひろ\n"
  },
  {
    "label": "36",
    "text": "フィールドプログラミング"
  },
  {
    "label": "37",
    "text": "にしわき　あつし\nますおか　まさし\n"
  },
  {
    "label": "38",
    "text": "オブジェクトプログラミング"
  },
  {
    "label": "39",
    "text": "そでやま　みさと\nあしだ　のりひさ\nたなか　ゆき\nもり　ゆかり\n"
  },
  {
    "label": "40",
    "text": "メッセージプログラミング"
  },
  {
    "label": "41",
    "text": "さかきばら　まさろう\n"
  },
  {
    "label": "42",
    "text": "UIプログラミング"
  },
  {
    "label": "43",
    "text": "おかじま　のぶお\nかさまつ　しげひろ\nおがわ　たかひろ\n"
  },
  {
    "label": "44",
    "text": "つうしんプログラミング"
  },
  {
    "label": "45",
    "text": "すずき　ゆかり\n"
  },
  {
    "label": "46",
    "text": "システムプログラミング"
  },
  {
    "label": "47",
    "text": "はただ　しんじ\n"
  },
  {
    "label": "48",
    "text": "プログラムサポート"
  },
  {
    "label": "49",
    "text": "まるこ　りょうた\nせこぐち　ひさし\nなかた　てつや\nひらつ　だいすけ\nとうじょう　はるき\nおかじま　まなぶ\nいとう　じゅん\nみふね　まさし\nまつお　しゅうへい\nはやかわ　けんぞう\n\nネットワークじぎょうぶ\n"
  },
  {
    "label": "50",
    "text": "プログレスマネージメント"
  },
  {
    "label": "51",
    "text": "かとう　けいぞう\n"
  },
  {
    "label": "52",
    "text": "テクニカルサポート"
  },
  {
    "label": "53",
    "text": "かくい　ひろのぶ\nおやま　たけひろ\nいわもと　みつお\nおがわ　ゆうた\n"
  },
  {
    "label": "54",
    "text": "デバッグ"
  },
  {
    "label": "55",
    "text": "やまだ　りょうすけ\nみやもと　ゆきこ\nにのみや　けい\nいわなが　しょうたろう\n\nMario Club Co., Ltd.\nPole To Win Co.,Ltd.\n"
  },
  {
    "label": "56",
    "text": "アートワーク"
  },
  {
    "label": "57",
    "text": "ひらやま　りょうすけ\nおさない　ひさよ\nなかみち　さちこ\n"
  },
  {
    "label": "58",
    "text": "イラストレーション　スーパーバイザー"
  },
  {
    "label": "59",
    "text": "さきやま　ちはる\n"
  },
  {
    "label": "60",
    "text": "KOREAN LOCALIZATION"
  },
  {
    "label": "61",
    "text": "???\n"
  },
  {
    "label": "62",
    "text": "LOCALIZATION MANAGEMENT"
  },
  {
    "label": "63",
    "text": "???\n"
  },
  {
    "label": "64",
    "text": "PRODUCT SUPPORT"
  },
  {
    "label": "65",
    "text": "???\n"
  },
  {
    "label": "66",
    "text": "amiibo+ スタッフ"
  },
  {
    "label": "67",
    "text": "すずき　たいじゅ\nたかい　あみ\nたけもと　まさたか\nながた　しのぶ\nひろまつ　こうたろう\n\nかなまる　ゆきひろ\nそえじま　やすなり\nたかだ　けいた\n\nいたがき　ゆうき\nうえの　たかゆき\nおおつ　ひであき\nおかもと　ひでひと\nかわじり　つよし\nきたぐち　さき\nたけい　まさのり\nつがわ　けんじ\nとみた　まさひで\nとみた　よしひさ\nにった　ともみ\nひらぬま　やすし\nふなき　まさこ\nやすい　ひでかず\nやまうち　やすひろ\n"
  },
  {
    "label": "68",
    "text": "スペシャルサンクス"
  },
  {
    "label": "69",
    "text": "のがみ　ひさし\nはるはな　よしき\nいのうえ　けいじろう\nうえだ　ひろし\nいけだ　じん\nかんど　とき\nきむら　だいき\nなかしま　さき\nまえかわ　しゅうへい\nしみず　ゆうさく\nきはら　しょうご\nはぎわら　ともひろ\nほんね　やすゆき\nいしかわ　ゆきこ\nやまだ　しんじ\nやない　えみこ\nよしみ　ゆみ\n\nSRD Co.,Ltd.\nMONOLITH SOFTWARE INC.\nIMAGICADIGITALSCAPE Co.,Ltd.\n"
  },
  {
    "label": "70",
    "text": "ゼネラルプロデューサー"
  },
  {
    "label": "71",
    "text": "てづか　たかし\n"
  },
  {
    "label": "72",
    "text": "エグゼクティブプロデューサー"
  },
  {
    "label": "73",
    "text": "いわた　さとる\n"
  }
]