﻿[
  {
    "label": "001",
    "locale": {
      "EUde": "{{anim id=\"36\"}}Schau mal einer an! Bist ja ganz\nschön krass.{{delay frames=\"20\"}} So früh im Regen\nunterwegs und so! {{delay frames=\"20\"}}{{fun_0003000E arg=\"\"}}{{fun_00070005 arg=\"\"}}!",
      "EUen": "{{anim id=\"37\"}}Look at you, toughing it out even in\nthe rain!{{delay frames=\"20\"}} Attaboy! {{delay frames=\"20\"}}{{fun_0003000E arg=\"\"}}{{fun_00070005 arg=\"\"}}!",
      "EUes": "{{anim id=\"37\"}}Ahí estás, como un jefe, desafiando\na los elementos. ¡Tú sí que tienes\nlo que hay que tener, {{delay frames=\"20\"}}{{fun_00070005 arg=\"\"}}!",
      "EUfr": "{{anim id=\"37\"}}Tu t'es vu quand y'a plu ?{{delay frames=\"20\"}} Quelle\nfougue mon gars !{{delay frames=\"20\"}} {{fun_0003000E arg=\"\"}}{{fun_00070005 arg=\"\"}} !",
      "EUit": "{{anim id=\"37\"}}Ma guardati, arzillo e noncurante\ndella pioggia!{{delay frames=\"20\"}} I miei complimenti!\n{{delay frames=\"20\"}}{{fun_0003000E arg=\"\"}}{{fun_00070005 arg=\"\"}}!",
      "JPja": "{{anim id=\"37\"}}{{ruby charSpan=\"1\" value=\"あめ\"}}雨でも　{{ruby charSpan=\"2\" value=\"げんき\"}}元気いっぱいだね！{{delay frames=\"20\"}}\nさすが　{{ruby charSpan=\"1\" value=\"おとこ\"}}男の{{ruby charSpan=\"1\" value=\"こ\"}}子だ！　{{delay frames=\"20\"}}{{fun_00070005 arg=\"\"}}！",
      "KRko": "{{anim id=\"37\"}}비가 와도 기운이 넘치는구나!{{delay frames=\"20\"}}\n역시 남자애는 달라! {{delay frames=\"20\"}}{{fun_00070005 arg=\"\"}}!",
      "USen": "{{anim id=\"37\"}}Look at you, toughing it out even in\nthe rain!{{delay frames=\"20\"}} Attaboy! {{delay frames=\"20\"}}{{fun_0003000E arg=\"\"}}{{fun_00070005 arg=\"\"}}!",
      "USes": "{{anim id=\"37\"}}Ahí estás, como un jefe, desafiando\na los elementos. ¡Tú sí que tienes\nlo que hay que tener, {{delay frames=\"20\"}}{{fun_00070005 arg=\"\"}}!",
      "USfr": "{{anim id=\"37\"}}Tu t'es vu quand y'a plu?{{delay frames=\"20\"}} Quelle\nfougue mon gars!{{delay frames=\"20\"}} {{fun_0003000E arg=\"\"}}{{fun_00070005 arg=\"\"}}!"
    }
  },
  {
    "label": "002",
    "locale": {
      "EUde": "{{anim id=\"36\"}}Hey, {{delay frames=\"8\"}}Chica! Was rennst du denn\nim Regen rum?{{fun_00010007 arg=\"\"}}{{anim id=\"37\"}} Bist ja 'ne ganz\nToughe, {{delay frames=\"20\"}}{{fun_00070005 arg=\"\"}}!",
      "EUen": "{{anim id=\"36\"}}Hey! {{delay frames=\"8\"}}What's a girl like you doing \nrunning around in the rain?{{fun_00010007 arg=\"\"}}{{anim id=\"37\"}} Well, ya\ngot some spirit, {{delay frames=\"20\"}}{{fun_00070005 arg=\"\"}}!",
      "EUes": "{{anim id=\"36\"}}¡Oye! {{delay frames=\"8\"}}¿Qué hace una chica como tú\nbajo una lluvia como esta?{{fun_00010007 arg=\"\"}}{{anim id=\"37\"}} Quiero\ndecir que vaya moral, {{delay frames=\"20\"}}{{fun_00070005 arg=\"\"}}.",
      "EUfr": "{{anim id=\"36\"}}Hep !{{delay frames=\"30\"}} Tu t'entraînes pour un\nconcours de chaussettes mouillées\nou quoi ?{{delay frames=\"20\"}} {{fun_0003000E arg=\"\"}}{{fun_00070005 arg=\"\"}} ?!",
      "EUit": "{{anim id=\"36\"}}Ehi! {{delay frames=\"8\"}}Che ci fa una come te in giro\nsotto la pioggia?{{fun_00010007 arg=\"\"}}{{anim id=\"37\"}} Beh, hai carattere\nda vendere, {{delay frames=\"20\"}}{{fun_00070005 arg=\"\"}}!",
      "JPja": "{{anim id=\"36\"}}{{ruby charSpan=\"1\" value=\"あめ\"}}雨の{{ruby charSpan=\"1\" value=\"なか\"}}中　{{delay frames=\"8\"}}{{ruby charSpan=\"1\" value=\"あさ\"}}朝から\n{{ruby charSpan=\"1\" value=\"はし\"}}走り{{ruby charSpan=\"1\" value=\"まわ\"}}回ってる　{{ruby charSpan=\"1\" value=\"おんな\"}}女を　{{ruby charSpan=\"2\" value=\"はっけん\"}}発見！{{fun_00010007 arg=\"\"}}\n{{anim id=\"37\"}}いいじゃん、{{ruby charSpan=\"2\" value=\"こんじょう\"}}根性あって！　{{delay frames=\"20\"}}{{fun_00070005 arg=\"\"}}！",
      "KRko": "{{anim id=\"36\"}}이런 빗속을 {{delay frames=\"8\"}}아침부터\n휘젓고 다니는 여자애 발견!{{fun_00010007 arg=\"\"}}\n{{anim id=\"37\"}}그건 바로 너야! {{delay frames=\"20\"}}{{fun_00070005 arg=\"\"}}!",
      "USen": "{{anim id=\"36\"}}Hey! {{delay frames=\"8\"}}What's a girl like you doing \nrunning around in the rain?{{fun_00010007 arg=\"\"}}{{anim id=\"37\"}} Well, ya\ngot some spirit, {{delay frames=\"20\"}}{{fun_00070005 arg=\"\"}}!",
      "USes": "{{anim id=\"36\"}}¡Oye! {{delay frames=\"8\"}}¿Qué hace una chica como tú\nbajo una lluvia como esta?{{fun_00010007 arg=\"\"}}{{anim id=\"37\"}} Quiero\ndecir que vaya moral, {{delay frames=\"20\"}}{{fun_00070005 arg=\"\"}}.",
      "USfr": "{{anim id=\"36\"}}Hep!{{delay frames=\"30\"}} Tu t'entraînes pour un\nconcours de chaussettes mouillées\nou quoi?{{delay frames=\"20\"}} {{fun_0003000E arg=\"\"}}{{fun_00070005 arg=\"\"}}?!"
    }
  },
  {
    "label": "003",
    "locale": {
      "EUde": "{{anim id=\"27\"}}Ob Regen oder Schnee – {{delay frames=\"20\"}}ist mir\nvöllig schnuppe{{delay frames=\"8\"}}.{{delay frames=\"8\"}}.{{delay frames=\"8\"}}.{{delay frames=\"20\"}}{{anim id=\"9\"}} Die Uhrzeit ist\nmein Problem, {{delay frames=\"20\"}}{{fun_00070005 arg=\"\"}}.",
      "EUen": "{{anim id=\"25\"}}{{delay frames=\"20\"}}I don't care too much about rain or\nsnow or whatever{{delay frames=\"8\"}}.{{delay frames=\"8\"}}.{{delay frames=\"8\"}}.{{delay frames=\"20\"}}{{anim id=\"9\"}} It's mornings I\nhave a problem with, {{delay frames=\"20\"}}{{fun_00070005 arg=\"\"}}.",
      "EUes": "{{anim id=\"25\"}}{{delay frames=\"20\"}}Me da igual que llueva, que nieve o\nque caigan garbanzos{{delay frames=\"8\"}}.{{delay frames=\"8\"}}.{{delay frames=\"8\"}}.{{delay frames=\"20\"}}{{anim id=\"9\"}} ¡Lo que me\nquema es la mañana, {{delay frames=\"20\"}}{{fun_00070005 arg=\"\"}}!",
      "EUfr": "{{anim id=\"25\"}}{{delay frames=\"20\"}}Qu'y vente ou qu'y neige, pas\nd'problème{{delay frames=\"8\"}}.{{delay frames=\"8\"}}.{{delay frames=\"8\"}}.{{delay frames=\"20\"}}{{anim id=\"9\"}} Me lever tôt, en\nrevanche...{{delay frames=\"20\"}} {{anim id=\"27\"}}{{fun_0003000E arg=\"\"}}{{fun_00070005 arg=\"\"}}...",
      "EUit": "{{anim id=\"25\"}}{{delay frames=\"20\"}}Non importa se piove, nevica o\ngrandina{{delay frames=\"8\"}}.{{delay frames=\"8\"}}.{{delay frames=\"8\"}}.{{delay frames=\"20\"}}{{anim id=\"9\"}} Il mio problema sono\nle mattine, {{delay frames=\"20\"}}{{fun_00070005 arg=\"\"}}.",
      "JPja": "{{anim id=\"25\"}}{{delay frames=\"20\"}}{{ruby charSpan=\"1\" value=\"あめ\"}}雨でも　{{ruby charSpan=\"1\" value=\"ゆき\"}}雪でも\n{{ruby charSpan=\"2\" value=\"へいき\"}}平気だけど{{delay frames=\"8\"}}・{{delay frames=\"8\"}}・{{delay frames=\"8\"}}・{{delay frames=\"20\"}}{{anim id=\"9\"}}ウチ{{delay frames=\"8\"}}\n{{ruby charSpan=\"1\" value=\"あさ\"}}朝だけは　{{ruby charSpan=\"2\" value=\"にがて\"}}苦手だな、{{delay frames=\"20\"}}{{fun_00070005 arg=\"\"}}",
      "KRko": "{{anim id=\"25\"}}{{delay frames=\"20\"}}난 비가 오든 눈이 오든\n다 좋은데{{delay frames=\"8\"}}・{{delay frames=\"8\"}}・{{delay frames=\"8\"}}・{{delay frames=\"20\"}}\n{{anim id=\"9\"}}{{delay frames=\"8\"}}아침은 진짜 너무 힘들어, {{delay frames=\"20\"}}{{fun_00070005 arg=\"\"}}",
      "USen": "{{anim id=\"25\"}}{{delay frames=\"20\"}}I don't care too much about rain or\nsnow or whatever{{delay frames=\"8\"}}.{{delay frames=\"8\"}}.{{delay frames=\"8\"}}.{{delay frames=\"20\"}}{{anim id=\"9\"}} It's mornings I\nhave a problem with, {{delay frames=\"20\"}}{{fun_00070005 arg=\"\"}}.",
      "USes": "{{anim id=\"25\"}}{{delay frames=\"20\"}}Me da igual que llueva, que nieve o\nque caigan garbanzos{{delay frames=\"8\"}}.{{delay frames=\"8\"}}.{{delay frames=\"8\"}}.{{delay frames=\"20\"}}{{anim id=\"9\"}} ¡Lo que me\nquema es la mañana, {{delay frames=\"20\"}}{{fun_00070005 arg=\"\"}}!",
      "USfr": "{{anim id=\"25\"}}{{delay frames=\"20\"}}Qu'y vente ou qu'y neige, pas\nd'problème{{delay frames=\"8\"}}.{{delay frames=\"8\"}}.{{delay frames=\"8\"}}.{{delay frames=\"20\"}}{{anim id=\"9\"}} Me lever tôt, en\nrevanche...{{delay frames=\"20\"}} {{anim id=\"27\"}}{{fun_0003000E arg=\"\"}}{{fun_00070005 arg=\"\"}}..."
    }
  },
  {
    "label": "004",
    "locale": {
      "EUde": "{{anim id=\"35\"}}Regentage wecken immer meine\nwilde Seite!{{delay frames=\"20\"}} {{fun_0003000E arg=\"\"}}{{fun_00070005 arg=\"\"}}!",
      "EUen": "{{anim id=\"35\"}}There's something about rainy days.{{delay frames=\"20\"}}\nThey tend to bring out my wild side!{{delay frames=\"20\"}}\n{{fun_0003000E arg=\"\"}}{{fun_00070005 arg=\"\"}}!",
      "EUes": "{{anim id=\"35\"}}¿Qué tendrán los días de lluvia?{{delay frames=\"20\"}} ¡Es\nque me ponen loca!{{delay frames=\"20\"}} ¡No respondo de\nmis actos, {{fun_00070005 arg=\"\"}}!",
      "EUfr": "{{anim id=\"35\"}}Les jours de pluie, j'ai l'impression\nque l'instinct prend l'dessus...{{delay frames=\"20\"}} Mais\nj'me contrôle,{{delay frames=\"20\"}} {{fun_00070005 arg=\"\"}}...",
      "EUit": "{{anim id=\"35\"}}I giorni di pioggia hanno un certo\nnon so che...{{delay frames=\"20\"}} Tirano fuori il mio\nlato più selvaggio!{{delay frames=\"20\"}} {{fun_0003000E arg=\"\"}}{{fun_00070005 arg=\"\"}}!",
      "JPja": "{{anim id=\"35\"}}{{ruby charSpan=\"1\" value=\"あめ\"}}雨の{{ruby charSpan=\"1\" value=\"ひ\"}}日ってさ、{{delay frames=\"20\"}}なんだか\n{{ruby charSpan=\"2\" value=\"やせい\"}}野生のカンが　するどくなるよね！{{delay frames=\"20\"}}\n{{fun_00070005 arg=\"\"}}！",
      "KRko": "{{anim id=\"35\"}}비 오는 날은 말이지{{delay frames=\"20\"}}\n왠지 오감이 예민해져!{{delay frames=\"20\"}}\n{{fun_00070005 arg=\"\"}}!",
      "USen": "{{anim id=\"35\"}}There's something about rainy days.{{delay frames=\"20\"}}\nThey tend to bring out my wild side!{{delay frames=\"20\"}}\n{{fun_0003000E arg=\"\"}}{{fun_00070005 arg=\"\"}}!",
      "USes": "{{anim id=\"35\"}}¿Qué tendrán los días de lluvia?{{delay frames=\"20\"}} ¡Es\nque me ponen loca!{{delay frames=\"20\"}} ¡No respondo de\nmis actos, {{fun_00070005 arg=\"\"}}!",
      "USfr": "{{anim id=\"35\"}}Les jours de pluie, j'ai l'impression\nque l'instinct prend l'dessus...{{delay frames=\"20\"}} Mais\nj'me contrôle,{{delay frames=\"20\"}} {{fun_00070005 arg=\"\"}}..."
    }
  },
  {
    "label": "005",
    "locale": {
      "EUde": "{{anim id=\"9\"}}Gnarf.{{delay frames=\"8\"}} Meine schöne Frise{{delay frames=\"8\"}}.{{delay frames=\"8\"}}.{{delay frames=\"8\"}}.{{delay frames=\"20\"}} Jetzt\nseh ich aus wie ein begossener\nPudel!{{delay frames=\"20\"}} {{fun_0003000E arg=\"\"}}{{fun_00070005 arg=\"\"}}!",
      "EUen": "{{anim id=\"9\"}}Ugh.{{delay frames=\"8\"}} My super-awesome hair{{delay frames=\"8\"}}.{{delay frames=\"8\"}}.{{delay frames=\"8\"}}.{{delay frames=\"20\"}}\nThis rain is gonna mess it up!{{delay frames=\"20\"}}\n{{fun_0003000E arg=\"\"}}{{fun_00070005 arg=\"\"}}!",
      "EUes": "{{anim id=\"9\"}}Uf.{{delay frames=\"8\"}} Mi peinadito de reina mora{{delay frames=\"8\"}}.{{delay frames=\"8\"}}.{{delay frames=\"8\"}}.{{delay frames=\"20\"}}\n¡Ay, no, no, no! ¡Pero qué me haces,\nlluvia mala!{{delay frames=\"20\"}} ¡Para, {{fun_00070005 arg=\"\"}}!",
      "EUfr": "{{anim id=\"9\"}}Pfff.{{delay frames=\"15\"}} C'est un vrai déluge ! Et moi\nqui m'étais fait une beauté...{{delay frames=\"20\"}} Merci\nla pluie,{{delay frames=\"20\"}} {{fun_00070005 arg=\"\"}}...",
      "EUit": "{{anim id=\"9\"}}Oh!{{delay frames=\"8\"}} I miei poveri capelli{{delay frames=\"8\"}}.{{delay frames=\"8\"}}.{{delay frames=\"8\"}}.{{delay frames=\"20\"}}{{pageBreak}}Con questa pioggia sembreranno\nun maglione infeltrito!{{delay frames=\"20\"}}\n{{fun_0003000E arg=\"\"}}{{fun_00070005 arg=\"\"}}!",
      "JPja": "{{anim id=\"9\"}}ウチの　{{ruby charSpan=\"2\" value=\"じまん\"}}自慢のヘアースタイル{{delay frames=\"8\"}}・{{delay frames=\"8\"}}・{{delay frames=\"8\"}}・{{delay frames=\"20\"}}\nこの{{ruby charSpan=\"1\" value=\"あめ\"}}雨じゃ　くずれちゃうな！{{delay frames=\"20\"}}\n{{fun_00070005 arg=\"\"}}！",
      "KRko": "{{anim id=\"9\"}}나 이 머리 진짜 공들인 건데{{delay frames=\"8\"}}・{{delay frames=\"8\"}}・{{delay frames=\"8\"}}・{{delay frames=\"20\"}}\n비가 와서 다 망가지게 생겼어!{{delay frames=\"20\"}}\n{{fun_00070005 arg=\"\"}}!",
      "USen": "{{anim id=\"9\"}}Ugh.{{delay frames=\"8\"}} My super-awesome hair{{delay frames=\"8\"}}.{{delay frames=\"8\"}}.{{delay frames=\"8\"}}.{{delay frames=\"20\"}}\nThis rain is gonna mess it up!{{delay frames=\"20\"}}\n{{fun_0003000E arg=\"\"}}{{fun_00070005 arg=\"\"}}!",
      "USes": "{{anim id=\"9\"}}Uf.{{delay frames=\"8\"}} Mi peinadito de salón{{delay frames=\"8\"}}.{{delay frames=\"8\"}}.{{delay frames=\"8\"}}.{{delay frames=\"20\"}}\n¡Ay, no, no, no! ¡Pero qué me haces,\nlluvia mala!{{delay frames=\"20\"}} ¡Para, {{fun_00070005 arg=\"\"}}!",
      "USfr": "{{anim id=\"9\"}}Pfff.{{delay frames=\"15\"}} C'est un vrai déluge! Et moi\nqui m'étais fait une beauté...{{delay frames=\"20\"}} Merci\nla pluie,{{delay frames=\"20\"}} {{fun_00070005 arg=\"\"}}..."
    }
  },
  {
    "label": "006",
    "locale": {
      "EUde": "{{anim id=\"37\"}}Hm?{{delay frames=\"20\"}} Du glaubst, dass mich der\nRegen kaltlässt?{{pageBreak}}{{anim id=\"27\"}}Ich sag's mal so{{delay frames=\"8\"}}.{{delay frames=\"8\"}}.{{delay frames=\"8\"}}.{{delay frames=\"40\"}} Manchmal ist es\ncooler, {{delay frames=\"8\"}}still zu leiden, {{delay frames=\"20\"}}{{fun_00070005 arg=\"\"}}!",
      "EUen": "{{anim id=\"37\"}}What?{{delay frames=\"20\"}} You think the rain doesn't\nbother me?{{pageBreak}}{{anim id=\"27\"}}Let's just say{{delay frames=\"8\"}}.{{delay frames=\"8\"}}.{{delay frames=\"8\"}}.{{delay frames=\"8\"}} Sometimes the best\nprotection from the rain{{delay frames=\"40\"}} is a good,\nmean stare. {{delay frames=\"20\"}}{{fun_0003000E arg=\"\"}}{{fun_00070005 arg=\"\"}}!",
      "EUes": "{{anim id=\"37\"}}¡¿Qué?!{{delay frames=\"20\"}} ¿Tú crees que la lluvia\nno me molesta porque me ves\ntan pancha?\n{{anim id=\"27\"}}Es que a veces lo mejor{{delay frames=\"8\"}}.{{delay frames=\"8\"}}.{{delay frames=\"8\"}}.{{delay frames=\"8\"}} {{anim id=\"35\"}}¡es\npasar olímpicamente de todo!",
      "EUfr": "{{anim id=\"37\"}}Ouais ?{{delay frames=\"20\"}} Tu trouves que j'ai l'air\nindifférente alors qu'y pleut,{{delay frames=\"20\"}}\n{{fun_00070005 arg=\"\"}} ?\n{{anim id=\"27\"}}Bah...{{delay frames=\"20\"}} Justement.{{delay frames=\"40\"}} J'fais style !{{delay frames=\"20\"}} Y'a\nune différence entre être et\nparaître.{{delay frames=\"20\"}} {{anim id=\"1\"}}Prends-en d'la graine !",
      "EUit": "{{anim id=\"37\"}}Come dici?{{delay frames=\"20\"}} Secondo te la pioggia\nnon mi infastidisce?{{pageBreak}}{{anim id=\"27\"}}Allora{{delay frames=\"8\"}}.{{delay frames=\"8\"}}.{{delay frames=\"8\"}}.{{delay frames=\"8\"}} Non sempre tutto è come\nsembra. Diciamo che sono molto\nbrava a mascherare. {{delay frames=\"20\"}}{{fun_0003000E arg=\"\"}}{{fun_00070005 arg=\"\"}}!",
      "JPja": "{{anim id=\"37\"}}うん？{{delay frames=\"20\"}}\nウチが　{{ruby charSpan=\"1\" value=\"あめ\"}}雨でも\nシャキっとしてるって？\n{{anim id=\"27\"}}こんな{{ruby charSpan=\"1\" value=\"とき\"}}時こそ\nハッタリ　きかせてないと、{{delay frames=\"8\"}}\nシケっちゃうだろ！{{delay frames=\"20\"}}　{{fun_00070005 arg=\"\"}}！",
      "KRko": "{{anim id=\"37\"}}응?{{delay frames=\"20\"}}\n비가 오는데 어떻게 그렇게\n명랑할 수가 있냐구?\n{{anim id=\"27\"}}이럴 땐 명랑한 척이라도\n하지 않으면\n진짜 처진다구! {{delay frames=\"20\"}}{{fun_00070005 arg=\"\"}}!",
      "USen": "{{anim id=\"37\"}}What?{{delay frames=\"20\"}} You think the rain doesn't\nbother me?{{pageBreak}}{{anim id=\"27\"}}Let's just say{{delay frames=\"8\"}}.{{delay frames=\"8\"}}.{{delay frames=\"8\"}}.{{delay frames=\"8\"}} Sometimes the best\nprotection from the rain{{delay frames=\"40\"}} is a good,\nmean stare. {{delay frames=\"20\"}}{{fun_0003000E arg=\"\"}}{{fun_00070005 arg=\"\"}}!",
      "USes": "{{anim id=\"37\"}}¡¿Qué?!{{delay frames=\"20\"}} ¿Tú crees que la lluvia\nno me molesta porque me ves\ntan pancha?\n{{anim id=\"27\"}}Es que a veces lo mejor{{delay frames=\"8\"}}.{{delay frames=\"8\"}}.{{delay frames=\"8\"}}.{{delay frames=\"8\"}} {{anim id=\"35\"}}¡es\npasar olímpicamente de todo!",
      "USfr": "{{anim id=\"37\"}}Ouais?{{delay frames=\"20\"}} Tu trouves que j'ai l'air\nindifférente alors qu'y pleut,{{delay frames=\"20\"}}\n{{fun_00070005 arg=\"\"}}?\n{{anim id=\"27\"}}Bah...{{delay frames=\"20\"}} Justement.{{delay frames=\"40\"}} J'fais style!{{delay frames=\"20\"}} Y'a\nune différence entre être et\nparaître.{{delay frames=\"20\"}} {{anim id=\"1\"}}Prends-en d'la graine!"
    }
  },
  {
    "label": "007",
    "locale": {
      "EUde": "{{anim id=\"21\"}}Reg dich nicht drüber auf, dass\ndeine Klamotten nass werden.{{pageBreak}}{{anim id=\"35\"}}An Tagen wie diesen{{delay frames=\"8\"}}.{{delay frames=\"8\"}}.{{delay frames=\"8\"}}.{{delay frames=\"20\"}} musste\ndem Regen einfach deine relaxte\nSeite zeigen, {{delay frames=\"20\"}}{{fun_00070005 arg=\"\"}}!",
      "EUen": "{{anim id=\"21\"}}Don't get all bent out of shape if\nyour clothes get really wet today.{{pageBreak}}{{anim id=\"35\"}}On days like this{{delay frames=\"8\"}}.{{delay frames=\"8\"}}.{{delay frames=\"8\"}}.{{delay frames=\"20\"}}you gotta show\nthe rain you don't care!{{delay frames=\"20\"}} Get out and\nplay twice as hard, {{delay frames=\"20\"}}{{fun_00070005 arg=\"\"}}!",
      "EUes": "{{anim id=\"21\"}}Oye, si se te moja toda la ropa\ntampoco hay que montar un drama.\nSolo es agua, no mantequilla.\n{{anim id=\"35\"}}En días como este{{delay frames=\"8\"}}.{{delay frames=\"8\"}}.{{delay frames=\"8\"}}.{{delay frames=\"20\"}} ¡haz que la\nlluvia vea que no le tienes miedo!{{delay frames=\"20\"}}\n¡Tú plántale cara, {{delay frames=\"20\"}}{{fun_00070005 arg=\"\"}}!",
      "EUfr": "{{anim id=\"21\"}}Te bile pas si tes fringues finissent\npar ressembler à des serpillières à\nforce de prendre l'eau.\n{{anim id=\"35\"}}Faut montrer à la pluie qu'elle\nt'atteint pas !{{delay frames=\"20\"}} Si tu vois une flaque,{{delay frames=\"20\"}}\nplonge, {{fun_00070005 arg=\"\"}} !",
      "EUit": "{{anim id=\"21\"}}Cerca di non innervosirti se oggi\ntorni a casa zupp{{fun_0006000E arg=\"0x02006F0002006100\"}} d'acqua.{{pageBreak}}{{anim id=\"35\"}}In giorni come questo{{delay frames=\"8\"}}.{{delay frames=\"8\"}}.{{delay frames=\"8\"}}.{{delay frames=\"20\"}} devi far\nvedere alla pioggia che sei più\ndur{{fun_0006000E arg=\"0x02006F0002006100\"}} di lei!\n{{delay frames=\"20\"}}Fatti forza e digliene quattro,\n{{delay frames=\"20\"}}{{fun_00070005 arg=\"\"}}!",
      "JPja": "{{anim id=\"21\"}}{{ruby charSpan=\"2\" value=\"きょう\"}}今日は　{{ruby charSpan=\"1\" value=\"ふく\"}}服が\nどろんこになっても、\n{{ruby charSpan=\"1\" value=\"き\"}}気にしちゃ　ダメさ！{{delay frames=\"40\"}}\n{{anim id=\"35\"}}だって　それは{{delay frames=\"8\"}}・{{delay frames=\"8\"}}・{{delay frames=\"8\"}}・{{delay frames=\"20\"}}{{ruby charSpan=\"1\" value=\"あめ\"}}雨の{{ruby charSpan=\"1\" value=\"ひ\"}}日でも\n{{ruby charSpan=\"1\" value=\"そと\"}}外で　{{ruby charSpan=\"2\" value=\"きあ\"}}気合い{{ruby charSpan=\"1\" value=\"い\"}}入れたって\nアカシだからね！　{{delay frames=\"20\"}}{{fun_00070005 arg=\"\"}}！",
      "KRko": "{{anim id=\"21\"}}오늘은 옷이\n진흙투성이가 되어도\n신경 쓰기 없기다!{{delay frames=\"40\"}}\n{{anim id=\"35\"}}왜냐면 그건{{delay frames=\"8\"}}・{{delay frames=\"8\"}}・{{delay frames=\"8\"}}・{{delay frames=\"20\"}} 비 오는 날\n밖에서 열심히 놀았다는\n증거니까 말야! {{delay frames=\"20\"}}{{fun_00070005 arg=\"\"}}!",
      "USen": "{{anim id=\"21\"}}Don't get all bent out of shape if\nyour clothes get really wet today.{{pageBreak}}{{anim id=\"35\"}}On days like this{{delay frames=\"8\"}}.{{delay frames=\"8\"}}.{{delay frames=\"8\"}}.{{delay frames=\"20\"}}you gotta show\nthe rain you don't care!{{delay frames=\"20\"}} Get out and\nplay twice as hard, {{delay frames=\"20\"}}{{fun_00070005 arg=\"\"}}!",
      "USes": "{{anim id=\"21\"}}Oye, si se te moja toda la ropa\ntampoco hay que montar un drama.\nSolo es agua, no mantequilla.\n{{anim id=\"35\"}}En días como este{{delay frames=\"8\"}}.{{delay frames=\"8\"}}.{{delay frames=\"8\"}}.{{delay frames=\"20\"}} ¡haz que la\nlluvia vea que no le tienes miedo!{{delay frames=\"20\"}}\n¡Tú plántale cara, {{delay frames=\"20\"}}{{fun_00070005 arg=\"\"}}!",
      "USfr": "{{anim id=\"21\"}}Te bile pas si tes fringues finissent\npar ressembler à des serpillières à\nforce de prendre l'eau.\n{{anim id=\"35\"}}Faut montrer à la pluie qu'elle\nt'atteint pas!{{delay frames=\"20\"}} Allez, tu vois la\nflaque, là?{{delay frames=\"20\"}} Plonge, {{fun_00070005 arg=\"\"}}!"
    }
  },
  {
    "label": "008",
    "locale": {
      "EUde": "{{anim id=\"9\"}}Heute ist es fast schon so, als\nob der Himmel weinen würde{{delay frames=\"8\"}}.{{delay frames=\"8\"}}.{{delay frames=\"8\"}}.{{delay frames=\"20\"}}{{pageBreak}}{{anim id=\"26\"}}Ähm, öh...{{delay frames=\"8\"}} Das war 'n Scherz.{{delay frames=\"40\"}} Hehe.{{delay frames=\"20\"}}\n{{anim id=\"6\"}}Doofer Regen!{{delay frames=\"20\"}} {{fun_0003000E arg=\"\"}}{{fun_00070005 arg=\"\"}}!",
      "EUen": "{{anim id=\"9\"}}On rainy days, it almost seems like\nthe sky is crying{{delay frames=\"8\"}}.{{delay frames=\"8\"}}.{{delay frames=\"8\"}}.{{delay frames=\"20\"}}{{pageBreak}}{{anim id=\"26\"}}Oh, uh...{{delay frames=\"8\"}}I'm just kidding around.{{delay frames=\"40\"}}\nHeh.{{delay frames=\"20\"}} Crazy rain!{{delay frames=\"20\"}} {{fun_0003000E arg=\"\"}}{{fun_00070005 arg=\"\"}}!{{delay frames=\"40\"}}{{anim id=\"37\"}}",
      "EUes": "{{anim id=\"9\"}}Ah, los días de lluvia parece como\nsi el cielo llorase{{delay frames=\"8\"}}.{{delay frames=\"8\"}}.{{delay frames=\"8\"}}.{{delay frames=\"20\"}}{{pageBreak}}{{anim id=\"26\"}}¡¿Cómo que vaya cursilada?!{{delay frames=\"8\"}} Si el\ncielo llora...{{delay frames=\"40\"}} ¡es porque lo he mirado\nmal!{{delay frames=\"20\"}} ¡Aquí mando yo, {{fun_00070005 arg=\"\"}}!{{anim id=\"37\"}}",
      "EUfr": "{{anim id=\"4\"}}Douce pluie, larmes célestes{{delay frames=\"15\"}}.{{delay frames=\"15\"}}.{{delay frames=\"15\"}}.{{delay frames=\"20\"}}{{pageBreak}}{{anim id=\"26\"}}Oh,{{delay frames=\"15\"}} euh,{{delay frames=\"15\"}} hum...{{delay frames=\"15\"}} J'te faisais marcher,{{delay frames=\"15\"}}\nhum.{{delay frames=\"20\"}} Sale temps, hein...\n{{fun_0003000E arg=\"\"}}{{fun_00070005 arg=\"\"}} !{{delay frames=\"40\"}}{{anim id=\"37\"}}",
      "EUit": "{{anim id=\"9\"}}Quando piove sembra quasi che\nil cielo pianga{{delay frames=\"8\"}}.{{delay frames=\"8\"}}.{{delay frames=\"8\"}}.{{delay frames=\"20\"}}{{pageBreak}}{{anim id=\"26\"}}Oh, uh...{{delay frames=\"8\"}} Stavo solo provando a\nfare la poetessa...{{delay frames=\"40\"}} ma ora torno\nin me!{{pageBreak}}{{delay frames=\"20\"}}Maledetta pioggia!{{delay frames=\"20\"}} {{fun_0003000E arg=\"\"}}{{fun_00070005 arg=\"\"}}!{{delay frames=\"40\"}}{{anim id=\"37\"}}",
      "JPja": "{{anim id=\"9\"}}{{ruby charSpan=\"1\" value=\"あめ\"}}雨の{{ruby charSpan=\"1\" value=\"ひ\"}}日の　{{ruby charSpan=\"1\" value=\"そら\"}}空って、\nなんだか　{{ruby charSpan=\"1\" value=\"な\"}}泣いてるみたいだ{{delay frames=\"8\"}}・{{delay frames=\"8\"}}・{{delay frames=\"8\"}}・{{delay frames=\"20\"}}\n\n{{anim id=\"26\"}}な、{{delay frames=\"8\"}}なーんてね！{{delay frames=\"40\"}}\nキザ～！{{delay frames=\"20\"}}　{{fun_00070005 arg=\"\"}}！{{delay frames=\"40\"}}{{anim id=\"37\"}}",
      "KRko": "{{anim id=\"9\"}}비 오는 날은 어쩐지\n하늘이 울고 있는 것 같아{{delay frames=\"8\"}}・{{delay frames=\"8\"}}・{{delay frames=\"8\"}}・{{delay frames=\"20\"}}\n\n{{anim id=\"26\"}}앗, {{delay frames=\"8\"}}내가 무슨 소릴!{{delay frames=\"40\"}}\n{{delay frames=\"20\"}}너무 감상에 빠졌네～ {{fun_00070005 arg=\"\"}}{{delay frames=\"40\"}}{{anim id=\"37\"}}",
      "USen": "{{anim id=\"9\"}}On rainy days, it almost seems like\nthe sky is crying{{delay frames=\"8\"}}.{{delay frames=\"8\"}}.{{delay frames=\"8\"}}.{{delay frames=\"20\"}}{{pageBreak}}{{anim id=\"26\"}}Oh, uh...{{delay frames=\"8\"}}I'm just kidding around.{{delay frames=\"40\"}}\nHeh.{{delay frames=\"20\"}} Crazy rain!{{delay frames=\"20\"}} {{fun_0003000E arg=\"\"}}{{fun_00070005 arg=\"\"}}!{{delay frames=\"40\"}}{{anim id=\"37\"}}",
      "USes": "{{anim id=\"9\"}}Ah, los días de lluvia parece como\nsi el cielo llorase{{delay frames=\"8\"}}.{{delay frames=\"8\"}}.{{delay frames=\"8\"}}.{{delay frames=\"20\"}}{{pageBreak}}{{anim id=\"26\"}}¡¿Cómo que vaya cursilada?!{{delay frames=\"8\"}} Si el\ncielo llora...{{delay frames=\"40\"}} ¡es porque lo he mirado\nmal!{{delay frames=\"20\"}} ¡Aquí mando yo, {{fun_00070005 arg=\"\"}}!{{anim id=\"37\"}}",
      "USfr": "{{anim id=\"4\"}}Douce pluie, larmes célestes{{delay frames=\"15\"}}.{{delay frames=\"15\"}}.{{delay frames=\"15\"}}.{{delay frames=\"20\"}}{{pageBreak}}{{anim id=\"26\"}}Oh,{{delay frames=\"15\"}} euh,{{delay frames=\"15\"}} hum...{{delay frames=\"15\"}} J'te faisais marcher,{{delay frames=\"15\"}}\nhum.{{delay frames=\"20\"}} Sale temps, hein...\n{{fun_0003000E arg=\"\"}}{{fun_00070005 arg=\"\"}}!{{delay frames=\"40\"}}{{anim id=\"37\"}}"
    }
  },
  {
    "label": "009",
    "locale": {
      "EUde": "{{anim id=\"37\"}}Regennächte sind ganz schön cool,{{delay frames=\"8\"}}\nwenn du verstehst, {{delay frames=\"8\"}}was ich meine.\n{{delay frames=\"20\"}}{{fun_0003000E arg=\"\"}}{{fun_00070005 arg=\"\"}}.",
      "EUen": "{{anim id=\"37\"}}Rainy nights are pretty sweet too.\nKnow what I mean? {{delay frames=\"20\"}}{{fun_0003000E arg=\"\"}}{{fun_00070005 arg=\"\"}}?",
      "EUes": "{{anim id=\"37\"}}Las noches de lluvia no tienen nada\nde malo, te lo digo yo. ¿Tú también\nlo piensas, {{delay frames=\"20\"}}{{fun_00070005 arg=\"\"}}?",
      "EUfr": "{{anim id=\"37\"}}Les soirées pluvieuses, c'est sympa\naussi, hein ?{{delay frames=\"20\"}} De toute façon, tant\nqu'y fait nuit...{{delay frames=\"20\"}} {{fun_0003000E arg=\"\"}}{{fun_00070005 arg=\"\"}} !",
      "EUit": "{{anim id=\"37\"}}Le notti di pioggia hanno il loro\nfascino. Capisci che intendo dire?\n{{delay frames=\"20\"}}{{fun_0003000E arg=\"\"}}{{fun_00070005 arg=\"\"}}?",
      "JPja": "{{anim id=\"37\"}}{{ruby charSpan=\"1\" value=\"よる\"}}夜の{{ruby charSpan=\"1\" value=\"あめ\"}}雨ってのも、\nなかなか　オツだね！　{{delay frames=\"20\"}}{{fun_00070005 arg=\"\"}}！",
      "KRko": "{{anim id=\"37\"}}비 오는 밤도\n은근히 운치가 있네! {{delay frames=\"20\"}}{{fun_00070005 arg=\"\"}}!",
      "USen": "{{anim id=\"37\"}}Rainy nights are pretty sweet too.\nKnow what I mean? {{delay frames=\"20\"}}{{fun_0003000E arg=\"\"}}{{fun_00070005 arg=\"\"}}?",
      "USes": "{{anim id=\"37\"}}Las noches de lluvia no tienen nada\nde malo, te lo digo yo. ¿Tú también\nlo piensas, {{delay frames=\"20\"}}{{fun_00070005 arg=\"\"}}?",
      "USfr": "{{anim id=\"37\"}}Les soirées pluvieuses, c'est sympa\naussi, hein?{{delay frames=\"20\"}} De toute façon, tant\nqu'y fait nuit...{{delay frames=\"20\"}} {{fun_0003000E arg=\"\"}}{{fun_00070005 arg=\"\"}}!"
    }
  },
  {
    "label": "010",
    "locale": {
      "EUde": "{{anim id=\"36\"}}Schon{{delay frames=\"8\"}} {{color id=\"2\"}}{{fun_00030004 arg=\"\"}}:{{fun_00040004 arg=\"\"}} Uhr{{color id=\"65535\"}}{{delay frames=\"8\"}}.{{delay frames=\"8\"}}.{{delay frames=\"8\"}}.{{delay frames=\"20\"}} und du läufst\nimmer noch im Regen rum.{{delay frames=\"20\"}} Du bist\ndir für nichts zu schade,{{delay frames=\"8\"}} was?",
      "EUen": "{{anim id=\"36\"}}It's already{{delay frames=\"8\"}} {{fun_00030004 arg=\"\"}}:{{fun_00040004 arg=\"\"}}{{delay frames=\"8\"}}.{{delay frames=\"8\"}}.{{delay frames=\"8\"}}.{{delay frames=\"20\"}}but you're still\nout here in the rain.{{delay frames=\"8\"}} Nothing slows\nyou down, I see!{{delay frames=\"20\"}} {{fun_0003000E arg=\"\"}}{{fun_00070005 arg=\"\"}}!{{delay frames=\"40\"}}{{anim id=\"37\"}}",
      "EUes": "{{anim id=\"36\"}}Ya son las{{delay frames=\"8\"}} {{fun_00030004 arg=\"\"}}:{{fun_00040004 arg=\"\"}} horas{{delay frames=\"8\"}}.{{delay frames=\"8\"}}.{{delay frames=\"8\"}}.{{delay frames=\"20\"}}\ny tú sigues fuera remojándote\ncomo si nada.{{pageBreak}}A ti no te para nadie,{{delay frames=\"20\"}} ¿eh,\n{{fun_00070005 arg=\"\"}}?{{anim id=\"37\"}}",
      "EUfr": "{{anim id=\"36\"}}Il est déjà {{fun_00030004 arg=\"\"}} h {{fun_00040004 arg=\"\"}}...{{delay frames=\"10\"}}{{pageBreak}}Soit t'as oublié ta montre,{{delay frames=\"20\"}} soit t'es\nencore plus ouf que j'croyais,{{delay frames=\"20\"}}\n{{fun_00070005 arg=\"\"}} !{{delay frames=\"15\"}}{{anim id=\"37\"}}",
      "EUit": "{{anim id=\"36\"}}Sono già le{{delay frames=\"8\"}} {{fun_00030004 arg=\"\"}}:{{fun_00040004 arg=\"\"}}{{delay frames=\"8\"}}.{{delay frames=\"8\"}}.{{delay frames=\"8\"}}.{{delay frames=\"20\"}} ma tu sei\nancora in giro come se niente fosse.{{delay frames=\"8\"}}{{pageBreak}}Non ti fermi davanti a niente!{{delay frames=\"20\"}}\n{{fun_0003000E arg=\"\"}}{{fun_00070005 arg=\"\"}}!{{delay frames=\"40\"}}{{anim id=\"37\"}}",
      "JPja": "{{anim id=\"36\"}}もう{{delay frames=\"8\"}}　{{fun_00030004 arg=\"\"}}{{ruby charSpan=\"1\" value=\"じ\"}}時だってのに{{delay frames=\"8\"}}・{{delay frames=\"8\"}}・{{delay frames=\"8\"}}・{{delay frames=\"20\"}}\n{{ruby charSpan=\"1\" value=\"あめ\"}}雨の{{ruby charSpan=\"1\" value=\"なか\"}}中を　{{ruby charSpan=\"2\" value=\"さんぽ\"}}散歩とは、\nアンタも　{{ruby charSpan=\"2\" value=\"ものず\"}}物好きだね！{{delay frames=\"20\"}}　{{fun_00070005 arg=\"\"}}！{{delay frames=\"40\"}}{{anim id=\"37\"}}",
      "KRko": "{{anim id=\"36\"}}벌써 {{delay frames=\"8\"}}{{fun_00030004 arg=\"\"}}시인데{{delay frames=\"8\"}}・{{delay frames=\"8\"}}・{{delay frames=\"8\"}}・{{delay frames=\"20\"}}\n비 오는 밤에 산책이라니\n너도 참 별나다, {{delay frames=\"20\"}}{{fun_00070005 arg=\"\"}}{{delay frames=\"40\"}}{{anim id=\"37\"}}",
      "USen": "{{anim id=\"36\"}}It's already{{delay frames=\"8\"}} {{fun_00030004 arg=\"\"}}{{delay frames=\"8\"}}.{{delay frames=\"8\"}}.{{delay frames=\"8\"}}.{{delay frames=\"20\"}}but you're still out\nhere in the rain.{{delay frames=\"8\"}} Nothing slows you\ndown, I see!{{delay frames=\"20\"}} {{fun_0003000E arg=\"\"}}{{fun_00070005 arg=\"\"}}!{{delay frames=\"40\"}}{{anim id=\"37\"}}",
      "USes": "{{anim id=\"36\"}}Ya son las{{delay frames=\"8\"}} {{fun_00030004 arg=\"\"}}:{{fun_00040004 arg=\"\"}} horas{{delay frames=\"8\"}}.{{delay frames=\"8\"}}.{{delay frames=\"8\"}}.{{delay frames=\"20\"}}\ny tú sigues fuera remojándote\ncomo si nada.{{pageBreak}}A ti no te para nadie,{{delay frames=\"20\"}} ¿eh,\n{{fun_00070005 arg=\"\"}}?{{anim id=\"37\"}}",
      "USfr": "{{anim id=\"36\"}}Il est déjà {{fun_00030004 arg=\"\"}} h {{fun_00040004 arg=\"\"}}...{{delay frames=\"10\"}}{{pageBreak}}Soit t'as oublié ta montre,{{delay frames=\"20\"}} soit t'es\nencore plus ouf que j'croyais,{{delay frames=\"20\"}}\n{{fun_00070005 arg=\"\"}}!{{delay frames=\"15\"}}{{anim id=\"37\"}}"
    }
  },
  {
    "label": "011",
    "locale": {
      "EUde": "{{anim id=\"21\"}}Ich steh im Regen mit meinen\nRegenstiefeln,{{delay frames=\"20\"}} die mich nie im\nRegen stehen lassen.{{delay frames=\"40\"}} {{anim id=\"35\"}}Kapische?",
      "EUen": "{{anim id=\"21\"}}Rain makes me learn grammar.{{delay frames=\"20\"}} Like,\nthe plural of \"galoshes\" must be\n\"galosheses,\"{{delay frames=\"20\"}} right?{{delay frames=\"20\"}} {{fun_0003000E arg=\"\"}}{{fun_00070005 arg=\"\"}}?",
      "EUes": "{{anim id=\"21\"}}¡Esta lluvia me está haciendo\naprender ruso!{{delay frames=\"20\"}} ¡Ahora sé la\npalabra \"katiuska\",{{delay frames=\"20\"}} {{fun_00070005 arg=\"\"}}!",
      "EUfr": "{{anim id=\"10\"}}Chuis pas ta mère, {{fun_00080005 arg=\"\"}}, mais\nsi j'te revois sans tes bottes sous\nla pluie...{{delay frames=\"30\"}} {{fun_0003000E arg=\"\"}}{{fun_00070005 arg=\"\"}}.",
      "EUit": "{{anim id=\"21\"}}Quando piove comincio a pensare\nalle cose più strane.{{delay frames=\"20\"}}{{pageBreak}}Qual è il plurale di \"digiuno\"?\nA me viene da dire \"digidue\"...\nTu che dici?{{delay frames=\"20\"}} {{fun_0003000E arg=\"\"}}{{fun_00070005 arg=\"\"}}?",
      "JPja": "{{anim id=\"21\"}}{{ruby charSpan=\"1\" value=\"あめ\"}}雨の{{ruby charSpan=\"1\" value=\"ひ\"}}日の　{{ruby charSpan=\"2\" value=\"しゅうかい\"}}集会は\n「ながぐつ」って、{{delay frames=\"8\"}}ウチの{{ruby charSpan=\"2\" value=\"じもと\"}}地元じゃ\n{{ruby charSpan=\"1\" value=\"き\"}}決まってんだぜ！{{delay frames=\"20\"}}　{{delay frames=\"20\"}}{{fun_00070005 arg=\"\"}}！",
      "KRko": "{{anim id=\"21\"}}비 오는 날의 패션은 역시\n「긴 양말」이지{{delay frames=\"8\"}}\n우리 마을만 그런가? {{delay frames=\"20\"}}{{delay frames=\"20\"}}{{fun_00070005 arg=\"\"}}?",
      "USen": "{{anim id=\"21\"}}Rain makes me learn grammar.{{delay frames=\"20\"}} Like,\nthe plural of \"galoshes\" must be\n\"galosheses,\"{{delay frames=\"20\"}} right?{{delay frames=\"20\"}} {{fun_0003000E arg=\"\"}}{{fun_00070005 arg=\"\"}}?",
      "USes": "{{anim id=\"21\"}}¡Esta lluvia me está haciendo\naprender ruso!{{delay frames=\"20\"}} ¡Ahora sé la\npalabra \"katiuska\",{{delay frames=\"20\"}} {{fun_00070005 arg=\"\"}}!",
      "USfr": "{{anim id=\"10\"}}Chuis pas ta mère, {{fun_00080005 arg=\"\"}}, mais\nsi j'te revois sans tes bottes sous\nla pluie...{{delay frames=\"30\"}} {{fun_0003000E arg=\"\"}}{{fun_00070005 arg=\"\"}}."
    }
  },
  {
    "label": "012",
    "locale": {
      "EUde": "{{anim id=\"21\"}}In Regennächten mag ich es, meine\nGedanken zu ordnen{{delay frames=\"8\"}}.{{delay frames=\"8\"}}.{{delay frames=\"8\"}}.{{delay frames=\"20\"}}{{anim id=\"6\"}} Leider gibt's\nda nicht viel zu ordnen!",
      "EUen": "{{anim id=\"21\"}}Rainy nights always clear my head{{delay frames=\"8\"}}.{{delay frames=\"8\"}}.{{delay frames=\"8\"}}.{{delay frames=\"20\"}}{{anim id=\"37\"}}\nBut I guess{{delay frames=\"8\"}} there's not much up\nthere to clear! {{delay frames=\"20\"}}{{fun_0003000E arg=\"\"}}{{fun_00070005 arg=\"\"}}!",
      "EUes": "{{anim id=\"21\"}}Las noches de lluvia siempre me\ndespejan la mente{{delay frames=\"8\"}}.{{delay frames=\"8\"}}.{{delay frames=\"8\"}}.{{delay frames=\"20\"}}{{anim id=\"37\"}} ¡Aunque no hay\nmucho que despejar, {{delay frames=\"20\"}}{{fun_00070005 arg=\"\"}}!",
      "EUfr": "{{anim id=\"21\"}}La pluie m'aide à faire le vide dans\nma tête...{{delay frames=\"20\"}} {{anim id=\"6\"}}Et m'dis pas qu'y a pas\ngrand-chose à vider, {{delay frames=\"20\"}}{{fun_00070005 arg=\"\"}} !{{delay frames=\"15\"}}{{anim id=\"0\"}}",
      "EUit": "{{anim id=\"21\"}}Le notti di pioggia mi fanno sentire\nla testa vuota{{delay frames=\"8\"}}.{{delay frames=\"8\"}}.{{delay frames=\"8\"}}.{{pageBreak}}{{delay frames=\"20\"}}{{anim id=\"37\"}}{{delay frames=\"8\"}}Siamo sicuri che sia solo colpa\ndella pioggia, {{delay frames=\"20\"}}{{fun_00070005 arg=\"\"}}?",
      "JPja": "{{anim id=\"21\"}}{{ruby charSpan=\"1\" value=\"あめ\"}}雨の{{ruby charSpan=\"1\" value=\"よる\"}}夜は　なんだか\n{{ruby charSpan=\"1\" value=\"め\"}}目が　さえちゃうんだ{{delay frames=\"8\"}}・{{delay frames=\"8\"}}・{{delay frames=\"8\"}}・{{delay frames=\"20\"}}{{anim id=\"37\"}}って、{{delay frames=\"8\"}}\nウチの{{ruby charSpan=\"2\" value=\"よふ\"}}夜更かしは　いつもか！　{{delay frames=\"20\"}}{{fun_00070005 arg=\"\"}}！",
      "KRko": "{{anim id=\"21\"}}유난히 잠이 안 오는 건\n비 오는 밤이기 때문{{delay frames=\"8\"}}・{{delay frames=\"8\"}}・{{delay frames=\"8\"}}・{{delay frames=\"20\"}}{{anim id=\"37\"}}이 아니라{{delay frames=\"8\"}}\n난 원래 올빼미족이었지! {{delay frames=\"20\"}}{{fun_00070005 arg=\"\"}}!",
      "USen": "{{anim id=\"21\"}}Rainy nights always clear my head{{delay frames=\"8\"}}.{{delay frames=\"8\"}}.{{delay frames=\"8\"}}.{{delay frames=\"20\"}}{{anim id=\"37\"}}\nBut I guess{{delay frames=\"8\"}} there's not much up\nthere to clear! {{delay frames=\"20\"}}{{fun_0003000E arg=\"\"}}{{fun_00070005 arg=\"\"}}!",
      "USes": "{{anim id=\"21\"}}Las noches de lluvia siempre me\ndespejan la mente{{delay frames=\"8\"}}.{{delay frames=\"8\"}}.{{delay frames=\"8\"}}.{{delay frames=\"20\"}}{{anim id=\"37\"}} ¡Aunque no hay\nmucho que despejar, {{delay frames=\"20\"}}{{fun_00070005 arg=\"\"}}!",
      "USfr": "{{anim id=\"21\"}}La pluie m'aide à faire le vide dans\nma tête...{{delay frames=\"20\"}} {{anim id=\"6\"}}Et m'dis pas qu'y a pas\ngrand-chose à vider, {{delay frames=\"20\"}}{{fun_00070005 arg=\"\"}}!{{delay frames=\"15\"}}{{anim id=\"0\"}}"
    }
  }
]