﻿[
  {
    "label": "001",
    "locale": {
      "EUde": "{{anim id=\"35\"}}Hey{{delay frames=\"8\"}}.{{delay frames=\"8\"}}.{{delay frames=\"8\"}}.{{delay frames=\"20\"}} Mir ist gerade der perfekte\nSpitzname für dich eingefallen!{{anim id=\"23\"}}\nWillste ihn hören? {{delay frames=\"8\"}}Na? {{delay frames=\"8\"}}Na?{{fun_0005000F arg=\"0x15002800\"}}\nRaus damit!\nNee, lass mal.",
      "EUen": "{{anim id=\"35\"}}Hey{{delay frames=\"8\"}}.{{delay frames=\"8\"}}.{{delay frames=\"8\"}}.{{delay frames=\"20\"}} So I just thought of a super-\nawesome nickname for you!{{anim id=\"23\"}} Wanna\nhear it?{{fun_0005000F arg=\"0x15002800\"}}\nWhat is it?\nI'm good.",
      "EUes": "{{anim id=\"35\"}}Oye{{delay frames=\"8\"}}.{{delay frames=\"8\"}}.{{delay frames=\"8\"}}.{{delay frames=\"20\"}} Esto te va a gustar la tira.\n¡Se me ha ocurrido una forma de\nllamarte que se sale!{{anim id=\"23\"}} ¿Te la digo?{{fun_0005000F arg=\"0x15002800\"}}\n¿Cuál es?\nNo me interesa",
      "EUfr": "{{anim id=\"35\"}}Hep{{delay frames=\"15\"}}.{{delay frames=\"15\"}}.{{delay frames=\"15\"}}.{{delay frames=\"20\"}} J'viens tout juste de penser à\nun super surnom d'la mort qui tue\nrien qu'pour toi !{{anim id=\"23\"}} Ça t'intéresse ?{{fun_0005000F arg=\"0x15002800\"}}\nVas-y ?!\nPas vraiment...",
      "EUit": "{{anim id=\"35\"}}Ehi{{delay frames=\"8\"}}.{{delay frames=\"8\"}}.{{delay frames=\"8\"}}.{{delay frames=\"20\"}} Mi è appena venuto in mente\nun soprannome giusto per te!{{anim id=\"23\"}}\nVuoi sapere qual è?{{fun_0005000F arg=\"0x15002800\"}}\nVai!\nPreferisco di no.",
      "JPja": "{{anim id=\"35\"}}あのさ{{delay frames=\"8\"}}・{{delay frames=\"8\"}}・{{delay frames=\"8\"}}・{{delay frames=\"20\"}}ウチ　{{ruby charSpan=\"1\" value=\"いま\"}}今{{delay frames=\"8\"}}\nすっごい　イカした\nアンタの　あだ{{ruby charSpan=\"1\" value=\"な\"}}名、{{ruby charSpan=\"1\" value=\"おも\"}}思いついたんだ！\n{{anim id=\"23\"}}{{ruby charSpan=\"1\" value=\"き\"}}聞きたい？{{fun_0005000F arg=\"0x15002800\"}}\nどんなの？\nこのままでいい",
      "KRko": "{{anim id=\"35\"}}야{{delay frames=\"8\"}}・{{delay frames=\"8\"}}・{{delay frames=\"8\"}}・{{delay frames=\"20\"}} 내가 너한테 딱 어울리는\n기가 막힌 별명 하나 생각해 냈거든!\n\n{{anim id=\"23\"}}한번 들어볼래?{{fun_0005000F arg=\"0x15002800\"}}\n뭔데?\n안 궁금해",
      "USen": "{{anim id=\"35\"}}Hey{{delay frames=\"8\"}}.{{delay frames=\"8\"}}.{{delay frames=\"8\"}}.{{delay frames=\"20\"}} So I just thought of a super-\nawesome nickname for you!{{anim id=\"23\"}} Wanna\nhear it?{{fun_0005000F arg=\"0x15002800\"}}\nWhat is it?\nI'm good.",
      "USes": "{{anim id=\"35\"}}Oye{{delay frames=\"8\"}}.{{delay frames=\"8\"}}.{{delay frames=\"8\"}}.{{delay frames=\"20\"}} Esto te va a gustar la tira.\n¡Se me ha ocurrido una forma de\nllamarte que se sale!{{anim id=\"23\"}} ¿Te la digo?{{fun_0005000F arg=\"0x15002800\"}}\n¿Cuál es?\nNo me interesa",
      "USfr": "{{anim id=\"35\"}}Hep{{delay frames=\"15\"}}.{{delay frames=\"15\"}}.{{delay frames=\"15\"}}.{{delay frames=\"20\"}} J'viens tout juste de penser à\nun super surnom d'la mort qui tue\nrien qu'pour toi!{{anim id=\"23\"}} Ça t'intéresse?{{fun_0005000F arg=\"0x15002800\"}}\nVas-y?!\nPas vraiment..."
    }
  },
  {
    "label": "002",
    "locale": {
      "EUde": "{{anim id=\"9\"}}Ist das dein Ernst?!?{{delay frames=\"20\"}} Du willst ihn\nnicht mal hören?{{delay frames=\"40\"}} {{anim id=\"27\"}}{{fun_0006000E arg=\"0x0A004A0075006E00670065000E004D00E40064006300680065006E00\"}},{{delay frames=\"20\"}} mit der\nEinstellung kommste nicht weit!",
      "EUen": "{{anim id=\"9\"}}What?!{{delay frames=\"20\"}} You don't wanna hear it?{{delay frames=\"40\"}}\n{{anim id=\"27\"}}Dude, try and live a little! Have\nsome fun with it,{{delay frames=\"20\"}} {{fun_00080005 arg=\"\"}}!",
      "EUes": "{{anim id=\"9\"}}¡¿Qué?!{{delay frames=\"20\"}} ¿No quieres oírla?{{delay frames=\"40\"}} {{anim id=\"27\"}}Pero\nqué sos{{fun_0006000E arg=\"0x02006F0002006100\"}} eres... ¡Solo se vive una\nvez! ¡Mójate un poco,{{delay frames=\"20\"}} {{fun_00080005 arg=\"\"}}!",
      "EUfr": "{{anim id=\"9\"}}Quoi ?!{{delay frames=\"20\"}} Tu t'en fiches ?{{delay frames=\"30\"}} {{anim id=\"27\"}}T'es pas\ntrès {{fun_0006000E arg=\"0x0E006D0061007200720061006E00740010006D0061007200720061006E0074006500\"}}, toi... Faut t'lâcher\nun peu,{{delay frames=\"20\"}} {{fun_00080005 arg=\"\"}} !",
      "EUit": "{{anim id=\"9\"}}Come?!{{delay frames=\"20\"}} Non vuoi saperlo?{{delay frames=\"40\"}} {{anim id=\"27\"}}Non\nprendere sempre tutto sul serio!\nFatti una risata,{{delay frames=\"20\"}} {{fun_00080005 arg=\"\"}}!",
      "JPja": "{{anim id=\"9\"}}えー！{{delay frames=\"20\"}}　そうなの？{{delay frames=\"40\"}}\n{{anim id=\"27\"}}シゲキを　{{ruby charSpan=\"1\" value=\"もと\"}}求めるのは\n{{ruby charSpan=\"1\" value=\"わる\"}}悪いことじゃないよ！{{delay frames=\"20\"}}　{{fun_00080005 arg=\"\"}}！",
      "KRko": "{{anim id=\"9\"}}뭐라구ー? {{delay frames=\"20\"}}진심이냐?!{{delay frames=\"40\"}}\n{{anim id=\"27\"}}이런 재미없는 녀석!{{delay frames=\"20\"}}\n{{fun_00080005 arg=\"\"}}!",
      "USen": "{{anim id=\"9\"}}What?!{{delay frames=\"20\"}} You don't wanna hear it?{{delay frames=\"40\"}}\n{{anim id=\"27\"}}Dude, try and live a little! Have\nsome fun with it,{{delay frames=\"20\"}} {{fun_00080005 arg=\"\"}}!",
      "USes": "{{anim id=\"9\"}}¡¿Qué?!{{delay frames=\"20\"}} ¿No quieres oírla?{{delay frames=\"40\"}} {{anim id=\"27\"}}Pero\nqué sos{{fun_0006000E arg=\"0x02006F0002006100\"}} eres... ¡Solo se vive una\nvez! ¡Mójate un poco,{{delay frames=\"20\"}} {{fun_00080005 arg=\"\"}}!",
      "USfr": "{{anim id=\"9\"}}Quoi?!{{delay frames=\"20\"}} Tu t'en fiches?{{delay frames=\"30\"}} {{anim id=\"27\"}}T'es pas\ntrès {{fun_0006000E arg=\"0x0E006D0061007200720061006E00740010006D0061007200720061006E0074006500\"}}, toi... Faut t'lâcher\nun peu,{{delay frames=\"20\"}} {{fun_00080005 arg=\"\"}}!"
    }
  },
  {
    "label": "003",
    "locale": {
      "EUde": "{{anim id=\"38\"}}Sauber!{{delay frames=\"20\"}} Biste bereit?{{delay frames=\"20\"}} Er lautet.{{delay frames=\"8\"}}.{{delay frames=\"8\"}}.{{delay frames=\"8\"}}\n„{{fun_0003000E arg=\"\"}}{{fun_00080005 arg=\"\"}}“!{{delay frames=\"40\"}}\n{{anim id=\"0\"}}Haut rein, oder?{{fun_0005000F arg=\"0x15002800\"}}\nFind ich super!\nFurchtbar!",
      "EUen": "{{anim id=\"38\"}}OK! You ready?{{delay frames=\"20\"}} It's \"{{fun_00080005 arg=\"\"}}\"!{{delay frames=\"40\"}}\n{{anim id=\"0\"}}Cool, right?{{fun_0005000F arg=\"0x15002800\"}}\nI like it!\nI hate it!",
      "EUes": "{{anim id=\"38\"}}¡Vale! ¿List{{fun_0006000E arg=\"0x02006F0002006100\"}}? ¡Es \"{{fun_00080005 arg=\"\"}}\"!{{delay frames=\"40\"}}\n{{anim id=\"0\"}}¿A que mola?{{fun_0005000F arg=\"0x15002800\"}}\n¡Me gusta!\n¡Lo odio!",
      "EUfr": "{{anim id=\"38\"}}D'ac ! T'es {{fun_0006000E arg=\"0x080070007200EA0074000A0070007200EA0074006500\"}} ?{{delay frames=\"20\"}} Voilà, c'est\n« {{fun_00080005 arg=\"\"}} » !{{delay frames=\"40\"}} {{anim id=\"0\"}}Classe, hein ?{{fun_0005000F arg=\"0x15002800\"}}\nPas mal !\nBeurk !",
      "EUit": "{{anim id=\"38\"}}OK! Sei pront{{fun_0006000E arg=\"0x02006F0002006100\"}}?{{delay frames=\"20\"}} Ora te lo dico:\n\"{{fun_00080005 arg=\"\"}}\"!{{delay frames=\"40\"}} {{anim id=\"0\"}}Sei sbalordit{{fun_0006000E arg=\"0x02006F0002006100\"}}, eh?{{fun_0005000F arg=\"0x15002800\"}}\nMi piace!\nMi fa orrore!",
      "JPja": "{{anim id=\"38\"}}うん！{{delay frames=\"20\"}}\n「{{fun_00080005 arg=\"\"}}」ってんだ！{{delay frames=\"40\"}}\n{{anim id=\"0\"}}カッコいいだろ？！{{fun_0005000F arg=\"0x15002800\"}}\nいいね！\nイヤだよ",
      "KRko": "{{anim id=\"38\"}}응! 뭐냐면{{delay frames=\"8\"}}・{{delay frames=\"8\"}}・{{delay frames=\"8\"}}・{{delay frames=\"20\"}}\n「{{fun_00080005 arg=\"\"}}」!{{delay frames=\"40\"}}\n{{anim id=\"0\"}}어때? 멋있지?{{fun_0005000F arg=\"0x15002800\"}}\n멋져!\n완전 별로야",
      "USen": "{{anim id=\"38\"}}OK! You ready?{{delay frames=\"20\"}} It's \"{{fun_00080005 arg=\"\"}}\"!{{delay frames=\"40\"}}\n{{anim id=\"0\"}}Cool, right?{{fun_0005000F arg=\"0x15002800\"}}\nI like it!\nI hate it!",
      "USes": "{{anim id=\"38\"}}¡Vale! ¿List{{fun_0006000E arg=\"0x02006F0002006100\"}}? ¡Es \"{{fun_00080005 arg=\"\"}}\"!{{delay frames=\"40\"}}\n{{anim id=\"0\"}}¿A que mola?{{fun_0005000F arg=\"0x15002800\"}}\n¡Me gusta!\n¡Lo odio!",
      "USfr": "{{anim id=\"38\"}}D'ac! T'es {{fun_0006000E arg=\"0x080070007200EA0074000A0070007200EA0074006500\"}}?{{delay frames=\"20\"}} Voilà, c'est\n« {{fun_00080005 arg=\"\"}} »!{{delay frames=\"40\"}} {{anim id=\"0\"}}Classe, hein?{{fun_0005000F arg=\"0x15002800\"}}\nPas mal!\nBeurk!"
    }
  },
  {
    "label": "004",
    "locale": {
      "EUde": "{{anim id=\"33\"}}Sag ich doch!{{delay frames=\"40\"}} Ich wusste gleich,\ndass du den genauso super finden\nwürdest wie ich!\n{{anim id=\"5\"}}Okay, ab heute bist du {{fun_00080005 arg=\"\"}}!{{delay frames=\"40\"}}\nBis die Tage, {{delay frames=\"20\"}}{{fun_00070005 arg=\"\"}}!",
      "EUen": "{{anim id=\"33\"}}Right?!{{delay frames=\"40\"}} When it came to me, I knew\nI had to tell you!{{pageBreak}}{{anim id=\"5\"}}OK, from now on I'm calling you\n{{fun_00080005 arg=\"\"}}!{{delay frames=\"40\"}} Later, {{delay frames=\"20\"}}{{fun_00070005 arg=\"\"}}!",
      "EUes": "{{anim id=\"33\"}}¡¿A que sí?!{{delay frames=\"40\"}} Cuando se me ocurrió,\n¡tuve más claro que ninguna cosa en\nmi vida que tenía que decírtelo!\n{{anim id=\"5\"}}Pues nada, ¡desde ahora te llamaré\n{{fun_00080005 arg=\"\"}}!{{delay frames=\"40\"}} ¡Agur, {{delay frames=\"20\"}}{{fun_00070005 arg=\"\"}}!",
      "EUfr": "{{anim id=\"33\"}}N'est-ce pas ?!{{delay frames=\"40\"}} Ç'aurait été criminel\nde garder ça pour moi !{{pageBreak}}{{anim id=\"5\"}}Bon, désormais, j't'appellerai\n« {{fun_00080005 arg=\"\"}} » !{{delay frames=\"40\"}} À plus tard,{{delay frames=\"20\"}}\n{{fun_00070005 arg=\"\"}} !",
      "EUit": "{{anim id=\"33\"}}Lo sapevo!{{delay frames=\"40\"}} Quando mi è venuto\nin mente, non vedevo l'ora di\ndirtelo!\n{{anim id=\"5\"}}OK, da oggi in poi per me sarai:\n{{fun_00080005 arg=\"\"}}!{{delay frames=\"40\"}} Ci si vede,\n{{delay frames=\"20\"}}{{fun_00070005 arg=\"\"}}!",
      "JPja": "{{anim id=\"33\"}}だろー？！{{delay frames=\"40\"}}\nこれ　ひらめいたとき、ウチ\nビビッと　きたもんね！\n{{anim id=\"5\"}}そんじゃ　{{ruby charSpan=\"1\" value=\"いま\"}}今から、\nアンタは　{{fun_00080005 arg=\"\"}}だから！{{delay frames=\"40\"}}\nよろしくね！　{{delay frames=\"20\"}}{{fun_00070005 arg=\"\"}}！",
      "KRko": "{{anim id=\"33\"}}그치ー?!{{delay frames=\"40\"}}\n나도 처음 떠올렸을 땐\n이거다 싶었다니까!\n{{anim id=\"5\"}}그럼, 넌 이제부터\n{{fun_00080005 arg=\"\"}}{{fun_000E000E arg=\"0x040074C77CC502007CC5\"}}!{{delay frames=\"40\"}}\n불만 없지? {{delay frames=\"20\"}}{{fun_00070005 arg=\"\"}}!",
      "USen": "{{anim id=\"33\"}}Right?!{{delay frames=\"40\"}} When it came to me, I knew\nI had to tell you!{{pageBreak}}{{anim id=\"5\"}}OK, from now on I'm calling you\n{{fun_00080005 arg=\"\"}}!{{delay frames=\"40\"}} Later, {{delay frames=\"20\"}}{{fun_00070005 arg=\"\"}}!",
      "USes": "{{anim id=\"33\"}}¡¿A que sí?!{{delay frames=\"40\"}} Cuando se me ocurrió,\n¡tuve más claro que ninguna cosa en\nmi vida que tenía que decírtelo!\n{{anim id=\"5\"}}Pues nada, ¡desde ahora te llamaré\n{{fun_00080005 arg=\"\"}}!{{delay frames=\"40\"}} ¡Agur, {{delay frames=\"20\"}}{{fun_00070005 arg=\"\"}}!",
      "USfr": "{{anim id=\"33\"}}N'est-ce pas?!{{delay frames=\"40\"}} Ç'aurait été criminel\nde garder ça pour moi!{{pageBreak}}{{anim id=\"5\"}}Bon, désormais, j't'appellerai\n« {{fun_00080005 arg=\"\"}} »!{{delay frames=\"40\"}} À plus tard,{{delay frames=\"20\"}}\n{{fun_00070005 arg=\"\"}}!"
    }
  },
  {
    "label": "005",
    "locale": {
      "EUde": "{{anim id=\"9\"}}E-{{delay frames=\"8\"}}echt jetzt?{{delay frames=\"40\"}} {{anim id=\"10\"}}Och Mann{{delay frames=\"8\"}}.{{delay frames=\"8\"}}.{{delay frames=\"8\"}}.{{delay frames=\"20\"}}{{pageBreak}}{{anim id=\"21\"}}Na ja,{{delay frames=\"8\"}} dann muss ich dich wohl\nweiterhin {{fun_00080005 arg=\"\"}} nennen, bis\nmir was Besseres einfällt! ",
      "EUen": "{{anim id=\"9\"}}Wha...{{delay frames=\"8\"}} Really?{{delay frames=\"40\"}} {{anim id=\"10\"}}Hmmm{{delay frames=\"8\"}}.{{delay frames=\"8\"}}.{{delay frames=\"8\"}}.{{delay frames=\"20\"}}{{pageBreak}}{{anim id=\"21\"}}OK,{{delay frames=\"8\"}} well, until I think of something\nbetter, I'll just keep calling you\n{{fun_00080005 arg=\"\"}}. {{delay frames=\"20\"}}{{anim id=\"37\"}}{{fun_0003000E arg=\"\"}}{{fun_00070005 arg=\"\"}}!",
      "EUes": "{{anim id=\"9\"}}¡¿Qué...?!{{delay frames=\"8\"}} ¿En serio?{{delay frames=\"40\"}} {{anim id=\"10\"}}Huy{{delay frames=\"8\"}}.{{delay frames=\"8\"}}.{{delay frames=\"8\"}}.{{delay frames=\"20\"}}{{pageBreak}}{{anim id=\"21\"}}Bueno,{{delay frames=\"8\"}} pues hasta que me canse\no encuentre algo mejor, ¡te seguiré\nllamando {{fun_00080005 arg=\"\"}}, {{delay frames=\"20\"}}{{anim id=\"37\"}}{{fun_00070005 arg=\"\"}}!",
      "EUfr": "{{anim id=\"9\"}}Que...{{delay frames=\"15\"}} À ce point-là ?!{{delay frames=\"40\"}} {{anim id=\"10\"}}Pfff{{delay frames=\"15\"}}.{{delay frames=\"15\"}}.{{delay frames=\"15\"}}.{{pageBreak}}{{anim id=\"21\"}}Très bien,{{delay frames=\"20\"}} j'continuerai donc à\nt'appeler « {{fun_00080005 arg=\"\"}} ».{{delay frames=\"30\"}} {{anim id=\"37\"}}Jusqu'à\nma prochaine idée,{{delay frames=\"20\"}} {{fun_00070005 arg=\"\"}} !",
      "EUit": "{{anim id=\"9\"}}Ma, ma...{{delay frames=\"8\"}} Non ti piace?{{delay frames=\"40\"}} {{anim id=\"10\"}}Mmmh{{delay frames=\"8\"}}.{{delay frames=\"8\"}}.{{delay frames=\"8\"}}.{{delay frames=\"20\"}}{{pageBreak}}{{anim id=\"21\"}}OK,{{delay frames=\"8\"}} beh finché non trovo niente di\nmeglio, continuerò a chiamarti\n{{fun_00080005 arg=\"\"}}. {{delay frames=\"20\"}}{{anim id=\"37\"}}{{fun_0003000E arg=\"\"}}{{fun_00070005 arg=\"\"}}!",
      "JPja": "{{anim id=\"9\"}}え～、{{delay frames=\"8\"}}そう？{{delay frames=\"40\"}}\n{{anim id=\"10\"}}そうかぁ{{delay frames=\"8\"}}・{{delay frames=\"8\"}}・{{delay frames=\"8\"}}・{{delay frames=\"20\"}}\n\n{{anim id=\"21\"}}そんじゃ、{{delay frames=\"8\"}}いいの{{ruby charSpan=\"1\" value=\"おも\"}}思いつくまで\nまた　{{fun_00080005 arg=\"\"}}って\n{{ruby charSpan=\"1\" value=\"よ\"}}呼ばせてもらうわ！　{{delay frames=\"20\"}}{{anim id=\"37\"}}{{fun_00070005 arg=\"\"}}！",
      "KRko": "{{anim id=\"9\"}}이럴 수가～ {{delay frames=\"8\"}}정말?{{delay frames=\"40\"}}\n{{anim id=\"10\"}}실망이야{{delay frames=\"8\"}}・{{delay frames=\"8\"}}・{{delay frames=\"8\"}}・{{delay frames=\"20\"}}\n\n{{anim id=\"21\"}}할 수 없지, {{delay frames=\"8\"}}더 좋은 별명이\n떠오를 때까지는 계속 {{fun_00080005 arg=\"\"}}{{fun_000E000E arg=\"0x060074C77CB7E0AC04007CB7E0AC\"}}\n부르는 수밖에! {{delay frames=\"20\"}}{{anim id=\"37\"}}{{fun_00070005 arg=\"\"}}!",
      "USen": "{{anim id=\"9\"}}Wha...{{delay frames=\"8\"}} Really?{{delay frames=\"40\"}} {{anim id=\"10\"}}Hmmm{{delay frames=\"8\"}}.{{delay frames=\"8\"}}.{{delay frames=\"8\"}}.{{delay frames=\"20\"}}{{pageBreak}}{{anim id=\"21\"}}OK,{{delay frames=\"8\"}} well, until I think of something\nbetter, I'll just keep calling you\n{{fun_00080005 arg=\"\"}}. {{delay frames=\"20\"}}{{anim id=\"37\"}}{{fun_0003000E arg=\"\"}}{{fun_00070005 arg=\"\"}}!",
      "USes": "{{anim id=\"9\"}}¡¿Qué...?!{{delay frames=\"8\"}} ¿En serio?{{delay frames=\"40\"}} {{anim id=\"10\"}}Huy{{delay frames=\"8\"}}.{{delay frames=\"8\"}}.{{delay frames=\"8\"}}.{{delay frames=\"20\"}}{{pageBreak}}{{anim id=\"21\"}}Bueno,{{delay frames=\"8\"}} pues hasta que me canse\no encuentre algo mejor, ¡te seguiré\nllamando {{fun_00080005 arg=\"\"}}, {{delay frames=\"20\"}}{{anim id=\"37\"}}{{fun_00070005 arg=\"\"}}!",
      "USfr": "{{anim id=\"9\"}}Que...{{delay frames=\"15\"}} À ce point-là?!{{delay frames=\"40\"}} {{anim id=\"10\"}}Pfff{{delay frames=\"15\"}}.{{delay frames=\"15\"}}.{{delay frames=\"15\"}}.{{pageBreak}}{{anim id=\"21\"}}Très bien,{{delay frames=\"20\"}} j'continuerai donc à\nt'appeler « {{fun_00080005 arg=\"\"}} ».{{delay frames=\"30\"}} {{anim id=\"37\"}}Jusqu'à\nma prochaine idée,{{delay frames=\"20\"}} {{fun_00070005 arg=\"\"}}!"
    }
  },
  {
    "label": "006",
    "locale": {
      "EUde": "{{anim id=\"9\"}}Das ist doch nicht dein Ernst?!?{{delay frames=\"40\"}}\nNa, was soll's. {{delay frames=\"20\"}}{{anim id=\"23\"}}Dann sag mir doch\nmal, {{delay frames=\"8\"}}was du besser fändest!",
      "EUen": "{{anim id=\"9\"}}Whaaat? {{delay frames=\"8\"}}Really?{{delay frames=\"40\"}} Well, OK. {{anim id=\"23\"}}What do\nyou think would be good then?",
      "EUes": "{{anim id=\"9\"}}¿Quéeee? {{delay frames=\"8\"}}¿En serio?{{delay frames=\"40\"}} Bueno,\nlo que tú digas. {{anim id=\"23\"}}Entonces, {{delay frames=\"8\"}}¿tú\nqué crees que podría estar bien?",
      "EUfr": "{{anim id=\"9\"}}Gnéééé ?!{{delay frames=\"15\"}} Sérieux ?{{delay frames=\"30\"}} Bon, c'est toi\nqui vois. {{anim id=\"23\"}}Mais dis-moi,{{delay frames=\"15\"}} t'as mieux à\nproposer ?",
      "EUit": "{{anim id=\"9\"}}Cooome? {{delay frames=\"8\"}}Davvero?{{delay frames=\"40\"}} Il concetto è\nchiaro, sì. {{anim id=\"23\"}}Che cosa {{delay frames=\"8\"}}proporresti tu\nallora?",
      "JPja": "{{anim id=\"9\"}}え～？　{{delay frames=\"8\"}}そう？{{delay frames=\"40\"}}\n{{anim id=\"23\"}}じゃ、{{delay frames=\"8\"}}どんな{{ruby charSpan=\"1\" value=\"かん\"}}感じが\nいいっての？",
      "KRko": "{{anim id=\"9\"}}정말{{delay frames=\"8\"}}・{{delay frames=\"8\"}}・{{delay frames=\"8\"}}・{{delay frames=\"8\"}}? {{delay frames=\"8\"}}그렇게 별로야?{{delay frames=\"40\"}}\n{{anim id=\"23\"}}그럼, {{delay frames=\"8\"}}어떤 별명이 좋은데?",
      "USen": "{{anim id=\"9\"}}Whaaat? {{delay frames=\"8\"}}Really?{{delay frames=\"40\"}} Well, OK. {{anim id=\"23\"}}What do\nyou think would be good then?",
      "USes": "{{anim id=\"9\"}}¿Quéeee? {{delay frames=\"8\"}}¿En serio?{{delay frames=\"40\"}} Bueno,\nlo que tú digas. {{anim id=\"23\"}}Entonces, {{delay frames=\"8\"}}¿tú\nqué crees que podría estar bien?",
      "USfr": "{{anim id=\"9\"}}Gnéééé?!{{delay frames=\"15\"}} Sérieux?{{delay frames=\"30\"}} Bon, c'est toi\nqui vois. {{anim id=\"23\"}}Mais dis-moi,{{delay frames=\"15\"}} t'as mieux à\nproposer?"
    }
  },
  {
    "label": "007",
    "locale": {
      "EUde": "{{anim id=\"37\"}}„{{fun_0003000E arg=\"\"}}{{fun_00080005 arg=\"\"}}“? {{delay frames=\"20\"}}Das findeste besser?{{fun_0008000D arg=\"0x02CD\"}}{{fun_0005000F arg=\"0x15002800\"}}\nAbsolut!\nNein, doch nicht.",
      "EUen": "{{anim id=\"37\"}}\"{{fun_0003000E arg=\"\"}}{{fun_00080005 arg=\"\"}}\"? Is that right?{{fun_0008000D arg=\"0x02CD\"}}{{fun_0005000F arg=\"0x15002800\"}}\nThat's right!\nThat's wrong.",
      "EUes": "{{anim id=\"37\"}}¿Has dicho \"{{fun_00080005 arg=\"\"}}\"? ¿Así?{{fun_0008000D arg=\"0x02CD\"}}{{fun_0005000F arg=\"0x15002800\"}}\n¡Eso es!\nNo, eso no",
      "EUfr": "{{anim id=\"37\"}}« {{fun_0003000E arg=\"\"}}{{fun_00080005 arg=\"\"}} », c'est ça ?{{fun_0008000D arg=\"0x02CD\"}}{{fun_0005000F arg=\"0x15002800\"}}\nExact !\nDu tout.",
      "EUit": "{{anim id=\"37\"}}\"{{fun_0003000E arg=\"\"}}{{fun_00080005 arg=\"\"}}\"? Confermi?{{fun_0008000D arg=\"0x02CD\"}}{{fun_0005000F arg=\"0x15002800\"}}\nÈ quello che ho detto!\nHai capito male.",
      "JPja": "{{anim id=\"37\"}}「{{fun_00080005 arg=\"\"}}」で　いいの？{{fun_0008000D arg=\"0x02CD\"}}{{fun_0005000F arg=\"0x15002800\"}}\nそうでーす！\n{{ruby charSpan=\"2\" value=\"まちが\"}}間違えた",
      "KRko": "{{anim id=\"37\"}}「{{fun_00080005 arg=\"\"}}」? 이게 맘에 들어?{{fun_0008000D arg=\"0x02CD\"}}{{fun_0005000F arg=\"0x15002800\"}}\n그래!\n아니야",
      "USen": "{{anim id=\"37\"}}\"{{fun_0003000E arg=\"\"}}{{fun_00080005 arg=\"\"}}\"? Is that right?{{fun_0008000D arg=\"0x02CD\"}}{{fun_0005000F arg=\"0x15002800\"}}\nThat's right!\nThat's wrong.",
      "USes": "{{anim id=\"37\"}}¿Has dicho \"{{fun_00080005 arg=\"\"}}\"? ¿Así?{{fun_0008000D arg=\"0x02CD\"}}{{fun_0005000F arg=\"0x15002800\"}}\n¡Eso es!\nNo, eso no",
      "USfr": "{{anim id=\"37\"}}« {{fun_0003000E arg=\"\"}}{{fun_00080005 arg=\"\"}} », c'est ça?{{fun_0008000D arg=\"0x02CD\"}}{{fun_0005000F arg=\"0x15002800\"}}\nExact!\nDu tout."
    }
  },
  {
    "label": "008",
    "locale": {
      "EUde": "{{anim id=\"15\"}}Oh, hab ich's falsch verstanden?{{delay frames=\"40\"}}{{anim id=\"0\"}}\nSag's noch mal!",
      "EUen": "{{anim id=\"15\"}}Oh, did I hear you wrong?{{delay frames=\"40\"}} {{anim id=\"0\"}}Sorry. \nTell me again!",
      "EUes": "{{anim id=\"15\"}}Ay, ¿te he entendido mal?{{delay frames=\"40\"}}\n{{anim id=\"0\"}}Perdona... ¡Entonces dímelo\notra vez!",
      "EUfr": "{{anim id=\"15\"}}Oh, j'aurais mal compris ?!{{delay frames=\"40\"}} {{anim id=\"0\"}}Désolée,\ntu peux répéter ?",
      "EUit": "{{anim id=\"15\"}}Oh, scusami, stavo pensando ad\naltro evidentemente.{{delay frames=\"40\"}} {{anim id=\"0\"}}Dai, fai\nuno sforzo e ripetimelo!",
      "JPja": "{{anim id=\"15\"}}あれ　{{ruby charSpan=\"1\" value=\"き\"}}聞き{{ruby charSpan=\"2\" value=\"まちが\"}}間違えた？{{delay frames=\"40\"}}\n{{anim id=\"0\"}}ごめん、もう{{ruby charSpan=\"2\" value=\"いっかい\"}}一回　{{ruby charSpan=\"1\" value=\"おし\"}}教えて！",
      "KRko": "{{anim id=\"15\"}}어라? 내가 잘못 들었나?{{delay frames=\"40\"}}\n{{anim id=\"0\"}}미안, 다시 한 번 알려줘!",
      "USen": "{{anim id=\"15\"}}Oh, did I hear you wrong?{{delay frames=\"40\"}} {{anim id=\"0\"}}Sorry. \nTell me again!",
      "USes": "{{anim id=\"15\"}}Ay, ¿te he entendido mal?{{delay frames=\"40\"}}\n{{anim id=\"0\"}}Perdona... ¡Entonces dímelo\notra vez!",
      "USfr": "{{anim id=\"15\"}}Oh, j'aurais mal compris?!{{delay frames=\"40\"}} {{anim id=\"0\"}}Désolée,\ntu peux répéter?"
    }
  },
  {
    "label": "009",
    "locale": {
      "EUde": "{{anim id=\"22\"}}{{fun_0003000E arg=\"\"}}{{fun_00080005 arg=\"\"}} also? {{delay frames=\"20\"}}Hmm{{delay frames=\"8\"}}.{{delay frames=\"8\"}}.{{delay frames=\"8\"}}.{{delay frames=\"40\"}}{{anim id=\"37\"}} Klingt\nganz gut!{{delay frames=\"20\"}} Passt auch irgendwie zu\ndir!{{pageBreak}}{{anim id=\"29\"}}Cool!{{delay frames=\"8\"}} Das ist sogar besser\nals meine Idee,{{delay frames=\"8\"}} {{fun_00080005 arg=\"\"}}!{{delay frames=\"20\"}}\n{{fun_0003000E arg=\"\"}}{{fun_00070005 arg=\"\"}}!",
      "EUen": "{{anim id=\"22\"}}Hmm. {{fun_0003000E arg=\"\"}}{{fun_00080005 arg=\"\"}}, yeah? {{delay frames=\"8\"}}.{{delay frames=\"8\"}}.{{delay frames=\"8\"}}.{{delay frames=\"40\"}}{{anim id=\"37\"}}Sounds\ngood!{{delay frames=\"20\"}} And it suits you somehow!{{pageBreak}}{{anim id=\"5\"}}Cool!{{delay frames=\"8\"}} I've got something new to call\nyou,{{delay frames=\"8\"}} {{fun_00080005 arg=\"\"}}! {{delay frames=\"20\"}}{{fun_0003000E arg=\"\"}}{{fun_00070005 arg=\"\"}}!",
      "EUes": "{{anim id=\"22\"}}A ver, {{fun_00080005 arg=\"\"}}, ¿no? Ay{{delay frames=\"8\"}}.{{delay frames=\"8\"}}.{{delay frames=\"8\"}}.{{delay frames=\"40\"}}{{anim id=\"37\"}}\n¡Pues suena muy bien!{{delay frames=\"20\"}} Y además,\nyo creo que te pega bastante.\n{{anim id=\"5\"}}¡Viva!{{delay frames=\"8\"}} Ya tengo una nueva forma de\nllamarte,{{delay frames=\"8\"}} ¡{{fun_00080005 arg=\"\"}}! {{delay frames=\"20\"}}¡Ahora es\ncomo si fueras mí{{fun_0006000E arg=\"0x02006F0002006100\"}}, {{fun_00070005 arg=\"\"}}!",
      "EUfr": "{{anim id=\"22\"}}Hmm, « {{fun_00080005 arg=\"\"}} » ?{{delay frames=\"30\"}} {{anim id=\"37\"}}Ça sonne\npas mal,{{delay frames=\"20\"}} et ça t'va comme un gant !{{pageBreak}}{{anim id=\"5\"}}Cool !{{delay frames=\"20\"}} Un peu d'changement ! Ça\nfait jamais d'mal, pas vrai,\n{{fun_00080005 arg=\"\"}} ?{{delay frames=\"20\"}} {{fun_0003000E arg=\"\"}}{{fun_00070005 arg=\"\"}} !",
      "EUit": "{{anim id=\"22\"}}Mmmh, {{fun_00080005 arg=\"\"}} giusto? {{delay frames=\"8\"}}.{{delay frames=\"8\"}}.{{delay frames=\"8\"}}.{{delay frames=\"40\"}}{{anim id=\"37\"}} Suona\npiuttosto bene!{{delay frames=\"20\"}} E mi fa pensare a\nte!{{pageBreak}}{{anim id=\"5\"}}Benissimo!{{delay frames=\"8\"}} Ora posso finalmente\nchiamarti{{delay frames=\"8\"}} {{fun_00080005 arg=\"\"}}!\n{{delay frames=\"20\"}}{{fun_0003000E arg=\"\"}}{{fun_00070005 arg=\"\"}}!",
      "JPja": "{{anim id=\"22\"}}ふ～ん、{{fun_00080005 arg=\"\"}}か\n{{delay frames=\"8\"}}・{{delay frames=\"8\"}}・{{delay frames=\"8\"}}・{{delay frames=\"40\"}}{{anim id=\"37\"}}いいじゃん！{{delay frames=\"20\"}}\nなんか　アンタって{{ruby charSpan=\"1\" value=\"かん\"}}感じ！\n{{anim id=\"5\"}}ウチもこれから、そう{{ruby charSpan=\"1\" value=\"よ\"}}呼ぶし{{delay frames=\"8\"}}\nよろしく　{{fun_00080005 arg=\"\"}}！\n{{delay frames=\"20\"}}{{fun_00070005 arg=\"\"}}！",
      "KRko": "{{anim id=\"22\"}}흐응～ {{fun_00080005 arg=\"\"}}{{fun_000E000E arg=\"0x040074C77CB702007CB7\"}}{{delay frames=\"8\"}}・{{delay frames=\"8\"}}・{{delay frames=\"8\"}}・{{delay frames=\"40\"}}\n{{anim id=\"37\"}}괜찮은데!{{delay frames=\"20\"}}\n너한테 딱이다, 야!\n{{anim id=\"5\"}}나도 앞으로 그렇게 불러줄게!{{delay frames=\"8\"}}\n어때, 만족스러워 {{fun_00080005 arg=\"\"}}?\n{{delay frames=\"20\"}}{{fun_00070005 arg=\"\"}}!",
      "USen": "{{anim id=\"22\"}}Hmm. {{fun_0003000E arg=\"\"}}{{fun_00080005 arg=\"\"}}, yeah? {{delay frames=\"8\"}}.{{delay frames=\"8\"}}.{{delay frames=\"8\"}}.{{delay frames=\"40\"}}{{anim id=\"37\"}}Sounds\ngood!{{delay frames=\"20\"}} And it suits you somehow!{{pageBreak}}{{anim id=\"5\"}}Cool!{{delay frames=\"8\"}} I've got something new to call\nyou,{{delay frames=\"8\"}} {{fun_00080005 arg=\"\"}}! {{delay frames=\"20\"}}{{fun_0003000E arg=\"\"}}{{fun_00070005 arg=\"\"}}!",
      "USes": "{{anim id=\"22\"}}A ver, {{fun_00080005 arg=\"\"}}, ¿no? Ay{{delay frames=\"8\"}}.{{delay frames=\"8\"}}.{{delay frames=\"8\"}}.{{delay frames=\"40\"}}{{anim id=\"37\"}}\n¡Pues suena muy bien!{{delay frames=\"20\"}} Y además,\nyo creo que te pega bastante.\n{{anim id=\"5\"}}¡Viva!{{delay frames=\"8\"}} Ya tengo una nueva forma de\nllamarte,{{delay frames=\"8\"}} ¡{{fun_00080005 arg=\"\"}}! {{delay frames=\"20\"}}¡Ahora es\ncomo si fueras mí{{fun_0006000E arg=\"0x02006F0002006100\"}}, {{fun_00070005 arg=\"\"}}!",
      "USfr": "{{anim id=\"22\"}}Hmm, « {{fun_00080005 arg=\"\"}} »?{{delay frames=\"30\"}} {{anim id=\"37\"}}Ça sonne\npas mal,{{delay frames=\"20\"}} et ça t'va comme un gant!{{pageBreak}}{{anim id=\"5\"}}Cool!{{delay frames=\"20\"}} Un peu d'changement! Ça\nfait jamais d'mal, pas vrai,\n{{fun_00080005 arg=\"\"}}?{{delay frames=\"20\"}} {{fun_0003000E arg=\"\"}}{{fun_00070005 arg=\"\"}}!"
    }
  },
  {
    "label": "010",
    "locale": {
      "EUde": "",
      "EUen": "",
      "EUes": "",
      "EUfr": "",
      "EUit": "",
      "JPja": "",
      "KRko": "",
      "USen": "",
      "USes": "",
      "USfr": ""
    }
  },
  {
    "label": "011",
    "locale": {
      "EUde": "{{anim id=\"21\"}}Ich hab gehört, man nennt dich jetzt\n{{fun_00000011 arg=\"0x0000\"}}{{delay frames=\"8\"}}.{{delay frames=\"8\"}}.{{delay frames=\"8\"}}.{{delay frames=\"20\"}} {{anim id=\"37\"}}Klingt echt nett.{{delay frames=\"20\"}} Passt\nauch zu dir!\n{{anim id=\"23\"}}Kann ich dich ab jetzt auch\n{{fun_00000011 arg=\"0x0000\"}} nennen?{{fun_0005000F arg=\"0x15002800\"}}\nSicher!\nAuf keinen Fall!",
      "EUen": "{{anim id=\"21\"}}Hey, so people have started calling\nyou {{fun_00000011 arg=\"0x0000\"}}, right?{{pageBreak}}{{anim id=\"37\"}}That's nice.{{delay frames=\"20\"}} It suits ya!{{delay frames=\"40\"}}{{pageBreak}}{{anim id=\"23\"}}Can I call you {{fun_00000011 arg=\"0x0000\"}} too?{{fun_0005000F arg=\"0x15002800\"}}\nSure!\nNo way!",
      "EUes": "{{anim id=\"21\"}}Vaya, así que han empezado a\nllamarte {{fun_00000011 arg=\"0x0000\"}}, ¿eh?{{pageBreak}}{{anim id=\"37\"}}¡Qué cuco!{{delay frames=\"20\"}} Pues es que...\n¡encima te pega!{{delay frames=\"40\"}} {{anim id=\"23\"}}¿Puedo llamarte\n{{fun_00000011 arg=\"0x0000\"}} yo también?{{fun_0005000F arg=\"0x15002800\"}}\n¡Claro!\n¡Ni hablar!",
      "EUfr": "{{anim id=\"21\"}}Alors comme ça, maintenant tout\nl'monde t'appelle « {{fun_00000011 arg=\"0x0000\"}} » ?{{pageBreak}}{{anim id=\"37\"}}J'aime bien.{{delay frames=\"20\"}} C'est tout à fait toi !{{pageBreak}}{{anim id=\"23\"}}Tu permets que j't'appelle\n« {{fun_00000011 arg=\"0x0000\"}} », moi aussi ?{{fun_0005000F arg=\"0x15002800\"}}\nBien sûr !\nPas moyen.",
      "EUit": "{{anim id=\"21\"}}Ciao! Ti chiamano tutti {{fun_00000011 arg=\"0x0000\"}},\nvero?{{pageBreak}}{{anim id=\"37\"}}Carino come nome.{{delay frames=\"20\"}} Cioè, volevo\ndire, ti sta bene!{{delay frames=\"40\"}}{{pageBreak}}{{anim id=\"23\"}}Posso chiamarti anch'io\n{{fun_00000011 arg=\"0x0000\"}}?{{fun_0005000F arg=\"0x15002800\"}}\nCerto che sì!\nCerto che no!",
      "JPja": "{{anim id=\"21\"}}アンタさ、\nこのごろ　「{{fun_00000011 arg=\"0x0000\"}}」とか\n{{ruby charSpan=\"1\" value=\"よ\"}}呼ばれてるんだって？\n{{anim id=\"37\"}}いいね～{{delay frames=\"20\"}}　アンタにぴったり！{{delay frames=\"40\"}}\n{{anim id=\"23\"}}ウチも　「{{fun_00000011 arg=\"0x0000\"}}」って\n{{ruby charSpan=\"1\" value=\"よ\"}}呼んでいい？{{fun_0005000F arg=\"0x15002800\"}}\nいいよ！\nやめてー！",
      "KRko": "{{anim id=\"21\"}}너 말야, 요즘 \n「{{fun_00000011 arg=\"0x0000\"}}」!\n이렇게 불린다며?\n{{anim id=\"37\"}}멋진데～ {{delay frames=\"20\"}}너한테 딱이다, 야!{{delay frames=\"40\"}}\n{{anim id=\"23\"}}나도 앞으로 불러도 되냐?\n「{{fun_00000011 arg=\"0x0000\"}}」?{{fun_0005000F arg=\"0x15002800\"}}\n그래!\n안 돼ー!",
      "USen": "{{anim id=\"21\"}}Hey, so people have started calling\nyou {{fun_00000011 arg=\"0x0000\"}}, right?{{pageBreak}}{{anim id=\"37\"}}That's nice.{{delay frames=\"20\"}} It suits ya!{{delay frames=\"40\"}}{{pageBreak}}{{anim id=\"23\"}}Can I call you {{fun_00000011 arg=\"0x0000\"}} too?{{fun_0005000F arg=\"0x15002800\"}}\nSure!\nNo way!",
      "USes": "{{anim id=\"21\"}}Vaya, así que han empezado a\nllamarte {{fun_00000011 arg=\"0x0000\"}}, ¿eh?{{pageBreak}}{{anim id=\"37\"}}¡Qué cuco!{{delay frames=\"20\"}} Pues es que...\n¡encima te pega!{{delay frames=\"40\"}} {{anim id=\"23\"}}¿Puedo llamarte\n{{fun_00000011 arg=\"0x0000\"}} yo también?{{fun_0005000F arg=\"0x15002800\"}}\n¡Claro!\n¡Ni hablar!",
      "USfr": "{{anim id=\"21\"}}Alors comme ça, maintenant tout\nl'monde t'appelle « {{fun_00000011 arg=\"0x0000\"}} »?{{pageBreak}}{{anim id=\"37\"}}J'aime bien.{{delay frames=\"20\"}} C'est tout à fait toi!{{pageBreak}}{{anim id=\"23\"}}Tu permets que j't'appelle\n« {{fun_00000011 arg=\"0x0000\"}} », moi aussi?{{fun_0005000F arg=\"0x15002800\"}}\nBien sûr!\nPas moyen."
    }
  },
  {
    "label": "012",
    "locale": {
      "EUde": "{{anim id=\"3\"}}Super!{{delay frames=\"40\"}} Na dann:{{delay frames=\"8\"}}{{anim id=\"37\"}} Vielen Dank,\n{{fun_00080005 arg=\"\"}}! {{delay frames=\"20\"}}{{fun_0003000E arg=\"\"}}{{fun_00070005 arg=\"\"}}!",
      "EUen": "{{anim id=\"3\"}}Awesome!{{delay frames=\"40\"}} Well, {{delay frames=\"8\"}}might as well get\nstarted!{{anim id=\"37\"}} Thanks, {{fun_00080005 arg=\"\"}}! Thanks\na bunch! {{fun_0003000E arg=\"\"}}{{delay frames=\"20\"}}{{fun_00070005 arg=\"\"}}!",
      "EUes": "{{anim id=\"3\"}}¡Mira qué cosa más potita!{{delay frames=\"40\"}}\nPues nada, {{delay frames=\"8\"}}¡voy a darle caña!\n{{anim id=\"37\"}}¡Gracias, {{fun_00080005 arg=\"\"}}! ¡Qué bien!",
      "EUfr": "{{anim id=\"3\"}}Mortel !{{delay frames=\"30\"}} Bon,{{delay frames=\"15\"}} autant m'y mettre dès\nmaintenant ! {{anim id=\"37\"}}Merci, {{fun_00080005 arg=\"\"}} !{{delay frames=\"20\"}}\n{{fun_0003000E arg=\"\"}}{{fun_00070005 arg=\"\"}} !",
      "EUit": "{{anim id=\"3\"}}Yuhuuu!{{delay frames=\"40\"}} Beh, {{delay frames=\"8\"}}direi che è ora di\ntornare alle mie cose!{{anim id=\"37\"}} Grazie,\n{{fun_00080005 arg=\"\"}}! {{fun_0003000E arg=\"\"}}{{delay frames=\"20\"}}{{fun_00070005 arg=\"\"}}!",
      "JPja": "{{anim id=\"3\"}}やった～！{{delay frames=\"40\"}}\nじゃあ、{{delay frames=\"8\"}}さっそく　{{ruby charSpan=\"1\" value=\"いま\"}}今から\n{{ruby charSpan=\"1\" value=\"よ\"}}呼んじゃうね！\n{{anim id=\"37\"}}よろしく　{{fun_00080005 arg=\"\"}}！　{{delay frames=\"20\"}}{{fun_00070005 arg=\"\"}}！",
      "KRko": "{{anim id=\"3\"}}아싸～!{{delay frames=\"40\"}}\n그럼, {{delay frames=\"8\"}}바로 지금부터\n불러줄게!\n{{anim id=\"37\"}}잘 부탁해, {{fun_00080005 arg=\"\"}}!\n{{delay frames=\"20\"}}{{fun_00070005 arg=\"\"}}!",
      "USen": "{{anim id=\"3\"}}Awesome!{{delay frames=\"40\"}} Well, {{delay frames=\"8\"}}might as well get\nstarted!{{anim id=\"37\"}} Thanks, {{fun_00080005 arg=\"\"}}! Thanks\na bunch! {{fun_0003000E arg=\"\"}}{{delay frames=\"20\"}}{{fun_00070005 arg=\"\"}}!",
      "USes": "{{anim id=\"3\"}}¡Mira qué cosa más potita!{{delay frames=\"40\"}}\nPues nada, {{delay frames=\"8\"}}¡voy a darle caña!\n{{anim id=\"37\"}}¡Gracias, {{fun_00080005 arg=\"\"}}! ¡Qué bien!",
      "USfr": "{{anim id=\"3\"}}Mortel!{{delay frames=\"30\"}} Bon,{{delay frames=\"15\"}} autant m'y mettre dès\nmaintenant! {{anim id=\"37\"}}Merci, {{fun_00080005 arg=\"\"}}!{{delay frames=\"20\"}}\n{{fun_0003000E arg=\"\"}}{{fun_00070005 arg=\"\"}}!"
    }
  },
  {
    "label": "013",
    "locale": {
      "EUde": "{{anim id=\"27\"}}Was?{{delay frames=\"20\"}} Wieso nicht?{{delay frames=\"20\"}} Hey, muss dir\nnicht peinlich sein,{{delay frames=\"8\"}} ist ja nur ein\nSpitzname{{delay frames=\"8\"}}.{{delay frames=\"8\"}}.{{delay frames=\"8\"}}.{{delay frames=\"20\"}} Keine große Sache.\n{{anim id=\"36\"}}Es käme wohl sowieso komisch, \nwenn ich dich aus heiterem Himmel\nauch {{fun_00000011 arg=\"0x0000\"}} nennen würde.\n{{anim id=\"21\"}}Nee, hast schon recht.{{delay frames=\"40\"}} Es ist\nbesser, wenn ich dich weiterhin\n{{fun_00080005 arg=\"\"}} nenne! {{delay frames=\"20\"}}{{fun_0003000E arg=\"\"}}{{fun_00070005 arg=\"\"}}!",
      "EUen": "{{anim id=\"27\"}}What?{{delay frames=\"20\"}} Why?{{delay frames=\"20\"}} Hey, don't get all\nembarrassed about it{{delay frames=\"8\"}}.{{delay frames=\"8\"}}.{{delay frames=\"8\"}}.{{delay frames=\"20\"}}{{pageBreak}}{{anim id=\"36\"}}Anyway, if I start calling you \n{{fun_00000011 arg=\"0x0000\"}} all of a sudden, it'll\nprobably ruffle some feathers!\n{{anim id=\"21\"}}Yeah, you're right.{{delay frames=\"40\"}} I'll just stick to\ncalling you {{fun_00080005 arg=\"\"}}! That's what\nI'll do, {{delay frames=\"20\"}}{{fun_00070005 arg=\"\"}}!",
      "EUes": "{{anim id=\"27\"}}¿Qué?{{delay frames=\"20\"}} ¿Por qué?{{delay frames=\"20\"}} Te da vergüenza,\n¿eh? Pero si tampoco hay motivo.\nMira que eres susceptible{{delay frames=\"8\"}}.{{delay frames=\"8\"}}.{{delay frames=\"8\"}}.{{delay frames=\"20\"}}\n{{anim id=\"36\"}}Bueno, también supongo que si\nempezase a llamarte {{fun_00000011 arg=\"0x0000\"}} así\npor las buenas, alguna gente fliparía.\n{{anim id=\"21\"}}Sí, mejor que nadie piense cosas\nraras.{{delay frames=\"40\"}} ¡Voy a seguir llamándote\n{{fun_00080005 arg=\"\"}}! ¡Venga, {{delay frames=\"20\"}}{{fun_00070005 arg=\"\"}}!",
      "EUfr": "{{anim id=\"27\"}}Ah ?!{{delay frames=\"20\"}} Et pourquoi ça ?{{delay frames=\"40\"}} Bah, sois pas\n{{fun_0006000E arg=\"0x08006700EA006E00E9000A006700EA006E00E9006500\"}}, c'est qu'un surnom, hein{{delay frames=\"15\"}}.{{delay frames=\"15\"}}.{{delay frames=\"15\"}}.{{pageBreak}}{{anim id=\"36\"}}Et c'est vrai qu'si j'me mettais à\nt'appeler « {{fun_00000011 arg=\"0x0000\"}} » tout à\ncoup, ça pourrait sembler bizarre !\n{{anim id=\"21\"}}Ouaip, t'as pas tort.{{delay frames=\"40\"}} J'vais en rester\nà « {{fun_00080005 arg=\"\"}} »,{{delay frames=\"20\"}} {{fun_00070005 arg=\"\"}} !",
      "EUit": "{{anim id=\"27\"}}Che?{{delay frames=\"20\"}} Perché?{{delay frames=\"20\"}} Ehi, non c'è bisogno\ndi arrossire{{delay frames=\"8\"}}.{{delay frames=\"8\"}}.{{delay frames=\"8\"}}.{{delay frames=\"20\"}}{{pageBreak}}{{anim id=\"36\"}}Può darsi che se ti chiamassi\n{{fun_00000011 arg=\"0x0000\"}} all'improvviso, qualcuno\npotrebbe insospettirsi!\n{{anim id=\"21\"}}Sì, hai ragione.{{delay frames=\"40\"}} Per me continuerai\nad essere {{fun_00080005 arg=\"\"}}! Ti chiamerò\ncosì, {{delay frames=\"20\"}}{{fun_00070005 arg=\"\"}}!",
      "JPja": "{{anim id=\"27\"}}え～、{{delay frames=\"20\"}}なんでさ！{{delay frames=\"20\"}}\n{{ruby charSpan=\"1\" value=\"は\"}}恥ずかしがらなくても　いいのに{{delay frames=\"8\"}}・{{delay frames=\"8\"}}・{{delay frames=\"8\"}}・{{delay frames=\"20\"}}\n\n{{anim id=\"36\"}}まあ　ウチがいきなり\n{{fun_00000011 arg=\"0x0000\"}}なんて　{{ruby charSpan=\"1\" value=\"よ\"}}呼んだら、\n{{ruby charSpan=\"1\" value=\"まわ\"}}周りの{{ruby charSpan=\"1\" value=\"ひと\"}}人が　{{ruby charSpan=\"1\" value=\"おどろ\"}}驚いちゃうか！\n{{anim id=\"21\"}}うんうん、そうだね！{{delay frames=\"40\"}}\nやっぱ　ウチは　{{ruby charSpan=\"1\" value=\"いま\"}}今まで{{ruby charSpan=\"1\" value=\"どお\"}}通り\n{{fun_00080005 arg=\"\"}}で　いくわ！　{{delay frames=\"20\"}}{{fun_00070005 arg=\"\"}}！",
      "KRko": "{{anim id=\"27\"}}에이～ {{delay frames=\"20\"}}실망이야!{{delay frames=\"20\"}}\n뭐 그리 대단한 별명이라고{{delay frames=\"8\"}}・{{delay frames=\"8\"}}・{{delay frames=\"8\"}}・{{delay frames=\"20\"}}\n\n{{anim id=\"36\"}}하긴, 내가 갑자기\n{{fun_00000011 arg=\"0x0000\"}}{{fun_000E000E arg=\"0x060074C77CB7E0AC04007CB7E0AC\"}} 부르면\n주변 사람들이 깜짝 놀라겠지?\n{{anim id=\"21\"}}그래, 그렇고말고!{{delay frames=\"40\"}}\n역시 난 지금까지처럼\n{{fun_00080005 arg=\"\"}}{{fun_000E000E arg=\"0x060074C77CB7E0AC04007CB7E0AC\"}} 불러야겠다! ",
      "USen": "{{anim id=\"27\"}}What?{{delay frames=\"20\"}} Why?{{delay frames=\"20\"}} Hey, don't get all\nembarrassed about it{{delay frames=\"8\"}}.{{delay frames=\"8\"}}.{{delay frames=\"8\"}}.{{delay frames=\"20\"}}{{pageBreak}}{{anim id=\"36\"}}Anyway, if I start calling you \n{{fun_00000011 arg=\"0x0000\"}} all of a sudden, it'll\nprobably ruffle some feathers!\n{{anim id=\"21\"}}Yeah, you're right.{{delay frames=\"40\"}} I'll just stick to\ncalling you {{fun_00080005 arg=\"\"}}! That's what\nI'll do, {{delay frames=\"20\"}}{{fun_00070005 arg=\"\"}}!",
      "USes": "{{anim id=\"27\"}}¿Qué?{{delay frames=\"20\"}} ¿Por qué?{{delay frames=\"20\"}} Te da vergüenza,\n¿eh? Pero si tampoco hay motivo.\nMira que eres susceptible{{delay frames=\"8\"}}.{{delay frames=\"8\"}}.{{delay frames=\"8\"}}.{{delay frames=\"20\"}}\n{{anim id=\"36\"}}Bueno, también supongo que si\nempezase a llamarte {{fun_00000011 arg=\"0x0000\"}} así\npor las buenas, alguna gente fliparía.\n{{anim id=\"21\"}}Sí, mejor que nadie piense cosas\nraras.{{delay frames=\"40\"}} ¡Voy a seguir llamándote\n{{fun_00080005 arg=\"\"}}! ¡Venga, {{delay frames=\"20\"}}{{fun_00070005 arg=\"\"}}!",
      "USfr": "{{anim id=\"27\"}}Ah?!{{delay frames=\"20\"}} Et pourquoi ça?{{delay frames=\"40\"}} Bah, sois pas\n{{fun_0006000E arg=\"0x08006700EA006E00E9000A006700EA006E00E9006500\"}}, c'est qu'un surnom, hein{{delay frames=\"15\"}}.{{delay frames=\"15\"}}.{{delay frames=\"15\"}}.{{pageBreak}}{{anim id=\"36\"}}Et c'est vrai qu'si j'me mettais à\nt'appeler « {{fun_00000011 arg=\"0x0000\"}} » tout à\ncoup, ça pourrait sembler bizarre!\n{{anim id=\"21\"}}Ouaip, t'as pas tort.{{delay frames=\"40\"}} J'vais en rester\nà « {{fun_00080005 arg=\"\"}} »,{{delay frames=\"20\"}} {{fun_00070005 arg=\"\"}}!"
    }
  },
  {
    "label": "014",
    "locale": {
      "EUde": "{{anim id=\"9\"}}Hö?{{delay frames=\"8\"}} Wieso nicht?{{delay frames=\"40\"}} {{anim id=\"23\"}}Und wie soll ich\ndich sonst nennen?",
      "EUen": "{{anim id=\"9\"}}Huh?{{delay frames=\"8\"}} How come?{{delay frames=\"40\"}} {{anim id=\"23\"}}What should I call\nyou then?",
      "EUes": "{{anim id=\"9\"}}¿Eh?{{delay frames=\"8\"}} ¿Y eso?{{delay frames=\"40\"}} {{anim id=\"23\"}}Pero ¿entonces\ntú cómo quieres que te llame?",
      "EUfr": "{{anim id=\"9\"}}Hein ?!{{delay frames=\"15\"}} Bah pourquoi ?{{delay frames=\"40\"}} {{anim id=\"23\"}}Comment tu\nveux t'faire appeler, alors ?",
      "EUit": "{{anim id=\"9\"}}Eh?{{delay frames=\"8\"}} Mi sembra molto strano.{{delay frames=\"40\"}} {{anim id=\"23\"}}Come\ndovrei chiamarti allora?",
      "JPja": "{{anim id=\"9\"}}え～？{{delay frames=\"8\"}}　なんでさ！{{delay frames=\"40\"}}\n{{anim id=\"23\"}}じゃ、どんなのなら　いいっての？",
      "KRko": "{{anim id=\"9\"}}뭐어～? {{delay frames=\"8\"}}너무하네!{{delay frames=\"40\"}}\n{{anim id=\"23\"}}그럼 어떤 별명이면 괜찮은데?",
      "USen": "{{anim id=\"9\"}}Huh?{{delay frames=\"8\"}} How come?{{delay frames=\"40\"}} {{anim id=\"23\"}}What should I call\nyou then?",
      "USes": "{{anim id=\"9\"}}¿Eh?{{delay frames=\"8\"}} ¿Y eso?{{delay frames=\"40\"}} {{anim id=\"23\"}}Pero ¿entonces\ntú cómo quieres que te llame?",
      "USfr": "{{anim id=\"9\"}}Hein?!{{delay frames=\"15\"}} Bah pourquoi?{{delay frames=\"40\"}} {{anim id=\"23\"}}Comment tu\nveux t'faire appeler, alors?"
    }
  },
  {
    "label": "015",
    "locale": {
      "EUde": "„{{fun_0003000E arg=\"\"}}{{fun_00080005 arg=\"\"}}“ also?{{delay frames=\"40\"}}\n{{anim id=\"23\"}}Biste dir sicher?{{fun_0008000D arg=\"0x02CD\"}}{{fun_0005000F arg=\"0x15002800\"}}\nGenau!\nNein!",
      "EUen": "\"{{fun_0003000E arg=\"\"}}{{fun_00080005 arg=\"\"}}.\"{{delay frames=\"40\"}} {{anim id=\"23\"}}Is that right?{{fun_0008000D arg=\"0x02CD\"}}{{fun_0005000F arg=\"0x15002800\"}}\nYep!\nNope!",
      "EUes": "\"{{fun_00080005 arg=\"\"}}\".{{delay frames=\"40\"}} {{anim id=\"23\"}}¿Te gusta?{{fun_0008000D arg=\"0x02CD\"}}{{fun_0005000F arg=\"0x15002800\"}}\n¡Sí!\n¡No!",
      "EUfr": "Hmm, « {{fun_00080005 arg=\"\"}} »,{{delay frames=\"20\"}} {{anim id=\"23\"}}c'est ça ?{{fun_0008000D arg=\"0x02CD\"}}{{fun_0005000F arg=\"0x15002800\"}}\nOuaip !\nNan !",
      "EUit": "\"{{fun_0003000E arg=\"\"}}{{fun_00080005 arg=\"\"}}\"...{{delay frames=\"40\"}} {{anim id=\"23\"}}Ho detto bene?{{fun_0008000D arg=\"0x02CD\"}}{{fun_0005000F arg=\"0x15002800\"}}\nSì!\nNo!",
      "JPja": "「{{fun_00080005 arg=\"\"}}」！{{delay frames=\"40\"}}\n{{anim id=\"23\"}}これでいいの？{{fun_0008000D arg=\"0x02CD\"}}{{fun_0005000F arg=\"0x15002800\"}}\nそれでいい！\n{{ruby charSpan=\"1\" value=\"ちが\"}}違うよ！",
      "KRko": "「{{fun_00080005 arg=\"\"}}」!{{delay frames=\"40\"}}\n{{anim id=\"23\"}}이게 맘에 든다는 거야?{{fun_0008000D arg=\"0x02CD\"}}{{fun_0005000F arg=\"0x15002800\"}}\n그래, 그거야!\n아니야!",
      "USen": "\"{{fun_0003000E arg=\"\"}}{{fun_00080005 arg=\"\"}}.\"{{delay frames=\"40\"}} {{anim id=\"23\"}}Is that right?{{fun_0008000D arg=\"0x02CD\"}}{{fun_0005000F arg=\"0x15002800\"}}\nYep!\nNope!",
      "USes": "\"{{fun_00080005 arg=\"\"}}\".{{delay frames=\"40\"}} {{anim id=\"23\"}}¿Te gusta?{{fun_0008000D arg=\"0x02CD\"}}{{fun_0005000F arg=\"0x15002800\"}}\n¡Sí!\n¡No!",
      "USfr": "Hmm, « {{fun_00080005 arg=\"\"}} »,{{delay frames=\"20\"}} {{anim id=\"23\"}}c'est ça?{{fun_0008000D arg=\"0x02CD\"}}{{fun_0005000F arg=\"0x15002800\"}}\nOuaip!\nNan!"
    }
  },
  {
    "label": "016",
    "locale": {
      "EUde": "{{anim id=\"15\"}}Oh, {{delay frames=\"8\"}}doch nicht?{{delay frames=\"40\"}}{{anim id=\"9\"}} Dann sag's\nnoch mal!",
      "EUen": "{{anim id=\"15\"}}Oh, {{delay frames=\"8\"}}I got it wrong?{{delay frames=\"40\"}}{{anim id=\"9\"}} Sorry. Let me\nhear it one more time!",
      "EUes": "{{anim id=\"15\"}}Ah, {{delay frames=\"8\"}}¿no te convence?{{delay frames=\"40\"}}{{anim id=\"9\"}} ¡Pues\nentonces dime otra cosa!",
      "EUfr": "{{anim id=\"15\"}}Oh,{{delay frames=\"15\"}} j'me suis trompée ?{{delay frames=\"40\"}} {{anim id=\"9\"}}Bon, tu\nveux bien répéter ?",
      "EUit": "{{anim id=\"15\"}}Oh, {{delay frames=\"8\"}}ho capito male allora.{{delay frames=\"40\"}}{{anim id=\"9\"}} Prova a\nripetermelo. Starò più attenta.",
      "JPja": "{{anim id=\"15\"}}あれ　{{delay frames=\"8\"}}{{ruby charSpan=\"1\" value=\"ちが\"}}違った？{{delay frames=\"40\"}}\n{{anim id=\"9\"}}ごめん、もう{{ruby charSpan=\"2\" value=\"いっかい\"}}一回　{{ruby charSpan=\"1\" value=\"おし\"}}教えて！",
      "KRko": "{{anim id=\"15\"}}응? {{delay frames=\"8\"}}아니라고?{{delay frames=\"40\"}}\n{{anim id=\"9\"}}미안, 그럼 다시 한 번 알려줘",
      "USen": "{{anim id=\"15\"}}Oh, {{delay frames=\"8\"}}I got it wrong?{{delay frames=\"40\"}}{{anim id=\"9\"}} Sorry. Let me\nhear it one more time!",
      "USes": "{{anim id=\"15\"}}Ah, {{delay frames=\"8\"}}¿no te convence?{{delay frames=\"40\"}}{{anim id=\"9\"}} ¡Pues\nentonces dime otra cosa!",
      "USfr": "{{anim id=\"15\"}}Oh,{{delay frames=\"15\"}} j'me suis trompée?{{delay frames=\"40\"}} {{anim id=\"9\"}}Bon, tu\nveux bien répéter?"
    }
  },
  {
    "label": "017",
    "locale": {
      "EUde": "{{anim id=\"38\"}}Alles klar!{{delay frames=\"40\"}} {{anim id=\"37\"}}Dann bist du ab\nheute {{fun_00080005 arg=\"\"}}!",
      "EUen": "{{anim id=\"38\"}}All right! Got it!{{delay frames=\"40\"}} {{anim id=\"37\"}}From now on, I'm\ngonna call you {{fun_00080005 arg=\"\"}}!",
      "EUes": "{{anim id=\"38\"}}¡Muy bien! ¡Ya está!{{delay frames=\"40\"}} {{anim id=\"37\"}}A partir de\nahora, ¡te llamaré {{fun_00080005 arg=\"\"}}!",
      "EUfr": "{{anim id=\"38\"}}OK ! Reçu cinq sur cinq !{{delay frames=\"40\"}} {{anim id=\"37\"}}À partir\nd'aujourd'hui, t'es {{fun_00080005 arg=\"\"}} !",
      "EUit": "{{anim id=\"38\"}}Ho capito, ora. {{anim id=\"37\"}}Ti chiamerò\n{{fun_00080005 arg=\"\"}} allora!",
      "JPja": "{{anim id=\"38\"}}よし　{{ruby charSpan=\"1\" value=\"き\"}}決まり！{{delay frames=\"40\"}}\n{{anim id=\"37\"}}そんじゃ　アンタのことは\n{{fun_00080005 arg=\"\"}}って　{{ruby charSpan=\"1\" value=\"よ\"}}呼ばしてもらうよ！",
      "KRko": "{{anim id=\"38\"}}좋아, 그럼 정했다!{{delay frames=\"40\"}}\n{{anim id=\"37\"}}이제부터 넌\n{{fun_00080005 arg=\"\"}}{{fun_000E000E arg=\"0x040074C77CC502007CC5\"}}!",
      "USen": "{{anim id=\"38\"}}All right! Got it!{{delay frames=\"40\"}} {{anim id=\"37\"}}From now on, I'm\ngonna call you {{fun_00080005 arg=\"\"}}!",
      "USes": "{{anim id=\"38\"}}¡Muy bien! ¡Ya está!{{delay frames=\"40\"}} {{anim id=\"37\"}}A partir de\nahora, ¡te llamaré {{fun_00080005 arg=\"\"}}!",
      "USfr": "{{anim id=\"38\"}}OK! Reçu cinq sur cinq!{{delay frames=\"40\"}} {{anim id=\"37\"}}À partir\nd'aujourd'hui, t'es {{fun_00080005 arg=\"\"}}!"
    }
  },
  {
    "label": "018",
    "locale": {
      "EUde": "",
      "EUen": "",
      "EUes": "",
      "EUfr": "",
      "EUit": "",
      "JPja": "",
      "KRko": "",
      "USen": "",
      "USes": "",
      "USfr": ""
    }
  }
]