﻿[
  {
    "label": "001",
    "locale": {
      "EUde": "",
      "EUen": "",
      "EUes": "",
      "EUfr": "",
      "EUit": "",
      "JPja": "",
      "KRko": "",
      "USen": "",
      "USes": "",
      "USfr": ""
    }
  },
  {
    "label": "002",
    "locale": {
      "EUde": "{{fun_00020009 arg=\"0x0500060007000800\"}}",
      "EUen": "{{fun_00020009 arg=\"0x0500060007000800\"}}",
      "EUes": "{{fun_00020009 arg=\"0x0500060007000800\"}}",
      "EUfr": "{{fun_00020009 arg=\"0x0500060007000800\"}}",
      "EUit": "{{fun_00020009 arg=\"0x0500060007000800\"}}",
      "JPja": "{{fun_00020009 arg=\"0x0500060007000800\"}}",
      "KRko": "{{fun_00020009 arg=\"0x0500060007000800\"}}",
      "USen": "{{fun_00020009 arg=\"0x0500060007000800\"}}",
      "USes": "{{fun_00020009 arg=\"0x0500060007000800\"}}",
      "USfr": "{{fun_00020009 arg=\"0x0500060007000800\"}}"
    }
  },
  {
    "label": "003",
    "locale": {
      "EUde": "{{fun_00000009 arg=\"0x09000A00\"}}",
      "EUen": "{{fun_00000009 arg=\"0x09000A00\"}}",
      "EUes": "{{fun_00000009 arg=\"0x09000A00\"}}",
      "EUfr": "{{fun_00000009 arg=\"0x09000A00\"}}",
      "EUit": "{{fun_00000009 arg=\"0x09000A00\"}}",
      "JPja": "{{fun_00000009 arg=\"0x09000A00\"}}",
      "KRko": "{{fun_00000009 arg=\"0x09000A00\"}}",
      "USen": "{{fun_00000009 arg=\"0x09000A00\"}}",
      "USes": "{{fun_00000009 arg=\"0x09000A00\"}}",
      "USfr": "{{fun_00000009 arg=\"0x09000A00\"}}"
    }
  },
  {
    "label": "004",
    "locale": {
      "EUde": "",
      "EUen": "",
      "EUes": "",
      "EUfr": "",
      "EUit": "",
      "JPja": "",
      "KRko": "",
      "USen": "",
      "USes": "",
      "USfr": ""
    }
  },
  {
    "label": "005",
    "locale": {
      "EUde": "{{anim id=\"15\"}}Hier gibt's echt ALLES! {{delay frames=\"20\"}}Total\nhammer Werkzeuge! {{delay frames=\"20\"}}{{anim id=\"13\"}}Ich mein,{{delay frames=\"8\"}}\nguck dir mal das Teil dort an!",
      "EUen": "{{anim id=\"37\"}}This place really has everything! I \nlove just looking around at all the\nstuff! {{delay frames=\"20\"}}{{fun_0003000E arg=\"\"}}{{fun_00070005 arg=\"\"}}!",
      "EUes": "{{anim id=\"37\"}}¡En este sitio tienen de todo,\nqué flipe! ¡Podría pasarme horas\nmirando las cosas, {{delay frames=\"20\"}}{{fun_00070005 arg=\"\"}}!",
      "EUfr": "{{anim id=\"37\"}}Y'a tellement d'trucs ici que j'peux\nperdre une journée à tout examiner\nen détail,{{delay frames=\"20\"}} {{fun_00070005 arg=\"\"}} !",
      "EUit": "{{anim id=\"37\"}}Qui c'è davvero l'imbarazzo della\nscelta! Quindi a volte passo il tempo\nsolo a guardare... {{delay frames=\"20\"}}{{fun_0003000E arg=\"\"}}{{fun_00070005 arg=\"\"}}!",
      "JPja": "{{anim id=\"37\"}}ここって　ほんと、\n{{ruby charSpan=\"1\" value=\"なん\"}}何でも{{ruby charSpan=\"1\" value=\"う\"}}売ってるからさ！\n{{ruby charSpan=\"1\" value=\"み\"}}見てるだけで　{{ruby charSpan=\"2\" value=\"おもしろ\"}}面白いよ！　{{delay frames=\"20\"}}{{fun_00070005 arg=\"\"}}！",
      "KRko": "{{anim id=\"37\"}}여기는 진짜 없는 게 없어!\n구경만 해도 시간이 잘 간다고!\n{{delay frames=\"20\"}}{{fun_00070005 arg=\"\"}}!",
      "USen": "{{anim id=\"37\"}}This place really has everything! I \nlove just looking around at all the\nstuff! {{delay frames=\"20\"}}{{fun_0003000E arg=\"\"}}{{fun_00070005 arg=\"\"}}!",
      "USes": "{{anim id=\"37\"}}¡En este sitio tienen de todo,\nqué flipe! ¡Podría pasarme horas\nmirando las cosas, {{delay frames=\"20\"}}{{fun_00070005 arg=\"\"}}!",
      "USfr": "{{anim id=\"37\"}}Y'a tellement d'trucs ici que j'peux\nperdre une journée à tout examiner\nen détail,{{delay frames=\"20\"}} {{fun_00070005 arg=\"\"}}!"
    }
  },
  {
    "label": "006",
    "locale": {
      "EUde": "{{anim id=\"9\"}}Hm? {{delay frames=\"8\"}}Ich schwör, ich hatte 'ne\nEinkaufsliste dabei.{{delay frames=\"20\"}} {{anim id=\"12\"}}Doch jetzt ist\nsie weg!{{delay frames=\"20\"}} Weg! {{delay frames=\"20\"}}{{fun_0003000E arg=\"\"}}{{fun_00070005 arg=\"\"}}!",
      "EUen": "{{anim id=\"9\"}}Huh? I swear I made a shopping list!\n{{anim id=\"12\"}}Where'd it go? {{delay frames=\"20\"}}{{fun_0003000E arg=\"\"}}{{fun_00070005 arg=\"\"}}?",
      "EUes": "{{anim id=\"9\"}}¿Ein? ¡Pero si yo había hecho\nla lista de la compra! {{anim id=\"12\"}}¿Dónde\nla habré metido, {{delay frames=\"20\"}}{{fun_00070005 arg=\"\"}}?",
      "EUfr": "{{anim id=\"9\"}}Tiens ?{{delay frames=\"20\"}} Ma liste de courses ? {{anim id=\"6\"}}Où\nest passée ma liste de courses ?!{{delay frames=\"20\"}}\n{{fun_0003000E arg=\"\"}}{{fun_00070005 arg=\"\"}} ?{{delay frames=\"20\"}}{{anim id=\"9\"}}",
      "EUit": "{{anim id=\"9\"}}Eh? Ma come?! Per una volta che\navevo fatto la lista della spesa...\n{{anim id=\"12\"}}Dove l'ho lasciata? {{delay frames=\"20\"}}{{anim id=\"14\"}}{{fun_0003000E arg=\"\"}}{{fun_00070005 arg=\"\"}}!",
      "JPja": "{{anim id=\"9\"}}あれ～？{{delay frames=\"20\"}}\n{{ruby charSpan=\"1\" value=\"か\"}}買うもの　メモってきたのに{{delay frames=\"8\"}}・{{delay frames=\"8\"}}・{{delay frames=\"8\"}}・{{delay frames=\"20\"}}\n{{anim id=\"12\"}}どっかいっちゃったよ！　{{delay frames=\"20\"}}{{fun_00070005 arg=\"\"}}！",
      "KRko": "{{anim id=\"9\"}}이상하네～{{delay frames=\"20\"}}\n살 거 메모해 왔는데{{delay frames=\"8\"}}・{{delay frames=\"8\"}}・{{delay frames=\"8\"}}・{{delay frames=\"20\"}}\n{{anim id=\"12\"}}어디로 갔다냐, {{delay frames=\"20\"}}{{fun_00070005 arg=\"\"}}",
      "USen": "{{anim id=\"9\"}}Huh? I swear I made a shopping list!\n{{anim id=\"12\"}}Where'd it go? {{delay frames=\"20\"}}{{fun_0003000E arg=\"\"}}{{fun_00070005 arg=\"\"}}?",
      "USes": "{{anim id=\"9\"}}¿Ein? ¡Pero si yo había hecho\nla lista de la compra! {{anim id=\"12\"}}¿Dónde\nla habré metido, {{delay frames=\"20\"}}{{fun_00070005 arg=\"\"}}?",
      "USfr": "{{anim id=\"9\"}}Tiens?{{delay frames=\"20\"}} Ma liste de courses? {{anim id=\"6\"}}Où\nest passée ma liste de courses?!{{delay frames=\"20\"}}\n{{fun_0003000E arg=\"\"}}{{fun_00070005 arg=\"\"}}?{{delay frames=\"20\"}}{{anim id=\"9\"}}"
    }
  },
  {
    "label": "007",
    "locale": {
      "EUde": "{{anim id=\"37\"}}Ein so gut sortiertes Fachgeschäft\nin der Nähe zu haben, ist echt total\npraktisch!\n{{anim id=\"21\"}}Auch wenn ich eigentlich nicht so 'n\nShoppingfanatiker bin, komm ich\ndoch gerne her, {{delay frames=\"20\"}}{{fun_00070005 arg=\"\"}}!",
      "EUen": "{{anim id=\"37\"}}Having a big hardware store like\nthis in the area is so handy!{{pageBreak}}{{anim id=\"21\"}}I keep on finding reasons to come\nhere, {{delay frames=\"20\"}}{{fun_00070005 arg=\"\"}}!",
      "EUes": "{{anim id=\"37\"}}¡No veas cómo cunde tener una\ntienda de bricolaje por aquí!{{pageBreak}}{{anim id=\"21\"}}¡Siempre se encuentran cosas\nútiles, {{delay frames=\"20\"}}{{fun_00070005 arg=\"\"}}!",
      "EUfr": "{{anim id=\"37\"}}Avoir une boutique de bricolage en\nville, c'est super pratique...{{pageBreak}}{{anim id=\"21\"}}Ouaip, super pratique pour tuer\nl'temps quand on a rien d'mieux à\nfaire,{{delay frames=\"20\"}} {{fun_00070005 arg=\"\"}} !",
      "EUit": "{{anim id=\"37\"}}Sì, ci voleva un negozio per il fai da\nte in questa zona! Devo dire che è\ndavvero utile!\n{{anim id=\"21\"}}Continuo a trovare sempre nuovi\nmotivi per venire qui, {{delay frames=\"20\"}}{{fun_00070005 arg=\"\"}}!",
      "JPja": "{{anim id=\"37\"}}{{ruby charSpan=\"2\" value=\"じぶん\"}}自分ちの　{{ruby charSpan=\"2\" value=\"きんじょ\"}}近所に\nでっかい　ホームセンターがあると、\nやっぱり　{{ruby charSpan=\"2\" value=\"べんり\"}}便利だよね！\n{{anim id=\"21\"}}なんだかんだ　{{ruby charSpan=\"2\" value=\"りゆう\"}}理由をつけちゃ\n{{ruby charSpan=\"2\" value=\"まいにち\"}}毎日のように　{{ruby charSpan=\"1\" value=\"き\"}}来てる{{ruby charSpan=\"1\" value=\"き\"}}気がするよ！{{delay frames=\"20\"}}\n{{fun_00070005 arg=\"\"}}！",
      "KRko": "{{anim id=\"37\"}}집 근처에\n이렇게 큰 마트가 있으면\n아무래도 편리하지!\n{{anim id=\"21\"}}자꾸 구실을 만들어서\n매일매일 오고 싶다니까!{{delay frames=\"20\"}}\n{{fun_00070005 arg=\"\"}}!",
      "USen": "{{anim id=\"37\"}}Having a big hardware store like\nthis in the area is so handy!{{pageBreak}}{{anim id=\"21\"}}I keep on finding reasons to come\nhere, {{delay frames=\"20\"}}{{fun_00070005 arg=\"\"}}!",
      "USes": "{{anim id=\"37\"}}¡No veas cómo cunde tener una\ntienda de bricolaje por aquí!{{pageBreak}}{{anim id=\"21\"}}¡Siempre se encuentran cosas\nútiles, {{delay frames=\"20\"}}{{fun_00070005 arg=\"\"}}!",
      "USfr": "{{anim id=\"37\"}}Avoir une boutique de bricolage en\nville, c'est super pratique...{{pageBreak}}{{anim id=\"21\"}}Ouaip, super pratique pour tuer\nl'temps quand on a rien d'mieux à\nfaire,{{delay frames=\"20\"}} {{fun_00070005 arg=\"\"}}!"
    }
  },
  {
    "label": "008",
    "locale": {
      "EUde": "{{anim id=\"37\"}}Ich bin heut gütig und verrate dir\nwas: {{delay frames=\"20\"}}Hier kannste tolle Artikel für\nden Garten kaufen! {{delay frames=\"20\"}}{{fun_0003000E arg=\"\"}}{{fun_00070005 arg=\"\"}}!",
      "EUen": "{{anim id=\"37\"}}This hardware store has a great\ngardening section. I check it out a\nlot! {{delay frames=\"20\"}}{{fun_0003000E arg=\"\"}}{{fun_00070005 arg=\"\"}}!",
      "EUes": "{{anim id=\"37\"}}Me encanta la sección de jardinería\nde la tienda de bricolaje.\n¡Soy superfán, {{delay frames=\"20\"}}{{fun_00070005 arg=\"\"}}!",
      "EUfr": "{{anim id=\"37\"}}L'espace jardinage d'cette boutique\nest bien fourni ! C'est devenu ma\ndeuxième maison,{{delay frames=\"20\"}} {{fun_00070005 arg=\"\"}} !",
      "EUit": "{{anim id=\"37\"}}Il settore dedicato al giardinaggio\nè fenomenale... Ci vado molto\nspesso! {{delay frames=\"20\"}}{{fun_0003000E arg=\"\"}}{{fun_00070005 arg=\"\"}}!",
      "JPja": "{{anim id=\"37\"}}ここの　ホームセンターには\n{{ruby charSpan=\"2\" value=\"えんげい\"}}園芸コーナーが　あるからさ！{{delay frames=\"40\"}}\nウチ　{{delay frames=\"8\"}}よく{{ruby charSpan=\"1\" value=\"く\"}}来るんだ！{{delay frames=\"20\"}}　{{fun_00070005 arg=\"\"}}！",
      "KRko": "{{anim id=\"37\"}}여기 마트에 원예 코너가 있어서{{delay frames=\"8\"}}\n자주 오는 편이야!{{delay frames=\"40\"}}\n{{fun_00070005 arg=\"\"}}!",
      "USen": "{{anim id=\"37\"}}This hardware store has a great\ngardening section. I check it out a\nlot! {{delay frames=\"20\"}}{{fun_0003000E arg=\"\"}}{{fun_00070005 arg=\"\"}}!",
      "USes": "{{anim id=\"37\"}}Me encanta la sección de jardinería\nde la tienda de bricolaje.\n¡Soy superfán, {{delay frames=\"20\"}}{{fun_00070005 arg=\"\"}}!",
      "USfr": "{{anim id=\"37\"}}L'espace jardinage d'cette boutique\nest bien fourni! C'est devenu ma\ndeuxième maison,{{delay frames=\"20\"}} {{fun_00070005 arg=\"\"}}!"
    }
  },
  {
    "label": "009",
    "locale": {
      "EUde": "{{anim id=\"21\"}}Der Laden ist nur zwei Sekündchen\nvom Bahnhof entfernt {{delay frames=\"20\"}}– was für\n'ne tolle Lage!\n{{anim id=\"37\"}}Kein Wunder, dass hier so viele\nvon außerhalb rumschleichen!\n{{delay frames=\"20\"}}{{fun_0003000E arg=\"\"}}{{fun_00070005 arg=\"\"}}!",
      "EUen": "{{anim id=\"21\"}}This hardware store is real close to\nthe station, so it's super handy!{{pageBreak}}{{anim id=\"37\"}}It tends to get a lot of out-of-town\nfolks like you! {{delay frames=\"20\"}}{{fun_0003000E arg=\"\"}}{{fun_00070005 arg=\"\"}}!",
      "EUes": "{{anim id=\"21\"}}Me viene de perlas que la tienda\nde bricolaje esté tan cerca de la\nestación.\n{{anim id=\"37\"}}Además, es más cómodo para\nla gente de otros pueblos, ¡como\ntú, {{delay frames=\"20\"}}{{fun_00070005 arg=\"\"}}!",
      "EUfr": "{{anim id=\"21\"}}{{color id=\"4\"}}Méli{{color id=\"65535\"}} et {{color id=\"4\"}}Mélo{{color id=\"65535\"}} ont eu l'nez creux\nquand ils ont choisi d'installer leur\nboutique près d'la gare...\n{{anim id=\"37\"}}Ça attire plein d'clients de\nl'extérieur, un peu comme toi !{{delay frames=\"20\"}}\n{{fun_0003000E arg=\"\"}}{{fun_00070005 arg=\"\"}} !",
      "EUit": "{{anim id=\"21\"}}Il fatto che questo posto sia vicino\nalla stazione ha una serie di lati\npositivi!\n{{anim id=\"37\"}}Per esempio, si incontrano spesso\nfacce nuove, come la tua,\n{{delay frames=\"20\"}}{{fun_00070005 arg=\"\"}}!",
      "JPja": "{{anim id=\"21\"}}ここの　ホームセンター、\n{{ruby charSpan=\"1\" value=\"えき\"}}駅から{{ruby charSpan=\"1\" value=\"ちか\"}}近いし　{{ruby charSpan=\"2\" value=\"べんり\"}}便利だよね！\n\n{{anim id=\"37\"}}アンタみたいな　{{ruby charSpan=\"1\" value=\"ほか\"}}他の{{ruby charSpan=\"1\" value=\"むら\"}}村のヤツも\nよく　{{ruby charSpan=\"1\" value=\"く\"}}来るんだよ！　{{delay frames=\"20\"}}{{fun_00070005 arg=\"\"}}！",
      "KRko": "{{anim id=\"21\"}}여기 마트는 역에서도\n가까워서 편리하지?!{{pageBreak}}{{anim id=\"37\"}}너처럼 다른 마을에서\n오는 녀석도 꽤 많은가 봐!\n{{delay frames=\"20\"}}{{fun_00070005 arg=\"\"}}!",
      "USen": "{{anim id=\"21\"}}This hardware store is real close to\nthe station, so it's super handy!{{pageBreak}}{{anim id=\"37\"}}It tends to get a lot of out-of-town\nfolks like you! {{delay frames=\"20\"}}{{fun_0003000E arg=\"\"}}{{fun_00070005 arg=\"\"}}!",
      "USes": "{{anim id=\"21\"}}Me viene de perlas que la tienda\nde bricolaje esté tan cerca de la\nestación.\n{{anim id=\"37\"}}Además, es más cómodo para\nla gente de otros pueblos, ¡como\ntú, {{delay frames=\"20\"}}{{fun_00070005 arg=\"\"}}!",
      "USfr": "{{anim id=\"21\"}}{{color id=\"4\"}}Méli{{color id=\"65535\"}} et {{color id=\"4\"}}Mélo{{color id=\"65535\"}} ont eu l'nez creux\nquand ils ont choisi d'installer leur\nboutique près d'la gare...\n{{anim id=\"37\"}}Ça attire plein d'clients de\nl'extérieur, un peu comme toi!{{delay frames=\"20\"}}\n{{fun_0003000E arg=\"\"}}{{fun_00070005 arg=\"\"}}!"
    }
  },
  {
    "label": "010",
    "locale": {
      "EUde": "{{anim id=\"21\"}}Der Laden ist gut!{{delay frames=\"20\"}} 'n bisschen\ngrößer könnt er noch sein, aber\nwer wird da kleinlich sein?\n{{anim id=\"37\"}}Wenn du schon mal hier bist,\nsollteste auch etwas Geld\nausgeben! {{delay frames=\"20\"}}{{fun_0003000E arg=\"\"}}{{fun_00070005 arg=\"\"}}!",
      "EUen": "{{anim id=\"21\"}}It's not as good as a department\nstore, but this place does have a \ngood product lineup!\n{{anim id=\"37\"}}Since you're here, you should buy a\nton of stuff! {{delay frames=\"20\"}}{{fun_0003000E arg=\"\"}}{{fun_00070005 arg=\"\"}}!",
      "EUes": "No llega al nivel de unos grandes\nalmacenes, {{anim id=\"21\"}}pero en esta tienda\ntienen productos bastante majos.\n{{anim id=\"37\"}}Oye, ¡ni se te ocurra irte de\naquí con las manos vacías!",
      "EUfr": "{{anim id=\"21\"}}Cette boutique est bien achalandée,\nmême si on est encore loin des\ngaleries les plus prestigieuses...\n{{anim id=\"37\"}}D'ailleurs, si t'as besoin d'un truc en\nparticulier, y'a des chances qu'tu\nl'trouves ici,{{delay frames=\"20\"}} {{fun_00070005 arg=\"\"}} !",
      "EUit": "{{anim id=\"21\"}}Non sarà come i grandi magazzini,\nma questo posto ha comunque\nuna grande varietà di prodotti!\n{{anim id=\"37\"}}Fossi in te, mi porterei a casa\nquintali di articoli, {{delay frames=\"20\"}}{{fun_00070005 arg=\"\"}}!",
      "JPja": "{{anim id=\"21\"}}デパート{{ruby charSpan=\"1\" value=\"な\"}}並みとは　いかないけど\n{{delay frames=\"8\"}}・{{delay frames=\"8\"}}・{{delay frames=\"8\"}}・{{delay frames=\"20\"}}この{{ruby charSpan=\"1\" value=\"みせ\"}}店の　{{ruby charSpan=\"1\" value=\"しな\"}}品ぞろえは\nちょっとしたもんだよ！\n{{anim id=\"37\"}}アンタも　せっかくだから、\n{{ruby charSpan=\"2\" value=\"いろいろ\"}}色々　{{ruby charSpan=\"1\" value=\"か\"}}買っていけば？\n{{delay frames=\"20\"}}{{fun_00070005 arg=\"\"}}？",
      "KRko": "{{anim id=\"21\"}}백화점만큼은 아니더라도{{delay frames=\"8\"}}・{{delay frames=\"8\"}}・{{delay frames=\"8\"}}・{{delay frames=\"20\"}}\n여기 상품의 질은\n꽤 괜찮다고 봐!\n{{anim id=\"37\"}}너도 이왕 왔으니까\n이것저것 사 가지그래?\n{{delay frames=\"20\"}}{{fun_00070005 arg=\"\"}}?",
      "USen": "{{anim id=\"21\"}}It's not as good as a department\nstore, but this place does have a \ngood product lineup!\n{{anim id=\"37\"}}Since you're here, you should buy a\nton of stuff! {{delay frames=\"20\"}}{{fun_0003000E arg=\"\"}}{{fun_00070005 arg=\"\"}}!",
      "USes": "No llega al nivel de unos grandes\nalmacenes, {{anim id=\"21\"}}pero en esta tienda\ntienen productos bastante majos.\n{{anim id=\"37\"}}Oye, ¡ni se te ocurra irte de\naquí con las manos vacías!",
      "USfr": "{{anim id=\"21\"}}Cette boutique est bien achalandée,\nmême si on est encore loin des\ngaleries les plus prestigieuses...\n{{anim id=\"37\"}}D'ailleurs, si t'as besoin d'un truc en\nparticulier, y'a des chances qu'tu\nl'trouves ici,{{delay frames=\"20\"}} {{fun_00070005 arg=\"\"}}!"
    }
  }
]