﻿[
  {
    "label": "001",
    "locale": {
      "EUde": "{{anim id=\"1\"}}Äh, he he he!{{delay frames=\"20\"}}\nHier gibt's wirklich alles!",
      "EUen": "{{anim id=\"1\"}}A huh huh!{{delay frames=\"20\"}} They really have\neverything here.",
      "EUes": "{{anim id=\"1\"}}¡Je, je, je!{{delay frames=\"20\"}} Desde luego aquí\ntienen de todo.",
      "EUfr": "{{anim id=\"1\"}}On peut trouver tout ce qu'on veut\nici !{{delay frames=\"20\"}} C'est vraiment pratique !",
      "EUit": "{{anim id=\"1\"}}Ah ah ah!{{delay frames=\"20\"}} Qui dentro hanno\nveramente di tutto.",
      "JPja": "{{anim id=\"1\"}}ウフフ{{delay frames=\"8\"}}・{{delay frames=\"8\"}}・{{delay frames=\"8\"}}・{{delay frames=\"20\"}}\nホントに　{{ruby charSpan=\"1\" value=\"なん\"}}何でも{{ruby charSpan=\"1\" value=\"う\"}}売ってるねぇ",
      "KRko": "{{anim id=\"1\"}}우후훗{{delay frames=\"8\"}}・{{delay frames=\"8\"}}・{{delay frames=\"8\"}}・{{delay frames=\"20\"}}\n뭐든지 다 파네에",
      "USen": "{{anim id=\"1\"}}A huh huh!{{delay frames=\"20\"}} They really have\neverything here.",
      "USes": "{{anim id=\"1\"}}¡Je, je, je!{{delay frames=\"20\"}} Desde luego aquí\ntienen de todo.",
      "USfr": "{{anim id=\"1\"}}On peut trouver tout ce qu'on veut\nici!{{delay frames=\"20\"}} C'est vraiment pratique!"
    }
  },
  {
    "label": "002",
    "locale": {
      "EUde": "{{anim id=\"1\"}}Am liebsten würd ich alles hier\naufkaufen!{{delay frames=\"20\"}} Äh, he he he!",
      "EUen": "{{anim id=\"1\"}}I kind of want to buy everything\nhere.",
      "EUes": "{{anim id=\"1\"}}La verdad es que me gustaría\ncomprarme todo lo que tienen aquí.",
      "EUfr": "{{anim id=\"1\"}}À chaque fois que je viens ici, j'ai\nenvie d'acheter tout ce que je vois !",
      "EUit": "{{anim id=\"1\"}}Fosse per me, comprerei\nl'intero supermercato!",
      "JPja": "{{anim id=\"2\"}}スーパーで{{ruby charSpan=\"1\" value=\"た\"}}立ち{{ruby charSpan=\"1\" value=\"ばなし\"}}話なんて、{{delay frames=\"20\"}}\nボクたち{{delay frames=\"20\"}}　お{{ruby charSpan=\"1\" value=\"かあ\"}}母さん\nみたいだねぇ、{{delay frames=\"8\"}}{{fun_00070005 arg=\"\"}}{{delay frames=\"40\"}}{{anim id=\"1\"}}",
      "KRko": "{{anim id=\"2\"}}슈퍼에서 만나서 이야기하니까{{delay frames=\"20\"}}\n장 보러 온 {{delay frames=\"20\"}}주부라도 된\n느낌이야아, {{delay frames=\"8\"}}{{fun_00070005 arg=\"\"}}{{delay frames=\"40\"}}{{anim id=\"1\"}}",
      "USen": "{{anim id=\"1\"}}I kind of want to buy everything\nhere.",
      "USes": "{{anim id=\"1\"}}La verdad es que me gustaría\ncomprarme todo lo que tienen aquí.",
      "USfr": "{{anim id=\"1\"}}À chaque fois que je viens ici, j'ai\nenvie d'acheter tout ce que je vois!"
    }
  },
  {
    "label": "003",
    "locale": {
      "EUde": "{{anim id=\"5\"}}Guck mal, was die hier für viele\nSachen haben!",
      "EUen": "{{anim id=\"5\"}}There's so much stuff here to\nlook at!",
      "EUes": "{{anim id=\"5\"}}¡Pues sí que hay un montón\nde cosas que mirar por aquí!",
      "EUfr": "{{anim id=\"5\"}}Il y a tellement de choix ici ! C'est\nle paradis des gourmands !",
      "EUit": "{{anim id=\"5\"}}Qui dentro c'è davvero\nl'imbarazzo della scelta!\nÈ meglio del mio frigorifero!",
      "JPja": "{{anim id=\"5\"}}ものが　い～っぱいあって、{{delay frames=\"20\"}}\n{{ruby charSpan=\"1\" value=\"み\"}}見てるだけでも　{{ruby charSpan=\"1\" value=\"たの\"}}楽しいねぇ",
      "KRko": "{{anim id=\"5\"}}물건이 이렇～게 많으니까{{delay frames=\"20\"}}\n보기만 해도 재밌다아",
      "USen": "{{anim id=\"5\"}}There's so much stuff here to\nlook at!",
      "USes": "{{anim id=\"5\"}}¡Pues sí que hay un montón\nde cosas que mirar por aquí!",
      "USfr": "{{anim id=\"5\"}}Il y a tellement de choix ici! C'est\nle paradis des gourmands!"
    }
  },
  {
    "label": "004",
    "locale": {
      "EUde": "{{anim id=\"12\"}}Menno...{{delay frames=\"20\"}} Die geben nicht mal ein\npaar Kostproben raus,{{delay frames=\"8\"}}\n{{fun_00070005 arg=\"\"}}.",
      "EUen": "{{anim id=\"12\"}}Aw{{delay frames=\"8\"}}.{{delay frames=\"8\"}}.{{delay frames=\"8\"}}.{{delay frames=\"20\"}} It doesn't look like there's any\nfree samples,{{delay frames=\"8\"}} {{fun_00070005 arg=\"\"}}.",
      "EUes": "{{anim id=\"12\"}}Ay{{delay frames=\"8\"}}.{{delay frames=\"8\"}}.{{delay frames=\"8\"}}.{{delay frames=\"20\"}} Yo esperaba que ofrecieran\nalguna muestra gratis de comida\no algo así,{{delay frames=\"8\"}} {{fun_00070005 arg=\"\"}}.",
      "EUfr": "{{anim id=\"12\"}}Ohh{{delay frames=\"8\"}}.{{delay frames=\"8\"}}.{{delay frames=\"8\"}}.{{delay frames=\"20\"}} On dirait qu'ils ne proposent\npas d'échantillons gratuits,\n{{delay frames=\"8\"}}{{fun_00070005 arg=\"\"}}.",
      "EUit": "{{anim id=\"12\"}}Caspitina{{delay frames=\"8\"}}.{{delay frames=\"8\"}}.{{delay frames=\"8\"}}.{{delay frames=\"20\"}} Speravo ci fosse\nqualche assaggino gratuito qui,{{delay frames=\"8\"}}\n{{fun_00070005 arg=\"\"}}.",
      "JPja": "{{anim id=\"12\"}}はぁ{{delay frames=\"8\"}}・{{delay frames=\"8\"}}・{{delay frames=\"8\"}}・{{delay frames=\"20\"}}\nししょくコーナーは\nないみたいだねぇ、{{delay frames=\"8\"}}{{fun_00070005 arg=\"\"}}",
      "KRko": "{{anim id=\"12\"}}하아{{delay frames=\"8\"}}・{{delay frames=\"8\"}}・{{delay frames=\"8\"}}・{{delay frames=\"20\"}}\n시식 코너는\n없나 봐아, {{delay frames=\"8\"}}{{fun_00070005 arg=\"\"}}",
      "USen": "{{anim id=\"12\"}}Aw{{delay frames=\"8\"}}.{{delay frames=\"8\"}}.{{delay frames=\"8\"}}.{{delay frames=\"20\"}} It doesn't look like there's any\nfree samples,{{delay frames=\"8\"}} {{fun_00070005 arg=\"\"}}.",
      "USes": "{{anim id=\"12\"}}Ay{{delay frames=\"8\"}}.{{delay frames=\"8\"}}.{{delay frames=\"8\"}}.{{delay frames=\"20\"}} Yo esperaba que ofrecieran\nalguna muestra gratis de comida\no algo así,{{delay frames=\"8\"}} {{fun_00070005 arg=\"\"}}.",
      "USfr": "{{anim id=\"12\"}}Ohh{{delay frames=\"8\"}}.{{delay frames=\"8\"}}.{{delay frames=\"8\"}}.{{delay frames=\"20\"}} On dirait qu'ils ne proposent\npas d'échantillons gratuits,\n{{delay frames=\"8\"}}{{fun_00070005 arg=\"\"}}."
    }
  },
  {
    "label": "005",
    "locale": {
      "EUde": "{{i10_16 arg=\"9\"}}",
      "EUen": "{{i10_16 arg=\"9\"}}",
      "EUes": "{{i10_16 arg=\"9\"}}",
      "EUfr": "{{i10_16 arg=\"9\"}}",
      "EUit": "{{i10_16 arg=\"9\"}}",
      "JPja": "{{i10_16 arg=\"9\"}}",
      "KRko": "{{i10_16 arg=\"9\"}}",
      "USen": "{{i10_16 arg=\"9\"}}",
      "USes": "{{i10_16 arg=\"9\"}}",
      "USfr": "{{i10_16 arg=\"9\"}}"
    }
  },
  {
    "label": "006",
    "locale": {
      "EUde": "",
      "EUen": "",
      "EUes": "",
      "EUfr": "",
      "EUit": "",
      "JPja": "",
      "KRko": "",
      "USen": "",
      "USes": "",
      "USfr": ""
    }
  },
  {
    "label": "007",
    "locale": {
      "EUde": "{{anim id=\"4\"}}Ich bin nur zum Abkühlen hier, weil's\ndraußen so heiß ist,{{delay frames=\"8\"}} {{fun_00070005 arg=\"\"}}.",
      "EUen": "{{anim id=\"4\"}}It's way hot outside,{{delay frames=\"20\"}} so I'm cooling \noff inside here,{{delay frames=\"8\"}} {{fun_00070005 arg=\"\"}}.",
      "EUes": "{{anim id=\"4\"}}Fuera hace mucho calor,{{delay frames=\"20\"}} así\nque me estoy refrescando\naquí dentro,{{delay frames=\"8\"}} {{fun_00070005 arg=\"\"}}.",
      "EUfr": "{{anim id=\"4\"}}Il fait trop chaud dehors,{{delay frames=\"20\"}} alors je\nviens me rafraîchir un peu ici,\n{{delay frames=\"8\"}}{{fun_00070005 arg=\"\"}}.",
      "EUit": "{{anim id=\"4\"}}Fuori c'è un'afa...{{delay frames=\"20\"}} Ecco perché\nsono venuto a rinfrescarmi\nqui dentro,{{delay frames=\"8\"}} {{fun_00070005 arg=\"\"}}.",
      "JPja": "{{anim id=\"4\"}}{{ruby charSpan=\"1\" value=\"そと\"}}外は　あついからねぇ～{{delay frames=\"20\"}}\nお{{ruby charSpan=\"1\" value=\"みせ\"}}店の{{ruby charSpan=\"1\" value=\"なか\"}}中で\nすずんでるんだぁ、{{delay frames=\"8\"}}{{fun_00070005 arg=\"\"}}",
      "KRko": "{{anim id=\"4\"}}바깥은 무지 덥잖아～{{delay frames=\"20\"}}\n그래서 가게 안에서\n땀 좀 식히려구우, {{delay frames=\"8\"}}{{fun_00070005 arg=\"\"}}",
      "USen": "{{anim id=\"4\"}}It's way hot outside,{{delay frames=\"20\"}} so I'm cooling \noff inside here,{{delay frames=\"8\"}} {{fun_00070005 arg=\"\"}}.",
      "USes": "{{anim id=\"4\"}}Fuera hace mucho calor,{{delay frames=\"20\"}} así\nque me estoy refrescando\naquí dentro,{{delay frames=\"8\"}} {{fun_00070005 arg=\"\"}}.",
      "USfr": "{{anim id=\"4\"}}Il fait trop chaud dehors,{{delay frames=\"20\"}} alors je\nviens me rafraîchir un peu ici,\n{{delay frames=\"8\"}}{{fun_00070005 arg=\"\"}}."
    }
  },
  {
    "label": "008",
    "locale": {
      "EUde": "{{anim id=\"4\"}}Ich bin nur zum Aufwärmen hier,\nweil's draußen so kalt ist,{{delay frames=\"8\"}}\n{{fun_00070005 arg=\"\"}}.",
      "EUen": "{{anim id=\"4\"}}It's way cold outside,{{delay frames=\"20\"}} so I'm\nwarming up inside here,{{delay frames=\"8\"}}\n{{fun_00070005 arg=\"\"}}.",
      "EUes": "{{anim id=\"4\"}}Fuera hace un frío que pela,{{delay frames=\"20\"}} así\nque he entrado aquí a calentarme,{{delay frames=\"8\"}}\n{{fun_00070005 arg=\"\"}}.",
      "EUfr": "{{anim id=\"4\"}}Il fait trop froid dehors,{{delay frames=\"20\"}} alors je\nviens me réchauffer un peu à\nl'intérieur, {{delay frames=\"8\"}}{{fun_00070005 arg=\"\"}}.",
      "EUit": "{{anim id=\"4\"}}Fa così freddo fuori{{delay frames=\"20\"}} che ho pensato\ndi venire a riscaldarmi qui dentro,{{delay frames=\"8\"}}\n{{fun_00070005 arg=\"\"}}.",
      "JPja": "{{anim id=\"4\"}}{{ruby charSpan=\"1\" value=\"そと\"}}外は　さむいからねぇ～{{delay frames=\"40\"}}\nお{{ruby charSpan=\"1\" value=\"みせ\"}}店の{{ruby charSpan=\"1\" value=\"なか\"}}中で\nあったまってるんだぁ、{{delay frames=\"8\"}}{{fun_00070005 arg=\"\"}}",
      "KRko": "{{anim id=\"4\"}}바깥은 무지 춥잖아～{{delay frames=\"40\"}}\n그래서 가게 안에서\n몸을 녹이는 중이야아, {{delay frames=\"8\"}}{{fun_00070005 arg=\"\"}}",
      "USen": "{{anim id=\"4\"}}It's way cold outside,{{delay frames=\"20\"}} so I'm\nwarming up inside here,{{delay frames=\"8\"}}\n{{fun_00070005 arg=\"\"}}.",
      "USes": "{{anim id=\"4\"}}Fuera hace un frío que pela,{{delay frames=\"20\"}} así\nque he entrado aquí a calentarme,{{delay frames=\"8\"}}\n{{fun_00070005 arg=\"\"}}.",
      "USfr": "{{anim id=\"4\"}}Il fait trop froid dehors,{{delay frames=\"20\"}} alors je\nviens me réchauffer un peu à\nl'intérieur, {{delay frames=\"8\"}}{{fun_00070005 arg=\"\"}}."
    }
  },
  {
    "label": "009",
    "locale": {
      "EUde": "{{anim id=\"11\"}}Was wollte ich noch mal kaufen?{{delay frames=\"40\"}} {{anim id=\"13\"}}\nAuweia, ich hab's total vergessen,{{delay frames=\"8\"}}\n{{fun_00070005 arg=\"\"}}!",
      "EUen": "{{anim id=\"11\"}}What was I going to buy... What was\nI going to buy...{{delay frames=\"40\"}} {{anim id=\"13\"}}I'm completely \nspacing out, {{fun_00070005 arg=\"\"}}.",
      "EUes": "{{anim id=\"11\"}}Yo me iba a comprar... Me iba a\ncomprar...{{delay frames=\"40\"}} {{anim id=\"13\"}}¿Qué me iba a comprar?\n¡Ya no lo recuerdo, {{fun_00070005 arg=\"\"}}!",
      "EUfr": "{{anim id=\"11\"}}Qu'est-ce que je voulais acheter,\ndéjà...?{{delay frames=\"40\"}} {{anim id=\"13\"}}Mince ! Je ne sais plus,\n{{fun_00070005 arg=\"\"}} !",
      "EUit": "{{anim id=\"11\"}}Cosa volevo comprare...?\nCosa volevo comprare...?{{delay frames=\"40\"}}\n{{anim id=\"13\"}}Non mi ricordo più, {{fun_00070005 arg=\"\"}}.",
      "JPja": "{{anim id=\"11\"}}あぁ～{{delay frames=\"20\"}}\n{{ruby charSpan=\"1\" value=\"なに\"}}何を{{ruby charSpan=\"1\" value=\"か\"}}買うんだっけ{{delay frames=\"8\"}}・{{delay frames=\"8\"}}・{{delay frames=\"8\"}}・{{delay frames=\"40\"}}\n{{anim id=\"13\"}}わすれちゃったよぉ、{{delay frames=\"8\"}}{{fun_00070005 arg=\"\"}}",
      "KRko": "{{anim id=\"11\"}}음～{{delay frames=\"20\"}}\n뭐 사려고 그랬더라아{{delay frames=\"8\"}}・{{delay frames=\"8\"}}・{{delay frames=\"8\"}}・{{delay frames=\"40\"}}\n{{anim id=\"13\"}}까먹었어～ {{delay frames=\"8\"}}{{fun_00070005 arg=\"\"}}",
      "USen": "{{anim id=\"11\"}}What was I going to buy... What was\nI going to buy...{{delay frames=\"40\"}} {{anim id=\"13\"}}I'm completely \nspacing out, {{fun_00070005 arg=\"\"}}.",
      "USes": "{{anim id=\"11\"}}Yo me iba a comprar... Me iba a\ncomprar...{{delay frames=\"40\"}} {{anim id=\"13\"}}¿Qué me iba a comprar?\n¡Ya no lo recuerdo, {{fun_00070005 arg=\"\"}}!",
      "USfr": "{{anim id=\"11\"}}Qu'est-ce que je voulais acheter,\ndéjà...?{{delay frames=\"40\"}} {{anim id=\"13\"}}Mince! Je ne sais plus,\n{{fun_00070005 arg=\"\"}}!"
    }
  }
]