﻿[
  {
    "label": "001",
    "locale": {
      "EUde": "Meinst du, dass ich schneller gesund\nwerde, wenn ich {{color id=\"2\"}}Medizin{{color id=\"65535\"}} nehme?",
      "EUen": "Do you think I'll get better faster{{delay frames=\"20\"}} if\nI take some {{color id=\"2\"}}medicine{{color id=\"65535\"}}?",
      "EUes": "¿Crees que mejoraré más rápido{{delay frames=\"20\"}}\nsi tomo {{color id=\"2\"}}medicina{{color id=\"65535\"}}?",
      "EUfr": "Tu crois vraiment que ça va me\nguérir{{delay frames=\"20\"}} de prendre ton {{color id=\"2\"}}remède{{color id=\"65535\"}} ?",
      "EUit": "Ma... Guarisco prima se mangio\nun valanga di {{fun_00100005 arg=\"0x0000\"}}{{delay frames=\"20\"}}\no se prendo la {{color id=\"2\"}}medicina{{color id=\"65535\"}}?",
      "JPja": "{{color id=\"2\"}}おくすり{{color id=\"65535\"}}のめば{{delay frames=\"20\"}}\nなおるかなぁ？",
      "KRko": "{{color id=\"2\"}}약{{color id=\"65535\"}} 먹으면{{delay frames=\"20\"}}\n나으려나아?",
      "USen": "Do you think I'll get better faster{{delay frames=\"20\"}} if\nI take some {{color id=\"2\"}}medicine{{color id=\"65535\"}}?",
      "USes": "¿Crees que mejoraré más rápido{{delay frames=\"20\"}}\nsi tomo {{color id=\"2\"}}medicina{{color id=\"65535\"}}?",
      "USfr": "Tu crois vraiment que ça va me\nguérir{{delay frames=\"20\"}} de prendre ton {{color id=\"2\"}}remède{{color id=\"65535\"}}?"
    }
  },
  {
    "label": "002",
    "locale": {
      "EUde": "Heute muss ich mich ausruhen.{{delay frames=\"20\"}} Aber\nvielleicht kann ich auch noch mit\nein bisschen {{color id=\"2\"}}Medizin{{color id=\"65535\"}} nachhelfen?",
      "EUen": "I'm gonna sleep a lot today.{{delay frames=\"20\"}} But I\nthink some {{color id=\"2\"}}medicine {{color id=\"65535\"}}would help\neven more!",
      "EUes": "Hoy voy a dormir un montón.{{delay frames=\"20\"}}\n¡Pero tomar {{color id=\"2\"}}medicina{{color id=\"65535\"}} me\nayudaría aún más!",
      "EUfr": "Je vais rester au chaud me reposer,\nça me fera du bien.{{pageBreak}}Mais en prenant un {{color id=\"2\"}}remède{{color id=\"65535\"}}, je\nguérirais sans doute plus vite.",
      "EUit": "Oggi mi faccio una bella dormita.{{delay frames=\"20\"}}\nMa penso che anche un po'\ndi {{color id=\"2\"}}medicina {{color id=\"65535\"}}potrebbe farmi bene!",
      "JPja": "{{ruby charSpan=\"2\" value=\"きょう\"}}今日は　たっぷり\nねよ～っと",
      "KRko": "오늘은 푹～\n자야지",
      "USen": "I'm gonna sleep a lot today.{{delay frames=\"20\"}} But I\nthink some {{color id=\"2\"}}medicine {{color id=\"65535\"}}would help\neven more!",
      "USes": "Hoy voy a dormir un montón.{{delay frames=\"20\"}}\n¡Pero tomar {{color id=\"2\"}}medicina{{color id=\"65535\"}} me\nayudaría aún más!",
      "USfr": "Je vais rester au chaud me reposer,\nça me fera du bien.{{pageBreak}}Mais en prenant un {{color id=\"2\"}}remède{{color id=\"65535\"}}, je\nguérirais sans doute plus vite."
    }
  },
  {
    "label": "003",
    "locale": {
      "EUde": "Ich hab ja gehört, dass {{color id=\"2\"}}Medizin\n{{color id=\"65535\"}}helfen soll, wenn man krank ist.",
      "EUen": "I heard {{color id=\"2\"}}medicine{{color id=\"65535\"}} helps colds go\naway faster.",
      "EUes": "He oído que la {{color id=\"2\"}}medicina{{color id=\"65535\"}} sirve\npara que el catarro se pase antes.",
      "EUfr": "Il paraît qu'il y a un {{color id=\"2\"}}remède{{color id=\"65535\"}} contre\nle rhume...",
      "EUit": "Ho sentito dire che la {{color id=\"2\"}}medicina\n{{color id=\"65535\"}}serve per guarire più in fretta...\nAnche un pisolino però aiuta!",
      "JPja": "おいしいものを{{ruby charSpan=\"1\" value=\"た\"}}食べれば\nなおるかなぁ～？{{delay frames=\"40\"}}\nそれとも　{{color id=\"2\"}}おくすり{{color id=\"65535\"}}のんだほうがいい？",
      "KRko": "맛있는 걸 먹으면\n나으려나아～?{{delay frames=\"40\"}}\n아니면 {{color id=\"2\"}}약{{color id=\"65535\"}}을 먹는 게 나을까아?",
      "USen": "I heard {{color id=\"2\"}}medicine{{color id=\"65535\"}} helps colds go\naway faster.",
      "USes": "He oído que la {{color id=\"2\"}}medicina{{color id=\"65535\"}} sirve\npara que el catarro se pase antes.",
      "USfr": "Il paraît qu'il y a un {{color id=\"2\"}}remède{{color id=\"65535\"}} contre\nle rhume..."
    }
  },
  {
    "label": "004",
    "locale": {
      "EUde": "Urks...{{delay frames=\"20\"}} Vielleicht muss ich ja\ndoch {{color id=\"2\"}}Medizin{{color id=\"65535\"}} schlucken...",
      "EUen": "Ugh{{delay frames=\"8\"}}.{{delay frames=\"8\"}}.{{delay frames=\"8\"}}.{{delay frames=\"20\"}} Maybe I'll try some {{color id=\"2\"}}medicine{{color id=\"65535\"}}.",
      "EUes": "Ay{{delay frames=\"8\"}}.{{delay frames=\"8\"}}.{{delay frames=\"8\"}}.{{delay frames=\"20\"}} Quizá debería tomar\nalgo de {{color id=\"2\"}}medicina{{color id=\"65535\"}}.",
      "EUfr": "Hmmm{{delay frames=\"8\"}}.{{delay frames=\"8\"}}.{{delay frames=\"8\"}}.{{delay frames=\"20\"}} Je devrais peut-être\nprendre un {{color id=\"2\"}}remède{{color id=\"65535\"}}.",
      "EUit": "Oh{{delay frames=\"8\"}}.{{delay frames=\"8\"}}.{{delay frames=\"8\"}}.{{delay frames=\"20\"}} Quasi quasi prendo\nla {{color id=\"2\"}}medicina{{color id=\"65535\"}}.",
      "JPja": "うぅ～{{delay frames=\"8\"}}・{{delay frames=\"8\"}}・{{delay frames=\"8\"}}・{{delay frames=\"20\"}}\n{{color id=\"2\"}}おくすり{{color id=\"65535\"}}　のんでみよぉかなぁ",
      "KRko": "웅～{{delay frames=\"8\"}}・{{delay frames=\"8\"}}・{{delay frames=\"8\"}}・{{delay frames=\"20\"}}\n{{color id=\"2\"}}약{{color id=\"65535\"}}이라도 먹어볼까아",
      "USen": "Ugh{{delay frames=\"8\"}}.{{delay frames=\"8\"}}.{{delay frames=\"8\"}}.{{delay frames=\"20\"}} Maybe I'll try some {{color id=\"2\"}}medicine{{color id=\"65535\"}}.",
      "USes": "Ay{{delay frames=\"8\"}}.{{delay frames=\"8\"}}.{{delay frames=\"8\"}}.{{delay frames=\"20\"}} Quizá debería tomar\nalgo de {{color id=\"2\"}}medicina{{color id=\"65535\"}}.",
      "USfr": "Hmmm{{delay frames=\"8\"}}.{{delay frames=\"8\"}}.{{delay frames=\"8\"}}.{{delay frames=\"20\"}} Je devrais peut-être\nprendre un {{color id=\"2\"}}remède{{color id=\"65535\"}}."
    }
  },
  {
    "label": "005",
    "locale": {
      "EUde": "Die {{color id=\"2\"}}Medizin{{color id=\"65535\"}} schmeckt bestimmt\ntotal bitter.{{delay frames=\"40\"}} Aber ich glaub, ich\nmuss doch welche nehmen...",
      "EUen": "I bet it's bitter,{{delay frames=\"20\"}} but maybe I should\ntake some {{color id=\"2\"}}medicine{{color id=\"65535\"}}{{delay frames=\"8\"}}.{{delay frames=\"8\"}}.{{delay frames=\"8\"}}.{{delay frames=\"20\"}}",
      "EUes": "No me gusta que sea amarga,{{delay frames=\"20\"}}\npero quizá me vendría bien\ntomar {{color id=\"2\"}}medicina{{color id=\"65535\"}}{{delay frames=\"8\"}}.{{delay frames=\"8\"}}.{{delay frames=\"8\"}}.{{delay frames=\"20\"}}",
      "EUfr": "Ça ne doit pas être très savoureux,{{delay frames=\"20\"}}\nmais peut-être que je ferais mieux\nde prendre un {{color id=\"2\"}}remède{{color id=\"65535\"}}{{delay frames=\"8\"}}.{{delay frames=\"8\"}}.{{delay frames=\"8\"}}.{{delay frames=\"20\"}}",
      "EUit": "A me piacciono i dolci... non le cose\namare!!!{{delay frames=\"20\"}} Ma adesso è meglio che\nprenda la {{color id=\"2\"}}medicina{{color id=\"65535\"}}{{delay frames=\"8\"}}.{{delay frames=\"8\"}}.{{delay frames=\"8\"}}.{{delay frames=\"20\"}}",
      "JPja": "ニガそうだけど、{{delay frames=\"20\"}}\n{{color id=\"2\"}}おくすり{{color id=\"65535\"}}　のもうかなぁ{{delay frames=\"8\"}}・{{delay frames=\"8\"}}・{{delay frames=\"8\"}}・{{delay frames=\"20\"}}",
      "KRko": "좀 쓰겠지만{{delay frames=\"20\"}}\n{{color id=\"2\"}}약 {{color id=\"65535\"}}먹을까아{{delay frames=\"8\"}}・{{delay frames=\"8\"}}・{{delay frames=\"8\"}}・{{delay frames=\"20\"}}",
      "USen": "I bet it's bitter,{{delay frames=\"20\"}} but maybe I should\ntake some {{color id=\"2\"}}medicine{{color id=\"65535\"}}{{delay frames=\"8\"}}.{{delay frames=\"8\"}}.{{delay frames=\"8\"}}.{{delay frames=\"20\"}}",
      "USes": "No me gusta que sea amarga,{{delay frames=\"20\"}}\npero quizá me vendría bien\ntomar {{color id=\"2\"}}medicina{{color id=\"65535\"}}{{delay frames=\"8\"}}.{{delay frames=\"8\"}}.{{delay frames=\"8\"}}.{{delay frames=\"20\"}}",
      "USfr": "Ça ne doit pas être très savoureux,{{delay frames=\"20\"}}\nmais peut-être que je ferais mieux\nde prendre un {{color id=\"2\"}}remède{{color id=\"65535\"}}{{delay frames=\"8\"}}.{{delay frames=\"8\"}}.{{delay frames=\"8\"}}.{{delay frames=\"20\"}}"
    }
  },
  {
    "label": "006",
    "locale": {
      "EUde": "{{anim id=\"13\"}}Schnell!{{delay frames=\"20\"}} Lauf weg, bevor du noch\nmeine Erkältung kriegst, {{fun_00080005 arg=\"\"}}!{{pageBreak}}Ach ja, und kannst du vielleicht\nirgendwo hinlaufen, wo es {{color id=\"2\"}}Medizin{{color id=\"65535\"}}\ngibt, und mir welche mitbringen?",
      "EUen": "{{anim id=\"13\"}}Run away before you catch my cold,\n{{fun_00080005 arg=\"\"}}!{{delay frames=\"8\"}} Run and get me some\n{{color id=\"2\"}}medicine{{color id=\"65535\"}}!",
      "EUes": "{{anim id=\"13\"}}¡Sal de aquí antes de que te\ncontagie el catarro, {{fun_00080005 arg=\"\"}}!{{delay frames=\"8\"}}\n¡Ve a conseguirme {{color id=\"2\"}}medicina{{color id=\"65535\"}}!",
      "EUfr": "{{anim id=\"13\"}}Vite ! Sauve-toi avant d'attraper ma\nmaladie, {{fun_00080005 arg=\"\"}} !{{delay frames=\"8\"}} Cours te\nsoigner !\nPrends vite un {{color id=\"2\"}}remède{{color id=\"65535\"}} contre\nle rhume ! On ne sait jamais !",
      "EUit": "{{anim id=\"13\"}}Scappa prima che ti attacchi\nil raffreddore, {{fun_00080005 arg=\"\"}}!{{delay frames=\"8\"}} Quando\ntorni però portami la {{color id=\"2\"}}medicina{{color id=\"65535\"}}!",
      "JPja": "{{anim id=\"13\"}}{{fun_00080005 arg=\"\"}}{{fun_000D0005 arg=\"\"}}～{{delay frames=\"8\"}}\nカゼが　うつっちゃうから\nにげてぇ～！",
      "KRko": "{{anim id=\"13\"}}{{fun_00080005 arg=\"\"}}{{fun_000E000E arg=\"0x020044C502007CC5\"}}～{{delay frames=\"8\"}}\n감기 옮으니까\n멀리 도망가아～!",
      "USen": "{{anim id=\"13\"}}Run away before you catch my cold,\n{{fun_00080005 arg=\"\"}}!{{delay frames=\"8\"}} Run and get me some\n{{color id=\"2\"}}medicine{{color id=\"65535\"}}!",
      "USes": "{{anim id=\"13\"}}¡Sal de aquí antes de que te\ncontagie el catarro, {{fun_00080005 arg=\"\"}}!{{delay frames=\"8\"}}\n¡Ve a conseguirme {{color id=\"2\"}}medicina{{color id=\"65535\"}}!",
      "USfr": "{{anim id=\"13\"}}Vite! Sauve-toi avant d'attraper ma\nmaladie, {{fun_00080005 arg=\"\"}}!{{delay frames=\"8\"}} Cours te\nsoigner!\nPrends vite un {{color id=\"2\"}}remède{{color id=\"65535\"}} contre\nle rhume! On ne sait jamais!"
    }
  },
  {
    "label": "007",
    "locale": {
      "EUde": "{{color id=\"2\"}}Medizin{{color id=\"65535\"}}...{{delay frames=\"40\"}} Ich brauch {{color id=\"2\"}}Medizin{{color id=\"65535\"}}...",
      "EUen": "I think some {{delay frames=\"20\"}}{{color id=\"2\"}}medicine {{color id=\"65535\"}}would really\nhelp me out.",
      "EUes": "Creo que un poco de {{delay frames=\"20\"}}{{color id=\"2\"}}medicina{{color id=\"65535\"}}\nme ayudaría mucho.",
      "EUfr": "Je crois que là, j'ai braibent besoin\nde brendre un {{delay frames=\"20\"}}{{color id=\"2\"}}remède{{color id=\"65535\"}}.",
      "EUit": "Mi sa proprio che un po'\ndi {{color id=\"2\"}}medicina{{color id=\"65535\"}}{{delay frames=\"20\"}} mi farà bene!",
      "JPja": "お、{{delay frames=\"20\"}}{{color id=\"2\"}}おくすり{{delay frames=\"8\"}}{{color id=\"65535\"}}・{{delay frames=\"8\"}}・{{delay frames=\"8\"}}・",
      "KRko": "야, {{delay frames=\"20\"}}{{color id=\"2\"}}약{{delay frames=\"8\"}}{{color id=\"65535\"}}・{{delay frames=\"8\"}}・{{delay frames=\"8\"}}・",
      "USen": "I think some {{delay frames=\"20\"}}{{color id=\"2\"}}medicine {{color id=\"65535\"}}would really\nhelp me out.",
      "USes": "Creo que un poco de {{delay frames=\"20\"}}{{color id=\"2\"}}medicina{{color id=\"65535\"}}\nme ayudaría mucho.",
      "USfr": "Je crois que là, j'ai braibent besoin\nde brendre un {{delay frames=\"20\"}}{{color id=\"2\"}}remède{{color id=\"65535\"}}."
    }
  },
  {
    "label": "008",
    "locale": {
      "EUde": "Du hast nicht zufällig {{color id=\"2\"}}Medizin{{color id=\"65535\"}} dabei?",
      "EUen": "You don't have any {{color id=\"2\"}}medicine{{color id=\"65535\"}},{{delay frames=\"20\"}}\ndo you?",
      "EUes": "No tendrás por ahí {{color id=\"2\"}}medicina{{color id=\"65535\"}},{{delay frames=\"20\"}} ¿no?",
      "EUfr": "T'aurais bas un {{color id=\"2\"}}remède{{color id=\"65535\"}} contre le\nrhube zur toi, bar hasard ?",
      "EUit": "Non hai una {{color id=\"2\"}}medicina{{color id=\"65535\"}},{{delay frames=\"20\"}} vero?",
      "JPja": "{{color id=\"2\"}}おくすり{{color id=\"65535\"}}{{delay frames=\"20\"}}　もってないよねぇ？",
      "KRko": "혹시 {{color id=\"2\"}}약{{color id=\"65535\"}}{{delay frames=\"20\"}} 없어?",
      "USen": "You don't have any {{color id=\"2\"}}medicine{{color id=\"65535\"}},{{delay frames=\"20\"}}\ndo you?",
      "USes": "No tendrás por ahí {{color id=\"2\"}}medicina{{color id=\"65535\"}},{{delay frames=\"20\"}} ¿no?",
      "USfr": "T'aurais bas un {{color id=\"2\"}}remède{{color id=\"65535\"}} contre le\nrhube zur toi, bar hasard?"
    }
  },
  {
    "label": "009",
    "locale": {
      "EUde": "Ich HASSE Erkältungen!{{delay frames=\"20\"}}\nHoffentlich kriege ich irgendwo\ndie richtige {{color id=\"2\"}}Medizin{{color id=\"65535\"}} her.",
      "EUen": "Colds{{delay frames=\"20\"}} are the worst{{delay frames=\"8\"}}.{{delay frames=\"8\"}}.{{delay frames=\"8\"}}. I really need\nsome {{color id=\"2\"}}medicine{{color id=\"65535\"}}.",
      "EUes": "Los catarros{{delay frames=\"20\"}} son lo peor{{delay frames=\"8\"}}.{{delay frames=\"8\"}}.{{delay frames=\"8\"}}.\nUf, necesito {{color id=\"2\"}}medicina{{color id=\"65535\"}}.",
      "EUfr": "UUeeuurrgghh...{{delay frames=\"20\"}} Chuis braibent\nbalade{{delay frames=\"8\"}}.{{delay frames=\"8\"}}.{{delay frames=\"8\"}}. Vaut que je troube un\n{{color id=\"2\"}}remède{{color id=\"65535\"}}.",
      "EUit": "Questo raffreddore{{delay frames=\"20\"}} è davvero\nuna tragedia{{delay frames=\"8\"}}.{{delay frames=\"8\"}}.{{delay frames=\"8\"}}. Aiutooooo!\nHo bisogno della {{color id=\"2\"}}medicina{{color id=\"65535\"}}.",
      "JPja": "カゼって{{delay frames=\"20\"}}\nとっても　つらいねぇ{{delay frames=\"8\"}}・{{delay frames=\"8\"}}・{{delay frames=\"8\"}}・",
      "KRko": "감기 걸리니까{{delay frames=\"20\"}}\n진짜 힘들다아{{delay frames=\"8\"}}・{{delay frames=\"8\"}}・{{delay frames=\"8\"}}・",
      "USen": "Colds{{delay frames=\"20\"}} are the worst{{delay frames=\"8\"}}.{{delay frames=\"8\"}}.{{delay frames=\"8\"}}. I really need\nsome {{color id=\"2\"}}medicine{{color id=\"65535\"}}.",
      "USes": "Los catarros{{delay frames=\"20\"}} son lo peor{{delay frames=\"8\"}}.{{delay frames=\"8\"}}.{{delay frames=\"8\"}}.\nUf, necesito {{color id=\"2\"}}medicina{{color id=\"65535\"}}.",
      "USfr": "UUeeuurrgghh...{{delay frames=\"20\"}} Chuis braibent\nbalade{{delay frames=\"8\"}}.{{delay frames=\"8\"}}.{{delay frames=\"8\"}}. Vaut que je troube un\n{{color id=\"2\"}}remède{{color id=\"65535\"}}."
    }
  }
]