﻿[
  {
    "label": "001",
    "locale": {
      "EUde": "{{anim id=\"1\"}}Du hast gewonnen, {{fun_00080005 arg=\"\"}}!{{delay frames=\"30\"}}\n{{anim id=\"5\"}}Und als Supersucher hast du einen\nSuperpreis verdient!\n{{anim id=\"42\"}}Hier ist {{fun_0008000E arg=\"0x00CD0600650069006E00060027006E0065000600650069006E00\"}} {{fun_00030011 arg=\"0x0000\"}}\nfür dich!",
      "EUen": "{{anim id=\"1\"}}You won, {{fun_00080005 arg=\"\"}}!{{fun_00010007 arg=\"\"}} {{anim id=\"5\"}}Since you're \nso good at hide-and-seek,{{delay frames=\"20\"}} I'll give\nyou my {{fun_00030011 arg=\"0x0000\"}}!",
      "EUes": "{{anim id=\"1\"}}¡Has ganado, {{fun_00080005 arg=\"\"}}!{{fun_00010007 arg=\"\"}} {{anim id=\"5\"}}Como se\nte da tan bien lo del escondite,{{delay frames=\"20\"}}\n¡te doy mi {{fun_00030011 arg=\"0x0000\"}}!",
      "EUfr": "{{anim id=\"1\"}}Comme tu as gagné, {{fun_00080005 arg=\"\"}}, je\nte donne ça en récompense.{{delay frames=\"20\"}} C'est\n{{fun_0002000E arg=\"\"}}{{fun_00030011 arg=\"0x0000\"}}.",
      "EUit": "{{anim id=\"1\"}}Hai vinto, {{fun_00080005 arg=\"\"}}!{{fun_00010007 arg=\"\"}} {{anim id=\"5\"}}Visto che sei\ncosì brav{{fun_0006000E arg=\"0x02006F0002006100\"}} a nascondino, ti regalerò\n{{fun_0008000E arg=\"0x00CD0C0069006C0020006D0069006F000C006C00610020006D00690061000000\"}} {{fun_00030011 arg=\"0x0000\"}}!",
      "JPja": "{{anim id=\"1\"}}このしょうぶは、\n{{fun_00080005 arg=\"\"}}{{fun_000D0005 arg=\"\"}}のかち～！{{pageBreak}}{{anim id=\"5\"}}かくれんぼの{{ruby charSpan=\"1\" value=\"つよ\"}}強いキミには、{{delay frames=\"20\"}}\nこの　{{fun_00030011 arg=\"0x0000\"}}を\nあげちゃうよぉ～",
      "KRko": "{{anim id=\"1\"}}이번 대결은\n{{fun_00080005 arg=\"\"}}의 승리야아～!{{pageBreak}}{{anim id=\"5\"}}숨바꼭질을 잘하는 너에게{{delay frames=\"20\"}}\n이 {{fun_00030011 arg=\"0x0000\"}}{{fun_000E000E arg=\"0x020044C702007CB9\"}}\n선물할래～",
      "USen": "{{anim id=\"1\"}}You won, {{fun_00080005 arg=\"\"}}!{{fun_00010007 arg=\"\"}} {{anim id=\"5\"}}Since you're \nso good at hide-and-seek,{{delay frames=\"20\"}} I'll give\nyou my {{fun_00030011 arg=\"0x0000\"}}!",
      "USes": "{{anim id=\"1\"}}¡Has ganado, {{fun_00080005 arg=\"\"}}!{{fun_00010007 arg=\"\"}} {{anim id=\"5\"}}Como se\nte da tan bien lo del escondite,{{delay frames=\"20\"}}\n¡te doy mi {{fun_00030011 arg=\"0x0000\"}}!",
      "USfr": "{{anim id=\"1\"}}Comme tu as gagné, {{fun_00080005 arg=\"\"}}, je\nte donne ça en récompense.{{delay frames=\"20\"}} C'est\n{{fun_0002000E arg=\"\"}}{{fun_00030011 arg=\"0x0000\"}}."
    }
  },
  {
    "label": "002",
    "locale": {
      "EUde": "{{anim id=\"1\"}}Äh, he he he!{{delay frames=\"20\"}} Das hast du echt\ngut gemacht,{{delay frames=\"8\"}} {{fun_00070005 arg=\"\"}}.{{pageBreak}}Einen Pokal hab ich leider nicht\nzu bieten, aber hier ist...{{delay frames=\"40\"}} {{anim id=\"42\"}}{{fun_0008000E arg=\"0x00CD08006D00650069006E000A006D00650069006E00650008006D00650069006E00\"}}\n{{fun_00030011 arg=\"0x0000\"}}!",
      "EUen": "{{anim id=\"1\"}}A huh huh huh!{{delay frames=\"20\"}} Hat's off to you,{{delay frames=\"8\"}}\n{{fun_00070005 arg=\"\"}}.{{pageBreak}}Take my {{fun_00030011 arg=\"0x0000\"}}\nas your trophy. ",
      "EUes": "{{anim id=\"1\"}}¡Je, je, je!{{delay frames=\"20\"}} ¡Me quito el sombrero,{{delay frames=\"8\"}}\n{{fun_00070005 arg=\"\"}}!{{pageBreak}}Quédate mi {{fun_00030011 arg=\"0x0000\"}}\ncomo trofeo.",
      "EUfr": "{{anim id=\"1\"}}Hé hé !{{delay frames=\"20\"}} Bien joué,{{delay frames=\"8\"}}\n{{fun_00070005 arg=\"\"}} !{{pageBreak}}Tiens, je te donne {{fun_0002000E arg=\"\"}}\n{{fun_00030011 arg=\"0x0000\"}} comme\ntrophée. ",
      "EUit": "{{anim id=\"1\"}}Ah ah ah!{{delay frames=\"20\"}} Tanto di cappello,{{delay frames=\"8\"}}\n{{fun_00070005 arg=\"\"}}.{{pageBreak}}Tieni {{fun_0008000E arg=\"0x00CD0C0069006C0020006D0069006F000C006C00610020006D00690061000000\"}} {{fun_00030011 arg=\"0x0000\"}},\nè il premio per aver vinto la gara\ndi nascondino.",
      "JPja": "{{anim id=\"1\"}}えへへ～{{delay frames=\"20\"}}\n{{ruby charSpan=\"2\" value=\"こんかい\"}}今回は　キミに\nカンパイだぁ、{{delay frames=\"8\"}}{{fun_00070005 arg=\"\"}}{{pageBreak}}この　{{fun_00030011 arg=\"0x0000\"}}を\nきねんに　ど～ぞぉ～！",
      "KRko": "{{anim id=\"1\"}}에헤헤～{{delay frames=\"20\"}}\n이번엔 너한테\n꼼짝없이 졌네에, {{delay frames=\"8\"}}{{fun_00070005 arg=\"\"}}{{pageBreak}}이 {{fun_00030011 arg=\"0x0000\"}}{{fun_000E000E arg=\"0x020044C702007CB9\"}}\n기념으로 받아줘어～!",
      "USen": "{{anim id=\"1\"}}A huh huh huh!{{delay frames=\"20\"}} Hat's off to you,{{delay frames=\"8\"}}\n{{fun_00070005 arg=\"\"}}.{{pageBreak}}Take my {{fun_00030011 arg=\"0x0000\"}}\nas your trophy. ",
      "USes": "{{anim id=\"1\"}}¡Je, je, je!{{delay frames=\"20\"}} ¡Me quito el sombrero,{{delay frames=\"8\"}}\n{{fun_00070005 arg=\"\"}}!{{pageBreak}}Quédate mi {{fun_00030011 arg=\"0x0000\"}}\ncomo trofeo.",
      "USfr": "{{anim id=\"1\"}}Hé hé!{{delay frames=\"20\"}} Bien joué,{{delay frames=\"8\"}}\n{{fun_00070005 arg=\"\"}}!{{pageBreak}}Tiens, je te donne {{fun_0002000E arg=\"\"}}\n{{fun_00030011 arg=\"0x0000\"}} comme\ntrophée. "
    }
  },
  {
    "label": "003",
    "locale": {
      "EUde": "{{anim id=\"12\"}}Hab ich echt beim Versteckspiel\nverloren?{{delay frames=\"20\"}} Das kann doch gar nicht\nsein!{{delay frames=\"20\"}} Ich bin doch so gut darin!\n{{anim id=\"1\"}}Na ja,{{delay frames=\"8\"}} dann bist du halt {{fun_0006000E arg=\"0x100064006500720020006E00650075006500100064006900650020006E00650075006500\"}}\n{{fun_0006000E arg=\"0x280056006500720073007400650063006B0073007000690065006C006D006500690073007400650072002C0056006500720073007400650063006B0073007000690065006C006D0065006900730074006500720069006E00\"}}.{{pageBreak}}Dafür musst du auch einen Preis\nbekommen.{{delay frames=\"20\"}} Hier ist {{fun_0008000E arg=\"0x00CD08006D00650069006E000A006D00650069006E00650008006D00650069006E00\"}}\n{{fun_00030011 arg=\"0x0000\"}}!{{delay frames=\"20\"}} Bitte sehr!",
      "EUen": "{{anim id=\"12\"}}I can't believe I lost at\nhide-and-seek.{{delay frames=\"40\"}} I'm usually the best\nat this game.\n{{anim id=\"1\"}}That means you're the reigning\nhide-and-seek champ now.{{pageBreak}}To commemorate your win,{{delay frames=\"20\"}} I'll give\nyou my {{fun_00030011 arg=\"0x0000\"}}!",
      "EUes": "{{anim id=\"12\"}}No puede ser, ¡me has ganado al\nescondite!{{delay frames=\"40\"}} Normalmente suelo\nser el mejor.\n{{anim id=\"1\"}}Eso significa que ahora tú eres\n{{fun_0006000E arg=\"0x040065006C0004006C006100\"}} campe{{fun_0006000E arg=\"0x0400F3006E0006006F006E006100\"}} del escondite.{{pageBreak}}Para conmemorar tu victoria,{{delay frames=\"20\"}}\n¡toma, mi {{fun_00030011 arg=\"0x0000\"}}!",
      "EUfr": "{{anim id=\"12\"}}Je n'arrive pas à croire que tu aies\ngagné !{{delay frames=\"40\"}} C'est toujours moi qui\ngagne, d'habitude.\n{{anim id=\"1\"}}Alors c'est toi le champion de\ncache-cache maintenant.{{pageBreak}}Tiens,{{delay frames=\"20\"}} j'ai le plaisir de te remettre\n{{fun_0001000E arg=\"\"}}{{fun_00030011 arg=\"0x0000\"}} du\nchampion de la ville !",
      "EUit": "{{anim id=\"12\"}}Incredibile! Ho perso a nascondino.{{delay frames=\"40\"}}\nE pensare che di solito non ho\nrivali...\n{{anim id=\"1\"}}Beh, vorrà dire che lo scettro\ndel{{fun_0006000E arg=\"0x060020007200650012006C006100200072006500670069006E006100\"}} del nascondino\nora passerà a te.\nPer incoronare la tua vittoria,{{delay frames=\"20\"}} ecco\nqui {{fun_0008000E arg=\"0x00CD0C0069006C0020006D0069006F000C006C00610020006D00690061000000\"}} {{fun_00030011 arg=\"0x0000\"}}!\nTieni, te l{{fun_0008000E arg=\"0x00CD02006F00020061000000\"}} sei meritat{{fun_0008000E arg=\"0x00CD02006F00020061000000\"}}!",
      "JPja": "{{anim id=\"12\"}}このボクが、\nかくれんぼで　まけるなんて{{delay frames=\"8\"}}・{{delay frames=\"8\"}}・{{delay frames=\"8\"}}・{{delay frames=\"40\"}}\nじしんが　あったんだけどなぁ～{{pageBreak}}{{anim id=\"1\"}}キミって　かくれんぼ\n{{ruby charSpan=\"1\" value=\"つよ\"}}強いんだねぇ！{{pageBreak}}きねんに、{{delay frames=\"20\"}}\n{{fun_00030011 arg=\"0x0000\"}}を\nあげちゃうよぉ！",
      "KRko": "{{anim id=\"12\"}}내가 숨바꼭질에서\n지다니{{delay frames=\"8\"}}・{{delay frames=\"8\"}}・{{delay frames=\"8\"}}・{{delay frames=\"40\"}}\n이길 자신 있었는데에～{{pageBreak}}{{anim id=\"1\"}}넌 숨바꼭질을\n무지 잘하는구나아!{{pageBreak}}나한테 이겼으니까{{delay frames=\"20\"}}\n이 {{fun_00030011 arg=\"0x0000\"}}{{fun_000E000E arg=\"0x020044C702007CB9\"}}\n줄게에!",
      "USen": "{{anim id=\"12\"}}I can't believe I lost at\nhide-and-seek.{{delay frames=\"40\"}} I'm usually the best\nat this game.\n{{anim id=\"1\"}}That means you're the reigning\nhide-and-seek champ now.{{pageBreak}}To commemorate your win,{{delay frames=\"20\"}} I'll give\nyou my {{fun_00030011 arg=\"0x0000\"}}!",
      "USes": "{{anim id=\"12\"}}No puede ser, ¡me has ganado al\nescondite!{{delay frames=\"40\"}} Normalmente suelo\nser el mejor.\n{{anim id=\"1\"}}Eso significa que ahora tú eres\n{{fun_0006000E arg=\"0x040065006C0004006C006100\"}} campe{{fun_0006000E arg=\"0x0400F3006E0006006F006E006100\"}} del escondite.{{pageBreak}}Para conmemorar tu victoria,{{delay frames=\"20\"}}\n¡toma, mi {{fun_00030011 arg=\"0x0000\"}}!",
      "USfr": "{{anim id=\"12\"}}Je n'arrive pas à croire que tu aies\ngagné!{{delay frames=\"40\"}} C'est toujours moi qui\ngagne, d'habitude.\n{{anim id=\"1\"}}Alors c'est toi le champion de\ncache-cache maintenant.{{pageBreak}}Tiens,{{delay frames=\"20\"}} j'ai le plaisir de te remettre\n{{fun_0001000E arg=\"\"}}{{fun_00030011 arg=\"0x0000\"}} du\nchampion de la ville!"
    }
  }
]