﻿[
  {
    "label": "001",
    "locale": {
      "EUde": "{{anim id=\"39\"}}Wie findest du denn diese Stadt?{{fun_00010007 arg=\"\"}}\n{{anim id=\"1\"}}Mir gefällt's hier total gut!",
      "EUen": "{{anim id=\"39\"}}What do you think of this town?{{fun_00010007 arg=\"\"}}\n{{anim id=\"1\"}}I think it's pretty neat!",
      "EUes": "{{anim id=\"39\"}}¿Qué te parece el pueblo?{{fun_00010007 arg=\"\"}}\n{{anim id=\"1\"}}¡No me digas que no mola!",
      "EUfr": "{{anim id=\"23\"}}Qu'est-ce que tu penses de cette\nville ?{{delay frames=\"40\"}} {{anim id=\"1\"}}Moi je la trouve vraiment\nsympa !",
      "EUit": "{{anim id=\"39\"}}Cosa ne pensi di questa città?{{fun_00010007 arg=\"\"}}\n{{anim id=\"1\"}}A me piace molto!",
      "JPja": "{{anim id=\"39\"}}ウフフ{{delay frames=\"8\"}}・{{delay frames=\"8\"}}・{{delay frames=\"8\"}}・{{delay frames=\"20\"}}\nキミは　この{{ruby charSpan=\"1\" value=\"むら\"}}村　どう{{ruby charSpan=\"1\" value=\"おも\"}}思う？{{fun_00010007 arg=\"\"}}\n{{anim id=\"1\"}}ボクは　けっこう　{{ruby charSpan=\"1\" value=\"き\"}}気に{{ruby charSpan=\"1\" value=\"い\"}}入っちゃったぁ！",
      "KRko": "{{anim id=\"39\"}}우후훗{{delay frames=\"8\"}}・{{delay frames=\"8\"}}・{{delay frames=\"8\"}}・{{delay frames=\"20\"}}\n넌 이 마을이 어떠니～?{{fun_00010007 arg=\"\"}}\n{{anim id=\"1\"}}난 꽤 맘에 들어～!",
      "USen": "{{anim id=\"39\"}}What do you think of this town?{{fun_00010007 arg=\"\"}}\n{{anim id=\"1\"}}I think it's pretty neat!",
      "USes": "{{anim id=\"39\"}}¿Qué te parece el pueblo?{{fun_00010007 arg=\"\"}}\n{{anim id=\"1\"}}¡No me digas que no mola!",
      "USfr": "{{anim id=\"23\"}}Qu'est-ce que tu penses de cette\nville?{{delay frames=\"40\"}} {{anim id=\"1\"}}Moi je la trouve vraiment\nsympa!"
    }
  },
  {
    "label": "002",
    "locale": {
      "EUde": "{{anim id=\"23\"}}Kommst du eigentlich oft hierher?{{pageBreak}}{{anim id=\"1\"}}Ich find's hier toll.{{delay frames=\"20\"}} Am liebsten\nwürde ich immer hier Urlaub\nmachen,{{delay frames=\"8\"}} {{fun_00070005 arg=\"\"}}.",
      "EUen": "{{anim id=\"23\"}}Do you visit this town a lot?{{pageBreak}}{{anim id=\"1\"}}This is the sort of place{{delay frames=\"20\"}} you want\nto keep coming back to,{{delay frames=\"8\"}}\n{{fun_00070005 arg=\"\"}}.",
      "EUes": "{{anim id=\"23\"}}¿Sueles venir mucho por el pueblo?{{pageBreak}}{{anim id=\"1\"}}Con lo que mola{{delay frames=\"20\"}} no me extraña,{{delay frames=\"8\"}}\n{{fun_00070005 arg=\"\"}}.",
      "EUfr": "{{anim id=\"23\"}}Tu viens souvent ici ?{{pageBreak}}{{anim id=\"1\"}}Moi j'aime bien cette ville,{{delay frames=\"20\"}} c'est une\nde mes destinations favorites,\n{{delay frames=\"8\"}}{{fun_00070005 arg=\"\"}} !",
      "EUit": "{{anim id=\"23\"}}Vieni spesso qui?{{pageBreak}}{{anim id=\"1\"}}Credo che sia il tipo di posto in cui\nè bello tornare.{{delay frames=\"20\"}} Non so spiegare\nbene perché,{{delay frames=\"8\"}} {{fun_00070005 arg=\"\"}}...",
      "JPja": "{{anim id=\"23\"}}キミは　この{{ruby charSpan=\"1\" value=\"むら\"}}村に\n{{ruby charSpan=\"2\" value=\"なんかい\"}}何回も{{ruby charSpan=\"1\" value=\"き\"}}来てるのぉ～？{{pageBreak}}{{anim id=\"1\"}}ここって{{delay frames=\"20\"}}\nまた　{{ruby charSpan=\"1\" value=\"き\"}}来たいなぁ～って\n{{ruby charSpan=\"1\" value=\"おも\"}}思える{{ruby charSpan=\"1\" value=\"むら\"}}村だよねぇ、{{delay frames=\"8\"}}{{fun_00070005 arg=\"\"}}",
      "KRko": "{{anim id=\"23\"}}넌 이 마을에\n몇 번이나 와봤어～?{{pageBreak}}{{anim id=\"1\"}}여긴 자꾸 오고 싶어지는{{delay frames=\"20\"}}\n마을인 거 같애,\n{{delay frames=\"8\"}}{{fun_00070005 arg=\"\"}}",
      "USen": "{{anim id=\"23\"}}Do you visit this town a lot?{{pageBreak}}{{anim id=\"1\"}}This is the sort of place{{delay frames=\"20\"}} you want\nto keep coming back to,{{delay frames=\"8\"}}\n{{fun_00070005 arg=\"\"}}.",
      "USes": "{{anim id=\"23\"}}¿Sueles venir mucho por el pueblo?{{pageBreak}}{{anim id=\"1\"}}Con lo que mola{{delay frames=\"20\"}} no me extraña,{{delay frames=\"8\"}}\n{{fun_00070005 arg=\"\"}}.",
      "USfr": "{{anim id=\"23\"}}Tu viens souvent ici?{{pageBreak}}{{anim id=\"1\"}}Moi j'aime bien cette ville,{{delay frames=\"20\"}} c'est une\nde mes destinations favorites,\n{{delay frames=\"8\"}}{{fun_00070005 arg=\"\"}}!"
    }
  },
  {
    "label": "003",
    "locale": {
      "EUde": "{{anim id=\"1\"}}Hier gefällt's mir so gut, dass\nich gar nicht mehr heim will.",
      "EUen": "{{anim id=\"1\"}}It's so nice here,{{delay frames=\"8\"}} I don't even wanna\ngo home.",
      "EUes": "{{anim id=\"10\"}}Qué bajón. Me va a costar horrores\nvolver a casa después de habérmelo\npasado pipa aquí.",
      "EUfr": "{{anim id=\"1\"}}Je me plais tellement ici que j'ai\nvraiment pas hâte de devoir\nrentrer chez moi !",
      "EUit": "{{anim id=\"1\"}}È così bello qui!{{delay frames=\"8\"}} Non mi viene\naffatto voglia di tornare a casa.",
      "JPja": "{{anim id=\"1\"}}あんまり　いごこちがいいと、{{delay frames=\"8\"}}\n{{ruby charSpan=\"1\" value=\"かえ\"}}帰るのイヤになっちゃうよねぇ",
      "KRko": "{{anim id=\"1\"}}여긴 너무 편하고 좋은 곳이라{{delay frames=\"8\"}}\n집에 가기가 싫다아～",
      "USen": "{{anim id=\"1\"}}It's so nice here,{{delay frames=\"8\"}} I don't even wanna\ngo home.",
      "USes": "{{anim id=\"10\"}}Qué bajón. Me va a costar horrores\nvolver a casa después de habérmelo\npasado pipa aquí.",
      "USfr": "{{anim id=\"1\"}}Je me plais tellement ici que j'ai\nvraiment pas hâte de devoir\nrentrer chez moi!"
    }
  },
  {
    "label": "004",
    "locale": {
      "EUde": "{{anim id=\"5\"}}Beim Campen gibt es immer was\nLeckeres zu essen!{{delay frames=\"20\"}} Was es hier\nwohl für Spezialitäten gibt?",
      "EUen": "{{anim id=\"5\"}}Camping always means{{delay frames=\"20\"}} eating tasty\nfood!{{pageBreak}}I wonder what tasty stuff{{delay frames=\"8\"}} there is\nto eat in this town, {{delay frames=\"8\"}}{{fun_00070005 arg=\"\"}}.",
      "EUes": "{{anim id=\"5\"}}Lo que más me gusta de ir de\nacampada es probar la comida\nlocal.{{pageBreak}}He venido a este pueblo para ver\nqué cosas ricas comen por aquí.",
      "EUfr": "{{anim id=\"5\"}}Voyager,{{delay frames=\"20\"}} c'est l'occasion rêvée pour\nfaire de nouvelles découvertes\nculinaires !{{pageBreak}}Je me demande quelles bonnes\nsurprises cette ville me réserve,\n{{delay frames=\"8\"}}{{fun_00070005 arg=\"\"}}.",
      "EUit": "{{anim id=\"5\"}}Quando si visita una nuova città{{delay frames=\"20\"}}\nsi mangiano tante cose buone!{{pageBreak}}Chissà quali sono{{delay frames=\"8\"}} le specialità\nche si mangiano qui, {{delay frames=\"8\"}}{{fun_00070005 arg=\"\"}}...",
      "JPja": "{{anim id=\"5\"}}キャンプって、{{delay frames=\"20\"}}\nおいしいごはんが　つきものだよねぇ{{pageBreak}}この{{ruby charSpan=\"1\" value=\"むら\"}}村には{{delay frames=\"8\"}}　どんな　おいしいものが\nあるんだろぉ、{{delay frames=\"8\"}}{{fun_00070005 arg=\"\"}}",
      "KRko": "{{anim id=\"5\"}}캠핑에서는{{delay frames=\"20\"}}\n맛있는 음식을 빼놓을 수 없어～{{pageBreak}}이 마을에는 {{delay frames=\"8\"}}어떤 맛있는 음식이\n날 기다릴까아～ {{delay frames=\"8\"}}{{fun_00070005 arg=\"\"}}",
      "USen": "{{anim id=\"5\"}}Camping always means{{delay frames=\"20\"}} eating tasty\nfood!{{pageBreak}}I wonder what tasty stuff{{delay frames=\"8\"}} there is\nto eat in this town, {{delay frames=\"8\"}}{{fun_00070005 arg=\"\"}}.",
      "USes": "{{anim id=\"5\"}}Lo que más me gusta de ir de\nacampada es probar la comida\nlocal.{{pageBreak}}He venido a este pueblo para ver\nqué cosas ricas comen por aquí.",
      "USfr": "{{anim id=\"5\"}}Voyager,{{delay frames=\"20\"}} c'est l'occasion rêvée pour\nfaire de nouvelles découvertes\nculinaires!{{pageBreak}}Je me demande quelles bonnes\nsurprises cette ville me réserve,\n{{delay frames=\"8\"}}{{fun_00070005 arg=\"\"}}."
    }
  },
  {
    "label": "005",
    "locale": {
      "EUde": "{{anim id=\"11\"}}Obwohl das gar nicht meine Stadt\nist, {{anim id=\"1\"}}fühle ich mich hier trotzdem\nfast wie zu Hause,{{delay frames=\"8\"}} {{fun_00070005 arg=\"\"}}.",
      "EUen": "{{anim id=\"11\"}}It's weird.{{delay frames=\"20\"}} Even though this isn't my\ntown,{{delay frames=\"20\"}} {{anim id=\"1\"}}I feel like I fit in perfectly,{{delay frames=\"8\"}}\n{{fun_00070005 arg=\"\"}}.",
      "EUes": "{{anim id=\"11\"}}Qué curioso.{{delay frames=\"20\"}} Aunque este no es mi\npueblo,{{delay frames=\"20\"}} {{anim id=\"1\"}}siento como si estuviera\nhecho para mí,{{delay frames=\"8\"}} {{fun_00070005 arg=\"\"}}.",
      "EUfr": "{{anim id=\"11\"}}Bizarre{{delay frames=\"8\"}}.{{delay frames=\"8\"}}.{{delay frames=\"8\"}}.{{delay frames=\"20\"}} Même si je ne suis pas\nchez moi,{{delay frames=\"20\"}}{{anim id=\"1\"}} j'ai l'impression qu'ici, je\nsuis à ma place, {{delay frames=\"8\"}}{{fun_00070005 arg=\"\"}}.",
      "EUit": "{{anim id=\"11\"}}È strano, ma{{delay frames=\"20\"}} anche se questa non\nè la mia città, {{delay frames=\"20\"}}{{anim id=\"1\"}}qui mi sento come\nse fossi a casa,{{delay frames=\"8\"}} {{fun_00070005 arg=\"\"}}.",
      "JPja": "{{anim id=\"11\"}}ほんの　ちょっとの　ちがいでも、{{delay frames=\"20\"}}\nしっくりきたり{{delay frames=\"20\"}}　こなかったり{{delay frames=\"8\"}}・{{delay frames=\"8\"}}・{{delay frames=\"8\"}}・{{pageBreak}}{{anim id=\"1\"}}この{{ruby charSpan=\"1\" value=\"むら\"}}村は　なんとなく\nボクには　しっくりくるんだぁ\n{{delay frames=\"8\"}}{{fun_00070005 arg=\"\"}}",
      "KRko": "{{anim id=\"11\"}}아주 작은 차이로{{delay frames=\"20\"}}\n마음에 들기도 하고 {{delay frames=\"20\"}}\n안 들기도 하잖아{{delay frames=\"8\"}}・{{delay frames=\"8\"}}・{{delay frames=\"8\"}}・{{pageBreak}}{{anim id=\"1\"}}이 마을은 왜인지는 모르겠는데\n내 마음에 쏙 드는 거 같애～\n{{delay frames=\"8\"}}{{fun_00070005 arg=\"\"}}",
      "USen": "{{anim id=\"11\"}}It's weird.{{delay frames=\"20\"}} Even though this isn't my\ntown,{{delay frames=\"20\"}} {{anim id=\"1\"}}I feel like I fit in perfectly,{{delay frames=\"8\"}}\n{{fun_00070005 arg=\"\"}}.",
      "USes": "{{anim id=\"11\"}}Qué curioso.{{delay frames=\"20\"}} Aunque este no es mi\npueblo,{{delay frames=\"20\"}} {{anim id=\"1\"}}siento como si estuviera\nhecho para mí,{{delay frames=\"8\"}} {{fun_00070005 arg=\"\"}}.",
      "USfr": "{{anim id=\"11\"}}Bizarre{{delay frames=\"8\"}}.{{delay frames=\"8\"}}.{{delay frames=\"8\"}}.{{delay frames=\"20\"}} Même si je ne suis pas\nchez moi,{{delay frames=\"20\"}}{{anim id=\"1\"}} j'ai l'impression qu'ici, je\nsuis à ma place, {{delay frames=\"8\"}}{{fun_00070005 arg=\"\"}}."
    }
  },
  {
    "label": "006",
    "locale": {
      "EUde": "{{anim id=\"15\"}}Oh!{{delay frames=\"20\"}} Wohnst du etwa hier?{{fun_00010007 arg=\"\"}}\n{{anim id=\"5\"}}Ich campe hier gerade.{{pageBreak}}{{anim id=\"1\"}}Das war eine ganz spontane\nEntscheidung, aber jetzt bin ich\nfroh, dass ich hergekommen bin!\nVielleicht sehen wir uns ja noch\nöfter, {{delay frames=\"8\"}}{{fun_00070005 arg=\"\"}}.",
      "EUen": "{{anim id=\"15\"}}Hey!{{delay frames=\"20\"}} Are you from this town?{{fun_00010007 arg=\"\"}}\n{{anim id=\"5\"}}I'm here camping!{{pageBreak}}{{anim id=\"1\"}}I pretty much just decided to camp\nhere on a whim,{{delay frames=\"20\"}} but it ended up\nbeing an awesome decision!{{pageBreak}}I'll be seeing you around for a little\nbit, {{delay frames=\"8\"}}{{fun_00070005 arg=\"\"}}.",
      "EUes": "{{anim id=\"15\"}}¡Huy!{{delay frames=\"20\"}} ¿Tú vives en este pueblo?{{fun_00010007 arg=\"\"}}\n{{anim id=\"5\"}}¡Pues yo estoy aquí de acampada!{{pageBreak}}{{anim id=\"1\"}}Fíjate que vine porque me dio\nel pronto,{{delay frames=\"20\"}} ¡pero ahora no me\narrepiento para nada!{{pageBreak}}¡Creo que estaré por aquí una\ntemporada! ¡A ver si nos vemos,\n{{delay frames=\"8\"}}{{fun_00070005 arg=\"\"}}!",
      "EUfr": "{{anim id=\"15\"}}Salut !{{delay frames=\"20\"}} Tu es du coin ?{{fun_00010007 arg=\"\"}} {{anim id=\"5\"}}Moi, je suis\nsimplement de passage, histoire de\nfaire un peu de camping !{{pageBreak}}{{anim id=\"1\"}}J'ai choisi de planter ma tente ici un\npeu sur un coup de tête,{{delay frames=\"20\"}} mais je ne\nregrette pas du tout mon choix !{{pageBreak}}On aura l'occasion de se revoir\npendant les jours à venir,\n{{delay frames=\"8\"}}{{fun_00070005 arg=\"\"}} !",
      "EUit": "{{anim id=\"15\"}}Ehilà!{{delay frames=\"20\"}} Tu sei di queste parti?{{fun_00010007 arg=\"\"}}\n{{anim id=\"5\"}}Io sono in vacanza!{{pageBreak}}{{anim id=\"1\"}}Ho deciso più o meno al volo\ndi accamparmi qui,{{delay frames=\"20\"}} ma sono\ncontento che sia andata così!{{pageBreak}}Ci vediamo in giro, {{delay frames=\"8\"}}{{fun_00070005 arg=\"\"}}.",
      "JPja": "{{anim id=\"15\"}}あぁ～！{{delay frames=\"20\"}}\nキミは　この{{ruby charSpan=\"1\" value=\"むら\"}}村のコだねぇ？{{pageBreak}}{{anim id=\"5\"}}おじゃましてま～す{{delay frames=\"40\"}}\nキャンプさせて　もらってるよぉ～{{pageBreak}}{{anim id=\"1\"}}{{ruby charSpan=\"1\" value=\"き\"}}気のむくままに\nここで　キャンプすることにしたけど、{{delay frames=\"20\"}}\n{{ruby charSpan=\"1\" value=\"だい\"}}大せいかい　だったよぉ！{{pageBreak}}ちょっとの{{ruby charSpan=\"1\" value=\"あいだ\"}}間だけど\nよろしくねぇ、{{delay frames=\"8\"}}{{fun_00070005 arg=\"\"}}",
      "KRko": "{{anim id=\"15\"}}아아～!{{delay frames=\"20\"}}\n너～ 이 마을에 사는 애 맞지이?{{pageBreak}}{{anim id=\"5\"}}실례 좀 할게에～{{delay frames=\"40\"}}\n허락도 없이 미안하지만\n맘대로 여기에서 캠핑하고 있어～{{pageBreak}}{{anim id=\"1\"}}그냥 마음이 가는 대로\n이 마을에서 캠핑하기로 결정한 건데{{delay frames=\"20\"}}\n정말 잘 온 거 같애～!{{pageBreak}}짧은 시간이지만\n잘 부탁해～ {{delay frames=\"8\"}}{{fun_00070005 arg=\"\"}}",
      "USen": "{{anim id=\"15\"}}Hey!{{delay frames=\"20\"}} Are you from this town?{{fun_00010007 arg=\"\"}}\n{{anim id=\"5\"}}I'm here camping!{{pageBreak}}{{anim id=\"1\"}}I pretty much just decided to camp\nhere on a whim,{{delay frames=\"20\"}} but it ended up\nbeing an awesome decision!{{pageBreak}}I'll be seeing you around for a little\nbit, {{delay frames=\"8\"}}{{fun_00070005 arg=\"\"}}.",
      "USes": "{{anim id=\"15\"}}¡Huy!{{delay frames=\"20\"}} ¿Tú vives en este pueblo?{{fun_00010007 arg=\"\"}}\n{{anim id=\"5\"}}¡Pues yo estoy aquí de acampada!{{pageBreak}}{{anim id=\"1\"}}Fíjate que vine porque me dio\nel pronto,{{delay frames=\"20\"}} ¡pero ahora no me\narrepiento para nada!{{pageBreak}}¡Creo que estaré por aquí una\ntemporada! ¡A ver si nos vemos,\n{{delay frames=\"8\"}}{{fun_00070005 arg=\"\"}}!",
      "USfr": "{{anim id=\"15\"}}Salut!{{delay frames=\"20\"}} Tu es du coin?{{fun_00010007 arg=\"\"}} {{anim id=\"5\"}}Moi, je suis\nsimplement de passage, histoire de\nfaire un peu de camping!{{pageBreak}}{{anim id=\"1\"}}J'ai choisi de planter ma tente ici un\npeu sur un coup de tête,{{delay frames=\"20\"}} mais je ne\nregrette pas du tout mon choix!{{pageBreak}}On aura l'occasion de se revoir\npendant les jours à venir,\n{{delay frames=\"8\"}}{{fun_00070005 arg=\"\"}}!"
    }
  },
  {
    "label": "007",
    "locale": {
      "EUde": "{{anim id=\"15\"}}Du wohnst doch hier, oder?{{fun_00010007 arg=\"\"}}\n{{anim id=\"5\"}}Ich campe nur hier, aber das\nmacht total viel Spaß!",
      "EUen": "{{anim id=\"15\"}}You're from this town, aren't you?{{fun_00010007 arg=\"\"}}\n{{anim id=\"5\"}}I'm having a great time camping\nhere!",
      "EUes": "{{anim id=\"15\"}}¿Tú eres de este pueblo?{{fun_00010007 arg=\"\"}} {{anim id=\"5\"}}¡Pues\nque sepas que aquí acampado\nme lo estoy pasando de miedo!",
      "EUfr": "{{anim id=\"15\"}}Tu habites ici, toi ?{{fun_00010007 arg=\"\"}} {{anim id=\"5\"}}La chance !\nCette ville est vraiment sympa !",
      "EUit": "{{anim id=\"15\"}}Tu sei di qui, non è vero?{{fun_00010007 arg=\"\"}}\n{{anim id=\"5\"}}Ah, mi sto divertendo un sacco\nda quando sono arrivato!",
      "JPja": "{{anim id=\"15\"}}あぁ～！{{delay frames=\"20\"}}\nキミは　この{{ruby charSpan=\"1\" value=\"むら\"}}村のコだねぇ？{{pageBreak}}{{anim id=\"5\"}}おじゃましてまぁ～す！{{delay frames=\"40\"}}\nキャンプ　{{ruby charSpan=\"1\" value=\"たの\"}}楽しませて\nもらってるよぉ～！",
      "KRko": "{{anim id=\"15\"}}아아～!{{delay frames=\"20\"}}\n넌 이 마을에 사는 애 맞지이?{{pageBreak}}{{anim id=\"5\"}}실례 좀 할게에～!{{delay frames=\"40\"}}\n내 맘대로 와서 미안하지만\n캠핑을 즐기고 있는 중이야아～!",
      "USen": "{{anim id=\"15\"}}You're from this town, aren't you?{{fun_00010007 arg=\"\"}}\n{{anim id=\"5\"}}I'm having a great time camping\nhere!",
      "USes": "{{anim id=\"15\"}}¿Tú eres de este pueblo?{{fun_00010007 arg=\"\"}} {{anim id=\"5\"}}¡Pues\nque sepas que aquí acampado\nme lo estoy pasando de miedo!",
      "USfr": "{{anim id=\"15\"}}Tu habites ici, toi?{{fun_00010007 arg=\"\"}} {{anim id=\"5\"}}La chance!\nCette ville est vraiment sympa!"
    }
  },
  {
    "label": "008",
    "locale": {
      "EUde": "{{anim id=\"1\"}}Ich campe momentan hier, da siehst\ndu mich bestimmt noch öfter!{{pageBreak}}{{anim id=\"43\"}}Was ist denn das Leckerste, was\nman hier essen kann?{{delay frames=\"20\"}} {{anim id=\"33\"}}Äh, he he he,{{delay frames=\"8\"}}\nich werde es schon herausfinden!\nDas ist doch immer das Schönste\nam Verreisen,{{delay frames=\"8\"}} {{fun_00070005 arg=\"\"}}.",
      "EUen": "{{anim id=\"1\"}}I'm here camping in town,{{delay frames=\"40\"}} so you'll\nbe seeing me around for a bit!{{pageBreak}}{{anim id=\"43\"}}Fruit, {{delay frames=\"20\"}}fish, {{delay frames=\"20\"}}shellfish{{delay frames=\"8\"}}.{{delay frames=\"8\"}}.{{delay frames=\"8\"}}.{{delay frames=\"40\"}} What's {{delay frames=\"8\"}}the\nbest thing to eat here?{{pageBreak}}{{anim id=\"33\"}}A huh huh huh!{{delay frames=\"20\"}} You gotta eat the\nlocal food{{delay frames=\"20\"}} when you travel,{{delay frames=\"8\"}}\n{{fun_00070005 arg=\"\"}}.",
      "EUes": "{{anim id=\"1\"}}Vas a verme a menudo ahora que\nhe venido al pueblo de acampada.{{pageBreak}}Por cierto, ¿aquí qué es lo típico\npara comer? {{delay frames=\"20\"}}{{anim id=\"43\"}}¿Paella de plátano?\n¿Jamón con chocolate?\n{{anim id=\"33\"}}¡Je, je!{{delay frames=\"20\"}} No hay nada como probar\nlos platos de la zona cuando\nvas de viaje a un sitio nuevo.",
      "EUfr": "{{anim id=\"1\"}}J'ai planté ma tente en ville,{{delay frames=\"40\"}} alors\nne sois pas trop {{fun_0006000E arg=\"0x0E007300750072007000720069007300100073007500720070007200690073006500\"}} si tu me\nvois traîner dans les parages !{{pageBreak}}{{anim id=\"43\"}}Dis-moi{{delay frames=\"8\"}}.{{delay frames=\"8\"}}.{{delay frames=\"8\"}}.{{delay frames=\"40\"}} Quelle est la spécialité\nlocale ?{{pageBreak}}{{anim id=\"33\"}}À chaque fois que je voyage, je\nmets un point d'honneur à manger\nlocal, {{delay frames=\"8\"}}{{fun_00070005 arg=\"\"}} !",
      "EUit": "{{anim id=\"1\"}}Sono qui in vacanza.{{delay frames=\"40\"}} Per un po'\nmi vedrai da queste parti.{{pageBreak}}{{anim id=\"43\"}}Ascolta{{delay frames=\"8\"}}.{{delay frames=\"8\"}}.{{delay frames=\"8\"}}.{{delay frames=\"40\"}} Qual è il cibo\ntipico di queste parti?{{pageBreak}}{{anim id=\"2\"}}Ah ah ah!{{delay frames=\"20\"}} Sai, bisogna mangiare\nle prelibatezze locali,{{delay frames=\"20\"}} quando\nsi è in viaggio,{{delay frames=\"8\"}} {{fun_00070005 arg=\"\"}}.",
      "JPja": "{{anim id=\"1\"}}やっほぉ～！{{delay frames=\"20\"}}\nボクは　この{{ruby charSpan=\"1\" value=\"むら\"}}村で　キャンプ{{ruby charSpan=\"1\" value=\"ちゅう\"}}中～{{delay frames=\"40\"}}\nしばらくの{{ruby charSpan=\"1\" value=\"あいだ\"}}間　よろしくね！{{pageBreak}}{{anim id=\"43\"}}フルーツ、{{delay frames=\"20\"}}おサカナ、{{delay frames=\"20\"}}{{ruby charSpan=\"1\" value=\"かい\"}}貝{{delay frames=\"8\"}}・{{delay frames=\"8\"}}・{{delay frames=\"8\"}}・{{delay frames=\"40\"}}\nこの{{ruby charSpan=\"1\" value=\"むら\"}}村じまんの{{delay frames=\"8\"}}　おいしいものってある～？{{pageBreak}}{{anim id=\"33\"}}えへへ～{{delay frames=\"20\"}}\nその{{ruby charSpan=\"2\" value=\"とち\"}}土地のモノを　{{ruby charSpan=\"1\" value=\"た\"}}食べるのは{{delay frames=\"20\"}}\nたびのキホン　だよねぇ、{{delay frames=\"8\"}}{{fun_00070005 arg=\"\"}}",
      "KRko": "{{anim id=\"1\"}}얏호오～!{{delay frames=\"20\"}}\n난 지금 이 마을에서 캠핑하는 중이야～{{delay frames=\"40\"}}\n짧은 시간이지만 잘 부탁할게에!{{pageBreak}}{{anim id=\"43\"}}과일, {{delay frames=\"20\"}}물고기, {{delay frames=\"20\"}}조개{{delay frames=\"8\"}}・{{delay frames=\"8\"}}・{{delay frames=\"8\"}}・{{delay frames=\"40\"}}\n이 마을이 자랑하는 {{delay frames=\"8\"}}\n맛있는 음식은 뭐니이～?{{pageBreak}}{{anim id=\"33\"}}에헤헤～{{delay frames=\"20\"}}\n그 땅에서 나는 음식을 먹는 건{{delay frames=\"20\"}}\n여행의 기본이잖아～ {{delay frames=\"8\"}}{{fun_00070005 arg=\"\"}}",
      "USen": "{{anim id=\"1\"}}I'm here camping in town,{{delay frames=\"40\"}} so you'll\nbe seeing me around for a bit!{{pageBreak}}{{anim id=\"43\"}}Fruit, {{delay frames=\"20\"}}fish, {{delay frames=\"20\"}}shellfish{{delay frames=\"8\"}}.{{delay frames=\"8\"}}.{{delay frames=\"8\"}}.{{delay frames=\"40\"}} What's {{delay frames=\"8\"}}the\nbest thing to eat here?{{pageBreak}}{{anim id=\"33\"}}A huh huh huh!{{delay frames=\"20\"}} You gotta eat the\nlocal food{{delay frames=\"20\"}} when you travel,{{delay frames=\"8\"}}\n{{fun_00070005 arg=\"\"}}.",
      "USes": "{{anim id=\"1\"}}Vas a verme a menudo ahora que\nhe venido al pueblo de acampada.{{pageBreak}}Por cierto, ¿aquí qué es lo típico\npara comer? {{delay frames=\"20\"}}{{anim id=\"43\"}}¿Paella de plátano?\n¿Jamón con chocolate?\n{{anim id=\"33\"}}¡Je, je!{{delay frames=\"20\"}} No hay nada como probar\nlos platos de la zona cuando\nvas de viaje a un sitio nuevo.",
      "USfr": "{{anim id=\"1\"}}J'ai planté ma tente en ville,{{delay frames=\"40\"}} alors\nne sois pas trop {{fun_0006000E arg=\"0x0E007300750072007000720069007300100073007500720070007200690073006500\"}} si tu me\nvois traîner dans les parages!{{pageBreak}}{{anim id=\"43\"}}Dis-moi{{delay frames=\"8\"}}.{{delay frames=\"8\"}}.{{delay frames=\"8\"}}.{{delay frames=\"40\"}} Quelle est la spécialité\nlocale?{{pageBreak}}{{anim id=\"33\"}}À chaque fois que je voyage, je\nmets un point d'honneur à manger\nlocal, {{delay frames=\"8\"}}{{fun_00070005 arg=\"\"}}!"
    }
  },
  {
    "label": "009",
    "locale": {
      "EUde": "{{anim id=\"43\"}}Wo wohnt es sich hier am besten?{{delay frames=\"20\"}}\nAm Meer? Oder irgendwo, wo es\nviele Bäume gibt?\nHmmm,{{delay frames=\"8\"}} aber es ist auch wichtig,\ndass ich nah bei den Läden bin, um\nmir immer Snacks zu kaufen!\n{{anim id=\"13\"}}Was mach ich nur?!",
      "EUen": "{{anim id=\"43\"}}I'm trying to figure out where to\nlive.{{delay frames=\"20\"}} Near the sea?{{delay frames=\"40\"}} Or somewhere\nwith a ton of trees?\nSome stores nearby would be nice{{delay frames=\"8\"}}.{{delay frames=\"8\"}}.{{delay frames=\"8\"}}.{{fun_00010007 arg=\"\"}}\n{{anim id=\"13\"}}Man, where the heck should I \nlive?!",
      "EUes": "Llevo un tiempo decidiendo dónde\nvivir.{{delay frames=\"20\"}}{{anim id=\"43\"}} ¿Junto al mar? ¿Cerca de\nárboles? ¿En un sitio con tiendas?\n{{anim id=\"13\"}}¡No tengo ni idea!",
      "EUfr": "{{anim id=\"43\"}}Je me demande quel serait le\nmeilleur endroit pour construire\nma maison...\nEn bord de mer ?{{delay frames=\"40\"}} Ou au milieu des\narbres ?{{delay frames=\"40\"}} Et puis ça il ne faudrait pas\nque je sois trop loin du centre{{delay frames=\"8\"}}.{{delay frames=\"8\"}}.{{delay frames=\"8\"}}.\n{{anim id=\"13\"}}J'en ai marre, j'arrive pas à me\ndécider !",
      "EUit": "{{anim id=\"43\"}}Sto cercando un posto dove\nandare a vivere...{{delay frames=\"20\"}} Vicino al mare?\n{{delay frames=\"40\"}}Vicino agli alberi?\nSarebbe bello anche avere\ndei negozi nei paraggi{{delay frames=\"8\"}}.{{delay frames=\"8\"}}.{{delay frames=\"8\"}}.{{fun_00010007 arg=\"\"}}\n{{anim id=\"13\"}}Caspitina, sono davvero indeciso!",
      "JPja": "{{anim id=\"43\"}}{{ruby charSpan=\"1\" value=\"うみ\"}}海の{{ruby charSpan=\"1\" value=\"ちか\"}}近くでしょぉ？{{delay frames=\"40\"}}\n{{ruby charSpan=\"1\" value=\"き\"}}木がたくさんあるとこでしょぉ？{{delay frames=\"40\"}}\nお{{ruby charSpan=\"1\" value=\"みせ\"}}店も{{ruby charSpan=\"1\" value=\"ちか\"}}近いと　べんりだし{{delay frames=\"8\"}}・{{delay frames=\"8\"}}・{{delay frames=\"8\"}}・{{pageBreak}}{{anim id=\"13\"}}ボク　{{ruby charSpan=\"2\" value=\"いったい\"}}一体　どこにすんだら\nいいのかなぁ～？！",
      "KRko": "{{anim id=\"43\"}}바다가 가까워야 되고,{{delay frames=\"40\"}}\n나무는 울창해야 해～{{delay frames=\"40\"}}\n그리고 가게가 가까우면 편리할 거고{{delay frames=\"8\"}}・{{delay frames=\"8\"}}・{{delay frames=\"8\"}}・{{pageBreak}}{{anim id=\"13\"}}난 도대체 \n어디에 살아야 할까아～?!",
      "USen": "{{anim id=\"43\"}}I'm trying to figure out where to\nlive.{{delay frames=\"20\"}} Near the sea?{{delay frames=\"40\"}} Or somewhere\nwith a ton of trees?\nSome stores nearby would be nice{{delay frames=\"8\"}}.{{delay frames=\"8\"}}.{{delay frames=\"8\"}}.{{fun_00010007 arg=\"\"}}\n{{anim id=\"13\"}}Man, where the heck should I \nlive?!",
      "USes": "Llevo un tiempo decidiendo dónde\nvivir.{{delay frames=\"20\"}}{{anim id=\"43\"}} ¿Junto al mar? ¿Cerca de\nárboles? ¿En un sitio con tiendas?\n{{anim id=\"13\"}}¡No tengo ni idea!",
      "USfr": "{{anim id=\"43\"}}Je me demande quel serait le\nmeilleur endroit pour construire\nma maison...\nEn bord de mer?{{delay frames=\"40\"}} Ou au milieu des\narbres?{{delay frames=\"40\"}} Et puis ça il ne faudrait pas\nque je sois trop loin du centre{{delay frames=\"8\"}}.{{delay frames=\"8\"}}.{{delay frames=\"8\"}}.\n{{anim id=\"13\"}}J'en ai marre, j'arrive pas à me\ndécider!"
    }
  },
  {
    "label": "010",
    "locale": {
      "EUde": "{{anim id=\"5\"}}Wo ziehe ich nur hin?{{delay frames=\"20\"}}\n{{anim id=\"3\"}}Hier ist es doch überall\nso schön!",
      "EUen": "{{anim id=\"5\"}}Where should I live, where should I\nlive?{{delay frames=\"40\"}} {{anim id=\"3\"}}{{delay frames=\"20\"}}Maybe I'll play rock-paper-\nscissors with myself to decide!",
      "EUes": "{{anim id=\"5\"}}Dónde vivir, dónde vivir{{delay frames=\"8\"}}.{{delay frames=\"8\"}}.{{delay frames=\"8\"}}.{{delay frames=\"40\"}} {{anim id=\"3\"}}{{delay frames=\"20\"}}¿Y si me\nlo juego a piedra, papel o tijera\ncontra mí mismo?",
      "EUfr": "{{anim id=\"5\"}}Il y a tellement d'endroits où\nj'aimerais faire construire ma\nmaison ! J'ai l'embarras du choix !\n{{anim id=\"3\"}}Peut-être que je devrais faire une\npartie de pierre-papier-ciseaux\ncontre moi-même pour me décider !",
      "EUit": "{{anim id=\"5\"}}Ah, in che zona andrò a vivere?{{delay frames=\"40\"}}\n{{anim id=\"3\"}}{{delay frames=\"20\"}}Deciderò giocando a morra cinese\ncon me stesso! Sì, ecco cosa farò!",
      "JPja": "{{anim id=\"5\"}}ど～{{delay frames=\"8\"}}こ～{{delay frames=\"8\"}}に、{{delay frames=\"20\"}}\nす～{{delay frames=\"8\"}}も～{{delay frames=\"8\"}}お～{{delay frames=\"8\"}}か～{{delay frames=\"8\"}}なぁ～{{delay frames=\"8\"}}・{{delay frames=\"8\"}}・{{delay frames=\"8\"}}・{{delay frames=\"40\"}}\n{{anim id=\"7\"}}{{fun_000B0007 arg=\"\"}}{{size value=\"100\"}}エイッ！{{pageBreak}}{{size value=\"100\"}}{{anim id=\"3\"}}えへへ～{{delay frames=\"20\"}}\nこんなかんじで、すむばしょを\nきめようと{{ruby charSpan=\"1\" value=\"おも\"}}思ってるんだぁ、{{delay frames=\"8\"}}{{fun_00070005 arg=\"\"}}",
      "KRko": "{{anim id=\"5\"}}어～{{delay frames=\"8\"}}디～{{delay frames=\"8\"}}에～ {{delay frames=\"8\"}}살～{{delay frames=\"8\"}}까～{{delay frames=\"8\"}}요～{{delay frames=\"20\"}}\n알～{{delay frames=\"8\"}}아～{{delay frames=\"8\"}}맞～{{delay frames=\"8\"}}혀～{{delay frames=\"8\"}}보～{{delay frames=\"8\"}}세～{{delay frames=\"8\"}}요～{{delay frames=\"8\"}}・{{delay frames=\"8\"}}・{{delay frames=\"8\"}}・{{delay frames=\"40\"}}\n{{anim id=\"5\"}}{{fun_000B0007 arg=\"\"}}딩동댕동!{{size value=\"100\"}}{{pageBreak}}{{size value=\"100\"}}{{anim id=\"3\"}}에헤헤～{{delay frames=\"20\"}}\n앞으로 살 곳을 이런 방법으로 \n정해보려구우, {{delay frames=\"8\"}}{{fun_00070005 arg=\"\"}}",
      "USen": "{{anim id=\"5\"}}Where should I live, where should I\nlive?{{delay frames=\"40\"}} {{anim id=\"3\"}}{{delay frames=\"20\"}}Maybe I'll play rock-paper-\nscissors with myself to decide!",
      "USes": "{{anim id=\"5\"}}Dónde vivir, dónde vivir{{delay frames=\"8\"}}.{{delay frames=\"8\"}}.{{delay frames=\"8\"}}.{{delay frames=\"40\"}} {{anim id=\"3\"}}{{delay frames=\"20\"}}¿Y si me\nlo juego a piedra, papel o tijera\ncontra mí mismo?",
      "USfr": "{{anim id=\"5\"}}Il y a tellement d'endroits où\nj'aimerais faire construire ma\nmaison! J'ai l'embarras du choix!\n{{anim id=\"3\"}}Peut-être que je devrais faire une\npartie de pierre-papier-ciseaux\ncontre moi-même pour me décider!"
    }
  },
  {
    "label": "011",
    "locale": {
      "EUde": "{{anim id=\"5\"}}Ich muss wo hinziehen, wo ich\nguten Zugang zu Süßigkeiten\nhabe,{{delay frames=\"8\"}} {{fun_00070005 arg=\"\"}}!{{delay frames=\"20\"}} Äh, he he he.",
      "EUen": "{{anim id=\"5\"}}Wherever I live, there's gotta be\nlots of food nearby,{{delay frames=\"8\"}} {{fun_00070005 arg=\"\"}}!",
      "EUes": "{{anim id=\"5\"}}¡Sea donde sea que me mude,\ndebe ser un sitio con buena\ncomida,{{delay frames=\"8\"}} {{fun_00070005 arg=\"\"}}!",
      "EUfr": "{{anim id=\"5\"}}L'important, c'est que je fasse\nconstruire ma maison près d'un\narbre fruitier,{{delay frames=\"8\"}} {{fun_00070005 arg=\"\"}} !",
      "EUit": "{{anim id=\"5\"}}Ovunque vada, ci deve essere\nun sacco di roba buona\nda mangiare,{{delay frames=\"8\"}} {{fun_00070005 arg=\"\"}}!",
      "JPja": "{{anim id=\"5\"}}とにかく　{{ruby charSpan=\"1\" value=\"た\"}}食べものが\nたくさんあるところに\nすむんだぁ、{{delay frames=\"8\"}}{{fun_00070005 arg=\"\"}}！",
      "KRko": "{{anim id=\"5\"}}무조건 음식이 많은 곳에\n살 거야아, {{delay frames=\"8\"}}{{fun_00070005 arg=\"\"}}!",
      "USen": "{{anim id=\"5\"}}Wherever I live, there's gotta be\nlots of food nearby,{{delay frames=\"8\"}} {{fun_00070005 arg=\"\"}}!",
      "USes": "{{anim id=\"5\"}}¡Sea donde sea que me mude,\ndebe ser un sitio con buena\ncomida,{{delay frames=\"8\"}} {{fun_00070005 arg=\"\"}}!",
      "USfr": "{{anim id=\"5\"}}L'important, c'est que je fasse\nconstruire ma maison près d'un\narbre fruitier,{{delay frames=\"8\"}} {{fun_00070005 arg=\"\"}}!"
    }
  },
  {
    "label": "012",
    "locale": {
      "EUde": "{{anim id=\"35\"}}Ich habe spannende Neuigkeiten!{{fun_00010007 arg=\"\"}} {{anim id=\"5\"}}\nIch ziehe hierher um!{{pageBreak}}{{anim id=\"26\"}}{{fun_0003000E arg=\"\"}}{{fun_00000011 arg=\"0x0000\"}} hat mich eingeladen,\nund da konnte ich nicht Nein sagen.{{delay frames=\"20\"}}\n{{anim id=\"1\"}}Wir sind also bald Nachbarn!",
      "EUen": "{{anim id=\"35\"}}Actually, I have something\nimportant to tell you.{{fun_00010007 arg=\"\"}} {{anim id=\"5\"}}I'm moving to\nthis town!{{pageBreak}}{{anim id=\"26\"}}{{fun_0003000E arg=\"\"}}{{fun_00000011 arg=\"0x0000\"}} invited me, and I\nfigured, why not?{{fun_00010007 arg=\"\"}} {{anim id=\"1\"}}So you and I are\ngonna be neighbors soon!",
      "EUes": "{{anim id=\"35\"}}Tengo una cosa muy interesante que\ncontarte.{{fun_00010007 arg=\"\"}} {{anim id=\"5\"}}¡Me mudo a este pueblo!{{pageBreak}}{{anim id=\"26\"}}{{fun_0003000E arg=\"\"}}{{fun_00000011 arg=\"0x0000\"}} me ha invitado y mira{{delay frames=\"8\"}}.{{delay frames=\"8\"}}.{{delay frames=\"8\"}}.{{delay frames=\"20\"}}\n¿por qué no?{{fun_00010007 arg=\"\"}} {{anim id=\"1\"}}¡Vamos a ser vecinos!",
      "EUfr": "{{anim id=\"35\"}}J'ai une grande nouvelle à\nt'annoncer !{{fun_00010007 arg=\"\"}} {{anim id=\"22\"}}{{fun_000B0007 arg=\"\"}}Ouvre grand tes\noreilles :{{delay frames=\"60\"}} {{anim id=\"5\"}}je vais venir habiter ici !\n{{anim id=\"26\"}}{{fun_0003000E arg=\"\"}}{{fun_00000011 arg=\"0x0000\"}} m'a proposé de\nm'installer dans le coin !{{pageBreak}}{{anim id=\"1\"}}Ça veut dire que toi et moi, on va\ndevenir voisins ! {{delay frames=\"8\"}}{{fun_0003000E arg=\"\"}}{{fun_00070005 arg=\"\"}} !",
      "EUit": "{{anim id=\"35\"}}Devo dirti una cosa importante!{{fun_00010007 arg=\"\"}}{{anim id=\"5\"}}\nMi trasferisco qui!{{pageBreak}}{{anim id=\"26\"}}È stat{{fun_0008000E arg=\"0x00CD02006F00020061000000\"}} {{fun_00000011 arg=\"0x0000\"}} a invitarmi\ne mi sono detto: \"Perché no?\".{{pageBreak}}{{anim id=\"1\"}}Presto tu e io saremo vicini di casa!\nEh eh eh!",
      "JPja": "{{anim id=\"35\"}}じつは　キミに{{delay frames=\"20\"}}\n{{ruby charSpan=\"1\" value=\"だい\"}}大はっぴょうがあるんだぁ～{{pageBreak}}{{delay frames=\"8\"}}・{{delay frames=\"8\"}}・{{delay frames=\"8\"}}・{{delay frames=\"20\"}}{{anim id=\"22\"}}{{fun_000B0007 arg=\"\"}}なんとっ！{{delay frames=\"60\"}}\n{{anim id=\"5\"}}ボク　この{{ruby charSpan=\"1\" value=\"むら\"}}村に\nお{{ruby charSpan=\"1\" value=\"ひ\"}}引っこしして{{ruby charSpan=\"1\" value=\"く\"}}来ることに　なったんだぁ！{{pageBreak}}{{anim id=\"26\"}}{{fun_00000011 arg=\"0x0000\"}}{{fun_000D0005 arg=\"\"}}が\nさそってくれたんだよぉ～{{pageBreak}}{{anim id=\"1\"}}これからは\n{{ruby charSpan=\"1\" value=\"おな\"}}同じ{{ruby charSpan=\"1\" value=\"むら\"}}村のおともだち！{{delay frames=\"40\"}}\nよろしくねぇ、{{delay frames=\"8\"}}{{fun_00070005 arg=\"\"}}",
      "KRko": "{{anim id=\"35\"}}사실은 너에게 해줄{{delay frames=\"20\"}}\n중대 발표가 있어～{{pageBreak}}{{delay frames=\"8\"}}・{{delay frames=\"8\"}}・{{delay frames=\"8\"}}・{{delay frames=\"20\"}}{{anim id=\"22\"}}{{fun_000B0007 arg=\"\"}}바로바로～!{{delay frames=\"60\"}}\n{{anim id=\"5\"}}내가 이 마을에\n이사를 오게 됐다는 사실이야아!{{pageBreak}}{{anim id=\"26\"}}{{fun_00000011 arg=\"0x0000\"}}한테 이사를 오는 게\n어떻겠냐는 소릴 들었거든～{{pageBreak}}{{anim id=\"1\"}}이제부턴 \n같은 마을에 사는 친구네에!{{delay frames=\"40\"}}\n잘 지내보자아, {{delay frames=\"8\"}}{{fun_00070005 arg=\"\"}}",
      "USen": "{{anim id=\"35\"}}Actually, I have something\nimportant to tell you.{{fun_00010007 arg=\"\"}} {{anim id=\"5\"}}I'm moving to\nthis town!{{pageBreak}}{{anim id=\"26\"}}{{fun_0003000E arg=\"\"}}{{fun_00000011 arg=\"0x0000\"}} invited me, and I\nfigured, why not?{{fun_00010007 arg=\"\"}} {{anim id=\"1\"}}So you and I are\ngonna be neighbors soon!",
      "USes": "{{anim id=\"35\"}}Tengo una cosa muy interesante que\ncontarte.{{fun_00010007 arg=\"\"}} {{anim id=\"5\"}}¡Me mudo a este pueblo!{{pageBreak}}{{anim id=\"26\"}}{{fun_0003000E arg=\"\"}}{{fun_00000011 arg=\"0x0000\"}} me ha invitado y mira{{delay frames=\"8\"}}.{{delay frames=\"8\"}}.{{delay frames=\"8\"}}.{{delay frames=\"20\"}}\n¿por qué no?{{fun_00010007 arg=\"\"}} {{anim id=\"1\"}}¡Vamos a ser vecinos!",
      "USfr": "{{anim id=\"35\"}}J'ai une grande nouvelle à\nt'annoncer!{{fun_00010007 arg=\"\"}} {{anim id=\"22\"}}{{fun_000B0007 arg=\"\"}}Ouvre grand tes\noreilles :{{delay frames=\"60\"}} {{anim id=\"5\"}}je vais venir habiter ici!\n{{anim id=\"26\"}}{{fun_0003000E arg=\"\"}}{{fun_00000011 arg=\"0x0000\"}} m'a proposé de\nm'installer dans le coin!{{pageBreak}}{{anim id=\"1\"}}Ça veut dire que toi et moi, on va\ndevenir voisins! {{delay frames=\"8\"}}{{fun_0003000E arg=\"\"}}{{fun_00070005 arg=\"\"}}!"
    }
  },
  {
    "label": "013",
    "locale": {
      "EUde": "{{anim id=\"1\"}}Momentan campe ich nur hier,\naber bald ziehe ich mit all meinen\nSachen hierher um!\n{{anim id=\"26\"}}{{fun_0003000E arg=\"\"}}{{fun_00000011 arg=\"0x0000\"}} hat mich nämlich\neingeladen.{{delay frames=\"20\"}} {{anim id=\"1\"}}Du musst mich mal\nbesuchen, wenn ich umgezogen bin!",
      "EUen": "{{anim id=\"1\"}}So right now I'm just camping here,{{delay frames=\"20\"}}\nbut pretty soon I'll be moving to\nthis town for good!\n{{anim id=\"26\"}}{{fun_0003000E arg=\"\"}}{{fun_00000011 arg=\"0x0000\"}} invited me, actually.{{delay frames=\"20\"}}\n{{anim id=\"1\"}}We should hang out once I'm moved\nin,{{delay frames=\"8\"}} {{fun_00070005 arg=\"\"}}.",
      "EUes": "{{anim id=\"1\"}}De momento solo estoy acampado,{{delay frames=\"20\"}}\n¡pero dentro de nada me vendré a\nvivir al pueblo oficialmente!\n{{anim id=\"26\"}}{{fun_0003000E arg=\"\"}}{{fun_00000011 arg=\"0x0000\"}} me invitó y me pareció\nuna idea genial.{{delay frames=\"20\"}} {{anim id=\"1\"}}¡A ver si quedamos\ncuando me traslade,{{delay frames=\"8\"}} {{fun_00070005 arg=\"\"}}!",
      "EUfr": "{{anim id=\"1\"}}Pour le moment, je ne fais que\nplanter ma tente,{{delay frames=\"20\"}} mais bientôt je\nm'installerai ici pour de bon !\n{{anim id=\"26\"}}C'est {{fun_00000011 arg=\"0x0000\"}} qui m'a soufflé\nl'idée.{{pageBreak}}{{anim id=\"1\"}}Il faudra qu'on fasse des trucs\nensemble une fois que j'aurai posé\nmes valises,{{delay frames=\"8\"}} {{fun_00070005 arg=\"\"}}.",
      "EUit": "{{anim id=\"1\"}}Per ora sono qui in vacanza,{{delay frames=\"20\"}} ma\npresto mi trasferirò in questa città!{{pageBreak}}{{anim id=\"26\"}}{{fun_0003000E arg=\"\"}}{{fun_00000011 arg=\"0x0000\"}} mi ha proposto di\nvenire a vivere qui e ho accettato.{{pageBreak}}{{anim id=\"1\"}}Appena mi sarò trasferito,\ndovremmo festeggiare\ninsieme,{{delay frames=\"8\"}} {{fun_00070005 arg=\"\"}}!",
      "JPja": "{{anim id=\"1\"}}{{ruby charSpan=\"1\" value=\"いま\"}}今は　キャンプしてるだけだけど、{{delay frames=\"20\"}}\nこんどから　ボクも\nこの{{ruby charSpan=\"1\" value=\"むら\"}}村にすむんだよぉ～{{pageBreak}}{{anim id=\"26\"}}じつは　{{fun_00000011 arg=\"0x0000\"}}{{fun_000D0005 arg=\"\"}}に\nさそわれちゃったんだぁ～{{pageBreak}}{{anim id=\"1\"}}{{ruby charSpan=\"1\" value=\"ひ\"}}引っこして{{ruby charSpan=\"1\" value=\"き\"}}来たら\nなかよくしてねぇ、{{delay frames=\"8\"}}{{fun_00070005 arg=\"\"}}",
      "KRko": "{{anim id=\"1\"}}지금은 캠핑만 하고 있지만{{delay frames=\"20\"}}\n다음에 올 땐\n나도 이 마을의 주민이야아～{{pageBreak}}{{anim id=\"26\"}}사실은 {{fun_00000011 arg=\"0x0000\"}}한테\n이사 오라는 제안을 받았거든～{{pageBreak}}{{anim id=\"1\"}}이사를 오게 되면\n친하게 지내줘야 해～ {{delay frames=\"8\"}}{{fun_00070005 arg=\"\"}}",
      "USen": "{{anim id=\"1\"}}So right now I'm just camping here,{{delay frames=\"20\"}}\nbut pretty soon I'll be moving to\nthis town for good!\n{{anim id=\"26\"}}{{fun_0003000E arg=\"\"}}{{fun_00000011 arg=\"0x0000\"}} invited me, actually.{{delay frames=\"20\"}}\n{{anim id=\"1\"}}We should hang out once I'm moved\nin,{{delay frames=\"8\"}} {{fun_00070005 arg=\"\"}}.",
      "USes": "{{anim id=\"1\"}}De momento solo estoy acampado,{{delay frames=\"20\"}}\n¡pero dentro de nada me vendré a\nvivir al pueblo oficialmente!\n{{anim id=\"26\"}}{{fun_0003000E arg=\"\"}}{{fun_00000011 arg=\"0x0000\"}} me invitó y me pareció\nuna idea genial.{{delay frames=\"20\"}} {{anim id=\"1\"}}¡A ver si quedamos\ncuando me traslade,{{delay frames=\"8\"}} {{fun_00070005 arg=\"\"}}!",
      "USfr": "{{anim id=\"1\"}}Pour le moment, je ne fais que\nplanter ma tente,{{delay frames=\"20\"}} mais bientôt je\nm'installerai ici pour de bon!\n{{anim id=\"26\"}}C'est {{fun_00000011 arg=\"0x0000\"}} qui m'a soufflé\nl'idée.{{pageBreak}}{{anim id=\"1\"}}Il faudra qu'on fasse des trucs\nensemble une fois que j'aurai posé\nmes valises,{{delay frames=\"8\"}} {{fun_00070005 arg=\"\"}}."
    }
  },
  {
    "label": "014",
    "locale": {
      "EUde": "{{anim id=\"26\"}}{{fun_0003000E arg=\"\"}}{{fun_00000011 arg=\"0x0000\"}} hat mich eingeladen\nund gesagt, dass ich hierher\numziehen soll!\n{{anim id=\"5\"}}Dann sind wir beide Nachbarn.{{delay frames=\"20\"}}\nWir sehen uns also noch öfter,\n{{delay frames=\"8\"}}{{fun_00070005 arg=\"\"}}!",
      "EUen": "{{anim id=\"26\"}}Oh, hey, um, so {{fun_00000011 arg=\"0x0000\"}} invited\nme to move into this town!{{pageBreak}}{{anim id=\"5\"}}We're gonna be neighbors from now\non!{{delay frames=\"40\"}} So I'll see you around,{{delay frames=\"8\"}}\n{{fun_00070005 arg=\"\"}}!",
      "EUes": "{{anim id=\"26\"}}¿Sabes que {{fun_00000011 arg=\"0x0000\"}}\nme recomendó que\nme mudara al pueblo?{{pageBreak}}{{anim id=\"5\"}}¡Ahora vamos a ser vecinos!{{delay frames=\"40\"}} ¡Ya nos\nveremos por ahí,{{delay frames=\"8\"}} {{fun_00070005 arg=\"\"}}!",
      "EUfr": "{{anim id=\"26\"}}Salut, euh{{delay frames=\"8\"}}.{{delay frames=\"8\"}}.{{delay frames=\"8\"}}.{{delay frames=\"20\"}} Je voulais juste te dire\n{{fun_000A000E arg=\"0x080071007500650020000600710075002700\"}}{{fun_00000011 arg=\"0x0000\"}} m'a proposé\nd'emménager ici !{{pageBreak}}{{anim id=\"5\"}}Ça veut dire qu'à partir de\nmaintenant, on est voisins !{{delay frames=\"40\"}} Alors\nje te dis à bientôt, {{delay frames=\"8\"}}{{fun_00070005 arg=\"\"}} !",
      "EUit": "{{anim id=\"26\"}}Ehm... Vedi, {{fun_00000011 arg=\"0x0000\"}}\nmi ha invitato a trasferirmi\nin questa città e ho detto di sì!{{pageBreak}}{{anim id=\"5\"}}Saremo vicini di casa da ora in poi!{{delay frames=\"40\"}}\nCi vediamo in giro,{{delay frames=\"8\"}} {{fun_00070005 arg=\"\"}}!",
      "JPja": "{{anim id=\"26\"}}ボク　じつは、{{delay frames=\"20\"}}\n{{fun_00000011 arg=\"0x0000\"}}{{fun_000D0005 arg=\"\"}}に\nさそわれちゃって{{delay frames=\"8\"}}・{{delay frames=\"8\"}}・{{delay frames=\"8\"}}・{{pageBreak}}{{anim id=\"29\"}}こんど　この{{ruby charSpan=\"1\" value=\"むら\"}}村に\n{{ruby charSpan=\"1\" value=\"ひ\"}}引っこしして{{ruby charSpan=\"1\" value=\"く\"}}来ることに{{delay frames=\"8\"}}\nきまったんだぁ！{{pageBreak}}{{anim id=\"5\"}}これからは　{{ruby charSpan=\"1\" value=\"おな\"}}同じ{{ruby charSpan=\"1\" value=\"むら\"}}村の\nおともだちだねぇ～{{delay frames=\"40\"}}\nよろしくぅ、{{delay frames=\"8\"}}{{fun_00070005 arg=\"\"}}",
      "KRko": "{{anim id=\"26\"}}사실, 나 말야아～{{delay frames=\"20\"}}\n{{fun_00000011 arg=\"0x0000\"}}의 초대를 받고{{delay frames=\"8\"}}・{{delay frames=\"8\"}}・{{delay frames=\"8\"}}・{{pageBreak}}{{anim id=\"29\"}}조만간 이 마을에\n이사 오기로{{delay frames=\"8\"}}\n결정했어～!{{pageBreak}}{{anim id=\"5\"}}이제부턴 같은 마을에 사는\n친구야아～{{delay frames=\"40\"}}\n잘 부탁할게에, {{delay frames=\"8\"}}{{fun_00070005 arg=\"\"}}",
      "USen": "{{anim id=\"26\"}}Oh, hey, um, so {{fun_00000011 arg=\"0x0000\"}} invited\nme to move into this town!{{pageBreak}}{{anim id=\"5\"}}We're gonna be neighbors from now\non!{{delay frames=\"40\"}} So I'll see you around,{{delay frames=\"8\"}}\n{{fun_00070005 arg=\"\"}}!",
      "USes": "{{anim id=\"26\"}}¿Sabes que {{fun_00000011 arg=\"0x0000\"}}\nme recomendó que\nme mudara al pueblo?{{pageBreak}}{{anim id=\"5\"}}¡Ahora vamos a ser vecinos!{{delay frames=\"40\"}} ¡Ya nos\nveremos por ahí,{{delay frames=\"8\"}} {{fun_00070005 arg=\"\"}}!",
      "USfr": "{{anim id=\"26\"}}Salut, euh{{delay frames=\"8\"}}.{{delay frames=\"8\"}}.{{delay frames=\"8\"}}.{{delay frames=\"20\"}} Je voulais juste te dire\n{{fun_000A000E arg=\"0x080071007500650020000600710075002700\"}}{{fun_00000011 arg=\"0x0000\"}} m'a proposé\nd'emménager ici!{{pageBreak}}{{anim id=\"5\"}}Ça veut dire qu'à partir de\nmaintenant, on est voisins!{{delay frames=\"40\"}} Alors\nje te dis à bientôt, {{delay frames=\"8\"}}{{fun_00070005 arg=\"\"}}!"
    }
  },
  {
    "label": "015",
    "locale": {
      "EUde": "{{anim id=\"1\"}}So ein Zelt ist viel gemütlicher,\nals ich anfangs dachte.{{delay frames=\"20\"}}{{anim id=\"25\"}} Da schlafe\nich doch gleich noch mehr als sonst!",
      "EUen": "{{anim id=\"1\"}}Tents are a lot more comfortable\nthan I thought.{{fun_00010007 arg=\"\"}} {{anim id=\"25\"}}They're so comfy,{{delay frames=\"20\"}}\nI'm napping even more than usual.",
      "EUes": "{{anim id=\"1\"}}Nunca pensé que una tienda de\ncampaña fuera tan cómoda.{{fun_00010007 arg=\"\"}} {{anim id=\"25\"}}¡Estoy\nechando más siestas que nunca!",
      "EUfr": "{{anim id=\"1\"}}La vie sous une tente, c'est plus\ndouillet que je ne le pensais.{{pageBreak}}Je me sens même tellement à l'aise,{{anim id=\"25\"}}{{delay frames=\"20\"}}\nque je pourrais passer la journée\nentière à dormir.",
      "EUit": "{{anim id=\"1\"}}Dormire in tenda non è poi così\nscomodo.{{fun_00010007 arg=\"\"}} {{anim id=\"25\"}}Anzi,{{delay frames=\"20\"}} ci sto così bene che\nschiaccio un pisolino dopo l'altro.",
      "JPja": "{{anim id=\"1\"}}テントの{{ruby charSpan=\"1\" value=\"なか\"}}中って、{{delay frames=\"20\"}}\n{{ruby charSpan=\"1\" value=\"おも\"}}思ったより　かいてきなんだよぉ～{{pageBreak}}{{anim id=\"25\"}}ふぁぁ～{{delay frames=\"8\"}}・{{delay frames=\"8\"}}・{{delay frames=\"8\"}}・{{delay frames=\"40\"}}\nいつもより{{delay frames=\"8\"}}　ついつい\nねすぎちゃうんだぁ、{{delay frames=\"8\"}}{{fun_00070005 arg=\"\"}}",
      "KRko": "{{anim id=\"1\"}}텐트 안은{{delay frames=\"20\"}}\n생각보다 쾌적해～{{pageBreak}}{{anim id=\"25\"}}하아암～{{delay frames=\"8\"}}・{{delay frames=\"8\"}}・{{delay frames=\"8\"}}・{{delay frames=\"40\"}}\n그래서 평소보다{{delay frames=\"8\"}}\n잠을 더 잔다니까아, {{delay frames=\"8\"}}{{fun_00070005 arg=\"\"}}",
      "USen": "{{anim id=\"1\"}}Tents are a lot more comfortable\nthan I thought.{{fun_00010007 arg=\"\"}} {{anim id=\"25\"}}They're so comfy,{{delay frames=\"20\"}}\nI'm napping even more than usual.",
      "USes": "{{anim id=\"1\"}}Nunca pensé que una tienda de\ncampaña fuera tan cómoda.{{fun_00010007 arg=\"\"}} {{anim id=\"25\"}}¡Estoy\nechando más siestas que nunca!",
      "USfr": "{{anim id=\"1\"}}La vie sous une tente, c'est plus\ndouillet que je ne le pensais.{{pageBreak}}Je me sens même tellement à l'aise,{{anim id=\"25\"}}{{delay frames=\"20\"}}\nque je pourrais passer la journée\nentière à dormir."
    }
  },
  {
    "label": "016",
    "locale": {
      "EUde": "{{anim id=\"1\"}}Manchmal ist es schon etwas lästig,\nwenn man sich erst ein Lagerfeuer\nmachen muss...\n{{anim id=\"3\"}}Aber wenn man dann seine Füße\ndran wärmen kann, weiß man\ngleich, dass es das wert war!",
      "EUen": "{{anim id=\"1\"}}It can be kind of a hassle building\na campfire,{{delay frames=\"20\"}} but it's definitely\nworth it.{{pageBreak}}{{anim id=\"3\"}}Warming my feet around the fire\nis soooo sweet,{{delay frames=\"8\"}} {{fun_00070005 arg=\"\"}}!",
      "EUes": "{{anim id=\"1\"}}Encender un fuego cuesta mucho,{{delay frames=\"20\"}}\npero merece la pena.{{pageBreak}}{{anim id=\"3\"}}Tengo los pies supercalentitos,{{delay frames=\"8\"}}\n{{fun_00070005 arg=\"\"}}.",
      "EUfr": "{{anim id=\"1\"}}Entretenir un feu de camp, c'est\nloin d'être de tout repos.{{pageBreak}}{{anim id=\"3\"}}Mais une fois qu'il a bien pris,{{delay frames=\"8\"}} c'est\nsuper agréable de se prélasser\ndevant,{{delay frames=\"8\"}} {{fun_00070005 arg=\"\"}} !",
      "EUit": "{{anim id=\"1\"}}Accendere un fuoco è una bella\nfaticaccia,{{delay frames=\"20\"}} ma ne vale la pena.{{pageBreak}}{{anim id=\"3\"}}Scaldarsi le zampe vicino\nal fuoco è la cosa più bella\ndel mondo,{{delay frames=\"8\"}} {{fun_00070005 arg=\"\"}}!",
      "JPja": "{{anim id=\"1\"}}キャンプって\n{{ruby charSpan=\"2\" value=\"じぶん\"}}自分で{{ruby charSpan=\"1\" value=\"ひ\"}}火をおこしたりするのが{{delay frames=\"20\"}}\nめんどうだけど　{{ruby charSpan=\"1\" value=\"たの\"}}楽しいんだよねぇ～{{pageBreak}}{{anim id=\"3\"}}{{ruby charSpan=\"1\" value=\"ひ\"}}火がつくだけで{{delay frames=\"8\"}}\nカンドーしちゃうよぉ、{{delay frames=\"8\"}}{{fun_00070005 arg=\"\"}}",
      "KRko": "{{anim id=\"1\"}}캠핑을 하면\n직접 불을 붙여야 돼서 {{delay frames=\"20\"}}\n귀찮기도 하지만 즐겁기도 해～{{pageBreak}}{{anim id=\"3\"}}불이 붙기만 해도{{delay frames=\"8\"}}\n감동이 밀려온다구우, {{delay frames=\"8\"}}{{fun_00070005 arg=\"\"}}",
      "USen": "{{anim id=\"1\"}}It can be kind of a hassle building\na campfire,{{delay frames=\"20\"}} but it's definitely\nworth it.{{pageBreak}}{{anim id=\"3\"}}Warming my feet around the fire\nis soooo sweet,{{delay frames=\"8\"}} {{fun_00070005 arg=\"\"}}!",
      "USes": "{{anim id=\"1\"}}Encender un fuego cuesta mucho,{{delay frames=\"20\"}}\npero merece la pena.{{pageBreak}}{{anim id=\"3\"}}Tengo los pies supercalentitos,{{delay frames=\"8\"}}\n{{fun_00070005 arg=\"\"}}.",
      "USfr": "{{anim id=\"1\"}}Entretenir un feu de camp, c'est\nloin d'être de tout repos.{{pageBreak}}{{anim id=\"3\"}}Mais une fois qu'il a bien pris,{{delay frames=\"8\"}} c'est\nsuper agréable de se prélasser\ndevant,{{delay frames=\"8\"}} {{fun_00070005 arg=\"\"}}!"
    }
  },
  {
    "label": "017",
    "locale": {
      "EUde": "{{anim id=\"11\"}}Wenn ich irgendwo zelte, denke ich\nmir immer, wie das Leben früher\ngewesen sein muss.\nOhne Telefone und Hektik und so\nweiter...{{delay frames=\"20\"}}{{anim id=\"4\"}} Bestimmt war's da immer\nentspannend, {{fun_00070005 arg=\"\"}}!",
      "EUen": "{{anim id=\"11\"}}Whenever I camp, I think about what\nlife was like before we had all these\nmodern conveniences.\n{{anim id=\"4\"}}I bet life back in the day was so\nrelaxing all the time,{{delay frames=\"8\"}} {{fun_00070005 arg=\"\"}}.",
      "EUes": "{{anim id=\"11\"}}Cada vez que voy de acampada\npienso en cómo era la vida cuando\nno existían tantas comodidades.\n{{anim id=\"4\"}}Seguro que en el pasado la gente se\nlo tomaba todo con más calma y no\ntan a la tremenda como hoy en día.",
      "EUfr": "{{anim id=\"11\"}}Chaque fois que je fais du camping,{{delay frames=\"20\"}}\nje m'imagine comment devait être\nla vie durant la préhistoire.\n{{anim id=\"4\"}}Vivre une existence sauvage,\nen phase avec la nature{{delay frames=\"8\"}}.{{delay frames=\"8\"}}.{{delay frames=\"8\"}}.{{delay frames=\"20\"}}{{pageBreak}}J'ai comme l'impression de renouer\navec mes racines, {{delay frames=\"8\"}}{{fun_00070005 arg=\"\"}} !",
      "EUit": "{{anim id=\"11\"}}Quando mi trovo in campeggio, mi\nchiedo sempre come doveva essere\nla vita prima che ci fossero...\n... tutte le nostre comodità. {{anim id=\"4\"}}Sono\nsicuro che, al tempo, la vita era\nmolto rilassante,{{delay frames=\"8\"}} {{fun_00070005 arg=\"\"}}.",
      "JPja": "{{anim id=\"11\"}}キャンプしてるとさぁ～{{delay frames=\"20\"}}\nはにわが　{{ruby charSpan=\"1\" value=\"つく\"}}作られた　じだいは、{{delay frames=\"20\"}}\nこんなかんじ　だったのかなぁ～って{{delay frames=\"8\"}}・{{delay frames=\"8\"}}・{{delay frames=\"8\"}}・{{pageBreak}}{{anim id=\"4\"}}ボク{{delay frames=\"20\"}}　ちょっぴり\nおセンチな{{ruby charSpan=\"2\" value=\"きぶん\"}}気分、{{delay frames=\"8\"}}{{fun_00070005 arg=\"\"}}",
      "KRko": "{{anim id=\"11\"}}캠핑을 하다 보면 말야아～{{delay frames=\"20\"}}\n토용이 만들어진 시대가{{delay frames=\"20\"}}\n이렇지 않았을까～ 하고{{delay frames=\"8\"}}・{{delay frames=\"8\"}}・{{delay frames=\"8\"}}・{{pageBreak}}{{anim id=\"4\"}}살짝 {{delay frames=\"20\"}}감상에\n젖게 돼～ {{delay frames=\"8\"}}{{fun_00070005 arg=\"\"}}",
      "USen": "{{anim id=\"11\"}}Whenever I camp, I think about what\nlife was like before we had all these\nmodern conveniences.\n{{anim id=\"4\"}}I bet life back in the day was so\nrelaxing all the time,{{delay frames=\"8\"}} {{fun_00070005 arg=\"\"}}.",
      "USes": "{{anim id=\"11\"}}Cada vez que voy de acampada\npienso en cómo era la vida cuando\nno existían tantas comodidades.\n{{anim id=\"4\"}}Seguro que en el pasado la gente se\nlo tomaba todo con más calma y no\ntan a la tremenda como hoy en día.",
      "USfr": "{{anim id=\"11\"}}Chaque fois que je fais du camping,{{delay frames=\"20\"}}\nje m'imagine comment devait être\nla vie durant la préhistoire.\n{{anim id=\"4\"}}Vivre une existence sauvage,\nen phase avec la nature{{delay frames=\"8\"}}.{{delay frames=\"8\"}}.{{delay frames=\"8\"}}.{{delay frames=\"20\"}}{{pageBreak}}J'ai comme l'impression de renouer\navec mes racines, {{delay frames=\"8\"}}{{fun_00070005 arg=\"\"}}!"
    }
  },
  {
    "label": "018",
    "locale": {
      "EUde": "{{anim id=\"5\"}}Wenn man beim Campingurlaub ist,\nschmeckt alles irgendwie besser!{{pageBreak}}{{anim id=\"33\"}}Von der frischen Luft bekommt\nman immer Kohldampf, finde ich!",
      "EUen": "{{anim id=\"5\"}}Everything tastes better when\nyou're camping!{{pageBreak}}{{anim id=\"33\"}}The fresh air is like a megaphone\nfor food.{{delay frames=\"20\"}} It really bumps up the\nflavors' volume!",
      "EUes": "{{anim id=\"5\"}}Cuando estás de acampada\nla comida sabe mejor, no sé\npor qué.{{pageBreak}}{{anim id=\"33\"}}¡Es como que el aire fresco hace\nde megáfono o algo y le sube el\nvolumen al sabor!",
      "EUfr": "{{anim id=\"5\"}}Les meilleurs plats, ce sont ceux\nqu'on prépare pendant qu'on fait\ndu camping !{{pageBreak}}{{anim id=\"33\"}}Du bon air pur, c'est le meilleur\nexhausteur de goût qu'on puisse\ntrouver !",
      "EUit": "{{anim id=\"5\"}}Il cibo è più buono quando\nsei in campeggio!{{pageBreak}}{{anim id=\"33\"}}L'aria fresca è fantastica\nper farsi venire appetito.{{delay frames=\"20\"}} E quando\nsi ha fame, è tutto delizioso!",
      "JPja": "{{anim id=\"5\"}}キャンプで　{{ruby charSpan=\"1\" value=\"た\"}}食べると{{delay frames=\"20\"}}\nなんでも　おいしくかんじるよねぇ{{pageBreak}}{{anim id=\"33\"}}いつもは　5{{ruby charSpan=\"1\" value=\"かい\"}}回のおかわりも、{{delay frames=\"20\"}}\n{{ruby charSpan=\"2\" value=\"きょう\"}}今日なら　10{{ruby charSpan=\"1\" value=\"かい\"}}回\nいけちゃうよぉ、{{delay frames=\"8\"}}{{fun_00070005 arg=\"\"}}",
      "KRko": "{{anim id=\"5\"}}캠핑하면서 먹는 음식은{{delay frames=\"20\"}}\n뭐든지 다 맛있는 거 같애～{{pageBreak}}{{anim id=\"33\"}}평소엔 밥 5그릇이면 충분하지만{{delay frames=\"20\"}}\n오늘은 10그릇도\n먹을 수 있겠어～ {{delay frames=\"8\"}}{{fun_00070005 arg=\"\"}}",
      "USen": "{{anim id=\"5\"}}Everything tastes better when\nyou're camping!{{pageBreak}}{{anim id=\"33\"}}The fresh air is like a megaphone\nfor food.{{delay frames=\"20\"}} It really bumps up the\nflavors' volume!",
      "USes": "{{anim id=\"5\"}}Cuando estás de acampada\nla comida sabe mejor, no sé\npor qué.{{pageBreak}}{{anim id=\"33\"}}¡Es como que el aire fresco hace\nde megáfono o algo y le sube el\nvolumen al sabor!",
      "USfr": "{{anim id=\"5\"}}Les meilleurs plats, ce sont ceux\nqu'on prépare pendant qu'on fait\ndu camping!{{pageBreak}}{{anim id=\"33\"}}Du bon air pur, c'est le meilleur\nexhausteur de goût qu'on puisse\ntrouver!"
    }
  },
  {
    "label": "019",
    "locale": {
      "EUde": "{{anim id=\"43\"}}Die Luft hier riecht echt gut!{{delay frames=\"30\"}}\nSchade, dass ich sie nicht in eine\nFlasche tun und mitnehmen kann...",
      "EUen": "{{anim id=\"43\"}}The air in this town smells delicious!{{fun_00010007 arg=\"\"}}\nIf only I could bottle it and bring\nit back home with me!",
      "EUes": "{{anim id=\"43\"}}Me encanta cómo huele el aire de\neste pueblo.{{fun_00010007 arg=\"\"}} ¡Ojalá pudiera llevarme\neste delicioso aroma a casa!",
      "EUfr": "{{anim id=\"43\"}}L'air ici est tellement bon que j'ai\nbien envie d'en remplir une bouteille\npour la ramener chez moi !",
      "EUit": "{{anim id=\"43\"}}Questa città ha un profumo\ninebriante!{{fun_00010007 arg=\"\"}} Se solo potessi metterlo\nin bottiglia e portarmelo a casa...!",
      "JPja": "{{anim id=\"43\"}}ちがう{{ruby charSpan=\"1\" value=\"むら\"}}村の{{ruby charSpan=\"2\" value=\"くうき\"}}空気って\nなんだか　おいしくかんじる～{{pageBreak}}{{anim id=\"21\"}}ぱく{{delay frames=\"8\"}}ぱく{{delay frames=\"40\"}}{{anim id=\"0\"}}　{{anim id=\"21\"}}ぱく{{delay frames=\"8\"}}ぱく{{fun_00010007 arg=\"\"}}\n{{anim id=\"9\"}}うぅ～ん{{delay frames=\"8\"}}・{{delay frames=\"8\"}}・{{delay frames=\"8\"}}・{{delay frames=\"20\"}}\nおなかは　ふくれないやぁ～",
      "KRko": "{{anim id=\"43\"}}다른 마을의 공기는\n어쩐지 맛있게 느껴져어～{{pageBreak}}{{anim id=\"21\"}}합 {{delay frames=\"8\"}}우물우물{{delay frames=\"40\"}}{{anim id=\"0\"}} {{anim id=\"21\"}}합{{delay frames=\"8\"}} 냠냠{{fun_00010007 arg=\"\"}}\n{{anim id=\"9\"}}우～웅{{delay frames=\"8\"}}・{{delay frames=\"8\"}}・{{delay frames=\"8\"}}・{{delay frames=\"20\"}}\n배는 하나도 안 부르네에～",
      "USen": "{{anim id=\"43\"}}The air in this town smells delicious!{{fun_00010007 arg=\"\"}}\nIf only I could bottle it and bring\nit back home with me!",
      "USes": "{{anim id=\"43\"}}Me encanta cómo huele el aire de\neste pueblo.{{fun_00010007 arg=\"\"}} ¡Ojalá pudiera llevarme\neste delicioso aroma a casa!",
      "USfr": "{{anim id=\"43\"}}L'air ici est tellement bon que j'ai\nbien envie d'en remplir une bouteille\npour la ramener chez moi!"
    }
  },
  {
    "label": "020",
    "locale": {
      "EUde": "{{anim id=\"1\"}}Ich war ja schon oft campen,\naber hier ist's echt am schönsten.{{delay frames=\"20\"}}\n{{anim id=\"33\"}}Das ist meine neue Lieblingsstadt.\n{{anim id=\"5\"}}Das wäre echt schön, wenn ich\nhier wohnen würde...{{fun_0005000F arg=\"0x00000000\"}}\nDann zieh doch um!\nTja.",
      "EUen": "{{anim id=\"1\"}}I've camped in a lot of places,{{delay frames=\"8\"}}\nbut I really like this town.{{fun_00010007 arg=\"\"}} {{anim id=\"33\"}}It's, like,\nthe{{delay frames=\"20\"}} best{{delay frames=\"20\"}} town{{delay frames=\"20\"}} ever!{{delay frames=\"20\"}}\n{{anim id=\"5\"}}It's weird to say,{{delay frames=\"20\"}} but I kind of want\nto live here!{{fun_0005000F arg=\"0x00000000\"}}\nYou should move here!\nUm...",
      "EUes": "{{anim id=\"1\"}}He acampado en muchos pueblos,{{delay frames=\"8\"}}\npero este es el más chulo de todos.{{fun_00010007 arg=\"\"}}\n{{anim id=\"33\"}}¡Es la pera!{{delay frames=\"20\"}} Mmm, pera{{delay frames=\"8\"}}.{{delay frames=\"8\"}}.{{delay frames=\"8\"}}.{{delay frames=\"20\"}}\n{{anim id=\"5\"}}¡Vamos, que no me importaría\nvenirme a vivir aquí!{{fun_0005000F arg=\"0x00000000\"}}\n¡Pues hazlo!\nMmm...",
      "EUfr": "{{anim id=\"1\"}}J'ai planté ma tente dans pas mal\nd'endroits, mais je dois dire que\ncette ville a un charme certain.\n{{anim id=\"33\"}}En fait,{{delay frames=\"20\"}} je crois même que je ne suis\njamais tombé sur une ville où je me\nsuis autant senti à l'aise !\n{{anim id=\"5\"}}D'ailleurs,{{delay frames=\"20\"}} je me demande ce qui\nm'empêcherait de carrément\nm'installer ici pour de bon !{{fun_0005000F arg=\"0x00000000\"}}\nPas moi, en tout cas !\nOn est complet.",
      "EUit": "{{anim id=\"1\"}}Sono stato in un sacco di posti,{{delay frames=\"8\"}}\nma questa città mi piace molto.{{fun_00010007 arg=\"\"}}\n{{anim id=\"33\"}}Anzi,{{delay frames=\"20\"}} oserei dire{{delay frames=\"20\"}} moltissimo!{{delay frames=\"20\"}}\n{{anim id=\"5\"}}È difficile da spiegare,{{delay frames=\"20\"}} ma sento\nche mi piacerebbe vivere qui!{{fun_0005000F arg=\"0x00000000\"}}\nDovresti trasferirti qui!\nMmmh...",
      "JPja": "{{anim id=\"1\"}}ボクが　キャンプしてきた{{ruby charSpan=\"1\" value=\"なか\"}}中でも、{{delay frames=\"8\"}}\nこの{{ruby charSpan=\"1\" value=\"むら\"}}村は　かなりのお{{ruby charSpan=\"1\" value=\"き\"}}気に{{ruby charSpan=\"1\" value=\"い\"}}入りだよぉ{{pageBreak}}{{anim id=\"33\"}}まさに！{{delay frames=\"20\"}}\nベスト{{delay frames=\"8\"}}　オブ{{delay frames=\"8\"}}　いい{{ruby charSpan=\"1\" value=\"むら\"}}村{{delay frames=\"20\"}}\nってかんじ、{{delay frames=\"8\"}}{{fun_00070005 arg=\"\"}}{{pageBreak}}{{anim id=\"5\"}}えへへ～{{delay frames=\"20\"}}\nついつい　すみたくなっちゃうよぉ！{{fun_0005000F arg=\"0x00000000\"}}\nこの{{ruby charSpan=\"1\" value=\"むら\"}}村においでよ！\n・・・",
      "KRko": "{{anim id=\"1\"}}내가 여러 마을에서 캠핑을 해봤는데{{delay frames=\"8\"}}\n그중에서도 이 마을은 꽤 마음에 들어～{{pageBreak}}{{anim id=\"33\"}}그야말로{{delay frames=\"20\"}}\n「베스트 {{delay frames=\"8\"}}오브 {{delay frames=\"8\"}}마을」{{delay frames=\"20\"}}\n뭐 이런 느낌～? {{delay frames=\"8\"}}{{fun_00070005 arg=\"\"}}!{{pageBreak}}{{anim id=\"5\"}}에헤헤～{{delay frames=\"20\"}}\n여기에서 살면 얼마나 좋을까～{{fun_0005000F arg=\"0x00000000\"}}\n우리 마을로 와!\n・・・",
      "USen": "{{anim id=\"1\"}}I've camped in a lot of places,{{delay frames=\"8\"}}\nbut I really like this town.{{fun_00010007 arg=\"\"}} {{anim id=\"33\"}}It's, like,\nthe{{delay frames=\"20\"}} best{{delay frames=\"20\"}} town{{delay frames=\"20\"}} ever!{{delay frames=\"20\"}}\n{{anim id=\"5\"}}It's weird to say,{{delay frames=\"20\"}} but I kind of want\nto live here!{{fun_0005000F arg=\"0x00000000\"}}\nYou should move here!\nUm...",
      "USes": "{{anim id=\"1\"}}He acampado en muchos pueblos,{{delay frames=\"8\"}}\npero este es el más chulo de todos.{{fun_00010007 arg=\"\"}}\n{{anim id=\"33\"}}¡Es la pera!{{delay frames=\"20\"}} Mmm, pera{{delay frames=\"8\"}}.{{delay frames=\"8\"}}.{{delay frames=\"8\"}}.{{delay frames=\"20\"}}\n{{anim id=\"5\"}}¡Vamos, que no me importaría\nvenirme a vivir aquí!{{fun_0005000F arg=\"0x00000000\"}}\n¡Pues hazlo!\nMmm...",
      "USfr": "{{anim id=\"1\"}}J'ai planté ma tente dans pas mal\nd'endroits, mais je dois dire que\ncette ville a un charme certain.\n{{anim id=\"33\"}}En fait,{{delay frames=\"20\"}} je crois même que je ne suis\njamais tombé sur une ville où je me\nsuis autant senti à l'aise!\n{{anim id=\"5\"}}D'ailleurs,{{delay frames=\"20\"}} je me demande ce qui\nm'empêcherait de carrément\nm'installer ici pour de bon!{{fun_0005000F arg=\"0x00000000\"}}\nPas moi, en tout cas!\nOn est complet."
    }
  },
  {
    "label": "021",
    "locale": {
      "EUde": "{{anim id=\"9\"}}Ich bin echt etwas traurig,\ndass mein Campingurlaub\nbald wieder vorbei ist.\n{{anim id=\"14\"}}Ich würde so gerne noch bleiben,\n{{delay frames=\"8\"}}{{fun_00070005 arg=\"\"}}.{{fun_0005000F arg=\"0x00000000\"}}\nZieh doch um!\nJa, das ist traurig.",
      "EUen": "{{anim id=\"9\"}}Man, I'm bummed out.{{delay frames=\"20\"}} This town\nseems like a really great place,{{delay frames=\"20\"}} but\nI'll have to go home before too long.{{pageBreak}}{{anim id=\"14\"}}It {{delay frames=\"20\"}}breaks my heart,{{delay frames=\"8\"}} {{fun_00070005 arg=\"\"}}.{{fun_0005000F arg=\"0x00000000\"}}\nYou should live here!\nYeah, that's sad.",
      "EUes": "{{anim id=\"9\"}}Jo, qué depre estoy.{{delay frames=\"20\"}} A ver,\nme encanta tirarme las horas\nmuertas en este pueblo...\nPero va siendo hora de levantar el\ncampamento {{color id=\"5\"}}(nunca mejor dicho){{color id=\"65535\"}}\ny volver a casa.{{pageBreak}}{{anim id=\"14\"}}¡Buaaaa! ¡Con lo que mola\n{{fun_0003000E arg=\"\"}}{{fun_00050005 arg=\"\"}}!{{fun_0005000F arg=\"0x00000000\"}}\n¡Pues vente a vivir aquí!\nMenudo dramón...",
      "EUfr": "{{anim id=\"9\"}}Je suis dégoûté.{{delay frames=\"20\"}} Je me suis amusé\ncomme un dingue ici,{{delay frames=\"20\"}} mais va falloir\nque je rentre bientôt chez moi{{delay frames=\"8\"}}.{{delay frames=\"8\"}}.{{delay frames=\"8\"}}.{{pageBreak}}{{anim id=\"14\"}}Tu peux pas savoir comme ça me\nfend le cœur,{{delay frames=\"8\"}} {{fun_00070005 arg=\"\"}} !{{fun_0005000F arg=\"0x00000000\"}}\nT'as qu'à rester ici !\nC'est ballot.",
      "EUit": "{{anim id=\"9\"}}Caspitina...{{delay frames=\"20\"}} Questa città\nmi piace un sacco,{{delay frames=\"20\"}} ma dovrò\npresto tornarmene a casa...{{pageBreak}}{{anim id=\"14\"}}Sob...{{delay frames=\"20\"}} Non voglio andare via...{{fun_0005000F arg=\"0x00000000\"}}\nVieni a vivere qui!\nChe tristezza, sì...",
      "JPja": "{{anim id=\"9\"}}うぅ～ん{{delay frames=\"8\"}}・{{delay frames=\"8\"}}・{{delay frames=\"8\"}}・{{delay frames=\"20\"}}\nざんねんだなぁ～{{pageBreak}}こんなに　すみ{{ruby charSpan=\"2\" value=\"ごこち\"}}心地のいい　{{ruby charSpan=\"1\" value=\"むら\"}}村だけど、{{delay frames=\"20\"}}\nそのうち　{{ruby charSpan=\"1\" value=\"かえ\"}}帰らなきゃ\nならないんだよねぇ{{pageBreak}}{{anim id=\"14\"}}ボク{{delay frames=\"20\"}}　さみしいよぉ、{{delay frames=\"8\"}}{{fun_00070005 arg=\"\"}}{{fun_0005000F arg=\"0x00000000\"}}\nここにすみなよ！\nそっかぁ・・・",
      "KRko": "{{anim id=\"9\"}}우～웅{{delay frames=\"8\"}}・{{delay frames=\"8\"}}・{{delay frames=\"8\"}}・{{delay frames=\"20\"}}\n아쉽다아～{{pageBreak}}이렇게 살기 좋은 마을인데{{delay frames=\"20\"}}\n돌아가야 하다니이～{{pageBreak}}{{anim id=\"14\"}}넘 {{delay frames=\"20\"}}슬퍼어, {{delay frames=\"8\"}}{{fun_00070005 arg=\"\"}}{{fun_0005000F arg=\"0x00000000\"}}\n그냥 여기서 살아!\n그렇구나・・・",
      "USen": "{{anim id=\"9\"}}Man, I'm bummed out.{{delay frames=\"20\"}} This town\nseems like a really great place,{{delay frames=\"20\"}} but\nI'll have to go home before too long.{{pageBreak}}{{anim id=\"14\"}}It {{delay frames=\"20\"}}breaks my heart,{{delay frames=\"8\"}} {{fun_00070005 arg=\"\"}}.{{fun_0005000F arg=\"0x00000000\"}}\nYou should live here!\nYeah, that's sad.",
      "USes": "{{anim id=\"9\"}}Jo, qué depre estoy.{{delay frames=\"20\"}} A ver,\nme encanta tirarme las horas\nmuertas en este pueblo...\nPero va siendo hora de levantar el\ncampamento {{color id=\"5\"}}(nunca mejor dicho){{color id=\"65535\"}}\ny volver a casa.{{pageBreak}}{{anim id=\"14\"}}¡Buaaaa! ¡Con lo que mola\n{{fun_0003000E arg=\"\"}}{{fun_00050005 arg=\"\"}}!{{fun_0005000F arg=\"0x00000000\"}}\n¡Pues vente a vivir aquí!\nMenudo dramón...",
      "USfr": "{{anim id=\"9\"}}Je suis dégoûté.{{delay frames=\"20\"}} Je me suis amusé\ncomme un dingue ici,{{delay frames=\"20\"}} mais va falloir\nque je rentre bientôt chez moi{{delay frames=\"8\"}}.{{delay frames=\"8\"}}.{{delay frames=\"8\"}}.{{pageBreak}}{{anim id=\"14\"}}Tu peux pas savoir comme ça me\nfend le cœur,{{delay frames=\"8\"}} {{fun_00070005 arg=\"\"}}!{{fun_0005000F arg=\"0x00000000\"}}\nT'as qu'à rester ici!\nC'est ballot."
    }
  },
  {
    "label": "022",
    "locale": {
      "EUde": "{{anim id=\"4\"}}Äh, he he he!{{delay frames=\"20\"}} Neulich hab ich doch\nglatt geträumt, dass ich hier wohne.{{delay frames=\"20\"}}\nDas war total schön.\n{{anim id=\"9\"}}Da war ich fast etwas traurig,\nals ich aufgewacht bin.{{fun_0005000F arg=\"0x00000000\"}}\nDu solltest umziehen!\nTräume sind Schäume.",
      "EUen": "{{anim id=\"4\"}}I had a funny dream last night that\nI was living in this town!{{pageBreak}}{{anim id=\"5\"}}It seemed like I was having a real\ngood time too.{{fun_00010007 arg=\"\"}} {{anim id=\"1\"}}Say, {{delay frames=\"20\"}}you thinking\nwhat I'm thinking?{{fun_0005000F arg=\"0x00000000\"}}\nYou should move here!\nCool dream!",
      "EUes": "Escucha, escucha. Anoche tuve un\nsueño revelador que me ha dejado\ntodo loco: {{anim id=\"4\"}}¡soñé que vivía aquí!\n{{anim id=\"5\"}}No veas, me lo pasaba en grande\ndisfrutando de mis pasatiempos\nfavoritos:{{fun_00010007 arg=\"\"}} ¡zampar y dormir!\n{{anim id=\"1\"}}Hum{{delay frames=\"8\"}}.{{delay frames=\"8\"}}.{{delay frames=\"8\"}}.{{delay frames=\"20\"}} {{delay frames=\"20\"}}Ahora que lo pienso,\n¿y si{{delay frames=\"8\"}}.{{delay frames=\"8\"}}.{{delay frames=\"8\"}}.?{{fun_0005000F arg=\"0x00000000\"}}\n¡Sí, vente a vivir aquí!\nSolo era un sueño...",
      "EUfr": "{{anim id=\"4\"}}J'ai fait un drôle de rêve cette\nnuit :{{delay frames=\"20\"}} je rêvais que j'emménageais\ndans cette ville !{{pageBreak}}{{anim id=\"5\"}}C'était vraiment un rêve super\nagréable !{{fun_00010007 arg=\"\"}} {{anim id=\"1\"}}Dis,{{delay frames=\"20\"}} tu crois qu'il était\nprémonitoire ?{{fun_0005000F arg=\"0x00000000\"}}\nJ'aimerais bien !\nDans tes rêves !",
      "EUit": "{{anim id=\"4\"}}Ieri ho sognato che mi ero\ntrasferito definitivamente qui!{{pageBreak}}{{anim id=\"5\"}}E mi divertivo un sacco!{{fun_00010007 arg=\"\"}} {{anim id=\"1\"}}\nAspetta, {{delay frames=\"20\"}}pensi anche tu quello\nche sto pensando io?{{fun_0005000F arg=\"0x00000000\"}}\nSì! Trasferisciti qui!\nSì, era un bel sogno!",
      "JPja": "{{anim id=\"4\"}}ボクの　きのうのユメ、\nおもしろかったなぁ～{{delay frames=\"40\"}}\nこの{{ruby charSpan=\"1\" value=\"むら\"}}村に　ボクがすんでるんだよぉ～{{pageBreak}}{{anim id=\"5\"}}なんだか　すっごく\n{{ruby charSpan=\"1\" value=\"たの\"}}楽しそうだったんだぁ～{{fun_00010007 arg=\"\"}}\n{{anim id=\"1\"}}ねぇ、{{delay frames=\"20\"}}キミは　どう{{ruby charSpan=\"1\" value=\"おも\"}}思う？{{fun_0005000F arg=\"0x00000000\"}}\n{{ruby charSpan=\"2\" value=\"ひっこ\"}}引越してきなよ！\nいいユメだね！",
      "KRko": "{{anim id=\"4\"}}내가 어제 진짜 \n재밌는 꿈을 꿨어～{{delay frames=\"40\"}}\n이 마을에 내가 살고 있는 꿈이었거든～{{pageBreak}}{{anim id=\"5\"}}내가 정말 재밌게\n살고 있더라구우～{{fun_00010007 arg=\"\"}}\n{{anim id=\"1\"}}있지이, {{delay frames=\"20\"}}넌 어떻게 생각해～?{{fun_0005000F arg=\"0x00000000\"}}\n그냥 이사 와!\n좋은 꿈이네!",
      "USen": "{{anim id=\"4\"}}I had a funny dream last night that\nI was living in this town!{{pageBreak}}{{anim id=\"5\"}}It seemed like I was having a real\ngood time too.{{fun_00010007 arg=\"\"}} {{anim id=\"1\"}}Say, {{delay frames=\"20\"}}you thinking\nwhat I'm thinking?{{fun_0005000F arg=\"0x00000000\"}}\nYou should move here!\nCool dream!",
      "USes": "Escucha, escucha. Anoche tuve un\nsueño revelador que me ha dejado\ntodo loco: {{anim id=\"4\"}}¡soñé que vivía aquí!\n{{anim id=\"5\"}}No veas, me lo pasaba en grande\ndisfrutando de mis pasatiempos\nfavoritos:{{fun_00010007 arg=\"\"}} ¡zampar y dormir!\n{{anim id=\"1\"}}Hum{{delay frames=\"8\"}}.{{delay frames=\"8\"}}.{{delay frames=\"8\"}}.{{delay frames=\"20\"}} {{delay frames=\"20\"}}Ahora que lo pienso,\n¿y si{{delay frames=\"8\"}}.{{delay frames=\"8\"}}.{{delay frames=\"8\"}}.?{{fun_0005000F arg=\"0x00000000\"}}\n¡Sí, vente a vivir aquí!\nSolo era un sueño...",
      "USfr": "{{anim id=\"4\"}}J'ai fait un drôle de rêve cette\nnuit :{{delay frames=\"20\"}} je rêvais que j'emménageais\ndans cette ville!{{pageBreak}}{{anim id=\"5\"}}C'était vraiment un rêve super\nagréable!{{fun_00010007 arg=\"\"}} {{anim id=\"1\"}}Dis,{{delay frames=\"20\"}} tu crois qu'il était\nprémonitoire?{{fun_0005000F arg=\"0x00000000\"}}\nJ'aimerais bien!\nDans tes rêves!"
    }
  },
  {
    "label": "023",
    "locale": {
      "EUde": "{{anim id=\"21\"}}Hier macht der Urlaub einfach\nrichtig Spaß,{{delay frames=\"8\"}} {{fun_00070005 arg=\"\"}}.",
      "EUen": "{{anim id=\"21\"}}Well, I really love this town.{{delay frames=\"40\"}}\n{{anim id=\"1\"}}Camping here has been a lot of fun,{{delay frames=\"8\"}}\n{{fun_00070005 arg=\"\"}}.",
      "EUes": "{{anim id=\"21\"}}Quizá algún día me lo plantee más\nen serio.{{delay frames=\"40\"}} {{anim id=\"1\"}}Mientras, ¡fuera rollos y a\ndisfrutar a tope de la acampada!",
      "EUfr": "{{anim id=\"21\"}}Je me plais vraiment beaucoup ici !{{delay frames=\"40\"}}\n{{anim id=\"1\"}}Tu peux pas savoir combien je\nme suis amusé, {{delay frames=\"8\"}}{{fun_00070005 arg=\"\"}} !",
      "EUit": "{{anim id=\"21\"}}Questa città mi piace davvero\ntanto.{{delay frames=\"40\"}} {{anim id=\"1\"}}Venire qui è stato proprio\ndivertente,{{delay frames=\"8\"}} {{fun_00070005 arg=\"\"}}!",
      "JPja": "{{anim id=\"21\"}}ホントに　ステキな{{ruby charSpan=\"1\" value=\"むら\"}}村だねぇ～{{delay frames=\"40\"}}\n{{anim id=\"1\"}}とっても　{{ruby charSpan=\"1\" value=\"たの\"}}楽しい\nキャンプになったよぉ、{{delay frames=\"8\"}}{{fun_00070005 arg=\"\"}}",
      "KRko": "{{anim id=\"21\"}}진짜 멋진 마을이야아～{{delay frames=\"40\"}}\n{{anim id=\"1\"}}절대 잊지 못할\n즐거운 캠핑이 됐어～ {{delay frames=\"8\"}}{{fun_00070005 arg=\"\"}}",
      "USen": "{{anim id=\"21\"}}Well, I really love this town.{{delay frames=\"40\"}}\n{{anim id=\"1\"}}Camping here has been a lot of fun,{{delay frames=\"8\"}}\n{{fun_00070005 arg=\"\"}}.",
      "USes": "{{anim id=\"21\"}}Quizá algún día me lo plantee más\nen serio.{{delay frames=\"40\"}} {{anim id=\"1\"}}Mientras, ¡fuera rollos y a\ndisfrutar a tope de la acampada!",
      "USfr": "{{anim id=\"21\"}}Je me plais vraiment beaucoup ici!{{delay frames=\"40\"}}\n{{anim id=\"1\"}}Tu peux pas savoir combien je\nme suis amusé, {{delay frames=\"8\"}}{{fun_00070005 arg=\"\"}}!"
    }
  },
  {
    "label": "024",
    "locale": {
      "EUde": "{{anim id=\"9\"}}Man kann eben nicht immer haben,\nwas man will.{{delay frames=\"20\"}} {{anim id=\"1\"}}Aber in meiner Stadt\nwarten wenigstens meine Freunde.\n„Das Wichtigste im Leben sind\ngute Freunde und gutes Essen“,\nsagt mein Vati immer.{{delay frames=\"20\"}} Äh, he he he.",
      "EUen": "{{anim id=\"9\"}}Yeah,{{delay frames=\"20\"}} it is sad{{delay frames=\"8\"}}.{{delay frames=\"8\"}}.{{delay frames=\"8\"}}.{{delay frames=\"20\"}} {{anim id=\"40\"}}But I gotta get\nhome.{{delay frames=\"20\"}} {{anim id=\"1\"}}I've got a lot of friends \nwaiting for me,{{delay frames=\"8\"}} {{fun_00070005 arg=\"\"}}.",
      "EUes": "{{anim id=\"9\"}}Y tanto, pero así es la vida.{{delay frames=\"20\"}} Además,\nsi me mudara aquí, echaría mucho\nde menos a mis amigos.\n¡Me pasaría el día pensando en ellos\ny llorando a moco tendido por las\nesquinas!",
      "EUfr": "{{anim id=\"9\"}}Je sais,{{delay frames=\"20\"}} c'est triste{{delay frames=\"8\"}}.{{delay frames=\"8\"}}.{{delay frames=\"8\"}}.{{delay frames=\"20\"}} {{anim id=\"40\"}}Mais il est\ntemps pour moi de retourner\nparmi les miens.{{pageBreak}}{{anim id=\"1\"}}Après tout, mes amis doivent\nattendre mon retour avec\nimpatience,{{delay frames=\"8\"}} {{fun_00070005 arg=\"\"}} !",
      "EUit": "{{anim id=\"9\"}}Sì.{{delay frames=\"20\"}} Ora purtroppo{{delay frames=\"8\"}}.{{delay frames=\"8\"}}.{{delay frames=\"8\"}}.{{delay frames=\"20\"}} {{anim id=\"21\"}}devo tornare\na casa.{{delay frames=\"20\"}} {{anim id=\"1\"}}Ho un sacco di amici che\nmi aspettano,{{delay frames=\"8\"}} {{fun_00070005 arg=\"\"}}.",
      "JPja": "{{anim id=\"9\"}}うん、{{delay frames=\"20\"}}さみしい{{delay frames=\"8\"}}・{{delay frames=\"8\"}}・{{delay frames=\"8\"}}・{{delay frames=\"20\"}}\n{{anim id=\"40\"}}でも　ボク　{{ruby charSpan=\"1\" value=\"かえ\"}}帰るよぉ{{pageBreak}}{{anim id=\"1\"}}{{ruby charSpan=\"2\" value=\"じぶん\"}}自分の{{ruby charSpan=\"1\" value=\"むら\"}}村にも{{delay frames=\"8\"}}\nまってる　おともだちが\nいるもんねぇ、{{delay frames=\"8\"}}{{fun_00070005 arg=\"\"}}",
      "KRko": "{{anim id=\"9\"}}우웅, {{delay frames=\"20\"}}아쉬워어{{delay frames=\"8\"}}・{{delay frames=\"8\"}}・{{delay frames=\"8\"}}・{{delay frames=\"20\"}}\n{{anim id=\"40\"}}그치만 난 돌아갈 거야아～{{pageBreak}}{{anim id=\"1\"}}우리 마을에도{{delay frames=\"8\"}}\n날 기다리는 친구들이\n있거든～ {{delay frames=\"8\"}}{{fun_00070005 arg=\"\"}}",
      "USen": "{{anim id=\"9\"}}Yeah,{{delay frames=\"20\"}} it is sad{{delay frames=\"8\"}}.{{delay frames=\"8\"}}.{{delay frames=\"8\"}}.{{delay frames=\"20\"}} {{anim id=\"40\"}}But I gotta get\nhome.{{delay frames=\"20\"}} {{anim id=\"1\"}}I've got a lot of friends \nwaiting for me,{{delay frames=\"8\"}} {{fun_00070005 arg=\"\"}}.",
      "USes": "{{anim id=\"9\"}}Y tanto, pero así es la vida.{{delay frames=\"20\"}} Además,\nsi me mudara aquí, echaría mucho\nde menos a mis amigos.\n¡Me pasaría el día pensando en ellos\ny llorando a lágrima viva por las\nesquinas!",
      "USfr": "{{anim id=\"9\"}}Je sais,{{delay frames=\"20\"}} c'est triste{{delay frames=\"8\"}}.{{delay frames=\"8\"}}.{{delay frames=\"8\"}}.{{delay frames=\"20\"}} {{anim id=\"40\"}}Mais il est\ntemps pour moi de retourner\nparmi les miens.{{pageBreak}}{{anim id=\"1\"}}Après tout, mes amis doivent\nattendre mon retour avec\nimpatience,{{delay frames=\"8\"}} {{fun_00070005 arg=\"\"}}!"
    }
  },
  {
    "label": "025",
    "locale": {
      "EUde": "{{anim id=\"43\"}}Wer weiß?{{delay frames=\"20\"}} Vielleicht wird's ja\nirgendwann doch noch wahr,{{delay frames=\"8\"}}\n{{fun_00070005 arg=\"\"}}.",
      "EUen": "{{anim id=\"43\"}}Yeah!{{delay frames=\"20\"}} Maybe one day it'll come\ntrue,{{delay frames=\"8\"}} {{fun_00070005 arg=\"\"}}.",
      "EUes": "{{anim id=\"43\"}}Pues sí, pero... ¿y si algún día\nse hace realidad,{{delay frames=\"8\"}} {{fun_00070005 arg=\"\"}}?",
      "EUfr": "{{anim id=\"2\"}}Ha ha !{{delay frames=\"20\"}} C'est pas faux ! Mais qui\nsait, peut-être qu'en fait, c'était un\nsigne,{{delay frames=\"8\"}} {{fun_00070005 arg=\"\"}} !",
      "EUit": "{{anim id=\"43\"}}Sì!{{delay frames=\"20\"}} Chissà, forse un giorno\nsi avvererà,{{delay frames=\"8\"}} {{fun_00070005 arg=\"\"}}.",
      "JPja": "{{anim id=\"43\"}}いいユメかぁ～{{delay frames=\"20\"}}\nホントに　なったら\nうれしいなぁ、{{delay frames=\"8\"}}{{fun_00070005 arg=\"\"}}",
      "KRko": "{{anim id=\"43\"}}좋은 꿈이었지이～{{delay frames=\"20\"}}\n현실이 된다면\n얼마나 좋을까아～ {{delay frames=\"8\"}}{{fun_00070005 arg=\"\"}}",
      "USen": "{{anim id=\"43\"}}Yeah!{{delay frames=\"20\"}} Maybe one day it'll come\ntrue,{{delay frames=\"8\"}} {{fun_00070005 arg=\"\"}}.",
      "USes": "{{anim id=\"43\"}}Pues sí, pero... ¿y si algún día\nse hace realidad,{{delay frames=\"8\"}} {{fun_00070005 arg=\"\"}}?",
      "USfr": "{{anim id=\"2\"}}Ha ha!{{delay frames=\"20\"}} C'est pas faux! Mais qui\nsait, peut-être qu'en fait, c'était un\nsigne,{{delay frames=\"8\"}} {{fun_00070005 arg=\"\"}}!"
    }
  },
  {
    "label": "026",
    "locale": {
      "EUde": "",
      "EUen": "",
      "EUes": "",
      "EUfr": "",
      "EUit": "",
      "JPja": "",
      "KRko": "",
      "USen": "",
      "USes": "",
      "USfr": ""
    }
  },
  {
    "label": "027",
    "locale": {
      "EUde": "",
      "EUen": "",
      "EUes": "",
      "EUfr": "",
      "EUit": "",
      "JPja": "",
      "KRko": "",
      "USen": "",
      "USes": "",
      "USfr": ""
    }
  },
  {
    "label": "028",
    "locale": {
      "EUde": "",
      "EUen": "",
      "EUes": "",
      "EUfr": "",
      "EUit": "",
      "JPja": "",
      "KRko": "",
      "USen": "",
      "USes": "",
      "USfr": ""
    }
  },
  {
    "label": "029",
    "locale": {
      "EUde": "",
      "EUen": "",
      "EUes": "",
      "EUfr": "",
      "EUit": "",
      "JPja": "",
      "KRko": "",
      "USen": "",
      "USes": "",
      "USfr": ""
    }
  },
  {
    "label": "030",
    "locale": {
      "EUde": "",
      "EUen": "",
      "EUes": "",
      "EUfr": "",
      "EUit": "",
      "JPja": "",
      "KRko": "",
      "USen": "",
      "USes": "",
      "USfr": ""
    }
  }
]