﻿[
  {
    "label": "001",
    "locale": {
      "EUde": "{{anim id=\"1\"}}Im Dezember wird es hier richtig\nWinter, {{delay frames=\"8\"}}{{fun_00070005 arg=\"\"}}. {{delay frames=\"20\"}}Und der\n{{color id=\"2\"}}Spielzeugtag {{color id=\"65535\"}}steht vor der Tür!",
      "EUen": "{{anim id=\"1\"}}I love the beginning of December,{{delay frames=\"8\"}}\nbecause it means {{color id=\"2\"}}Toy Day {{color id=\"65535\"}}is that\nmuch closer,{{delay frames=\"8\"}} {{fun_00070005 arg=\"\"}}!",
      "EUes": "{{anim id=\"1\"}}Me encanta que llegue diciembre,\n¡porque eso significa que el Día de\nlos Juguetes está al caer!",
      "EUfr": "{{anim id=\"1\"}}Quand décembre est là, c'est que\nle {{color id=\"2\"}}jour des cadeaux{{color id=\"65535\"}} approche à\ngrands pas, {{delay frames=\"8\"}}{{fun_00070005 arg=\"\"}} !",
      "EUit": "{{anim id=\"1\"}}Appena arriva dicembre,\nla mia mente va subito al {{color id=\"2\"}}Giorno\ndei giocattoli{{color id=\"65535\"}}, {{delay frames=\"8\"}}{{fun_00070005 arg=\"\"}}!",
      "JPja": "{{anim id=\"1\"}}12{{ruby charSpan=\"1\" value=\"がつ\"}}月になると{{delay frames=\"10\"}}\n{{ruby charSpan=\"2\" value=\"いっき\"}}一気に　{{delay frames=\"8\"}}クリスマス{{ruby charSpan=\"2\" value=\"きぶん\"}}気分に\nなりますね～、{{delay frames=\"15\"}}{{fun_00070005 arg=\"\"}}！",
      "KRko": "{{anim id=\"1\"}}12월이 되니까{{delay frames=\"10\"}}\n부쩍{{delay frames=\"8\"}} 크리스마스 느낌이\n나네요～ {{delay frames=\"15\"}}{{fun_00070005 arg=\"\"}}!",
      "USen": "{{anim id=\"1\"}}I love the beginning of December,{{delay frames=\"8\"}}\nbecause it means {{color id=\"2\"}}Toy Day {{color id=\"65535\"}}is that\nmuch closer,{{delay frames=\"8\"}} {{fun_00070005 arg=\"\"}}!",
      "USes": "{{anim id=\"1\"}}Me encanta que llegue diciembre,\n¡porque eso significa que el Día de\nlos Juguetes está al caer!",
      "USfr": "{{anim id=\"1\"}}Quand décembre est là, c'est que\nle {{color id=\"2\"}}jour des cadeaux{{color id=\"65535\"}} approche à\ngrands pas, {{delay frames=\"8\"}}{{fun_00070005 arg=\"\"}}!"
    }
  },
  {
    "label": "002",
    "locale": {
      "EUde": "{{anim id=\"5\"}}Der Dezember hat gerade erst\nangefangen, aber ich freue mich\njetzt schon auf den {{color id=\"2\"}}Spielzeugtag{{color id=\"65535\"}}!",
      "EUen": "{{anim id=\"5\"}}It's hard not to get excited about\nthe upcoming holidays,{{delay frames=\"8\"}} including\n{{color id=\"2\"}}Toy Day{{color id=\"65535\"}}!",
      "EUes": "{{anim id=\"5\"}}Sé que diciembre acaba de empezar,\n{{delay frames=\"10\"}}¡pero ya estoy emocionada por\nlas fiestas que se acercan!",
      "EUfr": "{{anim id=\"5\"}}Décembre ne fait que commencer,{{delay frames=\"8\"}}\nmais l'euphorie des fêtes de fin\nd'année est déjà dans l'air !",
      "EUit": "{{anim id=\"5\"}}Dicembre porta con sé una gioia\nparticolare, n'est-ce pas?{{delay frames=\"8\"}} Sarà\nper via del {{color id=\"2\"}}Giorno dei giocattoli{{color id=\"65535\"}}?",
      "JPja": "{{anim id=\"5\"}}まだ　{{delay frames=\"5\"}}12{{ruby charSpan=\"1\" value=\"がつ\"}}月の{{ruby charSpan=\"1\" value=\"はじ\"}}初めですけど{{delay frames=\"10\"}}\nもう　クリスマスに{{ruby charSpan=\"1\" value=\"む\"}}向けて{{delay frames=\"10\"}}\n{{ruby charSpan=\"1\" value=\"こころ\"}}心が　うきうきしだしました",
      "KRko": "{{anim id=\"5\"}}아직{{delay frames=\"5\"}} 12월의 초반이지만{{delay frames=\"10\"}}\n제 마음은 이미 크리스마스를 향해{{delay frames=\"10\"}}\n달려가고 있어요!",
      "USen": "{{anim id=\"5\"}}It's hard not to get excited about\nthe upcoming holidays,{{delay frames=\"8\"}} including\n{{color id=\"2\"}}Toy Day{{color id=\"65535\"}}!",
      "USes": "{{anim id=\"5\"}}Sé que diciembre acaba de empezar,\n{{delay frames=\"10\"}}¡pero ya estoy emocionada por\nlas fiestas que se acercan!",
      "USfr": "{{anim id=\"5\"}}Décembre ne fait que commencer,{{delay frames=\"8\"}}\nmais l'euphorie des fêtes de fin\nd'année est déjà dans l'air!"
    }
  },
  {
    "label": "003",
    "locale": {
      "EUde": "{{anim id=\"1\"}}Ich muss bis zum {{color id=\"2\"}}Spielzeugtag {{color id=\"65535\"}}ganz\nviele Vanillekipferl backen.{{delay frames=\"20\"}} Die\nkommen immer richtig gut an!\nOh, und weißt du, wer sie besonders\ngerne futtert? {{delay frames=\"20\"}}{{color id=\"4\"}}Chris{{color id=\"65535\"}}!{{delay frames=\"20\"}} Ich freu mich\nschon darauf, ihn zu sehen.",
      "EUen": "{{anim id=\"1\"}}I'll be baking lots of sugar cookies\nfrom now until {{color id=\"2\"}}Toy Day {{color id=\"65535\"}}to be sure\nI have enough for everyone.{{pageBreak}}Especially {{color id=\"4\"}}Jingle{{color id=\"65535\"}}!{{delay frames=\"20\"}} I can't wait to see\nhim.",
      "EUes": "{{anim id=\"1\"}}Voy a preparar galletitas de azúcar\ncada día hasta que llegue el Día de\nlos Juguetes.\n{{anim id=\"37\"}}Quiero que haya suficientes para\ntodos, {{delay frames=\"10\"}}¡y en especial para {{color id=\"4\"}}Renato{{color id=\"65535\"}}!",
      "EUfr": "{{anim id=\"1\"}}J'ai la parade contre les rigueurs de\nl'hiver : des gâteaux par milliers !{{delay frames=\"20\"}} Le\nfroid ne passera pas !\nMais {{color id=\"4\"}}Rodolphe{{color id=\"65535\"}}, si ! J'ai tellement\nhâte qu'il vienne !",
      "EUit": "{{anim id=\"1\"}}Preparerò un sacco di dolcetti\ne li regalerò a tutti!{{pageBreak}}Soprattutto a {{color id=\"4\"}}Jingle{{color id=\"65535\"}}!\n{{delay frames=\"20\"}}Non vedo l'ora di vederlo!",
      "JPja": "{{anim id=\"1\"}}{{ruby charSpan=\"2\" value=\"ことし\"}}今年の　クリスマスケーキは{{delay frames=\"10\"}}\nどんな　{{ruby charSpan=\"1\" value=\"かたち\"}}形にしようかしら！",
      "KRko": "{{anim id=\"1\"}}전 올해의 크리스마스 케이크를{{delay frames=\"10\"}}\n어떤 모양으로 만들면 좋을지\n고민 중이랍니다!",
      "USen": "{{anim id=\"1\"}}I'll be baking lots of sugar cookies\nfrom now until {{color id=\"2\"}}Toy Day {{color id=\"65535\"}}to be sure\nI have enough for everyone.{{pageBreak}}Especially {{color id=\"4\"}}Jingle{{color id=\"65535\"}}!{{delay frames=\"20\"}} I can't wait to see\nhim.",
      "USes": "{{anim id=\"1\"}}Voy a preparar galletitas de azúcar\ncada día hasta que llegue el Día de\nlos Juguetes.\n{{anim id=\"37\"}}Quiero que haya suficientes para\ntodos, {{delay frames=\"10\"}}¡y en especial para {{color id=\"4\"}}Renato{{color id=\"65535\"}}!",
      "USfr": "{{anim id=\"1\"}}J'ai la parade contre les rigueurs de\nl'hiver : des gâteaux par milliers!{{delay frames=\"20\"}} Le\nfroid ne passera pas!\nMais {{color id=\"4\"}}Rodolphe{{color id=\"65535\"}}, si! J'ai tellement\nhâte qu'il vienne!"
    }
  },
  {
    "label": "004",
    "locale": {
      "EUde": "{{anim id=\"1\"}}Ich freue mich schon auf den\n{{color id=\"2\"}}Spielzeugtag{{color id=\"65535\"}}!{{delay frames=\"20\"}} Ich packe richtig\ngerne Geschenke aus.\n{{anim id=\"5\"}}Aber was ich noch lieber mache, ist,\nanderen beim Geschenkeauspacken\nzuzuschauen.{{delay frames=\"20\"}} Hihi...",
      "EUen": "{{anim id=\"1\"}}I'm already excited about {{color id=\"2\"}}Toy Day{{color id=\"65535\"}}!{{delay frames=\"20\"}}\nI love opening presents,{{delay frames=\"8\"}} and I love\nseeing everyone else open theirs!",
      "EUes": "{{anim id=\"1\"}}Tengo muchas ganas de que llegue\nel Día de los Juguetes.{{pageBreak}}{{anim id=\"38\"}}¡Me encanta abrir regalos y ver que\nlos demás abren los suyos!",
      "EUfr": "{{anim id=\"1\"}}Le {{color id=\"2\"}}jour des cadeaux{{color id=\"65535\"}} approche à\ngrands pas ! Plaisir d'offrir, joie de\nrecevoir, c'est du bonheur en barre !",
      "EUit": "{{anim id=\"1\"}}Adoooro il Giorno dei giocattoli!\nScambiarsi cadeaux, stare insieme\nai propri cari... Che voglio di più?",
      "JPja": "{{anim id=\"1\"}}クリスマスが{{delay frames=\"10\"}}\n{{ruby charSpan=\"2\" value=\"いっぽ\"}}一歩ずつ{{ruby charSpan=\"1\" value=\"ちか\"}}近づいてきますね！{{pageBreak}}{{anim id=\"5\"}}{{ruby charSpan=\"2\" value=\"ことし\"}}今年も　プレゼントを　もらえるように{{delay frames=\"10\"}}\nよい{{ruby charSpan=\"1\" value=\"こ\"}}子にしてたので　{{delay frames=\"10\"}}{{ruby charSpan=\"2\" value=\"とうじつ\"}}当日が{{ruby charSpan=\"1\" value=\"たの\"}}楽しみです",
      "KRko": "{{anim id=\"1\"}}크리스마스가{{delay frames=\"10\"}}\n조금씩 다가오고 있네요!{{pageBreak}}{{anim id=\"5\"}}올해도 선물을 받기 위해서{{delay frames=\"10\"}}\n착한 일을 잔뜩 했으니까{{delay frames=\"10\"}}\n기대를 많이 하고 있어요",
      "USen": "{{anim id=\"1\"}}I'm already excited about {{color id=\"2\"}}Toy Day{{color id=\"65535\"}}!{{delay frames=\"20\"}}\nI love opening presents,{{delay frames=\"8\"}} and I love\nseeing everyone else open theirs!",
      "USes": "{{anim id=\"1\"}}Tengo muchas ganas de que llegue\nel Día de los Juguetes.{{pageBreak}}{{anim id=\"38\"}}¡Me encanta abrir regalos y ver que\nlos demás abren los suyos!",
      "USfr": "{{anim id=\"1\"}}Le {{color id=\"2\"}}jour des cadeaux{{color id=\"65535\"}} approche à\ngrands pas! Plaisir d'offrir, joie de\nrecevoir, c'est du bonheur en barre!"
    }
  },
  {
    "label": "005",
    "locale": {
      "EUde": "{{anim id=\"4\"}}Ich mag diese Jahreszeit.{{delay frames=\"20\"}} Es ist\nzwar kalt, aber irgendwie auch\ngemütlich.",
      "EUen": "{{anim id=\"4\"}}It's such a lovely season,{{delay frames=\"8\"}} isn't it?{{delay frames=\"20\"}}\nThe stars look so crisp in the cold\nair!{{delay frames=\"20\"}} All the better for {{color id=\"4\"}}Jingle {{color id=\"65535\"}}to visit!",
      "EUes": "{{anim id=\"4\"}}Qué estación tan hermosa, {{delay frames=\"10\"}}¿eh?\n{{delay frames=\"20\"}}{{anim id=\"37\"}}El aire frío hace que las estrellas\nse vean más brillantes, {{delay frames=\"10\"}}¿lo sabías?",
      "EUfr": "{{anim id=\"4\"}}J'adore cette saison.{{delay frames=\"20\"}} Les étoiles\nbrillent d'un éclat particulier en\nce moment...{{delay frames=\"20\"}} {{color id=\"4\"}}Rodolphe{{color id=\"65535\"}} va adorer !",
      "EUit": "{{anim id=\"4\"}}Questo non è un periodo dell'anno\nbellissimissimo?{{delay frames=\"20\"}} Anche le stelle\nsono più luminose di notte!\nManca solo {{color id=\"4\"}}Jingle{{color id=\"65535\"}}!",
      "JPja": "{{anim id=\"1\"}}もうすぐクリスマスですね！{{delay frames=\"20\"}}\n{{ruby charSpan=\"1\" value=\"かざ\"}}飾りつけは{{ruby charSpan=\"1\" value=\"お\"}}終わりましたか？{{fun_00010007 arg=\"\"}}\n{{anim id=\"5\"}}{{ruby charSpan=\"2\" value=\"じゅんび\"}}準備だけでも　{{delay frames=\"5\"}}{{ruby charSpan=\"1\" value=\"たの\"}}楽しいですよね！",
      "KRko": "{{anim id=\"1\"}}조금 있으면 크리스마스예요!{{delay frames=\"20\"}}\n트리 장식은 다 끝내셨나요?{{fun_00010007 arg=\"\"}}\n{{anim id=\"5\"}}준비하는 것만으로도{{delay frames=\"5\"}} 전 즐겁답니다!",
      "USen": "{{anim id=\"4\"}}It's such a lovely season,{{delay frames=\"8\"}} isn't it?{{delay frames=\"20\"}}\nThe stars look so crisp in the cold\nair!{{delay frames=\"20\"}} All the better for {{color id=\"4\"}}Jingle {{color id=\"65535\"}}to visit!",
      "USes": "{{anim id=\"4\"}}Qué estación tan hermosa, {{delay frames=\"10\"}}¿eh?\n{{delay frames=\"20\"}}{{anim id=\"37\"}}El aire frío hace que las estrellas\nse vean más brillantes, {{delay frames=\"10\"}}¿lo sabías?",
      "USfr": "{{anim id=\"4\"}}J'adore cette saison.{{delay frames=\"20\"}} Les étoiles\nbrillent d'un éclat particulier en\nce moment...{{delay frames=\"20\"}} {{color id=\"4\"}}Rodolphe{{color id=\"65535\"}} va adorer!"
    }
  },
  {
    "label": "006",
    "locale": {
      "EUde": "{{anim id=\"5\"}}Hast du die ganzen Lichter schon\ngesehen?{{delay frames=\"30\"}} Alles sieht so wunderbar\nfestlich aus!",
      "EUen": "{{anim id=\"5\"}}Have you seen the lights around\ntown?{{delay frames=\"20\"}} Everything looks so festive!{{delay frames=\"20\"}}\nI can't wait until {{color id=\"2\"}}Toy Day{{color id=\"65535\"}}...",
      "EUes": "{{anim id=\"5\"}}¿Te has fijado en las luces que\nhay por {{fun_0003000E arg=\"\"}}{{fun_00050005 arg=\"\"}}? {{delay frames=\"20\"}}¡Adoro este\nambiente tan festivo!",
      "EUfr": "{{anim id=\"5\"}}Tu as vu comme la ville est belle ?\n{{delay frames=\"20\"}}Y'a de la fiesta dans l'air !{{delay frames=\"20\"}}\nVivement le {{color id=\"2\"}}jour des cadeaux{{color id=\"65535\"}} !",
      "EUit": "{{anim id=\"5\"}}Hai visto che beeella la città tutta\nilluminata?{{delay frames=\"20\"}} Ormai manca poco\nal {{color id=\"2\"}}Giorno dei giocattoli{{color id=\"65535\"}}!",
      "JPja": "{{anim id=\"5\"}}だんだん　{{delay frames=\"10\"}}クリスマスが\n{{ruby charSpan=\"1\" value=\"ちか\"}}近づいてきましたね！{{pageBreak}}{{anim id=\"1\"}}ブッシュドノエルを{{ruby charSpan=\"1\" value=\"つく\"}}作る{{ruby charSpan=\"2\" value=\"じゅんび\"}}準備を{{delay frames=\"10\"}}\n{{ruby charSpan=\"1\" value=\"はじ\"}}始めなきゃです",
      "KRko": "{{anim id=\"5\"}}점점{{delay frames=\"10\"}} 크리스마스가\n다가오고 있어요!{{pageBreak}}{{anim id=\"1\"}}크리스마스 케이크를 만들\n준비를{{delay frames=\"10\"}} 슬슬 시작해야겠어요",
      "USen": "{{anim id=\"5\"}}Have you seen the lights around\ntown?{{delay frames=\"20\"}} Everything looks so festive!{{delay frames=\"20\"}}\nI can't wait until {{color id=\"2\"}}Toy Day{{color id=\"65535\"}}...",
      "USes": "{{anim id=\"5\"}}¿Te has fijado en las luces que\nhay por {{fun_0003000E arg=\"\"}}{{fun_00050005 arg=\"\"}}? {{delay frames=\"20\"}}¡Adoro este\nambiente tan festivo!",
      "USfr": "{{anim id=\"5\"}}Tu as vu les illuminations en ville?\n{{delay frames=\"20\"}}Y a de la fiesta dans l'air!{{delay frames=\"20\"}}\nVivement le {{color id=\"2\"}}jour des cadeaux{{color id=\"65535\"}}!"
    }
  },
  {
    "label": "007",
    "locale": {
      "EUde": "{{anim id=\"1\"}}Der {{color id=\"2\"}}Spielzeugtag {{color id=\"65535\"}}rückt immer\nnäher!{{delay frames=\"20\"}} Ich hab schon einen langen\nWunschzettel geschrieben...",
      "EUen": "{{anim id=\"1\"}}{{color id=\"2\"}}Toy Day{{color id=\"65535\"}} is fast approaching!{{delay frames=\"20\"}} Do\nyou know what you want this year,\n{{fun_00080005 arg=\"\"}}?",
      "EUes": "{{anim id=\"1\"}}¡Ya mismo tenemos aquí el Día\nde los Juguetes! {{delay frames=\"20\"}}¿Has decidido\nlo que vas a pedir, {{delay frames=\"10\"}}{{fun_00080005 arg=\"\"}}?",
      "EUfr": "{{anim id=\"1\"}}Cette fois, le {{color id=\"2\"}}jour des cadeaux{{color id=\"65535\"}} est\nimminent !{{delay frames=\"20\"}} Tu sais déjà ce que\ntu veux recevoir,{{delay frames=\"8\"}} {{fun_00080005 arg=\"\"}} ?",
      "EUit": "{{anim id=\"1\"}}Il {{color id=\"2\"}}Giorno dei giocattoli{{color id=\"65535\"}} è sempre\npiù vicino!{{delay frames=\"20\"}} Io so già cosa vorrei\nricevere. E tu, {{fun_00080005 arg=\"\"}}?",
      "JPja": "{{anim id=\"1\"}}クリスマスイブまで{{delay frames=\"10\"}}\nあと　{{delay frames=\"5\"}}もう{{ruby charSpan=\"1\" value=\"すこ\"}}少しですね！{{pageBreak}}{{anim id=\"5\"}}わたし　{{delay frames=\"10\"}}ツリーの{{ruby charSpan=\"1\" value=\"かたち\"}}形のクッキーを{{delay frames=\"5\"}}\n{{ruby charSpan=\"1\" value=\"や\"}}焼いてみたんですよ",
      "KRko": "{{anim id=\"1\"}}크리스마스 이브까지{{delay frames=\"10\"}}\n이제{{delay frames=\"5\"}} 얼마 안 남았네요!{{pageBreak}}{{anim id=\"5\"}}저는 요새{{delay frames=\"10\"}} 트리 모양의\n쿠키를{{delay frames=\"5\"}} 굽고 있답니다",
      "USen": "{{anim id=\"1\"}}{{color id=\"2\"}}Toy Day{{color id=\"65535\"}} is fast approaching!{{delay frames=\"20\"}} Do\nyou know what you want this year,\n{{fun_00080005 arg=\"\"}}?",
      "USes": "{{anim id=\"1\"}}¡Ya mismo tenemos aquí el Día\nde los Juguetes! {{delay frames=\"20\"}}¿Has decidido\nlo que vas a pedir, {{delay frames=\"10\"}}{{fun_00080005 arg=\"\"}}?",
      "USfr": "{{anim id=\"1\"}}Cette fois, le {{color id=\"2\"}}jour des cadeaux{{color id=\"65535\"}} est\nimminent!{{delay frames=\"20\"}} Tu sais déjà ce que\ntu veux recevoir,{{delay frames=\"8\"}} {{fun_00080005 arg=\"\"}}?"
    }
  },
  {
    "label": "008",
    "locale": {
      "EUde": "{{anim id=\"4\"}}Ganz schön kalt heute.{{delay frames=\"30\"}} Vielleicht\nliegt dieses Jahr ja mal\nSchnee am {{color id=\"2\"}}Spielzeugtag{{color id=\"65535\"}}!\n{{anim id=\"11\"}}Hmmm, vielleicht sollte ich einen\nSchlitten auf meinen Wunschzettel\nschreiben...",
      "EUen": "{{anim id=\"4\"}}Just look at all the snow!{{delay frames=\"20\"}} It's such\na pretty time of year.{{delay frames=\"20\"}}{{anim id=\"37\"}} I'll bet {{color id=\"4\"}}Jingle\n{{color id=\"65535\"}}likes the snow too.",
      "EUes": "{{anim id=\"4\"}}¡A pesar de que haga frío, {{delay frames=\"10\"}}me gusta\nver el lado positivo del invierno!\n{{delay frames=\"20\"}}¡Que nieve, {{delay frames=\"10\"}}por ejemplo!",
      "EUfr": "{{anim id=\"4\"}}De la neige à perte de vue !{{delay frames=\"20\"}} J'adore\nl'hiver... {{delay frames=\"20\"}}{{anim id=\"37\"}}Et je connais un certain\n{{color id=\"4\"}}Rodolphe{{color id=\"65535\"}} qui est du même avis !",
      "EUit": "{{anim id=\"4\"}}Guarda quanta neve! Il paesaggio\ninnevato è stupendo! {{delay frames=\"20\"}}{{anim id=\"37\"}}Chissà se\n{{color id=\"4\"}}Jingle {{color id=\"65535\"}}lo ama...",
      "JPja": "{{anim id=\"5\"}}もうすぐ　{{delay frames=\"10\"}}クリスマスイブですね{{pageBreak}}{{anim id=\"1\"}}こんなに{{ruby charSpan=\"1\" value=\"さむ\"}}寒いと　{{delay frames=\"10\"}}ホワイトクリスマスに{{delay frames=\"5\"}}\nなるかもしれませんよ",
      "KRko": "{{anim id=\"5\"}}곧{{delay frames=\"10\"}} 크리스마스 이브예요!{{pageBreak}}{{anim id=\"1\"}}날씨가 이렇게 추운 걸 보면{{delay frames=\"10\"}}\n화이트 크리스마스를{{delay frames=\"5\"}}\n기대해도 되지 않을까요?",
      "USen": "{{anim id=\"4\"}}Just look at all the snow!{{delay frames=\"20\"}} It's such\na pretty time of year.{{delay frames=\"20\"}}{{anim id=\"37\"}} I'll bet {{color id=\"4\"}}Jingle\n{{color id=\"65535\"}}likes the snow too.",
      "USes": "{{anim id=\"4\"}}¡A pesar de que haga frío, {{delay frames=\"10\"}}me gusta\nver el lado positivo del invierno!\n{{delay frames=\"20\"}}¡Que nieve, {{delay frames=\"10\"}}por ejemplo!",
      "USfr": "{{anim id=\"4\"}}De la neige à perte de vue!{{delay frames=\"20\"}} J'adore\nl'hiver... {{delay frames=\"20\"}}{{anim id=\"37\"}}Et je connais un certain\n{{color id=\"4\"}}Rodolphe{{color id=\"65535\"}} qui est du même avis!"
    }
  },
  {
    "label": "009",
    "locale": {
      "EUde": "{{anim id=\"37\"}}Der {{color id=\"2\"}}Spielzeugtag {{color id=\"65535\"}}steht vor der Tür!{{delay frames=\"40\"}}\n{{anim id=\"39\"}}Hoffentlich kriege ich etwas Tolles.",
      "EUen": "{{anim id=\"37\"}}It's not long until {{color id=\"2\"}}Toy Day{{color id=\"65535\"}}!{{delay frames=\"40\"}}\n{{anim id=\"39\"}}It's getting harder and harder\nto wait.",
      "EUes": "{{anim id=\"37\"}}¡Ya no falta nada para el Día de\nlos Juguetes!{{delay frames=\"40\"}} {{anim id=\"39\"}}Ojalá {{color id=\"4\"}}Renato{{color id=\"65535\"}}\nme traiga un regalito especial.",
      "EUfr": "{{anim id=\"37\"}}Le {{color id=\"2\"}}jour des cadeaux {{color id=\"65535\"}}est pour\nbientôt !{{delay frames=\"30\"}} Je trépigne d'impatience !",
      "EUit": "{{anim id=\"37\"}}Manca pochissimissimo\nal {{color id=\"2\"}}Giorno dei giocattoli{{color id=\"65535\"}}!{{delay frames=\"40\"}}\n{{anim id=\"39\"}}L'attesa si fa sempre più dura.",
      "JPja": "{{anim id=\"1\"}}クリスマスイブまで{{delay frames=\"10\"}}\nあともう{{ruby charSpan=\"1\" value=\"すこ\"}}少しですね！{{fun_00010007 arg=\"\"}}\n{{anim id=\"39\"}}サンタさん　{{delay frames=\"10\"}}{{ruby charSpan=\"1\" value=\"き\"}}来てくれるかしら{{delay frames=\"8\"}}・{{delay frames=\"8\"}}・{{delay frames=\"8\"}}・{{delay frames=\"8\"}}！",
      "KRko": "{{anim id=\"1\"}}크리스마스 이브까지{{delay frames=\"10\"}}\n며칠 안 남았어요!{{fun_00010007 arg=\"\"}}\n{{anim id=\"39\"}}산타 할아버지가{{delay frames=\"10\"}} 오셔야 하는데{{delay frames=\"8\"}}・{{delay frames=\"8\"}}・{{delay frames=\"8\"}}・{{delay frames=\"8\"}}!",
      "USen": "{{anim id=\"37\"}}It's not long until {{color id=\"2\"}}Toy Day{{color id=\"65535\"}}!{{delay frames=\"40\"}}\n{{anim id=\"39\"}}It's getting harder and harder\nto wait.",
      "USes": "{{anim id=\"37\"}}¡Ya no falta nada para el Día de\nlos Juguetes!{{delay frames=\"40\"}} {{anim id=\"39\"}}Ojalá {{color id=\"4\"}}Renato{{color id=\"65535\"}}\nme traiga un regalito especial.",
      "USfr": "{{anim id=\"37\"}}Le {{color id=\"2\"}}jour des cadeaux {{color id=\"65535\"}}est pour\nbientôt!{{delay frames=\"30\"}} Je trépigne d'impatience!"
    }
  },
  {
    "label": "010",
    "locale": {
      "EUde": "{{anim id=\"1\"}}Morgen ist endlich\n{{color id=\"2\"}}Spielzeugtag{{color id=\"65535\"}}!{{pageBreak}}{{anim id=\"21\"}}Ich hab auch schon eifrig Plätzchen\ngebacken.{{delay frames=\"20\"}} Nusskugeln, Zimtsterne,\nKokosmakronen...{{delay frames=\"20\"}} Mmmh!",
      "EUen": "{{anim id=\"1\"}}{{color id=\"2\"}}Toy Day{{color id=\"65535\"}} is only a day away!{{delay frames=\"20\"}}{{anim id=\"21\"}} I've\nbaked some gingerbread cookies for\nwhen {{color id=\"4\"}}Jingle{{color id=\"65535\"}} arrives.",
      "EUes": "{{anim id=\"1\"}}¡Mañana es ya el Día de\nlos Juguetes!{{pageBreak}}{{anim id=\"21\"}}Quiero preparar galletitas para\ncuando {{color id=\"4\"}}Renato {{color id=\"65535\"}}pase por aquí.",
      "EUfr": "{{anim id=\"1\"}}Plus qu'un jour avant le {{color id=\"2\"}}jour\ndes cadeaux{{color id=\"65535\"}} !{{delay frames=\"20\"}}{{anim id=\"21\"}} J'ai préparé de\nbons gâteaux pour {{color id=\"4\"}}Rodolphe{{color id=\"65535\"}}.",
      "EUit": "{{anim id=\"1\"}}Domani è il {{color id=\"2\"}}Giorno dei giocattoli{{color id=\"65535\"}}.\n{{delay frames=\"20\"}}{{anim id=\"21\"}}Io ho già preparato i biscotti\nper {{color id=\"4\"}}Jingle{{color id=\"65535\"}}!",
      "JPja": "{{anim id=\"1\"}}いよいよ　{{ruby charSpan=\"2\" value=\"あした\"}}明日は{{delay frames=\"10\"}}\nクリスマスイブですね！{{pageBreak}}{{anim id=\"21\"}}ジンジャークッキーも{{ruby charSpan=\"1\" value=\"や\"}}焼いたし{{delay frames=\"8\"}}・{{delay frames=\"8\"}}・{{delay frames=\"8\"}}・{{delay frames=\"8\"}}\n{{anim id=\"5\"}}ちょっと　{{delay frames=\"5\"}}つまみ{{ruby charSpan=\"1\" value=\"ぐ\"}}食いしちゃおうかしら",
      "KRko": "{{anim id=\"1\"}}드디어 크리스마스 이브가{{delay frames=\"10\"}}\n하루 앞으로 다가왔어요!{{pageBreak}}{{anim id=\"21\"}}맛있는 쿠키도 준비했겠다{{delay frames=\"8\"}}・{{delay frames=\"8\"}}・{{delay frames=\"8\"}}・{{delay frames=\"8\"}}\n{{anim id=\"5\"}}미리 몇 개{{delay frames=\"5\"}} 먹어봐야겠어요",
      "USen": "{{anim id=\"1\"}}{{color id=\"2\"}}Toy Day{{color id=\"65535\"}} is only a day away!{{delay frames=\"20\"}}{{anim id=\"21\"}} I've\nbaked some gingerbread cookies for\nwhen {{color id=\"4\"}}Jingle{{color id=\"65535\"}} arrives.",
      "USes": "{{anim id=\"1\"}}¡Mañana es ya el Día de\nlos Juguetes!{{pageBreak}}{{anim id=\"21\"}}Quiero preparar galletitas para\ncuando {{color id=\"4\"}}Renato {{color id=\"65535\"}}pase por aquí.",
      "USfr": "{{anim id=\"1\"}}Plus qu'un jour avant le {{color id=\"2\"}}jour\ndes cadeaux{{color id=\"65535\"}}!{{delay frames=\"20\"}}{{anim id=\"21\"}} J'ai préparé de bons\ngâteaux pour {{color id=\"4\"}}Rodolphe{{color id=\"65535\"}}."
    }
  },
  {
    "label": "011",
    "locale": {
      "EUde": "{{anim id=\"3\"}}Bald ist es so weit!{{delay frames=\"20\"}} Morgen\nist {{color id=\"2\"}}Spielzeugtag{{color id=\"65535\"}}!{{delay frames=\"30\"}} Ich hoffe, du\nkommst dann und feierst mit mir.",
      "EUen": "{{anim id=\"3\"}}It's finally here!{{delay frames=\"20\"}} {{color id=\"2\"}}Toy Day{{color id=\"65535\"}} is\ntomorrow!{{delay frames=\"20\"}} I hope you'll come and\ncelebrate with me, {{fun_00080005 arg=\"\"}}.",
      "EUes": "{{anim id=\"3\"}}¡Mañana es el Día de los Juguetes!{{fun_00010007 arg=\"\"}}\n{{anim id=\"37\"}}Espero que podamos celebrarlo\njunt{{fun_0006000E arg=\"0x04006F007300040061007300\"}},{{delay frames=\"10\"}} {{fun_00080005 arg=\"\"}}.",
      "EUfr": "{{anim id=\"3\"}}Nous y voilà, le {{color id=\"2\"}}jour des cadeaux{{color id=\"65535\"}},\nc'est pour demain !{{delay frames=\"20\"}} Ça te dit de\nle fêter avec moi,{{delay frames=\"8\"}} {{fun_00080005 arg=\"\"}} ?",
      "EUit": "{{anim id=\"3\"}}Che beeellooo!{{delay frames=\"20\"}} Domani è\nil {{color id=\"2\"}}Giorno dei giocattoli{{color id=\"65535\"}}!{{fun_00010007 arg=\"\"}} Facciamo\nfesta insieme, {{fun_00080005 arg=\"\"}}?",
      "JPja": "{{anim id=\"5\"}}とうとう　{{ruby charSpan=\"2\" value=\"あした\"}}明日は{{delay frames=\"10\"}}\nクリスマスイブですね{{pageBreak}}{{anim id=\"1\"}}{{fun_00080005 arg=\"\"}}さんは{{delay frames=\"10\"}}\nご{{ruby charSpan=\"2\" value=\"よてい\"}}予定とか　{{delay frames=\"5\"}}{{ruby charSpan=\"1\" value=\"はい\"}}入ってるんですか？{{pageBreak}}{{anim id=\"5\"}}わたしは　{{delay frames=\"10\"}}{{ruby charSpan=\"3\" value=\"いちにちじゅう\"}}一日中クリスマスの\nお{{ruby charSpan=\"1\" value=\"いわ\"}}祝いしてますから{{delay frames=\"15\"}}\n{{ruby charSpan=\"2\" value=\"いっしょ\"}}一緒に　{{ruby charSpan=\"1\" value=\"あそ\"}}遊びましょうね",
      "KRko": "{{anim id=\"5\"}}드디어 내일은{{delay frames=\"10\"}}\n크리스마스 이브로군요{{pageBreak}}{{anim id=\"1\"}}{{fun_00080005 arg=\"\"}}님은{{delay frames=\"10\"}}\n어떤 계획을{{delay frames=\"5\"}} 세우셨나요?{{pageBreak}}{{anim id=\"5\"}}저는{{delay frames=\"10\"}} 하루 종일\n크리스마스를 즐길 생각이니까{{delay frames=\"15\"}}\n괜찮으시면 같이 놀아요!",
      "USen": "{{anim id=\"3\"}}It's finally here!{{delay frames=\"20\"}} {{color id=\"2\"}}Toy Day{{color id=\"65535\"}} is\ntomorrow!{{delay frames=\"20\"}} I hope you'll come and\ncelebrate with me, {{fun_00080005 arg=\"\"}}.",
      "USes": "{{anim id=\"3\"}}¡Mañana es el Día de los Juguetes!{{fun_00010007 arg=\"\"}}\n{{anim id=\"37\"}}Espero que podamos celebrarlo\njunt{{fun_0006000E arg=\"0x04006F007300040061007300\"}},{{delay frames=\"10\"}} {{fun_00080005 arg=\"\"}}.",
      "USfr": "{{anim id=\"3\"}}Nous y voilà, le {{color id=\"2\"}}jour des cadeaux{{color id=\"65535\"}},\nc'est pour demain!{{delay frames=\"20\"}} Ça te dit de\nle fêter avec moi,{{delay frames=\"8\"}} {{fun_00080005 arg=\"\"}}?"
    }
  },
  {
    "label": "012",
    "locale": {
      "EUde": "{{anim id=\"38\"}}Morgen ist {{color id=\"2\"}}Spielzeugtag{{color id=\"65535\"}}!{{delay frames=\"30\"}}\nOb uns auch in {{fun_00050005 arg=\"\"}} jemand\nGeschenke vorbeibringt?",
      "EUen": "{{anim id=\"38\"}}Yaaay!{{delay frames=\"8\"}} Tomorrow is {{color id=\"2\"}}Toy Day{{color id=\"65535\"}}!\n{{delay frames=\"40\"}}When do you think {{color id=\"4\"}}Jingle{{color id=\"65535\"}} will come\nto {{fun_00050005 arg=\"\"}}?",
      "EUes": "Solo faltan unas horas para que\n{{color id=\"4\"}}Renato{{color id=\"65535\"}} venga a {{fun_0003000E arg=\"\"}}{{fun_00050005 arg=\"\"}}{{delay frames=\"8\"}}.{{delay frames=\"8\"}}.{{delay frames=\"8\"}}.{{delay frames=\"8\"}}\n{{anim id=\"38\"}}¡Llega el Día de los Juguetes!\n{{anim id=\"11\"}}Porque seguro que visitará nuestro\npueblo, {{delay frames=\"10\"}}¿no?{{delay frames=\"8\"}}.{{delay frames=\"8\"}}.{{delay frames=\"8\"}}.",
      "EUfr": "{{anim id=\"38\"}}Demain, c'est le {{color id=\"2\"}}jour des cadeaux{{color id=\"65535\"}} !\n{{color id=\"4\"}}Rodolphe{{color id=\"65535\"}} va bientôt faire son\nentrée à {{fun_00050005 arg=\"\"}} !",
      "EUit": "{{anim id=\"38\"}}Domani è finalmente il {{color id=\"2\"}}Giorno\ndei giocattoli{{color id=\"65535\"}}! {{delay frames=\"40\"}}Credi che {{color id=\"4\"}}Jingle{{color id=\"65535\"}}\npasserà per {{fun_00050005 arg=\"\"}}?",
      "JPja": "{{anim id=\"1\"}}{{ruby charSpan=\"2\" value=\"あす\"}}明日は　{{delay frames=\"10\"}}とうとう　クリスマスイブですね{{fun_00010007 arg=\"\"}}\n{{anim id=\"0\"}}{{fun_00080005 arg=\"\"}}さんは{{delay frames=\"10\"}}\n{{ruby charSpan=\"1\" value=\"かざ\"}}飾りつけも　{{delay frames=\"5\"}}ケーキもばっちりですか？\n{{ruby charSpan=\"1\" value=\"はや\"}}早く　サンタさんに{{delay frames=\"10\"}}\n{{ruby charSpan=\"1\" value=\"あ\"}}会いたいですよね～！",
      "KRko": "{{anim id=\"1\"}}내일은{{delay frames=\"10\"}} 대망의 크리스마스 이브예요{{fun_00010007 arg=\"\"}}\n{{anim id=\"0\"}}{{fun_00080005 arg=\"\"}}님은{{delay frames=\"10\"}}\n장식이랑{{delay frames=\"5\"}} 케이크 준비를 마치셨나요?\n저는 빨리 산타 할아버지를{{delay frames=\"10\"}}\n만나고 싶어요～!",
      "USen": "{{anim id=\"38\"}}Yaaay!{{delay frames=\"8\"}} Tomorrow is {{color id=\"2\"}}Toy Day{{color id=\"65535\"}}!\n{{delay frames=\"40\"}}When do you think {{color id=\"4\"}}Jingle{{color id=\"65535\"}} will come\nto {{fun_00050005 arg=\"\"}}?",
      "USes": "Solo faltan unas horas para que\n{{color id=\"4\"}}Renato{{color id=\"65535\"}} venga a {{fun_0003000E arg=\"\"}}{{fun_00050005 arg=\"\"}}{{delay frames=\"8\"}}.{{delay frames=\"8\"}}.{{delay frames=\"8\"}}.{{delay frames=\"8\"}}\n{{anim id=\"38\"}}¡Llega el Día de los Juguetes!\n{{anim id=\"11\"}}Porque seguro que visitará nuestro\npueblo, {{delay frames=\"10\"}}¿no?{{delay frames=\"8\"}}.{{delay frames=\"8\"}}.{{delay frames=\"8\"}}.",
      "USfr": "{{anim id=\"38\"}}Demain, c'est le {{color id=\"2\"}}jour des cadeaux{{color id=\"65535\"}}!\n{{color id=\"4\"}}Rodolphe{{color id=\"65535\"}} va bientôt faire son\nentrée à {{fun_00050005 arg=\"\"}}!"
    }
  },
  {
    "label": "013",
    "locale": {
      "EUde": "",
      "EUen": "",
      "EUes": "",
      "EUfr": "",
      "EUit": "",
      "JPja": "",
      "KRko": "",
      "USen": "",
      "USes": "",
      "USfr": ""
    }
  },
  {
    "label": "014",
    "locale": {
      "EUde": "",
      "EUen": "",
      "EUes": "",
      "EUfr": "",
      "EUit": "",
      "JPja": "",
      "KRko": "",
      "USen": "",
      "USes": "",
      "USfr": ""
    }
  },
  {
    "label": "015",
    "locale": {
      "EUde": "",
      "EUen": "",
      "EUes": "",
      "EUfr": "",
      "EUit": "",
      "JPja": "",
      "KRko": "",
      "USen": "",
      "USes": "",
      "USfr": ""
    }
  },
  {
    "label": "016",
    "locale": {
      "EUde": "",
      "EUen": "",
      "EUes": "",
      "EUfr": "",
      "EUit": "",
      "JPja": "",
      "KRko": "",
      "USen": "",
      "USes": "",
      "USfr": ""
    }
  },
  {
    "label": "017",
    "locale": {
      "EUde": "",
      "EUen": "",
      "EUes": "",
      "EUfr": "",
      "EUit": "",
      "JPja": "",
      "KRko": "",
      "USen": "",
      "USes": "",
      "USfr": ""
    }
  },
  {
    "label": "018",
    "locale": {
      "EUde": "",
      "EUen": "",
      "EUes": "",
      "EUfr": "",
      "EUit": "",
      "JPja": "",
      "KRko": "",
      "USen": "",
      "USes": "",
      "USfr": ""
    }
  },
  {
    "label": "019",
    "locale": {
      "EUde": "",
      "EUen": "",
      "EUes": "",
      "EUfr": "",
      "EUit": "",
      "JPja": "",
      "KRko": "",
      "USen": "",
      "USes": "",
      "USfr": ""
    }
  },
  {
    "label": "020",
    "locale": {
      "EUde": "",
      "EUen": "",
      "EUes": "",
      "EUfr": "",
      "EUit": "",
      "JPja": "",
      "KRko": "",
      "USen": "",
      "USes": "",
      "USfr": ""
    }
  },
  {
    "label": "021",
    "locale": {
      "EUde": "{{anim id=\"37\"}}Ich glaube, dieses Jahr hätte ich\ngerne ein {{color id=\"2\"}}Möbelstück{{color id=\"65535\"}} von {{color id=\"4\"}}Chris{{color id=\"65535\"}}.",
      "EUen": "{{anim id=\"37\"}}I plan on asking {{color id=\"4\"}}Jingle {{color id=\"65535\"}}for a piece of\n{{color id=\"2\"}}furniture {{color id=\"65535\"}}this year.",
      "EUes": "{{anim id=\"37\"}}Este año he pensado pedirle\na {{color id=\"4\"}}Renato {{color id=\"65535\"}}un {{color id=\"2\"}}mueble{{color id=\"65535\"}}.",
      "EUfr": "{{anim id=\"37\"}}Je pense{{delay frames=\"8\"}} demander un {{color id=\"2\"}}meuble {{color id=\"65535\"}}à\n{{color id=\"4\"}}Rodolphe{{color id=\"65535\"}} cette année.",
      "EUit": "{{anim id=\"37\"}}Quest'anno vorrei chiedere a {{color id=\"4\"}}Jingle\n{{color id=\"65535\"}}se mi porta un {{color id=\"2\"}}mobile {{color id=\"65535\"}}in regalo.",
      "JPja": "{{anim id=\"1\"}}ちなみに　{{delay frames=\"5\"}}わたしは{{ruby charSpan=\"2\" value=\"ことし\"}}今年{{delay frames=\"10\"}}\nサンタさんに　{{color id=\"2\"}}{{ruby charSpan=\"2\" value=\"かぐ\"}}家具{{color id=\"65535\"}}が{{ruby charSpan=\"1\" value=\"ほ\"}}欲しいって{{delay frames=\"10\"}}\nお{{ruby charSpan=\"1\" value=\"ねが\"}}願いするつもりです",
      "KRko": "{{anim id=\"1\"}}참고로{{delay frames=\"5\"}} 올해 저는{{delay frames=\"10\"}}\n산타 할아버지에게 {{color id=\"2\"}}가구{{color id=\"65535\"}}를 달라고{{delay frames=\"10\"}}\n소원을 빌 거예요",
      "USen": "{{anim id=\"37\"}}I plan on asking {{color id=\"4\"}}Jingle {{color id=\"65535\"}}for a piece of\n{{color id=\"2\"}}furniture {{color id=\"65535\"}}this year.",
      "USes": "{{anim id=\"37\"}}Este año he pensado pedirle\na {{color id=\"4\"}}Renato {{color id=\"65535\"}}un {{color id=\"2\"}}mueble{{color id=\"65535\"}}.",
      "USfr": "{{anim id=\"37\"}}Je pense{{delay frames=\"8\"}} demander un {{color id=\"2\"}}meuble {{color id=\"65535\"}}à\n{{color id=\"4\"}}Rodolphe{{color id=\"65535\"}} cette année."
    }
  },
  {
    "label": "022",
    "locale": {
      "EUde": "{{anim id=\"37\"}}Ich wünsche mir von {{color id=\"4\"}}Chris {{color id=\"65535\"}}dieses\nJahr einen {{color id=\"2\"}}Teppich{{color id=\"65535\"}}.",
      "EUen": "{{anim id=\"37\"}}I plan on asking {{color id=\"4\"}}Jingle {{color id=\"65535\"}}for a pretty\n{{color id=\"2\"}}carpet {{color id=\"65535\"}}this year.",
      "EUes": "{{anim id=\"37\"}}Este año he pensado pedirle\na {{color id=\"4\"}}Renato {{color id=\"65535\"}}una {{color id=\"2\"}}alfombra{{color id=\"65535\"}}.",
      "EUfr": "{{anim id=\"37\"}}Je pense{{delay frames=\"8\"}} demander un joli {{color id=\"2\"}}tapis {{color id=\"65535\"}}à\n{{color id=\"4\"}}Rodolphe {{color id=\"65535\"}}cette année.",
      "EUit": "{{anim id=\"37\"}}Quest'anno vorrei chiedere a {{color id=\"4\"}}Jingle\n{{color id=\"65535\"}}se mi porta un {{color id=\"2\"}}tappeto{{color id=\"65535\"}}.",
      "JPja": "{{anim id=\"1\"}}ちなみに　{{delay frames=\"5\"}}わたしは{{ruby charSpan=\"2\" value=\"ことし\"}}今年{{delay frames=\"10\"}}\nサンタさんに　{{delay frames=\"10\"}}{{color id=\"2\"}}じゅうたん{{color id=\"65535\"}}が{{ruby charSpan=\"1\" value=\"ほ\"}}欲しいって{{delay frames=\"10\"}}\nお{{ruby charSpan=\"1\" value=\"ねが\"}}願いしようと{{ruby charSpan=\"1\" value=\"おも\"}}思ってます",
      "KRko": "{{anim id=\"1\"}}참고로 말씀드리자면{{delay frames=\"5\"}} 저는{{delay frames=\"10\"}}\n산타 할아버지께{{delay frames=\"10\"}} {{color id=\"2\"}}바닥{{color id=\"65535\"}}을 갖고 싶다고{{delay frames=\"10\"}}\n부탁할 생각이에요",
      "USen": "{{anim id=\"37\"}}I plan on asking {{color id=\"4\"}}Jingle {{color id=\"65535\"}}for a pretty\n{{color id=\"2\"}}carpet {{color id=\"65535\"}}this year.",
      "USes": "{{anim id=\"37\"}}Este año he pensado pedirle\na {{color id=\"4\"}}Renato {{color id=\"65535\"}}una {{color id=\"2\"}}alfombra{{color id=\"65535\"}}.",
      "USfr": "{{anim id=\"37\"}}Je pense{{delay frames=\"8\"}} demander un joli {{color id=\"2\"}}tapis {{color id=\"65535\"}}à\n{{color id=\"4\"}}Rodolphe {{color id=\"65535\"}}cette année."
    }
  },
  {
    "label": "023",
    "locale": {
      "EUde": "{{anim id=\"37\"}}Dieses Jahr hätte ich von {{color id=\"4\"}}Chris{{color id=\"65535\"}}\ngerne eine {{color id=\"2\"}}Tapete{{color id=\"65535\"}}.",
      "EUen": "{{anim id=\"37\"}}I plan on asking {{color id=\"4\"}}Jingle {{color id=\"65535\"}}for some\npretty {{color id=\"2\"}}{{color id=\"2\"}}wallpaper{{color id=\"2\"}} {{color id=\"65535\"}}this year.",
      "EUes": "{{anim id=\"37\"}}Este año he pensado pedirle\na {{color id=\"4\"}}Renato {{color id=\"65535\"}}{{color id=\"2\"}}papel de pared{{color id=\"65535\"}}.",
      "EUfr": "{{anim id=\"37\"}}Mes {{color id=\"2\"}}murs {{color id=\"65535\"}}ont bien besoin d'être\nrafraîchis. Je vais{{delay frames=\"8\"}} demander un joli\npapier peint à {{color id=\"4\"}}Rodolphe{{color id=\"65535\"}}...",
      "EUit": "{{anim id=\"37\"}}Quest'anno vorrei chiedere a {{color id=\"4\"}}Jingle{{color id=\"65535\"}}\ndi portarmi della {{color id=\"2\"}}carta da parati{{color id=\"65535\"}}.",
      "JPja": "{{anim id=\"1\"}}ちなみに　{{delay frames=\"10\"}}{{ruby charSpan=\"2\" value=\"ことし\"}}今年の{{delay frames=\"5\"}}サンタさんへの\nお{{ruby charSpan=\"1\" value=\"ねが\"}}願いは、{{delay frames=\"10\"}}{{color id=\"2\"}}かべがみ{{color id=\"65535\"}}です",
      "KRko": "{{anim id=\"1\"}}참고로{{delay frames=\"10\"}} 올해의{{delay frames=\"5\"}} 제 소원은{{delay frames=\"10\"}}\n산타 할아버지께 {{color id=\"2\"}}벽지{{color id=\"65535\"}}를 받는 거예요",
      "USen": "{{anim id=\"37\"}}I plan on asking {{color id=\"4\"}}Jingle {{color id=\"65535\"}}for some\npretty {{color id=\"2\"}}{{color id=\"2\"}}wallpaper{{color id=\"2\"}} {{color id=\"65535\"}}this year.",
      "USes": "{{anim id=\"37\"}}Este año he pensado pedirle\na {{color id=\"4\"}}Renato {{color id=\"65535\"}}{{color id=\"2\"}}papel de pared{{color id=\"65535\"}}.",
      "USfr": "{{anim id=\"37\"}}Mes {{color id=\"2\"}}murs {{color id=\"65535\"}}ont bien besoin d'être\nrafraîchis. Je vais{{delay frames=\"8\"}} demander un joli\npapier-peint à {{color id=\"4\"}}Rodolphe{{color id=\"65535\"}}..."
    }
  },
  {
    "label": "024",
    "locale": {
      "EUde": "{{anim id=\"37\"}}Dieses Jahr will ich was ganz\nPraktisches haben.{{delay frames=\"20\"}}{{anim id=\"21\"}} Nämlich ein\n{{color id=\"2\"}}Elektrogerät{{color id=\"65535\"}}.",
      "EUen": "{{anim id=\"37\"}}I'm being practical this year.{{delay frames=\"20\"}}{{anim id=\"21\"}}\nI'm asking {{color id=\"4\"}}Jingle {{color id=\"65535\"}}for a useful\n{{color id=\"2\"}}home appliance{{color id=\"65535\"}}.",
      "EUes": "{{anim id=\"37\"}}Este año he pensado pedirle\na {{color id=\"4\"}}Renato {{color id=\"65535\"}}un {{color id=\"2\"}}electrodoméstico{{color id=\"65535\"}}.",
      "EUfr": "{{anim id=\"37\"}}Cette année, {{delay frames=\"8\"}}je vais privilégier les\ncadeaux utiles. {{delay frames=\"20\"}}{{anim id=\"21\"}}J'ai demandé un bon\n{{color id=\"2\"}}appareil ménager {{color id=\"65535\"}}à {{color id=\"4\"}}Rodolphe{{color id=\"65535\"}}.",
      "EUit": "{{anim id=\"37\"}}Quest'anno vorrei dei regali utili.{{delay frames=\"20\"}}{{anim id=\"21\"}}\nChiederò a {{color id=\"4\"}}Jingle\n{{color id=\"65535\"}}un bell'{{color id=\"2\"}}elettrodomestico{{color id=\"65535\"}}.",
      "JPja": "{{anim id=\"1\"}}ちなみに　わたしは{{ruby charSpan=\"2\" value=\"ことし\"}}今年、{{delay frames=\"10\"}}\nサンタさんに　{{delay frames=\"10\"}}すてきな{{color id=\"2\"}}{{ruby charSpan=\"2\" value=\"かでん\"}}家電{{color id=\"65535\"}}を\n{{ruby charSpan=\"1\" value=\"たの\"}}頼むつもりです",
      "KRko": "{{anim id=\"1\"}}참고로 저는 올해{{delay frames=\"10\"}}\n산타 할아버지한테{{delay frames=\"10\"}} 멋진 {{color id=\"2\"}}가전제품{{color id=\"65535\"}}을\n부탁하려고 해요",
      "USen": "{{anim id=\"37\"}}I'm being practical this year.{{delay frames=\"20\"}}{{anim id=\"21\"}}\nI'm asking {{color id=\"4\"}}Jingle {{color id=\"65535\"}}for a useful\n{{color id=\"2\"}}home appliance{{color id=\"65535\"}}.",
      "USes": "{{anim id=\"37\"}}Este año he pensado pedirle\na {{color id=\"4\"}}Renato {{color id=\"65535\"}}un {{color id=\"2\"}}electrodoméstico{{color id=\"65535\"}}.",
      "USfr": "{{anim id=\"37\"}}Cette année, {{delay frames=\"8\"}}je vais privilégier les\ncadeaux utiles. {{delay frames=\"20\"}}{{anim id=\"21\"}}J'ai demandé un bon\n{{color id=\"2\"}}appareil ménager {{color id=\"65535\"}}à {{color id=\"4\"}}Rodolphe{{color id=\"65535\"}}."
    }
  },
  {
    "label": "025",
    "locale": {
      "EUde": "{{anim id=\"1\"}}Ich wünsche mir von {{color id=\"4\"}}Chris {{color id=\"65535\"}}dieses\nJahr ein {{color id=\"2\"}}Musikinstrument{{color id=\"65535\"}}.{{delay frames=\"20\"}} Ich würde\ngern mal in einem Orchester spielen.",
      "EUen": "{{anim id=\"1\"}}I plan on asking {{color id=\"4\"}}Jingle {{color id=\"65535\"}}for a\n{{color id=\"2\"}}musical instrument{{color id=\"65535\"}}.{{delay frames=\"20\"}} I want to play\nin an orchestra or band someday!",
      "EUes": "{{anim id=\"37\"}}Este año he pensado pedirle\na {{color id=\"4\"}}Renato {{color id=\"65535\"}}un {{color id=\"2\"}}instrumento musical{{color id=\"65535\"}}.",
      "EUfr": "{{anim id=\"1\"}}Je suis d'humeur artistique ces\nderniers temps.{{delay frames=\"20\"}} J'ai demandé un\n{{color id=\"2\"}}instrument de musique{{color id=\"65535\"}} à {{color id=\"4\"}}Rodolphe{{color id=\"65535\"}}.",
      "EUit": "{{anim id=\"1\"}}Vorrei che {{color id=\"4\"}}Jingle {{color id=\"65535\"}}mi regalasse\nuno {{color id=\"2\"}}strumento musicale{{color id=\"65535\"}}.{{delay frames=\"20\"}} Mi\npiacerebbe suonare in un gruppo!",
      "JPja": "{{anim id=\"1\"}}ちなみに　わたしは{{ruby charSpan=\"2\" value=\"ことし\"}}今年、{{delay frames=\"10\"}}\nサンタさんに　{{delay frames=\"10\"}}{{color id=\"2\"}}{{ruby charSpan=\"2\" value=\"がっき\"}}楽器{{color id=\"65535\"}}が{{ruby charSpan=\"1\" value=\"ほ\"}}欲しいって\nお{{ruby charSpan=\"1\" value=\"ねが\"}}願いする{{ruby charSpan=\"2\" value=\"よてい\"}}予定です",
      "KRko": "{{anim id=\"1\"}}참고로 이번에 저는{{delay frames=\"10\"}}\n{{color id=\"2\"}}악기{{color id=\"65535\"}}를 받게 해달라고\n산타 할아버지에게 말할 거예요",
      "USen": "{{anim id=\"1\"}}I plan on asking {{color id=\"4\"}}Jingle {{color id=\"65535\"}}for a\n{{color id=\"2\"}}musical instrument{{color id=\"65535\"}}.{{delay frames=\"20\"}} I want to play\nin an orchestra or band someday!",
      "USes": "{{anim id=\"37\"}}Este año he pensado pedirle\na {{color id=\"4\"}}Renato {{color id=\"65535\"}}un {{color id=\"2\"}}instrumento musical{{color id=\"65535\"}}.",
      "USfr": "{{anim id=\"1\"}}Je suis d'humeur artistique ces\nderniers temps.{{delay frames=\"20\"}} J'ai demandé un\n{{color id=\"2\"}}instrument de musique{{color id=\"65535\"}} à {{color id=\"4\"}}Rodolphe{{color id=\"65535\"}}."
    }
  },
  {
    "label": "026",
    "locale": {
      "EUde": "{{anim id=\"37\"}}Ich glaube, ich sage {{color id=\"4\"}}Chris{{color id=\"65535\"}}, dass ich\nin diesem Jahr gerne eine {{color id=\"2\"}}Pflanze\n{{color id=\"65535\"}}hätte.{{delay frames=\"20\"}} Für besseres Raumklima!",
      "EUen": "{{anim id=\"37\"}}I plan on asking {{color id=\"4\"}}Jingle {{color id=\"65535\"}}for some\n{{color id=\"2\"}}plants{{color id=\"65535\"}} this year.{{delay frames=\"20\"}} I want to learn\nmore about them.",
      "EUes": "{{anim id=\"37\"}}Este año he pensado pedirle\na {{color id=\"4\"}}Renato {{color id=\"65535\"}}una {{color id=\"2\"}}planta{{color id=\"65535\"}} porque\nquiero aprender más sobre ellas.",
      "EUfr": "{{anim id=\"37\"}}J'ai demandé des {{color id=\"2\"}}plantes {{color id=\"65535\"}}à\n{{color id=\"4\"}}Rodolphe{{color id=\"65535\"}} :{{delay frames=\"8\"}} l'année à venir sera\nhorticole ou ne sera pas !",
      "EUit": "{{anim id=\"37\"}}Vorrei che {{color id=\"4\"}}Jingle {{color id=\"65535\"}}mi regalasse\nuna {{color id=\"2\"}}pianta{{color id=\"65535\"}}.{{delay frames=\"20\"}} Vorrei capire se ho\nil pollice verde oppure no...",
      "JPja": "{{anim id=\"1\"}}ちなみに　わたしは{{ruby charSpan=\"2\" value=\"ことし\"}}今年、{{delay frames=\"10\"}}\nサンタさんに　{{delay frames=\"10\"}}{{color id=\"2\"}}{{ruby charSpan=\"2\" value=\"しょくぶつ\"}}植物{{color id=\"65535\"}}が{{ruby charSpan=\"1\" value=\"ほ\"}}欲しいって{{delay frames=\"8\"}}\nお{{ruby charSpan=\"1\" value=\"ねが\"}}願いしようと　{{ruby charSpan=\"1\" value=\"おも\"}}思ってるんです",
      "KRko": "{{anim id=\"1\"}}아, 전 올해도 소원을 빌었어요!{{delay frames=\"10\"}}\n이번에는 산타 할아버지께{{delay frames=\"8\"}}\n{{color id=\"2\"}}식물{{color id=\"65535\"}}을 선물받게 해달라구요",
      "USen": "{{anim id=\"37\"}}I plan on asking {{color id=\"4\"}}Jingle {{color id=\"65535\"}}for some\n{{color id=\"2\"}}plants{{color id=\"65535\"}} this year.{{delay frames=\"20\"}} I want to learn\nmore about them.",
      "USes": "{{anim id=\"37\"}}Este año he pensado pedirle\na {{color id=\"4\"}}Renato {{color id=\"65535\"}}una {{color id=\"2\"}}planta{{color id=\"65535\"}} porque\nquiero aprender más sobre ellas.",
      "USfr": "{{anim id=\"37\"}}J'ai demandé des {{color id=\"2\"}}plantes {{color id=\"65535\"}}à\n{{color id=\"4\"}}Rodolphe{{color id=\"65535\"}} :{{delay frames=\"8\"}} l'année à venir sera\nhorticole ou ne sera pas!"
    }
  },
  {
    "label": "027",
    "locale": {
      "EUde": "{{anim id=\"1\"}}Ich hätte von {{color id=\"4\"}}Chris {{color id=\"65535\"}}dieses Jahr gern\n{{color id=\"2\"}}Kleidung{{color id=\"65535\"}}.{{delay frames=\"20\"}} Frischen Wind für meinen\nKleiderschrank!",
      "EUen": "{{anim id=\"1\"}}I plan on asking {{color id=\"4\"}}Jingle {{color id=\"65535\"}}for {{color id=\"2\"}}clothing{{color id=\"65535\"}}.{{delay frames=\"20\"}}\nSomething to freshen up my look.",
      "EUes": "{{anim id=\"37\"}}Este año he pensado pedirle\na {{color id=\"4\"}}Renato{{color id=\"65535\"}} algo de {{color id=\"2\"}}ropa{{color id=\"65535\"}}.",
      "EUfr": "{{anim id=\"1\"}}J'ai demandé des {{color id=\"2\"}}vêtements {{color id=\"65535\"}}à\n{{color id=\"4\"}}Rodolphe{{color id=\"65535\"}} :{{delay frames=\"8\"}} qui dit « nouvelle\nannée » dit « nouveau look » !",
      "EUit": "{{anim id=\"1\"}}Vorrei che {{color id=\"4\"}}Jingle {{color id=\"65535\"}}mi regalasse\ndei {{color id=\"2\"}}vestiti{{color id=\"65535\"}}.{{delay frames=\"20\"}} Un cambio di look è\nquello che ci vuole, a volte.",
      "JPja": "{{anim id=\"1\"}}ちなみに　{{ruby charSpan=\"2\" value=\"ことし\"}}今年のお{{ruby charSpan=\"1\" value=\"ねが\"}}願いは、{{delay frames=\"10\"}}\nサンタさんに　{{delay frames=\"8\"}}{{color id=\"2\"}}{{ruby charSpan=\"1\" value=\"ふく\"}}服{{color id=\"65535\"}}が{{ruby charSpan=\"1\" value=\"ほ\"}}欲しいって\nたのむつもりです",
      "KRko": "{{anim id=\"1\"}}아, 전 올해도 소원을 빌었어요!{{delay frames=\"10\"}}\n이번에는 산타 할아버지께{{delay frames=\"8\"}}\n{{color id=\"2\"}}옷{{color id=\"65535\"}}을 선물받게 해달라구요",
      "USen": "{{anim id=\"1\"}}I plan on asking {{color id=\"4\"}}Jingle {{color id=\"65535\"}}for {{color id=\"2\"}}clothing{{color id=\"65535\"}}.{{delay frames=\"20\"}}\nSomething to freshen up my look.",
      "USes": "{{anim id=\"37\"}}Este año he pensado pedirle\na {{color id=\"4\"}}Renato{{color id=\"65535\"}} algo de {{color id=\"2\"}}ropa{{color id=\"65535\"}}.",
      "USfr": "{{anim id=\"1\"}}J'ai demandé des {{color id=\"2\"}}vêtements {{color id=\"65535\"}}à\n{{color id=\"4\"}}Rodolphe{{color id=\"65535\"}} :{{delay frames=\"8\"}} qui dit « nouvelle\nannée » dit « nouveau look »!"
    }
  },
  {
    "label": "028",
    "locale": {
      "EUde": "{{anim id=\"37\"}}Hoffentlich bekomme ich von {{color id=\"4\"}}Chris{{color id=\"65535\"}}\neine {{color id=\"2\"}}Puppe{{color id=\"65535\"}}.{{delay frames=\"20\"}}{{anim id=\"1\"}} Am besten eine mit\nschönen Haaren!",
      "EUen": "{{anim id=\"37\"}}I really hope {{color id=\"4\"}}Jingle {{color id=\"65535\"}}brings me a {{color id=\"2\"}}doll{{color id=\"65535\"}}.{{delay frames=\"20\"}}\nOne with pretty hair!",
      "EUes": "{{anim id=\"37\"}}Ay, {{delay frames=\"10\"}}espero que {{color id=\"4\"}}Renato {{color id=\"65535\"}}me traiga\nuna {{color id=\"2\"}}muñeca{{color id=\"65535\"}} con el pelo bien bonito.",
      "EUfr": "{{anim id=\"37\"}}Je compte sur {{color id=\"4\"}}Rodolphe {{color id=\"65535\"}}pour\nm'apporter une {{color id=\"2\"}}poupée{{color id=\"65535\"}}. Avec de\nbeaux cheveux, bien sûr !",
      "EUit": "{{anim id=\"37\"}}Spero che quest'anno {{color id=\"4\"}}Jingle{{color id=\"65535\"}}{{color id=\"4\"}}\n{{color id=\"65535\"}}mi porti una {{color id=\"2\"}}bambola{{color id=\"65535\"}}.{{delay frames=\"20\"}} {{anim id=\"39\"}}Magari\nuna con i capelli lunghissimissimi!",
      "JPja": "{{anim id=\"1\"}}ちなみに　わたしは{{ruby charSpan=\"2\" value=\"ことし\"}}今年、{{delay frames=\"10\"}}\nサンタさんに　{{delay frames=\"10\"}}{{color id=\"2\"}}{{ruby charSpan=\"2\" value=\"にんぎょう\"}}人形{{color id=\"65535\"}}が{{ruby charSpan=\"1\" value=\"ほ\"}}欲しいって\nお{{ruby charSpan=\"1\" value=\"ねが\"}}願いするんですよ、{{delay frames=\"15\"}}{{fun_00070005 arg=\"\"}}",
      "KRko": "{{anim id=\"1\"}}저는요, 올해에는{{delay frames=\"10\"}}\n산타 할아버지께 {{delay frames=\"10\"}}{{color id=\"2\"}}인형{{color id=\"65535\"}}을 받고 싶다고\n부탁할 거예요! {{delay frames=\"15\"}}{{fun_00070005 arg=\"\"}}!",
      "USen": "{{anim id=\"37\"}}I really hope {{color id=\"4\"}}Jingle {{color id=\"65535\"}}brings me a {{color id=\"2\"}}doll{{color id=\"65535\"}}.{{delay frames=\"20\"}}\nOne with pretty hair!",
      "USes": "{{anim id=\"37\"}}Ay, {{delay frames=\"10\"}}espero que {{color id=\"4\"}}Renato {{color id=\"65535\"}}me traiga\nuna {{color id=\"2\"}}muñeca{{color id=\"65535\"}} con el pelo bien bonito.",
      "USfr": "{{anim id=\"37\"}}Je compte sur {{color id=\"4\"}}Rodolphe {{color id=\"65535\"}}pour\nm'apporter une {{color id=\"2\"}}poupée{{color id=\"65535\"}}. Avec de\nbeaux cheveux, bien sûr!"
    }
  },
  {
    "label": "029",
    "locale": {
      "EUde": "{{anim id=\"37\"}}Ich hoffe, {{color id=\"4\"}}Chris {{color id=\"65535\"}}bringt mir dieses\nJahr {{color id=\"2\"}}Spielzeug{{color id=\"65535\"}}.{{delay frames=\"20\"}}{{anim id=\"39\"}} Dafür ist der\n{{color id=\"2\"}}Spielzeugtag {{color id=\"65535\"}}schließlich gedacht!",
      "EUen": "{{anim id=\"37\"}}I just hope {{color id=\"4\"}}Jingle {{color id=\"65535\"}}brings me some\nkind of {{color id=\"2\"}}toy{{color id=\"65535\"}}.{{delay frames=\"20\"}}{{anim id=\"39\"}} I like traditional gifts.",
      "EUes": "{{anim id=\"37\"}}Ay, {{delay frames=\"10\"}}espero que {{color id=\"4\"}}Renato {{color id=\"65535\"}}me traiga\nalgún {{color id=\"2\"}}juguete{{color id=\"65535\"}}. {{delay frames=\"20\"}}Los regalos\ntradicionales son los mejores, {{delay frames=\"10\"}}¿eh?",
      "EUfr": "{{anim id=\"37\"}}J'espère que {{color id=\"4\"}}Rodolphe {{color id=\"65535\"}}va\nm'apporter un {{color id=\"2\"}}jouet{{color id=\"65535\"}}. {{delay frames=\"20\"}}{{anim id=\"39\"}}Ça n'est pas\ntrès original, c'est vrai...\n{{anim id=\"21\"}}... mais c'est dans les vieux paquets\nqu'on fait les meilleurs cadeaux !",
      "EUit": "{{anim id=\"37\"}}Spero proprio che {{color id=\"4\"}}Jingle{{color id=\"65535\"}}\nmi porti un {{color id=\"2\"}}giocattolo{{color id=\"65535\"}}.{{delay frames=\"20\"}} Mi sento\nmooolto tradizionale ultimamente.",
      "JPja": "{{anim id=\"1\"}}ちなみに　わたしは{{ruby charSpan=\"2\" value=\"ことし\"}}今年、{{delay frames=\"10\"}}\nサンタさんに　{{delay frames=\"10\"}}{{color id=\"2\"}}おもちゃ{{color id=\"65535\"}}が{{ruby charSpan=\"1\" value=\"ほ\"}}欲しいって\nお{{ruby charSpan=\"1\" value=\"ねが\"}}願いしたいんです",
      "KRko": "{{anim id=\"1\"}}참고로 저는 올해{{delay frames=\"10\"}}\n산타 할아버지께{{delay frames=\"10\"}} {{color id=\"2\"}}장난감{{color id=\"65535\"}}을 달라고\n부탁하고 싶어요",
      "USen": "{{anim id=\"37\"}}I just hope {{color id=\"4\"}}Jingle {{color id=\"65535\"}}brings me some\nkind of {{color id=\"2\"}}toy{{color id=\"65535\"}}.{{delay frames=\"20\"}}{{anim id=\"39\"}} I like traditional gifts.",
      "USes": "{{anim id=\"37\"}}Ay, {{delay frames=\"10\"}}espero que {{color id=\"4\"}}Renato {{color id=\"65535\"}}me traiga\nalgún {{color id=\"2\"}}juguete{{color id=\"65535\"}}. {{delay frames=\"20\"}}Los regalos\ntradicionales son los mejores, {{delay frames=\"10\"}}¿eh?",
      "USfr": "{{anim id=\"37\"}}J'espère que {{color id=\"4\"}}Rodolphe {{color id=\"65535\"}}va\nm'apporter une {{color id=\"2\"}}poupée{{color id=\"65535\"}}. {{delay frames=\"20\"}}{{anim id=\"39\"}}Ça n'est\npas très original, c'est vrai...\n{{anim id=\"21\"}}... mais c'est dans les vieux paquets\nqu'on fait les meilleurs cadeaux!"
    }
  },
  {
    "label": "030",
    "locale": {
      "EUde": "{{anim id=\"37\"}}Ich wünsche mir von {{color id=\"4\"}}Chris {{color id=\"65535\"}}dieses\nJahr {{color id=\"2\"}}was zu essen{{color id=\"65535\"}}.{{delay frames=\"30\"}} Dann gebe\nich es jemandem, der Hunger hat!",
      "EUen": "{{anim id=\"37\"}}I plan on asking {{color id=\"4\"}}Jingle {{color id=\"65535\"}}for {{color id=\"2\"}}food {{color id=\"65535\"}}this\nyear.{{fun_00010007 arg=\"\"}} I'd like to give it to people\nwho need it.",
      "EUes": "{{anim id=\"37\"}}Este año he pensado pedirle\na {{color id=\"4\"}}Renato {{color id=\"65535\"}}{{color id=\"2\"}}comida{{color id=\"65535\"}} para dársela\na quien la necesite.",
      "EUfr": "{{anim id=\"37\"}}Cette année, je voudrais que\n{{color id=\"4\"}}Rodolphe{{color id=\"65535\"}} m'apporte {{color id=\"2\"}}à manger{{color id=\"65535\"}}. {{delay frames=\"16\"}}\nMiam, j'ai faim rien que d'y penser !",
      "EUit": "{{anim id=\"37\"}}Quest'anno vorrei che {{color id=\"4\"}}Jingle{{color id=\"65535\"}}\nmi portasse {{color id=\"2\"}}qualcosa da mangiare{{color id=\"65535\"}}...{{fun_00010007 arg=\"\"}}\nper darlo a chi ne ha bisogno.",
      "JPja": "{{anim id=\"1\"}}ちなみに　わたしは{{ruby charSpan=\"2\" value=\"ことし\"}}今年、{{delay frames=\"10\"}}\nサンタさんに　{{delay frames=\"15\"}}{{color id=\"2\"}}{{ruby charSpan=\"1\" value=\"た\"}}食べ{{ruby charSpan=\"1\" value=\"もの\"}}物{{color id=\"65535\"}}が{{ruby charSpan=\"1\" value=\"ほ\"}}欲しいって\n{{ruby charSpan=\"1\" value=\"たの\"}}頼むんですよ",
      "KRko": "{{anim id=\"1\"}}아, 저의 이번 소원은요{{delay frames=\"10\"}}\n산타 할아버지께 {{delay frames=\"15\"}}{{color id=\"2\"}}음식{{color id=\"65535\"}}을\n선물받는 거예요",
      "USen": "{{anim id=\"37\"}}I plan on asking {{color id=\"4\"}}Jingle {{color id=\"65535\"}}for {{color id=\"2\"}}food {{color id=\"65535\"}}this\nyear.{{fun_00010007 arg=\"\"}} I'd like to give it to people\nwho need it.",
      "USes": "{{anim id=\"37\"}}Este año he pensado pedirle\na {{color id=\"4\"}}Renato {{color id=\"65535\"}}{{color id=\"2\"}}comida{{color id=\"65535\"}} para dársela\na quien la necesite.",
      "USfr": "{{anim id=\"37\"}}Cette année, je voudrais que\n{{color id=\"4\"}}Rodolphe{{color id=\"65535\"}} m'apporte {{color id=\"2\"}}à manger{{color id=\"65535\"}}. {{delay frames=\"16\"}}\nMiam, j'ai faim rien que d'y penser!"
    }
  },
  {
    "label": "031",
    "locale": {
      "EUde": "{{anim id=\"37\"}}Ich hätte von {{color id=\"4\"}}Chris {{color id=\"65535\"}}gerne eine\n{{color id=\"2\"}}Lampe{{color id=\"65535\"}}.{{delay frames=\"20\"}} Etwas Erhellendes, hihi.{{delay frames=\"20\"}}",
      "EUen": "{{anim id=\"37\"}}I plan on asking {{color id=\"4\"}}Jingle {{color id=\"65535\"}}for a nice\n{{color id=\"2\"}}lamp {{color id=\"65535\"}}this year.",
      "EUes": "{{anim id=\"37\"}}Este año he pensado pedirle\na {{color id=\"4\"}}Renato {{color id=\"65535\"}}una {{color id=\"2\"}}lámpara{{color id=\"65535\"}}.",
      "EUfr": "{{anim id=\"37\"}}Je vais demander une {{color id=\"2\"}}lampe{{color id=\"65535\"}} à\n{{color id=\"4\"}}Rodolphe{{color id=\"65535\"}}.",
      "EUit": "{{anim id=\"37\"}}Vorrei che {{color id=\"4\"}}Jingle {{color id=\"65535\"}}mi regalasse\nuna {{color id=\"2\"}}lampada{{color id=\"65535\"}} quest'anno.",
      "JPja": "{{anim id=\"1\"}}ちなみに　わたしは{{ruby charSpan=\"2\" value=\"ことし\"}}今年、{{delay frames=\"10\"}}\nサンタさんに　{{delay frames=\"10\"}}{{color id=\"2\"}}ランプ{{color id=\"65535\"}}が{{ruby charSpan=\"1\" value=\"ほ\"}}欲しいって\nお{{ruby charSpan=\"1\" value=\"ねが\"}}願いしようと{{ruby charSpan=\"1\" value=\"おも\"}}思います",
      "KRko": "{{anim id=\"1\"}}참고로 올해 저는{{delay frames=\"10\"}}\n산타 할아버지한테{{delay frames=\"10\"}} {{color id=\"2\"}}램프{{color id=\"65535\"}}를\n갖고 싶다고 할 거예요",
      "USen": "{{anim id=\"37\"}}I plan on asking {{color id=\"4\"}}Jingle {{color id=\"65535\"}}for a nice\n{{color id=\"2\"}}lamp {{color id=\"65535\"}}this year.",
      "USes": "{{anim id=\"37\"}}Este año he pensado pedirle\na {{color id=\"4\"}}Renato {{color id=\"65535\"}}una {{color id=\"2\"}}lámpara{{color id=\"65535\"}}.",
      "USfr": "{{anim id=\"37\"}}Je vais demander une {{color id=\"2\"}}lampe{{color id=\"65535\"}} à\n{{color id=\"4\"}}Rodolphe{{color id=\"65535\"}}."
    }
  },
  {
    "label": "032",
    "locale": {
      "EUde": "{{anim id=\"37\"}}Am liebsten hätte ich von {{color id=\"4\"}}Chris{{color id=\"65535\"}}\ndieses Jahr einen {{color id=\"2\"}}Regenschirm{{color id=\"65535\"}}.",
      "EUen": "{{anim id=\"37\"}}I plan on asking {{color id=\"4\"}}Jingle {{color id=\"65535\"}}for a cute\n{{color id=\"2\"}}umbrella {{color id=\"65535\"}}this year.",
      "EUes": "{{anim id=\"37\"}}Este año he pensado pedirle\na {{color id=\"4\"}}Renato {{color id=\"65535\"}}un {{color id=\"2\"}}paraguas{{color id=\"65535\"}}.",
      "EUfr": "{{anim id=\"37\"}}Pour le {{color id=\"2\"}}jour des cadeaux{{color id=\"65535\"}}, je vais\ndemander un {{color id=\"2\"}}parapluie {{color id=\"65535\"}}à {{color id=\"4\"}}Rodolphe{{color id=\"65535\"}}.",
      "EUit": "{{anim id=\"37\"}}Vorrei che {{color id=\"4\"}}Jingle {{color id=\"65535\"}}quest'anno\nmi regalasse un {{color id=\"2\"}}ombrello{{color id=\"65535\"}}.",
      "JPja": "{{anim id=\"1\"}}ちなみに　わたしは{{ruby charSpan=\"2\" value=\"ことし\"}}今年、{{delay frames=\"10\"}}\nサンタさんに　{{delay frames=\"10\"}}{{color id=\"2\"}}かさ{{color id=\"65535\"}}が{{ruby charSpan=\"1\" value=\"ほ\"}}欲しいって\nお{{ruby charSpan=\"1\" value=\"ねが\"}}願いするんです",
      "KRko": "{{anim id=\"1\"}}참고로 저는 올해{{delay frames=\"10\"}}\n산타 할아버지께 {{delay frames=\"10\"}}{{color id=\"2\"}}우산{{color id=\"65535\"}}을 달라고\n소원을 빌 거예요",
      "USen": "{{anim id=\"37\"}}I plan on asking {{color id=\"4\"}}Jingle {{color id=\"65535\"}}for a cute\n{{color id=\"2\"}}umbrella {{color id=\"65535\"}}this year.",
      "USes": "{{anim id=\"37\"}}Este año he pensado pedirle\na {{color id=\"4\"}}Renato {{color id=\"65535\"}}un {{color id=\"2\"}}paraguas{{color id=\"65535\"}}.",
      "USfr": "{{anim id=\"37\"}}Pour le {{color id=\"2\"}}jour des cadeaux{{color id=\"65535\"}}, je vais\ndemander un {{color id=\"2\"}}parapluie {{color id=\"65535\"}}à {{color id=\"4\"}}Rodolphe{{color id=\"65535\"}}."
    }
  },
  {
    "label": "033",
    "locale": {
      "EUde": "",
      "EUen": "",
      "EUes": "",
      "EUfr": "",
      "EUit": "",
      "JPja": "",
      "KRko": "",
      "USen": "",
      "USes": "",
      "USfr": ""
    }
  },
  {
    "label": "034",
    "locale": {
      "EUde": "",
      "EUen": "",
      "EUes": "",
      "EUfr": "",
      "EUit": "",
      "JPja": "",
      "KRko": "",
      "USen": "",
      "USes": "",
      "USfr": ""
    }
  },
  {
    "label": "035",
    "locale": {
      "EUde": "",
      "EUen": "",
      "EUes": "",
      "EUfr": "",
      "EUit": "",
      "JPja": "",
      "KRko": "",
      "USen": "",
      "USes": "",
      "USfr": ""
    }
  },
  {
    "label": "036",
    "locale": {
      "EUde": "",
      "EUen": "",
      "EUes": "",
      "EUfr": "",
      "EUit": "",
      "JPja": "",
      "KRko": "",
      "USen": "",
      "USes": "",
      "USfr": ""
    }
  },
  {
    "label": "037",
    "locale": {
      "EUde": "{{anim id=\"37\"}}Eigentlich ist mir egal, was ich in\ndiesem Jahr geschenkt bekomme,\nsolange es {{color id=\"2\"}}{{fun_00020012 arg=\"\"}} {{color id=\"65535\"}}ist.",
      "EUen": "{{anim id=\"37\"}}I've given it a lot of thought.{{delay frames=\"20\"}} For\nthis year's {{color id=\"2\"}}Toy Day{{color id=\"65535\"}},{{delay frames=\"8\"}} I'd really like\nsomething {{color id=\"2\"}}{{fun_00020012 arg=\"\"}}{{color id=\"65535\"}}.",
      "EUes": "{{anim id=\"37\"}}Este año, me haría mucha ilusión\nrecibir algo {{color id=\"2\"}}{{fun_00020012 arg=\"\"}}{{color id=\"65535\"}} de regalo.",
      "EUfr": "{{anim id=\"37\"}}Tiens, au fait ! Cette année, pour le\n{{color id=\"2\"}}jour des cadeaux{{color id=\"65535\"}}, j'aimerais bien\nquelque chose {{fun_000A000E arg=\"0x0600640065002000040064002700\"}}{{color id=\"2\"}}{{fun_00020012 arg=\"\"}}{{color id=\"65535\"}}.",
      "EUit": "{{anim id=\"37\"}}Quest'anno, per il {{color id=\"2\"}}Giorno\ndei giocattoli{{color id=\"65535\"}}, vorrei qualcosa\ndi {{color id=\"2\"}}{{fun_00020012 arg=\"\"}}{{color id=\"65535\"}}.",
      "JPja": "{{anim id=\"1\"}}そうそう、{{delay frames=\"20\"}}{{ruby charSpan=\"2\" value=\"ことし\"}}今年のプレゼントは{{delay frames=\"10\"}}\n{{ruby charSpan=\"1\" value=\"いろ\"}}色でいうと{{delay frames=\"10\"}}　{{color id=\"2\"}}{{fun_00020012 arg=\"\"}}{{color id=\"65535\"}}のが\n{{ruby charSpan=\"1\" value=\"ほ\"}}欲しいんです！",
      "KRko": "{{anim id=\"1\"}}맞다,{{delay frames=\"20\"}} 올해의 선물은{{delay frames=\"10\"}}\n색깔로 말하자면{{delay frames=\"10\"}}\n{{color id=\"2\"}}{{fun_00020012 arg=\"\"}}{{color id=\"65535\"}} 물건을 갖고 싶어요!",
      "USen": "{{anim id=\"37\"}}I've given it a lot of thought.{{delay frames=\"20\"}} For\nthis year's {{color id=\"2\"}}Toy Day{{color id=\"65535\"}},{{delay frames=\"8\"}} I'd really like\nsomething {{color id=\"2\"}}{{fun_00020012 arg=\"\"}}{{color id=\"65535\"}}.",
      "USes": "{{anim id=\"37\"}}Este año, me haría mucha ilusión\nrecibir algo {{color id=\"2\"}}{{fun_00020012 arg=\"\"}}{{color id=\"65535\"}} de regalo.",
      "USfr": "{{anim id=\"37\"}}Tiens, au fait! Cette année, pour le\n{{color id=\"2\"}}jour des cadeaux{{color id=\"65535\"}}, j'aimerais bien\nquelque chose {{fun_000A000E arg=\"0x0600640065002000040064002700\"}}{{color id=\"2\"}}{{fun_00020012 arg=\"\"}}{{color id=\"65535\"}}."
    }
  },
  {
    "label": "038",
    "locale": {
      "EUde": "{{anim id=\"37\"}}Die festliche Stimmung macht\nmich immer ganz glückselig.{{delay frames=\"30\"}}\n{{anim id=\"5\"}}Ich könnte vor Freude tanzen, hihi!",
      "EUen": "{{anim id=\"37\"}}Hee hee!{{delay frames=\"8\"}} This time of year{{delay frames=\"8\"}}{{anim id=\"5\"}} makes\nme so happy I could sing!",
      "EUes": "{{anim id=\"37\"}}Tenemos tantas fiestas alegres\nen esta época del año{{delay frames=\"8\"}}.{{delay frames=\"8\"}}.{{delay frames=\"8\"}}.{{fun_00010007 arg=\"\"}}\n{{anim id=\"5\"}}¡Así es normal que esté tan feliz!",
      "EUfr": "{{anim id=\"37\"}}Les jours fériés s'enchaînent en ce\nmoment ! {{fun_00010007 arg=\"\"}}{{anim id=\"5\"}}Ça me rend tellement\njoyeuse que j'ai envie de chanter !",
      "EUit": "{{anim id=\"37\"}}L'atmosfera delle feste mi rende\ncooosì felice,{{delay frames=\"8\"}}{{anim id=\"5\"}} che potrei quasi\nmettermi a chanter!",
      "JPja": "{{anim id=\"1\"}}それにしても、{{delay frames=\"10\"}}\n「クリスマス」って{{ruby charSpan=\"2\" value=\"ことば\"}}言葉に{{ruby charSpan=\"1\" value=\"だ\"}}出すだけで、{{delay frames=\"15\"}}\n{{anim id=\"4\"}}{{ruby charSpan=\"1\" value=\"しあわ\"}}幸せな{{ruby charSpan=\"2\" value=\"きぶん\"}}気分になってしまいます",
      "KRko": "{{anim id=\"1\"}}그나저나{{delay frames=\"10\"}}\n「크리스마스」라는 말만 들어도{{delay frames=\"15\"}}\n{{anim id=\"4\"}}행복해지는 것 같지 않나요?",
      "USen": "{{anim id=\"37\"}}Hee hee!{{delay frames=\"8\"}} This time of year{{delay frames=\"8\"}}{{anim id=\"5\"}} makes\nme so happy I could sing!",
      "USes": "{{anim id=\"37\"}}Tenemos tantas fiestas alegres\nen esta época del año{{delay frames=\"8\"}}.{{delay frames=\"8\"}}.{{delay frames=\"8\"}}.{{fun_00010007 arg=\"\"}}\n{{anim id=\"5\"}}¡Así es normal que esté tan feliz!",
      "USfr": "{{anim id=\"37\"}}Les jours fériés s'enchaînent en ce\nmoment! {{fun_00010007 arg=\"\"}}{{anim id=\"5\"}}Ça me rend tellement\njoyeuse que j'ai envie de chanter!"
    }
  },
  {
    "label": "039",
    "locale": {
      "EUde": "{{anim id=\"21\"}}Ich wette, alle anderen Nachbarn\nkönnen es auch kaum erwarten, bis\nder Weihnachtsmann kommt!",
      "EUen": "{{anim id=\"21\"}}Everyone in town has been counting\ndown to December 24th!",
      "EUes": "{{anim id=\"21\"}}Estoy convencida de que todos\nlos vecinos están deseando que\nllegue {{color id=\"4\"}}Renato{{color id=\"65535\"}}.",
      "EUfr": "{{anim id=\"21\"}}Toute la ville attend le 24 décembre\navec impatience !",
      "EUit": "{{anim id=\"21\"}}Credo che in città stiano aspettando\ntutti {{color id=\"4\"}}Jingle {{color id=\"65535\"}}con grande trepidazione!",
      "JPja": "{{anim id=\"1\"}}きっと　{{delay frames=\"3\"}}ご{{ruby charSpan=\"2\" value=\"きんじょ\"}}近所のみなさんも{{delay frames=\"15\"}}\nイブが{{ruby charSpan=\"1\" value=\"たの\"}}楽しみで{{delay frames=\"10\"}}\nソワソワしているんじゃないかしら",
      "KRko": "{{anim id=\"1\"}}분명{{delay frames=\"3\"}} 다른 이웃분들도{{delay frames=\"15\"}}\n크리스마스 이브가 기대되어서{{delay frames=\"10\"}}\n다들 들떠 계실 거예요",
      "USen": "{{anim id=\"21\"}}Everyone in town has been counting\ndown to December 24th!",
      "USes": "{{anim id=\"21\"}}Estoy convencida de que todos\nlos vecinos están deseando que\nllegue {{color id=\"4\"}}Renato{{color id=\"65535\"}}.",
      "USfr": "{{anim id=\"21\"}}Toute la ville attend le 24 décembre\navec impatience!"
    }
  },
  {
    "label": "040",
    "locale": {
      "EUde": "{{anim id=\"11\"}}Ich hoffe, der gute alte {{color id=\"4\"}}Chris{{color id=\"65535\"}}\nüberarbeitet sich dieses Jahr\nnicht, hihi!{{anim id=\"0\"}}",
      "EUen": "{{anim id=\"11\"}}We're having a lot of fun preparing\nfor {{color id=\"2\"}}Toy Day{{color id=\"65535\"}},{{delay frames=\"8\"}} but I hope {{color id=\"4\"}}Jingle {{color id=\"65535\"}}isn't\nstressed out from working so much.{{anim id=\"0\"}}",
      "EUes": "{{anim id=\"37\"}}Nosotros nos lo pasamos muy bien\npreparándonos para el Día de los\nJuguetes, {{delay frames=\"10\"}}¿verdad?\n{{anim id=\"11\"}}Ay, {{delay frames=\"10\"}}¿tú crees que {{color id=\"4\"}}Renato {{color id=\"65535\"}}estará\nmuy estresado este año?",
      "EUfr": "{{anim id=\"11\"}}J'adore organiser les préparatifs du\n{{color id=\"2\"}}jour des cadeaux{{color id=\"65535\"}} !{{delay frames=\"8\"}} C'est un peu\ncomme si c'était déjà la fête !\nMais {{color id=\"4\"}}Rodolphe{{color id=\"65535\"}} ne doit pas chômer\nces jours-ci...{{delay frames=\"8\"}} J'espère qu'il n'est\npas surmené.",
      "EUit": "{{anim id=\"11\"}}Il {{color id=\"2\"}}Giorno dei giocattoli{{color id=\"65535\"}} porta tanta\nallegria, ma spero che {{color id=\"4\"}}Jingle{{color id=\"65535\"}}\nnon si stressi troppo!{{anim id=\"0\"}}",
      "JPja": "{{anim id=\"0\"}}それにしても、{{delay frames=\"10\"}}わたしたちは　{{delay frames=\"10\"}}\nクリスマスに{{ruby charSpan=\"1\" value=\"む\"}}向けて　{{delay frames=\"5\"}}{{ruby charSpan=\"1\" value=\"う\"}}浮かれてますけど{{delay frames=\"15\"}}\n{{anim id=\"36\"}}サンタさんは　{{delay frames=\"10\"}}{{ruby charSpan=\"2\" value=\"いまごろ\"}}今頃　{{ruby charSpan=\"2\" value=\"おおいそが\"}}大忙しでしょうね！{{delay frames=\"40\"}}{{anim id=\"0\"}}",
      "KRko": "{{anim id=\"0\"}}근데{{delay frames=\"10\"}} 우리가 이렇게{{delay frames=\"10\"}}\n크리스마스 분위기에{{delay frames=\"5\"}} 들떠 있는 동안{{delay frames=\"15\"}}\n{{anim id=\"36\"}}산타 할아버지는{{delay frames=\"10\"}} 무척 바쁘시겠네요!{{delay frames=\"40\"}}{{anim id=\"0\"}}",
      "USen": "{{anim id=\"11\"}}We're having a lot of fun preparing\nfor {{color id=\"2\"}}Toy Day{{color id=\"65535\"}},{{delay frames=\"8\"}} but I hope {{color id=\"4\"}}Jingle {{color id=\"65535\"}}isn't\nstressed out from working so much.{{anim id=\"0\"}}",
      "USes": "{{anim id=\"37\"}}Nosotros nos lo pasamos muy bien\npreparándonos para el Día de los\nJuguetes, {{delay frames=\"10\"}}¿verdad?\n{{anim id=\"11\"}}Ay, {{delay frames=\"10\"}}¿tú crees que {{color id=\"4\"}}Renato {{color id=\"65535\"}}estará\nmuy estresado este año?",
      "USfr": "{{anim id=\"11\"}}J'adore organiser les préparatifs du\n{{color id=\"2\"}}jour des cadeaux{{color id=\"65535\"}}!{{delay frames=\"8\"}} C'est un peu\ncomme si c'était déjà la fête!\nMais {{color id=\"4\"}}Rodolphe{{color id=\"65535\"}} ne doit pas chômer\nces jours-ci...{{delay frames=\"8\"}} J'espère qu'il n'est\npas surmené."
    }
  }
]