﻿[
  {
    "label": "001",
    "locale": {
      "EUde": "{{anim id=\"37\"}}Vergiss nicht, das Geschenk zu\n{{fun_00010011 arg=\"0x0000\"}} zu bringen.{{pageBreak}}Bestimmt freut {{fun_0007000E arg=\"0x0400650072000600730069006500\"}} sich!{{anim id=\"38\"}}",
      "EUen": "{{anim id=\"37\"}}Please don't forget about taking\nthat present to {{fun_00010011 arg=\"0x0000\"}}.{{fun_00010007 arg=\"\"}} I'm sure\n{{fun_0008000E arg=\"0x00CD04006800650006007300680065000000\"}}'ll love it!{{anim id=\"38\"}}",
      "EUes": "{{anim id=\"37\"}}No te olvides de llevar este paquete\na {{fun_00010011 arg=\"0x0000\"}}.{{fun_00010007 arg=\"\"}} ¡Seguro que le va\na encantar!{{anim id=\"38\"}}",
      "EUfr": "{{anim id=\"37\"}}N'oublie pas d'apporter ce cadeau\nà {{fun_00010011 arg=\"0x0000\"}} !{{fun_00010007 arg=\"\"}} C'est si simple de\nfaire plaisir !{{anim id=\"38\"}}",
      "EUit": "{{anim id=\"37\"}}Non dimenticare di portare quel\nregalino {{fun_0010000E arg=\"\"}} {{fun_00010011 arg=\"0x0000\"}}.{{fun_00010007 arg=\"\"}} Sono certa\nche {{fun_0008000E arg=\"0x00CD060067006C00690004006C0065000000\"}} piacerà tantissimissimo!{{anim id=\"38\"}}",
      "JPja": "{{anim id=\"37\"}}{{fun_00010011 arg=\"0x0000\"}}さんへのプレゼント{{delay frames=\"10\"}}\n{{ruby charSpan=\"1\" value=\"わす\"}}忘れずに　お{{ruby charSpan=\"1\" value=\"ねが\"}}願いしますね、{{delay frames=\"15\"}}{{fun_00070005 arg=\"\"}}{{fun_00010007 arg=\"\"}}\nきっと　{{ruby charSpan=\"1\" value=\"よろこ\"}}喜ぶと{{ruby charSpan=\"1\" value=\"おも\"}}思いますから！{{anim id=\"38\"}}",
      "KRko": "{{anim id=\"37\"}}{{fun_00010011 arg=\"0x0000\"}}님께 제가 보내는 선물을{{delay frames=\"10\"}}\n잊지 말고 전해주세요, {{delay frames=\"15\"}}{{fun_00070005 arg=\"\"}}!{{fun_00010007 arg=\"\"}}\n분명 기뻐하실 거예요!{{anim id=\"38\"}}",
      "USen": "{{anim id=\"37\"}}Please don't forget about taking\nthat present to {{fun_00010011 arg=\"0x0000\"}}.{{fun_00010007 arg=\"\"}} I'm sure\n{{fun_0008000E arg=\"0x00CD04006800650006007300680065000000\"}}'ll love it!{{anim id=\"38\"}}",
      "USes": "{{anim id=\"37\"}}No te olvides de llevar este paquete\na {{fun_00010011 arg=\"0x0000\"}}.{{fun_00010007 arg=\"\"}} ¡Seguro que le va\na encantar!{{anim id=\"38\"}}",
      "USfr": "{{anim id=\"37\"}}N'oublie pas d'apporter ce cadeau\nà {{fun_00010011 arg=\"0x0000\"}}!{{fun_00010007 arg=\"\"}} C'est si simple de\nfaire plaisir!{{anim id=\"38\"}}"
    }
  },
  {
    "label": "002",
    "locale": {
      "EUde": "{{anim id=\"37\"}}Nicht vergessen, dass du {{fun_00010011 arg=\"0x0000\"}}\nnoch etwas bringen wolltest, ja?{{pageBreak}}{{anim id=\"39\"}}Hoffentlich ist dann alles vergeben\nund vergessen...{{fun_00010007 arg=\"\"}} {{anim id=\"37\"}}Danke, {{fun_00080005 arg=\"\"}}!",
      "EUen": "{{anim id=\"37\"}}Please don't forget that delivery to\n{{fun_00010011 arg=\"0x0000\"}}.{{pageBreak}}{{anim id=\"39\"}}I really want to reconcile after\nthis{{delay frames=\"8\"}}.{{delay frames=\"8\"}}.{{delay frames=\"8\"}}.{{delay frames=\"8\"}}{{delay frames=\"20\"}} {{anim id=\"37\"}}Thank you!",
      "EUes": "{{anim id=\"37\"}}Gracias por ofrecerte a llevar\neste paquete a {{fun_00010011 arg=\"0x0000\"}}.{{pageBreak}}{{anim id=\"39\"}}De verdad espero que podamos\narreglar las cosas{{delay frames=\"8\"}}.{{delay frames=\"8\"}}.{{delay frames=\"8\"}}.",
      "EUfr": "{{anim id=\"37\"}}Tu te souviens que tu dois apporter\nquelque chose à {{fun_00010011 arg=\"0x0000\"}} de ma\npart, n'est-ce pas ?\n{{anim id=\"39\"}}J'espère que ça lui fera oublier\ncette stupide histoire...{{fun_00010007 arg=\"\"}} {{anim id=\"37\"}}Quoi qu'il\nen soit, merci d'avance !",
      "EUit": "{{anim id=\"37\"}}Non dimenticare la consegna per\n{{fun_00010011 arg=\"0x0000\"}}, va bene?{{pageBreak}}{{anim id=\"39\"}}Spero tanto che questo regalino\nci aiuterà a fare pace{{delay frames=\"8\"}}.{{delay frames=\"8\"}}.{{delay frames=\"8\"}}.{{delay frames=\"8\"}}{{fun_00010007 arg=\"\"}} {{anim id=\"37\"}}Merci!",
      "JPja": "{{anim id=\"37\"}}{{fun_00010011 arg=\"0x0000\"}}さんへのお{{ruby charSpan=\"1\" value=\"とど\"}}届け{{ruby charSpan=\"1\" value=\"もの\"}}物{{delay frames=\"10\"}}\n{{ruby charSpan=\"1\" value=\"わす\"}}忘れずに　{{delay frames=\"8\"}}{{ruby charSpan=\"1\" value=\"わた\"}}渡してくださいね！{{pageBreak}}{{anim id=\"39\"}}これで　{{ruby charSpan=\"2\" value=\"なかなお\"}}仲直りできれば、{{delay frames=\"10\"}}\nうれしいんですけど{{delay frames=\"8\"}}・{{delay frames=\"8\"}}・{{delay frames=\"8\"}}・{{delay frames=\"8\"}}{{fun_00010007 arg=\"\"}}\n{{anim id=\"37\"}}よろしくお{{ruby charSpan=\"1\" value=\"ねが\"}}願いします！",
      "KRko": "{{anim id=\"37\"}}{{fun_00010011 arg=\"0x0000\"}}님께 보내는\n화해의 선물을{{delay frames=\"10\"}}\n잊지 말고{{delay frames=\"8\"}} 전해주세요!{{pageBreak}}{{anim id=\"39\"}}그걸로 용서해주시면{{delay frames=\"10\"}}\n정말 좋을 텐데{{delay frames=\"8\"}}・{{delay frames=\"8\"}}・{{delay frames=\"8\"}}・{{delay frames=\"8\"}}{{fun_00010007 arg=\"\"}}\n{{anim id=\"37\"}}잘 부탁드릴게요!",
      "USen": "{{anim id=\"37\"}}Please don't forget that delivery to\n{{fun_00010011 arg=\"0x0000\"}}.{{pageBreak}}{{anim id=\"39\"}}I really want to reconcile after\nthis{{delay frames=\"8\"}}.{{delay frames=\"8\"}}.{{delay frames=\"8\"}}.{{delay frames=\"8\"}}{{delay frames=\"20\"}} {{anim id=\"37\"}}Thank you!",
      "USes": "{{anim id=\"37\"}}Gracias por ofrecerte a llevar\neste paquete a {{fun_00010011 arg=\"0x0000\"}}.{{pageBreak}}{{anim id=\"39\"}}De verdad espero que podamos\narreglar las cosas{{delay frames=\"8\"}}.{{delay frames=\"8\"}}.{{delay frames=\"8\"}}.",
      "USfr": "{{anim id=\"37\"}}Tu te souviens que tu dois apporter\nquelque chose à {{fun_00010011 arg=\"0x0000\"}} de ma\npart, n'est-ce pas?\n{{anim id=\"39\"}}J'espère que ça lui fera oublier\ncette stupide histoire...{{fun_00010007 arg=\"\"}} {{anim id=\"37\"}}Quoi qu'il\nen soit, merci d'avance!"
    }
  },
  {
    "label": "003",
    "locale": {
      "EUde": "{{anim id=\"13\"}}Bitte vergiss nicht, dass du noch\nwas für mich an {{fun_00010011 arg=\"0x0000\"}}\nausliefern wolltest!\n{{anim id=\"39\"}}Puh, das hatte ich viel zu lange... {{delay frames=\"20\"}}\n{{anim id=\"36\"}}Ich verlasse mich auf dich,\n{{delay frames=\"10\"}}{{fun_00070005 arg=\"\"}}!{{anim id=\"37\"}}",
      "EUen": "{{anim id=\"13\"}}Please don't forget that delivery\nto {{fun_00010011 arg=\"0x0000\"}}!{{pageBreak}}{{anim id=\"39\"}}I've had it for way too long. {{delay frames=\"10\"}}{{anim id=\"36\"}}So I'm\ncounting on you, {{delay frames=\"10\"}}{{fun_00070005 arg=\"\"}}!{{anim id=\"37\"}}",
      "EUes": "{{anim id=\"13\"}}Tienes que darle este paquete\na {{fun_00010011 arg=\"0x0000\"}}, ¿recuerdas?{{pageBreak}}{{anim id=\"39\"}}Ya es hora de que se lo devuelva.{{delay frames=\"10\"}}\n{{anim id=\"36\"}}¡Cuento contigo, {{delay frames=\"10\"}}{{fun_00070005 arg=\"\"}}!{{anim id=\"37\"}}",
      "EUfr": "{{anim id=\"37\"}}Tu te souviens que tu dois apporter\nquelque chose à {{fun_00010011 arg=\"0x0000\"}} de ma\npart, n'est-ce pas ?\n{{anim id=\"39\"}}Je l'ai fait attendre déjà bien trop\nlongtemps...{{delay frames=\"10\"}}{{anim id=\"36\"}} Je compte sur toi,\n{{delay frames=\"10\"}}{{fun_00070005 arg=\"\"}} !",
      "EUit": "{{anim id=\"13\"}}Non dimenticare di consegnare\n{{fun_0010000E arg=\"\"}} {{fun_00010011 arg=\"0x0000\"}} il pacco che ti ho\ndato, mi raccomando!{{pageBreak}}{{anim id=\"39\"}}È arrivato il momento di {{fun_0008000E arg=\"0x00CD180072006500730074006900740075006900720067006C00690016007200650073007400690074007500690072006C0065000000\"}}\nle sue cose.{{delay frames=\"10\"}} {{anim id=\"36\"}}Conto su di te,\n{{delay frames=\"10\"}}{{fun_00070005 arg=\"\"}}!{{anim id=\"37\"}}",
      "JPja": "{{anim id=\"13\"}}お{{ruby charSpan=\"1\" value=\"ねが\"}}願いしていた{{delay frames=\"10\"}}\n{{fun_00010011 arg=\"0x0000\"}}さんへの{{ruby charSpan=\"2\" value=\"にもつ\"}}荷物、{{delay frames=\"15\"}}\n{{ruby charSpan=\"1\" value=\"わす\"}}忘れずに　{{ruby charSpan=\"1\" value=\"とど\"}}届けてくださいね！{{pageBreak}}{{anim id=\"39\"}}ずっと　お{{ruby charSpan=\"1\" value=\"か\"}}借りしていたものなので{{delay frames=\"10\"}}\n{{anim id=\"36\"}}よろしくお{{ruby charSpan=\"1\" value=\"ねが\"}}願いします、{{delay frames=\"10\"}}{{fun_00070005 arg=\"\"}}！{{anim id=\"37\"}}",
      "KRko": "{{anim id=\"13\"}}{{fun_00010011 arg=\"0x0000\"}}님께 전해달라고{{delay frames=\"10\"}}\n제가 부탁드린 물건 말이에요!{{delay frames=\"15\"}}\n설마 까먹으신 건 아니죠?{{pageBreak}}{{anim id=\"39\"}}빌린 물건을 제가\n너무 오랫동안 갖고 있었어요{{delay frames=\"10\"}}\n{{anim id=\"36\"}}잘 부탁드려요, {{delay frames=\"10\"}}{{fun_00070005 arg=\"\"}}!{{anim id=\"37\"}}",
      "USen": "{{anim id=\"13\"}}Please don't forget that delivery\nto {{fun_00010011 arg=\"0x0000\"}}!{{pageBreak}}{{anim id=\"39\"}}I've had it for way too long. {{delay frames=\"10\"}}{{anim id=\"36\"}}So I'm\ncounting on you, {{delay frames=\"10\"}}{{fun_00070005 arg=\"\"}}!{{anim id=\"37\"}}",
      "USes": "{{anim id=\"13\"}}Tienes que darle este paquete\na {{fun_00010011 arg=\"0x0000\"}}, ¿recuerdas?{{pageBreak}}{{anim id=\"39\"}}Ya es hora de que se lo devuelva.{{delay frames=\"10\"}}\n{{anim id=\"36\"}}¡Cuento contigo, {{delay frames=\"10\"}}{{fun_00070005 arg=\"\"}}!{{anim id=\"37\"}}",
      "USfr": "{{anim id=\"37\"}}Tu te souviens que tu dois apporter\nquelque chose à {{fun_00010011 arg=\"0x0000\"}} de ma\npart, n'est-ce pas?\n{{anim id=\"39\"}}Je l'ai fait attendre déjà bien trop\nlongtemps...{{delay frames=\"10\"}}{{anim id=\"36\"}} Je compte sur toi,\n{{delay frames=\"10\"}}{{fun_00070005 arg=\"\"}}!"
    }
  },
  {
    "label": "004",
    "locale": {
      "EUde": "{{anim id=\"37\"}}Vergiss nicht, dass du {{fun_00010011 arg=\"0x0000\"}}\nnoch was von mir bringen musst!{{pageBreak}}{{anim id=\"21\"}}Stell dir mal vor, es wäre deins,\nund du hättest es verloren!",
      "EUen": "{{anim id=\"37\"}}Please be sure to complete that\ndelivery to {{fun_00010011 arg=\"0x0000\"}}!{{pageBreak}}{{anim id=\"21\"}}Think about how you'd feel if you'd\nlost something important!",
      "EUes": "{{anim id=\"37\"}}¡No te olvides de llevarle el paquete\na {{fun_00010011 arg=\"0x0000\"}}, por favor!{{pageBreak}}{{anim id=\"21\"}}¡Debe de estar muy triste por\nhaberlo perdido!",
      "EUfr": "{{anim id=\"37\"}}N'oublie pas ce que tu dois apporter\nà {{fun_00010011 arg=\"0x0000\"}} !{{pageBreak}}{{anim id=\"21\"}}L{{fun_0008000E arg=\"0x00CD02006500020061000000\"}} pauvre ne doit plus en dormir\nd'avoir perdu ça...",
      "EUit": "{{anim id=\"37\"}}Non dimenticare di consegnare\nil pacco {{fun_0010000E arg=\"\"}} {{fun_00010011 arg=\"0x0000\"}}!{{pageBreak}}{{anim id=\"21\"}}Immagino che sia molto triste\nal pensiero di aver perso qualcosa!",
      "JPja": "{{anim id=\"37\"}}お{{ruby charSpan=\"1\" value=\"あず\"}}預けしている{{delay frames=\"10\"}}\n{{fun_00010011 arg=\"0x0000\"}}さんの{{ruby charSpan=\"1\" value=\"わす\"}}忘れ{{ruby charSpan=\"1\" value=\"もの\"}}物、{{delay frames=\"10\"}}\nちゃんと　{{delay frames=\"5\"}}{{ruby charSpan=\"1\" value=\"とど\"}}届けてくださいね！\n{{anim id=\"21\"}}きっと　{{ruby charSpan=\"1\" value=\"な\"}}無くしたと{{ruby charSpan=\"1\" value=\"おも\"}}思って{{delay frames=\"10\"}}\n{{ruby charSpan=\"2\" value=\"しんぱい\"}}心配していると{{ruby charSpan=\"1\" value=\"おも\"}}思いますので！",
      "KRko": "{{anim id=\"37\"}}{{fun_00010011 arg=\"0x0000\"}}님이\n우리 집에 두고 가신 물건을{{delay frames=\"10\"}}\n저 대신{{delay frames=\"5\"}} 돌려주시기로 했잖아요!\n{{anim id=\"21\"}}잃어버리신 줄 알고{{delay frames=\"10\"}}\n지금 망연자실하고 계실 거예요!",
      "USen": "{{anim id=\"37\"}}Please be sure to complete that\ndelivery to {{fun_00010011 arg=\"0x0000\"}}!{{pageBreak}}{{anim id=\"21\"}}Think about how you'd feel if you'd\nlost something important!",
      "USes": "{{anim id=\"37\"}}¡No te olvides de llevarle el paquete\na {{fun_00010011 arg=\"0x0000\"}}, por favor!{{pageBreak}}{{anim id=\"21\"}}¡Debe de estar muy triste por\nhaberlo perdido!",
      "USfr": "{{anim id=\"37\"}}N'oublie pas ce que tu dois apporter\nà {{fun_00010011 arg=\"0x0000\"}}!{{pageBreak}}{{anim id=\"21\"}}L{{fun_0008000E arg=\"0x00CD02006500020061000000\"}} pauvre ne doit plus en dormir\nd'avoir perdu ça..."
    }
  },
  {
    "label": "005",
    "locale": {
      "EUde": "{{anim id=\"37\"}}Vergiss nicht, dass du noch was\nfür mich ausliefern wolltest!{{delay frames=\"10\"}}\nAn {{fun_00010011 arg=\"0x0000\"}},{{delay frames=\"10\"}} ja?{{pageBreak}}{{anim id=\"36\"}}Es ist nämlich ganz schön doof,\nwenn man auf ein Paket wartet,\nund es kommt nicht.{{anim id=\"38\"}}",
      "EUen": "Please be sure to get that delivery\nto {{fun_00010011 arg=\"0x0000\"}},{{delay frames=\"8\"}} OK?{{pageBreak}}{{anim id=\"36\"}}Think about how you'd feel if you\ndidn't get a package you'd been\nwaiting for!{{anim id=\"38\"}}",
      "EUes": "{{anim id=\"37\"}}¡Asegúrate de llevarle este paquete\na {{fun_00010011 arg=\"0x0000\"}}, porfa!{{pageBreak}}{{anim id=\"36\"}}¡A saber cuánto tiempo lleva\nesperándolo!{{anim id=\"38\"}}",
      "EUfr": "{{anim id=\"37\"}}N'oublie pas d'apporter son colis\nà {{fun_00010011 arg=\"0x0000\"}}, je compte sur toi !{{pageBreak}}{{anim id=\"36\"}}Pense à la déception que tu aurais\nsi tu ne voyais jamais arriver\nquelque chose que tu as commandé.{{anim id=\"38\"}}",
      "EUit": "{{anim id=\"37\"}}Assicurati di consegnare il pacco\n{{fun_0010000E arg=\"\"}} {{fun_00010011 arg=\"0x0000\"}},{{delay frames=\"10\"}} va bene?!{{pageBreak}}{{anim id=\"36\"}}Immagino che non veda l'ora\ndi riceverlo!{{anim id=\"38\"}}",
      "JPja": "{{anim id=\"37\"}}お{{ruby charSpan=\"1\" value=\"ねが\"}}願いしていた　あの{{ruby charSpan=\"2\" value=\"にもつ\"}}荷物、{{delay frames=\"10\"}}\n{{fun_00010011 arg=\"0x0000\"}}さんに{{delay frames=\"10\"}}\n{{ruby charSpan=\"1\" value=\"わた\"}}渡してくださいね！\n{{anim id=\"36\"}}{{ruby charSpan=\"1\" value=\"こま\"}}困ってらっしゃると　{{delay frames=\"3\"}}いけないので！{{delay frames=\"20\"}}\nどうぞ　よろしくお{{ruby charSpan=\"1\" value=\"ねが\"}}願いします{{anim id=\"38\"}}",
      "KRko": "{{anim id=\"37\"}}제가 맡긴 소포 갖고 계시죠?{{delay frames=\"10\"}}\n{{fun_00010011 arg=\"0x0000\"}}님께{{delay frames=\"10\"}} 무사히\n배달해주시면 된답니다!\n{{anim id=\"36\"}}목이 빠지게{{delay frames=\"3\"}} 기다리고\n계실지도 모르잖아요!{{delay frames=\"20\"}}\n꼭 좀 부탁드려요!{{anim id=\"38\"}}",
      "USen": "Please be sure to get that delivery\nto {{fun_00010011 arg=\"0x0000\"}},{{delay frames=\"8\"}} OK?{{pageBreak}}{{anim id=\"36\"}}Think about how you'd feel if you\ndidn't get a package you'd been\nwaiting for!{{anim id=\"38\"}}",
      "USes": "{{anim id=\"37\"}}¡Asegúrate de llevarle este paquete\na {{fun_00010011 arg=\"0x0000\"}}, porfa!{{pageBreak}}{{anim id=\"36\"}}¡A saber cuánto tiempo lleva\nesperándolo!{{anim id=\"38\"}}",
      "USfr": "{{anim id=\"37\"}}N'oublie pas d'apporter son colis\nà {{fun_00010011 arg=\"0x0000\"}}, je compte sur toi!{{pageBreak}}{{anim id=\"36\"}}Pense à la déception que tu aurais\nsi tu ne voyais jamais arriver\nquelque chose que tu as commandé.{{anim id=\"38\"}}"
    }
  },
  {
    "label": "006",
    "locale": {
      "EUde": "{{anim id=\"37\"}}Bitte vergiss nicht, dass du noch\neine Lieferung an {{fun_00010011 arg=\"0x0000\"}}\nfür mich austragen wolltest,{{delay frames=\"10\"}} ja?\n{{anim id=\"5\"}}{{fun_0003000E arg=\"\"}}{{fun_0008000E arg=\"0x00CD04004500720006005300690065000000\"}} freut sich sicher schon drauf!",
      "EUen": "{{anim id=\"37\"}}Please be sure to take that delivery\nto {{fun_00010011 arg=\"0x0000\"}}.{{delay frames=\"20\"}} {{anim id=\"5\"}}I bet {{fun_0008000E arg=\"0x00CD04006800650006007300680065000000\"}}'s looking\nforward to it!",
      "EUes": "{{anim id=\"37\"}}Acuérdate de entregarle el paquete\na {{fun_00010011 arg=\"0x0000\"}},{{delay frames=\"10\"}} ¿vale?\n{{anim id=\"5\"}}¡Estará impaciente por recibirlo!",
      "EUfr": "{{anim id=\"37\"}}N'oublie pas d'apporter le colis que\nje t'ai confié à {{fun_00010011 arg=\"0x0000\"}} ! {{anim id=\"5\"}}{{fun_0008000E arg=\"0x00CD040049006C00080045006C006C0065000000\"}}\ndoit brûler d'impatience !",
      "EUit": "{{anim id=\"37\"}}Ricorda di consegnare il pacco che\nti ho dato {{fun_0010000E arg=\"\"}} {{fun_00010011 arg=\"0x0000\"}},{{delay frames=\"10\"}} va bene?\n{{anim id=\"5\"}}So che non vede l'ora di riceverlo!",
      "JPja": "{{anim id=\"37\"}}お{{ruby charSpan=\"1\" value=\"あず\"}}預けしていた　あの{{ruby charSpan=\"2\" value=\"にもつ\"}}荷物、{{delay frames=\"10\"}}\n{{ruby charSpan=\"1\" value=\"わす\"}}忘れずに　{{delay frames=\"5\"}}{{fun_00010011 arg=\"0x0000\"}}さんに\n{{ruby charSpan=\"1\" value=\"わた\"}}渡してくださいね！\n{{anim id=\"5\"}}きっと{{delay frames=\"10\"}}\n{{ruby charSpan=\"1\" value=\"たの\"}}楽しみにしている　はずですから！",
      "KRko": "{{anim id=\"37\"}}제가 부탁드린 물건을{{delay frames=\"10\"}}\n잊지 말고{{delay frames=\"5\"}} {{fun_00010011 arg=\"0x0000\"}}님께\n가져가서 전해주세요!\n{{anim id=\"5\"}}분명{{delay frames=\"10\"}} 두근거리는 가슴을 안고\n기다리고 계실 테니까요!",
      "USen": "{{anim id=\"37\"}}Please be sure to take that delivery\nto {{fun_00010011 arg=\"0x0000\"}}.{{delay frames=\"20\"}} {{anim id=\"5\"}}I bet {{fun_0008000E arg=\"0x00CD04006800650006007300680065000000\"}}'s looking\nforward to it!",
      "USes": "{{anim id=\"37\"}}Acuérdate de entregarle el paquete\na {{fun_00010011 arg=\"0x0000\"}},{{delay frames=\"10\"}} ¿vale?\n{{anim id=\"5\"}}¡Estará impaciente por recibirlo!",
      "USfr": "{{anim id=\"37\"}}N'oublie pas d'apporter le colis que\nje t'ai confié à {{fun_00010011 arg=\"0x0000\"}}! {{anim id=\"5\"}}{{fun_0008000E arg=\"0x00CD040049006C00080045006C006C0065000000\"}}\ndoit brûler d'impatience!"
    }
  }
]