﻿[
  {
    "label": "001",
    "locale": {
      "EUde": "{{anim id=\"5\"}}Wir haben gewonnen!{{delay frames=\"10\"}} Juhuuu!{{delay frames=\"20\"}}{{anim id=\"37\"}}\nAber es geht ja ums Mitspielen,\nnicht ums Gewinnen, {{fun_00080005 arg=\"\"}}.\n{{anim id=\"21\"}}Ich hoffe jedenfalls, dass es dir auch\nSpaß gemacht hat.{{delay frames=\"20\"}} Das müssen wir\nmal wieder spielen,{{delay frames=\"15\"}} {{fun_00070005 arg=\"\"}}!",
      "EUen": "{{anim id=\"5\"}}And the hiders win the match!{{fun_00010007 arg=\"\"}}\n{{anim id=\"37\"}}But whether I win or lose isn't that\nimportant to me.\nIt's the chance to spend time with\nyou,{{delay frames=\"8\"}} {{fun_00080005 arg=\"\"}},{{delay frames=\"8\"}} {{anim id=\"21\"}}that makes me\nhappy.{{anim id=\"38\"}}\n{{anim id=\"37\"}}That was so much fun!{{delay frames=\"10\"}} Let's play\nagain sometime,{{delay frames=\"8\"}} {{fun_00070005 arg=\"\"}}!",
      "EUes": "{{anim id=\"5\"}}Nuestro equipo se ha llevado la\nvictoria. {{delay frames=\"20\"}}Aun así, {{anim id=\"37\"}}{{delay frames=\"10\"}}ganar o perder\nno es lo más importante.\nPoder pasar un buen rato contigo,\n{{delay frames=\"10\"}}{{fun_00080005 arg=\"\"}}, {{delay frames=\"10\"}}{{anim id=\"21\"}}es lo que más feliz\nme ha hecho.{{anim id=\"38\"}}\n{{anim id=\"37\"}}Me lo he pasado muy bien.\n{{delay frames=\"20\"}}¡Espero que algún día volvamos\na repetirlo, {{delay frames=\"10\"}}{{fun_00070005 arg=\"\"}}!",
      "EUfr": "{{anim id=\"5\"}}Et c'est notre équipe qui l'emporte !{{fun_00010007 arg=\"\"}}\nMais peu importe qui recueille les\nlauriers de la victoire...\n{{anim id=\"21\"}}... ce qui compte, c'est qu'on se soit\nbien amusés avec toi, {{fun_00080005 arg=\"\"}} !{{pageBreak}}{{anim id=\"37\"}}J'ai passé un excellent moment !\nMerci à tous et vivement notre\nprochaine partie, {{fun_00070005 arg=\"\"}} !",
      "EUit": "{{anim id=\"5\"}}E{{delay frames=\"10\"}} la nostra squadra{{delay frames=\"8\"}} vince l'incontro!{{fun_00010007 arg=\"\"}}\n{{anim id=\"37\"}}Ma{{delay frames=\"10\"}} vincere o perdere non\nè ciò che conta.\nLa cosa che mi ha resa davvero\nfeliiice {{delay frames=\"10\"}}{{anim id=\"21\"}}è stata poter passare un po'\ndi tempo con {{fun_00080005 arg=\"\"}}.{{anim id=\"38\"}}\n{{anim id=\"37\"}}Mi sono divertita tanto!{{delay frames=\"10\"}} Giochiamo\ndi nuovo insieme,{{delay frames=\"15\"}} {{fun_00070005 arg=\"\"}}!",
      "JPja": "{{anim id=\"5\"}}ということで、{{delay frames=\"10\"}}わたし{{ruby charSpan=\"1\" value=\"たち\"}}達{{delay frames=\"8\"}}\n{{ruby charSpan=\"1\" value=\"か\"}}勝ってしまいました{{pageBreak}}{{anim id=\"37\"}}でも、{{delay frames=\"10\"}}{{ruby charSpan=\"1\" value=\"か\"}}勝ち{{ruby charSpan=\"1\" value=\"ま\"}}負けよりも{{delay frames=\"10\"}}\n{{fun_00080005 arg=\"\"}}さんと　{{ruby charSpan=\"1\" value=\"あそ\"}}遊べたことが{{delay frames=\"10\"}}\n{{anim id=\"21\"}}{{ruby charSpan=\"2\" value=\"いちばん\"}}一番　うれしいです{{anim id=\"38\"}}\n{{anim id=\"37\"}}とても　{{ruby charSpan=\"1\" value=\"たの\"}}楽しかったので{{delay frames=\"10\"}}\nまた　{{ruby charSpan=\"1\" value=\"あそ\"}}遊んでくださいね、{{delay frames=\"15\"}}{{fun_00070005 arg=\"\"}}！",
      "KRko": "{{anim id=\"5\"}}이렇게 해서{{delay frames=\"10\"}} 이번 승부는{{delay frames=\"8\"}}\n우리 팀의 승리로 끝났어요!{{pageBreak}}{{anim id=\"37\"}}하지만{{delay frames=\"10\"}} 승패 결과보다도{{delay frames=\"10\"}}\n{{fun_00080005 arg=\"\"}}님과 함께 놀았다는 게{{delay frames=\"10\"}}\n{{anim id=\"21\"}}가장 기쁘답니다{{anim id=\"38\"}}\n{{anim id=\"37\"}}아주 재미있었어요!{{delay frames=\"10\"}}\n다음에 또 같이 놀아요,\n{{delay frames=\"15\"}}{{fun_00070005 arg=\"\"}}!",
      "USen": "{{anim id=\"5\"}}And the hiders win the match!{{fun_00010007 arg=\"\"}}\n{{anim id=\"37\"}}But whether I win or lose isn't that\nimportant to me.\nIt's the chance to spend time with\nyou,{{delay frames=\"8\"}} {{fun_00080005 arg=\"\"}},{{delay frames=\"8\"}} {{anim id=\"21\"}}that makes me\nhappy.{{anim id=\"38\"}}\n{{anim id=\"37\"}}That was so much fun!{{delay frames=\"10\"}} Let's play\nagain sometime,{{delay frames=\"8\"}} {{fun_00070005 arg=\"\"}}!",
      "USes": "{{anim id=\"5\"}}Nuestro equipo se ha llevado la\nvictoria. {{delay frames=\"20\"}}Aun así, {{anim id=\"37\"}}{{delay frames=\"10\"}}ganar o perder\nno es lo más importante.\nPoder pasar un buen rato contigo,\n{{delay frames=\"10\"}}{{fun_00080005 arg=\"\"}}, {{delay frames=\"10\"}}{{anim id=\"21\"}}es lo que más feliz\nme ha hecho.{{anim id=\"38\"}}\n{{anim id=\"37\"}}Me lo he pasado muy bien.\n{{delay frames=\"20\"}}¡Espero que algún día volvamos\na repetirlo, {{delay frames=\"10\"}}{{fun_00070005 arg=\"\"}}!",
      "USfr": "{{anim id=\"5\"}}Et c'est notre équipe qui l'emporte!{{fun_00010007 arg=\"\"}}\nMais peu importe qui recueille les\nlauriers de la victoire...\n{{anim id=\"21\"}}... ce qui compte, c'est qu'on se soit\nbien amusés avec toi, {{fun_00080005 arg=\"\"}}!{{pageBreak}}{{anim id=\"37\"}}J'ai passé un excellent moment!\nMerci à tous et vivement notre\nprochaine partie, {{fun_00070005 arg=\"\"}}!"
    }
  },
  {
    "label": "002",
    "locale": {
      "EUde": "{{anim id=\"3\"}}Hihi, diesmal haben wir gewonnen.{{delay frames=\"30\"}}{{anim id=\"37\"}}{{pageBreak}}{{anim id=\"5\"}}Wir hatten eben Glück!{{delay frames=\"20\"}} {{anim id=\"39\"}}Du bist\nnämlich gar nicht so schlecht im\nVersteckspielen,{{delay frames=\"10\"}} {{fun_00080005 arg=\"\"}}...\n{{anim id=\"37\"}}Ich hoffe, du spielst mal wieder mit!",
      "EUen": "{{anim id=\"3\"}}Seems like we won this round.{{delay frames=\"30\"}}{{anim id=\"37\"}}{{pageBreak}}{{anim id=\"5\"}}We were really lucky today!{{delay frames=\"25\"}}\n{{anim id=\"39\"}}After all, {{delay frames=\"10\"}}{{fun_00080005 arg=\"\"}},{{delay frames=\"8\"}} you're quite\ngood at hide-and-seek.\n{{anim id=\"37\"}}We should play again sometime!",
      "EUes": "{{anim id=\"3\"}}Parece que esta vez hemos\nsalido victoriosos.{{pageBreak}}{{anim id=\"5\"}}¡Hemos tenido mucha suerte,\n{{delay frames=\"10\"}}porque a {{fun_00080005 arg=\"\"}} se le da\nmuy bien jugar al escondite!\n{{anim id=\"37\"}}¡Espero que podamos volver\na jugar otro día!",
      "EUfr": "{{anim id=\"3\"}}La chance était de notre côté\naujourd'hui.{{pageBreak}}{{anim id=\"39\"}}Il nous en a fallu pour vaincre\n{{fun_0006000E arg=\"0x120075006E0020006A006F007500650075007200160075006E00650020006A006F0075006500750073006500\"}} de ta trempe...\n{{anim id=\"37\"}}Vivement la revanche !",
      "EUit": "{{anim id=\"3\"}}A quanto pare, questa volta\n{{delay frames=\"10\"}}abbiamo vinto noi.{{delay frames=\"30\"}}{{anim id=\"37\"}}{{pageBreak}}{{anim id=\"5\"}}Siamo stati {{delay frames=\"10\"}}molto fortunati!{{delay frames=\"25\"}}\n{{anim id=\"39\"}}Dopotutto, {{delay frames=\"10\"}}{{fun_00080005 arg=\"\"}} è\n{{fun_0006000E arg=\"0x160075006E002000630061006D00700069006F006E0065001E0075006E0061002000630061006D00700069006F006E006500730073006100\"}} di nascondino!{{delay frames=\"20\"}}\n{{anim id=\"37\"}}Dobbiamo assolutamente giocare\ndi nuovo insieme ogni tanto!",
      "JPja": "{{anim id=\"3\"}}{{ruby charSpan=\"2\" value=\"こんかい\"}}今回は　{{delay frames=\"10\"}}わたし{{ruby charSpan=\"1\" value=\"たち\"}}達の{{ruby charSpan=\"1\" value=\"か\"}}勝ちのようですね{{delay frames=\"30\"}}{{anim id=\"37\"}}{{pageBreak}}{{delay frames=\"10\"}}{{anim id=\"5\"}}{{ruby charSpan=\"2\" value=\"きょう\"}}今日は　{{delay frames=\"10\"}}とても　ラッキーでした！{{delay frames=\"25\"}}\n{{anim id=\"39\"}}だって、{{delay frames=\"10\"}}{{fun_00080005 arg=\"\"}}さん{{delay frames=\"10\"}}\nかくれんぼ　{{ruby charSpan=\"1\" value=\"つよ\"}}強そうですから！{{delay frames=\"20\"}}\n{{anim id=\"37\"}}{{ruby charSpan=\"1\" value=\"つぎ\"}}次も　{{delay frames=\"10\"}}ぜひ　{{ruby charSpan=\"1\" value=\"あそ\"}}遊んでくださいね",
      "KRko": "{{anim id=\"3\"}}이번 숨바꼭질의 승자는{{delay frames=\"10\"}}\n우리들이에요!{{delay frames=\"30\"}}{{anim id=\"37\"}}{{pageBreak}}{{anim id=\"5\"}}오늘은 {{delay frames=\"10\"}}정말 운이 좋았어요!{{delay frames=\"25\"}}\n{{anim id=\"39\"}}왜냐면 {{delay frames=\"10\"}}{{fun_00080005 arg=\"\"}}님은{{delay frames=\"10\"}}\n숨바꼭질을 잘하실 것 같거든요!{{delay frames=\"20\"}}\n{{anim id=\"37\"}}다음번에도{{delay frames=\"10\"}} 우리\n같이 숨바꼭질해요!",
      "USen": "{{anim id=\"3\"}}Seems like we won this round.{{delay frames=\"30\"}}{{anim id=\"37\"}}{{pageBreak}}{{anim id=\"5\"}}We were really lucky today!{{delay frames=\"25\"}}\n{{anim id=\"39\"}}After all, {{delay frames=\"10\"}}{{fun_00080005 arg=\"\"}},{{delay frames=\"8\"}} you're quite\ngood at hide-and-seek.\n{{anim id=\"37\"}}We should play again sometime!",
      "USes": "{{anim id=\"3\"}}Parece que esta vez hemos\nsalido victoriosos.{{pageBreak}}{{anim id=\"5\"}}¡Hemos tenido mucha suerte,\n{{delay frames=\"10\"}}porque a {{fun_00080005 arg=\"\"}} se le da\nmuy bien jugar al escondite!\n{{anim id=\"37\"}}¡Espero que podamos volver\na jugar otro día!",
      "USfr": "{{anim id=\"3\"}}La chance était de notre côté\naujourd'hui.{{pageBreak}}{{anim id=\"39\"}}Il nous en a fallu pour vaincre\n{{fun_0006000E arg=\"0x120075006E0020006A006F007500650075007200160075006E00650020006A006F0075006500750073006500\"}} de ta trempe...\n{{anim id=\"37\"}}Vivement la revanche!"
    }
  },
  {
    "label": "003",
    "locale": {
      "EUde": "{{anim id=\"37\"}}Diesmal haben wir gewonnen!{{pageBreak}}{{anim id=\"32\"}}Ich bin dir wirklich dankbar, dass\ndu mit uns gespielt hast, obwohl\ndu sicher sehr beschäftigt bist.",
      "EUen": "{{anim id=\"37\"}}And the winner is...{{delay frames=\"20\"}}us!{{pageBreak}}{{anim id=\"0\"}}You came out to play despite your\nbusy schedule,{{delay frames=\"5\"}} and for that, {{anim id=\"32\"}}I must\nthank you immensely!\n{{anim id=\"37\"}}I'm going to keep practicing in order\nto stay on top of my game.",
      "EUes": "{{anim id=\"37\"}}Al final hemos ganado nosotros.{{pageBreak}}{{anim id=\"0\"}}Te quiero expresar mi más sentido\nagradecimiento por venir a jugar\na pesar de estar tan ocupad{{fun_0006000E arg=\"0x02006F0002006100\"}}.\n{{anim id=\"37\"}}¡Yo seguiré practicando, {{delay frames=\"10\"}}para que\nla próxima vez nos lo pasemos\ntan bien como hoy!{{anim id=\"38\"}}",
      "EUfr": "{{anim id=\"37\"}}Et au terme d'une partie acharnée\noù tous firent preuve d'une ardeur\nremarquable...\n... c'est à nous que Dame Victoire\nfit le choix de sourire. {{fun_00010007 arg=\"\"}}{{anim id=\"32\"}}Merci pour ta\ndisponibilité, {{fun_00080005 arg=\"\"}}...\n{{anim id=\"37\"}}Et gardons-nous de dormir sur nos\nlauriers. L'excellence à cache-cache\nimpose un entraînement quotidien !",
      "EUit": "{{anim id=\"37\"}}E il risultato finale{{delay frames=\"10\"}} è...\n{{delay frames=\"10\"}}vittoria per noi!{{pageBreak}}{{anim id=\"0\"}}Sono feliiice che tu abbia accettato\ndi giocare con me{{delay frames=\"5\"}} nonostante\ni tuoi numerosi impegni. {{anim id=\"32\"}}Merci!\n{{anim id=\"37\"}}Continuerò ad allenarmi,\ncosì sarò sempre all'altezza\ndei miei valorosi sfidanti!{{anim id=\"37\"}}",
      "JPja": "{{anim id=\"37\"}}ということで、{{delay frames=\"10\"}}\n{{ruby charSpan=\"2\" value=\"けっか\"}}結果は　{{delay frames=\"10\"}}わたし{{ruby charSpan=\"1\" value=\"たち\"}}達の{{ruby charSpan=\"1\" value=\"か\"}}勝ちでした{{pageBreak}}{{ruby charSpan=\"2\" value=\"きょう\"}}今日は　{{delay frames=\"10\"}}{{ruby charSpan=\"1\" value=\"あそ\"}}遊んでくださって{{delay frames=\"5\"}}\n{{anim id=\"32\"}}ありがとうございました！{{pageBreak}}{{anim id=\"37\"}}{{ruby charSpan=\"1\" value=\"つぎ\"}}次も　{{ruby charSpan=\"1\" value=\"か\"}}勝てるように、{{delay frames=\"10\"}}\n{{anim id=\"21\"}}かくれる　お{{ruby charSpan=\"2\" value=\"べんきょう\"}}勉強をしておきます！{{anim id=\"37\"}}",
      "KRko": "{{anim id=\"37\"}}자, 이렇게 해서{{delay frames=\"10\"}}\n결과는{{delay frames=\"10\"}} 우리들이 이겼어요!{{pageBreak}}{{anim id=\"0\"}}바쁘신 와중에{{delay frames=\"10\"}} 같이{{delay frames=\"10\"}} 놀아주셔서{{delay frames=\"5\"}}\n{{anim id=\"32\"}}정말 감사합니다!{{pageBreak}}{{anim id=\"37\"}}다음에도 이길 수 있게{{delay frames=\"10\"}}\n{{anim id=\"21\"}}숨는 방법을 더 연구해야겠어요!{{anim id=\"37\"}}",
      "USen": "{{anim id=\"37\"}}And the winner is...{{delay frames=\"20\"}}us!{{pageBreak}}{{anim id=\"0\"}}You came out to play despite your\nbusy schedule,{{delay frames=\"5\"}} and for that, {{anim id=\"32\"}}I must\nthank you immensely!\n{{anim id=\"37\"}}I'm going to keep practicing in order\nto stay on top of my game.",
      "USes": "{{anim id=\"37\"}}Al final hemos ganado nosotros.{{pageBreak}}{{anim id=\"0\"}}Te quiero expresar mi más sentido\nagradecimiento por venir a jugar\na pesar de estar tan ocupad{{fun_0006000E arg=\"0x02006F0002006100\"}}.\n{{anim id=\"37\"}}¡Yo seguiré practicando, {{delay frames=\"10\"}}para que\nla próxima vez nos lo pasemos\ntan bien como hoy!{{anim id=\"38\"}}",
      "USfr": "{{anim id=\"37\"}}Et au terme d'une partie acharnée\noù tous firent preuve d'une ardeur\nremarquable...\n... c'est à nous que Dame Victoire\nfit le choix de sourire. {{fun_00010007 arg=\"\"}}{{anim id=\"32\"}}Merci pour ta\ndisponibilité, {{fun_00080005 arg=\"\"}}...\n{{anim id=\"37\"}}Et gardons-nous de dormir sur nos\nlauriers. L'excellence à cache-cache\nimpose un entraînement quotidien!"
    }
  }
]