﻿[
  {
    "label": "001",
    "locale": {
      "EUde": "",
      "EUen": "",
      "EUes": "",
      "EUfr": "",
      "EUit": "",
      "JPja": "",
      "KRko": "",
      "USen": "",
      "USes": "",
      "USfr": ""
    }
  },
  {
    "label": "002",
    "locale": {
      "EUde": "{{fun_00020009 arg=\"0x0500060007000800\"}}",
      "EUen": "{{fun_00020009 arg=\"0x0500060007000800\"}}",
      "EUes": "{{fun_00020009 arg=\"0x0500060007000800\"}}",
      "EUfr": "{{fun_00020009 arg=\"0x0500060007000800\"}}",
      "EUit": "{{fun_00020009 arg=\"0x0500060007000800\"}}",
      "JPja": "{{fun_00020009 arg=\"0x0500060007000800\"}}",
      "KRko": "{{fun_00020009 arg=\"0x0500060007000800\"}}",
      "USen": "{{fun_00020009 arg=\"0x0500060007000800\"}}",
      "USes": "{{fun_00020009 arg=\"0x0500060007000800\"}}",
      "USfr": "{{fun_00020009 arg=\"0x0500060007000800\"}}"
    }
  },
  {
    "label": "003",
    "locale": {
      "EUde": "{{fun_00000009 arg=\"0x09000A00\"}}",
      "EUen": "{{fun_00000009 arg=\"0x09000A00\"}}",
      "EUes": "{{fun_00000009 arg=\"0x09000A00\"}}",
      "EUfr": "{{fun_00000009 arg=\"0x09000A00\"}}",
      "EUit": "{{fun_00000009 arg=\"0x09000A00\"}}",
      "JPja": "{{fun_00000009 arg=\"0x09000A00\"}}",
      "KRko": "{{fun_00000009 arg=\"0x09000A00\"}}",
      "USen": "{{fun_00000009 arg=\"0x09000A00\"}}",
      "USes": "{{fun_00000009 arg=\"0x09000A00\"}}",
      "USfr": "{{fun_00000009 arg=\"0x09000A00\"}}"
    }
  },
  {
    "label": "004",
    "locale": {
      "EUde": "",
      "EUen": "",
      "EUes": "",
      "EUfr": "",
      "EUit": "",
      "JPja": "",
      "KRko": "",
      "USen": "",
      "USes": "",
      "USfr": ""
    }
  },
  {
    "label": "005",
    "locale": {
      "EUde": "{{anim id=\"27\"}}Die Auswahl hier ist so groß, dass\nich mich nie entscheiden kann.",
      "EUen": "{{anim id=\"27\"}}They have such a great selection\nhere,{{delay frames=\"8\"}} I can never make up my mind.",
      "EUes": "{{anim id=\"27\"}}¿Has visto todos los artículos que\ntienen en esta tienda?{{delay frames=\"20\"}} Con lo que\nme cuesta a mí decidirme{{delay frames=\"8\"}}.{{delay frames=\"8\"}}.{{delay frames=\"8\"}}.",
      "EUfr": "{{anim id=\"27\"}}On a l'embarras du choix ici !{{delay frames=\"10\"}} Pas\nfacile de prendre une décision...",
      "EUit": "{{anim id=\"27\"}}Hanno degli articoli bellissimi qui.\n{{delay frames=\"8\"}}Non riuscirò mai a sceglierne\nuno solo!",
      "JPja": "{{anim id=\"13\"}}ここ、{{delay frames=\"10\"}}{{ruby charSpan=\"2\" value=\"しなもの\"}}品物がいっぱいなので{{delay frames=\"15\"}}\n{{anim id=\"37\"}}どれにしようか　{{delay frames=\"5\"}}{{ruby charSpan=\"1\" value=\"まよ\"}}迷っちゃうんですよ～",
      "KRko": "{{anim id=\"13\"}}여기는{{delay frames=\"10\"}} 물건이 꽤 다양해서{{delay frames=\"15\"}}\n{{anim id=\"37\"}}뭘 살지{{delay frames=\"5\"}} 정말 고민되네요～",
      "USen": "{{anim id=\"27\"}}They have such a great selection\nhere,{{delay frames=\"8\"}} I can never make up my mind.",
      "USes": "{{anim id=\"27\"}}¿Has visto todos los artículos que\ntienen en esta tienda?{{delay frames=\"20\"}} Con lo que\nme cuesta a mí decidirme{{delay frames=\"8\"}}.{{delay frames=\"8\"}}.{{delay frames=\"8\"}}.",
      "USfr": "{{anim id=\"27\"}}On a l'embarras du choix ici!{{delay frames=\"10\"}} Pas\nfacile de prendre une décision..."
    }
  },
  {
    "label": "006",
    "locale": {
      "EUde": "{{anim id=\"37\"}}Hier bekommt man alles, was man\nbraucht.{{delay frames=\"20\"}} Findest du nicht?",
      "EUen": "{{anim id=\"37\"}}You can find just about everything\nyou need here.{{delay frames=\"20\"}} Don't you think?",
      "EUes": "{{anim id=\"37\"}}Aquí puedes encontrar cualquier\ncosa que necesites,{{delay frames=\"10\"}} bichín.{{delay frames=\"20\"}}\n¿No te parece?",
      "EUfr": "{{anim id=\"37\"}}Quel que soit ce dont on a besoin,\non trouve toujours son bonheur ici.{{delay frames=\"10\"}}\nTu ne trouves pas ?",
      "EUit": "{{anim id=\"37\"}}Qui trovi tutto quello che ti serve.\n{{delay frames=\"20\"}}N'est-ce pas?",
      "JPja": "{{anim id=\"1\"}}このお{{ruby charSpan=\"1\" value=\"みせ\"}}店　{{delay frames=\"10\"}}{{ruby charSpan=\"1\" value=\"しな\"}}品ぞろえが{{ruby charSpan=\"2\" value=\"じゅうじつ\"}}充実していて{{delay frames=\"10\"}}\nとても　{{delay frames=\"5\"}}{{ruby charSpan=\"2\" value=\"ちょうほう\"}}重宝しているんですよ",
      "KRko": "{{anim id=\"1\"}}여기는{{delay frames=\"10\"}} 상품이\n잘 갖춰져 있어서{{delay frames=\"10\"}}\n자주{{delay frames=\"5\"}} 오게 된답니다",
      "USen": "{{anim id=\"37\"}}You can find just about everything\nyou need here.{{delay frames=\"20\"}} Don't you think?",
      "USes": "{{anim id=\"37\"}}Aquí puedes encontrar cualquier\ncosa que necesites,{{delay frames=\"10\"}} bichín.{{delay frames=\"20\"}}\n¿No te parece?",
      "USfr": "{{anim id=\"37\"}}Quel que soit ce dont on a besoin,\non trouve toujours son bonheur ici.{{delay frames=\"10\"}}\nTu ne trouves pas?"
    }
  },
  {
    "label": "007",
    "locale": {
      "EUde": "{{anim id=\"37\"}}Hier gibt es eine Riesenauswahl!{{delay frames=\"20\"}}\nIst bestimmt anstrengend, die\nganzen Waren aufzubauen...",
      "EUen": "{{anim id=\"37\"}}There are so many items here that I\nbet restocking takes all morning!",
      "EUes": "{{anim id=\"37\"}}Tienen tantísimas cosas que seguro\nque para reponer todo el inventario\nse pasan la mañanita entera{{delay frames=\"8\"}}.{{delay frames=\"8\"}}.{{delay frames=\"8\"}}.",
      "EUfr": "{{anim id=\"37\"}}Les rayons ne désemplissent jamais,\nma parole !{{delay frames=\"10\"}} Ils doivent passer leurs\nmatinées à renflouer les stocks !",
      "EUit": "{{anim id=\"37\"}}Hanno cooosì tanti articoli qui, che\npresumo si riforniscano di nuove\ncose ogni mattina!",
      "JPja": "{{anim id=\"1\"}}ここ、{{delay frames=\"10\"}}{{ruby charSpan=\"2\" value=\"しょうひん\"}}商品が{{ruby charSpan=\"1\" value=\"おお\"}}多いので{{delay frames=\"15\"}}\n{{anim id=\"27\"}}{{ruby charSpan=\"2\" value=\"てんいん\"}}店員さんは　{{delay frames=\"10\"}}{{ruby charSpan=\"2\" value=\"しなだ\"}}品出しが　{{ruby charSpan=\"2\" value=\"たいへん\"}}大変でしょうね～",
      "KRko": "{{anim id=\"1\"}}여기 말이에요,{{delay frames=\"10\"}}\n물건이 참 많아서{{delay frames=\"15\"}}\n{{anim id=\"27\"}}일하는 분들이{{delay frames=\"10\"}} 힘들 것 같아요～",
      "USen": "{{anim id=\"37\"}}There are so many items here that I\nbet restocking takes all morning!",
      "USes": "{{anim id=\"37\"}}Tienen tantísimas cosas que seguro\nque para reponer todo el inventario\nse pasan la mañanita entera{{delay frames=\"8\"}}.{{delay frames=\"8\"}}.{{delay frames=\"8\"}}.",
      "USfr": "{{anim id=\"37\"}}Les rayons ne désemplissent jamais,\nma parole!{{delay frames=\"10\"}} Ils doivent passer leurs\nmatinées à renflouer les stocks!"
    }
  },
  {
    "label": "008",
    "locale": {
      "EUde": "{{anim id=\"37\"}}Ich habe einen Einkaufszettel, damit\nich keine Spontankäufe tätige.{{delay frames=\"20\"}} {{anim id=\"10\"}}So\nist es aber nur noch halb so lustig.",
      "EUen": "{{anim id=\"37\"}}I made a shopping list last night so\nI wouldn't make any impulse buys.{{fun_00010007 arg=\"\"}}\n{{anim id=\"10\"}}It's much less fun this way.",
      "EUes": "{{anim id=\"37\"}}Anoche hice una lista de la compra\npara no desviarme con los gastos.{{fun_00010007 arg=\"\"}}\n{{anim id=\"10\"}}Pero ahora esto no tiene emoción{{delay frames=\"8\"}}.{{delay frames=\"8\"}}.{{delay frames=\"8\"}}.",
      "EUfr": "{{anim id=\"37\"}}Je suis venue munie de ma fidèle\nliste de courses pour être sûre de\nne rien oublier !\n{{anim id=\"10\"}}Certes, c'est plus efficace, mais\nc'est moins amusant.{{delay frames=\"10\"}} À acheter sans\npéril, on économise sans gloire...",
      "EUit": "{{anim id=\"37\"}}Ho fatto una lista delle cose che\ndevo comprare, per evitare acquisti\navventati, {{anim id=\"10\"}}ma così non è divertente.",
      "JPja": "{{anim id=\"37\"}}{{ruby charSpan=\"2\" value=\"きょう\"}}今日は{{delay frames=\"10\"}}\nお{{ruby charSpan=\"1\" value=\"か\"}}買い{{ruby charSpan=\"1\" value=\"もの\"}}物リストを　{{ruby charSpan=\"1\" value=\"つく\"}}作って{{ruby charSpan=\"1\" value=\"き\"}}来たので{{delay frames=\"10\"}}\n{{anim id=\"5\"}}{{ruby charSpan=\"2\" value=\"こうりつ\"}}効率{{ruby charSpan=\"1\" value=\"よ\"}}良く　{{delay frames=\"5\"}}ショッピングできそうです",
      "KRko": "{{anim id=\"37\"}}오늘은{{delay frames=\"10\"}} 쇼핑할 물건의\n목록을 적어 왔으니까{{delay frames=\"10\"}}\n{{anim id=\"5\"}}효율적으로{{delay frames=\"5\"}} 쇼핑할 수 있을 것 같아요",
      "USen": "{{anim id=\"37\"}}I made a shopping list last night so\nI wouldn't make any impulse buys.{{fun_00010007 arg=\"\"}}\n{{anim id=\"10\"}}It's much less fun this way.",
      "USes": "{{anim id=\"37\"}}Anoche hice una lista de la compra\npara no desviarme con los gastos.{{fun_00010007 arg=\"\"}}\n{{anim id=\"10\"}}Pero ahora esto no tiene emoción{{delay frames=\"8\"}}.{{delay frames=\"8\"}}.{{delay frames=\"8\"}}.",
      "USfr": "{{anim id=\"37\"}}Je suis venue munie de ma fidèle\nliste de courses pour être sûre de\nne rien oublier!\n{{anim id=\"10\"}}Certes, c'est plus efficace, mais\nc'est moins amusant.{{delay frames=\"10\"}} À acheter sans\npéril, on économise sans gloire..."
    }
  },
  {
    "label": "009",
    "locale": {
      "EUde": "{{anim id=\"37\"}}Kaufst du jemandem aus deiner\nStadt ein Geschenk?{{delay frames=\"20\"}}{{anim id=\"21\"}} So bleibt es\nviel eher eine Überraschung!",
      "EUen": "{{anim id=\"37\"}}Are you here to buy a present for\nsomeone in your town?{{fun_00010007 arg=\"\"}}{{anim id=\"21\"}} It's easier to\nkeep it a surprise that way.",
      "EUes": "{{anim id=\"37\"}}¿Has venido a comprarle un regalo\na alguien de tu pueblo?{{fun_00010007 arg=\"\"}}{{anim id=\"21\"}} ¡Qué buena\nidea!{{delay frames=\"20\"}} Así seguro que sorprendes.",
      "EUfr": "{{anim id=\"37\"}}Tu cherches un cadeau pour un\nvoisin ?{{delay frames=\"20\"}}{{anim id=\"21\"}} Bien vu :{{delay frames=\"10\"}} c'est plus discret\nde les acheter dans une autre ville !",
      "EUit": "{{anim id=\"37\"}}Sei qui per comprare un regalo?{{fun_00010007 arg=\"\"}}{{anim id=\"21\"}}\nÈ più facile non venire scoperti,\nse compri regali in un negozio così!",
      "JPja": "{{anim id=\"1\"}}{{ruby charSpan=\"1\" value=\"だれ\"}}誰かへの　お{{ruby charSpan=\"2\" value=\"みやげ\"}}土産ですか？{{delay frames=\"20\"}}\n{{ruby charSpan=\"2\" value=\"いろいろ\"}}色々　{{ruby charSpan=\"1\" value=\"お\"}}置いてあるんで、{{delay frames=\"10\"}}\nじっくり{{ruby charSpan=\"1\" value=\"えら\"}}選んでくださいね！",
      "KRko": "{{anim id=\"1\"}}우리 마을의 기념품을 사러 오셨나요?{{delay frames=\"20\"}}\n여러 가지가 있으니까{{delay frames=\"10\"}}\n천천히 둘러보세요!",
      "USen": "{{anim id=\"37\"}}Are you here to buy a present for\nsomeone in your town?{{fun_00010007 arg=\"\"}}{{anim id=\"21\"}} It's easier to\nkeep it a surprise that way.",
      "USes": "{{anim id=\"37\"}}¿Has venido a comprarle un regalo\na alguien de tu pueblo?{{fun_00010007 arg=\"\"}}{{anim id=\"21\"}} ¡Qué buena\nidea!{{delay frames=\"20\"}} Así seguro que sorprendes.",
      "USfr": "{{anim id=\"37\"}}Tu cherches un cadeau pour un\nvoisin?{{delay frames=\"20\"}}{{anim id=\"21\"}} Bien vu :{{delay frames=\"10\"}} c'est plus discret\nde les acheter dans une autre ville!"
    }
  },
  {
    "label": "010",
    "locale": {
      "EUde": "{{anim id=\"37\"}}Ich kann hier nicht vorbeigehen,\nohne mir kurz die neuen Waren\nanzusehen.\nDas wird Löcher in meine\nHaushaltskasse reißen...",
      "EUen": "{{anim id=\"37\"}}I can't walk past this store without\nstopping in to see what's new.{{delay frames=\"20\"}} It's\nterrible for my budget!",
      "EUes": "{{anim id=\"37\"}}Veo esta tienda y es que no soy\ncapaz de pasar de largo.{{delay frames=\"20\"}}\n¡Es la pesadilla de mi hucha!",
      "EUfr": "{{anim id=\"37\"}}Cette boutique est le cauchemar de\nmon porte-monnaie :{{delay frames=\"10\"}} impossible de\npasser devant sans vouloir y entrer !",
      "EUit": "{{anim id=\"37\"}}Non riesco a passare di qui senza\nentrare a dare un'occhiata.{{delay frames=\"20\"}} È una\ndisgrazia per il mio borsellino!",
      "JPja": "{{anim id=\"1\"}}{{ruby charSpan=\"2\" value=\"きょう\"}}今日は{{delay frames=\"10\"}}\nウィンドウショッピングのつもりで\n{{ruby charSpan=\"1\" value=\"き\"}}来たんですけど、\n{{anim id=\"5\"}}こんなに　{{ruby charSpan=\"1\" value=\"いろ\"}}色んなものがあると{{delay frames=\"10\"}}\nほしくなっちゃいます、{{delay frames=\"15\"}}{{fun_00070005 arg=\"\"}}",
      "KRko": "{{anim id=\"1\"}}전 오늘{{delay frames=\"10\"}} 아이쇼핑만\n할 생각이었는데요{{pageBreak}}{{anim id=\"5\"}}이렇게 물건이 다양하게\n갖춰져 있으니까{{delay frames=\"10\"}}\n자꾸 사고 싶어지지 뭐예요, {{delay frames=\"15\"}}{{fun_00070005 arg=\"\"}}!",
      "USen": "{{anim id=\"37\"}}I can't walk past this store without\nstopping in to see what's new.{{delay frames=\"20\"}} It's\nterrible for my budget!",
      "USes": "{{anim id=\"37\"}}Veo esta tienda y es que no soy\ncapaz de pasar de largo.{{delay frames=\"20\"}}\n¡Es la pesadilla de mi hucha!",
      "USfr": "{{anim id=\"37\"}}Cette boutique est le cauchemar de\nmon porte-monnaie :{{delay frames=\"10\"}} impossible de\npasser devant sans vouloir y entrer!"
    }
  }
]