﻿[
  {
    "label": "001",
    "locale": {
      "EUde": "",
      "EUen": "",
      "EUes": "",
      "EUfr": "",
      "EUit": "",
      "JPja": "",
      "KRko": "",
      "USen": "",
      "USes": "",
      "USfr": ""
    }
  },
  {
    "label": "002",
    "locale": {
      "EUde": "{{fun_00020009 arg=\"0x080009000A000B00\"}}",
      "EUen": "{{fun_00020009 arg=\"0x080009000A000B00\"}}",
      "EUes": "{{fun_00020009 arg=\"0x080009000A000B00\"}}",
      "EUfr": "{{fun_00020009 arg=\"0x080009000A000B00\"}}",
      "EUit": "{{fun_00020009 arg=\"0x080009000A000B00\"}}",
      "JPja": "{{fun_00020009 arg=\"0x080009000A000B00\"}}",
      "KRko": "{{fun_00020009 arg=\"0x080009000A000B00\"}}",
      "USen": "{{fun_00020009 arg=\"0x080009000A000B00\"}}",
      "USes": "{{fun_00020009 arg=\"0x080009000A000B00\"}}",
      "USfr": "{{fun_00020009 arg=\"0x080009000A000B00\"}}"
    }
  },
  {
    "label": "003",
    "locale": {
      "EUde": "{{fun_00000009 arg=\"0x0C000D00\"}}",
      "EUen": "{{fun_00000009 arg=\"0x0C000D00\"}}",
      "EUes": "{{fun_00000009 arg=\"0x0C000D00\"}}",
      "EUfr": "{{fun_00000009 arg=\"0x0C000D00\"}}",
      "EUit": "{{fun_00000009 arg=\"0x0C000D00\"}}",
      "JPja": "{{fun_00000009 arg=\"0x0C000D00\"}}",
      "KRko": "{{fun_00000009 arg=\"0x0C000D00\"}}",
      "USen": "{{fun_00000009 arg=\"0x0C000D00\"}}",
      "USes": "{{fun_00000009 arg=\"0x0C000D00\"}}",
      "USfr": "{{fun_00000009 arg=\"0x0C000D00\"}}"
    }
  },
  {
    "label": "004",
    "locale": {
      "EUde": "",
      "EUen": "",
      "EUes": "",
      "EUfr": "",
      "EUit": "",
      "JPja": "",
      "KRko": "",
      "USen": "",
      "USes": "",
      "USfr": ""
    }
  },
  {
    "label": "005",
    "locale": {
      "EUde": "{{fun_00020009 arg=\"0x0E000F0010001100\"}}",
      "EUen": "{{fun_00020009 arg=\"0x0E000F0010001100\"}}",
      "EUes": "{{fun_00020009 arg=\"0x0E000F0010001100\"}}",
      "EUfr": "{{fun_00020009 arg=\"0x0E000F0010001100\"}}",
      "EUit": "{{fun_00020009 arg=\"0x0E000F0010001100\"}}",
      "JPja": "{{fun_00020009 arg=\"0x0E000F0010001100\"}}",
      "KRko": "{{fun_00020009 arg=\"0x0E000F0010001100\"}}",
      "USen": "{{fun_00020009 arg=\"0x0E000F0010001100\"}}",
      "USes": "{{fun_00020009 arg=\"0x0E000F0010001100\"}}",
      "USfr": "{{fun_00020009 arg=\"0x0E000F0010001100\"}}"
    }
  },
  {
    "label": "006",
    "locale": {
      "EUde": "{{fun_00000009 arg=\"0x12001300\"}}",
      "EUen": "{{fun_00000009 arg=\"0x12001300\"}}",
      "EUes": "{{fun_00000009 arg=\"0x12001300\"}}",
      "EUfr": "{{fun_00000009 arg=\"0x12001300\"}}",
      "EUit": "{{fun_00000009 arg=\"0x12001300\"}}",
      "JPja": "{{fun_00000009 arg=\"0x12001300\"}}",
      "KRko": "{{fun_00000009 arg=\"0x12001300\"}}",
      "USen": "{{fun_00000009 arg=\"0x12001300\"}}",
      "USes": "{{fun_00000009 arg=\"0x12001300\"}}",
      "USfr": "{{fun_00000009 arg=\"0x12001300\"}}"
    }
  },
  {
    "label": "007",
    "locale": {
      "EUde": "",
      "EUen": "",
      "EUes": "",
      "EUfr": "",
      "EUit": "",
      "JPja": "",
      "KRko": "",
      "USen": "",
      "USes": "",
      "USfr": ""
    }
  },
  {
    "label": "008",
    "locale": {
      "EUde": "{{anim id=\"5\"}}Hier ist ja eine prima Stimmung!{{delay frames=\"20\"}}\nAlle freuen sich auf die Show!",
      "EUen": "{{anim id=\"5\"}}Can't you just feel the enthusiasm?{{delay frames=\"20\"}}\nEveryone's so excited for the show.",
      "EUes": "{{anim id=\"5\"}}¿No hueles la expectación en el\naire?{{delay frames=\"20\"}} ¡La gente lleva mucho tiempo\nesperando este espectáculo!",
      "EUfr": "{{anim id=\"5\"}}Quelle ambiance !{{delay frames=\"20\"}} On va en prendre\nplein les oreilles !",
      "EUit": "{{anim id=\"5\"}}Questo posto esplode di energia!\nSono tuuutti in piena fibrillazione\nper lo spettacolo!",
      "JPja": "{{anim id=\"5\"}}この　{{ruby charSpan=\"2\" value=\"ねっき\"}}熱気にあふれた{{ruby charSpan=\"1\" value=\"かん\"}}感じ！{{delay frames=\"20\"}}\nすごく　{{ruby charSpan=\"2\" value=\"きも\"}}気持ちいいですよね！",
      "KRko": "{{anim id=\"5\"}}열기로 가득 찬 이 느낌!{{delay frames=\"20\"}}\n정말 기분 좋아요!",
      "USen": "{{anim id=\"5\"}}Can't you just feel the enthusiasm?{{delay frames=\"20\"}}\nEveryone's so excited for the show.",
      "USes": "{{anim id=\"5\"}}¿No hueles la expectación en el\naire?{{delay frames=\"20\"}} ¡La gente lleva mucho tiempo\nesperando este espectáculo!",
      "USfr": "{{anim id=\"5\"}}Quelle ambiance!{{delay frames=\"20\"}} On va en prendre\nplein les oreilles!"
    }
  },
  {
    "label": "009",
    "locale": {
      "EUde": "{{anim id=\"1\"}}Egal, wie oft ich {{color id=\"4\"}}K.K. {{color id=\"65535\"}}schon gesehen\nhabe, seine Musik beeindruckt mich\nimmer wieder!",
      "EUen": "{{anim id=\"1\"}}No matter how many times I come\nto one of {{color id=\"4\"}}K.K. Slider{{color id=\"65535\"}}'s shows,{{delay frames=\"8\"}} I'm\nalways moved by the music.",
      "EUes": "{{anim id=\"1\"}}Da igual a cuántas fiestas de\n{{color id=\"4\"}}Totakeke {{color id=\"65535\"}}vaya,{{delay frames=\"10\"}} ¡la música siempre\nme atrapa!",
      "EUfr": "{{anim id=\"1\"}}J'ai beau venir et revenir assister\naux concerts de {{color id=\"4\"}}Kéké{{color id=\"65535\"}}, je ne m'en\nlasse jamais !",
      "EUit": "{{anim id=\"1\"}}{{color id=\"4\"}}K.K. Slider{{color id=\"65535\"}} fa sempre degli\nspettacoli unici! {{delay frames=\"8\"}}La sua musica\nè travolgente!",
      "JPja": "{{anim id=\"1\"}}{{ruby charSpan=\"2\" value=\"なんど\"}}何度{{ruby charSpan=\"1\" value=\"き\"}}聴いても{{delay frames=\"10\"}}\n{{color id=\"4\"}}とたけけ{{color id=\"65535\"}}さんの　ライブって{{delay frames=\"10\"}}\n{{anim id=\"4\"}}{{ruby charSpan=\"2\" value=\"かんどう\"}}感動しちゃうんですよね",
      "KRko": "{{anim id=\"1\"}}{{color id=\"4\"}}T.K.{{color id=\"65535\"}}님의 라이브 공연은{{delay frames=\"10\"}}\n몇 번을 와도{{delay frames=\"10\"}}\n{{anim id=\"4\"}}참 감동적이네요",
      "USen": "{{anim id=\"1\"}}No matter how many times I come\nto one of {{color id=\"4\"}}K.K. Slider{{color id=\"65535\"}}'s shows,{{delay frames=\"8\"}} I'm\nalways moved by the music.",
      "USes": "{{anim id=\"1\"}}Da igual a cuántas fiestas de\n{{color id=\"4\"}}Totakeke {{color id=\"65535\"}}vaya,{{delay frames=\"10\"}} ¡la música siempre\nme atrapa!",
      "USfr": "{{anim id=\"1\"}}J'ai beau venir et revenir assister\naux concerts de {{color id=\"4\"}}Kéké{{color id=\"65535\"}}, je ne m'en\nlasse jamais!"
    }
  },
  {
    "label": "010",
    "locale": {
      "EUde": "{{anim id=\"1\"}}Ich finde, {{fun_00050005 arg=\"\"}} wirkt immer\ngleich viel friedlicher, wenn ein\nKonzert ist.{{delay frames=\"20\"}} Musik verbindet eben!",
      "EUen": "{{anim id=\"1\"}}Music makes everyone in town so\nhappy.{{delay frames=\"20\"}} Each show leaves {{fun_00050005 arg=\"\"}}\npeaceful and content.",
      "EUes": "{{anim id=\"1\"}}La música le da mucha vida a\n{{fun_0003000E arg=\"\"}}{{fun_00050005 arg=\"\"}},{{delay frames=\"10\"}} ¡y con cada fiesta\nla gente se pone más contenta!",
      "EUfr": "{{anim id=\"1\"}}La musique adoucit les mœurs\n{{fun_000A000E arg=\"0x0600640065002000040064002700\"}}{{fun_00050005 arg=\"\"}} !{{delay frames=\"10\"}} L'ambiance est si\ndétendue à la sortie des concerts !",
      "EUit": "{{anim id=\"1\"}}La musica è il segreto della felicità.{{delay frames=\"20\"}}\nI concerti hanno un effetto benefico\nsu {{fun_00050005 arg=\"\"}}.",
      "JPja": "{{anim id=\"1\"}}{{ruby charSpan=\"2\" value=\"おんがく\"}}音楽って{{delay frames=\"10\"}}\nひとに　{{delay frames=\"10\"}}{{ruby charSpan=\"1\" value=\"しあわ\"}}幸せを　{{ruby charSpan=\"1\" value=\"はこ\"}}運んでくれますよね{{pageBreak}}ここで　{{delay frames=\"5\"}}ライブが　{{ruby charSpan=\"1\" value=\"ひら\"}}開かれるたびに{{delay frames=\"10\"}}\n{{fun_00050005 arg=\"\"}}{{ruby charSpan=\"1\" value=\"むら\"}}村は　{{delay frames=\"5\"}}{{ruby charSpan=\"2\" value=\"へいわ\"}}平和になる{{ruby charSpan=\"1\" value=\"き\"}}気がします",
      "KRko": "{{anim id=\"1\"}}음악은{{delay frames=\"10\"}} 사람들에게{{delay frames=\"10\"}}\n행복을 가져다주는 것 같아요{{pageBreak}}그래서 그런지{{delay frames=\"5\"}} 여기에서 라이브가\n있을 때마다{{delay frames=\"10\"}} {{fun_00050005 arg=\"\"}} 마을이{{delay frames=\"5\"}}\n평화로워지는 것 같아요",
      "USen": "{{anim id=\"1\"}}Music makes everyone in town so\nhappy.{{delay frames=\"20\"}} Each show leaves {{fun_00050005 arg=\"\"}}\npeaceful and content.",
      "USes": "{{anim id=\"1\"}}La música le da mucha vida a\n{{fun_0003000E arg=\"\"}}{{fun_00050005 arg=\"\"}},{{delay frames=\"10\"}} ¡y con cada fiesta\nla gente se pone más contenta!",
      "USfr": "{{anim id=\"1\"}}La musique adoucit les mœurs\n{{fun_000A000E arg=\"0x0600640065002000040064002700\"}}{{fun_00050005 arg=\"\"}}!{{delay frames=\"10\"}} L'ambiance est si\ndétendue à la sortie des concerts!"
    }
  },
  {
    "label": "011",
    "locale": {
      "EUde": "{{anim id=\"1\"}}Findest du auch, dass Live-Musik\nam besten klingt, {{delay frames=\"8\"}}{{fun_00070005 arg=\"\"}}?",
      "EUen": "{{anim id=\"1\"}}Don't you think music sounds best\nplayed live,{{delay frames=\"8\"}} {{fun_00070005 arg=\"\"}}?",
      "EUes": "{{anim id=\"1\"}}¿A que la música en directo\nse disfruta mil veces más,\n{{delay frames=\"10\"}}{{fun_00070005 arg=\"\"}}?",
      "EUfr": "{{anim id=\"1\"}}J'aime bien la musique enregistrée,\nmais rien ne remplace un concert en\ndirect !",
      "EUit": "{{anim id=\"1\"}}La musica è mooolto più bella\nquando la si ascolta dal vivo,\n{{delay frames=\"8\"}}{{fun_00070005 arg=\"\"}}!",
      "JPja": "{{anim id=\"5\"}}やっぱり{{ruby charSpan=\"2\" value=\"おんがく\"}}音楽は{{delay frames=\"10\"}}\nライブにかぎります、{{delay frames=\"15\"}}{{fun_00070005 arg=\"\"}}！",
      "KRko": "{{anim id=\"5\"}}역시 음악은{{delay frames=\"10\"}}\n생음악이 최고예요, {{delay frames=\"15\"}}{{fun_00070005 arg=\"\"}}!",
      "USen": "{{anim id=\"1\"}}Don't you think music sounds best\nplayed live,{{delay frames=\"8\"}} {{fun_00070005 arg=\"\"}}?",
      "USes": "{{anim id=\"1\"}}¿A que la música en directo\nse disfruta mil veces más,\n{{delay frames=\"10\"}}{{fun_00070005 arg=\"\"}}?",
      "USfr": "{{anim id=\"1\"}}J'aime bien la musique enregistrée,\nmais rien ne remplace un concert en\ndirect!"
    }
  },
  {
    "label": "012",
    "locale": {
      "EUde": "{{anim id=\"1\"}}Du bist extra für das Konzert\nhergekommen?{{delay frames=\"20\"}} Du musst ja ein\nrichtiger Fan sein!",
      "EUen": "{{anim id=\"1\"}}Coming all this way just to see a\nshow?{{delay frames=\"20\"}} You must really love music!",
      "EUes": "{{anim id=\"1\"}}¿Has venido desde tan lejos solo\npor el espectáculo?{{delay frames=\"20\"}} ¡Vaya!{{delay frames=\"20\"}} ¡Sí que\nte debe de gustar la música!",
      "EUfr": "{{anim id=\"1\"}}Tu as parcouru tous ces kilomètres\njuste pour un concert ?{{delay frames=\"10\"}} Waouh, ça,\nc'est un{{fun_0006000E arg=\"0x000002006500\"}} mélomane !",
      "EUit": "{{anim id=\"1\"}}Sei venut{{fun_0006000E arg=\"0x02006F0002006100\"}} fin qui per questo\nconcerto?{{delay frames=\"20\"}} Uau, tu devi essere\nun{{fun_0006000E arg=\"0x000002006100\"}} graaande fan della musica!",
      "JPja": "{{anim id=\"1\"}}こんなところまで　{{ruby charSpan=\"1\" value=\"き\"}}聴きに{{ruby charSpan=\"1\" value=\"く\"}}来るなんて、{{delay frames=\"10\"}}\nかなりの　{{ruby charSpan=\"2\" value=\"おんがく\"}}音楽{{ruby charSpan=\"1\" value=\"ず\"}}好きですね！{{anim id=\"38\"}}",
      "KRko": "{{anim id=\"1\"}}여기까지 음악을 들으러 오신 걸 보면{{delay frames=\"10\"}}\n음악을 정말 좋아하시나 봐요!{{anim id=\"38\"}}",
      "USen": "{{anim id=\"1\"}}Coming all this way just to see a\nshow?{{delay frames=\"20\"}} You must really love music!",
      "USes": "{{anim id=\"1\"}}¿Has venido desde tan lejos solo\npor el espectáculo?{{delay frames=\"20\"}} ¡Vaya!{{delay frames=\"20\"}} ¡Sí que\nte debe de gustar la música!",
      "USfr": "{{anim id=\"1\"}}Tu as parcouru tous ces kilomètres\njuste pour un concert?{{delay frames=\"10\"}} Waouh, ça,\nc'est un{{fun_0006000E arg=\"0x000002006500\"}} mélomane!"
    }
  },
  {
    "label": "013",
    "locale": {
      "EUde": "{{anim id=\"1\"}}Oh, {{fun_00080005 arg=\"\"}}!{{delay frames=\"20\"}} Du hier?{{delay frames=\"20\"}}\n{{color id=\"4\"}}K.K.{{color id=\"65535\"}} hat offenbar überall Fans!",
      "EUen": "{{anim id=\"1\"}}You're here too,{{delay frames=\"8\"}} {{fun_00080005 arg=\"\"}}?{{fun_00010007 arg=\"\"}} {{color id=\"4\"}}K.K.\nSlider{{color id=\"65535\"}} has fans from all over!",
      "EUes": "{{anim id=\"1\"}}¿Tú también por aquí,{{delay frames=\"10\"}} {{fun_00080005 arg=\"\"}}?{{fun_00010007 arg=\"\"}}\n¡Si es que {{color id=\"4\"}}Totakeke {{color id=\"65535\"}}tiene\nadmiradores por doquier!",
      "EUfr": "{{anim id=\"1\"}}Oh, tu es venu{{fun_0006000E arg=\"0x000002006500\"}}, {{fun_00080005 arg=\"\"}} ?{{fun_00010007 arg=\"\"}} Le\nfan-club de {{color id=\"4\"}}Kéké{{color id=\"65535\"}} ne connaît pas de\nfrontières !",
      "EUit": "{{anim id=\"1\"}}{{fun_0003000E arg=\"\"}}{{fun_00080005 arg=\"\"}}! Anche tu qui?{{fun_00010007 arg=\"\"}}\n{{color id=\"4\"}}K.K. Slider {{color id=\"65535\"}}ha fan ovunque!",
      "JPja": "{{anim id=\"1\"}}{{fun_00080005 arg=\"\"}}さんもですか？{{fun_00010007 arg=\"\"}}\n{{anim id=\"5\"}}{{color id=\"4\"}}とたけけ{{color id=\"65535\"}}さんのファンって{{delay frames=\"10\"}}\n{{ruby charSpan=\"1\" value=\"おお\"}}多いんですね、{{delay frames=\"15\"}}{{fun_00070005 arg=\"\"}}！",
      "KRko": "{{anim id=\"1\"}}혹시 {{fun_00080005 arg=\"\"}}님도?{{fun_00010007 arg=\"\"}}\n{{anim id=\"5\"}}{{color id=\"4\"}}T.K.{{color id=\"65535\"}}님은{{delay frames=\"10\"}} 정말 팬이 많군요,\n{{delay frames=\"15\"}}{{fun_00070005 arg=\"\"}}!",
      "USen": "{{anim id=\"1\"}}You're here too,{{delay frames=\"8\"}} {{fun_00080005 arg=\"\"}}?{{fun_00010007 arg=\"\"}} {{color id=\"4\"}}K.K.\nSlider{{color id=\"65535\"}} has fans from all over!",
      "USes": "{{anim id=\"1\"}}¿Tú también por aquí,{{delay frames=\"10\"}} {{fun_00080005 arg=\"\"}}?{{fun_00010007 arg=\"\"}}\n¡Si es que {{color id=\"4\"}}Totakeke {{color id=\"65535\"}}tiene\nadmiradores por doquier!",
      "USfr": "{{anim id=\"1\"}}Oh, tu es venu{{fun_0006000E arg=\"0x000002006500\"}}, {{fun_00080005 arg=\"\"}}?{{fun_00010007 arg=\"\"}} Le\nfan-club de {{color id=\"4\"}}Kéké{{color id=\"65535\"}} ne connaît pas de\nfrontières!"
    }
  },
  {
    "label": "014",
    "locale": {
      "EUde": "{{anim id=\"37\"}}Du hast nichts dagegen, wenn ich\nlaut mitsinge, oder?",
      "EUen": "{{anim id=\"37\"}}You won't hold it against me if I\nsing along,{{delay frames=\"8\"}} right?",
      "EUes": "{{anim id=\"37\"}}No te importará que yo también\nvaya cantando,{{delay frames=\"10\"}} ¿no, {{delay frames=\"10\"}}bichín?{{delay frames=\"20\"}}\n¡Prometo no hacerlo muy mal!",
      "EUfr": "{{anim id=\"37\"}}Ça ne te dérange pas si je chante en\nmême temps ?",
      "EUit": "{{anim id=\"37\"}}Mica ti dà fastidio se mi metto\na cantare durante il concerto?",
      "JPja": "{{anim id=\"13\"}}わたし　{{delay frames=\"10\"}}{{ruby charSpan=\"2\" value=\"おんがく\"}}音楽にのるのが{{delay frames=\"10\"}}\nちょっと　{{ruby charSpan=\"2\" value=\"へた\"}}下手なんですけど、{{pageBreak}}{{anim id=\"1\"}}{{ruby charSpan=\"2\" value=\"きょう\"}}今日は　{{delay frames=\"10\"}}そういうのは　{{ruby charSpan=\"1\" value=\"ぬ\"}}抜きにして{{delay frames=\"10\"}}\n{{ruby charSpan=\"1\" value=\"たの\"}}楽しみたいと{{ruby charSpan=\"1\" value=\"おも\"}}思います！{{anim id=\"38\"}}",
      "KRko": "{{anim id=\"13\"}}사실 저는{{delay frames=\"10\"}} 박자 감각이{{delay frames=\"10\"}}\n조금 부족한 편인데요{{pageBreak}}{{anim id=\"1\"}}오늘은{{delay frames=\"10\"}} 그런 거 신경 안 쓰고{{delay frames=\"10\"}}\n마음껏 즐길래요!{{anim id=\"38\"}}",
      "USen": "{{anim id=\"37\"}}You won't hold it against me if I\nsing along,{{delay frames=\"8\"}} right?",
      "USes": "{{anim id=\"37\"}}No te importará que yo también\nvaya cantando,{{delay frames=\"10\"}} ¿no, {{delay frames=\"10\"}}bichín?{{delay frames=\"20\"}}\n¡Prometo no hacerlo muy mal!",
      "USfr": "{{anim id=\"37\"}}Ça ne te dérange pas si je chante en\nmême temps?"
    }
  },
  {
    "label": "015",
    "locale": {
      "EUde": "{{anim id=\"1\"}}{{color id=\"4\"}}K.K.{{color id=\"65535\"}} ist prima!{{delay frames=\"20\"}} Bei seiner Musik\nmuss man einfach mittanzen!",
      "EUen": "{{anim id=\"1\"}}{{color id=\"4\"}}DJ KK{{color id=\"65535\"}} is so good at getting us all\nmoving to the music!",
      "EUes": "{{anim id=\"1\"}}¡{{color id=\"4\"}}DJ KeKe {{color id=\"65535\"}}es un maestro!{{delay frames=\"20\"}}\n¡No hay quien se quede quieto\ncuando suena uno de sus temas!",
      "EUfr": "{{anim id=\"1\"}}Quand j'entends {{color id=\"4\"}}Kéké{{color id=\"65535\"}}, je ne peux\npas empêcher mon corps de\nbouger !",
      "EUit": "{{anim id=\"1\"}}{{color id=\"4\"}}DJ K.K.{{color id=\"65535\"}} sa come far scatenare il suo\npubblico al ritmo della musica!",
      "JPja": "{{anim id=\"1\"}}{{color id=\"4\"}}DJ K.K{{color id=\"65535\"}}さんって、{{delay frames=\"10\"}}\nみなさんを　{{delay frames=\"8\"}}{{ruby charSpan=\"2\" value=\"おんがく\"}}音楽にのせるのが{{delay frames=\"8\"}}\n{{anim id=\"4\"}}お{{ruby charSpan=\"2\" value=\"じょうず\"}}上手ですよね！",
      "KRko": "{{anim id=\"1\"}}{{color id=\"4\"}}DJ T.K.{{color id=\"65535\"}}님은{{delay frames=\"10\"}}\n관중을{{delay frames=\"8\"}} 음악으로 휘어잡는 능력이{{delay frames=\"8\"}}\n{{anim id=\"4\"}}정말 뛰어나신 것 같아요!",
      "USen": "{{anim id=\"1\"}}{{color id=\"4\"}}DJ KK{{color id=\"65535\"}} is so good at getting us all\nmoving to the music!",
      "USes": "{{anim id=\"1\"}}¡{{color id=\"4\"}}DJ KeKe {{color id=\"65535\"}}es un maestro!{{delay frames=\"20\"}}\n¡No hay quien se quede quieto\ncuando suena uno de sus temas!",
      "USfr": "{{anim id=\"1\"}}Quand j'entends {{color id=\"4\"}}Kéké{{color id=\"65535\"}}, je ne peux\npas empêcher mon corps de\nbouger!"
    }
  },
  {
    "label": "016",
    "locale": {
      "EUde": "{{anim id=\"1\"}}Kennst du dich gut mit Musik aus,\n{{fun_00080005 arg=\"\"}}?{{delay frames=\"20\"}} Bestimmt könnte ich\nviel von dir lernen!",
      "EUen": "{{anim id=\"1\"}}You seem to know a lot about\nmusic,{{delay frames=\"8\"}} {{fun_00080005 arg=\"\"}}.{{delay frames=\"20\"}} I'd love for you\nto teach me a few things.",
      "EUes": "{{anim id=\"1\"}}Algo me dice que sabes bastante\nde música,{{delay frames=\"10\"}} {{fun_00080005 arg=\"\"}}.{{delay frames=\"20\"}} ¿Me podrías\nenseñar algunas cositas,{{delay frames=\"10\"}} porfa?",
      "EUfr": "{{anim id=\"1\"}}Tu as l'air drôlement calé{{fun_0006000E arg=\"0x000002006500\"}} en\nmusique.{{delay frames=\"10\"}} Tu m'apprendras ce que\ntu sais, {{fun_00080005 arg=\"\"}} ?",
      "EUit": "{{anim id=\"1\"}}Sembra che la musica non abbia\nsegreti per te,{{delay frames=\"8\"}} {{fun_00080005 arg=\"\"}}.{{delay frames=\"20\"}} Potresti\ndavvero insegnarmi qualcosa.",
      "JPja": "{{anim id=\"1\"}}{{fun_00080005 arg=\"\"}}さんって{{delay frames=\"10\"}}\n{{ruby charSpan=\"2\" value=\"おんがく\"}}音楽に　くわしそうです！{{fun_00010007 arg=\"\"}}\n{{anim id=\"5\"}}わたしにも　{{delay frames=\"10\"}}{{ruby charSpan=\"2\" value=\"いろいろ\"}}色々{{ruby charSpan=\"1\" value=\"おし\"}}教えてくださいね！",
      "KRko": "{{anim id=\"1\"}}{{fun_00080005 arg=\"\"}}님은{{delay frames=\"10\"}} 왠지 음악에\n조예가 깊으실 것 같아요!{{fun_00010007 arg=\"\"}}\n{{anim id=\"5\"}}저한테도{{delay frames=\"10\"}} 많이 가르쳐주세요!",
      "USen": "{{anim id=\"1\"}}You seem to know a lot about\nmusic,{{delay frames=\"8\"}} {{fun_00080005 arg=\"\"}}.{{delay frames=\"20\"}} I'd love for you\nto teach me a few things.",
      "USes": "{{anim id=\"1\"}}Algo me dice que sabes bastante\nde música,{{delay frames=\"10\"}} {{fun_00080005 arg=\"\"}}.{{delay frames=\"20\"}} ¿Me podrías\nenseñar algunas cositas,{{delay frames=\"10\"}} porfa?",
      "USfr": "{{anim id=\"1\"}}Tu as l'air drôlement calé{{fun_0006000E arg=\"0x000002006500\"}} en\nmusique.{{delay frames=\"10\"}} Tu m'apprendras ce que\ntu sais, {{fun_00080005 arg=\"\"}}?"
    }
  },
  {
    "label": "017",
    "locale": {
      "EUde": "{{anim id=\"1\"}}Heute lass ich fünfe mal gerade\nsein und gebe mich ganz der Musik\nhin, {{delay frames=\"8\"}}{{fun_00070005 arg=\"\"}}!",
      "EUen": "{{anim id=\"1\"}}Today{{delay frames=\"8\"}} I'm going to forget all my\nworries and just enjoy the music!",
      "EUes": "{{anim id=\"1\"}}¡Es la hora de olvidar todos los\nproblemas y disfrutar de la buena\nmúsica!",
      "EUfr": "{{anim id=\"1\"}}J'ai laissé mes soucis au vestiaire :{{delay frames=\"10\"}}\naujourd'hui, je suis là pour profiter\nde la musique !",
      "EUit": "{{anim id=\"1\"}}Oggi ho intenzione di godermi\nla musica senza pensare al resto!",
      "JPja": "{{anim id=\"1\"}}{{ruby charSpan=\"2\" value=\"きょう\"}}今日は　{{ruby charSpan=\"2\" value=\"じかん\"}}時間を{{ruby charSpan=\"1\" value=\"わす\"}}忘れて{{delay frames=\"10\"}}\n{{ruby charSpan=\"1\" value=\"たの\"}}楽しく{{ruby charSpan=\"1\" value=\"す\"}}過ごしましょうね",
      "KRko": "{{anim id=\"1\"}}오늘은 시간 따위 잊어버리고{{delay frames=\"10\"}}\n마음껏 즐겨보아요!",
      "USen": "{{anim id=\"1\"}}Today{{delay frames=\"8\"}} I'm going to forget all my\nworries and just enjoy the music!",
      "USes": "{{anim id=\"1\"}}¡Es la hora de olvidar todos los\nproblemas y disfrutar de la buena\nmúsica!",
      "USfr": "{{anim id=\"1\"}}J'ai laissé mes soucis au vestiaire :{{delay frames=\"10\"}}\naujourd'hui, je suis là pour profiter\nde la musique!"
    }
  },
  {
    "label": "018",
    "locale": {
      "EUde": "Du bist extra angereist?{{delay frames=\"20\"}} {{anim id=\"22\"}}Oh!{{delay frames=\"20\"}} \nWillst du etwa selbst {{fun_0006000E arg=\"0x1600650069006E0020004D007500730069006B00650072001C00650069006E00650020004D007500730069006B006500720069006E00\"}}\nwerden?",
      "EUen": "You came a long way today.{{delay frames=\"20\"}} {{anim id=\"22\"}}Oh!{{delay frames=\"20\"}} Do\nyou want to be a DJ too?{{delay frames=\"20\"}}",
      "EUes": "Menudo viaje te has pegado para\nvenir, {{delay frames=\"10\"}}pequeñ{{fun_0006000E arg=\"0x02006F0002006100\"}}.{{delay frames=\"20\"}} {{anim id=\"22\"}}¡Ah!{{delay frames=\"20\"}} ¡¿No querrás\nhacerte DJ tú también?!",
      "EUfr": "Tu as parcouru un long chemin pour\nvenir ici...{{delay frames=\"20\"}} {{anim id=\"22\"}}Oh, toi aussi, tu veux\ndevenir musicien{{fun_0006000E arg=\"0x000004006E006500\"}} ?",
      "EUit": "Devi aver fatto molta strada per\nvenire fin qui. {{delay frames=\"20\"}}{{anim id=\"22\"}}Oh!{{delay frames=\"20\"}} Vuoi diventare\nanche tu un{{fun_0006000E arg=\"0x0200200002006100\"}} DJ?{{delay frames=\"20\"}}",
      "JPja": "{{anim id=\"1\"}}ここまで　{{ruby charSpan=\"1\" value=\"き\"}}聴きに{{ruby charSpan=\"1\" value=\"く\"}}来るなんて{{delay frames=\"10\"}}\n{{ruby charSpan=\"2\" value=\"ねっしん\"}}熱心なんですね！{{pageBreak}}{{anim id=\"22\"}}もしかして　{{delay frames=\"10\"}}DJに\nなりたいとかですか、{{delay frames=\"10\"}}{{fun_00070005 arg=\"\"}}！",
      "KRko": "{{anim id=\"1\"}}음악 때문에 여기까지 오시다니{{delay frames=\"10\"}}\n열정이 대단하시네요!{{pageBreak}}{{anim id=\"22\"}}아, 혹시{{delay frames=\"10\"}} DJ가 꿈이신가요?\n{{delay frames=\"10\"}}{{fun_00070005 arg=\"\"}}?",
      "USen": "You came a long way today.{{delay frames=\"20\"}} {{anim id=\"22\"}}Oh!{{delay frames=\"20\"}} Do\nyou want to be a DJ too?{{delay frames=\"20\"}}",
      "USes": "Menudo viaje te has pegado para\nvenir, {{delay frames=\"10\"}}pequeñ{{fun_0006000E arg=\"0x02006F0002006100\"}}.{{delay frames=\"20\"}} {{anim id=\"22\"}}¡Ah!{{delay frames=\"20\"}} ¡¿No querrás\nhacerte DJ tú también?!",
      "USfr": "Tu as parcouru un long chemin pour\nvenir ici...{{delay frames=\"20\"}} {{anim id=\"22\"}}Oh, toi aussi, tu veux\ndevenir musicien{{fun_0006000E arg=\"0x000004006E006500\"}}?"
    }
  },
  {
    "label": "019",
    "locale": {
      "EUde": "{{anim id=\"1\"}}Du bist extra für {{color id=\"4\"}}K.K.{{color id=\"65535\"}} angereist?{{delay frames=\"20\"}}\nDu musst einer seiner größten\nFans sein!",
      "EUen": "{{anim id=\"1\"}}Wow!{{delay frames=\"20\"}} To come all this way,{{delay frames=\"8\"}} you\nmust be a big fan of {{color id=\"4\"}}DJ KK{{color id=\"65535\"}}!",
      "EUes": "{{anim id=\"1\"}}¡Rábanos y lentejas!{{delay frames=\"20\"}} Se nota que\neres u{{fun_0006000E arg=\"0x02006E0004006E006100\"}} gran fan de {{color id=\"4\"}}DJ KeKe{{color id=\"65535\"}}.\n{{delay frames=\"20\"}}¡Ese viaje no lo hace cualquiera!",
      "EUfr": "{{anim id=\"1\"}}Waouh, tu as fait une sacrée trotte\npour venir jusqu'ici ! Tu es {{fun_0006000E arg=\"0x0E0075006E0020007600720061006900120075006E006500200076007200610069006500\"}}\nfan de {{color id=\"4\"}}Kéké{{color id=\"65535\"}}, toi, aucun doute !",
      "EUit": "{{anim id=\"1\"}}Uau!{{delay frames=\"20\"}} Devi essere un{{fun_0006000E arg=\"0x0200200002006100\"}} grande fan\ndi {{color id=\"4\"}}DJ K.K. {{color id=\"65535\"}}per aver fatto tuuutta\nquesta strada solo per lui!",
      "JPja": "{{anim id=\"1\"}}わざわざ　いらっしゃるなんて{{delay frames=\"10\"}}\n{{anim id=\"5\"}}{{color id=\"4\"}}DJ K.K{{color id=\"65535\"}}さんの　{{delay frames=\"8\"}}ファンだったんですね！",
      "KRko": "{{anim id=\"1\"}}이렇게 멀리까지 찾아오시다니{{delay frames=\"10\"}}\n{{anim id=\"5\"}}{{color id=\"4\"}}DJ T.K.{{color id=\"65535\"}}님의{{delay frames=\"8\"}} 열성적인\n팬이셨군요!",
      "USen": "{{anim id=\"1\"}}Wow!{{delay frames=\"20\"}} To come all this way,{{delay frames=\"8\"}} you\nmust be a big fan of {{color id=\"4\"}}DJ KK{{color id=\"65535\"}}!",
      "USes": "{{anim id=\"1\"}}¡Rábanos y lentejas!{{delay frames=\"20\"}} Se nota que\neres u{{fun_0006000E arg=\"0x02006E0004006E006100\"}} gran fan de {{color id=\"4\"}}DJ KeKe{{color id=\"65535\"}}.\n{{delay frames=\"20\"}}¡Ese viaje no lo hace cualquiera!",
      "USfr": "{{anim id=\"1\"}}Waouh, tu as fait une sacrée trotte\npour venir jusqu'ici! Tu es {{fun_0006000E arg=\"0x0E0075006E0020007600720061006900120075006E006500200076007200610069006500\"}}\nfan de {{color id=\"4\"}}Kéké{{color id=\"65535\"}}, toi, aucun doute!"
    }
  }
]