﻿[
  {
    "label": "001",
    "locale": {
      "EUde": "{{anim id=\"1\"}}{{fun_0003000E arg=\"\"}}{{fun_00060007 arg=\"\"}}Morgen{{fun_00070007 arg=\"\"}}!\n{{delay frames=\"20\"}}Supi, dich zu sehen, {{fun_00080005 arg=\"\"}}!\n{{delay frames=\"20\"}}{{fun_0003000E arg=\"\"}}{{fun_00070005 arg=\"\"}}!",
      "EUen": "{{anim id=\"1\"}}{{fun_0003000E arg=\"\"}}{{fun_00060007 arg=\"\"}}Good morning{{fun_00070007 arg=\"\"}}!\nGood to see you, {{fun_00080005 arg=\"\"}}!",
      "EUes": "{{anim id=\"1\"}}¡{{fun_0003000E arg=\"\"}}{{fun_00060007 arg=\"\"}}Buenos días{{fun_00070007 arg=\"\"}}!\n¡Tienes buena cara, {{fun_00080005 arg=\"\"}}!\n¡Aunque no tan divina como la mía!",
      "EUfr": "{{anim id=\"38\"}}{{fun_0003000E arg=\"\"}}{{fun_00060007 arg=\"\"}}Kikou toi{{fun_00070007 arg=\"\"}} !\nCe que je suis contente de te voir,\n{{fun_00080005 arg=\"\"}} ! {{fun_0003000E arg=\"\"}}{{fun_00070005 arg=\"\"}} !",
      "EUit": "{{anim id=\"1\"}}{{fun_0003000E arg=\"\"}}{{fun_00060007 arg=\"\"}}Ehilà{{fun_00070007 arg=\"\"}}!\nSono troppo contenta di vederti,\n{{fun_00080005 arg=\"\"}}!",
      "JPja": "{{anim id=\"1\"}}{{fun_00060007 arg=\"\"}}おっはよ～！{{fun_00070007 arg=\"\"}}{{delay frames=\"20\"}}\n{{fun_00080005 arg=\"\"}}{{fun_000D0005 arg=\"\"}}！　{{delay frames=\"20\"}}{{fun_00070005 arg=\"\"}}",
      "KRko": "{{anim id=\"1\"}}{{fun_00060007 arg=\"\"}}안녕～!{{fun_00070007 arg=\"\"}}{{delay frames=\"20\"}}\n{{fun_00080005 arg=\"\"}}{{fun_000E000E arg=\"0x020044C502007CC5\"}}, {{delay frames=\"20\"}}{{fun_00070005 arg=\"\"}}!",
      "USen": "{{anim id=\"1\"}}{{fun_0003000E arg=\"\"}}{{fun_00060007 arg=\"\"}}Good morning{{fun_00070007 arg=\"\"}}!\nGood to see you, {{fun_00080005 arg=\"\"}}!",
      "USes": "{{anim id=\"1\"}}¡{{fun_0003000E arg=\"\"}}{{fun_00060007 arg=\"\"}}Buenos días{{fun_00070007 arg=\"\"}}!\n¡Tienes buena cara, {{fun_00080005 arg=\"\"}}!\n¡Aunque no tan divina como la mía!",
      "USfr": "{{anim id=\"38\"}}{{fun_0003000E arg=\"\"}}{{fun_00060007 arg=\"\"}}Kikou toi{{fun_00070007 arg=\"\"}}!\nCe que je suis contente de te voir,\n{{fun_00080005 arg=\"\"}}! {{fun_0003000E arg=\"\"}}{{fun_00070005 arg=\"\"}}!"
    }
  },
  {
    "label": "002",
    "locale": {
      "EUde": "{{anim id=\"1\"}}{{fun_0003000E arg=\"\"}}{{fun_00060007 arg=\"\"}}Hallihallo{{fun_00070007 arg=\"\"}}!\n{{delay frames=\"20\"}}Voll schön heute morgen, oder,\n{{fun_00080005 arg=\"\"}}?! {{delay frames=\"20\"}}{{fun_0003000E arg=\"\"}}{{fun_00070005 arg=\"\"}}!",
      "EUen": "{{anim id=\"1\"}}{{fun_0003000E arg=\"\"}}{{fun_00060007 arg=\"\"}}Hello, hello{{fun_00070007 arg=\"\"}}!\nPretty morning, right,\n{{fun_00080005 arg=\"\"}}?",
      "EUes": "{{anim id=\"1\"}}¡{{fun_0003000E arg=\"\"}}{{fun_00060007 arg=\"\"}}Buenos días, {{fun_00080005 arg=\"\"}}{{fun_00070007 arg=\"\"}}!\nYo tampoco puedo quedarme\nen la cama cuando veo el sol.",
      "EUfr": "{{anim id=\"1\"}}{{fun_0003000E arg=\"\"}}{{fun_00060007 arg=\"\"}}Coucou{{fun_00070007 arg=\"\"}} !\nIl est pas super cool ce temps,\n{{fun_00080005 arg=\"\"}} ?! {{fun_0003000E arg=\"\"}}{{fun_00070005 arg=\"\"}} !",
      "EUit": "{{anim id=\"1\"}}{{fun_0003000E arg=\"\"}}{{fun_00060007 arg=\"\"}}Ciaaao{{fun_00070007 arg=\"\"}}!\nOggi è una giornata da urlo, vero,\n{{fun_00080005 arg=\"\"}}?",
      "JPja": "{{anim id=\"1\"}}{{fun_00080005 arg=\"\"}}{{fun_000D0005 arg=\"\"}}！{{delay frames=\"20\"}}\nおっはよ～、{{delay frames=\"10\"}}{{fun_00070005 arg=\"\"}}！",
      "KRko": "{{anim id=\"1\"}}{{fun_00080005 arg=\"\"}}{{fun_000E000E arg=\"0x020044C502007CC5\"}}!{{delay frames=\"20\"}}\n안녕～ {{delay frames=\"10\"}}{{fun_00070005 arg=\"\"}}!",
      "USen": "{{anim id=\"1\"}}{{fun_0003000E arg=\"\"}}{{fun_00060007 arg=\"\"}}Hello, hello{{fun_00070007 arg=\"\"}}!\nPretty morning, right,\n{{fun_00080005 arg=\"\"}}?",
      "USes": "{{anim id=\"1\"}}¡{{fun_0003000E arg=\"\"}}{{fun_00060007 arg=\"\"}}Buenos días, {{fun_00080005 arg=\"\"}}{{fun_00070007 arg=\"\"}}!\nYo tampoco puedo quedarme\nen la cama cuando veo el sol.",
      "USfr": "{{anim id=\"1\"}}{{fun_0003000E arg=\"\"}}{{fun_00060007 arg=\"\"}}Coucou{{fun_00070007 arg=\"\"}}!\nIl est pas super cool ce temps,\n{{fun_00080005 arg=\"\"}}?! {{fun_0003000E arg=\"\"}}{{fun_00070005 arg=\"\"}}!"
    }
  },
  {
    "label": "003",
    "locale": {
      "EUde": "{{anim id=\"32\"}}Wie läuft denn dein Morgen so,\n{{fun_00080005 arg=\"\"}}? {{delay frames=\"20\"}}Ich hoffe, bei dir ist\nalles paletti, {{delay frames=\"10\"}}{{fun_00070005 arg=\"\"}}!",
      "EUen": "{{anim id=\"32\"}}How's your morning, {{fun_00080005 arg=\"\"}}?\nI hope it's great, {{fun_00070005 arg=\"\"}}!",
      "EUes": "{{anim id=\"32\"}}¿Qué tal, {{fun_00080005 arg=\"\"}}?\n¿Preparando alguna travesura, \n{{fun_00070005 arg=\"\"}}? {{delay frames=\"10\"}}{{anim id=\"28\"}}Porque yo no...",
      "EUfr": "{{anim id=\"32\"}}C'est une matinée magnifique !\nTu ne trouves pas, {{fun_00080005 arg=\"\"}} ?!\n{{fun_0003000E arg=\"\"}}{{fun_00070005 arg=\"\"}} !",
      "EUit": "{{anim id=\"32\"}}Come va la mattina, {{fun_00080005 arg=\"\"}}?\nAlla grande, spero, {{fun_00070005 arg=\"\"}}!",
      "JPja": "{{anim id=\"16\"}}わぁ、{{delay frames=\"10\"}}{{fun_00080005 arg=\"\"}}{{fun_000D0005 arg=\"\"}}！{{delay frames=\"30\"}}\n{{anim id=\"1\"}}{{ruby charSpan=\"1\" value=\"あさ\"}}朝から{{ruby charSpan=\"2\" value=\"げんき\"}}元気だね～、{{delay frames=\"10\"}}{{fun_00070005 arg=\"\"}}！",
      "KRko": "{{anim id=\"16\"}}와아, {{fun_00080005 arg=\"\"}}{{fun_000E000E arg=\"0x020044C502007CC5\"}}!{{delay frames=\"30\"}}\n{{anim id=\"1\"}}아침부터 활기차네～ {{delay frames=\"10\"}}{{fun_00070005 arg=\"\"}}!",
      "USen": "{{anim id=\"32\"}}How's your morning, {{fun_00080005 arg=\"\"}}?\nI hope it's great, {{fun_00070005 arg=\"\"}}!",
      "USes": "{{anim id=\"32\"}}¿Qué tal, {{fun_00080005 arg=\"\"}}?\n¿Preparando alguna travesura, \n{{fun_00070005 arg=\"\"}}? {{delay frames=\"10\"}}{{anim id=\"28\"}}Porque yo no...",
      "USfr": "{{anim id=\"32\"}}C'est une matinée magnifique!\nTu ne trouves pas, {{fun_00080005 arg=\"\"}}?!\n{{fun_0003000E arg=\"\"}}{{fun_00070005 arg=\"\"}}!"
    }
  },
  {
    "label": "004",
    "locale": {
      "EUde": "{{anim id=\"38\"}}Mensch, du siehst heute sogar noch\nmehr wie du selbst aus, {{fun_00080005 arg=\"\"}}!\n{{delay frames=\"20\"}}{{fun_0003000E arg=\"\"}}{{fun_00070005 arg=\"\"}}!",
      "EUen": "{{anim id=\"38\"}}You're looking so {{delay frames=\"5\"}}YOU today,\n{{fun_00080005 arg=\"\"}}!",
      "EUes": "{{anim id=\"16\"}}¡Vaya, {{fun_00080005 arg=\"\"}}! Hoy estás...{{delay frames=\"8\"}}\n{{anim id=\"27\"}}como siempre, la verdad.",
      "EUfr": "{{anim id=\"38\"}}Tu es tout simplement radieu{{fun_0006000E arg=\"0x02007800040073006500\"}}\naujourd'hui, {{fun_00080005 arg=\"\"}} ! Je suis\nverte de jalousie, {{fun_00070005 arg=\"\"}} !",
      "EUit": "{{anim id=\"38\"}}Sei troppo trendy oggi,\n{{fun_00080005 arg=\"\"}}!",
      "JPja": "{{anim id=\"1\"}}{{fun_00080005 arg=\"\"}}{{fun_000D0005 arg=\"\"}}！{{delay frames=\"30\"}}\n{{anim id=\"38\"}}{{ruby charSpan=\"2\" value=\"げんき\"}}元気そうだね～、{{delay frames=\"10\"}}{{fun_00070005 arg=\"\"}}",
      "KRko": "{{anim id=\"1\"}}{{fun_00080005 arg=\"\"}}{{fun_000E000E arg=\"0x020044C502007CC5\"}}!{{delay frames=\"30\"}}\n{{anim id=\"38\"}}컨디션 좋아 보이네～ {{delay frames=\"10\"}}{{fun_00070005 arg=\"\"}}!",
      "USen": "{{anim id=\"38\"}}You're looking so {{delay frames=\"5\"}}YOU today,\n{{fun_00080005 arg=\"\"}}!",
      "USes": "{{anim id=\"16\"}}¡Vaya, {{fun_00080005 arg=\"\"}}! Hoy estás...{{delay frames=\"8\"}}\n{{anim id=\"27\"}}como siempre, la verdad.",
      "USfr": "{{anim id=\"38\"}}Tu es tout simplement radieu{{fun_0006000E arg=\"0x02007800040073006500\"}}\naujourd'hui, {{fun_00080005 arg=\"\"}}! Je suis\nverte de jalousie, {{fun_00070005 arg=\"\"}}!"
    }
  },
  {
    "label": "005",
    "locale": {
      "EUde": "{{anim id=\"16\"}}{{fun_0003000E arg=\"\"}}{{fun_00060007 arg=\"\"}}Oh, du bist's{{fun_00070007 arg=\"\"}}!\n{{delay frames=\"20\"}}Hallihallo, {{delay frames=\"10\"}}{{fun_00070005 arg=\"\"}}!",
      "EUen": "{{anim id=\"16\"}}{{fun_0003000E arg=\"\"}}{{fun_00060007 arg=\"\"}}Oh, it's totally you{{fun_00070007 arg=\"\"}}!{{delay frames=\"5\"}}\nHello, hello, {{fun_00070005 arg=\"\"}}!",
      "EUes": "{{anim id=\"1\"}}¡{{fun_0003000E arg=\"\"}}{{fun_00060007 arg=\"\"}}Hola, maj{{fun_0006000E arg=\"0x02006F0002006100\"}}{{fun_00070007 arg=\"\"}}!\nMe gusta tu estilo, {{fun_00070005 arg=\"\"}}.",
      "EUfr": "{{anim id=\"16\"}}{{fun_0003000E arg=\"\"}}{{fun_00060007 arg=\"\"}}Coucou toi{{fun_00070007 arg=\"\"}} !\nÇa me fait super plaisir de te voir,\n{{fun_00070005 arg=\"\"}} !",
      "EUit": "{{anim id=\"16\"}}{{fun_0003000E arg=\"\"}}{{fun_00060007 arg=\"\"}}Ciaaao{{fun_00070007 arg=\"\"}}!\nChe look allucinante, {{fun_00070005 arg=\"\"}}!",
      "JPja": "{{anim id=\"16\"}}あっ、{{delay frames=\"20\"}}{{fun_00080005 arg=\"\"}}{{fun_000D0005 arg=\"\"}}！{{delay frames=\"30\"}}\n{{anim id=\"1\"}}ヤッホー、{{delay frames=\"10\"}}{{fun_00070005 arg=\"\"}}！",
      "KRko": "{{anim id=\"16\"}}앗, {{delay frames=\"20\"}}{{fun_00080005 arg=\"\"}}{{fun_000E000E arg=\"0x020044C502007CC5\"}}!{{delay frames=\"30\"}}\n{{anim id=\"1\"}}얏호ー {{delay frames=\"10\"}}{{fun_00070005 arg=\"\"}}!",
      "USen": "{{anim id=\"16\"}}{{fun_0003000E arg=\"\"}}{{fun_00060007 arg=\"\"}}Oh, it's totally you{{fun_00070007 arg=\"\"}}!{{delay frames=\"5\"}}\nHello, hello, {{fun_00070005 arg=\"\"}}!",
      "USes": "{{anim id=\"1\"}}¡{{fun_0003000E arg=\"\"}}{{fun_00060007 arg=\"\"}}Hola, maj{{fun_0006000E arg=\"0x02006F0002006100\"}}{{fun_00070007 arg=\"\"}}!\nMe gusta tu estilo, {{fun_00070005 arg=\"\"}}.",
      "USfr": "{{anim id=\"16\"}}{{fun_0003000E arg=\"\"}}{{fun_00060007 arg=\"\"}}Coucou toi{{fun_00070007 arg=\"\"}}!\nÇa me fait super plaisir de te voir,\n{{fun_00070005 arg=\"\"}}!"
    }
  },
  {
    "label": "006",
    "locale": {
      "EUde": "{{anim id=\"32\"}}{{fun_0003000E arg=\"\"}}{{fun_00060007 arg=\"\"}}Huhuuu{{fun_00070007 arg=\"\"}}!\n{{delay frames=\"20\"}}Na, wie läuft der Mittag so,\n{{fun_00080005 arg=\"\"}}? {{delay frames=\"20\"}}{{fun_0003000E arg=\"\"}}{{fun_00070005 arg=\"\"}}!",
      "EUen": "{{anim id=\"32\"}}{{fun_0003000E arg=\"\"}}{{fun_00060007 arg=\"\"}}Woohoo, hello{{fun_00070007 arg=\"\"}}!\nHow's your afternoon, {{fun_00080005 arg=\"\"}}?",
      "EUes": "{{anim id=\"32\"}}¡{{fun_0003000E arg=\"\"}}{{fun_00060007 arg=\"\"}}Eeeh, hola{{fun_00070007 arg=\"\"}}!\nPues se ha quedado una tarde\nmaravillosísima.",
      "EUfr": "{{anim id=\"32\"}}{{fun_0003000E arg=\"\"}}{{fun_00060007 arg=\"\"}}Wouhou{{fun_00070007 arg=\"\"}} !\nÇa va comme tu veux, {{fun_00080005 arg=\"\"}} ?\n{{anim id=\"29\"}}Je pète la forme, {{fun_00070005 arg=\"\"}} !",
      "EUit": "{{anim id=\"32\"}}{{fun_0003000E arg=\"\"}}{{fun_00060007 arg=\"\"}}Ciaaao{{fun_00070007 arg=\"\"}}!\nCome butta la giornata, {{fun_00080005 arg=\"\"}}?",
      "JPja": "{{anim id=\"16\"}}あっ、{{delay frames=\"20\"}}{{fun_00080005 arg=\"\"}}{{fun_000D0005 arg=\"\"}}！{{delay frames=\"30\"}}\n{{anim id=\"1\"}}{{fun_00060007 arg=\"\"}}こんにちは～、{{delay frames=\"10\"}}{{fun_00070005 arg=\"\"}}！{{fun_00070007 arg=\"\"}}",
      "KRko": "{{anim id=\"16\"}}앗, {{delay frames=\"20\"}}{{fun_00080005 arg=\"\"}}{{fun_000E000E arg=\"0x020044C502007CC5\"}}!{{delay frames=\"30\"}}\n{{anim id=\"1\"}}{{fun_00060007 arg=\"\"}}안녕～ {{delay frames=\"10\"}}{{fun_00070005 arg=\"\"}}!{{fun_00070007 arg=\"\"}}",
      "USen": "{{anim id=\"32\"}}{{fun_0003000E arg=\"\"}}{{fun_00060007 arg=\"\"}}Woohoo, hello{{fun_00070007 arg=\"\"}}!\nHow's your afternoon, {{fun_00080005 arg=\"\"}}?",
      "USes": "{{anim id=\"32\"}}¡{{fun_0003000E arg=\"\"}}{{fun_00060007 arg=\"\"}}Eeeh, hola{{fun_00070007 arg=\"\"}}!\nPues se ha quedado una tarde\nmaravillosísima.",
      "USfr": "{{anim id=\"32\"}}{{fun_0003000E arg=\"\"}}{{fun_00060007 arg=\"\"}}Wouhou{{fun_00070007 arg=\"\"}}!\nÇa va comme tu veux, {{fun_00080005 arg=\"\"}}?\n{{anim id=\"29\"}}Je pète la forme, {{fun_00070005 arg=\"\"}}!"
    }
  },
  {
    "label": "007",
    "locale": {
      "EUde": "{{anim id=\"1\"}}{{fun_0003000E arg=\"\"}}{{fun_00060007 arg=\"\"}}Wie cool, dich zu sehen{{fun_00070007 arg=\"\"}}!\nIch hab immer Zeit für dich,\n{{fun_00080005 arg=\"\"}}! {{delay frames=\"20\"}}{{fun_0003000E arg=\"\"}}{{fun_00070005 arg=\"\"}}!",
      "EUen": "{{anim id=\"1\"}}{{fun_0003000E arg=\"\"}}{{fun_00060007 arg=\"\"}}Good to see you tonight{{fun_00070007 arg=\"\"}}!{{delay frames=\"10\"}}\nI've always got time for you,\n{{fun_00080005 arg=\"\"}}!",
      "EUes": "{{anim id=\"1\"}}¡{{fun_0003000E arg=\"\"}}{{fun_00060007 arg=\"\"}}Buenas noches, {{fun_00080005 arg=\"\"}}{{fun_00070007 arg=\"\"}}!\n¡Ya sabes que para ti saco tiempo\nde debajo de las piedras!",
      "EUfr": "{{anim id=\"32\"}}{{fun_0003000E arg=\"\"}}{{fun_00060007 arg=\"\"}}Salut toi{{fun_00070007 arg=\"\"}} !\nOn papote une minute, {{fun_00080005 arg=\"\"}} ?\nJe t'adoooore ! {{fun_0003000E arg=\"\"}}{{fun_00070005 arg=\"\"}} !",
      "EUit": "{{anim id=\"1\"}}{{fun_0003000E arg=\"\"}}{{fun_00060007 arg=\"\"}}Che storia incontrarti qui{{fun_00070007 arg=\"\"}}!\nFacciamoci quattro chiacchiere,\n{{fun_00080005 arg=\"\"}}!",
      "JPja": "{{anim id=\"16\"}}あっ、{{delay frames=\"20\"}}{{fun_00080005 arg=\"\"}}{{fun_000D0005 arg=\"\"}}じゃん！{{delay frames=\"30\"}}\n{{anim id=\"1\"}}{{fun_00060007 arg=\"\"}}こんばんは～、{{delay frames=\"10\"}}{{fun_00070005 arg=\"\"}}！{{fun_00070007 arg=\"\"}}",
      "KRko": "{{anim id=\"16\"}}앗, {{delay frames=\"20\"}}{{fun_00080005 arg=\"\"}}{{fun_000E000E arg=\"0x020074C70000\"}}잖아!{{delay frames=\"30\"}}\n{{anim id=\"1\"}}{{fun_00060007 arg=\"\"}}안녕～ {{delay frames=\"10\"}}{{fun_00070005 arg=\"\"}}!{{fun_00070007 arg=\"\"}}",
      "USen": "{{anim id=\"1\"}}{{fun_0003000E arg=\"\"}}{{fun_00060007 arg=\"\"}}Good to see you tonight{{fun_00070007 arg=\"\"}}!{{delay frames=\"10\"}}\nI've always got time for you,\n{{fun_00080005 arg=\"\"}}!",
      "USes": "{{anim id=\"1\"}}¡{{fun_0003000E arg=\"\"}}{{fun_00060007 arg=\"\"}}Buenas noches, {{fun_00080005 arg=\"\"}}{{fun_00070007 arg=\"\"}}!\n¡Ya sabes que para ti saco tiempo\nde debajo de las piedras!",
      "USfr": "{{anim id=\"32\"}}{{fun_0003000E arg=\"\"}}{{fun_00060007 arg=\"\"}}Salut toi{{fun_00070007 arg=\"\"}}!\nOn papote une minute, {{fun_00080005 arg=\"\"}}?\nJe t'adoooore! {{fun_0003000E arg=\"\"}}{{fun_00070005 arg=\"\"}}!"
    }
  },
  {
    "label": "008",
    "locale": {
      "EUde": "{{anim id=\"32\"}}{{fun_0003000E arg=\"\"}}{{fun_00060007 arg=\"\"}}Tralalala, {{delay frames=\"10\"}}hey du{{fun_00070007 arg=\"\"}}!\n{{delay frames=\"20\"}}So eine schöne Nacht, oder?\n{{delay frames=\"20\"}}{{fun_0003000E arg=\"\"}}{{fun_00070005 arg=\"\"}}!",
      "EUen": "{{anim id=\"32\"}}{{fun_0003000E arg=\"\"}}{{fun_00060007 arg=\"\"}}Hey! Good evening{{fun_00070007 arg=\"\"}}!{{delay frames=\"10\"}}\nWhat a lovely night, {{delay frames=\"10\"}}{{fun_00070005 arg=\"\"}}!",
      "EUes": "{{anim id=\"32\"}}¡{{fun_0003000E arg=\"\"}}{{fun_00060007 arg=\"\"}}Oh, tú por aquí{{fun_00070007 arg=\"\"}}!\nPues ya es de noche, {{delay frames=\"10\"}}{{fun_00070005 arg=\"\"}}.\n¡Se me ha pasado el día volando!",
      "EUfr": "{{anim id=\"32\"}}{{fun_0003000E arg=\"\"}}{{fun_00060007 arg=\"\"}}Tiens, c'est toi{{fun_00070007 arg=\"\"}} !\n{{anim id=\"38\"}}Cette soirée est tout simplement\nma{{delay frames=\"15\"}}gni{{delay frames=\"15\"}}fique, {{delay frames=\"10\"}}{{fun_00070005 arg=\"\"}} !",
      "EUit": "{{anim id=\"32\"}}{{fun_0003000E arg=\"\"}}{{fun_00060007 arg=\"\"}}Ehi! Buonasera{{fun_00070007 arg=\"\"}}!{{pageBreak}}Che serata spettacolo,\n{{delay frames=\"10\"}}{{fun_00070005 arg=\"\"}}!",
      "JPja": "{{anim id=\"1\"}}あ～、{{delay frames=\"10\"}}{{fun_00080005 arg=\"\"}}{{fun_000D0005 arg=\"\"}}！{{pageBreak}}{{anim id=\"0\"}}{{ruby charSpan=\"2\" value=\"じかん\"}}時間たつの{{ruby charSpan=\"1\" value=\"はや\"}}早いね{{delay frames=\"20\"}}\nもう{{ruby charSpan=\"1\" value=\"よる\"}}夜だよ、{{delay frames=\"10\"}}{{fun_00070005 arg=\"\"}}！",
      "KRko": "{{anim id=\"1\"}}아～ {{delay frames=\"10\"}}{{fun_00080005 arg=\"\"}}{{fun_000E000E arg=\"0x020044C502007CC5\"}}!{{pageBreak}}{{anim id=\"0\"}}시간 정말 빨리 간다{{delay frames=\"20\"}}\n벌써 밤이야, {{delay frames=\"10\"}}{{fun_00070005 arg=\"\"}}!",
      "USen": "{{anim id=\"32\"}}{{fun_0003000E arg=\"\"}}{{fun_00060007 arg=\"\"}}Hey! Good evening{{fun_00070007 arg=\"\"}}!{{delay frames=\"10\"}}\nWhat a lovely night, {{delay frames=\"10\"}}{{fun_00070005 arg=\"\"}}!",
      "USes": "{{anim id=\"32\"}}¡{{fun_0003000E arg=\"\"}}{{fun_00060007 arg=\"\"}}Oh, tú por aquí{{fun_00070007 arg=\"\"}}!\nPues ya es de noche, {{delay frames=\"10\"}}{{fun_00070005 arg=\"\"}}.\n¡Se me ha pasado el día volando!",
      "USfr": "{{anim id=\"32\"}}{{fun_0003000E arg=\"\"}}{{fun_00060007 arg=\"\"}}Tiens, c'est toi{{fun_00070007 arg=\"\"}}!\n{{anim id=\"38\"}}Cette soirée est tout simplement\nma{{delay frames=\"15\"}}gni{{delay frames=\"15\"}}fique, {{delay frames=\"10\"}}{{fun_00070005 arg=\"\"}}!"
    }
  },
  {
    "label": "009",
    "locale": {
      "EUde": "{{anim id=\"16\"}}Bist du's, {{fun_00080005 arg=\"\"}}?\n{{delay frames=\"20\"}}Um die Zeit bist du noch draußen?\n{{delay frames=\"20\"}}Echt beeindruckend, {{delay frames=\"10\"}}{{fun_00070005 arg=\"\"}}!",
      "EUen": "{{anim id=\"16\"}}Is that you, {{fun_00080005 arg=\"\"}}?\nOut and about at this hour?{{delay frames=\"20\"}}\nLook at you go, {{fun_00070005 arg=\"\"}}!",
      "EUes": "{{anim id=\"16\"}}¿Eres tú, {{fun_00080005 arg=\"\"}}?\nAsí que eres de l{{fun_0006000E arg=\"0x04006F007300040061007300\"}} que se acuestan\ntarde...{{delay frames=\"20\"}}{{anim id=\"38\"}} ¡Yo también, {{fun_00070005 arg=\"\"}}!",
      "EUfr": "{{anim id=\"16\"}}{{fun_0003000E arg=\"\"}}{{fun_00080005 arg=\"\"}} ? Encore dehors à cette\nheure-ci ?{{delay frames=\"20\"}} Je suis fière de toi,\n{{fun_00070005 arg=\"\"}} !",
      "EUit": "{{anim id=\"16\"}}Sei tu, {{fun_00080005 arg=\"\"}}?\nChe ci fai in giro a quest'ora?{{delay frames=\"20\"}} Torni\ndalla discoteca, {{fun_00070005 arg=\"\"}}?",
      "JPja": "{{anim id=\"16\"}}わぁ、{{delay frames=\"10\"}}{{fun_00080005 arg=\"\"}}{{fun_000D0005 arg=\"\"}}！{{delay frames=\"20\"}}\nこんな{{ruby charSpan=\"2\" value=\"じかん\"}}時間にお{{ruby charSpan=\"1\" value=\"で\"}}出かけ？{{fun_00010007 arg=\"\"}}\n{{delay frames=\"8\"}}・{{delay frames=\"8\"}}・{{delay frames=\"8\"}}・{{delay frames=\"8\"}}{{anim id=\"1\"}}オトナじゃん！　{{delay frames=\"15\"}}{{fun_00070005 arg=\"\"}}！",
      "KRko": "{{anim id=\"16\"}}와아, {{delay frames=\"10\"}}{{fun_00080005 arg=\"\"}}{{fun_000E000E arg=\"0x020044C502007CC5\"}}!{{delay frames=\"20\"}}\n이런 늦은 시간에 외출이야?{{fun_00010007 arg=\"\"}}\n{{delay frames=\"8\"}}・{{delay frames=\"8\"}}・{{delay frames=\"8\"}}・{{delay frames=\"8\"}}{{anim id=\"1\"}}어른 다 됐네! {{delay frames=\"10\"}}{{fun_00070005 arg=\"\"}}!",
      "USen": "{{anim id=\"16\"}}Is that you, {{fun_00080005 arg=\"\"}}?\nOut and about at this hour?{{delay frames=\"20\"}}\nLook at you go, {{fun_00070005 arg=\"\"}}!",
      "USes": "{{anim id=\"16\"}}¿Eres tú, {{fun_00080005 arg=\"\"}}?\nAsí que eres de l{{fun_0006000E arg=\"0x04006F007300040061007300\"}} que se acuestan\ntarde...{{delay frames=\"20\"}}{{anim id=\"38\"}} ¡Yo también, {{fun_00070005 arg=\"\"}}!",
      "USfr": "{{anim id=\"16\"}}{{fun_0003000E arg=\"\"}}{{fun_00080005 arg=\"\"}}? Encore dehors à cette\nheure-ci?{{delay frames=\"20\"}} Je suis fière de toi,\n{{fun_00070005 arg=\"\"}}!"
    }
  },
  {
    "label": "010",
    "locale": {
      "EUde": "{{anim id=\"1\"}}Was machst du denn noch so spät\nunterwegs, {{fun_00080005 arg=\"\"}}?\n{{delay frames=\"20\"}}{{fun_0003000E arg=\"\"}}{{fun_00070005 arg=\"\"}}!",
      "EUen": "{{anim id=\"1\"}}What are you doing out this late,\n{{fun_00080005 arg=\"\"}}?",
      "EUes": "{{anim id=\"1\"}}¿Dónde vas a estas horas,\n{{fun_00080005 arg=\"\"}}?",
      "EUfr": "{{anim id=\"1\"}}Ça me fait super plaisir de te voir,\n{{fun_00080005 arg=\"\"}}, mais il est pas un peu\ntard pour toi ? {{fun_0003000E arg=\"\"}}{{fun_00070005 arg=\"\"}} !",
      "EUit": "{{anim id=\"1\"}}Anche tu fai le ore piccole oggi,\n{{fun_00080005 arg=\"\"}}?",
      "JPja": "{{anim id=\"1\"}}{{fun_00080005 arg=\"\"}}{{fun_000D0005 arg=\"\"}}だ～！{{pageBreak}}こんな{{ruby charSpan=\"2\" value=\"じかん\"}}時間に\n{{ruby charSpan=\"1\" value=\"なに\"}}何してんの～、{{delay frames=\"15\"}}{{fun_00070005 arg=\"\"}}？",
      "KRko": "{{anim id=\"1\"}}{{fun_00080005 arg=\"\"}}{{fun_000E000E arg=\"0x020074C70000\"}}다～!{{pageBreak}}이런 늦은 시간에\n뭐 해～? {{delay frames=\"15\"}}{{fun_00070005 arg=\"\"}}?",
      "USen": "{{anim id=\"1\"}}What are you doing out this late,\n{{fun_00080005 arg=\"\"}}?",
      "USes": "{{anim id=\"1\"}}¿Dónde vas a estas horas,\n{{fun_00080005 arg=\"\"}}?",
      "USfr": "{{anim id=\"1\"}}Ça me fait super plaisir de te voir,\n{{fun_00080005 arg=\"\"}}, mais il est pas un peu\ntard pour toi? {{fun_0003000E arg=\"\"}}{{fun_00070005 arg=\"\"}}!"
    }
  },
  {
    "label": "011",
    "locale": {
      "EUde": "{{anim id=\"32\"}}Hey, {{fun_00080005 arg=\"\"}}! {{delay frames=\"20\"}}Du machst wohl\ndie Nacht durch, {{delay frames=\"10\"}}{{fun_00070005 arg=\"\"}}!",
      "EUen": "{{anim id=\"32\"}}Hey, {{fun_00080005 arg=\"\"}}, you pulling an\nall-nighter, {{fun_00070005 arg=\"\"}}?",
      "EUes": "{{anim id=\"32\"}}Ah, {{fun_00080005 arg=\"\"}}.\n¿Tienes pensado quedarte despiert{{fun_0006000E arg=\"0x02006F0002006100\"}}\ntoda la noche, {{fun_00070005 arg=\"\"}}?",
      "EUfr": "{{anim id=\"5\"}}{{fun_0003000E arg=\"\"}}{{fun_00080005 arg=\"\"}} ! Cool, on va faire la\nfête ensemble ! Objectif : nuit\nblanche ! Youhou, {{fun_00070005 arg=\"\"}} !",
      "EUit": "{{anim id=\"32\"}}Ehi, {{fun_00080005 arg=\"\"}}, vuoi tirare mattina\nanche tu, {{fun_00070005 arg=\"\"}}?",
      "JPja": "{{anim id=\"16\"}}あ～、{{delay frames=\"10\"}}{{fun_00080005 arg=\"\"}}{{fun_000D0005 arg=\"\"}}！{{delay frames=\"30\"}}\n{{anim id=\"1\"}}{{ruby charSpan=\"2\" value=\"こんや\"}}今夜はテツヤするの、{{delay frames=\"10\"}}{{fun_00070005 arg=\"\"}}？",
      "KRko": "{{anim id=\"16\"}}아～ {{delay frames=\"10\"}}{{fun_00080005 arg=\"\"}}{{fun_000E000E arg=\"0x020044C502007CC5\"}}!{{delay frames=\"30\"}}\n{{anim id=\"1\"}}오늘은 밤새는 거야? {{delay frames=\"10\"}}{{fun_00070005 arg=\"\"}}?",
      "USen": "{{anim id=\"32\"}}Hey, {{fun_00080005 arg=\"\"}}, you pulling an\nall-nighter, {{fun_00070005 arg=\"\"}}?",
      "USes": "{{anim id=\"32\"}}Ah, {{fun_00080005 arg=\"\"}}.\n¿Tienes pensado quedarte despiert{{fun_0006000E arg=\"0x02006F0002006100\"}}\ntoda la noche, {{fun_00070005 arg=\"\"}}?",
      "USfr": "{{anim id=\"5\"}}{{fun_0003000E arg=\"\"}}{{fun_00080005 arg=\"\"}}! Cool, on va faire la\nfête ensemble! Objectif : nuit\nblanche! Youhou, {{fun_00070005 arg=\"\"}}!"
    }
  },
  {
    "label": "012",
    "locale": {
      "EUde": "{{anim id=\"38\"}}{{fun_0003000E arg=\"\"}}{{fun_00060007 arg=\"\"}}Ein spätnächtliches Wuuhuu{{fun_00070007 arg=\"\"}}!\n{{delay frames=\"20\"}}Echt cool, DICH noch so spät zu\ntreffen, {{fun_00080005 arg=\"\"}}! {{delay frames=\"20\"}}{{fun_0003000E arg=\"\"}}{{fun_00070005 arg=\"\"}}!",
      "EUen": "{{anim id=\"38\"}}{{fun_0003000E arg=\"\"}}{{fun_00060007 arg=\"\"}}Hey, late-night woohoo{{fun_00070007 arg=\"\"}}!{{delay frames=\"10\"}}\nIt's fun to see YOU out at this\nhour, {{fun_00080005 arg=\"\"}}!",
      "EUes": "{{anim id=\"16\"}}¡{{fun_0003000E arg=\"\"}}{{fun_00060007 arg=\"\"}}Pero, {{fun_00080005 arg=\"\"}}{{fun_00070007 arg=\"\"}}!\n¿Y esas pintas?{{delay frames=\"20\"}} {{anim id=\"27\"}}Menos mal que\nes de noche y no se te ve.",
      "EUfr": "{{anim id=\"38\"}}{{fun_0003000E arg=\"\"}}{{fun_00060007 arg=\"\"}}Hé hé{{fun_00070007 arg=\"\"}} !\nC'est du délire de te voir à cette\nheure ! {{fun_0003000E arg=\"\"}}{{fun_00080005 arg=\"\"}}, {{fun_00070005 arg=\"\"}} !",
      "EUit": "{{anim id=\"38\"}}{{fun_0003000E arg=\"\"}}{{fun_00060007 arg=\"\"}}Ritmooo... ritmo, ritmooo...{{fun_00070007 arg=\"\"}}!\nEvviva la fiestaaa! Ho ballato in\nspiaggia tutta la notte, {{fun_00080005 arg=\"\"}}!",
      "JPja": "{{anim id=\"1\"}}{{fun_00060007 arg=\"\"}}ヤッホー、{{delay frames=\"10\"}}{{fun_00080005 arg=\"\"}}{{fun_000D0005 arg=\"\"}}！{{fun_00070007 arg=\"\"}}{{pageBreak}}こんな{{ruby charSpan=\"2\" value=\"じかん\"}}時間まで\n{{ruby charSpan=\"2\" value=\"げんき\"}}元気イッパイじゃん、{{delay frames=\"10\"}}{{fun_00070005 arg=\"\"}}！",
      "KRko": "{{anim id=\"1\"}}{{fun_00060007 arg=\"\"}}얏호ー {{delay frames=\"10\"}}{{fun_00080005 arg=\"\"}}{{fun_000E000E arg=\"0x020044C502007CC5\"}}!{{fun_00070007 arg=\"\"}}{{pageBreak}}이 시간까지 팔팔하네!\n{{delay frames=\"10\"}}{{fun_00070005 arg=\"\"}}!",
      "USen": "{{anim id=\"38\"}}{{fun_0003000E arg=\"\"}}{{fun_00060007 arg=\"\"}}Hey, late-night woohoo{{fun_00070007 arg=\"\"}}!{{delay frames=\"10\"}}\nIt's fun to see YOU out at this\nhour, {{fun_00080005 arg=\"\"}}!",
      "USes": "{{anim id=\"16\"}}¡{{fun_0003000E arg=\"\"}}{{fun_00060007 arg=\"\"}}Pero, {{fun_00080005 arg=\"\"}}{{fun_00070007 arg=\"\"}}!\n¿Y esas pintas?{{delay frames=\"20\"}} {{anim id=\"27\"}}Menos mal que\nes de noche y no se te ve.",
      "USfr": "{{anim id=\"38\"}}{{fun_0003000E arg=\"\"}}{{fun_00060007 arg=\"\"}}Hé hé{{fun_00070007 arg=\"\"}}!\nC'est du délire de te voir à cette\nheure! {{fun_0003000E arg=\"\"}}{{fun_00080005 arg=\"\"}}, {{fun_00070005 arg=\"\"}}!"
    }
  }
]