﻿[
  {
    "label": "001",
    "locale": {
      "EUde": "{{anim id=\"23\"}}{{fun_0003000E arg=\"\"}}{{fun_00080005 arg=\"\"}}, {{delay frames=\"10\"}}hattest du nicht mal\ngemeint, du hättest total gern {{fun_0008000E arg=\"0x00CD0A00650069006E0065006E000800650069006E0065000600650069006E00\"}}\n{{fun_00030011 arg=\"0x0000\"}}?\n{{anim id=\"1\"}}Tadaaa! {{delay frames=\"20\"}}Hier, {{delay frames=\"10\"}}ich hab was für dich,\n{{delay frames=\"10\"}}{{fun_00070005 arg=\"\"}}. {{delay frames=\"20\"}}Hihihi!",
      "EUen": "{{anim id=\"23\"}}Didn't I hear you say you wanted\n{{fun_0002000E arg=\"\"}}{{fun_00030011 arg=\"0x0000\"}}?{{pageBreak}}{{anim id=\"1\"}}Well, look what I found for you,\n{{fun_00070005 arg=\"\"}}.",
      "EUes": "Oye, {{fun_00080005 arg=\"\"}}...{{delay frames=\"20\"}}\n{{anim id=\"23\"}}¿No me dijiste que querías\n{{fun_0002000E arg=\"\"}}{{fun_00030011 arg=\"0x0000\"}}?\n{{anim id=\"1\"}}¡Pues estás de suerte! \n¡He encontrado un{{fun_0008000E arg=\"0x00CD02006F00020061000000\"}} para ti,\n{{fun_00070005 arg=\"\"}}!",
      "EUfr": "{{fun_0003000E arg=\"\"}}{{fun_00080005 arg=\"\"}} !{{delay frames=\"20\"}}\n{{fun_00010005 arg=\"\"}} a un cadeau pour toi{{delay frames=\"10\"}}.{{delay frames=\"10\"}}.{{delay frames=\"10\"}}.{{delay frames=\"20\"}}\n{{anim id=\"3\"}}C'est {{fun_0002000E arg=\"\"}}{{fun_00030011 arg=\"0x0000\"}} !\nElle est pas belle la vie,\n{{fun_00070005 arg=\"\"}} ???",
      "EUit": "Senti, {{fun_00080005 arg=\"\"}}...\n{{anim id=\"23\"}}Non eri tu che stavi cercando\n{{fun_0002000E arg=\"\"}}{{fun_00030011 arg=\"0x0000\"}}?\n{{anim id=\"1\"}}Beh, oggi è il tuo giorno fortunato!\nNe ho qui un{{fun_0008000E arg=\"0x00CD02006F00020061000000\"}} per te, {{fun_00070005 arg=\"\"}}.",
      "JPja": "{{anim id=\"1\"}}{{fun_00080005 arg=\"\"}}{{fun_000D0005 arg=\"\"}}！{{pageBreak}}{{anim id=\"0\"}}{{fun_00030011 arg=\"0x0000\"}}、{{delay frames=\"8\"}}ほしいって\n{{anim id=\"23\"}}{{ruby charSpan=\"1\" value=\"い\"}}言ってなかったっけ？{{fun_00010007 arg=\"\"}}\n{{anim id=\"1\"}}これ　{{delay frames=\"10\"}}あげるよ、{{delay frames=\"10\"}}{{fun_00070005 arg=\"\"}}！",
      "KRko": "{{anim id=\"1\"}}{{fun_00080005 arg=\"\"}}{{fun_000E000E arg=\"0x020044C502007CC5\"}}!{{pageBreak}}{{anim id=\"0\"}}{{fun_00030011 arg=\"0x0000\"}}{{delay frames=\"8\"}}\n{{anim id=\"23\"}}갖고 싶다고 하지 않았던가?{{fun_00010007 arg=\"\"}}\n{{anim id=\"1\"}}이거 {{delay frames=\"10\"}}줄게, {{delay frames=\"10\"}}{{fun_00070005 arg=\"\"}}!",
      "USen": "Hiya, {{fun_00080005 arg=\"\"}}!\n{{anim id=\"23\"}}Didn't I hear you say you wanted\n{{fun_0002000E arg=\"\"}}{{fun_00030011 arg=\"0x0000\"}}?\n{{anim id=\"1\"}}Well, here you go. I found one for\nyou, {{fun_00070005 arg=\"\"}}.",
      "USes": "¿Cómo estás, {{fun_00080005 arg=\"\"}}?\n{{anim id=\"23\"}}¿No me dijiste que querías\n{{fun_0002000E arg=\"\"}}{{fun_00030011 arg=\"0x0000\"}}?\n{{anim id=\"1\"}}¡Pues estás de suerte! \n¡He encontrado un{{fun_0008000E arg=\"0x00CD02006F00020061000000\"}} para ti,\n{{fun_00070005 arg=\"\"}}!",
      "USfr": "Coucou, {{fun_00080005 arg=\"\"}}!{{delay frames=\"20\"}}\n{{fun_00010005 arg=\"\"}} a un cadeau pour toi{{delay frames=\"10\"}}.{{delay frames=\"10\"}}.{{delay frames=\"10\"}}.{{delay frames=\"20\"}}\n{{anim id=\"3\"}}C'est {{fun_0002000E arg=\"\"}}{{fun_00030011 arg=\"0x0000\"}}!\nElle est pas belle la vie,\n{{fun_00070005 arg=\"\"}}???"
    }
  },
  {
    "label": "002",
    "locale": {
      "EUde": "{{anim id=\"1\"}}Nimm es als Beweis unserer Freund-\nschaft!{{delay frames=\"20\"}} Du bist immer so nett zu\nmir, da wollte ich mal Danke sagen.\n{{anim id=\"37\"}}{{fun_0003000E arg=\"\"}}{{fun_0002000E arg=\"\"}}{{fun_00030011 arg=\"0x0000\"}} ist\ndafür genau das Richtige, dachte\nich mir.\n{{anim id=\"32\"}}Wenn du so was nicht gebrauchen\nkannst, klopp {{fun_0008000E arg=\"0x00CD0600690068006E000600730069006500040065007300\"}} einfach in die\nTonne, {{delay frames=\"10\"}}{{fun_00070005 arg=\"\"}}.",
      "EUen": "{{anim id=\"1\"}}Think of it as proof of our\nfriendship. {{delay frames=\"20\"}}You're always so nice to\nme, and I want to thank you.\n{{anim id=\"37\"}}If you don't still need it, go ahead\nand throw it away or something,\n{{fun_00070005 arg=\"\"}}!",
      "EUes": "{{anim id=\"1\"}}Acepta este regalo como muestra\nde nuestra gran amistad.{{delay frames=\"20\"}}\n¡Eres {{fun_0006000E arg=\"0x040065006C0004006C006100\"}} más chachi del pueblo!\n{{anim id=\"37\"}}¡Si por lo que sea no te gusta,\nregálaselo a alguien o tíralo a\nla basura, tú mism{{fun_0006000E arg=\"0x02006F0002006100\"}}, {{fun_00070005 arg=\"\"}}!",
      "EUfr": "Prends-le{{delay frames=\"20\"}}{{anim id=\"4\"}} comme une déclaration\nd'amitié ! {{fun_0006000E arg=\"0x080041006D00690073000A0041006D00690065007300\"}} pour la vie,\npas vrai ?!\n{{anim id=\"37\"}}Tu sais, si jamais t'en as pas besoin,\nt'es pas {{fun_0006000E arg=\"0x0C006F0062006C0069006700E9000E006F0062006C0069006700E9006500\"}} de le garder,\n{{fun_00070005 arg=\"\"}}.",
      "EUit": "{{anim id=\"1\"}}Consideralo un pegno della nostra\namicizia. {{delay frames=\"20\"}}Sei sempre così carin{{fun_0006000E arg=\"0x02006F0002006100\"}}\ncon me.\n{{anim id=\"37\"}}Beh, se non ti serve, disfatene pure!\nNon mi offendo mica, {{fun_00070005 arg=\"\"}}!",
      "JPja": "{{anim id=\"1\"}}ほら、{{delay frames=\"10\"}}{{ruby charSpan=\"2\" value=\"ともだち\"}}友達の{{ruby charSpan=\"1\" value=\"あかし\"}}証ってやつ？！{{delay frames=\"20\"}}\nいつも　{{ruby charSpan=\"1\" value=\"あそ\"}}遊んでくれる　お{{ruby charSpan=\"1\" value=\"れい\"}}礼だよ～{{pageBreak}}{{anim id=\"37\"}}ま、{{delay frames=\"10\"}}いらなかったら　テキトーに\nすてちゃっていいからさ、{{delay frames=\"15\"}}{{fun_00070005 arg=\"\"}}",
      "KRko": "{{anim id=\"1\"}}뭐랄까, {{delay frames=\"10\"}}우정의 표시랄까?{{delay frames=\"20\"}}\n맨날 같이 놀아준 데에 대한 보답～{{pageBreak}}{{anim id=\"37\"}}필요 없으면 적당히\n아무 데나 버려도 돼, {{delay frames=\"15\"}}{{fun_00070005 arg=\"\"}}",
      "USen": "{{anim id=\"1\"}}Think of it as proof of our\nfriendship. {{delay frames=\"20\"}}You're always so nice to\nme, and I want to thank you.\n{{anim id=\"37\"}}If you don't still need it, go ahead\nand throw it away or something,\n{{fun_00070005 arg=\"\"}}!",
      "USes": "{{anim id=\"1\"}}Acepta este regalo como muestra\nde nuestra gran amistad.{{delay frames=\"20\"}}\n¡Eres {{fun_0006000E arg=\"0x040065006C0004006C006100\"}} más chachi del pueblo!\n{{anim id=\"37\"}}¡Si por lo que sea no te gusta,\nregálaselo a alguien o tíralo a\nla basura, tú mism{{fun_0006000E arg=\"0x02006F0002006100\"}}, {{fun_00070005 arg=\"\"}}!",
      "USfr": "Prends-le{{delay frames=\"20\"}}{{anim id=\"4\"}} comme une déclaration\nd'amitié! {{fun_0006000E arg=\"0x080041006D00690073000A0041006D00690065007300\"}} pour la vie,\npas vrai?!\n{{anim id=\"37\"}}Tu sais, si jamais t'en as pas besoin,\nt'es pas {{fun_0006000E arg=\"0x0C006F0062006C0069006700E9000E006F0062006C0069006700E9006500\"}} de le garder,\n{{fun_00070005 arg=\"\"}}."
    }
  },
  {
    "label": "003",
    "locale": {
      "EUde": "Hattest du nicht gesagt, dass du\n{{fun_0008000E arg=\"0x00CD0A00650069006E0065006E000800650069006E0065000600650069006E00\"}} {{fun_00030011 arg=\"0x0000\"}}\nhaben wolltest?\n{{anim id=\"27\"}}Das ist schon ewig her, aber mir ist\nerst jetzt eingefallen, dass ich {{fun_0008000E arg=\"0x00CD0A00650069006E0065006E000800650069006E0065000800650069006E007300\"}}\nhab, {{fun_0008000E arg=\"0x00CD0600640065006E0006006400690065000600640061007300\"}} ich nie benutz!\n{{delay frames=\"20\"}}Magst du {{fun_0008000E arg=\"0x00CD0600690068006E000600730069006500040065007300\"}} haben?{{fun_00050008 arg=\"0x0500150004002800\"}}\nGerne, danke!\nBrauch ich nicht.",
      "EUen": "{{anim id=\"1\"}}So,{{delay frames=\"10\"}} didn't you say you wanted\n{{fun_0002000E arg=\"\"}}{{fun_00030011 arg=\"0x0000\"}}?{{pageBreak}}{{anim id=\"27\"}}You said it a while ago, but I JUST\nremembered that I never use mine!\nDo you want mine?{{fun_00050008 arg=\"0x0500150004002800\"}}\nYes, please!\nNo, thanks.",
      "EUes": "¡Oye, {{anim id=\"1\"}}{{fun_00080005 arg=\"\"}}!\n¡Te traigo algo superchuli que te\nva a dejar muert{{fun_0006000E arg=\"0x02006F0002006100\"}}!\n{{anim id=\"37\"}}¡{{fun_0003000E arg=\"\"}}{{fun_0002000E arg=\"\"}}{{fun_00030011 arg=\"0x0000\"}}!\nEstá casi por estrenar, l{{fun_0008000E arg=\"0x00CD02006F00020061000000\"}} he usado\nmuy poquito.\nMe gustaría que l{{fun_0008000E arg=\"0x00CD02006F00020061000000\"}} tuvieras tú.\n¿L{{fun_0008000E arg=\"0x00CD02006F00020061000000\"}} quieres?{{fun_00050008 arg=\"0x0500150004002800\"}}\n¡Sí!\nNo, gracias",
      "EUfr": "{{anim id=\"1\"}}Tu cherchais pas {{fun_0002000E arg=\"\"}}\n{{fun_00030011 arg=\"0x0000\"}}, dis ?!{{pageBreak}}{{anim id=\"37\"}}Si tu veux, je te donne {{fun_0008000E arg=\"0x00CD0E006C00650020006D00690065006E0012006C00610020006D00690065006E006E0065000000\"}} !!!{{delay frames=\"8\"}}\n{{fun_0008000E arg=\"0x00CD040049006C00080045006C006C0065000000\"}} est presque {{fun_0008000E arg=\"0x00CD08006E006500750066000A006E0065007500760065000000\"}} !{{fun_00050008 arg=\"0x0500150004002800\"}}\nC'est gentil !\nNon merci.",
      "EUit": "{{anim id=\"1\"}}Senti un po'...\nNon eri tu che stavi cercando\nuna cosa qualche giorno fa?\nEra {{fun_0002000E arg=\"\"}}{{fun_00030011 arg=\"0x0000\"}},\ngiusto?{{pageBreak}}{{anim id=\"37\"}}Ne ho un{{fun_0008000E arg=\"0x00CD02006F00020061000000\"}} usat{{fun_0008000E arg=\"0x00CD02006F00020061000000\"}}, ma è praticamente\nnuov{{fun_0008000E arg=\"0x00CD02006F00020061000000\"}} di zecca! Se l{{fun_0008000E arg=\"0x00CD02006F00020061000000\"}} vuoi, prendil{{fun_0008000E arg=\"0x00CD02006F00020061000000\"}},\nè tu{{fun_0008000E arg=\"0x00CD02006F00020061000000\"}}.{{fun_00050008 arg=\"0x0500150004002800\"}}\nAffare fatto!\nNon mi serve.",
      "JPja": "{{anim id=\"1\"}}{{fun_00080005 arg=\"\"}}{{fun_000D0005 arg=\"\"}}{{delay frames=\"15\"}}\n{{anim id=\"0\"}}{{fun_00030011 arg=\"0x0000\"}}、{{delay frames=\"10\"}}ほしいって\n{{ruby charSpan=\"1\" value=\"い\"}}言ってなかったっけ？{{pageBreak}}{{anim id=\"37\"}}アタイが　1{{ruby charSpan=\"2\" value=\"かいつか\"}}回使ったやつが　あるんだけど{{delay frames=\"10\"}}\n{{ruby charSpan=\"2\" value=\"しんぴん\"}}新品{{ruby charSpan=\"2\" value=\"どうよう\"}}同様だから{{delay frames=\"8\"}}\nもしよかったら　あげよっか？{{fun_00050008 arg=\"0x0500150004002800\"}}\nほしい！\nいらないや",
      "KRko": "{{anim id=\"1\"}}{{fun_00080005 arg=\"\"}}{{fun_000E000E arg=\"0x020044C502007CC5\"}}!{{delay frames=\"15\"}}\n{{anim id=\"0\"}}{{fun_00030011 arg=\"0x0000\"}}{{delay frames=\"10\"}} 갖고 싶다고 \n하지 않았던가?{{pageBreak}}{{anim id=\"37\"}}내가 딱 한 번 사용한 게 있는데{{delay frames=\"10\"}}\n거의 새거랑 똑같으니까{{delay frames=\"8\"}}\n필요하면 줄까?{{fun_00050008 arg=\"0x0500150004002800\"}}\n필요해!\n필요 없어",
      "USen": "Hi there, {{anim id=\"1\"}}{{fun_00080005 arg=\"\"}}!{{delay frames=\"10\"}}\nDidn't you say you wanted\n{{fun_0002000E arg=\"\"}}{{fun_00030011 arg=\"0x0000\"}}?\n{{anim id=\"27\"}}You said it a while ago, but I JUST\nremembered that I never use mine!\nDo you want mine?{{fun_00050008 arg=\"0x0500150004002800\"}}\nYes, please!\nNo, thanks.",
      "USes": "¡Oye, {{anim id=\"1\"}}{{fun_00080005 arg=\"\"}}!\n¡Te traigo algo superchuli que te\nva a dejar muert{{fun_0006000E arg=\"0x02006F0002006100\"}}!\n{{anim id=\"37\"}}¡{{fun_0003000E arg=\"\"}}{{fun_0002000E arg=\"\"}}{{fun_00030011 arg=\"0x0000\"}}!\nEstá casi por estrenar, l{{fun_0008000E arg=\"0x00CD02006F00020061000000\"}} he usado\nmuy poquito.\nMe gustaría que l{{fun_0008000E arg=\"0x00CD02006F00020061000000\"}} tuvieras tú.\n¿L{{fun_0008000E arg=\"0x00CD02006F00020061000000\"}} quieres?{{fun_00050008 arg=\"0x0500150004002800\"}}\n¡Sí!\nNo, gracias",
      "USfr": "{{anim id=\"1\"}}Tu cherchais pas {{fun_0002000E arg=\"\"}}\n{{fun_00030011 arg=\"0x0000\"}}, dis?!{{pageBreak}}{{anim id=\"37\"}}Si tu veux, je te donne {{fun_0008000E arg=\"0x00CD0E006C00650020006D00690065006E0012006C00610020006D00690065006E006E0065000000\"}}!!!{{delay frames=\"8\"}}\n{{fun_0008000E arg=\"0x00CD040049006C00080045006C006C0065000000\"}} est presque {{fun_0008000E arg=\"0x00CD08006E006500750066000A006E0065007500760065000000\"}}!{{fun_00050008 arg=\"0x0500150004002800\"}}\nC'est gentil!\nNon merci."
    }
  },
  {
    "label": "004",
    "locale": {
      "EUde": "{{fun_00000009 arg=\"0x06000700\"}}",
      "EUen": "{{fun_00000009 arg=\"0x06000700\"}}",
      "EUes": "{{fun_00000009 arg=\"0x06000700\"}}",
      "EUfr": "{{fun_00000009 arg=\"0x06000700\"}}",
      "EUit": "{{fun_00000009 arg=\"0x06000700\"}}",
      "JPja": "{{fun_00000009 arg=\"0x06000700\"}}",
      "KRko": "{{fun_00000009 arg=\"0x06000700\"}}",
      "USen": "{{fun_00000009 arg=\"0x06000700\"}}",
      "USes": "{{fun_00000009 arg=\"0x06000700\"}}",
      "USfr": "{{fun_00000009 arg=\"0x06000700\"}}"
    }
  },
  {
    "label": "005",
    "locale": {
      "EUde": "{{anim id=\"1\"}}Oh, prima! {{delay frames=\"20\"}}Bitte schön!\n{{delay frames=\"20\"}}{{fun_0008000E arg=\"0x00CD0C004400690065007300650072000A00440069006500730065000C00440069006500730065007300\"}} {{fun_00030011 arg=\"0x0000\"}}\ngehört jetzt dir, {{delay frames=\"10\"}}{{fun_00070005 arg=\"\"}}!{{fun_0000000A arg=\"0x0308000900CD\"}}",
      "EUen": "{{anim id=\"1\"}}Oh, good! {{delay frames=\"20\"}}Here you go!{{delay frames=\"5\"}} All yours,\n{{fun_00070005 arg=\"\"}}.{{fun_0000000A arg=\"0x0308000900CD\"}}",
      "EUes": "{{anim id=\"1\"}}¡Chupi! {{delay frames=\"20\"}}¡Pues toma!{{delay frames=\"5\"}}\n¡Para ti, {{fun_00070005 arg=\"\"}}!{{fun_0000000A arg=\"0x0308000900CD\"}}",
      "EUfr": "{{anim id=\"1\"}}Super,{{delay frames=\"20\"}} c'est à toi, {{fun_00070005 arg=\"\"}} !{{fun_0000000A arg=\"0x0308000900CD\"}}",
      "EUit": "{{anim id=\"1\"}}Strepitoso! {{delay frames=\"20\"}}Ecco qui!{{delay frames=\"5\"}}\nOra ti appartiene, {{fun_00070005 arg=\"\"}}{{fun_0000000A arg=\"0x0308000900CD\"}}!",
      "JPja": "{{anim id=\"1\"}}よかった～！{{delay frames=\"20\"}}\nはい　{{delay frames=\"5\"}}あげるよ、{{delay frames=\"10\"}}{{fun_00070005 arg=\"\"}}{{fun_0000000A arg=\"0x0308000900CD\"}}",
      "KRko": "{{anim id=\"1\"}}잘 됐네～!{{delay frames=\"20\"}}\n자 {{delay frames=\"5\"}}여기, {{delay frames=\"10\"}}{{fun_00070005 arg=\"\"}}{{fun_0000000A arg=\"0x0308000900CD\"}}",
      "USen": "{{anim id=\"1\"}}Oh, good! {{delay frames=\"20\"}}Here you go!{{delay frames=\"5\"}} All yours,\n{{fun_00070005 arg=\"\"}}.{{fun_0000000A arg=\"0x0308000900CD\"}}",
      "USes": "{{anim id=\"1\"}}¡Chupi! {{delay frames=\"20\"}}¡Pues toma!{{delay frames=\"5\"}}\n¡Para ti, {{fun_00070005 arg=\"\"}}!{{fun_0000000A arg=\"0x0308000900CD\"}}",
      "USfr": "{{anim id=\"1\"}}Super,{{delay frames=\"20\"}} c'est à toi, {{fun_00070005 arg=\"\"}}!{{fun_0000000A arg=\"0x0308000900CD\"}}"
    }
  },
  {
    "label": "006",
    "locale": {
      "EUde": "{{anim id=\"15\"}}Waaas?! {{delay frames=\"20\"}}Echt jetzt? {{delay frames=\"20\"}}{{anim id=\"27\"}}Menno, ich hab\n{{fun_0008000E arg=\"0x00CD0C00640069006500730065006E000A00640069006500730065000C00640069006500730065007300\"}} {{fun_00030011 arg=\"0x0000\"}}\nwirklich nur ein Mal benutzt...",
      "EUen": "{{anim id=\"15\"}}What?! {{delay frames=\"20\"}}Really? {{delay frames=\"30\"}}{{anim id=\"27\"}}Seriously, I've really\nonly used it, like, once...",
      "EUes": "{{anim id=\"15\"}}¿Nooo?{{delay frames=\"20\"}} ¡Yo pensaba que te\ngustaba ir a la última!{{delay frames=\"30\"}}{{anim id=\"27\"}}\nEn fin, tú te lo pierdes.",
      "EUfr": "{{anim id=\"15\"}}T'en veux pas ?! {{delay frames=\"20\"}}{{anim id=\"27\"}}Ça a presque\njamais servi, c'est dommage...",
      "EUit": "{{anim id=\"15\"}}Cosa?! {{delay frames=\"20\"}}Ma come? {{delay frames=\"30\"}}{{anim id=\"27\"}}Non sai\nche gioiellino ti perdi...",
      "JPja": "{{anim id=\"15\"}}え？！　{{delay frames=\"20\"}}そうなの？{{delay frames=\"30\"}}\n{{anim id=\"27\"}}ホントに　1{{ruby charSpan=\"1\" value=\"かい\"}}回しか{{ruby charSpan=\"1\" value=\"つか\"}}使ってないよ～",
      "KRko": "{{anim id=\"15\"}}엣?! {{delay frames=\"20\"}}그래?{{delay frames=\"30\"}}\n{{anim id=\"27\"}}정말 한 번밖에 안 썼는데～",
      "USen": "{{anim id=\"15\"}}What?! {{delay frames=\"20\"}}Really? {{delay frames=\"30\"}}{{anim id=\"27\"}}Seriously, I've really\nonly used it, like, once...",
      "USes": "{{anim id=\"15\"}}¿Nooo?{{delay frames=\"20\"}} ¡Yo pensaba que te\ngustaba ir a la última!{{delay frames=\"30\"}}{{anim id=\"27\"}}\nEn fin, tú te lo pierdes.",
      "USfr": "{{anim id=\"15\"}}T'en veux pas?! {{delay frames=\"20\"}}{{anim id=\"27\"}}Ça a presque\njamais servi, c'est dommage..."
    }
  },
  {
    "label": "007",
    "locale": {
      "EUde": "{{anim id=\"23\"}}Hä, {{delay frames=\"20\"}}wie, {{delay frames=\"10\"}}brauchst du nicht?!?{{pageBreak}}{{anim id=\"22\"}}Ups, stimmt! {{delay frames=\"20\"}}Das warst ja gar nicht\ndu mit {{fun_0008000E arg=\"0x00CD0600640065006D0006006400650072000600640065006D00\"}} {{fun_00030011 arg=\"0x0000\"}}.\n{{delay frames=\"20\"}}Das war ja {{fun_00040005 arg=\"0x00CD\"}}!\n{{anim id=\"36\"}}Ehehe... {{delay frames=\"20\"}}Sorry, {{delay frames=\"10\"}}{{fun_00070005 arg=\"\"}}.",
      "EUen": "{{anim id=\"23\"}}What?! {{delay frames=\"20\"}}You don't need it?{{pageBreak}}{{anim id=\"22\"}}Oh, wait! It wasn't YOU who\nwanted this—it was {{fun_00040005 arg=\"0x00CD\"}}!{{fun_00010007 arg=\"\"}}\n{{anim id=\"37\"}}OK, never mind, {{fun_00070005 arg=\"\"}}!",
      "EUes": "{{anim id=\"23\"}}¡¿Qué?! {{delay frames=\"20\"}}¿No te hace falta?{{pageBreak}}{{anim id=\"22\"}}¡Ah, espera! ¡No eras tú quien\nquería esto, sino {{fun_00040005 arg=\"0x00CD\"}}!{{fun_00010007 arg=\"\"}}\n{{anim id=\"37\"}}¡Qué despiste, {{fun_00070005 arg=\"\"}}!",
      "EUfr": "{{anim id=\"23\"}}T'en veux pas ?{{pageBreak}}{{anim id=\"22\"}}Ça me revient, c'est {{fun_00040005 arg=\"0x00CD\"}} qui\nvoulait ça !{{fun_00010007 arg=\"\"}} {{anim id=\"37\"}}Chuis trop trop bête,\n{{fun_00070005 arg=\"\"}} !",
      "EUit": "{{anim id=\"23\"}}Cosa?! {{delay frames=\"20\"}}Non ti serve?{{pageBreak}}{{anim id=\"22\"}}Oh, è vero! Non eri tu che volevi\nquesto affare, era {{fun_00040005 arg=\"0x00CD\"}}!{{fun_00010007 arg=\"\"}}\n{{anim id=\"37\"}}OK, non fa niente, {{fun_00070005 arg=\"\"}}!",
      "JPja": "{{anim id=\"23\"}}あれ～？！{{delay frames=\"20\"}}\nいらないの？{{pageBreak}}{{anim id=\"15\"}}{{delay frames=\"8\"}}・{{delay frames=\"8\"}}・{{delay frames=\"8\"}}・{{delay frames=\"8\"}}あ！　{{delay frames=\"20\"}}\nほしいって{{ruby charSpan=\"1\" value=\"い\"}}言ってたの{{delay frames=\"10\"}}\n{{fun_00040005 arg=\"0x00CD\"}}{{fun_000D0005 arg=\"\"}}だったかも！\n{{anim id=\"9\"}}ゴメンゴメン～",
      "KRko": "{{anim id=\"23\"}}어랏～?!{{delay frames=\"20\"}}\n필요 없어?{{pageBreak}}{{anim id=\"15\"}}{{delay frames=\"8\"}}・{{delay frames=\"8\"}}・{{delay frames=\"8\"}}・{{delay frames=\"8\"}}앗!{{delay frames=\"20\"}}\n갖고 싶다고 했던 거{{delay frames=\"10\"}}\n{{fun_00040005 arg=\"0x00CD\"}}{{fun_000E000E arg=\"0x040074C7C8C5020000C6\"}}을지도 몰라!\n{{anim id=\"9\"}}미안 미안～",
      "USen": "{{anim id=\"23\"}}What?! {{delay frames=\"20\"}}You don't need it?{{pageBreak}}{{anim id=\"22\"}}Oh, wait! It wasn't YOU who\nwanted this—it was {{fun_00040005 arg=\"0x00CD\"}}!{{fun_00010007 arg=\"\"}}\n{{anim id=\"37\"}}OK, never mind, {{fun_00070005 arg=\"\"}}!",
      "USes": "{{anim id=\"23\"}}¡¿Qué?! {{delay frames=\"20\"}}¿No te hace falta?{{pageBreak}}{{anim id=\"22\"}}¡Ah, espera! ¡No eras tú quien\nquería esto, sino {{fun_00040005 arg=\"0x00CD\"}}!{{fun_00010007 arg=\"\"}}\n{{anim id=\"37\"}}¡Qué despiste, {{fun_00070005 arg=\"\"}}!",
      "USfr": "{{anim id=\"23\"}}T'en veux pas?{{pageBreak}}{{anim id=\"22\"}}Ça me revient, c'est {{fun_00040005 arg=\"0x00CD\"}} qui\nvoulait ça!{{fun_00010007 arg=\"\"}} {{anim id=\"37\"}}Chuis trop trop bête,\n{{fun_00070005 arg=\"\"}}!"
    }
  },
  {
    "label": "008",
    "locale": {
      "EUde": "{{anim id=\"1\"}}Ich freu mich ja so, dass ich dir ein\nLächeln aufs Gesicht zaubern\nkonnte, {{fun_00000005 arg=\"\"}}!\n{{anim id=\"37\"}}Ich weiß, ich hab das eben schon\ngesagt, aber {{anim id=\"35\"}}ich hab das Ding echt\nnur ein Mal benutzt!",
      "EUen": "{{anim id=\"1\"}}I'm so happy I could put a smile\non your face, {{fun_00000005 arg=\"\"}}!{{pageBreak}}{{anim id=\"37\"}}I know I said this already{{delay frames=\"8\"}}.{{delay frames=\"8\"}}.{{delay frames=\"8\"}}.{{delay frames=\"8\"}}\n{{anim id=\"35\"}}but I really have only used it once.",
      "EUes": "{{anim id=\"1\"}}¡Me alegro de haberte sacado una\nsonrisa, {{fun_00000005 arg=\"\"}}!{{pageBreak}}{{anim id=\"37\"}}Ya ves que está impecable{{delay frames=\"8\"}}.{{delay frames=\"8\"}}.{{delay frames=\"8\"}}.{{delay frames=\"8\"}}\n{{anim id=\"2\"}}¡Dale un buen uso!",
      "EUfr": "{{anim id=\"1\"}}Je suis trop contente de te rendre\nservice, {{fun_00000005 arg=\"\"}} !!!{{pageBreak}}{{anim id=\"37\"}}Je m'en suis servi une ou deux\nfois.{{delay frames=\"8\"}}.{{delay frames=\"8\"}}.{{delay frames=\"8\"}} {{anim id=\"35\"}}c'est tout.",
      "EUit": "{{anim id=\"1\"}}Sono così contenta che mi viene\nvoglia di ballare, {{fun_00000005 arg=\"\"}}!{{pageBreak}}{{anim id=\"37\"}}Non vorrei ripetermi, ma{{delay frames=\"8\"}}.{{delay frames=\"8\"}}.{{delay frames=\"8\"}}.{{delay frames=\"8\"}}\n{{anim id=\"35\"}}Lasciatelo dire: è una meraviglia\nquasi nuova di zecca!",
      "JPja": "{{anim id=\"1\"}}{{fun_00000005 arg=\"\"}}{{fun_000D0005 arg=\"\"}}の　{{ruby charSpan=\"1\" value=\"よろこ\"}}喜ぶ{{ruby charSpan=\"1\" value=\"かお\"}}顔が{{ruby charSpan=\"1\" value=\"み\"}}見れて{{delay frames=\"8\"}}\nよかったよ～{{pageBreak}}{{anim id=\"37\"}}{{ruby charSpan=\"2\" value=\"なんど\"}}何度も{{ruby charSpan=\"1\" value=\"い\"}}言うけど{{delay frames=\"8\"}}・{{delay frames=\"8\"}}・{{delay frames=\"8\"}}・{{delay frames=\"8\"}}\n{{anim id=\"35\"}}ホントに　1{{ruby charSpan=\"1\" value=\"かい\"}}回しか{{ruby charSpan=\"1\" value=\"つか\"}}使ってないからね！",
      "KRko": "{{anim id=\"1\"}}너가 좋아해주다니{{delay frames=\"8\"}}\n정말 기뻐～{{pageBreak}}{{anim id=\"37\"}}아까부터 몇 번이나 말했지만{{delay frames=\"8\"}}・{{delay frames=\"8\"}}・{{delay frames=\"8\"}}・{{delay frames=\"8\"}}\n{{anim id=\"35\"}}진짜 한 번밖에 안 썼어!!",
      "USen": "{{anim id=\"1\"}}I'm so happy I could put a smile\non your face, {{fun_00000005 arg=\"\"}}!{{pageBreak}}{{anim id=\"37\"}}I know I said this already{{delay frames=\"8\"}}.{{delay frames=\"8\"}}.{{delay frames=\"8\"}}.{{delay frames=\"8\"}}\n{{anim id=\"35\"}}but I really have only used it once.",
      "USes": "{{anim id=\"1\"}}¡Me alegro de haberte sacado una\nsonrisa, {{fun_00000005 arg=\"\"}}!{{pageBreak}}{{anim id=\"37\"}}Ya ves que está impecable{{delay frames=\"8\"}}.{{delay frames=\"8\"}}.{{delay frames=\"8\"}}.{{delay frames=\"8\"}}\n{{anim id=\"2\"}}¡Dale un buen uso!",
      "USfr": "{{anim id=\"1\"}}Je suis trop contente de te rendre\nservice, {{fun_00000005 arg=\"\"}}!!!{{pageBreak}}{{anim id=\"37\"}}Je m'en suis servi une ou deux\nfois.{{delay frames=\"8\"}}.{{delay frames=\"8\"}}.{{delay frames=\"8\"}} {{anim id=\"35\"}}c'est tout."
    }
  },
  {
    "label": "009",
    "locale": {
      "EUde": "{{anim id=\"1\"}}Supi, das hat ja prima geklappt!{{pageBreak}}{{anim id=\"5\"}}Ich bin ja so froh, dass ich dir\nhelfen konnte! {{delay frames=\"20\"}}Bis bald mal wieder,\n{{fun_00070005 arg=\"\"}}!",
      "EUen": "{{anim id=\"1\"}}Well, that's that!{{pageBreak}}{{anim id=\"5\"}}I'm totally happy to help you find\nthe stuff you want! See you\naround, {{fun_00070005 arg=\"\"}}!",
      "EUes": "{{anim id=\"1\"}}¡Qué chachi!{{pageBreak}}{{anim id=\"5\"}}¡Me encanta hacer regalos,\n{{fun_00070005 arg=\"\"}}!",
      "EUfr": "{{anim id=\"1\"}}J'adoooore faire des cadeaux !{{delay frames=\"30\"}}\n{{anim id=\"5\"}}Surtout à toi, {{fun_00070005 arg=\"\"}} !",
      "EUit": "{{anim id=\"1\"}}Bene, ecco qui allora!{{pageBreak}}{{anim id=\"5\"}}Che storia aiutarti a trovare le cose\nche ti servono! Ora corro a farmi\nla zampicure, {{fun_00070005 arg=\"\"}}! Ciaaao!",
      "JPja": "{{anim id=\"1\"}}これでよしっ！{{pageBreak}}{{anim id=\"5\"}}{{ruby charSpan=\"1\" value=\"ほか\"}}他にも　{{ruby charSpan=\"1\" value=\"なん\"}}何かあったら{{delay frames=\"10\"}}\nアタイに{{ruby charSpan=\"1\" value=\"い\"}}言ってね{{delay frames=\"30\"}}\n{{anim id=\"37\"}}じゃあ　また！",
      "KRko": "{{anim id=\"1\"}}자, 됐다!{{pageBreak}}{{anim id=\"5\"}}또 뭐 갖고 싶은 거 있음{{delay frames=\"10\"}}\n나한테 말해{{delay frames=\"30\"}}\n{{anim id=\"37\"}}그럼 또 보자!",
      "USen": "{{anim id=\"1\"}}Well, that's that!{{pageBreak}}{{anim id=\"5\"}}I'm totally happy to help you find\nthe stuff you want! See you\naround, {{fun_00070005 arg=\"\"}}!",
      "USes": "{{anim id=\"1\"}}¡Qué chachi!{{pageBreak}}{{anim id=\"5\"}}¡Me encanta hacer regalos,\n{{fun_00070005 arg=\"\"}}!",
      "USfr": "{{anim id=\"1\"}}J'adoooore faire des cadeaux!{{delay frames=\"30\"}}\n{{anim id=\"5\"}}Surtout à toi, {{fun_00070005 arg=\"\"}}!"
    }
  },
  {
    "label": "010",
    "locale": {
      "EUde": "{{anim id=\"1\"}}Hey, {{fun_00080005 arg=\"\"}}!{{pageBreak}}Ich hab heute Morgen endlich mal\naufgeräumt und hab dabei gemerkt,\ndass ich etwas doppelt hab!\nIch hab doch tatsächlich {{fun_0008000E arg=\"0x00CD0A00650069006E0065006E000800650069006E0065000600650069006E00\"}}\n{{fun_00030011 arg=\"0x0000\"}} zu viel,\nhaha! {{delay frames=\"20\"}}{{anim id=\"36\"}}Hier, du kannst {{fun_0008000E arg=\"0x00CD0600690068006E000600730069006500040065007300\"}} haben.\nIch brauch da echt keine zwei\nvon, {{fun_00080005 arg=\"\"}}.",
      "EUen": "{{anim id=\"1\"}}Hey, {{fun_00080005 arg=\"\"}}!\nI was cleaning this morning and saw\nI had two of the same thing!\nExtra {{fun_00030011 arg=\"0x0000\"}}!\nWho woulda thought?{{pageBreak}}{{anim id=\"36\"}}Here. For you, {{fun_00080005 arg=\"\"}}. Trust\nme. You'll be doing me a favor!",
      "EUes": "{{anim id=\"1\"}}¡Hola, {{fun_00080005 arg=\"\"}}!\nEsta mañana me he dado cuenta\nde que tenía dos cosas iguales.\n¡Tengo {{fun_0002000E arg=\"\"}}{{fun_00030011 arg=\"0x0000\"}}\nde sobra! Es muy típico de mí\ncuando algo me gusta...\n{{anim id=\"36\"}}Y bueno, ya que no necesito más\nque un{{fun_0008000E arg=\"0x00CD02006F00020061000000\"}}, te regalo {{fun_0008000E arg=\"0x00CD0E0065006C0020006F00740072006F000E006C00610020006F007400720061000000\"}}.",
      "EUfr": "{{anim id=\"1\"}}Hé, {{fun_00080005 arg=\"\"}} !\nJ'ai fait mon rangement annuel ce\nmatin, trop lol !\nJ'ai plein de choses en double, c'est\ndingue ! Notamment {{fun_0002000E arg=\"\"}}\n{{fun_00030011 arg=\"0x0000\"}}...\n{{anim id=\"36\"}}Tiens, je te l'offre ! Tu en prendras\nsûrement plus soin que moi !",
      "EUit": "{{anim id=\"1\"}}Ehi, {{fun_00080005 arg=\"\"}}! Stamattina mentre\nmettevo a posto i miei vestiti,\nho trovato questo doppione!\nNon ci crederai, ma non ho solo\n{{fun_0002000E arg=\"\"}}{{fun_00030011 arg=\"0x0000\"}},\nne ho ben due!{{pageBreak}}{{anim id=\"36\"}}Ecco, tieni, te ne regalo un{{fun_0008000E arg=\"0x00CD02006F00020061000000\"}},\n{{fun_00080005 arg=\"\"}}.",
      "JPja": "{{anim id=\"1\"}}ねぇ、{{delay frames=\"10\"}}{{fun_00080005 arg=\"\"}}{{fun_000D0005 arg=\"\"}}！{{pageBreak}}この{{ruby charSpan=\"1\" value=\"あいだ\"}}間　かたづけしてたら{{delay frames=\"10\"}}\n{{anim id=\"13\"}}{{fun_00030011 arg=\"0x0000\"}}が{{delay frames=\"5\"}}\n2つ{{ruby charSpan=\"1\" value=\"で\"}}出てきてさ～！\n{{anim id=\"36\"}}これ、{{delay frames=\"8\"}}たくさんあっても\nしょうがないから{{delay frames=\"10\"}}\n{{fun_00080005 arg=\"\"}}{{fun_000D0005 arg=\"\"}}にあげるよ！",
      "KRko": "{{anim id=\"1\"}}있지, {{delay frames=\"10\"}}{{fun_00080005 arg=\"\"}}{{fun_000E000E arg=\"0x020044C502007CC5\"}}!{{pageBreak}}얼마 전에 방을 정리했더니{{delay frames=\"10\"}}\n{{anim id=\"13\"}}{{fun_00030011 arg=\"0x0000\"}}{{fun_000E000E arg=\"0x020074C7020000AC\"}}{{delay frames=\"5\"}}\n2개나 나왔지 뭐야～!\n{{anim id=\"36\"}}이거 {{delay frames=\"8\"}}많이 있어 봤자\n쓸데도 없으니까{{delay frames=\"10\"}}\n{{fun_00080005 arg=\"\"}} 줄게!",
      "USen": "{{anim id=\"1\"}}Hey, {{fun_00080005 arg=\"\"}}!\nI was cleaning this morning and saw\nI had two of the same thing!\nExtra {{fun_00030011 arg=\"0x0000\"}}!\nWho woulda thought?{{pageBreak}}{{anim id=\"36\"}}Here. For you, {{fun_00080005 arg=\"\"}}. Trust\nme. You'll be doing me a favor!",
      "USes": "{{anim id=\"1\"}}¡Hola, {{fun_00080005 arg=\"\"}}!\nEsta mañana me he dado cuenta\nde que tenía dos cosas iguales.\n¡Tengo {{fun_0002000E arg=\"\"}}{{fun_00030011 arg=\"0x0000\"}}\nde sobra! Es muy típico de mí\ncuando algo me gusta...\n{{anim id=\"36\"}}Y bueno, ya que no necesito más\nque un{{fun_0008000E arg=\"0x00CD02006F00020061000000\"}}, te regalo {{fun_0008000E arg=\"0x00CD0E0065006C0020006F00740072006F000E006C00610020006F007400720061000000\"}}.",
      "USfr": "{{anim id=\"1\"}}Hé, {{fun_00080005 arg=\"\"}}!\nJ'ai fait mon rangement annuel ce\nmatin, trop lol!\nJ'ai plein de choses en double, c'est\ndingue! Notamment {{fun_0002000E arg=\"\"}}\n{{fun_00030011 arg=\"0x0000\"}}...\n{{anim id=\"36\"}}Tiens, je te l'offre! Tu en prendras\nsûrement plus soin que moi!"
    }
  },
  {
    "label": "011",
    "locale": {
      "EUde": "{{anim id=\"2\"}}Irre, wir sind ja wie Zwillinge!\n{{delay frames=\"20\"}}Total toll!{{pageBreak}}{{anim id=\"22\"}}Hey, ich könnte ja immer zwei von\nallem kaufen, dann können wir auf\newig Zwillinge sein, {{fun_00080005 arg=\"\"}}, hihi!",
      "EUen": "{{anim id=\"2\"}}We're like twins! I love it!{{pageBreak}}{{anim id=\"22\"}}Hey! Maybe I'll buy two of\neverything from now on so we\ncan be twins forever, {{fun_00080005 arg=\"\"}}!",
      "EUes": "{{anim id=\"2\"}}¡Tendremos una cosa igual,\nqué gracia!{{pageBreak}}{{anim id=\"22\"}}¿Y si a partir de ahora compro dos\ncosas de cada y así lo tenemos\ntooodo repetido?\n¡Como si fuéramos gemel{{fun_0006000E arg=\"0x02006F0002006100\"}}s!\n¿No sería ideal?",
      "EUfr": "{{anim id=\"33\"}}On a les mêmes goûts toi et moi,\npas vrai ?!{{pageBreak}}{{anim id=\"22\"}}À partir de maintenant, j'achète\ntout en double ! {{color id=\"5\"}}({{anim id=\"11\"}}Voire carrément\nen triple...){{color id=\"65535\"}}",
      "EUit": "{{anim id=\"2\"}}Che storia! Siamo come gemell{{fun_0006000E arg=\"0x0200690002006500\"}}!{{pageBreak}}{{anim id=\"22\"}}Che ideona! D'ora in poi comincerò\na comprare sempre doppioni, così\navremo tutto uguale, {{fun_00080005 arg=\"\"}}!",
      "JPja": "{{anim id=\"2\"}}アタイとおそろいで\nうれしいでしょ？{{delay frames=\"30\"}}{{anim id=\"37\"}}{{pageBreak}}{{anim id=\"22\"}}そうだ！　{{delay frames=\"20\"}}これからは、{{ruby charSpan=\"1\" value=\"なん\"}}何でも2つ{{ruby charSpan=\"1\" value=\"か\"}}買って{{delay frames=\"10\"}}\n{{anim id=\"1\"}}{{fun_00080005 arg=\"\"}}{{fun_000D0005 arg=\"\"}}と{{delay frames=\"5\"}}\nおそろいにしようかな～！",
      "KRko": "{{anim id=\"2\"}}나랑 커플된 것 같아서\n기쁘지?{{delay frames=\"30\"}}{{anim id=\"37\"}}{{pageBreak}}{{anim id=\"22\"}}좋았어! {{delay frames=\"20\"}}앞으론 다 2개씩 사서{{delay frames=\"10\"}}\n{{anim id=\"1\"}}{{fun_00080005 arg=\"\"}}하고{{delay frames=\"5\"}}\n나눠 가져야겠다～!",
      "USen": "{{anim id=\"2\"}}We're like twins! I love it!{{pageBreak}}{{anim id=\"22\"}}Hey! Maybe I'll buy two of\neverything from now on so we\ncan be twins forever, {{fun_00080005 arg=\"\"}}!",
      "USes": "{{anim id=\"2\"}}¡Tendremos una cosa igual,\nqué gracia!{{pageBreak}}{{anim id=\"22\"}}¿Y si a partir de ahora compro dos\ncosas de cada y así lo tenemos\ntooodo repetido?\n¡Como si fuéramos gemel{{fun_0006000E arg=\"0x02006F0002006100\"}}s!\n¿No sería ideal?",
      "USfr": "{{anim id=\"33\"}}On a les mêmes goûts toi et moi,\npas vrai?!{{pageBreak}}{{anim id=\"22\"}}À partir de maintenant, j'achète\ntout en double! {{color id=\"5\"}}({{anim id=\"11\"}}Voire carrément\nen triple...){{color id=\"65535\"}}"
    }
  }
]