﻿[
  {
    "label": "001",
    "locale": {
      "EUde": "{{anim id=\"2\"}}Hihi! {{delay frames=\"20\"}}Ich freu mich schon tierisch\ndarauf, dein Haus zu sehen,\n{{fun_00070005 arg=\"\"}}.",
      "EUen": "{{anim id=\"2\"}}Ha! I'm SO looking forward to\nseeing your place, {{fun_00070005 arg=\"\"}}.",
      "EUes": "{{anim id=\"2\"}}¡Me muero por ver tu casa,\n{{fun_00070005 arg=\"\"}}!",
      "EUfr": "{{anim id=\"2\"}}Vite, vite ! {{delay frames=\"8\"}}Je suis hyper pressée de\nvoir comment c'est chez toi,\n{{fun_00070005 arg=\"\"}}.",
      "EUit": "{{anim id=\"2\"}}Ah ah ah! Non vedo l'ora di vedere\ncasa tua, {{fun_00070005 arg=\"\"}}.",
      "JPja": "{{anim id=\"2\"}}キャハハ！{{delay frames=\"30\"}}\nお{{ruby charSpan=\"2\" value=\"へや\"}}部屋{{ruby charSpan=\"1\" value=\"い\"}}行くの　{{delay frames=\"5\"}}{{ruby charSpan=\"1\" value=\"たの\"}}楽しみ～、{{delay frames=\"10\"}}{{fun_00070005 arg=\"\"}}！{{delay frames=\"10\"}}{{anim id=\"37\"}}{{fun_00010007 arg=\"\"}}\n{{anim id=\"35\"}}{{ruby charSpan=\"2\" value=\"いろいろ\"}}色々　チェックしちゃおっかな！",
      "KRko": "{{anim id=\"2\"}}꺄하핫!{{delay frames=\"30\"}}\n너네 집 {{delay frames=\"5\"}}진짜 기대된다～ {{delay frames=\"10\"}}{{fun_00070005 arg=\"\"}}!{{delay frames=\"10\"}}{{anim id=\"37\"}}{{fun_00010007 arg=\"\"}}\n{{anim id=\"35\"}}여기저기 꼼꼼히 봐야지!",
      "USen": "{{anim id=\"2\"}}Ha! I'm SO looking forward to\nseeing your place, {{fun_00070005 arg=\"\"}}.",
      "USes": "{{anim id=\"2\"}}¡Me muero por ver tu casa,\n{{fun_00070005 arg=\"\"}}!",
      "USfr": "{{anim id=\"2\"}}Vite, vite! {{delay frames=\"8\"}}Je suis hyper pressée de\nvoir comment c'est chez toi,\n{{fun_00070005 arg=\"\"}}."
    }
  },
  {
    "label": "002",
    "locale": {
      "EUde": "{{anim id=\"1\"}}Oooh, was soll ich mir bei dir zu\nHause bloß als Erstes ansehen?{{pageBreak}}Ich kann's kaum erwarten,\n{{fun_00070005 arg=\"\"}}!",
      "EUen": "{{anim id=\"1\"}}Oooh, what should I look at first\nat your place?{{delay frames=\"10\"}} I can't wait,\n{{fun_00070005 arg=\"\"}}!",
      "EUes": "{{anim id=\"1\"}}¿Con qué estilo la has decorado?{{delay frames=\"10\"}}\n¿Moderno o antiguo? {{delay frames=\"10\"}}\n¡Estoy impaciente, {{fun_00070005 arg=\"\"}}!",
      "EUfr": "{{anim id=\"1\"}}Oh, quand je pense à toutes les\nmerveilles qui attendent mes\nmirettes chez toi...{{delay frames=\"8\"}} J'ai trop hâte !",
      "EUit": "{{anim id=\"1\"}}Scommetto che a casa tua non\nci si stanca mai di guardare in giro!{{delay frames=\"10\"}}\nChe emozione, {{fun_00070005 arg=\"\"}}!",
      "JPja": "{{anim id=\"1\"}}{{fun_00080005 arg=\"\"}}{{fun_000D0005 arg=\"\"}}ちで、{{delay frames=\"10\"}}\n{{ruby charSpan=\"1\" value=\"なに\"}}何して　{{ruby charSpan=\"1\" value=\"あそ\"}}遊ぶ～？{{fun_00010007 arg=\"\"}}\nちょー{{ruby charSpan=\"1\" value=\"たの\"}}楽しみなんだけど！",
      "KRko": "{{anim id=\"1\"}}{{fun_00080005 arg=\"\"}}{{fun_000E000E arg=\"0x020044C502007CC5\"}},{{delay frames=\"10\"}}\n우리 뭐하고 놀까～?{{fun_00010007 arg=\"\"}}\n완전 기대된다!",
      "USen": "{{anim id=\"1\"}}Oooh, what should I look at first\nat your place?{{delay frames=\"10\"}} I can't wait,\n{{fun_00070005 arg=\"\"}}!",
      "USes": "{{anim id=\"1\"}}¿Con qué estilo la has decorado?{{delay frames=\"10\"}}\n¿Moderno o antiguo? {{delay frames=\"10\"}}\n¡Estoy impaciente, {{fun_00070005 arg=\"\"}}!",
      "USfr": "{{anim id=\"1\"}}Oh, quand je pense à toutes les\nmerveilles qui attendent mes\nmirettes chez toi...{{delay frames=\"8\"}} J'ai trop hâte!"
    }
  },
  {
    "label": "003",
    "locale": {
      "EUde": "{{anim id=\"5\"}}Ich find's total spannend, Häuser\nanderer Leute zu besichtigen.\n{{delay frames=\"20\"}}Du nicht auch, {{delay frames=\"10\"}}{{fun_00070005 arg=\"\"}}?",
      "EUen": "{{anim id=\"5\"}}It's so much fun to go over to\nsomeone else's house, isn't it,\n{{fun_00070005 arg=\"\"}}?",
      "EUes": "{{anim id=\"5\"}}¿No es superemocionante visitar\nlas casas de los demás,\n{{fun_00070005 arg=\"\"}}?",
      "EUfr": "{{anim id=\"5\"}}C'est trop gégé d'aller chez\nquelqu'un d'autre, tu trouves pas,\n{{fun_00070005 arg=\"\"}} ?",
      "EUit": "{{anim id=\"5\"}}Che storia andare a trovare\ngli amici, {{fun_00070005 arg=\"\"}}, vero?",
      "JPja": "{{anim id=\"5\"}}{{ruby charSpan=\"2\" value=\"ともだち\"}}友達の{{ruby charSpan=\"1\" value=\"いえ\"}}家に{{ruby charSpan=\"1\" value=\"い\"}}行くのって{{delay frames=\"10\"}}\n{{ruby charSpan=\"1\" value=\"たの\"}}楽しいね、{{delay frames=\"10\"}}{{fun_00070005 arg=\"\"}}！",
      "KRko": "{{anim id=\"5\"}}친구 집에 가는 건{{delay frames=\"10\"}}\n참 즐거워, {{delay frames=\"10\"}}{{fun_00070005 arg=\"\"}}!",
      "USen": "{{anim id=\"5\"}}It's so much fun to go over to\nsomeone else's house, isn't it,\n{{fun_00070005 arg=\"\"}}?",
      "USes": "{{anim id=\"5\"}}¿No es superemocionante visitar\nlas casas de los demás,\n{{fun_00070005 arg=\"\"}}?",
      "USfr": "{{anim id=\"5\"}}C'est trop gégé d'aller chez\nquelqu'un d'autre, tu trouves pas,\n{{fun_00070005 arg=\"\"}}?"
    }
  },
  {
    "label": "004",
    "locale": {
      "EUde": "{{anim id=\"1\"}}Das wird bestimmt 'ne regelrechte\nStyleparty bei dir zu Hause,\n{{fun_00080005 arg=\"\"}}!",
      "EUen": "{{anim id=\"1\"}}This is going to be a style party\nover at your place, {{fun_00080005 arg=\"\"}}!",
      "EUes": "{{anim id=\"1\"}}¡Nos lo vamos a pasar requetebién,\n{{fun_00080005 arg=\"\"}}!",
      "EUfr": "{{anim id=\"1\"}}Zut, j'ai oublié mes lunettes de\nsoleil !{{delay frames=\"8\"}} Je vais être éblouie par ton\nintérieur, {{fun_00080005 arg=\"\"}} ! {{delay frames=\"10\"}}Hi hi hi !",
      "EUit": "{{anim id=\"1\"}}Scommetto che casa tua è\nil festival dello stile, {{fun_00080005 arg=\"\"}}!",
      "JPja": "{{anim id=\"1\"}}{{fun_00080005 arg=\"\"}}{{fun_000D0005 arg=\"\"}}の{{ruby charSpan=\"2\" value=\"へや\"}}部屋か～！{{pageBreak}}{{anim id=\"22\"}}せっかくだから、{{delay frames=\"10\"}}\n{{fun_00100005 arg=\"0x0000\"}}パーティーとか\nひらいちゃう、{{delay frames=\"15\"}}{{fun_00070005 arg=\"\"}}？！",
      "KRko": "{{anim id=\"1\"}}{{fun_00080005 arg=\"\"}}네 집이라～!{{pageBreak}}{{anim id=\"22\"}}이런 기회도 흔치 않으니까{{delay frames=\"10\"}}\n{{fun_00100005 arg=\"0x0000\"}} 파티 같은 거\n할까? {{fun_00070005 arg=\"\"}}!",
      "USen": "{{anim id=\"1\"}}This is going to be a style party\nover at your place, {{fun_00080005 arg=\"\"}}!",
      "USes": "{{anim id=\"1\"}}¡Nos lo vamos a pasar requetebién,\n{{fun_00080005 arg=\"\"}}!",
      "USfr": "{{anim id=\"1\"}}Zut, j'ai oublié mes lunettes de\nsoleil!{{delay frames=\"8\"}} Je vais être éblouie par ton\nintérieur, {{fun_00080005 arg=\"\"}}! {{delay frames=\"10\"}}Hi hi hi!"
    }
  },
  {
    "label": "005",
    "locale": {
      "EUde": "{{anim id=\"5\"}}Ich kann's kaum erwarten, zu sehen,\nwie du deine Bude eingerichtet hast,\n{{fun_00080005 arg=\"\"}}! {{delay frames=\"10\"}}Wuhuuu!",
      "EUen": "{{anim id=\"5\"}}I can't wait to see how you've\ndecorated your place, {{fun_00080005 arg=\"\"}}!",
      "EUes": "{{anim id=\"5\"}}¡Seguro que me encantará tu casa,\n{{fun_00080005 arg=\"\"}}! Tienes tan buen gusto\ncomo yo.",
      "EUfr": "{{anim id=\"5\"}}Je me demande vraiment comment\nc'est chez toi. {{delay frames=\"8\"}}On est encore loin ?",
      "EUit": "{{anim id=\"5\"}}Non vedo l'ora di ammirare\nl'arredamento di casa tua,\n{{fun_00080005 arg=\"\"}}!",
      "JPja": "{{anim id=\"5\"}}お{{ruby charSpan=\"2\" value=\"へや\"}}部屋のコーディネート、{{delay frames=\"15\"}}\nこだわりポイントとかあったら{{delay frames=\"10\"}}\n{{ruby charSpan=\"1\" value=\"おし\"}}教えてもらおうかな～",
      "KRko": "{{anim id=\"5\"}}집 인테리어에{{delay frames=\"15\"}}\n신경 쓴 부분 있으면{{delay frames=\"10\"}}\n자세히 볼 테니까 꼭 알려줘～",
      "USen": "{{anim id=\"5\"}}I can't wait to see how you've\ndecorated your place, {{fun_00080005 arg=\"\"}}!",
      "USes": "{{anim id=\"5\"}}¡Seguro que me encantará tu casa,\n{{fun_00080005 arg=\"\"}}! Tienes tan buen gusto\ncomo yo.",
      "USfr": "{{anim id=\"5\"}}Je me demande vraiment comment\nc'est chez toi. {{delay frames=\"8\"}}On est encore loin?"
    }
  },
  {
    "label": "006",
    "locale": {
      "EUde": "{{anim id=\"5\"}}Ich frag mich schon die ganze Zeit,\nwie deine Bude wohl so aussieht,\n{{fun_00070005 arg=\"\"}}!",
      "EUen": "{{anim id=\"5\"}}I've wondered what the inside of\nyour place looks like, {{fun_00070005 arg=\"\"}}!",
      "EUes": "{{anim id=\"5\"}}Hace tiempo que me pregunto\ncómo es tu casa por dentro.\n¡Hoy por fin lo sabré, {{fun_00070005 arg=\"\"}}!",
      "EUfr": "{{anim id=\"5\"}}Je suis encore jamais venue chez\ntoi, si ? {{delay frames=\"15\"}}Je suis un peu nerveuse,{{delay frames=\"8\"}}\nj'espère que je vais rien casser !",
      "EUit": "{{anim id=\"5\"}}Mi sono sempre chiesta come\nfosse l'arredamento di casa\ntua, {{fun_00070005 arg=\"\"}}!",
      "JPja": "{{anim id=\"5\"}}どんな　{{ruby charSpan=\"2\" value=\"へや\"}}部屋なのか{{delay frames=\"10\"}}\nしっかりチェックして　{{ruby charSpan=\"1\" value=\"かえ\"}}帰ろ～っと",
      "KRko": "{{anim id=\"5\"}}어떤 집인지{{delay frames=\"10\"}}\n꼼꼼히 보고 돌아갈 거야～",
      "USen": "{{anim id=\"5\"}}I've wondered what the inside of\nyour place looks like, {{fun_00070005 arg=\"\"}}!",
      "USes": "{{anim id=\"5\"}}Hace tiempo que me pregunto\ncómo es tu casa por dentro.\n¡Hoy por fin lo sabré, {{fun_00070005 arg=\"\"}}!",
      "USfr": "{{anim id=\"5\"}}Je suis encore jamais venue chez\ntoi, si? {{delay frames=\"15\"}}Je suis un peu nerveuse,{{delay frames=\"8\"}}\nj'espère que je vais rien casser!"
    }
  },
  {
    "label": "007",
    "locale": {
      "EUde": "{{anim id=\"1\"}}Ooooh! {{delay frames=\"20\"}}Mein erster Besuch bei dir\nzu Hause, {{delay frames=\"10\"}}{{fun_00070005 arg=\"\"}}!\n{{delay frames=\"20\"}}Ich bin schon total aufgeregt!",
      "EUen": "{{anim id=\"1\"}}Ooooh! My first visit to your house,\n{{fun_00070005 arg=\"\"}}! {{delay frames=\"10\"}}I can't wait!",
      "EUes": "{{anim id=\"1\"}}¡Mi primera visita a tu casa,\n{{fun_00070005 arg=\"\"}}! {{delay frames=\"10\"}}¡Qué nervios!",
      "EUfr": "{{anim id=\"1\"}}Oooh, ma première visite chez toi,\n{{fun_00070005 arg=\"\"}} ! {{delay frames=\"10\"}}J'espère que je suis\nbien fringuée pour l'occase !",
      "EUit": "{{anim id=\"1\"}}Ooooh! È la mia prima visita\na casa tua, {{fun_00070005 arg=\"\"}}!\n{{delay frames=\"10\"}}Non sto più nella pelle!",
      "JPja": "{{anim id=\"1\"}}{{ruby charSpan=\"1\" value=\"はつ\"}}初{{delay frames=\"8\"}}　{{fun_00080005 arg=\"\"}}{{fun_000D0005 arg=\"\"}}ち、{{delay frames=\"10\"}}\n{{anim id=\"4\"}}これは　ドキドキだ～！",
      "KRko": "{{anim id=\"1\"}}{{fun_00080005 arg=\"\"}}네 집은 {{delay frames=\"8\"}}처음이야～{{delay frames=\"10\"}}\n{{anim id=\"4\"}}우왕, 두근거려～!",
      "USen": "{{anim id=\"1\"}}Ooooh! My first visit to your house,\n{{fun_00070005 arg=\"\"}}! {{delay frames=\"10\"}}I can't wait!",
      "USes": "{{anim id=\"1\"}}¡Mi primera visita a tu casa,\n{{fun_00070005 arg=\"\"}}! {{delay frames=\"10\"}}¡Qué nervios!",
      "USfr": "{{anim id=\"1\"}}Oooh, ma première visite chez toi,\n{{fun_00070005 arg=\"\"}}! {{delay frames=\"10\"}}J'espère que je suis\nbien fringuée pour l'occase!"
    }
  },
  {
    "label": "008",
    "locale": {
      "EUde": "{{anim id=\"5\"}}Das hier wird hoffentlich nur die\nerste von vielen Innenausstattungs-\npartys in deiner Bude!",
      "EUen": "{{anim id=\"5\"}}I hope this is the first time of\nmany for these interior-design\nparties at your place!",
      "EUes": "{{anim id=\"5\"}}¡Esta será la primera de\nlas muchas visitas que te haré!",
      "EUfr": "{{anim id=\"5\"}}Dis, tu m'inviteras souvent, hein ?{{delay frames=\"8\"}}\nJe suis pas si dure que ça à\nsupporter,{{delay frames=\"8\"}} tu verras !",
      "EUit": "{{anim id=\"5\"}}Spero che questa sia solo la prima\ndi una lunga serie di visite in quel\ntempio dello stile che è casa tua!",
      "JPja": "{{anim id=\"5\"}}これからは、{{delay frames=\"15\"}}{{fun_00080005 arg=\"\"}}{{fun_000D0005 arg=\"\"}}ちの{{delay frames=\"8\"}}\n{{ruby charSpan=\"2\" value=\"じょうれん\"}}常連さんになりたいな～！",
      "KRko": "{{anim id=\"5\"}}앞으로 {{delay frames=\"15\"}}{{fun_00080005 arg=\"\"}} 하우스{{delay frames=\"8\"}}\n단골손님 하고 싶어～!",
      "USen": "{{anim id=\"5\"}}I hope this is the first time of\nmany for these interior-design\nparties at your place!",
      "USes": "{{anim id=\"5\"}}¡Esta será la primera de\nlas muchas visitas que te haré!",
      "USfr": "{{anim id=\"5\"}}Dis, tu m'inviteras souvent, hein?{{delay frames=\"8\"}}\nJe suis pas si dure que ça à\nsupporter,{{delay frames=\"8\"}} tu verras!"
    }
  },
  {
    "label": "009",
    "locale": {
      "EUde": "{{anim id=\"3\"}}Ich bin ja so glücklich, dass ich\ndein Haus noch mal besuchen darf,\n{{fun_00080005 arg=\"\"}}!",
      "EUen": "{{anim id=\"3\"}}I'm so happy to get the chance to\nvisit your home again, {{fun_00080005 arg=\"\"}}!",
      "EUes": "{{anim id=\"3\"}}¡Estoy supercontenta de poder\npasar el rato en tu casa otra vez,\n{{fun_00080005 arg=\"\"}}!",
      "EUfr": "{{anim id=\"3\"}}Chouette, {{fun_00010005 arg=\"\"}} est de retour\nchez {{fun_00000005 arg=\"\"}} et ça va faire\nmal !!!",
      "EUit": "{{anim id=\"3\"}}Che spettacolo poter tornare di\nnuovo nella tua casetta, {{fun_00080005 arg=\"\"}}!",
      "JPja": "{{anim id=\"3\"}}また　{{delay frames=\"8\"}}{{fun_00080005 arg=\"\"}}{{fun_000D0005 arg=\"\"}}ち{{ruby charSpan=\"1\" value=\"い\"}}行けるなんて{{delay frames=\"10\"}}\nちょーハッピーだよ！{{delay frames=\"10\"}}{{anim id=\"37\"}}",
      "KRko": "{{anim id=\"3\"}}또 {{delay frames=\"8\"}}{{fun_00080005 arg=\"\"}}네 집에 가다니{{delay frames=\"10\"}}\n날아갈 것 같아～!{{delay frames=\"10\"}}{{anim id=\"37\"}}",
      "USen": "{{anim id=\"3\"}}I'm so happy to get the chance to\nvisit your home again, {{fun_00080005 arg=\"\"}}!",
      "USes": "{{anim id=\"3\"}}¡Estoy supercontenta de poder\npasar el rato en tu casa otra vez,\n{{fun_00080005 arg=\"\"}}!",
      "USfr": "{{anim id=\"3\"}}Chouette, {{fun_00010005 arg=\"\"}} est de retour\nchez {{fun_00000005 arg=\"\"}} et ça va faire\nmal!!!"
    }
  },
  {
    "label": "010",
    "locale": {
      "EUde": "{{anim id=\"11\"}}Hmm, ich frag mich gerade.{{delay frames=\"5\"}}.{{delay frames=\"5\"}}.{{delay frames=\"5\"}} wie\noft ich jetzt schon bei dir zu Hause\ngewesen bin.\n{{anim id=\"37\"}}Ich liebe es einfach, selbst zu sehen,\nwie du dein Haus immer wieder\nmal umgestaltest!",
      "EUen": "{{anim id=\"11\"}}I wonder.{{delay frames=\"5\"}}.{{delay frames=\"5\"}}.{{delay frames=\"5\"}}how many times have\nI seen your place now? {{delay frames=\"20\"}}{{anim id=\"37\"}}I love\nseeing how you've redecorated!",
      "EUes": "{{anim id=\"11\"}}Oye.{{delay frames=\"5\"}}.{{delay frames=\"5\"}}.{{delay frames=\"5\"}} ¿Cuántas veces he estado\nya en tu casa? {{delay frames=\"20\"}}{{anim id=\"37\"}}¡Nunca me canso\nde ver cómo la redecoras!",
      "EUfr": "{{anim id=\"11\"}}J'y pense{{delay frames=\"8\"}}.{{delay frames=\"5\"}}.{{delay frames=\"5\"}}. Je suis venue combien\nde fois chez toi déjà ? {{delay frames=\"15\"}}Quoi, trop\nsouvent ?{{delay frames=\"8\"}}{{anim id=\"2\"}} Trop lol !",
      "EUit": "{{anim id=\"11\"}}Mmmh.{{delay frames=\"5\"}}.{{delay frames=\"5\"}}.{{delay frames=\"5\"}} Chissà quante volte sono\ngià stata a casa tua?! {{delay frames=\"20\"}}{{anim id=\"37\"}}Che importa?\nNon mi stanco mai di ammirarla!",
      "JPja": "{{anim id=\"11\"}}{{fun_00080005 arg=\"\"}}{{fun_000D0005 arg=\"\"}}ち{{ruby charSpan=\"1\" value=\"い\"}}行くのって{{delay frames=\"10\"}}\n{{ruby charSpan=\"3\" value=\"なんかいめ\"}}何回目だっけ？{{pageBreak}}{{anim id=\"5\"}}とにかく{{delay frames=\"15\"}}\n{{ruby charSpan=\"2\" value=\"なんど\"}}何度でも{{ruby charSpan=\"1\" value=\"い\"}}行きたくなる{{delay frames=\"8\"}}　お{{ruby charSpan=\"2\" value=\"へや\"}}部屋だよね！",
      "KRko": "{{anim id=\"11\"}}너네 집에 가는 게{{delay frames=\"10\"}}\n이걸로 몇 번째더라?{{pageBreak}}{{anim id=\"5\"}}아무튼{{delay frames=\"15\"}}\n가도 가도 {{delay frames=\"8\"}}또 가고 싶은 집이야!",
      "USen": "{{anim id=\"11\"}}I wonder.{{delay frames=\"5\"}}.{{delay frames=\"5\"}}.{{delay frames=\"5\"}}how many times have\nI seen your place now? {{delay frames=\"20\"}}{{anim id=\"37\"}}I love\nseeing how you've redecorated!",
      "USes": "{{anim id=\"11\"}}Oye.{{delay frames=\"5\"}}.{{delay frames=\"5\"}}.{{delay frames=\"5\"}} ¿Cuántas veces he estado\nya en tu casa? {{delay frames=\"20\"}}{{anim id=\"37\"}}¡Nunca me canso\nde ver cómo la redecoras!",
      "USfr": "{{anim id=\"11\"}}J'y pense{{delay frames=\"8\"}}.{{delay frames=\"5\"}}.{{delay frames=\"5\"}}. Je suis venue combien\nde fois chez toi déjà? {{delay frames=\"15\"}}Quoi, trop\nsouvent?{{delay frames=\"8\"}}{{anim id=\"2\"}} Trop lol!"
    }
  },
  {
    "label": "011",
    "locale": {
      "EUde": "{{anim id=\"1\"}}Ich kann's kaum erwarten, deine\nneuesten Innendesign-Ideen zu\nsehen, {{fun_00080005 arg=\"\"}}!",
      "EUen": "{{anim id=\"1\"}}I can't wait to check out your latest\ninterior-design ideas, {{fun_00080005 arg=\"\"}}.",
      "EUes": "{{anim id=\"1\"}}Me muero por ver tus nuevas\nideas de decoración, {{fun_00080005 arg=\"\"}}.",
      "EUfr": "{{anim id=\"13\"}}Je tiens plus, on arrive bientôt ?{{delay frames=\"30\"}}\n{{anim id=\"16\"}}Non, je veux pas aller au petit coin,\nje suis pressée de voir ta déco !",
      "EUit": "{{anim id=\"1\"}}Non vedo l'ora di ammirare i tuoi\nmobili all'ultimo grido, {{fun_00080005 arg=\"\"}}.",
      "JPja": "{{anim id=\"1\"}}{{fun_00080005 arg=\"\"}}{{fun_000D0005 arg=\"\"}}ちの\nコーディネートって{{delay frames=\"10\"}}\nマネしたくなるんだよね～！",
      "KRko": "{{anim id=\"1\"}}{{fun_00080005 arg=\"\"}}네 집\n인테리어는{{delay frames=\"10\"}}\n따라하고 싶어지더라～!",
      "USen": "{{anim id=\"1\"}}I can't wait to check out your latest\ninterior-design ideas, {{fun_00080005 arg=\"\"}}.",
      "USes": "{{anim id=\"1\"}}Me muero por ver tus nuevas\nideas de decoración, {{fun_00080005 arg=\"\"}}.",
      "USfr": "{{anim id=\"13\"}}Je tiens plus, on arrive bientôt?{{delay frames=\"30\"}}\n{{anim id=\"16\"}}Non, je veux pas aller au petit coin,\nje suis pressée de voir ta déco!"
    }
  },
  {
    "label": "012",
    "locale": {
      "EUde": "{{anim id=\"23\"}}Hä? {{delay frames=\"10\"}}Wir wollten doch zu DIR und\nnicht zu mir gehen, {{fun_00080005 arg=\"\"}}!",
      "EUen": "{{anim id=\"23\"}}What? {{delay frames=\"10\"}}We're going to YOUR place,\nnot mine, {{fun_00080005 arg=\"\"}}!",
      "EUes": "{{anim id=\"23\"}}¿Qué haces? {{delay frames=\"10\"}}¡Vamos a tu casa,\n{{fun_00080005 arg=\"\"}}! ¡No a la mía!",
      "EUfr": "{{anim id=\"23\"}}Quésaco ? {{delay frames=\"10\"}}On est censé{{fun_0006000E arg=\"0x000002006500\"}}s aller chez\ntoi, pas chez moi, {{fun_00080005 arg=\"\"}} !",
      "EUit": "{{anim id=\"23\"}}Eh? {{delay frames=\"10\"}}Guarda che volevamo andare\na casa tua, non da me, {{fun_00080005 arg=\"\"}}!",
      "JPja": "{{anim id=\"23\"}}あれ？！{{fun_00010007 arg=\"\"}}\n{{ruby charSpan=\"2\" value=\"きょう\"}}今日は　ウチじゃなくて{{delay frames=\"10\"}}\n{{fun_00080005 arg=\"\"}}{{fun_000D0005 arg=\"\"}}ちで{{ruby charSpan=\"1\" value=\"あそ\"}}遊ぶんでしょ！",
      "KRko": "{{anim id=\"23\"}}어라?!{{fun_00010007 arg=\"\"}}\n오늘은 우리 집이 아니라{{delay frames=\"10\"}}\n{{fun_00080005 arg=\"\"}}, 너네 집에서 노는 거잖아!",
      "USen": "{{anim id=\"23\"}}What? {{delay frames=\"10\"}}We're going to YOUR place,\nnot mine, {{fun_00080005 arg=\"\"}}!",
      "USes": "{{anim id=\"23\"}}¿Qué haces? {{delay frames=\"10\"}}¡Vamos a tu casa,\n{{fun_00080005 arg=\"\"}}! ¡No a la mía!",
      "USfr": "{{anim id=\"23\"}}Quésaco? {{delay frames=\"10\"}}On est censé{{fun_0006000E arg=\"0x000002006500\"}}s aller chez\ntoi, pas chez moi, {{fun_00080005 arg=\"\"}}!"
    }
  },
  {
    "label": "013",
    "locale": {
      "EUde": "{{anim id=\"23\"}}Warte mal, {{delay frames=\"5\"}}du wohnst doch gar\nnicht da drüben, {{fun_00080005 arg=\"\"}}!",
      "EUen": "{{anim id=\"23\"}}Hang on. You don't live down\nthere, {{fun_00080005 arg=\"\"}}!",
      "EUes": "{{anim id=\"23\"}}¡Oye, oye! ¡Tu casa no está\npor ahí, {{fun_00080005 arg=\"\"}}!",
      "EUfr": "{{anim id=\"6\"}}Ah ouais, je vois le genre. {{delay frames=\"8\"}}T'essaies\nde me faire croire que tu vis sur la\nplage, peut-être ?! {{delay frames=\"8\"}}Tssss...",
      "EUit": "{{anim id=\"23\"}}Aspetta un attimo, {{fun_00080005 arg=\"\"}}!\nLo so che non abiti da quelle parti!",
      "JPja": "{{anim id=\"23\"}}どうしたの？{{fun_00010007 arg=\"\"}}\n{{fun_00080005 arg=\"\"}}{{fun_000D0005 arg=\"\"}}ちって{{delay frames=\"10\"}}\nそっちじゃないよね？！",
      "KRko": "{{anim id=\"23\"}}왜 그래?{{fun_00010007 arg=\"\"}}\n{{fun_00080005 arg=\"\"}}네는{{delay frames=\"10\"}}\n그쪽 아니잖아?!",
      "USen": "{{anim id=\"23\"}}Hang on. You don't live down\nthere, {{fun_00080005 arg=\"\"}}!",
      "USes": "{{anim id=\"23\"}}¡Oye, oye! ¡Tu casa no está\npor ahí, {{fun_00080005 arg=\"\"}}!",
      "USfr": "{{anim id=\"6\"}}Ah ouais, je vois le genre. {{delay frames=\"8\"}}T'essaies\nde me faire croire que tu vis sur la\nplage, peut-être?! {{delay frames=\"8\"}}Tssss..."
    }
  },
  {
    "label": "014",
    "locale": {
      "EUde": "{{anim id=\"15\"}}Was? {{delay frames=\"10\"}}Ich dachte, wir gehen zu dir?!?{{fun_00010007 arg=\"\"}}\n{{anim id=\"37\"}}Willst du etwa alleine irgendwohin\ngehen?{{endTag}}\nNein, gehen wir.\nJepp, ciaooo!",
      "EUen": "{{anim id=\"15\"}}What? {{delay frames=\"10\"}}I thought we were going to\nyour place! {{fun_00010007 arg=\"\"}}{{anim id=\"37\"}}Do you feel like going\noff somewhere on your own?{{endTag}}\nNo. Let's get going.\nYes. Good-bye.",
      "EUes": "{{anim id=\"15\"}}¿Eh? {{delay frames=\"10\"}}¿No íbamos a tu casa?{{fun_00010007 arg=\"\"}}{{anim id=\"37\"}}\n¿Prefieres ir a otro sitio por\ntu cuenta?{{endTag}}\nNo, a casa\nSí, adiós",
      "EUfr": "{{anim id=\"15\"}}Quoi qu'est-ce ?! {{delay frames=\"10\"}}On va chez toi,\nnon ? {{fun_00010007 arg=\"\"}}{{anim id=\"37\"}}Tu préfères partir en\nvadrouille {{fun_0006000E arg=\"0x120074006F007500740020007300650075006C00160074006F0075007400650020007300650075006C006500\"}} finalement ?{{endTag}}\nNon, non, on continue.\nOui, bye bye !",
      "EUit": "{{anim id=\"15\"}}Cooosa? {{delay frames=\"10\"}}Pensavo volessimo\nandare a casa tua! {{fun_00010007 arg=\"\"}}{{anim id=\"37\"}}Preferisci\nandartene da qualche parte da sol{{fun_0006000E arg=\"0x02006F0002006100\"}}?{{endTag}}\nNo, andiamo da me.\nSì, ciaooo.",
      "JPja": "{{anim id=\"15\"}}えっ？！{{fun_00010007 arg=\"\"}}\n{{fun_00000005 arg=\"\"}}{{fun_000D0005 arg=\"\"}}　{{delay frames=\"10\"}}もしかして\n{{ruby charSpan=\"1\" value=\"で\"}}出かける{{ruby charSpan=\"2\" value=\"よてい\"}}予定だったの？{{pageBreak}}{{anim id=\"37\"}}だったら、{{delay frames=\"15\"}}\n{{ruby charSpan=\"1\" value=\"あそ\"}}遊ぶのは　また{{ruby charSpan=\"2\" value=\"こんど\"}}今度でもいいけど{{delay frames=\"10\"}}\nどうする？{{endTag}}\nだいじょうぶだよ！\nまたにしよう",
      "KRko": "{{anim id=\"15\"}}어?!{{fun_00010007 arg=\"\"}}\n{{fun_00000005 arg=\"\"}}{{fun_000E000E arg=\"0x020044C502007CC5\"}}, {{delay frames=\"10\"}}혹시\n어디 나갈 예정이야?{{pageBreak}}{{anim id=\"37\"}}그럼{{delay frames=\"15\"}} 너네 집에서 노는 건{{delay frames=\"10\"}}\n다음으로 미룰래?{{endTag}}\n안 나가도 돼!\n다음에 놀자",
      "USen": "{{anim id=\"15\"}}What? {{delay frames=\"10\"}}I thought we were going to\nyour place! {{fun_00010007 arg=\"\"}}{{anim id=\"37\"}}Do you feel like going\noff somewhere on your own?{{endTag}}\nNo. Let's get going.\nYes. Good-bye.",
      "USes": "{{anim id=\"15\"}}¿Eh? {{delay frames=\"10\"}}¿No íbamos a tu casa?{{fun_00010007 arg=\"\"}}{{anim id=\"37\"}}\n¿Prefieres ir a otro sitio por\ntu cuenta?{{endTag}}\nNo, a casa\nSí, adiós",
      "USfr": "{{anim id=\"15\"}}Quoi qu'est-ce?! {{delay frames=\"10\"}}On va chez toi,\nnon? {{fun_00010007 arg=\"\"}}{{anim id=\"37\"}}Tu préfères partir en\nvadrouille {{fun_0006000E arg=\"0x120074006F007500740020007300650075006C00160074006F0075007400650020007300650075006C006500\"}} finalement?{{endTag}}\nNon, non, on continue.\nOui, bye bye!"
    }
  },
  {
    "label": "015",
    "locale": {
      "EUde": "{{anim id=\"5\"}}Juhuuu! {{delay frames=\"10\"}}Prima!\n{{delay frames=\"30\"}}Dann mal ab zu deinem Haus!",
      "EUen": "{{anim id=\"5\"}}Oh, good! {{delay frames=\"30\"}}Let's head to your\nhouse then!",
      "EUes": "{{anim id=\"5\"}}¡Chupi! {{delay frames=\"30\"}}¡Vamos a tu casa entonces!",
      "EUfr": "{{anim id=\"5\"}}Ah, je préfère ça ! {{delay frames=\"30\"}}Alors, en route !",
      "EUit": "{{anim id=\"5\"}}Ah bene! {{delay frames=\"30\"}}Andiamo a casa tua,\nallora!",
      "JPja": "{{anim id=\"5\"}}よかった～！{{delay frames=\"30\"}}\nじゃあ、{{delay frames=\"10\"}}{{ruby charSpan=\"1\" value=\"はや\"}}早く{{ruby charSpan=\"1\" value=\"い\"}}行こっ！",
      "KRko": "{{anim id=\"5\"}}다행이다～!{{delay frames=\"30\"}}\n그럼 {{delay frames=\"10\"}}얼른 가자!",
      "USen": "{{anim id=\"5\"}}Oh, good! {{delay frames=\"30\"}}Let's head to your\nhouse then!",
      "USes": "{{anim id=\"5\"}}¡Chupi! {{delay frames=\"30\"}}¡Vamos a tu casa entonces!",
      "USfr": "{{anim id=\"5\"}}Ah, je préfère ça! {{delay frames=\"30\"}}Alors, en route!"
    }
  },
  {
    "label": "016",
    "locale": {
      "EUde": "{{anim id=\"12\"}}Im Ernst.{{delay frames=\"5\"}}.{{delay frames=\"5\"}}.{{delay frames=\"5\"}}? {{delay frames=\"10\"}}Aber, {{delay frames=\"10\"}}aber, {{delay frames=\"5\"}}ich wollte\ndoch dein Haus sehen.{{delay frames=\"5\"}}.{{delay frames=\"5\"}}.{{delay frames=\"5\"}}{{pageBreak}}{{anim id=\"1\"}}Na gut, dann eben ein anderes Mal,\n{{fun_00070005 arg=\"\"}}.",
      "EUen": "{{anim id=\"12\"}}Really.{{delay frames=\"5\"}}.{{delay frames=\"5\"}}.{{delay frames=\"5\"}}? {{delay frames=\"10\"}}But I was looking forward\nto seeing your place!{{pageBreak}}{{anim id=\"1\"}}Oh well. Maybe another time then,\n{{fun_00070005 arg=\"\"}}.",
      "EUes": "{{anim id=\"12\"}}Jo.{{delay frames=\"5\"}}.{{delay frames=\"5\"}}.{{delay frames=\"5\"}} {{delay frames=\"10\"}}Con las ganas que tenía\nde ver tu casa...{{pageBreak}}{{anim id=\"1\"}}Bueno, lo dejamos para otro día,\n{{fun_00070005 arg=\"\"}}.",
      "EUfr": "{{anim id=\"12\"}}Trop nul{{delay frames=\"8\"}}.{{delay frames=\"5\"}}.{{delay frames=\"5\"}}. {{delay frames=\"10\"}}Moi qui me faisais une\njoie de voir ta maison !{{pageBreak}}{{anim id=\"1\"}}Bon, OK. {{delay frames=\"8\"}}Je viendrai squatter un\nautre jour, alors. {{delay frames=\"8\"}}On se débarrasse\npas {{fun_000A000E arg=\"0x0600640065002000040064002700\"}}{{fun_00010005 arg=\"\"}} comme ça, hi hi !",
      "EUit": "{{anim id=\"12\"}}Davvero.{{delay frames=\"5\"}}.{{delay frames=\"5\"}}.{{delay frames=\"5\"}}? {{delay frames=\"10\"}}Che peccato! Ci tenevo\nsul serio a vedere casa tua!{{pageBreak}}{{anim id=\"1\"}}Beh, pace. Sarà per un'altra volta,\nallora, {{fun_00070005 arg=\"\"}}.",
      "JPja": "{{anim id=\"12\"}}そっか～{{delay frames=\"8\"}}・{{delay frames=\"8\"}}・{{delay frames=\"8\"}}・{{delay frames=\"8\"}}ま、{{delay frames=\"15\"}}{{ruby charSpan=\"2\" value=\"しかた\"}}仕方ないね{{fun_00010007 arg=\"\"}}\n{{anim id=\"1\"}}また{{ruby charSpan=\"2\" value=\"こんど\"}}今度　さそうから{{delay frames=\"10\"}}\nもっとヒマな{{ruby charSpan=\"1\" value=\"とき\"}}時に{{ruby charSpan=\"1\" value=\"あそ\"}}遊ぼうね！",
      "KRko": "{{anim id=\"12\"}}그래～{{delay frames=\"8\"}}・{{delay frames=\"8\"}}・{{delay frames=\"8\"}}・{{delay frames=\"8\"}} 흠, {{delay frames=\"15\"}}어쩔 수 없지{{fun_00010007 arg=\"\"}}\n{{anim id=\"1\"}}그럼 다음에 다시 물어볼게{{delay frames=\"10\"}}\n더 한가할 때 놀자!",
      "USen": "{{anim id=\"12\"}}Really.{{delay frames=\"5\"}}.{{delay frames=\"5\"}}.{{delay frames=\"5\"}}? {{delay frames=\"10\"}}But I was looking forward\nto seeing your place!{{pageBreak}}{{anim id=\"1\"}}Oh well. Maybe another time then,\n{{fun_00070005 arg=\"\"}}.",
      "USes": "{{anim id=\"12\"}}Jo.{{delay frames=\"5\"}}.{{delay frames=\"5\"}}.{{delay frames=\"5\"}} {{delay frames=\"10\"}}Con las ganas que tenía\nde ver tu casa...{{pageBreak}}{{anim id=\"1\"}}Bueno, lo dejamos para otro día,\n{{fun_00070005 arg=\"\"}}.",
      "USfr": "{{anim id=\"12\"}}Trop nul{{delay frames=\"8\"}}.{{delay frames=\"5\"}}.{{delay frames=\"5\"}}. {{delay frames=\"10\"}}Moi qui me faisais une\njoie de voir ta maison!{{pageBreak}}{{anim id=\"1\"}}Bon, OK. {{delay frames=\"8\"}}Je viendrai squatter un\nautre jour, alors. {{delay frames=\"8\"}}On se débarrasse\npas {{fun_000A000E arg=\"0x0600640065002000040064002700\"}}{{fun_00010005 arg=\"\"}} comme ça, hi hi!"
    }
  },
  {
    "label": "017",
    "locale": {
      "EUde": "{{anim id=\"23\"}}Was? {{delay frames=\"10\"}}Hey, wir gehen doch zu dir\nnach Hause und nicht DA hin!\n{{delay frames=\"10\"}}Willst du lieber alleine weiter?{{endTag}}\nNein, ab zu mir.\nJa... bis bald!",
      "EUen": "{{anim id=\"23\"}}Huh? We're going to your place,\nnot up there! {{delay frames=\"10\"}}Do you want to go\noff on your own?{{endTag}}\nNo. To my house!\nYes. See ya around.",
      "EUes": "{{anim id=\"23\"}}¡Vamos a tu casa, no de compras! {{delay frames=\"10\"}}\n¿Prefieres ir por tu cuenta?{{endTag}}\nVamos a mi casa\nSí, hasta luego",
      "EUfr": "{{anim id=\"23\"}}Hein ?{{fun_00010007 arg=\"\"}} On va chez toi, là,{{delay frames=\"8\"}} on va pas\nfaire du shopping ! {{delay frames=\"10\"}}Tu veux que je\nte lâche les baskets, peut-être ?{{endTag}}\nNon, suis-moi !\nOui, laisse-moi.",
      "EUit": "{{anim id=\"23\"}}Cosa? Ma che ci facciamo qui?\n{{delay frames=\"10\"}}Non volevamo andare a casa tua?\nHai cambiato idea?{{endTag}}\nNo, andiamo da me!\nSì, non mi va più.",
      "JPja": "{{anim id=\"23\"}}あれ？{{fun_00010007 arg=\"\"}}\n{{fun_00000005 arg=\"\"}}{{fun_000D0005 arg=\"\"}}{{delay frames=\"10\"}}\nこれから　{{ruby charSpan=\"1\" value=\"で\"}}出かける{{ruby charSpan=\"2\" value=\"よてい\"}}予定でもあった？{{pageBreak}}{{anim id=\"1\"}}だったら{{delay frames=\"10\"}}\n{{ruby charSpan=\"1\" value=\"あそ\"}}遊ぶのは{{delay frames=\"8\"}}　また{{ruby charSpan=\"2\" value=\"こんど\"}}今度にする？{{endTag}}\nだいじょーぶ！\nまたにしよう",
      "KRko": "{{anim id=\"23\"}}어?{{fun_00010007 arg=\"\"}}\n{{fun_00000005 arg=\"\"}}{{fun_000E000E arg=\"0x020044C502007CC5\"}}{{delay frames=\"10\"}}\n어디 나가야 돼?{{pageBreak}}{{anim id=\"1\"}}그럼{{delay frames=\"10\"}}\n그냥 다음에{{delay frames=\"8\"}} 놀까?{{endTag}}\n아냐, 괜찮아!\n다음에 놀자",
      "USen": "{{anim id=\"23\"}}Huh? We're going to your place,\nnot up there! {{delay frames=\"10\"}}Do you want to go\noff on your own?{{endTag}}\nNo. To my house!\nYes. See ya around.",
      "USes": "{{anim id=\"23\"}}¡Vamos a tu casa, no de compras! {{delay frames=\"10\"}}\n¿Prefieres ir por tu cuenta?{{endTag}}\nVamos a mi casa\nSí, hasta luego",
      "USfr": "{{anim id=\"23\"}}Hein?{{fun_00010007 arg=\"\"}} On va chez toi, là,{{delay frames=\"8\"}} on va pas\nfaire du shopping! {{delay frames=\"10\"}}Tu veux que je\nte lâche les baskets, peut-être?{{endTag}}\nNon, suis-moi!\nOui, laisse-moi."
    }
  },
  {
    "label": "018",
    "locale": {
      "EUde": "{{anim id=\"1\"}}Dann gehen wir jetzt also zu\ndeinem Haus! {{delay frames=\"10\"}}Auf geht's!",
      "EUen": "{{anim id=\"1\"}}Let's head for your home then!",
      "EUes": "{{anim id=\"1\"}}¡Pues a tu casa!",
      "EUfr": "{{anim id=\"1\"}}Cap sur ta maison, alors !",
      "EUit": "{{anim id=\"1\"}}Forza, allora! Si va a casa tua!",
      "JPja": "{{anim id=\"1\"}}オッケー！{{delay frames=\"20\"}}\nじゃあ、{{delay frames=\"8\"}}レッツ　ゴー！",
      "KRko": "{{anim id=\"1\"}}오케이ー!{{delay frames=\"20\"}}\n그럼 {{delay frames=\"8\"}}렛츠 고ー!",
      "USen": "{{anim id=\"1\"}}Let's head for your home then!",
      "USes": "{{anim id=\"1\"}}¡Pues a tu casa!",
      "USfr": "{{anim id=\"1\"}}Cap sur ta maison, alors!"
    }
  },
  {
    "label": "019",
    "locale": {
      "EUde": "{{anim id=\"10\"}}Echt jetzt.{{delay frames=\"5\"}}.{{delay frames=\"5\"}}.{{delay frames=\"5\"}}?\n{{delay frames=\"10\"}}Tja, {{delay frames=\"5\"}}okay, {{delay frames=\"5\"}}wir sehen uns,\n{{fun_00080005 arg=\"\"}}.",
      "EUen": "{{anim id=\"10\"}}Really.{{delay frames=\"5\"}}.{{delay frames=\"5\"}}.{{delay frames=\"5\"}}? {{delay frames=\"10\"}}Well, OK. See you later\nthen, {{fun_00080005 arg=\"\"}}.",
      "EUes": "{{anim id=\"10\"}}¿Ah, sí.{{delay frames=\"5\"}}.{{delay frames=\"5\"}}.{{delay frames=\"5\"}}? {{delay frames=\"10\"}}Vale, pues hasta otra,\n{{fun_00080005 arg=\"\"}}.",
      "EUfr": "{{anim id=\"10\"}}Ah.{{delay frames=\"5\"}}.{{delay frames=\"5\"}}.{{delay frames=\"5\"}}? {{delay frames=\"10\"}}Bon, c'est vrai, je suis un vrai\npot de colle quand je m'y mets,\nhi hi ! {{delay frames=\"15\"}}Allez, à plus !",
      "EUit": "{{anim id=\"10\"}}Davvero.{{delay frames=\"5\"}}.{{delay frames=\"5\"}}.{{delay frames=\"5\"}}? {{delay frames=\"10\"}}OK, facciamo un'altra\nvolta, {{fun_00080005 arg=\"\"}}.",
      "JPja": "{{anim id=\"10\"}}う～ん{{delay frames=\"8\"}}・{{delay frames=\"8\"}}・{{delay frames=\"8\"}}・{{delay frames=\"20\"}}\n{{anim id=\"1\"}}ま、{{delay frames=\"15\"}}{{ruby charSpan=\"2\" value=\"しかた\"}}仕方ないね！{{delay frames=\"20\"}}\nまた{{ruby charSpan=\"2\" value=\"こんど\"}}今度よろしく",
      "KRko": "{{anim id=\"10\"}}흐음～{{delay frames=\"8\"}}・{{delay frames=\"8\"}}・{{delay frames=\"8\"}}・{{delay frames=\"20\"}}\n{{anim id=\"1\"}}뭐, {{delay frames=\"15\"}}어쩔 수 없지!{{delay frames=\"20\"}}\n다음에 다시 봐",
      "USen": "{{anim id=\"10\"}}Really.{{delay frames=\"5\"}}.{{delay frames=\"5\"}}.{{delay frames=\"5\"}}? {{delay frames=\"10\"}}Well, OK. See you later\nthen, {{fun_00080005 arg=\"\"}}.",
      "USes": "{{anim id=\"10\"}}¿Ah, sí.{{delay frames=\"5\"}}.{{delay frames=\"5\"}}.{{delay frames=\"5\"}}? {{delay frames=\"10\"}}Vale, pues hasta otra,\n{{fun_00080005 arg=\"\"}}.",
      "USfr": "{{anim id=\"10\"}}Ah.{{delay frames=\"5\"}}.{{delay frames=\"5\"}}.{{delay frames=\"5\"}}? {{delay frames=\"10\"}}Bon, c'est vrai, je suis un vrai\npot de colle quand je m'y mets,\nhi hi! {{delay frames=\"15\"}}Allez, à plus!"
    }
  },
  {
    "label": "020",
    "locale": {
      "EUde": "{{anim id=\"15\"}}Hey, {{delay frames=\"5\"}}Moment mal! {{delay frames=\"20\"}}{{anim id=\"9\"}}Hier wohnt doch\n{{fun_00010011 arg=\"0x0000\"}}! {{delay frames=\"20\"}}Wir wollten doch zu\nDEINEM Haus, {{delay frames=\"10\"}}oder nicht?",
      "EUen": "{{anim id=\"15\"}}Hey, {{delay frames=\"5\"}}wait a minute! {{delay frames=\"20\"}}{{anim id=\"9\"}}This is where\n{{fun_00010011 arg=\"0x0000\"}} lives! We're supposed to\nbe going to YOUR house.",
      "EUes": "{{anim id=\"15\"}}¡Para, para! {{delay frames=\"20\"}}{{anim id=\"9\"}}¡Aquí vive {{fun_00010011 arg=\"0x0000\"}}!\n¡No intentes despistarme!\n¡Vamos a TU casa!",
      "EUfr": "{{anim id=\"15\"}}Hé, {{delay frames=\"5\"}}minute ! {{delay frames=\"20\"}}{{anim id=\"9\"}}C'est {{fun_00010011 arg=\"0x0000\"}} qui\nhabite ici ! {{delay frames=\"15\"}}T'habites pas chez lui, à\nce que je sache...",
      "EUit": "{{anim id=\"15\"}}Ehi, {{delay frames=\"5\"}}aspetta un attimo!\n{{delay frames=\"20\"}}{{anim id=\"9\"}}Ma qui abita {{fun_00010011 arg=\"0x0000\"}}?!\nNoi dobbiamo andare a casa tua!",
      "JPja": "{{anim id=\"15\"}}ちょっと　{{delay frames=\"5\"}}ちょっと！{{delay frames=\"20\"}}\n{{anim id=\"9\"}}そこは{{delay frames=\"10\"}}\n{{fun_00010011 arg=\"0x0000\"}}{{fun_000D0005 arg=\"\"}}ちだよ！",
      "KRko": "{{anim id=\"15\"}}잠깐만, {{delay frames=\"5\"}}어디 가!{{delay frames=\"20\"}}\n{{anim id=\"9\"}}거긴{{delay frames=\"10\"}}\n{{fun_00010011 arg=\"0x0000\"}}네 집이야!",
      "USen": "{{anim id=\"15\"}}Hey, {{delay frames=\"5\"}}wait a minute! {{delay frames=\"20\"}}{{anim id=\"9\"}}This is where\n{{fun_00010011 arg=\"0x0000\"}} lives! We're supposed to\nbe going to YOUR house.",
      "USes": "{{anim id=\"15\"}}¡Para, para! {{delay frames=\"20\"}}{{anim id=\"9\"}}¡Aquí vive {{fun_00010011 arg=\"0x0000\"}}!\n¡No intentes despistarme!\n¡Vamos a TU casa!",
      "USfr": "{{anim id=\"15\"}}Hé, {{delay frames=\"5\"}}minute! {{delay frames=\"20\"}}{{anim id=\"9\"}}C'est {{fun_00010011 arg=\"0x0000\"}} qui\nhabite ici! {{delay frames=\"15\"}}T'habites pas chez lui, à\nce que je sache..."
    }
  },
  {
    "label": "021",
    "locale": {
      "EUde": "{{anim id=\"23\"}}Hey, {{delay frames=\"5\"}}wo gehst du denn hin?\n{{delay frames=\"10\"}}Das hier ist nicht dein Haus!",
      "EUen": "{{anim id=\"23\"}}Where are you going? That's not\nyour house!",
      "EUes": "{{anim id=\"23\"}}¿Pero dónde vas?\nEsta no es tu casa.",
      "EUfr": "{{anim id=\"23\"}}Tu vas où, là ?{{fun_00010007 arg=\"\"}}{{anim id=\"27\"}} Faut faire contrôler\nta vue, dis. {{delay frames=\"8\"}}C'est pas chez toi, ici !",
      "EUit": "{{anim id=\"23\"}}Ma dove vai?\nQuella non è casa tua!",
      "JPja": "{{anim id=\"23\"}}どうしたの？{{delay frames=\"30\"}}\n{{anim id=\"1\"}}{{ruby charSpan=\"1\" value=\"はや\"}}早く{{ruby charSpan=\"1\" value=\"い\"}}行こ～よ、{{delay frames=\"10\"}}{{fun_00070005 arg=\"\"}}",
      "KRko": "{{anim id=\"23\"}}왜 그래?{{delay frames=\"30\"}}\n{{anim id=\"1\"}}얼른 가자～ {{delay frames=\"10\"}}{{fun_00070005 arg=\"\"}}",
      "USen": "{{anim id=\"23\"}}Where are you going? That's not\nyour house!",
      "USes": "{{anim id=\"23\"}}¿Pero dónde vas?\nEsta no es tu casa.",
      "USfr": "{{anim id=\"23\"}}Tu vas où, là?{{fun_00010007 arg=\"\"}}{{anim id=\"27\"}} Faut faire contrôler\nta vue, dis. {{delay frames=\"8\"}}C'est pas chez toi, ici!"
    }
  },
  {
    "label": "022",
    "locale": {
      "EUde": "{{anim id=\"36\"}}Hey, {{delay frames=\"5\"}}lassen wir das für heute, okay?{{pageBreak}}Ich wollt direkt zu dir nach Hause\nund mir alles angucken, aber wir\nkommen da ja irgendwie nicht an!\n{{anim id=\"37\"}}Wir können's ja ein anderes Mal\nnachholen.{{delay frames=\"5\"}}.{{delay frames=\"5\"}}.{{delay frames=\"5\"}}",
      "EUen": "{{anim id=\"36\"}}Hey, let's call it a day. I wanted to\nsee your place right away, but\nwe're just not getting to it.\n{{anim id=\"37\"}}We'll do this some other time!",
      "EUes": "{{anim id=\"36\"}}Oye, será mejor que lo dejemos\ncorrer. ¡Llevamos más de una hora\ndando tumbos!\n{{anim id=\"37\"}}¡Ya quedaremos otro día!",
      "EUfr": "{{anim id=\"36\"}}Bon, j'en peux plus, là. Ça fait des\nheures qu'on tourne en rond et j'ai\ntoujours pas vu ta maison !\n{{anim id=\"37\"}}On se refera ça une autre fois,\nd'accord, {{fun_00080005 arg=\"\"}} ?",
      "EUit": "{{anim id=\"36\"}}Ehi, senti, lasciamo stare. Volevo\nvenire a vedere casa tua, ma oggi\nnon c'è verso! {{anim id=\"37\"}}Meglio rimandare!",
      "JPja": "{{anim id=\"36\"}}ねぇ、{{delay frames=\"20\"}}{{ruby charSpan=\"2\" value=\"きょう\"}}今日は　{{delay frames=\"8\"}}このくらいにしとかない？{{fun_00010007 arg=\"\"}}\nアタイも　{{delay frames=\"10\"}}{{ruby charSpan=\"4\" value=\"いろいろよてい\"}}色々予定あるんだよね{{delay frames=\"20\"}}\n{{anim id=\"37\"}}また{{ruby charSpan=\"2\" value=\"こんど\"}}今度よろしく！",
      "KRko": "{{anim id=\"36\"}}저기, {{delay frames=\"20\"}}오늘은 {{delay frames=\"8\"}}그냥 그만두자{{fun_00010007 arg=\"\"}}\n나도 {{delay frames=\"10\"}}다른 약속이 많단 말이지{{delay frames=\"20\"}}\n{{anim id=\"37\"}}다음에 또 봐!",
      "USen": "{{anim id=\"36\"}}Hey, let's call it a day. I wanted to\nsee your place right away, but\nwe're just not getting to it.\n{{anim id=\"37\"}}We'll do this some other time!",
      "USes": "{{anim id=\"36\"}}Oye, será mejor que lo dejemos\ncorrer. ¡Llevamos más de una hora\ndando tumbos!\n{{anim id=\"37\"}}¡Ya quedaremos otro día!",
      "USfr": "{{anim id=\"36\"}}Bon, j'en peux plus, là. Ça fait des\nheures qu'on tourne en rond et j'ai\ntoujours pas vu ta maison!\n{{anim id=\"37\"}}On se refera ça une autre fois,\nd'accord, {{fun_00080005 arg=\"\"}}?"
    }
  },
  {
    "label": "023",
    "locale": {
      "EUde": "{{anim id=\"15\"}}Wow, {{delay frames=\"5\"}}wie spät es schon ist!\n{{delay frames=\"10\"}}Und ich denk gerade noch so:\n„Mensch, du wirst langsam müde!“{{pageBreak}}{{anim id=\"37\"}}Lass uns die Hausbesichtigung für\nheute abbrechen, ja? {{delay frames=\"10\"}}Wir können's\nja irgendwann noch mal versuchen!",
      "EUen": "{{anim id=\"15\"}}Wow, look at the time! I thought I\nwas getting a little sleepy.{{pageBreak}}{{anim id=\"37\"}}I think we should call it a day.{{delay frames=\"10\"}}\nWe'll do this some other time!",
      "EUes": "{{anim id=\"15\"}}Uf, se ha hecho un poco tarde\ny estoy cansada.{{pageBreak}}{{anim id=\"37\"}}Será mejor que lo dejemos para\notra ocasión.",
      "EUfr": "{{anim id=\"15\"}}Ouah, t'as vu l'heure ? J'ai les yeux\nqui se ferment tout seuls, je vois\nmême plus où je vais, hi hi !\n{{anim id=\"37\"}}Allez, tant pis pour aujourd'hui. {{delay frames=\"10\"}}On\nremet ça à une prochaine fois !",
      "EUit": "{{anim id=\"15\"}}Cavoli, hai visto che ore sono?\nÈ meglio andare a nanna.{{pageBreak}}{{anim id=\"37\"}}Dai, ci vengo un'altra volta da te.{{delay frames=\"10\"}}\nCorro a casa a dormire!",
      "JPja": "{{anim id=\"15\"}}わ！　{{delay frames=\"30\"}}もうこんな{{ruby charSpan=\"2\" value=\"じかん\"}}時間じゃん！{{delay frames=\"30\"}}\n{{anim id=\"13\"}}どうりで　{{delay frames=\"10\"}}まぶたが{{ruby charSpan=\"1\" value=\"おも\"}}重いわけだわ{{pageBreak}}{{anim id=\"27\"}}ってことで、{{delay frames=\"10\"}}\n{{ruby charSpan=\"2\" value=\"きょう\"}}今日はこのくらいにして{{delay frames=\"15\"}}\n{{anim id=\"37\"}}また{{ruby charSpan=\"2\" value=\"こんど\"}}今度　{{ruby charSpan=\"1\" value=\"あそ\"}}遊ぼうね！",
      "KRko": "{{anim id=\"15\"}}앗! {{delay frames=\"30\"}}시간이 벌써!{{delay frames=\"30\"}}\n{{anim id=\"13\"}}어쩐지 {{delay frames=\"10\"}}눈이 자꾸 감긴다 했어{{pageBreak}}{{anim id=\"27\"}}그럼{{delay frames=\"10\"}}\n오늘은 여기까지 하고{{delay frames=\"15\"}}\n{{anim id=\"37\"}}나중에 다시 놀자!",
      "USen": "{{anim id=\"15\"}}Wow, look at the time! I thought I\nwas getting a little sleepy.{{pageBreak}}{{anim id=\"37\"}}I think we should call it a day.{{delay frames=\"10\"}}\nWe'll do this some other time!",
      "USes": "{{anim id=\"15\"}}Uf, se ha hecho un poco tarde\ny estoy cansada.{{pageBreak}}{{anim id=\"37\"}}Será mejor que lo dejemos para\notra ocasión.",
      "USfr": "{{anim id=\"15\"}}Ouah, t'as vu l'heure? J'ai les yeux\nqui se ferment tout seuls, je vois\nmême plus où je vais, hi hi!\n{{anim id=\"37\"}}Allez, tant pis pour aujourd'hui. {{delay frames=\"10\"}}On\nremet ça à une prochaine fois!"
    }
  },
  {
    "label": "024",
    "locale": {
      "EUde": "{{anim id=\"13\"}}AAAH, {{delay frames=\"5\"}}warte auf mich!",
      "EUen": "{{anim id=\"13\"}}Wait up!",
      "EUes": "{{anim id=\"13\"}}¡Espérame, jo!",
      "EUfr": "{{anim id=\"13\"}}Attends ! Mais attends-euh !",
      "EUit": "{{anim id=\"13\"}}Aspetta!",
      "JPja": "{{anim id=\"13\"}}ちょっと{{ruby charSpan=\"1\" value=\"ま\"}}待って～！",
      "KRko": "{{anim id=\"13\"}}잠깐만～!",
      "USen": "{{anim id=\"13\"}}Wait up!",
      "USes": "{{anim id=\"13\"}}¡Espérame, jo!",
      "USfr": "{{anim id=\"13\"}}Attends! Mais attends-euh!"
    }
  },
  {
    "label": "025",
    "locale": {
      "EUde": "{{anim id=\"6\"}}Hast du mich nicht gehört, als ich\ngerufen hab, dass du auf mich\nwarten sollst? {{delay frames=\"30\"}}{{anim id=\"7\"}}Ich geb's auf!{{fun_0003000B arg=\"0x03CD\"}}",
      "EUen": "{{anim id=\"6\"}}Didn't you hear me tell you to\nwait for me? {{delay frames=\"30\"}}{{anim id=\"7\"}}I give up!{{fun_0003000B arg=\"0x03CD\"}}",
      "EUes": "{{anim id=\"6\"}}¿No me has oído pedirte que\nme esperaras? {{delay frames=\"30\"}}{{anim id=\"7\"}}¡Ya no quiero ir\na tu casa! ¡Paso!{{fun_0003000B arg=\"0x03CD\"}}",
      "EUfr": "{{anim id=\"6\"}}Hé, tu m'as pas entendue hurler\ncomme une folle ?! {{delay frames=\"8\"}}Je t'ai demandé\nde m'attendre ! {{delay frames=\"30\"}}{{anim id=\"7\"}}Bah, j'abandonne !{{fun_0003000B arg=\"0x03CD\"}}",
      "EUit": "{{anim id=\"6\"}}Ma non mi hai sentita quando\nti dicevo di rallentare? {{delay frames=\"30\"}}{{anim id=\"7\"}}Ci rinuncio!{{fun_0003000B arg=\"0x03CD\"}}",
      "JPja": "{{anim id=\"6\"}}{{ruby charSpan=\"1\" value=\"ま\"}}待ってって{{ruby charSpan=\"1\" value=\"い\"}}言ってるのに～！{{delay frames=\"30\"}}\n{{anim id=\"7\"}}もう　いいよ！{{fun_0003000B arg=\"0x03CD\"}}",
      "KRko": "{{anim id=\"6\"}}기다리랬잖아～!{{delay frames=\"30\"}}\n{{anim id=\"7\"}}됐어! 관둬!{{fun_0003000B arg=\"0x03CD\"}}",
      "USen": "{{anim id=\"6\"}}Didn't you hear me tell you to\nwait for me? {{delay frames=\"30\"}}{{anim id=\"7\"}}I give up!{{fun_0003000B arg=\"0x03CD\"}}",
      "USes": "{{anim id=\"6\"}}¿No me has oído pedirte que\nme esperaras? {{delay frames=\"30\"}}{{anim id=\"7\"}}¡Ya no quiero ir\na tu casa! ¡Paso!{{fun_0003000B arg=\"0x03CD\"}}",
      "USfr": "{{anim id=\"6\"}}Hé, tu m'as pas entendue hurler\ncomme une folle?! {{delay frames=\"8\"}}Je t'ai demandé\nde m'attendre! {{delay frames=\"30\"}}{{anim id=\"7\"}}Bah, j'abandonne!{{fun_0003000B arg=\"0x03CD\"}}"
    }
  }
]