﻿[
  {
    "label": "001",
    "locale": {
      "EUde": "{{anim id=\"5\"}}Wow, {{delay frames=\"10\"}}das hat mal richtig Spaß\ngemacht, {{delay frames=\"10\"}}{{fun_00070005 arg=\"\"}}! {{delay frames=\"20\"}}Echt cool!{{pageBreak}}Aber ich will deine Gastfreundschaft\nnicht überstrapazieren{{delay frames=\"5\"}}.{{delay frames=\"5\"}}.{{delay frames=\"5\"}}. {{delay frames=\"20\"}}Ich geh\ndann mal wieder!\nDanke für die Einladung!\n{{delay frames=\"20\"}}Das müssen wir auf jeden\nFall wiederholen!",
      "EUen": "{{anim id=\"5\"}}Wow, that was a LOT of fun,\n{{fun_00070005 arg=\"\"}}. But I don't want to\nwear out my welcome.{{delay frames=\"5\"}}.{{delay frames=\"5\"}}.{{delay frames=\"5\"}}\nSo I think I'll be going! {{delay frames=\"10\"}}Thanks for\nhaving me. We should do this\nagain sometime!",
      "EUes": "{{anim id=\"5\"}}¡Ha sido de lo más díver,\n{{fun_00070005 arg=\"\"}}! Me quedaría un rato\nmás, pero tengo cosas que hacer.{{delay frames=\"5\"}}.{{delay frames=\"5\"}}.{{delay frames=\"5\"}}\n¡Esto hay que repetirlo otro día!{{delay frames=\"10\"}}\n¡Hasta la vista!",
      "EUfr": "{{anim id=\"5\"}}Oh là là, qu'est-ce qu'on s'est\nmarré{{fun_0006000E arg=\"0x000002006500\"}}s, {{fun_00070005 arg=\"\"}} ! {{delay frames=\"15\"}}Mais bon,\ntous les bons moments ont une fin.\nAlors je remballe ! {{delay frames=\"10\"}}Merci pour\nl'accueil en tout cas. Faut qu'on se\nrefasse ça un de ces quatre, hein !",
      "EUit": "{{anim id=\"5\"}}Uau, mi sono divertita un sacco,\n{{fun_00070005 arg=\"\"}}! Solo che si sa:\nl'ospite è come il pesce.{{delay frames=\"5\"}}.{{delay frames=\"5\"}}.{{delay frames=\"5\"}}\n... dopo un po' puzza!\nQuindi tolgo subito il disturbo.\n{{delay frames=\"10\"}}Grazie dell'invito. Ciaaao!",
      "JPja": "{{anim id=\"5\"}}あ～　{{delay frames=\"20\"}}{{ruby charSpan=\"2\" value=\"おもしろ\"}}面白かった！{{fun_00010007 arg=\"\"}}\n{{anim id=\"0\"}}さ～て　{{delay frames=\"8\"}}あんま{{ruby charSpan=\"1\" value=\"なが\"}}長くいても{{ruby charSpan=\"1\" value=\"わる\"}}悪いし{{delay frames=\"10\"}}\nそろそろ{{ruby charSpan=\"1\" value=\"かえ\"}}帰ろっかな～、{{delay frames=\"10\"}}{{fun_00070005 arg=\"\"}}\n{{anim id=\"1\"}}{{ruby charSpan=\"2\" value=\"きょう\"}}今日は　どうもありがとね！{{delay frames=\"20\"}}\nまた{{ruby charSpan=\"1\" value=\"あそ\"}}遊びに{{ruby charSpan=\"1\" value=\"く\"}}来るよ",
      "KRko": "{{anim id=\"5\"}}하아～ {{delay frames=\"20\"}}재밌었다!{{fun_00010007 arg=\"\"}}\n{{anim id=\"0\"}}그래도 {{delay frames=\"8\"}}너무 오래 있으면 미안하니까{{delay frames=\"10\"}}\n슬슬 집에 가야겠어～ {{delay frames=\"10\"}}{{fun_00070005 arg=\"\"}}\n{{anim id=\"1\"}}오늘 고마웠어!{{delay frames=\"20\"}}\n또 놀러 올게",
      "USen": "{{anim id=\"5\"}}Wow, that was a LOT of fun,\n{{fun_00070005 arg=\"\"}}. But I don't want to\nwear out my welcome.{{delay frames=\"5\"}}.{{delay frames=\"5\"}}.{{delay frames=\"5\"}}\nSo I think I'll be going! {{delay frames=\"10\"}}Thanks for\nhaving me. We should do this\nagain sometime!",
      "USes": "{{anim id=\"5\"}}¡Ha sido de lo más díver,\n{{fun_00070005 arg=\"\"}}! Me quedaría un rato\nmás, pero tengo cosas que hacer.{{delay frames=\"5\"}}.{{delay frames=\"5\"}}.{{delay frames=\"5\"}}\n¡Esto hay que repetirlo otro día!{{delay frames=\"10\"}}\n¡Hasta la vista!",
      "USfr": "{{anim id=\"5\"}}Oh là là, qu'est-ce qu'on s'est\nmarré{{fun_0006000E arg=\"0x000002006500\"}}s, {{fun_00070005 arg=\"\"}}! {{delay frames=\"15\"}}Mais bon,\ntous les bons moments ont une fin.\nAlors je remballe! {{delay frames=\"10\"}}Merci pour\nl'accueil en tout cas. Faut qu'on se\nrefasse ça un de ces quatre, hein!"
    }
  },
  {
    "label": "002",
    "locale": {
      "EUde": "{{anim id=\"1\"}}So, {{delay frames=\"10\"}}ich denke, ich hab dein\nInnenambiente lange genug auf\nmich wirken lassen.\nIch hau dann auch mal wieder ab,\n{{delay frames=\"10\"}}{{fun_00070005 arg=\"\"}}.{{delay frames=\"20\"}} {{anim id=\"3\"}}Und danke noch mal\nfür die Einladung!\nDas muss unbedingt wiederholt\nwerden!",
      "EUen": "{{anim id=\"1\"}}Well, I think I soaked up enough of\nthe ambience in here for today.{{delay frames=\"10\"}}\nI think I'll head out, {{fun_00070005 arg=\"\"}}.\n{{anim id=\"3\"}}Thanks for having me over!\nI know you're busy. {{delay frames=\"20\"}}We have GOT\nto do this again sometime!",
      "EUes": "{{anim id=\"1\"}}Tu casa es muy cuqui pero\nya va siendo hora de que\nme vaya, {{fun_00070005 arg=\"\"}}.\n{{anim id=\"3\"}}¡Gracias por todo!{{delay frames=\"20\"}} ¡Sé que l{{fun_0006000E arg=\"0x02006F0002006100\"}}s dos\nestamos superocupad{{fun_0006000E arg=\"0x02006F0002006100\"}}s, pero hay\nque repetirlo!",
      "EUfr": "{{anim id=\"1\"}}Bon, je crois que j'ai assez abusé\npour aujourd'hui.{{delay frames=\"10\"}} Je vais te laisser,\n{{fun_00070005 arg=\"\"}} !\n{{anim id=\"3\"}}Merci pour l'invit ! Je sais que t'es\nvachement occupé{{fun_0006000E arg=\"0x000002006500\"}} comme {{fun_0006000E arg=\"0x0800670061007200730008006E0061006E006100\"}} !!!{{delay frames=\"20\"}}\nOn se refera ça un jour, promis ?",
      "EUit": "{{anim id=\"1\"}}Bene, mi sa che ti ho onorato\ngià abbastanza della mia presenza!{{pageBreak}}Me ne vado, {{fun_00070005 arg=\"\"}}.\n{{anim id=\"3\"}}Grazie per avermi invitata!\n{{delay frames=\"20\"}}Corro a un casting, ciaaao!",
      "JPja": "{{anim id=\"1\"}}さて　{{delay frames=\"15\"}}{{fun_00080005 arg=\"\"}}{{fun_000D0005 arg=\"\"}}ちの\n{{ruby charSpan=\"2\" value=\"くうき\"}}空気も　{{delay frames=\"8\"}}いっぱいすったし{{delay frames=\"15\"}}\n{{ruby charSpan=\"2\" value=\"きょう\"}}今日は　{{delay frames=\"8\"}}このぐらいに　しとこうかな！\n{{anim id=\"3\"}}いそがしいところ　{{delay frames=\"10\"}}ありがと！{{delay frames=\"30\"}}\nまた　よんでね、{{delay frames=\"10\"}}{{fun_00070005 arg=\"\"}}{{delay frames=\"10\"}}{{anim id=\"37\"}}",
      "KRko": "{{anim id=\"1\"}}자, {{delay frames=\"15\"}}{{fun_00080005 arg=\"\"}} 하우스의\n공기도 {{delay frames=\"8\"}}잔뜩 맡았으니까{{delay frames=\"15\"}}\n오늘은 {{delay frames=\"8\"}}그만 갈까?!\n{{anim id=\"3\"}}바쁜데 놀아줘서 {{delay frames=\"10\"}}고마워!{{delay frames=\"30\"}}\n또 불러줘, {{delay frames=\"10\"}}{{fun_00070005 arg=\"\"}}{{delay frames=\"10\"}}{{anim id=\"37\"}}",
      "USen": "{{anim id=\"1\"}}Well, I think I soaked up enough of\nthe ambience in here for today.{{delay frames=\"10\"}}\nI think I'll head out, {{fun_00070005 arg=\"\"}}.\n{{anim id=\"3\"}}Thanks for having me over!\nI know you're busy. {{delay frames=\"20\"}}We have GOT\nto do this again sometime!",
      "USes": "{{anim id=\"1\"}}Tu casa es muy cuqui pero\nya va siendo hora de que\nme vaya, {{fun_00070005 arg=\"\"}}.\n{{anim id=\"3\"}}¡Gracias por todo!{{delay frames=\"20\"}} ¡Sé que l{{fun_0006000E arg=\"0x02006F0002006100\"}}s dos\nestamos superocupad{{fun_0006000E arg=\"0x02006F0002006100\"}}s, pero hay\nque repetirlo!",
      "USfr": "{{anim id=\"1\"}}Bon, je crois que j'ai assez abusé\npour aujourd'hui.{{delay frames=\"10\"}} Je vais te laisser,\n{{fun_00070005 arg=\"\"}}!\n{{anim id=\"3\"}}Merci pour l'invit! Je sais que t'es\nvachement occupé{{fun_0006000E arg=\"0x000002006500\"}} comme {{fun_0006000E arg=\"0x0800670061007200730008006E0061006E006100\"}}!!!{{delay frames=\"20\"}}\nOn se refera ça un jour, promis?"
    }
  },
  {
    "label": "003",
    "locale": {
      "EUde": "{{anim id=\"5\"}}Wuuhuu! {{delay frames=\"20\"}}Wie die Zeit rennt, wenn\nman Spaß hat, {{delay frames=\"10\"}}{{fun_00070005 arg=\"\"}}!{{pageBreak}}{{anim id=\"1\"}}Ich hab das Gefühl, dass ich 'ne ganz\nneue Seite an dir entdeckt hab!{{pageBreak}}Danke, dass ich vorbeikommen\ndurfte, {{fun_00080005 arg=\"\"}}.",
      "EUen": "{{anim id=\"5\"}}Woohoo! How time flies when\nyou're having fun, {{fun_00070005 arg=\"\"}}!{{pageBreak}}{{anim id=\"1\"}}I feel like I saw a whole different\nside of you! {{delay frames=\"10\"}}Thanks for letting\nme in, {{fun_00080005 arg=\"\"}}.",
      "EUes": "{{anim id=\"5\"}}¡Hala! ¡El tiempo vuela cuando\nte diviertes, {{fun_00070005 arg=\"\"}}!{{pageBreak}}{{anim id=\"1\"}}¡Siento que ahora te conozco un\npoco mejor! {{delay frames=\"10\"}}¡Gracias por enseñarme\ntu casa, {{fun_00080005 arg=\"\"}}!",
      "EUfr": "{{anim id=\"5\"}}Youhou ! J'ai pas vu l'heure passer,\ndis donc, {{fun_00070005 arg=\"\"}} !!!{{delay frames=\"30\"}} Tic-tac,\ntic-tac,{{anim id=\"44\"}} zou !!! {{delay frames=\"8\"}}LOL !\n{{anim id=\"1\"}}J'ai l'impression de te connaître\ncarrément mieux maintenant ! {{delay frames=\"10\"}}Merci\nde m'avoir invitée, {{fun_00080005 arg=\"\"}} !!!",
      "EUit": "{{anim id=\"5\"}}Uau! Il tempo vola quando\nci si diverte un sacco, {{fun_00070005 arg=\"\"}}!{{pageBreak}}{{anim id=\"1\"}}Sei stat{{fun_0006000E arg=\"0x02006F0002006100\"}} {{fun_0006000E arg=\"0x140075006E00200070006100640072006F006E006500160075006E006100200070006100640072006F006E006100\"}} di casa\ndavvero eccezionale!\n{{delay frames=\"10\"}}Grazie di tutto, {{fun_00080005 arg=\"\"}}.",
      "JPja": "{{anim id=\"5\"}}なんか　{{delay frames=\"8\"}}あっという{{ruby charSpan=\"1\" value=\"ま\"}}間だったな～！{{pageBreak}}{{anim id=\"37\"}}でも　{{delay frames=\"10\"}}{{fun_00080005 arg=\"\"}}{{fun_000D0005 arg=\"\"}}の\n{{ruby charSpan=\"2\" value=\"いがい\"}}意外な{{ruby charSpan=\"2\" value=\"いちめん\"}}一面、{{delay frames=\"10\"}}{{anim id=\"35\"}}{{ruby charSpan=\"1\" value=\"し\"}}知っちゃったってカンジ？！{{fun_00010007 arg=\"\"}}\n{{anim id=\"1\"}}{{ruby charSpan=\"2\" value=\"きょう\"}}今日は　よんでくれて{{delay frames=\"10\"}}　ありがとね！",
      "KRko": "{{anim id=\"5\"}}시간이 {{delay frames=\"8\"}}벌써 이렇게 됐네～!{{pageBreak}}{{anim id=\"37\"}}그래도 {{delay frames=\"10\"}}{{fun_00080005 arg=\"\"}}의\n의외의 모습을 {{delay frames=\"10\"}}{{anim id=\"35\"}}새로 안 것 같다!{{fun_00010007 arg=\"\"}}\n{{anim id=\"1\"}}오늘은 {{delay frames=\"10\"}}불러줘서 고마웠어!",
      "USen": "{{anim id=\"5\"}}Woohoo! How time flies when\nyou're having fun, {{fun_00070005 arg=\"\"}}!{{pageBreak}}{{anim id=\"1\"}}I feel like I saw a whole different\nside of you! {{delay frames=\"10\"}}Thanks for letting\nme in, {{fun_00080005 arg=\"\"}}.",
      "USes": "{{anim id=\"5\"}}¡Hala! ¡El tiempo vuela cuando\nte diviertes, {{fun_00070005 arg=\"\"}}!{{pageBreak}}{{anim id=\"1\"}}¡Siento que ahora te conozco un\npoco mejor! {{delay frames=\"10\"}}¡Gracias por enseñarme\ntu casa, {{fun_00080005 arg=\"\"}}!",
      "USfr": "{{anim id=\"5\"}}Youhou! J'ai pas vu l'heure passer,\ndis donc, {{fun_00070005 arg=\"\"}}!!!{{delay frames=\"30\"}} Tic-tac,\ntic-tac,{{anim id=\"44\"}} zou!!! {{delay frames=\"8\"}}LOL!\n{{anim id=\"1\"}}J'ai l'impression de te connaître\ncarrément mieux maintenant! {{delay frames=\"10\"}}Merci\nde m'avoir invitée, {{fun_00080005 arg=\"\"}}!!!"
    }
  },
  {
    "label": "004",
    "locale": {
      "EUde": "{{anim id=\"23\"}}Hey, wo gehst du hin?!? {{delay frames=\"20\"}}Musst du\nlos oder so? {{delay frames=\"20\"}}Tja, {{delay frames=\"10\"}}dann geh ich\nauch mal, was, {{delay frames=\"10\"}}{{fun_00070005 arg=\"\"}}?\n{{anim id=\"1\"}}Danke, dass ich dich besuchen\ndurfte!",
      "EUen": "{{anim id=\"23\"}}Hey, where are you going?! {{delay frames=\"10\"}}Heading\nout or something? {{delay frames=\"10\"}}Well, I guess I'll\nbe going then, {{fun_00070005 arg=\"\"}}.\n{{anim id=\"1\"}}Thanks for having me over!",
      "EUes": "{{anim id=\"23\"}}¿Qué haces? {{delay frames=\"10\"}}¿Vas a salir? {{delay frames=\"10\"}}En ese\ncaso, yo también, {{fun_00070005 arg=\"\"}}.\n{{anim id=\"1\"}}¡Gracias por dejarme venir!",
      "EUfr": "{{anim id=\"16\"}}Hé ! Tu vas où là ?! Plus un geste !{{delay frames=\"15\"}}\n{{anim id=\"23\"}}Tu sors ?{{pageBreak}}Bon, autrement dit : {{delay frames=\"8\"}}« Fiche le\ncamp, {{fun_00010005 arg=\"\"}} ! » {{delay frames=\"8\"}}OK, pigé, je\nm'en vais, alors ! Lol ! {{delay frames=\"15\"}}À plus !",
      "EUit": "{{anim id=\"23\"}}Ehi, scusa, ma dove vai?!\n{{delay frames=\"10\"}}Vuoi uscire? {{delay frames=\"10\"}}Beh, se è così,\nallora sloggio anch'io, {{fun_00070005 arg=\"\"}}.\n{{anim id=\"1\"}}Grazie dell'invito!",
      "JPja": "{{anim id=\"23\"}}あれ？{{delay frames=\"20\"}}　どっかお{{ruby charSpan=\"1\" value=\"で\"}}出かけ？！{{delay frames=\"30\"}}\n{{anim id=\"1\"}}じゃあ、{{delay frames=\"8\"}}アタイも　そろそろ{{ruby charSpan=\"1\" value=\"かえ\"}}帰ろうかな！{{pageBreak}}{{ruby charSpan=\"2\" value=\"きょう\"}}今日は　{{ruby charSpan=\"1\" value=\"たの\"}}楽しかったよ！{{delay frames=\"20\"}}\nどうもありがとね～！",
      "KRko": "{{anim id=\"23\"}}어? {{delay frames=\"20\"}}어디 나가?!{{delay frames=\"30\"}}\n{{anim id=\"1\"}}그럼 {{delay frames=\"8\"}}나도 슬슬 나가야겠다!{{pageBreak}}오늘 진짜 재밌었어!{{delay frames=\"20\"}}\n고마워～!",
      "USen": "{{anim id=\"23\"}}Hey, where are you going?! {{delay frames=\"10\"}}Heading\nout or something? {{delay frames=\"10\"}}Well, I guess I'll\nbe going then, {{fun_00070005 arg=\"\"}}.\n{{anim id=\"1\"}}Thanks for having me over!",
      "USes": "{{anim id=\"23\"}}¿Qué haces? {{delay frames=\"10\"}}¿Vas a salir? {{delay frames=\"10\"}}En ese\ncaso, yo también, {{fun_00070005 arg=\"\"}}.\n{{anim id=\"1\"}}¡Gracias por dejarme venir!",
      "USfr": "{{anim id=\"16\"}}Hé! Tu vas où là?! Plus un geste!{{delay frames=\"15\"}}\n{{anim id=\"23\"}}Tu sors?{{pageBreak}}Bon, autrement dit : {{delay frames=\"8\"}}« Fiche le\ncamp, {{fun_00010005 arg=\"\"}}! » {{delay frames=\"8\"}}OK, pigé, je\nm'en vais, alors! Lol! {{delay frames=\"15\"}}À plus!"
    }
  },
  {
    "label": "005",
    "locale": {
      "EUde": "{{anim id=\"23\"}}Oh, {{delay frames=\"10\"}}musst du weg?!? {{delay frames=\"20\"}}{{anim id=\"13\"}}Du kannst\nmich doch nicht hier zurücklassen, \n{{fun_00070005 arg=\"\"}}!\n{{anim id=\"37\"}}Äh, {{delay frames=\"5\"}}dann werd ich wohl auch gehen.\n{{delay frames=\"20\"}}Hey, {{delay frames=\"5\"}}wir sollten das auf jeden Fall\nwiederholen, okay, {{fun_00080005 arg=\"\"}}?",
      "EUen": "{{anim id=\"23\"}}Hmm? {{delay frames=\"10\"}}Taking off? {{delay frames=\"20\"}}{{anim id=\"13\"}}Well, you can't\njust leave me here alone,\n{{fun_00070005 arg=\"\"}}!\n{{anim id=\"37\"}}So I guess I'll be going. {{delay frames=\"20\"}}Hey, we\nshould do this again sometime,\n{{fun_00080005 arg=\"\"}}!",
      "EUes": "{{anim id=\"23\"}}¿Eh? {{delay frames=\"10\"}}¿Te vas? {{delay frames=\"20\"}}{{anim id=\"13\"}}¡Pero {{fun_0006000E arg=\"0x0C0068006F006D006200720065000A006D0075006A0065007200\"}},\nno puedes dejarme aquí sola,\n{{fun_00070005 arg=\"\"}}!\n{{anim id=\"37\"}}¡Menud{{fun_0006000E arg=\"0x02006F0002006100\"}} {{fun_0006000E arg=\"0x120061006E0066006900740072006900F3006E00140061006E00660069007400720069006F006E006100\"}} estás tú hech{{fun_0006000E arg=\"0x02006F0002006100\"}},\n{{fun_00080005 arg=\"\"}}!{{delay frames=\"20\"}} ¡Bueno, pues hasta\notra!",
      "EUfr": "{{anim id=\"23\"}}Quoi ? {{delay frames=\"10\"}}Tu mets les voiles ? {{delay frames=\"20\"}}{{anim id=\"13\"}}Bon, ben\nje vais en profiter pour vider ton\nfrigo alors, {{fun_00070005 arg=\"\"}} !!! Lol !\n{{anim id=\"37\"}}Meuh nan, je blague, {{delay frames=\"8\"}}je vais y aller\naussi ! {{delay frames=\"20\"}}N'empêche, on devrait se\nrefaire ça un jour, {{fun_00080005 arg=\"\"}} !",
      "EUit": "{{anim id=\"23\"}}Mmmh? {{delay frames=\"10\"}}Che fai, esci? {{delay frames=\"20\"}}{{anim id=\"13\"}}Cioè, dico,\nnon vorrai mica lasciarmi qui\nda sola, {{fun_00070005 arg=\"\"}}?\n{{anim id=\"37\"}}Beh, allora me ne vado anch'io. {{delay frames=\"20\"}}\nGrazie dell'invito e a presto,\n{{fun_00080005 arg=\"\"}}!",
      "JPja": "{{anim id=\"23\"}}ん？　{{delay frames=\"20\"}}お{{ruby charSpan=\"1\" value=\"で\"}}出かけするの？{{pageBreak}}{{anim id=\"13\"}}ひとりは　{{ruby charSpan=\"2\" value=\"にがて\"}}苦手だから{{delay frames=\"10\"}}\nお{{ruby charSpan=\"3\" value=\"るすばん\"}}留守番は　できないよ～{{pageBreak}}{{anim id=\"36\"}}アタイも　いっしょに{{ruby charSpan=\"1\" value=\"で\"}}出るわ{{delay frames=\"30\"}}\n{{anim id=\"37\"}}{{ruby charSpan=\"2\" value=\"きょう\"}}今日は　どうもありがとね～！",
      "KRko": "{{anim id=\"23\"}}응? {{delay frames=\"20\"}}어디 가?{{pageBreak}}{{anim id=\"13\"}}나 혼자는 무서워서{{delay frames=\"10\"}}\n집 못 지켜～{{pageBreak}}{{anim id=\"36\"}}나도 같이 나가야겠다{{delay frames=\"30\"}}\n{{anim id=\"37\"}}오늘은 고마웠어～!",
      "USen": "{{anim id=\"23\"}}Hmm? {{delay frames=\"10\"}}Taking off? {{delay frames=\"20\"}}{{anim id=\"13\"}}Well, you can't\njust leave me here alone,\n{{fun_00070005 arg=\"\"}}!\n{{anim id=\"37\"}}So I guess I'll be going. {{delay frames=\"20\"}}Hey, we\nshould do this again sometime,\n{{fun_00080005 arg=\"\"}}!",
      "USes": "{{anim id=\"23\"}}¿Eh? {{delay frames=\"10\"}}¿Te vas? {{delay frames=\"20\"}}{{anim id=\"13\"}}¡Pero {{fun_0006000E arg=\"0x0C0068006F006D006200720065000A006D0075006A0065007200\"}},\nno puedes dejarme aquí sola,\n{{fun_00070005 arg=\"\"}}!\n{{anim id=\"37\"}}¡Menud{{fun_0006000E arg=\"0x02006F0002006100\"}} {{fun_0006000E arg=\"0x120061006E0066006900740072006900F3006E00140061006E00660069007400720069006F006E006100\"}} estás tú hech{{fun_0006000E arg=\"0x02006F0002006100\"}},\n{{fun_00080005 arg=\"\"}}!{{delay frames=\"20\"}} ¡Bueno, pues hasta\notra!",
      "USfr": "{{anim id=\"23\"}}Quoi? {{delay frames=\"10\"}}Tu mets les voiles? {{delay frames=\"20\"}}{{anim id=\"13\"}}Bon, ben\nje vais en profiter pour vider ton\nfrigo alors, {{fun_00070005 arg=\"\"}}!!! Lol!\n{{anim id=\"37\"}}Meuh nan, je blague, {{delay frames=\"8\"}}je vais y aller\naussi! {{delay frames=\"20\"}}N'empêche, on devrait se\nrefaire ça un jour, {{fun_00080005 arg=\"\"}}!"
    }
  },
  {
    "label": "006",
    "locale": {
      "EUde": "{{anim id=\"23\"}}Hey, du haust ab und lässt mich\nalleine in deinem Haus zurück?{{pageBreak}}Du bist wohl eher der vertrauens-\nvolle Typ, was? {{delay frames=\"20\"}}{{anim id=\"1\"}}Ich geh dann besser\nauch mal, {{delay frames=\"10\"}}{{fun_00070005 arg=\"\"}}.\nAber ich hatte echt viel Spaß!\n{{delay frames=\"20\"}}Das wiederholen wir bald mal\nwieder! {{delay frames=\"20\"}}Ehrenwort!",
      "EUen": "{{anim id=\"23\"}}Hey, just going to run off and leave\nme alone in your house? {{delay frames=\"20\"}}Wow, you\nmust be the trusting type, huh?\n{{anim id=\"1\"}}I'll leave too, {{fun_00070005 arg=\"\"}}. {{delay frames=\"10\"}}But I\nhad so much fun, you'd better\nbelieve we're doing this again!",
      "EUes": "{{anim id=\"23\"}}¡No me digas que vas a dejarme\naquí sola!{{delay frames=\"20\"}} ¡Eres demasiado\nconfiad{{fun_0006000E arg=\"0x02006F0002006100\"}}, {{fun_00080005 arg=\"\"}}!\n{{anim id=\"1\"}}Mejor me voy, {{fun_00070005 arg=\"\"}}.{{delay frames=\"10\"}}\n¡Pero prométeme que lo vamos\na repetir! ¡Ha sido una chulada!",
      "EUfr": "{{anim id=\"23\"}}Hé, tu veux me laisser toute seule\nchez toi, t'es sûr{{fun_0006000E arg=\"0x000002006500\"}} ?! J'espère que\nt'es assuré{{fun_0006000E arg=\"0x000002006500\"}} multirisque, LOL !!!\n{{anim id=\"1\"}}Nan bon, je pars avant de casser\nquoi que ce soit, {{fun_00070005 arg=\"\"}}. {{delay frames=\"10\"}}Mais\ncompte sur moi pour repasser !",
      "EUit": "{{anim id=\"23\"}}Ehi, non vorrai mica andartene e\nlasciarmi qui tutta sola? {{delay frames=\"20\"}}Certo che\nsei un{{fun_0006000E arg=\"0x02006F0002006100\"}} che si fida degli altri, tu!\n{{anim id=\"1\"}}OK, vado anch'io, {{fun_00070005 arg=\"\"}}.\nComunque mi sono troppo\ndivertita{{delay frames=\"10\"}}! Casa tua è da urlo!",
      "JPja": "{{fun_00080005 arg=\"\"}}{{fun_000D0005 arg=\"\"}}　{{delay frames=\"10\"}}{{anim id=\"23\"}}どこ{{ruby charSpan=\"1\" value=\"い\"}}行くの？{{pageBreak}}{{anim id=\"1\"}}お{{ruby charSpan=\"1\" value=\"で\"}}出かけするなら{{delay frames=\"15\"}}\nアタイ　{{delay frames=\"10\"}}そろそろ{{ruby charSpan=\"1\" value=\"かえ\"}}帰るね！{{fun_00010007 arg=\"\"}}\n{{ruby charSpan=\"2\" value=\"きょう\"}}今日は　どうもありがとう！{{anim id=\"38\"}}",
      "KRko": "{{fun_00080005 arg=\"\"}}{{fun_000E000E arg=\"0x020044C502007CC5\"}}, {{delay frames=\"10\"}}{{anim id=\"23\"}}어디 가?{{pageBreak}}{{anim id=\"1\"}}나갈 거면{{delay frames=\"15\"}}\n나도 {{delay frames=\"10\"}}슬슬 돌아갈게!{{fun_00010007 arg=\"\"}}\n오늘은 고마웠어!{{anim id=\"38\"}}",
      "USen": "{{anim id=\"23\"}}Hey, just going to run off and leave\nme alone in your house? {{delay frames=\"20\"}}Wow, you\nmust be the trusting type, huh?\n{{anim id=\"1\"}}I'll leave too, {{fun_00070005 arg=\"\"}}. {{delay frames=\"10\"}}But I\nhad so much fun, you'd better\nbelieve we're doing this again!",
      "USes": "{{anim id=\"23\"}}¡No me digas que vas a dejarme\naquí sola!{{delay frames=\"20\"}} ¡Eres demasiado\nconfiad{{fun_0006000E arg=\"0x02006F0002006100\"}}, {{fun_00080005 arg=\"\"}}!\n{{anim id=\"1\"}}Mejor me voy, {{fun_00070005 arg=\"\"}}.{{delay frames=\"10\"}}\n¡Pero prométeme que lo vamos\na repetir! ¡Ha sido una chulada!",
      "USfr": "{{anim id=\"23\"}}Hé, tu veux me laisser toute seule\nchez toi, t'es sûr{{fun_0006000E arg=\"0x000002006500\"}}?! J'espère que\nt'es assuré{{fun_0006000E arg=\"0x000002006500\"}} multirisque, LOL!!!\n{{anim id=\"1\"}}Nan bon, je pars avant de casser\nquoi que ce soit, {{fun_00070005 arg=\"\"}}. {{delay frames=\"10\"}}Mais\ncompte sur moi pour repasser!"
    }
  }
]