﻿[
  {
    "label": "001",
    "locale": {
      "EUde": "Hmmm. {{delay frames=\"20\"}}Ich frag mich, ob ich mit\n{{fun_00100005 arg=\"0x0000\"}} als Köder mehr\nFische fangen würde...",
      "EUen": "I wonder if I'd catch more fish{{delay frames=\"10\"}}\nif I put a bit of {{delay frames=\"5\"}}{{fun_00100005 arg=\"0x0000\"}}\non the end of my line. {{delay frames=\"20\"}}Who knows?",
      "EUes": "Estoy intentando demostrar que\na los peces también les interesa\nla moda.\n{{anim id=\"32\"}}Por eso he puesto como cebo un\ncomplemento superchupi, a ver\nsi pican.",
      "EUfr": "Je me demande si les poissons\naiment {{delay frames=\"5\"}}{{fun_0001000E arg=\"\"}}{{fun_00100005 arg=\"0x0000\"}}{{delay frames=\"8\"}}.{{delay frames=\"8\"}}.{{delay frames=\"8\"}}.{{delay frames=\"20\"}}\nY'a qu'un moyen de le savoir, hi hi !",
      "EUit": "Chissà se riuscirei a prendere\npiù pesci se usassi un po' di\n{{delay frames=\"5\"}}{{fun_00100005 arg=\"0x0000\"}} come esca...",
      "JPja": "エサに　{{delay frames=\"3\"}}チョコレートつけた{{ruby charSpan=\"1\" value=\"ほう\"}}方が{{delay frames=\"10\"}}\nつれるんじゃないかな～？！{{delay frames=\"30\"}}\n{{delay frames=\"8\"}}・{{delay frames=\"8\"}}・{{delay frames=\"8\"}}・{{delay frames=\"20\"}}そんなわけないか！",
      "KRko": "미끼에 {{delay frames=\"3\"}}초콜릿을 묻히면{{delay frames=\"10\"}}\n더 잘 잡힐까～?!{{delay frames=\"30\"}}\n{{delay frames=\"8\"}}・{{delay frames=\"8\"}}・{{delay frames=\"8\"}}・{{delay frames=\"20\"}}에이, 그럴 리가 없지!",
      "USen": "I wonder if I'd catch more fish{{delay frames=\"10\"}}\nif I put a bit of {{delay frames=\"5\"}}{{fun_00100005 arg=\"0x0000\"}}\non the end of my line. {{delay frames=\"20\"}}Who knows?",
      "USes": "Estoy intentando demostrar que\na los peces también les interesa\nla moda.\n{{anim id=\"32\"}}Por eso he puesto como cebo un\ncomplemento superchupi, a ver\nsi pican.",
      "USfr": "Je me demande si les poissons\naiment {{delay frames=\"5\"}}{{fun_0001000E arg=\"\"}}{{fun_00100005 arg=\"0x0000\"}}{{delay frames=\"8\"}}.{{delay frames=\"8\"}}.{{delay frames=\"8\"}}.{{delay frames=\"20\"}}\nY'a qu'un moyen de le savoir, hi hi!"
    }
  },
  {
    "label": "002",
    "locale": {
      "EUde": "Angeln ist echt ganz schön schwer...\n{{delay frames=\"20\"}}Aber ich werde mein Bestes geben!{{pageBreak}}Jetzt ist {{fun_00010005 arg=\"\"}}-Zeit, ihr\nFischlein! {{delay frames=\"20\"}}{{fun_0003000E arg=\"\"}}{{fun_00070005 arg=\"\"}}!",
      "EUen": "Fishing is, {{delay frames=\"10\"}}like, {{delay frames=\"10\"}}really tough! {{delay frames=\"20\"}}But\nI've got to do my best. {{delay frames=\"20\"}}It's the{{delay frames=\"5\"}}\n{{fun_00010005 arg=\"\"}} way, {{delay frames=\"15\"}}{{fun_00070005 arg=\"\"}}!",
      "EUes": "Pescar no es lo mío, ¡pero si todo\nel mundo lo hace, yo no voy a ser\nmenos, {{fun_00070005 arg=\"\"}}!",
      "EUfr": "La pêche n'a aucun secret pour\nmoi ! {{delay frames=\"10\"}}Chuis trop forte, d'abord !{{delay frames=\"20\"}}\nSympa, cette pensée positive, hi hi !",
      "EUit": "Pescare {{delay frames=\"10\"}}a volte {{delay frames=\"10\"}}è una pizza!\nSoprattutto quando non abbocca\nnemmeno un pesce, {{delay frames=\"15\"}}{{fun_00070005 arg=\"\"}}!",
      "JPja": "もう　ひとふんばりってカンジ！{{delay frames=\"30\"}}\nアタイ　がんばっちゃうよ～、{{delay frames=\"15\"}}{{fun_00070005 arg=\"\"}}",
      "KRko": "조금만 더 버티면 될 거 같애!{{delay frames=\"30\"}}\n나, 열심히 할 거야～ {{delay frames=\"15\"}}{{fun_00070005 arg=\"\"}}",
      "USen": "Fishing is, {{delay frames=\"10\"}}like, {{delay frames=\"10\"}}really tough! {{delay frames=\"20\"}}But\nI've got to do my best. {{delay frames=\"20\"}}It's the{{delay frames=\"5\"}}\n{{fun_00010005 arg=\"\"}} way, {{delay frames=\"15\"}}{{fun_00070005 arg=\"\"}}!",
      "USes": "Pescar no es lo mío, ¡pero si todo\nel mundo lo hace, yo no voy a ser\nmenos, {{fun_00070005 arg=\"\"}}!",
      "USfr": "La pêche n'a aucun secret pour\nmoi! {{delay frames=\"10\"}}Chuis trop forte, d'abord!{{delay frames=\"20\"}}\nSympa, cette pensée positive, hi hi!"
    }
  },
  {
    "label": "003",
    "locale": {
      "EUde": "Hmmm... {{delay frames=\"20\"}}Wenn ich angle, denke ich\ngern über voll tiefgründiges Zeug\nnach.\nAlso meistens über Dinge, die ich eh\nnicht verstehe, {{delay frames=\"10\"}}haha!",
      "EUen": "Hmm{{delay frames=\"8\"}}.{{delay frames=\"8\"}}.{{delay frames=\"8\"}}.{{delay frames=\"30\"}} When I'm fishing, {{delay frames=\"10\"}}I think of\nall sorts of deep stuff. {{delay frames=\"15\"}}Like, {{delay frames=\"10\"}}stuff\nthat's out of my depth!",
      "EUes": "Pescar me ayuda a pensar, ¿sabes?\nA ver... ¿qué conjunto me pondré\nmañana?...{{delay frames=\"20\"}} Cosas así.",
      "EUfr": "Han là là, les trucs bizarres qui me\nviennent en tête quand je pêche{{delay frames=\"8\"}}.{{delay frames=\"8\"}}.{{delay frames=\"8\"}}.{{delay frames=\"30\"}}\nDes trucs limite intellectuels, hi hi ! ",
      "EUit": "Mmmh{{delay frames=\"8\"}}.{{delay frames=\"8\"}}.{{delay frames=\"8\"}}.{{delay frames=\"30\"}} Mentre pesco, \nmi vengono in mente un sacco\ndi pensieri profondi, tipo...\n{{delay frames=\"15\"}}... {{delay frames=\"10\"}}Beate le sirene! Loro sì che\nrisparmiano un sacco sulle scarpe! ",
      "JPja": "う～ん{{delay frames=\"8\"}}・{{delay frames=\"8\"}}・{{delay frames=\"8\"}}・{{delay frames=\"30\"}}\nつりって　{{delay frames=\"10\"}}おく{{ruby charSpan=\"1\" value=\"ぶか\"}}深いかもしんな～い",
      "KRko": "우～웅{{delay frames=\"8\"}}・{{delay frames=\"8\"}}・{{delay frames=\"8\"}}・{{delay frames=\"30\"}}\n낚시는 {{delay frames=\"10\"}}굉장히 심오한 거구나～",
      "USen": "Hmm{{delay frames=\"8\"}}.{{delay frames=\"8\"}}.{{delay frames=\"8\"}}.{{delay frames=\"30\"}} When I'm fishing, {{delay frames=\"10\"}}I think of\nall sorts of deep stuff. {{delay frames=\"15\"}}Like, {{delay frames=\"10\"}}stuff\nthat's out of my depth!",
      "USes": "Pescar me ayuda a pensar, ¿sabes?\nA ver... ¿qué conjunto me pondré\nmañana?...{{delay frames=\"20\"}} Cosas así.",
      "USfr": "Han là là, les trucs bizarres qui me\nviennent en tête quand je pêche{{delay frames=\"8\"}}.{{delay frames=\"8\"}}.{{delay frames=\"8\"}}.{{delay frames=\"30\"}}\nDes trucs limite intellectuels, hi hi! "
    }
  }
]