﻿[
  {
    "label": "001",
    "locale": {
      "EUde": "",
      "EUen": "",
      "EUes": "",
      "EUfr": "",
      "EUit": "",
      "JPja": "",
      "KRko": "",
      "USen": "",
      "USes": "",
      "USfr": ""
    }
  },
  {
    "label": "002",
    "locale": {
      "EUde": "{{fun_00020009 arg=\"0x0500060007000800\"}}",
      "EUen": "{{fun_00020009 arg=\"0x0500060007000800\"}}",
      "EUes": "{{fun_00020009 arg=\"0x0500060007000800\"}}",
      "EUfr": "{{fun_00020009 arg=\"0x0500060007000800\"}}",
      "EUit": "{{fun_00020009 arg=\"0x0500060007000800\"}}",
      "JPja": "{{fun_00020009 arg=\"0x0500060007000800\"}}",
      "KRko": "{{fun_00020009 arg=\"0x0500060007000800\"}}",
      "USen": "{{fun_00020009 arg=\"0x0500060007000800\"}}",
      "USes": "{{fun_00020009 arg=\"0x0500060007000800\"}}",
      "USfr": "{{fun_00020009 arg=\"0x0500060007000800\"}}"
    }
  },
  {
    "label": "003",
    "locale": {
      "EUde": "{{fun_00000009 arg=\"0x09000A00\"}}",
      "EUen": "{{fun_00000009 arg=\"0x09000A00\"}}",
      "EUes": "{{fun_00000009 arg=\"0x09000A00\"}}",
      "EUfr": "{{fun_00000009 arg=\"0x09000A00\"}}",
      "EUit": "{{fun_00000009 arg=\"0x09000A00\"}}",
      "JPja": "{{fun_00000009 arg=\"0x09000A00\"}}",
      "KRko": "{{fun_00000009 arg=\"0x09000A00\"}}",
      "USen": "{{fun_00000009 arg=\"0x09000A00\"}}",
      "USes": "{{fun_00000009 arg=\"0x09000A00\"}}",
      "USfr": "{{fun_00000009 arg=\"0x09000A00\"}}"
    }
  },
  {
    "label": "004",
    "locale": {
      "EUde": "",
      "EUen": "",
      "EUes": "",
      "EUfr": "",
      "EUit": "",
      "JPja": "",
      "KRko": "",
      "USen": "",
      "USes": "",
      "USfr": ""
    }
  },
  {
    "label": "005",
    "locale": {
      "EUde": "{{anim id=\"1\"}}Ich will ein Shoppingprofi werden,\nalso bin ich hergekommen, um zu\ngucken, ob es heute was Neues gibt!",
      "EUen": "{{anim id=\"1\"}}I want to become a shopping pro,\nso I came to see if there's\nanything new for sale today!",
      "EUes": "{{anim id=\"1\"}}Tengo que pasar al menos una vez\nal día para ver las novedades.{{delay frames=\"20\"}}\n¡No puedo perderme ni una oferta!",
      "EUfr": "{{anim id=\"1\"}}Je fais une formation accélérée en\nshopping ! Je viens tous les jours,\nj'achète...{{delay frames=\"20\"}} J'apprends vite, hi hi hi !",
      "EUit": "{{anim id=\"1\"}}Voglio diventare un'esperta\ndi shopping! Ecco perché vado\nin giro per negozi tutti i giorni!",
      "JPja": "{{anim id=\"1\"}}{{ruby charSpan=\"1\" value=\"か\"}}買い{{ruby charSpan=\"1\" value=\"もの\"}}物の{{ruby charSpan=\"2\" value=\"たつじん\"}}達人になりたいから{{delay frames=\"10\"}}\n{{ruby charSpan=\"1\" value=\"あたら\"}}新しいものが　{{ruby charSpan=\"2\" value=\"にゅうか\"}}入荷してないか{{delay frames=\"10\"}}\n{{ruby charSpan=\"1\" value=\"み\"}}見に{{ruby charSpan=\"1\" value=\"き\"}}来たんだ～{{anim id=\"38\"}}",
      "KRko": "{{anim id=\"1\"}}쇼핑의 달인이 되기 위해{{delay frames=\"10\"}}\n매일매일 여기로 와서{{delay frames=\"10\"}}\n새 상품을 구경하곤 해～{{anim id=\"38\"}}",
      "USen": "{{anim id=\"1\"}}I want to become a shopping pro,\nso I came to see if there's\nanything new for sale today!",
      "USes": "{{anim id=\"1\"}}Tengo que pasar al menos una vez\nal día para ver las novedades.{{delay frames=\"20\"}}\n¡No puedo perderme ni una oferta!",
      "USfr": "{{anim id=\"1\"}}Je fais une formation accélérée en\nshopping! Je viens tous les jours,\nj'achète...{{delay frames=\"20\"}} J'apprends vite, hi hi hi!"
    }
  },
  {
    "label": "006",
    "locale": {
      "EUde": "{{anim id=\"1\"}}Hier gibt's echt sooo viel Auswahl\nund die Verkäufer sind auch total\nnett!",
      "EUen": "{{anim id=\"1\"}}There's such a nice choice here,\nand the staff is so great too!",
      "EUes": "{{anim id=\"1\"}}¡Aquí venden un montón de cosas\nnuevas cada día! ¡Y los dueños son\nuna cucada!",
      "EUfr": "{{anim id=\"1\"}}Il y a un de ces choix ici, c'est limite\ntrop ! Heureusement, le personnel\nest toujours de bon conseil...",
      "EUit": "{{anim id=\"1\"}}Hanno un sacco di cose troppo\nmitiche qui! E poi il personale\nè davvero spaziale!",
      "JPja": "{{anim id=\"1\"}}ここって{{delay frames=\"10\"}}\n{{ruby charSpan=\"1\" value=\"しな\"}}品ぞろえがいいから{{delay frames=\"10\"}}　{{ruby charSpan=\"2\" value=\"べんり\"}}便利なんだよ～{{fun_00010007 arg=\"\"}}\n{{anim id=\"21\"}}{{ruby charSpan=\"2\" value=\"てんいん\"}}店員さんも　{{ruby charSpan=\"2\" value=\"あいそ\"}}愛想がいいしね！{{anim id=\"37\"}}",
      "KRko": "{{anim id=\"1\"}}여긴{{delay frames=\"10\"}}\n물건이 많아서 {{delay frames=\"10\"}}정말 편리해～{{fun_00010007 arg=\"\"}}\n{{anim id=\"21\"}}점원도 싹싹하구!{{anim id=\"37\"}}",
      "USen": "{{anim id=\"1\"}}There's such a nice choice here,\nand the staff is so great too!",
      "USes": "{{anim id=\"1\"}}¡Aquí venden un montón de cosas\nnuevas cada día! ¡Y los dueños son\nuna cucada!",
      "USfr": "{{anim id=\"1\"}}Il y a un de ces choix ici, c'est limite\ntrop! Heureusement, le personnel\nest toujours de bon conseil..."
    }
  },
  {
    "label": "007",
    "locale": {
      "EUde": "{{anim id=\"1\"}}Hast du schon was Cooles\ngefunden? {{delay frames=\"20\"}}Shoppen macht\neinfach so viel Spaß!",
      "EUen": "{{anim id=\"1\"}}Find anything cool yet?{{delay frames=\"10\"}} Shopping\nis so fun, {{fun_00070005 arg=\"\"}}!",
      "EUes": "{{anim id=\"1\"}}¿Has visto algo que te guste?{{delay frames=\"10\"}}\n¡Yo sí!{{delay frames=\"20\"}} ¡Me lo llevaría todo\nsi pudiera!",
      "EUfr": "{{anim id=\"1\"}}T'as trouvé des trucs, toi ? Moi\nplein plein plein !{{delay frames=\"10\"}} Rhô là là, j'adore\nparler shopping avec les {{fun_0006000E arg=\"0x0E0063006F007000610069006E0073000E0063006F00700069006E0065007300\"}} !!!",
      "EUit": "{{anim id=\"1\"}}Hai già trovato qualcosa di trendy?{{delay frames=\"10\"}}\nÈ troppo da urlo fare shopping,\n{{fun_00070005 arg=\"\"}}!",
      "JPja": "{{anim id=\"1\"}}{{ruby charSpan=\"1\" value=\"なん\"}}何か　{{delay frames=\"10\"}}オシャレグッズ\n{{ruby charSpan=\"1\" value=\"み\"}}見つかった～？{{fun_00010007 arg=\"\"}}\n{{anim id=\"5\"}}{{ruby charSpan=\"1\" value=\"か\"}}買い{{ruby charSpan=\"1\" value=\"もの\"}}物って　{{delay frames=\"8\"}}ちょー{{ruby charSpan=\"1\" value=\"たの\"}}楽しいよね、{{delay frames=\"15\"}}{{fun_00070005 arg=\"\"}}",
      "KRko": "{{anim id=\"1\"}}혹시 {{delay frames=\"10\"}}괜찮은 거 찾았어～?{{fun_00010007 arg=\"\"}}\n{{anim id=\"5\"}}쇼핑은 {{delay frames=\"8\"}}왜 이렇게 즐거운지 몰라～ \n{{delay frames=\"15\"}}{{fun_00070005 arg=\"\"}}",
      "USen": "{{anim id=\"1\"}}Find anything cool yet?{{delay frames=\"10\"}} Shopping\nis so fun, {{fun_00070005 arg=\"\"}}!",
      "USes": "{{anim id=\"1\"}}¿Has visto algo que te guste?{{delay frames=\"10\"}}\n¡Yo sí!{{delay frames=\"20\"}} ¡Me lo llevaría todo\nsi pudiera!",
      "USfr": "{{anim id=\"1\"}}T'as trouvé des trucs, toi? Moi\nplein plein plein!{{delay frames=\"10\"}} Rhô là là, j'adore\nparler shopping avec les {{fun_0006000E arg=\"0x0E0063006F007000610069006E0073000E0063006F00700069006E0065007300\"}}!!!"
    }
  },
  {
    "label": "008",
    "locale": {
      "EUde": "{{anim id=\"13\"}}Ich wünschte, es gäbe mich\nzweimal, dann könnte ich doppelt\nso schnell einkaufen!",
      "EUen": "{{anim id=\"13\"}}I wish there were two of me so\nI could shop twice as fast!",
      "EUes": "{{anim id=\"13\"}}¿No crees que sería ideal tener\nun clon?{{delay frames=\"20\"}} ¡Compraría el doble\nde rápido, je, je!",
      "EUfr": "{{anim id=\"13\"}}J'aimerais avoir un clone, comme ça\nj'achèterais deux fois plus de\nchoses, {{delay frames=\"10\"}}{{fun_00070005 arg=\"\"}} !{{pageBreak}}{{anim id=\"11\"}}Mais un clone qui me pique pas mes\nfringues alors{{delay frames=\"10\"}}.{{delay frames=\"10\"}}.{{delay frames=\"10\"}}.{{anim id=\"6\"}} ni mes gâteaux !",
      "EUit": "{{anim id=\"13\"}}Se solo potessi sdoppiarmi...\n... Riuscirei a fare shopping\ndue volte più velocemente!",
      "JPja": "{{anim id=\"13\"}}アタイ、{{delay frames=\"10\"}}\n{{ruby charSpan=\"1\" value=\"はや\"}}早く　{{ruby charSpan=\"1\" value=\"か\"}}買い{{ruby charSpan=\"1\" value=\"もの\"}}物の{{ruby charSpan=\"2\" value=\"たつじん\"}}達人に{{delay frames=\"5\"}}　なりたいよ～",
      "KRko": "{{anim id=\"13\"}}나도 빨리{{delay frames=\"10\"}}\n쇼핑의 달인이 {{delay frames=\"5\"}}되고 싶어～",
      "USen": "{{anim id=\"13\"}}I wish there were two of me so\nI could shop twice as fast!",
      "USes": "{{anim id=\"13\"}}¿No crees que sería ideal tener\nun clon?{{delay frames=\"20\"}} ¡Compraría el doble\nde rápido, je, je!",
      "USfr": "{{anim id=\"13\"}}J'aimerais avoir un clone, comme ça\nj'achèterais deux fois plus de\nchoses, {{delay frames=\"10\"}}{{fun_00070005 arg=\"\"}}!{{pageBreak}}{{anim id=\"11\"}}Mais un clone qui me pique pas mes\nfringues alors{{delay frames=\"10\"}}.{{delay frames=\"10\"}}.{{delay frames=\"10\"}}.{{anim id=\"6\"}} ni mes gâteaux!"
    }
  },
  {
    "label": "009",
    "locale": {
      "EUde": "{{anim id=\"1\"}}Die Auswahl in {{fun_00050005 arg=\"\"}} ist gar\nnicht mal so übel, oder?",
      "EUen": "{{anim id=\"1\"}}The selection in {{fun_00050005 arg=\"\"}} is, {{delay frames=\"5\"}}like, {{delay frames=\"5\"}}\npretty good, right?",
      "EUes": "{{anim id=\"1\"}}¡Aquí en {{fun_0003000E arg=\"\"}}{{fun_00050005 arg=\"\"}} tenemos\nuna selección de productos\nideales de la muerte!",
      "EUfr": "{{anim id=\"1\"}}Ce magasin, c'est une vraie tuerie !\nJe comprends que tu sois venu{{fun_0006000E arg=\"0x000002006500\"}} à\n{{fun_00050005 arg=\"\"}} pour ça, grave !",
      "EUit": "{{anim id=\"1\"}}Gli articoli di {{fun_00050005 arg=\"\"}} sono{{delay frames=\"5\"}}{{delay frames=\"5\"}}\ndavvero spettacolari, vero?",
      "JPja": "{{anim id=\"1\"}}{{fun_00050005 arg=\"\"}}{{ruby charSpan=\"1\" value=\"むら\"}}村の　{{delay frames=\"3\"}}{{ruby charSpan=\"1\" value=\"しな\"}}品ぞろえも{{delay frames=\"10\"}}\nなかなか　いいカンジでしょ？！",
      "KRko": "{{anim id=\"1\"}}{{fun_00050005 arg=\"\"}} 마을도{{delay frames=\"10\"}}\n제법 상품이 잘 갖춰져 있지?!",
      "USen": "{{anim id=\"1\"}}The selection in {{fun_00050005 arg=\"\"}} is, {{delay frames=\"5\"}}like, {{delay frames=\"5\"}}\npretty good, right?",
      "USes": "{{anim id=\"1\"}}¡Aquí en {{fun_0003000E arg=\"\"}}{{fun_00050005 arg=\"\"}} tenemos\nuna selección de productos\nideales chipilerendi!",
      "USfr": "{{anim id=\"1\"}}Ce magasin, c'est vraiment le top!\nJe comprends que tu sois venu{{fun_0006000E arg=\"0x000002006500\"}} à\n{{fun_00050005 arg=\"\"}} pour ça, grave!"
    }
  },
  {
    "label": "010",
    "locale": {
      "EUde": "{{anim id=\"13\"}}Kaufen? {{delay frames=\"20\"}}Oder nicht kaufen?\n{{delay frames=\"20\"}}Vielleicht sollte ich einfach\n'nen Sterni werfen!",
      "EUen": "{{anim id=\"13\"}}Buy it? {{delay frames=\"10\"}}Don't buy it? {{delay frames=\"10\"}}Maybe I\nshould just flip a Bell!",
      "EUes": "{{anim id=\"13\"}}¿Lo compro o no lo compro? {{delay frames=\"10\"}}\nDebería tirar una baya al aire\npara decidirme.",
      "EUfr": "{{anim id=\"13\"}}Han là là, je sais pas si je dois\nacheter !{{delay frames=\"10\"}} Bon, je crois que ça va\nencore se finir à pile ou face !",
      "EUit": "{{anim id=\"13\"}}Lo compro? {{delay frames=\"10\"}}Non lo compro? {{delay frames=\"10\"}}\nForse dovrei fare testa o croce\ncon una stellina!",
      "JPja": "{{ruby charSpan=\"1\" value=\"か\"}}買うか　{{delay frames=\"5\"}}やめるか　{{delay frames=\"8\"}}{{ruby charSpan=\"1\" value=\"まよ\"}}迷った{{ruby charSpan=\"1\" value=\"とき\"}}時は、{{delay frames=\"15\"}}\n{{anim id=\"38\"}}{{ruby charSpan=\"1\" value=\"か\"}}買っちゃった{{ruby charSpan=\"1\" value=\"ほう\"}}方がいいよ！{{pageBreak}}{{anim id=\"0\"}}そうしないと、{{delay frames=\"10\"}}\n{{anim id=\"9\"}}だいたい　あとで　{{delay frames=\"10\"}}こうかいするんだよね～",
      "KRko": "사야 할지 {{delay frames=\"5\"}}말아야 할지 {{delay frames=\"8\"}}\n고민이 될 때는{{delay frames=\"15\"}} {{anim id=\"38\"}}그냥 사 버려!{{pageBreak}}{{anim id=\"0\"}}안 그러면{{delay frames=\"10\"}}\n{{anim id=\"9\"}}나중에 {{delay frames=\"10\"}}꼭 후회하게 되더라구～",
      "USen": "{{anim id=\"13\"}}Buy it? {{delay frames=\"10\"}}Don't buy it? {{delay frames=\"10\"}}Maybe I\nshould just flip a Bell!",
      "USes": "{{anim id=\"13\"}}¿Lo compro o no lo compro? {{delay frames=\"10\"}}\nDebería tirar una baya al aire\npara decidirme.",
      "USfr": "{{anim id=\"13\"}}Han là là, Je sais pas si je dois\nacheter!{{delay frames=\"10\"}} Bon, je crois que ça va\nencore se finir à pile ou face!"
    }
  }
]