﻿[
  {
    "label": "001",
    "locale": {
      "EUde": "Hey,{{delay frames=\"8\"}} {{fun_00080005 arg=\"\"}}!{{delay frames=\"40\"}}\n{{anim id=\"9\"}}Bei dieser Dunkelheit spielt mein\nGehirn verrückt, {{delay frames=\"8\"}}{{fun_00070005 arg=\"\"}}.",
      "EUen": "Yo!{{delay frames=\"8\"}} {{fun_0003000E arg=\"\"}}{{fun_00080005 arg=\"\"}}!{{delay frames=\"40\"}}\n{{anim id=\"9\"}}This morning darkness messes with\nthe mind,{{delay frames=\"8\"}} ya know? {{delay frames=\"8\"}}{{fun_0003000E arg=\"\"}}{{fun_00070005 arg=\"\"}}?",
      "EUes": "¡Hola,{{delay frames=\"8\"}} {{fun_00080005 arg=\"\"}}!{{delay frames=\"40\"}} {{anim id=\"9\"}}Que esté oscuro\npor la mañana me deja flipando.{{delay frames=\"8\"}}\n¿A ti no, {{delay frames=\"8\"}}{{fun_00070005 arg=\"\"}}?",
      "EUfr": "Yo !{{delay frames=\"8\"}} {{fun_0003000E arg=\"\"}}{{fun_00080005 arg=\"\"}} !{{delay frames=\"40\"}}\n{{anim id=\"9\"}}La nuit en plein matin, c'est un truc\nà perdre la boule,{{delay frames=\"8\"}} {{fun_00070005 arg=\"\"}} !",
      "EUit": "Ciao!{{delay frames=\"8\"}} {{fun_0003000E arg=\"\"}}{{fun_00080005 arg=\"\"}}!{{delay frames=\"40\"}}\n{{anim id=\"9\"}}Questo buio di prima mattina\nmi fa rimbambire{{delay frames=\"8\"}}! {{delay frames=\"8\"}}{{fun_0003000E arg=\"\"}}{{fun_00070005 arg=\"\"}}!",
      "JPja": "よぉ！{{delay frames=\"8\"}}　{{fun_00080005 arg=\"\"}}！{{delay frames=\"40\"}}\n{{anim id=\"9\"}}{{ruby charSpan=\"1\" value=\"あさ\"}}朝なのに{{ruby charSpan=\"1\" value=\"くら\"}}暗いって{{delay frames=\"8\"}}\n{{ruby charSpan=\"2\" value=\"ちょうし\"}}調子　くるっちゃうなー、{{delay frames=\"8\"}}{{fun_00070005 arg=\"\"}}",
      "KRko": "여어!{{delay frames=\"8\"}} {{fun_00080005 arg=\"\"}}!{{delay frames=\"40\"}}\n{{anim id=\"9\"}}아침부터 깜깜하니까{{delay frames=\"8\"}}\n영 기분이 안 난다, {{delay frames=\"8\"}}{{fun_00070005 arg=\"\"}}",
      "USen": "Yo!{{delay frames=\"8\"}} {{fun_0003000E arg=\"\"}}{{fun_00080005 arg=\"\"}}!{{delay frames=\"40\"}}\n{{anim id=\"9\"}}This morning darkness messes with\nthe mind,{{delay frames=\"8\"}} ya know? {{delay frames=\"8\"}}{{fun_0003000E arg=\"\"}}{{fun_00070005 arg=\"\"}}?",
      "USes": "¡Hola,{{delay frames=\"8\"}} {{fun_00080005 arg=\"\"}}!{{delay frames=\"40\"}} {{anim id=\"9\"}}Que esté oscuro\npor la mañana me deja flipando.{{delay frames=\"8\"}}\n¿A ti no, {{delay frames=\"8\"}}{{fun_00070005 arg=\"\"}}?",
      "USfr": "Yo!{{delay frames=\"8\"}} {{fun_0003000E arg=\"\"}}{{fun_00080005 arg=\"\"}}!{{delay frames=\"40\"}}\n{{anim id=\"9\"}}La nuit en plein matin, c'est un truc\nà perdre la boule,{{delay frames=\"8\"}} {{fun_00070005 arg=\"\"}}!"
    }
  },
  {
    "label": "002",
    "locale": {
      "EUde": "{{anim id=\"32\"}}Guten Morgen, {{fun_00080005 arg=\"\"}}!{{delay frames=\"40\"}} Eine\n{{anim id=\"38\"}}fröhliche Begrüßung ist ein guter\nStart in den Tag, {{delay frames=\"8\"}}{{fun_00070005 arg=\"\"}}.",
      "EUen": "{{anim id=\"32\"}}Morning, {{fun_00080005 arg=\"\"}}!{{delay frames=\"40\"}}\nI find a{{anim id=\"38\"}} cheerful greeting is a great\nway to wake up, {{delay frames=\"8\"}}{{fun_00070005 arg=\"\"}}.",
      "EUes": "{{anim id=\"32\"}}¡Buenos días, {{fun_00080005 arg=\"\"}}!{{delay frames=\"40\"}} Yo creo\nque {{anim id=\"38\"}}saludar con ganas es la mejor\nforma de levantarse, {{delay frames=\"8\"}}{{fun_00070005 arg=\"\"}}.",
      "EUfr": "{{anim id=\"32\"}}Hello, {{fun_00080005 arg=\"\"}} !{{delay frames=\"40\"}}\n{{anim id=\"38\"}}Saluer les gens énergiquement aide\nà se réveiller,{{delay frames=\"8\"}} {{fun_00070005 arg=\"\"}} !",
      "EUit": "{{anim id=\"32\"}}Buongiorno, {{fun_00080005 arg=\"\"}}!{{delay frames=\"40\"}}\n{{anim id=\"38\"}}La giornata comincia sempre\nbene con un sorriso, {{delay frames=\"8\"}}{{fun_00070005 arg=\"\"}}!",
      "JPja": "{{anim id=\"32\"}}おはよー{{delay frames=\"8\"}}　{{fun_00080005 arg=\"\"}}！{{delay frames=\"40\"}}\n{{ruby charSpan=\"2\" value=\"げんき\"}}元気に　あいさつすると\n{{anim id=\"38\"}}{{ruby charSpan=\"1\" value=\"め\"}}目が{{ruby charSpan=\"1\" value=\"さ\"}}覚めるぞ、{{delay frames=\"8\"}}{{fun_00070005 arg=\"\"}}！",
      "KRko": "{{anim id=\"32\"}}좋은 아침이야ー{{delay frames=\"8\"}} {{fun_00080005 arg=\"\"}}!{{delay frames=\"40\"}}\n밝게 인사하면\n{{anim id=\"38\"}}잠이 달아날 거야, {{delay frames=\"8\"}}{{fun_00070005 arg=\"\"}}!",
      "USen": "{{anim id=\"32\"}}Morning, {{fun_00080005 arg=\"\"}}!{{delay frames=\"40\"}}\nI find a{{anim id=\"38\"}} cheerful greeting is a great\nway to wake up, {{delay frames=\"8\"}}{{fun_00070005 arg=\"\"}}.",
      "USes": "{{anim id=\"32\"}}¡Buenos días, {{fun_00080005 arg=\"\"}}!{{delay frames=\"40\"}} Yo creo\nque {{anim id=\"38\"}}saludar con ganas es la mejor\nforma de levantarse, {{delay frames=\"8\"}}{{fun_00070005 arg=\"\"}}.",
      "USfr": "{{anim id=\"32\"}}Hello, {{fun_00080005 arg=\"\"}}!{{delay frames=\"40\"}}\n{{anim id=\"38\"}}Saluer les gens énergiquement aide\nà se réveiller,{{delay frames=\"8\"}} {{fun_00070005 arg=\"\"}}!"
    }
  },
  {
    "label": "003",
    "locale": {
      "EUde": "{{anim id=\"32\"}}{{fun_0003000E arg=\"\"}}{{fun_00060007 arg=\"\"}}Hey ho, {{fun_00080005 arg=\"\"}}{{fun_00070007 arg=\"\"}}!{{delay frames=\"40\"}}\n{{anim id=\"1\"}}Da bist du ja wieder, {{delay frames=\"8\"}}{{fun_00070005 arg=\"\"}}!",
      "EUen": "{{anim id=\"32\"}}{{fun_0003000E arg=\"\"}}{{fun_00060007 arg=\"\"}}Yo, {{fun_00080005 arg=\"\"}}{{fun_00070007 arg=\"\"}}!{{delay frames=\"40\"}}\n{{anim id=\"1\"}}We meet again, {{delay frames=\"8\"}}{{fun_00070005 arg=\"\"}}!",
      "EUes": "{{anim id=\"32\"}}¡{{fun_0003000E arg=\"\"}}{{fun_00060007 arg=\"\"}}Muy buenas, {{fun_00080005 arg=\"\"}}{{fun_00070007 arg=\"\"}}!{{delay frames=\"40\"}}\n{{anim id=\"1\"}}¡Volvemos a vernos, {{delay frames=\"8\"}}{{fun_00070005 arg=\"\"}}!",
      "EUfr": "{{anim id=\"32\"}}{{fun_0003000E arg=\"\"}}{{fun_00060007 arg=\"\"}}Yo, {{fun_00080005 arg=\"\"}}{{fun_00070007 arg=\"\"}} !{{delay frames=\"40\"}}\n{{anim id=\"1\"}}Ça va toujours comme tu veux,{{delay frames=\"8\"}}\n{{fun_00070005 arg=\"\"}} ?",
      "EUit": "{{anim id=\"32\"}}{{fun_0003000E arg=\"\"}}{{fun_00060007 arg=\"\"}}Ciao, {{fun_00080005 arg=\"\"}}{{fun_00070007 arg=\"\"}}!{{delay frames=\"40\"}}\n{{anim id=\"1\"}}Non ci siamo già visti prima,\n{{delay frames=\"8\"}}{{fun_00070005 arg=\"\"}}?",
      "JPja": "{{anim id=\"32\"}}{{fun_00060007 arg=\"\"}}よぉ！{{delay frames=\"8\"}}　{{fun_00080005 arg=\"\"}}！{{fun_00070007 arg=\"\"}}{{delay frames=\"40\"}}\n{{anim id=\"1\"}}また　{{ruby charSpan=\"1\" value=\"あ\"}}会ったな、{{delay frames=\"8\"}}{{fun_00070005 arg=\"\"}}！",
      "KRko": "{{anim id=\"32\"}}{{fun_00060007 arg=\"\"}}여어!{{delay frames=\"8\"}} {{fun_00080005 arg=\"\"}}{{fun_000E000E arg=\"0x020044C502007CC5\"}}!{{fun_00070007 arg=\"\"}}{{delay frames=\"40\"}}\n{{anim id=\"1\"}}또 만났네, {{delay frames=\"8\"}}{{fun_00070005 arg=\"\"}}!",
      "USen": "{{anim id=\"32\"}}{{fun_0003000E arg=\"\"}}{{fun_00060007 arg=\"\"}}Yo, {{fun_00080005 arg=\"\"}}{{fun_00070007 arg=\"\"}}!{{delay frames=\"40\"}}\n{{anim id=\"1\"}}We meet again, {{delay frames=\"8\"}}{{fun_00070005 arg=\"\"}}!",
      "USes": "{{anim id=\"32\"}}¡{{fun_0003000E arg=\"\"}}{{fun_00060007 arg=\"\"}}Muy buenas, {{fun_00080005 arg=\"\"}}{{fun_00070007 arg=\"\"}}!{{delay frames=\"40\"}}\n{{anim id=\"1\"}}¡Volvemos a vernos, {{delay frames=\"8\"}}{{fun_00070005 arg=\"\"}}!",
      "USfr": "{{anim id=\"32\"}}{{fun_0003000E arg=\"\"}}{{fun_00060007 arg=\"\"}}Yo, {{fun_00080005 arg=\"\"}}{{fun_00070007 arg=\"\"}}!{{delay frames=\"40\"}}\n{{anim id=\"1\"}}Ça va toujours comme tu veux,{{delay frames=\"8\"}}\n{{fun_00070005 arg=\"\"}}?"
    }
  },
  {
    "label": "004",
    "locale": {
      "EUde": "{{anim id=\"32\"}}{{fun_0003000E arg=\"\"}}{{fun_00060007 arg=\"\"}}Hey ho!{{delay frames=\"8\"}} {{fun_0003000E arg=\"\"}}{{fun_00080005 arg=\"\"}}{{fun_00070007 arg=\"\"}}!{{delay frames=\"20\"}}\nEs ist noch früh, {{delay frames=\"8\"}}{{fun_00070005 arg=\"\"}}!{{pageBreak}}{{anim id=\"6\"}}Dass du mir also nicht auf die Idee\nkommst, schon ins Bett zu gehen,\nnur weil es dunkel ist!{{delay frames=\"20\"}}",
      "EUen": "{{anim id=\"32\"}}{{fun_0003000E arg=\"\"}}{{fun_00060007 arg=\"\"}}Heya!{{delay frames=\"8\"}} {{fun_0003000E arg=\"\"}}{{fun_00080005 arg=\"\"}}{{fun_00070007 arg=\"\"}}!{{delay frames=\"40\"}}\n{{anim id=\"6\"}}Don't go to sleep just 'cause it's\ndark!{{delay frames=\"20\"}} It's still early, {{delay frames=\"8\"}}{{fun_00070005 arg=\"\"}}!",
      "EUes": "{{anim id=\"32\"}}¡{{fun_0003000E arg=\"\"}}{{fun_00060007 arg=\"\"}}Hola,{{delay frames=\"8\"}} {{fun_00080005 arg=\"\"}}{{fun_00070007 arg=\"\"}}!{{delay frames=\"40\"}}\n{{anim id=\"6\"}}Está oscuro, ¡pero aún es pronto\npara irse a la cama, {{delay frames=\"8\"}}{{fun_00070005 arg=\"\"}}!",
      "EUfr": "{{anim id=\"32\"}}{{fun_0003000E arg=\"\"}}{{fun_00060007 arg=\"\"}}Yep !{{delay frames=\"8\"}} {{fun_0003000E arg=\"\"}}{{fun_00080005 arg=\"\"}}{{fun_00070007 arg=\"\"}} !{{delay frames=\"40\"}}\n{{anim id=\"6\"}}Il a beau faire nuit, c'est pas l'heure\nd'aller au lit,{{delay frames=\"8\"}} {{fun_00070005 arg=\"\"}} !",
      "EUit": "{{anim id=\"32\"}}{{fun_0003000E arg=\"\"}}{{fun_00060007 arg=\"\"}}Ehilà!{{delay frames=\"8\"}} {{fun_0003000E arg=\"\"}}{{fun_00080005 arg=\"\"}}{{fun_00070007 arg=\"\"}}!{{delay frames=\"40\"}}\n{{anim id=\"6\"}}{{delay frames=\"20\"}}È buio, ma non è ora di dormire.\nÈ ancora presto! {{delay frames=\"8\"}}{{fun_0003000E arg=\"\"}}{{fun_00070005 arg=\"\"}}!",
      "JPja": "{{anim id=\"32\"}}{{fun_00060007 arg=\"\"}}オーッス！{{delay frames=\"8\"}}　{{fun_00080005 arg=\"\"}}！{{fun_00070007 arg=\"\"}}{{delay frames=\"40\"}}\n{{anim id=\"6\"}}{{ruby charSpan=\"1\" value=\"くら\"}}暗いからって　まだねるなよ？{{delay frames=\"20\"}}\nまだまだ　お{{ruby charSpan=\"1\" value=\"ひる\"}}昼なんだからな、{{delay frames=\"8\"}}{{fun_00070005 arg=\"\"}}！",
      "KRko": "{{anim id=\"32\"}}{{fun_00060007 arg=\"\"}}안녕!{{delay frames=\"8\"}} {{fun_00080005 arg=\"\"}}{{fun_00070007 arg=\"\"}}!{{delay frames=\"40\"}}\n{{anim id=\"6\"}}깜깜하다고 벌써 자면 못써!{{delay frames=\"20\"}}\n아직 낮이라구, {{delay frames=\"8\"}}{{fun_00070005 arg=\"\"}}!",
      "USen": "{{anim id=\"32\"}}{{fun_0003000E arg=\"\"}}{{fun_00060007 arg=\"\"}}Heya!{{delay frames=\"8\"}} {{fun_0003000E arg=\"\"}}{{fun_00080005 arg=\"\"}}{{fun_00070007 arg=\"\"}}!{{delay frames=\"40\"}}\n{{anim id=\"6\"}}Don't go to sleep just 'cause it's\ndark!{{delay frames=\"20\"}} It's still early, {{delay frames=\"8\"}}{{fun_00070005 arg=\"\"}}!",
      "USes": "{{anim id=\"32\"}}¡{{fun_0003000E arg=\"\"}}{{fun_00060007 arg=\"\"}}Hola,{{delay frames=\"8\"}} {{fun_00080005 arg=\"\"}}{{fun_00070007 arg=\"\"}}!{{delay frames=\"40\"}} {{anim id=\"6\"}}Está oscuro,\n¡pero no te vayas a la cama!{{delay frames=\"20\"}}\n¡Aún es pronto, {{delay frames=\"8\"}}{{fun_00070005 arg=\"\"}}!",
      "USfr": "{{anim id=\"32\"}}{{fun_0003000E arg=\"\"}}{{fun_00060007 arg=\"\"}}Yep!{{delay frames=\"8\"}} {{fun_0003000E arg=\"\"}}{{fun_00080005 arg=\"\"}}{{fun_00070007 arg=\"\"}}!{{delay frames=\"40\"}}\n{{anim id=\"6\"}}Il a beau faire nuit, c'est pas l'heure\nd'aller au lit,{{delay frames=\"8\"}} {{fun_00070005 arg=\"\"}}!"
    }
  },
  {
    "label": "005",
    "locale": {
      "EUde": "{{anim id=\"32\"}}Hi!{{delay frames=\"20\"}} So trifft man sich wieder,\n{{delay frames=\"8\"}}{{fun_00070005 arg=\"\"}}!",
      "EUen": "{{anim id=\"32\"}}Heya!{{delay frames=\"20\"}} We meet again, {{delay frames=\"8\"}}{{fun_00070005 arg=\"\"}}!",
      "EUes": "{{anim id=\"32\"}}¡Hola!{{delay frames=\"20\"}} ¡Volvemos a vernos,\n{{delay frames=\"8\"}}{{fun_00070005 arg=\"\"}}!",
      "EUfr": "{{anim id=\"32\"}}Yep !{{delay frames=\"20\"}} Te revoilà,{{delay frames=\"8\"}} {{fun_00070005 arg=\"\"}} !",
      "EUit": "{{anim id=\"32\"}}Ciao!{{delay frames=\"20\"}} Ci siamo già visti, vero,\n{{delay frames=\"8\"}}{{fun_00070005 arg=\"\"}}?",
      "JPja": "{{anim id=\"32\"}}オーッス！{{delay frames=\"20\"}}\nまた　{{ruby charSpan=\"1\" value=\"あ\"}}会ったな、{{delay frames=\"8\"}}{{fun_00070005 arg=\"\"}}！",
      "KRko": "{{anim id=\"32\"}}안녕ー!{{delay frames=\"20\"}}\n자주 만나네, {{delay frames=\"8\"}}{{fun_00070005 arg=\"\"}}!",
      "USen": "{{anim id=\"32\"}}Heya!{{delay frames=\"20\"}} We meet again, {{delay frames=\"8\"}}{{fun_00070005 arg=\"\"}}!",
      "USes": "{{anim id=\"32\"}}¡Hola!{{delay frames=\"20\"}} ¡Volvemos a vernos,\n{{delay frames=\"8\"}}{{fun_00070005 arg=\"\"}}!",
      "USfr": "{{anim id=\"32\"}}Yep!{{delay frames=\"20\"}} Te revoilà,{{delay frames=\"8\"}} {{fun_00070005 arg=\"\"}}!"
    }
  },
  {
    "label": "006",
    "locale": {
      "EUde": "{{anim id=\"1\"}}{{fun_0003000E arg=\"\"}}{{fun_00060007 arg=\"\"}}Hey ho!{{delay frames=\"8\"}} {{fun_0003000E arg=\"\"}}{{fun_00080005 arg=\"\"}}{{fun_00070007 arg=\"\"}}!\nWie spät es ist? {{delay frames=\"40\"}}Keine\nAhnung, {{delay frames=\"8\"}}{{fun_00070005 arg=\"\"}}!",
      "EUen": "{{anim id=\"1\"}}{{fun_0003000E arg=\"\"}}{{fun_00060007 arg=\"\"}}Yo!{{delay frames=\"8\"}} {{fun_0003000E arg=\"\"}}{{fun_00080005 arg=\"\"}}{{fun_00070007 arg=\"\"}}!{{delay frames=\"20\"}}\nIs it still daytime? It's so dark!\n{{fun_0003000E arg=\"\"}}{{delay frames=\"8\"}}{{fun_00070005 arg=\"\"}}?",
      "EUes": "{{anim id=\"1\"}}¡{{fun_0003000E arg=\"\"}}{{fun_00060007 arg=\"\"}}Muy buenas,{{delay frames=\"8\"}} {{fun_00080005 arg=\"\"}}{{fun_00070007 arg=\"\"}}!{{delay frames=\"20\"}}\n¿Aún es de día? ¡Qué oscuro está,\n{{delay frames=\"8\"}}{{fun_00070005 arg=\"\"}}!",
      "EUfr": "{{anim id=\"1\"}}{{fun_0003000E arg=\"\"}}{{fun_00060007 arg=\"\"}}Yo !{{delay frames=\"8\"}} {{fun_0003000E arg=\"\"}}{{fun_00080005 arg=\"\"}}{{fun_00070007 arg=\"\"}} !{{delay frames=\"20\"}}\nC'est encore la journée ? Dur à dire\navec cette obscurité,{{delay frames=\"8\"}} {{fun_00070005 arg=\"\"}}.",
      "EUit": "{{anim id=\"1\"}}{{fun_0003000E arg=\"\"}}{{fun_00060007 arg=\"\"}}Ehi!{{delay frames=\"8\"}} {{fun_0003000E arg=\"\"}}{{fun_00080005 arg=\"\"}}{{fun_00070007 arg=\"\"}}!{{delay frames=\"20\"}}\nÈ ancora giorno? È così buio!\n{{fun_0003000E arg=\"\"}}{{delay frames=\"8\"}}{{fun_00070005 arg=\"\"}}!",
      "JPja": "{{anim id=\"1\"}}{{fun_00060007 arg=\"\"}}よぉ！{{delay frames=\"8\"}}　{{fun_00080005 arg=\"\"}}！{{fun_00070007 arg=\"\"}}{{delay frames=\"20\"}}\n{{ruby charSpan=\"1\" value=\"そら\"}}空は{{ruby charSpan=\"1\" value=\"くら\"}}暗くても\nまだ　{{ruby charSpan=\"2\" value=\"ひるま\"}}昼間だぞ？　{{delay frames=\"8\"}}{{fun_00070005 arg=\"\"}}？",
      "KRko": "{{anim id=\"1\"}}{{fun_00060007 arg=\"\"}}여어!{{delay frames=\"8\"}} {{fun_00080005 arg=\"\"}}!{{fun_00070007 arg=\"\"}}{{delay frames=\"20\"}}\n하늘이 어두워도 착각하면 안 돼!\n아직 낮이거든, {{delay frames=\"8\"}}{{fun_00070005 arg=\"\"}}",
      "USen": "{{anim id=\"1\"}}{{fun_0003000E arg=\"\"}}{{fun_00060007 arg=\"\"}}Yo!{{delay frames=\"8\"}} {{fun_0003000E arg=\"\"}}{{fun_00080005 arg=\"\"}}{{fun_00070007 arg=\"\"}}!{{delay frames=\"20\"}}\nIs it still daytime? It's so dark!\n{{fun_0003000E arg=\"\"}}{{delay frames=\"8\"}}{{fun_00070005 arg=\"\"}}?",
      "USes": "{{anim id=\"1\"}}¡{{fun_0003000E arg=\"\"}}{{fun_00060007 arg=\"\"}}Muy buenas,{{delay frames=\"8\"}} {{fun_00080005 arg=\"\"}}{{fun_00070007 arg=\"\"}}!{{delay frames=\"20\"}}\n¿Aún es de día? ¡Qué oscuro está,\n{{delay frames=\"8\"}}{{fun_00070005 arg=\"\"}}!",
      "USfr": "{{anim id=\"1\"}}{{fun_0003000E arg=\"\"}}{{fun_00060007 arg=\"\"}}Yo!{{delay frames=\"8\"}} {{fun_0003000E arg=\"\"}}{{fun_00080005 arg=\"\"}}{{fun_00070007 arg=\"\"}}!{{delay frames=\"20\"}}\nC'est encore la journée? Dur à dire\navec cette obscurité,{{delay frames=\"8\"}} {{fun_00070005 arg=\"\"}}."
    }
  },
  {
    "label": "007",
    "locale": {
      "EUde": "{{anim id=\"44\"}}{{delay frames=\"15\"}}Heee{{fun_000B0007 arg=\"\"}}yaaaaaa!{{delay frames=\"60\"}}{{anim id=\"37\"}} Heller wird's heute\nnicht, also schrei, wenn du mich\nbrauchst, {{delay frames=\"8\"}}{{fun_00070005 arg=\"\"}}.",
      "EUen": "{{anim id=\"44\"}}{{delay frames=\"15\"}}Hiii{{fun_000B0007 arg=\"\"}}yaaah!!{{delay frames=\"20\"}}{{anim id=\"37\"}}{{delay frames=\"40\"}}\nIt's dark, so holler if you need me,\n{{delay frames=\"8\"}}{{fun_00070005 arg=\"\"}}.",
      "EUes": "{{anim id=\"44\"}}{{delay frames=\"15\"}}¡¡¡Hoooo{{fun_000B0007 arg=\"\"}}laaaaa!!!{{delay frames=\"20\"}}{{anim id=\"37\"}}{{delay frames=\"40\"}}\nEstá muy oscuro, así que grita\nsi me necesitas, {{delay frames=\"8\"}}{{fun_00070005 arg=\"\"}}.",
      "EUfr": "{{anim id=\"44\"}}{{delay frames=\"15\"}}Yaaa{{fun_000B0007 arg=\"\"}}hooouuu !{{delay frames=\"20\"}}{{anim id=\"37\"}}{{delay frames=\"40\"}}\nOn y voit que pouic, alors crie si tu\nas besoin de moi,{{delay frames=\"8\"}} {{fun_00070005 arg=\"\"}}.",
      "EUit": "{{anim id=\"44\"}}{{delay frames=\"15\"}}Ehii{{fun_000B0007 arg=\"\"}}iii!!!{{delay frames=\"20\"}}{{anim id=\"37\"}}{{delay frames=\"40\"}}\nÈ tutto buio! Se hai bisogno di me\nlancia un urlo, {{delay frames=\"8\"}}{{fun_00070005 arg=\"\"}}!",
      "JPja": "{{anim id=\"31\"}}{{delay frames=\"15\"}}オー{{fun_000B0007 arg=\"\"}}ーーッス！！{{delay frames=\"20\"}}{{anim id=\"37\"}}{{delay frames=\"40\"}}\n{{ruby charSpan=\"1\" value=\"さむ\"}}寒いから　{{ruby charSpan=\"1\" value=\"おお\"}}大きい{{ruby charSpan=\"1\" value=\"こえ\"}}声\n{{ruby charSpan=\"1\" value=\"だ\"}}出していこー、{{delay frames=\"8\"}}{{fun_00070005 arg=\"\"}}",
      "KRko": "{{anim id=\"31\"}}{{delay frames=\"15\"}}안ー{{fun_000B0007 arg=\"\"}}ーー녕!!{{delay frames=\"20\"}}{{anim id=\"37\"}}{{delay frames=\"40\"}}\n너도 추울 땐 나처럼\n큰 소리를 내보라구, {{delay frames=\"8\"}}{{fun_00070005 arg=\"\"}}",
      "USen": "{{anim id=\"44\"}}{{delay frames=\"15\"}}Hiii{{fun_000B0007 arg=\"\"}}yaaah!!{{delay frames=\"20\"}}{{anim id=\"37\"}}{{delay frames=\"40\"}}\nIt's dark, so holler if you need me,\n{{delay frames=\"8\"}}{{fun_00070005 arg=\"\"}}.",
      "USes": "{{anim id=\"44\"}}{{delay frames=\"15\"}}¡¡¡Hoooo{{fun_000B0007 arg=\"\"}}laaaaa!!!{{delay frames=\"20\"}}{{anim id=\"37\"}}{{delay frames=\"40\"}}\nEstá muy oscuro, así que grita\nsi me necesitas, {{delay frames=\"8\"}}{{fun_00070005 arg=\"\"}}.",
      "USfr": "{{anim id=\"44\"}}{{delay frames=\"15\"}}Yaaa{{fun_000B0007 arg=\"\"}}hooouuu!{{delay frames=\"20\"}}{{anim id=\"37\"}}{{delay frames=\"40\"}}\nOn y voit que pouic, alors crie si tu\nas besoin de moi,{{delay frames=\"8\"}} {{fun_00070005 arg=\"\"}}."
    }
  },
  {
    "label": "008",
    "locale": {
      "EUde": "Oh!{{delay frames=\"20\"}} Du bist's, {{fun_00080005 arg=\"\"}}!{{delay frames=\"40\"}}\n{{anim id=\"19\"}}Inzwischen ist es richtig eisig\ngeworden, {{delay frames=\"8\"}}{{fun_00070005 arg=\"\"}}.",
      "EUen": "Oh!{{delay frames=\"20\"}} It's {{fun_00080005 arg=\"\"}}!{{delay frames=\"40\"}}\n{{anim id=\"19\"}}It's pretty chilly in the cold, dark\nnight, {{delay frames=\"8\"}}{{fun_00070005 arg=\"\"}}.",
      "EUes": "¡Oh!{{delay frames=\"20\"}} ¡Si es {{fun_00080005 arg=\"\"}}!{{delay frames=\"40\"}} {{anim id=\"19\"}}Cuando\nla noche es tan larga hace un frío\nde quedarse helado, {{delay frames=\"8\"}}{{fun_00070005 arg=\"\"}}.",
      "EUfr": "Oh !{{delay frames=\"20\"}} {{fun_0003000E arg=\"\"}}{{fun_00080005 arg=\"\"}} !{{delay frames=\"40\"}}\n{{anim id=\"19\"}}Fait pas chaud ce soir,{{delay frames=\"8\"}}\n{{fun_00070005 arg=\"\"}}.",
      "EUit": "Oh!{{delay frames=\"20\"}} Sei tu, {{fun_00080005 arg=\"\"}}!{{delay frames=\"40\"}}\n{{anim id=\"19\"}}Di notte fa freddissimo,\n{{delay frames=\"8\"}}{{fun_00070005 arg=\"\"}}.",
      "JPja": "おー！{{delay frames=\"20\"}}　{{fun_00080005 arg=\"\"}}かー{{delay frames=\"40\"}}\n{{anim id=\"19\"}}やっぱり　{{ruby charSpan=\"1\" value=\"よる\"}}夜は\n{{ruby charSpan=\"1\" value=\"さむ\"}}寒いよな、{{delay frames=\"8\"}}{{fun_00070005 arg=\"\"}}",
      "KRko": "오오ー!{{delay frames=\"20\"}} {{fun_00080005 arg=\"\"}}{{fun_000E000E arg=\"0x020074C70000\"}}구나ー{{delay frames=\"40\"}}\n{{anim id=\"19\"}}확실히 밤이 되니까\n춥지, {{delay frames=\"8\"}}{{fun_00070005 arg=\"\"}}?",
      "USen": "Oh!{{delay frames=\"20\"}} It's {{fun_00080005 arg=\"\"}}!{{delay frames=\"40\"}}\n{{anim id=\"19\"}}It's pretty chilly in the cold, dark\nnight, {{delay frames=\"8\"}}{{fun_00070005 arg=\"\"}}.",
      "USes": "¡Oh!{{delay frames=\"20\"}} ¡Si es {{fun_00080005 arg=\"\"}}!{{delay frames=\"40\"}} {{anim id=\"19\"}}Cuando\nla noche es tan larga hace un frío\nde quedarse helado, {{delay frames=\"8\"}}{{fun_00070005 arg=\"\"}}.",
      "USfr": "Oh!{{delay frames=\"20\"}} {{fun_0003000E arg=\"\"}}{{fun_00080005 arg=\"\"}}!{{delay frames=\"40\"}}\n{{anim id=\"19\"}}Fait pas chaud ce soir,{{delay frames=\"8\"}}\n{{fun_00070005 arg=\"\"}}."
    }
  },
  {
    "label": "009",
    "locale": {
      "EUde": "{{anim id=\"32\"}}Hey ho!{{delay frames=\"15\"}} Immer noch unterwegs,\n{{delay frames=\"8\"}}{{fun_00070005 arg=\"\"}}?",
      "EUen": "{{anim id=\"32\"}}Yo!{{delay frames=\"20\"}} You again, huh? {{delay frames=\"8\"}}{{fun_0003000E arg=\"\"}}{{fun_00070005 arg=\"\"}}!",
      "EUes": "{{anim id=\"32\"}}¡Hola!{{delay frames=\"20\"}} Otra vez tú,\n¿eh, {{delay frames=\"8\"}}{{fun_00070005 arg=\"\"}}?",
      "EUfr": "{{anim id=\"32\"}}Yo !{{delay frames=\"20\"}} Du neuf depuis tout à l'heure ?{{delay frames=\"8\"}}\n{{fun_0003000E arg=\"\"}}{{fun_00070005 arg=\"\"}} !",
      "EUit": "{{anim id=\"32\"}}Ciao!{{delay frames=\"20\"}} Sei di nuovo tu, eh?\n{{delay frames=\"8\"}}{{fun_0003000E arg=\"\"}}{{fun_00070005 arg=\"\"}}!",
      "JPja": "{{anim id=\"32\"}}よぉ！{{delay frames=\"20\"}}\nまた　{{ruby charSpan=\"1\" value=\"あ\"}}会ったな、{{delay frames=\"8\"}}{{fun_00070005 arg=\"\"}}！",
      "KRko": "{{anim id=\"32\"}}여어!{{delay frames=\"20\"}}\n또 만나네, {{delay frames=\"8\"}}{{fun_00070005 arg=\"\"}}!",
      "USen": "{{anim id=\"32\"}}Yo!{{delay frames=\"20\"}} You again, huh? {{delay frames=\"8\"}}{{fun_0003000E arg=\"\"}}{{fun_00070005 arg=\"\"}}!",
      "USes": "{{anim id=\"32\"}}¡Hola!{{delay frames=\"20\"}} Otra vez tú,\n¿eh, {{delay frames=\"8\"}}{{fun_00070005 arg=\"\"}}?",
      "USfr": "{{anim id=\"32\"}}Yo!{{delay frames=\"20\"}} Du neuf depuis tout à l'heure?{{delay frames=\"8\"}}\n{{fun_0003000E arg=\"\"}}{{fun_00070005 arg=\"\"}}!"
    }
  }
]