﻿[
  {
    "label": "001",
    "locale": {
      "EUde": "{{anim id=\"33\"}}Wie seh ich aus?{{fun_00010007 arg=\"\"}}\n.{{delay frames=\"8\"}}.{{delay frames=\"8\"}}.{{delay frames=\"20\"}}{{anim id=\"15\"}}Nee, {{delay frames=\"20\"}}nicht die Klamotten!{{delay frames=\"40\"}}{{anim id=\"0\"}}\nDie meinte ich doch gar nicht!\n{{anim id=\"27\"}}Ich wollte wissen, ob man meinen\ndurchtrainierten Bizeps unter dem\nStoff überhaupt erkennen kann!",
      "EUen": "{{anim id=\"33\"}}Check me out, {{fun_00080005 arg=\"\"}}!{{pageBreak}}{{delay frames=\"8\"}}.{{delay frames=\"8\"}}.{{delay frames=\"8\"}}.{{delay frames=\"20\"}}{{anim id=\"15\"}}No, I'm not talking about my\nclothes!{{delay frames=\"40\"}}{{anim id=\"0\"}} I wanted you to appreciate\nmy rippling muscles!{{pageBreak}}{{anim id=\"2\"}}I think of clothes as the icing on the\nscrumptious cake that is my jaw-\ndropping physique! Haha!{{delay frames=\"40\"}}{{anim id=\"37\"}}",
      "EUes": "{{anim id=\"33\"}}¡{{fun_0003000E arg=\"\"}}{{fun_00080005 arg=\"\"}}, mírame bien!{{pageBreak}}No, no{{delay frames=\"8\"}}.{{delay frames=\"8\"}}.{{delay frames=\"8\"}}.{{delay frames=\"20\"}}{{anim id=\"15\"}} ¡La ropa no!{{delay frames=\"40\"}}{{anim id=\"0\"}} ¡Quería\nque admirases la perfección\nde mis músculos!\n{{anim id=\"2\"}}¡Yo considero la ropa un extra!\n¡El premio gordo es sin duda\nmi impresionante físico! ¡Ja, ja!{{delay frames=\"40\"}}{{anim id=\"37\"}}",
      "EUfr": "{{anim id=\"33\"}}Mate comme je suis beau gosse !{{pageBreak}}{{delay frames=\"8\"}}.{{delay frames=\"8\"}}.{{delay frames=\"8\"}}.{{delay frames=\"20\"}}{{anim id=\"15\"}} Mais non !{{delay frames=\"20\"}} Je parle pas de mes\nfringues !{{delay frames=\"40\"}}{{anim id=\"0\"}} Je te parle de mes\nmuscles, là !{{pageBreak}}{{anim id=\"2\"}}Les fringues, c'est juste l'emballage\nqui sert à sublimer le plus\nimportant : mes biscotos !{{delay frames=\"40\"}}{{anim id=\"37\"}}",
      "EUit": "{{anim id=\"33\"}}No, dico, ma... Hai visto?{{pageBreak}}{{delay frames=\"8\"}}.{{delay frames=\"8\"}}.{{delay frames=\"8\"}}.{{delay frames=\"20\"}}{{anim id=\"15\"}} No, non i vestiti!{{delay frames=\"40\"}}{{anim id=\"0\"}}\nGuarda i miei muscoli possenti!{{pageBreak}}{{anim id=\"2\"}}I vestiti sono solo la ciliegina\nsu questo fisico da paura\nche mi ritrovo!{{delay frames=\"40\"}}{{anim id=\"37\"}}",
      "JPja": "{{anim id=\"33\"}}なぁ、{{fun_00080005 arg=\"\"}}！{{delay frames=\"20\"}}\n{{ruby charSpan=\"1\" value=\"み\"}}見てくれよー！{{pageBreak}}{{delay frames=\"8\"}}・{{delay frames=\"8\"}}・{{delay frames=\"8\"}}・{{delay frames=\"20\"}}{{anim id=\"15\"}}あ、この{{ruby charSpan=\"1\" value=\"ふく\"}}服じゃないぞ？{{delay frames=\"40\"}}\n{{anim id=\"0\"}}その{{ruby charSpan=\"1\" value=\"した\"}}下にある　キョウキンを\n{{ruby charSpan=\"1\" value=\"み\"}}見てほしかったんだよ{{pageBreak}}{{anim id=\"2\"}}オイラにとって　{{ruby charSpan=\"1\" value=\"ふく\"}}服は{{delay frames=\"8\"}}\nキンニクの　{{ruby charSpan=\"1\" value=\"ひ\"}}引き{{ruby charSpan=\"1\" value=\"た\"}}立て{{ruby charSpan=\"1\" value=\"やく\"}}役なんだ{{delay frames=\"40\"}}\nハハッ！{{delay frames=\"40\"}}{{anim id=\"37\"}}",
      "KRko": "{{anim id=\"33\"}}야, {{fun_00080005 arg=\"\"}}!{{delay frames=\"20\"}}\n이것 좀 봐라ー!{{pageBreak}}{{delay frames=\"8\"}}・{{delay frames=\"8\"}}・{{delay frames=\"8\"}}・{{delay frames=\"20\"}}{{anim id=\"15\"}}아, 내 옷 말고!{{delay frames=\"40\"}}\n{{anim id=\"0\"}}그 아래 가슴 근육\n좀 봐달라구!{{pageBreak}}{{anim id=\"2\"}}나한테 옷이란 근육을 돋보이게 하는\n일종의 장식이라고 할 수 있지!{{delay frames=\"20\"}}\n하하핫!{{delay frames=\"40\"}}{{anim id=\"37\"}}",
      "USen": "{{anim id=\"33\"}}Hey, {{fun_00080005 arg=\"\"}}! Check me out!{{pageBreak}}{{delay frames=\"8\"}}.{{delay frames=\"8\"}}.{{delay frames=\"8\"}}.{{delay frames=\"20\"}}{{anim id=\"15\"}}No, I'm not talking about my\nclothes!{{delay frames=\"40\"}}{{anim id=\"0\"}} I wanted you to appreciate\nmy rippling muscles!{{pageBreak}}{{anim id=\"2\"}}I think of clothes as the icing on the\nscrumptious cake that is my jaw-\ndropping physique! Haha!{{delay frames=\"40\"}}{{anim id=\"37\"}}",
      "USes": "{{anim id=\"33\"}}¡{{fun_0003000E arg=\"\"}}{{fun_00080005 arg=\"\"}}, mírame bien!{{pageBreak}}No, no{{delay frames=\"8\"}}.{{delay frames=\"8\"}}.{{delay frames=\"8\"}}.{{delay frames=\"20\"}}{{anim id=\"15\"}} ¡La ropa no!{{delay frames=\"40\"}}{{anim id=\"0\"}} ¡Quería\nque admirases la perfección\nde mis músculos!\n{{anim id=\"2\"}}¡Yo considero la ropa un extra!\n¡El premio gordo es sin duda\nmi impresionante físico! ¡Ja, ja!{{delay frames=\"40\"}}{{anim id=\"37\"}}",
      "USfr": "{{anim id=\"33\"}}Mate comme je suis beau gosse!{{pageBreak}}{{delay frames=\"8\"}}.{{delay frames=\"8\"}}.{{delay frames=\"8\"}}.{{delay frames=\"20\"}}{{anim id=\"15\"}} Mais non!{{delay frames=\"20\"}} Je parle pas de mes\nfringues!{{delay frames=\"40\"}}{{anim id=\"0\"}} Je te parle de mes\nmuscles, là!{{pageBreak}}{{anim id=\"2\"}}Les fringues, c'est juste l'emballage\nqui sert à sublimer le plus\nimportant : mes biscotos!{{delay frames=\"40\"}}{{anim id=\"37\"}}"
    }
  },
  {
    "label": "002",
    "locale": {
      "EUde": "{{anim id=\"33\"}}Schau mal, {{delay frames=\"8\"}}{{fun_0006000E arg=\"0x1800530070006F0072007400730066007200650075006E0064001C00530070006F0072007400730066007200650075006E00640069006E00\"}}!{{delay frames=\"20\"}}\nDiese Klamotten sind so bequem,{{delay frames=\"8\"}}\ndass man darin Sport treiben kann!\n{{anim id=\"1\"}}Sportler wie wir sollten immer\n{{fun_00230005 arg=\"0x00CD\"}}e Klamotten\nwie die hier tragen!",
      "EUen": "{{anim id=\"33\"}}Check it out, {{fun_0006000E arg=\"0x0600620072006F000E006C00610064007900620072006F00\"}}!{{delay frames=\"20\"}} These clothes\nare easy to move around in!{{pageBreak}}{{anim id=\"1\"}}Athletes really should stick to\n{{fun_00230005 arg=\"0x00CD\"}} clothes like this!",
      "EUes": "{{anim id=\"33\"}}¡Fíjate bien, chiquit{{fun_0006000E arg=\"0x0400ED006E00060069006E006100\"}}!{{delay frames=\"20\"}} ¡Esta ropa\nme permite máxima movilidad!{{pageBreak}}{{anim id=\"1\"}}¡Los atletas deben llevar algo\n{{fun_00230005 arg=\"0x00CD\"}} como esto!",
      "EUfr": "{{anim id=\"33\"}}Mate-moi ça, {{fun_0006000E arg=\"0x1400700065007400690074002000670061007200730012006D00610020006700720061006E0064006500\"}} !{{delay frames=\"20\"}} T'as vu\ncomme on bouge bien dans ces\nfringues ?!{{pageBreak}}{{anim id=\"1\"}}Ceux qui ont tout compris au sport,\nce sont ceux qui s'habillent\n{{fun_00230005 arg=\"0x00CD\"}} !",
      "EUit": "{{anim id=\"33\"}}Che te ne pare?{{delay frames=\"20\"}} Questi vestiti sono\ndavvero comodi e sono ottimi\nanche per allenarsi!{{pageBreak}}{{anim id=\"1\"}}Lo stile {{fun_00230005 arg=\"0x00CD\"}}\nè perfetto per gli atleti come me!",
      "JPja": "{{anim id=\"33\"}}{{ruby charSpan=\"1\" value=\"み\"}}見ろよー！{{delay frames=\"20\"}}\nこの{{ruby charSpan=\"1\" value=\"ふく\"}}服　{{ruby charSpan=\"1\" value=\"うご\"}}動きやすそうだろ？{{pageBreak}}{{anim id=\"1\"}}やっぱり　{{ruby charSpan=\"1\" value=\"おとこ\"}}男は\n{{fun_00230005 arg=\"0x00CD\"}}な{{ruby charSpan=\"1\" value=\"ふく\"}}服にかぎるよ！",
      "KRko": "{{anim id=\"33\"}}이것 봐라ー!{{delay frames=\"20\"}}\n이 옷, 정말 활동하기\n편해 보이지?{{pageBreak}}{{anim id=\"1\"}}역시 사나이한테는\n{{fun_00230005 arg=\"0x00CD\"}} 옷이 최고야!",
      "USen": "{{anim id=\"33\"}}Check it out, {{fun_0006000E arg=\"0x0600620072006F000E006C00610064007900620072006F00\"}}!{{delay frames=\"20\"}} These clothes\nare easy to move around in!{{pageBreak}}{{anim id=\"1\"}}Athletes really should stick to\n{{fun_00230005 arg=\"0x00CD\"}} clothes like this!",
      "USes": "{{anim id=\"33\"}}¡Fíjate bien, chiquit{{fun_0006000E arg=\"0x0400ED006E00060069006E006100\"}}!{{delay frames=\"20\"}} ¡Esta ropa\nme permite máxima movilidad!{{pageBreak}}{{anim id=\"1\"}}¡Los atletas deben llevar algo\n{{fun_00230005 arg=\"0x00CD\"}} como esto!",
      "USfr": "{{anim id=\"33\"}}Mate-moi ça, {{fun_0006000E arg=\"0x1400700065007400690074002000670061007200730012006D00610020006700720061006E0064006500\"}}!{{delay frames=\"20\"}} T'as vu\ncomme on bouge bien dans ces\nfringues?!{{pageBreak}}{{anim id=\"1\"}}Ceux qui ont tout compris au sport,\nce sont ceux qui s'habillent\n{{fun_00230005 arg=\"0x00CD\"}}!"
    }
  },
  {
    "label": "003",
    "locale": {
      "EUde": "{{anim id=\"1\"}}Hast du meine {{fun_00230005 arg=\"0x00CD\"}}en\nKlamotten schon gesehen?{{pageBreak}}{{anim id=\"35\"}}Ich finde, {{delay frames=\"8\"}}in diesen Sachen könnte\nich den Weltrekord im Gutaussehen\nknacken, {{delay frames=\"8\"}}{{fun_00070005 arg=\"\"}}!",
      "EUen": "{{anim id=\"1\"}}My clothes look {{fun_00230005 arg=\"0x00CD\"}},\ndon't they?{{pageBreak}}{{anim id=\"35\"}}I hear that a man who can pull off\nthis look will be popular with the\nladies! {{delay frames=\"8\"}}{{fun_0003000E arg=\"\"}}{{fun_00070005 arg=\"\"}}!",
      "EUes": "{{anim id=\"1\"}}Supongo que llevo algo muy\n\"{{fun_00230005 arg=\"0x00CD\"}}\", como\nsuelen llamarlo.\n{{anim id=\"35\"}}¡He oído que quien consigue ir con\neste aspecto sin resultar ridículo\ntiene mucho éxito con las mujeres!",
      "EUfr": "{{anim id=\"1\"}}Ce look {{fun_00230005 arg=\"0x00CD\"}} me va\nplutôt bien, tu trouves pas ?{{pageBreak}}{{anim id=\"35\"}}Paraît que c'est ce qui fait craquer\nles filles en ce moment !\n{{delay frames=\"8\"}}{{fun_0003000E arg=\"\"}}{{fun_00070005 arg=\"\"}} !",
      "EUit": "{{anim id=\"1\"}}Oggi ho proprio uno stile\n{{fun_00230005 arg=\"0x00CD\"}}, non credi?{{pageBreak}}{{anim id=\"35\"}}Ho sentito dire che vestiti così\nsi conquistano un sacco di pupe,\n{{delay frames=\"8\"}}{{fun_00070005 arg=\"\"}}!",
      "JPja": "{{anim id=\"1\"}}{{ruby charSpan=\"2\" value=\"きょう\"}}今日のオイラの{{ruby charSpan=\"1\" value=\"ふく\"}}服、\n{{fun_00230005 arg=\"0x00CD\"}}だろー？{{pageBreak}}{{anim id=\"35\"}}こういうのを　{{ruby charSpan=\"1\" value=\"き\"}}着こなせる{{ruby charSpan=\"1\" value=\"おとこ\"}}男は{{delay frames=\"8\"}}\nモテるって　きいたんだよ、{{delay frames=\"8\"}}{{fun_00070005 arg=\"\"}}",
      "KRko": "{{anim id=\"1\"}}오늘 내가 입은 옷\n{{fun_00230005 arg=\"0x00CD\"}} 느낌이지ー?{{pageBreak}}{{anim id=\"35\"}}이런 옷을 소화할 줄 아는 남자들이{{delay frames=\"8\"}}\n인기가 많다고 들었거든,\n{{delay frames=\"8\"}}{{fun_00070005 arg=\"\"}}!",
      "USen": "{{anim id=\"1\"}}My clothes look {{fun_00230005 arg=\"0x00CD\"}},\ndon't they?{{pageBreak}}{{anim id=\"35\"}}I hear that a man who can pull off\nthis look will be popular with the\nladies! {{delay frames=\"8\"}}{{fun_0003000E arg=\"\"}}{{fun_00070005 arg=\"\"}}!",
      "USes": "{{anim id=\"1\"}}Supongo que llevo algo muy\n\"{{fun_00230005 arg=\"0x00CD\"}}\", como\nsuelen llamarlo.\n{{anim id=\"35\"}}¡He oído que quien consigue ir con\neste aspecto sin resultar ridículo\ntiene mucho éxito con las mujeres!",
      "USfr": "{{anim id=\"1\"}}Ce look {{fun_00230005 arg=\"0x00CD\"}} me va\nplutôt bien, tu trouves pas?{{pageBreak}}{{anim id=\"35\"}}Paraît que c'est ce qui fait craquer\nles filles en ce moment!\n{{delay frames=\"8\"}}{{fun_0003000E arg=\"\"}}{{fun_00070005 arg=\"\"}}!"
    }
  },
  {
    "label": "004",
    "locale": {
      "EUde": "{{anim id=\"33\"}}Ich seh heut verboten gut aus!{{pageBreak}}{{anim id=\"1\"}}Dabei tu ich doch sonst nie was\nVerbotenes! {{delay frames=\"40\"}}Ich sollte lieber keine\n{{fun_00230005 arg=\"0x00CD\"}}en Sachen tragen!{{delay frames=\"20\"}}",
      "EUen": "{{anim id=\"33\"}}I'm crushing it with my outfit today!{{fun_00010007 arg=\"\"}}\n{{anim id=\"1\"}}This is what those fashion smarties \ncall the \"{{fun_00230005 arg=\"0x00CD\"}}\" style!",
      "EUes": "{{anim id=\"33\"}}¡Estoy que lo rompo con la ropa que\nllevo hoy!{{fun_00010007 arg=\"\"}} {{anim id=\"1\"}}¡La gente que sabe llama\na este estilo \"{{fun_00230005 arg=\"0x00CD\"}}\"!",
      "EUfr": "{{anim id=\"33\"}}Je vais tout déchirer dans cette\ntenue aujourd'hui ! {{pageBreak}}{{delay frames=\"8\"}}.{{delay frames=\"8\"}}.{{delay frames=\"8\"}}.{{delay frames=\"20\"}} {{anim id=\"13\"}}À commencer par mes fringues si\nje force trop sur mes muscles !",
      "EUit": "{{anim id=\"33\"}}Oggi avevo voglia di stupire!{{fun_00010007 arg=\"\"}}{{anim id=\"1\"}}\nGli esperti direbbero che il mio\nè uno stile {{fun_00230005 arg=\"0x00CD\"}}.",
      "JPja": "{{anim id=\"33\"}}{{ruby charSpan=\"2\" value=\"きょう\"}}今日のオイラの{{ruby charSpan=\"1\" value=\"ふく\"}}服　{{ruby charSpan=\"1\" value=\"き\"}}決まってるだろ？{{fun_00010007 arg=\"\"}}\n{{anim id=\"1\"}}こういうの　{{fun_00230005 arg=\"0x00CD\"}}って\n{{ruby charSpan=\"1\" value=\"い\"}}言うんだぞ、{{delay frames=\"8\"}}{{fun_00070005 arg=\"\"}}",
      "KRko": "{{anim id=\"33\"}}오늘 내 옷 완전 근사하지?{{fun_00010007 arg=\"\"}}\n{{anim id=\"1\"}}이런 걸 {{fun_00230005 arg=\"0x00CD\"}} 패션이라고\n부른다구, {{delay frames=\"8\"}}{{fun_00070005 arg=\"\"}}!",
      "USen": "{{anim id=\"33\"}}I'm crushing it with my outfit today!{{fun_00010007 arg=\"\"}}\n{{anim id=\"1\"}}This is what those fashion smarties \ncall the \"{{fun_00230005 arg=\"0x00CD\"}}\" style!",
      "USes": "{{anim id=\"33\"}}¡Estoy que lo rompo con la ropa que\nllevo hoy!{{fun_00010007 arg=\"\"}} {{anim id=\"1\"}}¡La gente que sabe llama\na este estilo \"{{fun_00230005 arg=\"0x00CD\"}}\"!",
      "USfr": "{{anim id=\"33\"}}Je vais tout déchirer dans cette\ntenue aujourd'hui! {{pageBreak}}{{delay frames=\"8\"}}.{{delay frames=\"8\"}}.{{delay frames=\"8\"}}.{{delay frames=\"20\"}} {{anim id=\"13\"}}À commencer par mes fringues si\nje force trop sur mes muscles!"
    }
  },
  {
    "label": "005",
    "locale": {
      "EUde": "{{anim id=\"35\"}}Ich seh ziemlich hip aus, {{delay frames=\"8\"}}was?{{delay frames=\"40\"}}\n{{anim id=\"1\"}}Ab sofort trag ich öfter mal\n{{fun_00230005 arg=\"0x00CD\"}}e Klamotten!\nDenn wie heißt es so schön:{{delay frames=\"40\"}}{{anim id=\"44\"}}\n„Wer nicht wagt, {{delay frames=\"8\"}}der nicht gewinnt!“",
      "EUen": "{{anim id=\"35\"}}I'm looking pretty hip today, huh? {{delay frames=\"40\"}}\n{{anim id=\"1\"}}I've decided to go all out with the\n{{fun_00230005 arg=\"0x00CD\"}} look!\n{{anim id=\"13\"}}Ugh! But now I want to take all my\nworldly frustrations and write a\nsong about them!",
      "EUes": "{{anim id=\"35\"}}Hoy voy muy a la última, ¿no?{{delay frames=\"40\"}}\n{{anim id=\"1\"}}¡He decidido apostar por lo\n{{fun_00230005 arg=\"0x00CD\"}} hasta el final!\n{{anim id=\"13\"}}¡Ay! Pero ahora me dan ganas\nde escribir una canción sobre las\ncosas que me tienen quemado...",
      "EUfr": "{{anim id=\"35\"}}J'ai l'air d'une vraie bête sauvage\naujourd'hui, pas vrai ?{{pageBreak}}{{anim id=\"1\"}}J'ai décidé de me lâcher et\nd'adopter un look\n{{fun_00230005 arg=\"0x00CD\"}} !{{pageBreak}}{{anim id=\"13\"}}Argh ! Il faut que j'écrive une\nchanson pour exprimer toute cette\nénergie qui bouillonne en moi !",
      "EUit": "{{anim id=\"35\"}}Oggi non mi trovi trendy?{{delay frames=\"40\"}}\n{{anim id=\"1\"}}Ho deciso di provare lo stile\n{{fun_00230005 arg=\"0x00CD\"}}!\n{{anim id=\"13\"}}Ora però ho voglia di scrivere\nuna canzone e sfogare tutte le mie\nfrustrazioni, ma non so come si fa!",
      "JPja": "{{anim id=\"35\"}}{{ruby charSpan=\"2\" value=\"きょう\"}}今日のオイラ　イカしてるだろー？{{delay frames=\"40\"}}\n{{anim id=\"1\"}}{{fun_00230005 arg=\"0x00CD\"}}な{{ruby charSpan=\"1\" value=\"ふく\"}}服で\nキメてみたんだ！{{pageBreak}}{{anim id=\"13\"}}あーーっ！{{delay frames=\"20\"}}\nムショーに　{{ruby charSpan=\"1\" value=\"よ\"}}世の{{ruby charSpan=\"1\" value=\"なか\"}}中への{{ruby charSpan=\"2\" value=\"ふまん\"}}不満とかを{{delay frames=\"8\"}}\n{{ruby charSpan=\"1\" value=\"うた\"}}歌にしたくなってきたーっ！",
      "KRko": "{{anim id=\"35\"}}오늘 내 패션 어때ー?{{delay frames=\"40\"}}\n{{anim id=\"1\"}}{{fun_00230005 arg=\"0x00CD\"}} 느낌으로\n쫙 빼입어봤어!{{pageBreak}}{{anim id=\"13\"}}아앗!{{delay frames=\"20\"}}\n갑자기 세상을 향해{{delay frames=\"8\"}}\n나의 불만을 외치고 싶다ー!",
      "USen": "{{anim id=\"35\"}}I'm looking pretty hip today, huh? {{delay frames=\"40\"}}\n{{anim id=\"1\"}}I've decided to go all out with the\n{{fun_00230005 arg=\"0x00CD\"}} look!\n{{anim id=\"13\"}}Ugh! But now I want to take all my\nworldly frustrations and write a\nsong about them!",
      "USes": "{{anim id=\"35\"}}Hoy voy muy a la última, ¿no?{{delay frames=\"40\"}}\n{{anim id=\"1\"}}¡He decidido apostar por lo\n{{fun_00230005 arg=\"0x00CD\"}} hasta el final!\n{{anim id=\"13\"}}¡Ay! Pero ahora me dan ganas\nde escribir una canción sobre las\ncosas que me tienen quemado...",
      "USfr": "{{anim id=\"35\"}}J'ai l'air d'une vraie bête sauvage\naujourd'hui, pas vrai?{{pageBreak}}{{anim id=\"1\"}}J'ai décidé de me lâcher et\nd'adopter un look\n{{fun_00230005 arg=\"0x00CD\"}}!{{pageBreak}}{{anim id=\"13\"}}Argh! Il faut que j'écrive une\nchanson pour exprimer toute cette\nénergie qui bouillonne en moi!"
    }
  },
  {
    "label": "006",
    "locale": {
      "EUde": "{{anim id=\"33\"}}Ich bin heute auf {{fun_00230005 arg=\"0x00CD\"}}e\nSachen getrimmt!{{pageBreak}}{{anim id=\"35\"}}Glaub bloß nicht, {{delay frames=\"8\"}}dass es deshalb\nkein Training gibt!{{delay frames=\"20\"}} Sollen die Sachen\ndoch dreckig und schwitzig werden!",
      "EUen": "{{anim id=\"33\"}}I'm going all out today with these\nsnappy {{fun_00230005 arg=\"0x00CD\"}} duds!{{pageBreak}}{{anim id=\"35\"}}But don't think for one second that\nI won't get 'em all muddy out on the\nfield of battle!",
      "EUes": "{{anim id=\"33\"}}¡Hoy voy a apostar totalmente\npor este rollo {{fun_00230005 arg=\"0x00CD\"}}!{{pageBreak}}{{anim id=\"35\"}}¡Pero no te creas ni por un segundo\nque no voy a dejar que se manche\nde barro en el campo de batalla!",
      "EUfr": "{{anim id=\"33\"}}C'est décidé, aujourd'hui j'adopte\nun look {{fun_00230005 arg=\"0x00CD\"}} pour\nchanger de peau !{{pageBreak}}{{anim id=\"35\"}}Mais ça ne veut pas dire que je\ncompte manquer l'entraînement\npour autant !",
      "EUit": "{{anim id=\"33\"}}Oggi voglio essere alla moda\ne provare lo stile {{fun_00230005 arg=\"0x00CD\"}}!{{pageBreak}}{{anim id=\"35\"}}E più tardi farò le mie flessioni\nnel fango vestito così. Sarò\nsportivamente trendy!",
      "JPja": "{{anim id=\"33\"}}{{ruby charSpan=\"2\" value=\"きょう\"}}今日のオイラは、{{delay frames=\"20\"}}\nパリッと　{{fun_00230005 arg=\"0x00CD\"}}な{{ruby charSpan=\"1\" value=\"ふく\"}}服で\nキメてみたんだ！{{pageBreak}}{{anim id=\"35\"}}こういう　かしこまった{{ruby charSpan=\"1\" value=\"ふく\"}}服でも、{{delay frames=\"20\"}}\n{{ruby charSpan=\"2\" value=\"へいき\"}}平気でよごすのが　オイラ{{ruby charSpan=\"1\" value=\"りゅう\"}}流だ！",
      "KRko": "{{anim id=\"33\"}}난 오늘{{delay frames=\"20\"}}\n{{fun_00230005 arg=\"0x00CD\"}} 옷으로\n분위기를 연출해봤어!{{pageBreak}}{{anim id=\"35\"}}이런 패션을 갖추고도{{delay frames=\"20\"}}\n마음껏 더럽히는 게\n나만의 스타일이야!",
      "USen": "{{anim id=\"33\"}}I'm going all out today with these\nsnappy {{fun_00230005 arg=\"0x00CD\"}} duds!{{pageBreak}}{{anim id=\"35\"}}But don't think for one second that\nI won't get 'em all muddy out on the\nfield of battle!",
      "USes": "{{anim id=\"33\"}}¡Hoy voy a apostar totalmente\npor esta ropa {{fun_00230005 arg=\"0x00CD\"}}!{{pageBreak}}{{anim id=\"35\"}}¡Pero no te creas ni por un segundo\nque no voy a dejar que se manche\nde barro en el campo de batalla!",
      "USfr": "{{anim id=\"33\"}}C'est décidé, aujourd'hui j'adopte\nun look {{fun_00230005 arg=\"0x00CD\"}} pour\nchanger de peau!{{pageBreak}}{{anim id=\"35\"}}Mais ça ne veut pas dire que je\ncompte manquer l'entraînement\npour autant!"
    }
  },
  {
    "label": "007",
    "locale": {
      "EUde": "{{anim id=\"1\"}}Heute bin ich {{fun_00230005 arg=\"0x00CD\"}}\nunterwegs!{{pageBreak}}Wenn du ein Bild von mir für\ndein Fotoalbum machen willst,\n{{delay frames=\"8\"}}solltest du's jetzt tun!\nOkay? {{delay frames=\"20\"}}{{anim id=\"44\"}}Cheeeeeese, {{delay frames=\"40\"}}{{fun_00070005 arg=\"\"}}!",
      "EUen": "{{anim id=\"1\"}}Today I'm going for my favorite\nflashy {{fun_00230005 arg=\"0x00CD\"}} style!{{pageBreak}}If you ever wanted to take my \npicture, now would be a good time.\nReady? {{delay frames=\"20\"}}{{anim id=\"44\"}}Cheeeeeese! {{delay frames=\"40\"}}{{fun_0003000E arg=\"\"}}{{fun_00070005 arg=\"\"}}!",
      "EUes": "{{anim id=\"1\"}}¡Hoy voy a llamar la atención con\nmi estilo {{fun_00230005 arg=\"0x00CD\"}}!{{pageBreak}}¿Nunca te han dado ganas de\nsacarme una foto? ¡Pues ahora es\nel mejor momento! {{delay frames=\"20\"}}{{anim id=\"44\"}}¡Paaataaataaa!",
      "EUfr": "{{anim id=\"1\"}}Aujourd'hui, je me sens d'humeur à\nadopter un look {{fun_00230005 arg=\"0x00CD\"}} !{{pageBreak}}Si tu veux une photo de moi, c'est\nl'occasion ou jamais !{{delay frames=\"40\"}} {{fun_0006000E arg=\"0x080050007200EA0074000A0050007200EA0074006500\"}} ?\n{{delay frames=\"20\"}}{{anim id=\"44\"}}Ouistitiiiiiiii ! {{delay frames=\"40\"}}{{fun_0003000E arg=\"\"}}{{fun_00070005 arg=\"\"}} !",
      "EUit": "{{anim id=\"1\"}}Oggi sfoggio uno stile\n{{fun_00230005 arg=\"0x00CD\"}}!\nSono strepitoso vestito così.\nQuindi, se vuoi farmi una foto,\nfai pure. Mi metto in posa\ne... {{delay frames=\"20\"}}{{anim id=\"44\"}}Scatta, {{delay frames=\"40\"}}{{fun_00070005 arg=\"\"}}!",
      "JPja": "{{anim id=\"1\"}}{{ruby charSpan=\"2\" value=\"きょう\"}}今日のオイラは{{delay frames=\"20\"}}\nお{{ruby charSpan=\"1\" value=\"き\"}}気に{{ruby charSpan=\"1\" value=\"い\"}}入りの　ハデハデ\n{{fun_00230005 arg=\"0x00CD\"}}スタイル！{{pageBreak}}{{ruby charSpan=\"2\" value=\"しゃしん\"}}写真とるなら　いまだぞー？{{delay frames=\"40\"}}\nはーい{{delay frames=\"20\"}}　{{anim id=\"44\"}}ポーーズ！{{delay frames=\"40\"}}　{{fun_00070005 arg=\"\"}}",
      "KRko": "{{anim id=\"1\"}}오늘의 내 패션 콘셉트는{{delay frames=\"8\"}}・{{delay frames=\"8\"}}・{{delay frames=\"8\"}}・{{delay frames=\"20\"}}\n이보다 더 고급스러울 순 없다!\n{{fun_00230005 arg=\"0x00CD\"}} 젠틀맨 스타일!{{pageBreak}}그런 의미에서 포토 타임이나 가져볼까?{{delay frames=\"40\"}}\n하나, 둘, 셋!{{delay frames=\"20\"}} {{anim id=\"44\"}}치즈!{{delay frames=\"40\"}}\n{{fun_00070005 arg=\"\"}}!",
      "USen": "{{anim id=\"1\"}}Today I'm going for my favorite\nflashy {{fun_00230005 arg=\"0x00CD\"}} style!{{pageBreak}}If you ever wanted to take my \npicture, now would be a good time.\nReady? {{delay frames=\"20\"}}{{anim id=\"44\"}}Cheeeeeese! {{delay frames=\"40\"}}{{fun_0003000E arg=\"\"}}{{fun_00070005 arg=\"\"}}!",
      "USes": "{{anim id=\"1\"}}¡Hoy voy a llamar la atención con\nmi estilo {{fun_00230005 arg=\"0x00CD\"}}!{{pageBreak}}¿Nunca te han dado ganas de\nsacarme una foto? ¡Pues ahora es\nel mejor momento! {{delay frames=\"20\"}}{{anim id=\"44\"}}¡Paaataaataaa!",
      "USfr": "{{anim id=\"1\"}}Aujourd'hui, je me sens d'humeur à\nadopter un look {{fun_00230005 arg=\"0x00CD\"}}!{{pageBreak}}Si tu veux une photo de moi, c'est\nl'occasion ou jamais!{{delay frames=\"40\"}} {{fun_0006000E arg=\"0x080050007200EA0074000A0050007200EA0074006500\"}}?\n{{delay frames=\"20\"}}{{anim id=\"44\"}}Ouistitiiiiiiii! {{delay frames=\"40\"}}{{fun_0003000E arg=\"\"}}{{fun_00070005 arg=\"\"}}!"
    }
  },
  {
    "label": "008",
    "locale": {
      "EUde": "{{anim id=\"1\"}}Die Leute nennen meinen Stil heute\n„{{fun_00230005 arg=\"0x00CD\"}}“, {{delay frames=\"8\"}}{{fun_0006000E arg=\"0x1800530070006F0072007400730066007200650075006E0064001C00530070006F0072007400730066007200650075006E00640069006E00\"}}!{{pageBreak}}{{anim id=\"23\"}}Aber was soll „{{fun_00230005 arg=\"0x00CD\"}}“\nüberhaupt heißen?!{{pageBreak}}{{anim id=\"1\"}}Vielleicht sollte ich mal mit unsren\nMode-Assen reden, {{delay frames=\"8\"}}bevor ich so was\nanziehe, {{delay frames=\"8\"}}{{fun_00070005 arg=\"\"}}!",
      "EUen": "{{anim id=\"1\"}}My outfit today falls under the\nso-called {{fun_00230005 arg=\"0x00CD\"}} style!{{pageBreak}}{{anim id=\"23\"}}But what exactly does\n\"{{fun_00230005 arg=\"0x00CD\"}}\" mean?{{pageBreak}}{{anim id=\"1\"}}Maybe I should check with a fashion\nsmarty-pants before I wear stuff{{delay frames=\"8\"}}.{{delay frames=\"8\"}}.{{delay frames=\"8\"}}.{{delay frames=\"20\"}}",
      "EUes": "{{anim id=\"1\"}}¡Hoy se podría decir que tengo\nun aspecto muy {{fun_00230005 arg=\"0x00CD\"}}!{{pageBreak}}{{anim id=\"23\"}}¿Pero qué quiere decir\n\"{{fun_00230005 arg=\"0x00CD\"}}\" exactamente?\n¿Es alternativo a qué?\n{{anim id=\"1\"}}A lo mejor debería preguntarle a\nalgún enteradillo de la moda antes\nde arriesgarme a ponerme nada{{delay frames=\"8\"}}.{{delay frames=\"8\"}}.{{delay frames=\"8\"}}.{{delay frames=\"20\"}}",
      "EUfr": "{{anim id=\"1\"}}Paraît que le look que j'ai adopté\naujourd'hui est ce qu'on appelle un\nlook {{fun_00230005 arg=\"0x00CD\"}} !{{pageBreak}}{{anim id=\"23\"}}Mais ça veut dire quoi au juste,\nun look {{fun_00230005 arg=\"0x00CD\"}} ?{{pageBreak}}{{anim id=\"2\"}}C'est par opposition à des fringues\ninvisibles, ou quoi ?",
      "EUit": "{{anim id=\"1\"}}Oggi ho un look decisamente\n{{fun_00230005 arg=\"0x00CD\"}}!{{pageBreak}}{{anim id=\"23\"}}Chissà poi che vorrà dire\n\"look {{fun_00230005 arg=\"0x00CD\"}}\"...{{pageBreak}}{{anim id=\"1\"}}Credo proprio che mi serva\nun consulente di moda{{delay frames=\"8\"}}.{{delay frames=\"8\"}}.{{delay frames=\"8\"}}.{{delay frames=\"20\"}}",
      "JPja": "{{anim id=\"1\"}}{{ruby charSpan=\"2\" value=\"きょう\"}}今日のオイラの{{ruby charSpan=\"1\" value=\"ふく\"}}服は\nいわゆる　{{fun_00230005 arg=\"0x00CD\"}}コーデ！{{pageBreak}}{{anim id=\"23\"}}ところで　{{fun_00230005 arg=\"0x00CD\"}}って\nどういう{{ruby charSpan=\"2\" value=\"いみ\"}}意味だ？{{delay frames=\"40\"}}\n{{anim id=\"1\"}}{{ruby charSpan=\"1\" value=\"し\"}}知ってそうなやつに　{{ruby charSpan=\"1\" value=\"き\"}}聞いてみよっと！",
      "KRko": "{{anim id=\"1\"}}오늘 패션은\n{{fun_00230005 arg=\"0x00CD\"}} 스타일로 연출해봤어!{{pageBreak}}{{anim id=\"23\"}}근데 왜 다른 녀석들이\n자꾸 날 보며 수군거리는 것 같지?{{delay frames=\"40\"}}\n{{anim id=\"1\"}}나한테 옷이 너무 잘 어울려서 그러나?",
      "USen": "{{anim id=\"1\"}}My outfit today falls under the\nso-called {{fun_00230005 arg=\"0x00CD\"}} style!{{pageBreak}}{{anim id=\"23\"}}But what exactly does\n\"{{fun_00230005 arg=\"0x00CD\"}}\" mean?{{pageBreak}}{{anim id=\"1\"}}Maybe I should check with a fashion\nsmarty-pants before I wear stuff{{delay frames=\"8\"}}.{{delay frames=\"8\"}}.{{delay frames=\"8\"}}.{{delay frames=\"20\"}}",
      "USes": "{{anim id=\"1\"}}¡Hoy se podría decir que tengo\nun aspecto muy {{fun_00230005 arg=\"0x00CD\"}}!{{pageBreak}}{{anim id=\"23\"}}¿Pero qué quiere decir\n\"{{fun_00230005 arg=\"0x00CD\"}}\" exactamente?\n¿Es alternativo a qué?\n{{anim id=\"1\"}}A lo mejor debería preguntarle a\nalgún enteradillo de la moda antes\nde arriesgarme a ponerme nada{{delay frames=\"8\"}}.{{delay frames=\"8\"}}.{{delay frames=\"8\"}}.{{delay frames=\"20\"}}",
      "USfr": "{{anim id=\"1\"}}Paraît que le look que j'ai adopté\naujourd'hui est ce qu'on appelle un\nlook {{fun_00230005 arg=\"0x00CD\"}}!{{pageBreak}}{{anim id=\"23\"}}Mais ça veut dire quoi au juste,\nun look {{fun_00230005 arg=\"0x00CD\"}}?{{pageBreak}}{{anim id=\"2\"}}C'est par opposition à des fringues\ninvisibles, ou quoi?"
    }
  },
  {
    "label": "009",
    "locale": {
      "EUde": "{{anim id=\"23\"}}Diese Klamotten sind Weltklasse,\n{{delay frames=\"8\"}}oder? {{delay frames=\"40\"}}{{anim id=\"1\"}}Ich hab 'ne Schwäche für\n{{fun_00230005 arg=\"0x00CD\"}}e Sachen!",
      "EUen": "{{anim id=\"23\"}}These clothes are pretty awesome,\nhuh? {{delay frames=\"40\"}}{{anim id=\"1\"}}I really like clothes that have\n{{fun_0002000E arg=\"\"}}{{fun_00230005 arg=\"0x00CD\"}} look!",
      "EUes": "{{anim id=\"23\"}}Esta ropa se sale, ¿a que sí?{{delay frames=\"40\"}}\n{{anim id=\"1\"}}¡Me encanta llevar cosas que\ntengan aspecto {{fun_00230005 arg=\"0x00CD\"}}!",
      "EUfr": "{{anim id=\"23\"}}Qu'est-ce que tu dis de mon look ?\nÇa me va bien ? {{pageBreak}}{{anim id=\"1\"}}J'ai toujours voulu me donner un\ncôté plus {{fun_00230005 arg=\"0x00CD\"}} !",
      "EUit": "{{anim id=\"23\"}}Sono vestito in modo strabiliante,\nvero? {{delay frames=\"40\"}}{{anim id=\"1\"}}Questo stile {{fun_00230005 arg=\"0x00CD\"}}\nsta benissimo con i miei muscoli!",
      "JPja": "{{anim id=\"23\"}}この{{ruby charSpan=\"1\" value=\"ふく\"}}服　いいだろー？{{delay frames=\"40\"}}\n{{anim id=\"1\"}}{{fun_00230005 arg=\"0x00CD\"}}な　{{ruby charSpan=\"1\" value=\"かん\"}}感じが\nオイラ{{ruby charSpan=\"1\" value=\"ごの\"}}好みなんだ、{{delay frames=\"8\"}}{{fun_00070005 arg=\"\"}}",
      "KRko": "{{anim id=\"23\"}}니가 보기엔 이 옷 어때ー?{{delay frames=\"40\"}}\n{{anim id=\"1\"}}{{fun_00230005 arg=\"0x00CD\"}} 느낌이 나한테\n딱이지 않아, {{delay frames=\"8\"}}{{fun_00070005 arg=\"\"}}?",
      "USen": "{{anim id=\"23\"}}These clothes are pretty awesome,\nhuh? {{delay frames=\"40\"}}{{anim id=\"1\"}}I really like clothes that have\n{{fun_0002000E arg=\"\"}}{{fun_00230005 arg=\"0x00CD\"}} look!",
      "USes": "{{anim id=\"23\"}}Esta ropa se sale, ¿a que sí?{{delay frames=\"40\"}}\n{{anim id=\"1\"}}¡Me encanta llevar cosas que\ntengan aspecto {{fun_00230005 arg=\"0x00CD\"}}!",
      "USfr": "{{anim id=\"23\"}}Qu'est-ce que tu dis de mon look?\nÇa me va bien? {{pageBreak}}{{anim id=\"1\"}}J'ai toujours voulu me donner un\ncôté plus {{fun_00230005 arg=\"0x00CD\"}}!"
    }
  },
  {
    "label": "010",
    "locale": {
      "EUde": "{{anim id=\"44\"}}Schau mal, {{fun_0006000E arg=\"0x1800530070006F0072007400730066007200650075006E0064001C00530070006F0072007400730066007200650075006E00640069006E00\"}}!{{delay frames=\"40\"}} Ich trage\nheute {{fun_00230005 arg=\"0x00CD\"}}e Klamotten!{{pageBreak}}{{anim id=\"32\"}}Das Tolle an diesen Sachen ist,{{delay frames=\"8\"}}\ndass sie alt aussehen!{{delay frames=\"40\"}} {{anim id=\"23\"}}So was\nist doch toll, {{delay frames=\"8\"}}oder?",
      "EUen": "{{anim id=\"44\"}}Take a look! I'm wearing the\n{{fun_00230005 arg=\"0x00CD\"}} look today!{{pageBreak}}{{anim id=\"32\"}}The point is that these clothes look\nold!{{delay frames=\"40\"}}{{anim id=\"21\"}} Yep! That's the point!",
      "EUes": "{{anim id=\"44\"}}¡Mira cómo voy! ¡Llevo ropa\n{{fun_00230005 arg=\"0x00CD\"}}!{{pageBreak}}{{anim id=\"32\"}}¡Sí, ya sé que parece que llevo\ntrapos antiguos!{{delay frames=\"40\"}}{{anim id=\"21\"}} ¡Pero es que\nla idea es precisamente esa!",
      "EUfr": "{{anim id=\"44\"}}Mate-moi ça ! Je suis passé en\nmode « passé de mode » !{{pageBreak}}{{anim id=\"32\"}}Hé hé, c'est le but recherché !{{delay frames=\"40\"}}{{anim id=\"21\"}} Le\n{{fun_00230005 arg=\"0x00CD\"}}, c'est l'avenir !",
      "EUit": "{{anim id=\"44\"}}Guarda qua! Oggi mi sono vestito\nin stile {{fun_00230005 arg=\"0x00CD\"}}!{{pageBreak}}{{anim id=\"32\"}}In questi casi, è importante\nche i vestiti sembrino vecchi.{{delay frames=\"40\"}}\n{{anim id=\"21\"}}Parlo proprio come un esperto!",
      "JPja": "{{anim id=\"44\"}}{{ruby charSpan=\"1\" value=\"み\"}}見てくれよー{{delay frames=\"20\"}}\nオイラの　{{fun_00230005 arg=\"0x00CD\"}}な\n{{ruby charSpan=\"2\" value=\"きょう\"}}今日の{{ruby charSpan=\"1\" value=\"ふく\"}}服ー！{{pageBreak}}{{anim id=\"32\"}}あえて　{{ruby charSpan=\"1\" value=\"ふる\"}}古いってのが\nポイントだぞー！{{delay frames=\"40\"}}\n{{anim id=\"21\"}}あえて、{{delay frames=\"20\"}}な！",
      "KRko": "{{anim id=\"44\"}}짜잔ー!{{delay frames=\"20\"}}\n오늘의 패션 콘셉트는\n{{fun_00230005 arg=\"0x00CD\"}} 보이ー!{{pageBreak}}{{anim id=\"32\"}}소년의 마음을 가졌지만\n옷에서는 세월을 느낄 수 있지!{{delay frames=\"40\"}}\n{{anim id=\"21\"}}내가 생각해도{{delay frames=\"20\"}} 참 심오해!",
      "USen": "{{anim id=\"44\"}}Take a look! I'm wearing the\n{{fun_00230005 arg=\"0x00CD\"}} look today!{{pageBreak}}{{anim id=\"32\"}}The point is that these clothes look\nold!{{delay frames=\"40\"}}{{anim id=\"21\"}} Yep! That's the point!",
      "USes": "{{anim id=\"44\"}}¡Mira cómo voy! ¡Llevo ropa\n{{fun_00230005 arg=\"0x00CD\"}}!{{pageBreak}}{{anim id=\"32\"}}¡Sí, ya sé que parece que llevo\ntrapos antiguos!{{delay frames=\"40\"}}{{anim id=\"21\"}} ¡Pero es que\nla idea es precisamente esa!",
      "USfr": "{{anim id=\"44\"}}Mate-moi ça! Je suis passé en\nmode « passé de mode »!{{pageBreak}}{{anim id=\"32\"}}Hé hé, c'est le but recherché!{{delay frames=\"40\"}}{{anim id=\"21\"}} Le\n{{fun_00230005 arg=\"0x00CD\"}}, c'est l'avenir!"
    }
  },
  {
    "label": "011",
    "locale": {
      "EUde": "{{anim id=\"33\"}}Ta{{delay frames=\"8\"}}daaaa! {{delay frames=\"40\"}}Schau dir mal meine\n{{fun_00230005 arg=\"0x00CD\"}}en Klamotten an,\n{{delay frames=\"8\"}}{{fun_0006000E arg=\"0x1800530070006F0072007400730066007200650075006E0064001C00530070006F0072007400730066007200650075006E00640069006E00\"}}!\n{{anim id=\"23\"}}Aber was zur Hantel soll\n„{{fun_00230005 arg=\"0x00CD\"}}“ bedeuten?!{{pageBreak}}{{anim id=\"9\"}}Diese Mode-Fachbegriffe machen\nmich manchmal echt fertig!!",
      "EUen": "{{anim id=\"33\"}}Tadaaaa! Check out these spiffy\n{{fun_00230005 arg=\"0x00CD\"}} duds, {{fun_0006000E arg=\"0x0600620072006F000E006C00610064007900620072006F00\"}}!{{pageBreak}}But what does \"{{fun_00230005 arg=\"0x00CD\"}}\"\nreally mean?{{delay frames=\"40\"}}{{anim id=\"9\"}} I'm starting to wonder\nif I have any fashion sense{{delay frames=\"8\"}}.{{delay frames=\"8\"}}.{{delay frames=\"8\"}}.{{delay frames=\"20\"}}",
      "EUes": "{{anim id=\"33\"}}¡Tacháaan! ¡Fíjate en el aspecto\n{{fun_00230005 arg=\"0x00CD\"}} que llevo, tron!{{pageBreak}}¿Pero qué quiere decir eso de\n\"{{fun_00230005 arg=\"0x00CD\"}}\"?{{delay frames=\"40\"}}{{anim id=\"9\"}} Me pregunto\nsi tengo buen gusto para vestir{{delay frames=\"8\"}}.{{delay frames=\"8\"}}.{{delay frames=\"8\"}}.{{delay frames=\"20\"}}",
      "EUfr": "{{anim id=\"33\"}}Ta-dam ! Mate-moi ce look\n{{fun_00230005 arg=\"0x00CD\"}}, {{fun_0006000E arg=\"0x1400700065007400690074002000670061007200730012006D00610020006700720061006E0064006500\"}} !{{pageBreak}}Il me plaît beaucoup, {{delay frames=\"8\"}}{{anim id=\"9\"}}mais j'ai\ntoujours peur de déchirer mes\nfringues si je fais pas attention{{delay frames=\"8\"}}.{{delay frames=\"8\"}}.{{delay frames=\"8\"}}.{{delay frames=\"20\"}}",
      "EUit": "{{anim id=\"33\"}}Tadaaaaa! Hai mai visto uno stile\npiù {{fun_00230005 arg=\"0x00CD\"}} di questo?{{pageBreak}}Sai mica cosa vuole dire\n\"{{fun_00230005 arg=\"0x00CD\"}}\"?{{delay frames=\"40\"}}{{anim id=\"9\"}} Dovrei\ncomprare un dizionario della moda{{delay frames=\"8\"}}.{{delay frames=\"8\"}}.{{delay frames=\"8\"}}.{{delay frames=\"20\"}}",
      "JPja": "{{anim id=\"33\"}}じゃじゃ～ん！{{delay frames=\"20\"}}\n{{ruby charSpan=\"2\" value=\"きょう\"}}今日のオイラの{{ruby charSpan=\"1\" value=\"ふく\"}}服　{{ruby charSpan=\"1\" value=\"み\"}}見てくれ！{{delay frames=\"40\"}}\n{{fun_00230005 arg=\"0x00CD\"}}だろー？{{pageBreak}}{{fun_00230005 arg=\"0x00CD\"}}な{{ruby charSpan=\"1\" value=\"ふく\"}}服を\n{{ruby charSpan=\"1\" value=\"み\"}}見てほしい{{delay frames=\"8\"}}・{{delay frames=\"8\"}}・{{delay frames=\"8\"}}・{{delay frames=\"40\"}}\n{{anim id=\"9\"}}フクザツな　{{ruby charSpan=\"2\" value=\"きぶん\"}}気分なんだよ、{{delay frames=\"8\"}}{{fun_00070005 arg=\"\"}}",
      "KRko": "{{anim id=\"33\"}}빰빠라빰～!{{delay frames=\"20\"}}\n오늘의 패션 콘셉트 발표!{{delay frames=\"40\"}}\n나는야 {{fun_00230005 arg=\"0x00CD\"}} 사나이ー!{{pageBreak}}심플하고{{delay frames=\"8\"}} 단순하고{{delay frames=\"8\"}}\n평범하고{{delay frames=\"8\"}} 밋밋{{delay frames=\"8\"}}・{{delay frames=\"8\"}}・{{delay frames=\"8\"}}・{{delay frames=\"40\"}}\n{{anim id=\"9\"}}어라?{{delay frames=\"8\"}} 이게 아닌데? {{delay frames=\"8\"}}{{fun_00070005 arg=\"\"}}?",
      "USen": "{{anim id=\"33\"}}Tadaaaa! Check out these spiffy\n{{fun_00230005 arg=\"0x00CD\"}} duds, {{fun_0006000E arg=\"0x0600620072006F000E006C00610064007900620072006F00\"}}!{{pageBreak}}But what does \"{{fun_00230005 arg=\"0x00CD\"}}\"\nreally mean?{{delay frames=\"40\"}}{{anim id=\"9\"}} I'm starting to wonder\nif I have any fashion sense{{delay frames=\"8\"}}.{{delay frames=\"8\"}}.{{delay frames=\"8\"}}.{{delay frames=\"20\"}}",
      "USes": "{{anim id=\"33\"}}¡Tacháaan! ¡Fíjate en el aspecto\n{{fun_00230005 arg=\"0x00CD\"}} que llevo, tron!{{pageBreak}}¿Pero qué quiere decir eso de\n\"{{fun_00230005 arg=\"0x00CD\"}}\"?{{delay frames=\"40\"}}{{anim id=\"9\"}} Me pregunto\nsi tengo buen gusto para vestir{{delay frames=\"8\"}}.{{delay frames=\"8\"}}.{{delay frames=\"8\"}}.{{delay frames=\"20\"}}",
      "USfr": "{{anim id=\"33\"}}Ta-dam! Mate-moi ce look\n{{fun_00230005 arg=\"0x00CD\"}}, {{fun_0006000E arg=\"0x1400700065007400690074002000670061007200730012006D00610020006700720061006E0064006500\"}}!{{pageBreak}}Il me plaît beaucoup, {{delay frames=\"8\"}}{{anim id=\"9\"}}mais j'ai\ntoujours peur de déchirer mes\nfringues si je fais pas attention{{delay frames=\"8\"}}.{{delay frames=\"8\"}}.{{delay frames=\"8\"}}.{{delay frames=\"20\"}}"
    }
  },
  {
    "label": "012",
    "locale": {
      "EUde": "{{anim id=\"1\"}}Ich mag dieses Design von dir!\n{{delay frames=\"40\"}}Wenn die Leute deine Sachen an mir\nsehen, {{delay frames=\"8\"}}werden die bestimmt der Hit!{{pageBreak}}{{anim id=\"21\"}}Danke für die tollen Klamotten!\n{{delay frames=\"40\"}}{{anim id=\"5\"}}Ich lauf jetzt ein bisschen durch\ndie Stadt damit, {{delay frames=\"8\"}}{{fun_00070005 arg=\"\"}}!",
      "EUen": "{{anim id=\"1\"}}I really like this style you designed!\nWhen peeps see me wearing it, I bet\nit'll become all the rage!{{pageBreak}}{{anim id=\"21\"}}Yeah! Thanks for coming up with\nthis stuff! {{delay frames=\"40\"}}{{anim id=\"5\"}}I'll walk around town and\nshow it off, {{delay frames=\"8\"}}{{fun_00070005 arg=\"\"}}!",
      "EUes": "{{anim id=\"1\"}}¡Me gusta mucho este estilo que\nhas creado! Cuando la peña\nme vea con esto, ¡va a fliparlo!\n{{anim id=\"21\"}}¡Sí! ¡Gracias por crearlo!{{delay frames=\"40\"}}\n{{anim id=\"5\"}}¡Ahora puedo ir por el pueblo \nenseñándoselo a todo el mundo!",
      "EUfr": "{{anim id=\"1\"}}J'adore ce look ! Quand les autres\nvont me voir, ils vont rager !{{pageBreak}}{{anim id=\"21\"}}C'est sûr et certain ! {{delay frames=\"40\"}}{{anim id=\"5\"}}J'ai trop hâte\nde montrer ça à tout le monde,\n{{delay frames=\"8\"}}{{fun_00070005 arg=\"\"}} !",
      "EUit": "{{anim id=\"1\"}}Mi piace questo stile che hai\ncreato! Con me come modello,\ndiventerà richiestissimo!{{pageBreak}}{{anim id=\"21\"}}Sei stat{{fun_0006000E arg=\"0x02006F0002006100\"}} geniale!{{delay frames=\"40\"}}\n{{anim id=\"5\"}}Ora vado a mettere in mostra\nmuscoli e stile, {{delay frames=\"8\"}}{{fun_00070005 arg=\"\"}}!",
      "JPja": "{{anim id=\"1\"}}オマエがデザインした　この{{ruby charSpan=\"1\" value=\"ふく\"}}服、\nオイラ{{ruby charSpan=\"1\" value=\"き\"}}気に{{ruby charSpan=\"1\" value=\"い\"}}入ったよ{{delay frames=\"40\"}}\nはやるといいな{{pageBreak}}{{anim id=\"21\"}}よーっし！{{delay frames=\"20\"}}\nここは　{{ruby charSpan=\"2\" value=\"ともだち\"}}友達のオマエのためだ！{{pageBreak}}{{anim id=\"5\"}}たくさん　{{ruby charSpan=\"1\" value=\"ある\"}}歩き{{ruby charSpan=\"1\" value=\"まわ\"}}回って\nアピールしてやるよー！　{{delay frames=\"8\"}}{{fun_00070005 arg=\"\"}}！",
      "KRko": "{{anim id=\"1\"}}니가 디자인한 이 옷 말이야,\n나 아주아주 마음에 들어!{{delay frames=\"40\"}}\n마을에서 유행하면 좋겠다!{{pageBreak}}{{anim id=\"21\"}}좋아ー!{{delay frames=\"20\"}}\n친구를 위해 내가 발 벗고\n나설 차례로군!{{pageBreak}}{{anim id=\"5\"}}여기저기 동네방네 입고 다니면서\n내가 마구 홍보해주마ー!\n{{delay frames=\"8\"}}{{fun_00070005 arg=\"\"}}!",
      "USen": "{{anim id=\"1\"}}I really like this style you designed!\nWhen peeps see me wearing it, I bet\nit'll become all the rage!{{pageBreak}}{{anim id=\"21\"}}Yeah! Thanks for coming up with\nthis stuff! {{delay frames=\"40\"}}{{anim id=\"5\"}}I'll walk around town and\nshow it off, {{delay frames=\"8\"}}{{fun_00070005 arg=\"\"}}!",
      "USes": "{{anim id=\"1\"}}¡Me gusta mucho este estilo que\nhas creado! Cuando la peña\nme vea con esto, ¡va a fliparlo!\n{{anim id=\"21\"}}¡Sí! ¡Gracias por crearlo!{{delay frames=\"40\"}}\n{{anim id=\"5\"}}¡Ahora puedo ir por el pueblo \nenseñándoselo a todo el mundo!",
      "USfr": "{{anim id=\"1\"}}J'adore ce look! Quand les autres\nvont me voir, ils vont rager!{{pageBreak}}{{anim id=\"21\"}}C'est sûr et certain! {{delay frames=\"40\"}}{{anim id=\"5\"}}J'ai trop hâte\nde montrer ça à tout le monde,\n{{delay frames=\"8\"}}{{fun_00070005 arg=\"\"}}!"
    }
  },
  {
    "label": "013",
    "locale": {
      "EUde": "{{fun_0003000E arg=\"\"}}{{fun_00000011 arg=\"0x0000\"}} hat diese Klamotten\nwohl entworfen!{{pageBreak}}{{fun_0008000E arg=\"0x00CD0400450072000600530069006500040045007300\"}} ist {{fun_0008000E arg=\"0x00CD2E00650069006E00200063006F006F006C00650072002000530070006F0072007400730066007200650075006E006400300027006E006500200063006F006F006C0065002000530070006F0072007400730066007200650075006E00640069006E002E00650069006E00200063006F006F006C00650072002000530070006F0072007400730066007200650075006E006400\"}},\n{{delay frames=\"8\"}}was? {{delay frames=\"40\"}}{{anim id=\"38\"}}Ob du DEN Weltklasse-Look\nüberbieten kannst, {{delay frames=\"8\"}}{{fun_00080005 arg=\"\"}}?{{delay frames=\"40\"}}{{anim id=\"37\"}}",
      "EUen": "Apparently {{fun_00000011 arg=\"0x0000\"}} designed\nthese clothes!{{pageBreak}}{{fun_0008000E arg=\"0x00CD080048006500270073000A00530068006500270073000000\"}} pretty cool! {{delay frames=\"40\"}}{{anim id=\"2\"}}Are you gonna\nlet {{fun_0008000E arg=\"0x00CD0600680069006D0006006800650072000000\"}} outdo you, {{fun_00080005 arg=\"\"}}?!{{delay frames=\"40\"}}{{anim id=\"37\"}}",
      "EUes": "¡Al parecer {{fun_00000011 arg=\"0x0000\"}} ha\ndiseñado esta ropa!{{pageBreak}}¡Sí que sabe! ¡¿Vas a dejar que\n{{fun_0008000E arg=\"0x00CD0400E9006C00080065006C006C0061000000\"}} mole más que tú, {{fun_00080005 arg=\"\"}}?!{{delay frames=\"40\"}}{{anim id=\"37\"}}",
      "EUfr": "Paraît que les fringues que je porte\nont été créées par {{fun_00000011 arg=\"0x0000\"}} !{{pageBreak}}{{fun_0008000E arg=\"0x00CD040049006C00080045006C006C0065000000\"}} a de sacrés talents de styliste !\n{{delay frames=\"40\"}}{{anim id=\"2\"}}Ça te donne pas envie de {{fun_0008000E arg=\"0x00CD04006C00650004006C0061000000\"}}\nsurpasser, {{fun_00080005 arg=\"\"}} ?!{{delay frames=\"40\"}}{{anim id=\"37\"}}",
      "EUit": "È stat{{fun_0012000E arg=\"0x0D0002006F00020061000000\"}} {{fun_00000011 arg=\"0x0000\"}} a creare\nquesto stile!{{pageBreak}}Niente male, eh? {{delay frames=\"40\"}}{{anim id=\"2\"}}Secondo me\nè più brav{{fun_0012000E arg=\"0x0D0002006F00020061000000\"}} di te... Tu che ne dici,\n{{fun_00080005 arg=\"\"}}?{{delay frames=\"40\"}}{{anim id=\"37\"}}",
      "JPja": "この{{ruby charSpan=\"1\" value=\"ふく\"}}服、{{fun_00000011 arg=\"0x0000\"}}が\nデザインしたらしいぞー！{{delay frames=\"40\"}}\nなかなか　{{ruby charSpan=\"3\" value=\"きごこち\"}}着心地がいいんだ！{{pageBreak}}{{anim id=\"2\"}}オマエも　{{ruby charSpan=\"1\" value=\"ま\"}}負けてられないな！{{delay frames=\"20\"}}\n{{fun_00080005 arg=\"\"}}！{{delay frames=\"40\"}}{{anim id=\"37\"}}",
      "KRko": "이 옷은 {{fun_00000011 arg=\"0x0000\"}}{{fun_000E000E arg=\"0x020074C7020000AC\"}}\n디자인한 작품이래ー!{{delay frames=\"40\"}}\n착용감도 꽤 괜찮은 편이야!{{pageBreak}}{{anim id=\"2\"}}이대로 지고만 있을 거냐?{{delay frames=\"20\"}}\n{{fun_00080005 arg=\"\"}}{{fun_000E000E arg=\"0x020044C502007CC5\"}}!{{delay frames=\"8\"}}\n너도 어서 끝내주는 작품을 하나 만들어!{{delay frames=\"40\"}}{{anim id=\"37\"}}",
      "USen": "Apparently {{fun_00000011 arg=\"0x0000\"}} designed\nthese clothes!{{pageBreak}}{{fun_0008000E arg=\"0x00CD080048006500270073000A00530068006500270073000000\"}} pretty cool! {{delay frames=\"40\"}}{{anim id=\"2\"}}Are you gonna\nlet {{fun_0008000E arg=\"0x00CD0600680069006D0006006800650072000000\"}} outdo you, {{fun_00080005 arg=\"\"}}?!{{delay frames=\"40\"}}{{anim id=\"37\"}}",
      "USes": "¡Al parecer {{fun_00000011 arg=\"0x0000\"}} ha\ndiseñado esta ropa!{{pageBreak}}¡Sí que sabe! ¡¿Vas a dejar que\n{{fun_0008000E arg=\"0x00CD0400E9006C00080065006C006C0061000000\"}} mole más que tú, {{fun_00080005 arg=\"\"}}?!{{delay frames=\"40\"}}{{anim id=\"37\"}}",
      "USfr": "Paraît que les fringues que je porte\nont été créées par {{fun_00000011 arg=\"0x0000\"}}!{{pageBreak}}{{fun_0008000E arg=\"0x00CD040049006C00080045006C006C0065000000\"}} a de sacrés talents de styliste!\n{{delay frames=\"40\"}}{{anim id=\"2\"}}Ça te donne pas envie de {{fun_0008000E arg=\"0x00CD04006C00650004006C0061000000\"}}\nsurpasser, {{fun_00080005 arg=\"\"}}?!{{delay frames=\"40\"}}{{anim id=\"37\"}}"
    }
  },
  {
    "label": "014",
    "locale": {
      "EUde": "{{anim id=\"33\"}}Sieh dir mal meine Klamotten an!{{pageBreak}}{{fun_0003000E arg=\"\"}}{{fun_00000011 arg=\"0x0000\"}} aus {{fun_00020011 arg=\"0x0000\"}} hat sie\nfür mich entworfen!{{pageBreak}}{{anim id=\"29\"}}Echt klasse, oder?{{delay frames=\"40\"}} {{anim id=\"35\"}}So was Tolles\nkriegt nur ein absolutes Mode-Ass\nhin, {{delay frames=\"8\"}}{{fun_00070005 arg=\"\"}}!",
      "EUen": "{{anim id=\"33\"}}Take a look at my clothes!{{pageBreak}}I hear that {{fun_00000011 arg=\"0x0000\"}} from\n{{fun_00020011 arg=\"0x0000\"}} designed these clothes!{{pageBreak}}{{anim id=\"23\"}}Could be a famous designer!{{fun_00010007 arg=\"\"}}\n{{anim id=\"35\"}}This is not the work of a mere\nmortal, {{delay frames=\"8\"}}{{fun_00070005 arg=\"\"}}!",
      "EUes": "{{anim id=\"33\"}}¡Échale un vistazo a lo que llevo!{{pageBreak}}¡He oído que {{fun_00000011 arg=\"0x0000\"}} de\n{{fun_0003000E arg=\"\"}}{{fun_00020011 arg=\"0x0000\"}} diseñó esta ropa!{{pageBreak}}{{anim id=\"23\"}}¿Será alguien de renombre?{{fun_00010007 arg=\"\"}} {{anim id=\"35\"}}¡Porque\neste no es el trabajo que haría una\npersona corriente, {{delay frames=\"8\"}}{{fun_00070005 arg=\"\"}}!",
      "EUfr": "{{anim id=\"33\"}}Jette un œil à ces fringues !{{pageBreak}}Paraît qu'elles ont été créées par\n{{fun_00000011 arg=\"0x0000\"}}, {{fun_0012000E arg=\"0x0D000E0064006F0063007400650075007200140064006F00630074006F00720065007300730065000000\"}} ès sapologie\nde l'université {{fun_000A000E arg=\"0x0600640065002000040064002700\"}}{{fun_00020011 arg=\"0x0000\"}} !{{pageBreak}}{{anim id=\"11\"}}{{fun_0012000E arg=\"0x0D00040049006C00080045006C006C0065000000\"}} doit être vachement célèbre...\n{{fun_00010007 arg=\"\"}}{{anim id=\"35\"}}Une création comme ça, c'est du\ntravail de pro, {{delay frames=\"8\"}}{{fun_00070005 arg=\"\"}} !",
      "EUit": "{{anim id=\"33\"}}Hai visto come sono vestito?{{pageBreak}}{{fun_0003000E arg=\"\"}}{{fun_00000011 arg=\"0x0000\"}} della città\ndi {{fun_00020011 arg=\"0x0000\"}} ha disegnato\nquesti vestiti!\n{{anim id=\"23\"}}Credo che sia {{fun_0012000E arg=\"0x0D00040075006E00060075006E0061000000\"}} grande stilista!{{fun_00010007 arg=\"\"}}\n{{anim id=\"35\"}}Riconosco il talento quando\nlo vedo, {{delay frames=\"8\"}}{{fun_00070005 arg=\"\"}}!",
      "JPja": "{{anim id=\"33\"}}{{ruby charSpan=\"1\" value=\"み\"}}見ろよ　オイラの{{ruby charSpan=\"1\" value=\"ふく\"}}服！{{pageBreak}}{{fun_00020011 arg=\"0x0000\"}}{{ruby charSpan=\"1\" value=\"むら\"}}村の\n{{fun_00000011 arg=\"0x0000\"}}ってヤツが、{{delay frames=\"20\"}}\nこの{{ruby charSpan=\"1\" value=\"ふく\"}}服を　デザインしたらしい！{{pageBreak}}{{anim id=\"23\"}}{{ruby charSpan=\"2\" value=\"ゆうめい\"}}有名な　デザイナーかー？{{fun_00010007 arg=\"\"}}\n{{anim id=\"35\"}}この　ほとばしるセンス！{{delay frames=\"20\"}}\nタダ{{ruby charSpan=\"1\" value=\"もの\"}}者じゃないぞ、{{delay frames=\"8\"}}{{fun_00070005 arg=\"\"}}",
      "KRko": "{{anim id=\"33\"}}내 옷 봐라!{{pageBreak}}{{fun_00020011 arg=\"0x0000\"}} 마을의\n{{fun_00000011 arg=\"0x0000\"}}{{fun_000E000E arg=\"0x020074C70000\"}}란 녀석이{{delay frames=\"40\"}}\n내가 입은 이 옷을 디자인했대!{{pageBreak}}{{anim id=\"23\"}}그 녀석, 유명한 디자이너인가?{{fun_00010007 arg=\"\"}}\n{{anim id=\"35\"}}실오라기마다 센스가 넘치는 걸 봐선{{delay frames=\"20\"}}\n분명 보통 녀석은 아닐 거야! {{delay frames=\"8\"}}{{fun_00070005 arg=\"\"}}!",
      "USen": "{{anim id=\"33\"}}Take a look at my clothes!{{pageBreak}}I hear that {{fun_00000011 arg=\"0x0000\"}} from\n{{fun_00020011 arg=\"0x0000\"}} designed these clothes!{{pageBreak}}{{anim id=\"23\"}}Could be a famous designer!{{fun_00010007 arg=\"\"}}\n{{anim id=\"35\"}}This is not the work of a mere\nmortal, {{delay frames=\"8\"}}{{fun_00070005 arg=\"\"}}!",
      "USes": "{{anim id=\"33\"}}¡Échale un vistazo a lo que llevo!{{pageBreak}}¡He oído que {{fun_00000011 arg=\"0x0000\"}} de\n{{fun_0003000E arg=\"\"}}{{fun_00020011 arg=\"0x0000\"}} diseñó esta ropa!{{pageBreak}}{{anim id=\"23\"}}¿Será alguien de renombre?{{fun_00010007 arg=\"\"}} {{anim id=\"35\"}}¡Porque\neste no es el trabajo que haría una\npersona corriente, {{delay frames=\"8\"}}{{fun_00070005 arg=\"\"}}!",
      "USfr": "{{anim id=\"33\"}}Jette un œil à ces fringues!{{pageBreak}}Paraît qu'elles ont été créées par\n{{fun_00000011 arg=\"0x0000\"}}, {{fun_0012000E arg=\"0x0D000E0064006F0063007400650075007200140064006F00630074006F00720065007300730065000000\"}} ès sapologie\nde l'université {{fun_000A000E arg=\"0x0600640065002000040064002700\"}}{{fun_00020011 arg=\"0x0000\"}}!{{pageBreak}}{{anim id=\"11\"}}{{fun_0012000E arg=\"0x0D00040049006C00080045006C006C0065000000\"}} doit être vachement célèbre...\n{{fun_00010007 arg=\"\"}}{{anim id=\"35\"}}Une création comme ça, c'est du\ntravail de pro, {{delay frames=\"8\"}}{{fun_00070005 arg=\"\"}}!"
    }
  },
  {
    "label": "015",
    "locale": {
      "EUde": "",
      "EUen": "",
      "EUes": "",
      "EUfr": "",
      "EUit": "",
      "JPja": "",
      "KRko": "",
      "USen": "",
      "USes": "",
      "USfr": ""
    }
  },
  {
    "label": "016",
    "locale": {
      "EUde": "",
      "EUen": "",
      "EUes": "",
      "EUfr": "",
      "EUit": "",
      "JPja": "",
      "KRko": "",
      "USen": "",
      "USes": "",
      "USfr": ""
    }
  },
  {
    "label": "017",
    "locale": {
      "EUde": "",
      "EUen": "",
      "EUes": "",
      "EUfr": "",
      "EUit": "",
      "JPja": "",
      "KRko": "",
      "USen": "",
      "USes": "",
      "USfr": ""
    }
  },
  {
    "label": "018",
    "locale": {
      "EUde": "",
      "EUen": "",
      "EUes": "",
      "EUfr": "",
      "EUit": "",
      "JPja": "",
      "KRko": "",
      "USen": "",
      "USes": "",
      "USfr": ""
    }
  },
  {
    "label": "019",
    "locale": {
      "EUde": "",
      "EUen": "",
      "EUes": "",
      "EUfr": "",
      "EUit": "",
      "JPja": "",
      "KRko": "",
      "USen": "",
      "USes": "",
      "USfr": ""
    }
  }
]