﻿[
  {
    "label": "001",
    "locale": {
      "EUde": "{{anim id=\"11\"}}Es gelten echt keine Verordnungen\nin dieser Stadt?!{{pageBreak}}{{anim id=\"6\"}}Du weißt aber schon, {{delay frames=\"8\"}}dass du als\n{{fun_0006000E arg=\"0x1A004200FC0072006700650072006D006500690073007400650072001E004200FC0072006700650072006D0065006900730074006500720069006E00\"}} Gesetze machen\nkannst, {{delay frames=\"8\"}}oder?",
      "EUen": "{{anim id=\"11\"}}So you don't have any ordinances \nset up in this town? Huh.{{pageBreak}}{{anim id=\"6\"}}As a mayor, you can just go ahead\nand make some laws, you know.",
      "EUes": "{{anim id=\"11\"}}Así que no has impuesto ninguna\nordenanza en este pueblo, ¿eh?{{pageBreak}}{{anim id=\"6\"}}Sabes que como alcald{{fun_0006000E arg=\"0x020065000600650073006100\"}} tienes\ntodo el derecho del mundo a legislar\ny hacer valer tu autoridad, ¿no?",
      "EUfr": "{{anim id=\"11\"}}Alors comme ça, la vie en ville n'est\nrégie par aucun arrêté municipal...{{pageBreak}}{{anim id=\"6\"}}Qu'est-ce que t'attends ?! En tant\nque maire, c'est à toi de t'occuper\nde ces choses-là !",
      "EUit": "{{anim id=\"11\"}}Non ci sono ordinanze\nin questa città, giusto?{{pageBreak}}{{anim id=\"6\"}}Di solito i sindaci fanno leggi...\nPotresti scriverne un paio,\ngiusto per far qualcosa...",
      "JPja": "{{anim id=\"11\"}}そういえば　この{{ruby charSpan=\"1\" value=\"むら\"}}村って\n{{ruby charSpan=\"2\" value=\"じょうれい\"}}条例とかないよなー？{{pageBreak}}{{anim id=\"6\"}}オマエ　{{ruby charSpan=\"2\" value=\"そんちょう\"}}村長として{{delay frames=\"20\"}}\nガツンと　{{ruby charSpan=\"1\" value=\"き\"}}決めてくれてもいいんだぞ？",
      "KRko": "{{anim id=\"11\"}}그러고 보니 우리 마을에는\n조례가 없지ー?{{pageBreak}}{{anim id=\"6\"}}니가 촌장으로서 모두를 대표해{{delay frames=\"20\"}}\n과감하게 정해 버리는 건 어때?",
      "USen": "{{anim id=\"11\"}}So you don't have any ordinances \nset up in this town? Huh.{{pageBreak}}{{anim id=\"6\"}}As a mayor, you can just go ahead\nand make some laws, you know.",
      "USes": "{{anim id=\"11\"}}Así que no has impuesto ninguna\nordenanza en este pueblo, ¿eh?{{pageBreak}}{{anim id=\"6\"}}Sabes que como alcald{{fun_0006000E arg=\"0x020065000600650073006100\"}} tienes\ntodo el derecho del mundo a legislar\ny hacer valer tu autoridad, ¿no?",
      "USfr": "{{anim id=\"11\"}}Alors comme ça, la vie en ville n'est\nrégie par aucun arrêté municipal...{{pageBreak}}{{anim id=\"6\"}}Qu'est-ce que t'attends?! En tant\nque maire, c'est à toi de t'occuper\nde ces choses-là!"
    }
  },
  {
    "label": "002",
    "locale": {
      "EUde": "Warum hat diese Stadt denn gar\nkeine Verordnungen?{{pageBreak}}{{anim id=\"35\"}}Wenn ich hier Bürgermeister wäre,\n{{delay frames=\"8\"}}würde ich mit 'ner Guten-Morgen-\nLaufpflicht anfangen!\n{{anim id=\"1\"}}An die Verordnung würdest du dich\ndoch halten, {{delay frames=\"8\"}}oder? {{delay frames=\"40\"}}{{anim id=\"13\"}}Oder?!",
      "EUen": "Hey, why aren't there any\nordinances set up in this town?{{pageBreak}}{{anim id=\"35\"}}If I were mayor, I'd enact a law that\nmade morning runs mandatory!{{pageBreak}}{{anim id=\"2\"}}If I made an ordinance like that, you\nwould obey it, right? Right?!{{delay frames=\"40\"}}{{anim id=\"37\"}}",
      "EUes": "Oye, ¿cómo es que no hay\nordenanzas en este pueblo?{{pageBreak}}{{anim id=\"35\"}}Si yo fuera alcalde, ¡impondría\nuna ley que hiciera obligatorio\nsalir a correr por la mañana!\n{{anim id=\"2\"}}Si yo hiciera esa ordenanza,\ntú la acatarías, ¿no?{{delay frames=\"40\"}} {{anim id=\"6\"}}¿NO?{{delay frames=\"40\"}}\n{{anim id=\"37\"}}¡Sé que lo harías, ja, ja!",
      "EUfr": "Au fait, qu'est-ce qu'ils attendent\ndans cette ville pour prendre des\narrêtés municipaux ?!\n{{anim id=\"2\"}}Si j'étais maire, j'en pondrais un\nqui rendrait le jogging matinal\nobligatoire pour tous !\n{{anim id=\"35\"}}Bien sûr, tu t'y plierais avec joie,\npas vrai ?{{delay frames=\"40\"}}{{anim id=\"37\"}}",
      "EUit": "Ehi, com'è che non c'è ancora\nnessuna ordinanza in questa città?{{pageBreak}}{{anim id=\"35\"}}Se io fossi il sindaco, farei una legge\nper rendere obbligatoria\nla corsetta mattutina!{{pageBreak}}{{anim id=\"2\"}}Se esistesse una cosa del genere,\ntu saresti obbligat{{fun_0006000E arg=\"0x02006F0002006100\"}} a correre\ntutti i giorni! Ahahah!{{delay frames=\"40\"}}{{anim id=\"37\"}}",
      "JPja": "そういえば、\nこの{{ruby charSpan=\"1\" value=\"むら\"}}村って　{{ruby charSpan=\"2\" value=\"じょうれい\"}}条例がないよなー{{pageBreak}}{{anim id=\"35\"}}オイラ　{{ruby charSpan=\"2\" value=\"かって\"}}勝手に{{delay frames=\"20\"}}\n「{{ruby charSpan=\"2\" value=\"まいあさ\"}}毎朝　ジョギング{{ruby charSpan=\"2\" value=\"じょうれい\"}}条例」{{delay frames=\"20\"}}\nとか{{ruby charSpan=\"1\" value=\"つく\"}}作っちゃおうかな！{{pageBreak}}{{anim id=\"2\"}}もし　そういう{{ruby charSpan=\"2\" value=\"じょうれい\"}}条例ができたら、{{delay frames=\"20\"}}\nオマエも　ちゃんと\nしたがうんだぞー？！{{delay frames=\"40\"}}{{anim id=\"37\"}}",
      "KRko": "그러고 보니 우리 마을에는\n조례가 없네ー{{pageBreak}}{{anim id=\"35\"}}내 맘대로{{delay frames=\"20\"}}\n「매일 아침 조깅 조례」{{delay frames=\"20\"}}라는 걸\n확 만들어 버릴까?{{pageBreak}}{{anim id=\"2\"}}그런 조례가 진짜로 생기면{{delay frames=\"20\"}}\n너도 불평 없이 따르는 거다ー?{{delay frames=\"40\"}}{{anim id=\"37\"}}",
      "USen": "Hey, why aren't there any\nordinances set up in this town?{{pageBreak}}{{anim id=\"35\"}}If I were mayor, I'd enact a law that\nmade morning runs mandatory!{{pageBreak}}{{anim id=\"2\"}}If I made an ordinance like that, you\nwould obey it, right? Right?!{{delay frames=\"40\"}}{{anim id=\"37\"}}",
      "USes": "Oye, ¿cómo es que no hay\nordenanzas en este pueblo?{{pageBreak}}{{anim id=\"35\"}}Si yo fuera alcalde, ¡impondría\nuna ley que hiciera obligatorio\nsalir a correr por la mañana!\n{{anim id=\"2\"}}Si yo hiciera esa ordenanza,\ntú la acatarías, ¿no?{{delay frames=\"40\"}} {{anim id=\"6\"}}¿NO?{{delay frames=\"40\"}}\n{{anim id=\"37\"}}¡Sé que lo harías, ja, ja!",
      "USfr": "Au fait, qu'est-ce que tu attends\npour prendre des arrêtés\nmunicipaux?!\n{{anim id=\"2\"}}Si j'étais maire, j'en pondrais un\nqui rendrait le jogging matinal\nobligatoire pour tous!\n{{anim id=\"35\"}}Et je ne dis pas ça pour t'influencer,\nnon-non-non. Ça ne m'a même pas\neffleuré l'esprit...{{delay frames=\"40\"}}{{anim id=\"37\"}}"
    }
  },
  {
    "label": "003",
    "locale": {
      "EUde": "{{anim id=\"1\"}}Diese Stadt hat ja überhaupt keine\nVerordnungen!{{delay frames=\"40\"}}{{anim id=\"11\"}} Vielleicht lässt ja {{fun_0006000E arg=\"0x06006400650072000600640069006500\"}}\n{{fun_0006000E arg=\"0x1A004200FC0072006700650072006D006500690073007400650072001E004200FC0072006700650072006D0065006900730074006500720069006E00\"}} die Zügel schleifen.\n{{anim id=\"40\"}}Nein, {{delay frames=\"20\"}}das kann's nicht sein!{{anim id=\"37\"}}\n{{delay frames=\"8\"}}{{fun_0003000E arg=\"\"}}{{fun_00070005 arg=\"\"}}!",
      "EUen": "{{anim id=\"1\"}}There are no ordinances set up in\nthis town!{{fun_00010007 arg=\"\"}}{{anim id=\"11\"}} Is that because the\nmayor's a slacker?\n{{anim id=\"40\"}}Nah, that can't be the reason! {{anim id=\"37\"}}\n{{delay frames=\"8\"}}{{fun_0003000E arg=\"\"}}{{fun_00070005 arg=\"\"}}!",
      "EUes": "{{anim id=\"1\"}}¿No hay ordenanzas en este\npueblo?{{fun_00010007 arg=\"\"}} {{anim id=\"11\"}}¡Será que hay mucho\nvago en la alcaldía!\n{{anim id=\"40\"}}No, ¡qué va a ser por eso,{{anim id=\"37\"}}\n{{delay frames=\"8\"}}{{fun_00070005 arg=\"\"}}!",
      "EUfr": "{{anim id=\"1\"}}Ici, les arrêtés municipaux, on ne\nconnaît pas !{{fun_00010007 arg=\"\"}} {{anim id=\"11\"}}Tu dois penser que le\nmaire est une sacrée feignasse...\n{{anim id=\"40\"}}Mais en fait, rien à voir !{{delay frames=\"20\"}} {{anim id=\"37\"}}Je crois\nqu'au contraire, l'idée, c'est qu'on\nsoit le plus libre possible !",
      "EUit": "{{anim id=\"1\"}}Non c'è nessuna ordinanza in questa\ncittà!{{fun_00010007 arg=\"\"}}{{anim id=\"11\"}} Forse il sindaco non ha troppa\nvoglia di lavorare?\n{{anim id=\"40\"}}Nah, non può essere per quello,{{anim id=\"37\"}}\n{{delay frames=\"8\"}}{{fun_00070005 arg=\"\"}}!",
      "JPja": "{{anim id=\"1\"}}この{{ruby charSpan=\"1\" value=\"むら\"}}村には　{{ruby charSpan=\"1\" value=\"なに\"}}何も{{ruby charSpan=\"2\" value=\"じょうれい\"}}条例がないんだー{{fun_00010007 arg=\"\"}}\n{{anim id=\"11\"}}もしかして　アイツ\n{{ruby charSpan=\"2\" value=\"そんちょう\"}}村長の{{ruby charSpan=\"2\" value=\"しごと\"}}仕事サボッてる？{{pageBreak}}{{anim id=\"40\"}}って、{{delay frames=\"20\"}}そんなこと　ないか！{{anim id=\"37\"}}\n{{delay frames=\"8\"}}{{fun_00070005 arg=\"\"}}！",
      "KRko": "{{anim id=\"1\"}}이 마을에는 아무 조례도 없어ー{{fun_00010007 arg=\"\"}}\n{{anim id=\"11\"}}혹시 그 녀석 촌장 일을\n설렁설렁 해치우고 있는 거 아냐?{{pageBreak}}{{anim id=\"40\"}}훗!{{delay frames=\"20\"}} 물론 농담이지만!{{anim id=\"37\"}}\n{{delay frames=\"8\"}}{{fun_00070005 arg=\"\"}}!",
      "USen": "{{anim id=\"1\"}}There are no ordinances set up in\nthis town!{{fun_00010007 arg=\"\"}}{{anim id=\"11\"}} Is that because the\nmayor's a slacker?\n{{anim id=\"40\"}}Nah, that can't be the reason! {{anim id=\"37\"}}\n{{delay frames=\"8\"}}{{fun_0003000E arg=\"\"}}{{fun_00070005 arg=\"\"}}!",
      "USes": "{{anim id=\"1\"}}¿No hay ordenanzas en este\npueblo?{{fun_00010007 arg=\"\"}} {{anim id=\"11\"}}¡Será que hay mucho\nvago en la alcaldía!\n{{anim id=\"40\"}}No, ¡qué va a ser por eso,{{anim id=\"37\"}}\n{{delay frames=\"8\"}}{{fun_00070005 arg=\"\"}}!",
      "USfr": "{{anim id=\"1\"}}Ici, les arrêtés municipaux, on ne\nconnaît pas!{{fun_00010007 arg=\"\"}} {{anim id=\"11\"}}Tu dois penser que le\nmaire est une sacrée feignasse...\n{{anim id=\"40\"}}Mais en fait, rien à voir!{{delay frames=\"20\"}} {{anim id=\"37\"}}Je crois\nqu'au contraire, l'idée, c'est qu'on\nsoit le plus libre possible!"
    }
  },
  {
    "label": "004",
    "locale": {
      "EUde": "{{anim id=\"1\"}}Deine Verordnung ist echt cool!{{pageBreak}}{{anim id=\"33\"}}Jetzt können alle morgens aufstehen\nund joggen!{{delay frames=\"40\"}}{{anim id=\"32\"}} Für deine Idee verdienst\ndu 'ne Goldmedaille, {{delay frames=\"8\"}}{{fun_00070005 arg=\"\"}}!",
      "EUen": "{{anim id=\"1\"}}Your ordinance is pretty cool!{{pageBreak}}{{anim id=\"4\"}}I wake up early and go for a run\nevery day!{{delay frames=\"40\"}}{{anim id=\"32\"}} It's ideas like that that\nmake you great, {{delay frames=\"8\"}}{{fun_00070005 arg=\"\"}}!",
      "EUes": "{{anim id=\"1\"}}¡Tu ordenanza mola mogollón!{{pageBreak}}{{anim id=\"4\"}}¡Todos los días me levanto y salgo\na correr!{{delay frames=\"40\"}}{{anim id=\"32\"}} ¡Tienes ideas realmente\ngeniales, {{delay frames=\"8\"}}{{fun_00070005 arg=\"\"}}!",
      "EUfr": "{{anim id=\"1\"}}Dis donc, pas mal ton arrêté, là !{{pageBreak}}{{anim id=\"4\"}}Depuis que je suis obligé de me\nlever tôt,{{delay frames=\"15\"}} je cours tous les matins !{{pageBreak}}{{anim id=\"32\"}}On ne s'est pas trompés en te\nchoisissant comme maire,{{delay frames=\"8\"}}\n{{fun_00070005 arg=\"\"}} !",
      "EUit": "{{anim id=\"1\"}}Mi piace la tua ordinanza!{{pageBreak}}{{anim id=\"4\"}}Ogni mattina mi sveglio prestissimo\ne vado a correre!{{delay frames=\"40\"}}{{anim id=\"32\"}} Non per niente\nsei il sindaco, {{delay frames=\"8\"}}{{fun_00070005 arg=\"\"}}!",
      "JPja": "{{anim id=\"1\"}}オマエの{{ruby charSpan=\"1\" value=\"つく\"}}作った{{ruby charSpan=\"2\" value=\"じょうれい\"}}条例、\nなかなか　いいなー！{{pageBreak}}{{anim id=\"4\"}}{{ruby charSpan=\"1\" value=\"あさ\"}}朝から　{{ruby charSpan=\"1\" value=\"はし\"}}走り{{ruby charSpan=\"1\" value=\"まわ\"}}回るって\nサイコーに　{{ruby charSpan=\"2\" value=\"きも\"}}気持ちいいよ！{{delay frames=\"40\"}}\n{{anim id=\"32\"}}さすがは{{ruby charSpan=\"2\" value=\"そんちょう\"}}村長！{{delay frames=\"20\"}}　わかってるな、{{delay frames=\"8\"}}{{fun_00070005 arg=\"\"}}",
      "KRko": "{{anim id=\"1\"}}니가 만든 조례 말이야,\n꽤 좋은 것 같다ー!{{pageBreak}}{{anim id=\"4\"}}아침 일찍 일어나서 조깅하면\n정말 기분 최고거든!{{delay frames=\"40\"}}\n{{anim id=\"32\"}}역시 우리 마을 촌장다워! {{delay frames=\"8\"}}{{fun_00070005 arg=\"\"}}!",
      "USen": "{{anim id=\"1\"}}Your ordinance is pretty cool!{{pageBreak}}{{anim id=\"4\"}}I wake up early and go for a run\nevery day!{{delay frames=\"40\"}}{{anim id=\"32\"}} It's ideas like that that\nmake you great, {{delay frames=\"8\"}}{{fun_00070005 arg=\"\"}}!",
      "USes": "{{anim id=\"1\"}}¡Tu ordenanza mola mogollón!{{pageBreak}}{{anim id=\"4\"}}¡Todos los días me levanto y salgo\na correr!{{delay frames=\"40\"}}{{anim id=\"32\"}} ¡Tienes ideas realmente\ngeniales, {{delay frames=\"8\"}}{{fun_00070005 arg=\"\"}}!",
      "USfr": "{{anim id=\"1\"}}Dis donc, pas mal ton arrêté, là!{{pageBreak}}{{anim id=\"4\"}}Depuis que je suis obligé de me\nlever tôt,{{delay frames=\"15\"}} je cours tous les matins!{{pageBreak}}{{anim id=\"32\"}}On ne s'est pas trompés en te\nchoisissant comme maire,{{delay frames=\"8\"}}\n{{fun_00070005 arg=\"\"}}!"
    }
  },
  {
    "label": "005",
    "locale": {
      "EUde": "{{anim id=\"1\"}}Die Verordnung von {{fun_001C0005 arg=\"0x00CD\"}} find\nich einfach klasse!{{pageBreak}}Das ist echt toll für die Leute hier.{{delay frames=\"20\"}}\nSie stehen früh auf und gehen früh\nins Bett. {{delay frames=\"20\"}}Das ist tierisch gesund!\n{{fun_0005000E arg=\"0x220044006500720020004200FC0072006700650072006D00650069007300740065007200260044006900650020004200FC0072006700650072006D0065006900730074006500720069006E00\"}} macht sich echt\nGedanken, {{delay frames=\"8\"}}{{fun_00070005 arg=\"\"}}!",
      "EUen": "{{anim id=\"1\"}}The mayor's ordinance is pretty\ncool, I think!{{pageBreak}}The place is really happenin' in the\nmorning, 'cause everyone is up so\nearly. And we go to bed early too!\nIt's so healthy! The mayor is really\nlooking out for everyone!\n{{delay frames=\"8\"}}{{fun_0003000E arg=\"\"}}{{fun_00070005 arg=\"\"}}!",
      "EUes": "{{anim id=\"1\"}}¡Pues la ordenanza municipal\nestá bastante bien!{{pageBreak}}Como todo el mundo madruga,\n¡este sitio se anima mucho por la\nmañana! ¡Y nos acostamos pronto!\n¡Es una vida muy saludable! ¡Qué\nbien que se preocupen de nosotros\nasí desde la alcaldía, {{delay frames=\"8\"}}{{fun_00070005 arg=\"\"}}!",
      "EUfr": "{{anim id=\"1\"}}L'arrêté que le maire a pondu est\nvraiment cool,{{delay frames=\"8\"}} {{fun_00070005 arg=\"\"}} !{{pageBreak}}Maintenant, la ville est super animée\nde bon matin, vu que tout le monde\nse lève tôt !\nEt comme du coup, on se couche\nmoins tard, c'est hyper sain ! Notre\nmaire prend vraiment soin de nous !",
      "EUit": "{{anim id=\"1\"}}L'ordinanza in vigore\nè fenomenale!{{pageBreak}}La città è vitale al mattino, ora che\ntutti si svegliano presto. Inoltre,\nandare a letto presto è salutare!\nIl sindaco ha davvero a cuore\nil benessere di tutti, {{delay frames=\"8\"}}{{fun_00070005 arg=\"\"}}!",
      "JPja": "{{anim id=\"1\"}}{{ruby charSpan=\"2\" value=\"そんちょう\"}}村長の{{ruby charSpan=\"1\" value=\"つく\"}}作った{{ruby charSpan=\"2\" value=\"じょうれい\"}}条例、{{delay frames=\"20\"}}\nなかなか　いいよな！{{pageBreak}}{{ruby charSpan=\"1\" value=\"あさ\"}}朝から　みんな　{{ruby charSpan=\"1\" value=\"お\"}}起きてくるから\nにぎやかになるし、{{delay frames=\"20\"}}\n{{ruby charSpan=\"1\" value=\"よる\"}}夜は{{ruby charSpan=\"1\" value=\"はや\"}}早くねむって　{{ruby charSpan=\"3\" value=\"けんこうてき\"}}健康的だ！{{pageBreak}}アイツは　{{ruby charSpan=\"1\" value=\"むら\"}}村のみんなのことを{{delay frames=\"20\"}}\nちゃんと　{{ruby charSpan=\"1\" value=\"かんが\"}}考えてるんだなぁ\n{{delay frames=\"8\"}}{{fun_00070005 arg=\"\"}}",
      "KRko": "{{anim id=\"1\"}}촌장이 만든 조례 말이야!{{delay frames=\"20\"}}\n아주아주 맘에 들어!{{pageBreak}}아침 일찍 일어나니까\n다들 부지런해지고{{delay frames=\"20\"}}\n밤엔 일찍 자니까 건강에 좋지!{{pageBreak}}그 녀석은 마을 주민을 위해{{delay frames=\"20\"}}\n열심히 고민하는 게 틀림없어,\n{{delay frames=\"8\"}}{{fun_00070005 arg=\"\"}}",
      "USen": "{{anim id=\"1\"}}The mayor's ordinance is pretty\ncool, I think!{{pageBreak}}The place is really happenin' in the\nmorning, 'cause everyone is up so\nearly. And we go to bed early too!\nIt's so healthy! The mayor is really\nlooking out for everyone!\n{{delay frames=\"8\"}}{{fun_0003000E arg=\"\"}}{{fun_00070005 arg=\"\"}}!",
      "USes": "{{anim id=\"1\"}}¡Pues la ordenanza municipal\nestá bastante bien!{{pageBreak}}Como todo el mundo madruga,\n¡este sitio se anima mucho por la\nmañana! ¡Y nos acostamos pronto!\n¡Es una vida muy saludable! ¡Qué\nbien que se preocupen de nosotros\nasí desde la alcaldía, {{delay frames=\"8\"}}{{fun_00070005 arg=\"\"}}!",
      "USfr": "{{anim id=\"1\"}}L'arrêté que le maire a pondu est\nvraiment cool,{{delay frames=\"8\"}} {{fun_00070005 arg=\"\"}}!{{pageBreak}}Maintenant, la ville est super animée\nde bon matin, vu que tout le monde\nse lève tôt!\nEt comme du coup, on se couche\nmoins tard, c'est hyper sain! Notre\nmaire prend vraiment soin de nous!"
    }
  },
  {
    "label": "006",
    "locale": {
      "EUde": "Die Leute hier sind echt früh wach!{{delay frames=\"20\"}}{{anim id=\"1\"}}\nUnd die Geschäfte sind dann auch\nschon geöffnet!\n{{anim id=\"21\"}}Alle halten sich an die tolle\nFrühaufsteherverordnung von\n{{fun_001C0005 arg=\"0x00CD\"}}, {{delay frames=\"8\"}}{{fun_0005000E arg=\"0x280075006E007300720065006D0020004200FC0072006700650072006D006500690073007400650072002C0075006E00730072006500720020004200FC0072006700650072006D0065006900730074006500720069006E00\"}}.\nEinfach Weltklasse, {{delay frames=\"8\"}}{{fun_00070005 arg=\"\"}}!",
      "EUen": "Everyone in town is up so early!{{delay frames=\"40\"}}{{anim id=\"1\"}} And\nthe stores are open too! It's great!{{pageBreak}}{{anim id=\"21\"}}Everybody is obeying the mayor's \nbrilliant get-up-early ordinance. I\njust love it, {{delay frames=\"8\"}}{{fun_00070005 arg=\"\"}}!",
      "EUes": "¡Hay que ver cómo madruga todo\nel mundo!{{delay frames=\"40\"}}{{anim id=\"1\"}} ¡Y las tiendas también\nabren pronto! ¡Es genial!\n{{anim id=\"21\"}}¡Todo el mundo está acatando la\nordenanza municipal de levantarse\npronto! ¡Me encanta, {{delay frames=\"8\"}}{{fun_00070005 arg=\"\"}}!",
      "EUfr": "Ici, tout le monde se lève de bonne\nheure.{{delay frames=\"20\"}} {{anim id=\"1\"}}Même les boutiques ouvrent\ntôt,{{delay frames=\"8\"}} {{fun_00070005 arg=\"\"}} !\n{{anim id=\"21\"}}Tout ça grâce à l'arrêté instaurant\nun lever matinal pondu par notre\nmaire... Quelle idée de génie !",
      "EUit": "Tutti si svegliano presto in città...{{delay frames=\"40\"}}\n{{anim id=\"1\"}}e anche i negozi aprono prima!\nÈ bellissimo!{{pageBreak}}{{anim id=\"21\"}}Nessuno trasgredisce l'ordinanza.\nChe bella la vita qui, {{delay frames=\"8\"}}{{fun_00070005 arg=\"\"}}!",
      "JPja": "この{{ruby charSpan=\"1\" value=\"むら\"}}村は　{{ruby charSpan=\"1\" value=\"あさ\"}}朝が{{ruby charSpan=\"1\" value=\"はや\"}}早いぞー！{{delay frames=\"40\"}}\n{{anim id=\"1\"}}みんな　{{ruby charSpan=\"1\" value=\"はや\"}}早くから{{ruby charSpan=\"1\" value=\"お\"}}起きてくるし、{{delay frames=\"20\"}}\nお{{ruby charSpan=\"1\" value=\"みせ\"}}店も　さっさと{{ruby charSpan=\"1\" value=\"ひら\"}}開くからな！{{pageBreak}}{{anim id=\"21\"}}{{ruby charSpan=\"2\" value=\"そんちょう\"}}村長が{{ruby charSpan=\"1\" value=\"き\"}}決めた　{{ruby charSpan=\"2\" value=\"はやお\"}}早起き{{ruby charSpan=\"2\" value=\"じょうれい\"}}条例を\nみんな　{{ruby charSpan=\"1\" value=\"まも\"}}守ってるんだ、{{delay frames=\"8\"}}{{fun_00070005 arg=\"\"}}",
      "KRko": "우리 마을은 아침형 마을이야ー!{{delay frames=\"40\"}}\n{{anim id=\"1\"}}모두들 아침 일찍 일어나고{{delay frames=\"20\"}}\n가게 문도 일찍 연다구!{{pageBreak}}{{anim id=\"21\"}}우리 마을 촌장이 정한 조례를\n모두가 지키고 있거든,\n{{delay frames=\"8\"}}{{fun_00070005 arg=\"\"}}",
      "USen": "Everyone in town is up so early!{{delay frames=\"40\"}}{{anim id=\"1\"}} And\nthe stores are open too! It's great!{{pageBreak}}{{anim id=\"21\"}}Everybody is obeying the mayor's \nbrilliant get-up-early ordinance. I\njust love it, {{delay frames=\"8\"}}{{fun_00070005 arg=\"\"}}!",
      "USes": "¡Hay que ver cómo madruga todo\nel mundo!{{delay frames=\"40\"}}{{anim id=\"1\"}} ¡Y las tiendas también\nabren pronto! ¡Es genial!\n{{anim id=\"21\"}}¡Todo el mundo está acatando la\nordenanza municipal de levantarse\npronto! ¡Me encanta, {{delay frames=\"8\"}}{{fun_00070005 arg=\"\"}}!",
      "USfr": "Ici, tout le monde se lève de bonne\nheure.{{delay frames=\"20\"}} {{anim id=\"1\"}}Même les boutiques ouvrent\ntôt,{{delay frames=\"8\"}} {{fun_00070005 arg=\"\"}}!\n{{anim id=\"21\"}}Tout ça grâce à l'arrêté instaurant\nun lever matinal pondu par notre\nmaire... Quelle idée de génie!"
    }
  },
  {
    "label": "007",
    "locale": {
      "EUde": "{{anim id=\"1\"}}Deine Verordnung scheint tierisch\ngut anzukommen bei den Leuten\nhier, {{delay frames=\"8\"}}{{fun_0006000E arg=\"0x2400480065007200720020004200FC0072006700650072006D006500690073007400650072002800460072006100750020004200FC0072006700650072006D0065006900730074006500720069006E00\"}}!{{pageBreak}}Alle sind begeistert, {{delay frames=\"8\"}}dass die Läden\nlänger geöffnet bleiben.{{pageBreak}}{{anim id=\"44\"}}Und meine Nachtläufe werden auch\nviel interessanter, {{delay frames=\"8\"}}{{fun_00070005 arg=\"\"}}!",
      "EUen": "{{anim id=\"1\"}}Your ordinance seems to be popular\nwith the folks here, {{fun_0006000E arg=\"0x06004D0072002E0006004D0073002E00\"}} Mayor!{{pageBreak}}Everyone talks about how great it is\nto have stores stay open late.{{pageBreak}}And it makes my evening patrol{{anim id=\"44\"}} a\nlot more interesting, {{delay frames=\"8\"}}{{fun_00070005 arg=\"\"}}!",
      "EUes": "{{anim id=\"1\"}}¡Tu ordenanza parece tener\nmucha aceptación entre la gente\nde por aquí, seño{{fun_0006000E arg=\"0x02007200040072006100\"}} alcald{{fun_0006000E arg=\"0x020065000600650073006100\"}}!{{pageBreak}}¡Todos hablan de lo que mola que\nlas tiendas abran hasta tarde!{{pageBreak}}¡Eso hace que mi patrulla\nvespertina {{anim id=\"44\"}}sea mucho más\ninteresante, {{delay frames=\"8\"}}{{fun_00070005 arg=\"\"}}!",
      "EUfr": "{{anim id=\"1\"}}Ton arrêté instaurant un coucher\ntardif semble faire son petit effet,\n{{fun_0006000E arg=\"0x10004D006F006E00730069006500750072000C004D006100640061006D006500\"}} le maire !\nTout le monde est ravi depuis que\nles boutiques ferment plus tard.{{pageBreak}}Sans compter que ça rend mon\njogging nocturne bien plus animé,{{delay frames=\"8\"}}\n{{fun_00070005 arg=\"\"}} !",
      "EUit": "Sindaco, la tua ordinanza\nè molto popolare!{{pageBreak}}Si sentono solo commenti positivi\nsul fatto che i negozi sono aperti\nfino a tardi.{{pageBreak}}Per non parlare dei miei turni\ndi guardia serali. {{anim id=\"44\"}}Sono molto più\ninteressanti ora, {{delay frames=\"8\"}}{{fun_00070005 arg=\"\"}}!",
      "JPja": "{{anim id=\"1\"}}{{ruby charSpan=\"2\" value=\"そんちょう\"}}村長の{{ruby charSpan=\"1\" value=\"つく\"}}作った　{{ruby charSpan=\"2\" value=\"じょうれい\"}}条例、{{delay frames=\"20\"}}\nひょうばん　いいぞー！{{pageBreak}}おそくまで　{{ruby charSpan=\"1\" value=\"みせ\"}}店が{{ruby charSpan=\"1\" value=\"あ\"}}開いてるから\nみんな　{{ruby charSpan=\"2\" value=\"べんり\"}}便利だってさー{{pageBreak}}オイラは　そんな{{ruby charSpan=\"1\" value=\"よる\"}}夜の{{ruby charSpan=\"1\" value=\"むら\"}}村を{{delay frames=\"20\"}}\n{{anim id=\"44\"}}パトロールするのが\n{{ruby charSpan=\"2\" value=\"にっか\"}}日課だぞー、{{delay frames=\"8\"}}{{fun_00070005 arg=\"\"}}",
      "KRko": "{{anim id=\"1\"}}니가 만든 조례 말인데{{delay frames=\"20\"}}\n좋다고 평판이 자자해ー!{{pageBreak}}늦게까지 가게가 영업을 하니까\n다들 편리하다고 말이야!{{pageBreak}}나는 그런 우리 마을을{{delay frames=\"20\"}}\n{{anim id=\"44\"}}순찰하는 게 하루 일과 중\n하나라구, {{delay frames=\"8\"}}{{fun_00070005 arg=\"\"}}!",
      "USen": "{{anim id=\"1\"}}Your ordinance seems to be popular\nwith the folks here, {{fun_0006000E arg=\"0x06004D0072002E0006004D0073002E00\"}} Mayor!{{pageBreak}}Everyone talks about how great it is\nto have stores stay open late.{{pageBreak}}And it makes my evening patrol{{anim id=\"44\"}} a\nlot more interesting, {{delay frames=\"8\"}}{{fun_00070005 arg=\"\"}}!",
      "USes": "{{anim id=\"1\"}}¡Tu ordenanza parece tener\nmucha aceptación entre la gente\nde por aquí, seño{{fun_0006000E arg=\"0x02007200040072006100\"}} alcald{{fun_0006000E arg=\"0x020065000600650073006100\"}}!{{pageBreak}}¡Todos hablan de lo que mola que\nlas tiendas abran hasta tarde!{{pageBreak}}¡Eso hace que mi patrulla\nvespertina {{anim id=\"44\"}}sea mucho más\ninteresante, {{delay frames=\"8\"}}{{fun_00070005 arg=\"\"}}!",
      "USfr": "{{anim id=\"1\"}}Ton arrêté instaurant un coucher\ntardif semble faire son petit effet,\n{{fun_0006000E arg=\"0x10004D006F006E00730069006500750072000C004D006100640061006D006500\"}} le maire!\nTout le monde est ravi depuis que\nles boutiques ferment plus tard.{{pageBreak}}Sans compter que ça rend mon\njogging nocturne bien plus animé,{{delay frames=\"8\"}}\n{{fun_00070005 arg=\"\"}}!"
    }
  },
  {
    "label": "008",
    "locale": {
      "EUde": "Die Nacht hört irgendwie nicht auf\nin {{fun_00050005 arg=\"\"}}, {{delay frames=\"8\"}}oder?{{pageBreak}}Die Läden haben ewig geöffnet.{{delay frames=\"20\"}}\nUnd alle sind tierisch lang wach!{{pageBreak}}{{anim id=\"21\"}}Wir haben großen Spaß mit der\nbürgermeisterlichen Verordnung\nvon {{fun_001C0005 arg=\"0x00CD\"}}, {{delay frames=\"8\"}}{{fun_00070005 arg=\"\"}}!",
      "EUen": "Nights in {{fun_00050005 arg=\"\"}} feel like they\nlast forever, don't they?{{pageBreak}}Shops stay open late, and everyone\nis up at night.{{pageBreak}}{{anim id=\"21\"}}We're all doing our part to follow\nthe mayor's brilliant ordinance,\n{{delay frames=\"8\"}}{{fun_00070005 arg=\"\"}}!",
      "EUes": "Es como si la noche en {{fun_0003000E arg=\"\"}}{{fun_00050005 arg=\"\"}}\nno se terminase, ¿a que sí?{{pageBreak}}Las tiendas abren hasta tarde,\ny todo el mundo está despierto\npor la noche.\n{{anim id=\"21\"}}¡Todos cumplimos a rajatabla\nla ordenanza municipal,\n{{delay frames=\"8\"}}{{fun_00070005 arg=\"\"}}!",
      "EUfr": "À {{fun_00050005 arg=\"\"}}, les nuits semblent\ndurer une éternité, pas vrai ?{{pageBreak}}Les boutiques ferment tard, les\ngens ne se couchent plus aussi tôt\nqu'auparavant...\n{{anim id=\"21\"}}On fait tous de notre mieux pour\nrespecter le brillant arrêté pris par\nle maire,{{delay frames=\"8\"}} {{fun_00070005 arg=\"\"}}.",
      "EUit": "La notte qui {{fun_0010000E arg=\"\"}} {{fun_00050005 arg=\"\"}} sembra\nnon finire mai, vero?{{pageBreak}}I negozi sono aperti e tutti sono\nsvegli.{{pageBreak}}{{anim id=\"21\"}}Stiamo facendo del nostro meglio\nper rispettare la brillante ordinanza\ndel sindaco, {{delay frames=\"8\"}}{{fun_00070005 arg=\"\"}}!",
      "JPja": "{{fun_00050005 arg=\"\"}}{{ruby charSpan=\"1\" value=\"むら\"}}村の{{ruby charSpan=\"1\" value=\"よる\"}}夜って\n{{ruby charSpan=\"1\" value=\"なが\"}}長く{{ruby charSpan=\"1\" value=\"かん\"}}感じるよなー{{pageBreak}}{{ruby charSpan=\"1\" value=\"みせ\"}}店がしまるのも　おそめだし、{{delay frames=\"20\"}}\nみんなも　{{ruby charSpan=\"2\" value=\"よなか\"}}夜中まで　{{ruby charSpan=\"1\" value=\"お\"}}起きてるぞ{{pageBreak}}{{anim id=\"21\"}}{{ruby charSpan=\"2\" value=\"そんちょう\"}}村長が{{ruby charSpan=\"1\" value=\"つく\"}}作った　{{ruby charSpan=\"2\" value=\"じょうれい\"}}条例を、{{delay frames=\"20\"}}\nみんな　しっかり\n{{ruby charSpan=\"1\" value=\"まも\"}}守ってるんだな、{{delay frames=\"8\"}}{{fun_00070005 arg=\"\"}}",
      "KRko": "{{fun_00050005 arg=\"\"}} 마을의 밤은\n참 길어서 좋지 않냐ー?{{pageBreak}}가게 문도 늦게 닫고{{delay frames=\"20\"}}\n모두 밤늦게까지 깨어 있잖아{{pageBreak}}{{anim id=\"21\"}}촌장이 만든 조례를{{delay frames=\"20\"}}\n다들 착실하게 지키고 있군!\n{{delay frames=\"8\"}}{{fun_00070005 arg=\"\"}}!",
      "USen": "Nights in {{fun_00050005 arg=\"\"}} feel like they\nlast forever, don't they?{{pageBreak}}Shops stay open late, and everyone\nis up at night.{{pageBreak}}{{anim id=\"21\"}}We're all doing our part to follow\nthe mayor's brilliant ordinance,\n{{delay frames=\"8\"}}{{fun_00070005 arg=\"\"}}!",
      "USes": "Es como si la noche en {{fun_0003000E arg=\"\"}}{{fun_00050005 arg=\"\"}}\nno se terminase, ¿a que sí?{{pageBreak}}Las tiendas abren hasta tarde,\ny todo el mundo está despierto\npor la noche.\n{{anim id=\"21\"}}¡Todos cumplimos a rajatabla\nla ordenanza municipal,\n{{delay frames=\"8\"}}{{fun_00070005 arg=\"\"}}!",
      "USfr": "À {{fun_00050005 arg=\"\"}}, les nuits semblent\ndurer une éternité, pas vrai?{{pageBreak}}Les boutiques ferment tard, les\ngens ne se couchent plus aussi tôt\nqu'auparavant...\n{{anim id=\"21\"}}On fait tous de notre mieux pour\nrespecter le brillant arrêté pris par\nle maire,{{delay frames=\"8\"}} {{fun_00070005 arg=\"\"}}."
    }
  },
  {
    "label": "009",
    "locale": {
      "EUde": "{{anim id=\"5\"}}Willkommen in der Stadt, {{delay frames=\"8\"}}die nachts\nnicht schläft!{{delay frames=\"40\"}} Ich find's toll!{{delay frames=\"20\"}} Genieß\ndas Nachtleben, {{delay frames=\"8\"}}{{fun_00070005 arg=\"\"}}!",
      "EUen": "{{anim id=\"5\"}}My town's open until late at night!\nIt's pretty convenient. You should\ntake advantage of it, {{delay frames=\"8\"}}{{fun_00070005 arg=\"\"}}!",
      "EUes": "{{anim id=\"5\"}}¡Mi pueblo sigue activo a las tantas!\nQué oportuno. ¡Tú deberías\naprovecharte, {{delay frames=\"8\"}}{{fun_00070005 arg=\"\"}}!",
      "EUfr": "{{anim id=\"5\"}}Ici, les boutiques ferment super\ntard !{{delay frames=\"20\"}} Tu devrais en profiter,{{delay frames=\"20\"}}\n{{fun_00070005 arg=\"\"}} !",
      "EUit": "{{anim id=\"5\"}}Nella mia città, è tutto aperto anche\ndi notte. È bellissimo, dovresti\napprofittarne, {{delay frames=\"8\"}}{{fun_00070005 arg=\"\"}}!",
      "JPja": "{{anim id=\"5\"}}オイラの{{ruby charSpan=\"1\" value=\"むら\"}}村、{{delay frames=\"20\"}}{{ruby charSpan=\"1\" value=\"よる\"}}夜おそくまで\n{{ruby charSpan=\"1\" value=\"みせ\"}}店が{{ruby charSpan=\"1\" value=\"あ\"}}開いてるから　{{ruby charSpan=\"2\" value=\"べんり\"}}便利だろー？{{delay frames=\"40\"}}\nどんどん　{{ruby charSpan=\"2\" value=\"りよう\"}}利用していいぞ、{{delay frames=\"8\"}}{{fun_00070005 arg=\"\"}}",
      "KRko": "{{anim id=\"5\"}}우리 마을은{{delay frames=\"20\"}} 밤늦게까지\n가게가 영업을 해서 편리하지ー?{{delay frames=\"40\"}}\n마음껏 이용하라구, {{delay frames=\"8\"}}{{fun_00070005 arg=\"\"}}!",
      "USen": "{{anim id=\"5\"}}My town's open until late at night!\nIt's pretty convenient. You should\ntake advantage of it, {{delay frames=\"8\"}}{{fun_00070005 arg=\"\"}}!",
      "USes": "{{anim id=\"5\"}}¡Mi pueblo sigue activo a las tantas!\nQué oportuno. ¡Tú deberías\naprovecharte, {{delay frames=\"8\"}}{{fun_00070005 arg=\"\"}}!",
      "USfr": "{{anim id=\"5\"}}Ici, les boutiques ferment super\ntard!{{delay frames=\"20\"}} Tu devrais en profiter,{{delay frames=\"20\"}}\n{{fun_00070005 arg=\"\"}}!"
    }
  },
  {
    "label": "010",
    "locale": {
      "EUde": "{{anim id=\"11\"}}Mein Geldbeutel ist tierisch schwer\ngeworden in letzter Zeit. {{delay frames=\"20\"}}Ich könnte\nmit ihm glatt Krafttraining machen!\n{{anim id=\"23\"}}Ob das an deiner neuen Verordnung\nliegt?{{pageBreak}}{{anim id=\"2\"}}Ich hab auf jeden Fall mehr Sternis\nals vorher, {{delay frames=\"8\"}}so viel ist sicher!{{delay frames=\"40\"}}{{anim id=\"37\"}}",
      "EUen": "{{anim id=\"11\"}}My wallet has been getting heavier\nlately. I can work up a pretty good\nsweat taking it out of my pocket!\n{{anim id=\"23\"}}I think this has something to do with\nyour ordinance.{{pageBreak}}{{anim id=\"2\"}}I've got a lot more Bells than I had\nbefore, that's for sure!{{delay frames=\"40\"}}{{anim id=\"37\"}}",
      "EUes": "{{anim id=\"11\"}}A mi cartera le vendría bien perder\nun poco de peso. ¡Y así, de paso,\nsudaría al sacarla del bolsillo!\n{{anim id=\"23\"}}Sospecho que esto tiene\nalgo que ver con tu ordenanza.{{pageBreak}}{{anim id=\"2\"}}¡Tengo muchas más bayas que\nantes, eso está claro!{{delay frames=\"40\"}}{{anim id=\"37\"}}",
      "EUfr": "{{anim id=\"11\"}}Mon compte en banque n'a jamais\nautant fluctué que ces derniers\ntemps...\n{{anim id=\"23\"}}J'imagine que ça vient de ton\narrêté, là ?!{{pageBreak}}{{anim id=\"2\"}}Bah, pas la peine de m'expliquer, je\nne vais rien capter. Ha ha !{{delay frames=\"40\"}}{{anim id=\"37\"}}",
      "EUit": "{{anim id=\"11\"}}Il mio portafoglio è sempre più\npesante. A volte lo uso per allenare\ni miei bicipiti!\n{{anim id=\"23\"}}Mi chiedo se la tua ordinanza\nnon c'entri qualcosa...{{pageBreak}}{{anim id=\"2\"}}Comunque sia, ho molte più stelline\ndi prima ed è questo quello\nche conta!{{delay frames=\"40\"}}{{anim id=\"37\"}}",
      "JPja": "{{anim id=\"11\"}}オイラ　さいふの{{ruby charSpan=\"2\" value=\"なかみ\"}}中身、{{delay frames=\"20\"}}\nふえたり　へったり\nいそがしいんだよなー{{pageBreak}}{{anim id=\"23\"}}これって　オマエが{{ruby charSpan=\"1\" value=\"つく\"}}作った\n{{ruby charSpan=\"2\" value=\"じょうれい\"}}条例が　{{ruby charSpan=\"2\" value=\"かんけい\"}}関係あるんだろ？{{pageBreak}}{{anim id=\"2\"}}まぁ　オイラには\nよくわかんないけどさ！{{delay frames=\"20\"}}\nハハッ！{{delay frames=\"40\"}}{{anim id=\"37\"}}",
      "KRko": "{{anim id=\"11\"}}요새 내 지갑 말이야,{{delay frames=\"20\"}}\n돈이 들락날락 정말 바빠ー{{pageBreak}}{{anim id=\"23\"}}이거 혹시 니가 만든\n조례랑 상관있는 거 아니냐?{{pageBreak}}{{anim id=\"2\"}}하긴 말해줘도 나는\n잘 모르지만 말이다!{{delay frames=\"20\"}}\n하하핫!{{delay frames=\"40\"}}{{anim id=\"37\"}}",
      "USen": "{{anim id=\"11\"}}My wallet has been getting heavier\nlately. I can work up a pretty good\nsweat taking it out of my pocket!\n{{anim id=\"23\"}}I think this has something to do with\nyour ordinance.{{pageBreak}}{{anim id=\"2\"}}I've got a lot more Bells than I had\nbefore, that's for sure!{{delay frames=\"40\"}}{{anim id=\"37\"}}",
      "USes": "{{anim id=\"11\"}}A mi cartera le vendría bien perder\nun poco de peso. ¡Y así, de paso,\nsudaría al sacarla del bolsillo!\n{{anim id=\"23\"}}Sospecho que esto tiene\nalgo que ver con tu ordenanza.{{pageBreak}}{{anim id=\"2\"}}¡Tengo muchas más bayas que\nantes, eso está claro!{{delay frames=\"40\"}}{{anim id=\"37\"}}",
      "USfr": "{{anim id=\"11\"}}Mon compte en banque n'a jamais\nautant fluctué que ces derniers\ntemps...\n{{anim id=\"23\"}}J'imagine que ça vient de ton\narrêté, là?!{{pageBreak}}{{anim id=\"2\"}}Bah, pas la peine de m'expliquer, je\nne vais rien capter. Ha ha!{{delay frames=\"40\"}}{{anim id=\"37\"}}"
    }
  },
  {
    "label": "011",
    "locale": {
      "EUde": "{{anim id=\"1\"}}Neulich hab ich ein paar alte Möbel\nverkauft. {{delay frames=\"20\"}}Ich hab ein nettes kleines\nSümmchen dafür gekriegt!\n{{anim id=\"23\"}}Meinst du, {{delay frames=\"8\"}}dass {{fun_001C0005 arg=\"0x00CD\"}} weiß,\n{{delay frames=\"8\"}}wie dankbar wir {{fun_0005000E arg=\"0x0600690068006D000600690068007200\"}} sind für diese\nbürgermeisterliche Verordnung?\n{{anim id=\"33\"}}Wenn ich {{fun_0005000E arg=\"0x0600690068006E000600730069006500\"}} mal wieder zu Gesicht\nkrieg, {{delay frames=\"8\"}}gibt's 'nen extrafesten\nKnuddler!",
      "EUen": "{{anim id=\"1\"}}The other day I sold some furniture\nI didn't need, and I made a tidy little\nprofit!\n{{anim id=\"23\"}}Do you think the mayor knows how\nmuch we appreciate the extra Bells\nwe're seeing from the ordinance?\nNext time I see that ol' civil servant,\nthere are gonna be a lot of hugs\ngoing around!",
      "EUes": "{{anim id=\"1\"}}El otro día vendí unos muebles que\nno necesitaba, ¡y me he sacado\nun buen beneficio!\n{{anim id=\"23\"}}¿Crees que en la alcaldía sabrán lo\nque agradecemos todas esas bayas\nque nos ha traído la ordenanza?\nLa próxima vez que me pase por\nel ayuntamiento, ¡van a llover\nabrazotes de agradecimiento!",
      "EUfr": "{{anim id=\"1\"}}L'autre fois, en vendant un meuble\ndont je n'avais plus besoin, j'ai\nempoché un joli petit pactole !\n{{anim id=\"23\"}}Tu crois que c'est grâce à l'arrêté\nque le maire a pris ?{{pageBreak}}{{anim id=\"37\"}}Faudra que je pense à lui dire tout\nle bien que je pense de son travail !",
      "EUit": "{{anim id=\"1\"}}Ho venduto alcuni mobili che non\nmi servivano più e ho guadagnato\nun po' di soldini.\n{{anim id=\"23\"}}Credi che il sindaco sappia quanto\napprezziamo le stelline extra\ndovute alla sua ordinanza?\nDevo ricordarmi di abbracciare\nfortissimo il sindaco! Beh, magari\nnon troppo forte...",
      "JPja": "{{anim id=\"1\"}}この{{ruby charSpan=\"1\" value=\"まえ\"}}前　いらない{{ruby charSpan=\"2\" value=\"かぐ\"}}家具を{{ruby charSpan=\"1\" value=\"う\"}}売ったら\nかなり　{{ruby charSpan=\"1\" value=\"たか\"}}高く{{ruby charSpan=\"1\" value=\"う\"}}売れたんだー{{delay frames=\"40\"}}\nちょっと　{{ruby charSpan=\"1\" value=\"とく\"}}得したぞー！{{pageBreak}}{{anim id=\"23\"}}コレって　{{ruby charSpan=\"2\" value=\"そんちょう\"}}村長が{{ruby charSpan=\"1\" value=\"つく\"}}作った\n{{ruby charSpan=\"2\" value=\"じょうれい\"}}条例のおかげなんだよな？{{pageBreak}}{{anim id=\"38\"}}{{ruby charSpan=\"2\" value=\"こんど\"}}今度　アイツに{{ruby charSpan=\"1\" value=\"あ\"}}会ったら{{delay frames=\"20\"}}\nお{{ruby charSpan=\"1\" value=\"れい\"}}礼{{ruby charSpan=\"1\" value=\"い\"}}言っておこっと！",
      "KRko": "{{anim id=\"1\"}}요전에 필요 없는 가구를 팔았는데\n꽤 값을 잘 쳐주더라구ー{{delay frames=\"40\"}}\n뭔가 땡잡은 듯한 기분이었어ー!{{pageBreak}}{{anim id=\"23\"}}이거 혹시 촌장 녀석이 만든\n조례 덕분인 걸까?{{pageBreak}}{{anim id=\"38\"}}다음에 그 녀석을 만나면{{delay frames=\"20\"}}\n고맙다고 해야겠다!",
      "USen": "{{anim id=\"1\"}}The other day I sold some furniture\nI didn't need, and I made a tidy little\nprofit!\n{{anim id=\"23\"}}Do you think the mayor knows how\nmuch we appreciate the extra Bells\nwe're seeing from the ordinance?\nNext time I see that ol' civil servant,\nthere are gonna be a lot of hugs\ngoing around!",
      "USes": "{{anim id=\"1\"}}El otro día vendí unos muebles que\nno necesitaba, ¡y me he sacado\nun buen beneficio!\n{{anim id=\"23\"}}¿Crees que en la alcaldía sabrán lo\nque agradecemos todas esas bayas\nque nos ha traído la ordenanza?\nLa próxima vez que me pase por\nel ayuntamiento, ¡van a llover\nabrazotes de agradecimiento!",
      "USfr": "{{anim id=\"1\"}}L'autre fois, en vendant un meuble\ndont je n'avais plus besoin, j'ai\nempoché un joli petit pactole!\n{{anim id=\"23\"}}Tu crois que c'est grâce à l'arrêté\nque le maire a pris?{{pageBreak}}{{anim id=\"37\"}}Faudra que je pense à lui dire tout\nle bien que je pense de son travail!"
    }
  },
  {
    "label": "012",
    "locale": {
      "EUde": "{{anim id=\"1\"}}Wenn du in dieser Stadt was\nverkaufen willst, {{delay frames=\"8\"}}bekommst du\n'nen ziemlich fairen Preis.\nDas verdanken wir der bürger-\nmeisterlichen Verordnung von\n{{fun_001C0005 arg=\"0x00CD\"}}!\n{{delay frames=\"40\"}}{{anim id=\"21\"}}{{fun_0005000E arg=\"0x0400450072000600530069006500\"}} hat hier echt was bewegt!",
      "EUen": "{{anim id=\"1\"}}If you try to sell something in this\ntown, you're gonna get a pretty\ngood price for it.\nIt's all thanks to our mayor's\nordinance. {{delay frames=\"40\"}}{{anim id=\"21\"}}Politicians in this town\nreally get things done!",
      "EUes": "{{anim id=\"1\"}}Si intentas vender algo en este\npueblo, ¡te lo van a pagar muy bien!{{pageBreak}}Eso es gracias a la ordenanza\nmunicipal. {{delay frames=\"40\"}}{{anim id=\"21\"}}¡Fíjate, en este pueblo\nlos políticos sí que sirven para algo!",
      "EUfr": "{{anim id=\"1\"}}Si tu vends un objet dans cette ville,\ntu devrais pouvoir en tirer un très\nbon prix !\nC'est grâce à l'arrêté qu'a pondu\nnotre maire.{{delay frames=\"20\"}} {{anim id=\"21\"}}Au moins, ici, les\npoliticiens s'occupent du peuple !",
      "EUit": "{{anim id=\"1\"}}Se vendi qualcosa in questa città,\npuoi guadagnare un bel gruzzoletto.{{pageBreak}}Tutto merito dell'ordinanza emessa\ndal sindaco. {{delay frames=\"40\"}}{{anim id=\"21\"}}Apprezzo i politici\nche fanno il proprio lavoro!",
      "JPja": "{{anim id=\"1\"}}この{{ruby charSpan=\"1\" value=\"むら\"}}村で　{{ruby charSpan=\"1\" value=\"なに\"}}何かを{{ruby charSpan=\"1\" value=\"う\"}}売ると{{delay frames=\"20\"}}\nかなり　{{ruby charSpan=\"1\" value=\"たか\"}}高いねだんで\n{{ruby charSpan=\"1\" value=\"か\"}}買い{{ruby charSpan=\"1\" value=\"と\"}}取ってくれるぞー！{{pageBreak}}{{ruby charSpan=\"2\" value=\"そんちょう\"}}村長の{{ruby charSpan=\"2\" value=\"じょうれい\"}}条例のこうかだな！{{delay frames=\"40\"}}\n{{anim id=\"21\"}}アイツは　なかなか　やるヤツだよ",
      "KRko": "{{anim id=\"1\"}}이 마을에서는 뭔가를 팔면{{delay frames=\"20\"}}\n꽤 좋은 가격으로 매입해준다ー!{{pageBreak}}촌장의 조례가 만든 효과지!{{delay frames=\"40\"}}\n{{anim id=\"21\"}}그 녀석, 꽤 능력 있어!",
      "USen": "{{anim id=\"1\"}}If you try to sell something in this\ntown, you're gonna get a pretty\ngood price for it.\nIt's all thanks to our mayor's\nordinance. {{delay frames=\"40\"}}{{anim id=\"21\"}}Politicians in this town\nreally get things done!",
      "USes": "{{anim id=\"1\"}}Si intentas vender algo en este\npueblo, ¡te lo van a pagar muy bien!{{pageBreak}}Eso es gracias a la ordenanza\nmunicipal. {{delay frames=\"40\"}}{{anim id=\"21\"}}¡Fíjate, en este pueblo\nlos políticos sí que sirven para algo!",
      "USfr": "{{anim id=\"1\"}}Si tu vends un objet dans cette ville,\ntu devrais pouvoir en tirer un très\nbon prix!\nC'est grâce à l'arrêté qu'a pondu\nnotre maire.{{delay frames=\"20\"}} {{anim id=\"21\"}}Au moins, ici, les\npoliticiens s'occupent du peuple!"
    }
  },
  {
    "label": "013",
    "locale": {
      "EUde": "{{anim id=\"1\"}}Dank deiner tollen bürgermeister-\nlichen Verordnung joggt es sich viel\nbesser durch die Stadt!\n{{anim id=\"44\"}}Nirgendwo gibt's noch Unkraut oder\nMüll! {{delay frames=\"40\"}}{{anim id=\"27\"}}Das Zeug war echt 'ne Plage\nfür jeden Jogger, {{delay frames=\"8\"}}{{fun_00070005 arg=\"\"}}!",
      "EUen": "{{anim id=\"1\"}}Thanks to our brilliant mayor's\nordinance, it's a lot easier and more\npleasant to jog in this town.\n{{anim id=\"5\"}}Weeds and garbage, the enemies of\nrunners, are gone! It's a big help!\n{{delay frames=\"8\"}}{{fun_0003000E arg=\"\"}}{{fun_00070005 arg=\"\"}}!",
      "EUes": "{{anim id=\"1\"}}Gracias a la ordenanza municipal,\nes mucho más fácil y agradable\nsalir a correr en este pueblo.\n{{anim id=\"5\"}}Ya no hay hierbajos ni basura,\nenemigos naturales del corredor.\n¡Es maravilloso, {{delay frames=\"8\"}}{{fun_00070005 arg=\"\"}}!",
      "EUfr": "{{anim id=\"1\"}}Merci pour cet arrêté sur l'entretien\ndu charme local ! Maintenant, c'est\nun vrai plaisir de courir en ville !\n{{anim id=\"5\"}}Adieu détritus et autres mauvaises\nherbes,{{delay frames=\"20\"}} {{fun_00070005 arg=\"\"}} ! Les ennemis\njurés du joggeur ont été éliminés !",
      "EUit": "{{anim id=\"1\"}}Grazie all'ordinanza del nostro\nsindaco, è molto più bello correre\nin giro per la città.\n{{anim id=\"5\"}}Le erbacce, le cartacce e le foglie\nsecche non sono più un problema,\n{{delay frames=\"8\"}}{{fun_00070005 arg=\"\"}}!",
      "JPja": "{{anim id=\"1\"}}オマエの{{ruby charSpan=\"1\" value=\"つく\"}}作った\n{{ruby charSpan=\"1\" value=\"うつく\"}}美しい{{ruby charSpan=\"3\" value=\"むらじょうれい\"}}村条例のおかげで{{delay frames=\"20\"}}\nジョギングが　しやすくなったよー{{pageBreak}}{{anim id=\"5\"}}{{ruby charSpan=\"1\" value=\"くさ\"}}草や　ゴミは\nランナーのテキだからな！{{delay frames=\"40\"}}\n{{ruby charSpan=\"1\" value=\"たす\"}}助かったぞー、{{delay frames=\"8\"}}{{fun_00070005 arg=\"\"}}",
      "KRko": "{{anim id=\"1\"}}니가 만든\n아름다운 마을 조례 덕분에{{delay frames=\"20\"}}\n조깅하기 엄청 좋아졌어ー!{{pageBreak}}{{anim id=\"5\"}}풀과 쓰레기는\n조깅의 천적이거든!{{delay frames=\"40\"}}\n정말 다행이야, {{delay frames=\"8\"}}{{fun_00070005 arg=\"\"}}!",
      "USen": "{{anim id=\"1\"}}Thanks to our brilliant mayor's\nordinance, it's a lot easier and more\npleasant to jog in this town.\n{{anim id=\"5\"}}Weeds and garbage, the enemies of\nrunners, are gone! It's a big help!\n{{delay frames=\"8\"}}{{fun_0003000E arg=\"\"}}{{fun_00070005 arg=\"\"}}!",
      "USes": "{{anim id=\"1\"}}Gracias a la ordenanza municipal,\nes mucho más fácil y agradable\nsalir a correr en este pueblo.\n{{anim id=\"5\"}}Ya no hay hierbajos ni basura,\nenemigos naturales del corredor.\n¡Es maravilloso, {{delay frames=\"8\"}}{{fun_00070005 arg=\"\"}}!",
      "USfr": "{{anim id=\"1\"}}Merci pour cet arrêté sur l'entretien\ndu charme local! Maintenant, c'est\nun vrai plaisir de courir en ville!\n{{anim id=\"5\"}}Adieu détritus et autres mauvaises\nherbes,{{delay frames=\"20\"}} {{fun_00070005 arg=\"\"}}! Les ennemis\njurés du joggeur ont été éliminés!"
    }
  },
  {
    "label": "014",
    "locale": {
      "EUde": "{{anim id=\"23\"}}Du hältst dich doch hoffentlich an\ndie bürgermeisterliche Sauberkeits-\nverordnung von {{fun_001C0005 arg=\"0x00CD\"}}, {{delay frames=\"8\"}}oder?\n{{delay frames=\"40\"}}{{anim id=\"15\"}}Heiliger Flatterball!{{delay frames=\"40\"}} Was war DAS?!{{delay frames=\"40\"}}\nDu hast grad Fussel von deinen\nKlamotten fallen lassen!\n{{anim id=\"27\"}}Du solltest besser drauf achten,\ndass unsre Stadt sauber bleibt,\n{{delay frames=\"8\"}}{{fun_00080005 arg=\"\"}}!",
      "EUen": "{{anim id=\"23\"}}Are you following the mayor's keep-\nthe-town-clean ordinance?{{pageBreak}}{{delay frames=\"40\"}}{{anim id=\"15\"}}Hey! Lint from your clothes just fell\non the ground!{{pageBreak}}{{anim id=\"27\"}}I'm tellin' ya! Ya gotta keep the\ntown clean, {{delay frames=\"8\"}}{{fun_00080005 arg=\"\"}}!",
      "EUes": "{{anim id=\"23\"}}¿Sigues la ordenanza municipal de\nmantener limpio el pueblo?{{pageBreak}}{{anim id=\"15\"}}¡Oye! ¡Se te ha caído un poco de\ncaspa al suelo! ¡Límpiala ya!{{pageBreak}}{{anim id=\"27\"}}Perdona que me ponga así, ¡pero\nse empieza por ahí y termina en\nel desorden total, {{delay frames=\"8\"}}{{fun_00080005 arg=\"\"}}!",
      "EUfr": "{{anim id=\"23\"}}Dis, est-ce que tu suis à la lettre\nl'arrêté sur l'entretien du charme\nde la ville que le maire a pris ?\n{{anim id=\"15\"}}Ooh ! C'est un de tes cheveux que\nje viens de voir tomber par terre ?!{{pageBreak}}{{anim id=\"27\"}}Tsss... Je crois que ça répond à ma\nquestion,{{delay frames=\"8\"}} {{fun_00070005 arg=\"\"}}...",
      "EUit": "{{anim id=\"23\"}}Rispetti l'ordinanza del sindaco\nper mantenere pulita la città?{{pageBreak}}{{delay frames=\"40\"}}{{anim id=\"15\"}}Ehi! Ti è appena caduto un filo\ndi cotone dalla maglia!{{pageBreak}}{{anim id=\"27\"}}Farai meglio a raccoglierlo,\n{{delay frames=\"8\"}}{{fun_00080005 arg=\"\"}}!",
      "JPja": "{{ruby charSpan=\"2\" value=\"そんちょう\"}}村長の　{{ruby charSpan=\"1\" value=\"うつく\"}}美しい{{ruby charSpan=\"3\" value=\"むらじょうれい\"}}村条例{{delay frames=\"20\"}}\n{{anim id=\"23\"}}ちゃんと　{{ruby charSpan=\"1\" value=\"まも\"}}守ってるかー？{{pageBreak}}{{anim id=\"15\"}}あー！{{delay frames=\"20\"}}\n{{ruby charSpan=\"1\" value=\"いま\"}}今{{delay frames=\"20\"}}　オマエ　{{ruby charSpan=\"1\" value=\"ふく\"}}服のほこりが\n{{ruby charSpan=\"2\" value=\"じめん\"}}地面に{{ruby charSpan=\"1\" value=\"お\"}}落ちたぞー！{{pageBreak}}{{anim id=\"27\"}}まったくー！{{delay frames=\"20\"}}\n{{ruby charSpan=\"1\" value=\"むら\"}}村は{{ruby charSpan=\"1\" value=\"うつく\"}}美しく　だぞ？{{delay frames=\"8\"}}　{{fun_00080005 arg=\"\"}}！",
      "KRko": "촌장의 아름다운 마을 조례는{{delay frames=\"20\"}}\n{{anim id=\"23\"}}잘 지키고 있어?{{pageBreak}}{{anim id=\"15\"}}앗ー!{{delay frames=\"20\"}}\n방금{{delay frames=\"20\"}} 니 옷에서 먼지가\n땅에 떨어졌다ー!{{pageBreak}}{{anim id=\"27\"}}이러면 곤란하다구ー!{{delay frames=\"20\"}}\n{{fun_00080005 arg=\"\"}}{{fun_000E000E arg=\"0x020044C502007CC5\"}}!{{delay frames=\"8\"}} 깨끗하고\n아름다운 마을을 만들어야지!",
      "USen": "{{anim id=\"23\"}}Are you following the mayor's keep-\nthe-town-clean ordinance?{{pageBreak}}{{delay frames=\"40\"}}{{anim id=\"15\"}}Hey! Lint from your clothes just fell\non the ground!{{pageBreak}}{{anim id=\"27\"}}I'm tellin' ya! Ya gotta keep the\ntown clean, {{delay frames=\"8\"}}{{fun_00080005 arg=\"\"}}!",
      "USes": "{{anim id=\"23\"}}¿Sigues la ordenanza municipal de\nmantener limpio el pueblo?{{pageBreak}}{{anim id=\"15\"}}¡Oye! ¡Se te ha caído un poco de\ncaspa al suelo! ¡Límpiala ya!{{pageBreak}}{{anim id=\"27\"}}Perdona que me ponga así, ¡pero\nse empieza por ahí y termina en\nel desorden total, {{delay frames=\"8\"}}{{fun_00080005 arg=\"\"}}!",
      "USfr": "{{anim id=\"23\"}}Dis, est-ce que tu suis à la lettre\nl'arrêté sur l'entretien du charme\nde la ville que le maire a pris?\n{{anim id=\"15\"}}Ooh! C'est un de tes cheveux que\nje viens de voir tomber par terre?!{{pageBreak}}{{anim id=\"27\"}}Tsss... Je crois que ça répond à ma\nquestion,{{delay frames=\"8\"}} {{fun_00070005 arg=\"\"}}..."
    }
  },
  {
    "label": "015",
    "locale": {
      "EUde": "{{anim id=\"1\"}}Hey! {{delay frames=\"40\"}}Findest du nicht auch,{{delay frames=\"8\"}}\ndass unsre Stadt total sauber ist?{{fun_00050008 arg=\"0x1000150011000000\"}}\nSieht ganz so aus!\nSchwer zu sagen...",
      "EUen": "{{anim id=\"1\"}}Hey! Don't you think this town is\nsuper clean?{{fun_00050008 arg=\"0x1000150011000000\"}}\nSure seems that way!\nIt's hard to tell...",
      "EUes": "{{anim id=\"1\"}}¡Oye! ¿No crees que este pueblo\nestá superlimpio?{{fun_00050008 arg=\"0x1000150011000000\"}}\n¡Sí que lo parece!\nNo sabría decirlo...",
      "EUfr": "{{anim id=\"1\"}}Dis ! Tu ne trouves pas que cette\nville est ultra-clean ?{{fun_00050008 arg=\"0x1000150011000000\"}}\nEffectivement !\nBof...",
      "EUit": "{{anim id=\"1\"}}Ehi, non pensi che questa città\nsia super pulita?{{fun_00050008 arg=\"0x1000150011000000\"}}\nCerto!\nNon saprei...",
      "JPja": "{{anim id=\"1\"}}なぁなぁ、{{delay frames=\"20\"}}\nこの{{ruby charSpan=\"1\" value=\"むら\"}}村　キレイだと{{ruby charSpan=\"1\" value=\"おも\"}}思わないかー？{{fun_00050008 arg=\"0x1000150011000000\"}}\nキレイ\nそうかな？",
      "KRko": "{{anim id=\"1\"}}솔직히 말해봐!{{delay frames=\"20\"}}\n우리 마을 엄청 깨끗하지ー?{{fun_00050008 arg=\"0x1000150011000000\"}}\n깨끗해\n글쎄?",
      "USen": "{{anim id=\"1\"}}Hey! Don't you think this town is\nsuper clean?{{fun_00050008 arg=\"0x1000150011000000\"}}\nSure seems that way!\nIt's hard to tell...",
      "USes": "{{anim id=\"1\"}}¡Oye! ¿No crees que este pueblo\nestá superlimpio?{{fun_00050008 arg=\"0x1000150011000000\"}}\n¡Sí que lo parece!\nNo sabría decirlo...",
      "USfr": "{{anim id=\"1\"}}Dis! Tu ne trouves pas que cette\nville est ultra clean?{{fun_00050008 arg=\"0x1000150011000000\"}}\nEffectivement!\nBof..."
    }
  },
  {
    "label": "016",
    "locale": {
      "EUde": "{{anim id=\"38\"}}Echt? {{delay frames=\"20\"}}Das hört man doch gern!{{pageBreak}}{{anim id=\"0\"}}{{fun_0003000E arg=\"\"}}{{fun_001C0005 arg=\"0x00CD\"}} hat neulich 'ne bürger-\nmeisterliche Sauberkeitsverordnung\nerlassen{{delay frames=\"8\"}}.{{delay frames=\"8\"}}.{{delay frames=\"8\"}}.{{delay frames=\"20\"}} 'ne Weltklasseidee!\n{{anim id=\"38\"}}Wenn sich alle dran halten, wird die\nStadt zur saubersten der Welt!",
      "EUen": "{{anim id=\"38\"}}Really? Great!{{pageBreak}}{{anim id=\"0\"}}Our mayor enacted a keep-the-\ntown-clean ordinance. It was a \nreally good idea!\n{{anim id=\"2\"}}I guess everyone's following it and\nkeeping the place nice and spiffy!{{delay frames=\"40\"}}{{anim id=\"37\"}}",
      "EUes": "{{anim id=\"38\"}}¿Verdad? ¡Es una pasada!{{pageBreak}}{{anim id=\"0\"}}La alcaldía ha impuesto una\nordenanza para que lo tengamos\ntodo limpio. ¡Fue muy buena idea!\n{{anim id=\"2\"}}¡Supongo que todos la están\ncumpliendo y dejándolo todo\ncomo una patena!{{delay frames=\"40\"}}{{anim id=\"37\"}}",
      "EUfr": "{{anim id=\"38\"}}Vraiment ?{{delay frames=\"15\"}} Super !{{pageBreak}}{{anim id=\"21\"}}Notre maire a eu le nez creux quand\nil a pris cet arrêté relatif à\nl'entretien du charme local...\n{{anim id=\"2\"}}Et vu tes impressions, j'imagine que\ntout le monde fait de son mieux\npour garder la ville propre !{{delay frames=\"40\"}}{{anim id=\"37\"}}",
      "EUit": "{{anim id=\"38\"}}Davvero? Grandioso!{{pageBreak}}{{anim id=\"0\"}}Il nostro sindaco ha emesso\nun'ordinanza proprio per tenere\npulita la città. Che idea fantastica!\n{{anim id=\"38\"}}Tutti ora si impegnano a mantenere\nquesto posto pulito e profumato!{{delay frames=\"40\"}}{{anim id=\"37\"}}",
      "JPja": "{{anim id=\"38\"}}そっか！{{delay frames=\"20\"}}\n{{ruby charSpan=\"1\" value=\"よ\"}}良かった　{{ruby charSpan=\"1\" value=\"よ\"}}良かった！{{pageBreak}}{{anim id=\"0\"}}っていうのも、{{delay frames=\"20\"}}\n{{ruby charSpan=\"1\" value=\"うつく\"}}美しい{{ruby charSpan=\"3\" value=\"むらじょうれい\"}}村条例ってのを\n{{ruby charSpan=\"2\" value=\"そんちょう\"}}村長が　{{ruby charSpan=\"1\" value=\"つく\"}}作ったんだよ！{{pageBreak}}{{anim id=\"2\"}}みんな　ちゃんと　{{ruby charSpan=\"2\" value=\"じょうれい\"}}条例を{{ruby charSpan=\"1\" value=\"まも\"}}守って\nキレイにしてるって　ことかな！{{delay frames=\"40\"}}{{anim id=\"37\"}}",
      "KRko": "{{anim id=\"38\"}}역시 그렇지?{{delay frames=\"20\"}}\n다행이다, 다행이야!{{pageBreak}}{{anim id=\"0\"}}그도 그럴 수밖에 없는 게{{delay frames=\"20\"}}\n아름다운 마을 조례라는 걸\n우리 마을 촌장이 만들었거든!{{pageBreak}}{{anim id=\"2\"}}다들 착실하게 조례를 지키며\n마을을 깨끗하게 만들고\n있어서 그런 거라구!{{delay frames=\"40\"}}{{anim id=\"37\"}}",
      "USen": "{{anim id=\"38\"}}Really? Great!{{pageBreak}}{{anim id=\"0\"}}Our mayor enacted a keep-the-\ntown-clean ordinance. It was a \nreally good idea!\n{{anim id=\"2\"}}I guess everyone's following it and\nkeeping the place nice and spiffy!{{delay frames=\"40\"}}{{anim id=\"37\"}}",
      "USes": "{{anim id=\"38\"}}¿Verdad? ¡Es una pasada!{{pageBreak}}{{anim id=\"0\"}}La alcaldía ha impuesto una\nordenanza para que lo tengamos\ntodo limpio. ¡Fue muy buena idea!\n{{anim id=\"2\"}}¡Supongo que todos la están\ncumpliendo y dejándolo todo\ncomo una patena!{{delay frames=\"40\"}}{{anim id=\"37\"}}",
      "USfr": "{{anim id=\"38\"}}Vraiment?{{delay frames=\"15\"}} Super!{{pageBreak}}{{anim id=\"21\"}}Notre maire a eu le nez creux quand\nil a pris cet arrêté relatif à\nl'entretien du charme local...\n{{anim id=\"2\"}}Et vu tes impressions, j'imagine que\ntout le monde fait de son mieux\npour garder la ville propre!{{delay frames=\"40\"}}{{anim id=\"37\"}}"
    }
  },
  {
    "label": "017",
    "locale": {
      "EUde": "{{anim id=\"9\"}}Verflixt! {{delay frames=\"40\"}}Die bürgermeisterliche\nSauberkeitsverordnung von\n{{fun_001C0005 arg=\"0x00CD\"}} wirkt also noch nicht{{delay frames=\"8\"}}.{{delay frames=\"8\"}}.{{delay frames=\"8\"}}.\n{{anim id=\"44\"}}Also gut! {{delay frames=\"40\"}}Dann wollen wir gleich\nmal 'ne Runde Unkraut jäten,\n{{delay frames=\"8\"}}{{fun_00070005 arg=\"\"}}!",
      "EUen": "{{anim id=\"9\"}}Darn it! The mayor's clean-town\nordinance hasn't quite sunk in{{delay frames=\"8\"}}.{{delay frames=\"8\"}}.{{delay frames=\"8\"}}.{{pageBreak}}{{anim id=\"44\"}}Alrighty then! Time to start\nweeding like crazy, {{delay frames=\"8\"}}{{fun_00070005 arg=\"\"}}!",
      "EUes": "{{anim id=\"9\"}}¡Maldita sea! Parece que la\nordenanza municipal no ha\nacabado de cuajar por aquí{{delay frames=\"8\"}}.{{delay frames=\"8\"}}.{{delay frames=\"8\"}}.{{pageBreak}}{{anim id=\"44\"}}¡Pues nada! ¡Habrá que ponerse\na arrancar hierbajos a saco\nentonces, {{delay frames=\"8\"}}{{fun_00070005 arg=\"\"}}!",
      "EUfr": "{{anim id=\"9\"}}Flûte... C'est sans doute que l'arrêté\nsur l'entretien du charme de la ville\nn'est pas encore très populaire{{delay frames=\"8\"}}.{{delay frames=\"8\"}}.{{delay frames=\"8\"}}.\n{{anim id=\"44\"}}Très bien ! Si c'est comme ça, il\nfaut donner l'exemple ! Je vais\ndésherber comme un dingue !",
      "EUit": "{{anim id=\"9\"}}L'ordinanza del sindaco per\nmantenere la città pulita non\nha ancora ottenuto il suo effetto{{delay frames=\"8\"}}.{{delay frames=\"8\"}}.{{delay frames=\"8\"}}.{{pageBreak}}{{anim id=\"44\"}}Meglio allenarsi a fare pulizie,\n{{delay frames=\"8\"}}{{fun_00070005 arg=\"\"}}!",
      "JPja": "{{anim id=\"9\"}}ちぇーっ！{{delay frames=\"20\"}}\n{{ruby charSpan=\"2\" value=\"そんちょう\"}}村長の　{{ruby charSpan=\"1\" value=\"うつく\"}}美しい{{ruby charSpan=\"3\" value=\"むらじょうれい\"}}村条例も\nまだまだ　{{ruby charSpan=\"1\" value=\"ひろ\"}}広まってないってことか{{delay frames=\"8\"}}・{{delay frames=\"8\"}}・{{delay frames=\"8\"}}・{{pageBreak}}{{anim id=\"44\"}}ヨッシャー！{{delay frames=\"40\"}}\nオイラ　{{ruby charSpan=\"1\" value=\"くさ\"}}草むしりでも\nしちゃおっかな、{{delay frames=\"8\"}}{{fun_00070005 arg=\"\"}}",
      "KRko": "{{anim id=\"9\"}}쳇ー!{{delay frames=\"20\"}}\n촌장이 만든 아름다운 마을 조례 소식이\n아직 온 마을에 퍼지지 않은 건가{{delay frames=\"8\"}}・{{delay frames=\"8\"}}・{{delay frames=\"8\"}}・{{pageBreak}}{{anim id=\"44\"}}좋았어ー!{{delay frames=\"40\"}}\n내가 솔선수범해서 잡초 뽑기라도\n당장 시작해야겠다, {{delay frames=\"8\"}}{{fun_00070005 arg=\"\"}}",
      "USen": "{{anim id=\"9\"}}Darn it! The mayor's clean-town\nordinance hasn't quite sunk in{{delay frames=\"8\"}}.{{delay frames=\"8\"}}.{{delay frames=\"8\"}}.{{pageBreak}}{{anim id=\"44\"}}Alrighty then! Time to start\nweeding like crazy, {{delay frames=\"8\"}}{{fun_00070005 arg=\"\"}}!",
      "USes": "{{anim id=\"9\"}}¡Maldita sea! Parece que la\nordenanza municipal no ha\nacabado de cuajar por aquí{{delay frames=\"8\"}}.{{delay frames=\"8\"}}.{{delay frames=\"8\"}}.{{pageBreak}}{{anim id=\"44\"}}¡Pues nada! ¡Habrá que ponerse\na arrancar hierbajos a saco\nentonces, {{delay frames=\"8\"}}{{fun_00070005 arg=\"\"}}!",
      "USfr": "{{anim id=\"9\"}}Flûte... C'est sans doute que l'arrêté\nsur l'entretien du charme de la ville\nn'est pas encore très populaire{{delay frames=\"8\"}}.{{delay frames=\"8\"}}.{{delay frames=\"8\"}}.\n{{anim id=\"44\"}}Très bien! Si c'est comme ça, il\nfaut donner l'exemple! Je vais\ndésherber comme un dingue!"
    }
  }
]