﻿[
  {
    "label": "001",
    "locale": {
      "EUde": "{{fun_00010009 arg=\"0x030004000500\"}}",
      "EUen": "{{fun_00010009 arg=\"0x030004000500\"}}",
      "EUes": "{{fun_00010009 arg=\"0x030004000500\"}}",
      "EUfr": "{{fun_00010009 arg=\"0x030004000500\"}}",
      "EUit": "{{fun_00010009 arg=\"0x030004000500\"}}",
      "JPja": "{{fun_00010009 arg=\"0x030004000500\"}}",
      "KRko": "{{fun_00010009 arg=\"0x030004000500\"}}",
      "USen": "{{fun_00010009 arg=\"0x030004000500\"}}",
      "USes": "{{fun_00010009 arg=\"0x030004000500\"}}",
      "USfr": "{{fun_00010009 arg=\"0x030004000500\"}}"
    }
  },
  {
    "label": "002",
    "locale": {
      "EUde": "{{fun_00030009 arg=\"0x080009000A000B000C00\"}}",
      "EUen": "{{fun_00030009 arg=\"0x080009000A000B000C00\"}}",
      "EUes": "{{fun_00030009 arg=\"0x080009000A000B000C00\"}}",
      "EUfr": "{{fun_00030009 arg=\"0x080009000A000B000C00\"}}",
      "EUit": "{{fun_00030009 arg=\"0x080009000A000B000C00\"}}",
      "JPja": "{{fun_00030009 arg=\"0x080009000A000B000C00\"}}",
      "KRko": "{{fun_00030009 arg=\"0x080009000A000B000C00\"}}",
      "USen": "{{fun_00030009 arg=\"0x080009000A000B000C00\"}}",
      "USes": "{{fun_00030009 arg=\"0x080009000A000B000C00\"}}",
      "USfr": "{{fun_00030009 arg=\"0x080009000A000B000C00\"}}"
    }
  },
  {
    "label": "003",
    "locale": {
      "EUde": "{{anim id=\"1\"}}Heute ist {{color id=\"2\"}}Chuseok{{color id=\"65535\"}}! {{delay frames=\"20\"}}Das ist bei uns\n'ne ganz große Sache mit Essen und\nFestlichkeit und solchem Kram!\n{{anim id=\"38\"}}Bei Mondaufgang geht das Fest los!{{delay frames=\"40\"}}{{anim id=\"5\"}}\nOooh! {{delay frames=\"20\"}}Ich platze vor Aufregung,\n{{delay frames=\"8\"}}{{fun_00070005 arg=\"\"}}!",
      "EUen": "{{anim id=\"1\"}}It's {{color id=\"2\"}}Chuseok {{color id=\"65535\"}}today! It's a super-big\ndeal here!{{pageBreak}}{{anim id=\"5\"}}The party starts once the moon\ncomes out!{{delay frames=\"40\"}} I'm so excited about it!{{delay frames=\"8\"}}\n{{fun_0003000E arg=\"\"}}{{fun_00070005 arg=\"\"}}!",
      "EUes": "{{anim id=\"1\"}}¡Hoy se celebra el {{color id=\"2\"}}Chuseok{{color id=\"65535\"}}! ¡Aquí\nes una cosa importantísima!{{pageBreak}}{{anim id=\"5\"}}¡La fiesta empieza en cuanto sale\nla luna!{{delay frames=\"40\"}} ¡Qué animado estoy,{{delay frames=\"8\"}}\n{{fun_00070005 arg=\"\"}}!",
      "EUfr": "{{anim id=\"1\"}}Aujourd'hui, c'est {{color id=\"2\"}}Chuseok {{color id=\"65535\"}}! C'est\nl'équivalent local de ta {{color id=\"2\"}}lune\nd'automne{{color id=\"65535\"}}, en gros.\n{{anim id=\"5\"}}La fête débutera dès que la lune\ndaignera se montrer !{{delay frames=\"30\"}} Ça va être\ngénial,{{delay frames=\"15\"}} {{fun_00070005 arg=\"\"}} !",
      "EUit": "{{anim id=\"1\"}}Oggi si festeggia il {{color id=\"2\"}}Chuseok{{color id=\"65535\"}}!\nÈ una festa molto importante\nqui da noi!\n{{anim id=\"5\"}}La festa inizia appena spunta\nla luna. {{delay frames=\"40\"}}Non vedo l'ora,\n{{delay frames=\"8\"}}{{fun_00070005 arg=\"\"}}!",
      "JPja": "{{anim id=\"1\"}}{{ruby charSpan=\"2\" value=\"こんや\"}}今夜は　{{color id=\"2\"}}{{ruby charSpan=\"2\" value=\"チュソク\"}}秋夕{{color id=\"65535\"}}だぞー？{{delay frames=\"40\"}}\nオマエの{{ruby charSpan=\"1\" value=\"むら\"}}村でいう\n{{color id=\"2\"}}お{{ruby charSpan=\"2\" value=\"つきみ\"}}月見{{color id=\"65535\"}}のことだ！{{pageBreak}}{{anim id=\"5\"}}{{ruby charSpan=\"1\" value=\"つき\"}}月が{{ruby charSpan=\"1\" value=\"で\"}}出たら\n{{ruby charSpan=\"2\" value=\"ほんばん\"}}本番スタートだー！{{delay frames=\"40\"}}\n{{ruby charSpan=\"1\" value=\"たの\"}}楽しみだなー、{{delay frames=\"8\"}}{{fun_00070005 arg=\"\"}}",
      "KRko": "{{anim id=\"1\"}}오늘은 {{color id=\"2\"}}추석{{color id=\"65535\"}}이야ー!{{delay frames=\"40\"}}\n난 빨리 보름달이 뜨기만\n기다리고 있다구!{{pageBreak}}{{anim id=\"5\"}}오늘은 광장에서 선물도 받아야 하고\n달을 보면서 소원도 빌어야 하고{{delay frames=\"40\"}}\n정말 바쁘겠다, {{delay frames=\"8\"}}{{fun_00070005 arg=\"\"}}!",
      "USen": "{{anim id=\"1\"}}It's {{color id=\"2\"}}Chuseok {{color id=\"65535\"}}today! It's a super-big\ndeal here!{{pageBreak}}{{anim id=\"5\"}}The party starts once the moon\ncomes out!{{delay frames=\"40\"}} I'm so excited about it!{{delay frames=\"8\"}}\n{{fun_0003000E arg=\"\"}}{{fun_00070005 arg=\"\"}}!",
      "USes": "{{anim id=\"1\"}}¡Hoy se celebra el {{color id=\"2\"}}Chuseok{{color id=\"65535\"}}! ¡Aquí\nes una cosa importantísima!{{pageBreak}}{{anim id=\"5\"}}¡La fiesta empieza en cuanto sale\nla luna!{{delay frames=\"40\"}} ¡Qué animado estoy,{{delay frames=\"8\"}}\n{{fun_00070005 arg=\"\"}}!",
      "USfr": "{{anim id=\"1\"}}Aujourd'hui, c'est {{color id=\"2\"}}Chuseok{{color id=\"65535\"}}! C'est\nl'équivalent local de ta {{color id=\"2\"}}lune\nd'automne{{color id=\"65535\"}}, en gros.\n{{anim id=\"5\"}}La fête débutera dès que la lune\ndaignera se montrer!{{delay frames=\"30\"}} Ça va être\ngénial,{{delay frames=\"15\"}} {{fun_00070005 arg=\"\"}}!"
    }
  },
  {
    "label": "004",
    "locale": {
      "EUde": "{{anim id=\"23\"}}Ihr feiert auch ein Mondfest mit\neurer {{color id=\"2\"}}Nacht des Herbstmondes{{color id=\"65535\"}},\n{{delay frames=\"8\"}}oder?\n{{anim id=\"1\"}}Unser {{color id=\"2\"}}Chuseok {{color id=\"65535\"}}ist aber viel größer!{{delay frames=\"20\"}}\nUnd obendrein gibt's bei uns auch\nnoch klasse {{color id=\"2\"}}Songpyeon{{color id=\"65535\"}}-Reiskuchen!\n{{anim id=\"33\"}}Dieses Jahr stell ich 'nen Weltrekord\nim Songpyeon-Schnellessen auf,\n{{delay frames=\"8\"}}{{fun_00070005 arg=\"\"}}!",
      "EUen": "{{anim id=\"23\"}}I know you have an {{color id=\"2\"}}Autumn Moon \n{{color id=\"65535\"}}celebration in your town, but do you\nknow about {{color id=\"2\"}}Chuseok{{color id=\"65535\"}}?\n{{anim id=\"1\"}}It's a lot bigger than your moon\ncelebration. And we eat a type of\nrice cake called {{color id=\"2\"}}songpyeon{{color id=\"65535\"}}!\n{{anim id=\"33\"}}I'm out to set a new record for\npower eating the stuff!\n{{delay frames=\"8\"}}{{fun_0003000E arg=\"\"}}{{fun_00070005 arg=\"\"}}.",
      "EUes": "{{anim id=\"23\"}}Hoy en tu pueblo se celebra\nla {{color id=\"2\"}}Luna de Otoño{{color id=\"65535\"}}, ¿no?{{pageBreak}}{{anim id=\"1\"}}En nuestro pueblo lo que tenemos\nes el {{color id=\"2\"}}Chuseok{{color id=\"65535\"}}, ¡y comemos un pastel\nde arroz llamado \"songpyeon\"!\n{{anim id=\"33\"}}¡Hoy voy a batir el récord del\nmundo de comer ese pastel,\n{{delay frames=\"8\"}}{{fun_00070005 arg=\"\"}}! ¡Un día es un día!",
      "EUfr": "{{fun_0003000E arg=\"\"}}{{fun_00070005 arg=\"\"}} ! {{anim id=\"23\"}}Chez toi, c'est la\n{{color id=\"2\"}}lune d'automne {{color id=\"65535\"}}aujourd'hui, non ?{{pageBreak}}{{anim id=\"1\"}}Ici, on fête {{color id=\"2\"}}Chuseok{{color id=\"65535\"}}. C'est un\névénement majeur pour nous !{{pageBreak}}Pour l'occasion, on déguste des\ngâteaux de riz, les songpyeons.{{pageBreak}}{{anim id=\"33\"}}{{delay frames=\"8\"}}D'ailleurs, cette année,{{delay frames=\"15\"}} je compte\nbien battre le record du plus grand\nnombre de songpyeons engloutis !{{delay frames=\"15\"}}",
      "EUit": "{{anim id=\"23\"}}So che nella tua città festeggiate\nla {{color id=\"2\"}}luna d'autunno{{color id=\"65535\"}}, ma hai mai\nsentito parlare del {{color id=\"2\"}}Chuseok{{color id=\"65535\"}}?{{pageBreak}}{{anim id=\"1\"}}È una festa ancora più grande della\nvostra! È tradizione mangiare un\ndolce di riso chiamato songpyeon.\n{{anim id=\"33\"}}Quest'anno voglio mangiarne\ntanto da battere tutti i record,\n{{delay frames=\"8\"}}{{fun_00070005 arg=\"\"}}.",
      "JPja": "{{anim id=\"23\"}}オマエの{{ruby charSpan=\"1\" value=\"むら\"}}村も\n{{ruby charSpan=\"2\" value=\"きょう\"}}今日は　{{color id=\"2\"}}お{{ruby charSpan=\"2\" value=\"つきみ\"}}月見{{color id=\"65535\"}}なんだろー？{{pageBreak}}{{anim id=\"1\"}}オイラの{{ruby charSpan=\"1\" value=\"むら\"}}村だと{{delay frames=\"20\"}}\nソンピョンっていう　モチを{{ruby charSpan=\"1\" value=\"く\"}}食うんだ！{{pageBreak}}{{anim id=\"33\"}}{{ruby charSpan=\"2\" value=\"ことし\"}}今年も　ソンピョン{{ruby charSpan=\"2\" value=\"おおぐ\"}}大食い{{ruby charSpan=\"3\" value=\"しんきろく\"}}新記録{{delay frames=\"20\"}}\n{{ruby charSpan=\"1\" value=\"だ\"}}出しちゃおうかなー、{{delay frames=\"8\"}}{{fun_00070005 arg=\"\"}}",
      "KRko": "{{anim id=\"23\"}}다른 마을에서도\n오늘 우리처럼 달을 보며\n즐기고 있을까?{{pageBreak}}{{anim id=\"1\"}}하지만 우리 마을의 송편은{{delay frames=\"20\"}}\n아무 데도 없겠지?{{pageBreak}}{{anim id=\"33\"}}난 올해도 송편 많이 먹기\n신기록을{{delay frames=\"20\"}} 세우고 말 거야!\n{{delay frames=\"8\"}}{{fun_00070005 arg=\"\"}}!",
      "USen": "{{anim id=\"23\"}}I know you have an {{color id=\"2\"}}Autumn Moon \n{{color id=\"65535\"}}celebration in your town, but do you\nknow about {{color id=\"2\"}}Chuseok{{color id=\"65535\"}}?\n{{anim id=\"1\"}}It's a lot bigger than your moon\ncelebration. And we eat a type of\nrice cake called {{color id=\"2\"}}songpyeon{{color id=\"65535\"}}!\n{{anim id=\"33\"}}I'm out to set a new record for\npower eating the stuff!\n{{delay frames=\"8\"}}{{fun_0003000E arg=\"\"}}{{fun_00070005 arg=\"\"}}.",
      "USes": "{{anim id=\"23\"}}Hoy en tu pueblo se celebra\nla {{color id=\"2\"}}Luna de Otoño{{color id=\"65535\"}}, ¿no?{{pageBreak}}{{anim id=\"1\"}}En nuestro pueblo lo que tenemos\nes el {{color id=\"2\"}}Chuseok{{color id=\"65535\"}}, ¡y comemos un pastel\nde arroz llamado \"songpyeon\"!\n{{anim id=\"33\"}}¡Hoy voy a batir el récord del\nmundo de comer ese pastel,\n{{delay frames=\"8\"}}{{fun_00070005 arg=\"\"}}! ¡Un día es un día!",
      "USfr": "{{fun_0003000E arg=\"\"}}{{fun_00070005 arg=\"\"}}! {{anim id=\"23\"}}Chez toi, c'est la\n{{color id=\"2\"}}lune d'automne {{color id=\"65535\"}}aujourd'hui, non?{{pageBreak}}{{anim id=\"1\"}}Ici, on fête {{color id=\"2\"}}Chuseok{{color id=\"65535\"}}. C'est un\névénement majeur pour nous!{{pageBreak}}Pour l'occasion, on déguste des\ngâteaux de riz, les songpyeons.{{pageBreak}}{{anim id=\"33\"}}{{delay frames=\"8\"}}D'ailleurs, cette année,{{delay frames=\"15\"}} je compte\nbien battre le record du plus grand\nnombre de songpyeons engloutis!{{delay frames=\"15\"}}"
    }
  },
  {
    "label": "005",
    "locale": {
      "EUde": "{{anim id=\"23\"}}Bleibst du bis heute Abend hier?{{delay frames=\"40\"}}\n{{anim id=\"1\"}}Unseren Vollmond darfst du dir\nauf keinen Fall entgehen lassen!\n{{anim id=\"5\"}}{{color id=\"2\"}}Chuseok {{color id=\"65535\"}}macht mir am allermeisten\nSpaß, {{delay frames=\"8\"}}wenn viele Leute mitfeiern,{{delay frames=\"8\"}}\n{{fun_00070005 arg=\"\"}}!",
      "EUen": "{{anim id=\"23\"}}Are you staying here until tonight?{{delay frames=\"40\"}}\n{{anim id=\"1\"}}Please check out the full moon in\nour town if you have the time!\n{{anim id=\"5\"}}Moon watching is always more fun\nwhen there are more people around,{{delay frames=\"8\"}}\n{{fun_0003000E arg=\"\"}}{{fun_00070005 arg=\"\"}}!",
      "EUes": "{{anim id=\"23\"}}¿Te vas a quedar aquí hasta la\nnoche?{{delay frames=\"40\"}} {{anim id=\"1\"}}Si es así, ¡tienes que ver\nla luna llena en nuestro pueblo!\n{{anim id=\"5\"}}¡Mirar la luna siempre es más\ndivertido cuando estás con\nalguien,{{delay frames=\"8\"}} {{fun_00070005 arg=\"\"}}!",
      "EUfr": "{{anim id=\"23\"}}Ce soir, tu seras encore parmi\nnous ?{{delay frames=\"40\"}} {{anim id=\"1\"}}Si tu le peux, reste ! On\nadmirera la lune tous ensemble !\n{{anim id=\"5\"}}Plus on est de fous pour {{color id=\"2\"}}Chuseok{{color id=\"65535\"}},\nnotre lune d'automne à nous, plus\non rit,{{delay frames=\"8\"}} {{fun_00070005 arg=\"\"}} !",
      "EUit": "{{anim id=\"23\"}}Ti fermi qui fino a stasera?{{delay frames=\"40\"}}\n{{anim id=\"1\"}}Se rimani, dovresti venire\na guardare la luna piena!\n{{anim id=\"5\"}}Il Chuseok è più divertente se lo\nfesteggi insieme ad altri,\n{{delay frames=\"8\"}}{{fun_00070005 arg=\"\"}}!",
      "JPja": "{{anim id=\"23\"}}{{ruby charSpan=\"2\" value=\"きょう\"}}今日は　{{ruby charSpan=\"1\" value=\"よる\"}}夜までいるのかー？{{delay frames=\"40\"}}\n{{anim id=\"1\"}}{{ruby charSpan=\"1\" value=\"よ\"}}良かったら　オイラの{{ruby charSpan=\"1\" value=\"むら\"}}村の{{ruby charSpan=\"2\" value=\"まんげつ\"}}満月を\n{{ruby charSpan=\"1\" value=\"み\"}}見てってくれよー！{{pageBreak}}{{anim id=\"5\"}}{{color id=\"2\"}}お{{ruby charSpan=\"2\" value=\"つきみ\"}}月見{{color id=\"65535\"}}は{{delay frames=\"20\"}}　{{ruby charSpan=\"2\" value=\"にんずう\"}}人数が{{ruby charSpan=\"1\" value=\"おお\"}}多い{{ruby charSpan=\"1\" value=\"ほう\"}}方が\nもりあがるからな、{{delay frames=\"8\"}}{{fun_00070005 arg=\"\"}}",
      "KRko": "{{anim id=\"23\"}}넌 오늘 몇 시까지 깨어 있을 거냐ー?{{delay frames=\"40\"}}\n{{anim id=\"1\"}}난 졸려서 쓰러지기 전까지\n보름달을 실컷 볼 거야ー!{{pageBreak}}{{anim id=\"5\"}}{{color id=\"2\"}}추석{{color id=\"65535\"}}이니까{{delay frames=\"20\"}} 달맞이를 하러 나온\n녀석들이 많으면 강강술래를 하면서\n밤을 새는 것도 좋겠지, {{delay frames=\"8\"}}{{fun_00070005 arg=\"\"}}!",
      "USen": "{{anim id=\"23\"}}Are you staying here until tonight?{{delay frames=\"40\"}}\n{{anim id=\"1\"}}Please check out the full moon in\nour town if you have the time!\n{{anim id=\"5\"}}Moon watching is always more fun\nwhen there are more people around,{{delay frames=\"8\"}}\n{{fun_0003000E arg=\"\"}}{{fun_00070005 arg=\"\"}}!",
      "USes": "{{anim id=\"23\"}}¿Te vas a quedar aquí hasta la\nnoche?{{delay frames=\"40\"}} {{anim id=\"1\"}}Si es así, ¡tienes que ver\nla luna llena en nuestro pueblo!\n{{anim id=\"5\"}}¡Mirar la luna siempre es más\ndivertido cuando estás con\nalguien,{{delay frames=\"8\"}} {{fun_00070005 arg=\"\"}}!",
      "USfr": "{{anim id=\"23\"}}Ce soir, tu seras encore parmi\nnous?{{delay frames=\"40\"}} {{anim id=\"1\"}}Si tu le peux, reste! On\nadmirera la lune tous ensemble!\n{{anim id=\"5\"}}Plus on est de fous pour {{color id=\"2\"}}Chuseok{{color id=\"65535\"}},\nnotre lune d'automne à nous, plus\non rit,{{delay frames=\"8\"}} {{fun_00070005 arg=\"\"}}!"
    }
  },
  {
    "label": "006",
    "locale": {
      "EUde": "",
      "EUen": "",
      "EUes": "",
      "EUfr": "",
      "EUit": "",
      "JPja": "",
      "KRko": "",
      "USen": "",
      "USes": "",
      "USfr": ""
    }
  },
  {
    "label": "007",
    "locale": {
      "EUde": "",
      "EUen": "",
      "EUes": "",
      "EUfr": "",
      "EUit": "",
      "JPja": "",
      "KRko": "",
      "USen": "",
      "USes": "",
      "USfr": ""
    }
  },
  {
    "label": "008",
    "locale": {
      "EUde": "{{anim id=\"11\"}}Ich frag mich, {{delay frames=\"8\"}}wie weit wir vom\nMond weg sind!{{pageBreak}}{{anim id=\"38\"}}Irgendwann mal werd ich den ganzen\nWeg dorthin joggen,{{delay frames=\"8\"}} {{fun_00070005 arg=\"\"}}!",
      "EUen": "{{anim id=\"11\"}}I wonder how far we are from the\nmoon{{delay frames=\"8\"}}.{{delay frames=\"8\"}}.{{delay frames=\"8\"}}.{{delay frames=\"20\"}}{{pageBreak}}{{anim id=\"38\"}}I bet I could run there, no problem!\n{{delay frames=\"8\"}}{{fun_0003000E arg=\"\"}}{{fun_00070005 arg=\"\"}}!",
      "EUes": "{{anim id=\"11\"}}¿A qué distancia estamos\nde la luna exactamente?{{pageBreak}}{{anim id=\"38\"}}¡Porque seguro que podría ir\nhasta allí corriendo,{{delay frames=\"8\"}} {{fun_00070005 arg=\"\"}}!",
      "EUfr": "{{anim id=\"11\"}}Je me demande quelle distance nous\nsépare de la lune...{{pageBreak}}{{anim id=\"38\"}}« Le premier à la lune a gagné ! »{{delay frames=\"15\"}}\nÇa ferait un chouette concept de\ncourse, non ?{{delay frames=\"8\"}} {{fun_0003000E arg=\"\"}}{{fun_00070005 arg=\"\"}} !",
      "EUit": "{{anim id=\"11\"}}Chissà quanto sarà lontana la luna{{delay frames=\"8\"}}.{{delay frames=\"8\"}}.{{delay frames=\"8\"}}.{{delay frames=\"20\"}}{{pageBreak}}{{anim id=\"38\"}}Prima o poi andrò lì di corsa e tu\nmi cronometrerai per vedere\nquanto ci metto, {{delay frames=\"8\"}}{{fun_00070005 arg=\"\"}}!",
      "JPja": "{{anim id=\"11\"}}{{ruby charSpan=\"1\" value=\"つき\"}}月までの　きょりって{{delay frames=\"20\"}}\nどのくらい　あるんだろうなー？{{pageBreak}}{{anim id=\"38\"}}いつか　あのきょりを\n{{ruby charSpan=\"1\" value=\"はし\"}}走ってみたいぞー、{{delay frames=\"8\"}}{{fun_00070005 arg=\"\"}}",
      "KRko": "{{anim id=\"11\"}}여기서 저기 저 달까지 뛰어가면{{delay frames=\"20\"}}\n기록이 얼마 정도 나올까ー?{{pageBreak}}{{anim id=\"38\"}}난 언젠가 꼭 도전해볼 거야!\n{{delay frames=\"8\"}}{{fun_00070005 arg=\"\"}}!",
      "USen": "{{anim id=\"11\"}}I wonder how far we are from the\nmoon{{delay frames=\"8\"}}.{{delay frames=\"8\"}}.{{delay frames=\"8\"}}.{{delay frames=\"20\"}}{{pageBreak}}{{anim id=\"38\"}}I bet I could run there, no problem!\n{{delay frames=\"8\"}}{{fun_0003000E arg=\"\"}}{{fun_00070005 arg=\"\"}}!",
      "USes": "{{anim id=\"11\"}}¿A qué distancia estamos\nde la luna exactamente?{{pageBreak}}{{anim id=\"38\"}}¡Porque seguro que podría ir\nhasta allí corriendo,{{delay frames=\"8\"}} {{fun_00070005 arg=\"\"}}!",
      "USfr": "{{anim id=\"11\"}}Je me demande quelle distance nous\nsépare de la lune...{{pageBreak}}{{anim id=\"38\"}}« Le premier à la lune a gagné! »{{delay frames=\"15\"}}\nÇa ferait un chouette concept de\ncourse, non?{{delay frames=\"8\"}} {{fun_0003000E arg=\"\"}}{{fun_00070005 arg=\"\"}}!"
    }
  },
  {
    "label": "009",
    "locale": {
      "EUde": "{{anim id=\"6\"}}Hey!{{delay frames=\"40\"}} Ich weiß, {{delay frames=\"8\"}}wer du bist!{{delay frames=\"40\"}} Du bist\neiner dieser Mondmenschen, oder?!{{fun_00050008 arg=\"0x0E0015000F002800\"}}\nGenau!\nEher nicht...",
      "EUen": "{{anim id=\"6\"}}Stop it already and just show your\ntrue self! Coming to our town on a\nfull-moon night{{delay frames=\"8\"}}.{{delay frames=\"8\"}}.{{delay frames=\"8\"}}.{{delay frames=\"20\"}}\nYou're actually an alien from the\nmoon, aren't you?!{{fun_00050008 arg=\"0x0E0015000F002800\"}}\nYup!\nNope!",
      "EUes": "{{anim id=\"6\"}}¡Deja de tomarnos el pelo y\nmuéstrate como eres realmente!\nVienes aquí en noche de luna llena{{delay frames=\"8\"}}.{{delay frames=\"8\"}}.{{delay frames=\"8\"}}.{{delay frames=\"20\"}}\nEres u{{fun_0006000E arg=\"0x02006E0004006E006100\"}} visitante de la luna,\n¡¿a que sí?!{{fun_00050008 arg=\"0x0E0015000F002800\"}}\n¡Has acertado!\nPues no...",
      "EUfr": "{{anim id=\"6\"}}Allez, {{fun_00080005 arg=\"\"}}, c'est le moment\nidéal pour dévoiler ta vraie nature !{{pageBreak}}Tu es... un loup-garou, pas vrai ?{{fun_00050008 arg=\"0x0E0015000F002800\"}}\nJe suis {{fun_0006000E arg=\"0x10006400E9006D006100730071007500E90012006400E9006D006100730071007500E9006500\"}} !\nN'importe quoi...",
      "EUit": "{{anim id=\"6\"}}Non mi inganni!{{delay frames=\"40\"}} Sei venut{{fun_0006000E arg=\"0x02006F0002006100\"}} qui\nperché ami la notte e il buio{{delay frames=\"8\"}}.{{delay frames=\"8\"}}.{{delay frames=\"8\"}}.{{delay frames=\"20\"}}\nSei una creatura lunare, vero?!{{fun_00050008 arg=\"0x0E0015000F002800\"}}\nMi hai scoperto!\nCerto che no!",
      "JPja": "{{anim id=\"6\"}}いいかげん　{{ruby charSpan=\"2\" value=\"しょうたい\"}}正体をあらわせ！{{delay frames=\"40\"}}\n{{ruby charSpan=\"2\" value=\"まんげつ\"}}満月の{{ruby charSpan=\"1\" value=\"よる\"}}夜に　{{ruby charSpan=\"1\" value=\"むら\"}}村に{{ruby charSpan=\"1\" value=\"く\"}}来るなんて、{{delay frames=\"8\"}}\n{{ruby charSpan=\"1\" value=\"じつ\"}}実は　オマエ{{delay frames=\"8\"}}　{{ruby charSpan=\"1\" value=\"つき\"}}月{{ruby charSpan=\"2\" value=\"せいじん\"}}星人なんだろー？！{{fun_00050008 arg=\"0x0E0015000F002800\"}}\nそうだよ\nちがうよ",
      "KRko": "{{anim id=\"6\"}}당장 정체를 밝혀라!{{delay frames=\"40\"}}\n보름달을 보면{{delay frames=\"8\"}} 변신한다는 녀석이{{delay frames=\"8\"}}\n바로 너 맞지ー?{{fun_00050008 arg=\"0x0E0015000F002800\"}}\n맞아!\n틀렸어",
      "USen": "{{anim id=\"6\"}}Stop it already and just show your\ntrue self! Coming to our town on a\nfull-moon night{{delay frames=\"8\"}}.{{delay frames=\"8\"}}.{{delay frames=\"8\"}}.{{delay frames=\"20\"}}\nYou're actually an alien from the\nmoon, aren't you?!{{fun_00050008 arg=\"0x0E0015000F002800\"}}\nYup!\nNope!",
      "USes": "{{anim id=\"6\"}}¡Deja de tomarnos el pelo y\nmuéstrate como eres realmente!\nVienes aquí en noche de luna llena{{delay frames=\"8\"}}.{{delay frames=\"8\"}}.{{delay frames=\"8\"}}.{{delay frames=\"20\"}}\nEres u{{fun_0006000E arg=\"0x02006E0004006E006100\"}} visitante de la luna,\n¡¿a que sí?!{{fun_00050008 arg=\"0x0E0015000F002800\"}}\n¡Has acertado!\nPues no...",
      "USfr": "{{anim id=\"6\"}}Allez, {{fun_00080005 arg=\"\"}}, c'est le moment\nidéal pour dévoiler ta vraie nature!{{pageBreak}}Tu es... un loup-garou, pas vrai?{{fun_00050008 arg=\"0x0E0015000F002800\"}}\nJe suis {{fun_0006000E arg=\"0x10006400E9006D006100730071007500E90012006400E9006D006100730071007500E9006500\"}}!\nN'importe quoi..."
    }
  },
  {
    "label": "010",
    "locale": {
      "EUde": "{{anim id=\"32\"}}An {{color id=\"2\"}}Chuseok {{color id=\"65535\"}}darf 'ne ordentliche\nPortion Songpyeon niemals fehlen!{{delay frames=\"20\"}}\nDas sind leckere kleine Reiskuchen.{{pageBreak}}{{anim id=\"1\"}}Habt ihr bei eurer {{color id=\"2\"}}Nacht des\nHerbstmondes {{color id=\"65535\"}}auch Reisleckereien?{{pageBreak}}{{anim id=\"11\"}}Hmm{{delay frames=\"8\"}}.{{delay frames=\"8\"}}.{{delay frames=\"8\"}}.{{delay frames=\"20\"}} Um die ganzen Kalorien vom\n{{color id=\"2\"}}Chuseok{{color id=\"65535\"}}-Fest zu verbrennen, {{delay frames=\"8\"}}muss\nich bestimmt zwei Stunden joggen!",
      "EUen": "{{anim id=\"32\"}}You can't talk about {{color id=\"2\"}}Chuseok\n{{color id=\"65535\"}}without mentioning {{color id=\"2\"}}songpyeon{{color id=\"65535\"}}, a\nvery delicious rice cake!{{pageBreak}}{{anim id=\"11\"}}Hmmm{{delay frames=\"8\"}}.{{delay frames=\"8\"}}.{{delay frames=\"8\"}}.{{delay frames=\"20\"}} I wonder how many carbs\nthose things have{{delay frames=\"8\"}}.{{delay frames=\"8\"}}.{{delay frames=\"8\"}}.{{delay frames=\"20\"}}",
      "EUes": "{{anim id=\"32\"}}¡No puedes hablar del {{color id=\"2\"}}Chuseok{{color id=\"65535\"}}\nsin mencionar el \"songpyeon\"!\nEs un pastel de arroz muy rico.\n{{anim id=\"11\"}}Hum{{delay frames=\"8\"}}.{{delay frames=\"8\"}}.{{delay frames=\"8\"}}.{{delay frames=\"20\"}} Me pregunto cuántos\nhidratos de carbono tendrá{{delay frames=\"8\"}}.{{delay frames=\"8\"}}.{{delay frames=\"8\"}}.",
      "EUfr": "{{anim id=\"32\"}}Par ici, qui dit {{color id=\"2\"}}Chuseok{{color id=\"65535\"}} dit\nsongpyeons ! Ce sont de délicieux\ngâteaux de riz !\n{{anim id=\"1\"}}D'ailleurs, qu'est-ce que vous\ndégustez pour la {{color id=\"2\"}}lune d'automne{{color id=\"65535\"}},\ndans ta ville ?\n{{anim id=\"15\"}}Rien de spécial ?!{{delay frames=\"25\"}} Sérieux ?{{delay frames=\"30\"}} {{anim id=\"2\"}}Tu as\nbien fait de venir nous rendre visite,\nalors, ha ha !",
      "EUit": "{{anim id=\"32\"}}Durante il {{color id=\"2\"}}Chuseok {{color id=\"65535\"}}non\npuò mancare il songpyeon,\nun dolce di riso tipico di qui.\n{{anim id=\"11\"}}Mmmh{{delay frames=\"8\"}}.{{delay frames=\"8\"}}.{{delay frames=\"8\"}}.{{delay frames=\"20\"}} chissà quanti\ncarboidrati contiene{{delay frames=\"8\"}}.{{delay frames=\"8\"}}.{{delay frames=\"8\"}}.{{delay frames=\"20\"}}",
      "JPja": "{{anim id=\"32\"}}{{color id=\"2\"}}{{ruby charSpan=\"2\" value=\"チュソク\"}}秋夕{{color id=\"65535\"}}といえば　ソンピョン！{{delay frames=\"40\"}}\nうまい　モチなんだー！{{pageBreak}}{{anim id=\"1\"}}オマエの{{ruby charSpan=\"1\" value=\"むら\"}}村の　{{color id=\"2\"}}お{{ruby charSpan=\"2\" value=\"つきみ\"}}月見{{color id=\"65535\"}}だと、{{delay frames=\"20\"}}\nつきみだんごってのが\nあるんだろー？{{pageBreak}}{{anim id=\"11\"}}うーん{{delay frames=\"8\"}}・{{delay frames=\"8\"}}・{{delay frames=\"8\"}}・{{delay frames=\"20\"}}\nどっちの{{ruby charSpan=\"1\" value=\"ほう\"}}方が\nカロリー{{ruby charSpan=\"1\" value=\"たか\"}}高いんだろーな",
      "KRko": "{{anim id=\"32\"}}{{color id=\"2\"}}추석{{color id=\"65535\"}} 하면 두말할 것 없이 송편이지!{{delay frames=\"40\"}}\n맛이 끝내주거든ー!{{pageBreak}}{{anim id=\"1\"}}다른 마을에도 보름달을 보며{{delay frames=\"20\"}}\n떡을 먹는 데가 있나 보던데\n혹시 들어본 적 있냐ー?{{pageBreak}}{{anim id=\"11\"}}흐음{{delay frames=\"8\"}}・{{delay frames=\"8\"}}・{{delay frames=\"8\"}}・{{delay frames=\"20\"}}\n칼로리는 어느 쪽이 더 높을까?",
      "USen": "{{anim id=\"32\"}}You can't talk about {{color id=\"2\"}}Chuseok\n{{color id=\"65535\"}}without mentioning {{color id=\"2\"}}songpyeon{{color id=\"65535\"}}, a\nvery delicious rice cake!{{pageBreak}}{{anim id=\"11\"}}Hmmm{{delay frames=\"8\"}}.{{delay frames=\"8\"}}.{{delay frames=\"8\"}}.{{delay frames=\"20\"}} I wonder how many carbs\nthose things have{{delay frames=\"8\"}}.{{delay frames=\"8\"}}.{{delay frames=\"8\"}}.{{delay frames=\"20\"}}",
      "USes": "{{anim id=\"32\"}}¡No puedes hablar del {{color id=\"2\"}}Chuseok{{color id=\"65535\"}}\nsin mencionar el \"songpyeon\"!\nEs un pastel de arroz muy rico.\n{{anim id=\"11\"}}Hum{{delay frames=\"8\"}}.{{delay frames=\"8\"}}.{{delay frames=\"8\"}}.{{delay frames=\"20\"}} Me pregunto cuántos\nhidratos de carbono tendrá{{delay frames=\"8\"}}.{{delay frames=\"8\"}}.{{delay frames=\"8\"}}.",
      "USfr": "{{anim id=\"32\"}}Par ici, qui dit {{color id=\"2\"}}Chuseok{{color id=\"65535\"}} dit\nsongpyeons! Ce sont de délicieux\ngâteaux de riz!\n{{anim id=\"1\"}}D'ailleurs, qu'est-ce que vous\ndégustez pour la {{color id=\"2\"}}lune d'automne{{color id=\"65535\"}},\ndans ta ville?\n{{anim id=\"15\"}}Rien de spécial?!{{delay frames=\"25\"}} Sérieux?{{delay frames=\"30\"}} {{anim id=\"2\"}}Tu as\nbien fait de venir nous rendre visite,\nalors, ha ha!"
    }
  },
  {
    "label": "011",
    "locale": {
      "EUde": "{{anim id=\"32\"}}Wir feiern heute das {{color id=\"2\"}}Chuseok{{color id=\"65535\"}}-Fest\nhier in {{fun_00050005 arg=\"\"}}!{{pageBreak}}{{anim id=\"6\"}}Es ist extrem entspannt! {{delay frames=\"20\"}}Wir sehen\nuns den Mond an und essen dabei\nleckere Sachen.\n{{anim id=\"33\"}}Und dann gibt's ein Wettrennen zum\nMond, {{delay frames=\"8\"}}bei dem der Sieger zur Sonne\ngeschossen wird!\n{{anim id=\"2\"}}Haha! {{delay frames=\"40\"}}Fast hättest du's geglaubt!\n{{delay frames=\"40\"}}Nein?{{delay frames=\"40\"}} Ich hab zu dick aufgetragen,{{delay frames=\"8\"}}\noder?{{delay frames=\"40\"}}{{anim id=\"1\"}}",
      "EUen": "{{anim id=\"32\"}}We're having an event called\n{{color id=\"2\"}}Chuseok{{color id=\"65535\"}} here in {{fun_00050005 arg=\"\"}} tonight!{{pageBreak}}{{anim id=\"6\"}}We all watch the moon and eat lots\nof delicious food!{{delay frames=\"40\"}}{{anim id=\"33\"}} And then we all\nrun to the moon!{{delay frames=\"20\"}}{{pageBreak}}{{anim id=\"2\"}}Well, the \"run to the moon\" part is\nreally just a wish of mine!{{delay frames=\"40\"}}{{anim id=\"1\"}} Ha ha!",
      "EUes": "{{anim id=\"32\"}}¡Esta noche celebramos\nel {{color id=\"2\"}}Chuseok{{color id=\"65535\"}} aquí en {{fun_0003000E arg=\"\"}}{{fun_00050005 arg=\"\"}}!{{pageBreak}}{{anim id=\"6\"}}¡Consiste en mirar la luna y\natiborrarse!{{delay frames=\"40\"}}{{anim id=\"33\"}} ¡Y luego nos vamos\ntodos corriendo a la luna!\n{{anim id=\"2\"}}Bueno, ¡eso último es más lo que\nme gustaría que pasase que lo\nque va a ocurrir realmente!{{delay frames=\"40\"}}{{anim id=\"1\"}} ¡Ja, ja!",
      "EUfr": "{{anim id=\"32\"}}En ce moment, à {{fun_00050005 arg=\"\"}}, c'est\n{{color id=\"2\"}}Chuseok{{color id=\"65535\"}} !{{pageBreak}}{{anim id=\"6\"}}On admire la lune en savourant de\ndélicieux gâteaux de riz !{{delay frames=\"40\"}} {{anim id=\"33\"}}Et ensuite,\non fera la course jusqu'à la lune !{{delay frames=\"20\"}}\n{{anim id=\"2\"}}Ha ha, je t'ai {{fun_0006000E arg=\"0x0400650075000600650075006500\"}} !{{delay frames=\"25\"}} Je plaisantais,\npour la course... Même si je serais\nloin d'être contre,{{delay frames=\"8\"}} {{fun_00070005 arg=\"\"}} !{{delay frames=\"25\"}}{{anim id=\"1\"}}",
      "EUit": "{{anim id=\"1\"}}Stasera {{fun_0010000E arg=\"\"}} {{fun_00050005 arg=\"\"}} festeggiamo\nil {{color id=\"2\"}}Chuseok{{color id=\"65535\"}}.{{pageBreak}}{{anim id=\"38\"}}Staremo tutti con il naso in su\na guardare la luna e a mangiare\ndolcetti.\n{{anim id=\"33\"}}Potrei anche decidere di fare\nuna corsetta fin lassù dopo.{{delay frames=\"40\"}}\n{{anim id=\"2\"}}Te le immagini le facce degli altri?{{anim id=\"1\"}}",
      "JPja": "{{anim id=\"32\"}}{{ruby charSpan=\"2\" value=\"きょう\"}}今日　{{fun_00050005 arg=\"\"}}{{ruby charSpan=\"1\" value=\"むら\"}}村では、{{delay frames=\"20\"}}\n{{color id=\"2\"}}{{ruby charSpan=\"2\" value=\"チュソク\"}}秋夕{{color id=\"65535\"}}っていうイベントを\nやってるぞー！{{pageBreak}}{{anim id=\"6\"}}{{ruby charSpan=\"1\" value=\"つき\"}}月を{{ruby charSpan=\"1\" value=\"み\"}}見ながら{{delay frames=\"8\"}}　うまいもんを{{ruby charSpan=\"1\" value=\"く\"}}食う！{{delay frames=\"40\"}}\n{{anim id=\"33\"}}そして{{delay frames=\"8\"}}　{{ruby charSpan=\"1\" value=\"つき\"}}月に{{ruby charSpan=\"1\" value=\"む\"}}向かって{{delay frames=\"20\"}}\n{{ruby charSpan=\"1\" value=\"はし\"}}走るんだー！{{pageBreak}}{{anim id=\"2\"}}まぁ　{{ruby charSpan=\"1\" value=\"はし\"}}走るってのは、{{delay frames=\"20\"}}\nオイラの　オリジナルなんだけどさ！{{delay frames=\"20\"}}\nハハッ！{{delay frames=\"40\"}}{{anim id=\"1\"}}",
      "KRko": "{{anim id=\"32\"}}{{color id=\"2\"}}추석{{color id=\"65535\"}}인데{{delay frames=\"20\"}} 보름달을 보고\n소원은 빌었냐ー?{{pageBreak}}{{anim id=\"6\"}}난 내년에는{{delay frames=\"8\"}} 꼭\n마을 녀석들과 강강술래를\n할 수 있게 해달라고 빌었어!\n{{anim id=\"13\"}}지금까지는 내가 돌기 시작하면{{delay frames=\"20\"}}\n다들 원 밖으로 튕겨 나가서\n한 번도 성공한 적이 없거든ー!{{pageBreak}}{{anim id=\"2\"}}하하핫!{{delay frames=\"20\"}}\n달리기를 잘하는 게 잘못인가?!{{delay frames=\"40\"}}{{anim id=\"1\"}}",
      "USen": "{{anim id=\"32\"}}We're having an event called\n{{color id=\"2\"}}Chuseok{{color id=\"65535\"}} here in {{fun_00050005 arg=\"\"}} tonight!{{pageBreak}}{{anim id=\"6\"}}We all watch the moon and eat lots\nof delicious food!{{delay frames=\"40\"}}{{anim id=\"33\"}} And then we all\nrun to the moon!{{delay frames=\"20\"}}{{pageBreak}}{{anim id=\"2\"}}Well, the \"run to the moon\" part is\nreally just a wish of mine!{{delay frames=\"40\"}}{{anim id=\"1\"}} Ha ha!",
      "USes": "{{anim id=\"32\"}}¡Esta noche vamos a celebrar\nel {{color id=\"2\"}}Chuseok{{color id=\"65535\"}} aquí en {{fun_0003000E arg=\"\"}}{{fun_00050005 arg=\"\"}}!{{pageBreak}}{{anim id=\"6\"}}¡Consiste en mirar la luna y\natiborrarse!{{delay frames=\"40\"}}{{anim id=\"33\"}} ¡Y luego nos vamos\ntodos corriendo a la luna!\n{{anim id=\"2\"}}Bueno, ¡eso último es más lo que\nme gustaría que pasase que lo\nque va a ocurrir realmente!{{delay frames=\"40\"}}{{anim id=\"1\"}} ¡Ja, ja!",
      "USfr": "{{anim id=\"32\"}}En ce moment, à {{fun_00050005 arg=\"\"}}, c'est\n{{color id=\"2\"}}Chuseok{{color id=\"65535\"}}!{{pageBreak}}{{anim id=\"6\"}}On admire la lune en savourant de\ndélicieux gâteaux de riz!{{delay frames=\"40\"}} {{anim id=\"33\"}}Et ensuite,\non fera la course jusqu'à la lune!{{delay frames=\"20\"}}\n{{anim id=\"2\"}}Ha ha, je t'ai {{fun_0006000E arg=\"0x0400650075000600650075006500\"}}!{{delay frames=\"25\"}} Je plaisantais,\npour la course... Même si je serais\nloin d'être contre,{{delay frames=\"8\"}} {{fun_00070005 arg=\"\"}}!{{delay frames=\"25\"}}{{anim id=\"1\"}}"
    }
  },
  {
    "label": "012",
    "locale": {
      "EUde": "{{anim id=\"6\"}}Ich frag mich, {{delay frames=\"8\"}}ob euer Mond schöner\nist oder unserer hier in {{fun_00050005 arg=\"\"}}?{{fun_00010008 arg=\"0x110000001200000013000000\"}}\nDer in {{fun_0003000E arg=\"\"}}{{fun_00050005 arg=\"\"}}!\nDer bei uns!\nDie sind identisch...",
      "EUen": "{{anim id=\"6\"}}Which one's prettier, the moon in\nyour town or the moon here in\n{{fun_00050005 arg=\"\"}}?{{fun_00010008 arg=\"0x110000001200000013000000\"}}\n{{fun_0003000E arg=\"\"}}{{fun_00050005 arg=\"\"}}!\nMy town!\nThey're the same...",
      "EUes": "{{anim id=\"6\"}}¿Cuál te parece que es más bonita,\nla luna de tu pueblo o la que\ntenemos aquí en {{fun_0003000E arg=\"\"}}{{fun_00050005 arg=\"\"}}?{{fun_00010008 arg=\"0x110000001200000013000000\"}}\n¡La de {{fun_0003000E arg=\"\"}}{{fun_00050005 arg=\"\"}}!\n¡La de mi pueblo!\nPero si son la misma...",
      "EUfr": "{{anim id=\"6\"}}Entre la lune de ta ville et celle\n{{fun_000A000E arg=\"0x0600640065002000040064002700\"}}{{fun_00050005 arg=\"\"}}, laquelle est la plus\nbelle ?{{fun_00010008 arg=\"0x110000001200000013000000\"}}\nCelle {{fun_000A000E arg=\"0x0600640065002000040064002700\"}}{{fun_00050005 arg=\"\"}} !\nCelle de ma ville !\nC'est la même lune...",
      "EUit": "{{anim id=\"23\"}}Quale luna è più bella, quella che\nvedi nella tua città o quella che vedi\nqui {{fun_0010000E arg=\"\"}} {{fun_00050005 arg=\"\"}}?{{fun_00010008 arg=\"0x110000001200000013000000\"}}\nQuella di {{fun_00050005 arg=\"\"}}!\nQuella della mia città!\nSono uguali...",
      "JPja": "{{anim id=\"6\"}}オマエの{{ruby charSpan=\"1\" value=\"むら\"}}村の{{ruby charSpan=\"1\" value=\"つき\"}}月と{{delay frames=\"8\"}}\nオイラの{{ruby charSpan=\"1\" value=\"むら\"}}村の{{ruby charSpan=\"1\" value=\"つき\"}}月、{{delay frames=\"20\"}}\nどっちが　キレイだー？{{fun_00010008 arg=\"0x110000001200000013000000\"}}\n{{fun_00050005 arg=\"\"}}{{ruby charSpan=\"1\" value=\"むら\"}}村\n{{ruby charSpan=\"2\" value=\"じぶん\"}}自分の{{ruby charSpan=\"1\" value=\"むら\"}}村\n{{ruby charSpan=\"1\" value=\"おな\"}}同じ",
      "KRko": "{{anim id=\"6\"}}솔직히 말해봐!{{delay frames=\"8\"}}\n넌 저 보름달을 보면{{delay frames=\"20\"}}\n뭐가 생각나냐ー?{{fun_00010008 arg=\"0x110000001200000013000000\"}}\n축구공\n찐빵\n토끼",
      "USen": "{{anim id=\"6\"}}Which one's prettier, the moon in\nyour town or the moon here in\n{{fun_00050005 arg=\"\"}}?{{fun_00010008 arg=\"0x110000001200000013000000\"}}\n{{fun_0003000E arg=\"\"}}{{fun_00050005 arg=\"\"}}!\nMy town!\nThey're the same...",
      "USes": "{{anim id=\"6\"}}¿Cuál te parece que es más bonita,\nla luna de tu pueblo o la que\ntenemos aquí en {{fun_0003000E arg=\"\"}}{{fun_00050005 arg=\"\"}}?{{fun_00010008 arg=\"0x110000001200000013000000\"}}\n¡La de {{fun_0003000E arg=\"\"}}{{fun_00050005 arg=\"\"}}!\n¡La de mi pueblo!\nPero si son la misma...",
      "USfr": "{{anim id=\"6\"}}Entre la lune de ta ville et celle\n{{fun_000A000E arg=\"0x0600640065002000040064002700\"}}{{fun_00050005 arg=\"\"}}, laquelle est la plus\nbelle?{{fun_00010008 arg=\"0x110000001200000013000000\"}}\nCelle {{fun_000A000E arg=\"0x0600640065002000040064002700\"}}{{fun_00050005 arg=\"\"}}!\nCelle de ma ville!\nC'est la même lune..."
    }
  },
  {
    "label": "013",
    "locale": {
      "EUde": "",
      "EUen": "",
      "EUes": "",
      "EUfr": "",
      "EUit": "",
      "JPja": "",
      "KRko": "",
      "USen": "",
      "USes": "",
      "USfr": ""
    }
  },
  {
    "label": "014",
    "locale": {
      "EUde": "{{anim id=\"13\"}}{{fun_000B0007 arg=\"\"}}Heiliges Hüpfseil!{{delay frames=\"40\"}} Ich wusste doch,\n{{delay frames=\"8\"}}dass du ein Mondmensch sein musst!{{pageBreak}}{{anim id=\"23\"}}Moment mal! {{delay frames=\"40\"}}Wie kommst du\nüberhaupt zurück nach Hause?{{pageBreak}}{{anim id=\"19\"}}{{delay frames=\"20\"}}Wow{{delay frames=\"8\"}}.{{delay frames=\"8\"}}.{{delay frames=\"8\"}}.{{delay frames=\"20\"}} Jetzt sitzt du hier für immer\nfest, {{delay frames=\"8\"}}{{fun_0006000E arg=\"0x1800530070006F0072007400730066007200650075006E0064001C00530070006F0072007400730066007200650075006E00640069006E00\"}}!",
      "EUen": "{{anim id=\"13\"}}{{fun_000B0007 arg=\"\"}}Whoa! I knew it! I knew you came\nfrom the moon!{{pageBreak}}{{anim id=\"23\"}}Wait a minute? How are you going\nto get back home?{{pageBreak}}{{anim id=\"19\"}}{{delay frames=\"20\"}}Man, now I'm starting to feel sorry\nfor you{{delay frames=\"8\"}}.{{delay frames=\"8\"}}.{{delay frames=\"8\"}}.",
      "EUes": "{{anim id=\"13\"}}{{fun_000B0007 arg=\"\"}}¡Vaya! ¡Lo sabía! ¡Estaba\nconvencido de que habías\nvenido de la luna!\n{{anim id=\"23\"}}Oye, una cosa... ¿Y ahora cómo\nvas a hacer para volver allí?{{pageBreak}}{{anim id=\"19\"}}Pues ahora sí que lo tienes chungo.\nLo siento por ti, colega{{delay frames=\"8\"}}.{{delay frames=\"8\"}}.{{delay frames=\"8\"}}.",
      "EUfr": "{{anim id=\"13\"}}{{fun_000B0007 arg=\"\"}}Oh ! Je le savais ! Ça m'aura pris du\ntemps, mais je t'ai enfin {{fun_0006000E arg=\"0x0A007000650072006300E9000C007000650072006300E9006500\"}} à\njour !\n{{anim id=\"0\"}}Mais...{{delay frames=\"20\"}} {{anim id=\"11\"}}minute ! Pourquoi tu ne t'es\npas encore {{fun_0006000E arg=\"0x14007400720061006E00730066006F0072006D00E90016007400720061006E00730066006F0072006D00E9006500\"}}, au juste ?!{{pageBreak}}{{anim id=\"19\"}}{{delay frames=\"20\"}}Hum.{{delay frames=\"20\"}}{{pageBreak}}{{anim id=\"41\"}}Raaaah, OK, c'est bon... J'ai encore\nraté une occasion de me taire{{delay frames=\"8\"}}.{{delay frames=\"8\"}}.{{delay frames=\"8\"}}.",
      "EUit": "{{anim id=\"13\"}}{{fun_000B0007 arg=\"\"}}Lo sapevo! Sapevo che venivi\ndalla luna!{{delay frames=\"40\"}}{{pageBreak}}{{anim id=\"23\"}}Come sei arrivat{{fun_0006000E arg=\"0x02006F0002006100\"}}? Come torni\na casa?{{pageBreak}}{{anim id=\"19\"}}{{delay frames=\"20\"}}Non ho mai visto una creatura\nlunare prima d'ora{{delay frames=\"8\"}}.{{delay frames=\"8\"}}.{{delay frames=\"8\"}}.",
      "JPja": "{{anim id=\"13\"}}{{fun_000B0007 arg=\"\"}}うぉーーっ！{{delay frames=\"20\"}}\nやっぱり　そうだー！{{delay frames=\"40\"}}\n{{ruby charSpan=\"1\" value=\"つき\"}}月から{{ruby charSpan=\"1\" value=\"き\"}}来た　{{ruby charSpan=\"1\" value=\"つき\"}}月{{ruby charSpan=\"2\" value=\"せいじん\"}}星人！{{pageBreak}}{{anim id=\"23\"}}あれ？{{delay frames=\"40\"}}\nオマエ　どうやって{{ruby charSpan=\"1\" value=\"かえ\"}}帰るんだ？{{pageBreak}}{{anim id=\"19\"}}{{delay frames=\"20\"}}なんか{{delay frames=\"20\"}}　かわいそうに\nなってきたぞ{{delay frames=\"8\"}}・{{delay frames=\"8\"}}・{{delay frames=\"8\"}}・",
      "KRko": "{{anim id=\"13\"}}{{fun_000B0007 arg=\"\"}}역시 그랬군!{{delay frames=\"40\"}}\n너한테서 오늘따라{{delay frames=\"20\"}}\n이상한 기운이 느껴졌다구!{{pageBreak}}{{anim id=\"23\"}}어?{{delay frames=\"40\"}}\n근데 너 지금은 그대로인데?{{delay frames=\"20\"}}\n변신 안 하냐?{{pageBreak}}{{anim id=\"19\"}}{{delay frames=\"20\"}}변신할 타이밍도 조절할 수 있다니{{delay frames=\"20\"}}\n역시 보통 녀석이 아니었어{{delay frames=\"8\"}}・{{delay frames=\"8\"}}・{{delay frames=\"8\"}}・",
      "USen": "{{anim id=\"13\"}}{{fun_000B0007 arg=\"\"}}Whoa! I knew it! I knew you came\nfrom the moon!{{pageBreak}}{{anim id=\"23\"}}Wait a minute? How are you going\nto get back home?{{pageBreak}}{{anim id=\"19\"}}{{delay frames=\"20\"}}Man, now I'm starting to feel sorry\nfor you{{delay frames=\"8\"}}.{{delay frames=\"8\"}}.{{delay frames=\"8\"}}.",
      "USes": "{{anim id=\"13\"}}{{fun_000B0007 arg=\"\"}}¡Vaya! ¡Lo sabía! ¡Estaba\nconvencido de que habías\nvenido de la luna!\n{{anim id=\"23\"}}Oye, una cosa... ¿Y ahora cómo\nvas a hacer para volver allí?{{pageBreak}}{{anim id=\"19\"}}Pues ahora sí que lo tienes chungo.\nLo siento por ti, colega{{delay frames=\"8\"}}.{{delay frames=\"8\"}}.{{delay frames=\"8\"}}.",
      "USfr": "{{anim id=\"13\"}}{{fun_000B0007 arg=\"\"}}Oh! Je le savais! Ça m'aura pris du\ntemps, mais je t'ai enfin {{fun_0006000E arg=\"0x0A007000650072006300E9000C007000650072006300E9006500\"}} à\njour!\n{{anim id=\"0\"}}Mais...{{delay frames=\"20\"}} {{anim id=\"11\"}}minute! Pourquoi tu ne t'es\npas encore {{fun_0006000E arg=\"0x14007400720061006E00730066006F0072006D00E90016007400720061006E00730066006F0072006D00E9006500\"}}, au juste?!{{pageBreak}}{{anim id=\"19\"}}{{delay frames=\"20\"}}Hum.{{delay frames=\"20\"}}{{pageBreak}}{{anim id=\"41\"}}Raaaah, OK, c'est bon... J'ai encore\nraté une occasion de me taire{{delay frames=\"8\"}}.{{delay frames=\"8\"}}.{{delay frames=\"8\"}}."
    }
  },
  {
    "label": "015",
    "locale": {
      "EUde": "{{anim id=\"15\"}}B-{{delay frames=\"20\"}}bist du dir ganz sicher?{{delay frames=\"40\"}}{{anim id=\"6\"}} Hmm{{delay frames=\"8\"}}.{{delay frames=\"8\"}}.{{delay frames=\"8\"}}.{{delay frames=\"20\"}}\nIrgendwie vertrau ich dir nicht so\nganz, {{delay frames=\"8\"}}{{fun_0006000E arg=\"0x1800530070006F0072007400730066007200650075006E0064001C00530070006F0072007400730066007200650075006E00640069006E00\"}}.",
      "EUen": "{{anim id=\"15\"}}A-{{delay frames=\"20\"}}are you sure? {{delay frames=\"40\"}}{{anim id=\"6\"}}How do I know I\ncan trust you, {{fun_0006000E arg=\"0x100061006C00690065006E00620072006F001A006C00610064007900200061006C00690065006E00620072006F00\"}}?",
      "EUes": "{{anim id=\"15\"}}Pero...{{delay frames=\"20\"}} Oye, ¿lo dices en serio?{{delay frames=\"40\"}}\n{{anim id=\"6\"}}¿Y cómo puedo saber que dices\nla verdad, campe{{fun_0006000E arg=\"0x0400F3006E0006006F006E006100\"}} lunar?",
      "EUfr": "{{anim id=\"35\"}}{{fun_0003000E arg=\"\"}}{{fun_00070005 arg=\"\"}}, je m'attendais à une\nréponse de ce genre, figure-toi...{{pageBreak}}{{anim id=\"6\"}}Je t'ai à l'œil, {{fun_00080005 arg=\"\"}} !{{delay frames=\"15\"}} À la\nmoindre poussée de poil suspecte,\nt'auras affaire à moi !",
      "EUit": "{{anim id=\"15\"}}Sei sicur{{fun_0006000E arg=\"0x02006F0002006100\"}}?{{delay frames=\"40\"}} Mmmh{{delay frames=\"8\"}}.{{delay frames=\"8\"}}.{{delay frames=\"8\"}}.{{delay frames=\"20\"}} {{anim id=\"6\"}}Come faccio\na sapere che non mi stai mentendo?",
      "JPja": "{{anim id=\"15\"}}そ、{{delay frames=\"20\"}}そうか？{{delay frames=\"40\"}}\n{{anim id=\"6\"}}うーーん　{{delay frames=\"20\"}}でも\nやっぱり　あやしい{{delay frames=\"8\"}}・{{delay frames=\"8\"}}・{{delay frames=\"8\"}}・",
      "KRko": "{{anim id=\"15\"}}그,{{delay frames=\"20\"}} 그래?{{delay frames=\"40\"}}\n{{anim id=\"6\"}}하지만{{delay frames=\"20\"}} 여전히\n의심스러운걸{{delay frames=\"8\"}}・{{delay frames=\"8\"}}・{{delay frames=\"8\"}}・",
      "USen": "{{anim id=\"15\"}}A-{{delay frames=\"20\"}}are you sure? {{delay frames=\"40\"}}{{anim id=\"6\"}}How do I know I\ncan trust you, {{fun_0006000E arg=\"0x100061006C00690065006E00620072006F001A006C00610064007900200061006C00690065006E00620072006F00\"}}?",
      "USes": "{{anim id=\"15\"}}Pero...{{delay frames=\"20\"}} Oye, ¿lo dices en serio?{{delay frames=\"40\"}}\n{{anim id=\"6\"}}¿Y cómo puedo saber que dices\nla verdad, campe{{fun_0006000E arg=\"0x0400F3006E0006006F006E006100\"}} lunar?",
      "USfr": "{{anim id=\"35\"}}{{fun_0003000E arg=\"\"}}{{fun_00070005 arg=\"\"}}, je m'attendais à une\nréponse de ce genre, figure-toi...{{pageBreak}}{{anim id=\"6\"}}Je t'ai à l'œil, {{fun_00080005 arg=\"\"}}!{{delay frames=\"15\"}} À la\nmoindre poussée de poil suspecte,\nt'auras affaire à moi!"
    }
  },
  {
    "label": "016",
    "locale": {
      "EUde": "",
      "EUen": "",
      "EUes": "",
      "EUfr": "",
      "EUit": "",
      "JPja": "",
      "KRko": "",
      "USen": "",
      "USes": "",
      "USfr": ""
    }
  },
  {
    "label": "017",
    "locale": {
      "EUde": "{{anim id=\"2\"}}Haha!{{delay frames=\"40\"}} Ich liebe meine Stadt!{{delay frames=\"20\"}}\nSie ist ganz so wie ich{{delay frames=\"8\"}}.{{delay frames=\"8\"}}.{{delay frames=\"8\"}}.{{delay frames=\"20\"}}\nüberall die Nummer eins!{{delay frames=\"20\"}}{{anim id=\"1\"}}",
      "EUen": "{{anim id=\"2\"}}Heh heh! I'm proud of my town!\nI guess this is the best spot to\nobserve the moon as well, huh?{{anim id=\"1\"}}",
      "EUes": "{{anim id=\"2\"}}¡Ja, ja! ¡Estoy orgulloso de mi\npueblo! ¡Desde aquí se ve la luna\nmejor que en ningún sitio!{{anim id=\"1\"}}",
      "EUfr": "{{anim id=\"2\"}}Ha ha ! J'en étais sûr ! Cette ville\nest un vrai petit paradis, normal que\nla lune y soit plus jolie !{{anim id=\"1\"}}",
      "EUit": "{{anim id=\"2\"}}Amo la mia città! Questo è il miglior\nposto per osservare la luna!{{anim id=\"1\"}}",
      "JPja": "{{anim id=\"2\"}}へへっ！{{delay frames=\"20\"}}\nさすが　オイラの{{ruby charSpan=\"1\" value=\"むら\"}}村！{{delay frames=\"40\"}}\n{{ruby charSpan=\"1\" value=\"つき\"}}月のキレイさも{{ruby charSpan=\"2\" value=\"いちばん\"}}一番なんだな！{{delay frames=\"20\"}}{{anim id=\"1\"}}",
      "KRko": "{{anim id=\"2\"}}하하핫!{{delay frames=\"20\"}}\n나도 같은 생각을 했는데!{{delay frames=\"40\"}}\n언젠가 저 달로 축구 시합 해보고 싶다!{{delay frames=\"20\"}}{{anim id=\"1\"}}",
      "USen": "{{anim id=\"2\"}}Heh heh! I'm proud of my town!\nI guess this is the best spot to\nobserve the moon as well, huh?{{anim id=\"1\"}}",
      "USes": "{{anim id=\"2\"}}¡Ja, ja! ¡Estoy orgulloso de mi\npueblo! ¡Desde aquí se ve la luna\nmejor que en ningún sitio!{{anim id=\"1\"}}",
      "USfr": "{{anim id=\"2\"}}Ha ha! J'en étais sûr! Cette ville\nest un vrai petit paradis, normal que\nla lune y soit plus jolie!{{anim id=\"1\"}}"
    }
  },
  {
    "label": "018",
    "locale": {
      "EUde": "{{anim id=\"15\"}}Echt?! Bist du dir ganz sicher?!{{pageBreak}}{{anim id=\"28\"}}Hmm{{delay frames=\"8\"}}.{{delay frames=\"8\"}}.{{delay frames=\"8\"}}.{{delay frames=\"20\"}} NOCH schöner als unserer?{{delay frames=\"20\"}}\nDas muss ich irgendwann mal mit\neigenen Augen sehen, {{delay frames=\"8\"}}{{fun_00070005 arg=\"\"}}!",
      "EUen": "{{anim id=\"15\"}}What?! Are you serious?!{{pageBreak}}{{anim id=\"28\"}}All right{{delay frames=\"8\"}}.{{delay frames=\"8\"}}.{{delay frames=\"8\"}}.{{delay frames=\"20\"}} If I get the chance to\nvisit your town, I'll be sure to check\nout your moon! {{delay frames=\"8\"}}{{fun_0003000E arg=\"\"}}{{fun_00070005 arg=\"\"}}!",
      "EUes": "{{anim id=\"15\"}}¡¿Qué?! ¡¿En serio?!{{pageBreak}}{{anim id=\"28\"}}Vale{{delay frames=\"8\"}}.{{delay frames=\"8\"}}.{{delay frames=\"8\"}}.{{delay frames=\"20\"}} Pues me apunto esto que\ndices, ¡por si algún día visito\ntu pueblo y puedo comprobarlo!",
      "EUfr": "{{anim id=\"15\"}}{{fun_0003000E arg=\"\"}}{{fun_00070005 arg=\"\"}} ?!{{delay frames=\"20\"}} Pour de vrai ?{{pageBreak}}{{anim id=\"28\"}}OK{{delay frames=\"8\"}}.{{delay frames=\"8\"}}.{{delay frames=\"8\"}}.{{delay frames=\"20\"}} Dans ce cas, si jamais j'ai\nl'occasion de visiter ta ville, je\npenserai à regarder la lune !",
      "EUit": "{{anim id=\"15\"}}Davvero?!{{pageBreak}}{{anim id=\"28\"}}Mmmh{{delay frames=\"8\"}}.{{delay frames=\"8\"}}.{{delay frames=\"8\"}}.{{delay frames=\"20\"}} Se passo dalle tue parti,\ndevo ricordarmi di dare un'occhiata\nalla tua luna, {{delay frames=\"8\"}}{{fun_00070005 arg=\"\"}}!",
      "JPja": "{{anim id=\"15\"}}ナニッ？！{{delay frames=\"20\"}}\nホントかー？！{{pageBreak}}{{anim id=\"28\"}}よーっし{{delay frames=\"8\"}}・{{delay frames=\"8\"}}・{{delay frames=\"8\"}}・{{delay frames=\"20\"}}\nいつか　オマエの{{ruby charSpan=\"1\" value=\"むら\"}}村に{{ruby charSpan=\"1\" value=\"い\"}}行ったら\nじっくり　{{ruby charSpan=\"1\" value=\"み\"}}見せてもらうぞ、{{delay frames=\"8\"}}{{fun_00070005 arg=\"\"}}",
      "KRko": "{{anim id=\"15\"}}뭐라고?!{{delay frames=\"20\"}} 찐빵ー?!{{pageBreak}}{{anim id=\"28\"}}그렇다면{{delay frames=\"8\"}}・{{delay frames=\"8\"}}・{{delay frames=\"8\"}}・{{delay frames=\"20\"}}\n넌 지금 배가 고프구나?\n{{delay frames=\"8\"}}{{fun_00070005 arg=\"\"}}?",
      "USen": "{{anim id=\"15\"}}What?! Are you serious?!{{pageBreak}}{{anim id=\"28\"}}All right{{delay frames=\"8\"}}.{{delay frames=\"8\"}}.{{delay frames=\"8\"}}.{{delay frames=\"20\"}} If I get the chance to\nvisit your town, I'll be sure to check\nout your moon! {{delay frames=\"8\"}}{{fun_0003000E arg=\"\"}}{{fun_00070005 arg=\"\"}}!",
      "USes": "{{anim id=\"15\"}}¡¿Qué?! ¡¿En serio?!{{pageBreak}}{{anim id=\"28\"}}Vale{{delay frames=\"8\"}}.{{delay frames=\"8\"}}.{{delay frames=\"8\"}}.{{delay frames=\"20\"}} Pues me apunto esto que\ndices, ¡por si algún día visito\ntu pueblo y puedo comprobarlo!",
      "USfr": "{{anim id=\"15\"}}{{fun_0003000E arg=\"\"}}{{fun_00070005 arg=\"\"}}?!{{delay frames=\"20\"}} Pour de vrai?{{pageBreak}}{{anim id=\"28\"}}OK{{delay frames=\"8\"}}.{{delay frames=\"8\"}}.{{delay frames=\"8\"}}.{{delay frames=\"20\"}} Dans ce cas, si jamais j'ai\nl'occasion de visiter ta ville, je\npenserai à regarder la lune!"
    }
  },
  {
    "label": "019",
    "locale": {
      "EUde": "{{anim id=\"18\"}}„Identisch“? {{delay frames=\"40\"}}{{anim id=\"11\"}}\nSpricht man das nicht in Identien?{{pageBreak}}Meinst du, {{delay frames=\"8\"}}dass alle unsere Monde\naus 'nem fernen Land kommen?{{pageBreak}}{{anim id=\"0\"}}Na ja...{{delay frames=\"40\"}}{{anim id=\"27\"}} Irgendwo müssen die sich\nnach ihrem Nachtmarathon ja\nausruhen, {{delay frames=\"8\"}}{{fun_00070005 arg=\"\"}}!",
      "EUen": "{{anim id=\"18\"}}They're the same? {{delay frames=\"40\"}}{{anim id=\"12\"}}Well, yeah, I get\nthat, but{{delay frames=\"8\"}}.{{delay frames=\"8\"}}.{{delay frames=\"8\"}}.{{delay frames=\"20\"}}{{pageBreak}}There must be some differences,\nlike the scenery or the feelings you\nget when you look up at the moon!{{pageBreak}}{{anim id=\"27\"}}I guess it takes a really mature\nperson to notice those kinds of\nthings, {{delay frames=\"8\"}}{{fun_00070005 arg=\"\"}}!",
      "EUes": "{{anim id=\"18\"}}¿Son la misma luna? {{delay frames=\"40\"}}{{anim id=\"12\"}}Bueno, ya,\nes verdad, pero{{delay frames=\"8\"}}.{{delay frames=\"8\"}}.{{delay frames=\"8\"}}.{{delay frames=\"20\"}}{{pageBreak}}Oye, sí que hay diferencias en el\nescenario desde el que miras, ¡y\nla sensación que te da hacerlo!\n{{anim id=\"27\"}}¡Supongo que hace falta ser una\npersona madura para darse cuenta\nde ese tipo de cosas, {{delay frames=\"8\"}}{{fun_00070005 arg=\"\"}}!",
      "EUfr": "{{anim id=\"18\"}}La même lune ?{{delay frames=\"40\"}} {{anim id=\"12\"}}Oui, bon, pas besoin\nde jouer sur les mots, je suis au\ncourant, hein{{delay frames=\"8\"}}.{{delay frames=\"8\"}}.{{delay frames=\"8\"}}.\nCela dit, il doit bien y avoir des\ndifférences quand même... Le\npaysage, par exemple !\n{{anim id=\"27\"}}Tu dois vraiment manquer\nd'expérience pour ne pas remarquer\nce genre de choses,{{delay frames=\"8\"}} {{fun_00070005 arg=\"\"}} !",
      "EUit": "{{anim id=\"18\"}}Sono uguali? Che vuol dire\nche sono uguali?{{pageBreak}}{{anim id=\"27\"}}Non esistono due lune uguali!{{pageBreak}}{{anim id=\"15\"}}Cosa? C'è un'unica luna???{{delay frames=\"40\"}}\n{{anim id=\"6\"}}Perché sono sempre l'ultimo\na sapere certe cose, {{delay frames=\"8\"}}{{fun_00070005 arg=\"\"}}?",
      "JPja": "{{anim id=\"18\"}}{{ruby charSpan=\"1\" value=\"おな\"}}同じ{{delay frames=\"20\"}}って{{delay frames=\"8\"}}・{{delay frames=\"8\"}}・{{delay frames=\"8\"}}・{{delay frames=\"40\"}}\n{{anim id=\"12\"}}そりゃ　そーだけどさ{{pageBreak}}もっと　あるじゃんか{{delay frames=\"20\"}}\n{{ruby charSpan=\"1\" value=\"まわ\"}}回りの{{ruby charSpan=\"2\" value=\"ふうけい\"}}風景とか、{{delay frames=\"8\"}}\n{{ruby charSpan=\"1\" value=\"み\"}}見るときの　{{ruby charSpan=\"2\" value=\"きも\"}}気持ちとか{{pageBreak}}{{anim id=\"27\"}}オマエも　まだまだ\nこどもだな、{{delay frames=\"8\"}}{{fun_00070005 arg=\"\"}}",
      "KRko": "{{anim id=\"18\"}}오옷!{{delay frames=\"20\"}} 토끼 말이지?{{pageBreak}}{{anim id=\"12\"}}옛날에 우리 엄마가{{delay frames=\"20\"}}\n달에서 떡을 찧는 토끼에 대해\n얘기해주시고는 했는데{{delay frames=\"8\"}}・{{delay frames=\"8\"}}・{{delay frames=\"8\"}}・{{pageBreak}}{{anim id=\"10\"}}하아{{delay frames=\"8\"}}・{{delay frames=\"8\"}}・{{delay frames=\"8\"}}・{{delay frames=\"20\"}}\n갑자기 엄마 얼굴이\n보고 싶다, {{delay frames=\"8\"}}{{fun_00070005 arg=\"\"}}",
      "USen": "{{anim id=\"18\"}}They're the same? {{delay frames=\"40\"}}{{anim id=\"12\"}}Well, yeah, I get\nthat, but{{delay frames=\"8\"}}.{{delay frames=\"8\"}}.{{delay frames=\"8\"}}.{{delay frames=\"20\"}}{{pageBreak}}There must be some differences,\nlike the scenery or the feelings you\nget when you look up at the moon!{{pageBreak}}{{anim id=\"27\"}}I guess it takes a really mature\nperson to notice those kinds of\nthings, {{delay frames=\"8\"}}{{fun_00070005 arg=\"\"}}!",
      "USes": "{{anim id=\"18\"}}¿Son la misma luna? {{delay frames=\"40\"}}{{anim id=\"12\"}}Bueno, ya,\nes verdad, pero{{delay frames=\"8\"}}.{{delay frames=\"8\"}}.{{delay frames=\"8\"}}.{{delay frames=\"20\"}}{{pageBreak}}Oye, sí que hay diferencias en el\nescenario desde el que miras, ¡y\nla sensación que te da hacerlo!\n{{anim id=\"27\"}}¡Supongo que hace falta ser una\npersona madura para darse cuenta\nde ese tipo de cosas, {{delay frames=\"8\"}}{{fun_00070005 arg=\"\"}}!",
      "USfr": "{{anim id=\"18\"}}La même lune?{{delay frames=\"40\"}} {{anim id=\"12\"}}Oui, bon, pas besoin\nde jouer sur les mots, je suis au\ncourant, hein{{delay frames=\"8\"}}.{{delay frames=\"8\"}}.{{delay frames=\"8\"}}.\nCela dit, il doit bien y avoir des\ndifférences quand même... Le\npaysage, par exemple!\n{{anim id=\"27\"}}Tu dois vraiment manquer\nd'expérience pour ne pas remarquer\nce genre de choses,{{delay frames=\"8\"}} {{fun_00070005 arg=\"\"}}!"
    }
  }
]