﻿[
  {
    "label": "001",
    "locale": {
      "EUde": "{{fun_00010009 arg=\"0x0B000C000D00\"}}",
      "EUen": "{{fun_00010009 arg=\"0x0B000C000D00\"}}",
      "EUes": "{{fun_00010009 arg=\"0x0B000C000D00\"}}",
      "EUfr": "{{fun_00010009 arg=\"0x0B000C000D00\"}}",
      "EUit": "{{fun_00010009 arg=\"0x0B000C000D00\"}}",
      "JPja": "{{fun_00010009 arg=\"0x0B000C000D00\"}}",
      "KRko": "{{fun_00010009 arg=\"0x0B000C000D00\"}}",
      "USen": "{{fun_00010009 arg=\"0x0B000C000D00\"}}",
      "USes": "{{fun_00010009 arg=\"0x0B000C000D00\"}}",
      "USfr": "{{fun_00010009 arg=\"0x0B000C000D00\"}}"
    }
  },
  {
    "label": "002",
    "locale": {
      "EUde": "{{anim id=\"13\"}}Hast du schon die schrecklichen\nNeuigkeiten gehört? {{delay frames=\"40\"}}{{fun_0003000E arg=\"\"}}{{fun_00010011 arg=\"0x0000\"}}\nsoll wohl tierisch krank sein!\n{{anim id=\"11\"}}Hmm{{delay frames=\"8\"}}.{{delay frames=\"8\"}}.{{delay frames=\"8\"}}.{{delay frames=\"20\"}} Hat {{fun_0008000E arg=\"0x00CD0400650072000600730069006500040065007300\"}} vergessen,{{delay frames=\"8\"}} die Hände\nzu waschen? {{delay frames=\"20\"}}Oder zu gurgeln?{{delay frames=\"40\"}}{{anim id=\"27\"}} Wer's\nnicht rausgurgelt, {{delay frames=\"8\"}}hustet's raus!{{pageBreak}}{{anim id=\"21\"}}Wie auch immer! {{delay frames=\"40\"}}{{anim id=\"1\"}}Ich muss jetzt zu\n{{fun_0008000E arg=\"0x00CD0600690068006D0006006900680072000600690068006D00\"}} und {{fun_0008000E arg=\"0x00CD0600690068006D0006006900680072000600690068006D00\"}} im Kampf gegen diese\nKrankheit helfen, {{delay frames=\"8\"}}{{fun_00070005 arg=\"\"}}!",
      "EUen": "{{anim id=\"13\"}}Aw, that's terrible! {{fun_0003000E arg=\"\"}}{{fun_00010011 arg=\"0x0000\"}} has\na cold, I hear!{{pageBreak}}{{anim id=\"27\"}}Hmm{{delay frames=\"8\"}}.{{delay frames=\"8\"}}.{{delay frames=\"8\"}}.{{delay frames=\"20\"}} Did {{fun_0008000E arg=\"0x00CD04006800650006007300680065000000\"}} forget to wash {{fun_0008000E arg=\"0x00CD060068006900730006006800650072000000\"}}\nhands? And gargle? Ya gotta gargle.{{pageBreak}}{{anim id=\"21\"}}Well, it's settled. {{delay frames=\"40\"}}{{anim id=\"1\"}}I gotta go check\nup on {{fun_0008000E arg=\"0x00CD0600680069006D0006006800650072000000\"}} and help {{fun_0008000E arg=\"0x00CD0600680069006D0006006800650072000000\"}} kick this \ncold's butt! {{delay frames=\"8\"}}{{fun_0003000E arg=\"\"}}{{fun_00070005 arg=\"\"}}!",
      "EUes": "{{anim id=\"13\"}}¡Vaya, qué mal! ¡He oído que\n{{fun_00010011 arg=\"0x0000\"}} tiene un buen catarro!{{pageBreak}}{{anim id=\"27\"}}Hum{{delay frames=\"8\"}}.{{delay frames=\"8\"}}.{{delay frames=\"8\"}}.{{delay frames=\"20\"}} ¿Se habrá olvidado de\nlavarse las manos? ¿Y de hacer\ngárgaras? ¡Eso es primordial!\n{{anim id=\"21\"}}Bueno, ya lo he decidido... {{delay frames=\"40\"}}{{anim id=\"1\"}}¡Voy\na ir a verl{{fun_0008000E arg=\"0x00CD02006500020061000000\"}} para darle mi apoyo!\n¡Que se prepare ese catarro!",
      "EUfr": "{{anim id=\"13\"}}C'est terrible ! {{fun_00010011 arg=\"0x0000\"}} est entre\nla vie et la mort ! {{fun_0008000E arg=\"0x00CD040049006C00080045006C006C0065000000\"}} a pris froid !{{pageBreak}}{{anim id=\"27\"}}Tsssss, {{fun_0008000E arg=\"0x00CD06006C0075006900080065006C006C0065000000\"}} et sa sale manie de\nprendre des bains de minuit...{{delay frames=\"8\"}}\n{{fun_0003000E arg=\"\"}}{{fun_00070005 arg=\"\"}}.\n{{anim id=\"1\"}}Je passerai {{fun_0008000E arg=\"0x00CD04006C00650004006C0061000000\"}} voir tout à l'heure,\ndes fois que je puisse l'aider à\nrégler son compte à ce sale rhume !",
      "EUit": "{{anim id=\"13\"}}Hai sentito?\n{{fun_00010011 arg=\"0x0000\"}} ha il raffreddore!{{pageBreak}}{{anim id=\"27\"}}Mmmh{{delay frames=\"8\"}}.{{delay frames=\"8\"}}.{{delay frames=\"8\"}}.{{delay frames=\"20\"}} Avrà bisogno di vitamine\ne magari di un mio superfrullato\nper tornare presto in forma.{{pageBreak}}{{anim id=\"21\"}}Bene, ho deciso. {{delay frames=\"40\"}}{{anim id=\"1\"}}Più tardi andrò\na vedere come sta. Insieme, daremo\nun calcio ai microbi, {{delay frames=\"8\"}}{{fun_00070005 arg=\"\"}}!",
      "JPja": "{{anim id=\"13\"}}オイ！{{delay frames=\"8\"}}　{{ruby charSpan=\"2\" value=\"たいへん\"}}大変だ！{{delay frames=\"40\"}}\n{{fun_00010011 arg=\"0x0000\"}}が　カゼひいたってさ！{{pageBreak}}{{anim id=\"27\"}}さては　アイツ、{{delay frames=\"20\"}}\n{{ruby charSpan=\"1\" value=\"て\"}}手あらい　うがい\nさぼったなー？{{pageBreak}}{{anim id=\"21\"}}よーっし！{{delay frames=\"40\"}}\n{{anim id=\"1\"}}あとで　おみまいにでも\n{{ruby charSpan=\"1\" value=\"い\"}}行ってこようかな、{{delay frames=\"8\"}}{{fun_00070005 arg=\"\"}}",
      "KRko": "{{anim id=\"13\"}}이봐!{{delay frames=\"8\"}} 큰일이야!{{delay frames=\"40\"}}\n{{fun_00010011 arg=\"0x0000\"}} 녀석이\n감기 걸렸대!{{pageBreak}}{{anim id=\"27\"}}그 녀석, 분명히{{delay frames=\"20\"}}\n손도 잘 안 닦고 양치질도 자주\n빼먹어서 그런 걸 거야ー!{{pageBreak}}{{anim id=\"21\"}}그래그래!{{delay frames=\"40\"}}\n{{anim id=\"1\"}}나중에 병문안도 할 겸\n가봐야겠어, {{delay frames=\"8\"}}{{fun_00070005 arg=\"\"}}",
      "USen": "{{anim id=\"13\"}}Aw, that's terrible! {{fun_0003000E arg=\"\"}}{{fun_00010011 arg=\"0x0000\"}} has\na cold, I hear!{{pageBreak}}{{anim id=\"27\"}}Hmm{{delay frames=\"8\"}}.{{delay frames=\"8\"}}.{{delay frames=\"8\"}}.{{delay frames=\"20\"}} Did {{fun_0008000E arg=\"0x00CD04006800650006007300680065000000\"}} forget to wash {{fun_0008000E arg=\"0x00CD060068006900730006006800650072000000\"}}\nhands? And gargle? Ya gotta gargle.{{pageBreak}}{{anim id=\"21\"}}Well, it's settled. {{delay frames=\"40\"}}{{anim id=\"1\"}}I gotta go check\nup on {{fun_0008000E arg=\"0x00CD0600680069006D0006006800650072000000\"}} and help {{fun_0008000E arg=\"0x00CD0600680069006D0006006800650072000000\"}} kick this \ncold's butt! {{delay frames=\"8\"}}{{fun_0003000E arg=\"\"}}{{fun_00070005 arg=\"\"}}!",
      "USes": "{{anim id=\"13\"}}¡Vaya, qué mal! ¡He oído que\n{{fun_00010011 arg=\"0x0000\"}} tiene un buen catarro!{{pageBreak}}{{anim id=\"27\"}}Hum{{delay frames=\"8\"}}.{{delay frames=\"8\"}}.{{delay frames=\"8\"}}.{{delay frames=\"20\"}} ¿Se habrá olvidado de\nlavarse las manos? ¿Y de hacer\ngárgaras? ¡Eso es primordial!\n{{anim id=\"21\"}}Bueno, ya lo he decidido... {{delay frames=\"40\"}}{{anim id=\"1\"}}¡Voy\na ir a verl{{fun_0008000E arg=\"0x00CD02006500020061000000\"}} para darle mi apoyo!\n¡Que se prepare ese catarro!",
      "USfr": "{{anim id=\"13\"}}C'est terrible! {{fun_00010011 arg=\"0x0000\"}} est entre\nla vie et la mort! {{fun_0008000E arg=\"0x00CD040049006C00080045006C006C0065000000\"}} a pris froid!{{pageBreak}}{{anim id=\"27\"}}Tsssss, {{fun_0008000E arg=\"0x00CD06006C0075006900080065006C006C0065000000\"}} et sa sale manie de\nprendre des bains de minuit...{{delay frames=\"8\"}}\n{{fun_0003000E arg=\"\"}}{{fun_00070005 arg=\"\"}}.\n{{anim id=\"1\"}}Je passerai {{fun_0008000E arg=\"0x00CD04006C00650004006C0061000000\"}} voir tout à l'heure,\ndes fois que je puisse l'aider à\nrégler son compte à ce sale rhume!"
    }
  },
  {
    "label": "003",
    "locale": {
      "EUde": "{{anim id=\"1\"}}Ich hab gehört, {{delay frames=\"8\"}}dass in unserer\nStadt grad 'ne neue Bude gebaut\nwird.{{pageBreak}}{{anim id=\"11\"}}Ich frag mich, {{delay frames=\"8\"}}wie der neue Nachbar\nso drauf sein wird!{{pageBreak}}{{anim id=\"33\"}}Auf jeden Fall werd ich ihn mal\nzu 'nem Duell im Armdrücken\nherausfordern, {{delay frames=\"8\"}}{{fun_00070005 arg=\"\"}}!",
      "EUen": "{{anim id=\"1\"}}Apparently a new house is being\nbuilt as we speak. {{delay frames=\"40\"}}{{anim id=\"11\"}}I wonder what\nkind of neighbor we're getting!{{pageBreak}}{{anim id=\"33\"}}Well, one thing's for sure. They've\ngot an arm-wrestling match in their\nfuture! {{delay frames=\"8\"}}{{fun_0003000E arg=\"\"}}{{fun_00070005 arg=\"\"}}!",
      "EUes": "{{anim id=\"1\"}}Por lo que se ve, ahora mismo están\nlevantando una nueva casa.{{delay frames=\"40\"}}{{anim id=\"11\"}} ¿Qué\nclase de vecino vamos a tener?\n{{anim id=\"33\"}}Una cosa está clara: en cuanto\nhaya tenido tiempo de instalarse,\n¡tendrá que echar un pulso conmigo!",
      "EUfr": "{{anim id=\"1\"}}Il paraît qu'une nouvelle maison est\nen construction au moment même\noù je te parle !\n{{anim id=\"11\"}}Je me demande quel genre de\nfrappadingue on va encore devoir se\ncoltiner, {{delay frames=\"15\"}}{{fun_00070005 arg=\"\"}}...\n{{anim id=\"33\"}}{{delay frames=\"15\"}}En tout cas, je sais déjà comment\nje vais l'accueillir :{{delay frames=\"25\"}} avec un bon\nvieux bras de fer !",
      "EUit": "{{anim id=\"1\"}}Hai visto la nuova casa che stanno\ncostruendo? {{delay frames=\"40\"}}{{anim id=\"11\"}}Chissà chi ci andrà\nad abitare...\n{{anim id=\"33\"}}Chiunque sia, dovrà vedersela\ncon me a braccio di ferro,\n{{delay frames=\"8\"}}{{fun_00070005 arg=\"\"}}!",
      "JPja": "{{anim id=\"1\"}}{{ruby charSpan=\"1\" value=\"あたら\"}}新しい{{ruby charSpan=\"1\" value=\"いえ\"}}家が　{{ruby charSpan=\"1\" value=\"た\"}}建つらしいぞー{{delay frames=\"40\"}}\n{{anim id=\"11\"}}{{ruby charSpan=\"2\" value=\"こんど\"}}今度はどんなヤツが\n{{ruby charSpan=\"1\" value=\"ひ\"}}引っこして{{ruby charSpan=\"1\" value=\"く\"}}来るんだろーなー！{{pageBreak}}{{anim id=\"33\"}}とにかく　{{ruby charSpan=\"1\" value=\"あ\"}}会ったらまずは{{delay frames=\"20\"}}\nうでずもうで　{{ruby charSpan=\"2\" value=\"しょうぶ\"}}勝負かな、{{delay frames=\"8\"}}{{fun_00070005 arg=\"\"}}",
      "KRko": "{{anim id=\"1\"}}마을에 새로운 집을 짓고 있나봐ー{{delay frames=\"40\"}}\n{{anim id=\"11\"}}이번에는 어떤 녀석이\n이사를 오려는 걸까ー?{{pageBreak}}{{anim id=\"33\"}}일단 만나면{{delay frames=\"20\"}} 팔씨름 대결부터\n해봐야겠어, {{delay frames=\"8\"}}{{fun_00070005 arg=\"\"}}!",
      "USen": "{{anim id=\"1\"}}Apparently a new house is being\nbuilt as we speak. {{delay frames=\"40\"}}{{anim id=\"11\"}}I wonder what\nkind of neighbor we're getting!{{pageBreak}}{{anim id=\"33\"}}Well, one thing's for sure. They've\ngot an arm-wrestling match in their\nfuture! {{delay frames=\"8\"}}{{fun_0003000E arg=\"\"}}{{fun_00070005 arg=\"\"}}!",
      "USes": "{{anim id=\"1\"}}Por lo que se ve, ahora mismo están\nlevantando una nueva casa.{{delay frames=\"40\"}}{{anim id=\"11\"}} ¿Qué\nclase de vecino vamos a tener?\n{{anim id=\"33\"}}Una cosa está clara: en cuanto\nhaya tenido tiempo de instalarse,\n¡tendrá que echar un pulso conmigo!",
      "USfr": "{{anim id=\"1\"}}Il paraît qu'une nouvelle maison est\nen construction au moment même\noù je te parle!\n{{anim id=\"11\"}}Je me demande quel genre de\nfrappadingue on va encore devoir se\ncoltiner, {{delay frames=\"15\"}}{{fun_00070005 arg=\"\"}}...\n{{anim id=\"33\"}}{{delay frames=\"15\"}}En tout cas, je sais déjà comment\nje vais l'accueillir :{{delay frames=\"25\"}} avec un bon\nvieux bras de fer!"
    }
  },
  {
    "label": "004",
    "locale": {
      "EUde": "{{anim id=\"1\"}}Hast du schon gehört?{{delay frames=\"40\"}}\nAm Bahnhof soll sich ein\nFremder rumtreiben!{{pageBreak}}{{anim id=\"35\"}}Dafür sind Bahnhöfe ja da, {{delay frames=\"8\"}}oder?{{delay frames=\"40\"}}\nIch könnte mir vorstellen, {{delay frames=\"8\"}}dass wir\nbald 'nen neuen Nachbarn kriegen!\n{{anim id=\"15\"}}So ein Hausbau geht echt schnell.{{delay frames=\"40\"}}\n{{anim id=\"27\"}}Da kommt ein Neuer, {{delay frames=\"8\"}}sagt Hallo und\n– schwups! – hat er 'ne Bude hier!",
      "EUen": "{{anim id=\"1\"}}Some buddies were telling me they\nsaw a stranger at the station!{{pageBreak}}{{anim id=\"35\"}}Just a guess, but I bet we're getting\na new neighbor!{{pageBreak}}{{anim id=\"15\"}}They're so fast with these houses\nthese days! They go up before you\nknow it! {{delay frames=\"40\"}}{{anim id=\"13\"}}Makes me nervous!",
      "EUes": "{{anim id=\"1\"}}¡La peña me ha dicho que en\nla estación había alguien a quien\nno conocía! ¡Ojo al dato!\n{{anim id=\"35\"}}No sé yo, ¡pero algo me dice que\nvamos a tener un nuevo vecino!{{pageBreak}}{{anim id=\"15\"}}¡Qué rápido construyen las casas\nhoy en día! ¡Aparecen como setas!{{delay frames=\"40\"}}\n{{anim id=\"13\"}}¡Y a mí eso me pone nervioso!",
      "EUfr": "{{anim id=\"1\"}}Plusieurs potes m'ont dit qu'ils\navaient vu une nouvelle tête à la\ngare !\n{{anim id=\"35\"}}Je ne voudrais pas trop m'avancer,\nmais il y a de l'emménagement dans\nl'air...\n{{anim id=\"15\"}}Si ça se trouve, une nouvelle maison\naura poussé en ville avant même\nqu'on s'en soit rendu compte !",
      "EUit": "{{anim id=\"1\"}}Ho sentito dire che alla stazione\nhanno visto una faccia nuova!{{pageBreak}}{{anim id=\"35\"}}Secondo me, si tratta di qualcuno\nche viene ad abitare qui...{{pageBreak}}{{anim id=\"15\"}}Non ce ne accorgeremo nemmeno\ne, in men che non si dica, spunterà\nuna nuova casa! {{delay frames=\"40\"}}{{anim id=\"13\"}}Chissà dove!",
      "JPja": "{{anim id=\"1\"}}さっき　{{ruby charSpan=\"1\" value=\"むら\"}}村のヤツが\n{{ruby charSpan=\"1\" value=\"み\"}}見たらしいんだけど、{{delay frames=\"20\"}}\n{{ruby charSpan=\"1\" value=\"えき\"}}駅に　{{ruby charSpan=\"1\" value=\"し\"}}知らないヤツがいたってさ！{{pageBreak}}{{anim id=\"35\"}}オイラのすいりだと、{{delay frames=\"20\"}}\nそいつ　{{ruby charSpan=\"1\" value=\"ひ\"}}引っこして\n{{ruby charSpan=\"1\" value=\"き\"}}来たんじゃないかなー？{{pageBreak}}{{anim id=\"15\"}}もしかして{{delay frames=\"20\"}}　{{ruby charSpan=\"1\" value=\"し\"}}知らないうちに\n{{ruby charSpan=\"1\" value=\"あたら\"}}新しい{{ruby charSpan=\"1\" value=\"いえ\"}}家が　{{ruby charSpan=\"1\" value=\"た\"}}建ってるかも\n{{ruby charSpan=\"1\" value=\"し\"}}知れないぞ！{{pageBreak}}{{anim id=\"13\"}}うぉーー！{{delay frames=\"20\"}}\nキンチョー　するなーーー！",
      "KRko": "{{anim id=\"1\"}}아까 누가 그러던데{{delay frames=\"20\"}}\n역에서 낯선 녀석을 발견했다더라!{{pageBreak}}{{anim id=\"35\"}}내 직감이 맞다면{{delay frames=\"20\"}}\n그 녀석은 분명 새로\n이사 온 신참일 거야ー!{{pageBreak}}{{anim id=\"15\"}}어쩌면{{delay frames=\"20\"}} 우리가 모르는 사이에\n새집이 어딘가에 벌써\n지어졌을지도 모르겠다!{{pageBreak}}{{anim id=\"13\"}}으아아!{{delay frames=\"20\"}}\n어떤 녀석일까?{{delay frames=\"20\"}}\n괜히 긴장된다ー!",
      "USen": "{{anim id=\"1\"}}Some buddies were telling me they\nsaw a stranger at the station!{{pageBreak}}{{anim id=\"35\"}}Just a guess, but I bet we're getting\na new neighbor!{{pageBreak}}{{anim id=\"15\"}}They're so fast with these houses\nthese days! They go up before you\nknow it! {{delay frames=\"40\"}}{{anim id=\"13\"}}Makes me nervous!",
      "USes": "{{anim id=\"1\"}}¡La peña me ha dicho que en\nla estación había alguien a quien\nno conocía! ¡Ojo al dato!\n{{anim id=\"35\"}}No sé yo, ¡pero algo me dice que\nvamos a tener un nuevo vecino!{{pageBreak}}{{anim id=\"15\"}}¡Qué rápido construyen las casas\nhoy en día! ¡Aparecen como setas!{{delay frames=\"40\"}}\n{{anim id=\"13\"}}¡Y a mí eso me pone nervioso!",
      "USfr": "{{anim id=\"1\"}}Plusieurs potes m'ont dit qu'ils\navaient vu une nouvelle tête à la\ngare!\n{{anim id=\"35\"}}Je ne voudrais pas trop m'avancer,\nmais il y a de l'emménagement dans\nl'air...\n{{anim id=\"15\"}}Si ça se trouve, une nouvelle maison\naura poussé en ville avant même\nqu'on s'en soit rendu compte!"
    }
  },
  {
    "label": "005",
    "locale": {
      "EUde": "{{fun_00000009 arg=\"0x0F001000\"}}",
      "EUen": "{{fun_00000009 arg=\"0x0F001000\"}}",
      "EUes": "{{fun_00000009 arg=\"0x0F001000\"}}",
      "EUfr": "{{fun_00000009 arg=\"0x0F001000\"}}",
      "EUit": "{{fun_00000009 arg=\"0x0F001000\"}}",
      "JPja": "{{fun_00000009 arg=\"0x0F001000\"}}",
      "KRko": "{{fun_00000009 arg=\"0x0F001000\"}}",
      "USen": "{{fun_00000009 arg=\"0x0F001000\"}}",
      "USes": "{{fun_00000009 arg=\"0x0F001000\"}}",
      "USfr": "{{fun_00000009 arg=\"0x0F001000\"}}"
    }
  },
  {
    "label": "006",
    "locale": {
      "EUde": "{{anim id=\"9\"}}Ich hab gehört, {{delay frames=\"8\"}}dass {{fun_00010011 arg=\"0x0000\"}}\numziehen will. {{delay frames=\"40\"}}Keine Ahnung, {{delay frames=\"8\"}}wohin!{{pageBreak}}{{anim id=\"11\"}}Oder wollte {{fun_0008000E arg=\"0x00CD0400650072000600730069006500040065007300\"}} nur SICH umziehen?\n{{delay frames=\"40\"}}Ich hätt 'nen Trainingsanzug für {{fun_0008000E arg=\"0x00CD0600690068006E000600730069006500040065007300\"}}.{{pageBreak}}{{anim id=\"36\"}}Vielleicht sollten wir mal nach {{fun_0008000E arg=\"0x00CD0600690068006D0006006900680072000600690068006D00\"}}\nsehen, {{delay frames=\"8\"}}{{fun_00070005 arg=\"\"}}.",
      "EUen": "{{anim id=\"9\"}}I heard {{fun_00010011 arg=\"0x0000\"}} has been\ntoying with the idea of moving.{{pageBreak}}{{anim id=\"11\"}}Or maybe the rumor was {{fun_0008000E arg=\"0x00CD04006800650006007300680065000000\"}}\nlikes toys that move? I forget.{{pageBreak}}{{delay frames=\"40\"}}{{anim id=\"36\"}}But maybe we should look into it,\n{{delay frames=\"8\"}}{{fun_00070005 arg=\"\"}}.",
      "EUes": "{{anim id=\"9\"}}Me he enterado de que {{fun_00010011 arg=\"0x0000\"}}\nha estado dándole vueltas a la idea\nde marcharse del pueblo.{{pageBreak}}{{anim id=\"11\"}}¿O quizá el rumor era que en este\npueblo nos va la marcha? ¿Lo\nhabré entendido mal?\n{{anim id=\"36\"}}Bueno, yo por si acaso te lo digo\npara que lo sepas, {{delay frames=\"8\"}}{{fun_00070005 arg=\"\"}}.",
      "EUfr": "{{anim id=\"9\"}}J'ai entendu dire {{fun_000A000E arg=\"0x080071007500650020000600710075002700\"}}{{fun_00010011 arg=\"0x0000\"}}\nvoulait changer de ville...{{pageBreak}}{{anim id=\"11\"}}À moins qu'on m'ait dit qu'{{fun_0008000E arg=\"0x00CD040069006C00080065006C006C0065000000\"}}\nvoulait une ville qui change ?!\nJ'oublie tout...\n{{anim id=\"36\"}}Si tu veux connaître le fin mot de\nl'histoire, vois avec {{fun_0008000E arg=\"0x00CD06006C0075006900080065006C006C0065000000\"}}, ce sera plus\nsûr,{{delay frames=\"8\"}} {{fun_00070005 arg=\"\"}}.",
      "EUit": "{{anim id=\"9\"}}Ho sentito che {{fun_00010011 arg=\"0x0000\"}} stava\npensando di trasferirsi.{{pageBreak}}{{anim id=\"11\"}}O forse cercava un modo\nper trasferire il pensiero?\nNon ricordo bene...\n{{delay frames=\"40\"}}{{anim id=\"36\"}}Se trasferissi i miei pensieri agli\naltri, tutti inizierebbero ad allenarsi\ncome dei matti, {{delay frames=\"8\"}}{{fun_00070005 arg=\"\"}}!",
      "JPja": "{{anim id=\"9\"}}{{ruby charSpan=\"1\" value=\"じつ\"}}実は{{ruby charSpan=\"2\" value=\"さいきん\"}}最近{{delay frames=\"20\"}}　{{fun_00010011 arg=\"0x0000\"}}が\n{{ruby charSpan=\"1\" value=\"むら\"}}村から　{{ruby charSpan=\"1\" value=\"ひ\"}}引っこすか\nなやんでるらしいぞ？{{pageBreak}}{{anim id=\"11\"}}あー、でも{{delay frames=\"20\"}}\nオイラの　{{ruby charSpan=\"1\" value=\"き\"}}聞きまちがいかなー{{delay frames=\"8\"}}・{{delay frames=\"8\"}}・{{delay frames=\"8\"}}・{{pageBreak}}{{anim id=\"36\"}}もしかしたら{{delay frames=\"20\"}}\n「{{ruby charSpan=\"1\" value=\"ひ\"}}引っこしそば{{ruby charSpan=\"1\" value=\"た\"}}食べたい」って\nさわいでた　だけかも{{ruby charSpan=\"1\" value=\"し\"}}知れないな、{{delay frames=\"8\"}}{{fun_00070005 arg=\"\"}}",
      "KRko": "{{anim id=\"9\"}}사실은 요즘{{delay frames=\"20\"}} {{fun_00010011 arg=\"0x0000\"}} 녀석이\n우리 마을을 떠나서 이사를 갈까\n고민 중이라고 하더라?{{pageBreak}}{{anim id=\"11\"}}흐음～{{delay frames=\"20\"}}\n내가 잘못 들은 건가{{delay frames=\"8\"}}・{{delay frames=\"8\"}}・{{delay frames=\"8\"}}・{{pageBreak}}{{anim id=\"36\"}}어쩌면{{delay frames=\"20\"}} 「가방이 사고 싶다」고\n말한 게 잘못 소문이\n났을지도 모르겠네, {{delay frames=\"8\"}}{{fun_00070005 arg=\"\"}}",
      "USen": "{{anim id=\"9\"}}I heard {{fun_00010011 arg=\"0x0000\"}} has been\ntoying with the idea of moving.{{pageBreak}}{{anim id=\"11\"}}Or maybe the rumor was {{fun_0008000E arg=\"0x00CD04006800650006007300680065000000\"}}\nlikes toys that move? I forget.{{pageBreak}}{{delay frames=\"40\"}}{{anim id=\"36\"}}But maybe we should look into it,\n{{delay frames=\"8\"}}{{fun_00070005 arg=\"\"}}.",
      "USes": "{{anim id=\"9\"}}Me he enterado de que {{fun_00010011 arg=\"0x0000\"}}\nha estado dándole vueltas a la idea\nde marcharse del pueblo.{{pageBreak}}{{anim id=\"11\"}}¿O quizá el rumor era que en este\npueblo nos va la marcha? ¿Lo\nhabré entendido mal?\n{{anim id=\"36\"}}Bueno, yo por si acaso te lo digo\npara que lo sepas, {{delay frames=\"8\"}}{{fun_00070005 arg=\"\"}}.",
      "USfr": "{{anim id=\"9\"}}J'ai entendu dire {{fun_000A000E arg=\"0x080071007500650020000600710075002700\"}}{{fun_00010011 arg=\"0x0000\"}}\nvoulait changer de ville...{{pageBreak}}{{anim id=\"11\"}}À moins qu'on m'ait dit qu'{{fun_0008000E arg=\"0x00CD040069006C00080065006C006C0065000000\"}}\nvoulait une ville qui change?!\nJ'oublie tout...\n{{anim id=\"36\"}}Si tu veux connaître le fin mot de\nl'histoire, vois avec {{fun_0008000E arg=\"0x00CD06006C0075006900080065006C006C0065000000\"}}, ce sera plus\nsûr,{{delay frames=\"8\"}} {{fun_00070005 arg=\"\"}}."
    }
  },
  {
    "label": "007",
    "locale": {
      "EUde": "{{fun_0003000E arg=\"\"}}{{fun_00010011 arg=\"0x0000\"}} will wegziehen von hier,\n{{delay frames=\"8\"}}hab ich gehört.{{pageBreak}}Aber {{fun_0008000E arg=\"0x00CD0400650072000600730069006500040065007300\"}} hat wohl noch nichts auf\ndie Beine gestellt. {{delay frames=\"20\"}}{{anim id=\"40\"}}{{fun_0003000E arg=\"\"}}{{fun_0008000E arg=\"0x00CD0400650072000600730069006500040065007300\"}} weiß nicht\nmal, {{delay frames=\"8\"}}WOHIN {{fun_0008000E arg=\"0x00CD0400650072000600730069006500040065007300\"}} ziehen will!\n{{anim id=\"35\"}}{{fun_0003000E arg=\"\"}}{{fun_00010011 arg=\"0x0000\"}} will wohl einfach nur\n'nen Tapetenwechsel{{delay frames=\"8\"}}.{{delay frames=\"8\"}}.{{delay frames=\"8\"}}.",
      "EUen": "Supposedly {{fun_00010011 arg=\"0x0000\"}} is getting\nready to move.{{pageBreak}}But {{fun_0008000E arg=\"0x00CD04006800650006007300680065000000\"}} hasn't really done much\nplanning. {{delay frames=\"20\"}}{{anim id=\"40\"}}{{fun_0008000E arg=\"0x00CD04004800650006005300680065000000\"}} doesn't even know\nwhere {{fun_0008000E arg=\"0x00CD080068006500270073000A00730068006500270073000000\"}} going to end up!\n{{anim id=\"35\"}}I guess {{fun_0008000E arg=\"0x00CD080068006500270073000A00730068006500270073000000\"}} just planning on\nwandering off somewhere{{delay frames=\"8\"}}.{{delay frames=\"8\"}}.{{delay frames=\"8\"}}.",
      "EUes": "Al parecer {{fun_00010011 arg=\"0x0000\"}} se está\npreparando para mudarse.{{pageBreak}}Pero todavía no ha planeado nada\nmuy en serio. {{delay frames=\"20\"}}{{anim id=\"40\"}}¡De hecho ni siquiera\nsabe aún adónde quiere irse!\n{{anim id=\"35\"}}A lo mejor quiere irse por ahí\nen plan trotamundos, vete a saber{{delay frames=\"8\"}}.{{delay frames=\"8\"}}.{{delay frames=\"8\"}}.",
      "EUfr": "Apparemment, {{fun_00010011 arg=\"0x0000\"}} se\nprépare à quitter la ville.{{pageBreak}}Mais le plus fou là-dedans, {{anim id=\"40\"}}c'est\nqu'{{fun_0008000E arg=\"0x00CD040069006C00080065006C006C0065000000\"}} ne sait même pas où {{fun_0008000E arg=\"0x00CD040069006C00080065006C006C0065000000\"}} va\naller s'installer !\n{{anim id=\"35\"}}{{fun_0008000E arg=\"0x00CD04004C00650004004C0061000000\"}} connaissant, {{fun_0008000E arg=\"0x00CD040069006C00080065006C006C0065000000\"}} va sûrement\nlaisser les odeurs de nourriture\nguider ses pas{{delay frames=\"8\"}}.{{delay frames=\"8\"}}.{{delay frames=\"8\"}}.",
      "EUit": "Credo che {{fun_00010011 arg=\"0x0000\"}} si stia\norganizzando per trasferirsi.{{pageBreak}}Ma non ha concluso un granché\nfinora. {{anim id=\"40\"}}Addirittura non ha nemmeno\ndeciso dove andare a vivere!\n{{anim id=\"35\"}}L'unica cosa che sa con sicurezza\nè che andrà da qualche parte{{delay frames=\"8\"}}.{{delay frames=\"8\"}}.{{delay frames=\"8\"}}.",
      "JPja": "{{fun_00010011 arg=\"0x0000\"}}が\n{{ruby charSpan=\"1\" value=\"ひ\"}}引っこしの　じゅんびを\nしてるらしいぞ？{{pageBreak}}でも　じゅんびだけして、{{delay frames=\"20\"}}\n{{anim id=\"40\"}}{{ruby charSpan=\"1\" value=\"い\"}}行く{{ruby charSpan=\"2\" value=\"ばしょ\"}}場所は　{{ruby charSpan=\"1\" value=\"き\"}}決まってないらしいんだ{{pageBreak}}{{anim id=\"35\"}}アイツ{{delay frames=\"8\"}}・{{delay frames=\"8\"}}・{{delay frames=\"8\"}}・{{delay frames=\"20\"}}\nさすらいの{{ruby charSpan=\"1\" value=\"たび\"}}旅に　{{ruby charSpan=\"1\" value=\"で\"}}出るつもりだな{{delay frames=\"8\"}}・{{delay frames=\"8\"}}・{{delay frames=\"8\"}}・",
      "KRko": "아무래도 {{fun_00010011 arg=\"0x0000\"}} 녀석이\n이사 준비를 하고 있는 모양이야!{{pageBreak}}그런데 준비만 하고 있고{{delay frames=\"20\"}}\n{{anim id=\"40\"}}아직 어디로 이사 갈지는\n정하지 못한 모양이더라구{{pageBreak}}{{anim id=\"35\"}}그 녀석{{delay frames=\"8\"}}・{{delay frames=\"8\"}}・{{delay frames=\"8\"}}・{{delay frames=\"20\"}}\n방랑 여행이라도 시작할 셈인가{{delay frames=\"8\"}}・{{delay frames=\"8\"}}・{{delay frames=\"8\"}}・{{delay frames=\"8\"}}?",
      "USen": "Supposedly {{fun_00010011 arg=\"0x0000\"}} is getting\nready to move.{{pageBreak}}But {{fun_0008000E arg=\"0x00CD04006800650006007300680065000000\"}} hasn't really done much\nplanning. {{delay frames=\"20\"}}{{anim id=\"40\"}}{{fun_0008000E arg=\"0x00CD04004800650006005300680065000000\"}} doesn't even know\nwhere {{fun_0008000E arg=\"0x00CD080068006500270073000A00730068006500270073000000\"}} going to end up!\n{{anim id=\"35\"}}I guess {{fun_0008000E arg=\"0x00CD080068006500270073000A00730068006500270073000000\"}} just planning on\nwandering off somewhere{{delay frames=\"8\"}}.{{delay frames=\"8\"}}.{{delay frames=\"8\"}}.",
      "USes": "Al parecer {{fun_00010011 arg=\"0x0000\"}} se está\npreparando para mudarse.{{pageBreak}}Pero todavía no ha planeado nada\nmuy en serio. {{delay frames=\"20\"}}{{anim id=\"40\"}}¡De hecho ni siquiera\nsabe aún adónde quiere irse!\n{{anim id=\"35\"}}A lo mejor quiere irse por ahí\nen plan trotamundos, vete a saber{{delay frames=\"8\"}}.{{delay frames=\"8\"}}.{{delay frames=\"8\"}}.",
      "USfr": "Apparemment, {{fun_00010011 arg=\"0x0000\"}} se\nprépare à quitter la ville.{{pageBreak}}Mais le plus fou là-dedans, {{anim id=\"40\"}}c'est\nqu'{{fun_0008000E arg=\"0x00CD040069006C00080065006C006C0065000000\"}} ne sait même pas où {{fun_0008000E arg=\"0x00CD040069006C00080065006C006C0065000000\"}} va\naller s'installer!\n{{anim id=\"35\"}}{{fun_0008000E arg=\"0x00CD04004C00650004004C0061000000\"}} connaissant, {{fun_0008000E arg=\"0x00CD040069006C00080065006C006C0065000000\"}} va sûrement\nlaisser les odeurs de nourriture\nguider ses pas{{delay frames=\"8\"}}.{{delay frames=\"8\"}}.{{delay frames=\"8\"}}."
    }
  },
  {
    "label": "008",
    "locale": {
      "EUde": "{{fun_0003000E arg=\"\"}}{{fun_00010011 arg=\"0x0000\"}} ist ja so gut wie\nweg aus {{fun_00050005 arg=\"\"}}, hab ich gehört.{{pageBreak}}{{fun_0003000E arg=\"\"}}{{fun_0008000E arg=\"0x00CD0400650072000600730069006500040065007300\"}} weiß auch schon genau,{{delay frames=\"8\"}} wohin\n{{fun_0008000E arg=\"0x00CD0400650072000600730069006500040065007300\"}} ziehen wird.{{delay frames=\"40\"}}{{anim id=\"9\"}} Irgendwie macht\nmich das ziemlich traurig!\n{{anim id=\"40\"}}Aber man soll sich ja mit 'nem\nLächeln verabschieden. {{delay frames=\"40\"}}{{anim id=\"38\"}}Ich sollte\nalso mein Abschiedslächeln üben.",
      "EUen": "So I guess {{fun_00010011 arg=\"0x0000\"}} is getting\nready to move.{{pageBreak}}{{fun_0008000E arg=\"0x00CD04004800650006005300680065000000\"}} has a good plan and knows\nexactly where {{fun_0008000E arg=\"0x00CD080068006500270073000A00730068006500270073000000\"}} going, but{{delay frames=\"40\"}}{{anim id=\"9\"}} it\nkinda makes me sad.\n{{anim id=\"40\"}}Still, friends should send each other\noff with a smile. {{delay frames=\"40\"}}{{anim id=\"38\"}}So I'm gonna\npractice smiling, {{delay frames=\"8\"}}{{fun_00070005 arg=\"\"}}.",
      "EUes": "Supongo que {{fun_00010011 arg=\"0x0000\"}} está\npreparándose para mudarse.{{pageBreak}}Creo que ya lo tiene planeado y\nsabe perfectamente lo que quiere,\npero{{delay frames=\"40\"}}{{anim id=\"9\"}} aun así me da pena, oye.\n{{anim id=\"40\"}}Pero hay que despedirse de los\namigos con una sonrisa. {{delay frames=\"40\"}}{{anim id=\"38\"}}Y eso es\nlo que pienso hacer, {{delay frames=\"8\"}}{{fun_00070005 arg=\"\"}}.",
      "EUfr": "Il semble {{fun_000A000E arg=\"0x080071007500650020000600710075002700\"}}{{fun_00010011 arg=\"0x0000\"}} soit sur le\ndépart.{{pageBreak}}{{fun_0008000E arg=\"0x00CD040049006C00080045006C006C0065000000\"}} a tout prévu et sait où {{fun_0008000E arg=\"0x00CD040069006C00080065006C006C0065000000\"}} va,{{delay frames=\"15\"}}\n{{anim id=\"9\"}}mais je ne peux pas m'empêcher\nd'être triste qu'{{fun_0008000E arg=\"0x00CD040069006C00080065006C006C0065000000\"}} parte...\n{{anim id=\"40\"}}J'ai vraiment pas envie que ça se\nvoie,{{delay frames=\"30\"}} {{anim id=\"38\"}}alors du coup, je m'entraîne à\nsourire malgré moi,{{delay frames=\"8\"}} {{fun_00070005 arg=\"\"}} !",
      "EUit": "Sembra che {{fun_00010011 arg=\"0x0000\"}} stia\nper trasferirsi.{{pageBreak}}Ha programmato già tutto fin\nnei minimi dettagli. {{delay frames=\"40\"}}{{anim id=\"9\"}}Però mi\ndispiace che se ne vada.\n{{anim id=\"40\"}}Non voglio che mi veda triste...\n{{delay frames=\"40\"}}{{anim id=\"38\"}}Per questo sto allenando i muscoli\ndel sorriso, {{delay frames=\"8\"}}{{fun_00070005 arg=\"\"}}.",
      "JPja": "{{fun_00010011 arg=\"0x0000\"}}が\n{{ruby charSpan=\"1\" value=\"ひ\"}}引っこしの　じゅんびをしてるらしいぞ？{{delay frames=\"40\"}}\n{{ruby charSpan=\"1\" value=\"い\"}}行く{{ruby charSpan=\"2\" value=\"ばしょ\"}}場所も　もう{{ruby charSpan=\"1\" value=\"き\"}}決まってるって！\n{{anim id=\"9\"}}ぐっ{{delay frames=\"8\"}}・{{delay frames=\"8\"}}・{{delay frames=\"8\"}}・{{delay frames=\"20\"}}\nさみしくなるなー{{pageBreak}}{{anim id=\"40\"}}でも、{{delay frames=\"20\"}}{{ruby charSpan=\"2\" value=\"えがお\"}}笑顔で{{ruby charSpan=\"1\" value=\"おく\"}}送り{{ruby charSpan=\"1\" value=\"だ\"}}出すのも\n{{ruby charSpan=\"2\" value=\"ともだち\"}}友達の{{ruby charSpan=\"2\" value=\"やくめ\"}}役目だよな{{delay frames=\"40\"}}\n{{anim id=\"38\"}}{{ruby charSpan=\"1\" value=\"いま\"}}今から　{{ruby charSpan=\"2\" value=\"えがお\"}}笑顔の{{ruby charSpan=\"2\" value=\"れんしゅう\"}}練習だ、{{delay frames=\"8\"}}{{fun_00070005 arg=\"\"}}",
      "KRko": "{{fun_00010011 arg=\"0x0000\"}}{{fun_000E000E arg=\"0x020074C7020000AC\"}}\n이사 갈 준비를 시작했대!{{delay frames=\"40\"}}\n어디로 갈지도 벌써 정했고 말이야!\n{{anim id=\"9\"}}크윽{{delay frames=\"8\"}}・{{delay frames=\"8\"}}・{{delay frames=\"8\"}}・{{delay frames=\"20\"}}\n마을이 허전해지겠군{{pageBreak}}{{anim id=\"40\"}}하지만{{delay frames=\"20\"}} 웃는 얼굴로\n보내주는 게 친구의 몫이지{{delay frames=\"40\"}}\n{{anim id=\"38\"}}표정 연습 미리 해야겠다, {{delay frames=\"8\"}}{{fun_00070005 arg=\"\"}}",
      "USen": "So I guess {{fun_00010011 arg=\"0x0000\"}} is getting\nready to move.{{pageBreak}}{{fun_0008000E arg=\"0x00CD04004800650006005300680065000000\"}} has a good plan and knows\nexactly where {{fun_0008000E arg=\"0x00CD080068006500270073000A00730068006500270073000000\"}} going, but{{delay frames=\"40\"}}{{anim id=\"9\"}} it\nkinda makes me sad.\n{{anim id=\"40\"}}Still, friends should send each other\noff with a smile. {{delay frames=\"40\"}}{{anim id=\"38\"}}So I'm gonna\npractice smiling, {{delay frames=\"8\"}}{{fun_00070005 arg=\"\"}}.",
      "USes": "Supongo que {{fun_00010011 arg=\"0x0000\"}} está\npreparándose para mudarse.{{pageBreak}}Creo que ya lo tiene planeado y\nsabe perfectamente lo que quiere,\npero{{delay frames=\"40\"}}{{anim id=\"9\"}} aun así me da pena, oye.\n{{anim id=\"40\"}}Pero hay que despedirse de los\namigos con una sonrisa. {{delay frames=\"40\"}}{{anim id=\"38\"}}Y eso es\nlo que pienso hacer, {{delay frames=\"8\"}}{{fun_00070005 arg=\"\"}}.",
      "USfr": "Il semble {{fun_000A000E arg=\"0x080071007500650020000600710075002700\"}}{{fun_00010011 arg=\"0x0000\"}} soit sur le\ndépart.{{pageBreak}}{{fun_0008000E arg=\"0x00CD040049006C00080045006C006C0065000000\"}} a tout prévu et sait où {{fun_0008000E arg=\"0x00CD040069006C00080065006C006C0065000000\"}} va,{{delay frames=\"15\"}}\n{{anim id=\"9\"}}mais je ne peux pas m'empêcher\nd'être triste qu'{{fun_0008000E arg=\"0x00CD040069006C00080065006C006C0065000000\"}} parte...\n{{anim id=\"40\"}}J'ai vraiment pas envie que ça se\nvoie,{{delay frames=\"30\"}} {{anim id=\"38\"}}alors du coup, je m'entraîne à\nsourire malgré moi,{{delay frames=\"8\"}} {{fun_00070005 arg=\"\"}}!"
    }
  },
  {
    "label": "009",
    "locale": {
      "EUde": "",
      "EUen": "",
      "EUes": "",
      "EUfr": "",
      "EUit": "",
      "JPja": "",
      "KRko": "",
      "USen": "",
      "USes": "",
      "USfr": ""
    }
  },
  {
    "label": "010",
    "locale": {
      "EUde": "",
      "EUen": "",
      "EUes": "",
      "EUfr": "",
      "EUit": "",
      "JPja": "",
      "KRko": "",
      "USen": "",
      "USes": "",
      "USfr": ""
    }
  },
  {
    "label": "011",
    "locale": {
      "EUde": "{{anim id=\"23\"}}Schnattern die Leute über mich?{{pageBreak}}{{anim id=\"1\"}}Sagen die so Sachen wie:{{delay frames=\"20\"}}\n„Schau mal, {{delay frames=\"8\"}}da joggt der stärkste\nKerl von {{fun_00050005 arg=\"\"}} an uns vorbei“?{{pageBreak}}{{anim id=\"18\"}}{{fun_000B0007 arg=\"\"}}Was? {{delay frames=\"20\"}}Kein Gerede?{{delay frames=\"20\"}} Keine Gerüchte?{{delay frames=\"20\"}}\nKein nichts?! {{delay frames=\"40\"}}{{anim id=\"12\"}}So ein Pfostenschuss!",
      "EUen": "{{anim id=\"23\"}}Are people talking about me?{{pageBreak}}{{anim id=\"26\"}}Is anyone saying stuff? Like, \"Look\nhow cool the strongest guy in\n{{fun_00050005 arg=\"\"}} looks when he runs!\"{{pageBreak}}{{anim id=\"18\"}}{{fun_000B0007 arg=\"\"}}What? No talk? No rumors? No \nnothing? {{fun_00010007 arg=\"\"}}{{anim id=\"12\"}}Aw, barbells.",
      "EUes": "{{anim id=\"23\"}}Oye, ¿y la gente habla de mí?{{pageBreak}}{{anim id=\"26\"}}¿Qué dice? \"¡Mirad, ahí va el\ntío más fuerte de {{fun_0003000E arg=\"\"}}{{fun_00050005 arg=\"\"}}!\",\n¿verdad? ¡Dime que sí!\n{{anim id=\"18\"}}{{fun_000B0007 arg=\"\"}}¿Qué? ¿No hay ningún rumor\nsobre mí ni nada de nada?{{fun_00010007 arg=\"\"}}\n{{anim id=\"12\"}}Pero bueno, ¡qué mal!",
      "EUfr": "{{anim id=\"23\"}}Dis, est-ce que les gens racontent\nbeaucoup de trucs sur moi ?{{pageBreak}}{{anim id=\"26\"}}Genre :{{delay frames=\"20\"}} « T'as déjà vu le type le\nplus balèze de la ville en train de\ncourir ? Un vrai cheval de course ! »\n{{anim id=\"18\"}}{{fun_000B0007 arg=\"\"}}Hein ?! Pas de potins ? Pas de\nblabla ? Rien du tout ?{{fun_00010007 arg=\"\"}} {{anim id=\"12\"}}Nom d'un\nchat luthier...",
      "EUit": "{{anim id=\"23\"}}Che tu sappia, girano voci su di me?{{pageBreak}}{{anim id=\"26\"}}Hai mai sentito qualcuno\n{{fun_0010000E arg=\"\"}} {{fun_00050005 arg=\"\"}} dire \"Ehi, guarda quel\ntipo tutto muscoli come corre\"?\n{{anim id=\"18\"}}{{fun_000B0007 arg=\"\"}}No? Nessuno? Mai? {{fun_00010007 arg=\"\"}}{{anim id=\"12\"}}Che delusione!",
      "JPja": "{{anim id=\"23\"}}オイラって　やっぱり\n{{ruby charSpan=\"1\" value=\"むら\"}}村で　ウワサになってたりするか？{{pageBreak}}{{anim id=\"26\"}}{{fun_00050005 arg=\"\"}}{{ruby charSpan=\"1\" value=\"むら\"}}村で{{ruby charSpan=\"2\" value=\"さいきょう\"}}最強の{{ruby charSpan=\"1\" value=\"おとこ\"}}男{{delay frames=\"20\"}}　とか、{{delay frames=\"20\"}}\n{{ruby charSpan=\"1\" value=\"はし\"}}走ってるすがたが　カッコイイ　{{delay frames=\"20\"}}とかさ！{{pageBreak}}{{anim id=\"18\"}}{{fun_000B0007 arg=\"\"}}えぇっ？{{delay frames=\"40\"}}\nウワサになってない？{{fun_00010007 arg=\"\"}}\n{{anim id=\"12\"}}ちぇーーっ！",
      "KRko": "{{anim id=\"23\"}}혹시 마을 안에 도는 소문 중에\n내가 주인공인 거 없냐?{{pageBreak}}{{anim id=\"26\"}}{{fun_00050005 arg=\"\"}} 마을 최강의 사나이라더라!{{delay frames=\"20\"}}\n달리는 모습이 완전 연예인 급이라더라!{{delay frames=\"20\"}}\n뭐, 그런거 말이야!{{pageBreak}}{{anim id=\"18\"}}{{fun_000B0007 arg=\"\"}}뭐엇?{{delay frames=\"40\"}}\n하나도 없다고?{{delay frames=\"40\"}}\n{{anim id=\"12\"}}쳇, 재미없다!",
      "USen": "{{anim id=\"23\"}}Are people talking about me?{{pageBreak}}{{anim id=\"26\"}}Is anyone saying stuff? Like, \"Look\nhow cool the strongest guy in\n{{fun_00050005 arg=\"\"}} looks when he runs!\"{{pageBreak}}{{anim id=\"18\"}}{{fun_000B0007 arg=\"\"}}What? No talk? No rumors? No \nnothing? {{fun_00010007 arg=\"\"}}{{anim id=\"12\"}}Aw, barbells.",
      "USes": "{{anim id=\"23\"}}Oye, ¿y la gente habla de mí?{{pageBreak}}{{anim id=\"26\"}}¿Qué dice? \"¡Mirad, ahí va el\ntío más fuerte de {{fun_0003000E arg=\"\"}}{{fun_00050005 arg=\"\"}}!\",\n¿verdad? ¡Dime que sí!\n{{anim id=\"18\"}}{{fun_000B0007 arg=\"\"}}¿Qué? ¿No hay ningún rumor\nsobre mí ni nada de nada?{{fun_00010007 arg=\"\"}}\n{{anim id=\"12\"}}Pero bueno, ¡qué mal!",
      "USfr": "{{anim id=\"23\"}}Dis, est-ce que les gens racontent\nbeaucoup de trucs sur moi?{{pageBreak}}{{anim id=\"26\"}}Genre :{{delay frames=\"20\"}} « T'as déjà vu le type le\nplus balèze de la ville en train de\ncourir? Un vrai cheval de course! »\n{{anim id=\"18\"}}{{fun_000B0007 arg=\"\"}}Hein?! Pas de potins? Pas de\nblabla? Rien du tout?{{fun_00010007 arg=\"\"}} {{anim id=\"12\"}}Nom d'un\nchat luthier..."
    }
  },
  {
    "label": "012",
    "locale": {
      "EUde": "{{anim id=\"10\"}}Uiuiui{{delay frames=\"8\"}}.{{delay frames=\"8\"}}.{{delay frames=\"8\"}}.{{delay frames=\"20\"}} Gerüchte können nervig sein.{{pageBreak}}{{anim id=\"21\"}}Neulich hab ich zum Beispiel gehört,{{delay frames=\"8\"}}\nwie jemand Unwahrheiten über mich\nverbreitet hat.\n{{anim id=\"27\"}}Ich sei ein Prinz von 'nem fernen\nPlaneten!{{delay frames=\"20\"}} Das ist doch gequirlter\nKuhmist mit Sahne!\n{{anim id=\"1\"}}Nur weil ich außerirdisch gut laufe,{{delay frames=\"8\"}}\nhüpfe und Sachen hebe,{{delay frames=\"8\"}} bin ich doch\nkein Außerirdischer, {{delay frames=\"8\"}}{{fun_00070005 arg=\"\"}}!{{anim id=\"37\"}}",
      "EUen": "{{anim id=\"10\"}}Ugh{{delay frames=\"8\"}}.{{delay frames=\"8\"}}.{{delay frames=\"8\"}}.{{delay frames=\"20\"}} Rumors can be frightening.{{pageBreak}}{{anim id=\"21\"}}The other day I heard a story, and it\nwas full of semi-incorrect info.{{pageBreak}}{{anim id=\"27\"}}According to the story, I'm a prince\nfrom another planet! That's a tough\nspot to be put in! \n{{anim id=\"2\"}}I mean, who can live up to that? It\nsounds like an epic story dreamed\nup by a little kid, {{delay frames=\"8\"}}{{fun_00070005 arg=\"\"}}!{{delay frames=\"40\"}}{{anim id=\"37\"}}",
      "EUes": "{{anim id=\"10\"}}Uf{{delay frames=\"8\"}}.{{delay frames=\"8\"}}.{{delay frames=\"8\"}}.{{delay frames=\"20\"}} Los rumores me asustan\nun poco a veces.{{pageBreak}}{{anim id=\"21\"}}El otro día me contaron una\nhistoria que estaba llena de\ninformación semicierta.\n{{anim id=\"27\"}}Según lo que dicen, ¡soy un\npríncipe de otro planeta! ¡Eso\nresulta difícil de llevar! \n{{anim id=\"2\"}}Es que... ¿cómo voy a estar a la\naltura de algo así? Ya sé que soy\nmítico, ¡pero ahí se han pasado!{{delay frames=\"40\"}}{{anim id=\"37\"}}",
      "EUfr": "{{anim id=\"10\"}}Pfff{{delay frames=\"8\"}}.{{delay frames=\"8\"}}.{{delay frames=\"8\"}}.{{delay frames=\"20\"}} Ras-le-bol de toutes ces\nrumeurs débiles,{{delay frames=\"8\"}} {{fun_00070005 arg=\"\"}}...{{pageBreak}}{{anim id=\"21\"}}L'autre fois, j'en ai entendu une\nbelle à mon sujet, pleine d'infos à\nmoitié vraies.\n{{anim id=\"27\"}}Il paraîtrait donc que je suis le\nprince d'une autre planète, d'où mes\nbiceps surdimensionnés !\n{{anim id=\"2\"}}Pas évident à assumer, hein ! Même\nsi je comprends qu'un corps comme\nle mien puisse laisser perplexe...{{delay frames=\"20\"}}{{anim id=\"37\"}}",
      "EUit": "{{anim id=\"10\"}}Ugh{{delay frames=\"8\"}}.{{delay frames=\"8\"}}.{{delay frames=\"8\"}}.{{delay frames=\"20\"}} A volte si sentono in giro\ncose allucinanti!{{pageBreak}}{{anim id=\"21\"}}L'altro giorno ho sentito\nuna storia su di me che\nnon era del tutto corretta.\n{{anim id=\"27\"}}Secondo qualcuno io sarei\n\"un principe tutto muscoli venuto\nda un'altra galassia\"! \n{{anim id=\"2\"}}La questione dei muscoli è vera, ma\nti posso assicurare che sono di\nquesto mondo, {{delay frames=\"8\"}}{{fun_00070005 arg=\"\"}}!{{delay frames=\"40\"}}{{anim id=\"37\"}}",
      "JPja": "{{anim id=\"10\"}}はぁ{{delay frames=\"8\"}}・{{delay frames=\"8\"}}・{{delay frames=\"8\"}}・{{delay frames=\"20\"}}\nウワサ{{ruby charSpan=\"1\" value=\"ばなし\"}}話って　こわいよなー{{pageBreak}}{{anim id=\"21\"}}この{{ruby charSpan=\"1\" value=\"あいだ\"}}間なんて、{{delay frames=\"20\"}}\n{{ruby charSpan=\"1\" value=\"はなし\"}}話に　おひれが\nついて　ついて{{delay frames=\"8\"}}　つきまくって、{{pageBreak}}{{anim id=\"27\"}}オイラが　{{ruby charSpan=\"1\" value=\"じつ\"}}実は{{delay frames=\"8\"}}\nちがう{{ruby charSpan=\"1\" value=\"ほし\"}}星の{{ruby charSpan=\"2\" value=\"おうじ\"}}王子ってことに\nされちゃって　{{ruby charSpan=\"2\" value=\"たいへん\"}}大変だった{{delay frames=\"8\"}}・{{delay frames=\"8\"}}・{{delay frames=\"8\"}}・{{pageBreak}}{{anim id=\"2\"}}ハハッ！{{delay frames=\"8\"}}\nそんな　{{ruby charSpan=\"2\" value=\"しょうじょ\"}}少女シュミなウワサ、{{delay frames=\"20\"}}\nオイラは　きょうみないぞ、{{delay frames=\"8\"}}{{fun_00070005 arg=\"\"}}{{delay frames=\"40\"}}{{anim id=\"37\"}}",
      "KRko": "{{anim id=\"10\"}}에휴{{delay frames=\"8\"}}・{{delay frames=\"8\"}}・{{delay frames=\"8\"}}・{{delay frames=\"20\"}}\n소문이란 건 참 무서워ー{{pageBreak}}{{anim id=\"21\"}}지난번 일만 해도{{delay frames=\"20\"}}\n얘기가 입에서 입으로 전해지면서\n살이 붙고{{delay frames=\"8\"}} 또 붙고 하더니!{{pageBreak}}{{anim id=\"27\"}}글쎄 내가 다른 행성에서 온\n왕자라는 소문이 퍼지는 바람에\n수습하느라 고생했지 뭐냐{{delay frames=\"8\"}}・{{delay frames=\"8\"}}・{{delay frames=\"8\"}}・{{pageBreak}}{{anim id=\"2\"}}하하핫!{{delay frames=\"8\"}} 여자애들이나\n좋아할 만한 그런 소문은{{delay frames=\"20\"}}\n영 내 스타일 아니야! {{delay frames=\"8\"}}{{fun_00070005 arg=\"\"}}!{{delay frames=\"40\"}}{{anim id=\"37\"}}",
      "USen": "{{anim id=\"10\"}}Ugh{{delay frames=\"8\"}}.{{delay frames=\"8\"}}.{{delay frames=\"8\"}}.{{delay frames=\"20\"}} Rumors can be frightening.{{pageBreak}}{{anim id=\"21\"}}The other day I heard a story, and it\nwas full of semi-incorrect info.{{pageBreak}}{{anim id=\"27\"}}According to the story, I'm a prince\nfrom another planet! That's a tough\nspot to be put in! \n{{anim id=\"2\"}}I mean, who can live up to that? It\nsounds like an epic story dreamed\nup by a little kid, {{delay frames=\"8\"}}{{fun_00070005 arg=\"\"}}!{{delay frames=\"40\"}}{{anim id=\"37\"}}",
      "USes": "{{anim id=\"10\"}}Uf{{delay frames=\"8\"}}.{{delay frames=\"8\"}}.{{delay frames=\"8\"}}.{{delay frames=\"20\"}} Los rumores me asustan\nun poco a veces.{{pageBreak}}{{anim id=\"21\"}}El otro día me contaron una\nhistoria que estaba llena de\ninformación semicierta.\n{{anim id=\"27\"}}Según lo que dicen, ¡soy un\npríncipe de otro planeta! ¡Eso\nresulta difícil de llevar! \n{{anim id=\"2\"}}Es que... ¿cómo voy a estar a la\naltura de algo así? Ya sé que soy\nmítico, ¡pero ahí se han pasado!{{delay frames=\"40\"}}{{anim id=\"37\"}}",
      "USfr": "{{anim id=\"10\"}}Pfff{{delay frames=\"8\"}}.{{delay frames=\"8\"}}.{{delay frames=\"8\"}}.{{delay frames=\"20\"}} Ras-le-bol de toutes ces\nrumeurs débiles,{{delay frames=\"8\"}} {{fun_00070005 arg=\"\"}}...{{pageBreak}}{{anim id=\"21\"}}L'autre fois, j'en ai entendu une\nbelle à mon sujet, pleine d'infos à\nmoitié vraies.\n{{anim id=\"27\"}}Il paraîtrait donc que je suis le\nprince d'une autre planète, d'où mes\nbiceps surdimensionnés!\n{{anim id=\"2\"}}Pas évident à assumer, hein! Même\nsi je comprends qu'un corps comme\nle mien puisse laisser perplexe...{{delay frames=\"20\"}}{{anim id=\"37\"}}"
    }
  },
  {
    "label": "013",
    "locale": {
      "EUde": "{{anim id=\"1\"}}{{fun_0003000E arg=\"\"}}{{fun_00080005 arg=\"\"}}!\n{{delay frames=\"20\"}}Ich hab 'ne große Bitte an dich!{{pageBreak}}{{anim id=\"11\"}}Neulich hab ich 'nen Weltrekord\naufgestellt. {{delay frames=\"40\"}}Im 100-Meter-Lauf!{{delay frames=\"40\"}}{{anim id=\"13\"}}\nUnd keiner hat's gesehen!!\n{{anim id=\"21\"}}Ich wär dir echt tierisch dankbar,{{delay frames=\"8\"}}\nwenn du mir hilfst und die Nachricht\nweiterverbreitest!\n{{anim id=\"38\"}}Danke, {{fun_0006000E arg=\"0x1800530070006F0072007400730066007200650075006E0064001C00530070006F0072007400730066007200650075006E00640069006E00\"}}!\n{{delay frames=\"20\"}}Du bist {{fun_0006000E arg=\"0x06006400650072000600640069006500\"}} Beste, {{delay frames=\"8\"}}{{fun_00070005 arg=\"\"}}!",
      "EUen": "{{anim id=\"1\"}}{{fun_0003000E arg=\"\"}}{{fun_00080005 arg=\"\"}}! Big favor to ask you!{{pageBreak}}{{anim id=\"11\"}}The other day I set a world record\nfor the 100-meter dash. {{delay frames=\"40\"}}{{anim id=\"13\"}}But no one\nwas there to see it!\n{{anim id=\"21\"}}So if you could go ahead and \nspread the news, that would be\ngreat! {{anim id=\"38\"}}Thanks, bud! {{delay frames=\"8\"}}{{fun_0003000E arg=\"\"}}{{fun_00070005 arg=\"\"}}!",
      "EUes": "{{anim id=\"1\"}}¡{{fun_0003000E arg=\"\"}}{{fun_00080005 arg=\"\"}}! ¡Tengo que pedirte\nun favor de los gordos!{{pageBreak}}{{anim id=\"11\"}}El otro día batí con claridad el\nrécord mundial de los 100 metros\nlisos. {{delay frames=\"40\"}}{{anim id=\"13\"}}¡Pero no hubo testigos!\n{{anim id=\"21\"}}Si pudieras ir por ahí contándolo\npara que se extienda la noticia,\n{{anim id=\"38\"}}¡sería todo un detallazo!",
      "EUfr": "{{anim id=\"1\"}}{{fun_0003000E arg=\"\"}}{{fun_00080005 arg=\"\"}} ! Faut que tu me rendes\nun service de la plus haute\nimportance !{{pageBreak}}{{anim id=\"11\"}}L'autre jour, j'ai battu le record du\nmonde du 100 mètres,{{delay frames=\"40\"}} {{anim id=\"13\"}}mais je n'ai\naucun témoin de ma performance !\n{{anim id=\"21\"}}Donc si tu pouvais faire circuler\nl'info, ça m'arrangerait bien !{{delay frames=\"25\"}} {{anim id=\"38\"}}Merci\n{{fun_0006000E arg=\"0x0A007000650074006900740004006D006100\"}} {{fun_0006000E arg=\"0x080067006100720073000C006700720061006E0064006500\"}} !{{delay frames=\"15\"}} {{fun_0003000E arg=\"\"}}{{fun_00070005 arg=\"\"}} !",
      "EUit": "{{anim id=\"1\"}}{{fun_0003000E arg=\"\"}}{{fun_00080005 arg=\"\"}}, ho un favore\nda chiederti!{{pageBreak}}{{anim id=\"11\"}}L'altro giorno ho battuto il record\nmondiale dei 100 metri. {{delay frames=\"40\"}}{{anim id=\"13\"}}Purtroppo\nnon c'erano testimoni!\n{{anim id=\"21\"}}Se tu potessi dire che mi hai visto\nfare una cosa del genere, sarebbe\nperfetto! {{anim id=\"38\"}}Grazie, {{delay frames=\"8\"}}{{fun_00070005 arg=\"\"}}!",
      "JPja": "{{anim id=\"1\"}}{{fun_00080005 arg=\"\"}}！{{delay frames=\"20\"}}\nオマエに　たのみがあるんだ！{{pageBreak}}{{anim id=\"11\"}}{{ruby charSpan=\"1\" value=\"じつ\"}}実は　オイラ{{delay frames=\"20\"}}\nこの{{ruby charSpan=\"1\" value=\"まえ\"}}前　100メートル{{ruby charSpan=\"1\" value=\"そう\"}}走の\n{{ruby charSpan=\"4\" value=\"せかいきろく\"}}世界記録を　こうしんしたんだけど{{pageBreak}}{{anim id=\"13\"}}{{ruby charSpan=\"2\" value=\"ざんねん\"}}残念なことに\nそれを　{{ruby charSpan=\"1\" value=\"み\"}}見てたヤツが\nだれもいなかったんだー！{{pageBreak}}{{anim id=\"21\"}}ってことで、{{delay frames=\"20\"}}このウワサを\nじゃんじゃん{{ruby charSpan=\"1\" value=\"ひろ\"}}広めてくれー！{{delay frames=\"40\"}}\n{{anim id=\"38\"}}よろしくな、{{delay frames=\"8\"}}{{fun_00070005 arg=\"\"}}",
      "KRko": "{{anim id=\"1\"}}{{fun_00080005 arg=\"\"}}{{fun_000E000E arg=\"0x020044C502007CC5\"}}!{{delay frames=\"20\"}}\n너한테 부탁이 하나 있다!{{pageBreak}}{{anim id=\"11\"}}사실은 내가{{delay frames=\"20\"}} 지난번에\n100m 육상 세계 기록을\n세웠는데 말이야{{delay frames=\"8\"}}・{{delay frames=\"8\"}}・{{delay frames=\"8\"}}・{{pageBreak}}{{anim id=\"13\"}}안타깝게도 그때\n주변에 목격자가\n아무도 없었지 뭐냐ー!{{pageBreak}}{{anim id=\"21\"}}그래서 말인데{{delay frames=\"20\"}} 니가\n내 얘기를 소문 좀 내주라ー!{{delay frames=\"40\"}}\n{{anim id=\"38\"}}잘 부탁하마, {{delay frames=\"8\"}}{{fun_00070005 arg=\"\"}}!",
      "USen": "{{anim id=\"1\"}}{{fun_0003000E arg=\"\"}}{{fun_00080005 arg=\"\"}}! Big favor to ask you!{{pageBreak}}{{anim id=\"11\"}}The other day I set a world record\nfor the 100-meter dash. {{delay frames=\"40\"}}{{anim id=\"13\"}}But no one\nwas there to see it!\n{{anim id=\"21\"}}So if you could go ahead and \nspread the news, that would be\ngreat! {{anim id=\"38\"}}Thanks, bud! {{delay frames=\"8\"}}{{fun_0003000E arg=\"\"}}{{fun_00070005 arg=\"\"}}!",
      "USes": "{{anim id=\"1\"}}¡{{fun_0003000E arg=\"\"}}{{fun_00080005 arg=\"\"}}! ¡Tengo que pedirte\nun favor de los gordos!{{pageBreak}}{{anim id=\"11\"}}El otro día batí con claridad el\nrécord mundial de los 100 metros\nlisos. {{delay frames=\"40\"}}{{anim id=\"13\"}}¡Pero no hubo testigos!\n{{anim id=\"21\"}}Si pudieras ir por ahí contándolo\npara que se extienda la noticia,\n{{anim id=\"38\"}}¡sería todo un detallazo!",
      "USfr": "{{anim id=\"1\"}}{{fun_0003000E arg=\"\"}}{{fun_00080005 arg=\"\"}}! Faut que tu me rendes\nun service de la plus haute\nimportance!{{pageBreak}}{{anim id=\"11\"}}L'autre jour, j'ai battu le record du\nmonde du 100 mètres,{{delay frames=\"40\"}} {{anim id=\"13\"}}mais je n'ai\naucun témoin de ma performance!\n{{anim id=\"21\"}}Donc si tu pouvais faire circuler\nl'info, ça m'arrangerait bien!{{delay frames=\"25\"}} {{anim id=\"38\"}}Merci\n{{fun_0006000E arg=\"0x0A007000650074006900740004006D006100\"}} {{fun_0006000E arg=\"0x080067006100720073000C006700720061006E0064006500\"}}!{{delay frames=\"15\"}} {{fun_0003000E arg=\"\"}}{{fun_00070005 arg=\"\"}}!"
    }
  },
  {
    "label": "014",
    "locale": {
      "EUde": "",
      "EUen": "",
      "EUes": "",
      "EUfr": "",
      "EUit": "",
      "JPja": "",
      "KRko": "",
      "USen": "",
      "USes": "",
      "USfr": ""
    }
  },
  {
    "label": "015",
    "locale": {
      "EUde": "{{anim id=\"1\"}}Hey, {{delay frames=\"8\"}}{{fun_00080005 arg=\"\"}}!\n{{delay frames=\"20\"}}Hast du unserem Neuling schon\nHallo gesagt?\n{{anim id=\"11\"}}{{fun_0003000E arg=\"\"}}{{fun_0008000E arg=\"0x00CD0400650072000600730069006500040065007300\"}} soll ein furchteinflößender\nOger sein, {{delay frames=\"8\"}}aber herzensgut{{delay frames=\"8\"}}.{{delay frames=\"8\"}}.{{delay frames=\"8\"}}.{{delay frames=\"20\"}} und\ndie besten Witze überhaupt reißen!\n{{anim id=\"40\"}}Hey! {{delay frames=\"20\"}}Ich sag dir nur, {{delay frames=\"8\"}}was mir die\nanderen erzählt haben!{{pageBreak}}{{anim id=\"38\"}}Ich hab {{fun_0008000E arg=\"0x00CD0600690068006E000600730069006500040065007300\"}} aber neulich auch\nkennengelernt, und das war\necht nett.{{pageBreak}}{{anim id=\"21\"}}{{fun_0008000E arg=\"0x00CD0400450072000600530069006500040045007300\"}} heißt {{fun_00010011 arg=\"0x0000\"}}!{{delay frames=\"40\"}}{{anim id=\"1\"}} Du solltest {{fun_0008000E arg=\"0x00CD0600690068006E000600730069006500040065007300\"}}\nauch mal besuchen, {{delay frames=\"8\"}}{{fun_00070005 arg=\"\"}}!",
      "EUen": "{{anim id=\"1\"}}Hey, {{fun_00080005 arg=\"\"}}! Have you already\ntalked to the new resident in town? {{pageBreak}}{{anim id=\"11\"}}{{fun_0008000E arg=\"0x00CD080048006500270073000A00530068006500270073000000\"}} as scary looking as an ogre, \nbut {{fun_0008000E arg=\"0x00CD080068006500270073000A00730068006500270073000000\"}} got the heart of an angel.\nUh, and the soul of a comedian!\n{{anim id=\"40\"}}Man, I'm just telling you what I\nheard someone else say about {{fun_0008000E arg=\"0x00CD0600680069006D0006006800650072000000\"}}.{{pageBreak}}{{anim id=\"38\"}}{{fun_0008000E arg=\"0x00CD04004800650006005300680065000000\"}} was actually really great when I\nwent over and talked to {{fun_0008000E arg=\"0x00CD0600680069006D0006006800650072000000\"}}.{{pageBreak}}{{anim id=\"21\"}}{{fun_0008000E arg=\"0x00CD060048006900730006004800650072000000\"}} name is {{fun_00010011 arg=\"0x0000\"}}!{{delay frames=\"40\"}}{{anim id=\"1\"}} You should\ngo say hi too! {{delay frames=\"8\"}}{{fun_0003000E arg=\"\"}}{{fun_00070005 arg=\"\"}}!",
      "EUes": "{{anim id=\"1\"}}Oye, {{fun_00080005 arg=\"\"}}... ¿Has hablado ya\ncon {{fun_0008000E arg=\"0x00CD040065006C0004006C0061000000\"}} nuev{{fun_0008000E arg=\"0x00CD02006F00020061000000\"}} habitante del pueblo?{{pageBreak}}{{anim id=\"11\"}}Da tanto miedo como un ogro,\npero tiene el corazón de un ángel.\n¡Ah, y el alma de un payaso!\n{{anim id=\"40\"}}Vaya, solo te estoy contando\nlo que me han dicho. Si te digo\nla verdad, no me lo acabo de creer.\n{{anim id=\"38\"}}De hecho, resulta que estuvimos\nhablando y me parece u{{fun_0008000E arg=\"0x00CD02006E0004006E0061000000\"}} tí{{fun_0008000E arg=\"0x00CD02006F00020061000000\"}}\nde lo más maj{{fun_0008000E arg=\"0x00CD02006F00020061000000\"}}...\n¡Se llama {{fun_00010011 arg=\"0x0000\"}}!{{delay frames=\"40\"}}{{anim id=\"1\"}} ¡Tú\ntambién deberías ir a saludarl{{fun_0008000E arg=\"0x00CD02006F00020061000000\"}},\n{{delay frames=\"8\"}}{{fun_00070005 arg=\"\"}}!",
      "EUfr": "{{anim id=\"1\"}}Dis, {{fun_00080005 arg=\"\"}}, t'as eu l'occasion\nde discuter un peu avec {{fun_0008000E arg=\"0x00CD10006C00650020007000650074006900740012006C00610020007000650074006900740065000000\"}}\n{{fun_0008000E arg=\"0x00CD0E006E006F007500760065006100750010006E006F007500760065006C006C0065000000\"}} ?\n{{anim id=\"11\"}}{{fun_0008000E arg=\"0x00CD040049006C00080045006C006C0065000000\"}} est aussi {{fun_0008000E arg=\"0x00CD0C00670065006E00740069006C001000670065006E00740069006C006C0065000000\"}} qu'{{fun_0008000E arg=\"0x00CD040069006C00080065006C006C0065000000\"}} est\nmoche... Et {{fun_0008000E arg=\"0x00CD04006C00650004006C0061000000\"}} voir pique les yeux !{{pageBreak}}{{anim id=\"40\"}}Bon, ça, c'est ce qu'on m'a dit,\navec toute la retenue\ncaractéristique des gens du coin !\n{{anim id=\"38\"}}En fait, quand je lui ai parlé, je l'ai\n{{fun_0008000E arg=\"0x00CD0C00740072006F0075007600E9000E00740072006F0075007600E90065000000\"}} parfaitement {{fun_0008000E arg=\"0x00CD0C006E006F0072006D0061006C000E006E006F0072006D0061006C0065000000\"}} !{{delay frames=\"20\"}}\nEnfin, selon les critères locaux, hein.\n{{anim id=\"21\"}}{{fun_0008000E arg=\"0x00CD040049006C00080045006C006C0065000000\"}} s'appelle {{fun_00010011 arg=\"0x0000\"}}.{{delay frames=\"40\"}} {{anim id=\"1\"}}Fais-lui\ncoucou si tu l'aperçois,{{delay frames=\"8\"}}\n{{fun_00070005 arg=\"\"}} !",
      "EUit": "{{anim id=\"1\"}}Ehi, {{fun_00080005 arg=\"\"}}! Hai già incontrato\n{{fun_00010011 arg=\"0x0000\"}}? È l'ultim{{fun_0008000E arg=\"0x00CD02006F00020061000000\"}} arrivat{{fun_0008000E arg=\"0x00CD02006F00020061000000\"}}\nin città.\n{{anim id=\"11\"}}Dicono che sia poco affascinante,\nma che abbia il cuore gentile. Ah,\ne anche che sia molto divertente.\n{{anim id=\"40\"}}Non so proprio chi metta in giro\ntutte queste voci.{{pageBreak}}{{anim id=\"38\"}}Io ci ho parlato e mi è sembrat{{fun_0008000E arg=\"0x00CD02006F00020061000000\"}}\nin gamba. Questo è tutto quello che\nposso dirti di sicuro.{{pageBreak}}{{anim id=\"1\"}}Dovresti andare a salutarl{{fun_0008000E arg=\"0x00CD02006F00020061000000\"}} quando\nhai tempo, {{delay frames=\"8\"}}{{fun_00070005 arg=\"\"}}!",
      "JPja": "{{anim id=\"1\"}}なぁ、{{fun_00080005 arg=\"\"}}！{{delay frames=\"8\"}}\nオマエは　もう\nこの{{ruby charSpan=\"1\" value=\"むら\"}}村に{{ruby charSpan=\"1\" value=\"き\"}}来た　{{ruby charSpan=\"2\" value=\"しんい\"}}新入りと{{ruby charSpan=\"1\" value=\"はな\"}}話したか？{{pageBreak}}{{anim id=\"11\"}}オニのように　{{ruby charSpan=\"2\" value=\"こわもて\"}}強面で{{delay frames=\"20\"}}\n{{ruby charSpan=\"2\" value=\"てんし\"}}天使のように　やさしくて{{delay frames=\"20\"}}\nコメディアンのように　{{ruby charSpan=\"1\" value=\"き\"}}気さくなヤツ{{delay frames=\"8\"}}・{{delay frames=\"8\"}}・{{delay frames=\"8\"}}・{{pageBreak}}{{anim id=\"40\"}}ってのは　{{ruby charSpan=\"1\" value=\"たん\"}}単なるウワサで、{{delay frames=\"40\"}}\n{{anim id=\"38\"}}じっさいに　{{ruby charSpan=\"1\" value=\"はな\"}}話したら\nいいヤツだった！{{pageBreak}}{{anim id=\"21\"}}{{fun_00010011 arg=\"0x0000\"}}っていうんだ！{{delay frames=\"40\"}}\n{{anim id=\"1\"}}オマエも　あいさつ\nしてくるといいぞ、{{delay frames=\"8\"}}{{fun_00070005 arg=\"\"}}",
      "KRko": "{{anim id=\"1\"}}어이, {{fun_00080005 arg=\"\"}}!{{delay frames=\"8\"}}\n너, 이 마을에 새로 온\n신입이랑은 얘기해봤냐?{{pageBreak}}{{anim id=\"11\"}}도깨비처럼 강한 인상에{{delay frames=\"20\"}}\n천사처럼 착한 마음씨를 가졌고{{delay frames=\"20\"}}\n개그맨처럼 익살스러운 녀석이라던데{{delay frames=\"8\"}}・{{delay frames=\"8\"}}・{{delay frames=\"8\"}}・{{pageBreak}}{{anim id=\"40\"}}그 얘기는 소문일 뿐이고{{delay frames=\"40\"}}\n{{anim id=\"38\"}}내가 직접 만나서 얘기해보니까\n좋은 녀석이더라!{{pageBreak}}{{anim id=\"21\"}}이름은 {{fun_00010011 arg=\"0x0000\"}}{{fun_000E000E arg=\"0x020074C70000\"}}랬어!{{delay frames=\"40\"}}\n{{anim id=\"1\"}}너도 시간 나면 가서\n인사해라, {{delay frames=\"8\"}}{{fun_00070005 arg=\"\"}}",
      "USen": "{{anim id=\"1\"}}Hey, {{fun_00080005 arg=\"\"}}! Have you already\ntalked to the new resident in town? {{pageBreak}}{{anim id=\"11\"}}{{fun_0008000E arg=\"0x00CD080048006500270073000A00530068006500270073000000\"}} as scary looking as an ogre, \nbut {{fun_0008000E arg=\"0x00CD080068006500270073000A00730068006500270073000000\"}} got the heart of an angel.\nUh, and the soul of a comedian!\n{{anim id=\"40\"}}Man, I'm just telling you what I\nheard someone else say about {{fun_0008000E arg=\"0x00CD0600680069006D0006006800650072000000\"}}.{{pageBreak}}{{anim id=\"38\"}}{{fun_0008000E arg=\"0x00CD04004800650006005300680065000000\"}} was actually really great when I\nwent over and talked to {{fun_0008000E arg=\"0x00CD0600680069006D0006006800650072000000\"}}.{{pageBreak}}{{anim id=\"21\"}}{{fun_0008000E arg=\"0x00CD060048006900730006004800650072000000\"}} name is {{fun_00010011 arg=\"0x0000\"}}!{{delay frames=\"40\"}}{{anim id=\"1\"}} You should\ngo say hi too! {{delay frames=\"8\"}}{{fun_0003000E arg=\"\"}}{{fun_00070005 arg=\"\"}}!",
      "USes": "{{anim id=\"1\"}}Oye, {{fun_00080005 arg=\"\"}}... ¿Has hablado ya\ncon {{fun_0008000E arg=\"0x00CD040065006C0004006C0061000000\"}} nuev{{fun_0008000E arg=\"0x00CD02006F00020061000000\"}} habitante del pueblo?{{pageBreak}}{{anim id=\"11\"}}Da tanto miedo como un ogro,\npero tiene el corazón de un ángel.\n¡Ah, y el alma de un payaso!\n{{anim id=\"40\"}}Vaya, solo te estoy contando\nlo que me han dicho. Si te digo\nla verdad, no me lo acabo de creer.\n{{anim id=\"38\"}}De hecho, resulta que estuvimos\nhablando y me parece u{{fun_0008000E arg=\"0x00CD02006E0004006E0061000000\"}} tí{{fun_0008000E arg=\"0x00CD02006F00020061000000\"}}\nde lo más maj{{fun_0008000E arg=\"0x00CD02006F00020061000000\"}}...\n¡Se llama {{fun_00010011 arg=\"0x0000\"}}!{{delay frames=\"40\"}}{{anim id=\"1\"}} ¡Tú\ntambién deberías ir a saludarl{{fun_0008000E arg=\"0x00CD02006F00020061000000\"}},\n{{delay frames=\"8\"}}{{fun_00070005 arg=\"\"}}!",
      "USfr": "{{anim id=\"1\"}}Dis, {{fun_00080005 arg=\"\"}}, t'as eu l'occasion\nde discuter un peu avec {{fun_0008000E arg=\"0x00CD10006C00650020007000650074006900740012006C00610020007000650074006900740065000000\"}}\n{{fun_0008000E arg=\"0x00CD0E006E006F007500760065006100750010006E006F007500760065006C006C0065000000\"}}?\n{{anim id=\"11\"}}{{fun_0008000E arg=\"0x00CD040049006C00080045006C006C0065000000\"}} est aussi {{fun_0008000E arg=\"0x00CD0C00670065006E00740069006C001000670065006E00740069006C006C0065000000\"}} qu'{{fun_0008000E arg=\"0x00CD040069006C00080065006C006C0065000000\"}} est\nmoche... Et {{fun_0008000E arg=\"0x00CD04006C00650004006C0061000000\"}} voir pique les yeux!{{pageBreak}}{{anim id=\"40\"}}Bon, ça, c'est ce qu'on m'a dit,\navec toute la retenue\ncaractéristique des gens du coin!\n{{anim id=\"38\"}}En fait, quand je lui ai parlé, je l'ai\n{{fun_0008000E arg=\"0x00CD0C00740072006F0075007600E9000E00740072006F0075007600E90065000000\"}} parfaitement {{fun_0008000E arg=\"0x00CD0C006E006F0072006D0061006C000E006E006F0072006D0061006C0065000000\"}}!{{delay frames=\"20\"}}\nEnfin, selon les critères locaux, hein.\n{{anim id=\"21\"}}{{fun_0008000E arg=\"0x00CD040049006C00080045006C006C0065000000\"}} s'appelle {{fun_00010011 arg=\"0x0000\"}}.{{delay frames=\"40\"}} {{anim id=\"1\"}}Fais-lui\ncoucou si tu l'aperçois,{{delay frames=\"8\"}}\n{{fun_00070005 arg=\"\"}}!"
    }
  },
  {
    "label": "016",
    "locale": {
      "EUde": "{{anim id=\"1\"}}Schon gehört? {{delay frames=\"40\"}}{{fun_0008000E arg=\"0x00CD2000450069006E002000530070006F0072007400730066007200650075006E006400240027006E0065002000530070006F0072007400730066007200650075006E00640069006E002000450069006E002000530070006F0072007400730066007200650075006E006400\"}}\nnamens {{fun_00010011 arg=\"0x0000\"}} ist vor Kurzem\nin unsere Stadt gezogen!\n{{anim id=\"35\"}}Hmm{{delay frames=\"8\"}}.{{delay frames=\"8\"}}.{{delay frames=\"8\"}}.{{delay frames=\"20\"}} Ich frag mich, {{delay frames=\"8\"}}wie {{fun_0008000E arg=\"0x00CD0400650072000600730069006500040065007300\"}}\nso tickt! {{delay frames=\"40\"}}{{anim id=\"5\"}}Ich sollte es bald mal\nrausfinden, {{delay frames=\"8\"}}{{fun_00070005 arg=\"\"}}!",
      "EUen": "{{anim id=\"1\"}}Did you hear? A {{fun_0008000E arg=\"0x00CD0600620072006F000E006C00610064007900620072006F000000\"}} named\n{{fun_00010011 arg=\"0x0000\"}} just moved in!{{pageBreak}}{{anim id=\"35\"}}Hmm{{delay frames=\"8\"}}.{{delay frames=\"8\"}}.{{delay frames=\"8\"}}.{{delay frames=\"20\"}} I wonder what kind of \nperson {{fun_0008000E arg=\"0x00CD04006800650006007300680065000000\"}} is. {{delay frames=\"40\"}}{{anim id=\"5\"}}I can't wait to find\nout, {{delay frames=\"8\"}}{{fun_00070005 arg=\"\"}}!",
      "EUes": "{{anim id=\"1\"}}¿Te has enterado? ¡U{{fun_0008000E arg=\"0x00CD02006E0004006E0061000000\"}} chava{{fun_0008000E arg=\"0x00CD02006C0004006C0061000000\"}}\nllamad{{fun_0008000E arg=\"0x00CD02006F00020061000000\"}} {{fun_00010011 arg=\"0x0000\"}} se acaba de\nmudar al pueblo!\n{{anim id=\"35\"}}Hum{{delay frames=\"8\"}}.{{delay frames=\"8\"}}.{{delay frames=\"8\"}}.{{delay frames=\"20\"}} Me pregunto qué tipo de\npersona será. {{delay frames=\"40\"}}{{anim id=\"5\"}}¡Me muero de ganas\npor descubrirlo, {{delay frames=\"8\"}}{{fun_00070005 arg=\"\"}}!",
      "EUfr": "{{anim id=\"1\"}}Tu es au courant ? {{fun_0008000E arg=\"0x00CD0E0055006E0020007400790070006500120055006E0065002000660069006C006C0065000000\"}} du nom\n{{fun_000A000E arg=\"0x0600640065002000040064002700\"}}{{fun_00010011 arg=\"0x0000\"}} a emménagé en ville,{{delay frames=\"8\"}}\n{{fun_00070005 arg=\"\"}} !\n{{anim id=\"35\"}}Hmm{{delay frames=\"8\"}}.{{delay frames=\"8\"}}.{{delay frames=\"8\"}}.{{delay frames=\"20\"}} Encore {{fun_0008000E arg=\"0x00CD100075006E002000640069006E0067006F00140075006E0065002000640069006E006700750065000000\"}} de plus\nou enfin quelqu'un de sain d'esprit ?{{delay frames=\"20\"}}\n{{anim id=\"5\"}}{{delay frames=\"10\"}}Je suis pressé de découvrir ça !",
      "EUit": "{{anim id=\"1\"}}Hai sentito? {{fun_0008000E arg=\"0x00CD100055006E00200063006500720074006F00120055006E0061002000630065007200740061000000\"}} {{fun_00010011 arg=\"0x0000\"}}\nsi è appena trasferit{{fun_0008000E arg=\"0x00CD02006F00020061000000\"}} in città!{{pageBreak}}{{anim id=\"35\"}}Mmmh{{delay frames=\"8\"}}.{{delay frames=\"8\"}}.{{delay frames=\"8\"}}.{{delay frames=\"20\"}} Mi chiedo che tipo sia.\n{{delay frames=\"40\"}}{{anim id=\"5\"}}Non vedo l'ora di conoscerl{{fun_0008000E arg=\"0x00CD02006F00020061000000\"}},\n{{delay frames=\"8\"}}{{fun_00070005 arg=\"\"}}!",
      "JPja": "{{anim id=\"1\"}}オマエ{{ruby charSpan=\"1\" value=\"し\"}}知ってたか？{{delay frames=\"40\"}}\n{{fun_00010011 arg=\"0x0000\"}}ってヤツが{{delay frames=\"8\"}}\n{{ruby charSpan=\"2\" value=\"さいきん\"}}最近　{{ruby charSpan=\"1\" value=\"ひ\"}}引っこして{{ruby charSpan=\"1\" value=\"き\"}}来たんだよ！{{pageBreak}}{{anim id=\"35\"}}さーって、{{delay frames=\"20\"}}どんなヤツなのか{{delay frames=\"8\"}}・{{delay frames=\"8\"}}・{{delay frames=\"8\"}}・{{delay frames=\"40\"}}\n{{anim id=\"5\"}}これから　たくさん{{ruby charSpan=\"1\" value=\"はな\"}}話すんだ！{{delay frames=\"40\"}}\n{{ruby charSpan=\"1\" value=\"たの\"}}楽しみだなー！　{{delay frames=\"8\"}}{{fun_00070005 arg=\"\"}}！",
      "KRko": "{{anim id=\"1\"}}너 그거 알아?{{delay frames=\"40\"}}\n{{fun_00010011 arg=\"0x0000\"}}{{fun_000E000E arg=\"0x020074C70000\"}}란 녀석이{{delay frames=\"8\"}}\n최근에 마을로 이사를 왔어!{{pageBreak}}{{anim id=\"35\"}}자,{{delay frames=\"20\"}} 과연 어떤 녀석일까{{delay frames=\"8\"}}・{{delay frames=\"8\"}}・{{delay frames=\"8\"}}・{{delay frames=\"40\"}}\n{{anim id=\"5\"}}앞으로 많이 얘기를 나눠보자!{{delay frames=\"40\"}}\n기대되는걸ー! {{delay frames=\"8\"}}{{fun_00070005 arg=\"\"}}!",
      "USen": "{{anim id=\"1\"}}Did you hear? A {{fun_0008000E arg=\"0x00CD0600620072006F000E006C00610064007900620072006F000000\"}} named\n{{fun_00010011 arg=\"0x0000\"}} just moved in!{{pageBreak}}{{anim id=\"35\"}}Hmm{{delay frames=\"8\"}}.{{delay frames=\"8\"}}.{{delay frames=\"8\"}}.{{delay frames=\"20\"}} I wonder what kind of \nperson {{fun_0008000E arg=\"0x00CD04006800650006007300680065000000\"}} is. {{delay frames=\"40\"}}{{anim id=\"5\"}}I can't wait to find\nout, {{delay frames=\"8\"}}{{fun_00070005 arg=\"\"}}!",
      "USes": "{{anim id=\"1\"}}¿Te has enterado? ¡U{{fun_0008000E arg=\"0x00CD02006E0004006E0061000000\"}} chava{{fun_0008000E arg=\"0x00CD02006C0004006C0061000000\"}}\nllamad{{fun_0008000E arg=\"0x00CD02006F00020061000000\"}} {{fun_00010011 arg=\"0x0000\"}} se acaba de\nmudar al pueblo!\n{{anim id=\"35\"}}Hum{{delay frames=\"8\"}}.{{delay frames=\"8\"}}.{{delay frames=\"8\"}}.{{delay frames=\"20\"}} Me pregunto qué tipo de\npersona será. {{delay frames=\"40\"}}{{anim id=\"5\"}}¡Me muero de ganas\npor descubrirlo, {{delay frames=\"8\"}}{{fun_00070005 arg=\"\"}}!",
      "USfr": "{{anim id=\"1\"}}Tu es au courant? {{fun_0008000E arg=\"0x00CD0E0055006E0020007400790070006500120055006E0065002000660069006C006C0065000000\"}} du nom\n{{fun_000A000E arg=\"0x0600640065002000040064002700\"}}{{fun_00010011 arg=\"0x0000\"}} a emménagé en ville,{{delay frames=\"8\"}}\n{{fun_00070005 arg=\"\"}}!\n{{anim id=\"35\"}}Hmm{{delay frames=\"8\"}}.{{delay frames=\"8\"}}.{{delay frames=\"8\"}}.{{delay frames=\"20\"}} Encore {{fun_0008000E arg=\"0x00CD100075006E002000640069006E0067006F00140075006E0065002000640069006E006700750065000000\"}} de plus\nou enfin quelqu'un de sain d'esprit?{{delay frames=\"20\"}}\n{{anim id=\"5\"}}{{delay frames=\"10\"}}Je suis pressé de découvrir ça!"
    }
  }
]