﻿[
  {
    "label": "001",
    "locale": {
      "EUde": "{{fun_0001000C arg=\"\"}}{{fun_0004000C arg=\"\"}}{{fun_0002000C arg=\"\"}}{{fun_0006000C arg=\"\"}}{{anim id=\"32\"}}Hey!{{delay frames=\"20\"}} Da seid ihr ja endlich, Leute!{{fun_0009000C arg=\"\"}}",
      "EUen": "{{fun_0001000C arg=\"\"}}{{fun_0004000C arg=\"\"}}{{fun_0002000C arg=\"\"}}{{fun_0006000C arg=\"\"}}{{anim id=\"32\"}}Hey!{{delay frames=\"20\"}} Way to make it here, guys.{{fun_0009000C arg=\"\"}}",
      "EUes": "{{fun_0001000C arg=\"\"}}{{fun_0004000C arg=\"\"}}{{fun_0002000C arg=\"\"}}{{fun_0006000C arg=\"\"}}{{anim id=\"32\"}}¡Hola!{{delay frames=\"20\"}} Qué bien que hayáis venido.{{fun_0009000C arg=\"\"}}",
      "EUfr": "{{fun_0001000C arg=\"\"}}{{fun_0004000C arg=\"\"}}{{fun_0002000C arg=\"\"}}{{fun_0006000C arg=\"\"}}{{anim id=\"32\"}}Yo !{{delay frames=\"20\"}} Vous voilà enfin !{{fun_0009000C arg=\"\"}}",
      "EUit": "{{fun_0001000C arg=\"\"}}{{fun_0004000C arg=\"\"}}{{fun_0002000C arg=\"\"}}{{fun_0006000C arg=\"\"}}{{anim id=\"32\"}}Ehi!{{delay frames=\"20\"}} Da questa parte, ragazzi.{{fun_0009000C arg=\"\"}}",
      "JPja": "{{fun_0001000C arg=\"\"}}{{fun_0004000C arg=\"\"}}{{fun_0002000C arg=\"\"}}{{fun_0006000C arg=\"\"}}{{anim id=\"32\"}}オーッス！{{delay frames=\"20\"}}\n{{ruby charSpan=\"2\" value=\"ふたり\"}}二人とも　よく{{ruby charSpan=\"1\" value=\"き\"}}来たなー{{fun_0009000C arg=\"\"}}",
      "KRko": "{{fun_0001000C arg=\"\"}}{{fun_0004000C arg=\"\"}}{{fun_0002000C arg=\"\"}}{{fun_0006000C arg=\"\"}}{{anim id=\"32\"}}어이ー!{{delay frames=\"20\"}}\n무사히 같이 왔네ー?{{fun_0009000C arg=\"\"}}",
      "USen": "{{fun_0001000C arg=\"\"}}{{fun_0004000C arg=\"\"}}{{fun_0002000C arg=\"\"}}{{fun_0006000C arg=\"\"}}{{anim id=\"32\"}}Hey!{{delay frames=\"20\"}} Way to make it here, guys.{{fun_0009000C arg=\"\"}}",
      "USes": "{{fun_0001000C arg=\"\"}}{{fun_0004000C arg=\"\"}}{{fun_0002000C arg=\"\"}}{{fun_0006000C arg=\"\"}}{{anim id=\"32\"}}¡Hola!{{delay frames=\"20\"}} Qué bien que hayáis venido.{{fun_0009000C arg=\"\"}}",
      "USfr": "{{fun_0001000C arg=\"\"}}{{fun_0004000C arg=\"\"}}{{fun_0002000C arg=\"\"}}{{fun_0006000C arg=\"\"}}{{anim id=\"32\"}}Yo!{{delay frames=\"20\"}} Vous voilà enfin!{{fun_0009000C arg=\"\"}}"
    }
  },
  {
    "label": "002",
    "locale": {
      "EUde": "{{fun_0001000C arg=\"\"}}{{fun_0004000C arg=\"\"}}{{fun_0002000C arg=\"\"}}{{fun_0006000C arg=\"\"}}{{anim id=\"2\"}}Haha! {{delay frames=\"20\"}}Du bist wieder da!{{delay frames=\"20\"}}\nHast was gut bei mir, {{fun_00080005 arg=\"\"}}.{{delay frames=\"20\"}}{{anim id=\"1\"}}{{fun_0009000C arg=\"\"}}",
      "EUen": "{{fun_0001000C arg=\"\"}}{{fun_0004000C arg=\"\"}}{{fun_0002000C arg=\"\"}}{{fun_0006000C arg=\"\"}}{{anim id=\"2\"}}Ha ha!{{delay frames=\"8\"}} You actually made it back!{{delay frames=\"20\"}}\nThanks for the effort, {{fun_00080005 arg=\"\"}}!{{delay frames=\"20\"}}{{anim id=\"1\"}}{{fun_0009000C arg=\"\"}}",
      "EUes": "{{fun_0001000C arg=\"\"}}{{fun_0004000C arg=\"\"}}{{fun_0002000C arg=\"\"}}{{fun_0006000C arg=\"\"}}{{anim id=\"2\"}}¡Ja, ja!{{delay frames=\"8\"}} ¡Habéis podido venir!{{delay frames=\"20\"}}\n¡Gracias por el favor, {{fun_00080005 arg=\"\"}}!{{delay frames=\"20\"}}{{anim id=\"1\"}}{{fun_0009000C arg=\"\"}}",
      "EUfr": "{{fun_0001000C arg=\"\"}}{{fun_0004000C arg=\"\"}}{{fun_0002000C arg=\"\"}}{{fun_0006000C arg=\"\"}}{{anim id=\"2\"}}Oh !{{delay frames=\"15\"}} Te revoilà, {{fun_00080005 arg=\"\"}} !{{delay frames=\"15\"}} Merci\nde m'avoir rendu ce service !{{delay frames=\"20\"}}{{anim id=\"1\"}}{{fun_0009000C arg=\"\"}}",
      "EUit": "{{fun_0001000C arg=\"\"}}{{fun_0004000C arg=\"\"}}{{fun_0002000C arg=\"\"}}{{fun_0006000C arg=\"\"}}{{anim id=\"2\"}}Ah ah!{{delay frames=\"8\"}} Non credevo che saresti\ntornat{{fun_0006000E arg=\"0x02006F0002006100\"}}!{{delay frames=\"20\"}} Grazie dell'aiuto,\n{{fun_00080005 arg=\"\"}}!{{delay frames=\"20\"}}{{anim id=\"1\"}}{{fun_0009000C arg=\"\"}}",
      "JPja": "{{fun_0001000C arg=\"\"}}{{fun_0004000C arg=\"\"}}{{fun_0002000C arg=\"\"}}{{fun_0006000C arg=\"\"}}{{anim id=\"2\"}}おー！{{delay frames=\"8\"}}\nもどってきた　もどってきた！{{delay frames=\"20\"}}\n{{fun_00080005 arg=\"\"}}、ご{{ruby charSpan=\"3\" value=\"くろうさま\"}}苦労様！{{delay frames=\"20\"}}{{anim id=\"1\"}}{{fun_0009000C arg=\"\"}}",
      "KRko": "{{fun_0001000C arg=\"\"}}{{fun_0004000C arg=\"\"}}{{fun_0002000C arg=\"\"}}{{fun_0006000C arg=\"\"}}{{anim id=\"2\"}}하하핫ー!{{delay frames=\"8\"}}\n드디어 왔구나!{{delay frames=\"20\"}}\n수고 많았어, {{fun_00080005 arg=\"\"}}!{{delay frames=\"20\"}}{{anim id=\"1\"}}{{fun_0009000C arg=\"\"}}",
      "USen": "{{fun_0001000C arg=\"\"}}{{fun_0004000C arg=\"\"}}{{fun_0002000C arg=\"\"}}{{fun_0006000C arg=\"\"}}{{anim id=\"2\"}}Ha ha!{{delay frames=\"8\"}} You actually made it back!{{delay frames=\"20\"}}\nThanks for the effort, {{fun_00080005 arg=\"\"}}!{{delay frames=\"20\"}}{{anim id=\"1\"}}{{fun_0009000C arg=\"\"}}",
      "USes": "{{fun_0001000C arg=\"\"}}{{fun_0004000C arg=\"\"}}{{fun_0002000C arg=\"\"}}{{fun_0006000C arg=\"\"}}{{anim id=\"2\"}}¡Ja, ja!{{delay frames=\"8\"}} ¡Habéis podido venir!{{delay frames=\"20\"}}\n¡Gracias por el favor, {{fun_00080005 arg=\"\"}}!{{delay frames=\"20\"}}{{anim id=\"1\"}}{{fun_0009000C arg=\"\"}}",
      "USfr": "{{fun_0001000C arg=\"\"}}{{fun_0004000C arg=\"\"}}{{fun_0002000C arg=\"\"}}{{fun_0006000C arg=\"\"}}{{anim id=\"2\"}}Oh!{{delay frames=\"15\"}} Te revoilà, {{fun_00080005 arg=\"\"}}!{{delay frames=\"15\"}} Merci\nde m'avoir rendu ce service!{{delay frames=\"20\"}}{{anim id=\"1\"}}{{fun_0009000C arg=\"\"}}"
    }
  },
  {
    "label": "003",
    "locale": {
      "EUde": "{{fun_0001000C arg=\"\"}}{{fun_0004000C arg=\"\"}}{{fun_0002000C arg=\"\"}}{{fun_0006000C arg=\"\"}}{{anim id=\"38\"}}Hey ho!{{delay frames=\"8\"}} Willkommen zurück!{{fun_0009000C arg=\"\"}}",
      "EUen": "{{fun_0001000C arg=\"\"}}{{fun_0004000C arg=\"\"}}{{fun_0002000C arg=\"\"}}{{fun_0006000C arg=\"\"}}{{anim id=\"38\"}}Yo!{{delay frames=\"8\"}} Welcome back!{{fun_0009000C arg=\"\"}}",
      "EUes": "{{fun_0001000C arg=\"\"}}{{fun_0004000C arg=\"\"}}{{fun_0002000C arg=\"\"}}{{fun_0006000C arg=\"\"}}{{anim id=\"38\"}}¡Hola!{{delay frames=\"8\"}} ¡Bienvenidos!{{fun_0009000C arg=\"\"}}",
      "EUfr": "{{fun_0001000C arg=\"\"}}{{fun_0004000C arg=\"\"}}{{fun_0002000C arg=\"\"}}{{fun_0006000C arg=\"\"}}{{anim id=\"38\"}}Ha ha !{{delay frames=\"8\"}} Content de vous voir !{{fun_0009000C arg=\"\"}}",
      "EUit": "{{fun_0001000C arg=\"\"}}{{fun_0004000C arg=\"\"}}{{fun_0002000C arg=\"\"}}{{fun_0006000C arg=\"\"}}{{anim id=\"38\"}}Ciao!{{delay frames=\"8\"}} Bene arrivati!{{fun_0009000C arg=\"\"}}",
      "JPja": "{{fun_0001000C arg=\"\"}}{{fun_0004000C arg=\"\"}}{{fun_0002000C arg=\"\"}}{{fun_0006000C arg=\"\"}}{{anim id=\"38\"}}よぉ！{{delay frames=\"8\"}}　おかえりー！{{fun_0009000C arg=\"\"}}",
      "KRko": "{{fun_0001000C arg=\"\"}}{{fun_0004000C arg=\"\"}}{{fun_0002000C arg=\"\"}}{{fun_0006000C arg=\"\"}}{{anim id=\"38\"}}어서 와!{{delay frames=\"8\"}} 기다리고 있었다ー!{{fun_0009000C arg=\"\"}}",
      "USen": "{{fun_0001000C arg=\"\"}}{{fun_0004000C arg=\"\"}}{{fun_0002000C arg=\"\"}}{{fun_0006000C arg=\"\"}}{{anim id=\"38\"}}Yo!{{delay frames=\"8\"}} Welcome back!{{fun_0009000C arg=\"\"}}",
      "USes": "{{fun_0001000C arg=\"\"}}{{fun_0004000C arg=\"\"}}{{fun_0002000C arg=\"\"}}{{fun_0006000C arg=\"\"}}{{anim id=\"38\"}}¡Hola!{{delay frames=\"8\"}} ¡Bienvenidos!{{fun_0009000C arg=\"\"}}",
      "USfr": "{{fun_0001000C arg=\"\"}}{{fun_0004000C arg=\"\"}}{{fun_0002000C arg=\"\"}}{{fun_0006000C arg=\"\"}}{{anim id=\"38\"}}Ha ha!{{delay frames=\"8\"}} Content de vous voir!{{fun_0009000C arg=\"\"}}"
    }
  },
  {
    "label": "004",
    "locale": {
      "EUde": "{{fun_0001000C arg=\"\"}}{{fun_0004000C arg=\"\"}}{{fun_0002000C arg=\"\"}}{{fun_0006000C arg=\"\"}}{{anim id=\"27\"}}Hey!{{delay frames=\"20\"}} Ihr seid spät dran!{{pageBreak}}Lang hätte ich nicht mehr gewartet.{{delay frames=\"20\"}}\nIch wollt euch schon suchen gehen,\n{{delay frames=\"8\"}}{{fun_00070005 arg=\"\"}}{{fun_0009000C arg=\"\"}}!",
      "EUen": "{{fun_0001000C arg=\"\"}}{{fun_0004000C arg=\"\"}}{{fun_0002000C arg=\"\"}}{{fun_0006000C arg=\"\"}}{{anim id=\"27\"}}Hey!{{delay frames=\"20\"}} You two are late!{{pageBreak}}I got tired of waiting, so I was going\nto go get you, {{delay frames=\"8\"}}{{fun_00070005 arg=\"\"}}!{{fun_0009000C arg=\"\"}}",
      "EUes": "{{fun_0001000C arg=\"\"}}{{fun_0004000C arg=\"\"}}{{fun_0002000C arg=\"\"}}{{fun_0006000C arg=\"\"}}{{anim id=\"27\"}}¡Pero bueno!{{delay frames=\"20\"}} ¡Venís tarde!{{pageBreak}}Ya estaba cansado de esperar, ¡e\niba a salir a buscaros, {{delay frames=\"8\"}}{{fun_00070005 arg=\"\"}}!{{fun_0009000C arg=\"\"}}",
      "EUfr": "{{fun_0001000C arg=\"\"}}{{fun_0004000C arg=\"\"}}{{fun_0002000C arg=\"\"}}{{fun_0006000C arg=\"\"}}{{anim id=\"27\"}}Bah alors ?!{{delay frames=\"20\"}} Fallait surtout pas vous\npresser, hein...{{pageBreak}}Encore un peu, et je venais vous\nchercher en personne,{{delay frames=\"20\"}}\n{{fun_00070005 arg=\"\"}} !{{fun_0009000C arg=\"\"}}",
      "EUit": "{{fun_0001000C arg=\"\"}}{{fun_0004000C arg=\"\"}}{{fun_0002000C arg=\"\"}}{{fun_0006000C arg=\"\"}}{{anim id=\"27\"}}Ehi!{{delay frames=\"20\"}} Voi due siete in ritardo,\nse non mi sbaglio!{{pageBreak}}Nell'attesa, però, ho letto\nun interessante articolo di giornale\nsui pettorali, {{delay frames=\"8\"}}{{fun_00070005 arg=\"\"}}!{{fun_0009000C arg=\"\"}}",
      "JPja": "{{fun_0001000C arg=\"\"}}{{fun_0004000C arg=\"\"}}{{fun_0002000C arg=\"\"}}{{fun_0006000C arg=\"\"}}{{anim id=\"27\"}}オイー！{{delay frames=\"20\"}}\n{{ruby charSpan=\"2\" value=\"ふたり\"}}二人とも　おそいぞー！{{pageBreak}}{{ruby charSpan=\"1\" value=\"ま\"}}待ちくたびれて\nむかえに{{ruby charSpan=\"1\" value=\"い\"}}行こうかと{{ruby charSpan=\"1\" value=\"おも\"}}思ったよ、{{delay frames=\"8\"}}{{fun_00070005 arg=\"\"}}{{fun_0009000C arg=\"\"}}",
      "KRko": "{{fun_0001000C arg=\"\"}}{{fun_0004000C arg=\"\"}}{{fun_0002000C arg=\"\"}}{{fun_0006000C arg=\"\"}}{{anim id=\"27\"}}이런ー!{{delay frames=\"20\"}}\n너희 둘 다 느림보구나ー!{{pageBreak}}너희를 기다리느라\n내 근육들도 지쳤다고, {{delay frames=\"8\"}}{{fun_00070005 arg=\"\"}}!{{fun_0009000C arg=\"\"}}",
      "USen": "{{fun_0001000C arg=\"\"}}{{fun_0004000C arg=\"\"}}{{fun_0002000C arg=\"\"}}{{fun_0006000C arg=\"\"}}{{anim id=\"27\"}}Hey!{{delay frames=\"20\"}} You two are late!{{pageBreak}}I got tired of waiting, so I was going\nto go get you, {{delay frames=\"8\"}}{{fun_00070005 arg=\"\"}}!{{fun_0009000C arg=\"\"}}",
      "USes": "{{fun_0001000C arg=\"\"}}{{fun_0004000C arg=\"\"}}{{fun_0002000C arg=\"\"}}{{fun_0006000C arg=\"\"}}{{anim id=\"27\"}}¡Pero bueno!{{delay frames=\"20\"}} ¡Venís tarde!{{pageBreak}}Ya estaba cansado de esperar, ¡e\niba a salir a buscaros, {{delay frames=\"8\"}}{{fun_00070005 arg=\"\"}}!{{fun_0009000C arg=\"\"}}",
      "USfr": "{{fun_0001000C arg=\"\"}}{{fun_0004000C arg=\"\"}}{{fun_0002000C arg=\"\"}}{{fun_0006000C arg=\"\"}}{{anim id=\"27\"}}Bah alors?!{{delay frames=\"20\"}} Fallait surtout pas vous\npresser, hein...{{pageBreak}}Encore un peu, et je venais vous\nchercher en personne,{{delay frames=\"20\"}}\n{{fun_00070005 arg=\"\"}}!{{fun_0009000C arg=\"\"}}"
    }
  },
  {
    "label": "005",
    "locale": {
      "EUde": "{{fun_0000000C arg=\"\"}}{{fun_0007000C arg=\"\"}}{{fun_0002000C arg=\"\"}}{{fun_0005000C arg=\"\"}}{{fun_0001000C arg=\"\"}}{{fun_0008000C arg=\"\"}}Hey ho, {{fun_0006000E arg=\"0x1800530070006F0072007400730066007200650075006E0064001C00530070006F0072007400730066007200650075006E00640069006E00\"}}!{{pageBreak}}Was zur Hantel mach ich hier,\n{{fun_00010011 arg=\"0x0000\"}}?{{fun_0009000C arg=\"\"}}",
      "EUen": "{{fun_0000000C arg=\"\"}}{{fun_0007000C arg=\"\"}}{{fun_0002000C arg=\"\"}}{{fun_0005000C arg=\"\"}}{{fun_0001000C arg=\"\"}}{{fun_0008000C arg=\"\"}}Yo, meat!{{delay frames=\"20\"}}{{pageBreak}}So what am I here for, {{fun_00010011 arg=\"0x0000\"}}?{{delay frames=\"20\"}}{{fun_0009000C arg=\"\"}}",
      "EUes": "{{fun_0000000C arg=\"\"}}{{fun_0007000C arg=\"\"}}{{fun_0002000C arg=\"\"}}{{fun_0005000C arg=\"\"}}{{fun_0001000C arg=\"\"}}{{fun_0008000C arg=\"\"}}¡Hola, tronco!{{delay frames=\"20\"}}{{pageBreak}}¿Para qué me has hecho venir,\n{{fun_00010011 arg=\"0x0000\"}}?{{delay frames=\"20\"}}{{fun_0009000C arg=\"\"}}",
      "EUfr": "{{fun_0000000C arg=\"\"}}{{fun_0007000C arg=\"\"}}{{fun_0002000C arg=\"\"}}{{fun_0005000C arg=\"\"}}{{fun_0001000C arg=\"\"}}{{fun_0008000C arg=\"\"}}Yo, mec !{{delay frames=\"20\"}}{{pageBreak}}Qu'est-ce que je peux faire pour\ntoi, {{fun_00010011 arg=\"0x0000\"}} ?{{delay frames=\"20\"}}{{fun_0009000C arg=\"\"}}",
      "EUit": "{{fun_0000000C arg=\"\"}}{{fun_0007000C arg=\"\"}}{{fun_0002000C arg=\"\"}}{{fun_0005000C arg=\"\"}}{{fun_0001000C arg=\"\"}}{{fun_0008000C arg=\"\"}}Ciao!{{delay frames=\"20\"}}{{pageBreak}}Dunque, perché sono stato\nchiamato qui, {{fun_00010011 arg=\"0x0000\"}}?{{delay frames=\"20\"}}{{fun_0009000C arg=\"\"}}",
      "JPja": "{{fun_0000000C arg=\"\"}}{{fun_0007000C arg=\"\"}}{{fun_0002000C arg=\"\"}}{{fun_0005000C arg=\"\"}}{{fun_0001000C arg=\"\"}}{{fun_0008000C arg=\"\"}}よぉ！{{delay frames=\"20\"}}　{{fun_00010011 arg=\"0x0000\"}}！{{delay frames=\"20\"}}\nオイラをよび{{ruby charSpan=\"1\" value=\"だ\"}}出して\n{{ruby charSpan=\"1\" value=\"なん\"}}何の{{ruby charSpan=\"1\" value=\"よう\"}}用だー？{{fun_0009000C arg=\"\"}}",
      "KRko": "{{fun_0000000C arg=\"\"}}{{fun_0007000C arg=\"\"}}{{fun_0002000C arg=\"\"}}{{fun_0005000C arg=\"\"}}{{fun_0001000C arg=\"\"}}{{fun_0008000C arg=\"\"}}여어!{{delay frames=\"20\"}} {{fun_00010011 arg=\"0x0000\"}}!{{delay frames=\"20\"}}\n나한테 무슨 용건이냐ー?{{fun_0009000C arg=\"\"}}",
      "USen": "{{fun_0000000C arg=\"\"}}{{fun_0007000C arg=\"\"}}{{fun_0002000C arg=\"\"}}{{fun_0005000C arg=\"\"}}{{fun_0001000C arg=\"\"}}{{fun_0008000C arg=\"\"}}Yo, meat!{{delay frames=\"20\"}}{{pageBreak}}So what am I here for, {{fun_00010011 arg=\"0x0000\"}}?{{delay frames=\"20\"}}{{fun_0009000C arg=\"\"}}",
      "USes": "{{fun_0000000C arg=\"\"}}{{fun_0007000C arg=\"\"}}{{fun_0002000C arg=\"\"}}{{fun_0005000C arg=\"\"}}{{fun_0001000C arg=\"\"}}{{fun_0008000C arg=\"\"}}¡Hola, tronco!{{delay frames=\"20\"}}{{pageBreak}}¿Para qué me has hecho venir,\n{{fun_00010011 arg=\"0x0000\"}}?{{delay frames=\"20\"}}{{fun_0009000C arg=\"\"}}",
      "USfr": "{{fun_0000000C arg=\"\"}}{{fun_0007000C arg=\"\"}}{{fun_0002000C arg=\"\"}}{{fun_0005000C arg=\"\"}}{{fun_0001000C arg=\"\"}}{{fun_0008000C arg=\"\"}}Yo, mec!{{delay frames=\"20\"}}{{pageBreak}}Qu'est-ce que je peux faire pour\ntoi, {{fun_00010011 arg=\"0x0000\"}}?{{delay frames=\"20\"}}{{fun_0009000C arg=\"\"}}"
    }
  },
  {
    "label": "006",
    "locale": {
      "EUde": "{{fun_0000000C arg=\"\"}}{{fun_0007000C arg=\"\"}}{{fun_0002000C arg=\"\"}}{{fun_0005000C arg=\"\"}}{{fun_0001000C arg=\"\"}}{{fun_0008000C arg=\"\"}}Hey, ho, {{fun_00010011 arg=\"0x0000\"}}!{{delay frames=\"20\"}}\nWozu hast du mich gerufen?{{delay frames=\"20\"}}\nZu 'nem Boxkampf? {{delay frames=\"8\"}}{{fun_0003000E arg=\"\"}}{{fun_00070005 arg=\"\"}}?{{fun_0009000C arg=\"\"}}",
      "EUen": "{{fun_0000000C arg=\"\"}}{{fun_0007000C arg=\"\"}}{{fun_0002000C arg=\"\"}}{{fun_0005000C arg=\"\"}}{{fun_0001000C arg=\"\"}}{{fun_0008000C arg=\"\"}}Heya, {{fun_00010011 arg=\"0x0000\"}}!{{delay frames=\"20\"}}\nSo why did you call me out here?{{delay frames=\"20\"}}\nWe gonna spar? {{delay frames=\"8\"}}{{fun_0003000E arg=\"\"}}{{fun_00070005 arg=\"\"}}?{{fun_0009000C arg=\"\"}}",
      "EUes": "{{fun_0000000C arg=\"\"}}{{fun_0007000C arg=\"\"}}{{fun_0002000C arg=\"\"}}{{fun_0005000C arg=\"\"}}{{fun_0001000C arg=\"\"}}{{fun_0008000C arg=\"\"}}¡Hola, {{fun_00010011 arg=\"0x0000\"}}!{{delay frames=\"20\"}}\n¿Para qué me has hecho venir?{{delay frames=\"20\"}}\n¿Es para competir, {{delay frames=\"8\"}}{{fun_00070005 arg=\"\"}}?{{fun_0009000C arg=\"\"}}",
      "EUfr": "{{fun_0000000C arg=\"\"}}{{fun_0007000C arg=\"\"}}{{fun_0002000C arg=\"\"}}{{fun_0005000C arg=\"\"}}{{fun_0001000C arg=\"\"}}{{fun_0008000C arg=\"\"}}Yo, {{fun_00010011 arg=\"0x0000\"}} !{{delay frames=\"20\"}} Pourquoi tu m'as\nfait venir jusqu'ici ?{{delay frames=\"20\"}} Besoin d'un\npartenaire d'entraînement ?{{fun_0009000C arg=\"\"}}",
      "EUit": "{{fun_0000000C arg=\"\"}}{{fun_0007000C arg=\"\"}}{{fun_0002000C arg=\"\"}}{{fun_0005000C arg=\"\"}}{{fun_0001000C arg=\"\"}}{{fun_0008000C arg=\"\"}}Ehi, {{fun_00010011 arg=\"0x0000\"}}!{{delay frames=\"20\"}} Allora, perché sono\nstato chiamato?{{delay frames=\"20\"}} Vuoi sfidarmi\na braccio di ferro, {{delay frames=\"8\"}}{{fun_00070005 arg=\"\"}}?{{fun_0009000C arg=\"\"}}",
      "JPja": "{{fun_0000000C arg=\"\"}}{{fun_0007000C arg=\"\"}}{{fun_0002000C arg=\"\"}}{{fun_0005000C arg=\"\"}}{{fun_0001000C arg=\"\"}}{{fun_0008000C arg=\"\"}}オーッス！{{delay frames=\"8\"}}　{{fun_00010011 arg=\"0x0000\"}}！{{delay frames=\"20\"}}\nいきなり　よび{{ruby charSpan=\"1\" value=\"だ\"}}出して\nどうしたんだよ、{{delay frames=\"8\"}}{{fun_00070005 arg=\"\"}}{{fun_0009000C arg=\"\"}}",
      "KRko": "{{fun_0000000C arg=\"\"}}{{fun_0007000C arg=\"\"}}{{fun_0002000C arg=\"\"}}{{fun_0005000C arg=\"\"}}{{fun_0001000C arg=\"\"}}{{fun_0008000C arg=\"\"}}안녕ー!{{delay frames=\"8\"}} {{fun_00010011 arg=\"0x0000\"}}!{{delay frames=\"20\"}}\n웬일로 갑자기 날 불렀냐,\n{{delay frames=\"8\"}}{{fun_00070005 arg=\"\"}}?{{fun_0009000C arg=\"\"}}",
      "USen": "{{fun_0000000C arg=\"\"}}{{fun_0007000C arg=\"\"}}{{fun_0002000C arg=\"\"}}{{fun_0005000C arg=\"\"}}{{fun_0001000C arg=\"\"}}{{fun_0008000C arg=\"\"}}Heya, {{fun_00010011 arg=\"0x0000\"}}!{{delay frames=\"20\"}}\nSo why did you call me out here?{{delay frames=\"20\"}}\nWe gonna spar? {{delay frames=\"8\"}}{{fun_0003000E arg=\"\"}}{{fun_00070005 arg=\"\"}}?{{fun_0009000C arg=\"\"}}",
      "USes": "{{fun_0000000C arg=\"\"}}{{fun_0007000C arg=\"\"}}{{fun_0002000C arg=\"\"}}{{fun_0005000C arg=\"\"}}{{fun_0001000C arg=\"\"}}{{fun_0008000C arg=\"\"}}¡Hola, {{fun_00010011 arg=\"0x0000\"}}!{{delay frames=\"20\"}}\n¿Para qué me has hecho venir?{{delay frames=\"20\"}}\n¿Es para competir, {{delay frames=\"8\"}}{{fun_00070005 arg=\"\"}}?{{fun_0009000C arg=\"\"}}",
      "USfr": "{{fun_0000000C arg=\"\"}}{{fun_0007000C arg=\"\"}}{{fun_0002000C arg=\"\"}}{{fun_0005000C arg=\"\"}}{{fun_0001000C arg=\"\"}}{{fun_0008000C arg=\"\"}}Yo, {{fun_00010011 arg=\"0x0000\"}}!{{delay frames=\"20\"}} Pourquoi tu m'as\nfait venir jusqu'ici?{{delay frames=\"20\"}} Besoin d'un\npartenaire d'entraînement?{{fun_0009000C arg=\"\"}}"
    }
  },
  {
    "label": "007",
    "locale": {
      "EUde": "{{fun_0000000C arg=\"\"}}{{fun_0007000C arg=\"\"}}{{fun_0002000C arg=\"\"}}{{fun_0005000C arg=\"\"}}{{fun_0001000C arg=\"\"}}{{fun_0008000C arg=\"\"}}{{fun_0003000E arg=\"\"}}{{fun_00010011 arg=\"0x0000\"}}!{{delay frames=\"20\"}}\n{{anim id=\"23\"}}Hast du 'ne Ahnung, was du da tust?{{delay frames=\"20\"}}\nDu unterbrichst grad mein Training!{{fun_0009000C arg=\"\"}}",
      "EUen": "{{fun_0000000C arg=\"\"}}{{fun_0007000C arg=\"\"}}{{fun_0002000C arg=\"\"}}{{fun_0005000C arg=\"\"}}{{fun_0001000C arg=\"\"}}{{fun_0008000C arg=\"\"}}{{fun_0003000E arg=\"\"}}{{fun_00010011 arg=\"0x0000\"}}!{{delay frames=\"20\"}}\n{{anim id=\"23\"}}What's the big idea calling me over?\nYou interrupted my workout!{{fun_0009000C arg=\"\"}}",
      "EUes": "{{fun_0000000C arg=\"\"}}{{fun_0007000C arg=\"\"}}{{fun_0002000C arg=\"\"}}{{fun_0005000C arg=\"\"}}{{fun_0001000C arg=\"\"}}{{fun_0008000C arg=\"\"}}¡{{fun_00010011 arg=\"0x0000\"}}!{{delay frames=\"20\"}} {{anim id=\"23\"}}¿Para qué me has\nllamado? ¡He tenido que interrumpir\nmi sesión de ejercicios para venir!{{fun_0009000C arg=\"\"}}",
      "EUfr": "{{fun_0000000C arg=\"\"}}{{fun_0007000C arg=\"\"}}{{fun_0002000C arg=\"\"}}{{fun_0005000C arg=\"\"}}{{fun_0001000C arg=\"\"}}{{fun_0008000C arg=\"\"}}{{fun_00010011 arg=\"0x0000\"}} !{{delay frames=\"20\"}} {{anim id=\"23\"}}Tu as une bonne raison\npour m'avoir fait venir, j'espère ?!\nJ'étais en plein entraînement !{{fun_0009000C arg=\"\"}}",
      "EUit": "{{fun_0000000C arg=\"\"}}{{fun_0007000C arg=\"\"}}{{fun_0002000C arg=\"\"}}{{fun_0005000C arg=\"\"}}{{fun_0001000C arg=\"\"}}{{fun_0008000C arg=\"\"}}{{fun_0003000E arg=\"\"}}{{fun_00010011 arg=\"0x0000\"}}!{{delay frames=\"20\"}} {{anim id=\"23\"}}Che cosa ci può essere\ndi così importante da dirmi? Mi\nstavo allenando!{{fun_0009000C arg=\"\"}}",
      "JPja": "{{fun_0000000C arg=\"\"}}{{fun_0007000C arg=\"\"}}{{fun_0002000C arg=\"\"}}{{fun_0005000C arg=\"\"}}{{fun_0001000C arg=\"\"}}{{fun_0008000C arg=\"\"}}で、{{fun_00010011 arg=\"0x0000\"}}！{{delay frames=\"20\"}}\n{{anim id=\"23\"}}{{ruby charSpan=\"1\" value=\"なん\"}}何で　オイラを\nよび{{ruby charSpan=\"1\" value=\"だ\"}}出したんだー？{{fun_0009000C arg=\"\"}}",
      "KRko": "{{fun_0000000C arg=\"\"}}{{fun_0007000C arg=\"\"}}{{fun_0002000C arg=\"\"}}{{fun_0005000C arg=\"\"}}{{fun_0001000C arg=\"\"}}{{fun_0008000C arg=\"\"}}됐고! {{fun_00010011 arg=\"0x0000\"}}!{{delay frames=\"20\"}}\n{{anim id=\"23\"}}난 왜 불렀어ー?{{fun_0009000C arg=\"\"}}",
      "USen": "{{fun_0000000C arg=\"\"}}{{fun_0007000C arg=\"\"}}{{fun_0002000C arg=\"\"}}{{fun_0005000C arg=\"\"}}{{fun_0001000C arg=\"\"}}{{fun_0008000C arg=\"\"}}{{fun_0003000E arg=\"\"}}{{fun_00010011 arg=\"0x0000\"}}!{{delay frames=\"20\"}}\n{{anim id=\"23\"}}What's the big idea calling me over?\nYou interrupted my workout!{{fun_0009000C arg=\"\"}}",
      "USes": "{{fun_0000000C arg=\"\"}}{{fun_0007000C arg=\"\"}}{{fun_0002000C arg=\"\"}}{{fun_0005000C arg=\"\"}}{{fun_0001000C arg=\"\"}}{{fun_0008000C arg=\"\"}}¡{{fun_00010011 arg=\"0x0000\"}}!{{delay frames=\"20\"}} {{anim id=\"23\"}}¿Para qué me has\nllamado? ¡He tenido que interrumpir\nmi sesión de ejercicios para venir!{{fun_0009000C arg=\"\"}}",
      "USfr": "{{fun_0000000C arg=\"\"}}{{fun_0007000C arg=\"\"}}{{fun_0002000C arg=\"\"}}{{fun_0005000C arg=\"\"}}{{fun_0001000C arg=\"\"}}{{fun_0008000C arg=\"\"}}{{fun_00010011 arg=\"0x0000\"}}!{{delay frames=\"20\"}} {{anim id=\"23\"}}Tu as une bonne raison\npour m'avoir fait venir, j'espère?!\nJ'étais en plein entraînement!{{fun_0009000C arg=\"\"}}"
    }
  },
  {
    "label": "008",
    "locale": {
      "EUde": "",
      "EUen": "",
      "EUes": "",
      "EUfr": "",
      "EUit": "",
      "JPja": "",
      "KRko": "",
      "USen": "",
      "USes": "",
      "USfr": ""
    }
  },
  {
    "label": "009",
    "locale": {
      "EUde": "{{fun_0000000C arg=\"\"}}{{fun_0005000C arg=\"\"}}{{anim id=\"26\"}}Ähm{{delay frames=\"8\"}}.{{delay frames=\"8\"}}.{{delay frames=\"8\"}}.{{delay frames=\"20\"}} Ich wollte dir...{{delay frames=\"40\"}} Ich wollte dir\nnur das hier zurückgeben.{{delay frames=\"20\"}} Du hast es\nmir vor Ewigkeiten ausgeliehen.{{pageBreak}}{{anim id=\"38\"}}Hier ist es!{{delay frames=\"20\"}} Danke, {{delay frames=\"8\"}}{{fun_00070005 arg=\"\"}}!{{fun_0009000C arg=\"\"}}",
      "EUen": "{{fun_0000000C arg=\"\"}}{{fun_0005000C arg=\"\"}}{{anim id=\"26\"}}Umm{{delay frames=\"8\"}}.{{delay frames=\"8\"}}.{{delay frames=\"8\"}}.{{delay frames=\"20\"}} I just{{delay frames=\"8\"}}.{{delay frames=\"8\"}}.{{delay frames=\"8\"}}.{{delay frames=\"20\"}} It's about time I gave\nthis back to you.{{delay frames=\"20\"}} I borrowed it a \nlong time ago!{{pageBreak}}{{anim id=\"38\"}}So here!{{delay frames=\"20\"}} Thanks, {{delay frames=\"8\"}}{{fun_00070005 arg=\"\"}}!{{fun_0009000C arg=\"\"}}",
      "EUes": "{{fun_0000000C arg=\"\"}}{{fun_0005000C arg=\"\"}}{{anim id=\"26\"}}A ver{{delay frames=\"8\"}}.{{delay frames=\"8\"}}.{{delay frames=\"8\"}}.{{delay frames=\"20\"}} Me da palo admitirlo, pero{{delay frames=\"8\"}}.{{delay frames=\"8\"}}.{{delay frames=\"8\"}}.{{delay frames=\"20\"}}\n¡Es hora de que te devuelva esto!{{delay frames=\"20\"}}\nMe lo dejaste hace mucho tiempo...\n{{anim id=\"38\"}}¡Aquí lo tienes!{{delay frames=\"20\"}} ¡Gracias,\n{{delay frames=\"8\"}}{{fun_00070005 arg=\"\"}}!{{fun_0009000C arg=\"\"}}",
      "EUfr": "{{fun_0000000C arg=\"\"}}{{fun_0005000C arg=\"\"}}{{anim id=\"26\"}}Bah{{delay frames=\"8\"}}.{{delay frames=\"8\"}}.{{delay frames=\"8\"}}.{{delay frames=\"20\"}} Je voulais juste te rendre ce\ntruc que tu m'avais prêté il y a un\nbail{{delay frames=\"8\"}}.{{delay frames=\"8\"}}.{{delay frames=\"8\"}}.!\n{{anim id=\"38\"}}Donc, tiens !{{delay frames=\"20\"}} Et merci,{{delay frames=\"8\"}}\n{{fun_00070005 arg=\"\"}} !{{fun_0009000C arg=\"\"}}",
      "EUit": "{{fun_0000000C arg=\"\"}}{{fun_0005000C arg=\"\"}}{{anim id=\"26\"}}Ehm{{delay frames=\"8\"}}.{{delay frames=\"8\"}}.{{delay frames=\"8\"}}.{{delay frames=\"20\"}} Volevo solo{{delay frames=\"8\"}}.{{delay frames=\"8\"}}.{{delay frames=\"8\"}}.{{delay frames=\"20\"}} ridarti\nuna cosa.{{delay frames=\"20\"}} Me l'avevi prestata\nun sacco di tempo fa!{{pageBreak}}{{anim id=\"38\"}}Ecco qui!{{delay frames=\"20\"}} Grazie, {{delay frames=\"8\"}}{{fun_00070005 arg=\"\"}}!{{fun_0009000C arg=\"\"}}",
      "JPja": "{{fun_0000000C arg=\"\"}}{{fun_0005000C arg=\"\"}}{{anim id=\"26\"}}オマエに　ずっと\n{{ruby charSpan=\"1\" value=\"か\"}}借りっぱなしだったアレ、{{delay frames=\"20\"}}\nそろそろ　{{ruby charSpan=\"1\" value=\"かえ\"}}返すよ！{{pageBreak}}{{anim id=\"38\"}}ありがとな、{{delay frames=\"8\"}}{{fun_00070005 arg=\"\"}}{{fun_0009000C arg=\"\"}}",
      "KRko": "{{fun_0000000C arg=\"\"}}{{fun_0005000C arg=\"\"}}{{anim id=\"26\"}}너한테 빌리고 못 돌려준 그거,{{delay frames=\"20\"}}\n이제 돌려주겠어!{{pageBreak}}{{anim id=\"38\"}}빌려줘서 고마웠다,\n{{delay frames=\"8\"}}{{fun_00070005 arg=\"\"}}!{{fun_0009000C arg=\"\"}}",
      "USen": "{{fun_0000000C arg=\"\"}}{{fun_0005000C arg=\"\"}}{{anim id=\"26\"}}Umm{{delay frames=\"8\"}}.{{delay frames=\"8\"}}.{{delay frames=\"8\"}}.{{delay frames=\"20\"}} I just{{delay frames=\"8\"}}.{{delay frames=\"8\"}}.{{delay frames=\"8\"}}.{{delay frames=\"20\"}} It's about time I gave\nthis back to you.{{delay frames=\"20\"}} I borrowed it a \nlong time ago!{{pageBreak}}{{anim id=\"38\"}}So here!{{delay frames=\"20\"}} Thanks, {{delay frames=\"8\"}}{{fun_00070005 arg=\"\"}}!{{fun_0009000C arg=\"\"}}",
      "USes": "{{fun_0000000C arg=\"\"}}{{fun_0005000C arg=\"\"}}{{anim id=\"26\"}}A ver{{delay frames=\"8\"}}.{{delay frames=\"8\"}}.{{delay frames=\"8\"}}.{{delay frames=\"20\"}} Me da palo admitirlo, pero{{delay frames=\"8\"}}.{{delay frames=\"8\"}}.{{delay frames=\"8\"}}.{{delay frames=\"20\"}}\n¡Es hora de que te devuelva esto!{{delay frames=\"20\"}}\nMe lo dejaste hace mucho tiempo...\n{{anim id=\"38\"}}¡Aquí lo tienes!{{delay frames=\"20\"}} ¡Gracias,\n{{delay frames=\"8\"}}{{fun_00070005 arg=\"\"}}!{{fun_0009000C arg=\"\"}}",
      "USfr": "{{fun_0000000C arg=\"\"}}{{fun_0005000C arg=\"\"}}{{anim id=\"26\"}}Bah{{delay frames=\"8\"}}.{{delay frames=\"8\"}}.{{delay frames=\"8\"}}.{{delay frames=\"20\"}} Je voulais juste te rendre ce\ntruc que tu m'avais prêté il y a un\nbail{{delay frames=\"8\"}}.{{delay frames=\"8\"}}.{{delay frames=\"8\"}}.!\n{{anim id=\"38\"}}Donc, tiens!{{delay frames=\"20\"}} Et merci,{{delay frames=\"8\"}}\n{{fun_00070005 arg=\"\"}}!{{fun_0009000C arg=\"\"}}"
    }
  },
  {
    "label": "010",
    "locale": {
      "EUde": "{{fun_0000000C arg=\"\"}}{{fun_0007000C arg=\"\"}}{{anim id=\"15\"}}Hey!{{delay frames=\"20\"}} {{fun_0008000E arg=\"0x00CD08004D00650069006E000A004D00650069006E00650008004D00650069006E00\"}} {{fun_00030011 arg=\"0x0000\"}}!{{delay frames=\"20\"}}\nBist du sicher, dass du {{fun_0008000E arg=\"0x00CD0600690068006E000600730069006500040065007300\"}} nicht\nmehr haben willst?{{pageBreak}}{{anim id=\"2\"}}Ich hatte vergessen, dass mir so was\nüberhaupt gehört!{{delay frames=\"40\"}}{{anim id=\"37\"}}\nIch hab {{fun_0008000E arg=\"0x00CD0600690068006E000600730069006500040065007300\"}} gar nicht vermisst{{delay frames=\"8\"}}.{{delay frames=\"8\"}}.{{delay frames=\"8\"}}.",
      "EUen": "{{fun_0000000C arg=\"\"}}{{fun_0007000C arg=\"\"}}{{anim id=\"15\"}}Hey!{{delay frames=\"20\"}} My {{fun_00030011 arg=\"0x0000\"}}!{{delay frames=\"20\"}}\nYou sure you want to give it back?{{pageBreak}}{{anim id=\"2\"}}I obviously haven't missed it much!{{delay frames=\"40\"}}{{anim id=\"37\"}}\nI kinda forgot about it{{delay frames=\"8\"}}.{{delay frames=\"8\"}}.{{delay frames=\"8\"}}.{{delay frames=\"20\"}}",
      "EUes": "{{fun_0000000C arg=\"\"}}{{fun_0007000C arg=\"\"}}{{anim id=\"15\"}}¡Eh!{{delay frames=\"20\"}} ¡Mi {{fun_00030011 arg=\"0x0000\"}}!{{delay frames=\"20\"}}\n¿Seguro que quieres devolvérmel{{fun_0008000E arg=\"0x00CD02006F00020061000000\"}}?{{pageBreak}}{{anim id=\"2\"}}Se me nota que no l{{fun_0008000E arg=\"0x00CD02006F00020061000000\"}} he echado\nmucho de menos, ¿verdad?{{delay frames=\"40\"}}{{anim id=\"37\"}} Lo\ncierto es que ya l{{fun_0008000E arg=\"0x00CD02006F00020061000000\"}} había olvidado{{delay frames=\"8\"}}.{{delay frames=\"8\"}}.{{delay frames=\"8\"}}.{{delay frames=\"20\"}}",
      "EUfr": "{{fun_0000000C arg=\"\"}}{{fun_0007000C arg=\"\"}}{{anim id=\"15\"}}Tiens ?!{{delay frames=\"20\"}} Mon {{fun_0008000E arg=\"0x00CD0C0061006E006300690065006E00100061006E006300690065006E006E0065000000\"}}\n{{fun_00030011 arg=\"0x0000\"}} !{{delay frames=\"20\"}} Tu veux\npas {{fun_0008000E arg=\"0x00CD04006C00650004006C0061000000\"}} garder ?\n{{anim id=\"2\"}}Depuis le temps, j'en ai acheté {{fun_0008000E arg=\"0x00CD040075006E00060075006E0065000000\"}}\nautre, tu penses bien !{{delay frames=\"40\"}} {{anim id=\"37\"}}J'avais zappé\nque je t'avais prêté {{fun_0008000E arg=\"0x00CD1000630065006C00750069002D00630069001000630065006C006C0065002D00630069000000\"}}{{delay frames=\"8\"}}.{{delay frames=\"8\"}}.{{delay frames=\"8\"}}.",
      "EUit": "{{fun_0000000C arg=\"\"}}{{fun_0007000C arg=\"\"}}{{anim id=\"15\"}}Ehi!{{delay frames=\"20\"}} {{fun_0008000E arg=\"0x00CD0C0049006C0020006D0069006F000C004C00610020006D00690061000000\"}} {{fun_00030011 arg=\"0x0000\"}}!{{delay frames=\"20\"}}\nSei sicuro di volermel{{fun_0008000E arg=\"0x00CD02006F00020061000000\"}} ridare?{{pageBreak}}{{anim id=\"2\"}}È evidente che non mi è mancat{{fun_0008000E arg=\"0x00CD02006F00020061000000\"}}\nper niente!{{delay frames=\"40\"}}{{anim id=\"37\"}} Non mi ricordavo\nneanche più della sua esistenza{{delay frames=\"8\"}}.{{delay frames=\"8\"}}.{{delay frames=\"8\"}}.{{delay frames=\"20\"}}",
      "JPja": "{{fun_0000000C arg=\"\"}}{{fun_0007000C arg=\"\"}}{{anim id=\"15\"}}あ、{{delay frames=\"20\"}}{{fun_00030011 arg=\"0x0000\"}}じゃん！{{delay frames=\"20\"}}\nもう　いいのかー？{{pageBreak}}{{anim id=\"2\"}}{{ruby charSpan=\"1\" value=\"べつ\"}}別に{{delay frames=\"20\"}}　もっと\n{{ruby charSpan=\"1\" value=\"か\"}}借りてても　{{ruby charSpan=\"1\" value=\"よ\"}}良かったのにさー！{{delay frames=\"40\"}}{{anim id=\"37\"}}",
      "KRko": "{{fun_0000000C arg=\"\"}}{{fun_0007000C arg=\"\"}}{{anim id=\"15\"}}헉! {{delay frames=\"20\"}}{{fun_00030011 arg=\"0x0000\"}}?!{{delay frames=\"20\"}}\n이젠 필요 없냐ー?{{pageBreak}}{{anim id=\"2\"}}더 오래 갖고 있어도{{delay frames=\"20\"}}\n난 상관없는데ー!{{delay frames=\"40\"}}{{anim id=\"37\"}}",
      "USen": "{{fun_0000000C arg=\"\"}}{{fun_0007000C arg=\"\"}}{{anim id=\"15\"}}Hey!{{delay frames=\"20\"}} My {{fun_00030011 arg=\"0x0000\"}}!{{delay frames=\"20\"}}\nYou sure you want to give it back?{{pageBreak}}{{anim id=\"2\"}}I obviously haven't missed it much!{{delay frames=\"40\"}}{{anim id=\"37\"}}\nI kinda forgot about it{{delay frames=\"8\"}}.{{delay frames=\"8\"}}.{{delay frames=\"8\"}}.{{delay frames=\"20\"}}",
      "USes": "{{fun_0000000C arg=\"\"}}{{fun_0007000C arg=\"\"}}{{anim id=\"15\"}}¡Eh!{{delay frames=\"20\"}} ¡Mi {{fun_00030011 arg=\"0x0000\"}}!{{delay frames=\"20\"}}\n¿Seguro que quieres devolvérmel{{fun_0008000E arg=\"0x00CD02006F00020061000000\"}}?{{pageBreak}}{{anim id=\"2\"}}Se me nota que no l{{fun_0008000E arg=\"0x00CD02006F00020061000000\"}} he echado\nmucho de menos, ¿verdad?{{delay frames=\"40\"}}{{anim id=\"37\"}} Lo\ncierto es que ya l{{fun_0008000E arg=\"0x00CD02006F00020061000000\"}} había olvidado{{delay frames=\"8\"}}.{{delay frames=\"8\"}}.{{delay frames=\"8\"}}.{{delay frames=\"20\"}}",
      "USfr": "{{fun_0000000C arg=\"\"}}{{fun_0007000C arg=\"\"}}{{anim id=\"15\"}}Tiens?!{{delay frames=\"20\"}} Mon {{fun_0008000E arg=\"0x00CD0C0061006E006300690065006E00100061006E006300690065006E006E0065000000\"}}\n{{fun_00030011 arg=\"0x0000\"}}!{{delay frames=\"20\"}} Tu veux\npas {{fun_0008000E arg=\"0x00CD04006C00650004006C0061000000\"}} garder?\n{{anim id=\"2\"}}Depuis le temps, j'en ai acheté {{fun_0008000E arg=\"0x00CD040075006E00060075006E0065000000\"}}\nautre, tu penses bien!{{delay frames=\"40\"}} {{anim id=\"37\"}}J'avais zappé\nque je t'avais prêté {{fun_0008000E arg=\"0x00CD1000630065006C00750069002D00630069001000630065006C006C0065002D00630069000000\"}}{{delay frames=\"8\"}}.{{delay frames=\"8\"}}.{{delay frames=\"8\"}}."
    }
  },
  {
    "label": "011",
    "locale": {
      "EUde": "{{fun_0000000C arg=\"\"}}{{fun_0005000C arg=\"\"}}{{anim id=\"33\"}}Hier ist was für dich! {{delay frames=\"40\"}}Ich hab's beim\nSchaufensterjoggen gesehn und\nMUSSTE es für dich kaufen!{{delay frames=\"20\"}}{{anim id=\"1\"}}\nIch mach mir nicht für jeden solche\nMühe!{{fun_0009000C arg=\"\"}}",
      "EUen": "{{fun_0000000C arg=\"\"}}{{fun_0005000C arg=\"\"}}{{anim id=\"33\"}}I don't usually do this, but I found\nsomething I thought you would like.{{delay frames=\"20\"}}\nSo I bought it for you!{{delay frames=\"20\"}}{{anim id=\"1\"}}{{fun_0009000C arg=\"\"}}",
      "EUes": "{{fun_0000000C arg=\"\"}}{{fun_0005000C arg=\"\"}}{{anim id=\"33\"}}No es que me sobre la pasta, pero\nes que encontré algo que pensé\nque te iba a molar mucho.{{delay frames=\"20\"}}\n¡Así que te lo he comprado{{delay frames=\"20\"}}{{anim id=\"1\"}}!{{fun_0009000C arg=\"\"}}",
      "EUfr": "{{fun_0000000C arg=\"\"}}{{fun_0005000C arg=\"\"}}En fait, {{anim id=\"33\"}}j'ai simplement aperçu un\ntruc qui me semblait correspondre à\ntes goûts...\n{{anim id=\"1\"}}Alors je te l'ai acheté !{{fun_0009000C arg=\"\"}}",
      "EUit": "{{fun_0000000C arg=\"\"}}{{fun_0005000C arg=\"\"}}{{anim id=\"33\"}}Di solito non faccio mai cose\ndel genere, ma ho visto una cosa\nche ti poteva piacere e...{{delay frames=\"20\"}}\n... l'ho comprata per te!!{{delay frames=\"20\"}}{{anim id=\"1\"}}!{{fun_0009000C arg=\"\"}}",
      "JPja": "{{fun_0000000C arg=\"\"}}{{fun_0005000C arg=\"\"}}{{anim id=\"5\"}}オマエが　ずーっと\nほしいって{{ruby charSpan=\"1\" value=\"い\"}}言ってたアレが、{{delay frames=\"20\"}}\nついに　{{ruby charSpan=\"1\" value=\"み\"}}見つかったぞ！{{pageBreak}}{{anim id=\"0\"}}ほいっ！{{fun_0009000C arg=\"\"}}",
      "KRko": "{{fun_0000000C arg=\"\"}}{{fun_0005000C arg=\"\"}}{{anim id=\"5\"}}전부터 니가 갖고 싶다고 했던 녀석이{{delay frames=\"20\"}}\n드디어 내 손에 들어왔다!{{pageBreak}}{{anim id=\"0\"}}이거 받아라!{{fun_0009000C arg=\"\"}}",
      "USen": "{{fun_0000000C arg=\"\"}}{{fun_0005000C arg=\"\"}}{{anim id=\"33\"}}I don't usually do this, but I found\nsomething I thought you would like.{{delay frames=\"20\"}}\nSo I bought it for you!{{delay frames=\"20\"}}{{anim id=\"1\"}}{{fun_0009000C arg=\"\"}}",
      "USes": "{{fun_0000000C arg=\"\"}}{{fun_0005000C arg=\"\"}}{{anim id=\"33\"}}No es que me sobre la pasta, pero\nes que encontré algo que pensé\nque te iba a molar mucho.{{delay frames=\"20\"}}\n¡Así que te lo he comprado{{delay frames=\"20\"}}{{anim id=\"1\"}}!{{fun_0009000C arg=\"\"}}",
      "USfr": "{{fun_0000000C arg=\"\"}}{{fun_0005000C arg=\"\"}}En fait, {{anim id=\"33\"}}j'ai simplement aperçu un\ntruc qui me semblait correspondre à\ntes goûts...\n{{anim id=\"1\"}}Alors je te l'ai acheté!{{fun_0009000C arg=\"\"}}"
    }
  },
  {
    "label": "012",
    "locale": {
      "EUde": "{{fun_0000000C arg=\"\"}}{{fun_0007000C arg=\"\"}}{{anim id=\"15\"}}Wow!{{delay frames=\"20\"}}\n{{fun_0003000E arg=\"\"}}{{fun_0002000E arg=\"\"}}{{fun_00030011 arg=\"0x0000\"}}?{{pageBreak}}{{anim id=\"38\"}}Vielen Dank, {{fun_00010011 arg=\"0x0000\"}}!{{delay frames=\"20\"}}\nFür 'nen groben Muskelprotz bist du\nziemlich nett. {{delay frames=\"8\"}}{{fun_0003000E arg=\"\"}}{{fun_00070005 arg=\"\"}}!",
      "EUen": "{{fun_0000000C arg=\"\"}}{{fun_0007000C arg=\"\"}}{{anim id=\"15\"}}Whoa!{{delay frames=\"20\"}} {{fun_0003000E arg=\"\"}}{{fun_00030011 arg=\"0x0000\"}}?!{{pageBreak}}{{anim id=\"38\"}}Thank you, {{fun_00010011 arg=\"0x0000\"}}!{{delay frames=\"20\"}}\nYou're pretty thoughtful for a big\nmeathead. {{delay frames=\"8\"}}{{fun_0003000E arg=\"\"}}{{fun_00070005 arg=\"\"}}!",
      "EUes": "{{fun_0000000C arg=\"\"}}{{fun_0007000C arg=\"\"}}{{anim id=\"15\"}}¡Eh!{{delay frames=\"20\"}} ¡{{fun_0003000E arg=\"\"}}{{fun_0002000E arg=\"\"}}{{fun_00030011 arg=\"0x0000\"}}!{{pageBreak}}{{anim id=\"38\"}}¡Gracias, {{fun_00010011 arg=\"0x0000\"}}!{{delay frames=\"20\"}} ¡Qué pasada\nque hayas tenido este detallazo\nconmigo, {{delay frames=\"8\"}}{{fun_00070005 arg=\"\"}}!",
      "EUfr": "{{fun_0000000C arg=\"\"}}{{fun_0007000C arg=\"\"}}{{anim id=\"15\"}}Waouh !{{delay frames=\"20\"}}\n{{fun_0003000E arg=\"\"}}{{fun_0002000E arg=\"\"}}{{fun_00030011 arg=\"0x0000\"}} ?!\n{{fun_0003000E arg=\"\"}}{{fun_00070005 arg=\"\"}} !\n{{anim id=\"38\"}}Merci, {{fun_00010011 arg=\"0x0000\"}} !{{delay frames=\"20\"}} Cette carcasse\nabrite donc un peu de générosité au\nmilieu de cette masse de muscles !",
      "EUit": "{{fun_0000000C arg=\"\"}}{{fun_0007000C arg=\"\"}}{{anim id=\"15\"}}Oh!{{delay frames=\"20\"}} {{fun_0003000E arg=\"\"}}{{fun_0002000E arg=\"\"}}{{fun_00030011 arg=\"0x0000\"}}?{{pageBreak}}{{anim id=\"5\"}}Grazie, {{fun_00010011 arg=\"0x0000\"}}!{{delay frames=\"20\"}} Per essere\nuno che pensa solo a muscoli e\npalestra, sei gentile, {{delay frames=\"8\"}}{{fun_00070005 arg=\"\"}}!",
      "JPja": "{{fun_0000000C arg=\"\"}}{{fun_0007000C arg=\"\"}}{{anim id=\"15\"}}おー！{{delay frames=\"20\"}}\n{{fun_00030011 arg=\"0x0000\"}}？！{{pageBreak}}{{anim id=\"38\"}}サンキュー！{{delay frames=\"20\"}}　{{fun_00010011 arg=\"0x0000\"}}！{{delay frames=\"20\"}}\nオマエって　{{ruby charSpan=\"2\" value=\"いがい\"}}意外に\n{{ruby charSpan=\"1\" value=\"き\"}}気が{{ruby charSpan=\"1\" value=\"き\"}}利くところが　あるんだな、{{delay frames=\"8\"}}{{fun_00070005 arg=\"\"}}",
      "KRko": "{{fun_0000000C arg=\"\"}}{{fun_0007000C arg=\"\"}}{{anim id=\"15\"}}우와ー!{{delay frames=\"20\"}}\n진짜 {{fun_00030011 arg=\"0x0000\"}}{{fun_000E000E arg=\"0x020074C70000\"}}냐?!{{pageBreak}}{{anim id=\"38\"}}완전 땡큐다ー!{{delay frames=\"20\"}} {{fun_00010011 arg=\"0x0000\"}}!{{delay frames=\"20\"}}\n너 생각보다 센스 있는\n녀석이었구나, {{delay frames=\"8\"}}{{fun_00070005 arg=\"\"}}?",
      "USen": "{{fun_0000000C arg=\"\"}}{{fun_0007000C arg=\"\"}}{{anim id=\"15\"}}Whoa!{{delay frames=\"20\"}} {{fun_0003000E arg=\"\"}}{{fun_00030011 arg=\"0x0000\"}}?!{{pageBreak}}{{anim id=\"38\"}}Thank you, {{fun_00010011 arg=\"0x0000\"}}!{{delay frames=\"20\"}}\nYou're pretty thoughtful for a big\nmeathead. {{delay frames=\"8\"}}{{fun_0003000E arg=\"\"}}{{fun_00070005 arg=\"\"}}!",
      "USes": "{{fun_0000000C arg=\"\"}}{{fun_0007000C arg=\"\"}}{{anim id=\"15\"}}¡Eh!{{delay frames=\"20\"}} ¡{{fun_0003000E arg=\"\"}}{{fun_0002000E arg=\"\"}}{{fun_00030011 arg=\"0x0000\"}}!{{pageBreak}}{{anim id=\"38\"}}¡Gracias, {{fun_00010011 arg=\"0x0000\"}}!{{delay frames=\"20\"}} ¡Qué pasada\nque hayas tenido este detallazo\nconmigo, {{delay frames=\"8\"}}{{fun_00070005 arg=\"\"}}!",
      "USfr": "{{fun_0000000C arg=\"\"}}{{fun_0007000C arg=\"\"}}{{anim id=\"15\"}}Waouh!{{delay frames=\"20\"}}\n{{fun_0003000E arg=\"\"}}{{fun_0002000E arg=\"\"}}{{fun_00030011 arg=\"0x0000\"}}?!\n{{fun_0003000E arg=\"\"}}{{fun_00070005 arg=\"\"}}!\n{{anim id=\"38\"}}Merci, {{fun_00010011 arg=\"0x0000\"}}!{{delay frames=\"20\"}} Cette carcasse\nabrite donc un peu de générosité au\nmilieu de cette masse de muscles!"
    }
  },
  {
    "label": "013",
    "locale": {
      "EUde": "{{fun_0000000C arg=\"\"}}{{fun_0005000C arg=\"\"}}Beim Querfeldein-Kopfstandlauf\nneulich hab ich was gefunden.{{pageBreak}}{{anim id=\"1\"}}Ich glaub, das gehört dir, oder?{{fun_0009000C arg=\"\"}}",
      "EUen": "{{fun_0000000C arg=\"\"}}{{fun_0005000C arg=\"\"}}I found something when I was out\npower somersaulting the other day.{{pageBreak}}{{anim id=\"1\"}}It's gotta be yours, right?{{fun_0009000C arg=\"\"}}",
      "EUes": "{{fun_0000000C arg=\"\"}}{{fun_0005000C arg=\"\"}}El otro día, cuando estaba saltando\na la comba por ahí para mi\nentrenamiento, me encontré algo.{{pageBreak}}{{anim id=\"1\"}}Esto es tuyo, ¿no?{{fun_0009000C arg=\"\"}}",
      "EUfr": "{{fun_0000000C arg=\"\"}}{{fun_0005000C arg=\"\"}}Je suis tombé là-dessus en\nm'entraînant à faire des sauts\npérilleux sur la plage...{{pageBreak}}{{anim id=\"1\"}}C'est sûrement à toi...{{fun_0009000C arg=\"\"}}",
      "EUit": "{{fun_0000000C arg=\"\"}}{{fun_0005000C arg=\"\"}}L'altro giorno, mentre mi allenavo\na fare i salti mortali, ho trovato\nuna cosa.{{pageBreak}}{{anim id=\"1\"}}È tua, vero?{{fun_0009000C arg=\"\"}}",
      "JPja": "{{fun_0000000C arg=\"\"}}{{fun_0005000C arg=\"\"}}この{{ruby charSpan=\"1\" value=\"まえ\"}}前　ジョギング{{ruby charSpan=\"1\" value=\"ちゅう\"}}中に\nこんなの　{{ruby charSpan=\"1\" value=\"ひろ\"}}拾ったんだー！{{pageBreak}}{{anim id=\"1\"}}オマエの　{{ruby charSpan=\"1\" value=\"す\"}}好きそうなものだから、\nプレゼントしてやるよ、{{delay frames=\"8\"}}{{fun_00070005 arg=\"\"}}{{fun_0009000C arg=\"\"}}",
      "KRko": "{{fun_0000000C arg=\"\"}}{{fun_0005000C arg=\"\"}}저번에 조깅하는데\n이런 녀석이 떨어져 있지 뭐냐ー?{{pageBreak}}{{anim id=\"1\"}}너라면 이런 거\n좋아할 것 같으니까\n너 줄게, {{delay frames=\"8\"}}{{fun_00070005 arg=\"\"}}{{fun_0009000C arg=\"\"}}",
      "USen": "{{fun_0000000C arg=\"\"}}{{fun_0005000C arg=\"\"}}I found something when I was out\npower somersaulting the other day.{{pageBreak}}{{anim id=\"1\"}}It's gotta be yours, right?{{fun_0009000C arg=\"\"}}",
      "USes": "{{fun_0000000C arg=\"\"}}{{fun_0005000C arg=\"\"}}El otro día, cuando estaba saltando\na la comba por ahí para mi\nentrenamiento, me encontré algo.{{pageBreak}}{{anim id=\"1\"}}Esto es tuyo, ¿no?{{fun_0009000C arg=\"\"}}",
      "USfr": "{{fun_0000000C arg=\"\"}}{{fun_0005000C arg=\"\"}}Je suis tombé là-dessus en\nm'entraînant à faire des sauts\npérilleux sur la plage...{{pageBreak}}{{anim id=\"1\"}}C'est sûrement à toi...{{fun_0009000C arg=\"\"}}"
    }
  },
  {
    "label": "014",
    "locale": {
      "EUde": "{{fun_0000000C arg=\"\"}}{{fun_0007000C arg=\"\"}}{{anim id=\"23\"}}Was?{{delay frames=\"20\"}} Ja, richtig! Das ist {{fun_0008000E arg=\"0x00CD08006D00650069006E000A006D00650069006E00650008006D00650069006E00\"}}\n{{fun_00030011 arg=\"0x0000\"}}!\n{{delay frames=\"8\"}}{{fun_0003000E arg=\"\"}}{{fun_00070005 arg=\"\"}}!{{pageBreak}}{{anim id=\"2\"}}Wow!{{delay frames=\"20\"}} Ich dachte echt, {{fun_0008000E arg=\"0x00CD0400650072000600730069006500040065007300\"}} wäre\nganz verloren gegangen.{{delay frames=\"20\"}} Aber jetzt\nhab ich {{fun_0008000E arg=\"0x00CD0600690068006E000600730069006500040065007300\"}} endlich wieder!{{delay frames=\"20\"}}{{anim id=\"1\"}}{{pageBreak}}Danke!{{delay frames=\"20\"}} Andere hätten {{fun_0008000E arg=\"0x00CD0600690068006E000600730069006500040065007300\"}} behalten.\n{{delay frames=\"20\"}}Das ist wahre Sportsfreundschaft,\n{{delay frames=\"8\"}}{{fun_00070005 arg=\"\"}}!",
      "EUen": "{{fun_0000000C arg=\"\"}}{{fun_0007000C arg=\"\"}}{{anim id=\"23\"}}Huh?{{delay frames=\"20\"}} Hey, yeah! This is totally my\n{{fun_00030011 arg=\"0x0000\"}}!{{delay frames=\"20\"}}\n{{delay frames=\"8\"}}{{fun_0003000E arg=\"\"}}{{fun_00070005 arg=\"\"}}!{{pageBreak}}{{anim id=\"2\"}}Wow!{{delay frames=\"20\"}} I thought it was gone forever,{{delay frames=\"8\"}}\nbut it found its way back to me!{{delay frames=\"20\"}}{{anim id=\"1\"}}{{pageBreak}}Thanks!{{delay frames=\"20\"}} A lot of people would have\nkept it for themselves, but you're a \nreal pal! {{delay frames=\"8\"}}{{fun_0003000E arg=\"\"}}{{fun_00070005 arg=\"\"}}!",
      "EUes": "{{fun_0000000C arg=\"\"}}{{fun_0007000C arg=\"\"}}{{anim id=\"23\"}}¿Eh?{{delay frames=\"20\"}} ¡Pues sí! ¡Es\nmi {{fun_00030011 arg=\"0x0000\"}},{{delay frames=\"20\"}}\n{{delay frames=\"8\"}}{{fun_00070005 arg=\"\"}}!{{pageBreak}}{{anim id=\"2\"}}¡Vaya!{{delay frames=\"20\"}} Pensé que l{{fun_0008000E arg=\"0x00CD02006F00020061000000\"}} había perdido\npara siempre,{{delay frames=\"8\"}} ¡pero aquí está!{{delay frames=\"20\"}}{{anim id=\"1\"}}{{pageBreak}}¡Gracias!{{delay frames=\"20\"}} Mucha gente se l{{fun_0008000E arg=\"0x00CD02006F00020061000000\"}} hubiera\nquedado, ¡pero tú eres un tío legal\na tope, {{delay frames=\"8\"}}{{fun_00070005 arg=\"\"}}!",
      "EUfr": "{{fun_0000000C arg=\"\"}}{{fun_0007000C arg=\"\"}}{{anim id=\"23\"}}Hum ?!{{delay frames=\"20\"}} Ah ouais ! C'est bien\n{{fun_0001000E arg=\"\"}}{{fun_00030011 arg=\"0x0000\"}} que\nj'avais {{fun_0008000E arg=\"0x00CD0A00E900670061007200E9000C00E900670061007200E90065000000\"}} !{{delay frames=\"8\"}} {{fun_0003000E arg=\"\"}}{{fun_00070005 arg=\"\"}} !\n{{anim id=\"2\"}}Franchement, j'avais abandonné\nl'idée de {{fun_0008000E arg=\"0x00CD04006C00650004006C0061000000\"}} revoir un jour, ha ha !{{delay frames=\"20\"}}{{anim id=\"1\"}}{{pageBreak}}Merci beaucoup !{{delay frames=\"20\"}} J'en connais de\nmoins scrupuleux qui ne l'auraient\npas {{fun_0008000E arg=\"0x00CD0A00720065006E00640075000C00720065006E006400750065000000\"}}. T'es un vrai pote !",
      "EUit": "{{fun_0000000C arg=\"\"}}{{fun_0007000C arg=\"\"}}{{anim id=\"23\"}}Eh?{{delay frames=\"20\"}} Ehi, ma sì! Quest{{fun_0008000E arg=\"0x00CD02006F00020061000000\"}} è {{fun_0008000E arg=\"0x00CD0C0069006C0020006D0069006F000C006C00610020006D00690061000000\"}}\n{{fun_00030011 arg=\"0x0000\"}}!{{delay frames=\"20\"}}\n{{delay frames=\"8\"}}{{fun_0003000E arg=\"\"}}{{fun_00070005 arg=\"\"}}!{{pageBreak}}{{anim id=\"2\"}}Uau!{{delay frames=\"20\"}} Pensavo di averl{{fun_0008000E arg=\"0x00CD02006F00020061000000\"}} pers{{fun_0008000E arg=\"0x00CD02006F00020061000000\"}}\nper sempre{{delay frames=\"8\"}} e invece ha ritrovato\nla strada di casa!{{delay frames=\"20\"}}{{anim id=\"1\"}}{{pageBreak}}Grazie!{{delay frames=\"20\"}} Un altro al posto tuo se l{{fun_0008000E arg=\"0x00CD02006F00020061000000\"}}\nsarebbe tenut{{fun_0008000E arg=\"0x00CD02006F00020061000000\"}} per sé, ma tu sei\nun vero amico! {{delay frames=\"8\"}}{{fun_0003000E arg=\"\"}}{{fun_00070005 arg=\"\"}}!",
      "JPja": "{{fun_0000000C arg=\"\"}}{{fun_0007000C arg=\"\"}}{{anim id=\"23\"}}あれ？{{delay frames=\"20\"}}\nこの　{{fun_00030011 arg=\"0x0000\"}}{{delay frames=\"20\"}}\nオイラのだ、{{delay frames=\"8\"}}{{fun_00070005 arg=\"\"}}{{pageBreak}}{{anim id=\"2\"}}ハハッ！{{delay frames=\"20\"}}\nオマエ{{delay frames=\"20\"}}　オイラが{{ruby charSpan=\"1\" value=\"お\"}}落としたのを\n{{ruby charSpan=\"1\" value=\"ひろ\"}}拾ってくれたんだな！{{delay frames=\"20\"}}{{anim id=\"1\"}}{{pageBreak}}サンキュー！{{delay frames=\"20\"}}\nやっぱり　{{ruby charSpan=\"1\" value=\"も\"}}持つべきものは\nナカマだよ、{{delay frames=\"8\"}}{{fun_00070005 arg=\"\"}}",
      "KRko": "{{fun_0000000C arg=\"\"}}{{fun_0007000C arg=\"\"}}{{anim id=\"23\"}}엥?{{delay frames=\"20\"}}\n이 {{fun_00030011 arg=\"0x0000\"}}{{delay frames=\"20\"}}{{fun_000E000E arg=\"0x020040C7020094B2\"}}\n내가 잃어버린 건데, {{delay frames=\"8\"}}{{fun_00070005 arg=\"\"}}?{{pageBreak}}{{anim id=\"2\"}}하하핫!{{delay frames=\"20\"}}\n내가 잃어버린 물건을{{delay frames=\"20\"}}\n니가 찾아준 거구나!{{delay frames=\"20\"}}{{anim id=\"1\"}}{{pageBreak}}완전 고마워ー!{{delay frames=\"20\"}}\n역시 근육 친구는 달라, {{delay frames=\"8\"}}{{fun_00070005 arg=\"\"}}!",
      "USen": "{{fun_0000000C arg=\"\"}}{{fun_0007000C arg=\"\"}}{{anim id=\"23\"}}Huh?{{delay frames=\"20\"}} Hey, yeah! This is totally my\n{{fun_00030011 arg=\"0x0000\"}}!{{delay frames=\"20\"}}\n{{delay frames=\"8\"}}{{fun_0003000E arg=\"\"}}{{fun_00070005 arg=\"\"}}!{{pageBreak}}{{anim id=\"2\"}}Wow!{{delay frames=\"20\"}} I thought it was gone forever,{{delay frames=\"8\"}}\nbut it found its way back to me!{{delay frames=\"20\"}}{{anim id=\"1\"}}{{pageBreak}}Thanks!{{delay frames=\"20\"}} A lot of people would have\nkept it for themselves, but you're a \nreal pal! {{delay frames=\"8\"}}{{fun_0003000E arg=\"\"}}{{fun_00070005 arg=\"\"}}!",
      "USes": "{{fun_0000000C arg=\"\"}}{{fun_0007000C arg=\"\"}}{{anim id=\"23\"}}¿Eh?{{delay frames=\"20\"}} ¡Pues sí! ¡Es\nmi {{fun_00030011 arg=\"0x0000\"}},{{delay frames=\"20\"}}\n{{delay frames=\"8\"}}{{fun_00070005 arg=\"\"}}!{{pageBreak}}{{anim id=\"2\"}}¡Vaya!{{delay frames=\"20\"}} Pensé que l{{fun_0008000E arg=\"0x00CD02006F00020061000000\"}} había perdido\npara siempre,{{delay frames=\"8\"}} ¡pero aquí está!{{delay frames=\"20\"}}{{anim id=\"1\"}}{{pageBreak}}¡Gracias!{{delay frames=\"20\"}} Mucha gente se l{{fun_0008000E arg=\"0x00CD02006F00020061000000\"}} hubiera\nquedado, ¡pero tú eres un tío legal\na tope, {{delay frames=\"8\"}}{{fun_00070005 arg=\"\"}}!",
      "USfr": "{{fun_0000000C arg=\"\"}}{{fun_0007000C arg=\"\"}}{{anim id=\"23\"}}Hum?!{{delay frames=\"20\"}} Ah ouais! C'est bien\n{{fun_0001000E arg=\"\"}}{{fun_00030011 arg=\"0x0000\"}} que\nj'avais {{fun_0008000E arg=\"0x00CD0A00E900670061007200E9000C00E900670061007200E90065000000\"}}!{{delay frames=\"8\"}} {{fun_0003000E arg=\"\"}}{{fun_00070005 arg=\"\"}}!\n{{anim id=\"2\"}}Franchement, j'avais abandonné\nl'idée de {{fun_0008000E arg=\"0x00CD04006C00650004006C0061000000\"}} revoir un jour, ha ha!{{delay frames=\"20\"}}{{anim id=\"1\"}}{{pageBreak}}Merci beaucoup!{{delay frames=\"20\"}} J'en connais de\nmoins scrupuleux qui ne l'auraient\npas {{fun_0008000E arg=\"0x00CD0A00720065006E00640075000C00720065006E006400750065000000\"}}. T'es un vrai pote!"
    }
  },
  {
    "label": "015",
    "locale": {
      "EUde": "{{fun_0000000C arg=\"\"}}{{fun_0005000C arg=\"\"}}{{anim id=\"9\"}}Ich weiß, wir wollten heute joggen...{{delay frames=\"20\"}}\n{{anim id=\"12\"}}Aber meine Muskeln tun mir noch\nweh vom Training gestern!\nIch kann mich kaum bewegen!{{delay frames=\"40\"}}\nKönnen wir das Joggen vielleicht\nauf morgen verlegen?{{fun_0009000C arg=\"\"}}",
      "EUen": "{{fun_0000000C arg=\"\"}}{{fun_0005000C arg=\"\"}}{{anim id=\"9\"}}So I know I promised to go running\nwith you today, {{anim id=\"12\"}}but my muscles are\nso sore from yesterday's workout!\nI can hardly move{{delay frames=\"8\"}}.{{delay frames=\"8\"}}.{{delay frames=\"8\"}}.{{delay frames=\"40\"}} Is there any \nchance we can reschedule?{{fun_0009000C arg=\"\"}}",
      "EUes": "{{fun_0000000C arg=\"\"}}{{fun_0005000C arg=\"\"}}{{anim id=\"9\"}}Ya sé que te prometí ir a correr\ncontigo, {{anim id=\"12\"}}¡pero tengo los gemelos\nhechos polvo por lo de ayer!\nNo puedo ni moverme, y por eso\nno pude ni ir a buscarte yo{{delay frames=\"8\"}}.{{delay frames=\"8\"}}.{{delay frames=\"8\"}}.{{delay frames=\"40\"}}\n¿Lo dejamos para otro día?{{fun_0009000C arg=\"\"}}",
      "EUfr": "{{fun_0000000C arg=\"\"}}{{fun_0005000C arg=\"\"}}{{anim id=\"9\"}}C'est que... Je sais que je t'avais\npromis qu'on irait courir ensemble\naujourd'hui...\n{{anim id=\"12\"}}... mais j'ai des courbatures de\nmalade à cause de l'entraînement\nd'hier ! J'arrive à peine à bouger{{delay frames=\"8\"}}.{{delay frames=\"8\"}}.{{delay frames=\"8\"}}.\nEst-ce qu'on pourrait remettre ça à\nplus tard ?{{fun_0009000C arg=\"\"}}",
      "EUit": "{{fun_0000000C arg=\"\"}}{{fun_0005000C arg=\"\"}}{{anim id=\"9\"}}Allora, lo so che ti avevo promesso\ndi venire a correre con te oggi, {{anim id=\"12\"}}ma\nmi fanno male tutti i muscoli!\nA malapena riesco a muovermi{{delay frames=\"8\"}}.{{delay frames=\"8\"}}.{{delay frames=\"8\"}}.{{delay frames=\"40\"}}\nNon possiamo rimandare?{{fun_0009000C arg=\"\"}}",
      "JPja": "{{fun_0000000C arg=\"\"}}{{fun_0005000C arg=\"\"}}{{anim id=\"9\"}}{{ruby charSpan=\"2\" value=\"きょう\"}}今日も　いっしょに\n{{ruby charSpan=\"1\" value=\"はし\"}}走る{{ruby charSpan=\"2\" value=\"やくそく\"}}約束してたけど、{{pageBreak}}{{anim id=\"12\"}}オイラ　キンニクツウで\n{{ruby charSpan=\"1\" value=\"うご\"}}動けないんだ{{delay frames=\"8\"}}・{{delay frames=\"8\"}}・{{delay frames=\"8\"}}・{{delay frames=\"40\"}}\nまたにして　いいかー？{{fun_0009000C arg=\"\"}}",
      "KRko": "{{fun_0000000C arg=\"\"}}{{fun_0005000C arg=\"\"}}{{anim id=\"9\"}}오늘 우리 같이\n조깅하기로 했었지?{{pageBreak}}{{anim id=\"12\"}}나 근육통 때문에\n꼼짝도 못하겠어{{delay frames=\"8\"}}・{{delay frames=\"8\"}}・{{delay frames=\"8\"}}・{{delay frames=\"40\"}}\n다음으로 미뤄도 되냐ー?{{fun_0009000C arg=\"\"}}",
      "USen": "{{fun_0000000C arg=\"\"}}{{fun_0005000C arg=\"\"}}{{anim id=\"9\"}}So I know I promised to go running\nwith you today, {{anim id=\"12\"}}but my muscles are\nso sore from yesterday's workout!\nI can hardly move{{delay frames=\"8\"}}.{{delay frames=\"8\"}}.{{delay frames=\"8\"}}.{{delay frames=\"40\"}} Is there any \nchance we can reschedule?{{fun_0009000C arg=\"\"}}",
      "USes": "{{fun_0000000C arg=\"\"}}{{fun_0005000C arg=\"\"}}{{anim id=\"9\"}}Ya sé que te prometí ir a correr\ncontigo, {{anim id=\"12\"}}¡pero tengo los gemelos\nhechos polvo por lo de ayer!\nNo puedo ni moverme, y por eso\nno pude ni ir a buscarte yo{{delay frames=\"8\"}}.{{delay frames=\"8\"}}.{{delay frames=\"8\"}}.{{delay frames=\"40\"}}\n¿Lo dejamos para otro día?{{fun_0009000C arg=\"\"}}",
      "USfr": "{{fun_0000000C arg=\"\"}}{{fun_0005000C arg=\"\"}}{{anim id=\"9\"}}C'est que... Je sais que je t'avais\npromis qu'on irait courir ensemble\naujourd'hui...\n{{anim id=\"12\"}}... mais j'ai des courbatures de\nmalade à cause de l'entraînement\nd'hier! J'arrive à peine à bouger{{delay frames=\"8\"}}.{{delay frames=\"8\"}}.{{delay frames=\"8\"}}.\nEst-ce qu'on pourrait remettre ça à\nplus tard?{{fun_0009000C arg=\"\"}}"
    }
  },
  {
    "label": "016",
    "locale": {
      "EUde": "{{fun_0000000C arg=\"\"}}{{fun_0007000C arg=\"\"}}{{anim id=\"1\"}}Hmm...{{delay frames=\"20\"}} Klar{{delay frames=\"8\"}}.{{delay frames=\"8\"}}.{{delay frames=\"8\"}}.{{delay frames=\"20\"}} Gar kein Problem!{{pageBreak}}{{anim id=\"43\"}}Irgendwie bin ich jetzt neidisch.{{delay frames=\"20\"}}\nWenn du 'nen Muskelkater hast und\nich nicht{{delay frames=\"8\"}}.{{delay frames=\"8\"}}.{{delay frames=\"8\"}}.{{delay frames=\"20\"}} trainierst du auch mehr!\n{{anim id=\"33\"}}Das darf nicht sein!{{delay frames=\"20\"}} Ich muss sofort\ntrainieren gehen! {{delay frames=\"20\"}}{{fun_0003000E arg=\"\"}}{{fun_00070005 arg=\"\"}}!",
      "EUen": "{{fun_0000000C arg=\"\"}}{{fun_0007000C arg=\"\"}}{{anim id=\"1\"}}Hmm...{{delay frames=\"20\"}} Yeah{{delay frames=\"8\"}}.{{delay frames=\"8\"}}.{{delay frames=\"8\"}}.{{delay frames=\"20\"}} Don't worry about it.{{pageBreak}}{{anim id=\"43\"}}I'm jealous, though.{{delay frames=\"20\"}} If you have sore\nmuscles and I don't{{delay frames=\"8\"}}.{{delay frames=\"8\"}}.{{delay frames=\"8\"}}.{{delay frames=\"20\"}}maybe you're\ngetting ahead of me!{{pageBreak}}{{anim id=\"33\"}}That settles it!{{delay frames=\"20\"}} I'm going to go work\nout right now! {{delay frames=\"8\"}}{{fun_0003000E arg=\"\"}}{{fun_00070005 arg=\"\"}}!",
      "EUes": "{{fun_0000000C arg=\"\"}}{{fun_0007000C arg=\"\"}}{{anim id=\"1\"}}Hum...{{delay frames=\"20\"}} Vale{{delay frames=\"8\"}}.{{delay frames=\"8\"}}.{{delay frames=\"8\"}}.{{delay frames=\"20\"}} No te preocupes\npor eso, tú tranqui...{{pageBreak}}{{anim id=\"43\"}}Pero no sé si envidiarte.{{delay frames=\"20\"}} Que estés\nasí indica que tus músculos están\npasando al siguiente nivel{{delay frames=\"8\"}}.{{delay frames=\"8\"}}.{{delay frames=\"8\"}}.{{delay frames=\"20\"}}\n{{anim id=\"33\"}}¡No me vas a dejar atrás!{{delay frames=\"20\"}} ¡Voy a\ntener que hacer más ejercicio en\ncuanto salga de aquí, {{delay frames=\"8\"}}{{fun_00070005 arg=\"\"}}!",
      "EUfr": "{{fun_0000000C arg=\"\"}}{{fun_0007000C arg=\"\"}}{{anim id=\"1\"}}Hmm...{{delay frames=\"20\"}} Ouais{{delay frames=\"8\"}}.{{delay frames=\"8\"}}.{{delay frames=\"8\"}}.{{delay frames=\"20\"}} T'inquiète.{{delay frames=\"20\"}} {{anim id=\"43\"}}Je suis\nun peu jaloux, par contre...{{delay frames=\"20\"}}{{pageBreak}}Si tu as des courbatures, alors que\nmoi non{{delay frames=\"8\"}}.{{delay frames=\"8\"}}.{{delay frames=\"8\"}}.{{delay frames=\"20\"}} c'est que tu es sans doute\nen train de me devancer !\n{{anim id=\"33\"}}C'est décidé !{{delay frames=\"20\"}} Aujourd'hui, je\nvais m'entraîner tout seul et\nrattraper mon retard,{{delay frames=\"8\"}} {{fun_00070005 arg=\"\"}}.",
      "EUit": "{{fun_0000000C arg=\"\"}}{{fun_0007000C arg=\"\"}}{{anim id=\"1\"}}Mmmh...{{delay frames=\"20\"}} Sì{{delay frames=\"8\"}}.{{delay frames=\"8\"}}.{{delay frames=\"8\"}}.{{delay frames=\"20\"}} Non ti preoccupare.{{pageBreak}}{{anim id=\"43\"}}Però sono geloso.{{delay frames=\"20\"}} Se a te fanno\nmale i muscoli e a me no{{delay frames=\"8\"}}.{{delay frames=\"8\"}}.{{delay frames=\"8\"}}.{{delay frames=\"20\"}} forse\nti alleni meglio di me!{{pageBreak}}{{anim id=\"33\"}}E sia!{{delay frames=\"20\"}} Vado a fare un po'\ndi flessioni... ora! {{delay frames=\"8\"}}{{fun_0003000E arg=\"\"}}{{fun_00070005 arg=\"\"}}!",
      "JPja": "{{fun_0000000C arg=\"\"}}{{fun_0007000C arg=\"\"}}{{anim id=\"1\"}}そうかー{{delay frames=\"20\"}}\nまぁ　{{ruby charSpan=\"2\" value=\"やくそく\"}}約束のことは\n{{ruby charSpan=\"1\" value=\"き\"}}気にしなくて　いいぞ{{pageBreak}}{{anim id=\"43\"}}それより、うらやましいな{{delay frames=\"20\"}}\nキンニクツウ{{delay frames=\"8\"}}・{{delay frames=\"8\"}}・{{delay frames=\"8\"}}・{{delay frames=\"20\"}}\nキンニクが　{{ruby charSpan=\"1\" value=\"そだ\"}}育ってるしょうこだぞー{{pageBreak}}{{anim id=\"33\"}}よしっ！{{delay frames=\"20\"}}\nオイラも　{{ruby charSpan=\"1\" value=\"ま\"}}負けてられないな、{{delay frames=\"8\"}}{{fun_00070005 arg=\"\"}}",
      "KRko": "{{fun_0000000C arg=\"\"}}{{fun_0007000C arg=\"\"}}{{anim id=\"1\"}}그런 거였냐ー?{{delay frames=\"20\"}}\n그 약속은 신경 쓰지 마라!{{pageBreak}}{{anim id=\"43\"}}그나저나 부럽다,{{delay frames=\"20\"}}\n근육통이라니{{delay frames=\"8\"}}・{{delay frames=\"8\"}}・{{delay frames=\"8\"}}・{{delay frames=\"20\"}}\n근육이 자라고 있다는 증거잖아ー{{pageBreak}}{{anim id=\"33\"}}훗, 좋아!{{delay frames=\"20\"}}\n나도 질 수 없지, {{delay frames=\"8\"}}{{fun_00070005 arg=\"\"}}",
      "USen": "{{fun_0000000C arg=\"\"}}{{fun_0007000C arg=\"\"}}{{anim id=\"1\"}}Hmm...{{delay frames=\"20\"}} Yeah{{delay frames=\"8\"}}.{{delay frames=\"8\"}}.{{delay frames=\"8\"}}.{{delay frames=\"20\"}} Don't worry about it.{{pageBreak}}{{anim id=\"43\"}}I'm jealous, though.{{delay frames=\"20\"}} If you have sore\nmuscles and I don't{{delay frames=\"8\"}}.{{delay frames=\"8\"}}.{{delay frames=\"8\"}}.{{delay frames=\"20\"}}maybe you're\ngetting ahead of me!{{pageBreak}}{{anim id=\"33\"}}That settles it!{{delay frames=\"20\"}} I'm going to go work\nout right now! {{delay frames=\"8\"}}{{fun_0003000E arg=\"\"}}{{fun_00070005 arg=\"\"}}!",
      "USes": "{{fun_0000000C arg=\"\"}}{{fun_0007000C arg=\"\"}}{{anim id=\"1\"}}Hum...{{delay frames=\"20\"}} Vale{{delay frames=\"8\"}}.{{delay frames=\"8\"}}.{{delay frames=\"8\"}}.{{delay frames=\"20\"}} No te preocupes\npor eso, tú tranqui...{{pageBreak}}{{anim id=\"43\"}}Pero no sé si envidiarte.{{delay frames=\"20\"}} Que estés\nasí indica que tus músculos están\npasando al siguiente nivel{{delay frames=\"8\"}}.{{delay frames=\"8\"}}.{{delay frames=\"8\"}}.{{delay frames=\"20\"}}\n{{anim id=\"33\"}}¡No me vas a dejar atrás!{{delay frames=\"20\"}} ¡Voy a\ntener que hacer más ejercicio en\ncuanto salga de aquí, {{delay frames=\"8\"}}{{fun_00070005 arg=\"\"}}!",
      "USfr": "{{fun_0000000C arg=\"\"}}{{fun_0007000C arg=\"\"}}{{anim id=\"1\"}}Hmm...{{delay frames=\"20\"}} Ouais{{delay frames=\"8\"}}.{{delay frames=\"8\"}}.{{delay frames=\"8\"}}.{{delay frames=\"20\"}} T'inquiète.{{delay frames=\"20\"}} {{anim id=\"43\"}}Je suis\nun peu jaloux, par contre...{{delay frames=\"20\"}}{{pageBreak}}Si tu as des courbatures, alors que\nmoi non{{delay frames=\"8\"}}.{{delay frames=\"8\"}}.{{delay frames=\"8\"}}.{{delay frames=\"20\"}} c'est que tu es sans doute\nen train de me devancer!\n{{anim id=\"33\"}}C'est décidé!{{delay frames=\"20\"}} Aujourd'hui, je\nvais m'entraîner tout seul et\nrattraper mon retard,{{delay frames=\"8\"}} {{fun_00070005 arg=\"\"}}."
    }
  },
  {
    "label": "017",
    "locale": {
      "EUde": "{{fun_0000000C arg=\"\"}}{{fun_0005000C arg=\"\"}}{{anim id=\"32\"}}Pass gut auf! {{delay frames=\"20\"}}Ich fordere dich raus...\n{{delay frames=\"20\"}}und zwar zum Armdrücken!{{pageBreak}}{{anim id=\"6\"}}Die ersten 100 Runden haben noch\nkeine Entscheidung gebracht.{{delay frames=\"20\"}} Also\nmuss eine allerletzte Runde her!{{fun_0009000C arg=\"\"}}",
      "EUen": "{{fun_0000000C arg=\"\"}}{{fun_0005000C arg=\"\"}}{{anim id=\"32\"}}I'll tell you what's up!{{delay frames=\"8\"}} I'm\nchallenging you!{{delay frames=\"20\"}} Let's arm wrestle!{{pageBreak}}{{anim id=\"6\"}}We're dead even after 100 matches.{{delay frames=\"40\"}}\nThe next match will decide once and\nfor all who's the strongest!{{fun_0009000C arg=\"\"}}",
      "EUes": "{{fun_0000000C arg=\"\"}}{{fun_0005000C arg=\"\"}}{{anim id=\"32\"}}¡Te voy a contar lo que pasa!{{delay frames=\"8\"}}\n¡Quiero retarte!{{delay frames=\"20\"}} ¡Echemos un pulso!{{pageBreak}}{{anim id=\"6\"}}¡Seguimos con un empate de cien\npulsos!{{delay frames=\"40\"}} ¡Sé que el siguiente lo\ndecidirá todo de una vez por todas!{{fun_0009000C arg=\"\"}}",
      "EUfr": "{{fun_0000000C arg=\"\"}}{{fun_0005000C arg=\"\"}}{{anim id=\"32\"}}Si tu es ici, c'est pour m'affronter !{{delay frames=\"20\"}}\nJe te prends au bras de fer !{{pageBreak}}{{anim id=\"6\"}}Après 100 matchs, on est toujours\nex-æquo, ça ne peut plus durer !{{pageBreak}}Le prochain décidera une bonne fois\npour toutes de qui est le plus\nbalèze !{{fun_0009000C arg=\"\"}}",
      "EUit": "{{fun_0000000C arg=\"\"}}{{fun_0005000C arg=\"\"}}{{anim id=\"32\"}}Ora ti spiego!{{delay frames=\"8\"}} Voglio sfidarti!{{delay frames=\"20\"}}\nSì, a braccio di ferro!{{pageBreak}}{{anim id=\"6\"}}Finiamo sempre alla pari, ma lo so:{{delay frames=\"40\"}}\nstavolta la nostra sarà una sfida\ndecisiva! Vedremo chi è il più forte!{{fun_0009000C arg=\"\"}}",
      "JPja": "{{fun_0000000C arg=\"\"}}{{fun_0005000C arg=\"\"}}{{anim id=\"32\"}}オイ！{{delay frames=\"8\"}}　やるぞー！{{delay frames=\"20\"}}\nうでずもう{{ruby charSpan=\"2\" value=\"しょうぶ\"}}勝負！{{pageBreak}}{{anim id=\"6\"}}100{{ruby charSpan=\"1\" value=\"しょう\"}}勝　100{{ruby charSpan=\"1\" value=\"はい\"}}敗　100{{ruby charSpan=\"1\" value=\"ひ\"}}引き{{ruby charSpan=\"1\" value=\"わ\"}}分け！{{delay frames=\"40\"}}\n{{ruby charSpan=\"1\" value=\"つぎ\"}}次の{{ruby charSpan=\"2\" value=\"しょうぶ\"}}勝負で　どっちが{{ruby charSpan=\"2\" value=\"さいきょう\"}}最強か\n{{ruby charSpan=\"1\" value=\"き\"}}決まる{{ruby charSpan=\"1\" value=\"き\"}}気がするな！{{fun_0009000C arg=\"\"}}",
      "KRko": "{{fun_0000000C arg=\"\"}}{{fun_0005000C arg=\"\"}}{{anim id=\"32\"}}잘 들어!{{delay frames=\"8\"}}\n오늘은 대망의{{delay frames=\"20\"}} 팔씨름 시합이다ー!{{pageBreak}}{{anim id=\"6\"}}지금까지 100승 100패 100무!{{delay frames=\"40\"}}\n이번 대결로\n누가 최강인지 가리자구!{{fun_0009000C arg=\"\"}}",
      "USen": "{{fun_0000000C arg=\"\"}}{{fun_0005000C arg=\"\"}}{{anim id=\"32\"}}Yeah, I'll tell you what's up!{{delay frames=\"8\"}} I'm\nchallenging you!{{delay frames=\"20\"}} Let's arm wrestle!{{pageBreak}}{{anim id=\"6\"}}We're dead even after 100 matches.{{delay frames=\"40\"}}\nThe next match will decide once and\nfor all who's the strongest!{{fun_0009000C arg=\"\"}}",
      "USes": "{{fun_0000000C arg=\"\"}}{{fun_0005000C arg=\"\"}}{{anim id=\"32\"}}¡Te voy a contar lo que pasa!{{delay frames=\"8\"}}\n¡Quiero retarte!{{delay frames=\"20\"}} ¡Echemos un pulso!{{pageBreak}}{{anim id=\"6\"}}¡Seguimos con un empate de cien\npulsos!{{delay frames=\"40\"}} ¡Sé que el siguiente lo\ndecidirá todo de una vez por todas!{{fun_0009000C arg=\"\"}}",
      "USfr": "{{fun_0000000C arg=\"\"}}{{fun_0005000C arg=\"\"}}{{anim id=\"32\"}}Si tu es ici, c'est pour m'affronter!{{delay frames=\"20\"}}\nJe te prends au bras de fer!{{pageBreak}}{{anim id=\"6\"}}Après 100 matchs, on est toujours\nex-æquo, ça ne peut plus durer!{{pageBreak}}Le prochain décidera une bonne fois\npour toutes de qui est le plus\nbalèze!{{fun_0009000C arg=\"\"}}"
    }
  },
  {
    "label": "018",
    "locale": {
      "EUde": "{{fun_0000000C arg=\"\"}}{{fun_0007000C arg=\"\"}}{{anim id=\"6\"}}Oh!{{delay frames=\"20\"}} Du weißt, {{delay frames=\"8\"}}das ist sonst echt\nkein Problem für mich, {{fun_00010011 arg=\"0x0000\"}}{{delay frames=\"8\"}}.{{delay frames=\"8\"}}.{{delay frames=\"8\"}}.{{pageBreak}}{{anim id=\"9\"}}Aber... {{delay frames=\"20\"}}Ähm{{delay frames=\"8\"}}.{{delay frames=\"8\"}}.{{delay frames=\"8\"}}.{{delay frames=\"20\"}} Ich hab{{delay frames=\"8\"}}.{{delay frames=\"8\"}}.{{delay frames=\"8\"}}.{{delay frames=\"20\"}} Ich hab mir\ndie Hände grad eben eingecremt.{{delay frames=\"20\"}}\nDie sind jetzt ganz glitschig!\n{{anim id=\"27\"}}Wir müssen das leider ein andermal\nnachholen!{{delay frames=\"20\"}} Tut mir leid!",
      "EUen": "{{fun_0000000C arg=\"\"}}{{fun_0007000C arg=\"\"}}{{anim id=\"6\"}}Oh!{{delay frames=\"20\"}} Well, you know I'm normally\ntotally down with that, homie{{delay frames=\"8\"}}.{{delay frames=\"8\"}}.{{delay frames=\"8\"}}.{{delay frames=\"20\"}}{{pageBreak}}{{anim id=\"9\"}}But, uh{{delay frames=\"8\"}}.{{delay frames=\"8\"}}.{{delay frames=\"8\"}}.{{delay frames=\"20\"}} I mean{{delay frames=\"8\"}}.{{delay frames=\"8\"}}.{{delay frames=\"8\"}}.{{delay frames=\"20\"}}I just put some\nlotion on my hands, so they're\ntotally slippery.\n{{anim id=\"27\"}}Looks like we'll have to do this\nsome other time!{{delay frames=\"20\"}} Sorry!",
      "EUes": "{{fun_0000000C arg=\"\"}}{{fun_0007000C arg=\"\"}}{{anim id=\"6\"}}¡Ah!{{delay frames=\"20\"}} Bueno, ya sabes que yo\nencantado, tronco, pero es que{{delay frames=\"8\"}}.{{delay frames=\"8\"}}.{{delay frames=\"8\"}}.{{delay frames=\"20\"}}{{pageBreak}}{{anim id=\"9\"}}Esto{{delay frames=\"8\"}}.{{delay frames=\"8\"}}.{{delay frames=\"8\"}}.{{delay frames=\"20\"}} A ver{{delay frames=\"8\"}}.{{delay frames=\"8\"}}.{{delay frames=\"8\"}}.{{delay frames=\"20\"}} Es que me acabo\nde echar crema en las manos,\nasí que no veas cómo resbalan.\n{{anim id=\"27\"}}¡Parece que vamos a tener que\ndejar esto para otra ocasión!{{delay frames=\"20\"}}\n¡Lo siento!",
      "EUfr": "{{fun_0000000C arg=\"\"}}{{fun_0007000C arg=\"\"}}{{anim id=\"6\"}}Oh !{{delay frames=\"20\"}} Tu sais qu'en temps normal, je\nne refuse jamais un défi{{delay frames=\"8\"}}.{{delay frames=\"8\"}}.{{delay frames=\"8\"}}.{{pageBreak}}{{anim id=\"9\"}}Mais, euh{{delay frames=\"8\"}}.{{delay frames=\"8\"}}.{{delay frames=\"8\"}}.{{delay frames=\"20\"}} C'est que{{delay frames=\"8\"}}.{{delay frames=\"8\"}}.{{delay frames=\"8\"}}.{{delay frames=\"20\"}} Je viens tout\njuste de m'enduire les mains de\nlotion apaisante. Donc elles glissent.\n{{anim id=\"27\"}}Tu vas devoir patienter encore un\npeu avant qu'on puisse régler cette\nhistoire...{{delay frames=\"20\"}} Désolé !",
      "EUit": "{{fun_0000000C arg=\"\"}}{{fun_0007000C arg=\"\"}}{{anim id=\"6\"}}Oh!{{delay frames=\"20\"}} Lo sai che in genere sono\nsempre pronto a sfidarti{{delay frames=\"8\"}}.{{delay frames=\"8\"}}.{{delay frames=\"8\"}}.{{delay frames=\"20\"}}{{pageBreak}}{{anim id=\"9\"}}Ma, sai{{delay frames=\"8\"}}.{{delay frames=\"8\"}}.{{delay frames=\"8\"}}.{{delay frames=\"20\"}} Voglio dire{{delay frames=\"8\"}}.{{delay frames=\"8\"}}.{{delay frames=\"8\"}}.{{delay frames=\"20\"}} È che mi sono\nmesso una lozione per lucidare\ni muscoli e ho le mani scivolose.\n{{anim id=\"27\"}}Purtroppo dovremo rimandare\na un'altra volta!{{delay frames=\"20\"}} Scusa!",
      "JPja": "{{fun_0000000C arg=\"\"}}{{fun_0007000C arg=\"\"}}{{anim id=\"6\"}}おー！{{delay frames=\"20\"}}\n{{ruby charSpan=\"1\" value=\"う\"}}受けて{{ruby charSpan=\"1\" value=\"た\"}}立つー！{{pageBreak}}{{anim id=\"9\"}}って、{{delay frames=\"20\"}}{{ruby charSpan=\"1\" value=\"おも\"}}思ったけど{{delay frames=\"20\"}}\nさっき　ハンドクリーム　ぬったから\n{{ruby charSpan=\"1\" value=\"て\"}}手がヌルヌルなんだよ{{delay frames=\"8\"}}・{{delay frames=\"8\"}}・{{delay frames=\"8\"}}・{{pageBreak}}{{anim id=\"27\"}}これじゃ、{{delay frames=\"20\"}}{{ruby charSpan=\"2\" value=\"しょうぶ\"}}勝負にならなそうだなー{{delay frames=\"40\"}}\nまた　{{ruby charSpan=\"2\" value=\"こんど\"}}今度にしよう",
      "KRko": "{{fun_0000000C arg=\"\"}}{{fun_0007000C arg=\"\"}}{{anim id=\"6\"}}오오ー!{{delay frames=\"20\"}}\n그 도전 받아들이겠다ー!{{pageBreak}}{{anim id=\"9\"}}앗,{{delay frames=\"20\"}} 근데 생각해보니{{delay frames=\"20\"}}\n내가 방금 핸드크림을 발라서\n손이 미끌거리는데{{delay frames=\"8\"}}・{{delay frames=\"8\"}}・{{delay frames=\"8\"}}・{{pageBreak}}{{anim id=\"27\"}}아무래도{{delay frames=\"20\"}} 지금 승부를 가르는 건 무리야ー{{delay frames=\"40\"}}\n팔씨름 시합은 다음에 하자!",
      "USen": "{{fun_0000000C arg=\"\"}}{{fun_0007000C arg=\"\"}}{{anim id=\"6\"}}Oh!{{delay frames=\"20\"}} Well, you know I'm normally\ntotally down with that, homie{{delay frames=\"8\"}}.{{delay frames=\"8\"}}.{{delay frames=\"8\"}}.{{delay frames=\"20\"}}{{pageBreak}}{{anim id=\"9\"}}But, uh{{delay frames=\"8\"}}.{{delay frames=\"8\"}}.{{delay frames=\"8\"}}.{{delay frames=\"20\"}} I mean{{delay frames=\"8\"}}.{{delay frames=\"8\"}}.{{delay frames=\"8\"}}.{{delay frames=\"20\"}}I just put some\nlotion on my hands, so they're\ntotally slippery.\n{{anim id=\"27\"}}Looks like we'll have to do this\nsome other time!{{delay frames=\"20\"}} Sorry!",
      "USes": "{{fun_0000000C arg=\"\"}}{{fun_0007000C arg=\"\"}}{{anim id=\"6\"}}¡Ah!{{delay frames=\"20\"}} Bueno, ya sabes que yo\nencantado, tronco, pero es que{{delay frames=\"8\"}}.{{delay frames=\"8\"}}.{{delay frames=\"8\"}}.{{delay frames=\"20\"}}{{pageBreak}}{{anim id=\"9\"}}Esto{{delay frames=\"8\"}}.{{delay frames=\"8\"}}.{{delay frames=\"8\"}}.{{delay frames=\"20\"}} A ver{{delay frames=\"8\"}}.{{delay frames=\"8\"}}.{{delay frames=\"8\"}}.{{delay frames=\"20\"}} Es que me acabo\nde echar crema en las manos,\nasí que no veas cómo resbalan.\n{{anim id=\"27\"}}¡Parece que vamos a tener que\ndejar esto para otra ocasión!{{delay frames=\"20\"}}\n¡Lo siento!",
      "USfr": "{{fun_0000000C arg=\"\"}}{{fun_0007000C arg=\"\"}}{{anim id=\"6\"}}Oh!{{delay frames=\"20\"}} Tu sais qu'en temps normal, je\nne refuse jamais un défi{{delay frames=\"8\"}}.{{delay frames=\"8\"}}.{{delay frames=\"8\"}}.{{pageBreak}}{{anim id=\"9\"}}Mais, euh{{delay frames=\"8\"}}.{{delay frames=\"8\"}}.{{delay frames=\"8\"}}.{{delay frames=\"20\"}} C'est que{{delay frames=\"8\"}}.{{delay frames=\"8\"}}.{{delay frames=\"8\"}}.{{delay frames=\"20\"}} Je viens tout\njuste de m'enduire les mains de\nlotion apaisante. Donc elles glissent.\n{{anim id=\"27\"}}Tu vas devoir patienter encore un\npeu avant qu'on puisse régler cette\nhistoire...{{delay frames=\"20\"}} Désolé!"
    }
  },
  {
    "label": "019",
    "locale": {
      "EUde": "",
      "EUen": "",
      "EUes": "",
      "EUfr": "",
      "EUit": "",
      "JPja": "",
      "KRko": "",
      "USen": "",
      "USes": "",
      "USfr": ""
    }
  },
  {
    "label": "020",
    "locale": {
      "EUde": "{{anim id=\"0\"}}Wow, {{delay frames=\"8\"}}das hat ja gar nicht wehgetan!{{delay frames=\"20\"}}\nDann geh ich mal wieder!{{pageBreak}}{{anim id=\"0\"}}{{fun_0002000C arg=\"\"}}{{fun_0004000C arg=\"\"}}Danke fürs Herführen, {{fun_00080005 arg=\"\"}}!{{delay frames=\"20\"}}\nDu bist ein klasse Läufer!{{delay frames=\"20\"}} Lass uns\ndoch mal zusammen trainieren!{{delay frames=\"20\"}}{{anim id=\"1\"}}",
      "EUen": "{{anim id=\"0\"}}Guess I should be going now!{{pageBreak}}{{anim id=\"0\"}}{{fun_0002000C arg=\"\"}}{{fun_0004000C arg=\"\"}}You've got some stamina,\n{{fun_00080005 arg=\"\"}}! We should work out\nsometime!{{delay frames=\"20\"}}{{anim id=\"1\"}}",
      "EUes": "{{anim id=\"0\"}}Bueno, al final no fue para tanto.{{delay frames=\"20\"}}\n¡Yo ahora me tengo que largar!{{pageBreak}}{{anim id=\"0\"}}{{fun_0002000C arg=\"\"}}{{fun_0004000C arg=\"\"}}¡Gracias por acompañarme hasta\naquí, {{fun_00080005 arg=\"\"}}!{{delay frames=\"20\"}} ¡Tienes energía!\n¡A ver si hacemos ejercicio juntos!{{delay frames=\"20\"}}{{anim id=\"1\"}}",
      "EUfr": "{{anim id=\"0\"}}Si tu en as fini avec moi,{{delay frames=\"20\"}} je vais y\naller.{{pageBreak}}{{anim id=\"0\"}}{{fun_0002000C arg=\"\"}}{{fun_0004000C arg=\"\"}}Merci pour tout, {{fun_00080005 arg=\"\"}} !{{delay frames=\"20\"}} Tu\nfais {{fun_0006000E arg=\"0x1E0075006E00200062006F006E0020006D006100720063006800650075007200260075006E006500200062006F006E006E00650020006D0061007200630068006500750073006500\"}}, faudra\nqu'on s'entraîne ensemble !{{delay frames=\"20\"}}{{anim id=\"1\"}}",
      "EUit": "{{anim id=\"0\"}}Alla fine non ci sono stati problemi.{{delay frames=\"20\"}}\nOra penso di potermene andare!{{pageBreak}}{{anim id=\"0\"}}{{fun_0002000C arg=\"\"}}{{fun_0004000C arg=\"\"}}Grazie per avermi accompagnato\nqui, {{fun_00080005 arg=\"\"}}!{{delay frames=\"20\"}} Dovremmo{{delay frames=\"20\"}} allenarci\ninsieme, uno di questi giorni!{{delay frames=\"20\"}}{{anim id=\"1\"}}",
      "JPja": "{{anim id=\"0\"}}それじゃ{{delay frames=\"20\"}}\nオイラは{{ruby charSpan=\"1\" value=\"かえ\"}}帰るぞ、{{delay frames=\"8\"}}{{fun_00070005 arg=\"\"}}！{{pageBreak}}{{anim id=\"0\"}}{{fun_0002000C arg=\"\"}}{{fun_0004000C arg=\"\"}}{{fun_00080005 arg=\"\"}}、{{delay frames=\"20\"}}\n{{ruby charSpan=\"2\" value=\"あんない\"}}案内してくれて　ありがとな！{{delay frames=\"40\"}}\nまたいっしょに　{{ruby charSpan=\"1\" value=\"はし\"}}走ろー！{{delay frames=\"20\"}}{{anim id=\"1\"}}",
      "KRko": "{{anim id=\"0\"}}볼일 끝난 거지?{{delay frames=\"20\"}}\n난 간다, {{delay frames=\"8\"}}{{fun_00070005 arg=\"\"}}!{{pageBreak}}{{anim id=\"0\"}}{{fun_0002000C arg=\"\"}}{{fun_0004000C arg=\"\"}}{{fun_00080005 arg=\"\"}},{{delay frames=\"20\"}}\n안내해줘서 고맙다!{{delay frames=\"40\"}}\n언제 또 같이 달리자구ー!{{delay frames=\"20\"}}{{anim id=\"1\"}}",
      "USen": "{{anim id=\"0\"}}Guess I should be going now!{{pageBreak}}{{anim id=\"0\"}}{{fun_0002000C arg=\"\"}}{{fun_0004000C arg=\"\"}}You've got some stamina,\n{{fun_00080005 arg=\"\"}}! We should work out\nsometime!{{delay frames=\"20\"}}{{anim id=\"1\"}}",
      "USes": "{{anim id=\"0\"}}Bueno, al final no fue para tanto.{{delay frames=\"20\"}}\n¡Yo ahora me tengo que largar!{{pageBreak}}{{anim id=\"0\"}}{{fun_0002000C arg=\"\"}}{{fun_0004000C arg=\"\"}}¡Gracias por acompañarme hasta\naquí, {{fun_00080005 arg=\"\"}}!{{delay frames=\"20\"}} ¡Tienes energía!\n¡A ver si hacemos ejercicio juntos!{{delay frames=\"20\"}}{{anim id=\"1\"}}",
      "USfr": "{{anim id=\"0\"}}Si tu en as fini avec moi,{{delay frames=\"20\"}} je vais y\naller.{{pageBreak}}{{anim id=\"0\"}}{{fun_0002000C arg=\"\"}}{{fun_0004000C arg=\"\"}}Merci pour tout, {{fun_00080005 arg=\"\"}}!{{delay frames=\"20\"}} Tu\nfais {{fun_0006000E arg=\"0x1E0075006E00200062006F006E0020006D006100720063006800650075007200260075006E006500200062006F006E006E00650020006D0061007200630068006500750073006500\"}}, faudra\nqu'on s'entraîne ensemble!{{delay frames=\"20\"}}{{anim id=\"1\"}}"
    }
  },
  {
    "label": "021",
    "locale": {
      "EUde": "Okay, {{delay frames=\"8\"}}das war's hier wohl.{{delay frames=\"20\"}}\n{{anim id=\"33\"}}Mein Training ruft...{{delay frames=\"40\"}}{{anim id=\"0\"}} Na ja...\n{{delay frames=\"20\"}}Es ruft mich nicht wirklich!\n{{anim id=\"11\"}}Jedenfalls hab ich noch nie\n'ne Hantel reden gehört!{{pageBreak}}{{anim id=\"0\"}}{{fun_0002000C arg=\"\"}}{{fun_0004000C arg=\"\"}}Danke fürs Herführen, {{fun_00080005 arg=\"\"}}!{{delay frames=\"20\"}}\nDu bist in Ordnung! {{delay frames=\"8\"}}{{fun_0003000E arg=\"\"}}{{fun_00070005 arg=\"\"}}!",
      "EUen": "OK, I think we're done here.{{delay frames=\"20\"}} Time\nfor me to make like a tree and get\noutta here!{{pageBreak}}{{anim id=\"0\"}}{{fun_0002000C arg=\"\"}}{{fun_0004000C arg=\"\"}}Thanks for going out of your way to\nget me over here, {{fun_00080005 arg=\"\"}}!{{delay frames=\"20\"}}\nYou're OK! {{delay frames=\"8\"}}{{fun_0003000E arg=\"\"}}{{fun_00070005 arg=\"\"}}!",
      "EUes": "Bueno, creo que esto ya no da\nmás de sí,{{delay frames=\"20\"}} así que me voy a dar\nel piro como está mandado.\n{{anim id=\"0\"}}{{fun_0002000C arg=\"\"}}{{fun_0004000C arg=\"\"}}¡Gracias por molestarte en venir\naquí conmigo, {{fun_00080005 arg=\"\"}}!{{delay frames=\"20\"}} ¡Eres\nmuy enrollad{{fun_0006000E arg=\"0x02006F0002006100\"}}, {{delay frames=\"8\"}}{{fun_00070005 arg=\"\"}}!",
      "EUfr": "OK, c'est tout ce que tu voulais ?{{delay frames=\"20\"}}\nAlors je file !{{pageBreak}}{{anim id=\"0\"}}{{fun_0002000C arg=\"\"}}{{fun_0004000C arg=\"\"}}Merci d'avoir pris la peine de\nm'amener ici, {{fun_00080005 arg=\"\"}} !{{delay frames=\"20\"}}\n{{fun_0003000E arg=\"\"}}{{fun_00070005 arg=\"\"}} !",
      "EUit": "OK, mi pare che abbiamo finito.{{delay frames=\"20\"}}\nDevo mettere le ali ai piedi\ne andare via ora!{{pageBreak}}{{anim id=\"0\"}}{{fun_0002000C arg=\"\"}}{{fun_0004000C arg=\"\"}}Grazie per esserti preoccupat{{fun_0006000E arg=\"0x02006F0002006100\"}}\ndi venirmi a chiamare, {{fun_00080005 arg=\"\"}}!{{delay frames=\"20\"}}\nSei {{fun_0006000E arg=\"0x100075006E00200061006D00690063006F00100075006E00270061006D00690063006100\"}}! {{delay frames=\"8\"}}{{fun_0003000E arg=\"\"}}{{fun_00070005 arg=\"\"}}!",
      "JPja": "じゃ、{{delay frames=\"20\"}}オイラは　そろそろ{{ruby charSpan=\"1\" value=\"かえ\"}}帰るよ！{{pageBreak}}{{anim id=\"0\"}}{{fun_0002000C arg=\"\"}}{{fun_0004000C arg=\"\"}}じゃーな　{{fun_00080005 arg=\"\"}}！{{delay frames=\"20\"}}\nわざわざ　{{ruby charSpan=\"1\" value=\"し\"}}知らせに{{ruby charSpan=\"1\" value=\"き\"}}来てくれて\nありがとな、{{delay frames=\"8\"}}{{fun_00070005 arg=\"\"}}",
      "KRko": "그럼{{delay frames=\"20\"}} 난 슬슬 가볼게!{{pageBreak}}{{anim id=\"0\"}}{{fun_0002000C arg=\"\"}}{{fun_0004000C arg=\"\"}}{{fun_00080005 arg=\"\"}}{{fun_000E000E arg=\"0x020044C502007CC5\"}}, 다음에 보자!{{delay frames=\"20\"}}\n나 데리고 왔다 갔다 하느라\n수고했어, {{delay frames=\"8\"}}{{fun_00070005 arg=\"\"}}",
      "USen": "OK, I think we're done here.{{delay frames=\"20\"}} Time\nfor me to make like a tree and get\noutta here!{{pageBreak}}{{anim id=\"0\"}}{{fun_0002000C arg=\"\"}}{{fun_0004000C arg=\"\"}}Thanks for going out of your way to\nget me over here, {{fun_00080005 arg=\"\"}}!{{delay frames=\"20\"}}\nYou're OK! {{delay frames=\"8\"}}{{fun_0003000E arg=\"\"}}{{fun_00070005 arg=\"\"}}!",
      "USes": "Bueno, creo que esto ya no da\nmás de sí,{{delay frames=\"20\"}} así que me voy a dar\nel piro como está mandado.\n{{anim id=\"0\"}}{{fun_0002000C arg=\"\"}}{{fun_0004000C arg=\"\"}}¡Gracias por molestarte en venir\naquí conmigo, {{fun_00080005 arg=\"\"}}!{{delay frames=\"20\"}} ¡Eres\nmuy enrollad{{fun_0006000E arg=\"0x02006F0002006100\"}}, {{delay frames=\"8\"}}{{fun_00070005 arg=\"\"}}!",
      "USfr": "OK, c'est tout ce que tu voulais?{{delay frames=\"20\"}}\nAlors je file!{{pageBreak}}{{anim id=\"0\"}}{{fun_0002000C arg=\"\"}}{{fun_0004000C arg=\"\"}}Merci d'avoir pris la peine de\nm'amener ici, {{fun_00080005 arg=\"\"}}!{{delay frames=\"20\"}}\n{{fun_0003000E arg=\"\"}}{{fun_00070005 arg=\"\"}}!"
    }
  },
  {
    "label": "022",
    "locale": {
      "EUde": "{{anim id=\"0\"}}Okay, {{delay frames=\"40\"}}ich glaub, {{delay frames=\"8\"}}wir sind hier fertig!\n{{delay frames=\"40\"}}Ich mach mich vom Acker!{{pageBreak}}{{fun_0002000C arg=\"\"}}{{fun_0004000C arg=\"\"}}{{delay frames=\"20\"}}{{anim id=\"32\"}}Wir sehen uns dann, Sportsfreunde!",
      "EUen": "{{anim id=\"0\"}}OK, {{delay frames=\"40\"}}looks like we've taken care \nof business, so I'm heading out!{{pageBreak}}{{fun_0002000C arg=\"\"}}{{fun_0004000C arg=\"\"}}{{delay frames=\"20\"}}{{anim id=\"32\"}}I'll see you guys later!",
      "EUes": "{{anim id=\"0\"}}Bueno, {{delay frames=\"40\"}}parece que hemos hecho\nlo que teníamos que hacer,\n¡así que me largo de aquí!{{pageBreak}}{{fun_0002000C arg=\"\"}}{{fun_0004000C arg=\"\"}}{{delay frames=\"20\"}}{{anim id=\"32\"}}¡Ya os veré, campeones!",
      "EUfr": "{{anim id=\"0\"}}OK,{{delay frames=\"40\"}} je crois que je n'ai plus rien à\nfaire ici, alors j'y vais !{{pageBreak}}{{fun_0002000C arg=\"\"}}{{fun_0004000C arg=\"\"}}{{delay frames=\"20\"}}{{anim id=\"32\"}}À plus {{fun_0006000E arg=\"0x10006C006500730020006700610072007300120076006F007500730020006400650075007800\"}} !",
      "EUit": "{{anim id=\"0\"}}OK, {{delay frames=\"40\"}}abbiamo risolto le nostre\nquestioni, quindi posso andarmene!{{pageBreak}}{{fun_0002000C arg=\"\"}}{{fun_0004000C arg=\"\"}}{{delay frames=\"20\"}}{{anim id=\"32\"}}Ci vediamo!",
      "JPja": "{{anim id=\"0\"}}さてと、{{delay frames=\"40\"}}{{ruby charSpan=\"1\" value=\"よう\"}}用もすんだみたいだし{{delay frames=\"20\"}}\nそろそろ　{{ruby charSpan=\"1\" value=\"かえ\"}}帰ろーっと！{{pageBreak}}{{fun_0002000C arg=\"\"}}{{fun_0004000C arg=\"\"}}{{delay frames=\"20\"}}{{anim id=\"32\"}}じゃーな　{{ruby charSpan=\"2\" value=\"ふたり\"}}二人とも！",
      "KRko": "{{anim id=\"0\"}}자!{{delay frames=\"40\"}} 볼일도 끝난 것 같으니{{delay frames=\"20\"}}\n난 이제 가야겠어!{{pageBreak}}{{fun_0002000C arg=\"\"}}{{fun_0004000C arg=\"\"}}{{delay frames=\"20\"}}{{anim id=\"32\"}}둘 다 다음에 또 보자!",
      "USen": "{{anim id=\"0\"}}OK, {{delay frames=\"40\"}}looks like we've taken care \nof business, so I'm heading out!{{pageBreak}}{{fun_0002000C arg=\"\"}}{{fun_0004000C arg=\"\"}}{{delay frames=\"20\"}}{{anim id=\"32\"}}I'll see you guys later!",
      "USes": "{{anim id=\"0\"}}Bueno, {{delay frames=\"40\"}}parece que hemos hecho\nlo que teníamos que hacer,\n¡así que me largo de aquí!{{pageBreak}}{{fun_0002000C arg=\"\"}}{{fun_0004000C arg=\"\"}}{{delay frames=\"20\"}}{{anim id=\"32\"}}¡Ya os veré, campeones!",
      "USfr": "{{anim id=\"0\"}}OK,{{delay frames=\"40\"}} je crois que je n'ai plus rien à\nfaire ici, alors j'y vais!{{pageBreak}}{{fun_0002000C arg=\"\"}}{{fun_0004000C arg=\"\"}}{{delay frames=\"20\"}}{{anim id=\"32\"}}À plus {{fun_0006000E arg=\"0x10006C006500730020006700610072007300120076006F007500730020006400650075007800\"}}!"
    }
  },
  {
    "label": "023",
    "locale": {
      "EUde": "",
      "EUen": "",
      "EUes": "",
      "EUfr": "",
      "EUit": "",
      "JPja": "",
      "KRko": "",
      "USen": "",
      "USes": "",
      "USfr": ""
    }
  }
]