﻿[
  {
    "label": "001",
    "locale": {
      "EUde": "{{anim id=\"9\"}}Herrschaftszeiten.{{fun_00010007 arg=\"\"}}{{anim id=\"0\"}} Hast du nichts\nBesseres zu tun, als ständig um mich\nrumzutanzen, {{fun_00070005 arg=\"\"}}?",
      "EUen": "{{anim id=\"9\"}}All right, you...{{delay frames=\"8\"}} You got some kinda\nproblem or something?{{fun_00010007 arg=\"\"}}{{anim id=\"0\"}} What's your\ndeal, {{delay frames=\"20\"}}{{fun_00000005 arg=\"\"}}? {{fun_0003000E arg=\"\"}}{{fun_00070005 arg=\"\"}}?",
      "EUes": "{{anim id=\"9\"}}Esto...{{delay frames=\"8\"}} menudo careto tienes,\n{{delay frames=\"20\"}}{{fun_00000005 arg=\"\"}}.{{fun_00010007 arg=\"\"}}{{anim id=\"0\"}}\n¿Te pasa algo, {{fun_00070005 arg=\"\"}}?",
      "EUfr": "{{anim id=\"9\"}}Bah alors...{{delay frames=\"8\"}} Y'a un problème ?{{fun_00010007 arg=\"\"}}\n{{anim id=\"0\"}}Qu'est-ce qui t'arrive, {{delay frames=\"20\"}}{{fun_00000005 arg=\"\"}} ?\n{{fun_0003000E arg=\"\"}}{{fun_00070005 arg=\"\"}} ?",
      "EUit": "{{anim id=\"9\"}}Allora, {{fun_00000005 arg=\"\"}}...{{delay frames=\"8\"}} Hai per caso\nun problema? {{fun_00010007 arg=\"\"}}{{anim id=\"0\"}}Tutto a posto,{{delay frames=\"20\"}}\n{{fun_00070005 arg=\"\"}}?",
      "JPja": "{{anim id=\"9\"}}オメェ{{delay frames=\"8\"}}　やけに\nからんでくるじゃねぇか{{fun_00010007 arg=\"\"}}\n{{anim id=\"0\"}}どうした？{{delay frames=\"20\"}}　{{fun_00070005 arg=\"\"}}？",
      "KRko": "{{anim id=\"9\"}}너{{delay frames=\"8\"}} 엄청\n귀찮게 구네?{{fun_00010007 arg=\"\"}}\n{{anim id=\"0\"}}무슨 일인데?{{delay frames=\"20\"}} {{fun_00070005 arg=\"\"}}?",
      "USen": "{{anim id=\"9\"}}All right, you...{{delay frames=\"8\"}} You got some kinda\nproblem or something?{{fun_00010007 arg=\"\"}}{{anim id=\"0\"}} What's your\ndeal, {{delay frames=\"20\"}}{{fun_00000005 arg=\"\"}}? {{fun_0003000E arg=\"\"}}{{fun_00070005 arg=\"\"}}?",
      "USes": "{{anim id=\"9\"}}Esto...{{delay frames=\"8\"}} menudo careto tienes,\n{{delay frames=\"20\"}}{{fun_00000005 arg=\"\"}}.{{fun_00010007 arg=\"\"}}{{anim id=\"0\"}}\n¿Te pasa algo, {{fun_00070005 arg=\"\"}}?",
      "USfr": "{{anim id=\"9\"}}Bah alors...{{delay frames=\"8\"}} Y'a un problème?{{fun_00010007 arg=\"\"}}\n{{anim id=\"0\"}}Qu'est-ce qui t'arrive, {{delay frames=\"20\"}}{{fun_00000005 arg=\"\"}}?\n{{fun_0003000E arg=\"\"}}{{fun_00070005 arg=\"\"}}?"
    }
  },
  {
    "label": "002",
    "locale": {
      "EUde": "{{anim id=\"27\"}}Du schon wieder, {{fun_00000005 arg=\"\"}}...{{delay frames=\"20\"}}\nWas willst du von mir,\n{{fun_00070005 arg=\"\"}}?",
      "EUen": "{{anim id=\"27\"}}Hey, hey, {{fun_00000005 arg=\"\"}}!{{delay frames=\"20\"}}\nWhat could you possibly want from\nme? {{fun_0003000E arg=\"\"}}{{fun_00070005 arg=\"\"}}?",
      "EUes": "{{anim id=\"27\"}}¡Vaya, {{fun_00000005 arg=\"\"}}!{{delay frames=\"20\"}}\nSeguro que vienes a pedirme\nalgo, {{fun_00070005 arg=\"\"}}.",
      "EUfr": "{{anim id=\"27\"}}Regardez qui voilà, {{fun_00000005 arg=\"\"}} !{{delay frames=\"20\"}}\nJe peux t'aider ? {{fun_0003000E arg=\"\"}}{{fun_00070005 arg=\"\"}} ?",
      "EUit": "{{anim id=\"27\"}}Ehi, ehi, {{fun_00000005 arg=\"\"}}!{{delay frames=\"20\"}}\nMa cos'è che vuoi da me,\n{{fun_00070005 arg=\"\"}}?",
      "JPja": "{{anim id=\"27\"}}おいおい、{{fun_00000005 arg=\"\"}}、{{delay frames=\"20\"}}\nオレに　どうしろってんだい？{{delay frames=\"20\"}}\n{{fun_00070005 arg=\"\"}}?",
      "KRko": "{{anim id=\"27\"}}나 이것 참, {{fun_00000005 arg=\"\"}},{{delay frames=\"20\"}}\n나보고 어쩌라구?{{delay frames=\"20\"}}\n{{fun_00070005 arg=\"\"}}?",
      "USen": "{{anim id=\"27\"}}Hey, hey, {{fun_00000005 arg=\"\"}}!{{delay frames=\"20\"}}\nWhat could you possibly want from\nme? {{fun_0003000E arg=\"\"}}{{fun_00070005 arg=\"\"}}?",
      "USes": "{{anim id=\"27\"}}¡Vaya, {{fun_00000005 arg=\"\"}}!{{delay frames=\"20\"}}\nSeguro que vienes a pedirme\nalgo, {{fun_00070005 arg=\"\"}}.",
      "USfr": "{{anim id=\"27\"}}Regardez qui voilà, {{fun_00000005 arg=\"\"}}!{{delay frames=\"20\"}}\nJe peux t'aider? {{fun_0003000E arg=\"\"}}{{fun_00070005 arg=\"\"}}?"
    }
  },
  {
    "label": "003",
    "locale": {
      "EUde": "{{anim id=\"36\"}}Immer schön locker bleiben,\n{{fun_00000005 arg=\"\"}}!{{delay frames=\"20\"}} {{anim id=\"21\"}}Entspann dich{{delay frames=\"8\"}}.{{delay frames=\"8\"}}.{{delay frames=\"8\"}}.{{pageBreak}}{{anim id=\"0\"}}Wo drückt denn der Schuh,\n{{fun_00070005 arg=\"\"}}?",
      "EUen": "{{anim id=\"36\"}}Just take it easy, {{fun_00000005 arg=\"\"}}!{{delay frames=\"20\"}}\n{{anim id=\"21\"}}Deep breaths{{delay frames=\"8\"}}.{{delay frames=\"8\"}}.{{delay frames=\"8\"}}.{{fun_00010007 arg=\"\"}} {{anim id=\"0\"}}OK, {{delay frames=\"20\"}}now tell papa\nwhat the deal is, {{fun_00070005 arg=\"\"}}.",
      "EUes": "{{anim id=\"36\"}}Ja, ja, ja, tranqui, {{fun_00000005 arg=\"\"}},{{delay frames=\"10\"}}\n¡que no muerdo! {{anim id=\"21\"}}Respira hondo{{delay frames=\"8\"}}.{{delay frames=\"8\"}}.{{delay frames=\"8\"}}.{{fun_00010007 arg=\"\"}} {{anim id=\"0\"}}\ny cuéntame qué pasa, {{delay frames=\"10\"}}{{fun_00070005 arg=\"\"}}.",
      "EUfr": "{{anim id=\"36\"}}Faut pas s'énerver, {{fun_00000005 arg=\"\"}}.{{delay frames=\"20\"}}\n{{anim id=\"21\"}}Respire un bon coup{{delay frames=\"8\"}}.{{delay frames=\"8\"}}.{{delay frames=\"8\"}}.{{fun_00010007 arg=\"\"}} {{anim id=\"0\"}}Vas-y, {{delay frames=\"20\"}}\ndis-moi tout, {{fun_00070005 arg=\"\"}}.",
      "EUit": "{{anim id=\"36\"}}Calma, {{fun_00000005 arg=\"\"}}!{{delay frames=\"20\"}} {{anim id=\"21\"}}Fai un respiro\nprofondo{{delay frames=\"8\"}}.{{delay frames=\"8\"}}.{{delay frames=\"8\"}}.{{fun_00010007 arg=\"\"}} {{anim id=\"0\"}}OK, {{delay frames=\"20\"}}ora dimmi cosa ti\ntormenta, {{fun_00070005 arg=\"\"}}.",
      "JPja": "{{anim id=\"36\"}}{{ruby charSpan=\"1\" value=\"お\"}}落ち{{ruby charSpan=\"1\" value=\"つ\"}}着け、{{fun_00000005 arg=\"\"}}！{{delay frames=\"20\"}}\n{{anim id=\"21\"}}まずは{{ruby charSpan=\"3\" value=\"しんこきゅう\"}}深呼吸して{{delay frames=\"8\"}}・{{delay frames=\"8\"}}・{{delay frames=\"8\"}}・{{fun_00010007 arg=\"\"}}\n{{anim id=\"0\"}}よし、{{delay frames=\"20\"}}{{ruby charSpan=\"2\" value=\"ようけん\"}}用件を{{ruby charSpan=\"1\" value=\"い\"}}言ってみな、{{delay frames=\"20\"}}{{fun_00070005 arg=\"\"}}",
      "KRko": "{{anim id=\"36\"}}긴장하지 마, {{fun_00000005 arg=\"\"}}!{{delay frames=\"20\"}}\n{{anim id=\"21\"}}우선 심호흡하고{{delay frames=\"8\"}}・{{delay frames=\"8\"}}・{{delay frames=\"8\"}}・{{fun_00010007 arg=\"\"}}\n{{anim id=\"0\"}}자,{{delay frames=\"20\"}} 용건을 말해봐, {{delay frames=\"20\"}}{{fun_00070005 arg=\"\"}}",
      "USen": "{{anim id=\"36\"}}Just take it easy, {{fun_00000005 arg=\"\"}}!{{delay frames=\"20\"}}\n{{anim id=\"21\"}}Deep breaths{{delay frames=\"8\"}}.{{delay frames=\"8\"}}.{{delay frames=\"8\"}}.{{fun_00010007 arg=\"\"}} {{anim id=\"0\"}}OK, {{delay frames=\"20\"}}now tell papa\nwhat the deal is, {{fun_00070005 arg=\"\"}}.",
      "USes": "{{anim id=\"36\"}}Ja, ja, ja, tranqui, {{fun_00000005 arg=\"\"}},{{delay frames=\"10\"}}\n¡que no muerdo! {{anim id=\"21\"}}Respira hondo{{delay frames=\"8\"}}.{{delay frames=\"8\"}}.{{delay frames=\"8\"}}.{{fun_00010007 arg=\"\"}} {{anim id=\"0\"}}\ny cuéntame qué pasa, {{delay frames=\"10\"}}{{fun_00070005 arg=\"\"}}.",
      "USfr": "{{anim id=\"36\"}}Faut pas s'énerver, {{fun_00000005 arg=\"\"}}.{{delay frames=\"20\"}}\n{{anim id=\"21\"}}Respire un bon coup{{delay frames=\"8\"}}.{{delay frames=\"8\"}}.{{delay frames=\"8\"}}.{{fun_00010007 arg=\"\"}} {{anim id=\"0\"}}Vas-y, {{delay frames=\"20\"}}\ndis-moi tout, {{fun_00070005 arg=\"\"}}."
    }
  }
]