﻿[
  {
    "label": "001",
    "locale": {
      "EUde": "{{anim id=\"6\"}}Morgen, {{delay frames=\"8\"}}{{fun_00080005 arg=\"\"}}!{{delay frames=\"20\"}} {{anim id=\"0\"}}\nMannomann, es ist stockdunkel!\n{{delay frames=\"8\"}}Wie spät ist es denn nun?\n{{anim id=\"27\"}}{{color id=\"2\"}}Mittwinter {{color id=\"65535\"}}macht mich immer\nganz kirre, {{delay frames=\"20\"}}{{fun_00070005 arg=\"\"}}.",
      "EUen": "{{anim id=\"32\"}}Hey, {{delay frames=\"8\"}}{{fun_00080005 arg=\"\"}}!{{delay frames=\"20\"}} {{anim id=\"0\"}}It's pitch black,\n{{anim id=\"23\"}}{{delay frames=\"8\"}}so can it really be daybreak now?{{pageBreak}}{{anim id=\"9\"}}The {{color id=\"2\"}}Winter Solstice{{color id=\"65535\"}} is so weird!{{delay frames=\"20\"}}\n{{anim id=\"6\"}}What's its agenda?! {{fun_0003000E arg=\"\"}}{{fun_00070005 arg=\"\"}}!",
      "EUes": "{{anim id=\"32\"}}¡Buenos días, {{delay frames=\"8\"}}{{fun_00080005 arg=\"\"}}!{{delay frames=\"20\"}} {{anim id=\"0\"}}Aunque\nes difícil ver algo bueno si no se ve\nni torta. {{anim id=\"23\"}}{{delay frames=\"8\"}}¿No, {{delay frames=\"10\"}}{{fun_00070005 arg=\"\"}}?\n{{anim id=\"40\"}}Esto del solsticio de invierno\nes un rollo que no veas.",
      "EUfr": "{{anim id=\"32\"}}Bonjour, {{delay frames=\"8\"}}{{fun_00080005 arg=\"\"}}.{{delay frames=\"20\"}} {{anim id=\"0\"}}Dire qu'il va\nfaire sombre comme ça TOUTE la\njournée... Pff, ça promet.\n{{anim id=\"23\"}}{{delay frames=\"8\"}}Comment tu fais pour garder le\nmoral au solstice d'hiver ? Moi ça\nm'achève, {{delay frames=\"20\"}}{{fun_0003000E arg=\"\"}}{{fun_00070005 arg=\"\"}}.",
      "EUit": "{{anim id=\"32\"}}Ehi, {{delay frames=\"8\"}}{{fun_00080005 arg=\"\"}}!{{delay frames=\"20\"}}{{anim id=\"0\"}}\nHai visto che buio?{{anim id=\"23\"}}{{delay frames=\"8\"}} Eppure è ancora\nmattino...{{pageBreak}}Questo solstizio d'inverno è strano\nsul serio! {{delay frames=\"20\"}}{{fun_0003000E arg=\"\"}}{{fun_00070005 arg=\"\"}}!",
      "JPja": "{{anim id=\"32\"}}おう、{{delay frames=\"8\"}}{{fun_00080005 arg=\"\"}}！{{delay frames=\"20\"}}\n{{anim id=\"0\"}}{{ruby charSpan=\"1\" value=\"ま\"}}真っ{{ruby charSpan=\"1\" value=\"くら\"}}暗なんだが、{{anim id=\"23\"}}{{delay frames=\"8\"}}ホントに{{ruby charSpan=\"1\" value=\"あさ\"}}朝なのか？{{pageBreak}}{{ruby charSpan=\"2\" value=\"とうじ\"}}冬至って{{delay frames=\"8\"}}　{{ruby charSpan=\"3\" value=\"ふしぎ\"}}不思議だよな～！{{delay frames=\"20\"}}　{{fun_00070005 arg=\"\"}}！",
      "KRko": "{{anim id=\"32\"}}오호, {{delay frames=\"8\"}}{{fun_00080005 arg=\"\"}}!{{delay frames=\"20\"}}\n{{anim id=\"0\"}}이렇게 컴컴한데, {{anim id=\"23\"}}{{delay frames=\"8\"}}정말 아침인가?{{pageBreak}}동지란 거{{delay frames=\"8\"}} 짱 신기하다～!{{delay frames=\"20\"}} {{fun_00070005 arg=\"\"}}!",
      "USen": "{{anim id=\"32\"}}Hey, {{delay frames=\"8\"}}{{fun_00080005 arg=\"\"}}!{{delay frames=\"20\"}} {{anim id=\"0\"}}It's pitch black,\n{{anim id=\"23\"}}{{delay frames=\"8\"}}so can it really be daybreak now?{{pageBreak}}{{anim id=\"9\"}}The {{color id=\"2\"}}Winter Solstice{{color id=\"65535\"}} is so weird!{{delay frames=\"20\"}}\n{{anim id=\"6\"}}What's its agenda?! {{fun_0003000E arg=\"\"}}{{fun_00070005 arg=\"\"}}!",
      "USes": "{{anim id=\"32\"}}¡Buenos días, {{delay frames=\"8\"}}{{fun_00080005 arg=\"\"}}!{{delay frames=\"20\"}} {{anim id=\"0\"}}Aunque\nes difícil ver algo bueno si no se ve\nni torta. {{anim id=\"23\"}}{{delay frames=\"8\"}}¿No, {{delay frames=\"10\"}}{{fun_00070005 arg=\"\"}}?\n{{anim id=\"40\"}}Esto del solsticio de invierno\nes un rollo que no veas.",
      "USfr": "{{anim id=\"32\"}}Bonjour, {{delay frames=\"8\"}}{{fun_00080005 arg=\"\"}}.{{delay frames=\"20\"}} {{anim id=\"0\"}}Dire qu'il va\nfaire sombre comme ça TOUTE la\njournée... Pff, ça promet.\n{{anim id=\"23\"}}{{delay frames=\"8\"}}Comment tu fais pour garder le\nmoral au solstice d'hiver? Moi ça\nm'achève, {{delay frames=\"20\"}}{{fun_0003000E arg=\"\"}}{{fun_00070005 arg=\"\"}}."
    }
  },
  {
    "label": "002",
    "locale": {
      "EUde": "{{anim id=\"15\"}}He! {{delay frames=\"15\"}}{{fun_0003000E arg=\"\"}}{{fun_00080005 arg=\"\"}}?{{delay frames=\"20\"}}\n{{anim id=\"6\"}}Was streunst du hier mitten\nin der Nacht herum?!\n{{anim id=\"0\"}}Oh! {{delay frames=\"10\"}}Es ist schon {{anim id=\"16\"}}{{fun_00030004 arg=\"\"}}:{{fun_00040004 arg=\"\"}} Uhr!{{delay frames=\"15\"}}\n{{anim id=\"36\"}}Ich dachte, es wäre schon wieder\nSchlafenszeit.{{delay frames=\"20\"}}{{anim id=\"2\"}} {{fun_0003000E arg=\"\"}}{{fun_00070005 arg=\"\"}}!{{delay frames=\"30\"}}{{anim id=\"37\"}}",
      "EUen": "{{anim id=\"15\"}}Huh? {{fun_0003000E arg=\"\"}}{{delay frames=\"15\"}}{{fun_00080005 arg=\"\"}}?{{delay frames=\"20\"}}\n{{anim id=\"6\"}}What are you doing here in the\nmiddle of the night{{delay frames=\"8\"}}.{{delay frames=\"8\"}}.{{delay frames=\"8\"}}.{{delay frames=\"20\"}}?\n{{anim id=\"0\"}}Oh! Hey, it's{{delay frames=\"8\"}}{{anim id=\"16\"}} {{delay frames=\"8\"}}{{fun_00030004 arg=\"\"}}:{{fun_00040004 arg=\"\"}}!{{delay frames=\"15\"}}{{anim id=\"36\"}} But it's so\ndark, {{delay frames=\"8\"}}I can't tell if it's day or night!\n{{delay frames=\"20\"}}{{anim id=\"2\"}}GAHAHA!{{delay frames=\"30\"}}{{anim id=\"37\"}} {{fun_0003000E arg=\"\"}}{{fun_00070005 arg=\"\"}}!",
      "EUes": "{{anim id=\"15\"}}¿Eh? ¿{{delay frames=\"15\"}}{{fun_00080005 arg=\"\"}}?{{delay frames=\"20\"}}\n{{anim id=\"6\"}}¿Qué haces aquí en plena\nnoche, {{fun_00070005 arg=\"\"}}?{{pageBreak}}{{anim id=\"0\"}}¿Qué hora dices que es?\n{{anim id=\"16\"}}¿{{fun_00030004 arg=\"\"}}:{{fun_00040004 arg=\"\"}}?{{pageBreak}}{{anim id=\"36\"}}Caramba,{{delay frames=\"8\"}} está todo tan oscuro{{delay frames=\"8\"}}\nque no sé si es por la mañana\no por la noche. {{delay frames=\"20\"}}{{anim id=\"2\"}}¡Ja, ja, ja!{{delay frames=\"30\"}}{{anim id=\"37\"}}",
      "EUfr": "{{anim id=\"15\"}}{{fun_0003000E arg=\"\"}}{{delay frames=\"15\"}}{{fun_00080005 arg=\"\"}} ?{{delay frames=\"20\"}}\n{{anim id=\"6\"}}Tu ne devrais pas être couché{{fun_0006000E arg=\"0x000002006500\"}} à\nl'heure qu'il est, {{fun_00070005 arg=\"\"}} ?\n{{delay frames=\"8\"}}{{anim id=\"16\"}}{{fun_00030004 arg=\"\"}} h {{fun_00040004 arg=\"\"}} ?!{{delay frames=\"15\"}}{{anim id=\"36\"}} C'est vrai, c'est le\nmatin. M'en veux pas, j'ai la tête à\nl'envers. Du soleil siouplaît...",
      "EUit": "{{anim id=\"15\"}}Sei tu, {{fun_0003000E arg=\"\"}}{{delay frames=\"15\"}}{{fun_00080005 arg=\"\"}}?!{{delay frames=\"20\"}}\n{{anim id=\"6\"}}Cosa stai facendo in giro a\nquest'ora di notte{{delay frames=\"8\"}}.{{delay frames=\"8\"}}.{{delay frames=\"8\"}}.{{delay frames=\"20\"}}?!\n{{anim id=\"0\"}}Che ore sono?{{delay frames=\"8\"}}{{anim id=\"16\"}} {{delay frames=\"8\"}}{{fun_00030004 arg=\"\"}}:{{fun_00040004 arg=\"\"}}?!?!{{delay frames=\"15\"}} {{anim id=\"36\"}}Con\nquesto buio{{delay frames=\"8\"}} non so più se è giorno\no notte! {{delay frames=\"20\"}}{{anim id=\"2\"}}AHAHAH!{{delay frames=\"30\"}}{{anim id=\"37\"}} {{fun_0003000E arg=\"\"}}{{fun_00070005 arg=\"\"}}!",
      "JPja": "{{anim id=\"15\"}}ん？{{delay frames=\"15\"}}　{{fun_00080005 arg=\"\"}}か？{{delay frames=\"20\"}}\n{{anim id=\"6\"}}なんだよ　こんな{{ruby charSpan=\"2\" value=\"よなか\"}}夜中に{{delay frames=\"8\"}}・{{delay frames=\"8\"}}・{{delay frames=\"8\"}}・{{delay frames=\"20\"}}\n{{anim id=\"0\"}}って、{{delay frames=\"8\"}}{{anim id=\"16\"}}もう{{delay frames=\"8\"}}　{{fun_00030004 arg=\"\"}}{{ruby charSpan=\"1\" value=\"じ\"}}時{{fun_00040004 arg=\"\"}}{{fun_000B000E arg=\"\"}}か！{{delay frames=\"15\"}}\n{{anim id=\"36\"}}{{ruby charSpan=\"1\" value=\"くれ\"}}暗ぇから、{{delay frames=\"8\"}}{{ruby charSpan=\"1\" value=\"ひる\"}}昼か{{ruby charSpan=\"1\" value=\"よる\"}}夜か\n{{ruby charSpan=\"2\" value=\"ぜんぜん\"}}全然　わかんねぇな！{{delay frames=\"20\"}}\n{{anim id=\"2\"}}がーっはっは！{{delay frames=\"30\"}}　{{anim id=\"37\"}}{{fun_00070005 arg=\"\"}}！",
      "KRko": "{{anim id=\"15\"}}응?{{delay frames=\"15\"}} {{fun_00080005 arg=\"\"}}{{fun_000E000E arg=\"0x020074C70000\"}}냐?{{delay frames=\"20\"}}\n{{anim id=\"6\"}}뭐야 이런 밤중에{{delay frames=\"8\"}}・{{delay frames=\"8\"}}・{{delay frames=\"8\"}}・{{delay frames=\"20\"}}\n{{anim id=\"0\"}}아니! {{delay frames=\"8\"}}{{anim id=\"16\"}}벌써{{delay frames=\"8\"}} {{fun_00030004 arg=\"\"}}시 {{fun_00040004 arg=\"\"}}분이야?!{{delay frames=\"15\"}}\n{{anim id=\"36\"}}어두우니까 {{delay frames=\"8\"}}밤인지 낮인지\n전혀 분간이 안 되는구만!{{delay frames=\"20\"}}\n{{anim id=\"2\"}}으ー하하핫!{{delay frames=\"30\"}} {{anim id=\"37\"}}{{fun_00070005 arg=\"\"}}!",
      "USen": "{{anim id=\"15\"}}Huh? {{fun_0003000E arg=\"\"}}{{delay frames=\"15\"}}{{fun_00080005 arg=\"\"}}?{{delay frames=\"20\"}}\n{{anim id=\"6\"}}What are you doing here in the\nmiddle of the night{{delay frames=\"8\"}}.{{delay frames=\"8\"}}.{{delay frames=\"8\"}}.{{delay frames=\"20\"}}?\n{{anim id=\"0\"}}Oh! Hey, it's{{delay frames=\"8\"}}{{anim id=\"16\"}} {{delay frames=\"8\"}}{{fun_00030004 arg=\"\"}}:{{fun_00040004 arg=\"\"}}!{{delay frames=\"15\"}}{{anim id=\"36\"}} But it's so\ndark, {{delay frames=\"8\"}}I can't tell if it's day or night!\n{{delay frames=\"20\"}}{{anim id=\"2\"}}GAHAHA!{{delay frames=\"30\"}}{{anim id=\"37\"}} {{fun_0003000E arg=\"\"}}{{fun_00070005 arg=\"\"}}!",
      "USes": "{{anim id=\"15\"}}¿Eh? ¿{{delay frames=\"15\"}}{{fun_00080005 arg=\"\"}}?{{delay frames=\"20\"}}\n{{anim id=\"6\"}}¿Qué haces aquí en plena\nnoche, {{fun_00070005 arg=\"\"}}?{{pageBreak}}{{anim id=\"0\"}}¿Qué hora dices que es?\n{{anim id=\"16\"}}¿{{fun_00030004 arg=\"\"}}:{{fun_00040004 arg=\"\"}}?{{pageBreak}}{{anim id=\"36\"}}Caramba,{{delay frames=\"8\"}} está todo tan oscuro{{delay frames=\"8\"}}\nque no sé si es por la mañana\no por la noche. {{delay frames=\"20\"}}{{anim id=\"2\"}}¡Ja, ja, ja!{{delay frames=\"30\"}}{{anim id=\"37\"}}",
      "USfr": "{{anim id=\"15\"}}{{fun_0003000E arg=\"\"}}{{delay frames=\"15\"}}{{fun_00080005 arg=\"\"}}?{{delay frames=\"20\"}}\n{{anim id=\"6\"}}Tu ne devrais pas être couché{{fun_0006000E arg=\"0x000002006500\"}} à\nl'heure qu'il est, {{fun_00070005 arg=\"\"}}?\n{{delay frames=\"8\"}}{{anim id=\"16\"}}{{fun_00030004 arg=\"\"}} h {{fun_00040004 arg=\"\"}}?!{{delay frames=\"15\"}}{{anim id=\"36\"}} C'est vrai, c'est le\nmatin. M'en veux pas, j'ai la tête à\nl'envers. Du soleil siouplaît..."
    }
  },
  {
    "label": "003",
    "locale": {
      "EUde": "Morgen, {{delay frames=\"8\"}}{{fun_00080005 arg=\"\"}}.{{delay frames=\"20\"}}\nAlles frisch, {{fun_00070005 arg=\"\"}}?{{pageBreak}}{{anim id=\"36\"}}Hab mich eben gefragt, wann die\nSonne endlich aufgeht,{{delay frames=\"20\"}} aber dann ist\nmir eingefallen, dass {{color id=\"2\"}}Mittwinter {{color id=\"65535\"}}ist!",
      "EUen": "Hey, {{delay frames=\"8\"}}{{fun_00080005 arg=\"\"}}!{{delay frames=\"8\"}} {{fun_0003000E arg=\"\"}}{{fun_00070005 arg=\"\"}}!{{pageBreak}}{{anim id=\"36\"}}I was wondering if it was ever going\nto get light again.{{delay frames=\"20\"}} {{anim id=\"1\"}}Then I realized\nit's just the {{color id=\"2\"}}Winter Solstice{{color id=\"65535\"}}!",
      "EUes": "¡Hola, {{delay frames=\"8\"}}{{fun_00080005 arg=\"\"}}!{{delay frames=\"8\"}} ¡{{fun_0003000E arg=\"\"}}{{fun_00070005 arg=\"\"}}!{{pageBreak}}{{anim id=\"36\"}}Estaba esperando el amanecer{{delay frames=\"8\"}}.{{delay frames=\"8\"}}.{{delay frames=\"8\"}}.{{delay frames=\"8\"}}\n{{anim id=\"1\"}}¡hasta que me he dado cuenta de\nque hoy es el solsticio de invierno!",
      "EUfr": "{{delay frames=\"8\"}}{{fun_0003000E arg=\"\"}}{{fun_00080005 arg=\"\"}} !{{delay frames=\"8\"}} {{fun_0003000E arg=\"\"}}{{fun_00070005 arg=\"\"}} !{{pageBreak}}{{anim id=\"36\"}}Je voulais assister au lever du soleil\net puis je me suis rappelé...{{anim id=\"12\"}} que\nc'était le solstice d'hiver.",
      "EUit": "Ehi, {{delay frames=\"8\"}}{{fun_00080005 arg=\"\"}}!{{delay frames=\"8\"}} {{fun_0003000E arg=\"\"}}{{fun_00070005 arg=\"\"}}!{{pageBreak}}{{anim id=\"36\"}}Ero lì ad aspettare che il sole si\nfacesse vivo.{{delay frames=\"20\"}} {{anim id=\"1\"}}Poi mi sono ricordato\nche oggi è il {{color id=\"2\"}}solstizio d'inverno{{color id=\"65535\"}}!",
      "JPja": "おう、{{delay frames=\"8\"}}{{fun_00080005 arg=\"\"}}！{{pageBreak}}{{anim id=\"36\"}}いつまでたっても\n{{ruby charSpan=\"1\" value=\"あか\"}}明るくならねぇと{{ruby charSpan=\"1\" value=\"おも\"}}思ったら、{{delay frames=\"20\"}}\n{{anim id=\"1\"}}{{ruby charSpan=\"2\" value=\"きょう\"}}今日は　{{ruby charSpan=\"2\" value=\"とうじ\"}}冬至なんだな？！{{delay frames=\"20\"}}　{{fun_00070005 arg=\"\"}}！",
      "KRko": "어이, {{delay frames=\"8\"}}{{fun_00080005 arg=\"\"}}!{{pageBreak}}{{anim id=\"36\"}}아무리 지나도\n날이 밝지 않는다 싶더니{{delay frames=\"20\"}}\n{{anim id=\"1\"}}오늘이 동지였지?!{{delay frames=\"20\"}} {{fun_00070005 arg=\"\"}}!",
      "USen": "Hey, {{delay frames=\"8\"}}{{fun_00080005 arg=\"\"}}!{{delay frames=\"8\"}} {{fun_0003000E arg=\"\"}}{{fun_00070005 arg=\"\"}}!{{pageBreak}}{{anim id=\"36\"}}I was wondering if it was ever going\nto get light again.{{delay frames=\"20\"}} {{anim id=\"1\"}}Then I realized\nit's just the {{color id=\"2\"}}Winter Solstice{{color id=\"65535\"}}!",
      "USes": "¡Hola, {{delay frames=\"8\"}}{{fun_00080005 arg=\"\"}}!{{delay frames=\"8\"}} ¡{{fun_0003000E arg=\"\"}}{{fun_00070005 arg=\"\"}}!{{pageBreak}}{{anim id=\"36\"}}Estaba esperando el amanecer{{delay frames=\"8\"}}.{{delay frames=\"8\"}}.{{delay frames=\"8\"}}.{{delay frames=\"8\"}}\n{{anim id=\"1\"}}¡hasta que me he dado cuenta de\nque hoy es el solsticio de invierno!",
      "USfr": "{{delay frames=\"8\"}}{{fun_0003000E arg=\"\"}}{{fun_00080005 arg=\"\"}}!{{delay frames=\"8\"}} {{fun_0003000E arg=\"\"}}{{fun_00070005 arg=\"\"}}!{{pageBreak}}{{anim id=\"36\"}}Je voulais assister au lever du soleil\net puis je me suis rappelé...{{anim id=\"12\"}} que\nc'était le solstice d'hiver."
    }
  },
  {
    "label": "004",
    "locale": {
      "EUde": "{{anim id=\"32\"}}Mannomann,{{delay frames=\"10\"}} {{fun_00080005 arg=\"\"}}.{{delay frames=\"20\"}}\nGanz schön dunkel heute,\n{{fun_00070005 arg=\"\"}}.\n{{anim id=\"0\"}}Denk mal nach: {{delay frames=\"10\"}}Wenn immer\n{{color id=\"2\"}}Mittwinter {{color id=\"65535\"}}wäre, {{delay frames=\"15\"}}{{anim id=\"27\"}}dann würde hier\nbald kein Hälmchen mehr wachsen.",
      "EUen": "{{anim id=\"32\"}}Yo, {{fun_00080005 arg=\"\"}}!{{fun_00010007 arg=\"\"}}\n{{anim id=\"1\"}}It's daytime, {{delay frames=\"8\"}}but it's still totally\ndark outside, {{fun_00070005 arg=\"\"}}!\n{{anim id=\"0\"}}It's like the sun just{{delay frames=\"15\"}} {{anim id=\"27\"}}takes the day\noff for the {{color id=\"2\"}}Winter Solstice{{color id=\"65535\"}}. Lazy!",
      "EUes": "{{anim id=\"32\"}}¡Buenas, {{fun_00080005 arg=\"\"}}!{{fun_00010007 arg=\"\"}}\n{{anim id=\"1\"}}Es de día, {{delay frames=\"8\"}}pero está todo muy\noscuro, {{fun_00070005 arg=\"\"}}.\n{{anim id=\"0\"}}¡Parece que el sol{{delay frames=\"15\"}} se pira de\nvacaciones{{anim id=\"27\"}} durante el solsticio\nde invierno!",
      "EUfr": "{{anim id=\"32\"}}Salut, {{fun_00080005 arg=\"\"}}.{{fun_00010007 arg=\"\"}}\n{{anim id=\"0\"}}Eh oui, il fait nuit en plein jour,\n{{fun_00070005 arg=\"\"}}.\nTous les ans à la même date,{{delay frames=\"15\"}}{{anim id=\"27\"}} le\nsoleil nous fait faux bond ! Quel\ngros fainéant !!!",
      "EUit": "{{anim id=\"32\"}}Ehi, {{fun_00080005 arg=\"\"}}!{{fun_00010007 arg=\"\"}}\n{{anim id=\"1\"}}Ormai è pieno giorno, {{delay frames=\"8\"}}ma fa ancora\nbuio, {{fun_00070005 arg=\"\"}}!\n{{anim id=\"0\"}}È come se il sole si fosse preso un\ngiorno di vacanza per il solstizio\nd'inverno.{{delay frames=\"15\"}} {{anim id=\"27\"}}Se la prende comoda, eh?",
      "JPja": "{{anim id=\"32\"}}よう、{{fun_00080005 arg=\"\"}}！{{fun_00010007 arg=\"\"}}\n{{anim id=\"1\"}}もう{{ruby charSpan=\"2\" value=\"ひるま\"}}昼間だってぇのに{{delay frames=\"8\"}}\n{{ruby charSpan=\"2\" value=\"あいか\"}}相変わらず　{{ruby charSpan=\"1\" value=\"ま\"}}真っ{{ruby charSpan=\"1\" value=\"くら\"}}暗だな！{{delay frames=\"20\"}}　{{fun_00070005 arg=\"\"}}！\n{{anim id=\"0\"}}{{ruby charSpan=\"2\" value=\"とうじ\"}}冬至の{{ruby charSpan=\"1\" value=\"ひ\"}}日の　お{{ruby charSpan=\"3\" value=\"てんとさま\"}}天道様は、{{delay frames=\"15\"}}\n{{anim id=\"27\"}}どこで　サボってんだろうねぇ？",
      "KRko": "{{anim id=\"32\"}}오호, {{fun_00080005 arg=\"\"}}!{{fun_00010007 arg=\"\"}}\n{{anim id=\"1\"}}날이 시작된 게 언젠데{{delay frames=\"8\"}}\n여전히 새까맣구만!{{delay frames=\"20\"}} {{fun_00070005 arg=\"\"}}!\n{{anim id=\"0\"}}동짓날의 해님은{{delay frames=\"15\"}}\n{{anim id=\"27\"}}어디서 농땡이 피우는 걸까?",
      "USen": "{{anim id=\"32\"}}Yo, {{fun_00080005 arg=\"\"}}!{{fun_00010007 arg=\"\"}}\n{{anim id=\"1\"}}It's daytime, {{delay frames=\"8\"}}but it's still totally\ndark outside, {{fun_00070005 arg=\"\"}}!\n{{anim id=\"0\"}}It's like the sun just{{delay frames=\"15\"}} {{anim id=\"27\"}}takes the day\noff for the {{color id=\"2\"}}Winter Solstice{{color id=\"65535\"}}. Lazy!",
      "USes": "{{anim id=\"32\"}}¡Buenas, {{fun_00080005 arg=\"\"}}!{{fun_00010007 arg=\"\"}}\n{{anim id=\"1\"}}Es de día, {{delay frames=\"8\"}}pero está todo muy\noscuro, {{fun_00070005 arg=\"\"}}.\n{{anim id=\"0\"}}¡Parece que el sol{{delay frames=\"15\"}} se pira de\nvacaciones{{anim id=\"27\"}} durante el solsticio\nde invierno!",
      "USfr": "{{anim id=\"32\"}}Salut, {{fun_00080005 arg=\"\"}}.{{fun_00010007 arg=\"\"}}\n{{anim id=\"0\"}}Eh oui, il fait nuit en plein jour,\n{{fun_00070005 arg=\"\"}}.\nTous les ans à la même date,{{delay frames=\"15\"}}{{anim id=\"27\"}} le\nsoleil nous fait faux bond! Quel\ngros fainéant!!!"
    }
  },
  {
    "label": "005",
    "locale": {
      "EUde": "{{anim id=\"32\"}}Tach, {{fun_00080005 arg=\"\"}}!{{fun_00010007 arg=\"\"}} {{anim id=\"37\"}}Wundere dich\nnicht, dass es heute so dunkel ist...\n{{delay frames=\"15\"}}Es ist {{color id=\"2\"}}Mittwinter{{color id=\"65535\"}}, {{delay frames=\"20\"}}{{fun_00070005 arg=\"\"}}!",
      "EUen": "{{anim id=\"32\"}}Hey, {{fun_00080005 arg=\"\"}}!{{fun_00010007 arg=\"\"}}\n{{anim id=\"37\"}}It's the {{color id=\"2\"}}Winter Solstice{{color id=\"65535\"}},{{delay frames=\"15\"}} so it's dark,\neven in the daytime! {{fun_0003000E arg=\"\"}}{{delay frames=\"20\"}}{{fun_00070005 arg=\"\"}}!",
      "EUes": "{{anim id=\"32\"}}¡Hola, {{fun_00080005 arg=\"\"}}! {{delay frames=\"20\"}}¡{{fun_0003000E arg=\"\"}}{{fun_00070005 arg=\"\"}}!{{fun_00010007 arg=\"\"}}\n{{anim id=\"37\"}}Hoy es el solsticio de invierno:{{delay frames=\"15\"}}\nnos quedamos sin sol todo el día.",
      "EUfr": "{{anim id=\"32\"}}Salut, {{fun_00080005 arg=\"\"}} !{{fun_00010007 arg=\"\"}}\n{{anim id=\"6\"}}Il fait nuit en plein jour, c'est le\nmonde à l'envers, {{fun_00070005 arg=\"\"}} !{{delay frames=\"15\"}}{{anim id=\"0\"}}\nMais on n'y peut rien, pas vrai ?",
      "EUit": "{{anim id=\"32\"}}Ehi, {{fun_00080005 arg=\"\"}}!{{fun_00010007 arg=\"\"}} {{anim id=\"37\"}}Oggi è il {{color id=\"2\"}}solstizio\nd'inverno{{color id=\"65535\"}},{{delay frames=\"15\"}} per cui è buio\ntutto il giorno!{{delay frames=\"20\"}} {{fun_0003000E arg=\"\"}}{{fun_00070005 arg=\"\"}}!",
      "JPja": "{{anim id=\"32\"}}おう、{{fun_00080005 arg=\"\"}}！{{fun_00010007 arg=\"\"}}\n{{anim id=\"37\"}}{{ruby charSpan=\"2\" value=\"きょう\"}}今日は　{{ruby charSpan=\"2\" value=\"とうじ\"}}冬至だから{{delay frames=\"15\"}}\n{{ruby charSpan=\"2\" value=\"ひるま\"}}昼間なのに　{{ruby charSpan=\"1\" value=\"ま\"}}真っ{{ruby charSpan=\"1\" value=\"くら\"}}暗だな！{{delay frames=\"20\"}}　{{fun_00070005 arg=\"\"}}！",
      "KRko": "{{anim id=\"32\"}}오호, {{fun_00080005 arg=\"\"}}!{{fun_00010007 arg=\"\"}}\n{{anim id=\"37\"}}오늘은 동지라서{{delay frames=\"15\"}}\n낮인데도 컴컴하다구!{{delay frames=\"20\"}} {{fun_00070005 arg=\"\"}}!",
      "USen": "{{anim id=\"32\"}}Hey, {{fun_00080005 arg=\"\"}}!{{fun_00010007 arg=\"\"}}\n{{anim id=\"37\"}}It's the {{color id=\"2\"}}Winter Solstice{{color id=\"65535\"}},{{delay frames=\"15\"}} so it's dark,\neven in the daytime! {{fun_0003000E arg=\"\"}}{{delay frames=\"20\"}}{{fun_00070005 arg=\"\"}}!",
      "USes": "{{anim id=\"32\"}}¡Hola, {{fun_00080005 arg=\"\"}}! {{delay frames=\"20\"}}¡{{fun_0003000E arg=\"\"}}{{fun_00070005 arg=\"\"}}!{{fun_00010007 arg=\"\"}}\n{{anim id=\"37\"}}Hoy es el solsticio de invierno:{{delay frames=\"15\"}}\nnos quedamos sin sol todo el día.",
      "USfr": "{{anim id=\"32\"}}Salut, {{fun_00080005 arg=\"\"}}!{{fun_00010007 arg=\"\"}}\n{{anim id=\"6\"}}Il fait nuit en plein jour, c'est le\nmonde à l'envers, {{fun_00070005 arg=\"\"}}!{{delay frames=\"15\"}}{{anim id=\"0\"}}\nMais on n'y peut rien, pas vrai?"
    }
  },
  {
    "label": "006",
    "locale": {
      "EUde": "{{anim id=\"21\"}}Tagchen, {{fun_00080005 arg=\"\"}}!{{delay frames=\"10\"}}\nSieh dir das an, wir haben mal\nwieder {{color id=\"2\"}}Mittwinter{{color id=\"65535\"}}, {{fun_00070005 arg=\"\"}}.\n{{anim id=\"6\"}}Es ist den ganzen Tag lang Nacht!{{delay frames=\"20\"}}\nUnd das tagsüber!{{fun_00010007 arg=\"\"}}{{anim id=\"2\"}}{{fun_000A0007 arg=\"\"}} BWA HA HA! {{delay frames=\"20\"}}{{anim id=\"0\"}}\n{{fun_0003000E arg=\"\"}}{{fun_00070005 arg=\"\"}}.",
      "EUen": "{{anim id=\"1\"}}Yo, {{fun_00080005 arg=\"\"}}!{{delay frames=\"8\"}} {{fun_0003000E arg=\"\"}}{{fun_00070005 arg=\"\"}}!{{fun_00010007 arg=\"\"}}\nThe {{color id=\"2\"}}Winter Solstice{{color id=\"65535\"}} is crazy.{{delay frames=\"30\"}} It's\ndark,{{delay frames=\"20\"}} but it's daytime!\n{{anim id=\"9\"}}Have you ever seen anything so\nbackwards before?{{delay frames=\"16\"}} {{anim id=\"2\"}}GAHAHA!{{delay frames=\"30\"}}{{anim id=\"37\"}}",
      "EUes": "{{anim id=\"1\"}}¡Anda, {{fun_00080005 arg=\"\"}}!{{delay frames=\"8\"}} ¡{{fun_0003000E arg=\"\"}}{{fun_00070005 arg=\"\"}}!{{pageBreak}}Esto del solsticio de invierno es\nun follón:{{delay frames=\"30\"}} es de día,{{delay frames=\"10\"}} pero está\ntodo oscuro.{{anim id=\"2\"}} ¡Ja, ja, ja!{{delay frames=\"30\"}}{{anim id=\"37\"}}",
      "EUfr": "{{anim id=\"1\"}}{{fun_0003000E arg=\"\"}}{{fun_00080005 arg=\"\"}} !{{delay frames=\"8\"}} {{fun_0003000E arg=\"\"}}{{fun_00070005 arg=\"\"}} !{{fun_00010007 arg=\"\"}}\nC'est fou quand on y pense,{{delay frames=\"30\"}} il fait\nnuit{{delay frames=\"20\"}} en plein jour !\n{{anim id=\"2\"}}Ce solstice d'hiver, quel farceur !\nHA HA HA !{{delay frames=\"30\"}}{{anim id=\"37\"}} Bah, il vaut mieux en\nrire qu'en pleurer !",
      "EUit": "{{anim id=\"1\"}}Ehi tu, {{fun_00080005 arg=\"\"}}!{{delay frames=\"8\"}} {{fun_0003000E arg=\"\"}}{{fun_00070005 arg=\"\"}}!{{fun_00010007 arg=\"\"}}\nIl solstizio d'inverno è da delirio.{{delay frames=\"30\"}}\nSembra notte,{{delay frames=\"20\"}} ma è giorno!{{anim id=\"2\"}} AHAH!{{delay frames=\"30\"}}{{anim id=\"37\"}}",
      "JPja": "{{anim id=\"1\"}}よう、{{fun_00080005 arg=\"\"}}！{{fun_00010007 arg=\"\"}}\n{{ruby charSpan=\"2\" value=\"とうじ\"}}冬至の{{ruby charSpan=\"1\" value=\"ひ\"}}日って　{{ruby charSpan=\"2\" value=\"おもしれ\"}}面白ぇな！{{delay frames=\"30\"}}\n{{ruby charSpan=\"2\" value=\"ひるま\"}}昼間なのに{{ruby charSpan=\"1\" value=\"ま\"}}真っ{{ruby charSpan=\"1\" value=\"くら\"}}暗だぜ、{{delay frames=\"20\"}}{{fun_00070005 arg=\"\"}}！",
      "KRko": "{{anim id=\"1\"}}어이, {{fun_00080005 arg=\"\"}}!{{fun_00010007 arg=\"\"}}\n동짓날은 참 신기해!{{delay frames=\"30\"}}\n낮인데도 컴컴하다구! {{delay frames=\"20\"}}{{fun_00070005 arg=\"\"}}!",
      "USen": "{{anim id=\"1\"}}Yo, {{fun_00080005 arg=\"\"}}!{{delay frames=\"8\"}} {{fun_0003000E arg=\"\"}}{{fun_00070005 arg=\"\"}}!{{fun_00010007 arg=\"\"}}\nThe {{color id=\"2\"}}Winter Solstice{{color id=\"65535\"}} is crazy.{{delay frames=\"30\"}} It's\ndark,{{delay frames=\"20\"}} but it's daytime!\n{{anim id=\"9\"}}Have you ever seen anything so\nbackwards before?{{delay frames=\"16\"}} {{anim id=\"2\"}}GAHAHA!{{delay frames=\"30\"}}{{anim id=\"37\"}}",
      "USes": "{{anim id=\"1\"}}¡Anda, {{fun_00080005 arg=\"\"}}!{{delay frames=\"8\"}} ¡{{fun_0003000E arg=\"\"}}{{fun_00070005 arg=\"\"}}!{{pageBreak}}Esto del solsticio de invierno es\nun follón:{{delay frames=\"30\"}} es de día,{{delay frames=\"10\"}} pero está\ntodo oscuro.{{anim id=\"2\"}} ¡Ja, ja, ja!{{delay frames=\"30\"}}{{anim id=\"37\"}}",
      "USfr": "{{anim id=\"1\"}}{{fun_0003000E arg=\"\"}}{{fun_00080005 arg=\"\"}}!{{delay frames=\"8\"}} {{fun_0003000E arg=\"\"}}{{fun_00070005 arg=\"\"}}!{{fun_00010007 arg=\"\"}}\nC'est fou quand on y pense,{{delay frames=\"30\"}} il fait\nnuit{{delay frames=\"20\"}} en plein jour!\n{{anim id=\"2\"}}Ce solstice d'hiver, quel farceur!\nHA HA HA!{{delay frames=\"30\"}}{{anim id=\"37\"}} Bah, il vaut mieux en\nrire qu'en pleurer!"
    }
  },
  {
    "label": "007",
    "locale": {
      "EUde": "{{anim id=\"11\"}}Ist es jetzt eigentlich Nacht?{{delay frames=\"30\"}}\nAlso, richtig Nacht, meine ich,\n{{fun_00070005 arg=\"\"}}?\n{{anim id=\"7\"}}Argh!{{delay frames=\"8\"}} Den ganzen Tag ist's schon\ndunkel!{{delay frames=\"8\"}} Wer soll sich denn da noch\nzurechtfinden? {{delay frames=\"20\"}}{{color id=\"2\"}}Mittwinter {{color id=\"65535\"}}nervt.",
      "EUen": "{{anim id=\"15\"}}Wait...{{delay frames=\"8\"}} Is it night?!{{fun_00010007 arg=\"\"}} {{anim id=\"36\"}}Gah! {{delay frames=\"8\"}}It's been\ndark all day!{{delay frames=\"8\"}} {{anim id=\"6\"}}I'm gonna punch\nthe {{color id=\"2\"}}Winter Solstice{{color id=\"65535\"}},{{delay frames=\"20\"}} {{fun_00070005 arg=\"\"}}!",
      "EUes": "{{anim id=\"15\"}}Un segundo...{{delay frames=\"8\"}} ¿Es de noche ya?{{fun_00010007 arg=\"\"}} {{anim id=\"36\"}}¡Uf! \n{{delay frames=\"8\"}}¡Qué lío con esto del solsticio\nde invierno, {{delay frames=\"10\"}}{{fun_00070005 arg=\"\"}}!",
      "EUfr": "{{anim id=\"15\"}}Attends...{{delay frames=\"8\"}} Il fait nuit là ?!{{fun_00010007 arg=\"\"}} {{anim id=\"36\"}}Enfin je\nveux dire...{{delay frames=\"8\"}} Il aurait fait nuit, hier à\nla même heure ?{{anim id=\"0\"}}\nGrrr, une chose est sûre : je\nDÉTESTE le solstice d'hiver !{{delay frames=\"20\"}}\nComme ça c'est dit, {{fun_00070005 arg=\"\"}}.",
      "EUit": "{{anim id=\"15\"}}Ehi, ma...{{delay frames=\"8\"}} È notte?!{{fun_00010007 arg=\"\"}} {{anim id=\"36\"}}Argh! {{delay frames=\"8\"}}Il sole è\ncome scomparso!{{delay frames=\"8\"}} Questo solstizio\nd'inverno mi snerva,{{delay frames=\"20\"}} {{fun_00070005 arg=\"\"}}!",
      "JPja": "{{anim id=\"15\"}}おっ、もう{{ruby charSpan=\"1\" value=\"よる\"}}夜か！{{fun_00010007 arg=\"\"}}\n{{anim id=\"36\"}}ま、{{delay frames=\"8\"}}{{ruby charSpan=\"2\" value=\"きょう\"}}今日は　どのみち{{ruby charSpan=\"2\" value=\"とうじ\"}}冬至だから{{delay frames=\"15\"}}　{{ruby charSpan=\"3\" value=\"いちにちじゅう\"}}一日中\n{{ruby charSpan=\"1\" value=\"よる\"}}夜みてぇだったけどな！{{delay frames=\"20\"}}　{{fun_00070005 arg=\"\"}}！",
      "KRko": "{{anim id=\"15\"}}어라, 벌써 밤이야?!{{fun_00010007 arg=\"\"}}\n{{anim id=\"36\"}}뭐 {{delay frames=\"8\"}}어차피 오늘은 동지라서{{delay frames=\"15\"}} 하루 종일\n밤 같았지만 말이야!{{delay frames=\"20\"}} {{fun_00070005 arg=\"\"}}!",
      "USen": "{{anim id=\"15\"}}Wait...{{delay frames=\"8\"}} Is it night?!{{fun_00010007 arg=\"\"}} {{anim id=\"36\"}}Gah! {{delay frames=\"8\"}}It's been\ndark all day!{{delay frames=\"8\"}} {{anim id=\"6\"}}I'm gonna punch\nthe {{color id=\"2\"}}Winter Solstice{{color id=\"65535\"}},{{delay frames=\"20\"}} {{fun_00070005 arg=\"\"}}!",
      "USes": "{{anim id=\"15\"}}Un segundo...{{delay frames=\"8\"}} ¿Es de noche ya?{{fun_00010007 arg=\"\"}} {{anim id=\"36\"}}¡Uf! \n{{delay frames=\"8\"}}¡Qué lío con esto del solsticio\nde invierno, {{delay frames=\"10\"}}{{fun_00070005 arg=\"\"}}!",
      "USfr": "{{anim id=\"15\"}}Attends...{{delay frames=\"8\"}} Il fait nuit là?!{{fun_00010007 arg=\"\"}} {{anim id=\"36\"}}Enfin je\nveux dire...{{delay frames=\"8\"}} Il aurait fait nuit, hier à\nla même heure?{{anim id=\"0\"}}\nGrrr, une chose est sûre : je\nDÉTESTE le solstice d'hiver!{{delay frames=\"20\"}}\nComme ça c'est dit, {{fun_00070005 arg=\"\"}}."
    }
  },
  {
    "label": "008",
    "locale": {
      "EUde": "{{anim id=\"32\"}}'n Abend auch, {{fun_00080005 arg=\"\"}}.{{delay frames=\"20\"}}\nAn {{color id=\"2\"}}Mittwinter {{color id=\"65535\"}}ist es so düster,\ndass man nie weiß, wie spät es ist.\n{{anim id=\"35\"}}Ich hoffe, du hast deine Uhr dabei,\n{{fun_00070005 arg=\"\"}}!",
      "EUen": "{{anim id=\"32\"}}Yo, {{fun_00080005 arg=\"\"}}!{{delay frames=\"20\"}}{{pageBreak}}{{anim id=\"37\"}}It's dark all day during the {{color id=\"2\"}}Winter\nSolstice{{color id=\"65535\"}},{{delay frames=\"15\"}} so if you thought you had\na good grasp of time...{{anim id=\"2\"}}wrong!",
      "EUes": "{{anim id=\"32\"}}Hola, {{fun_00080005 arg=\"\"}}.{{delay frames=\"20\"}}\n¿Qué tal, {{fun_00070005 arg=\"\"}}?{{pageBreak}}{{anim id=\"37\"}}Hay dos cosas claras en el solsticio\nde invierno:{{delay frames=\"15\"}} hay oscuridad todo el\ndía y se pierde la noción del tiempo.",
      "EUfr": "{{anim id=\"32\"}}Salut, {{fun_00080005 arg=\"\"}} !{{delay frames=\"20\"}} Il a fait nuit\ntoute la journée... {{anim id=\"37\"}}Alors comment\nsavoir s'il fait vraiment nuit ?\n{{anim id=\"2\"}}En regardant sa montre, pardi !\nHA HA HA, {{fun_00070005 arg=\"\"}} !",
      "EUit": "{{anim id=\"32\"}}Ehilà, {{fun_00080005 arg=\"\"}}!{{delay frames=\"20\"}}{{pageBreak}}{{anim id=\"37\"}}Per il solstizio d'inverno è buio\ntutto il giorno.{{delay frames=\"15\"}} Preparati a perdere\nla nozione del tempo, {{fun_00070005 arg=\"\"}}!",
      "JPja": "{{anim id=\"32\"}}よう、{{fun_00080005 arg=\"\"}}！{{delay frames=\"30\"}}\n{{anim id=\"37\"}}{{ruby charSpan=\"2\" value=\"とうじ\"}}冬至の{{ruby charSpan=\"1\" value=\"ひ\"}}日は　{{ruby charSpan=\"3\" value=\"いちにちじゅう\"}}一日中　{{ruby charSpan=\"1\" value=\"くれ\"}}暗ぇから{{delay frames=\"15\"}}\n{{ruby charSpan=\"2\" value=\"じかん\"}}時間の{{ruby charSpan=\"2\" value=\"かんかく\"}}感覚が　おかしくなるな、{{delay frames=\"20\"}}{{fun_00070005 arg=\"\"}}",
      "KRko": "{{anim id=\"32\"}}오호, {{fun_00080005 arg=\"\"}}!{{delay frames=\"30\"}}\n{{anim id=\"37\"}}동짓날은 하루 종일 어두워서 시간 감각이{{delay frames=\"15\"}}\n둔해지는 것 같애, {{delay frames=\"20\"}}{{fun_00070005 arg=\"\"}}",
      "USen": "{{anim id=\"32\"}}Yo, {{fun_00080005 arg=\"\"}}!{{delay frames=\"20\"}}{{pageBreak}}{{anim id=\"37\"}}It's dark all day during the {{color id=\"2\"}}Winter\nSolstice{{color id=\"65535\"}},{{delay frames=\"15\"}} so if you thought you had\na good grasp of time...{{anim id=\"2\"}}wrong!",
      "USes": "{{anim id=\"32\"}}Hola, {{fun_00080005 arg=\"\"}}.{{delay frames=\"20\"}}\n¿Qué tal, {{fun_00070005 arg=\"\"}}?{{pageBreak}}{{anim id=\"37\"}}Hay dos cosas claras en el solsticio\nde invierno:{{delay frames=\"15\"}} hay oscuridad todo el\ndía y se pierde la noción del tiempo.",
      "USfr": "{{anim id=\"32\"}}Salut, {{fun_00080005 arg=\"\"}}!{{delay frames=\"20\"}} Il a fait nuit\ntoute la journée... {{anim id=\"37\"}}Alors comment\nsavoir s'il fait vraiment nuit?\n{{anim id=\"2\"}}En regardant sa montre, pardi!\nHA HA HA, {{fun_00070005 arg=\"\"}}!"
    }
  },
  {
    "label": "009",
    "locale": {
      "EUde": "{{anim id=\"0\"}}An {{color id=\"2\"}}Mittwinter {{color id=\"65535\"}}wird es nicht hell.{{delay frames=\"15\"}}\nOhne Uhr ist man echt \naufgeschmissen.{{delay frames=\"20\"}}{{anim id=\"36\"}}{{delay frames=\"10\"}} Bwa ha ha.",
      "EUen": "{{anim id=\"0\"}}It's dark all day during the {{color id=\"2\"}}Winter\nSolstice{{color id=\"65535\"}}.{{delay frames=\"15\"}} Luckily, I have a pretty\ngood internal clock.\nProblem is...{{anim id=\"38\"}}I always forget to\nset it properly!{{delay frames=\"16\"}} {{anim id=\"2\"}}GAHAHA!",
      "EUes": "{{anim id=\"0\"}}En el solsticio de invierno\nel sol no asoma el pelo.{{delay frames=\"15\"}}{{pageBreak}}{{anim id=\"36\"}}¡Ya me gustaría saber a mí\nqué está haciendo hoy!",
      "EUfr": "{{anim id=\"0\"}}Et voilà, encore un solstice d'hiver\nde passé !{{delay frames=\"15\"}} Une journée d'obscurité\npar an, ben voyons, {{fun_00070005 arg=\"\"}}.",
      "EUit": "{{anim id=\"0\"}}Per il solstizio d'inverno è buio\ntutto il giorno.{{delay frames=\"15\"}} Non hai un orologio?\n{{delay frames=\"8\"}}{{anim id=\"36\"}}E come fai a sapere che ore sono?!",
      "JPja": "{{anim id=\"0\"}}{{ruby charSpan=\"2\" value=\"とうじ\"}}冬至の{{ruby charSpan=\"1\" value=\"ひ\"}}日は　{{ruby charSpan=\"3\" value=\"いちにちじゅう\"}}一日中　{{ruby charSpan=\"1\" value=\"ま\"}}真っ{{ruby charSpan=\"1\" value=\"くら\"}}暗だから、{{delay frames=\"15\"}}\n{{ruby charSpan=\"2\" value=\"とけい\"}}時計がないと　{{ruby charSpan=\"1\" value=\"いま\"}}今　{{ruby charSpan=\"2\" value=\"なんじ\"}}何時{{ruby charSpan=\"1\" value=\"ごろ\"}}頃なのか{{delay frames=\"8\"}}\n{{anim id=\"36\"}}さっぱり　わかんねぇよな、{{delay frames=\"20\"}}{{fun_00070005 arg=\"\"}}",
      "KRko": "{{anim id=\"0\"}}동짓날에는 하루 종일 어두워서{{delay frames=\"15\"}}\n시계가 없으면 지금이 몇 시쯤인지{{delay frames=\"8\"}}\n{{anim id=\"36\"}}도저히 알 수가 없어, {{fun_00070005 arg=\"\"}}",
      "USen": "{{anim id=\"0\"}}It's dark all day during the {{color id=\"2\"}}Winter\nSolstice{{color id=\"65535\"}}.{{delay frames=\"15\"}} Luckily, I have a pretty\ngood internal clock.\nProblem is...{{anim id=\"38\"}}I always forget to\nset it properly!{{delay frames=\"16\"}} {{anim id=\"2\"}}GAHAHA!",
      "USes": "{{anim id=\"0\"}}En el solsticio de invierno\nel sol no asoma el pelo.{{delay frames=\"15\"}}{{pageBreak}}{{anim id=\"36\"}}¡Ya me gustaría saber a mí\nqué está haciendo hoy!",
      "USfr": "{{anim id=\"0\"}}Et voilà, encore un solstice d'hiver\nde passé!{{delay frames=\"15\"}} Une journée d'obscurité\npar an, ben voyons, {{fun_00070005 arg=\"\"}}."
    }
  },
  {
    "label": "010",
    "locale": {
      "EUde": "{{anim id=\"37\"}}Ach, {{fun_00080005 arg=\"\"}}. {{delay frames=\"10\"}}Du.{{delay frames=\"20\"}}\n{{anim id=\"15\"}}Huch, so spät schon{{anim id=\"9\"}}.{{delay frames=\"8\"}}.{{delay frames=\"8\"}}.{{pageBreak}}{{anim id=\"36\"}}Mannomann, {{delay frames=\"8\"}}{{color id=\"2\"}}Mittwinter{{color id=\"65535\"}} überfordert\nmich. {{delay frames=\"10\"}}Ich weiß nicht mal mehr, ob\nich schon müde bin, {{delay frames=\"20\"}}{{fun_00070005 arg=\"\"}}!",
      "EUen": "{{anim id=\"37\"}}Hey, {{fun_00080005 arg=\"\"}}!{{delay frames=\"20\"}}{{pageBreak}}{{anim id=\"15\"}}Oh, look at the time{{delay frames=\"8\"}}{{anim id=\"9\"}}.{{delay frames=\"8\"}}.{{delay frames=\"8\"}}.{{pageBreak}}{{anim id=\"36\"}}You know, {{delay frames=\"8\"}}I can't even tell if I'm\ntired or not anymore, {{delay frames=\"20\"}}{{fun_00070005 arg=\"\"}}!{{pageBreak}}{{anim id=\"25\"}}Whoop, yup, I'm tired all right.",
      "EUes": "{{anim id=\"37\"}}¡Hombre, {{fun_00080005 arg=\"\"}}!{{delay frames=\"20\"}} \n{{anim id=\"15\"}}Vaya, fíjate qué tarde es{{delay frames=\"8\"}}{{anim id=\"9\"}}.{{delay frames=\"8\"}}.{{delay frames=\"8\"}}.{{pageBreak}}{{anim id=\"36\"}}Menudo cacao tengo con esto del\nsolsticio de invierno. {{delay frames=\"8\"}}No sé si estoy\ncansado o no, {{delay frames=\"10\"}}{{fun_00070005 arg=\"\"}}.",
      "EUfr": "{{anim id=\"37\"}}{{fun_0003000E arg=\"\"}}{{fun_00080005 arg=\"\"}} !{{delay frames=\"20\"}}\n{{anim id=\"15\"}}Tu as vu l'heure ?!{{pageBreak}}{{anim id=\"36\"}}Je ne sais même plus si je suis\nfatigué ou pas moi, avec ce solstice\nd'hiver.\nEt dire que ça recommence dans un\nan !{{delay frames=\"20\"}} {{fun_0003000E arg=\"\"}}{{fun_00070005 arg=\"\"}} !",
      "EUit": "{{anim id=\"37\"}}Ehi, {{fun_00080005 arg=\"\"}}!{{delay frames=\"20\"}}{{pageBreak}}{{anim id=\"15\"}}Accidenti, guarda che ore sono{{delay frames=\"8\"}}{{anim id=\"9\"}}.{{delay frames=\"8\"}}.{{delay frames=\"8\"}}.{{pageBreak}}{{anim id=\"36\"}}Sai, {{delay frames=\"8\"}}non so nemmeno più se sono\nstanco oppure no,{{delay frames=\"20\"}} {{fun_00070005 arg=\"\"}}!",
      "JPja": "おう、{{fun_00080005 arg=\"\"}}！{{delay frames=\"30\"}}\n{{anim id=\"9\"}}もうこんな{{ruby charSpan=\"2\" value=\"じかん\"}}時間か{{delay frames=\"8\"}}・{{delay frames=\"8\"}}・{{delay frames=\"8\"}}・{{pageBreak}}{{anim id=\"36\"}}オレぁもう、{{delay frames=\"8\"}}{{ruby charSpan=\"1\" value=\"ねむ\"}}眠いのかどうかも\nわかんねぇぞ、{{delay frames=\"20\"}}{{fun_00070005 arg=\"\"}}",
      "KRko": "어이, {{fun_00080005 arg=\"\"}}!{{delay frames=\"30\"}}\n{{anim id=\"9\"}}벌써 이런 시간인가{{delay frames=\"8\"}}・{{delay frames=\"8\"}}・{{delay frames=\"8\"}}・{{pageBreak}}{{anim id=\"36\"}}난 이제{{delay frames=\"8\"}} 졸린 건지 어떤지도\n잘 모르겠어, {{delay frames=\"20\"}}{{fun_00070005 arg=\"\"}}",
      "USen": "{{anim id=\"37\"}}Hey, {{fun_00080005 arg=\"\"}}!{{delay frames=\"20\"}}{{pageBreak}}{{anim id=\"15\"}}Oh, look at the time{{delay frames=\"8\"}}{{anim id=\"9\"}}.{{delay frames=\"8\"}}.{{delay frames=\"8\"}}.{{pageBreak}}{{anim id=\"36\"}}You know, {{delay frames=\"8\"}}I can't even tell if I'm\ntired or not anymore, {{delay frames=\"20\"}}{{fun_00070005 arg=\"\"}}!{{pageBreak}}{{anim id=\"25\"}}Whoop, yup, I'm tired all right.",
      "USes": "{{anim id=\"37\"}}¡Hombre, {{fun_00080005 arg=\"\"}}!{{delay frames=\"20\"}} \n{{anim id=\"15\"}}Vaya, fíjate qué tarde es{{delay frames=\"8\"}}{{anim id=\"9\"}}.{{delay frames=\"8\"}}.{{delay frames=\"8\"}}.{{pageBreak}}{{anim id=\"36\"}}Menudo cacao tengo con esto del\nsolsticio de invierno. {{delay frames=\"8\"}}No sé si estoy\ncansado o no, {{delay frames=\"10\"}}{{fun_00070005 arg=\"\"}}.",
      "USfr": "{{anim id=\"37\"}}{{fun_0003000E arg=\"\"}}{{fun_00080005 arg=\"\"}}!{{delay frames=\"20\"}}\n{{anim id=\"15\"}}Tu as vu l'heure?!{{pageBreak}}{{anim id=\"36\"}}Je ne sais même plus si je suis\nfatigué ou pas moi, avec ce solstice\nd'hiver.\nEt dire que ça recommence dans un\nan!{{delay frames=\"20\"}} {{fun_0003000E arg=\"\"}}{{fun_00070005 arg=\"\"}}!"
    }
  },
  {
    "label": "011",
    "locale": {
      "EUde": "{{anim id=\"32\"}}Hmpf, {{delay frames=\"20\"}}{{fun_00080005 arg=\"\"}}.{{delay frames=\"30\"}} {{anim id=\"0\"}}Ich bin echt k. o.{{delay frames=\"8\"}}{{anim id=\"37\"}}\nWahrscheinlich ist's mittlerweile\nwirklich Nacht, {{delay frames=\"10\"}}{{fun_00070005 arg=\"\"}}.",
      "EUen": "{{anim id=\"32\"}}Yo, {{fun_00080005 arg=\"\"}}!{{delay frames=\"30\"}}\n{{anim id=\"0\"}}I'm pretty tired right now,{{delay frames=\"8\"}} {{anim id=\"37\"}}so it's\nprobably nighttime.{{delay frames=\"20\"}} I think.\n{{anim id=\"23\"}}That makes sense, right?{{delay frames=\"8\"}} {{anim id=\"6\"}}Well, it'll\nhave to since the sun isn't tryin'\nto make much sense! {{fun_0003000E arg=\"\"}}{{fun_00070005 arg=\"\"}}!",
      "EUes": "{{anim id=\"32\"}}¡Hola, {{fun_00080005 arg=\"\"}}!{{delay frames=\"30\"}} {{anim id=\"0\"}}Se me están\ncerrando los ojos,{{delay frames=\"8\"}} {{anim id=\"37\"}}así que debe\nde ser tarde,{{delay frames=\"10\"}} {{fun_00070005 arg=\"\"}}.",
      "EUfr": "{{anim id=\"32\"}}Salut, {{fun_00080005 arg=\"\"}} !{{delay frames=\"30\"}}\n{{anim id=\"0\"}}Cette sombre journée touche à sa\nfin, c'est pas trop tôt.\nJ'espère qu'on aura BEAUCOUP de\nsoleil demain{{delay frames=\"20\"}} pour compenser,\n{{fun_00070005 arg=\"\"}} !",
      "EUit": "{{anim id=\"32\"}}Ehi, {{fun_00080005 arg=\"\"}}!{{delay frames=\"30\"}} {{anim id=\"0\"}}Comincio a sentirmi\nstanco.{{delay frames=\"8\"}} {{anim id=\"37\"}}Ne deduco che è ora di\ndormire.{{delay frames=\"20\"}} Credo. Boh. {{fun_0003000E arg=\"\"}}{{fun_00070005 arg=\"\"}}!",
      "JPja": "{{anim id=\"32\"}}よう、{{fun_00080005 arg=\"\"}}！{{delay frames=\"30\"}}\n{{anim id=\"0\"}}{{ruby charSpan=\"2\" value=\"けっこう\"}}結構　{{ruby charSpan=\"1\" value=\"ねむ\"}}眠いから{{delay frames=\"8\"}}\n{{anim id=\"37\"}}{{ruby charSpan=\"2\" value=\"たぶん\"}}多分　{{ruby charSpan=\"1\" value=\"いま\"}}今は{{ruby charSpan=\"1\" value=\"よる\"}}夜だぜ、{{delay frames=\"20\"}}{{fun_00070005 arg=\"\"}}！",
      "KRko": "{{anim id=\"32\"}}오호, {{fun_00080005 arg=\"\"}}!{{delay frames=\"30\"}}\n{{anim id=\"0\"}}꽤 졸린 걸 보면{{delay frames=\"8\"}}\n{{anim id=\"37\"}}아마 지금은 밤일 거야, {{delay frames=\"20\"}}{{fun_00070005 arg=\"\"}}!",
      "USen": "{{anim id=\"32\"}}Yo, {{fun_00080005 arg=\"\"}}!{{delay frames=\"30\"}}\n{{anim id=\"0\"}}I'm pretty tired right now,{{delay frames=\"8\"}} {{anim id=\"37\"}}so it's\nprobably nighttime.{{delay frames=\"20\"}} I think.\n{{anim id=\"23\"}}That makes sense, right?{{delay frames=\"8\"}} {{anim id=\"6\"}}Well, it'll\nhave to since the sun isn't tryin'\nto make much sense! {{fun_0003000E arg=\"\"}}{{fun_00070005 arg=\"\"}}!",
      "USes": "{{anim id=\"32\"}}¡Hola, {{fun_00080005 arg=\"\"}}!{{delay frames=\"30\"}} {{anim id=\"0\"}}Se me están\ncerrando los ojos,{{delay frames=\"8\"}} {{anim id=\"37\"}}así que debe\nde ser tarde,{{delay frames=\"10\"}} {{fun_00070005 arg=\"\"}}.",
      "USfr": "{{anim id=\"32\"}}Salut, {{fun_00080005 arg=\"\"}}!{{delay frames=\"30\"}}\n{{anim id=\"0\"}}Cette sombre journée touche à sa\nfin, c'est pas trop tôt.\nJ'espère qu'on aura BEAUCOUP de\nsoleil demain{{delay frames=\"20\"}} pour compenser,\n{{fun_00070005 arg=\"\"}}!"
    }
  }
]