﻿[
  {
    "label": "001",
    "locale": {
      "EUde": "{{fun_00010009 arg=\"0x030004000700\"}}{{fun_00020009 arg=\"0x0300040007002100\"}}",
      "EUen": "{{fun_00010009 arg=\"0x030004000700\"}}{{fun_00020009 arg=\"0x0300040007002100\"}}",
      "EUes": "{{fun_00010009 arg=\"0x030004000700\"}}{{fun_00020009 arg=\"0x0300040007002100\"}}",
      "EUfr": "{{fun_00010009 arg=\"0x030004000700\"}}{{fun_00020009 arg=\"0x0300040007002100\"}}",
      "EUit": "{{fun_00010009 arg=\"0x030004000700\"}}{{fun_00020009 arg=\"0x0300040007002100\"}}",
      "JPja": "{{fun_00010009 arg=\"0x030004000700\"}}{{fun_00020009 arg=\"0x0300040007002100\"}}",
      "KRko": "{{fun_00010009 arg=\"0x030004000700\"}}{{fun_00020009 arg=\"0x0300040007002100\"}}",
      "USen": "{{fun_00010009 arg=\"0x030004000700\"}}{{fun_00020009 arg=\"0x0300040007002100\"}}",
      "USes": "{{fun_00010009 arg=\"0x030004000700\"}}{{fun_00020009 arg=\"0x0300040007002100\"}}",
      "USfr": "{{fun_00010009 arg=\"0x030004000700\"}}{{fun_00020009 arg=\"0x0300040007002100\"}}"
    }
  },
  {
    "label": "002",
    "locale": {
      "EUde": "{{fun_00000009 arg=\"0x0D001000\"}}{{fun_00010009 arg=\"0x0D0010002100\"}}",
      "EUen": "{{fun_00000009 arg=\"0x0D001000\"}}{{fun_00010009 arg=\"0x0D0010002100\"}}",
      "EUes": "{{fun_00000009 arg=\"0x0D001000\"}}{{fun_00010009 arg=\"0x0D0010002100\"}}",
      "EUfr": "{{fun_00000009 arg=\"0x0D001000\"}}{{fun_00010009 arg=\"0x0D0010002100\"}}",
      "EUit": "{{fun_00000009 arg=\"0x0D001000\"}}{{fun_00010009 arg=\"0x0D0010002100\"}}",
      "JPja": "{{fun_00000009 arg=\"0x0D001000\"}}{{fun_00010009 arg=\"0x0D0010002100\"}}",
      "KRko": "{{fun_00000009 arg=\"0x0D001000\"}}{{fun_00010009 arg=\"0x0D0010002100\"}}",
      "USen": "{{fun_00000009 arg=\"0x0D001000\"}}{{fun_00010009 arg=\"0x0D0010002100\"}}",
      "USes": "{{fun_00000009 arg=\"0x0D001000\"}}{{fun_00010009 arg=\"0x0D0010002100\"}}",
      "USfr": "{{fun_00000009 arg=\"0x0D001000\"}}{{fun_00010009 arg=\"0x0D0010002100\"}}"
    }
  },
  {
    "label": "003",
    "locale": {
      "EUde": "{{anim id=\"27\"}}Es mag ja aussehen, als hätte\n{{fun_001C0005 arg=\"0x00CD\"}} das Sagen in unserem\nBürgermeisteramt...\n{{anim id=\"28\"}}Aber in Wirklichkeit ziehe ich hier\ndie Fäden!{{delay frames=\"20\"}} Wenn du mal ein Problem\nhast, komm lieber zu mir!{{delay frames=\"20\"}} {{anim id=\"2\"}}Bwa ha!{{delay frames=\"30\"}}{{anim id=\"1\"}}",
      "EUen": "{{anim id=\"36\"}}{{fun_0003000E arg=\"\"}}{{fun_001C0005 arg=\"0x00CD\"}} might seem like an\noutstanding mayor, but I'm the one\nreally pulling the strings!\n{{anim id=\"37\"}}If you're ever in trouble,{{delay frames=\"8\"}} come and\nsee me!{{delay frames=\"20\"}} {{anim id=\"2\"}}GAHAHA!{{delay frames=\"30\"}}{{anim id=\"1\"}}",
      "EUes": "{{anim id=\"36\"}}{{fun_0003000E arg=\"\"}}{{fun_001C0005 arg=\"0x00CD\"}} da la apariencia de ser\nu{{fun_0005000E arg=\"0x02006E0004006E006100\"}} gran alcald{{fun_0005000E arg=\"0x020065000600650073006100\"}}, pero en realidad\nsoy yo quien lleva las riendas aquí.\n{{anim id=\"37\"}}Cuando necesites algo,{{delay frames=\"8\"}} ya sabes\ncon quién tienes que hablar.{{delay frames=\"20\"}}\n{{anim id=\"2\"}}¡Ja, ja, ja!{{delay frames=\"30\"}}{{anim id=\"1\"}}",
      "EUfr": "{{anim id=\"36\"}}{{fun_0003000E arg=\"\"}}{{fun_001C0005 arg=\"0x00CD\"}} a l'air d'un maire génial,\nmais en réalité c'est moi qui tire les\nficelles !\n{{anim id=\"37\"}}Si t'as des problèmes,{{delay frames=\"8\"}} viens m'en\nparler !{{delay frames=\"20\"}} {{anim id=\"2\"}}HA HA HA !{{delay frames=\"30\"}}{{anim id=\"1\"}}",
      "EUit": "{{anim id=\"36\"}}{{fun_0003000E arg=\"\"}}{{fun_001C0005 arg=\"0x00CD\"}} può anche sembrare\nun bravo sindaco, {{anim id=\"37\"}}ma in realtà sono\nio che detto legge da queste parti!{{delay frames=\"8\"}}\nSe ti dovessi cacciare nei guai,\nchiama il sottoscritto!{{delay frames=\"20\"}} {{anim id=\"2\"}}AHAHAH!{{delay frames=\"30\"}}{{anim id=\"1\"}}",
      "JPja": "{{anim id=\"36\"}}{{fun_001C0005 arg=\"0x00CD\"}}ってのが{{delay frames=\"8\"}}\n{{ruby charSpan=\"3\" value=\"いっちょうまえ\"}}一丁前に　{{ruby charSpan=\"2\" value=\"そんちょう\"}}村長ヅラしてやがるんだが{{delay frames=\"20\"}}\nカゲの{{ruby charSpan=\"3\" value=\"じつりょくしゃ\"}}実力者は　このオレなのさ\n{{anim id=\"37\"}}{{ruby charSpan=\"1\" value=\"こま\"}}困ったことがあったら{{delay frames=\"8\"}}\nいつでも　オレにいってくれよな、{{delay frames=\"20\"}}\n{{anim id=\"2\"}}がーっはっは！{{delay frames=\"30\"}}{{anim id=\"1\"}}",
      "KRko": "{{anim id=\"36\"}}{{fun_001C0005 arg=\"0x00CD\"}}{{fun_000E000E arg=\"0x020074C70000\"}}란 녀석이{{delay frames=\"8\"}}\n촌장 행세를 하고 다닌다만{{delay frames=\"20\"}}\n사실 숨은 실력자는 바로 이 몸이지\n{{anim id=\"37\"}}무슨 일이 생기면{{delay frames=\"8\"}}\n언제든 나한테 말하라구!{{delay frames=\"20\"}}\n{{anim id=\"2\"}}으ー하하핫!{{delay frames=\"30\"}}{{anim id=\"1\"}}",
      "USen": "{{anim id=\"36\"}}{{fun_0003000E arg=\"\"}}{{fun_001C0005 arg=\"0x00CD\"}} might seem like an\noutstanding mayor, but I'm the one\nreally pulling the strings!\n{{anim id=\"37\"}}If you're ever in trouble,{{delay frames=\"8\"}} come and\nsee me!{{delay frames=\"20\"}} {{anim id=\"2\"}}GAHAHA!{{delay frames=\"30\"}}{{anim id=\"1\"}}",
      "USes": "{{anim id=\"36\"}}{{fun_0003000E arg=\"\"}}{{fun_001C0005 arg=\"0x00CD\"}} da la apariencia de ser\nu{{fun_0005000E arg=\"0x02006E0004006E006100\"}} gran alcald{{fun_0005000E arg=\"0x020065000600650073006100\"}}, pero en realidad\nsoy yo quien lleva las riendas aquí.\n{{anim id=\"37\"}}Cuando necesites algo,{{delay frames=\"8\"}} ya sabes\ncon quién tienes que hablar.{{delay frames=\"20\"}}\n{{anim id=\"2\"}}¡Ja, ja, ja!{{delay frames=\"30\"}}{{anim id=\"1\"}}",
      "USfr": "{{anim id=\"36\"}}{{fun_0003000E arg=\"\"}}{{fun_001C0005 arg=\"0x00CD\"}} a l'air d'un maire génial,\nmais en réalité c'est moi qui tire les\nficelles!\n{{anim id=\"37\"}}Si t'as des problèmes,{{delay frames=\"8\"}} viens m'en\nparler!{{delay frames=\"20\"}} {{anim id=\"2\"}}HA HA HA!{{delay frames=\"30\"}}{{anim id=\"1\"}}"
    }
  },
  {
    "label": "004",
    "locale": {
      "EUde": "Was für 'ne Obstsorte {{anim id=\"23\"}}wächst denn\nso bei euch?{{delay frames=\"20\"}} {{fun_001A0005 arg=\"0x00CD\"}}?{{fun_00000008 arg=\"0x0600000005000000\"}}\nNein...\nGenau!",
      "EUen": "By the way, does your town grow\n{{anim id=\"23\"}}{{fun_001A0005 arg=\"0x00CD\"}} trees?{{fun_00000008 arg=\"0x0600000005000000\"}}\nNope.\nYup.",
      "EUes": "Por curiosidad:{{delay frames=\"8\"}} {{anim id=\"23\"}}¿en tu pueblo\nse cultiva {{fun_0001000E arg=\"\"}}{{fun_001A0005 arg=\"0x00CD\"}}?{{fun_00000008 arg=\"0x0600000005000000\"}}\n¡No!\n¡Sí!",
      "EUfr": "Est-ce que vous cultivez\n{{anim id=\"23\"}}{{fun_0001000E arg=\"\"}}{{fun_001A0005 arg=\"0x00CD\"}} dans ta ville ?{{fun_00000008 arg=\"0x0600000005000000\"}}\nNon.\nOui.",
      "EUit": "Ehi, il frutto tipico della tua città\nè per caso{{anim id=\"23\"}} {{fun_0001000E arg=\"\"}}{{fun_001A0005 arg=\"0x00CD\"}}?{{fun_00000008 arg=\"0x0600000005000000\"}}\nNo.\nSì!",
      "JPja": "ところで　オメェの{{ruby charSpan=\"1\" value=\"むら\"}}村に{{delay frames=\"8\"}}\n{{fun_001A0005 arg=\"0x00CD\"}}の{{ruby charSpan=\"1\" value=\"き\"}}木は{{delay frames=\"8\"}}\n{{anim id=\"23\"}}{{ruby charSpan=\"1\" value=\"は\"}}生えてんのかい？{{fun_00000008 arg=\"0x0600000005000000\"}}\nないなぁ\n{{ruby charSpan=\"1\" value=\"は\"}}生えてるよ",
      "KRko": "근데 너네 마을에{{delay frames=\"8\"}}\n{{fun_001A0005 arg=\"0x00CD\"}} 나무는{{delay frames=\"8\"}}\n{{anim id=\"23\"}}심어져 있냐?{{fun_00000008 arg=\"0x0600000005000000\"}}\n없어\n있어",
      "USen": "By the way, does your town grow\n{{anim id=\"23\"}}{{fun_001A0005 arg=\"0x00CD\"}} trees?{{fun_00000008 arg=\"0x0600000005000000\"}}\nNope.\nYup.",
      "USes": "Por curiosidad:{{delay frames=\"8\"}} {{anim id=\"23\"}}¿en tu pueblo\nse cultiva {{fun_0001000E arg=\"\"}}{{fun_001A0005 arg=\"0x00CD\"}}?{{fun_00000008 arg=\"0x0600000005000000\"}}\n¡No!\n¡Sí!",
      "USfr": "Est-ce que vous cultivez\n{{anim id=\"23\"}}{{fun_0001000E arg=\"\"}}{{fun_001A0005 arg=\"0x00CD\"}} dans ta ville?{{fun_00000008 arg=\"0x0600000005000000\"}}\nNon.\nOui."
    }
  },
  {
    "label": "005",
    "locale": {
      "EUde": "{{anim id=\"15\"}}Wirklich?{{delay frames=\"20\"}} Nicht übel!{{pageBreak}}{{anim id=\"0\"}}Wir sind auch sehr stolz auf \n{{fun_0008000E arg=\"0x00CD240075006E0073006500720065006E0020006800650069006D00690073006300680065006E00200075006E00730065007200650020006800650069006D0069007300630068006500200075006E0073006500720020006800650069006D00690073006300680065007300\"}} {{fun_001A0005 arg=\"0x00CD\"}}!{{delay frames=\"20\"}}\nDeshalb frage ich.",
      "EUen": "{{anim id=\"1\"}}Really?{{delay frames=\"20\"}} That's great to hear!{{pageBreak}}{{anim id=\"0\"}}Ya see,{{delay frames=\"8\"}} the {{fun_001A0005 arg=\"0x00CD\"}} is our\nlocal delicacy, so I thought I'd ask.",
      "EUes": "{{anim id=\"1\"}}¿En serio?{{delay frames=\"20\"}} ¡Qué bien!{{pageBreak}}{{anim id=\"0\"}}Como ves,{{delay frames=\"8\"}} es nuestra especialidad\nlocal,{{delay frames=\"8\"}} famosa en el mundo entero.{{delay frames=\"20\"}}\n¡Je!",
      "EUfr": "{{anim id=\"1\"}}Ah ouais ?{{delay frames=\"20\"}} Content de le savoir !{{pageBreak}}{{anim id=\"0\"}}En fait,{{delay frames=\"8\"}} {{fun_0001000E arg=\"\"}}{{fun_001A0005 arg=\"0x00CD\"}}, on en\nraffole tous ici !",
      "EUit": "{{anim id=\"1\"}}Sul serio?{{delay frames=\"20\"}} Che storia!{{pageBreak}}{{anim id=\"0\"}}Vedi,{{delay frames=\"8\"}} {{fun_0001000E arg=\"\"}}{{fun_001A0005 arg=\"0x00CD\"}} è il frutto\ntipico della nostra città, quindi ero\ncurioso di sapere qual è il vostro.",
      "JPja": "{{anim id=\"1\"}}そうかい、{{delay frames=\"20\"}}\nそいつぁ　{{ruby charSpan=\"1\" value=\"よ\"}}良かった！{{pageBreak}}{{anim id=\"0\"}}いや、{{delay frames=\"8\"}}{{fun_001A0005 arg=\"0x00CD\"}}は\nうちの{{ruby charSpan=\"2\" value=\"とくさん\"}}特産フルーツなんで、{{delay frames=\"20\"}}\nいちおう　{{ruby charSpan=\"1\" value=\"き\"}}聞いてみただけさ",
      "KRko": "{{anim id=\"1\"}}그러냐?{{delay frames=\"20\"}}\n그럼 됐고!{{pageBreak}}{{anim id=\"0\"}}아니, {{delay frames=\"8\"}}{{fun_001A0005 arg=\"0x00CD\"}}{{fun_000E000E arg=\"0x020040C7020094B2\"}}\n우리 마을 특산물인 과일이라{{delay frames=\"20\"}}\n물어본 거야",
      "USen": "{{anim id=\"1\"}}Really?{{delay frames=\"20\"}} That's great to hear!{{pageBreak}}{{anim id=\"0\"}}Ya see,{{delay frames=\"8\"}} the {{fun_001A0005 arg=\"0x00CD\"}} is our\nlocal delicacy, so I thought I'd ask.",
      "USes": "{{anim id=\"1\"}}¿En serio?{{delay frames=\"20\"}} ¡Qué bien!{{pageBreak}}{{anim id=\"0\"}}Como ves,{{delay frames=\"8\"}} es nuestra especialidad\nlocal,{{delay frames=\"8\"}} famosa en el mundo entero.{{delay frames=\"20\"}}\n¡Je!",
      "USfr": "{{anim id=\"1\"}}Ah ouais?{{delay frames=\"20\"}} Content de le savoir!{{pageBreak}}{{anim id=\"0\"}}En fait,{{delay frames=\"8\"}} {{fun_0001000E arg=\"\"}}{{fun_001A0005 arg=\"0x00CD\"}}, on en\nraffole tous ici!"
    }
  },
  {
    "label": "006",
    "locale": {
      "EUde": "Tatsächlich?{{delay frames=\"20\"}} Nimm doch welche von\nunseren Früchten mit und pflanz sie\nbei euch ein.\n{{anim id=\"35\"}}{{fun_0008000E arg=\"0x00CD060044006500720006004400690065000600440061007300\"}} {{fun_001A0005 arg=\"0x00CD\"}} ist unser ganzer\nStolz!{{pageBreak}}{{anim id=\"6\"}}Aber danach suchen musst du schon\nselbst!",
      "EUen": "Huh?{{delay frames=\"8\"}} Then why don't you take one\nof ours and grow some in your own\ntown?\n{{anim id=\"38\"}}The {{fun_001A0005 arg=\"0x00CD\"}} is our local\ndelicacy, and we're very proud of it!{{pageBreak}}{{anim id=\"36\"}}But{{delay frames=\"8\"}} you'll have to check yourself to\nsee if any are growing on the trees\nor not!{{delay frames=\"8\"}} {{anim id=\"2\"}}I'm not gonna do it for ya!",
      "EUes": "Anda,{{delay frames=\"8\"}} pues llévate unas cuantas\npiezas y plántalas en tu pueblo, ¿no?{{pageBreak}}{{anim id=\"38\"}}En {{fun_0003000E arg=\"\"}}{{fun_00050005 arg=\"\"}} estamos muy\norgullosos de nuestra fruta local,\n{{fun_0001000E arg=\"\"}}{{fun_001A0005 arg=\"0x00CD\"}}.\n{{anim id=\"36\"}}Date una vuelta y coge toda la\nfruta que quieras... ¡Digo yo que\nalguna encontrarás!",
      "EUfr": "Oh !{{delay frames=\"8\"}} Pourquoi tu n'en prendrais pas\nici pour planter dans ta ville ?{{pageBreak}}{{anim id=\"38\"}}{{fun_0003000E arg=\"\"}}{{fun_0001000E arg=\"\"}}{{fun_001A0005 arg=\"0x00CD\"}}, c'est ce qu'on\npréfère par ici, et on en est fiers !{{pageBreak}}{{anim id=\"36\"}}Mais{{delay frames=\"8\"}} il faudra que tu les cherches\ntoi-même sur les arbres. Je vais pas\nt'aider, non plus !",
      "EUit": "Davvero?{{delay frames=\"8\"}} Allora perché non cogli\nun esemplare qui da noi e vai\na piantarlo dalle tue parti?\n{{anim id=\"38\"}}{{fun_0003000E arg=\"\"}}{{fun_0001000E arg=\"\"}}{{fun_001A0005 arg=\"0x00CD\"}} è il prodotto\ntipico della nostra città e ne\nandiamo parecchio orgogliosi!{{pageBreak}}{{anim id=\"36\"}}Però{{delay frames=\"8\"}} dovrai controllare tu che\ncrescano i frutti sugli alberi che\npianti. Io non ci vengo ad aiutarti!",
      "JPja": "おう、{{delay frames=\"8\"}}だったら　1つ{{delay frames=\"20\"}}\n{{ruby charSpan=\"1\" value=\"も\"}}持って{{ruby charSpan=\"1\" value=\"かえ\"}}帰ったら　どうだい？{{pageBreak}}{{anim id=\"38\"}}なんたって　{{fun_001A0005 arg=\"0x00CD\"}}は{{delay frames=\"8\"}}\nうちの{{ruby charSpan=\"2\" value=\"とくさん\"}}特産フルーツだからよ！{{pageBreak}}{{anim id=\"36\"}}ただし、{{delay frames=\"8\"}}{{ruby charSpan=\"1\" value=\"いま\"}}今\n{{ruby charSpan=\"1\" value=\"むら\"}}村の{{ruby charSpan=\"1\" value=\"き\"}}木に{{ruby charSpan=\"1\" value=\"な\"}}生ってるかどうかは{{delay frames=\"20\"}}\n{{ruby charSpan=\"2\" value=\"じぶん\"}}自分で{{ruby charSpan=\"1\" value=\"たし\"}}確かめてくれよな！",
      "KRko": "오, {{delay frames=\"8\"}}그럼 하나{{delay frames=\"20\"}}\n가져가지 그러냐?{{pageBreak}}{{anim id=\"38\"}}왜냐면 {{fun_001A0005 arg=\"0x00CD\"}}{{fun_000E000E arg=\"0x020040C7020094B2\"}}{{delay frames=\"8\"}}\n우리 특산물이거든!{{pageBreak}}{{anim id=\"36\"}}근데 {{delay frames=\"8\"}}지금\n열매가 열려 있을지 어떨지는{{delay frames=\"20\"}}\n잘 모르겠다!",
      "USen": "Huh?{{delay frames=\"8\"}} Then why don't you take one\nof ours and grow some in your own\ntown?\n{{anim id=\"38\"}}The {{fun_001A0005 arg=\"0x00CD\"}} is our local\ndelicacy, and we're very proud of it!{{pageBreak}}{{anim id=\"36\"}}But{{delay frames=\"8\"}} you'll have to check yourself to\nsee if any are growing on the trees\nor not!{{delay frames=\"8\"}} {{anim id=\"2\"}}I'm not gonna do it for ya!",
      "USes": "Anda,{{delay frames=\"8\"}} pues llévate unas cuantas\npiezas y plántalas en tu pueblo, ¿no?{{pageBreak}}{{anim id=\"38\"}}En {{fun_0003000E arg=\"\"}}{{fun_00050005 arg=\"\"}} estamos muy\norgullosos de nuestra fruta local,\n{{fun_0001000E arg=\"\"}}{{fun_001A0005 arg=\"0x00CD\"}}.\n{{anim id=\"36\"}}Date una vuelta y recoge toda la\nfruta que quieras... ¡Digo yo que\nalguna encontrarás!",
      "USfr": "Oh!{{delay frames=\"8\"}} Pourquoi tu n'en prendrais pas\nici pour planter dans ta ville?{{pageBreak}}{{anim id=\"38\"}}{{fun_0003000E arg=\"\"}}{{fun_0001000E arg=\"\"}}{{fun_001A0005 arg=\"0x00CD\"}}, c'est ce qu'on\npréfère par ici, et on en est fiers!{{pageBreak}}{{anim id=\"36\"}}Mais{{delay frames=\"8\"}} il faudra que tu les cherches\ntoi-même sur les arbres. Je vais pas\nt'aider, non plus!"
    }
  },
  {
    "label": "007",
    "locale": {
      "EUde": "Wie zufrieden bist du {{anim id=\"23\"}}denn so mit\ndeiner Stadt?{{fun_000A0008 arg=\"0x0800090009000A000A000B000B000C00\"}}\nSehr zufrieden!\nNicht so sehr...",
      "EUen": "Just how satisfied are you\n{{anim id=\"23\"}}with your current town?{{fun_000A0008 arg=\"0x0800090009000A000A000B000B000C00\"}}\nQuite satisfied\nNot satisfied",
      "EUes": "{{anim id=\"23\"}}¿Te gusta tu pueblo?{{fun_000A0008 arg=\"0x0800090009000A000A000B000B000C00\"}}\n¡Muchísimo!\nPoquísimo...",
      "EUfr": "Es-tu satisfai{{fun_0006000E arg=\"0x02007400040074006500\"}} {{anim id=\"23\"}}de ta ville ?{{fun_000A0008 arg=\"0x0800090009000A000A000B000B000C00\"}}\nTrès !\nPas du tout.",
      "EUit": "Allora, {{anim id=\"23\"}}sei content{{fun_0006000E arg=\"0x02006F0002006100\"}} della tua città?{{fun_000A0008 arg=\"0x0800090009000A000A000B000B000C00\"}}\nTantissimo!\nPer niente.",
      "JPja": "オメェ、{{delay frames=\"8\"}}{{ruby charSpan=\"2\" value=\"じぶん\"}}自分の{{ruby charSpan=\"1\" value=\"むら\"}}村には{{delay frames=\"20\"}}\n{{anim id=\"23\"}}どれくらい{{ruby charSpan=\"2\" value=\"まんぞく\"}}満足してるんだい？{{fun_000A0008 arg=\"0x0800090009000A000A000B000B000C00\"}}\n{{ruby charSpan=\"3\" value=\"だいまんぞく\"}}大満足！\n{{ruby charSpan=\"2\" value=\"ふまん\"}}不満",
      "KRko": "넌 {{delay frames=\"8\"}}너네 마을에{{delay frames=\"20\"}}\n{{anim id=\"23\"}}얼마만큼 만족하면서 사냐?{{fun_000A0008 arg=\"0x0800090009000A000A000B000B000C00\"}}\n대만족!\n불만",
      "USen": "Just how satisfied are you\n{{anim id=\"23\"}}with your current town?{{fun_000A0008 arg=\"0x0800090009000A000A000B000B000C00\"}}\nQuite satisfied\nNot satisfied",
      "USes": "{{anim id=\"23\"}}¿Te gusta tu pueblo?{{fun_000A0008 arg=\"0x0800090009000A000A000B000B000C00\"}}\n¡Muchísimo!\nPoquísimo...",
      "USfr": "Es-tu satisfai{{fun_0006000E arg=\"0x02007400040074006500\"}} {{anim id=\"23\"}}de ta ville?{{fun_000A0008 arg=\"0x0800090009000A000A000B000B000C00\"}}\nTrès!\nPas du tout."
    }
  },
  {
    "label": "008",
    "locale": {
      "EUde": "{{anim id=\"16\"}}Oha!{{delay frames=\"30\"}} {{anim id=\"35\"}}Doch so zufrieden,{{delay frames=\"8\"}} was?{{delay frames=\"20\"}}\nDann muss ich mir das wohl bei\nGelegenheit selbst mal ansehen!",
      "EUen": "{{anim id=\"16\"}}Ho ho!{{delay frames=\"30\"}} {{anim id=\"1\"}}That good, huh?!{{delay frames=\"20\"}} Well then,\nI should really go check it out for\nmyself sometime!",
      "EUes": "{{anim id=\"16\"}}¡Ajá!{{delay frames=\"30\"}} {{anim id=\"1\"}}En serio, ¿eh?{{delay frames=\"20\"}} Pues tendré\nque acercarme a haceros una\nvisita.",
      "EUfr": "{{anim id=\"16\"}}Ho ho !{{delay frames=\"30\"}} {{anim id=\"1\"}}À ce point ?{{delay frames=\"20\"}} OK, je devrais\naller y faire un tour. Je serai déçu, \nmais c'est pas grave !",
      "EUit": "{{anim id=\"16\"}}Però!{{delay frames=\"30\"}} {{anim id=\"1\"}}Sembri proprio entusiasta.{{delay frames=\"20\"}}\nAllora la prossima domenica libera\nmagari ci faccio un saltino!",
      "JPja": "{{anim id=\"16\"}}ほほう！{{delay frames=\"30\"}}\n{{anim id=\"1\"}}そいつぁ　スゴイな！{{delay frames=\"20\"}}\n1{{ruby charSpan=\"1\" value=\"ど\"}}度　{{ruby charSpan=\"1\" value=\"あそ\"}}遊びに{{ruby charSpan=\"1\" value=\"い\"}}行ってみてぇぜ！",
      "KRko": "{{anim id=\"16\"}}오오!{{delay frames=\"30\"}}\n{{anim id=\"1\"}}그것 참 대단하군!{{delay frames=\"20\"}}\n한번 놀러 가보고 싶네!",
      "USen": "{{anim id=\"16\"}}Ho ho!{{delay frames=\"30\"}} {{anim id=\"1\"}}That good, huh?!{{delay frames=\"20\"}} Well then,\nI should really go check it out for\nmyself sometime!",
      "USes": "{{anim id=\"16\"}}¡Ajá!{{delay frames=\"30\"}} {{anim id=\"1\"}}En serio, ¿eh?{{delay frames=\"20\"}} Pues tendré\nque acercarme a haceros una\nvisita.",
      "USfr": "{{anim id=\"16\"}}Ho ho!{{delay frames=\"30\"}} {{anim id=\"1\"}}À ce point?{{delay frames=\"20\"}} OK, je devrais\naller y faire un tour."
    }
  },
  {
    "label": "009",
    "locale": {
      "EUde": "{{anim id=\"21\"}}Jawohl, {{delay frames=\"8\"}}das ist echt was wert,\nwenn man mit seinem Wohnort\nzufrieden sein kann,{{delay frames=\"20\"}} {{fun_00070005 arg=\"\"}}!",
      "EUen": "{{anim id=\"37\"}}Nice!{{delay frames=\"20\"}} What's most important is that{{delay frames=\"8\"}}\nyou're having a good time living\nwhere you're living,{{delay frames=\"20\"}} {{fun_00070005 arg=\"\"}}!",
      "EUes": "{{anim id=\"37\"}}¡Vale!{{delay frames=\"20\"}} Lo importante es disfrutar\nde lo que ofrece el lugar donde\nvives,{{delay frames=\"8\"}} {{fun_00070005 arg=\"\"}}.",
      "EUfr": "{{anim id=\"37\"}}Cool !{{delay frames=\"20\"}} Le plus important, c'est que{{delay frames=\"8\"}}\ntu te sentes bien où tu vis.{{delay frames=\"20\"}}\n{{fun_0003000E arg=\"\"}}{{fun_00070005 arg=\"\"}} !",
      "EUit": "{{anim id=\"37\"}}Forte!{{delay frames=\"20\"}} Beh, l'importante è che\ntu ti diverta,{{delay frames=\"20\"}} {{fun_00070005 arg=\"\"}}!",
      "JPja": "{{anim id=\"37\"}}いいねぇ！{{delay frames=\"20\"}}\n{{ruby charSpan=\"1\" value=\"たの\"}}楽しく{{ruby charSpan=\"1\" value=\"く\"}}暮らしてるみたいで{{delay frames=\"8\"}}\nなによりだ、{{delay frames=\"20\"}}{{fun_00070005 arg=\"\"}}！",
      "KRko": "{{anim id=\"37\"}}오호라!{{delay frames=\"20\"}}\n즐겁게 지내는 것 같아서{{delay frames=\"8\"}}\n다행이군, {{delay frames=\"20\"}}{{fun_00070005 arg=\"\"}}!",
      "USen": "{{anim id=\"37\"}}Nice!{{delay frames=\"20\"}} What's most important is that{{delay frames=\"8\"}}\nyou're having a good time living\nwhere you're living,{{delay frames=\"20\"}} {{fun_00070005 arg=\"\"}}!",
      "USes": "{{anim id=\"37\"}}¡Vale!{{delay frames=\"20\"}} Lo importante es disfrutar\nde lo que ofrece el lugar donde\nvives,{{delay frames=\"8\"}} {{fun_00070005 arg=\"\"}}.",
      "USfr": "{{anim id=\"37\"}}Cool!{{delay frames=\"20\"}} Le plus important, c'est que{{delay frames=\"8\"}}\ntu te sentes bien où tu vis.{{delay frames=\"20\"}}\n{{fun_0003000E arg=\"\"}}{{fun_00070005 arg=\"\"}}!"
    }
  },
  {
    "label": "010",
    "locale": {
      "EUde": "{{anim id=\"21\"}}Tja, dann ist da noch Platz für die\neine oder andere Verbesserung!{{delay frames=\"20\"}}",
      "EUen": "{{anim id=\"21\"}}Well,{{delay frames=\"8\"}} if you think about it,{{delay frames=\"20\"}} that just\nmeans there's some room for\nimprovement! That's a good thing!",
      "EUes": "{{anim id=\"21\"}}Bueno,{{delay frames=\"8\"}} si lo piensas,{{delay frames=\"8\"}} eso tiene la\nventaja de que se pueden mejorar\nlas cosas.{{delay frames=\"20\"}} ¡A tu manera!",
      "EUfr": "{{anim id=\"21\"}}Bon,{{delay frames=\"8\"}} en étant optimiste,{{delay frames=\"20\"}} ça veut\ndire que ça peut que s'améliorer !",
      "EUit": "{{anim id=\"21\"}}Beh,{{delay frames=\"8\"}} prova a vedere il lato positivo:{{delay frames=\"20\"}}\nvuol dire che c'è potenziale per\nmigliorare le cose! Mica male, no?",
      "JPja": "{{anim id=\"21\"}}ま、{{delay frames=\"8\"}}{{ruby charSpan=\"1\" value=\"かんが\"}}考えようによっちゃ{{delay frames=\"20\"}}\nまだまだ　{{ruby charSpan=\"2\" value=\"かいぜん\"}}改善の{{ruby charSpan=\"2\" value=\"よち\"}}余地があって{{delay frames=\"8\"}}\nやりがいが　あるじゃねぇか！",
      "KRko": "{{anim id=\"21\"}}뭐, {{delay frames=\"8\"}}생각하기에 따라선{{delay frames=\"20\"}}\n아직 개선의 여지가 있으니까{{delay frames=\"8\"}}\n그만큼 보람되지 않겠냐?!",
      "USen": "{{anim id=\"21\"}}Well,{{delay frames=\"8\"}} if you think about it,{{delay frames=\"20\"}} that just\nmeans there's some room for\nimprovement! That's a good thing!",
      "USes": "{{anim id=\"21\"}}Bueno,{{delay frames=\"8\"}} si lo piensas,{{delay frames=\"8\"}} eso tiene la\nventaja de que se pueden mejorar\nlas cosas.{{delay frames=\"20\"}} ¡A tu manera!",
      "USfr": "{{anim id=\"21\"}}Bon,{{delay frames=\"8\"}} en étant optimiste,{{delay frames=\"20\"}} ça veut\ndire que ça peut que s'améliorer!"
    }
  },
  {
    "label": "011",
    "locale": {
      "EUde": "{{anim id=\"28\"}}Kleiner Tipp, {{delay frames=\"8\"}}dann nimm doch ein\npaar Verbesserungen nach deinem\nGeschmack vor!",
      "EUen": "{{anim id=\"36\"}}Well,{{delay frames=\"20\"}} you can just take your time\nand improve it bit by bit, right?",
      "EUes": "{{anim id=\"36\"}}Vaya,{{delay frames=\"10\"}} pero si le dedicas un poco\nde tiempo, seguro que algo se\npodrá hacer, ¿verdad?",
      "EUfr": "{{anim id=\"36\"}}Eh bien,{{delay frames=\"20\"}} prends ton temps et\naméliore ça, petit à petit.",
      "EUit": "{{anim id=\"36\"}}Beh,{{delay frames=\"20\"}} magari puoi dare il tuo\ncontributo per migliorarla, no?",
      "JPja": "{{anim id=\"36\"}}まあ、{{delay frames=\"20\"}}のんびり　ちょっとずつ{{delay frames=\"8\"}}\nやっていけば　いいと{{ruby charSpan=\"1\" value=\"おも\"}}思うぜ？！",
      "KRko": "{{anim id=\"36\"}}느긋하게 하나씩 고쳐 나가면{{delay frames=\"8\"}}\n되지 않겠냐?",
      "USen": "{{anim id=\"36\"}}Well,{{delay frames=\"20\"}} you can just take your time\nand improve it bit by bit, right?",
      "USes": "{{anim id=\"36\"}}Vaya,{{delay frames=\"10\"}} pero si le dedicas un poco\nde tiempo, seguro que algo se\npodrá hacer, ¿verdad?",
      "USfr": "{{anim id=\"36\"}}Eh bien,{{delay frames=\"20\"}} prends ton temps et\naméliore ça, petit à petit."
    }
  },
  {
    "label": "012",
    "locale": {
      "EUde": "{{anim id=\"6\"}}Du kennst sicher die Leute, die ganz\ntolle Pläne für ihre Stadt haben?{{delay frames=\"20\"}}\nMeistens sind die nicht so toll...",
      "EUen": "{{anim id=\"9\"}}Ya know, those guys who always\ntalk about their town's plans for\ngreatness aren't always great.\n{{anim id=\"15\"}}Huh?{{delay frames=\"20\"}} You don't have one of those?!",
      "EUes": "{{anim id=\"9\"}}Ya,{{delay frames=\"8\"}} siempre hay vecinos para los\nque es más fácil criticar las cosas\nque intentar mejorarlas.\n{{anim id=\"15\"}}Sabes a lo que me refiero,{{delay frames=\"12\"}} ¿verdad?",
      "EUfr": "{{anim id=\"9\"}}Bah, ceux qui croient avoir tout\nréussi n'ont pas toujours raison.\nIl n'est jamais trop tard.\n{{anim id=\"15\"}}Hein ?{{delay frames=\"20\"}} Je suis trop optimiste ?!",
      "EUit": "{{anim id=\"9\"}}Beh, la gente al potere parla e\nstraparla di piani e progetti ma\nalla fine non conclude niente.\n{{anim id=\"15\"}}Come?{{delay frames=\"20\"}}\nNon conosci nessuno così?",
      "JPja": "{{anim id=\"9\"}}そりゃ　オメェ、{{delay frames=\"20\"}}\nマニフェストとかいうヤツが{{delay frames=\"8\"}}\nよくないんじゃねぇか？\n{{anim id=\"15\"}}え？{{delay frames=\"20\"}}\nそんなモン　ないってか？！",
      "KRko": "{{anim id=\"9\"}}그 말은 너네 마을의 목표와{{delay frames=\"20\"}}\n니 생각이 다르다는 거 아니냐?{{pageBreak}}{{anim id=\"15\"}}뭐라고?{{delay frames=\"20\"}}\n목표가 없다고?!",
      "USen": "{{anim id=\"9\"}}Ya know, those guys who always\ntalk about their town's plans for\ngreatness aren't always great.\n{{anim id=\"15\"}}Huh?{{delay frames=\"20\"}} You don't have one of those?!",
      "USes": "{{anim id=\"9\"}}Ya,{{delay frames=\"8\"}} siempre hay vecinos para los\nque es más fácil criticar las cosas\nque intentar mejorarlas.\n{{anim id=\"15\"}}Sabes a lo que me refiero,{{delay frames=\"12\"}} ¿verdad?",
      "USfr": "{{anim id=\"9\"}}Bah, ceux qui croient avoir tout\nréussi n'ont pas toujours raison.\nIl n'est jamais trop tard.\n{{anim id=\"15\"}}Hein?{{delay frames=\"20\"}} Je suis trop optimiste?!"
    }
  },
  {
    "label": "013",
    "locale": {
      "EUde": "Sag mal,{{delay frames=\"20\"}} {{anim id=\"23\"}}wie geht's den Leuten in\ndeiner Stadt so?{{fun_00000008 arg=\"0x0E0000000F000000\"}}\nWie immer...\nSind nicht so glücklich...",
      "EUen": "By the way,{{delay frames=\"20\"}} {{anim id=\"23\"}}how is everyone from\nback in town doing these days?{{fun_00000008 arg=\"0x0E0000000F000000\"}}\nSame as always.\nNot very happy.",
      "EUes": "¿Y{{delay frames=\"4\"}} {{anim id=\"23\"}}qué tal le va a la gente\ndel pueblo?{{fun_00000008 arg=\"0x0E0000000F000000\"}}\nBien, como siempre\nEstán amargados",
      "EUfr": "Au fait,{{delay frames=\"20\"}} {{anim id=\"23\"}}comment se portent tous\nmes anciens amis ?{{fun_00000008 arg=\"0x0E0000000F000000\"}}\nBien, comme d'habitude.\nPas très bien...",
      "EUit": "Ehi,{{delay frames=\"20\"}} {{anim id=\"23\"}}come stanno i vicini nella tua\ncittà? Tutto a posto?{{fun_00000008 arg=\"0x0E0000000F000000\"}}\nCome sempre.\nNon tanto bene.",
      "JPja": "そういや　{{ruby charSpan=\"1\" value=\"むかし\"}}昔の{{ruby charSpan=\"3\" value=\"なかまたち\"}}仲間達は{{delay frames=\"20\"}}\n{{anim id=\"23\"}}{{ruby charSpan=\"2\" value=\"げんき\"}}元気にしてんのかねぇ？{{fun_00000008 arg=\"0x0E0000000F000000\"}}\n{{ruby charSpan=\"2\" value=\"あいか\"}}相変わらずだと{{ruby charSpan=\"1\" value=\"おも\"}}思うよ\n{{ruby charSpan=\"2\" value=\"げんき\"}}元気ないんじゃないかな",
      "KRko": "근데 예전 친구들은{{delay frames=\"20\"}}\n{{anim id=\"23\"}}잘 지내고 있을까?{{fun_00000008 arg=\"0x0E0000000F000000\"}}\n여전할 거야\n기운이 없지 않을까",
      "USen": "By the way,{{delay frames=\"20\"}} {{anim id=\"23\"}}how is everyone from\nback in town doing these days?{{fun_00000008 arg=\"0x0E0000000F000000\"}}\nSame as always.\nNot very happy.",
      "USes": "¿Y{{delay frames=\"4\"}} {{anim id=\"23\"}}qué tal le va a la gente\ndel pueblo?{{fun_00000008 arg=\"0x0E0000000F000000\"}}\nBien, como siempre\nEstán amargados",
      "USfr": "Au fait,{{delay frames=\"20\"}} {{anim id=\"23\"}}comment se portent tous\nmes anciens amis?{{fun_00000008 arg=\"0x0E0000000F000000\"}}\nBien, comme d'habitude.\nPas très bien..."
    }
  },
  {
    "label": "014",
    "locale": {
      "EUde": "{{anim id=\"6\"}}Haben die mich schon vergessen?{{delay frames=\"20\"}}\nDie sollen gefälligst traurig sein,\ndass ich weg bin!\n{{anim id=\"7\"}}Toll!{{delay frames=\"40\"}} {{anim id=\"9\"}}Jetzt bin ICH traurig...",
      "EUen": "{{anim id=\"38\"}}I guess that makes sense!{{delay frames=\"30\"}} \n{{anim id=\"1\"}}Nobody's gonna stay sad\nforever just because I'm gone.\n{{anim id=\"0\"}}But{{delay frames=\"20\"}} {{anim id=\"21\"}}that makes me feel a bit lonely.{{delay frames=\"8\"}}\nIt's a complicated feeling{{delay frames=\"8\"}}.{{delay frames=\"8\"}}.{{delay frames=\"8\"}}.",
      "EUes": "{{anim id=\"38\"}}¡Me alegro!{{delay frames=\"30\"}} {{anim id=\"1\"}}Pero también\nespero que me echen un\npoquito de menos{{delay frames=\"8\"}}.{{delay frames=\"8\"}}.{{delay frames=\"8\"}}.",
      "EUfr": "{{anim id=\"38\"}}C'est bien ce que je pensais !{{delay frames=\"30\"}} Ils\ndevraient être tristes que je sois\nparti, mais non...\n{{anim id=\"0\"}}Je{{delay frames=\"20\"}} {{anim id=\"21\"}}me sens un peu seul maintenant,\nc'est malin.{{delay frames=\"8\"}} Ah, la vie, c'est\ncompliqué{{delay frames=\"8\"}}.{{delay frames=\"8\"}}.{{delay frames=\"8\"}}.",
      "EUit": "{{anim id=\"38\"}}Beh, chiaro!{{delay frames=\"30\"}} {{anim id=\"1\"}}Non mi aspettavo\nche restassero tristi per sempre,\ndopo la mia partenza.\n{{anim id=\"0\"}}Allo stesso tempo,{{delay frames=\"20\"}} {{anim id=\"21\"}}sono un po'\ndeluso.{{delay frames=\"8\"}} Lo so, sono un tipo\ncomplicato{{delay frames=\"8\"}}.{{delay frames=\"8\"}}.{{delay frames=\"8\"}}.",
      "JPja": "{{anim id=\"38\"}}だよな！{{delay frames=\"30\"}}\n{{anim id=\"1\"}}オレがいなくなったからって{{delay frames=\"8\"}}\nいつまでも　{{ruby charSpan=\"1\" value=\"さび\"}}寂しがるヤツは　いねぇよな！\n{{anim id=\"0\"}}しかしまぁ、{{delay frames=\"20\"}}\n{{anim id=\"21\"}}ちょっぴり　さびしいような{{delay frames=\"8\"}}\n{{ruby charSpan=\"2\" value=\"ふくざつ\"}}複雑な{{ruby charSpan=\"2\" value=\"きぶん\"}}気分でもあるなぁ{{delay frames=\"8\"}}・{{delay frames=\"8\"}}・{{delay frames=\"8\"}}・",
      "KRko": "{{anim id=\"38\"}}하긴!{{delay frames=\"30\"}}\n{{anim id=\"1\"}}내가 떠났다고 해서 언제까지{{delay frames=\"8\"}}\n풀이 죽어 있을 녀석은 없겠지!\n{{anim id=\"0\"}}근데 솔직히{{delay frames=\"20\"}}\n{{anim id=\"21\"}}살짝 서운하기도 한 게{{delay frames=\"8\"}}\n복잡한 심정이군{{delay frames=\"8\"}}・{{delay frames=\"8\"}}・{{delay frames=\"8\"}}・",
      "USen": "{{anim id=\"38\"}}I guess that makes sense!{{delay frames=\"30\"}} \n{{anim id=\"1\"}}Nobody's gonna stay sad\nforever just because I'm gone.\n{{anim id=\"0\"}}But{{delay frames=\"20\"}} {{anim id=\"21\"}}that makes me a little bummed.{{delay frames=\"8\"}}\n{{anim id=\"27\"}}It's a complicated feeling{{delay frames=\"8\"}}.{{delay frames=\"8\"}}.{{delay frames=\"8\"}}.",
      "USes": "{{anim id=\"38\"}}¡Me alegro!{{delay frames=\"30\"}} {{anim id=\"1\"}}Pero también\nespero que me echen un\npoquito de menos{{delay frames=\"8\"}}.{{delay frames=\"8\"}}.{{delay frames=\"8\"}}.",
      "USfr": "{{anim id=\"38\"}}C'est bien ce que je pensais!{{delay frames=\"30\"}} Ils\ndevraient être tristes que je sois\nparti, mais non...\n{{anim id=\"0\"}}Je{{delay frames=\"20\"}} {{anim id=\"21\"}}me sens un peu seul maintenant,\nc'est malin.{{delay frames=\"8\"}} Ah, la vie, c'est\ncompliqué{{delay frames=\"8\"}}.{{delay frames=\"8\"}}.{{delay frames=\"8\"}}."
    }
  },
  {
    "label": "015",
    "locale": {
      "EUde": "{{anim id=\"28\"}}Die vermissen mich wohl alle!{{pageBreak}}{{anim id=\"6\"}}Das sagst du jetzt aber nicht nur so,\noder?{{delay frames=\"20\"}} {{anim id=\"33\"}}Ach was, es kann ja gar\nnicht anders sein!{{delay frames=\"20\"}} {{anim id=\"2\"}}Bwa ha ha!{{delay frames=\"30\"}}{{anim id=\"1\"}}",
      "EUen": "{{anim id=\"36\"}}So those guys are all sad because\nI'm not there?{{pageBreak}}{{anim id=\"1\"}}Come on, you're just flattering me\nnow, right?{{delay frames=\"20\"}} {{anim id=\"2\"}}GAHAHA!{{delay frames=\"30\"}}{{anim id=\"1\"}}",
      "EUes": "{{anim id=\"36\"}}Me echan de menos,{{delay frames=\"8\"}} ¿eh?{{pageBreak}}{{anim id=\"1\"}}Venga ya,{{delay frames=\"8\"}} solo intentas hacerme\nla pelota.{{delay frames=\"20\"}} {{anim id=\"2\"}}¡Ja, ja, ja!{{delay frames=\"30\"}}{{anim id=\"1\"}}",
      "EUfr": "{{anim id=\"36\"}}Tout le monde est triste parce que\nje suis parti, c'est ça ?{{pageBreak}}{{anim id=\"1\"}}Hmm, tu essaies de me flatter, ou\nquoi ?{{delay frames=\"20\"}} {{anim id=\"2\"}}HA HA HA !{{delay frames=\"30\"}}{{anim id=\"1\"}}",
      "EUit": "{{anim id=\"36\"}}Davvero? Pensi che siano ancora\ntristi perché me ne sono andato?{{pageBreak}}{{anim id=\"1\"}}Dai, lo dici per farmi piacere?{{delay frames=\"20\"}}\n{{anim id=\"2\"}}AHAHAH!{{delay frames=\"30\"}}{{anim id=\"1\"}}",
      "JPja": "{{anim id=\"36\"}}オレがいなくなって{{delay frames=\"8\"}}\n{{ruby charSpan=\"1\" value=\"さび\"}}寂しがってるだろうってか？！{{pageBreak}}{{anim id=\"1\"}}おいおい、おだてるんじゃねぇよ！{{delay frames=\"20\"}}\n{{anim id=\"2\"}}がーっはっは！{{delay frames=\"30\"}}{{anim id=\"1\"}}",
      "KRko": "{{anim id=\"36\"}}내가 없어져서{{delay frames=\"8\"}}\n다들 외로워한다구?!{{pageBreak}}{{anim id=\"1\"}}야야, 너무 비행기 태우지 마!{{delay frames=\"20\"}}\n{{anim id=\"2\"}}으ー하하핫!{{delay frames=\"30\"}}{{anim id=\"1\"}}",
      "USen": "{{anim id=\"36\"}}So those guys are all sad because\nI'm not there?{{pageBreak}}{{anim id=\"1\"}}Come on, you're just flattering me\nnow, right?{{delay frames=\"20\"}} {{anim id=\"2\"}}GAHAHA!{{delay frames=\"30\"}}{{anim id=\"1\"}}",
      "USes": "{{anim id=\"36\"}}Me echan de menos,{{delay frames=\"8\"}} ¿eh?{{pageBreak}}{{anim id=\"1\"}}Venga ya,{{delay frames=\"8\"}} solo intentas hacerme\nla pelota.{{delay frames=\"20\"}} {{anim id=\"2\"}}¡Ja, ja, ja!{{delay frames=\"30\"}}{{anim id=\"1\"}}",
      "USfr": "{{anim id=\"36\"}}Tout le monde est triste parce que\nje suis parti, c'est ça?{{pageBreak}}{{anim id=\"1\"}}Hmm, tu essaies de me flatter, ou\nquoi?{{delay frames=\"20\"}} {{anim id=\"2\"}}HA HA HA!{{delay frames=\"30\"}}{{anim id=\"1\"}}"
    }
  },
  {
    "label": "016",
    "locale": {
      "EUde": "Hast du gerade {{anim id=\"23\"}}ein Hobby, das du\neifrig betreibst?{{fun_00080008 arg=\"0x1100000012000000130000001400000015000000\"}}\nAngeln!\nInsekten fangen!\nFossilien ausgraben!\nGärtnern!\nNix davon...",
      "EUen": "So{{delay frames=\"20\"}} is there anything {{anim id=\"23\"}}you're really\ninto right now?{{fun_00080008 arg=\"0x1100000012000000130000001400000015000000\"}}\nFishing.\nCatching bugs.\nDigging up fossils.\nGardening.\nNone of those things.",
      "EUes": "Cuéntame,{{delay frames=\"8\"}} {{anim id=\"23\"}}¿tienes alguna afición?{{fun_00080008 arg=\"0x1100000012000000130000001400000015000000\"}}\nLa pesca\nCazar bichos\nBuscar fósiles\nLa jardinería\nOtra cosa",
      "EUfr": "Dis,{{delay frames=\"20\"}}{{anim id=\"23\"}} qu'est-ce qui te plaît en ce\nmoment ?{{fun_00080008 arg=\"0x1100000012000000130000001400000015000000\"}}\nLa pêche.\nLa chasse aux insectes.\nDéterrer des fossiles.\nJardiner.\nRien.",
      "EUit": "Di' un po',{{delay frames=\"20\"}}{{anim id=\"23\"}} hai un hobby particolare\nal momento?{{fun_00080008 arg=\"0x1100000012000000130000001400000015000000\"}}\nLa pesca.\nAcchiappare insetti.\nCercare fossili.\nIl giardinaggio.\nNessuno di questi.",
      "JPja": "オメェ{{delay frames=\"20\"}}　{{ruby charSpan=\"1\" value=\"つぎ\"}}次の{{ruby charSpan=\"1\" value=\"なか\"}}中で\n{{anim id=\"23\"}}{{ruby charSpan=\"1\" value=\"いま\"}}今ハマってるものって{{delay frames=\"8\"}}\nあるかい？{{fun_00080008 arg=\"0x1100000012000000130000001400000015000000\"}}\n{{ruby charSpan=\"1\" value=\"つ\"}}釣り\nムシとり\nかせきほり\nガーデニング\nこの{{ruby charSpan=\"1\" value=\"なか\"}}中にはない",
      "KRko": "너 {{delay frames=\"20\"}}이 중에서\n{{anim id=\"23\"}}요즘 좋아하는 거 있냐?{{fun_00080008 arg=\"0x1100000012000000130000001400000015000000\"}}\n낚시\n곤충채집\n화석 발굴\n정원 가꾸기\n이 중에는 없어",
      "USen": "So{{delay frames=\"20\"}} is there anything {{anim id=\"23\"}}you're really\ninto right now?{{fun_00080008 arg=\"0x1100000012000000130000001400000015000000\"}}\nFishing.\nCatching bugs.\nDigging up fossils.\nGardening.\nNone of those things.",
      "USes": "Cuéntame,{{delay frames=\"8\"}} {{anim id=\"23\"}}¿tienes alguna afición?{{fun_00080008 arg=\"0x1100000012000000130000001400000015000000\"}}\nLa pesca\nCazar bichos\nBuscar fósiles\nLa jardinería\nOtra cosa",
      "USfr": "Dis,{{delay frames=\"20\"}}{{anim id=\"23\"}} qu'est-ce qui te plaît en ce\nmoment?{{fun_00080008 arg=\"0x1100000012000000130000001400000015000000\"}}\nLa pêche.\nLa chasse aux insectes.\nDéterrer des fossiles.\nJardiner.\nRien."
    }
  },
  {
    "label": "017",
    "locale": {
      "EUde": "{{anim id=\"15\"}}Angeln?{{delay frames=\"20\"}} {{anim id=\"35\"}}Nicht so meins, aber zum\nVerputzen des Tagesfangs könnte\nich mich überreden lassen!{{i10_16 arg=\"22\"}}",
      "EUen": "{{anim id=\"15\"}}Fishing?!{{delay frames=\"20\"}} {{anim id=\"37\"}}Man, I love me some\nfishing!{{i10_16 arg=\"22\"}}",
      "EUes": "{{anim id=\"15\"}}¡A mí también me encanta pescar!{{i10_16 arg=\"22\"}}",
      "EUfr": "{{anim id=\"15\"}}La pêche ?!{{delay frames=\"20\"}} {{anim id=\"37\"}}Ouais, c'est pour les\nvrais durs !{{i10_16 arg=\"22\"}}",
      "EUit": "{{anim id=\"15\"}}La pesca?!{{delay frames=\"20\"}} {{anim id=\"37\"}}Beh, è un classico!{{i10_16 arg=\"22\"}}",
      "JPja": "{{anim id=\"15\"}}{{ruby charSpan=\"1\" value=\"つ\"}}釣りかい？！{{delay frames=\"20\"}}\n{{anim id=\"37\"}}{{ruby charSpan=\"1\" value=\"つ\"}}釣りは　いいよなぁ！{{i10_16 arg=\"22\"}}",
      "KRko": "{{anim id=\"15\"}}낚시?!{{delay frames=\"20\"}}\n{{anim id=\"37\"}}낚시 좋지!{{i10_16 arg=\"22\"}}",
      "USen": "{{anim id=\"15\"}}Fishing?!{{delay frames=\"20\"}} {{anim id=\"37\"}}Man, I love me some\nfishing!{{i10_16 arg=\"22\"}}",
      "USes": "{{anim id=\"15\"}}¡A mí también me encanta pescar!{{i10_16 arg=\"22\"}}",
      "USfr": "{{anim id=\"15\"}}La pêche?!{{delay frames=\"20\"}} {{anim id=\"37\"}}Ouais, c'est pour les\nvrais durs!{{i10_16 arg=\"22\"}}"
    }
  },
  {
    "label": "018",
    "locale": {
      "EUde": "{{anim id=\"15\"}}Insekten fangen?{{delay frames=\"20\"}} {{anim id=\"35\"}}Hehe, das macht\nSpaß!{{delay frames=\"20\"}} Zumindest bis man ein\nWespennest fängt... {{i10_16 arg=\"28\"}}",
      "EUen": "{{anim id=\"15\"}}Catching bugs?!{{delay frames=\"20\"}} {{anim id=\"37\"}}Yeah, catching bugs\nis a lot of fun!{{i10_16 arg=\"28\"}}",
      "EUes": "{{anim id=\"15\"}}¿Cazar bichos?{{delay frames=\"20\"}} {{anim id=\"37\"}}Bueno, sí, eso\ntambién está bien.{{i10_16 arg=\"28\"}}",
      "EUfr": "{{anim id=\"15\"}}La chasse aux insectes ?!{{delay frames=\"20\"}} {{anim id=\"37\"}}Ouais,\nje prends la mouche !{{i10_16 arg=\"28\"}}",
      "EUit": "{{anim id=\"15\"}}Acchiappare insetti?!{{delay frames=\"20\"}} {{anim id=\"37\"}}Beh, ha il suo\nfascino!{{i10_16 arg=\"28\"}}",
      "JPja": "{{anim id=\"15\"}}ムシとりかい？！{{delay frames=\"20\"}}\n{{anim id=\"37\"}}ムシとりは　{{ruby charSpan=\"1\" value=\"たの\"}}楽しいよなぁ！{{i10_16 arg=\"28\"}}",
      "KRko": "{{anim id=\"15\"}}곤충채집?!{{delay frames=\"20\"}}\n{{anim id=\"37\"}}곤충채집 재밌지!{{i10_16 arg=\"28\"}}",
      "USen": "{{anim id=\"15\"}}Catching bugs?!{{delay frames=\"20\"}} {{anim id=\"37\"}}Yeah, catching bugs\nis a lot of fun!{{i10_16 arg=\"28\"}}",
      "USes": "{{anim id=\"15\"}}¿Cazar bichos?{{delay frames=\"20\"}} {{anim id=\"37\"}}Bueno, sí, eso\ntambién está bien.{{i10_16 arg=\"28\"}}",
      "USfr": "{{anim id=\"15\"}}La chasse aux insectes?!{{delay frames=\"20\"}} {{anim id=\"37\"}}Ouais,\nje prends la mouche!{{i10_16 arg=\"28\"}}"
    }
  },
  {
    "label": "019",
    "locale": {
      "EUde": "{{anim id=\"15\"}}Fossilien ausgraben?{{fun_00010007 arg=\"\"}} Das würde\nmich jetzt nicht glücklich machen.{{pageBreak}}{{anim id=\"33\"}}Andererseits kann man die ja auch\nverkaufen, {{delay frames=\"8\"}}und das würde mir dann\ndoch gefallen.{{delay frames=\"20\"}} {{anim id=\"2\"}}Bwa ha ha!{{delay frames=\"30\"}}{{anim id=\"1\"}}",
      "EUen": "{{anim id=\"15\"}}Diggin' them fossils?{{fun_00010007 arg=\"\"}} {{anim id=\"37\"}}Fossils got\na bit of good ol' nostalgia in them!{{pageBreak}}{{anim id=\"36\"}}And if you sell them,{{delay frames=\"8\"}} your wallet\ngets pretty happy too.{{delay frames=\"20\"}} {{anim id=\"2\"}}GAHAHA!{{delay frames=\"30\"}}{{anim id=\"1\"}}",
      "EUes": "{{anim id=\"15\"}}¡Fósiles!{{fun_00010007 arg=\"\"}} {{anim id=\"37\"}}Claro que sí, los fósiles\ntienen mucho encanto y sobre todo\nmucha historia.{{pageBreak}}{{anim id=\"36\"}}¡También tienen mucho valor!{{delay frames=\"20\"}}\n{{anim id=\"2\"}}¡Ja, ja, ja!{{delay frames=\"30\"}}{{anim id=\"1\"}}",
      "EUfr": "{{anim id=\"15\"}}Les fossiles ?{{fun_00010007 arg=\"\"}} {{anim id=\"37\"}}Ouais, ils me rendent\nvraiment nostalgique.{{pageBreak}}{{anim id=\"36\"}}Et si tu les vends,{{delay frames=\"8\"}} ton portefeuille\nest content aussi.{{delay frames=\"20\"}} {{anim id=\"2\"}}HA HA HA !{{delay frames=\"30\"}}{{anim id=\"1\"}}",
      "EUit": "{{anim id=\"15\"}}Cercare fossili?{{fun_00010007 arg=\"\"}} {{anim id=\"37\"}}Allora sei un tipo\nnostalgico!{{pageBreak}}{{anim id=\"36\"}}Oppure lo fai soltanto per rivenderli\na caro prezzo?{{delay frames=\"8\"}} Che volpe.{{delay frames=\"20\"}} {{anim id=\"2\"}}AHAHAH!{{delay frames=\"30\"}}{{anim id=\"1\"}}",
      "JPja": "{{anim id=\"15\"}}かせきほり　かい？！{{fun_00010007 arg=\"\"}}\n{{anim id=\"37\"}}かせきは　ロマンがあって{{delay frames=\"8\"}}\nいいねぇ！\n{{anim id=\"36\"}}{{ruby charSpan=\"1\" value=\"う\"}}売れば　{{ruby charSpan=\"1\" value=\"う\"}}売ったで{{delay frames=\"8\"}}\nフトコロも　あったまるしな、{{delay frames=\"20\"}}\n{{anim id=\"2\"}}がーっはっは！{{delay frames=\"30\"}}{{anim id=\"1\"}}",
      "KRko": "{{anim id=\"15\"}}화석 발굴?!{{fun_00010007 arg=\"\"}}\n{{anim id=\"37\"}}화석은 로망이 느껴져서 좋지!{{pageBreak}}{{anim id=\"36\"}}팔면 또 나름대로{{delay frames=\"8\"}}\n형편도 좋아지고 말이야{{delay frames=\"20\"}}\n{{anim id=\"2\"}}으ー하하핫!{{delay frames=\"30\"}}{{anim id=\"1\"}}",
      "USen": "{{anim id=\"15\"}}Diggin' them fossils?{{fun_00010007 arg=\"\"}} {{anim id=\"37\"}}Fossils got\na bit of good ol' nostalgia in them!{{pageBreak}}{{anim id=\"36\"}}And if you sell them,{{delay frames=\"8\"}} your wallet\ngets pretty happy too.{{delay frames=\"20\"}} {{anim id=\"2\"}}GAHAHA!{{delay frames=\"30\"}}{{anim id=\"1\"}}",
      "USes": "{{anim id=\"15\"}}¡Fósiles!{{fun_00010007 arg=\"\"}} {{anim id=\"37\"}}Claro que sí, los fósiles\ntienen mucho encanto y sobre todo\nmucha historia.{{pageBreak}}{{anim id=\"36\"}}¡También tienen mucho valor!{{delay frames=\"20\"}}\n{{anim id=\"2\"}}¡Ja, ja, ja!{{delay frames=\"30\"}}{{anim id=\"1\"}}",
      "USfr": "{{anim id=\"15\"}}Les fossiles?{{fun_00010007 arg=\"\"}} {{anim id=\"37\"}}Ouais, ils me rendent\nvraiment nostalgique.{{pageBreak}}{{anim id=\"36\"}}Et si tu les vends,{{delay frames=\"8\"}} ton portefeuille\nest content aussi.{{delay frames=\"20\"}} {{anim id=\"2\"}}HA HA HA!{{delay frames=\"30\"}}{{anim id=\"1\"}}"
    }
  },
  {
    "label": "020",
    "locale": {
      "EUde": "{{anim id=\"15\"}}Gärtnern?{{delay frames=\"20\"}} {{anim id=\"6\"}}Das könnte lustig sein,\naber mir gehen Pflanzen immer ein!{{delay frames=\"20\"}}\n{{anim id=\"10\"}}Kaum gießt man 'ne Woche nicht...",
      "EUen": "{{anim id=\"15\"}}Gardening, huh?!{{delay frames=\"20\"}} {{anim id=\"37\"}}That's a pretty\nnice hobby!{{pageBreak}}{{anim id=\"36\"}}I'm always forgetting to water my\nplants though, so they keep wilting.",
      "EUes": "{{anim id=\"15\"}}¿La jardinería?{{delay frames=\"20\"}} {{anim id=\"37\"}}Yo soy un negado,\nsiempre se me olvida regar las\nflores...",
      "EUfr": "{{anim id=\"15\"}}Le jardinage, hein !{{delay frames=\"20\"}} {{anim id=\"37\"}}Ça, c'est du\nhobby hobby !{{pageBreak}}{{anim id=\"36\"}}Tiens, j'avais pas des plantes à\narroser d'ailleurs...?",
      "EUit": "{{anim id=\"15\"}}Il giardinaggio?!{{delay frames=\"20\"}} {{anim id=\"37\"}}Ma che hobby\ntranquillo!{{pageBreak}}{{anim id=\"36\"}}Io mi dimentico sempre di dare\nacqua alle mie piantine di basilico.\nAl massimo mi durano tre giorni!",
      "JPja": "{{anim id=\"15\"}}ガーデニングかい？！{{delay frames=\"20\"}}\n{{anim id=\"37\"}}なかなか　シュミがいいじゃねぇか！{{pageBreak}}{{anim id=\"36\"}}オレぁ　すぐに{{delay frames=\"8\"}}\n{{ruby charSpan=\"1\" value=\"みず\"}}水やりを　{{ruby charSpan=\"1\" value=\"わす\"}}忘れて{{delay frames=\"20\"}}\nからしちまうんだよなー",
      "KRko": "{{anim id=\"15\"}}정원 가꾸기?!{{delay frames=\"20\"}}\n{{anim id=\"37\"}}오호! 좋은 취미를 갖고 있구만!{{pageBreak}}{{anim id=\"36\"}}난 항상{{delay frames=\"8\"}}\n물 주는 걸 깜빡해서{{delay frames=\"20\"}}\n말려 버리지만 말이야ー",
      "USen": "{{anim id=\"15\"}}Gardening, huh?!{{delay frames=\"20\"}} {{anim id=\"37\"}}That's a pretty\nnice hobby!{{pageBreak}}{{anim id=\"36\"}}I'm always forgetting to water my\nplants though, so they keep wilting.",
      "USes": "{{anim id=\"15\"}}¿La jardinería?{{delay frames=\"20\"}} {{anim id=\"37\"}}Yo soy un negado,\nsiempre se me olvida regar las\nflores...",
      "USfr": "{{anim id=\"15\"}}Le jardinage, hein!{{delay frames=\"20\"}} {{anim id=\"37\"}}Ça, c'est du\nhobby hobby!{{pageBreak}}{{anim id=\"36\"}}Tiens, j'avais pas des plantes à\narroser d'ailleurs...?"
    }
  },
  {
    "label": "021",
    "locale": {
      "EUde": "{{anim id=\"15\"}}Ach so?{{fun_00010007 arg=\"\"}} {{anim id=\"0\"}}Na,{{delay frames=\"8\"}} jeder, wie er möchte,\n{{delay frames=\"20\"}}{{fun_00070005 arg=\"\"}}!",
      "EUen": "{{anim id=\"15\"}}Oh,{{delay frames=\"8\"}} really?{{fun_00010007 arg=\"\"}} {{anim id=\"37\"}}Well,{{delay frames=\"8\"}} everyone has their\nown way of having fun, I suppose,{{delay frames=\"20\"}}\n{{fun_00070005 arg=\"\"}}!",
      "EUes": "{{anim id=\"15\"}}Claro, claro, cada loco con su tema.{{fun_00010007 arg=\"\"}}\n{{anim id=\"37\"}}No seré yo quien se meta en cómo\nse divierte cada uno,{{delay frames=\"8\"}} {{fun_00070005 arg=\"\"}}.",
      "EUfr": "{{anim id=\"15\"}}Oh,{{delay frames=\"8\"}} vraiment ?{{fun_00010007 arg=\"\"}} {{anim id=\"37\"}}Ça doit pas rigoler\ntous les jours,{{delay frames=\"20\"}} {{fun_00070005 arg=\"\"}} !",
      "EUit": "{{anim id=\"15\"}}Oh,{{delay frames=\"8\"}} OK...{{fun_00010007 arg=\"\"}} {{anim id=\"37\"}}Beh,{{delay frames=\"8\"}} ognuno ha il suo\nmodo personale di passare\nil tempo,{{delay frames=\"20\"}} {{fun_00070005 arg=\"\"}}!",
      "JPja": "{{anim id=\"15\"}}お、{{delay frames=\"8\"}}そうかい？！{{fun_00010007 arg=\"\"}}\n{{anim id=\"37\"}}まぁ　{{delay frames=\"8\"}}{{ruby charSpan=\"1\" value=\"たの\"}}楽しみ{{ruby charSpan=\"1\" value=\"かた\"}}方は　{{ruby charSpan=\"4\" value=\"じゅうにんといろ\"}}十人十色、{{delay frames=\"20\"}}\n{{ruby charSpan=\"1\" value=\"ひと\"}}人それぞれだからな、{{delay frames=\"20\"}}{{fun_00070005 arg=\"\"}}",
      "KRko": "{{anim id=\"15\"}}아, {{delay frames=\"8\"}}그래?!{{fun_00010007 arg=\"\"}}\n{{anim id=\"37\"}}하긴 {{delay frames=\"8\"}}인생을 즐기는 방법은\n다들{{delay frames=\"20\"}} 제각각이지, {{delay frames=\"20\"}}{{fun_00070005 arg=\"\"}}",
      "USen": "{{anim id=\"15\"}}Oh,{{delay frames=\"8\"}} really?{{fun_00010007 arg=\"\"}} {{anim id=\"37\"}}Well,{{delay frames=\"8\"}} everyone has their\nown way of having fun, I suppose,{{delay frames=\"20\"}}\n{{fun_00070005 arg=\"\"}}!",
      "USes": "{{anim id=\"15\"}}Claro, claro, cada loco con su tema.{{fun_00010007 arg=\"\"}}\n{{anim id=\"37\"}}No seré yo quien se meta en cómo\nse divierte cada uno,{{delay frames=\"8\"}} {{fun_00070005 arg=\"\"}}.",
      "USfr": "{{anim id=\"15\"}}Oh,{{delay frames=\"8\"}} vraiment?{{fun_00010007 arg=\"\"}} {{anim id=\"37\"}}Ça doit pas rigoler\ntous les jours,{{delay frames=\"20\"}} {{fun_00070005 arg=\"\"}}!"
    }
  },
  {
    "label": "022",
    "locale": {
      "EUde": "{{anim id=\"6\"}}Hm, {{delay frames=\"8\"}}um diese Jahreszeit seid ihr\nAngelfans hinter Bachschmerlen her,{{delay frames=\"8\"}}\noder?{{delay frames=\"20\"}} {{anim id=\"35\"}}Na, dann viel Glück!",
      "EUen": "{{anim id=\"6\"}}This time of year, you're trying to\ncatch a loach, right?{{delay frames=\"30\"}} {{anim id=\"35\"}}Man, keep\ngoing for that perfect catch!",
      "EUes": "{{anim id=\"6\"}}En esta época del año{{delay frames=\"8\"}} hay\nque intentar pescar lochas.{{delay frames=\"30\"}}\n{{anim id=\"35\"}}¡Te deseo suerte!",
      "EUfr": "{{anim id=\"6\"}}Je suis sûr que t'essaies d'attraper\nune loche d'étang en ce moment,\nnon ?{{delay frames=\"30\"}} {{anim id=\"35\"}}Persévère, et tu l'auras !",
      "EUit": "{{anim id=\"6\"}}Scommetto che in questo periodo\nstai cercando di pescare un cobite!{{delay frames=\"30\"}}\n{{anim id=\"35\"}}Dai, siamo tutti con te!",
      "JPja": "{{anim id=\"6\"}}{{ruby charSpan=\"1\" value=\"いま\"}}今の{{ruby charSpan=\"2\" value=\"じき\"}}時期だったら{{delay frames=\"8\"}}\nやっぱり　アレかい？{{delay frames=\"30\"}}\n{{anim id=\"35\"}}ドジョウ　ねらいだろ？　{{delay frames=\"20\"}}{{fun_00070005 arg=\"\"}}？！",
      "KRko": "{{anim id=\"6\"}}요즘 같으면{{delay frames=\"8\"}}\n그게 한창 아닌가?{{delay frames=\"30\"}}\n{{anim id=\"35\"}}미꾸라지 낚시! {{delay frames=\"20\"}}{{fun_00070005 arg=\"\"}}!",
      "USen": "{{anim id=\"6\"}}This time of year, you're trying to\ncatch a loach, right?{{delay frames=\"30\"}} {{anim id=\"35\"}}Man, keep\ngoing for that perfect catch!",
      "USes": "{{anim id=\"6\"}}En esta época del año{{delay frames=\"8\"}} hay\nque intentar pescar lochas.{{delay frames=\"30\"}}\n{{anim id=\"35\"}}¡Te deseo suerte!",
      "USfr": "{{anim id=\"6\"}}Je suis sûr que t'essaies d'attraper\nune loche d'étang en ce moment,\nnon?{{delay frames=\"30\"}} {{anim id=\"35\"}}Persévère, et tu l'auras!"
    }
  },
  {
    "label": "023",
    "locale": {
      "EUde": "{{fun_0011000A arg=\"0x180018001800180018001800180019001900180018001800\"}}",
      "EUen": "{{fun_0011000A arg=\"0x180018001800180018001800180019001900180018001800\"}}",
      "EUes": "{{fun_0011000A arg=\"0x180018001800180018001800180019001900180018001800\"}}",
      "EUfr": "{{fun_0011000A arg=\"0x180018001800180018001800180019001900180018001800\"}}",
      "EUit": "{{fun_0011000A arg=\"0x180018001800180018001800180019001900180018001800\"}}",
      "JPja": "{{fun_0011000A arg=\"0x180018001800180018001800180019001900180018001800\"}}",
      "KRko": "{{fun_0011000A arg=\"0x180018001800180018001800180019001900180018001800\"}}",
      "USen": "{{fun_0011000A arg=\"0x180018001800180018001800180019001900180018001800\"}}",
      "USes": "{{fun_0011000A arg=\"0x180018001800180018001800180019001900180018001800\"}}",
      "USfr": "{{fun_0011000A arg=\"0x180018001800180018001800180019001900180018001800\"}}"
    }
  },
  {
    "label": "024",
    "locale": {
      "EUde": "{{anim id=\"6\"}}Hm,{{delay frames=\"8\"}} um diese Jahreszeit seid ihr\nAngelfans hinter Arowanas her,{{delay frames=\"8\"}}\noder?{{delay frames=\"20\"}} {{anim id=\"35\"}}Na, dann viel Glück!",
      "EUen": "{{anim id=\"6\"}}This time of year,{{delay frames=\"8\"}} you're trying to\ncatch an arowana, right?{{delay frames=\"30\"}} {{anim id=\"35\"}}Man, keep\nreaching for that perfect catch!",
      "EUes": "En esta época del año{{delay frames=\"8\"}} el pez\nmás interesante es el arowana.{{delay frames=\"30\"}}\n{{anim id=\"35\"}}¡Suerte con esas capturas!",
      "EUfr": "{{anim id=\"6\"}}À cette période de l'année,{{delay frames=\"8\"}} tu dois\nêtre en train d'essayer d'attraper un\narowana, non ?{{delay frames=\"30\"}} {{anim id=\"35\"}}La prise parfaite !",
      "EUit": "{{anim id=\"6\"}}Scommetto che in questo periodo{{delay frames=\"8\"}}\nstai cercando di acchiappare\nun arowana.{{delay frames=\"30\"}} {{anim id=\"35\"}}Tieni duro...!",
      "JPja": "{{anim id=\"6\"}}{{ruby charSpan=\"1\" value=\"いま\"}}今の{{ruby charSpan=\"2\" value=\"じき\"}}時期だったら{{delay frames=\"8\"}}\nやっぱり　アレかい？{{delay frames=\"30\"}}\n{{anim id=\"35\"}}アロワナ　ねらいだろ？　{{delay frames=\"20\"}}{{fun_00070005 arg=\"\"}}？！",
      "KRko": "{{anim id=\"6\"}}요즘 같으면{{delay frames=\"8\"}}\n그게 한창 아닌가?{{delay frames=\"30\"}}\n{{anim id=\"35\"}}아로와나 낚시! {{delay frames=\"20\"}}{{fun_00070005 arg=\"\"}}!",
      "USen": "{{anim id=\"6\"}}This time of year,{{delay frames=\"8\"}} you're trying to\ncatch an arowana, right?{{delay frames=\"30\"}} {{anim id=\"35\"}}Man, keep\nreaching for that perfect catch!",
      "USes": "En esta época del año{{delay frames=\"8\"}} el pez\nmás interesante es el arowana.{{delay frames=\"30\"}}\n{{anim id=\"35\"}}¡Suerte con esas capturas!",
      "USfr": "{{anim id=\"6\"}}À cette période de l'année,{{delay frames=\"8\"}} tu dois\nêtre en train d'essayer d'attraper un\narowana, non?{{delay frames=\"30\"}} {{anim id=\"35\"}}La prise parfaite!"
    }
  },
  {
    "label": "025",
    "locale": {
      "EUde": "{{anim id=\"6\"}}Hm,{{delay frames=\"8\"}} um diese Jahreszeit seid ihr\nAngelfans hinter Goldmakrelen her,\noder?{{delay frames=\"20\"}} {{anim id=\"35\"}}Na, dann viel Glück!",
      "EUen": "{{anim id=\"6\"}}This time of year,{{delay frames=\"8\"}} you're trying to\ncatch a dorado, right?{{delay frames=\"30\"}} {{anim id=\"35\"}}Man, keep\nreaching for that perfect catch!",
      "EUes": "{{anim id=\"6\"}}En esta época del año{{delay frames=\"8\"}} intenta\ncapturar algún dorado, ¿vale?{{delay frames=\"30\"}} {{anim id=\"35\"}}\n¡Y suerte!",
      "EUfr": "{{anim id=\"6\"}}À cette période de l'année,{{delay frames=\"8\"}} ce sont\nles dorades qu'il faut attraper,\nnon ?{{delay frames=\"30\"}} {{anim id=\"35\"}}Et c'est l'El Dorado !",
      "EUit": "{{anim id=\"6\"}}Scommetto che in questo periodo{{delay frames=\"8\"}}\nstai cercando di acchiappare\nuna corifena.{{delay frames=\"30\"}} {{anim id=\"35\"}}Faccio il tifo per te!",
      "JPja": "{{anim id=\"6\"}}{{ruby charSpan=\"1\" value=\"いま\"}}今の{{ruby charSpan=\"2\" value=\"じき\"}}時期だったら{{delay frames=\"8\"}}\nやっぱり　アレかい？{{delay frames=\"30\"}}\n{{anim id=\"35\"}}ドラド　ねらいだろ？　{{delay frames=\"20\"}}{{fun_00070005 arg=\"\"}}？！",
      "KRko": "{{anim id=\"6\"}}요즘 같으면{{delay frames=\"8\"}}\n그게 한창 아닌가?{{delay frames=\"30\"}}\n{{anim id=\"35\"}}황금연어 낚시! {{delay frames=\"20\"}}{{fun_00070005 arg=\"\"}}!",
      "USen": "{{anim id=\"6\"}}This time of year,{{delay frames=\"8\"}} you're trying to\ncatch a dorado, right?{{delay frames=\"30\"}} {{anim id=\"35\"}}Man, keep\nreaching for that perfect catch!",
      "USes": "{{anim id=\"6\"}}En esta época del año{{delay frames=\"8\"}} intenta\ncapturar algún dorado, ¿vale?{{delay frames=\"30\"}} {{anim id=\"35\"}}\n¡Y suerte!",
      "USfr": "{{anim id=\"6\"}}À cette période de l'année,{{delay frames=\"8\"}} ce sont\nles dorades qu'il faut attraper,\nnon?{{delay frames=\"30\"}} {{anim id=\"35\"}}Et c'est l'El Dorado!"
    }
  },
  {
    "label": "026",
    "locale": {
      "EUde": "{{anim id=\"6\"}}Hm, {{delay frames=\"8\"}}um diese Jahreszeit seid ihr\nAngelfans hinter Saiblingen her,\noder?{{delay frames=\"20\"}} {{anim id=\"35\"}}Na, dann viel Glück!",
      "EUen": "{{anim id=\"6\"}}This time of year,{{delay frames=\"8\"}} you're trying to\ncatch a char, right?{{delay frames=\"30\"}} {{anim id=\"35\"}}Man, keep\nreaching for that perfect catch!",
      "EUes": "{{anim id=\"6\"}}En esta época del año{{delay frames=\"8\"}} lo suyo es\ndedicarse a la pesca de la trucha.{{delay frames=\"30\"}}\n{{anim id=\"35\"}}¡Espero que encuentres muchas!",
      "EUfr": "{{anim id=\"6\"}}En cette période de l'année,{{delay frames=\"8\"}} essaie\nd'attraper un omble !{{delay frames=\"30\"}} {{anim id=\"35\"}}Fouille les\neaux de fond en comble !",
      "EUit": "{{anim id=\"6\"}}Scommetto che in questo periodo{{delay frames=\"8\"}}\nstai cercando di acchiappare\nun salmerino alpino.{{delay frames=\"30\"}} {{anim id=\"35\"}}Non mollare!",
      "JPja": "{{anim id=\"6\"}}{{ruby charSpan=\"1\" value=\"いま\"}}今の{{ruby charSpan=\"2\" value=\"じき\"}}時期だったら{{delay frames=\"8\"}}\nやっぱり　アレかい？{{delay frames=\"30\"}}\n{{anim id=\"35\"}}オオイワナ　ねらいだろ？　{{delay frames=\"20\"}}{{fun_00070005 arg=\"\"}}？！",
      "KRko": "{{anim id=\"6\"}}요즘 같으면{{delay frames=\"8\"}}\n그게 한창 아닌가?{{delay frames=\"30\"}}\n{{anim id=\"35\"}}열목어 낚시! {{delay frames=\"20\"}}{{fun_00070005 arg=\"\"}}!",
      "USen": "{{anim id=\"6\"}}This time of year,{{delay frames=\"8\"}} you're trying to\ncatch a char, right?{{delay frames=\"30\"}} {{anim id=\"35\"}}Man, keep\nreaching for that perfect catch!",
      "USes": "{{anim id=\"6\"}}En esta época del año{{delay frames=\"8\"}} lo suyo es\ndedicarse a la pesca de la trucha.{{delay frames=\"30\"}}\n{{anim id=\"35\"}}¡Espero que encuentres muchas!",
      "USfr": "{{anim id=\"6\"}}En cette période de l'année,{{delay frames=\"8\"}} essaie\nd'attraper un omble!{{delay frames=\"30\"}} {{anim id=\"35\"}}Fouille les\neaux de fond en comble!"
    }
  },
  {
    "label": "027",
    "locale": {
      "EUde": "{{anim id=\"6\"}}Hm,{{delay frames=\"8\"}} um diese Jahreszeit seid ihr\nAngelfans hinter Huchen her, oder?{{delay frames=\"20\"}}\n{{anim id=\"35\"}}Na, dann viel Glück!",
      "EUen": "{{anim id=\"6\"}}This time of year,{{delay frames=\"8\"}} you're trying to\ncatch a stringfish, right?{{delay frames=\"30\"}} {{anim id=\"35\"}}How much\nluck you having?",
      "EUes": "{{anim id=\"6\"}}En estas fechas abunda bastante\nel taimén.{{delay frames=\"30\"}} {{anim id=\"35\"}}¡Espero que pesques\nun montón!",
      "EUfr": "{{anim id=\"6\"}}À cette période de l'année, tu\ndevrais{{delay frames=\"8\"}} prendre un dai yu.{{delay frames=\"30\"}} {{anim id=\"35\"}}C'est ce\nqu'il y a de meilleur pour les yeux !",
      "EUit": "{{anim id=\"6\"}}Scommetto che in questo periodo{{delay frames=\"8\"}}\nstai cercando di acchiappare\nuno sperlano.{{delay frames=\"30\"}} {{anim id=\"35\"}}Forza e coraggio!",
      "JPja": "{{anim id=\"6\"}}{{ruby charSpan=\"1\" value=\"いま\"}}今の{{ruby charSpan=\"2\" value=\"じき\"}}時期だったら{{delay frames=\"8\"}}\nやっぱり　アレかい？{{delay frames=\"30\"}}\n{{anim id=\"35\"}}イトウ　ねらいだろ？　{{delay frames=\"20\"}}{{fun_00070005 arg=\"\"}}？！",
      "KRko": "{{anim id=\"6\"}}요즘 같으면{{delay frames=\"8\"}}\n그게 한창 아닌가?{{delay frames=\"30\"}}\n{{anim id=\"35\"}}일본연어 낚시! {{delay frames=\"20\"}}{{fun_00070005 arg=\"\"}}!",
      "USen": "{{anim id=\"6\"}}This time of year,{{delay frames=\"8\"}} you're trying to\ncatch a stringfish, right?{{delay frames=\"30\"}} {{anim id=\"35\"}}How much\nluck you having?",
      "USes": "{{anim id=\"6\"}}En estas fechas abunda bastante\nel taimén.{{delay frames=\"30\"}} {{anim id=\"35\"}}¡Espero que pesques\nun montón!",
      "USfr": "{{anim id=\"6\"}}À cette période de l'année, tu\ndevrais{{delay frames=\"8\"}} prendre un dai yu.{{delay frames=\"30\"}} {{anim id=\"35\"}}C'est ce\nqu'il y a de meilleur pour les yeux!"
    }
  },
  {
    "label": "028",
    "locale": {
      "EUde": "In dieser Jahreszeit scheinen die\nKrabbeltierchen besonders zahlreich\nunterwegs zu sein,{{delay frames=\"20\"}} {{fun_00070005 arg=\"\"}}!",
      "EUen": "This time of year, I get the feeling{{delay frames=\"8\"}}\nthat even the BUGS are happy to be\njumping around,{{delay frames=\"20\"}} {{fun_00070005 arg=\"\"}}!",
      "EUes": "En primavera salen muchos bichos.{{delay frames=\"8\"}}\n¡Aprovecha,{{delay frames=\"8\"}} {{fun_00070005 arg=\"\"}}!",
      "EUfr": "{{anim id=\"6\"}}À cette période de l'année,{{delay frames=\"8\"}} les\ninsectes adorent sauter partout,{{delay frames=\"20\"}}\n{{fun_00070005 arg=\"\"}} !",
      "EUit": "Ah, in questo periodo, mi vien\nvoglia di saltare a più non posso{{delay frames=\"8\"}}\ncome un insetto,{{delay frames=\"20\"}} {{fun_00070005 arg=\"\"}}!",
      "JPja": "{{ruby charSpan=\"1\" value=\"いま\"}}今の{{ruby charSpan=\"2\" value=\"じき\"}}時期は　ムシたちも{{delay frames=\"8\"}}\nうれしそうに　{{ruby charSpan=\"1\" value=\"と\"}}飛び{{ruby charSpan=\"1\" value=\"まわ\"}}回ってる\n{{ruby charSpan=\"1\" value=\"き\"}}気がするぜ、{{delay frames=\"20\"}}{{fun_00070005 arg=\"\"}}",
      "KRko": "요즘 날씨엔 곤충들도{{delay frames=\"8\"}}\n좋다고 뛰어다닐 것 같지 않냐?\n{{delay frames=\"20\"}}{{fun_00070005 arg=\"\"}}?",
      "USen": "This time of year, I get the feeling{{delay frames=\"8\"}}\nthat even the BUGS are happy to be\njumping around,{{delay frames=\"20\"}} {{fun_00070005 arg=\"\"}}!",
      "USes": "En primavera salen muchos bichos.{{delay frames=\"8\"}}\n¡Aprovecha,{{delay frames=\"8\"}} {{fun_00070005 arg=\"\"}}!",
      "USfr": "{{anim id=\"6\"}}À cette période de l'année,{{delay frames=\"8\"}} les\ninsectes adorent sauter partout,{{delay frames=\"20\"}}\n{{fun_00070005 arg=\"\"}}!"
    }
  },
  {
    "label": "029",
    "locale": {
      "EUde": "{{anim id=\"23\"}}Bist du auch nachts auf der Jagd\nnach Insekten?{{pageBreak}}{{anim id=\"21\"}}Nachts fängt man die meisten\nNashornkäfer und Hirschkäfer.{{pageBreak}}Da werden mächtig Sternis fließen!\n{{delay frames=\"20\"}}{{anim id=\"2\"}}Bwa ha ha!{{delay frames=\"30\"}}{{anim id=\"1\"}}",
      "EUen": "{{anim id=\"23\"}}Are you trying to catch bugs late at\nnight too?{{pageBreak}}{{anim id=\"5\"}}It's so exciting, 'cause that's when\nyou can catch lots of horned\ndynastid and stag beetles.{{pageBreak}}Let the Bells flow! {{anim id=\"2\"}}GAHAHA!",
      "EUes": "{{anim id=\"23\"}}¿Sales también a cazar bichos\ndespués de la puesta de sol?{{pageBreak}}{{anim id=\"5\"}}En las noches de verano es más fácil\nencontrar variedades de escarabajo\nastado.{{pageBreak}}¡Se cotizan muy bien! {{anim id=\"2\"}}¡Ja, ja, ja!",
      "EUfr": "{{anim id=\"23\"}}Tu vas essayer d'attraper des\ninsectes de nuit ?{{pageBreak}}{{anim id=\"5\"}}C'est là que tu pourras attraper des\ntonnes de scarabées kabuto et de\nlucanes.\nVise la lucarne ! {{anim id=\"2\"}}HA HA HA !",
      "EUit": "{{anim id=\"23\"}}Ogni tanto vai in giro di notte\na caccia di insetti?{{pageBreak}}{{anim id=\"5\"}}Nelle ore piccole si trovano tanti\ncoleotteri e scarabei kabutomushi.{{pageBreak}}Lo sai cosa vuol dire? Stelline a\npa-la-te! {{anim id=\"2\"}}AHAHAH!",
      "JPja": "{{anim id=\"23\"}}{{ruby charSpan=\"2\" value=\"よなか\"}}夜中のムシとりも　やってるかい？{{fun_00010007 arg=\"\"}}\n{{anim id=\"5\"}}カブトムシや　クワガタが{{delay frames=\"8\"}}\nわんさかとれて　{{ruby charSpan=\"1\" value=\"だい\"}}大コーフンするぜ！",
      "KRko": "{{anim id=\"23\"}}밤에 곤충채집 해봤냐?{{fun_00010007 arg=\"\"}}\n{{anim id=\"5\"}}장수풍뎅이나 사슴벌레가{{delay frames=\"8\"}}\n많이 잡혀서 진짜 재밌어!",
      "USen": "{{anim id=\"23\"}}Are you trying to catch bugs late at\nnight too?{{pageBreak}}{{anim id=\"5\"}}It's so exciting, 'cause that's when\nyou can catch lots of horned\ndynastid and stag beetles.{{pageBreak}}Let the Bells flow! {{anim id=\"2\"}}GAHAHA!",
      "USes": "{{anim id=\"23\"}}¿Sales también a cazar bichos\ndespués de la puesta de sol?{{pageBreak}}{{anim id=\"5\"}}En las noches de verano es más fácil\nencontrar variedades de escarabajo\nastado.{{pageBreak}}¡Se cotizan muy bien! {{anim id=\"2\"}}¡Ja, ja, ja!",
      "USfr": "{{anim id=\"23\"}}Tu vas essayer d'attraper des\ninsectes de nuit?{{pageBreak}}{{anim id=\"5\"}}C'est là que tu pourras attraper des\ntonnes de scarabées kabuto et de\nlucanes.\nVise la lucarne! {{anim id=\"2\"}}HA HA HA!"
    }
  },
  {
    "label": "030",
    "locale": {
      "EUde": "{{anim id=\"4\"}}{{delay frames=\"16\"}}Immer wieder schön, im Herbst\nnoch Zikaden zirpen zu hören...{{delay frames=\"20\"}}\n{{anim id=\"6\"}}Außer wenn ich meine Ruhe will!",
      "EUen": "{{anim id=\"4\"}}{{delay frames=\"16\"}}The voices of bugs have a certain\ncharm late in the fall.",
      "EUes": "Hacia el final del otoño,{{delay frames=\"8\"}} los sonidos\nde los insectos{{anim id=\"4\"}} se vuelven de lo\nmás interesante.",
      "EUfr": "{{anim id=\"4\"}}{{delay frames=\"16\"}}Le chant des insectes en automne\nme rend mélancolique... Aaahhh",
      "EUit": "{{anim id=\"4\"}}{{delay frames=\"16\"}}I rumori degli insetti d'autunno\nsono molto suggestivi.",
      "JPja": "{{anim id=\"4\"}}{{delay frames=\"16\"}}{{ruby charSpan=\"1\" value=\"あき\"}}秋のムシたちの{{ruby charSpan=\"1\" value=\"な\"}}鳴き{{ruby charSpan=\"1\" value=\"ごえ\"}}声は{{delay frames=\"8\"}}\n{{ruby charSpan=\"2\" value=\"ふぜい\"}}風情があって　いいよなぁー",
      "KRko": "{{anim id=\"4\"}}{{delay frames=\"16\"}}가을의 곤충들 울음소리는{{delay frames=\"8\"}}\n운치도 있고 좋아ー",
      "USen": "{{anim id=\"4\"}}{{delay frames=\"16\"}}The voices of bugs have a certain\ncharm late in the fall.",
      "USes": "Hacia el final del otoño,{{delay frames=\"8\"}} los sonidos\nde los insectos{{anim id=\"4\"}} se vuelven de lo\nmás interesante.",
      "USfr": "{{anim id=\"4\"}}{{delay frames=\"16\"}}Le chant des insectes en automne\nme rend mélancolique... Aaahhh"
    }
  },
  {
    "label": "031",
    "locale": {
      "EUde": "{{anim id=\"6\"}}Um diese Jahreszeit sind unsere\nkrabbeligen Freunde ziemlich\nlangweilig, {{delay frames=\"8\"}}nix los mit denen...",
      "EUen": "{{anim id=\"36\"}}At this time of year,{{delay frames=\"8\"}} all the bugs are\nkinda boring.",
      "EUes": "{{anim id=\"36\"}}En invierno casi no hay bichos.{{delay frames=\"20\"}}\nEs un latazo.",
      "EUfr": "{{anim id=\"36\"}}À cette période de l'année,{{delay frames=\"8\"}} il n'y a\nque des insectes communs et\nennuyeux...",
      "EUit": "{{anim id=\"36\"}}In questo periodo dell'anno,{{delay frames=\"8\"}}\nla popolazione d'insetti\ndella città è un po' noiosa.",
      "JPja": "{{anim id=\"36\"}}{{ruby charSpan=\"1\" value=\"いま\"}}今の{{ruby charSpan=\"2\" value=\"じき\"}}時期は{{delay frames=\"8\"}}\n{{ruby charSpan=\"2\" value=\"じみ\"}}地味なムシしか　いねぇけどな",
      "KRko": "{{anim id=\"36\"}}요즘 같은 때는{{delay frames=\"8\"}}\n변변한 곤충이 없지만 말이야!",
      "USen": "{{anim id=\"36\"}}At this time of year,{{delay frames=\"8\"}} all the bugs are\nkinda boring.",
      "USes": "{{anim id=\"36\"}}En invierno casi no hay bichos.{{delay frames=\"20\"}}\nEs un latazo.",
      "USfr": "{{anim id=\"36\"}}À cette période de l'année,{{delay frames=\"8\"}} il n'y a\nque des insectes communs et\nennuyeux..."
    }
  },
  {
    "label": "032",
    "locale": {
      "EUde": "",
      "EUen": "",
      "EUes": "",
      "EUfr": "",
      "EUit": "",
      "JPja": "",
      "KRko": "",
      "USen": "",
      "USes": "",
      "USfr": ""
    }
  },
  {
    "label": "033",
    "locale": {
      "EUde": "{{anim id=\"27\"}}Warst du mal in 'ner anderen Stadt\nund hattest vergessen, irgendwas\nmitzubringen?{{pageBreak}}{{anim id=\"35\"}}Da ist dann das Schließfach am\nBahnhof echt praktisch!{{pageBreak}}{{anim id=\"0\"}}Keine Ahnung, wie's funktioniert,\n{{anim id=\"21\"}}aber irgendwie ist das mit deinem\nSchrank verbunden!{{delay frames=\"20\"}} Sieh's dir an!\n{{anim id=\"6\"}}Und nein, {{delay frames=\"8\"}}man kommt damit nur an\nseinen eigenen Schrank!{{delay frames=\"20\"}}\n{{size value=\"75\"}}Glaub mir, ich hab's probiert...{{size value=\"100\"}}",
      "EUen": "Hey you,{{delay frames=\"20\"}} {{anim id=\"23\"}}have you ever visited\nanother town,{{delay frames=\"8\"}} {{anim id=\"27\"}}only to realize that\nyou forgot something?\n{{anim id=\"35\"}}At times like that{{delay frames=\"8\"}}.{{delay frames=\"8\"}}.{{delay frames=\"8\"}}.{{delay frames=\"20\"}}the locker in\nthe station is really useful!{{pageBreak}}{{anim id=\"0\"}}I'm not really sure how it works, but\n{{anim id=\"21\"}}that locker is somehow connected\nto your storage back home!\n{{anim id=\"37\"}}If you're curious, you should really\ncheck it out!{{delay frames=\"20\"}} I think it's actually\npretty handy!",
      "EUes": "¿No te pasa nunca que viajas a otro\nsitio y justo al llegar {{anim id=\"27\"}}te das cuenta\nde que olvidaste algo en tu pueblo?\n{{anim id=\"35\"}}Pues en esos casos es cuando\nlas taquillas de la estación son\nmás útiles que nunca{{delay frames=\"8\"}}.{{delay frames=\"8\"}}.{{delay frames=\"8\"}}.\n{{anim id=\"0\"}}Es increíble, {{anim id=\"21\"}}¡pero resulta que\nlas taquillas de todos los pueblos\nestán conectadas entre sí!\n{{anim id=\"37\"}}Eso sí,{{delay frames=\"8\"}} no me preguntes cómo\nfunciona{{delay frames=\"8\"}}.{{delay frames=\"8\"}}.{{delay frames=\"8\"}}.{{delay frames=\"8\"}} Para mí es un misterio.{{pageBreak}}Pero si no me crees, solo tienes\nque abrirlas y verlo por ti mism{{fun_0006000E arg=\"0x02006F0002006100\"}}.{{delay frames=\"20\"}}\n¡Verás qué práctico!",
      "EUfr": "Dis,{{delay frames=\"20\"}} {{anim id=\"27\"}}tu es déjà allé{{fun_0006000E arg=\"0x000002006500\"}} dans une autre\nville{{delay frames=\"8\"}} en oubliant d'emporter quelque\nchose de très important ?\n{{anim id=\"35\"}}Si ça t'arrive{{delay frames=\"8\"}}.{{delay frames=\"8\"}}.{{delay frames=\"8\"}}.{{delay frames=\"20\"}} utilise la consigne de\nla gare ! C'est super utile.{{pageBreak}}{{anim id=\"0\"}}Je sais pas exactement comment ça\nfonctionne,{{anim id=\"21\"}} mais la consigne est\nreliée à ta maison !\n{{anim id=\"37\"}}Tu devrais y jeter un coup d'œil !{{delay frames=\"20\"}}\nÇa t'aidera, j'en suis certain.",
      "EUit": "Ehi, {{anim id=\"27\"}}ti è mai capitato di andare in\nun'altra città{{delay frames=\"8\"}} e accorgerti all'arrivo\nche ti sei dimenticat{{fun_0006000E arg=\"0x02006F0002006100\"}} qualcosa?\n{{anim id=\"35\"}}In situazioni del genere{{delay frames=\"8\"}}.{{delay frames=\"8\"}}.{{delay frames=\"8\"}}.{{delay frames=\"20\"}}\nl'armadietto della stazione\npuò salvarti!{{pageBreak}}{{anim id=\"0\"}}Non so bene come funzioni, ma{{anim id=\"21\"}}\ncredo che sia collegato in qualche\nmodo alle cose che hai a casa!\n{{anim id=\"37\"}}Se sei curios{{fun_0006000E arg=\"0x02006F0002006100\"}}, dovresti provarlo!{{delay frames=\"20\"}}\nSecondo me è troppo utile!",
      "JPja": "なぁ　オメェ、{{delay frames=\"20\"}}\n{{anim id=\"27\"}}よその{{ruby charSpan=\"1\" value=\"むら\"}}村に　でかけたあとで{{delay frames=\"8\"}}\n{{ruby charSpan=\"1\" value=\"わす\"}}忘れもんに　{{ruby charSpan=\"2\" value=\"きづ\"}}気付いたことってねぇか？\n{{anim id=\"35\"}}そんな{{ruby charSpan=\"1\" value=\"とき\"}}時はな{{delay frames=\"8\"}}・{{delay frames=\"8\"}}・{{delay frames=\"8\"}}・{{delay frames=\"20\"}}\n{{ruby charSpan=\"1\" value=\"えき\"}}駅のロッカーを{{ruby charSpan=\"1\" value=\"つか\"}}使うのが　{{ruby charSpan=\"2\" value=\"べんり\"}}便利だぜ！{{pageBreak}}{{anim id=\"0\"}}どういう{{ruby charSpan=\"2\" value=\"しく\"}}仕組みか　{{ruby charSpan=\"1\" value=\"し\"}}知らねぇが、{{delay frames=\"15\"}}\n{{anim id=\"21\"}}あのロッカーは　{{ruby charSpan=\"2\" value=\"じぶん\"}}自分の{{ruby charSpan=\"1\" value=\"うち\"}}家のタンスと{{delay frames=\"8\"}}\nつながってるんだからな！\n{{anim id=\"37\"}}まぁ　{{ruby charSpan=\"1\" value=\"き\"}}気が{{ruby charSpan=\"1\" value=\"む\"}}向いたら　のぞいてみな！{{delay frames=\"20\"}}\nなにかと　{{ruby charSpan=\"2\" value=\"ちょうほう\"}}重宝するぜ！",
      "KRko": "너 말이야,{{delay frames=\"20\"}}\n{{anim id=\"27\"}}다른 마을에 놀러 갔다가{{delay frames=\"8\"}}\n안 챙긴 물건이 생각난 적은 없냐?\n{{anim id=\"35\"}}그럴 땐{{delay frames=\"8\"}}・{{delay frames=\"8\"}}・{{delay frames=\"8\"}}・{{delay frames=\"20\"}}\n역에 있는 사물함을 사용하면 편리하지!{{pageBreak}}{{anim id=\"0\"}}어떻게 된 영문인지는 모르겠지만{{delay frames=\"15\"}}\n{{anim id=\"21\"}}그 사물함은 자기네 집 서랍장하고{{delay frames=\"8\"}}\n연결되어 있거든!\n{{anim id=\"37\"}}나중에 기회되면 한번 활용해봐!{{delay frames=\"20\"}}\n엄청 쓸모가 많을 거야!",
      "USen": "Hey you,{{delay frames=\"20\"}} {{anim id=\"23\"}}have you ever visited\nanother town,{{delay frames=\"8\"}} {{anim id=\"27\"}}only to realize that\nyou forgot something?\n{{anim id=\"35\"}}At times like that{{delay frames=\"8\"}}.{{delay frames=\"8\"}}.{{delay frames=\"8\"}}.{{delay frames=\"20\"}}the locker in\nthe station is really useful!{{pageBreak}}{{anim id=\"0\"}}I'm not really sure how it works, but\n{{anim id=\"21\"}}that locker is somehow connected\nto your storage back home!\n{{anim id=\"37\"}}If you're curious, you should really\ncheck it out!{{delay frames=\"20\"}} I think it's actually\npretty handy!",
      "USes": "¿No te pasa nunca que viajas a otro\nsitio y justo al llegar {{anim id=\"27\"}}te das cuenta\nde que olvidaste algo en tu pueblo?\n{{anim id=\"35\"}}Pues en esos casos es cuando\nlas taquillas de la estación son\nmás útiles que nunca{{delay frames=\"8\"}}.{{delay frames=\"8\"}}.{{delay frames=\"8\"}}.\n{{anim id=\"0\"}}Es increíble, {{anim id=\"21\"}}¡pero resulta que\nlas taquillas de todos los pueblos\nestán conectadas entre sí!\n{{anim id=\"37\"}}Eso sí,{{delay frames=\"8\"}} no me preguntes cómo\nfunciona{{delay frames=\"8\"}}.{{delay frames=\"8\"}}.{{delay frames=\"8\"}}.{{delay frames=\"8\"}} Para mí es un misterio.{{pageBreak}}Pero si no me crees, solo tienes\nque abrirlas y verlo por ti mism{{fun_0006000E arg=\"0x02006F0002006100\"}}.{{delay frames=\"20\"}}\n¡Verás qué práctico!",
      "USfr": "Dis,{{delay frames=\"20\"}} {{anim id=\"27\"}}tu es déjà allé{{fun_0006000E arg=\"0x000002006500\"}} dans une autre\nville{{delay frames=\"8\"}} en oubliant d'emporter quelque\nchose de très important?\n{{anim id=\"35\"}}Si ça t'arrive{{delay frames=\"8\"}}.{{delay frames=\"8\"}}.{{delay frames=\"8\"}}.{{delay frames=\"20\"}} utilise la consigne de\nla gare! C'est super utile.{{pageBreak}}{{anim id=\"0\"}}Je sais pas exactement comment ça\nfonctionne,{{anim id=\"21\"}} mais la consigne est\nreliée à ta maison!\n{{anim id=\"37\"}}Tu devrais y jeter un coup d'œil!{{delay frames=\"20\"}}\nÇa t'aidera, j'en suis certain."
    }
  },
  {
    "label": "034",
    "locale": {
      "EUde": "",
      "EUen": "",
      "EUes": "",
      "EUfr": "",
      "EUit": "",
      "JPja": "",
      "KRko": "",
      "USen": "",
      "USes": "",
      "USfr": ""
    }
  },
  {
    "label": "035",
    "locale": {
      "EUde": "",
      "EUen": "",
      "EUes": "",
      "EUfr": "",
      "EUit": "",
      "JPja": "",
      "KRko": "",
      "USen": "",
      "USes": "",
      "USfr": ""
    }
  },
  {
    "label": "036",
    "locale": {
      "EUde": "",
      "EUen": "",
      "EUes": "",
      "EUfr": "",
      "EUit": "",
      "JPja": "",
      "KRko": "",
      "USen": "",
      "USes": "",
      "USfr": ""
    }
  },
  {
    "label": "037",
    "locale": {
      "EUde": "",
      "EUen": "",
      "EUes": "",
      "EUfr": "",
      "EUit": "",
      "JPja": "",
      "KRko": "",
      "USen": "",
      "USes": "",
      "USfr": ""
    }
  },
  {
    "label": "038",
    "locale": {
      "EUde": "",
      "EUen": "",
      "EUes": "",
      "EUfr": "",
      "EUit": "",
      "JPja": "",
      "KRko": "",
      "USen": "",
      "USes": "",
      "USfr": ""
    }
  },
  {
    "label": "039",
    "locale": {
      "EUde": "",
      "EUen": "",
      "EUes": "",
      "EUfr": "",
      "EUit": "",
      "JPja": "",
      "KRko": "",
      "USen": "",
      "USes": "",
      "USfr": ""
    }
  },
  {
    "label": "040",
    "locale": {
      "EUde": "",
      "EUen": "",
      "EUes": "",
      "EUfr": "",
      "EUit": "",
      "JPja": "",
      "KRko": "",
      "USen": "",
      "USes": "",
      "USfr": ""
    }
  },
  {
    "label": "041",
    "locale": {
      "EUde": "",
      "EUen": "",
      "EUes": "",
      "EUfr": "",
      "EUit": "",
      "JPja": "",
      "KRko": "",
      "USen": "",
      "USes": "",
      "USfr": ""
    }
  },
  {
    "label": "042",
    "locale": {
      "EUde": "",
      "EUen": "",
      "EUes": "",
      "EUfr": "",
      "EUit": "",
      "JPja": "",
      "KRko": "",
      "USen": "",
      "USes": "",
      "USfr": ""
    }
  },
  {
    "label": "043",
    "locale": {
      "EUde": "",
      "EUen": "",
      "EUes": "",
      "EUfr": "",
      "EUit": "",
      "JPja": "",
      "KRko": "",
      "USen": "",
      "USes": "",
      "USfr": ""
    }
  },
  {
    "label": "044",
    "locale": {
      "EUde": "",
      "EUen": "",
      "EUes": "",
      "EUfr": "",
      "EUit": "",
      "JPja": "",
      "KRko": "",
      "USen": "",
      "USes": "",
      "USfr": ""
    }
  },
  {
    "label": "045",
    "locale": {
      "EUde": "",
      "EUen": "",
      "EUes": "",
      "EUfr": "",
      "EUit": "",
      "JPja": "",
      "KRko": "",
      "USen": "",
      "USes": "",
      "USfr": ""
    }
  },
  {
    "label": "046",
    "locale": {
      "EUde": "",
      "EUen": "",
      "EUes": "",
      "EUfr": "",
      "EUit": "",
      "JPja": "",
      "KRko": "",
      "USen": "",
      "USes": "",
      "USfr": ""
    }
  },
  {
    "label": "047",
    "locale": {
      "EUde": "",
      "EUen": "",
      "EUes": "",
      "EUfr": "",
      "EUit": "",
      "JPja": "",
      "KRko": "",
      "USen": "",
      "USes": "",
      "USfr": ""
    }
  },
  {
    "label": "048",
    "locale": {
      "EUde": "",
      "EUen": "",
      "EUes": "",
      "EUfr": "",
      "EUit": "",
      "JPja": "",
      "KRko": "",
      "USen": "",
      "USes": "",
      "USfr": ""
    }
  },
  {
    "label": "049",
    "locale": {
      "EUde": "",
      "EUen": "",
      "EUes": "",
      "EUfr": "",
      "EUit": "",
      "JPja": "",
      "KRko": "",
      "USen": "",
      "USes": "",
      "USfr": ""
    }
  },
  {
    "label": "050",
    "locale": {
      "EUde": "{{anim id=\"15\"}}Du bist also {{anim id=\"0\"}}nach {{fun_00060005 arg=\"\"}}\ngezogen {{anim id=\"23\"}}und {{fun_0006000E arg=\"0x1A004200FC0072006700650072006D006500690073007400650072001E004200FC0072006700650072006D0065006900730074006500720069006E00\"}}\ngeworden?\n{{anim id=\"35\"}}Da muss ich doch glatt mal bei dir\nvorbeikommen, {{delay frames=\"8\"}}denn das muss ich\nsehen! {{delay frames=\"20\"}}{{anim id=\"2\"}}Bwa ha ha!{{delay frames=\"30\"}}{{anim id=\"1\"}}",
      "EUen": "{{anim id=\"15\"}}So you {{anim id=\"0\"}}moved to {{fun_00060005 arg=\"\"}} {{anim id=\"23\"}}and\nbecame the mayor?{{delay frames=\"20\"}} {{anim id=\"38\"}}Well, that's\nactually pretty impressive!\n{{anim id=\"1\"}}Sometime in the near future,{{delay frames=\"15\"}} I'd\nreally like to pay you a visit and\nsee you in action, Mayor! {{anim id=\"2\"}}GAHAHA!",
      "EUes": "{{anim id=\"15\"}}¿Fue llegar a {{fun_0003000E arg=\"\"}}{{fun_00060005 arg=\"\"}}\n{{anim id=\"23\"}}y convertirte en alcald{{fun_0006000E arg=\"0x020065000600650073006100\"}}?{{pageBreak}}{{anim id=\"38\"}}¡Chic{{fun_0006000E arg=\"0x02006F0002006100\"}},{{delay frames=\"4\"}} qué triunfo!{{delay frames=\"20\"}} {{anim id=\"1\"}}¡Estoy hablando\ncon toda una autoridad!{{pageBreak}}Tendré que acercarme a ver {{fun_0006000E arg=\"0x040061006C000800610020006C006100\"}}\nseño{{fun_0006000E arg=\"0x02007200040072006100\"}} alcald{{fun_0006000E arg=\"0x020065000600650073006100\"}} en acción.{{delay frames=\"20\"}}\n{{anim id=\"2\"}}¡Ja, ja, ja!",
      "EUfr": "{{anim id=\"15\"}}Donc tu as déménagé à {{anim id=\"0\"}}{{fun_00060005 arg=\"\"}} {{anim id=\"23\"}}\net t'es deven{{fun_0006000E arg=\"0x02007500040075006500\"}} maire ?{{delay frames=\"20\"}}\n{{anim id=\"38\"}}Impressionnant !\n{{anim id=\"1\"}}Bientôt,{{delay frames=\"15\"}} je viendrai voir ce que ça\ndonne, un maire en action !\n{{anim id=\"2\"}}HA HA HA !",
      "EUit": "{{anim id=\"15\"}}Ah, ti sei trasferit{{fun_0006000E arg=\"0x02006F0002006100\"}}{{anim id=\"0\"}} {{fun_0010000E arg=\"\"}} {{fun_00060005 arg=\"\"}}\n{{anim id=\"23\"}}e sei diventat{{fun_0006000E arg=\"0x02006F0002006100\"}} il sindaco?{{delay frames=\"20\"}} {{anim id=\"38\"}}Cavoli,\nche carriera coi fiocchi!\n{{anim id=\"1\"}}Dai, appena ho tempo,{{delay frames=\"15\"}} {{color id=\"5\"}}siccome ho\nsempre molto da fare...{{color id=\"65535\"}} vengo\na vederti in azione! {{anim id=\"2\"}}AHAHAH!",
      "JPja": "{{anim id=\"15\"}}そういや　オメェ、{{delay frames=\"15\"}}\n{{anim id=\"0\"}}{{fun_00060005 arg=\"\"}}{{ruby charSpan=\"1\" value=\"むら\"}}村ってとこに　{{ruby charSpan=\"2\" value=\"ひっこ\"}}引越して{{anim id=\"23\"}}{{delay frames=\"8\"}}\n{{ruby charSpan=\"2\" value=\"そんちょう\"}}村長やってるんだろ？{{delay frames=\"20\"}}{{anim id=\"38\"}}　{{ruby charSpan=\"1\" value=\"たい\"}}大したもんだぜ！\n{{anim id=\"1\"}}そのうちオレも　{{ruby charSpan=\"1\" value=\"たず\"}}訪ねて{{ruby charSpan=\"1\" value=\"い\"}}行って{{delay frames=\"15\"}}\nオメェの　{{ruby charSpan=\"2\" value=\"そんちょう\"}}村長っぷりを\n{{ruby charSpan=\"1\" value=\"み\"}}見てみたいもんだ、{{delay frames=\"20\"}}{{fun_00070005 arg=\"\"}}！",
      "KRko": "{{anim id=\"15\"}}그러고 보니 넌{{delay frames=\"15\"}}\n{{anim id=\"0\"}}{{fun_00060005 arg=\"\"}} 마을이란 곳으로 이사해서{{anim id=\"23\"}}{{delay frames=\"8\"}}\n촌장을 맡고 있다며? {{delay frames=\"20\"}}{{anim id=\"38\"}}대단하구만!\n{{anim id=\"1\"}}나도 조만간 놀러 가서{{delay frames=\"15\"}}\n니가 얼마나 잘하고 있나\n봐야겠다, {{delay frames=\"20\"}}{{fun_00070005 arg=\"\"}}!",
      "USen": "{{anim id=\"15\"}}So you {{anim id=\"0\"}}moved to {{fun_00060005 arg=\"\"}} {{anim id=\"23\"}}and\nbecame the mayor?{{delay frames=\"20\"}} {{anim id=\"38\"}}Well, that's\nactually pretty impressive!\n{{anim id=\"1\"}}Sometime in the near future,{{delay frames=\"15\"}} I'd\nreally like to pay you a visit and\nsee you in action, Mayor! {{anim id=\"2\"}}GAHAHA!",
      "USes": "{{anim id=\"15\"}}¿Fue llegar a {{fun_0003000E arg=\"\"}}{{fun_00060005 arg=\"\"}}\n{{anim id=\"23\"}}y convertirte en alcald{{fun_0006000E arg=\"0x020065000600650073006100\"}}?{{pageBreak}}{{anim id=\"38\"}}¡Chic{{fun_0006000E arg=\"0x02006F0002006100\"}},{{delay frames=\"4\"}} qué triunfo!{{delay frames=\"20\"}} {{anim id=\"1\"}}¡Estoy hablando\ncon toda una autoridad!{{pageBreak}}Tendré que acercarme a ver {{fun_0006000E arg=\"0x040061006C000800610020006C006100\"}}\nseño{{fun_0006000E arg=\"0x02007200040072006100\"}} alcald{{fun_0006000E arg=\"0x020065000600650073006100\"}} en acción.{{delay frames=\"20\"}}\n{{anim id=\"2\"}}¡Ja, ja, ja!",
      "USfr": "{{anim id=\"15\"}}Donc tu as déménagé à {{anim id=\"0\"}}{{fun_00060005 arg=\"\"}} {{anim id=\"23\"}}\net t'es deven{{fun_0006000E arg=\"0x02007500040075006500\"}} maire?{{delay frames=\"20\"}}\n{{anim id=\"38\"}}Impressionnant!\n{{anim id=\"1\"}}Bientôt,{{delay frames=\"15\"}} je viendrai voir ce que ça\ndonne, un maire en action!\n{{anim id=\"2\"}}HA HA HA!"
    }
  }
]