﻿[
  {
    "label": "001",
    "locale": {
      "EUde": "{{fun_0000000C arg=\"\"}}{{fun_0006000C arg=\"\"}}{{fun_0001000C arg=\"\"}}{{fun_0004000C arg=\"\"}}{{fun_0002000C arg=\"\"}}{{fun_0006000C arg=\"\"}}Ah!{{delay frames=\"10\"}} Wurde auch Zeit,{{delay frames=\"8\"}} {{fun_00080005 arg=\"\"}}.{{delay frames=\"20\"}}\n{{anim id=\"6\"}}Musstest du sie erst aus dem\nSchönheitsschlaf wecken oder was?{{fun_0009000C arg=\"\"}}",
      "EUen": "{{fun_0000000C arg=\"\"}}{{fun_0006000C arg=\"\"}}{{fun_0001000C arg=\"\"}}{{fun_0004000C arg=\"\"}}{{fun_0002000C arg=\"\"}}{{fun_0006000C arg=\"\"}}{{anim id=\"1\"}}Oh,{{delay frames=\"8\"}} {{fun_00080005 arg=\"\"}}!{{delay frames=\"20\"}} You're back!{{delay frames=\"8\"}}\n{{anim id=\"6\"}}About time!{{fun_0009000C arg=\"\"}}",
      "EUes": "{{fun_0000000C arg=\"\"}}{{fun_0006000C arg=\"\"}}{{fun_0001000C arg=\"\"}}{{fun_0004000C arg=\"\"}}{{fun_0002000C arg=\"\"}}{{fun_0006000C arg=\"\"}}{{anim id=\"1\"}}Vaya,{{delay frames=\"8\"}} {{fun_00080005 arg=\"\"}}, has vuelto.{{delay frames=\"20\"}}\n¡Justo a tiempo!{{fun_0009000C arg=\"\"}}",
      "EUfr": "{{fun_0000000C arg=\"\"}}{{fun_0006000C arg=\"\"}}{{fun_0001000C arg=\"\"}}{{fun_0004000C arg=\"\"}}{{fun_0002000C arg=\"\"}}{{fun_0006000C arg=\"\"}}{{anim id=\"1\"}}Ah,{{delay frames=\"8\"}} {{fun_00080005 arg=\"\"}} ! {{delay frames=\"20\"}}Te revoilà ! Il était\ntemps, dis donc.{{fun_0009000C arg=\"\"}}",
      "EUit": "{{fun_0000000C arg=\"\"}}{{fun_0006000C arg=\"\"}}{{fun_0001000C arg=\"\"}}{{fun_0004000C arg=\"\"}}{{fun_0002000C arg=\"\"}}{{fun_0006000C arg=\"\"}}{{anim id=\"1\"}}Oh,{{delay frames=\"8\"}} {{fun_00080005 arg=\"\"}}!{{delay frames=\"20\"}} Sei arrivat{{fun_0006000E arg=\"0x02006F0002006100\"}}...\nfinalmente!{{fun_0009000C arg=\"\"}}",
      "JPja": "{{fun_0000000C arg=\"\"}}{{fun_0006000C arg=\"\"}}{{fun_0001000C arg=\"\"}}{{fun_0004000C arg=\"\"}}{{fun_0002000C arg=\"\"}}{{fun_0006000C arg=\"\"}}{{anim id=\"1\"}}おっ！{{delay frames=\"8\"}}　{{fun_00080005 arg=\"\"}}！{{delay frames=\"20\"}}\n{{ruby charSpan=\"1\" value=\"けぇ\"}}帰ってきたな？{{fun_0009000C arg=\"\"}}",
      "KRko": "{{fun_0000000C arg=\"\"}}{{fun_0006000C arg=\"\"}}{{fun_0001000C arg=\"\"}}{{fun_0004000C arg=\"\"}}{{fun_0002000C arg=\"\"}}{{fun_0006000C arg=\"\"}}{{anim id=\"1\"}}오! {{delay frames=\"8\"}}{{fun_00080005 arg=\"\"}}!{{delay frames=\"20\"}}\n돌아왔네?{{fun_0009000C arg=\"\"}}",
      "USen": "{{fun_0000000C arg=\"\"}}{{fun_0006000C arg=\"\"}}{{fun_0001000C arg=\"\"}}{{fun_0004000C arg=\"\"}}{{fun_0002000C arg=\"\"}}{{fun_0006000C arg=\"\"}}{{anim id=\"1\"}}Oh,{{delay frames=\"8\"}} {{fun_00080005 arg=\"\"}}!{{delay frames=\"20\"}} You're back!{{delay frames=\"8\"}}\n{{anim id=\"6\"}}About time!{{fun_0009000C arg=\"\"}}",
      "USes": "{{fun_0000000C arg=\"\"}}{{fun_0006000C arg=\"\"}}{{fun_0001000C arg=\"\"}}{{fun_0004000C arg=\"\"}}{{fun_0002000C arg=\"\"}}{{fun_0006000C arg=\"\"}}{{anim id=\"1\"}}Vaya,{{delay frames=\"8\"}} {{fun_00080005 arg=\"\"}}, has vuelto.{{delay frames=\"20\"}}\n¡Justo a tiempo!{{fun_0009000C arg=\"\"}}",
      "USfr": "{{fun_0000000C arg=\"\"}}{{fun_0006000C arg=\"\"}}{{fun_0001000C arg=\"\"}}{{fun_0004000C arg=\"\"}}{{fun_0002000C arg=\"\"}}{{fun_0006000C arg=\"\"}}{{anim id=\"1\"}}Ah,{{delay frames=\"8\"}} {{fun_00080005 arg=\"\"}}! {{delay frames=\"20\"}}Te revoilà! Il était\ntemps, dis donc.{{fun_0009000C arg=\"\"}}"
    }
  },
  {
    "label": "002",
    "locale": {
      "EUde": "{{fun_0000000C arg=\"\"}}{{fun_0006000C arg=\"\"}}{{fun_0001000C arg=\"\"}}{{fun_0004000C arg=\"\"}}{{fun_0002000C arg=\"\"}}{{fun_0006000C arg=\"\"}}{{anim id=\"16\"}}Oho. {{delay frames=\"20\"}}Du hast es geschafft,\n{{fun_00080005 arg=\"\"}}!{{delay frames=\"20\"}} Alle Achtung.{{pageBreak}}{{anim id=\"21\"}}Normalerweise wird sie bockig,\nwenn ich sie rufe...{{fun_0009000C arg=\"\"}}",
      "EUen": "{{fun_0000000C arg=\"\"}}{{fun_0006000C arg=\"\"}}{{fun_0001000C arg=\"\"}}{{fun_0004000C arg=\"\"}}{{fun_0002000C arg=\"\"}}{{fun_0006000C arg=\"\"}}{{anim id=\"1\"}}Hey, {{fun_00080005 arg=\"\"}}!{{delay frames=\"40\"}} Thanks for taking\nthe time to bring her over!{{fun_0009000C arg=\"\"}}",
      "EUes": "{{fun_0000000C arg=\"\"}}{{fun_0006000C arg=\"\"}}{{fun_0001000C arg=\"\"}}{{fun_0004000C arg=\"\"}}{{fun_0002000C arg=\"\"}}{{fun_0006000C arg=\"\"}}{{anim id=\"1\"}}Gracias por ir a buscarla,\n{{fun_00080005 arg=\"\"}}.{{fun_0009000C arg=\"\"}}",
      "EUfr": "{{fun_0000000C arg=\"\"}}{{fun_0006000C arg=\"\"}}{{fun_0001000C arg=\"\"}}{{fun_0004000C arg=\"\"}}{{fun_0002000C arg=\"\"}}{{fun_0006000C arg=\"\"}}{{anim id=\"1\"}}Hé, {{fun_00080005 arg=\"\"}} !{{delay frames=\"40\"}} Merci de l'avoir\naccompagnée jusqu'ici !{{fun_0009000C arg=\"\"}}",
      "EUit": "{{fun_0000000C arg=\"\"}}{{fun_0006000C arg=\"\"}}{{fun_0001000C arg=\"\"}}{{fun_0004000C arg=\"\"}}{{fun_0002000C arg=\"\"}}{{fun_0006000C arg=\"\"}}{{anim id=\"1\"}}Ehi, {{fun_00080005 arg=\"\"}}!{{delay frames=\"40\"}} Grazie per averla\nportata fin qui!{{fun_0009000C arg=\"\"}}",
      "JPja": "{{fun_0000000C arg=\"\"}}{{fun_0006000C arg=\"\"}}{{fun_0001000C arg=\"\"}}{{fun_0004000C arg=\"\"}}{{fun_0002000C arg=\"\"}}{{fun_0006000C arg=\"\"}}{{anim id=\"1\"}}よう、{{fun_00080005 arg=\"\"}}{{delay frames=\"40\"}}\nわざわざ　{{ruby charSpan=\"1\" value=\"よ\"}}呼んできてくれて\nありがとよ{{fun_0009000C arg=\"\"}}",
      "KRko": "{{fun_0000000C arg=\"\"}}{{fun_0006000C arg=\"\"}}{{fun_0001000C arg=\"\"}}{{fun_0004000C arg=\"\"}}{{fun_0002000C arg=\"\"}}{{fun_0006000C arg=\"\"}}{{anim id=\"1\"}}오, {{fun_00080005 arg=\"\"}}{{delay frames=\"40\"}}\n바쁜데 불러와줘서\n고맙다{{fun_0009000C arg=\"\"}}",
      "USen": "{{fun_0000000C arg=\"\"}}{{fun_0006000C arg=\"\"}}{{fun_0001000C arg=\"\"}}{{fun_0004000C arg=\"\"}}{{fun_0002000C arg=\"\"}}{{fun_0006000C arg=\"\"}}{{anim id=\"1\"}}Hey, {{fun_00080005 arg=\"\"}}!{{delay frames=\"40\"}} Thanks for taking\nthe time to bring her over!{{fun_0009000C arg=\"\"}}",
      "USes": "{{fun_0000000C arg=\"\"}}{{fun_0006000C arg=\"\"}}{{fun_0001000C arg=\"\"}}{{fun_0004000C arg=\"\"}}{{fun_0002000C arg=\"\"}}{{fun_0006000C arg=\"\"}}{{anim id=\"1\"}}Gracias por ir a buscarla,\n{{fun_00080005 arg=\"\"}}.{{fun_0009000C arg=\"\"}}",
      "USfr": "{{fun_0000000C arg=\"\"}}{{fun_0006000C arg=\"\"}}{{fun_0001000C arg=\"\"}}{{fun_0004000C arg=\"\"}}{{fun_0002000C arg=\"\"}}{{fun_0006000C arg=\"\"}}{{anim id=\"1\"}}Hé, {{fun_00080005 arg=\"\"}}!{{delay frames=\"40\"}} Merci de l'avoir\naccompagnée jusqu'ici!{{fun_0009000C arg=\"\"}}"
    }
  },
  {
    "label": "003",
    "locale": {
      "EUde": "{{fun_0000000C arg=\"\"}}{{fun_0006000C arg=\"\"}}{{fun_0001000C arg=\"\"}}{{fun_0004000C arg=\"\"}}{{fun_0002000C arg=\"\"}}{{fun_0006000C arg=\"\"}}Oho!{{delay frames=\"20\"}} Du hast sie aufgetrieben.{{fun_0009000C arg=\"\"}}",
      "EUen": "{{fun_0000000C arg=\"\"}}{{fun_0006000C arg=\"\"}}{{fun_0001000C arg=\"\"}}{{fun_0004000C arg=\"\"}}{{fun_0002000C arg=\"\"}}{{fun_0006000C arg=\"\"}}Ha!{{delay frames=\"20\"}} You're back!{{fun_0009000C arg=\"\"}}",
      "EUes": "{{fun_0000000C arg=\"\"}}{{fun_0006000C arg=\"\"}}{{fun_0001000C arg=\"\"}}{{fun_0004000C arg=\"\"}}{{fun_0002000C arg=\"\"}}{{fun_0006000C arg=\"\"}}¡Ajá!{{delay frames=\"20\"}} ¡Ya estáis aquí!{{fun_0009000C arg=\"\"}}",
      "EUfr": "{{fun_0000000C arg=\"\"}}{{fun_0006000C arg=\"\"}}{{fun_0001000C arg=\"\"}}{{fun_0004000C arg=\"\"}}{{fun_0002000C arg=\"\"}}{{fun_0006000C arg=\"\"}}Ah,{{delay frames=\"20\"}} tu es de retour !{{fun_0009000C arg=\"\"}}",
      "EUit": "{{fun_0000000C arg=\"\"}}{{fun_0006000C arg=\"\"}}{{fun_0001000C arg=\"\"}}{{fun_0004000C arg=\"\"}}{{fun_0002000C arg=\"\"}}{{fun_0006000C arg=\"\"}}Ah!{{delay frames=\"20\"}} Guarda chi si rivede!{{fun_0009000C arg=\"\"}}",
      "JPja": "{{fun_0000000C arg=\"\"}}{{fun_0006000C arg=\"\"}}{{fun_0001000C arg=\"\"}}{{fun_0004000C arg=\"\"}}{{fun_0002000C arg=\"\"}}{{fun_0006000C arg=\"\"}}ほう！{{delay frames=\"20\"}}　{{ruby charSpan=\"1\" value=\"もど\"}}戻って{{ruby charSpan=\"1\" value=\"き\"}}来たな！{{fun_0009000C arg=\"\"}}",
      "KRko": "{{fun_0000000C arg=\"\"}}{{fun_0006000C arg=\"\"}}{{fun_0001000C arg=\"\"}}{{fun_0004000C arg=\"\"}}{{fun_0002000C arg=\"\"}}{{fun_0006000C arg=\"\"}}오우! {{delay frames=\"20\"}}갔다 왔구나!{{fun_0009000C arg=\"\"}}",
      "USen": "{{fun_0000000C arg=\"\"}}{{fun_0006000C arg=\"\"}}{{fun_0001000C arg=\"\"}}{{fun_0004000C arg=\"\"}}{{fun_0002000C arg=\"\"}}{{fun_0006000C arg=\"\"}}Ha!{{delay frames=\"20\"}} You're back!{{fun_0009000C arg=\"\"}}",
      "USes": "{{fun_0000000C arg=\"\"}}{{fun_0006000C arg=\"\"}}{{fun_0001000C arg=\"\"}}{{fun_0004000C arg=\"\"}}{{fun_0002000C arg=\"\"}}{{fun_0006000C arg=\"\"}}¡Ajá!{{delay frames=\"20\"}} ¡Ya estáis aquí!{{fun_0009000C arg=\"\"}}",
      "USfr": "{{fun_0000000C arg=\"\"}}{{fun_0006000C arg=\"\"}}{{fun_0001000C arg=\"\"}}{{fun_0004000C arg=\"\"}}{{fun_0002000C arg=\"\"}}{{fun_0006000C arg=\"\"}}Ah,{{delay frames=\"20\"}} tu es de retour!{{fun_0009000C arg=\"\"}}"
    }
  },
  {
    "label": "004",
    "locale": {
      "EUde": "{{fun_0000000C arg=\"\"}}{{fun_0006000C arg=\"\"}}{{fun_0001000C arg=\"\"}}{{fun_0004000C arg=\"\"}}{{fun_0002000C arg=\"\"}}{{fun_0006000C arg=\"\"}}{{anim id=\"18\"}}Ich glaub, mein Schwein pfeift,\n{{fun_00080005 arg=\"\"}}.{{pageBreak}}{{anim id=\"7\"}}Willst du mir weismachen, dass du\ndie ganze Zeit unterwegs warst, um\ndie Dame da aufzutreiben?{{fun_0009000C arg=\"\"}}",
      "EUen": "{{fun_0000000C arg=\"\"}}{{fun_0006000C arg=\"\"}}{{fun_0001000C arg=\"\"}}{{fun_0004000C arg=\"\"}}{{fun_0002000C arg=\"\"}}{{fun_0006000C arg=\"\"}}{{anim id=\"6\"}}Hey,{{delay frames=\"8\"}} {{fun_00080005 arg=\"\"}}!{{delay frames=\"20\"}} Why'd you take so\nlong?!{{delay frames=\"40\"}} {{anim id=\"27\"}}I got tired of waiting!{{fun_0009000C arg=\"\"}}",
      "EUes": "{{fun_0000000C arg=\"\"}}{{fun_0006000C arg=\"\"}}{{fun_0001000C arg=\"\"}}{{fun_0004000C arg=\"\"}}{{fun_0002000C arg=\"\"}}{{fun_0006000C arg=\"\"}}{{anim id=\"6\"}}Vaya,{{delay frames=\"8\"}} {{fun_00080005 arg=\"\"}}, sí que has\ntardado{{delay frames=\"8\"}}.{{delay frames=\"8\"}}.{{delay frames=\"8\"}}.{{delay frames=\"20\"}} {{anim id=\"27\"}}Ya pensaba que no\naparecerías.{{fun_0009000C arg=\"\"}}",
      "EUfr": "{{fun_0000000C arg=\"\"}}{{fun_0006000C arg=\"\"}}{{fun_0001000C arg=\"\"}}{{fun_0004000C arg=\"\"}}{{fun_0002000C arg=\"\"}}{{fun_0006000C arg=\"\"}}{{anim id=\"6\"}}Ho !{{delay frames=\"8\"}} {{fun_0003000E arg=\"\"}}{{fun_00080005 arg=\"\"}} !{{delay frames=\"20\"}} Qu'est-ce qui t'a\npris si longtemps ?{{delay frames=\"40\"}}{{anim id=\"27\"}} J'ai cru que\nj'allais mourir de vieillesse !{{fun_0009000C arg=\"\"}}",
      "EUit": "{{fun_0000000C arg=\"\"}}{{fun_0006000C arg=\"\"}}{{fun_0001000C arg=\"\"}}{{fun_0004000C arg=\"\"}}{{fun_0002000C arg=\"\"}}{{fun_0006000C arg=\"\"}}{{anim id=\"6\"}}Oh,{{delay frames=\"8\"}} {{fun_00080005 arg=\"\"}}!{{delay frames=\"20\"}} Perché ci hai messo\ncosì tanto?!{{delay frames=\"40\"}} {{anim id=\"27\"}}Che noia aspettarti!{{fun_0009000C arg=\"\"}}",
      "JPja": "{{fun_0000000C arg=\"\"}}{{fun_0006000C arg=\"\"}}{{fun_0001000C arg=\"\"}}{{fun_0004000C arg=\"\"}}{{fun_0002000C arg=\"\"}}{{fun_0006000C arg=\"\"}}{{anim id=\"6\"}}オイ！{{delay frames=\"8\"}}　{{fun_00080005 arg=\"\"}}よぉ！{{delay frames=\"20\"}}\nどこで　{{ruby charSpan=\"2\" value=\"あぶらう\"}}油売ってたんでぇ？！{{delay frames=\"40\"}}\n{{anim id=\"27\"}}オレぁ　{{ruby charSpan=\"1\" value=\"ま\"}}待ちくたびれたぜ{{fun_0009000C arg=\"\"}}",
      "KRko": "{{fun_0000000C arg=\"\"}}{{fun_0006000C arg=\"\"}}{{fun_0001000C arg=\"\"}}{{fun_0004000C arg=\"\"}}{{fun_0002000C arg=\"\"}}{{fun_0006000C arg=\"\"}}{{anim id=\"6\"}}이봐!{{delay frames=\"8\"}} {{fun_00080005 arg=\"\"}}!{{delay frames=\"20\"}}\n어디서 농땡이 부렸냐?!{{delay frames=\"40\"}}\n{{anim id=\"27\"}}기다리다가 목 빠지는 줄 알았잖아!{{fun_0009000C arg=\"\"}}",
      "USen": "{{fun_0000000C arg=\"\"}}{{fun_0006000C arg=\"\"}}{{fun_0001000C arg=\"\"}}{{fun_0004000C arg=\"\"}}{{fun_0002000C arg=\"\"}}{{fun_0006000C arg=\"\"}}{{anim id=\"6\"}}Hey,{{delay frames=\"8\"}} {{fun_00080005 arg=\"\"}}!{{delay frames=\"20\"}} Why'd you take so\nlong?!{{delay frames=\"40\"}} {{anim id=\"27\"}}I got tired of waiting!{{fun_0009000C arg=\"\"}}",
      "USes": "{{fun_0000000C arg=\"\"}}{{fun_0006000C arg=\"\"}}{{fun_0001000C arg=\"\"}}{{fun_0004000C arg=\"\"}}{{fun_0002000C arg=\"\"}}{{fun_0006000C arg=\"\"}}{{anim id=\"6\"}}Vaya,{{delay frames=\"8\"}} {{fun_00080005 arg=\"\"}}, sí que has\ntardado{{delay frames=\"8\"}}.{{delay frames=\"8\"}}.{{delay frames=\"8\"}}.{{delay frames=\"20\"}} {{anim id=\"27\"}}Ya pensaba que no\naparecerías.{{fun_0009000C arg=\"\"}}",
      "USfr": "{{fun_0000000C arg=\"\"}}{{fun_0006000C arg=\"\"}}{{fun_0001000C arg=\"\"}}{{fun_0004000C arg=\"\"}}{{fun_0002000C arg=\"\"}}{{fun_0006000C arg=\"\"}}{{anim id=\"6\"}}Ho!{{delay frames=\"8\"}} {{fun_0003000E arg=\"\"}}{{fun_00080005 arg=\"\"}}!{{delay frames=\"20\"}} Qu'est-ce qui t'a\npris si longtemps?{{delay frames=\"40\"}}{{anim id=\"27\"}} J'ai cru que\nj'allais mourir de vieillesse!{{fun_0009000C arg=\"\"}}"
    }
  },
  {
    "label": "005",
    "locale": {
      "EUde": "{{fun_0000000C arg=\"\"}}{{fun_0007000C arg=\"\"}}{{fun_0001000C arg=\"\"}}{{fun_0008000C arg=\"\"}}{{fun_0002000C arg=\"\"}}{{fun_0006000C arg=\"\"}}Hey, {{fun_00010011 arg=\"0x0000\"}}.{{delay frames=\"40\"}} Du hast mich\nhierherbestellt.{{delay frames=\"20\"}} Halten wir jetzt 'n\nMecker-Wettbewerb ab oder was?{{fun_0009000C arg=\"\"}}",
      "EUen": "{{fun_0000000C arg=\"\"}}{{fun_0007000C arg=\"\"}}{{fun_0001000C arg=\"\"}}{{fun_0008000C arg=\"\"}}{{fun_0002000C arg=\"\"}}{{fun_0006000C arg=\"\"}}Hey, {{fun_00010011 arg=\"0x0000\"}}.{{delay frames=\"40\"}} You asked me to\ncome all the way here.{{delay frames=\"8\"}} We gonna\nhave a duel or what?{{fun_0009000C arg=\"\"}}",
      "EUes": "{{fun_0000000C arg=\"\"}}{{fun_0007000C arg=\"\"}}{{fun_0001000C arg=\"\"}}{{fun_0008000C arg=\"\"}}{{fun_0002000C arg=\"\"}}{{fun_0006000C arg=\"\"}}¡Eh, {{fun_00010011 arg=\"0x0000\"}}!{{delay frames=\"40\"}} ¿Qué mosca te ha\npicado para hacerme venir?{{delay frames=\"8\"}} ¿Nos\nvamos a batir en duelo o qué?{{fun_0009000C arg=\"\"}}",
      "EUfr": "{{fun_0000000C arg=\"\"}}{{fun_0007000C arg=\"\"}}{{fun_0001000C arg=\"\"}}{{fun_0008000C arg=\"\"}}{{fun_0002000C arg=\"\"}}{{fun_0006000C arg=\"\"}}Hep, {{fun_00010011 arg=\"0x0000\"}} !{{delay frames=\"40\"}} J'peux savoir\npourquoi j'suis là ? Tu veux\nm'défier en duel, c'est ça ?{{fun_0009000C arg=\"\"}}",
      "EUit": "{{fun_0000000C arg=\"\"}}{{fun_0007000C arg=\"\"}}{{fun_0001000C arg=\"\"}}{{fun_0008000C arg=\"\"}}{{fun_0002000C arg=\"\"}}{{fun_0006000C arg=\"\"}}Ehi, {{fun_00010011 arg=\"0x0000\"}}.{{delay frames=\"40\"}} Mi hai fatto venire\nfin qui...{{delay frames=\"8\"}} per litigare? O cosa?{{fun_0009000C arg=\"\"}}",
      "JPja": "{{fun_0000000C arg=\"\"}}{{fun_0007000C arg=\"\"}}{{fun_0001000C arg=\"\"}}{{fun_0008000C arg=\"\"}}{{fun_0002000C arg=\"\"}}{{fun_0006000C arg=\"\"}}なんだい　{{fun_00010011 arg=\"0x0000\"}}{{delay frames=\"40\"}}\nウチを　{{ruby charSpan=\"1\" value=\"よ\"}}呼び{{ruby charSpan=\"1\" value=\"だ\"}}出して{{delay frames=\"8\"}}\nけっとうでも　しようっての？{{fun_0009000C arg=\"\"}}",
      "KRko": "{{fun_0000000C arg=\"\"}}{{fun_0007000C arg=\"\"}}{{fun_0001000C arg=\"\"}}{{fun_0008000C arg=\"\"}}{{fun_0002000C arg=\"\"}}{{fun_0006000C arg=\"\"}}뭐야, {{fun_00010011 arg=\"0x0000\"}}{{delay frames=\"40\"}}\n귀찮게 불러내선{{delay frames=\"8\"}}\n결투라도 하잔 거야?{{fun_0009000C arg=\"\"}}",
      "USen": "{{fun_0000000C arg=\"\"}}{{fun_0007000C arg=\"\"}}{{fun_0001000C arg=\"\"}}{{fun_0008000C arg=\"\"}}{{fun_0002000C arg=\"\"}}{{fun_0006000C arg=\"\"}}Hey, {{fun_00010011 arg=\"0x0000\"}}.{{delay frames=\"40\"}} You asked me to\ncome all the way here.{{delay frames=\"8\"}} We gonna\nhave a duel or what?{{fun_0009000C arg=\"\"}}",
      "USes": "{{fun_0000000C arg=\"\"}}{{fun_0007000C arg=\"\"}}{{fun_0001000C arg=\"\"}}{{fun_0008000C arg=\"\"}}{{fun_0002000C arg=\"\"}}{{fun_0006000C arg=\"\"}}¡Eh, {{fun_00010011 arg=\"0x0000\"}}!{{delay frames=\"40\"}} ¿Qué mosca te ha\npicado para hacerme venir?{{delay frames=\"8\"}} ¿Nos\nvamos a batir en duelo o qué?{{fun_0009000C arg=\"\"}}",
      "USfr": "{{fun_0000000C arg=\"\"}}{{fun_0007000C arg=\"\"}}{{fun_0001000C arg=\"\"}}{{fun_0008000C arg=\"\"}}{{fun_0002000C arg=\"\"}}{{fun_0006000C arg=\"\"}}Hep, {{fun_00010011 arg=\"0x0000\"}}!{{delay frames=\"40\"}} J'peux savoir\npourquoi j'suis là? Tu veux\nm'défier en duel, c'est ça?{{fun_0009000C arg=\"\"}}"
    }
  },
  {
    "label": "006",
    "locale": {
      "EUde": "{{fun_0000000C arg=\"\"}}{{fun_0007000C arg=\"\"}}{{fun_0001000C arg=\"\"}}{{fun_0008000C arg=\"\"}}{{fun_0002000C arg=\"\"}}{{fun_0006000C arg=\"\"}}Hey, {{fun_00010011 arg=\"0x0000\"}}!{{delay frames=\"40\"}} Warum wollteste,{{delay frames=\"8\"}}\ndass ich herkomme,{{delay frames=\"20\"}} hä?\n{{delay frames=\"20\"}}{{fun_0003000E arg=\"\"}}{{fun_00070005 arg=\"\"}}?{{fun_0009000C arg=\"\"}}",
      "EUen": "{{fun_0000000C arg=\"\"}}{{fun_0007000C arg=\"\"}}{{fun_0001000C arg=\"\"}}{{fun_0008000C arg=\"\"}}{{fun_0002000C arg=\"\"}}{{fun_0006000C arg=\"\"}}Hey, {{fun_00010011 arg=\"0x0000\"}}!{{delay frames=\"40\"}} You asked me to\ncome all this way.{{delay frames=\"20\"}} What'd you want\nfrom me, huh?{{delay frames=\"8\"}} {{fun_0003000E arg=\"\"}}{{fun_00070005 arg=\"\"}}?{{fun_0009000C arg=\"\"}}",
      "EUes": "{{fun_0000000C arg=\"\"}}{{fun_0007000C arg=\"\"}}{{fun_0001000C arg=\"\"}}{{fun_0008000C arg=\"\"}}{{fun_0002000C arg=\"\"}}{{fun_0006000C arg=\"\"}}¡Oye, {{fun_00010011 arg=\"0x0000\"}}!{{delay frames=\"40\"}} Mira que\nhacerme venir hasta aquí{{delay frames=\"8\"}}.{{delay frames=\"8\"}}.{{delay frames=\"8\"}}.{{delay frames=\"20\"}}\n¿Se puede saber qué quieres?{{fun_0009000C arg=\"\"}}",
      "EUfr": "{{fun_0000000C arg=\"\"}}{{fun_0007000C arg=\"\"}}{{fun_0001000C arg=\"\"}}{{fun_0008000C arg=\"\"}}{{fun_0002000C arg=\"\"}}{{fun_0006000C arg=\"\"}}{{fun_00010011 arg=\"0x0000\"}}...{{delay frames=\"40\"}} Tu voulais me voir.{{delay frames=\"20\"}}\nJ'peux savoir c'que tu m'veux ?{{delay frames=\"8\"}}\n{{fun_0003000E arg=\"\"}}{{fun_00070005 arg=\"\"}} ?{{fun_0009000C arg=\"\"}}",
      "EUit": "{{fun_0000000C arg=\"\"}}{{fun_0007000C arg=\"\"}}{{fun_0001000C arg=\"\"}}{{fun_0008000C arg=\"\"}}{{fun_0002000C arg=\"\"}}{{fun_0006000C arg=\"\"}}Ehi, {{fun_00010011 arg=\"0x0000\"}}!{{delay frames=\"40\"}} A quanto pare\nhai bisogno di parlarmi.{{delay frames=\"20\"}} Cos'è che\nvuoi da me, {{delay frames=\"8\"}}{{fun_00070005 arg=\"\"}}?{{fun_0009000C arg=\"\"}}",
      "JPja": "{{fun_0000000C arg=\"\"}}{{fun_0007000C arg=\"\"}}{{fun_0001000C arg=\"\"}}{{fun_0008000C arg=\"\"}}{{fun_0002000C arg=\"\"}}{{fun_0006000C arg=\"\"}}ねぇ、{{fun_00010011 arg=\"0x0000\"}}{{delay frames=\"40\"}}\nわざわざ　{{ruby charSpan=\"1\" value=\"よ\"}}呼び{{ruby charSpan=\"1\" value=\"だ\"}}出すなんて、{{delay frames=\"20\"}}\n{{ruby charSpan=\"2\" value=\"いったい\"}}一体　どんな{{ruby charSpan=\"2\" value=\"ようじ\"}}用事だい？{{delay frames=\"8\"}}　{{fun_00070005 arg=\"\"}}？{{fun_0009000C arg=\"\"}}",
      "KRko": "{{fun_0000000C arg=\"\"}}{{fun_0007000C arg=\"\"}}{{fun_0001000C arg=\"\"}}{{fun_0008000C arg=\"\"}}{{fun_0002000C arg=\"\"}}{{fun_0006000C arg=\"\"}}이봐, {{fun_00010011 arg=\"0x0000\"}}{{delay frames=\"40\"}}\n굳이 날 여기까지 불러내다니{{delay frames=\"20\"}}\n대체 무슨 일인데?{{delay frames=\"8\"}} {{fun_00070005 arg=\"\"}}?{{fun_0009000C arg=\"\"}}",
      "USen": "{{fun_0000000C arg=\"\"}}{{fun_0007000C arg=\"\"}}{{fun_0001000C arg=\"\"}}{{fun_0008000C arg=\"\"}}{{fun_0002000C arg=\"\"}}{{fun_0006000C arg=\"\"}}Hey, {{fun_00010011 arg=\"0x0000\"}}!{{delay frames=\"40\"}} You asked me to\ncome all this way.{{delay frames=\"20\"}} What'd you want\nfrom me, huh?{{delay frames=\"8\"}} {{fun_0003000E arg=\"\"}}{{fun_00070005 arg=\"\"}}?{{fun_0009000C arg=\"\"}}",
      "USes": "{{fun_0000000C arg=\"\"}}{{fun_0007000C arg=\"\"}}{{fun_0001000C arg=\"\"}}{{fun_0008000C arg=\"\"}}{{fun_0002000C arg=\"\"}}{{fun_0006000C arg=\"\"}}¡Oye, {{fun_00010011 arg=\"0x0000\"}}!{{delay frames=\"40\"}} Mira que\nhacerme venir hasta aquí{{delay frames=\"8\"}}.{{delay frames=\"8\"}}.{{delay frames=\"8\"}}.{{delay frames=\"20\"}}\n¿Se puede saber qué quieres?{{fun_0009000C arg=\"\"}}",
      "USfr": "{{fun_0000000C arg=\"\"}}{{fun_0007000C arg=\"\"}}{{fun_0001000C arg=\"\"}}{{fun_0008000C arg=\"\"}}{{fun_0002000C arg=\"\"}}{{fun_0006000C arg=\"\"}}{{fun_00010011 arg=\"0x0000\"}}...{{delay frames=\"40\"}} Tu voulais me voir.{{delay frames=\"20\"}}\nJ'peux savoir c'que tu m'veux?{{delay frames=\"8\"}}\n{{fun_0003000E arg=\"\"}}{{fun_00070005 arg=\"\"}}?{{fun_0009000C arg=\"\"}}"
    }
  },
  {
    "label": "007",
    "locale": {
      "EUde": "{{fun_0000000C arg=\"\"}}{{fun_0007000C arg=\"\"}}{{fun_0001000C arg=\"\"}}{{fun_0008000C arg=\"\"}}{{fun_0002000C arg=\"\"}}{{fun_0006000C arg=\"\"}}Sei nicht schüchtern,{{delay frames=\"8\"}} {{fun_00010011 arg=\"0x0000\"}}!{{delay frames=\"20\"}}\nWarum wollteste, dass ich her-\nkomme?{{delay frames=\"40\"}} Los!{{delay frames=\"20\"}} Spuck's aus!{{fun_0009000C arg=\"\"}}",
      "EUen": "{{fun_0000000C arg=\"\"}}{{fun_0007000C arg=\"\"}}{{fun_0001000C arg=\"\"}}{{fun_0008000C arg=\"\"}}{{fun_0002000C arg=\"\"}}{{fun_0006000C arg=\"\"}}Come on,{{delay frames=\"8\"}} {{fun_00010011 arg=\"0x0000\"}}!{{delay frames=\"20\"}} Spit it out,\nand tell me what you want!{{delay frames=\"40\"}} I don't\nhave all day to waste!{{fun_0009000C arg=\"\"}}",
      "EUes": "{{fun_0000000C arg=\"\"}}{{fun_0007000C arg=\"\"}}{{fun_0001000C arg=\"\"}}{{fun_0008000C arg=\"\"}}{{fun_0002000C arg=\"\"}}{{fun_0006000C arg=\"\"}}¡A ver,{{delay frames=\"8\"}} {{fun_00010011 arg=\"0x0000\"}}!{{delay frames=\"20\"}} ¿Qué querías?{{delay frames=\"40\"}}\nSuéltalo ya, ¡que no tengo todo\nel día!{{fun_0009000C arg=\"\"}}",
      "EUfr": "{{fun_0000000C arg=\"\"}}{{fun_0007000C arg=\"\"}}{{fun_0001000C arg=\"\"}}{{fun_0008000C arg=\"\"}}{{fun_0002000C arg=\"\"}}{{fun_0006000C arg=\"\"}}Toi, là ! Ouais, {{fun_00010011 arg=\"0x0000\"}}, j'te\ncause !{{delay frames=\"20\"}} Qu'est-ce que tu m'veux ?{{delay frames=\"40\"}}\nDépêche, j'ai pas toute la journée !{{fun_0009000C arg=\"\"}}",
      "EUit": "{{fun_0000000C arg=\"\"}}{{fun_0007000C arg=\"\"}}{{fun_0001000C arg=\"\"}}{{fun_0008000C arg=\"\"}}{{fun_0002000C arg=\"\"}}{{fun_0006000C arg=\"\"}}Forza,{{delay frames=\"8\"}} {{fun_00010011 arg=\"0x0000\"}}!{{delay frames=\"20\"}} Sputa il rospo\ne dimmi cosa vuoi!{{delay frames=\"40\"}} Ho da fare altre\ncose, sai?!{{fun_0009000C arg=\"\"}}",
      "JPja": "{{fun_0000000C arg=\"\"}}{{fun_0007000C arg=\"\"}}{{fun_0001000C arg=\"\"}}{{fun_0008000C arg=\"\"}}{{fun_0002000C arg=\"\"}}{{fun_0006000C arg=\"\"}}ほら！{{delay frames=\"8\"}}　{{fun_00010011 arg=\"0x0000\"}}！{{delay frames=\"20\"}}\nさっさと　{{ruby charSpan=\"2\" value=\"ようけん\"}}用件を{{ruby charSpan=\"1\" value=\"い\"}}言いなって！{{delay frames=\"40\"}}\nウチも　ヒマじゃないんだからね{{fun_0009000C arg=\"\"}}",
      "KRko": "{{fun_0000000C arg=\"\"}}{{fun_0007000C arg=\"\"}}{{fun_0001000C arg=\"\"}}{{fun_0008000C arg=\"\"}}{{fun_0002000C arg=\"\"}}{{fun_0006000C arg=\"\"}}야!{{delay frames=\"8\"}} {{fun_00010011 arg=\"0x0000\"}}!{{delay frames=\"20\"}}\n빨랑 용건을 말해!{{delay frames=\"40\"}}\n난 그렇게 한가한 사람 아니거든?!{{fun_0009000C arg=\"\"}}",
      "USen": "{{fun_0000000C arg=\"\"}}{{fun_0007000C arg=\"\"}}{{fun_0001000C arg=\"\"}}{{fun_0008000C arg=\"\"}}{{fun_0002000C arg=\"\"}}{{fun_0006000C arg=\"\"}}Come on,{{delay frames=\"8\"}} {{fun_00010011 arg=\"0x0000\"}}!{{delay frames=\"20\"}} Spit it out,\nand tell me what you want!{{delay frames=\"40\"}} I don't\nhave all day to waste!{{fun_0009000C arg=\"\"}}",
      "USes": "{{fun_0000000C arg=\"\"}}{{fun_0007000C arg=\"\"}}{{fun_0001000C arg=\"\"}}{{fun_0008000C arg=\"\"}}{{fun_0002000C arg=\"\"}}{{fun_0006000C arg=\"\"}}¡A ver,{{delay frames=\"8\"}} {{fun_00010011 arg=\"0x0000\"}}!{{delay frames=\"20\"}} ¿Qué querías?{{delay frames=\"40\"}}\nSuéltalo ya, ¡que no tengo todo\nel día!{{fun_0009000C arg=\"\"}}",
      "USfr": "{{fun_0000000C arg=\"\"}}{{fun_0007000C arg=\"\"}}{{fun_0001000C arg=\"\"}}{{fun_0008000C arg=\"\"}}{{fun_0002000C arg=\"\"}}{{fun_0006000C arg=\"\"}}Toi, là! Ouais, {{fun_00010011 arg=\"0x0000\"}}, j'te\ncause!{{delay frames=\"20\"}} Qu'est-ce que tu m'veux?{{delay frames=\"40\"}}\nDépêche, j'ai pas toute la journée!{{fun_0009000C arg=\"\"}}"
    }
  },
  {
    "label": "008",
    "locale": {
      "EUde": "",
      "EUen": "",
      "EUes": "",
      "EUfr": "",
      "EUit": "",
      "JPja": "",
      "KRko": "",
      "USen": "",
      "USes": "",
      "USfr": ""
    }
  },
  {
    "label": "009",
    "locale": {
      "EUde": "{{fun_0000000C arg=\"\"}}{{fun_0005000C arg=\"\"}}{{anim id=\"6\"}}Ruhig mit den jungen Pferden, ja?{{delay frames=\"30\"}}\nIch hab hier was, das dir gehört.{{pageBreak}}{{anim id=\"0\"}}Keine Ahnung, warum dein Plunder\nbei mir rumfliegt. {{delay frames=\"20\"}}Vielleicht hab ich\nmir den mal geliehen.{{fun_0009000C arg=\"\"}}",
      "EUen": "{{fun_0000000C arg=\"\"}}{{fun_0005000C arg=\"\"}}I thought I should return this thing\nI borrowed from you a while ago!{{delay frames=\"16\"}}\n{{anim id=\"36\"}}Sorry I kept it for so long!{{fun_0009000C arg=\"\"}}",
      "EUes": "{{fun_0000000C arg=\"\"}}{{fun_0005000C arg=\"\"}}{{color id=\"5\"}}Vaya genio se gasta{{color id=\"5\"}}{{delay frames=\"8\"}}{{color id=\"5\"}}.{{color id=\"5\"}}{{delay frames=\"8\"}}{{color id=\"5\"}}.{{delay frames=\"8\"}}.{{delay frames=\"20\"}}{{color id=\"65535\"}}\nPues te quería devolver esto.{{delay frames=\"20\"}}\n{{anim id=\"1\"}}Me lo prestaste hace un montón.{{fun_0009000C arg=\"\"}}",
      "EUfr": "{{fun_0000000C arg=\"\"}}{{fun_0005000C arg=\"\"}}J'ai pensé que je devais te rendre\nce truc que je t'ai emprunté il y a\nun moment.\n{{anim id=\"1\"}}Désolé de l'avoir gardé si\nlongtemps, {{delay frames=\"20\"}}{{fun_00070005 arg=\"\"}} !{{fun_0009000C arg=\"\"}}",
      "EUit": "{{fun_0000000C arg=\"\"}}{{fun_0005000C arg=\"\"}}Volevo solo restituirti questa cosa\nche mi avevi prestato tanto tempo\nfa!{{fun_00010007 arg=\"\"}} {{anim id=\"1\"}}Scusa se l'ho tenuta così tanto!{{fun_0009000C arg=\"\"}}",
      "JPja": "{{fun_0000000C arg=\"\"}}{{fun_0005000C arg=\"\"}}オメェから　{{ruby charSpan=\"1\" value=\"か\"}}借りっぱなしだった　コレ、{{delay frames=\"20\"}}\nそろそろ　{{ruby charSpan=\"1\" value=\"かえ\"}}返そうと{{ruby charSpan=\"1\" value=\"おも\"}}思ってな！{{fun_00010007 arg=\"\"}}\n{{anim id=\"1\"}}{{ruby charSpan=\"1\" value=\"おそ\"}}遅くなっちまって　{{ruby charSpan=\"1\" value=\"わる\"}}悪かったな、{{delay frames=\"20\"}}{{fun_00070005 arg=\"\"}}{{fun_0009000C arg=\"\"}}",
      "KRko": "{{fun_0000000C arg=\"\"}}{{fun_0005000C arg=\"\"}}예전에 너한테 빌렸던 이거 말이야{{delay frames=\"20\"}}\n이제 슬슬 돌려줄까 하고!{{fun_00010007 arg=\"\"}}\n{{anim id=\"1\"}}너무 늦게줘서 미안하다, {{fun_00070005 arg=\"\"}}{{fun_0009000C arg=\"\"}}",
      "USen": "{{fun_0000000C arg=\"\"}}{{fun_0005000C arg=\"\"}}I thought I should return this thing\nI borrowed from you a while ago!{{delay frames=\"16\"}}\n{{anim id=\"36\"}}Sorry I kept it for so long!{{fun_0009000C arg=\"\"}}",
      "USes": "{{fun_0000000C arg=\"\"}}{{fun_0005000C arg=\"\"}}{{color id=\"5\"}}Vaya genio se gasta{{color id=\"5\"}}{{delay frames=\"8\"}}{{color id=\"5\"}}.{{color id=\"5\"}}{{delay frames=\"8\"}}{{color id=\"5\"}}.{{delay frames=\"8\"}}.{{delay frames=\"20\"}}{{color id=\"65535\"}}\nPues te quería devolver esto.{{delay frames=\"20\"}}\n{{anim id=\"1\"}}Me lo prestaste hace un montón.{{fun_0009000C arg=\"\"}}",
      "USfr": "{{fun_0000000C arg=\"\"}}{{fun_0005000C arg=\"\"}}J'ai pensé que je devais te rendre\nce truc que je t'ai emprunté il y a\nun moment.\n{{anim id=\"1\"}}Désolé de l'avoir gardé si\nlongtemps, {{delay frames=\"20\"}}{{fun_00070005 arg=\"\"}}!{{fun_0009000C arg=\"\"}}"
    }
  },
  {
    "label": "010",
    "locale": {
      "EUde": "{{fun_0000000C arg=\"\"}}{{fun_0007000C arg=\"\"}}{{anim id=\"15\"}}{{fun_0008000E arg=\"0x00CD08004D00650069006E000A004D00650069006E00650008004D00650069006E00\"}} {{fun_00030011 arg=\"0x0000\"}}!{{delay frames=\"40\"}}\n{{anim id=\"1\"}}Das Teil ist voll cool, {{delay frames=\"8\"}}oder?{{pageBreak}}Sag mir Bescheid, wenn du {{fun_0008000E arg=\"0x00CD0600690068006E000600730069006500040065007300\"}}\nwieder mal brauchst!{{delay frames=\"20\"}} Jederzeit,{{delay frames=\"8\"}}\nKumpel!{{delay frames=\"20\"}} {{fun_0003000E arg=\"\"}}{{fun_00070005 arg=\"\"}}!",
      "EUen": "{{fun_0000000C arg=\"\"}}{{fun_0007000C arg=\"\"}}{{anim id=\"15\"}}Oh!{{delay frames=\"8\"}} My {{fun_00030011 arg=\"0x0000\"}}!{{delay frames=\"40\"}}\n{{anim id=\"1\"}}Pretty cool, right?{{pageBreak}}Lemme know if you need to borrow\nsomething again!{{delay frames=\"20\"}} It's no problem at\nall,{{delay frames=\"8\"}} {{fun_00070005 arg=\"\"}}!",
      "EUes": "{{fun_0000000C arg=\"\"}}{{fun_0007000C arg=\"\"}}{{anim id=\"15\"}}¡Anda!{{delay frames=\"8\"}} ¡Mi {{fun_00030011 arg=\"0x0000\"}}!{{delay frames=\"40\"}}\n{{anim id=\"1\"}}Te ha venido al pelo, ¿eh?{{pageBreak}}Si te vuelve a hacer falta, ¡tú\navisa!{{delay frames=\"20\"}} Yo estoy encantada de\nhacer favorcillos, ¡ji, ji!",
      "EUfr": "{{fun_0000000C arg=\"\"}}{{fun_0007000C arg=\"\"}}{{anim id=\"15\"}}Oh !{{delay frames=\"8\"}} {{fun_0008000E arg=\"0x00CD06004D006F006E0004004D0061000000\"}} super\n{{fun_00030011 arg=\"0x0000\"}} !{{delay frames=\"40\"}}{{anim id=\"1\"}} Ça, c'est\nd'la bombe !\n{{anim id=\"1\"}}J'espère que t'en as fait bon usage.{{pageBreak}}Fais-moi signe si t'en as besoin à\nnouveau !{{delay frames=\"20\"}} Ce sera avec plaisir.{{delay frames=\"8\"}} \n{{fun_0003000E arg=\"\"}}{{fun_00070005 arg=\"\"}} !",
      "EUit": "{{fun_0000000C arg=\"\"}}{{fun_0007000C arg=\"\"}}{{anim id=\"15\"}}Oh!{{delay frames=\"8\"}} {{fun_0003000E arg=\"\"}}{{fun_0001000E arg=\"\"}}{{fun_00030011 arg=\"0x0000\"}}!{{delay frames=\"40\"}}\n{{anim id=\"1\"}}È una forza, vero?{{pageBreak}}Quando ne hai bisogno di nuovo,\nfammelo sapere!{{delay frames=\"20\"}} {{fun_0003000E arg=\"\"}}{{fun_00070005 arg=\"\"}}!",
      "JPja": "{{fun_0000000C arg=\"\"}}{{fun_0007000C arg=\"\"}}{{anim id=\"15\"}}おっ！{{delay frames=\"8\"}}　{{fun_00030011 arg=\"0x0000\"}}！{{delay frames=\"40\"}}\n{{anim id=\"1\"}}コレ　なかなか{{ruby charSpan=\"1\" value=\"よ\"}}良かっただろ？{{pageBreak}}また　{{ruby charSpan=\"2\" value=\"ひつよう\"}}必要なら{{ruby charSpan=\"1\" value=\"い\"}}言いなよ{{delay frames=\"20\"}}\n{{ruby charSpan=\"1\" value=\"か\"}}貸してやるからさ！{{delay frames=\"8\"}}　{{fun_00070005 arg=\"\"}}！",
      "KRko": "{{fun_0000000C arg=\"\"}}{{fun_0007000C arg=\"\"}}{{anim id=\"15\"}}아!{{delay frames=\"8\"}} {{fun_00030011 arg=\"0x0000\"}}!{{delay frames=\"40\"}}\n{{anim id=\"1\"}}이거 꽤 괜찮았지?{{pageBreak}}또 필요하면 말해{{delay frames=\"20\"}}\n빌려줄 테니까!{{delay frames=\"8\"}} {{fun_00070005 arg=\"\"}}!",
      "USen": "{{fun_0000000C arg=\"\"}}{{fun_0007000C arg=\"\"}}{{anim id=\"15\"}}Oh!{{delay frames=\"8\"}} My {{fun_00030011 arg=\"0x0000\"}}!{{delay frames=\"40\"}}\n{{anim id=\"1\"}}Pretty cool, right?{{pageBreak}}Lemme know if you need to borrow\nsomething again!{{delay frames=\"20\"}} It's no problem at\nall,{{delay frames=\"8\"}} {{fun_00070005 arg=\"\"}}!",
      "USes": "{{fun_0000000C arg=\"\"}}{{fun_0007000C arg=\"\"}}{{anim id=\"15\"}}¡Anda!{{delay frames=\"8\"}} ¡Mi {{fun_00030011 arg=\"0x0000\"}}!{{delay frames=\"40\"}}\n{{anim id=\"1\"}}Te ha venido al pelo, ¿eh?{{pageBreak}}Si te vuelve a hacer falta, ¡tú\navisa!{{delay frames=\"20\"}} Yo estoy encantada de\nhacer favorcillos, ¡ji, ji!",
      "USfr": "{{fun_0000000C arg=\"\"}}{{fun_0007000C arg=\"\"}}{{anim id=\"15\"}}Oh!{{delay frames=\"8\"}} {{fun_0008000E arg=\"0x00CD06004D006F006E0004004D0061000000\"}} super\n{{fun_00030011 arg=\"0x0000\"}}!{{delay frames=\"40\"}}{{anim id=\"1\"}} Ça, c'est\nd'la bombe!\n{{anim id=\"1\"}}J'espère que t'en as fait bon usage.{{pageBreak}}Fais-moi signe si t'en as besoin à\nnouveau!{{delay frames=\"20\"}} Ce sera avec plaisir.{{delay frames=\"8\"}} \n{{fun_0003000E arg=\"\"}}{{fun_00070005 arg=\"\"}}!"
    }
  },
  {
    "label": "011",
    "locale": {
      "EUde": "{{fun_0000000C arg=\"\"}}{{fun_0005000C arg=\"\"}}{{anim id=\"6\"}}Ruhig mit den jungen Pferden, ja?!{{delay frames=\"30\"}}\nIch wollte dir was geben.{{fun_00010007 arg=\"\"}}\n{{anim id=\"0\"}}Und zwar, äh...\n{{anim id=\"39\"}}Da gab's doch was, wonach du seit\nEwigkeiten die Läden abklapperst.{{pageBreak}}Das hab ich gestern im Geschäft\ngesehen und für dich gekauft.{{delay frames=\"30\"}} {{anim id=\"7\"}}Aber\nnur, weil's Rabatt drauf gab, klar?!{{fun_0009000C arg=\"\"}}",
      "EUen": "{{fun_0000000C arg=\"\"}}{{fun_0005000C arg=\"\"}}{{anim id=\"39\"}}Well, um, it's not really important,{{delay frames=\"20\"}}\n{{anim id=\"37\"}}but I accidentally found that thing\nyou were looking for{{delay frames=\"8\"}}.{{delay frames=\"8\"}}.{{delay frames=\"8\"}}.{{pageBreak}}{{anim id=\"38\"}}So I went ahead and bought it for\nyou the other day!{{fun_0009000C arg=\"\"}}",
      "EUes": "{{fun_0000000C arg=\"\"}}{{fun_0005000C arg=\"\"}}Cálmate,{{delay frames=\"8\"}} que verás como\nme lo agradeces.{{pageBreak}}Encontré por casualidad lo que\nme dijiste que estabas buscando{{delay frames=\"8\"}}.{{delay frames=\"8\"}}.{{delay frames=\"8\"}}.{{delay frames=\"8\"}}\n{{anim id=\"38\"}}¡y te lo compré!{{fun_0009000C arg=\"\"}}",
      "EUfr": "{{fun_0000000C arg=\"\"}}{{fun_0005000C arg=\"\"}}Oh,{{delay frames=\"8\"}} c'est rien de vraiment\nimportant.{{delay frames=\"20\"}} Je suis tombé par hasard\nsur ce truc que tu cherchais{{delay frames=\"8\"}}.{{delay frames=\"8\"}}.{{delay frames=\"8\"}}.{{pageBreak}}{{anim id=\"38\"}}Alors je te l'ai acheté !{{fun_0009000C arg=\"\"}}",
      "EUit": "{{fun_0000000C arg=\"\"}}{{fun_0005000C arg=\"\"}}Ecco,{{delay frames=\"8\"}} non è molto importante,{{delay frames=\"20\"}}\nma per caso ho trovato quella cosa\nche stavi cercando{{delay frames=\"8\"}}.{{delay frames=\"8\"}}.{{delay frames=\"8\"}}.{{pageBreak}}{{anim id=\"38\"}}Te l'ho comprata proprio l'altro\ngiorno!{{fun_0009000C arg=\"\"}}",
      "JPja": "{{fun_0000000C arg=\"\"}}{{fun_0005000C arg=\"\"}}おう！{{delay frames=\"8\"}}　{{ruby charSpan=\"1\" value=\"たい\"}}大した{{ruby charSpan=\"2\" value=\"ようじ\"}}用事じゃねぇんだが、{{delay frames=\"20\"}}\nオメェの　{{ruby charSpan=\"1\" value=\"さが\"}}探してたもんが\nたまたま　{{ruby charSpan=\"1\" value=\"う\"}}売ってたからよ{{delay frames=\"8\"}}・{{delay frames=\"8\"}}・{{delay frames=\"8\"}}・{{pageBreak}}{{anim id=\"38\"}}{{ruby charSpan=\"1\" value=\"か\"}}買っといてやったぜ！{{fun_0009000C arg=\"\"}}",
      "KRko": "{{fun_0000000C arg=\"\"}}{{fun_0005000C arg=\"\"}}아!{{delay frames=\"8\"}} 대단한 용건은 아닌데{{delay frames=\"20\"}}\n니가 계속 찾던 물건을\n누가 팔더라구{{delay frames=\"8\"}}・{{delay frames=\"8\"}}・{{delay frames=\"8\"}}・{{pageBreak}}{{anim id=\"38\"}}그래서 내가 사 뒀지!{{fun_0009000C arg=\"\"}}",
      "USen": "{{fun_0000000C arg=\"\"}}{{fun_0005000C arg=\"\"}}{{anim id=\"39\"}}Well, um, it's not really important,{{delay frames=\"20\"}}\n{{anim id=\"37\"}}but I accidentally found that thing\nyou were looking for{{delay frames=\"8\"}}.{{delay frames=\"8\"}}.{{delay frames=\"8\"}}.{{pageBreak}}{{anim id=\"38\"}}So I went ahead and bought it for\nyou the other day!{{fun_0009000C arg=\"\"}}",
      "USes": "{{fun_0000000C arg=\"\"}}{{fun_0005000C arg=\"\"}}Cálmate,{{delay frames=\"8\"}} que verás como\nme lo agradeces.{{pageBreak}}Encontré por casualidad lo que\nme dijiste que estabas buscando{{delay frames=\"8\"}}.{{delay frames=\"8\"}}.{{delay frames=\"8\"}}.{{delay frames=\"8\"}}\n{{anim id=\"38\"}}¡y te lo compré!{{fun_0009000C arg=\"\"}}",
      "USfr": "{{fun_0000000C arg=\"\"}}{{fun_0005000C arg=\"\"}}Oh,{{delay frames=\"8\"}} c'est rien de vraiment\nimportant.{{delay frames=\"20\"}} Je suis tombé par hasard\nsur ce truc que tu cherchais{{delay frames=\"8\"}}.{{delay frames=\"8\"}}.{{delay frames=\"8\"}}.{{pageBreak}}{{anim id=\"38\"}}Alors je te l'ai acheté!{{fun_0009000C arg=\"\"}}"
    }
  },
  {
    "label": "012",
    "locale": {
      "EUde": "{{fun_0000000C arg=\"\"}}{{fun_0007000C arg=\"\"}}Ey!{{delay frames=\"20\"}} Das ist doch{{delay frames=\"8\"}}.{{delay frames=\"8\"}}.{{delay frames=\"8\"}}.{{delay frames=\"20\"}}\n{{anim id=\"15\"}}{{fun_000A0007 arg=\"\"}}{{fun_0008000E arg=\"0x00CD0600450069006E00060027006E0065000600450069006E00\"}} {{fun_00030011 arg=\"0x0000\"}}?!{{pageBreak}}{{anim id=\"29\"}}Boah, {{delay frames=\"8\"}}ich wollte schon immer so\nwas haben!{{delay frames=\"20\"}} Du bist echt der Beste,\n{{delay frames=\"20\"}}{{fun_00070005 arg=\"\"}}!",
      "EUen": "{{fun_0000000C arg=\"\"}}{{fun_0007000C arg=\"\"}}Eh,{{delay frames=\"20\"}} wait{{delay frames=\"8\"}}.{{delay frames=\"8\"}}.{{delay frames=\"8\"}}.{{delay frames=\"20\"}}\n{{anim id=\"15\"}}{{fun_000A0007 arg=\"\"}}{{fun_0002000E arg=\"\"}}{{fun_00030011 arg=\"0x0000\"}}?!{{pageBreak}}{{anim id=\"5\"}}Whoa, how'd you know?! Good call!{{delay frames=\"40\"}}\nThanks, {{fun_00010011 arg=\"0x0000\"}}!{{delay frames=\"20\"}} I'll definitely\nreturn the favor,{{delay frames=\"8\"}} {{fun_00070005 arg=\"\"}}!",
      "EUes": "{{fun_0000000C arg=\"\"}}{{fun_0007000C arg=\"\"}}Huy,{{delay frames=\"10\"}} pero si es{{delay frames=\"8\"}}.{{delay frames=\"8\"}}.{{delay frames=\"8\"}}.{{delay frames=\"20\"}}{{anim id=\"15\"}}{{fun_000A0007 arg=\"\"}} ¡{{fun_0002000E arg=\"\"}}\n{{fun_00030011 arg=\"0x0000\"}}!{{pageBreak}}{{anim id=\"5\"}}¡Qué flipe, me moría de ganas\nde tener {{fun_0012000E arg=\"0x1000060075006E006F00060075006E0061000000\"}}!{{delay frames=\"40\"}} Cómo me conoces,\n{{fun_00010011 arg=\"0x0000\"}}{{delay frames=\"8\"}}.{{delay frames=\"8\"}}.{{delay frames=\"8\"}}.\nOye, ¡muchísimas gracias, majete!{{delay frames=\"20\"}}\nAhora te debo una, ¡ji, ji, ji!",
      "EUfr": "{{fun_0000000C arg=\"\"}}{{fun_0007000C arg=\"\"}}Mais{{delay frames=\"8\"}}.{{delay frames=\"8\"}}.{{delay frames=\"8\"}}.{{delay frames=\"20\"}}{{anim id=\"15\"}}{{fun_000A0007 arg=\"\"}} c'est\n{{fun_0001000E arg=\"\"}}{{fun_00030011 arg=\"0x0000\"}} de\nmes rêves !{{pageBreak}}{{anim id=\"5\"}}J'attends ce moment depuis si\nlongtemps !{{delay frames=\"40\"}} Merci, {{fun_00010011 arg=\"0x0000\"}} ! Je\nte revaudrai ça,{{delay frames=\"8\"}} {{fun_00070005 arg=\"\"}} !",
      "EUit": "{{fun_0000000C arg=\"\"}}{{fun_0007000C arg=\"\"}}Ehi,{{delay frames=\"20\"}} ma è{{delay frames=\"8\"}}.{{delay frames=\"8\"}}.{{delay frames=\"8\"}}.{{delay frames=\"20\"}}\n{{anim id=\"15\"}}{{fun_000A0007 arg=\"\"}}{{fun_0003000E arg=\"\"}}{{fun_0002000E arg=\"\"}}{{fun_00030011 arg=\"0x0000\"}}?!{{pageBreak}}{{anim id=\"5\"}}Oh beh, proprio quello che volevo!{{delay frames=\"40\"}}\nGrazie, {{fun_00010011 arg=\"0x0000\"}}!{{delay frames=\"20\"}} Ti devo\nun favore,{{delay frames=\"8\"}} {{fun_00070005 arg=\"\"}}!",
      "JPja": "{{fun_0000000C arg=\"\"}}{{fun_0007000C arg=\"\"}}え、{{delay frames=\"20\"}}コレって{{delay frames=\"8\"}}・{{delay frames=\"8\"}}・{{delay frames=\"8\"}}・{{delay frames=\"20\"}}\n{{anim id=\"15\"}}{{fun_000A0007 arg=\"\"}}{{fun_00030011 arg=\"0x0000\"}}？！{{pageBreak}}{{anim id=\"1\"}}ホントに　ウチが{{ruby charSpan=\"1\" value=\"ほ\"}}欲しかったヤツじゃん！{{delay frames=\"40\"}}\n{{fun_00010011 arg=\"0x0000\"}}　ありがとう！{{delay frames=\"20\"}}\nこの{{ruby charSpan=\"1\" value=\"か\"}}借りは　{{ruby charSpan=\"1\" value=\"かなら\"}}必ず{{ruby charSpan=\"1\" value=\"かえ\"}}返すからね、{{delay frames=\"8\"}}{{fun_00070005 arg=\"\"}}",
      "KRko": "{{fun_0000000C arg=\"\"}}{{fun_0007000C arg=\"\"}}아, {{delay frames=\"20\"}}이건{{delay frames=\"8\"}}・{{delay frames=\"8\"}}・{{delay frames=\"8\"}}・{{delay frames=\"20\"}}\n{{anim id=\"15\"}}{{fun_000A0007 arg=\"\"}}{{fun_00030011 arg=\"0x0000\"}}?!{{pageBreak}}{{anim id=\"5\"}}정말로 내가 구하던 물건이네?!{{delay frames=\"40\"}}\n{{fun_00010011 arg=\"0x0000\"}}! 정말 고마워!{{delay frames=\"20\"}}\n이 빚은 꼭 갚을게, {{delay frames=\"8\"}}{{fun_00070005 arg=\"\"}}",
      "USen": "{{fun_0000000C arg=\"\"}}{{fun_0007000C arg=\"\"}}Eh,{{delay frames=\"20\"}} wait{{delay frames=\"8\"}}.{{delay frames=\"8\"}}.{{delay frames=\"8\"}}.{{delay frames=\"20\"}}\n{{anim id=\"15\"}}{{fun_000A0007 arg=\"\"}}{{fun_0002000E arg=\"\"}}{{fun_00030011 arg=\"0x0000\"}}?!{{pageBreak}}{{anim id=\"5\"}}Whoa, how'd you know?! Good call!{{delay frames=\"40\"}}\nThanks, {{fun_00010011 arg=\"0x0000\"}}!{{delay frames=\"20\"}} I'll definitely\nreturn the favor,{{delay frames=\"8\"}} {{fun_00070005 arg=\"\"}}!",
      "USes": "{{fun_0000000C arg=\"\"}}{{fun_0007000C arg=\"\"}}Huy,{{delay frames=\"10\"}} pero si es{{delay frames=\"8\"}}.{{delay frames=\"8\"}}.{{delay frames=\"8\"}}.{{delay frames=\"20\"}}{{anim id=\"15\"}}{{fun_000A0007 arg=\"\"}} ¡{{fun_0002000E arg=\"\"}}\n{{fun_00030011 arg=\"0x0000\"}}!{{pageBreak}}{{anim id=\"5\"}}¡Qué flipe, me moría de ganas\nde tener {{fun_0012000E arg=\"0x1000060075006E006F00060075006E0061000000\"}}!{{delay frames=\"40\"}} Cómo me conoces,\n{{fun_00010011 arg=\"0x0000\"}}{{delay frames=\"8\"}}.{{delay frames=\"8\"}}.{{delay frames=\"8\"}}.\nOye, ¡muchísimas gracias, majete!{{delay frames=\"20\"}}\nAhora te debo una, ¡ji, ji, ji!",
      "USfr": "{{fun_0000000C arg=\"\"}}{{fun_0007000C arg=\"\"}}Mais{{delay frames=\"8\"}}.{{delay frames=\"8\"}}.{{delay frames=\"8\"}}.{{delay frames=\"20\"}}{{anim id=\"15\"}}{{fun_000A0007 arg=\"\"}} c'est\n{{fun_0001000E arg=\"\"}}{{fun_00030011 arg=\"0x0000\"}} de\nmes rêves!{{pageBreak}}{{anim id=\"5\"}}J'attends ce moment depuis si\nlongtemps!{{delay frames=\"40\"}} Merci, {{fun_00010011 arg=\"0x0000\"}}! Je\nte revaudrai ça,{{delay frames=\"8\"}} {{fun_00070005 arg=\"\"}}!"
    }
  },
  {
    "label": "013",
    "locale": {
      "EUde": "{{fun_0000000C arg=\"\"}}{{fun_0005000C arg=\"\"}}{{anim id=\"6\"}}Ruhig mit den jungen Pferden, ja?!{{delay frames=\"30\"}}\nIch hab hier was, das dir gehört.{{delay frames=\"20\"}}\n{{anim id=\"0\"}}Glaub ich zumindest.\nBin gestern beim Spazierengehen\ndrüber gestolpert.{{fun_0009000C arg=\"\"}}",
      "EUen": "{{fun_0000000C arg=\"\"}}{{fun_0005000C arg=\"\"}}While I was taking a walk yesterday,{{delay frames=\"20\"}}\nI found this thing{{delay frames=\"8\"}}.{{delay frames=\"8\"}}.{{delay frames=\"8\"}}.{{delay frames=\"40\"}} {{anim id=\"23\"}}Isn't it yours?{{fun_0009000C arg=\"\"}}",
      "EUes": "{{fun_0000000C arg=\"\"}}{{fun_0005000C arg=\"\"}}Ayer estaba dando un paseo y me\nencontré esto.{{delay frames=\"20\"}} Creo que es tuyo.{{fun_0009000C arg=\"\"}}",
      "EUfr": "{{fun_0000000C arg=\"\"}}{{fun_0005000C arg=\"\"}}En me baladant hier,{{delay frames=\"20\"}} j'ai trouvé un\ntruc par terre{{delay frames=\"8\"}}.{{delay frames=\"8\"}}.{{delay frames=\"8\"}}.{{delay frames=\"40\"}} {{anim id=\"23\"}}Ce serait pas à toi,\npar hasard ?{{fun_0009000C arg=\"\"}}",
      "EUit": "{{fun_0000000C arg=\"\"}}{{fun_0005000C arg=\"\"}}Ieri andavo in giro per la città e{{delay frames=\"20\"}}\nho trovato questo{{delay frames=\"8\"}}.{{delay frames=\"8\"}}.{{delay frames=\"8\"}}.{{delay frames=\"40\"}} {{anim id=\"23\"}}È roba tua?{{fun_0009000C arg=\"\"}}",
      "JPja": "{{fun_0000000C arg=\"\"}}{{fun_0005000C arg=\"\"}}{{ruby charSpan=\"2\" value=\"きのう\"}}昨日　{{ruby charSpan=\"2\" value=\"さんぽ\"}}散歩してたらよぉ、{{delay frames=\"20\"}}\n{{ruby charSpan=\"1\" value=\"お\"}}落とし{{ruby charSpan=\"1\" value=\"もん\"}}物を　{{ruby charSpan=\"1\" value=\"ひろ\"}}拾ったんだが{{delay frames=\"8\"}}・{{delay frames=\"8\"}}・{{delay frames=\"8\"}}・{{delay frames=\"40\"}}\n{{anim id=\"23\"}}コレ　オメェんじゃ　ねぇか？{{fun_0009000C arg=\"\"}}",
      "KRko": "{{fun_0000000C arg=\"\"}}{{fun_0005000C arg=\"\"}}어제 산책하다가{{delay frames=\"20\"}}\n뭐가 떨어져 있길래 주웠는데{{delay frames=\"8\"}}・{{delay frames=\"8\"}}・{{delay frames=\"8\"}}・{{delay frames=\"40\"}}\n{{anim id=\"23\"}}이거 니 물건 아니냐?{{fun_0009000C arg=\"\"}}",
      "USen": "{{fun_0000000C arg=\"\"}}{{fun_0005000C arg=\"\"}}While I was taking a walk yesterday,{{delay frames=\"20\"}}\nI found this thing{{delay frames=\"8\"}}.{{delay frames=\"8\"}}.{{delay frames=\"8\"}}.{{delay frames=\"40\"}} {{anim id=\"23\"}}Isn't it yours?{{fun_0009000C arg=\"\"}}",
      "USes": "{{fun_0000000C arg=\"\"}}{{fun_0005000C arg=\"\"}}Ayer estaba dando un paseo y me\nencontré esto.{{delay frames=\"20\"}} Creo que es tuyo.{{fun_0009000C arg=\"\"}}",
      "USfr": "{{fun_0000000C arg=\"\"}}{{fun_0005000C arg=\"\"}}En me baladant hier,{{delay frames=\"20\"}} j'ai trouvé un\ntruc par terre{{delay frames=\"8\"}}.{{delay frames=\"8\"}}.{{delay frames=\"8\"}}.{{delay frames=\"40\"}} {{anim id=\"23\"}}Ce serait pas à toi,\npar hasard?{{fun_0009000C arg=\"\"}}"
    }
  },
  {
    "label": "014",
    "locale": {
      "EUde": "{{fun_0000000C arg=\"\"}}{{fun_0007000C arg=\"\"}}{{anim id=\"15\"}}Mei{{fun_0008000E arg=\"0x00CD02006E0004006E00650002006E00\"}} {{delay frames=\"8\"}}{{fun_00030011 arg=\"0x0000\"}}!{{delay frames=\"40\"}}\nJap, {{fun_0008000E arg=\"0x00CD060064006500720006006400690065000600640061007300\"}} gehört definitiv mir!{{pageBreak}}{{anim id=\"36\"}}Ich hab mein Haus schon in alle\nEinzelteile zerlegt,{{delay frames=\"8\"}} um das verflixte\nDing zu finden.{{delay frames=\"20\"}}{{anim id=\"35\"}} Du bist mein Held!",
      "EUen": "{{fun_0000000C arg=\"\"}}{{fun_0007000C arg=\"\"}}{{anim id=\"15\"}}My {{delay frames=\"8\"}}{{fun_00030011 arg=\"0x0000\"}}!{{delay frames=\"40\"}}\nYeah, that's mine!{{pageBreak}}{{anim id=\"1\"}}I almost turned my house upside\ndown during the search, so I was\nabout to give up.\nThanks for finding it for me!{{delay frames=\"20\"}}\n{{anim id=\"38\"}}That helps a ton,{{delay frames=\"8\"}} {{fun_00070005 arg=\"\"}}!",
      "EUes": "{{fun_0000000C arg=\"\"}}{{fun_0007000C arg=\"\"}}{{anim id=\"15\"}}¡Es mi {{delay frames=\"8\"}}{{fun_00030011 arg=\"0x0000\"}}!{{delay frames=\"40\"}}\n¡Pues claro que es mí{{fun_0012000E arg=\"0x100002006F00020061000000\"}}!{{pageBreak}}{{anim id=\"1\"}}Buf, no veas, puse la casa patas\narriba buscándol{{fun_0012000E arg=\"0x100002006F00020061000000\"}}. ¡Ya pensaba\nque l{{fun_0012000E arg=\"0x100002006F00020061000000\"}} había perdido para siempre!{{pageBreak}}¡Ay, qué bien que l{{fun_0012000E arg=\"0x100002006F00020061000000\"}} hayas\nencontrado!{{delay frames=\"20\"}}{{anim id=\"38\"}} Es que cuando\nquieres eres la caña, ¿eh?",
      "EUfr": "{{fun_0000000C arg=\"\"}}{{fun_0007000C arg=\"\"}}{{anim id=\"15\"}}Mais oui, c'est à moi ! C'est\n{{fun_0008000E arg=\"0x00CD10006D006F006E0020006A006F006C00690010006D00610020006A006F006C00690065000000\"}} {{fun_00030011 arg=\"0x0000\"}} !{{pageBreak}}{{anim id=\"1\"}}J'ai r'mué ciel et terre sans jamais\n{{fun_0008000E arg=\"0x00CD04006C00650004006C0061000000\"}} r'trouver,{{delay frames=\"20\"}} j'avais perdu tout\nespoir...\nC'est trop cool que tu l'aies trouvé.{{delay frames=\"20\"}}\n{{anim id=\"38\"}}Merci, {{delay frames=\"8\"}}{{fun_00070005 arg=\"\"}} !",
      "EUit": "{{fun_0000000C arg=\"\"}}{{fun_0007000C arg=\"\"}}{{anim id=\"15\"}}{{fun_0008000E arg=\"0x00CD0C0049006C0020006D0069006F000C004C00610020006D00690061000000\"}} {{delay frames=\"8\"}}{{fun_00030011 arg=\"0x0000\"}}!{{delay frames=\"40\"}}\nNon ci posso credere!{{pageBreak}}{{anim id=\"1\"}}Ho buttato all'aria tutta casa mia\nper capire dov'era e mi ero\nquasi arresa.\nGrazie per il tuo aiuto!{{delay frames=\"20\"}}\n{{anim id=\"38\"}}Sei grande,{{delay frames=\"8\"}} {{fun_00070005 arg=\"\"}}!",
      "JPja": "{{fun_0000000C arg=\"\"}}{{fun_0007000C arg=\"\"}}{{anim id=\"15\"}}コレは{{delay frames=\"8\"}}、{{fun_00030011 arg=\"0x0000\"}}！{{delay frames=\"40\"}}\n{{ruby charSpan=\"1\" value=\"たし\"}}確かに　ウチのだよ！{{pageBreak}}{{anim id=\"1\"}}{{ruby charSpan=\"1\" value=\"いえ\"}}家ん{{ruby charSpan=\"1\" value=\"なか\"}}中　ひっくり{{ruby charSpan=\"1\" value=\"かえ\"}}返して\n{{ruby charSpan=\"1\" value=\"さが\"}}探しても　{{ruby charSpan=\"1\" value=\"み\"}}見つからなくって、{{delay frames=\"20\"}}\nもう　あきらめてたんだ{{pageBreak}}{{ruby charSpan=\"1\" value=\"み\"}}見つかってよかったよ{{delay frames=\"20\"}}\n{{anim id=\"38\"}}ありがとね、{{delay frames=\"8\"}}{{fun_00070005 arg=\"\"}}",
      "KRko": "{{fun_0000000C arg=\"\"}}{{fun_0007000C arg=\"\"}}{{anim id=\"15\"}}이건 {{fun_00030011 arg=\"0x0000\"}}?!{{delay frames=\"40\"}}\n내거 맞아!{{pageBreak}}{{anim id=\"1\"}}집 안을 샅샅이 뒤졌는데도\n안 보이길래{{delay frames=\"20\"}} 포기하고 있었는데\n여기 있었구나!{{delay frames=\"20\"}}\n{{anim id=\"38\"}}고마워, {{delay frames=\"8\"}}{{fun_00070005 arg=\"\"}}",
      "USen": "{{fun_0000000C arg=\"\"}}{{fun_0007000C arg=\"\"}}{{anim id=\"15\"}}My {{delay frames=\"8\"}}{{fun_00030011 arg=\"0x0000\"}}!{{delay frames=\"40\"}}\nYeah, that's mine!{{pageBreak}}{{anim id=\"1\"}}I almost turned my house upside\ndown during the search, so I was\nabout to give up.\nThanks for finding it for me!{{delay frames=\"20\"}}\n{{anim id=\"38\"}}That helps a ton,{{delay frames=\"8\"}} {{fun_00070005 arg=\"\"}}!",
      "USes": "{{fun_0000000C arg=\"\"}}{{fun_0007000C arg=\"\"}}{{anim id=\"15\"}}¡Es mi {{delay frames=\"8\"}}{{fun_00030011 arg=\"0x0000\"}}!{{delay frames=\"40\"}}\n¡Pues claro que es mí{{fun_0012000E arg=\"0x100002006F00020061000000\"}}!{{pageBreak}}{{anim id=\"1\"}}Buf, no veas, puse la casa patas\narriba buscándol{{fun_0012000E arg=\"0x100002006F00020061000000\"}}. ¡Ya pensaba\nque l{{fun_0012000E arg=\"0x100002006F00020061000000\"}} había perdido para siempre!{{pageBreak}}¡Ay, qué bien que l{{fun_0012000E arg=\"0x100002006F00020061000000\"}} hayas\nencontrado!{{delay frames=\"20\"}}{{anim id=\"38\"}} Es que cuando\nquieres eres la caña, ¿eh?",
      "USfr": "{{fun_0000000C arg=\"\"}}{{fun_0007000C arg=\"\"}}{{anim id=\"15\"}}Mais oui, c'est à moi! C'est\n{{fun_0008000E arg=\"0x00CD10006D006F006E0020006A006F006C00690010006D00610020006A006F006C00690065000000\"}} {{fun_00030011 arg=\"0x0000\"}}!{{pageBreak}}{{anim id=\"1\"}}J'ai r'mué ciel et terre sans jamais\n{{fun_0008000E arg=\"0x00CD04006C00650004006C0061000000\"}} r'trouver,{{delay frames=\"20\"}} j'avais perdu tout\nespoir...\nC'est trop cool que tu l'aies trouvé.{{delay frames=\"20\"}}\n{{anim id=\"38\"}}Merci, {{delay frames=\"8\"}}{{fun_00070005 arg=\"\"}}!"
    }
  },
  {
    "label": "015",
    "locale": {
      "EUde": "{{fun_0000000C arg=\"\"}}{{fun_0005000C arg=\"\"}}{{anim id=\"6\"}}Ruhig mit den jungen Pferden, ja?!{{delay frames=\"30\"}}\nIch wollte dir sagen, dass demnächst\nwieder so ein Festival stattfindet.\n{{anim id=\"11\"}}Frag mich nicht, wie das hieß...{{delay frames=\"20\"}}\nIm Titel kam irgendwo das Wort\n{{fun_00100005 arg=\"0x0000\"}} vor.\n{{anim id=\"27\"}}Aber egal.{{delay frames=\"20\"}}\nHauptsache, Festival, oder?{{fun_0009000C arg=\"\"}}",
      "EUen": "{{fun_0000000C arg=\"\"}}{{fun_0005000C arg=\"\"}}{{anim id=\"1\"}}You like festivals, right? Well, I've\ngot news for you!{{pageBreak}}The {{fun_00100005 arg=\"0x0000\"}} festival of\n{{fun_001E0005 arg=\"0x00CD\"}} in {{fun_00050005 arg=\"\"}} is comin' up!{{pageBreak}}{{anim id=\"35\"}}How's that?{{delay frames=\"20\"}} Aren't you excited?{{delay frames=\"8\"}}\n{{fun_0003000E arg=\"\"}}{{fun_00070005 arg=\"\"}}?{{fun_0009000C arg=\"\"}}",
      "EUes": "{{fun_0000000C arg=\"\"}}{{fun_0005000C arg=\"\"}}{{anim id=\"1\"}}A ti te gusta un sarao más que a\n{{color id=\"4\"}}Tom Nook {{color id=\"65535\"}}un saco de bayas, ¿no?\nPues tengo buenas noticias para ti.\n¡El festival de {{fun_001E0005 arg=\"0x00CD\"}} d{{fun_0012000E arg=\"0x0300040065006C000800650020006C0061000000\"}}\n{{fun_00100005 arg=\"0x0000\"}} de {{fun_0003000E arg=\"\"}}{{fun_00050005 arg=\"\"}}\nestá a puntico de empezar!\n{{anim id=\"35\"}}¿Qué te parece?{{delay frames=\"20\"}}\n¿Estoy a la última o qué?{{delay frames=\"8\"}}\n¿{{fun_0003000E arg=\"\"}}{{fun_00070005 arg=\"\"}}?{{fun_0009000C arg=\"\"}}",
      "EUfr": "{{fun_0000000C arg=\"\"}}{{fun_0005000C arg=\"\"}}{{anim id=\"1\"}}Tu aimes les festivals, non ? J'ai une\nbonne nouvelle pour toi, dans ce\ncas !\nComme chaque {{fun_001E0005 arg=\"0x00CD\"}}, le\nfestival {{fun_0002000E arg=\"\"}}{{fun_00100005 arg=\"0x0000\"}} va\navoir lieu à {{fun_00050005 arg=\"\"}}.\n{{anim id=\"35\"}}Qu'est-ce que t'en dis ?{{delay frames=\"20\"}} Ça\nt'intéresse ?{{delay frames=\"8\"}} {{fun_0003000E arg=\"\"}}{{fun_00070005 arg=\"\"}} ?{{fun_0009000C arg=\"\"}}",
      "EUit": "{{fun_0000000C arg=\"\"}}{{fun_0005000C arg=\"\"}}{{anim id=\"1\"}}Ti piacciono le feste di paese?\nPerché ce ne sarà una da urlo\ntra poco tempo!{{pageBreak}}Il Festival {{fun_0002000E arg=\"\"}}{{fun_0003000E arg=\"\"}}{{fun_00100005 arg=\"0x0000\"}}\nsta per arrivare {{fun_0010000E arg=\"\"}} {{fun_00050005 arg=\"\"}}!\nSi tiene tutti gli anni in {{fun_001E0005 arg=\"0x00CD\"}}!\n{{anim id=\"35\"}}Che mi dici?{{delay frames=\"20\"}} Non sei elettrizzata,{{delay frames=\"8\"}}\n{{fun_00070005 arg=\"\"}}?{{fun_0009000C arg=\"\"}}",
      "JPja": "{{fun_0000000C arg=\"\"}}{{fun_0005000C arg=\"\"}}{{anim id=\"1\"}}{{ruby charSpan=\"1\" value=\"まつ\"}}祭り{{ruby charSpan=\"1\" value=\"ず\"}}好きの　オメェに　いい{{ruby charSpan=\"2\" value=\"じょうほう\"}}情報だぜ？{{fun_00010007 arg=\"\"}}\n{{fun_00050005 arg=\"\"}}{{ruby charSpan=\"1\" value=\"むら\"}}村{{delay frames=\"20\"}}　{{fun_001E0005 arg=\"0x00CD\"}}の{{fun_00100005 arg=\"0x0000\"}}{{ruby charSpan=\"1\" value=\"まつ\"}}祭り{{delay frames=\"20\"}}\nってのが　{{ruby charSpan=\"1\" value=\"ひら\"}}開かれるんだとよ！{{pageBreak}}{{anim id=\"35\"}}どうだ？{{delay frames=\"20\"}}\nオメェの　{{ruby charSpan=\"1\" value=\"まつ\"}}祭り{{ruby charSpan=\"1\" value=\"ず\"}}好きの{{ruby charSpan=\"1\" value=\"ち\"}}血が\nたぎってくるだろ？　{{delay frames=\"8\"}}{{fun_00070005 arg=\"\"}}？{{fun_0009000C arg=\"\"}}",
      "KRko": "{{fun_0000000C arg=\"\"}}{{fun_0005000C arg=\"\"}}{{anim id=\"1\"}}축제 마니아인 너에게 좋은 정보가 있어!{{fun_00010007 arg=\"\"}}\n{{fun_00050005 arg=\"\"}} 마을에서{{delay frames=\"20\"}}\n{{fun_001E0005 arg=\"0x00CD\"}} {{fun_00100005 arg=\"0x0000\"}} 축제가{{delay frames=\"20\"}} 열린대!{{pageBreak}}{{anim id=\"35\"}}어때?{{delay frames=\"20\"}}\n왠지 피가 끓어오르는 것 같지 않냐?{{delay frames=\"8\"}}\n{{fun_00070005 arg=\"\"}}?{{fun_0009000C arg=\"\"}}",
      "USen": "{{fun_0000000C arg=\"\"}}{{fun_0005000C arg=\"\"}}{{anim id=\"1\"}}You like festivals, right? Well, I've\ngot news for you!{{pageBreak}}The {{fun_00100005 arg=\"0x0000\"}} festival of\n{{fun_001E0005 arg=\"0x00CD\"}} in {{fun_00050005 arg=\"\"}} is comin' up!{{pageBreak}}{{anim id=\"35\"}}How's that?{{delay frames=\"20\"}} Aren't you excited?{{delay frames=\"8\"}}\n{{fun_0003000E arg=\"\"}}{{fun_00070005 arg=\"\"}}?{{fun_0009000C arg=\"\"}}",
      "USes": "{{fun_0000000C arg=\"\"}}{{fun_0005000C arg=\"\"}}{{anim id=\"1\"}}A ti te gusta un sarao más que a\n{{color id=\"4\"}}Tom Nook {{color id=\"65535\"}}un saco de bayas, ¿no?\nPues tengo buenas noticias para ti.\n¡El festival de {{fun_001E0005 arg=\"0x00CD\"}} d{{fun_0012000E arg=\"0x0300040065006C000800650020006C0061000000\"}}\n{{fun_00100005 arg=\"0x0000\"}} de {{fun_0003000E arg=\"\"}}{{fun_00050005 arg=\"\"}}\nestá a puntico de empezar!\n{{anim id=\"35\"}}¿Qué te parece?{{delay frames=\"20\"}}\n¿Estoy a la última o qué?{{delay frames=\"8\"}}\n¿{{fun_0003000E arg=\"\"}}{{fun_00070005 arg=\"\"}}?{{fun_0009000C arg=\"\"}}",
      "USfr": "{{fun_0000000C arg=\"\"}}{{fun_0005000C arg=\"\"}}{{anim id=\"1\"}}Tu aimes les festivals, non? J'ai une\nbonne nouvelle pour toi, dans ce\ncas!\nComme chaque {{fun_001E0005 arg=\"0x00CD\"}}, le\nfestival {{fun_0002000E arg=\"\"}}{{fun_00100005 arg=\"0x0000\"}} va\navoir lieu à {{fun_00050005 arg=\"\"}}.\n{{anim id=\"35\"}}Qu'est-ce que t'en dis?{{delay frames=\"20\"}} Ça\nt'intéresse?{{delay frames=\"8\"}} {{fun_0003000E arg=\"\"}}{{fun_00070005 arg=\"\"}}?{{fun_0009000C arg=\"\"}}"
    }
  },
  {
    "label": "016",
    "locale": {
      "EUde": "{{fun_0000000C arg=\"\"}}{{fun_0007000C arg=\"\"}}{{anim id=\"11\"}}Hm{{delay frames=\"8\"}}.{{delay frames=\"8\"}}.{{delay frames=\"8\"}}.{{delay frames=\"20\"}} Da isst man den lieben langen\nTag {{fun_00100005 arg=\"0x0000\"}}, stimmt's?{{pageBreak}}{{anim id=\"27\"}}Das ist nicht wirklich ein Event\nfür mich!{{delay frames=\"20\"}} {{anim id=\"36\"}}Aber{{delay frames=\"20\"}} cool, {{delay frames=\"8\"}}dass du an\nmich gedacht hast!\nEs tut immer gut, zu wissen, dass\njemand an mich denkt{{anim id=\"26\"}}{{delay frames=\"8\"}}.{{delay frames=\"8\"}}.{{delay frames=\"8\"}}.{{delay frames=\"20\"}} Du bist\neinfach der Beste!{{delay frames=\"20\"}} {{fun_0003000E arg=\"\"}}{{fun_00070005 arg=\"\"}}!",
      "EUen": "{{fun_0000000C arg=\"\"}}{{fun_0007000C arg=\"\"}}{{anim id=\"11\"}}Hmm{{delay frames=\"8\"}}.{{delay frames=\"8\"}}.{{delay frames=\"8\"}}.{{delay frames=\"20\"}} That's the one where you\neat {{fun_00100005 arg=\"0x0000\"}} and collect\nstickers to win something, right?{{pageBreak}}{{anim id=\"27\"}}That's not the type of \"festive\nmood\" I'm looking for!{{pageBreak}}{{anim id=\"40\"}}But{{delay frames=\"20\"}} it makes me happy you thought\nthat would make me happy!{{pageBreak}}{{anim id=\"26\"}}Always nice to have someone\nthinking about you.{{delay frames=\"40\"}} Thanks for\nthat!{{delay frames=\"8\"}} {{fun_0003000E arg=\"\"}}{{fun_00070005 arg=\"\"}}!",
      "EUes": "{{fun_0000000C arg=\"\"}}{{fun_0007000C arg=\"\"}}{{anim id=\"11\"}}Mmm{{delay frames=\"8\"}}.{{delay frames=\"8\"}}.{{delay frames=\"8\"}}.{{delay frames=\"20\"}} Ah, ¿ahí es donde hay\nque comer {{fun_00100005 arg=\"0x0000\"}} y\nconseguir pegatinas para ganar?{{pageBreak}}{{anim id=\"27\"}}Verás, es que a mí ese tipo de\nfiestas no me va mucho, la verdad.{{pageBreak}}{{anim id=\"36\"}}¡Pero lo que cuenta es la intención,\nchato! {{anim id=\"26\"}}Yo sé que en el fondo tienes\ntu corazoncito.{{delay frames=\"40\"}} ¡Requetegracias!",
      "EUfr": "{{fun_0000000C arg=\"\"}}{{fun_0007000C arg=\"\"}}{{anim id=\"11\"}}OK{{delay frames=\"8\"}}.{{delay frames=\"8\"}}.{{delay frames=\"8\"}}.{{delay frames=\"20\"}} C'est le festival où on mange\n{{fun_0002000E arg=\"\"}}{{fun_00100005 arg=\"0x0000\"}} et où on\ncollectionne des autocollants ?\n{{anim id=\"27\"}}J'avoue, c'est pas trop ma tasse de\nthé...{{pageBreak}}{{anim id=\"40\"}}Mais bon,{{delay frames=\"20\"}} ça me fait plaisir que tu\naies pu penser que ça me ferait\nplaisir !\n{{anim id=\"26\"}}C'est toujours bien d'avoir\nquelqu'un qui pense à soi.{{delay frames=\"40\"}} Merci,\nquoi !{{delay frames=\"8\"}} {{fun_0003000E arg=\"\"}}{{fun_00070005 arg=\"\"}} !",
      "EUit": "{{fun_0000000C arg=\"\"}}{{fun_0007000C arg=\"\"}}{{anim id=\"11\"}}Mmmh{{delay frames=\"8\"}}.{{delay frames=\"8\"}}.{{delay frames=\"8\"}}.{{delay frames=\"20\"}} È quella festa dove tutti\nmangiano {{fun_00100005 arg=\"0x0000\"}}\ne nient'altro fino al mattino?{{pageBreak}}{{anim id=\"27\"}}Ehm, quel tipo di feste non mi\ninteressa per niente! Preferisco\nle esposizioni di fiori e piante!{{pageBreak}}{{anim id=\"1\"}}Comunque,{{delay frames=\"20\"}} mi fa piacere che tu\nmi abbia voluto dare questa notizia!{{pageBreak}}{{anim id=\"26\"}}Volevi farmi contenta, vero?{{delay frames=\"40\"}}\nE io ti dico grazie,{{delay frames=\"8\"}} {{fun_00070005 arg=\"\"}}!",
      "JPja": "{{fun_0000000C arg=\"\"}}{{fun_0007000C arg=\"\"}}{{anim id=\"11\"}}うーん{{delay frames=\"8\"}}・{{delay frames=\"8\"}}・{{delay frames=\"8\"}}・{{delay frames=\"20\"}}\nそれって{{delay frames=\"20\"}}　{{fun_00100005 arg=\"0x0000\"}}{{ruby charSpan=\"1\" value=\"た\"}}食べて\nシール{{ruby charSpan=\"1\" value=\"あつ\"}}集めたら{{delay frames=\"8\"}}　{{ruby charSpan=\"1\" value=\"なん\"}}何かもらえるヤツだろ？{{pageBreak}}{{anim id=\"27\"}}そういうのは　ウチが{{ruby charSpan=\"1\" value=\"もと\"}}求めてる\n「{{ruby charSpan=\"1\" value=\"まつ\"}}祭り{{ruby charSpan=\"1\" value=\"かん\"}}感」とは　{{ruby charSpan=\"1\" value=\"ちが\"}}違うんだよねー{{pageBreak}}{{anim id=\"40\"}}でも、{{delay frames=\"20\"}}アンタが　わざわざ\nそんな{{ruby charSpan=\"2\" value=\"じょうほう\"}}情報　くれるなんて\nうれしいじゃないか！{{pageBreak}}{{anim id=\"26\"}}ウチが　{{ruby charSpan=\"1\" value=\"よろこ\"}}喜ぶと{{ruby charSpan=\"1\" value=\"おも\"}}思って\n{{ruby charSpan=\"1\" value=\"おし\"}}教えてくれたんだろ？{{delay frames=\"40\"}}\nありがとね！　{{delay frames=\"8\"}}{{fun_00070005 arg=\"\"}}！",
      "KRko": "{{fun_0000000C arg=\"\"}}{{fun_0007000C arg=\"\"}}{{anim id=\"11\"}}으ー음{{delay frames=\"8\"}}・{{delay frames=\"8\"}}・{{delay frames=\"8\"}}・{{delay frames=\"20\"}}\n그거{{delay frames=\"20\"}} {{fun_00100005 arg=\"0x0000\"}} 먹고서\n스티커를 모아 가면{{delay frames=\"8\"}} 상품 주는 거지?{{pageBreak}}{{anim id=\"27\"}}그런 건 내가 원하는\n「축제」와는 조금 다르다구ー{{pageBreak}}{{anim id=\"40\"}}그건 그렇고 {{delay frames=\"20\"}}니가 나한테\n이런 정보를 다 주다니\n기분이 나쁘진 않은데?!{{pageBreak}}{{anim id=\"26\"}}내가 기뻐하길 바라고\n알려준 거지?{{delay frames=\"40\"}}\n고마워! {{delay frames=\"8\"}}{{fun_00070005 arg=\"\"}}!",
      "USen": "{{fun_0000000C arg=\"\"}}{{fun_0007000C arg=\"\"}}{{anim id=\"11\"}}Hmm{{delay frames=\"8\"}}.{{delay frames=\"8\"}}.{{delay frames=\"8\"}}.{{delay frames=\"20\"}} That's the one where you\neat {{fun_00100005 arg=\"0x0000\"}} and collect\nstickers to win something, right?{{pageBreak}}{{anim id=\"27\"}}That's not the type of \"festive\nmood\" I'm looking for!{{pageBreak}}{{anim id=\"40\"}}But{{delay frames=\"20\"}} it makes me happy you thought\nthat would make me happy!{{pageBreak}}{{anim id=\"26\"}}Always nice to have someone\nthinking about you.{{delay frames=\"40\"}} Thanks for\nthat!{{delay frames=\"8\"}} {{fun_0003000E arg=\"\"}}{{fun_00070005 arg=\"\"}}!",
      "USes": "{{fun_0000000C arg=\"\"}}{{fun_0007000C arg=\"\"}}{{anim id=\"11\"}}Mmm{{delay frames=\"8\"}}.{{delay frames=\"8\"}}.{{delay frames=\"8\"}}.{{delay frames=\"20\"}} Ah, ¿ahí es donde hay\nque comer {{fun_00100005 arg=\"0x0000\"}} y\nconseguir pegatinas para ganar?{{pageBreak}}{{anim id=\"27\"}}Verás, es que a mí ese tipo de\nfiestas no me va mucho, la verdad.{{pageBreak}}{{anim id=\"36\"}}¡Pero lo que cuenta es la intención,\nchato! {{anim id=\"26\"}}Yo sé que en el fondo tienes\ntu corazoncito.{{delay frames=\"40\"}} ¡Requetegracias!",
      "USfr": "{{fun_0000000C arg=\"\"}}{{fun_0007000C arg=\"\"}}{{anim id=\"11\"}}OK{{delay frames=\"8\"}}.{{delay frames=\"8\"}}.{{delay frames=\"8\"}}.{{delay frames=\"20\"}} C'est le festival où on mange\n{{fun_0002000E arg=\"\"}}{{fun_00100005 arg=\"0x0000\"}} et où on\ncollectionne des autocollants?\n{{anim id=\"27\"}}J'avoue, c'est pas trop ma tasse de\nthé...{{pageBreak}}{{anim id=\"40\"}}Mais bon,{{delay frames=\"20\"}} ça me fait plaisir que tu\naies pu penser que ça me ferait\nplaisir!\n{{anim id=\"26\"}}C'est toujours bien d'avoir\nquelqu'un qui pense à soi.{{delay frames=\"40\"}} Merci,\nquoi!{{delay frames=\"8\"}} {{fun_0003000E arg=\"\"}}{{fun_00070005 arg=\"\"}}!"
    }
  },
  {
    "label": "017",
    "locale": {
      "EUde": "{{fun_0000000C arg=\"\"}}{{fun_0005000C arg=\"\"}}{{anim id=\"6\"}}Ruhig mit den jungen Pferden, ja?!{{delay frames=\"30\"}}\nIch wollte dir sagen, dass sich deine\nLieblingsband gestern aufgelöst hat.\n{{anim id=\"0\"}}Stand heute Morgen in der Zeitung.{{delay frames=\"20\"}}\n{{anim id=\"9\"}}Dachte, das interessiert dich\nvielleicht,{{delay frames=\"8\"}} {{fun_00070005 arg=\"\"}}.{{fun_0009000C arg=\"\"}}",
      "EUen": "{{fun_0000000C arg=\"\"}}{{fun_0005000C arg=\"\"}}{{anim id=\"9\"}}I just found out,{{delay frames=\"20\"}} but it seems your\nfavorite band split up this morning!{{pageBreak}}{{anim id=\"10\"}}I thought I should tell you as soon as\npossible to help you get over the\nshock,{{delay frames=\"8\"}} {{fun_00070005 arg=\"\"}}.{{fun_0009000C arg=\"\"}}",
      "EUes": "{{fun_0000000C arg=\"\"}}{{fun_0005000C arg=\"\"}}Quería darte la noticia en persona.{{delay frames=\"20\"}}\n¡Tu autora favorita acaba de sacar\nun libro nuevo!{{pageBreak}}{{anim id=\"21\"}}Me comentaste que lo estabas\nesperando,{{delay frames=\"8\"}} pero creo que no sabías\nque ya está en la calle{{delay frames=\"8\"}}.{{delay frames=\"8\"}}.{{delay frames=\"8\"}}.{{delay frames=\"8\"}}{{fun_0009000C arg=\"\"}}",
      "EUfr": "{{fun_0000000C arg=\"\"}}{{fun_0005000C arg=\"\"}}{{anim id=\"9\"}}J'ai entendu très récemment que{{delay frames=\"20\"}}\nton groupe préféré s'était séparé...{{pageBreak}}{{anim id=\"21\"}}Je me suis dit qu'il fallait que je te\nle dise au plus vite,{{delay frames=\"8\"}} {{fun_00070005 arg=\"\"}}.{{fun_0009000C arg=\"\"}}",
      "EUit": "{{fun_0000000C arg=\"\"}}{{fun_0005000C arg=\"\"}}{{anim id=\"9\"}}Ho appena sentito che il tuo gruppo\npreferito... come si chiama{{delay frames=\"20\"}}...\n{{fun_0003000E arg=\"\"}}{{fun_00060005 arg=\"\"}} Rockers... si è sciolto!{{pageBreak}}{{anim id=\"21\"}}Ho deciso di dirtelo subito io stesso\nper aiutarti a superare lo shock\nprima possibile,{{delay frames=\"8\"}} {{fun_00070005 arg=\"\"}}.{{fun_0009000C arg=\"\"}}",
      "JPja": "{{fun_0000000C arg=\"\"}}{{fun_0005000C arg=\"\"}}{{anim id=\"9\"}}さっき　たまたま　{{ruby charSpan=\"1\" value=\"し\"}}知ったんだが、{{delay frames=\"20\"}}\nオメェが　{{ruby charSpan=\"1\" value=\"す\"}}好きなバンド\n{{ruby charSpan=\"2\" value=\"かいさん\"}}解散したらしいぜ？{{pageBreak}}{{anim id=\"21\"}}オメェには{{delay frames=\"20\"}}　{{ruby charSpan=\"1\" value=\"はや\"}}早く\n{{ruby charSpan=\"1\" value=\"おし\"}}教えておくべきだと{{ruby charSpan=\"1\" value=\"おも\"}}思ってな、{{delay frames=\"8\"}}{{fun_00070005 arg=\"\"}}{{fun_0009000C arg=\"\"}}",
      "KRko": "{{fun_0000000C arg=\"\"}}{{fun_0005000C arg=\"\"}}{{anim id=\"9\"}}아까 어쩌다가 들었는데{{delay frames=\"20\"}}\n니가 좋아하는 밴드가\n해체했다던데?{{pageBreak}}{{anim id=\"21\"}}너한테는 {{delay frames=\"20\"}}빨리 알려줘야\n할 것 같아서 말이야, {{delay frames=\"8\"}}{{fun_00070005 arg=\"\"}}{{fun_0009000C arg=\"\"}}",
      "USen": "{{fun_0000000C arg=\"\"}}{{fun_0005000C arg=\"\"}}{{anim id=\"9\"}}I just found out,{{delay frames=\"20\"}} but it seems your\nfavorite band split up this morning!{{pageBreak}}{{anim id=\"10\"}}I thought I should tell you as soon as\npossible to help you get over the\nshock,{{delay frames=\"8\"}} {{fun_00070005 arg=\"\"}}.{{fun_0009000C arg=\"\"}}",
      "USes": "{{fun_0000000C arg=\"\"}}{{fun_0005000C arg=\"\"}}Quería darte la noticia en persona.{{delay frames=\"20\"}}\n¡Tu autora favorita acaba de sacar\nun libro nuevo!{{pageBreak}}{{anim id=\"21\"}}Me comentaste que lo estabas\nesperando,{{delay frames=\"8\"}} pero creo que no sabías\nque ya está en la calle{{delay frames=\"8\"}}.{{delay frames=\"8\"}}.{{delay frames=\"8\"}}.{{delay frames=\"8\"}}{{fun_0009000C arg=\"\"}}",
      "USfr": "{{fun_0000000C arg=\"\"}}{{fun_0005000C arg=\"\"}}{{anim id=\"9\"}}J'ai entendu très récemment que{{delay frames=\"20\"}}\nton groupe préféré s'était séparé...{{pageBreak}}{{anim id=\"21\"}}Je me suis dit qu'il fallait que je te\nle dise au plus vite,{{delay frames=\"8\"}} {{fun_00070005 arg=\"\"}}.{{fun_0009000C arg=\"\"}}"
    }
  },
  {
    "label": "018",
    "locale": {
      "EUde": "{{fun_0000000C arg=\"\"}}{{fun_0007000C arg=\"\"}}{{anim id=\"18\"}}{{fun_000B0007 arg=\"\"}}Wat?!{{delay frames=\"20\"}} Du willst mich veräppeln!{{delay frames=\"40\"}}\nCrazy {{fun_000F0005 arg=\"0x0000\"}} haben sich\ngetrennt – {{delay frames=\"20\"}}schon WIEDER?!\n{{anim id=\"27\"}}Die trennen sich ja häufiger, als\nmanch einer seine Unterwäsche\nwechselt,{{delay frames=\"8\"}} {{fun_00070005 arg=\"\"}}.\n{{anim id=\"39\"}}Ich kann ja verstehen,{{delay frames=\"8\"}} dass sie noch\nandere Projekte machen wollen,{{delay frames=\"20\"}}\naber denkt doch auch an die Fans!\n{{anim id=\"1\"}}{{fun_0003000E arg=\"\"}}{{fun_00080005 arg=\"\"}},{{delay frames=\"8\"}} du solltest dir mal ein\npaar Lieder von denen reinziehn,{{delay frames=\"20\"}}\nvielleicht gefallen sie dir ja!",
      "EUen": "{{fun_0000000C arg=\"\"}}{{fun_0007000C arg=\"\"}}{{anim id=\"18\"}}{{fun_000B0007 arg=\"\"}}Whaat?!{{delay frames=\"20\"}} Are you kidding? Seriously?{{delay frames=\"40\"}}\nThe {{fun_0004000E arg=\"\"}}{{fun_000F0005 arg=\"0x0000\"}} Bombers\ncalled it quits AGAIN?!{{pageBreak}}{{anim id=\"27\"}}Every time they say they've broken\nup, they just change their band\nname and come back,{{delay frames=\"8\"}} {{fun_00070005 arg=\"\"}}.{{pageBreak}}{{anim id=\"39\"}}I guess I get the desire to change\nyourself to fit your mood,{{delay frames=\"20\"}} but still,\nthat's a bummer for the fans.{{pageBreak}}{{anim id=\"1\"}}Still, you should really try listening\nto their songs if you haven't. It's\ngood to branch out sometimes!",
      "EUes": "{{fun_0000000C arg=\"\"}}{{fun_0007000C arg=\"\"}}{{anim id=\"18\"}}{{fun_000B0007 arg=\"\"}}¡¿Quéeee?!{{delay frames=\"20\"}} ¡¿Lo dices en serio?!\nNo me estarás vacilando, ¿verdad?{{delay frames=\"40\"}}{{pageBreak}}\"La abominable gracilidad {{fun_0012000E arg=\"0x0B000600640065006C000A006400650020006C0061000000\"}}\n{{fun_00210005 arg=\"0x00CD\"}}\"{{delay frames=\"8\"}}.{{delay frames=\"8\"}}.{{delay frames=\"8\"}}.{{pageBreak}}{{anim id=\"27\"}}Vaya, si lo llego a saber{{delay frames=\"8\"}}.{{delay frames=\"8\"}}.{{delay frames=\"8\"}}.{{delay frames=\"20\"}} Es que\nya me compré un libro el mes\npasado.\n{{anim id=\"21\"}}Sí, uno sobre los cuidados básicos\n{{fun_0012000E arg=\"0x0B010600640065006C000A006400650020006C0061000000\"}} {{fun_00210005 arg=\"0x01CD\"}} en\n{{fun_001E0005 arg=\"0x02CD\"}}.{{pageBreak}}{{anim id=\"39\"}}La verdad es que debería tratar\nde ahorrar bayas,{{delay frames=\"10\"}} pero el título\nme llama un montón.{{pageBreak}}{{anim id=\"1\"}}Va, ¡me voy a dar un caprichico!\n{{fun_0003000E arg=\"\"}}{{fun_00080005 arg=\"\"}}, tú también deberías\nleer algo sobre el tema. ¡Es la caña!",
      "EUfr": "{{fun_0000000C arg=\"\"}}{{fun_0007000C arg=\"\"}}{{anim id=\"18\"}}{{fun_000B0007 arg=\"\"}}Sérieux ???{{delay frames=\"20\"}} Tu rigoles, j'espère !{{delay frames=\"40\"}}\nHa ! Les Bombes {{fun_0003000E arg=\"\"}}{{fun_000F0005 arg=\"0x0000\"}}\nse sont encore séparés ?\n{{anim id=\"27\"}}À chaque fois qu'ils font ça, ils\nchangent de nom de groupe et\nreviennent,{{delay frames=\"8\"}} {{fun_00070005 arg=\"\"}}.\n{{anim id=\"39\"}}Je comprends qu'ils aient besoin\nde changement,{{delay frames=\"20\"}} mais quand même,\nc'est pas terrible pour les fans.\n{{anim id=\"1\"}}{{fun_0003000E arg=\"\"}}{{fun_00080005 arg=\"\"}}, tu devrais vraiment\nécouter leurs morceaux. J'suis sûre\nque tu vas adorer !{{delay frames=\"8\"}} {{fun_0003000E arg=\"\"}}{{fun_00070005 arg=\"\"}} !",
      "EUit": "{{fun_0000000C arg=\"\"}}{{fun_0007000C arg=\"\"}}{{anim id=\"18\"}}{{fun_000B0007 arg=\"\"}}Come?!{{delay frames=\"20\"}} Noooooo!{{delay frames=\"40\"}} E io che ero\nappena diventata presidentessa\ndel \"{{fun_0003000E arg=\"\"}}{{fun_00060005 arg=\"\"}} Rockers Fan Club\"!\n{{anim id=\"27\"}}Anche se in realtà si sono sciolti\ne riformati con un nome diverso\ngià mille volte,{{delay frames=\"8\"}} {{fun_00070005 arg=\"\"}}.{{pageBreak}}{{anim id=\"39\"}}Capisco il bisogno di rinnovarsi,{{delay frames=\"20\"}}\nma ai fan chi ci pensa?{{pageBreak}}{{anim id=\"1\"}}Ti devo prestare tutta\nla discografia!{{delay frames=\"8\"}} Sono sicura che\nti piaceranno, {{fun_00070005 arg=\"\"}}!",
      "JPja": "{{fun_0000000C arg=\"\"}}{{fun_0007000C arg=\"\"}}{{anim id=\"18\"}}{{fun_000B0007 arg=\"\"}}えぇっ？！{{delay frames=\"20\"}}　マジっ？！{{delay frames=\"40\"}}\n{{fun_000F0005 arg=\"0x0000\"}}・ボンバーズ\nまた　{{ruby charSpan=\"2\" value=\"かいさん\"}}解散するの？！{{pageBreak}}{{anim id=\"27\"}}アイツら　{{ruby charSpan=\"2\" value=\"かいさん\"}}解散するって　{{ruby charSpan=\"1\" value=\"い\"}}言うたびに{{delay frames=\"20\"}}\nバンド{{ruby charSpan=\"1\" value=\"めい\"}}名　{{ruby charSpan=\"1\" value=\"か\"}}変えて\nよみがえるんだよね、{{delay frames=\"8\"}}{{fun_00070005 arg=\"\"}}{{pageBreak}}{{anim id=\"39\"}}まあ、{{delay frames=\"20\"}}そういう\n{{ruby charSpan=\"1\" value=\"まよ\"}}迷いながら　{{ruby charSpan=\"2\" value=\"かつどう\"}}活動してる{{ruby charSpan=\"1\" value=\"かん\"}}感じに{{delay frames=\"20\"}}\n{{ruby charSpan=\"2\" value=\"きょうかん\"}}共感しちゃうんだけどね{{pageBreak}}{{anim id=\"1\"}}{{fun_00080005 arg=\"\"}}も\n{{ruby charSpan=\"2\" value=\"こんど\"}}今度　{{ruby charSpan=\"1\" value=\"き\"}}聴いてみたら？　{{delay frames=\"8\"}}{{fun_00070005 arg=\"\"}}？",
      "KRko": "{{fun_0000000C arg=\"\"}}{{fun_0007000C arg=\"\"}}{{anim id=\"18\"}}{{fun_000B0007 arg=\"\"}}뭐엇?!{{delay frames=\"20\"}} 진짜?!{{delay frames=\"40\"}}\n{{fun_000F0005 arg=\"0x0000\"}}・보이즈가\n또 해체했다구?!{{pageBreak}}{{anim id=\"27\"}}그 녀석들은 해체할 때마다{{delay frames=\"20\"}}\n밴드 이름만 바꿔서\n다시 나온다니까? {{delay frames=\"8\"}}{{fun_00070005 arg=\"\"}}{{pageBreak}}{{anim id=\"39\"}}사실 {{delay frames=\"20\"}}그렇게 방황하면서\n활동하고 있는 점이{{delay frames=\"20\"}}\n마음에 들긴 해!{{pageBreak}}{{anim id=\"1\"}}{{fun_00080005 arg=\"\"}}도\n다음에 한번 들어보지그래? {{delay frames=\"8\"}}{{fun_00070005 arg=\"\"}}?",
      "USen": "{{fun_0000000C arg=\"\"}}{{fun_0007000C arg=\"\"}}{{anim id=\"18\"}}{{fun_000B0007 arg=\"\"}}Whaat?!{{delay frames=\"20\"}} Are you kidding? Seriously?{{delay frames=\"40\"}}\nThe {{fun_0004000E arg=\"\"}}{{fun_000F0005 arg=\"0x0000\"}} Bombers\ncalled it quits AGAIN?!{{pageBreak}}{{anim id=\"27\"}}Every time they say they've broken\nup, they just change their band\nname and come back,{{delay frames=\"8\"}} {{fun_00070005 arg=\"\"}}.{{pageBreak}}{{anim id=\"39\"}}I guess I get the desire to change\nyourself to fit your mood,{{delay frames=\"20\"}} but still,\nthat's a bummer for the fans.{{pageBreak}}{{anim id=\"1\"}}Still, you should really try listening\nto their songs if you haven't. It's\ngood to branch out sometimes!",
      "USes": "{{fun_0000000C arg=\"\"}}{{fun_0007000C arg=\"\"}}{{anim id=\"18\"}}{{fun_000B0007 arg=\"\"}}¡¿Quéeee?!{{delay frames=\"20\"}} ¡¿Lo dices en serio?!\nNo me estarás vacilando, ¿verdad?{{delay frames=\"40\"}}{{pageBreak}}\"La abominable gracilidad {{fun_0012000E arg=\"0x0B000600640065006C000A006400650020006C0061000000\"}}\n{{fun_00210005 arg=\"0x00CD\"}}\"{{delay frames=\"8\"}}.{{delay frames=\"8\"}}.{{delay frames=\"8\"}}.{{pageBreak}}{{anim id=\"27\"}}Vaya, si lo llego a saber{{delay frames=\"8\"}}.{{delay frames=\"8\"}}.{{delay frames=\"8\"}}.{{delay frames=\"20\"}} Es que\nya me compré un libro el mes\npasado.\n{{anim id=\"21\"}}Sí, uno sobre los cuidados básicos\n{{fun_0012000E arg=\"0x0B010600640065006C000A006400650020006C0061000000\"}} {{fun_00210005 arg=\"0x01CD\"}} en\n{{fun_001E0005 arg=\"0x02CD\"}}.{{pageBreak}}{{anim id=\"39\"}}La verdad es que debería tratar\nde ahorrar bayas,{{delay frames=\"10\"}} pero el título\nme llama un montón.{{pageBreak}}{{anim id=\"1\"}}Va, ¡me voy a dar un caprichico!\n{{fun_0003000E arg=\"\"}}{{fun_00080005 arg=\"\"}}, tú también deberías\nleer algo sobre el tema. ¡Es la caña!",
      "USfr": "{{fun_0000000C arg=\"\"}}{{fun_0007000C arg=\"\"}}{{anim id=\"18\"}}{{fun_000B0007 arg=\"\"}}Sérieux???{{delay frames=\"20\"}} Tu rigoles, j'espère!{{delay frames=\"40\"}}\nHa! Les Bombes {{fun_0003000E arg=\"\"}}{{fun_000F0005 arg=\"0x0000\"}}\nse sont encore séparés?\n{{anim id=\"27\"}}À chaque fois qu'ils font ça, ils\nchangent de nom de groupe et\nreviennent,{{delay frames=\"8\"}} {{fun_00070005 arg=\"\"}}.\n{{anim id=\"39\"}}Je comprends qu'ils aient besoin\nde changement,{{delay frames=\"20\"}} mais quand même,\nc'est pas terrible pour les fans.\n{{anim id=\"1\"}}{{fun_0003000E arg=\"\"}}{{fun_00080005 arg=\"\"}}, tu devrais vraiment\nécouter leurs morceaux. J'suis sûre\nque tu vas adorer!{{delay frames=\"8\"}} {{fun_0003000E arg=\"\"}}{{fun_00070005 arg=\"\"}}!"
    }
  },
  {
    "label": "019",
    "locale": {
      "EUde": "",
      "EUen": "",
      "EUes": "",
      "EUfr": "",
      "EUit": "",
      "JPja": "",
      "KRko": "",
      "USen": "",
      "USes": "",
      "USfr": ""
    }
  },
  {
    "label": "020",
    "locale": {
      "EUde": "{{anim id=\"1\"}}Okey-dokey!{{delay frames=\"8\"}} Ich hau dann mal ab!{{anim id=\"0\"}}{{pageBreak}}{{fun_0002000C arg=\"\"}}{{fun_0003000C arg=\"\"}}{{fun_0000000C arg=\"\"}}{{fun_0008000C arg=\"\"}}Cool, dass du mich hergebracht\nhast,{{delay frames=\"8\"}} {{fun_00080005 arg=\"\"}}!{{delay frames=\"8\"}} {{fun_0003000E arg=\"\"}}{{fun_00070005 arg=\"\"}}!",
      "EUen": "{{anim id=\"1\"}}A'ight then!{{delay frames=\"8\"}} I'm taking off now!{{anim id=\"0\"}}{{pageBreak}}{{fun_0002000C arg=\"\"}}{{fun_0003000C arg=\"\"}}{{fun_0000000C arg=\"\"}}{{fun_0008000C arg=\"\"}}Thanks for coming to get me,{{delay frames=\"8\"}}\n{{fun_00080005 arg=\"\"}}!{{delay frames=\"8\"}} {{fun_0003000E arg=\"\"}}{{fun_00070005 arg=\"\"}}!",
      "EUes": "{{anim id=\"1\"}}¡Pues nada!{{delay frames=\"8\"}} ¡Aquí la menda\nse larga ya!{{anim id=\"0\"}} {{fun_0002000C arg=\"\"}}{{fun_0003000C arg=\"\"}}{{fun_0000000C arg=\"\"}}{{fun_0008000C arg=\"\"}}¡Eh, {{fun_00080005 arg=\"\"}},\ngracias por venir a buscarme!",
      "EUfr": "{{anim id=\"1\"}}Bon,{{delay frames=\"8\"}} c'est pas tout ça, il est temps\nde plier bagage !{{anim id=\"0\"}}{{pageBreak}}{{fun_0002000C arg=\"\"}}{{fun_0003000C arg=\"\"}}{{fun_0000000C arg=\"\"}}{{fun_0008000C arg=\"\"}}Merci à toi, {{fun_00080005 arg=\"\"}} !{{delay frames=\"8\"}}\n{{fun_0003000E arg=\"\"}}{{fun_00070005 arg=\"\"}} !",
      "EUit": "{{anim id=\"1\"}}Vabbè,{{delay frames=\"8\"}} io vado!{{anim id=\"0\"}}{{pageBreak}}{{fun_0002000C arg=\"\"}}{{fun_0003000C arg=\"\"}}{{fun_0000000C arg=\"\"}}{{fun_0008000C arg=\"\"}}Beh, allora... grazie per essere\nvenut{{fun_0006000E arg=\"0x02006F0002006100\"}} a prendermi,{{delay frames=\"8\"}} {{fun_00080005 arg=\"\"}}!{{delay frames=\"8\"}}\n{{fun_0003000E arg=\"\"}}{{fun_00070005 arg=\"\"}}!",
      "JPja": "{{anim id=\"1\"}}それじゃ、{{delay frames=\"8\"}}ウチは\nそろそろ　{{ruby charSpan=\"2\" value=\"しつれい\"}}失礼するよ！{{anim id=\"0\"}}{{pageBreak}}{{fun_0002000C arg=\"\"}}{{fun_0003000C arg=\"\"}}{{fun_0000000C arg=\"\"}}{{fun_0008000C arg=\"\"}}ご{{ruby charSpan=\"2\" value=\"くろう\"}}苦労だったね、{{delay frames=\"8\"}}\n{{fun_00080005 arg=\"\"}}！　{{delay frames=\"8\"}}{{fun_00070005 arg=\"\"}}！",
      "KRko": "{{anim id=\"1\"}}그럼 {{delay frames=\"8\"}}난\n슬슬 가볼게!{{anim id=\"0\"}}{{pageBreak}}{{fun_0002000C arg=\"\"}}{{fun_0003000C arg=\"\"}}{{fun_0000000C arg=\"\"}}{{fun_0008000C arg=\"\"}}수고했어{{delay frames=\"8\"}}, {{fun_00080005 arg=\"\"}}!\n{{delay frames=\"8\"}}{{fun_00070005 arg=\"\"}}!",
      "USen": "{{anim id=\"1\"}}A'ight then!{{delay frames=\"8\"}} I'm taking off now!{{anim id=\"0\"}}{{pageBreak}}{{fun_0002000C arg=\"\"}}{{fun_0003000C arg=\"\"}}{{fun_0000000C arg=\"\"}}{{fun_0008000C arg=\"\"}}Thanks for coming to get me,{{delay frames=\"8\"}}\n{{fun_00080005 arg=\"\"}}!{{delay frames=\"8\"}} {{fun_0003000E arg=\"\"}}{{fun_00070005 arg=\"\"}}!",
      "USes": "{{anim id=\"1\"}}¡Pues nada!{{delay frames=\"8\"}} ¡Aquí la menda\nse larga ya!{{anim id=\"0\"}} {{fun_0002000C arg=\"\"}}{{fun_0003000C arg=\"\"}}{{fun_0000000C arg=\"\"}}{{fun_0008000C arg=\"\"}}¡Eh, {{fun_00080005 arg=\"\"}},\ngracias por venir a buscarme!",
      "USfr": "{{anim id=\"1\"}}Bon,{{delay frames=\"8\"}} c'est pas tout ça, il est temps\nde plier bagage!{{anim id=\"0\"}}{{pageBreak}}{{fun_0002000C arg=\"\"}}{{fun_0003000C arg=\"\"}}{{fun_0000000C arg=\"\"}}{{fun_0008000C arg=\"\"}}Merci à toi, {{fun_00080005 arg=\"\"}}!{{delay frames=\"8\"}}\n{{fun_0003000E arg=\"\"}}{{fun_00070005 arg=\"\"}}!"
    }
  },
  {
    "label": "021",
    "locale": {
      "EUde": "{{anim id=\"0\"}}Also dann,{{delay frames=\"8\"}} ich geh mal heim!{{fun_00010007 arg=\"\"}}\n{{fun_0002000C arg=\"\"}}{{fun_0003000C arg=\"\"}}{{fun_0000000C arg=\"\"}}{{fun_0008000C arg=\"\"}}{{delay frames=\"20\"}}{{anim id=\"1\"}}Cool, dass du mich abgeholt\nhast, {{delay frames=\"8\"}}{{fun_00080005 arg=\"\"}}!",
      "EUen": "{{anim id=\"0\"}}Well then,{{delay frames=\"8\"}} I'm going home now!{{fun_00010007 arg=\"\"}}\n{{fun_0002000C arg=\"\"}}{{fun_0003000C arg=\"\"}}{{fun_0000000C arg=\"\"}}{{fun_0008000C arg=\"\"}}{{delay frames=\"20\"}}{{anim id=\"1\"}}Thanks for bringing me here,{{delay frames=\"8\"}}\n{{fun_00080005 arg=\"\"}}!",
      "EUes": "{{anim id=\"0\"}}En fin,{{delay frames=\"8\"}} ¡yo me las piro, majos!{{fun_00010007 arg=\"\"}}\n{{fun_0002000C arg=\"\"}}{{fun_0003000C arg=\"\"}}{{fun_0000000C arg=\"\"}}{{fun_0008000C arg=\"\"}}{{delay frames=\"20\"}}{{anim id=\"1\"}}¡Oye, gracias por venir a por mí,{{delay frames=\"8\"}}\n{{fun_00080005 arg=\"\"}}!",
      "EUfr": "{{anim id=\"0\"}}Allez,{{delay frames=\"8\"}} j'rentre à la maison !{{fun_00010007 arg=\"\"}}\n{{fun_0002000C arg=\"\"}}{{fun_0003000C arg=\"\"}}{{fun_0000000C arg=\"\"}}{{fun_0008000C arg=\"\"}}{{delay frames=\"20\"}}{{anim id=\"1\"}}Merci d'être {{fun_0006000E arg=\"0x0800760065006E0075000A00760065006E0075006500\"}} me chercher,{{delay frames=\"8\"}}\n{{fun_00080005 arg=\"\"}} !",
      "EUit": "{{anim id=\"0\"}}OK,{{delay frames=\"8\"}} a questo punto posso tornare\na casa!{{fun_00010007 arg=\"\"}} {{fun_0002000C arg=\"\"}}{{fun_0003000C arg=\"\"}}{{fun_0000000C arg=\"\"}}{{fun_0008000C arg=\"\"}}{{delay frames=\"20\"}}{{anim id=\"1\"}}Beh, grazie per avermi\nfatto da guida,{{delay frames=\"8\"}} {{fun_00080005 arg=\"\"}}!",
      "JPja": "{{anim id=\"0\"}}じゃあ、{{delay frames=\"8\"}}ウチは　お{{ruby charSpan=\"1\" value=\"さき\"}}先に{{ruby charSpan=\"1\" value=\"かえ\"}}帰るよ！{{fun_00010007 arg=\"\"}}\n{{fun_0002000C arg=\"\"}}{{fun_0003000C arg=\"\"}}{{fun_0000000C arg=\"\"}}{{fun_0008000C arg=\"\"}}{{delay frames=\"20\"}}{{anim id=\"1\"}}わざわざ　{{ruby charSpan=\"1\" value=\"つ\"}}連れてきてくれて\nありがとね、{{delay frames=\"8\"}}{{fun_00080005 arg=\"\"}}",
      "KRko": "{{anim id=\"0\"}}그럼 {{delay frames=\"8\"}}난 먼저 갈게!{{fun_00010007 arg=\"\"}}\n{{fun_0002000C arg=\"\"}}{{fun_0003000C arg=\"\"}}{{fun_0000000C arg=\"\"}}{{fun_0008000C arg=\"\"}}{{delay frames=\"20\"}}{{anim id=\"1\"}}일부러 데리러 와줘서\n고마웠어, {{delay frames=\"8\"}}{{fun_00080005 arg=\"\"}}",
      "USen": "{{anim id=\"0\"}}Well then,{{delay frames=\"8\"}} I'm going home now!{{fun_00010007 arg=\"\"}}\n{{fun_0002000C arg=\"\"}}{{fun_0003000C arg=\"\"}}{{fun_0000000C arg=\"\"}}{{fun_0008000C arg=\"\"}}{{delay frames=\"20\"}}{{anim id=\"1\"}}Thanks for bringing me here,{{delay frames=\"8\"}}\n{{fun_00080005 arg=\"\"}}!",
      "USes": "{{anim id=\"0\"}}En fin,{{delay frames=\"8\"}} ¡yo me las piro, majos!{{fun_00010007 arg=\"\"}}\n{{fun_0002000C arg=\"\"}}{{fun_0003000C arg=\"\"}}{{fun_0000000C arg=\"\"}}{{fun_0008000C arg=\"\"}}{{delay frames=\"20\"}}{{anim id=\"1\"}}¡Oye, gracias por venir a por mí,{{delay frames=\"8\"}}\n{{fun_00080005 arg=\"\"}}!",
      "USfr": "{{anim id=\"0\"}}Allez,{{delay frames=\"8\"}} j'rentre à la maison!{{fun_00010007 arg=\"\"}}\n{{fun_0002000C arg=\"\"}}{{fun_0003000C arg=\"\"}}{{fun_0000000C arg=\"\"}}{{fun_0008000C arg=\"\"}}{{delay frames=\"20\"}}{{anim id=\"1\"}}Merci d'être {{fun_0006000E arg=\"0x0800760065006E0075000A00760065006E0075006500\"}} me chercher,{{delay frames=\"8\"}}\n{{fun_00080005 arg=\"\"}}!"
    }
  },
  {
    "label": "022",
    "locale": {
      "EUde": "So!{{delay frames=\"20\"}} Sonst noch was? {{delay frames=\"20\"}}\nKann ich jetzt heim?{{anim id=\"0\"}}{{pageBreak}}{{fun_0002000C arg=\"\"}}{{fun_0003000C arg=\"\"}}{{fun_0000000C arg=\"\"}}{{fun_0008000C arg=\"\"}}{{fun_0003000E arg=\"\"}}{{fun_00080005 arg=\"\"}}!{{delay frames=\"20\"}} Cool, dass du mich\nhergebracht hast,{{delay frames=\"8\"}} {{fun_00070005 arg=\"\"}}!",
      "EUen": "{{anim id=\"37\"}}Well, I'm headin' home!{{anim id=\"0\"}}{{pageBreak}}{{fun_0002000C arg=\"\"}}{{fun_0003000C arg=\"\"}}{{fun_0000000C arg=\"\"}}{{fun_0008000C arg=\"\"}}{{fun_0003000E arg=\"\"}}{{fun_00080005 arg=\"\"}}!{{delay frames=\"20\"}} Thanks for bringing\nme here,{{delay frames=\"8\"}} {{fun_00070005 arg=\"\"}}!",
      "EUes": "¡Pues muy bien!{{delay frames=\"20\"}} Ya no me necesitáis\npara nada más, ¿verdad?{{delay frames=\"20\"}} ¡Entonces\nme doy el piro, simpáticos!{{anim id=\"0\"}}{{pageBreak}}{{fun_0002000C arg=\"\"}}{{fun_0003000C arg=\"\"}}{{fun_0000000C arg=\"\"}}{{fun_0008000C arg=\"\"}}¡Ah, {{fun_00080005 arg=\"\"}}!{{delay frames=\"20\"}} ¡Muchas gracias\npor traerme hasta aquí!",
      "EUfr": "OK ! Puisqu'on a plus rien à se dire,{{delay frames=\"20\"}}\nje m'en vais !{{anim id=\"0\"}}{{pageBreak}}{{fun_0002000C arg=\"\"}}{{fun_0003000C arg=\"\"}}{{fun_0000000C arg=\"\"}}{{fun_0008000C arg=\"\"}}{{fun_0003000E arg=\"\"}}{{fun_00080005 arg=\"\"}}, merci de m'avoir\namenée ici,{{delay frames=\"8\"}} {{fun_00070005 arg=\"\"}} !",
      "EUit": "A posto!{{delay frames=\"20\"}} Io qui ho finito, giusto?\n{{delay frames=\"20\"}}Allora vado a casa!{{anim id=\"0\"}}{{pageBreak}}{{fun_0002000C arg=\"\"}}{{fun_0003000C arg=\"\"}}{{fun_0000000C arg=\"\"}}{{fun_0008000C arg=\"\"}}{{fun_0003000E arg=\"\"}}{{fun_00080005 arg=\"\"}}!{{delay frames=\"20\"}} ... Grazie per avermi\nfatto da guida,{{delay frames=\"8\"}} {{fun_00070005 arg=\"\"}}!",
      "JPja": "さてと、{{delay frames=\"20\"}}\nもう　{{ruby charSpan=\"2\" value=\"ようじ\"}}用事は{{ruby charSpan=\"1\" value=\"お\"}}終わったようだね{{delay frames=\"20\"}}\nそろそろ　ウチは　{{ruby charSpan=\"1\" value=\"かえ\"}}帰るよ{{anim id=\"0\"}}{{pageBreak}}{{fun_0002000C arg=\"\"}}{{fun_0003000C arg=\"\"}}{{fun_0000000C arg=\"\"}}{{fun_0008000C arg=\"\"}}{{fun_00080005 arg=\"\"}}！{{delay frames=\"20\"}}\nご{{ruby charSpan=\"2\" value=\"くろう\"}}苦労だったね、{{delay frames=\"8\"}}{{fun_00070005 arg=\"\"}}",
      "KRko": "자, 그럼{{delay frames=\"20\"}}\n이제 볼일도 끝난 것 같고{{delay frames=\"20\"}}\n난 슬슬 가볼게{{anim id=\"0\"}}{{pageBreak}}{{fun_0002000C arg=\"\"}}{{fun_0003000C arg=\"\"}}{{fun_0000000C arg=\"\"}}{{fun_0008000C arg=\"\"}}{{fun_00080005 arg=\"\"}}!{{delay frames=\"20\"}}\n수고했어, {{delay frames=\"8\"}}{{fun_00070005 arg=\"\"}}",
      "USen": "{{anim id=\"37\"}}Well, I'm headin' home!{{anim id=\"0\"}}{{pageBreak}}{{fun_0002000C arg=\"\"}}{{fun_0003000C arg=\"\"}}{{fun_0000000C arg=\"\"}}{{fun_0008000C arg=\"\"}}{{fun_0003000E arg=\"\"}}{{fun_00080005 arg=\"\"}}!{{delay frames=\"20\"}} Thanks for bringing\nme here,{{delay frames=\"8\"}} {{fun_00070005 arg=\"\"}}!",
      "USes": "¡Pues muy bien!{{delay frames=\"20\"}} Ya no me necesitáis\npara nada más, ¿verdad?{{delay frames=\"20\"}} ¡Entonces\nme doy el piro, simpáticos!{{anim id=\"0\"}}{{pageBreak}}{{fun_0002000C arg=\"\"}}{{fun_0003000C arg=\"\"}}{{fun_0000000C arg=\"\"}}{{fun_0008000C arg=\"\"}}¡Ah, {{fun_00080005 arg=\"\"}}!{{delay frames=\"20\"}} ¡Muchas gracias\npor traerme hasta aquí!",
      "USfr": "OK! Puisqu'on a plus rien à se dire,{{delay frames=\"20\"}}\nje m'en vais!{{anim id=\"0\"}}{{pageBreak}}{{fun_0002000C arg=\"\"}}{{fun_0003000C arg=\"\"}}{{fun_0000000C arg=\"\"}}{{fun_0008000C arg=\"\"}}{{fun_0003000E arg=\"\"}}{{fun_00080005 arg=\"\"}}, merci de m'avoir\namenée ici,{{delay frames=\"8\"}} {{fun_00070005 arg=\"\"}}!"
    }
  },
  {
    "label": "023",
    "locale": {
      "EUde": "",
      "EUen": "",
      "EUes": "",
      "EUfr": "",
      "EUit": "",
      "JPja": "",
      "KRko": "",
      "USen": "",
      "USes": "",
      "USfr": ""
    }
  }
]