﻿[
  {
    "label": "001",
    "locale": {
      "EUde": "{{anim id=\"1\"}}Entschuldige die Störung,{{delay frames=\"8\"}}\n{{fun_0006000E arg=\"0x1A004200FC0072006700650072006D006500690073007400650072001E004200FC0072006700650072006D0065006900730074006500720069006E00\"}} {{fun_00000005 arg=\"\"}}!",
      "EUen": "{{anim id=\"1\"}}Sorry to intrude,{{delay frames=\"8\"}} Mayor!",
      "EUes": "{{anim id=\"1\"}}¡Con permiso,{{delay frames=\"8\"}} {{fun_0006000E arg=\"0x0E0061006C00630061006C0064006500120061006C00630061006C006400650073006100\"}}!",
      "EUfr": "{{anim id=\"1\"}}J'espère que je ne dérange pas,{{delay frames=\"8\"}}\n{{fun_0006000E arg=\"0x10004D006F006E00730069006500750072000C004D006100640061006D006500\"}} le maire !",
      "EUit": "{{anim id=\"1\"}}Scusa il disturbo,{{delay frames=\"8\"}} sindaco!",
      "JPja": "{{anim id=\"1\"}}{{ruby charSpan=\"2\" value=\"そんちょう\"}}村長、{{delay frames=\"8\"}}\nおじゃましま～す！",
      "KRko": "{{anim id=\"1\"}}촌장님,{{delay frames=\"8\"}}\n잠깐 실례할게요～!",
      "USen": "{{anim id=\"1\"}}Sorry to intrude,{{delay frames=\"8\"}} Mayor!",
      "USes": "{{anim id=\"1\"}}¡Con permiso,{{delay frames=\"8\"}} {{fun_0006000E arg=\"0x0E0061006C00630061006C0064006500120061006C00630061006C006400650073006100\"}}!",
      "USfr": "{{anim id=\"1\"}}J'espère que je ne dérange pas,{{delay frames=\"8\"}}\n{{fun_0006000E arg=\"0x10004D006F006E00730069006500750072000C004D006100640061006D006500\"}} le maire!"
    }
  },
  {
    "label": "002",
    "locale": {
      "EUde": "{{anim id=\"1\"}}Entschuldige die Störung,{{delay frames=\"8\"}}\n{{fun_00000005 arg=\"\"}}!",
      "EUen": "{{anim id=\"1\"}}Sorry to intrude,{{delay frames=\"8\"}} {{fun_00000005 arg=\"\"}}!",
      "EUes": "{{anim id=\"1\"}}¡Con permiso,{{delay frames=\"8\"}} {{fun_00000005 arg=\"\"}}!",
      "EUfr": "{{anim id=\"1\"}}J'espère que je ne dérange pas,{{delay frames=\"8\"}}\n{{fun_00000005 arg=\"\"}} !",
      "EUit": "{{anim id=\"1\"}}Scusa il disturbo,{{delay frames=\"8\"}} {{fun_00000005 arg=\"\"}}!",
      "JPja": "{{anim id=\"1\"}}{{fun_00000005 arg=\"\"}}さん、{{delay frames=\"8\"}}\nおじゃましま～す！",
      "KRko": "{{anim id=\"1\"}}{{fun_00000005 arg=\"\"}}님,{{delay frames=\"8\"}}\n잠깐 실례할게요～!",
      "USen": "{{anim id=\"1\"}}Sorry to intrude,{{delay frames=\"8\"}} {{fun_00000005 arg=\"\"}}!",
      "USes": "{{anim id=\"1\"}}¡Con permiso,{{delay frames=\"8\"}} {{fun_00000005 arg=\"\"}}!",
      "USfr": "{{anim id=\"1\"}}J'espère que je ne dérange pas,{{delay frames=\"8\"}}\n{{fun_00000005 arg=\"\"}}!"
    }
  },
  {
    "label": "003",
    "locale": {
      "EUde": "Wie ich sehe, ist dein Haus fertig!{{delay frames=\"20\"}}\nGratuliere!{{pageBreak}}Der Holzgeruch in einem neuen Haus\nist einfach herrlich, nicht wahr?",
      "EUen": "I see your house is all finished!\nCongratulations!{{pageBreak}}The lumber smell from a new house\nis so nice, isn't it?",
      "EUes": "Veo que tu casa está terminada.\n¡Felicidades!{{pageBreak}}El olor a casa nueva es\nmuy agradable, ¿verdad?",
      "EUfr": "Votre maison est terminée à ce que\nje vois !{{delay frames=\"8\"}} Félicitations !{{pageBreak}}Ah, {{delay frames=\"8\"}}l'odeur du bois qui embaume\nune nouvelle maison, c'est quelque\nchose !",
      "EUit": "Vedo con piacere che la tua casa\nè finalmente pronta. Complimenti!{{pageBreak}}L'odore di legno che si respira\nnelle case nuove è davvero\ndelizioso, non trovi?",
      "JPja": "お{{ruby charSpan=\"1\" value=\"うち\"}}家、{{ruby charSpan=\"2\" value=\"かんせい\"}}完成しましたね！\nおめでとうございます！{{pageBreak}}{{ruby charSpan=\"2\" value=\"しんちく\"}}新築の　{{ruby charSpan=\"1\" value=\"き\"}}木の{{ruby charSpan=\"1\" value=\"かお\"}}香りが\nいいですね～！",
      "KRko": "집이 완성되었네요!\n축하드립니다!{{pageBreak}}새집 특유의 나무 향기가\n참 좋네요～!",
      "USen": "I see your house is all finished!\nCongratulations!{{pageBreak}}The lumber smell from a new house\nis so nice, isn't it?",
      "USes": "Veo que tu casa está terminada.\n¡Felicidades!{{pageBreak}}El olor a casa nueva es\nmuy agradable, ¿verdad?",
      "USfr": "Votre maison est terminée à ce que\nje vois!{{delay frames=\"8\"}} Félicitations!{{pageBreak}}Ah, {{delay frames=\"8\"}}l'odeur du bois qui embaume\nune nouvelle maison, c'est quelque\nchose!"
    }
  },
  {
    "label": "004",
    "locale": {
      "EUde": "Und zur Feier des Tages habe ich dir\neine {{color id=\"2\"}}Tapete{{color id=\"65535\"}} mitgebracht!",
      "EUen": "That reminds me! I brought over\nsome {{color id=\"2\"}}wallpaper{{color id=\"65535\"}} to celebrate your\nnew home!",
      "EUes": "¡Ah! Te he traído {{color id=\"2\"}}papel de pared{{color id=\"65535\"}}\npara celebrar la inauguración\nde tu casa.",
      "EUfr": "Regardez, je vous ai amené un joli\n{{color id=\"2\"}}papier peint{{color id=\"65535\"}} pour la pendaison de\ncrémaillère !",
      "EUit": "Prima che mi dimentichi!\nTi ho portato della {{color id=\"2\"}}carta da parati\n{{color id=\"65535\"}}per festeggiare la tua casa nuova!",
      "JPja": "そうそう、{{ruby charSpan=\"2\" value=\"きょう\"}}今日は　{{ruby charSpan=\"2\" value=\"しんちく\"}}新築のお{{ruby charSpan=\"1\" value=\"いわ\"}}祝いに\n{{color id=\"2\"}}かべがみ{{color id=\"65535\"}}を　{{ruby charSpan=\"1\" value=\"も\"}}持ってきました！",
      "KRko": "아 참! 오늘은 집이 완성된 기념으로\n{{color id=\"2\"}}벽지{{color id=\"65535\"}}를 선물로 가져왔답니다!",
      "USen": "That reminds me! I brought over\nsome {{color id=\"2\"}}wallpaper{{color id=\"65535\"}} to celebrate your\nnew home!",
      "USes": "¡Ah! Te he traído {{color id=\"2\"}}papel de pared{{color id=\"65535\"}}\npara celebrar la inauguración\nde tu casa.",
      "USfr": "Regardez, je vous ai amené un joli\n{{color id=\"2\"}}papier peint{{color id=\"65535\"}} pour la pendaison de\ncrémaillère!"
    }
  },
  {
    "label": "005",
    "locale": {
      "EUde": "Hier, bitte!",
      "EUen": "Here you go!",
      "EUes": "¡Aquí tienes!",
      "EUfr": "Et voilà !",
      "EUit": "Ecco qua!",
      "JPja": "はい、どうぞ！",
      "KRko": "자, 받아주세요!",
      "USen": "Here you go!",
      "USes": "¡Aquí tienes!",
      "USfr": "Et voilà!"
    }
  },
  {
    "label": "006",
    "locale": {
      "EUde": "{{fun_0008000E arg=\"0x00CD060044006500720006004400690065000600440061007300\"}} {{fun_00030011 arg=\"0x0000\"}}, {{fun_0008000E arg=\"0x00CD0600640065006E0006006400690065000600640061007300\"}} ich\ndir gegeben habe, ist jetzt in deinem\n{{color id=\"2\"}}Inventar{{color id=\"65535\"}}.{{pageBreak}}Wähle {{fun_0008000E arg=\"0x00CD0600690068006E000600730069006500040065007300\"}} aus und wähle dann\n{{color id=\"2\"}}An die Wand{{color id=\"65535\"}}, um deine aktuelle\nTapete durch sie zu ersetzen!",
      "EUen": "The {{fun_00030011 arg=\"0x0000\"}} I just\ngave you is now in your {{color id=\"2\"}}pockets{{color id=\"65535\"}}.{{pageBreak}}Select it and choose {{color id=\"2\"}}Hang on Wall{{color id=\"65535\"}}\nto change the room's wallpaper.",
      "EUes": "{{fun_0003000E arg=\"\"}}{{fun_0001000E arg=\"\"}}{{fun_00030011 arg=\"0x0000\"}} que\nacabo de darte está en tus {{color id=\"2\"}}bolsillos{{color id=\"65535\"}}\ncon el resto de tus objetos.{{pageBreak}}Selecciónal{{fun_0008000E arg=\"0x00CD02006F00020061000000\"}} y elige {{color id=\"2\"}}Colocar pared{{color id=\"65535\"}}\npara cambiar el papel de pared\nde la habitación en la que estés.",
      "EUfr": "{{fun_0003000E arg=\"\"}}{{fun_0001000E arg=\"\"}}{{fun_00030011 arg=\"0x0000\"}} que\nje viens de vous donner se trouve\ndans votre {{color id=\"2\"}}inventaire{{color id=\"65535\"}}.\nSélectionnez-le et choisissez {{color id=\"2\"}}Poser\nau mur {{color id=\"65535\"}}pour changer le papier peint\nde la pièce où vous vous trouvez.",
      "EUit": "Benissimo! Ora che\n{{fun_0001000E arg=\"\"}}{{fun_00030011 arg=\"0x0000\"}} che\nti ho portato è nelle tue {{color id=\"2\"}}tasche{{color id=\"65535\"}}...{{pageBreak}}... selezional{{fun_0012000E arg=\"0x100002006F00020061000000\"}} e poi scegli {{color id=\"2\"}}Usa sulle\npareti{{color id=\"65535\"}} per rivestire i muri interni\ndi casa tua.",
      "JPja": "{{color id=\"2\"}}{{ruby charSpan=\"1\" value=\"も\"}}持ち{{ruby charSpan=\"2\" value=\"ものらん\"}}物欄{{color id=\"65535\"}}で、{{ruby charSpan=\"1\" value=\"いま\"}}今お{{ruby charSpan=\"1\" value=\"わた\"}}渡しした\n{{fun_00030011 arg=\"0x0000\"}}を　{{ruby charSpan=\"1\" value=\"えら\"}}選んで\n{{color id=\"2\"}}かべにはる{{color id=\"65535\"}}と、はり{{ruby charSpan=\"1\" value=\"か\"}}替えられるんですよ！",
      "KRko": "{{color id=\"2\"}}주머니{{color id=\"65535\"}}를 열고 지금 건네드린\n{{fun_00030011 arg=\"0x0000\"}}{{fun_000E000E arg=\"0x020044C702007CB9\"}} 선택해서\n{{color id=\"2\"}}벽에 붙이기{{color id=\"65535\"}}를 하시면 끝! 간단하죠?",
      "USen": "The {{fun_00030011 arg=\"0x0000\"}} I just\ngave you is now in your {{color id=\"2\"}}pockets{{color id=\"65535\"}}.{{pageBreak}}Select it and choose {{color id=\"2\"}}Hang on Wall{{color id=\"65535\"}}\nto change the room's wallpaper.",
      "USes": "{{fun_0003000E arg=\"\"}}{{fun_0001000E arg=\"\"}}{{fun_00030011 arg=\"0x0000\"}} que\nacabo de darte está en tus {{color id=\"2\"}}bolsillos{{color id=\"65535\"}}\ncon el resto de tus objetos.{{pageBreak}}Selecciónal{{fun_0008000E arg=\"0x00CD02006F00020061000000\"}} y elige {{color id=\"2\"}}Colocar pared{{color id=\"65535\"}}\npara cambiar el papel de pared\nde la habitación en la que estés.",
      "USfr": "{{fun_0003000E arg=\"\"}}{{fun_0001000E arg=\"\"}}{{fun_00030011 arg=\"0x0000\"}} que\nje viens de vous donner se trouve\ndans votre {{color id=\"2\"}}inventaire{{color id=\"65535\"}}.\nSélectionnez-le et choisissez {{color id=\"2\"}}Poser\nau mur {{color id=\"65535\"}}pour changer le papier peint\nde la pièce où vous vous trouvez."
    }
  },
  {
    "label": "007",
    "locale": {
      "EUde": "Probier's einfach mal aus!{{pageBreak}}Ich hoffe, das Muster gefällt dir!",
      "EUen": "You should try it when you get a\nchance! {{anim id=\"37\"}}I hope you like the design.",
      "EUes": "¡Inténtalo cuando tengas\nun poco de tiempo!{{pageBreak}}Espero que te guste el diseño\nque he escogido.",
      "EUfr": "{{anim id=\"1\"}}Essayez celui que je vous ai donné à\nl'occasion ! {{delay frames=\"15\"}}J'espère que les motifs\nvous plairont.",
      "EUit": "Se vuoi, prova a vedere come sta!\nSpero che ti piaccia la fantasia\nche ho scelto per te!",
      "JPja": "またあとで　お{{ruby charSpan=\"2\" value=\"じかん\"}}時間のある{{ruby charSpan=\"1\" value=\"とき\"}}時にでも\n{{ruby charSpan=\"1\" value=\"ため\"}}試してみてください！{{pageBreak}}デザインが　お{{ruby charSpan=\"1\" value=\"き\"}}気にめすと\nいいんですけど",
      "KRko": "나중에 시간 나면\n꼭 벽에 붙여보세요!{{pageBreak}}디자인이 마음에 들었으면\n좋겠네요～",
      "USen": "You should try it when you get a\nchance! {{anim id=\"37\"}}I hope you like the design.",
      "USes": "¡Inténtalo cuando tengas\nun poco de tiempo!{{pageBreak}}Espero que te guste el diseño\nque he escogido.",
      "USfr": "{{anim id=\"1\"}}Essayez celui que je vous ai donné à\nl'occasion! {{delay frames=\"15\"}}J'espère que les motifs\nvous plairont."
    }
  },
  {
    "label": "008",
    "locale": {
      "EUde": "Genauso kannst du auch deinen\n{{color id=\"2\"}}Teppich {{color id=\"65535\"}}austauschen, wenn du im\nInventar {{color id=\"2\"}}Auf den Boden{{color id=\"65535\"}} auswählst.\nIch hoffe, es macht dir Spaß, ein\nwenig mit verschiedenen Designs\nherumzuexperimentieren!",
      "EUen": "You can change your {{color id=\"2\"}}carpet {{color id=\"65535\"}}as well\nby choosing {{color id=\"2\"}}Spread on Floor{{color id=\"65535\"}} from\nyour pockets.\nI hope you have fun redecorating\nyour walls and floors with all the\ngreat designs out there!",
      "EUes": "Puedes cambiar el {{color id=\"2\"}}tipo de suelo\n{{color id=\"65535\"}}del mismo modo si eliges la opción\n{{color id=\"2\"}}Colocar suelo{{color id=\"65535\"}}.\n¡Espero que te diviertas decorando\ntu casa con diseños originales!",
      "EUfr": "C'est le même principe pour la déco\ndu {{color id=\"2\"}}sol{{color id=\"65535\"}}, d'ailleurs :{{delay frames=\"15\"}} il suffit de choisir\n{{color id=\"2\"}}Poser au sol {{color id=\"65535\"}}dans l'inventaire.\nVous allez pouvoir vous amuser à\nredécorer votre intérieur comme il\nvous plaît !",
      "EUit": "Per cambiare il {{color id=\"2\"}}tappeto{{color id=\"65535\"}}, devi fare\npiù o meno nello stesso modo.{{pageBreak}}Seleziona quello che ti piace\ntra le cose che hai in tasca e\npoi scegli {{color id=\"2\"}}Usa a terra{{color id=\"65535\"}}.{{pageBreak}}Divertiti a rinnovare la tua casa\ncon le carte da parati e i tappeti\nche riesci a procurarti!",
      "JPja": "{{ruby charSpan=\"1\" value=\"おな\"}}同じように、{{color id=\"2\"}}じゅうたん{{color id=\"65535\"}}も\n{{color id=\"2\"}}ゆかにしく{{color id=\"65535\"}}ことができるんですよ{{pageBreak}}{{ruby charSpan=\"1\" value=\"あたら\"}}新しい　かべがみや　じゅうたんを\n{{ruby charSpan=\"1\" value=\"て\"}}手に{{ruby charSpan=\"1\" value=\"い\"}}入れたら、お{{ruby charSpan=\"2\" value=\"へや\"}}部屋の{{ruby charSpan=\"2\" value=\"ないそう\"}}内装を\nアレンジして　{{ruby charSpan=\"1\" value=\"たの\"}}楽しんでくださいね！",
      "KRko": "같은 방법으로 {{color id=\"2\"}}바닥에 깔기{{color id=\"65535\"}}를 선택하면\n{{color id=\"2\"}}바닥{{color id=\"65535\"}}도 바꾸실 수 있답니다!{{pageBreak}}새로운 벽지나 바닥을 손에 넣어서\n집 안 분위기를 바꾸며\n즐거운 시간을 보내보세요～!",
      "USen": "You can change your {{color id=\"2\"}}carpet {{color id=\"65535\"}}as well\nby choosing {{color id=\"2\"}}Spread on Floor{{color id=\"65535\"}} from\nyour pockets.\nI hope you have fun redecorating\nyour walls and floors with all the\ngreat designs out there!",
      "USes": "Puedes cambiar el {{color id=\"2\"}}tipo de suelo\n{{color id=\"65535\"}}del mismo modo si eliges la opción\n{{color id=\"2\"}}Colocar suelo{{color id=\"65535\"}}.\n¡Espero que te diviertas decorando\ntu casa con diseños originales!",
      "USfr": "C'est le même principe pour la déco\ndu {{color id=\"2\"}}sol{{color id=\"65535\"}}, d'ailleurs :{{delay frames=\"15\"}} il suffit de choisir\n{{color id=\"2\"}}Poser au sol {{color id=\"65535\"}}dans l'inventaire.\nVous allez pouvoir vous amuser à\nredécorer votre intérieur comme il\nvous plaît!"
    }
  },
  {
    "label": "009",
    "locale": {
      "EUde": "Ich bin schon wieder weg!{{delay frames=\"20\"}}\nDanke für deine Geduld!",
      "EUen": "Well, I'll be going now!{{fun_00010007 arg=\"\"}}\nThanks for having me!",
      "EUes": "Esto es todo. Ya es hora de que\nvuelva al trabajo.{{fun_00010007 arg=\"\"}} ¡Disfruta de tu\nnuevo hogar!",
      "EUfr": "Parfait, c'est tout ce que je voulais\nvous dire !{{fun_00010007 arg=\"\"}} Merci pour l'accueil !",
      "EUit": "Beh, ora io tolgo il disturbo.{{fun_00010007 arg=\"\"}}\nGrazie di tutto e arrivederci!",
      "JPja": "では、わたしは　これで！{{fun_00010007 arg=\"\"}}\nおじゃましました～！",
      "KRko": "그럼 전 이만 실례하겠습니다!{{fun_00010007 arg=\"\"}}\n안녕히 계세요～!",
      "USen": "Well, I'll be going now!{{fun_00010007 arg=\"\"}}\nThanks for having me!",
      "USes": "Esto es todo. Ya es hora de que\nvuelva al trabajo.{{fun_00010007 arg=\"\"}} ¡Disfruta de tu\nnuevo hogar!",
      "USfr": "Parfait, c'est tout ce que je voulais\nvous dire!{{fun_00010007 arg=\"\"}} Merci pour l'accueil!"
    }
  },
  {
    "label": "010",
    "locale": {
      "EUde": "Oh, du trägst im Moment zu viele\nGegenstände bei dir, also müssen\nwir uns was anderes überlegen.",
      "EUen": "...Ah! You're carrying a bunch of\nthings at the moment, so perhaps\nthis isn't the right time just yet.",
      "EUes": "Huy, llevas demasiados objetos\nen los bolsillos. Tendré que dártelo\nen otro momento...",
      "EUfr": "Oh !{{delay frames=\"15\"}} Vous n'avez plus de place\npour porter ça... {{delay frames=\"30\"}}Ce n'est peut-être\npas le bon moment, alors !",
      "EUit": "... Ah! A quanto pare hai le tasche\npiene zeppe. Forse adesso non è\nil momento giusto!",
      "JPja": "・・・あっ！\nでも、{{ruby charSpan=\"1\" value=\"も\"}}持ち{{ruby charSpan=\"1\" value=\"もの\"}}物がいっぱいで\nそれどころじゃ　なさそうですね",
      "KRko": "・・・앗!\n근데 주머니가 가득 차서\n드릴 수가 없네요～",
      "USen": "...Ah! You're carrying a bunch of\nthings at the moment, so perhaps\nthis isn't the right time just yet.",
      "USes": "Huy, llevas demasiados objetos\nen los bolsillos. Tendré que dártelo\nen otro momento...",
      "USfr": "Oh!{{delay frames=\"15\"}} Vous n'avez plus de place\npour porter ça... {{delay frames=\"30\"}}Ce n'est peut-être\npas le bon moment, alors!"
    }
  },
  {
    "label": "011",
    "locale": {
      "EUde": "Ich schicke dir die Tapete einfach\nmit der Post zu!{{pageBreak}}Wenn du sie hast, wähle sie im\nInventar aus und wähle {{color id=\"2\"}}An die Wand{{color id=\"65535\"}},\num die Tapete zu wechseln!",
      "EUen": "I'll just send the wallpaper later\nthrough the post office!{{pageBreak}}When you get it, select it from your\npockets and choose {{color id=\"2\"}}Hang on Wall{{color id=\"65535\"}}\nto change your wallpaper!",
      "EUes": "Te enviaré el papel de pared a\ntravés del servicio de correos.{{pageBreak}}Cuando lo recibas, selecciónalo en\ntus bolsillos y elige {{color id=\"2\"}}Colocar pared\n{{color id=\"65535\"}}para ponerlo en la pared.",
      "EUfr": "Ce n'est pas grave, {{delay frames=\"15\"}}je vous enverrai\nle papier peint par la poste !{{pageBreak}}Quand vous l'aurez reçu,\nsélectionnez-le dans votre\ninventaire...\n... puis choisissez {{color id=\"2\"}}Poser au mur{{color id=\"65535\"}} pour\nredécorer la pièce !",
      "EUit": "Ti manderò per posta la carta\nda parati che ti ho preso!{{pageBreak}}Quando la ricevi, selezionala dalle\ntue tasche e poi scegli {{color id=\"2\"}}Usa sulle\npareti {{color id=\"65535\"}}per vedere come sta!",
      "JPja": "じゃあ　かべがみは\n{{ruby charSpan=\"1\" value=\"あと\"}}後で　{{ruby charSpan=\"2\" value=\"ゆうびん\"}}郵便で{{ruby charSpan=\"1\" value=\"おく\"}}送ることにします！{{pageBreak}}{{ruby charSpan=\"1\" value=\"う\"}}受け{{ruby charSpan=\"1\" value=\"と\"}}取っていただいたあとに\n{{ruby charSpan=\"1\" value=\"も\"}}持ち{{ruby charSpan=\"2\" value=\"ものらん\"}}物欄から　かべがみを{{ruby charSpan=\"1\" value=\"えら\"}}選んで\n{{color id=\"2\"}}かべにはる{{color id=\"65535\"}}と　はり{{ruby charSpan=\"1\" value=\"か\"}}替えられますよ！",
      "KRko": "그럼 벽지는\n나중에 우편으로 보내겠습니다!{{pageBreak}}받으신 다음에 주머니에서 \n벽지를 선택해서 {{color id=\"2\"}}벽에 붙이기{{color id=\"65535\"}}를 하면 \n벽지를 바꾸실 수 있어요!",
      "USen": "I'll just send the wallpaper later\nthrough the post office!{{pageBreak}}When you get it, select it from your\npockets and choose {{color id=\"2\"}}Hang on Wall{{color id=\"65535\"}}\nto change your wallpaper!",
      "USes": "Te enviaré el papel de pared a\ntravés del servicio de correos.{{pageBreak}}Cuando lo recibas, selecciónalo en\ntus bolsillos y elige {{color id=\"2\"}}Colocar pared\n{{color id=\"65535\"}}para ponerlo en la pared.",
      "USfr": "Ce n'est pas grave, {{delay frames=\"15\"}}je vous enverrai\nle papier peint par la poste!{{pageBreak}}Quand vous l'aurez reçu,\nsélectionnez-le dans votre\ninventaire...\n... puis choisissez {{color id=\"2\"}}Poser au mur{{color id=\"65535\"}} pour\nredécorer la pièce!"
    }
  },
  {
    "label": "012",
    "locale": {
      "EUde": "Genauso kannst du auch deinen\n{{color id=\"2\"}}Teppich {{color id=\"65535\"}}austauschen, wenn du im\nInventar {{color id=\"2\"}}Auf den Boden{{color id=\"65535\"}} auswählst.\nIch hoffe, du hast Spaß daran, ein\nwenig mit verschiedenen Designs\nherumzuexperimentieren!",
      "EUen": "You can also change your {{color id=\"2\"}}carpet {{color id=\"65535\"}}the\nsame way by choosing {{color id=\"2\"}}Spread on\nFloor{{color id=\"65535\"}} from your pockets.\nI hope you enjoy redecorating your\nhome with new wallpaper and\ncarpets! It's lots of fun!",
      "EUes": "Puedes cambiar el {{color id=\"2\"}}tipo de suelo\n{{color id=\"65535\"}}del mismo modo si eliges la opción\n{{color id=\"2\"}}Colocar suelo{{color id=\"65535\"}}.\n¡Espero que te diviertas decorando\ntu casa con diseños originales!",
      "EUfr": "C'est le même principe pour la déco\ndu {{color id=\"2\"}}sol{{color id=\"65535\"}}, à vrai dire :{{delay frames=\"15\"}} choisissez juste\n{{color id=\"2\"}}Poser au sol {{color id=\"65535\"}}dans l'inventaire.\nVous allez pouvoir vous amuser à\nredécorer votre intérieur comme il\nvous plaît !",
      "EUit": "Per cambiare il {{color id=\"2\"}}tappeto{{color id=\"65535\"}}, devi fare\npiù o meno nello stesso modo.{{pageBreak}}Seleziona quello che ti piace\ntra le cose che hai in tasca e\npoi scegli {{color id=\"2\"}}Usa a terra{{color id=\"65535\"}}.{{pageBreak}}Spero che ti divertirai a cambiare\nla carta da parati e il tappeto, ogni\ntanto. A me piace moltissimo!!!",
      "JPja": "{{ruby charSpan=\"1\" value=\"おな\"}}同じように、{{color id=\"2\"}}じゅうたん{{color id=\"65535\"}}も\n{{color id=\"2\"}}ゆかにしく{{color id=\"65535\"}}ことが　できるんですよ{{pageBreak}}{{ruby charSpan=\"1\" value=\"あたら\"}}新しい　かべがみや　じゅうたんを\n{{ruby charSpan=\"1\" value=\"て\"}}手に{{ruby charSpan=\"1\" value=\"い\"}}入れたら、お{{ruby charSpan=\"2\" value=\"へや\"}}部屋の{{ruby charSpan=\"2\" value=\"ないそう\"}}内装を\nアレンジして　{{ruby charSpan=\"1\" value=\"たの\"}}楽しんでくださいね！",
      "KRko": "같은 방법으로 {{color id=\"2\"}}바닥에 깔기{{color id=\"65535\"}}를 선택하면\n{{color id=\"2\"}}바닥{{color id=\"65535\"}}도 바꾸실 수 있어요～!{{pageBreak}}새로운 벽지나 바닥을 손에 넣어서\n집 안 분위기를 바꾸며\n즐거운 시간을 보내보세요～!",
      "USen": "You can also change your {{color id=\"2\"}}carpet {{color id=\"65535\"}}the\nsame way by choosing {{color id=\"2\"}}Spread on\nFloor{{color id=\"65535\"}} from your pockets.\nI hope you enjoy redecorating your\nhome with new wallpaper and\ncarpets! It's lots of fun!",
      "USes": "Puedes cambiar el {{color id=\"2\"}}tipo de suelo\n{{color id=\"65535\"}}del mismo modo si eliges la opción\n{{color id=\"2\"}}Colocar suelo{{color id=\"65535\"}}.\n¡Espero que te diviertas decorando\ntu casa con diseños originales!",
      "USfr": "C'est le même principe pour la déco\ndu {{color id=\"2\"}}sol{{color id=\"65535\"}}, à vrai dire :{{delay frames=\"15\"}} choisissez juste\n{{color id=\"2\"}}Poser au sol {{color id=\"65535\"}}dans l'inventaire.\nVous allez pouvoir vous amuser à\nredécorer votre intérieur comme il\nvous plaît!"
    }
  },
  {
    "label": "013",
    "locale": {
      "EUde": "{{anim id=\"37\"}}Der Neuaufbau deines Hauses ist\nabgeschlossen!{{delay frames=\"20\"}} Dein neues Leben in\n{{fun_00050005 arg=\"\"}} kann also beginnen!\n{{anim id=\"29\"}}Meine Güte, wie aufregend!{{anim id=\"0\"}}{{delay frames=\"20\"}}\n{{anim id=\"1\"}}Ich habe dir auch eine {{color id=\"2\"}}Tapete {{color id=\"65535\"}}als\nEinweihungsgeschenk mitgebracht!",
      "EUen": "{{anim id=\"37\"}}Your house is all rebuilt, so now you\ncan finally start your new life here\nin {{fun_00050005 arg=\"\"}}! {{anim id=\"29\"}}That's so exciting!{{anim id=\"0\"}}\n{{anim id=\"1\"}}I brought over some {{color id=\"2\"}}wallpaper {{color id=\"65535\"}}to\ncelebrate the big move!",
      "EUes": "{{anim id=\"37\"}}¡Tu casa ya está lista!\nPor fin empieza tu nueva vida\nen {{fun_0003000E arg=\"\"}}{{fun_00050005 arg=\"\"}}. {{anim id=\"29\"}}¿Emocionad{{fun_0006000E arg=\"0x02006F0002006100\"}}?\n{{anim id=\"1\"}}He traído este {{color id=\"2\"}}papel de pared{{color id=\"65535\"}}\npara celebrar tu mudanza.",
      "EUfr": "{{anim id=\"37\"}}Votre maison a été entièrement\nrebâtie, vous pouvez recommencer\nune nouvelle vie, ici à {{fun_00050005 arg=\"\"}} !\n{{anim id=\"29\"}}Comme c'est excitant !{{delay frames=\"30\"}}{{anim id=\"1\"}} Je vous ai\napporté un magnifique {{color id=\"2\"}}papier peint{{color id=\"65535\"}}\npour célébrer cela !",
      "EUit": "{{anim id=\"37\"}}Oh, la tua casa è completata e puoi\niniziare la tua nuova vita\n{{fun_0010000E arg=\"\"}} {{fun_00050005 arg=\"\"}}. {{anim id=\"29\"}}Che bello!{{anim id=\"0\"}}\n{{anim id=\"1\"}}Ti ho portato della {{color id=\"2\"}}carta da parati\n{{color id=\"65535\"}}per festeggiare questo evento!",
      "JPja": "{{anim id=\"37\"}}お{{ruby charSpan=\"1\" value=\"うち\"}}家も{{ruby charSpan=\"1\" value=\"た\"}}建って、{{delay frames=\"10\"}}\nいよいよ　{{fun_00050005 arg=\"\"}}{{ruby charSpan=\"1\" value=\"むら\"}}村での\n{{ruby charSpan=\"1\" value=\"あたら\"}}新しい{{ruby charSpan=\"2\" value=\"せいかつ\"}}生活が　{{ruby charSpan=\"1\" value=\"はじ\"}}始まりますね！{{pageBreak}}{{anim id=\"1\"}}{{ruby charSpan=\"2\" value=\"きょう\"}}今日は　そんな{{ruby charSpan=\"2\" value=\"そんちょう\"}}村長の\n{{ruby charSpan=\"2\" value=\"ひっこ\"}}引越しのお{{ruby charSpan=\"1\" value=\"いわ\"}}祝いに、{{delay frames=\"10\"}}\n{{color id=\"2\"}}かべがみ{{color id=\"65535\"}}を　{{ruby charSpan=\"1\" value=\"も\"}}持ってきました！",
      "KRko": "{{anim id=\"37\"}}집도 완성되었으니{{delay frames=\"10\"}}\n드디어 {{fun_00050005 arg=\"\"}} 마을에서의\n본격적인 생활이 시작되겠네요!{{pageBreak}}{{anim id=\"1\"}}오늘은 촌장님의 이사를 \n축하하며 선물로{{delay frames=\"10\"}}\n{{color id=\"2\"}}벽지{{color id=\"65535\"}}를 가져왔어요!",
      "USen": "{{anim id=\"37\"}}Your house is all rebuilt, so now you\ncan finally start your new life here\nin {{fun_00050005 arg=\"\"}}! {{anim id=\"29\"}}That's so exciting!{{anim id=\"0\"}}\n{{anim id=\"1\"}}I brought over some {{color id=\"2\"}}wallpaper {{color id=\"65535\"}}to\ncelebrate the big move!",
      "USes": "{{anim id=\"37\"}}¡Tu casa ya está lista!\nPor fin empieza tu nueva vida\nen {{fun_0003000E arg=\"\"}}{{fun_00050005 arg=\"\"}}. {{anim id=\"29\"}}¿Emocionad{{fun_0006000E arg=\"0x02006F0002006100\"}}?\n{{anim id=\"1\"}}He traído este {{color id=\"2\"}}papel de pared{{color id=\"65535\"}}\npara celebrar tu mudanza.",
      "USfr": "{{anim id=\"37\"}}Votre maison a été entièrement\nrebâtie, vous pouvez recommencer\nune nouvelle vie, ici à {{fun_00050005 arg=\"\"}}!\n{{anim id=\"29\"}}Comme c'est excitant!{{delay frames=\"30\"}}{{anim id=\"1\"}} Je vous ai\napporté un magnifique {{color id=\"2\"}}papier peint{{color id=\"65535\"}}\npour célébrer cela!"
    }
  },
  {
    "label": "014",
    "locale": {
      "EUde": "{{anim id=\"15\"}}{{delay frames=\"15\"}}Oje, fast hätte ich vergessen, dir\netwas Wichtiges zu sagen{{delay frames=\"5\"}}.{{delay frames=\"5\"}}.{{delay frames=\"5\"}}.{{pageBreak}}{{anim id=\"0\"}}In deinem Haus kannst du \nverwenden, um den Kamerawinkel\nzu ändern.{{pageBreak}}Außerdem kannst du damit zoomen\nund die Perspektive verändern.{{delay frames=\"10\"}}\n{{anim id=\"23\"}}Wusstest du das schon?\nOh,{{delay frames=\"10\"}} und mit dem {{color id=\"2\"}}Schalter{{color id=\"65535\"}} auf dem\nTouchscreen kannst du das Licht\nin deinem Haus ein- und ausschalten.\n{{anim id=\"1\"}}So kannst du dein Haus aus jedem\nBlickwinkel und bei verschiedenen\nLichtverhältnissen betrachten!",
      "EUen": "{{delay frames=\"5\"}}{{anim id=\"15\"}}{{delay frames=\"15\"}}Oh dear, I forgot!{{delay frames=\"15\"}} There's actually\nsomething else I need to tell you{{delay frames=\"5\"}}.{{delay frames=\"5\"}}.{{delay frames=\"5\"}}.{{pageBreak}}{{anim id=\"0\"}}When inside your house,{{delay frames=\"10\"}} you can\npress  to change the camera\nangle in the room.\nYou can also use it to zoom and\nchange your point of view.{{delay frames=\"5\"}} {{anim id=\"23\"}}Did you\nalready know that?\nOh,{{delay frames=\"10\"}} and if you press the {{color id=\"2\"}}switch{{color id=\"65535\"}} on\nthe lower screen,{{delay frames=\"10\"}} you can make the\nentire room lighter or darker.\n{{anim id=\"1\"}}Since it's your home,{{delay frames=\"10\"}} you should\ntake time to enjoy it from each\nand every angle!",
      "EUes": "{{anim id=\"15\"}}{{delay frames=\"15\"}}¡Ay!{{delay frames=\"15\"}} Casi se me olvida comentarte\nalgo muy importante{{delay frames=\"5\"}}.{{delay frames=\"5\"}}.{{delay frames=\"5\"}}.{{pageBreak}}{{anim id=\"0\"}}Dentro de tu casa,{{delay frames=\"10\"}} puedes cambiar\nel ángulo de la cámara con .{{pageBreak}}También puedes acercar o alejar\nla cámara del mismo modo.{{delay frames=\"5\"}}{{anim id=\"23\"}}\n¿Lo habías probado ya?\nAh,{{delay frames=\"10\"}} y si pulsas el {{color id=\"2\"}}interruptor {{color id=\"65535\"}}de\nla pantalla táctil, encenderás o\napagarás la luz de la habitación.\n{{anim id=\"1\"}}Así no perderás detalle de ningún\nrincón de tu hogar.",
      "EUfr": "{{delay frames=\"5\"}}{{anim id=\"15\"}}{{delay frames=\"15\"}}Oh misère, j'oubliais !{{delay frames=\"15\"}} J'ai encore\nune chose importante à vous dire{{delay frames=\"5\"}}.{{delay frames=\"5\"}}.{{delay frames=\"5\"}}.{{pageBreak}}{{anim id=\"0\"}}À l'intérieur de votre maison,{{delay frames=\"10\"}}\nutilisez  pour changer l'angle de la\ncaméra.\nVous pouvez aussi zoomer ou placer\nla caméra au-dessus de vous.{{delay frames=\"5\"}} {{anim id=\"23\"}}Vous\nle saviez déjà ?\nOh,{{delay frames=\"10\"}} et si vous voulez allumer ou\néteindre la lumière, appuyez sur\nl'{{color id=\"2\"}}interrupteur {{color id=\"65535\"}}sur l'écran tactile.\n{{anim id=\"1\"}}Je sais à quel point il est agréable\nde pouvoir admirer sa maison dans\nles meilleures conditions !",
      "EUit": "{{delay frames=\"5\"}}{{anim id=\"15\"}}{{delay frames=\"15\"}}Oh, dimenticavo!{{delay frames=\"15\"}} C'è un'altra cosa\nche devo dirti{{delay frames=\"5\"}}.{{delay frames=\"5\"}}.{{delay frames=\"5\"}}.{{pageBreak}}{{anim id=\"0\"}}Quando sei in casa,{{delay frames=\"10\"}} puoi premere \nper cambiare il punto di vista e\nusare lo zoom.{{delay frames=\"5\"}} {{anim id=\"23\"}}Lo sapevi?\nE se tocchi l'{{color id=\"2\"}}interruttore{{color id=\"65535\"}} sullo\nschermo inferiore,{{delay frames=\"10\"}} puoi accendere\no spegnere la luce nella stanza.\n{{anim id=\"1\"}}È casa tua,{{delay frames=\"10\"}} goditela più che puoi!",
      "JPja": "{{delay frames=\"5\"}}{{anim id=\"15\"}}{{delay frames=\"15\"}}そうそう！{{delay frames=\"15\"}}\nそれから　もうひとつ{{delay frames=\"5\"}}・{{delay frames=\"5\"}}・{{delay frames=\"5\"}}・{{pageBreak}}{{anim id=\"0\"}}お{{ruby charSpan=\"1\" value=\"うち\"}}家の{{ruby charSpan=\"1\" value=\"なか\"}}中で　{{delay frames=\"10\"}}を{{ruby charSpan=\"1\" value=\"お\"}}押すと{{delay frames=\"10\"}}\n{{ruby charSpan=\"1\" value=\"む\"}}向きを{{ruby charSpan=\"1\" value=\"か\"}}変えたり　{{ruby charSpan=\"1\" value=\"ちか\"}}近づいたり、{{delay frames=\"10\"}}\n{{ruby charSpan=\"2\" value=\"してん\"}}視点を{{ruby charSpan=\"1\" value=\"か\"}}変えられるのは{{delay frames=\"5\"}}{{anim id=\"23\"}}　ご{{ruby charSpan=\"2\" value=\"ぞんじ\"}}存知でした？{{pageBreak}}あと、{{delay frames=\"10\"}}{{ruby charSpan=\"3\" value=\"したがめん\"}}下画面の{{color id=\"2\"}}スイッチ{{color id=\"65535\"}}を{{ruby charSpan=\"1\" value=\"お\"}}押すと{{delay frames=\"10\"}}\nお{{ruby charSpan=\"2\" value=\"へや\"}}部屋　{{ruby charSpan=\"2\" value=\"ぜんたい\"}}全体を\n{{ruby charSpan=\"1\" value=\"あか\"}}明るくしたり　{{ruby charSpan=\"1\" value=\"くら\"}}暗くしたり{{delay frames=\"5\"}}　できますよ\n{{anim id=\"1\"}}せっかくの　マイホームですから、{{delay frames=\"10\"}}\nそれで　お{{ruby charSpan=\"2\" value=\"へや\"}}部屋をじっくり\nご{{ruby charSpan=\"1\" value=\"らん\"}}覧になって{{delay frames=\"5\"}}　{{ruby charSpan=\"1\" value=\"たの\"}}楽しんでくださいね！",
      "KRko": "{{delay frames=\"5\"}}{{anim id=\"15\"}}{{delay frames=\"15\"}}아!{{delay frames=\"15\"}}\n그리고 또 하나{{delay frames=\"5\"}}・{{delay frames=\"5\"}}・{{delay frames=\"5\"}}・{{pageBreak}}{{anim id=\"0\"}}집 안에서 {{delay frames=\"10\"}}를 눌러서{{delay frames=\"10\"}}\n방향을 바꾸거나 다가가기도 하고{{delay frames=\"10\"}}\n또 시점을 바꿀 수 있는 건 {{delay frames=\"5\"}}{{anim id=\"23\"}}알고 계신가요?{{pageBreak}}그리고 {{delay frames=\"10\"}}아래 화면에 있는 \n{{color id=\"2\"}}스위치{{color id=\"65535\"}}를 누르면{{delay frames=\"10\"}} 방 전체를 \n밝게 또는 어둡게도 {{delay frames=\"5\"}}만들 수 있답니다!\n{{anim id=\"1\"}}어렵게 장만한 집이니{{delay frames=\"10\"}}\n이 기능을 이용해서 집 여기저기를\n둘러보며 {{delay frames=\"5\"}}즐겨보세요!",
      "USen": "{{delay frames=\"5\"}}{{anim id=\"15\"}}{{delay frames=\"15\"}}Oh dear, I forgot!{{delay frames=\"15\"}} There's actually\nsomething else I need to tell you{{delay frames=\"5\"}}.{{delay frames=\"5\"}}.{{delay frames=\"5\"}}.{{pageBreak}}{{anim id=\"0\"}}When inside your house,{{delay frames=\"10\"}} you can\npress  to change the camera\nangle in the room.\nYou can also use it to zoom and\nchange your point of view.{{delay frames=\"5\"}} {{anim id=\"23\"}}Did you\nalready know that?\nOh,{{delay frames=\"10\"}} and if you press the {{color id=\"2\"}}switch{{color id=\"65535\"}} on\nthe lower screen,{{delay frames=\"10\"}} you can make the\nentire room lighter or darker.\n{{anim id=\"1\"}}Since it's your home,{{delay frames=\"10\"}} you should\ntake time to enjoy it from each\nand every angle!",
      "USes": "{{anim id=\"15\"}}{{delay frames=\"15\"}}¡Ay!{{delay frames=\"15\"}} Casi se me olvida comentarte\nalgo muy importante{{delay frames=\"5\"}}.{{delay frames=\"5\"}}.{{delay frames=\"5\"}}.{{pageBreak}}{{anim id=\"0\"}}Dentro de tu casa,{{delay frames=\"10\"}} puedes cambiar\nel ángulo de la cámara con .{{pageBreak}}También puedes acercar o alejar\nla cámara del mismo modo.{{delay frames=\"5\"}}{{anim id=\"23\"}}\n¿Lo habías probado ya?\nAh,{{delay frames=\"10\"}} y si pulsas el {{color id=\"2\"}}interruptor {{color id=\"65535\"}}de\nla pantalla táctil, encenderás o\napagarás la luz de la habitación.\n{{anim id=\"1\"}}Así no perderás detalle de ningún\nrincón de tu hogar.",
      "USfr": "{{delay frames=\"5\"}}{{anim id=\"15\"}}{{delay frames=\"15\"}}Oh misère, j'oubliais!{{delay frames=\"15\"}} J'ai encore\nune chose importante à vous dire{{delay frames=\"5\"}}.{{delay frames=\"5\"}}.{{delay frames=\"5\"}}.{{pageBreak}}{{anim id=\"0\"}}À l'intérieur de votre maison,{{delay frames=\"10\"}}\nutilisez  pour changer l'angle de la\ncaméra.\nVous pouvez aussi zoomer ou placer\nla caméra au-dessus de vous.{{delay frames=\"5\"}} {{anim id=\"23\"}}Vous\nle saviez déjà?\nOh,{{delay frames=\"10\"}} et si vous voulez allumer ou\néteindre la lumière, appuyez sur\nl'{{color id=\"2\"}}interrupteur {{color id=\"65535\"}}sur l'écran tactile.\n{{anim id=\"1\"}}Je sais à quel point il est agréable\nde pouvoir admirer sa maison dans\nles meilleures conditions!"
    }
  },
  {
    "label": "015",
    "locale": {
      "EUde": "",
      "EUen": "",
      "EUes": "",
      "EUfr": "",
      "EUit": "",
      "JPja": "",
      "KRko": "",
      "USen": "",
      "USes": "",
      "USfr": ""
    }
  }
]