﻿[
  {
    "label": "001",
    "locale": {
      "EUde": "{{delay frames=\"20\"}}Hallo, {{delay frames=\"8\"}}{{anim id=\"37\"}}{{fun_00000005 arg=\"\"}}!{{delay frames=\"30\"}}\n{{anim id=\"38\"}}Wie geht es dir?{{delay frames=\"20\"}}",
      "EUen": "{{delay frames=\"20\"}}Well, hello there, {{delay frames=\"8\"}}{{anim id=\"38\"}}{{fun_00000005 arg=\"\"}}!{{delay frames=\"30\"}}\n{{anim id=\"23\"}}How are you today?{{delay frames=\"20\"}}{{anim id=\"0\"}}",
      "EUes": "{{delay frames=\"20\"}}Uh,{{delay frames=\"8\"}} ¡hola,{{delay frames=\"8\"}} {{anim id=\"37\"}}{{fun_00000005 arg=\"\"}}!{{delay frames=\"30\"}}\n{{anim id=\"38\"}}¿Cómo estás?{{anim id=\"0\"}}",
      "EUfr": "Bonjour, {{delay frames=\"8\"}}{{anim id=\"38\"}}{{fun_00000005 arg=\"\"}} !{{delay frames=\"30\"}}\n{{anim id=\"23\"}}Comment allez-vous ?",
      "EUit": "{{delay frames=\"20\"}}Ma ciao, {{delay frames=\"8\"}}{{anim id=\"38\"}}{{fun_00000005 arg=\"\"}}!{{delay frames=\"30\"}}\n{{anim id=\"23\"}}Come stai oggi?{{delay frames=\"20\"}}{{anim id=\"0\"}}",
      "JPja": "{{delay frames=\"20\"}}あら、{{delay frames=\"8\"}}{{anim id=\"37\"}}{{fun_00000005 arg=\"\"}}さん！{{delay frames=\"30\"}}\n{{anim id=\"38\"}}お{{ruby charSpan=\"2\" value=\"げんき\"}}元気ですか？！{{delay frames=\"20\"}}{{anim id=\"0\"}}",
      "KRko": "{{delay frames=\"20\"}}어머, {{delay frames=\"8\"}}{{anim id=\"37\"}}{{fun_00000005 arg=\"\"}}님!{{delay frames=\"30\"}}\n{{anim id=\"38\"}}잘 지내시죠?{{delay frames=\"20\"}}{{anim id=\"0\"}}",
      "USen": "{{delay frames=\"20\"}}Well, hello there, {{delay frames=\"8\"}}{{anim id=\"38\"}}{{fun_00000005 arg=\"\"}}!{{delay frames=\"30\"}}\n{{anim id=\"23\"}}How are you today?{{delay frames=\"20\"}}{{anim id=\"0\"}}",
      "USes": "{{delay frames=\"20\"}}Uh,{{delay frames=\"8\"}} ¡hola,{{delay frames=\"8\"}} {{anim id=\"37\"}}{{fun_00000005 arg=\"\"}}!{{delay frames=\"30\"}}\n{{anim id=\"38\"}}¿Cómo estás?{{anim id=\"0\"}}",
      "USfr": "Bonjour, {{delay frames=\"8\"}}{{anim id=\"38\"}}{{fun_00000005 arg=\"\"}} !{{delay frames=\"30\"}}\n{{anim id=\"23\"}}Comment allez-vous ?"
    }
  },
  {
    "label": "002",
    "locale": {
      "EUde": "{{delay frames=\"20\"}}Ha ha ha, {{fun_00000005 arg=\"\"}}!{{delay frames=\"30\"}}\n{{anim id=\"37\"}}Schön, dich wiederzusehen, {{delay frames=\"8\"}}miau!",
      "EUen": "{{delay frames=\"20\"}}Hey, {{fun_00000005 arg=\"\"}}!{{delay frames=\"30\"}} {{anim id=\"37\"}}Good to see\nyou again!",
      "EUes": "{{delay frames=\"20\"}}¡Hola,{{delay frames=\"8\"}} {{fun_00000005 arg=\"\"}}!{{delay frames=\"30\"}}\n{{anim id=\"37\"}}¡Me alegra verte de nuevo!",
      "EUfr": "Salut, {{fun_00000005 arg=\"\"}} !{{delay frames=\"30\"}}{{anim id=\"37\"}}\nComme on se retrouve !",
      "EUit": "{{delay frames=\"20\"}}Ehilà, {{fun_00000005 arg=\"\"}}!{{delay frames=\"30\"}}\n{{anim id=\"37\"}}Che bello rivederti!",
      "JPja": "{{delay frames=\"20\"}}やあ　{{fun_00000005 arg=\"\"}}さん、{{delay frames=\"30\"}}\n{{anim id=\"37\"}}また　{{ruby charSpan=\"1\" value=\"あ\"}}会ったね！",
      "KRko": "{{delay frames=\"20\"}}여어, {{fun_00000005 arg=\"\"}}님!{{delay frames=\"30\"}}\n{{anim id=\"37\"}}자주 보네!",
      "USen": "{{delay frames=\"20\"}}Hey, {{fun_00000005 arg=\"\"}}!{{delay frames=\"30\"}} {{anim id=\"37\"}}Good to see\nyou again!",
      "USes": "{{delay frames=\"20\"}}¡Hola,{{delay frames=\"8\"}} {{fun_00000005 arg=\"\"}}!{{delay frames=\"30\"}}\n{{anim id=\"37\"}}¡Me alegra verte de nuevo!",
      "USfr": "Salut, {{fun_00000005 arg=\"\"}} !{{delay frames=\"30\"}}{{anim id=\"37\"}}\nComme on se retrouve !"
    }
  },
  {
    "label": "003",
    "locale": {
      "EUde": "{{anim id=\"15\"}}{{delay frames=\"10\"}}Oho!{{delay frames=\"30\"}} {{anim id=\"1\"}}{{fun_0003000E arg=\"\"}}{{fun_00000005 arg=\"\"}}!{{delay frames=\"10\"}}\nIch bin hocherfreut, {{delay frames=\"8\"}}ja, ja!",
      "EUen": "{{delay frames=\"20\"}}{{anim id=\"15\"}}{{delay frames=\"10\"}}Oh,{{delay frames=\"30\"}} {{anim id=\"1\"}}{{fun_0006000E arg=\"0x04004D00720004004D007300\"}}. {{fun_00000005 arg=\"\"}}!{{delay frames=\"10\"}} How good to \nsee you!",
      "EUes": "{{delay frames=\"20\"}}{{anim id=\"15\"}}{{delay frames=\"10\"}}Ah,{{delay frames=\"8\"}} eres tú,{{delay frames=\"8\"}} {{anim id=\"1\"}}{{fun_00000005 arg=\"\"}}.{{delay frames=\"20\"}}\nMe alegro de verte,{{delay frames=\"8\"}} ¿sí?",
      "EUfr": "Oh, {{delay frames=\"10\"}}{{fun_0006000E arg=\"0x0E006300650020006300680065007200160063006500740074006500200063006800E80072006500\"}} {{fun_00000005 arg=\"\"}} !{{delay frames=\"10\"}}\nÇa fait plaisir de te voir,{{delay frames=\"10\"}} oui, oui.",
      "EUit": "{{delay frames=\"20\"}}{{anim id=\"15\"}}{{delay frames=\"10\"}}Oh,{{delay frames=\"30\"}}{{anim id=\"1\"}} {{fun_00000005 arg=\"\"}}!\nChe piacere, sì sì!",
      "JPja": "{{delay frames=\"20\"}}{{anim id=\"15\"}}{{delay frames=\"10\"}}あっ！{{delay frames=\"30\"}}\n{{anim id=\"1\"}}{{fun_00000005 arg=\"\"}}さん、{{delay frames=\"10\"}}どーもどーも！",
      "KRko": "{{delay frames=\"20\"}}{{anim id=\"15\"}}{{delay frames=\"10\"}}앗!{{delay frames=\"30\"}}\n{{anim id=\"1\"}}{{fun_00000005 arg=\"\"}}님, {{delay frames=\"10\"}}어서 와!",
      "USen": "{{delay frames=\"20\"}}{{anim id=\"15\"}}{{delay frames=\"10\"}}Oh,{{delay frames=\"30\"}} {{anim id=\"1\"}}{{fun_0006000E arg=\"0x04004D00720004004D007300\"}}. {{fun_00000005 arg=\"\"}}!{{delay frames=\"10\"}} How good to \nsee you!",
      "USes": "{{delay frames=\"20\"}}{{anim id=\"15\"}}{{delay frames=\"10\"}}Ah,{{delay frames=\"8\"}} eres tú,{{delay frames=\"8\"}} {{anim id=\"1\"}}{{fun_00000005 arg=\"\"}}.{{delay frames=\"20\"}}\nMe alegro de verte,{{delay frames=\"8\"}} ¿sí?",
      "USfr": "Oh, {{delay frames=\"10\"}}{{fun_0006000E arg=\"0x0E006300650020006300680065007200160063006500740074006500200063006800E80072006500\"}} {{fun_00000005 arg=\"\"}} !{{delay frames=\"10\"}}\nÇa fait plaisir de te voir,{{delay frames=\"10\"}} oui, oui."
    }
  },
  {
    "label": "004",
    "locale": {
      "EUde": "",
      "EUen": "",
      "EUes": "",
      "EUfr": "",
      "EUit": "",
      "JPja": "",
      "KRko": "",
      "USen": "",
      "USes": "",
      "USfr": ""
    }
  },
  {
    "label": "005",
    "locale": {
      "EUde": "",
      "EUen": "",
      "EUes": "",
      "EUfr": "",
      "EUit": "",
      "JPja": "",
      "KRko": "",
      "USen": "",
      "USes": "",
      "USfr": ""
    }
  },
  {
    "label": "006",
    "locale": {
      "EUde": "{{anim id=\"1\"}}Hallo,{{delay frames=\"8\"}} uhuuu!{{delay frames=\"20\"}} Sind Sie wegen einer\nSpende für das Museum bei mir?{{delay frames=\"20\"}}\nWie überaus aufregend!",
      "EUen": "Greetings to you, {{delay frames=\"8\"}}hoo!{{delay frames=\"12\"}}{{anim id=\"23\"}} Do you\nhave a donation for me?{{delay frames=\"30\"}}{{anim id=\"0\"}} Oh my,{{delay frames=\"8\"}}\nhow exciting!",
      "EUes": "{{anim id=\"1\"}}¡Hola!{{delay frames=\"20\"}} ¿Qué tal estás?{{delay frames=\"20\"}}\n¿Traes algo para donar?{{delay frames=\"20\"}}\n¡Qué emoción!",
      "EUfr": "Bonjour ! {{delay frames=\"12\"}}{{anim id=\"23\"}}Tu désires faire un don au\nmusée ?{{delay frames=\"30\"}}{{anim id=\"0\"}} Tableaux,{{delay frames=\"10\"}} fossiles,{{delay frames=\"10\"}} insectes,{{delay frames=\"10\"}}\npoissons,{{delay frames=\"10\"}} je prends tout,{{delay frames=\"10\"}} ouh ouh !",
      "EUit": "{{anim id=\"1\"}}Uuuh, saluti a te!{{delay frames=\"12\"}}{{anim id=\"23\"}} Hai forse\nuna donazione per il museo?{{delay frames=\"10\"}}{{anim id=\"0\"}}\n{{anim id=\"1\"}}Santi gufi, che bella notizia!",
      "JPja": "{{anim id=\"1\"}}ホーッ！{{delay frames=\"12\"}}\n{{ruby charSpan=\"1\" value=\"なに\"}}何を{{ruby charSpan=\"2\" value=\"きぞう\"}}寄贈してくださるのですか？{{delay frames=\"10\"}}\nワクワク！",
      "KRko": "{{anim id=\"1\"}}오호ー!{{delay frames=\"12\"}}\n무엇을 기증하시겠습니까?{{delay frames=\"10\"}}\n두근두근!",
      "USen": "Greetings to you, {{delay frames=\"8\"}}hoo!{{delay frames=\"12\"}}{{anim id=\"23\"}} Do you\nhave a donation for me?{{delay frames=\"30\"}}{{anim id=\"0\"}} Oh my,{{delay frames=\"8\"}}\nhow exciting!",
      "USes": "{{anim id=\"1\"}}¡Hola!{{delay frames=\"20\"}} ¿Qué tal estás?{{delay frames=\"20\"}}\n¿Traes algo para donar?{{delay frames=\"20\"}}\n¡Qué emoción!",
      "USfr": "Bonjour ! {{delay frames=\"12\"}}{{anim id=\"23\"}}Tu désires faire un don au\nmusée ?{{delay frames=\"30\"}}{{anim id=\"0\"}} Tableaux,{{delay frames=\"10\"}} fossiles,{{delay frames=\"10\"}} insectes,{{delay frames=\"10\"}}\npoissons,{{delay frames=\"10\"}} je prends tout,{{delay frames=\"10\"}} ouh ouh !"
    }
  },
  {
    "label": "007",
    "locale": {
      "EUde": "",
      "EUen": "",
      "EUes": "",
      "EUfr": "",
      "EUit": "",
      "JPja": "",
      "KRko": "",
      "USen": "",
      "USes": "",
      "USfr": ""
    }
  },
  {
    "label": "008",
    "locale": {
      "EUde": "Na, {{delay frames=\"8\"}}alles locker, {{delay frames=\"8\"}}{{fun_00000005 arg=\"\"}}?{{delay frames=\"20\"}}\nBock auf heiße Grooves?",
      "EUen": "{{delay frames=\"20\"}}Yo, {{delay frames=\"8\"}}{{fun_00000005 arg=\"\"}}!{{delay frames=\"40\"}} {{anim id=\"23\"}}You feel like\nmellowing out with a few tunes?{{delay frames=\"20\"}}",
      "EUes": "{{delay frames=\"20\"}}¡Hola, {{fun_00000005 arg=\"\"}}!{{delay frames=\"40\"}} {{anim id=\"23\"}}¿Te apetece \nescuchar un par de canciones?",
      "EUfr": "Yo, {{delay frames=\"10\"}}{{fun_00000005 arg=\"\"}} !{{delay frames=\"40\"}} {{anim id=\"23\"}}Ça te dirait\nde faire les chœurs sur une\npetite impro ?",
      "EUit": "{{delay frames=\"20\"}}Ehi, {{delay frames=\"8\"}}{{fun_00000005 arg=\"\"}}!{{delay frames=\"40\"}} {{anim id=\"23\"}}Ti va di\nascoltare qualche nuova\ncanzone?{{delay frames=\"20\"}}",
      "JPja": "{{delay frames=\"20\"}}やあ、{{fun_00000005 arg=\"\"}}！{{delay frames=\"40\"}}\nゴキゲンな{{ruby charSpan=\"1\" value=\"きょく\"}}曲を\n{{anim id=\"23\"}}{{ruby charSpan=\"1\" value=\"き\"}}聴いてくれるかい？{{delay frames=\"20\"}}",
      "KRko": "{{delay frames=\"20\"}}여어, {{fun_00000005 arg=\"\"}}씨!{{delay frames=\"40\"}}\n괜찮다면 한 곡\n{{anim id=\"23\"}}들어주겠어요?{{delay frames=\"20\"}}",
      "USen": "{{delay frames=\"20\"}}Yo, {{delay frames=\"8\"}}{{fun_00000005 arg=\"\"}}!{{delay frames=\"40\"}} {{anim id=\"23\"}}You feel like\nmellowing out with a few tunes?{{delay frames=\"20\"}}",
      "USes": "{{delay frames=\"20\"}}¡Hola, {{fun_00000005 arg=\"\"}}!{{delay frames=\"40\"}} {{anim id=\"23\"}}¿Te apetece \nescuchar un par de canciones?",
      "USfr": "Yo, {{delay frames=\"10\"}}{{fun_00000005 arg=\"\"}} !{{delay frames=\"40\"}} {{anim id=\"23\"}}Ça te dirait\nde faire les chœurs sur une\npetite impro ?"
    }
  },
  {
    "label": "009",
    "locale": {
      "EUde": "",
      "EUen": "",
      "EUes": "",
      "EUfr": "",
      "EUit": "",
      "JPja": "",
      "KRko": "",
      "USen": "",
      "USes": "",
      "USfr": ""
    }
  },
  {
    "label": "010",
    "locale": {
      "EUde": "{{anim id=\"1\"}}Hallo!{{delay frames=\"16\"}} Schrei einfach, {{delay frames=\"8\"}}wenn du was\nbrauchst, {{delay frames=\"8\"}}ja?",
      "EUen": "{{anim id=\"1\"}}Hey, he-{{delay frames=\"6\"}}ey!{{delay frames=\"16\"}} Just give me a shout\nif you need anything!",
      "EUes": "{{anim id=\"1\"}}¡Hola,{{delay frames=\"8\"}} prenda!{{delay frames=\"20\"}} Ya sabes,{{delay frames=\"8\"}}\nsi necesitas algo,{{delay frames=\"8\"}} aquí estoy.",
      "EUfr": "{{anim id=\"1\"}}Bien le bonjour !{{delay frames=\"8\"}}\nN'hésite pas à me héler si\ntu as besoin de quelque chose !",
      "EUit": "{{anim id=\"1\"}}Ciao!{{delay frames=\"16\"}} Fammi sapere\nse ti serve qualcosa!",
      "JPja": "{{anim id=\"1\"}}はい、はー{{delay frames=\"6\"}}い！{{delay frames=\"16\"}}\nご{{ruby charSpan=\"1\" value=\"よう\"}}用のときは\n{{ruby charSpan=\"2\" value=\"きがる\"}}気軽に　{{ruby charSpan=\"1\" value=\"こえ\"}}声かけてちょうだいね！",
      "KRko": "{{anim id=\"1\"}}예예～{{delay frames=\"6\"}}!{{delay frames=\"16\"}}\n용건이 있으시믄\n부담 갖지 말고 말 걸어주이소!",
      "USen": "{{anim id=\"1\"}}Hey, he-{{delay frames=\"6\"}}ey!{{delay frames=\"16\"}} Just give me a shout\nif you need anything!",
      "USes": "{{anim id=\"1\"}}¡Hola,{{delay frames=\"8\"}} prenda!{{delay frames=\"20\"}} Ya sabes,{{delay frames=\"8\"}}\nsi necesitas algo,{{delay frames=\"8\"}} aquí estoy.",
      "USfr": "{{anim id=\"1\"}}Bien le bonjour !{{delay frames=\"8\"}}\nN'hésite pas à me héler si\ntu as besoin de quelque chose !"
    }
  },
  {
    "label": "011",
    "locale": {
      "EUde": "",
      "EUen": "",
      "EUes": "",
      "EUfr": "",
      "EUit": "",
      "JPja": "",
      "KRko": "",
      "USen": "",
      "USes": "",
      "USfr": ""
    }
  },
  {
    "label": "012",
    "locale": {
      "EUde": "",
      "EUen": "",
      "EUes": "",
      "EUfr": "",
      "EUit": "",
      "JPja": "",
      "KRko": "",
      "USen": "",
      "USes": "",
      "USfr": ""
    }
  },
  {
    "label": "013",
    "locale": {
      "EUde": "{{anim id=\"1\"}}Herzlich willkommen,{{delay frames=\"8\"}} {{fun_00000005 arg=\"\"}}!",
      "EUen": "Welcome,{{anim id=\"1\"}}{{delay frames=\"20\"}} {{fun_00000005 arg=\"\"}}!",
      "EUes": "{{anim id=\"1\"}}¡Bienvenid{{fun_0006000E arg=\"0x02006F0002006100\"}},{{delay frames=\"8\"}} {{fun_00000005 arg=\"\"}}!",
      "EUfr": "Bienvenue,{{anim id=\"1\"}}{{delay frames=\"20\"}} {{fun_00000005 arg=\"\"}} !",
      "EUit": "Benvenut{{fun_0006000E arg=\"0x02006F0002006100\"}}, {{anim id=\"1\"}}{{delay frames=\"20\"}}{{fun_00000005 arg=\"\"}}!",
      "JPja": "あら、{{fun_00000005 arg=\"\"}}さん{{delay frames=\"20\"}}\n{{anim id=\"1\"}}いらっしゃ～い！",
      "KRko": "어머, {{fun_00000005 arg=\"\"}}님{{delay frames=\"20\"}}\n{{anim id=\"1\"}}어서 오세요～!",
      "USen": "Welcome,{{anim id=\"1\"}}{{delay frames=\"20\"}} {{fun_00000005 arg=\"\"}}!",
      "USes": "{{anim id=\"1\"}}¡Bienvenid{{fun_0006000E arg=\"0x02006F0002006100\"}},{{delay frames=\"8\"}} {{fun_00000005 arg=\"\"}}!",
      "USfr": "Bienvenue,{{anim id=\"1\"}}{{delay frames=\"20\"}} {{fun_00000005 arg=\"\"}} !"
    }
  },
  {
    "label": "014",
    "locale": {
      "EUde": "{{anim id=\"15\"}}Na,{{delay frames=\"8\"}} was haste denn angeschleppt?{{delay frames=\"20\"}}\n{{anim id=\"1\"}}Das will ich mir mal genau ansehen!",
      "EUen": "{{delay frames=\"20\"}}{{anim id=\"15\"}}Oh,{{delay frames=\"8\"}} you brought somethin'?{{delay frames=\"30\"}}\n{{anim id=\"1\"}}Let's have a look, then!",
      "EUes": "{{delay frames=\"20\"}}{{anim id=\"15\"}}¡Oh!{{delay frames=\"8\"}} ¿Has traído algo?{{delay frames=\"30\"}}\n{{anim id=\"1\"}}Trae para acá,{{delay frames=\"8\"}} a ver\nqué podemos hacerle.",
      "EUfr": "{{anim id=\"15\"}}Oh, tu n'es pas venu{{fun_0006000E arg=\"0x000002006500\"}} les mains\nvides, canaille ?{{delay frames=\"30\"}}{{anim id=\"1\"}} Laisse-moi jeter\nun petit coup d'œil d'expert...",
      "EUit": "{{delay frames=\"20\"}}{{anim id=\"15\"}}Oh,{{delay frames=\"8\"}} mi hai portato qualcosa?{{delay frames=\"30\"}}\n{{anim id=\"1\"}}Diamo un po' un'occhiata...",
      "JPja": "{{delay frames=\"20\"}}{{anim id=\"15\"}}おっ！{{delay frames=\"8\"}}　なんか{{ruby charSpan=\"1\" value=\"も\"}}持って{{ruby charSpan=\"1\" value=\"き\"}}来たのか？{{delay frames=\"30\"}}\n{{anim id=\"1\"}}オレっちに　{{ruby charSpan=\"1\" value=\"み\"}}見せてみな！",
      "KRko": "{{delay frames=\"20\"}}{{anim id=\"15\"}}오!{{delay frames=\"8\"}} 뭐라도 가져왔냐?{{delay frames=\"30\"}}\n{{anim id=\"1\"}}어디 볼까?",
      "USen": "{{delay frames=\"20\"}}{{anim id=\"15\"}}Oh,{{delay frames=\"8\"}} you brought somethin'?{{delay frames=\"30\"}}\n{{anim id=\"1\"}}Let's have a look, then!",
      "USes": "{{delay frames=\"20\"}}{{anim id=\"15\"}}¡Oh!{{delay frames=\"8\"}} ¿Has traído algo?{{delay frames=\"30\"}}\n{{anim id=\"1\"}}Trae para acá,{{delay frames=\"8\"}} a ver\nqué podemos hacerle.",
      "USfr": "{{anim id=\"15\"}}Oh, tu n'es pas venu{{fun_0006000E arg=\"0x000002006500\"}} les mains\nvides, canaille ?{{delay frames=\"30\"}}{{anim id=\"1\"}} Laisse-moi jeter\nun petit coup d'œil d'expert..."
    }
  },
  {
    "label": "015",
    "locale": {
      "EUde": "{{anim id=\"43\"}}Wenn deine Augen zufallen und dein\nGeist langsam ermüdet,{{delay frames=\"20\"}}{{anim id=\"21\"}} kann ich\nSternegucken wärmstens empfehlen.",
      "EUen": "{{delay frames=\"20\"}}When your eyes are tired or {{anim id=\"21\"}}your\nthoughts are muddled, {{anim id=\"43\"}}I recommend{{delay frames=\"16\"}}\n{{anim id=\"1\"}}a bit of stargazing!",
      "EUes": "{{delay frames=\"20\"}}{{anim id=\"21\"}}Si sientes cansancio en los ojos{{delay frames=\"8\"}}\no te cuesta concentrarte,{{delay frames=\"8\"}}\n{{anim id=\"1\"}}¡contempla un rato las estrellas!",
      "EUfr": "{{anim id=\"21\"}}Si la fatigue pèse sur tes paupières\nou embrouille tes pensées,{{delay frames=\"10\"}} regarde\nles étoiles et pouf, {{delay frames=\"16\"}}{{anim id=\"1\"}}tout sera oublié !",
      "EUit": "{{delay frames=\"20\"}}Se ti senti stanc{{fun_0006000E arg=\"0x02006F0002006100\"}} o{{anim id=\"21\"}} hai la testa\npesante,{{delay frames=\"16\"}}{{anim id=\"43\"}} ti consiglio di rilassarti\n{{anim id=\"1\"}}guardando le stelle!",
      "JPja": "{{delay frames=\"20\"}}{{ruby charSpan=\"1\" value=\"め\"}}目が{{ruby charSpan=\"1\" value=\"つか\"}}疲れたり　{{anim id=\"21\"}}{{ruby charSpan=\"1\" value=\"かんが\"}}考えがにつまった{{ruby charSpan=\"1\" value=\"とき\"}}時は、{{delay frames=\"8\"}}\n{{anim id=\"43\"}}ボ～っと　{{ruby charSpan=\"2\" value=\"ほしぞら\"}}星空をながめてみるというのも{{delay frames=\"16\"}}\n{{anim id=\"1\"}}いいかもしれませんよ！",
      "KRko": "{{delay frames=\"20\"}}눈이 피곤하거나 {{anim id=\"21\"}}아이디어가 떠오르지\n않을 땐{{delay frames=\"8\"}} {{anim id=\"43\"}}멍～하니 밤하늘의 별을\n바라보는 것도{{delay frames=\"16\"}} {{anim id=\"1\"}}좋을 것 같아요!",
      "USen": "{{delay frames=\"20\"}}When your eyes are tired or {{anim id=\"21\"}}your\nthoughts are muddled, {{anim id=\"43\"}}I recommend{{delay frames=\"16\"}}\n{{anim id=\"1\"}}a bit of stargazing!",
      "USes": "{{delay frames=\"20\"}}{{anim id=\"21\"}}Si sientes cansancio en los ojos{{delay frames=\"8\"}}\no te cuesta concentrarte,{{delay frames=\"8\"}}\n{{anim id=\"1\"}}¡contempla un rato las estrellas!",
      "USfr": "{{anim id=\"21\"}}Si la fatigue pèse sur tes paupières\nou embrouille tes pensées,{{delay frames=\"10\"}} regarde\nles étoiles et pouf, {{delay frames=\"16\"}}{{anim id=\"1\"}}tout sera oublié !"
    }
  },
  {
    "label": "016",
    "locale": {
      "EUde": "{{anim id=\"5\"}}Willkommen, willkommen in\nSchlepp & Nepps Laden!{{delay frames=\"8\"}} {{size value=\"75\"}}Ja, ja.{{size value=\"100\"}}",
      "EUen": "{{delay frames=\"20\"}}{{anim id=\"5\"}}Welcome, welcome!{{delay frames=\"30\"}} Nookling\nJunction is pleased to have\nyou!{{anim id=\"0\"}} {{size value=\"75\"}}Yes, yes.{{size value=\"100\"}}",
      "EUes": "{{delay frames=\"20\"}}{{anim id=\"32\"}}Adelante,{{delay frames=\"8\"}} pasa.{{delay frames=\"8\"}} En nuestro humilde\nnegocio siempre eres bienvenid{{fun_0006000E arg=\"0x02006F0002006100\"}}.{{delay frames=\"20\"}}{{anim id=\"21\"}}\n{{size value=\"75\"}}Sí,{{delay frames=\"8\"}} sí.{{size value=\"100\"}}",
      "EUfr": "{{anim id=\"5\"}}Bonjour, bonjour !{{delay frames=\"10\"}}\nBienvenue dans la boutique\nMélimélo !{{delay frames=\"30\"}}{{anim id=\"0\"}} {{size value=\"75\"}}On touche avec les yeux !{{size value=\"100\"}}",
      "EUit": "{{delay frames=\"20\"}}{{anim id=\"5\"}}Benvenut{{fun_0006000E arg=\"0x02006F0002006100\"}}, benvenut{{fun_0006000E arg=\"0x02006F0002006100\"}}!{{delay frames=\"30\"}}\nLa Bottega di Marco e Mirco\nè a tua disposizione!{{anim id=\"0\"}} {{size value=\"75\"}}Sì sì!{{size value=\"100\"}}",
      "JPja": "{{delay frames=\"20\"}}{{anim id=\"5\"}}いらっしゃいませー！{{delay frames=\"30\"}}\nまめつぶ{{ruby charSpan=\"2\" value=\"しょうてん\"}}商店へ　ようこそー！{{delay frames=\"5\"}}　{{anim id=\"0\"}}{{size value=\"75\"}}だなも！{{size value=\"100\"}}",
      "KRko": "{{delay frames=\"20\"}}{{anim id=\"5\"}}어서 오세요ー!{{delay frames=\"30\"}}\n콩돌밤돌 상점에 오신 걸\n환영합니다ー!{{delay frames=\"5\"}} {{anim id=\"0\"}}{{size value=\"75\"}}구리!{{size value=\"100\"}}",
      "USen": "{{delay frames=\"20\"}}{{anim id=\"5\"}}Welcome, welcome!{{delay frames=\"30\"}} Nookling\nJunction is pleased to have\nyou!{{anim id=\"0\"}} {{size value=\"75\"}}Yes, yes.{{size value=\"100\"}}",
      "USes": "{{delay frames=\"20\"}}{{anim id=\"32\"}}Adelante,{{delay frames=\"8\"}} pasa.{{delay frames=\"8\"}} En nuestro humilde\nnegocio siempre eres bienvenid{{fun_0006000E arg=\"0x02006F0002006100\"}}.{{delay frames=\"20\"}}{{anim id=\"21\"}}\n{{size value=\"75\"}}Sí,{{delay frames=\"8\"}} sí.{{size value=\"100\"}}",
      "USfr": "{{anim id=\"5\"}}Bonjour, bonjour !{{delay frames=\"10\"}}\nBienvenue dans la boutique\nMélimélo !{{delay frames=\"30\"}}{{anim id=\"0\"}} {{size value=\"75\"}}On touche avec les yeux !{{size value=\"100\"}}"
    }
  },
  {
    "label": "017",
    "locale": {
      "EUde": "",
      "EUen": "",
      "EUes": "",
      "EUfr": "",
      "EUit": "",
      "JPja": "",
      "KRko": "",
      "USen": "",
      "USes": "",
      "USfr": ""
    }
  },
  {
    "label": "018",
    "locale": {
      "EUde": "{{anim id=\"39\"}}Wenn alle brav speichern, {{delay frames=\"8\"}}werd ich\nirgendwann nix mehr zu tun haben{{delay frames=\"8\"}}.{{delay frames=\"8\"}}.{{delay frames=\"8\"}}.{{delay frames=\"20\"}}\n{{anim id=\"6\"}}{{fun_0000000D arg=\"0x00CD\"}}UND DAS WOLLEN WIR JA NICHT!",
      "EUen": "{{anim id=\"43\"}}If no one ever resets again,{{delay frames=\"8\"}} I ain't\ngonna have a job. {{delay frames=\"35\"}}{{anim id=\"8\"}}{{fun_0000000D arg=\"0x00CD\"}}AND THAT'S\nNO GOOD FOR RESETTI!",
      "EUes": "{{delay frames=\"20\"}}{{anim id=\"37\"}}Si todo el mundo dejara de\nresetear,{{delay frames=\"8\"}} {{anim id=\"6\"}}¡me quedaría en el paro!{{delay frames=\"20\"}}\n{{anim id=\"39\"}}{{fun_0000000D arg=\"0x00CD\"}}Y eso tampoco sería bueno{{delay frames=\"8\"}}.{{delay frames=\"8\"}}.{{delay frames=\"8\"}}.",
      "EUfr": "{{anim id=\"43\"}}Si plus personne ne réinitialise,{{delay frames=\"10\"}}\ncontre qui je m'énerverai ?\n{{delay frames=\"35\"}}{{anim id=\"8\"}}{{fun_0000000D arg=\"0x00CD\"}}HEIN ?{{delay frames=\"8\"}} CONTRE QUI ?",
      "EUit": "{{anim id=\"43\"}}Se tutti smettessero di resettare,\nrimarrei senza lavoro.{{delay frames=\"35\"}}{{anim id=\"8\"}}{{fun_0000000D arg=\"0x00CD\"}} E NON\nSAREBBE PER NIENTE BELLO!",
      "JPja": "{{delay frames=\"20\"}}{{anim id=\"37\"}}みんなが　リセットやめたら、{{delay frames=\"12\"}}\n{{anim id=\"6\"}}{{ruby charSpan=\"2\" value=\"でばん\"}}出番が　なくなって{{delay frames=\"20\"}}\n{{anim id=\"39\"}}{{fun_0000000D arg=\"0x00CD\"}}それはそれで　{{ruby charSpan=\"1\" value=\"こま\"}}困るんやけどね、{{delay frames=\"8\"}}ワシ",
      "KRko": "{{delay frames=\"20\"}}{{anim id=\"37\"}}다들 리셋을 안하믄{{delay frames=\"12\"}}\n{{anim id=\"6\"}}내가 나설 자리가 없어져가{{delay frames=\"20\"}}\n{{anim id=\"39\"}}{{fun_0000000D arg=\"0x00CD\"}}그건 그거대로 난감하다! {{delay frames=\"8\"}}알긋나?",
      "USen": "{{anim id=\"43\"}}If no one ever resets again,{{delay frames=\"8\"}} I ain't\ngonna have a job. {{delay frames=\"35\"}}{{anim id=\"8\"}}{{fun_0000000D arg=\"0x00CD\"}}AND THAT'S\nNO GOOD FOR RESETTI!",
      "USes": "{{delay frames=\"20\"}}{{anim id=\"37\"}}Si todo el mundo dejara de\nresetear,{{delay frames=\"8\"}} {{anim id=\"6\"}}¡me quedaría en el paro!{{delay frames=\"20\"}}\n{{anim id=\"39\"}}{{fun_0000000D arg=\"0x00CD\"}}Y eso tampoco sería bueno{{delay frames=\"8\"}}.{{delay frames=\"8\"}}.{{delay frames=\"8\"}}.",
      "USfr": "{{anim id=\"43\"}}Si plus personne ne réinitialise,{{delay frames=\"10\"}}\ncontre qui je m'énerverai ?\n{{delay frames=\"35\"}}{{anim id=\"8\"}}{{fun_0000000D arg=\"0x00CD\"}}HEIN ?{{delay frames=\"8\"}} CONTRE QUI ?"
    }
  },
  {
    "label": "019",
    "locale": {
      "EUde": "",
      "EUen": "",
      "EUes": "",
      "EUfr": "",
      "EUit": "",
      "JPja": "",
      "KRko": "",
      "USen": "",
      "USes": "",
      "USfr": ""
    }
  },
  {
    "label": "020",
    "locale": {
      "EUde": "",
      "EUen": "",
      "EUes": "",
      "EUfr": "",
      "EUit": "",
      "JPja": "",
      "KRko": "",
      "USen": "",
      "USes": "",
      "USfr": ""
    }
  },
  {
    "label": "021",
    "locale": {
      "EUde": "{{anim id=\"33\"}}Harrr,{{delay frames=\"8\"}} fühlst du die Meeresbrise,{{delay frames=\"8\"}}\ndas Salz und den Sand im Haar,{{delay frames=\"8\"}}\njaharrr?",
      "EUen": "{{delay frames=\"20\"}}Can ye feel the sea breeze blowin'?{{delay frames=\"16\"}}\nAye, {{delay frames=\"8\"}}me hair be all crunchy an'\nsalty. {{delay frames=\"8\"}}Just the way I like it.",
      "EUes": "{{delay frames=\"20\"}}{{anim id=\"43\"}}¿Sientes el mar,{{delay frames=\"8\"}} el sonido\nde las olas,{{delay frames=\"8\"}} el olor a sal?",
      "EUfr": "{{anim id=\"1\"}}Ohé, {{fun_0006000E arg=\"0x28006D006F006E00200070002700740069007400200068006900700070006F00630061006D007000650038006D0061002000700027007400690074006500200061006E006700750069006C006C00650020007000E9006C00610067006900710075006500\"}},\nhume-moi un peu cette brise marine,{{delay frames=\"10\"}}\nnom d'un cache-œil en carton !",
      "EUit": "Ehilà, {{fun_0006000E arg=\"0x0C0067006900720069006E006F00120073006900720065006E006500740074006100\"}}!{{delay frames=\"8\"}} La senti questa\nbrezza di mare?{{delay frames=\"16\"}} Ah, mi sembra\nquasi di essere in barca...",
      "JPja": "{{delay frames=\"20\"}}{{ruby charSpan=\"2\" value=\"しおかぜ\"}}潮風に{{ruby charSpan=\"1\" value=\"ふ\"}}吹かれっと、{{delay frames=\"16\"}}\n{{ruby charSpan=\"2\" value=\"じまん\"}}自慢のヘアーも\nゴワゴワで{{delay frames=\"4\"}}　{{ruby charSpan=\"2\" value=\"だいな\"}}台無しになんだよな～",
      "KRko": "{{delay frames=\"20\"}}바닷바람을 맞으면{{delay frames=\"16\"}}\n멋진 내 헤어스타일도\n엉망진창{{delay frames=\"4\"}}이 되어 버려～",
      "USen": "{{delay frames=\"20\"}}Can ye feel the sea breeze blowin'?{{delay frames=\"16\"}}\nAye, {{delay frames=\"8\"}}me hair be all crunchy an'\nsalty. {{delay frames=\"8\"}}Just the way I like it.",
      "USes": "{{delay frames=\"20\"}}{{anim id=\"43\"}}¿Sientes el mar,{{delay frames=\"8\"}} el sonido\nde las olas,{{delay frames=\"8\"}} el olor a sal?",
      "USfr": "{{anim id=\"1\"}}Ohé, {{fun_0006000E arg=\"0x28006D006F006E00200070002700740069007400200068006900700070006F00630061006D007000650038006D0061002000700027007400690074006500200061006E006700750069006C006C00650020007000E9006C00610067006900710075006500\"}},\nhume-moi un peu cette brise marine,{{delay frames=\"10\"}}\nnom d'un cache-œil en carton !"
    }
  },
  {
    "label": "022",
    "locale": {
      "EUde": "",
      "EUen": "",
      "EUes": "",
      "EUfr": "",
      "EUit": "",
      "JPja": "",
      "KRko": "",
      "USen": "",
      "USes": "",
      "USfr": ""
    }
  },
  {
    "label": "023",
    "locale": {
      "EUde": "",
      "EUen": "",
      "EUes": "",
      "EUfr": "",
      "EUit": "",
      "JPja": "",
      "KRko": "",
      "USen": "",
      "USes": "",
      "USfr": ""
    }
  },
  {
    "label": "024",
    "locale": {
      "EUde": "",
      "EUen": "",
      "EUes": "",
      "EUfr": "",
      "EUit": "",
      "JPja": "",
      "KRko": "",
      "USen": "",
      "USes": "",
      "USfr": ""
    }
  },
  {
    "label": "025",
    "locale": {
      "EUde": "",
      "EUen": "",
      "EUes": "",
      "EUfr": "",
      "EUit": "",
      "JPja": "",
      "KRko": "",
      "USen": "",
      "USes": "",
      "USfr": ""
    }
  },
  {
    "label": "026",
    "locale": {
      "EUde": "",
      "EUen": "",
      "EUes": "",
      "EUfr": "",
      "EUit": "",
      "JPja": "",
      "KRko": "",
      "USen": "",
      "USes": "",
      "USfr": ""
    }
  },
  {
    "label": "027",
    "locale": {
      "EUde": "",
      "EUen": "",
      "EUes": "",
      "EUfr": "",
      "EUit": "",
      "JPja": "",
      "KRko": "",
      "USen": "",
      "USes": "",
      "USfr": ""
    }
  },
  {
    "label": "028",
    "locale": {
      "EUde": "",
      "EUen": "",
      "EUes": "",
      "EUfr": "",
      "EUit": "",
      "JPja": "",
      "KRko": "",
      "USen": "",
      "USes": "",
      "USfr": ""
    }
  },
  {
    "label": "029",
    "locale": {
      "EUde": "",
      "EUen": "",
      "EUes": "",
      "EUfr": "",
      "EUit": "",
      "JPja": "",
      "KRko": "",
      "USen": "",
      "USes": "",
      "USfr": ""
    }
  },
  {
    "label": "030",
    "locale": {
      "EUde": "",
      "EUen": "",
      "EUes": "",
      "EUfr": "",
      "EUit": "",
      "JPja": "",
      "KRko": "",
      "USen": "",
      "USes": "",
      "USfr": ""
    }
  },
  {
    "label": "031",
    "locale": {
      "EUde": "",
      "EUen": "",
      "EUes": "",
      "EUfr": "",
      "EUit": "",
      "JPja": "",
      "KRko": "",
      "USen": "",
      "USes": "",
      "USfr": ""
    }
  },
  {
    "label": "032",
    "locale": {
      "EUde": "",
      "EUen": "",
      "EUes": "",
      "EUfr": "",
      "EUit": "",
      "JPja": "",
      "KRko": "",
      "USen": "",
      "USes": "",
      "USfr": ""
    }
  },
  {
    "label": "033",
    "locale": {
      "EUde": "",
      "EUen": "",
      "EUes": "",
      "EUfr": "",
      "EUit": "",
      "JPja": "",
      "KRko": "",
      "USen": "",
      "USes": "",
      "USfr": ""
    }
  },
  {
    "label": "034",
    "locale": {
      "EUde": "",
      "EUen": "",
      "EUes": "",
      "EUfr": "",
      "EUit": "",
      "JPja": "",
      "KRko": "",
      "USen": "",
      "USes": "",
      "USfr": ""
    }
  },
  {
    "label": "035",
    "locale": {
      "EUde": "",
      "EUen": "",
      "EUes": "",
      "EUfr": "",
      "EUit": "",
      "JPja": "",
      "KRko": "",
      "USen": "",
      "USes": "",
      "USfr": ""
    }
  },
  {
    "label": "036",
    "locale": {
      "EUde": "",
      "EUen": "",
      "EUes": "",
      "EUfr": "",
      "EUit": "",
      "JPja": "",
      "KRko": "",
      "USen": "",
      "USes": "",
      "USfr": ""
    }
  },
  {
    "label": "037",
    "locale": {
      "EUde": "",
      "EUen": "",
      "EUes": "",
      "EUfr": "",
      "EUit": "",
      "JPja": "",
      "KRko": "",
      "USen": "",
      "USes": "",
      "USfr": ""
    }
  },
  {
    "label": "038",
    "locale": {
      "EUde": "",
      "EUen": "",
      "EUes": "",
      "EUfr": "",
      "EUit": "",
      "JPja": "",
      "KRko": "",
      "USen": "",
      "USes": "",
      "USfr": ""
    }
  },
  {
    "label": "039",
    "locale": {
      "EUde": "{{anim id=\"31\"}}Hallo {{fun_00000005 arg=\"\"}}!{{delay frames=\"20\"}}\n{{anim id=\"1\"}}Schön, {{delay frames=\"8\"}}dass du vorbeiguckst!",
      "EUen": "{{delay frames=\"20\"}}{{anim id=\"31\"}}{{fun_0003000E arg=\"\"}}{{fun_00000005 arg=\"\"}}! Hello there!{{delay frames=\"40\"}} {{anim id=\"1\"}}How \nlovely to run into you today.",
      "EUes": "{{delay frames=\"20\"}}{{anim id=\"31\"}}¿Qué tal,{{delay frames=\"8\"}} {{fun_00000005 arg=\"\"}}?{{delay frames=\"40\"}}\n{{anim id=\"1\"}}No sabes cuánto me alegra verte.",
      "EUfr": "{{anim id=\"31\"}}Bonjour,{{delay frames=\"10\"}} {{fun_00000005 arg=\"\"}} !{{delay frames=\"40\"}}\n{{anim id=\"1\"}}Quelle bonne surprise de\nte rencontrer aujourd'hui, ouif !",
      "EUit": "{{delay frames=\"20\"}}{{anim id=\"31\"}}{{fun_00000005 arg=\"\"}}! Ciao!{{delay frames=\"40\"}} {{anim id=\"1\"}}\nChe bello incontrarti qui!",
      "JPja": "{{delay frames=\"20\"}}{{anim id=\"31\"}}{{fun_00000005 arg=\"\"}}さん、\nこんにちは！{{delay frames=\"40\"}}\n{{anim id=\"1\"}}{{ruby charSpan=\"2\" value=\"きょう\"}}今日も　よろしくお{{ruby charSpan=\"1\" value=\"ねが\"}}願いします！　",
      "KRko": "{{delay frames=\"20\"}}{{anim id=\"31\"}}{{fun_00000005 arg=\"\"}}님,\n안녕하세요!{{delay frames=\"40\"}}\n{{anim id=\"1\"}}오늘도 잘 부탁합니다!",
      "USen": "{{delay frames=\"20\"}}{{anim id=\"31\"}}{{fun_0003000E arg=\"\"}}{{fun_00000005 arg=\"\"}}! Hello there!{{delay frames=\"40\"}} {{anim id=\"1\"}}How \nlovely to run into you today.",
      "USes": "{{delay frames=\"20\"}}{{anim id=\"31\"}}¿Qué tal,{{delay frames=\"8\"}} {{fun_00000005 arg=\"\"}}?{{delay frames=\"40\"}}\n{{anim id=\"1\"}}No sabes cuánto me alegra verte.",
      "USfr": "{{anim id=\"31\"}}Bonjour,{{delay frames=\"10\"}} {{fun_00000005 arg=\"\"}} !{{delay frames=\"40\"}}\n{{anim id=\"1\"}}Quelle bonne surprise de\nte rencontrer aujourd'hui, ouif !"
    }
  },
  {
    "label": "040",
    "locale": {
      "EUde": "",
      "EUen": "",
      "EUes": "",
      "EUfr": "",
      "EUit": "",
      "JPja": "",
      "KRko": "",
      "USen": "",
      "USes": "",
      "USfr": ""
    }
  },
  {
    "label": "041",
    "locale": {
      "EUde": "",
      "EUen": "",
      "EUes": "",
      "EUfr": "",
      "EUit": "",
      "JPja": "",
      "KRko": "",
      "USen": "",
      "USes": "",
      "USfr": ""
    }
  },
  {
    "label": "042",
    "locale": {
      "EUde": "Den kennste sicher: {{delay frames=\"20\"}}Achte beim\nGegenüber immer auf die Schuhe!{{delay frames=\"20\"}}\nAn ihnen zeigt sich der Charakter.{{pageBreak}}{{anim id=\"21\"}}Da is' was dran. {{delay frames=\"20\"}}Wer die Treter\nputzt, {{delay frames=\"8\"}}bürstet sich auch das Fell{{delay frames=\"8\"}}.{{delay frames=\"8\"}}.{{delay frames=\"8\"}}.",
      "EUen": "{{anim id=\"21\"}}S'common knowledge, {{delay frames=\"8\"}}guvnah.{{delay frames=\"8\"}}\nYou wanna look good?{{delay frames=\"8\"}} You start\nwiv your feet!\n{{anim id=\"36\"}}Never know ooz lookin', do ya?{{delay frames=\"8\"}}\nGotta stay sharp!",
      "EUes": "{{delay frames=\"20\"}}¿Cómo está usted hoy,{{delay frames=\"8\"}} señorit{{fun_0006000E arg=\"0x02006F0002006100\"}}?{{delay frames=\"20\"}}\nHabrá oído decir que la elegancia\nempieza por los zapatos,{{delay frames=\"8\"}} ¿no?\n{{anim id=\"21\"}}Nunca se sabe cuándo tendremos\nque estar bien presentables{{delay frames=\"8\"}}.{{delay frames=\"8\"}}.{{delay frames=\"8\"}}.{{delay frames=\"8\"}}",
      "EUfr": "{{anim id=\"21\"}}La classe, ça commence par les\npompes,{{delay frames=\"10\"}} mais j'imagine que je\nt'apprends rien, l'ami{{fun_0006000E arg=\"0x000002006500\"}} ?\n{{anim id=\"36\"}}Si tes godasses te conduisent à\nl'élu{{fun_0006000E arg=\"0x020065000000\"}} de ton cœur, t'auras l'air\nfinaud{{fun_0006000E arg=\"0x000002006500\"}} en sabots !",
      "EUit": "{{anim id=\"21\"}}Guardi, lo sanno tutti.{{delay frames=\"8\"}}\nSe si vuole apparire a posto,{{delay frames=\"8\"}}\nsi deve iniziare dalle scarpe!{{pageBreak}}Non vorrà mica sembrare\ntrasandat{{fun_0006000E arg=\"0x02006F0002006100\"}}!",
      "JPja": "{{delay frames=\"20\"}}オシャレは　{{ruby charSpan=\"2\" value=\"あしもと\"}}足元からっていうけど、{{delay frames=\"8\"}}\nあれ　マジだぜ！{{delay frames=\"30\"}}\n{{anim id=\"21\"}}{{ruby charSpan=\"1\" value=\"み\"}}見るひとは　{{ruby charSpan=\"1\" value=\"み\"}}見てるんだよな{{delay frames=\"8\"}}・{{delay frames=\"8\"}}・{{delay frames=\"8\"}}・",
      "KRko": "{{delay frames=\"20\"}}패션은 발끝에서 시작된다는 말,{{delay frames=\"8\"}}\n그거 맞는 말이야!{{delay frames=\"30\"}}\n{{anim id=\"21\"}}보는 사람은 다 본다구{{delay frames=\"8\"}}・{{delay frames=\"8\"}}・{{delay frames=\"8\"}}・",
      "USen": "{{anim id=\"21\"}}S'common knowledge, {{delay frames=\"8\"}}guvnah.{{delay frames=\"8\"}}\nYou wanna look good?{{delay frames=\"8\"}} You start\nwiv your feet!\n{{anim id=\"36\"}}Never know ooz lookin', do ya?{{delay frames=\"8\"}}\nGotta stay sharp!",
      "USes": "{{delay frames=\"20\"}}¿Cómo está usted hoy,{{delay frames=\"8\"}} señorit{{fun_0006000E arg=\"0x02006F0002006100\"}}?{{delay frames=\"20\"}}\nHabrá oído decir que la elegancia\nempieza por los zapatos,{{delay frames=\"8\"}} ¿no?\n{{anim id=\"21\"}}Nunca se sabe cuándo tendremos\nque estar bien presentables{{delay frames=\"8\"}}.{{delay frames=\"8\"}}.{{delay frames=\"8\"}}.{{delay frames=\"8\"}}",
      "USfr": "{{anim id=\"21\"}}La classe, ça commence par les\npompes,{{delay frames=\"10\"}} mais j'imagine que je\nt'apprends rien, l'ami{{fun_0006000E arg=\"0x000002006500\"}} ?\n{{anim id=\"36\"}}Si tes godasses te conduisent à\nl'élu{{fun_0006000E arg=\"0x020065000000\"}} de ton cœur, t'auras l'air\nfinaud{{fun_0006000E arg=\"0x000002006500\"}} en sabots !"
    }
  },
  {
    "label": "043",
    "locale": {
      "EUde": "",
      "EUen": "",
      "EUes": "",
      "EUfr": "",
      "EUit": "",
      "JPja": "",
      "KRko": "",
      "USen": "",
      "USes": "",
      "USfr": ""
    }
  },
  {
    "label": "044",
    "locale": {
      "EUde": "",
      "EUen": "",
      "EUes": "",
      "EUfr": "",
      "EUit": "",
      "JPja": "",
      "KRko": "",
      "USen": "",
      "USes": "",
      "USfr": ""
    }
  },
  {
    "label": "045",
    "locale": {
      "EUde": "",
      "EUen": "",
      "EUes": "",
      "EUfr": "",
      "EUit": "",
      "JPja": "",
      "KRko": "",
      "USen": "",
      "USes": "",
      "USfr": ""
    }
  },
  {
    "label": "046",
    "locale": {
      "EUde": "",
      "EUen": "",
      "EUes": "",
      "EUfr": "",
      "EUit": "",
      "JPja": "",
      "KRko": "",
      "USen": "",
      "USes": "",
      "USfr": ""
    }
  },
  {
    "label": "047",
    "locale": {
      "EUde": "",
      "EUen": "",
      "EUes": "",
      "EUfr": "",
      "EUit": "",
      "JPja": "",
      "KRko": "",
      "USen": "",
      "USes": "",
      "USfr": ""
    }
  },
  {
    "label": "048",
    "locale": {
      "EUde": "",
      "EUen": "",
      "EUes": "",
      "EUfr": "",
      "EUit": "",
      "JPja": "",
      "KRko": "",
      "USen": "",
      "USes": "",
      "USfr": ""
    }
  },
  {
    "label": "049",
    "locale": {
      "EUde": "",
      "EUen": "",
      "EUes": "",
      "EUfr": "",
      "EUit": "",
      "JPja": "",
      "KRko": "",
      "USen": "",
      "USes": "",
      "USfr": ""
    }
  },
  {
    "label": "050",
    "locale": {
      "EUde": "",
      "EUen": "",
      "EUes": "",
      "EUfr": "",
      "EUit": "",
      "JPja": "",
      "KRko": "",
      "USen": "",
      "USes": "",
      "USfr": ""
    }
  },
  {
    "label": "051",
    "locale": {
      "EUde": "",
      "EUen": "",
      "EUes": "",
      "EUfr": "",
      "EUit": "",
      "JPja": "",
      "KRko": "",
      "USen": "",
      "USes": "",
      "USfr": ""
    }
  },
  {
    "label": "052",
    "locale": {
      "EUde": "",
      "EUen": "",
      "EUes": "",
      "EUfr": "",
      "EUit": "",
      "JPja": "",
      "KRko": "",
      "USen": "",
      "USes": "",
      "USfr": ""
    }
  },
  {
    "label": "053",
    "locale": {
      "EUde": "",
      "EUen": "",
      "EUes": "",
      "EUfr": "",
      "EUit": "",
      "JPja": "",
      "KRko": "",
      "USen": "",
      "USes": "",
      "USfr": ""
    }
  },
  {
    "label": "054",
    "locale": {
      "EUde": "",
      "EUen": "",
      "EUes": "",
      "EUfr": "",
      "EUit": "",
      "JPja": "",
      "KRko": "",
      "USen": "",
      "USes": "",
      "USfr": ""
    }
  },
  {
    "label": "055",
    "locale": {
      "EUde": "",
      "EUen": "",
      "EUes": "",
      "EUfr": "",
      "EUit": "",
      "JPja": "",
      "KRko": "",
      "USen": "",
      "USes": "",
      "USfr": ""
    }
  },
  {
    "label": "056",
    "locale": {
      "EUde": "",
      "EUen": "",
      "EUes": "",
      "EUfr": "",
      "EUit": "",
      "JPja": "",
      "KRko": "",
      "USen": "",
      "USes": "",
      "USfr": ""
    }
  },
  {
    "label": "057",
    "locale": {
      "EUde": "",
      "EUen": "",
      "EUes": "",
      "EUfr": "",
      "EUit": "",
      "JPja": "",
      "KRko": "",
      "USen": "",
      "USes": "",
      "USfr": ""
    }
  },
  {
    "label": "058",
    "locale": {
      "EUde": "",
      "EUen": "",
      "EUes": "",
      "EUfr": "",
      "EUit": "",
      "JPja": "",
      "KRko": "",
      "USen": "",
      "USes": "",
      "USfr": ""
    }
  },
  {
    "label": "059",
    "locale": {
      "EUde": "",
      "EUen": "",
      "EUes": "",
      "EUfr": "",
      "EUit": "",
      "JPja": "",
      "KRko": "",
      "USen": "",
      "USes": "",
      "USfr": ""
    }
  },
  {
    "label": "060",
    "locale": {
      "EUde": "",
      "EUen": "",
      "EUes": "",
      "EUfr": "",
      "EUit": "",
      "JPja": "",
      "KRko": "",
      "USen": "",
      "USes": "",
      "USfr": ""
    }
  },
  {
    "label": "061",
    "locale": {
      "EUde": "",
      "EUen": "",
      "EUes": "",
      "EUfr": "",
      "EUit": "",
      "JPja": "",
      "KRko": "",
      "USen": "",
      "USes": "",
      "USfr": ""
    }
  },
  {
    "label": "062",
    "locale": {
      "EUde": "",
      "EUen": "",
      "EUes": "",
      "EUfr": "",
      "EUit": "",
      "JPja": "",
      "KRko": "",
      "USen": "",
      "USes": "",
      "USfr": ""
    }
  },
  {
    "label": "063",
    "locale": {
      "EUde": "",
      "EUen": "",
      "EUes": "",
      "EUfr": "",
      "EUit": "",
      "JPja": "",
      "KRko": "",
      "USen": "",
      "USes": "",
      "USfr": ""
    }
  },
  {
    "label": "064",
    "locale": {
      "EUde": "",
      "EUen": "",
      "EUes": "",
      "EUfr": "",
      "EUit": "",
      "JPja": "",
      "KRko": "",
      "USen": "",
      "USes": "",
      "USfr": ""
    }
  },
  {
    "label": "065",
    "locale": {
      "EUde": "",
      "EUen": "",
      "EUes": "",
      "EUfr": "",
      "EUit": "",
      "JPja": "",
      "KRko": "",
      "USen": "",
      "USes": "",
      "USfr": ""
    }
  },
  {
    "label": "066",
    "locale": {
      "EUde": "",
      "EUen": "",
      "EUes": "",
      "EUfr": "",
      "EUit": "",
      "JPja": "",
      "KRko": "",
      "USen": "",
      "USes": "",
      "USfr": ""
    }
  },
  {
    "label": "067",
    "locale": {
      "EUde": "",
      "EUen": "",
      "EUes": "",
      "EUfr": "",
      "EUit": "",
      "JPja": "",
      "KRko": "",
      "USen": "",
      "USes": "",
      "USfr": ""
    }
  },
  {
    "label": "068",
    "locale": {
      "EUde": "",
      "EUen": "",
      "EUes": "",
      "EUfr": "",
      "EUit": "",
      "JPja": "",
      "KRko": "",
      "USen": "",
      "USes": "",
      "USfr": ""
    }
  },
  {
    "label": "069",
    "locale": {
      "EUde": "",
      "EUen": "",
      "EUes": "",
      "EUfr": "",
      "EUit": "",
      "JPja": "",
      "KRko": "",
      "USen": "",
      "USes": "",
      "USfr": ""
    }
  },
  {
    "label": "070",
    "locale": {
      "EUde": "",
      "EUen": "",
      "EUes": "",
      "EUfr": "",
      "EUit": "",
      "JPja": "",
      "KRko": "",
      "USen": "",
      "USes": "",
      "USfr": ""
    }
  },
  {
    "label": "071",
    "locale": {
      "EUde": "",
      "EUen": "",
      "EUes": "",
      "EUfr": "",
      "EUit": "",
      "JPja": "",
      "KRko": "",
      "USen": "",
      "USes": "",
      "USfr": ""
    }
  },
  {
    "label": "072",
    "locale": {
      "EUde": "{{anim id=\"1\"}}Hallo {{fun_00000005 arg=\"\"}}!{{delay frames=\"16\"}}\nSchön, {{delay frames=\"5\"}}dich zu treffen!",
      "EUen": "{{delay frames=\"20\"}}Hello, {{delay frames=\"16\"}}{{fun_00000005 arg=\"\"}}!{{delay frames=\"16\"}} {{anim id=\"1\"}}Nice to see you!",
      "EUes": "{{delay frames=\"20\"}}¡Hola,{{delay frames=\"8\"}} {{fun_00000005 arg=\"\"}}!{{delay frames=\"16\"}}\n{{anim id=\"1\"}}¿Cómo estás?",
      "EUfr": "Salut,{{delay frames=\"10\"}} {{fun_00000005 arg=\"\"}} !{{delay frames=\"8\"}}\n{{anim id=\"1\"}}C'est toujours un plaisir\nde te voir, champion{{fun_0006000E arg=\"0x000004006E006500\"}} !",
      "EUit": "{{delay frames=\"20\"}}Ciao, {{delay frames=\"16\"}}{{fun_00000005 arg=\"\"}}!{{delay frames=\"16\"}} {{anim id=\"1\"}}Sono proprio\ncontenta di vederti!",
      "JPja": "{{delay frames=\"20\"}}あ、{{delay frames=\"16\"}}{{fun_00000005 arg=\"\"}}{{fun_0006000E arg=\"0x04004F3093300600613083309330\"}}！{{delay frames=\"16\"}}\n{{anim id=\"1\"}}{{ruby charSpan=\"2\" value=\"きょう\"}}今日も　よろしくね！",
      "KRko": "{{delay frames=\"20\"}}아, {{delay frames=\"16\"}}{{fun_00000005 arg=\"\"}}{{fun_0006000E arg=\"0x020070AD020091C5\"}}!{{delay frames=\"16\"}}\n{{anim id=\"1\"}}오늘도 잘 부탁해요!",
      "USen": "{{delay frames=\"20\"}}Hello, {{delay frames=\"16\"}}{{fun_00000005 arg=\"\"}}!{{delay frames=\"16\"}} {{anim id=\"1\"}}Nice to see you!",
      "USes": "{{delay frames=\"20\"}}¡Hola,{{delay frames=\"8\"}} {{fun_00000005 arg=\"\"}}!{{delay frames=\"16\"}}\n{{anim id=\"1\"}}¿Cómo estás?",
      "USfr": "Salut,{{delay frames=\"10\"}} {{fun_00000005 arg=\"\"}} !{{delay frames=\"8\"}}\n{{anim id=\"1\"}}C'est toujours un plaisir\nde te voir, champion{{fun_0006000E arg=\"0x000004006E006500\"}} !"
    }
  },
  {
    "label": "073",
    "locale": {
      "EUde": "",
      "EUen": "",
      "EUes": "",
      "EUfr": "",
      "EUit": "",
      "JPja": "",
      "KRko": "",
      "USen": "",
      "USes": "",
      "USfr": ""
    }
  },
  {
    "label": "074",
    "locale": {
      "EUde": "",
      "EUen": "",
      "EUes": "",
      "EUfr": "",
      "EUit": "",
      "JPja": "",
      "KRko": "",
      "USen": "",
      "USes": "",
      "USfr": ""
    }
  },
  {
    "label": "075",
    "locale": {
      "EUde": "",
      "EUen": "",
      "EUes": "",
      "EUfr": "",
      "EUit": "",
      "JPja": "",
      "KRko": "",
      "USen": "",
      "USes": "",
      "USfr": ""
    }
  },
  {
    "label": "076",
    "locale": {
      "EUde": "",
      "EUen": "",
      "EUes": "",
      "EUfr": "",
      "EUit": "",
      "JPja": "",
      "KRko": "",
      "USen": "",
      "USes": "",
      "USfr": ""
    }
  },
  {
    "label": "077",
    "locale": {
      "EUde": "",
      "EUen": "",
      "EUes": "",
      "EUfr": "",
      "EUit": "",
      "JPja": "",
      "KRko": "",
      "USen": "",
      "USes": "",
      "USfr": ""
    }
  },
  {
    "label": "078",
    "locale": {
      "EUde": "",
      "EUen": "",
      "EUes": "",
      "EUfr": "",
      "EUit": "",
      "JPja": "",
      "KRko": "",
      "USen": "",
      "USes": "",
      "USfr": ""
    }
  },
  {
    "label": "079",
    "locale": {
      "EUde": "",
      "EUen": "",
      "EUes": "",
      "EUfr": "",
      "EUit": "",
      "JPja": "",
      "KRko": "",
      "USen": "",
      "USes": "",
      "USfr": ""
    }
  },
  {
    "label": "080",
    "locale": {
      "EUde": "",
      "EUen": "",
      "EUes": "",
      "EUfr": "",
      "EUit": "",
      "JPja": "",
      "KRko": "",
      "USen": "",
      "USes": "",
      "USfr": ""
    }
  },
  {
    "label": "081",
    "locale": {
      "EUde": "",
      "EUen": "",
      "EUes": "",
      "EUfr": "",
      "EUit": "",
      "JPja": "",
      "KRko": "",
      "USen": "",
      "USes": "",
      "USfr": ""
    }
  },
  {
    "label": "082",
    "locale": {
      "EUde": "",
      "EUen": "",
      "EUes": "",
      "EUfr": "",
      "EUit": "",
      "JPja": "",
      "KRko": "",
      "USen": "",
      "USes": "",
      "USfr": ""
    }
  },
  {
    "label": "083",
    "locale": {
      "EUde": "",
      "EUen": "",
      "EUes": "",
      "EUfr": "",
      "EUit": "",
      "JPja": "",
      "KRko": "",
      "USen": "",
      "USes": "",
      "USfr": ""
    }
  },
  {
    "label": "084",
    "locale": {
      "EUde": "",
      "EUen": "",
      "EUes": "",
      "EUfr": "",
      "EUit": "",
      "JPja": "",
      "KRko": "",
      "USen": "",
      "USes": "",
      "USfr": ""
    }
  },
  {
    "label": "085",
    "locale": {
      "EUde": "",
      "EUen": "",
      "EUes": "",
      "EUfr": "",
      "EUit": "",
      "JPja": "",
      "KRko": "",
      "USen": "",
      "USes": "",
      "USfr": ""
    }
  },
  {
    "label": "086",
    "locale": {
      "EUde": "",
      "EUen": "",
      "EUes": "",
      "EUfr": "",
      "EUit": "",
      "JPja": "",
      "KRko": "",
      "USen": "",
      "USes": "",
      "USfr": ""
    }
  },
  {
    "label": "087",
    "locale": {
      "EUde": "",
      "EUen": "",
      "EUes": "",
      "EUfr": "",
      "EUit": "",
      "JPja": "",
      "KRko": "",
      "USen": "",
      "USes": "",
      "USfr": ""
    }
  },
  {
    "label": "088",
    "locale": {
      "EUde": "",
      "EUen": "",
      "EUes": "",
      "EUfr": "",
      "EUit": "",
      "JPja": "",
      "KRko": "",
      "USen": "",
      "USes": "",
      "USfr": ""
    }
  },
  {
    "label": "089",
    "locale": {
      "EUde": "",
      "EUen": "",
      "EUes": "",
      "EUfr": "",
      "EUit": "",
      "JPja": "",
      "KRko": "",
      "USen": "",
      "USes": "",
      "USfr": ""
    }
  },
  {
    "label": "090",
    "locale": {
      "EUde": "",
      "EUen": "",
      "EUes": "",
      "EUfr": "",
      "EUit": "",
      "JPja": "",
      "KRko": "",
      "USen": "",
      "USes": "",
      "USfr": ""
    }
  },
  {
    "label": "091",
    "locale": {
      "EUde": "",
      "EUen": "",
      "EUes": "",
      "EUfr": "",
      "EUit": "",
      "JPja": "",
      "KRko": "",
      "USen": "",
      "USes": "",
      "USfr": ""
    }
  },
  {
    "label": "092",
    "locale": {
      "EUde": "",
      "EUen": "",
      "EUes": "",
      "EUfr": "",
      "EUit": "",
      "JPja": "",
      "KRko": "",
      "USen": "",
      "USes": "",
      "USfr": ""
    }
  },
  {
    "label": "093",
    "locale": {
      "EUde": "",
      "EUen": "",
      "EUes": "",
      "EUfr": "",
      "EUit": "",
      "JPja": "",
      "KRko": "",
      "USen": "",
      "USes": "",
      "USfr": ""
    }
  },
  {
    "label": "094",
    "locale": {
      "EUde": "",
      "EUen": "",
      "EUes": "",
      "EUfr": "",
      "EUit": "",
      "JPja": "",
      "KRko": "",
      "USen": "",
      "USes": "",
      "USfr": ""
    }
  },
  {
    "label": "095",
    "locale": {
      "EUde": "",
      "EUen": "",
      "EUes": "",
      "EUfr": "",
      "EUit": "",
      "JPja": "",
      "KRko": "",
      "USen": "",
      "USes": "",
      "USfr": ""
    }
  },
  {
    "label": "096",
    "locale": {
      "EUde": "",
      "EUen": "",
      "EUes": "",
      "EUfr": "",
      "EUit": "",
      "JPja": "",
      "KRko": "",
      "USen": "",
      "USes": "",
      "USfr": ""
    }
  },
  {
    "label": "097",
    "locale": {
      "EUde": "",
      "EUen": "",
      "EUes": "",
      "EUfr": "",
      "EUit": "",
      "JPja": "",
      "KRko": "",
      "USen": "",
      "USes": "",
      "USfr": ""
    }
  },
  {
    "label": "098",
    "locale": {
      "EUde": "",
      "EUen": "",
      "EUes": "",
      "EUfr": "",
      "EUit": "",
      "JPja": "",
      "KRko": "",
      "USen": "",
      "USes": "",
      "USfr": ""
    }
  },
  {
    "label": "099",
    "locale": {
      "EUde": "",
      "EUen": "",
      "EUes": "",
      "EUfr": "",
      "EUit": "",
      "JPja": "",
      "KRko": "",
      "USen": "",
      "USes": "",
      "USfr": ""
    }
  },
  {
    "label": "100",
    "locale": {
      "EUde": "",
      "EUen": "",
      "EUes": "",
      "EUfr": "",
      "EUit": "",
      "JPja": "",
      "KRko": "",
      "USen": "",
      "USes": "",
      "USfr": ""
    }
  },
  {
    "label": "101",
    "locale": {
      "EUde": "{{anim id=\"38\"}}Schön, {{delay frames=\"8\"}}dich zu sehen, {{delay frames=\"8\"}}{{fun_00000005 arg=\"\"}}!{{delay frames=\"20\"}}\nWie geht es dir?{{anim id=\"0\"}}",
      "EUen": "{{delay frames=\"20\"}}How nice to see you, {{delay frames=\"8\"}}{{anim id=\"37\"}}{{fun_00000005 arg=\"\"}}!{{delay frames=\"30\"}}\n{{anim id=\"38\"}}How are you?{{anim id=\"0\"}}",
      "EUes": "{{delay frames=\"20\"}}{{anim id=\"37\"}}¡Qué alegría verte,{{delay frames=\"8\"}} {{fun_00000005 arg=\"\"}}!{{delay frames=\"30\"}}\n{{anim id=\"38\"}}¿Qué tal estás?",
      "EUfr": "{{anim id=\"38\"}}Oh, {{fun_00000005 arg=\"\"}}, quelle ravissante\nsurprise !{{delay frames=\"8\"}} Comment allez-vous ?",
      "EUit": "{{delay frames=\"20\"}}Che bello incontrarti, {{delay frames=\"8\"}}{{anim id=\"37\"}}{{fun_00000005 arg=\"\"}}!{{delay frames=\"30\"}}\n{{anim id=\"38\"}}Come stai? Tutto bene?{{anim id=\"0\"}}",
      "JPja": "{{delay frames=\"20\"}}あら、{{delay frames=\"8\"}}{{anim id=\"37\"}}{{fun_00000005 arg=\"\"}}さん！{{delay frames=\"30\"}}\n{{anim id=\"38\"}}ごきげん　いかがですか？！{{delay frames=\"20\"}}{{anim id=\"0\"}}",
      "KRko": "{{delay frames=\"20\"}}어머, {{delay frames=\"8\"}}{{anim id=\"37\"}}{{fun_00000005 arg=\"\"}}님!{{delay frames=\"30\"}}\n{{anim id=\"38\"}}잘 지내시죠!?{{delay frames=\"20\"}}{{anim id=\"0\"}}",
      "USen": "{{delay frames=\"20\"}}How nice to see you, {{delay frames=\"8\"}}{{anim id=\"37\"}}{{fun_00000005 arg=\"\"}}!{{delay frames=\"30\"}}\n{{anim id=\"38\"}}How are you?{{anim id=\"0\"}}",
      "USes": "{{delay frames=\"20\"}}{{anim id=\"37\"}}¡Qué alegría verte,{{delay frames=\"8\"}} {{fun_00000005 arg=\"\"}}!{{delay frames=\"30\"}}\n{{anim id=\"38\"}}¿Qué tal estás?",
      "USfr": "{{anim id=\"38\"}}Oh, {{fun_00000005 arg=\"\"}}, quelle ravissante\nsurprise !{{delay frames=\"8\"}} Comment allez-vous ?"
    }
  },
  {
    "label": "102",
    "locale": {
      "EUde": "",
      "EUen": "",
      "EUes": "",
      "EUfr": "",
      "EUit": "",
      "JPja": "",
      "KRko": "",
      "USen": "",
      "USes": "",
      "USfr": ""
    }
  },
  {
    "label": "103",
    "locale": {
      "EUde": "",
      "EUen": "",
      "EUes": "",
      "EUfr": "",
      "EUit": "",
      "JPja": "",
      "KRko": "",
      "USen": "",
      "USes": "",
      "USfr": ""
    }
  },
  {
    "label": "104",
    "locale": {
      "EUde": "",
      "EUen": "",
      "EUes": "",
      "EUfr": "",
      "EUit": "",
      "JPja": "",
      "KRko": "",
      "USen": "",
      "USes": "",
      "USfr": ""
    }
  },
  {
    "label": "105",
    "locale": {
      "EUde": "",
      "EUen": "",
      "EUes": "",
      "EUfr": "",
      "EUit": "",
      "JPja": "",
      "KRko": "",
      "USen": "",
      "USes": "",
      "USfr": ""
    }
  },
  {
    "label": "106",
    "locale": {
      "EUde": "",
      "EUen": "",
      "EUes": "",
      "EUfr": "",
      "EUit": "",
      "JPja": "",
      "KRko": "",
      "USen": "",
      "USes": "",
      "USfr": ""
    }
  },
  {
    "label": "107",
    "locale": {
      "EUde": "",
      "EUen": "",
      "EUes": "",
      "EUfr": "",
      "EUit": "",
      "JPja": "",
      "KRko": "",
      "USen": "",
      "USes": "",
      "USfr": ""
    }
  },
  {
    "label": "108",
    "locale": {
      "EUde": "",
      "EUen": "",
      "EUes": "",
      "EUfr": "",
      "EUit": "",
      "JPja": "",
      "KRko": "",
      "USen": "",
      "USes": "",
      "USfr": ""
    }
  },
  {
    "label": "109",
    "locale": {
      "EUde": "",
      "EUen": "",
      "EUes": "",
      "EUfr": "",
      "EUit": "",
      "JPja": "",
      "KRko": "",
      "USen": "",
      "USes": "",
      "USfr": ""
    }
  },
  {
    "label": "110",
    "locale": {
      "EUde": "",
      "EUen": "",
      "EUes": "",
      "EUfr": "",
      "EUit": "",
      "JPja": "",
      "KRko": "",
      "USen": "",
      "USes": "",
      "USfr": ""
    }
  },
  {
    "label": "111",
    "locale": {
      "EUde": "",
      "EUen": "",
      "EUes": "",
      "EUfr": "",
      "EUit": "",
      "JPja": "",
      "KRko": "",
      "USen": "",
      "USes": "",
      "USfr": ""
    }
  },
  {
    "label": "112",
    "locale": {
      "EUde": "",
      "EUen": "",
      "EUes": "",
      "EUfr": "",
      "EUit": "",
      "JPja": "",
      "KRko": "",
      "USen": "",
      "USes": "",
      "USfr": ""
    }
  },
  {
    "label": "113",
    "locale": {
      "EUde": "",
      "EUen": "",
      "EUes": "",
      "EUfr": "",
      "EUit": "",
      "JPja": "",
      "KRko": "",
      "USen": "",
      "USes": "",
      "USfr": ""
    }
  }
]