﻿[
  {
    "label": "001",
    "locale": {
      "EUde": "Ganz recht, {{anim id=\"1\"}}hier wird gegärtnert!{{pageBreak}}Und zwar nicht irgendwie drauflos,\nsondern nach echten, altehrwürdigen\nRegeln:",
      "EUen": "As you may have guessed from the\nname, {{anim id=\"1\"}}{{delay frames=\"20\"}}this tour is all about\ngardening.\nHere are the rules:",
      "EUes": "El nombre ya lo dice todo, {{anim id=\"1\"}}{{delay frames=\"20\"}}pero por\nsi acaso diré que en este tour\nhay que hacer de jardinero.\nLas normas son las siguientes:",
      "EUfr": "Comme son nom l'indique, cette\nexcursion est consacrée au\njardinage.{{delay frames=\"20\"}} {{anim id=\"1\"}}En voici les règles...",
      "EUit": "Il nome dice già tutto...{{anim id=\"1\"}}{{delay frames=\"20\"}} Questo tour\nè dedicato al giardinaggio!\nE ora ecco le regole...",
      "JPja": "このツアーは　その{{ruby charSpan=\"1\" value=\"な\"}}名のとおり、{{delay frames=\"10\"}}\n{{ruby charSpan=\"1\" value=\"みなみ\"}}南の{{ruby charSpan=\"1\" value=\"しま\"}}島で　ガーデニングを{{ruby charSpan=\"1\" value=\"たの\"}}楽しんでもらう\nツアーじゃ！{{pageBreak}}{{anim id=\"1\"}}とはいえ、{{delay frames=\"10\"}}せっかく{{ruby charSpan=\"1\" value=\"あそ\"}}遊びに{{ruby charSpan=\"1\" value=\"き\"}}来たんじゃ{{fun_00010007 arg=\"\"}}\n{{ruby charSpan=\"1\" value=\"たん\"}}単に　{{ruby charSpan=\"1\" value=\"はな\"}}花を{{ruby charSpan=\"1\" value=\"う\"}}植えるだけでなく、{{delay frames=\"10\"}}\nちょっとした　ゲームをしようではないか！{{pageBreak}}{{anim id=\"11\"}}ちなみに　{{ruby charSpan=\"2\" value=\"こんかい\"}}今回のルールは{{delay frames=\"8\"}}・{{delay frames=\"8\"}}・{{delay frames=\"8\"}}・",
      "KRko": "이 투어는 이름에서 알 수 있듯이{{delay frames=\"10\"}}\n남쪽 섬의 정원가꾸기를\n즐길 수 있는 투어라네!{{pageBreak}}{{anim id=\"1\"}}그런데{{delay frames=\"10\"}} 이왕 멀리까지 놀러 온 거!{{fun_00010007 arg=\"\"}}\n무작정 꽃만 심으면 심심할 테니{{delay frames=\"10\"}}\n간단한 게임을 하도록 하세!{{pageBreak}}{{anim id=\"11\"}}참고로 이번 투어의 규칙은{{delay frames=\"8\"}}・{{delay frames=\"8\"}}・{{delay frames=\"8\"}}・",
      "USen": "As you may have guessed from the\nname, {{anim id=\"1\"}}{{delay frames=\"20\"}}this tour is all about\ngardening.\nHere are the rules:",
      "USes": "El nombre ya lo dice todo, {{anim id=\"1\"}}{{delay frames=\"20\"}}pero por\nsi acaso diré que en este tour\nhay que hacer de jardinero.\nLas normas son las siguientes:",
      "USfr": "Comme son nom l'indique, cette\nexcursion est consacrée au\njardinage.{{delay frames=\"20\"}} {{anim id=\"1\"}}En voici les règles..."
    }
  },
  {
    "label": "002",
    "locale": {
      "EUde": "Du hast {{color id=\"2\"}}{{fun_00070004 arg=\"0x0500\"}} {{fun_0009000E arg=\"0x05CD0E004D0069006E007500740065006E000C004D0069006E007500740065000E004D0069006E007500740065006E00\"}}{{color id=\"65535\"}} Zeit, um dieses\nBeet hier randvoll mit hübschen\nBlumen zu bepflanzen{{delay frames=\"8\"}}, he he huff.\nFarbe, Sorte und so ein Unfug\ninteressieren mich nicht.{{delay frames=\"20\"}} Nur voll\nmuss das Beet sein!\nWenn du das hinkriegst, bekommst\ndu hübsche, glänzende Medaillen\nvon mir.",
      "EUen": "You have {{color id=\"2\"}}{{fun_00070004 arg=\"0x0500\"}} minutes {{color id=\"65535\"}}to fill this\nflower bed with flowers.{{pageBreak}}The type and color don't matter.{{delay frames=\"10\"}}\nJust plant as many flowers as\npossible! Really, go nuts!\nIf you finish within the time limit,{{delay frames=\"10\"}}\nyou'll be rewarded with medals.",
      "EUes": "Tienes que plantar en este parterre\ntantas flores como te sea posible\nen {{color id=\"2\"}}{{fun_00070004 arg=\"0x0500\"}} minutos{{color id=\"65535\"}}.\nNi el tipo ni el color importan,{{delay frames=\"10\"}}\n¡lo que cuenta es la cantidad!{{pageBreak}}Si llenas el parterre antes de\nque se acabe el tiempo,{{delay frames=\"10\"}} ¡te daré\nmás medallas!",
      "EUfr": "Tu as {{color id=\"2\"}}{{fun_00070004 arg=\"0x0500\"}} {{color id=\"2\"}}{{fun_0009000E arg=\"0x05CD0C006D0069006E007500740065000C006D0069006E007500740065000E006D0069006E007500740065007300\"}} {{color id=\"2\"}}{{color id=\"65535\"}}pour remplir ce\nparterre avec des tonnes de fleurs.{{pageBreak}}Peu importe le type et la couleur\ndes fleurs, {{delay frames=\"10\"}}il faut juste en planter le\nplus possible !\nSi tu termines dans les temps,{{delay frames=\"10\"}} tu\ngagnes des médailles.",
      "EUit": "Hai {{color id=\"2\"}}{{fun_00070004 arg=\"0x0500\"}} {{fun_0009000E arg=\"0x05CD0C006D0069006E007500740069000C006D0069006E00750074006F000C006D0069006E00750074006900\"}} {{color id=\"65535\"}}per riempire\nquesta aiuola di fiori.{{pageBreak}}Non importa di quale tipo e di quale\ncolore...{{delay frames=\"10\"}} Semplicemente, pianta\npiù fiori che puoi!{{pageBreak}}Se finisci entro il tempo limite,{{delay frames=\"10\"}}\nvincerai delle medaglie!",
      "JPja": "{{ruby charSpan=\"4\" value=\"せいげんじかん\"}}制限時間　{{color id=\"2\"}}{{fun_00070004 arg=\"0x0500\"}}{{fun_000B000E arg=\"\"}}{{color id=\"65535\"}}の{{ruby charSpan=\"1\" value=\"あいだ\"}}間に\nこの{{ruby charSpan=\"1\" value=\"か\"}}花だんを　{{ruby charSpan=\"1\" value=\"はな\"}}花で{{ruby charSpan=\"1\" value=\"う\"}}埋めつくすこと！{{pageBreak}}{{ruby charSpan=\"2\" value=\"しゅるい\"}}種類や{{ruby charSpan=\"1\" value=\"いろ\"}}色は　なんでもかまわんから、{{delay frames=\"10\"}}\nとにかく　{{ruby charSpan=\"1\" value=\"はな\"}}花を{{ruby charSpan=\"1\" value=\"し\"}}敷きつめるのじゃ！{{pageBreak}}{{ruby charSpan=\"3\" value=\"じかんない\"}}時間内に　{{ruby charSpan=\"1\" value=\"お\"}}終わらせたら、{{delay frames=\"10\"}}\n{{ruby charSpan=\"2\" value=\"きねん\"}}記念のメダルを　やるぞい！",
      "KRko": "제한 시간 {{color id=\"2\"}}{{fun_00070004 arg=\"0x0500\"}}분{{color id=\"65535\"}} 안에\n이 화단을 꽃으로 가득 채우는 걸세!{{pageBreak}}종류나 색은 무엇이든 상관없으니{{delay frames=\"10\"}}\n온통 꽃으로 뒤덮어보게!{{pageBreak}}시간 안에 무사히 마치면{{delay frames=\"10\"}}\n기념으로 메달을 선물하지!",
      "USen": "You have {{color id=\"2\"}}{{fun_00070004 arg=\"0x0500\"}} minutes {{color id=\"65535\"}}to fill this\nflower bed with flowers.{{pageBreak}}The type and color don't matter.{{delay frames=\"10\"}}\nJust plant as many flowers as\npossible! Really, go nuts!\nIf you finish within the time limit,{{delay frames=\"10\"}}\nyou'll be rewarded with medals.",
      "USes": "Tienes que plantar en este parterre\ntantas flores como te sea posible\nen {{color id=\"2\"}}{{fun_00070004 arg=\"0x0500\"}} minutos{{color id=\"65535\"}}.\nNi el tipo ni el color importan,{{delay frames=\"10\"}}\n¡lo que cuenta es la cantidad!{{pageBreak}}Si llenas el parterre antes de\nque se acabe el tiempo,{{delay frames=\"10\"}} ¡te daré\nmás medallas!",
      "USfr": "Tu as {{color id=\"2\"}}{{fun_00070004 arg=\"0x0500\"}} {{color id=\"2\"}}{{fun_0009000E arg=\"0x05CD0C006D0069006E007500740065000C006D0069006E007500740065000E006D0069006E007500740065007300\"}} {{color id=\"2\"}}{{color id=\"65535\"}}pour remplir ce\nparterre avec des tonnes de fleurs.{{pageBreak}}Peu importe le type et la couleur\ndes fleurs, {{delay frames=\"10\"}}il faut juste en planter le\nplus possible!\nSi tu termines dans les temps,{{delay frames=\"10\"}} tu\ngagnes des médailles."
    }
  },
  {
    "label": "003",
    "locale": {
      "EUde": "Du hast {{color id=\"2\"}}{{fun_00070004 arg=\"0x0500\"}} {{fun_0009000E arg=\"0x05CD0E004D0069006E007500740065006E000C004D0069006E007500740065000E004D0069006E007500740065006E00\"}}{{color id=\"65535\"}}, um dieses Beet\nvollzupflanzen, und zwar mit Blumen\nvom Typ {{fun_00030011 arg=\"0x0000\"}}!\nWenn du das schaffst,{{delay frames=\"10\"}} bekommst du\nMedaillen von mir, he he huff.",
      "EUen": "You have {{color id=\"2\"}}{{fun_00070004 arg=\"0x0500\"}} minutes{{color id=\"65535\"}}\nto fill this flower bed with\n{{fun_00030011 arg=\"0x0000\"}}!\nIf you finish within the time limit,{{delay frames=\"10\"}}\nyou'll be rewarded with medals.",
      "EUes": "Tienes que plantar en este parterre\nalg{{fun_0012000E arg=\"0x10000400FA006E00060075006E0061000000\"}} {{color id=\"2\"}}{{fun_00030011 arg=\"0x0000\"}}{{color id=\"65535\"}}\nque otr{{fun_0012000E arg=\"0x100002006F00020061000000\"}} en {{color id=\"2\"}}{{fun_00070004 arg=\"0x0500\"}} minutos{{color id=\"65535\"}}.\nBueno, en realidad no basta solo\ncon alg{{fun_0012000E arg=\"0x1000060075006E006F00060075006E0061000000\"}}{{delay frames=\"5\"}}. ¡Debes intentar llenarlo\na rebosar de esas flores!\nSi lo logras antes de que se acabe\nel tiempo, {{delay frames=\"10\"}}¡te daré más medallas!",
      "EUfr": "Tu as {{color id=\"2\"}}{{fun_00070004 arg=\"0x0500\"}} {{color id=\"2\"}}{{fun_0009000E arg=\"0x05CD0C006D0069006E007500740065000C006D0069006E007500740065000E006D0069006E007500740065007300\"}}{{color id=\"2\"}}{{color id=\"65535\"}}{{delay frames=\"5\"}} pour remplir ce\nparterre avec des fleurs de type\n{{fun_00030011 arg=\"0x0000\"}} !\nSi tu termines dans les temps,{{delay frames=\"10\"}} tu\ngagnes des médailles.",
      "EUit": "Hai {{color id=\"2\"}}{{fun_00070004 arg=\"0x0500\"}} {{fun_0009000E arg=\"0x05CD0C006D0069006E007500740069000C006D0069006E00750074006F000C006D0069006E00750074006900\"}}{{color id=\"65535\"}}{{delay frames=\"5\"}} per riempire\nquesta aiuola con qualche\n{{fun_00030011 arg=\"0x0000\"}}!\nAnzi, piantane più che puoi!\nE se finirai entro il tempo limite,{{delay frames=\"10\"}}\nvincerai delle medaglie!",
      "JPja": "{{ruby charSpan=\"4\" value=\"せいげんじかん\"}}制限時間　{{color id=\"2\"}}{{fun_00070004 arg=\"0x0500\"}}{{fun_000B000E arg=\"\"}}{{color id=\"65535\"}}の{{ruby charSpan=\"1\" value=\"あいだ\"}}間に{{delay frames=\"5\"}}\nこの{{ruby charSpan=\"1\" value=\"か\"}}花だんを　{{fun_00030011 arg=\"0x0000\"}}で\n{{ruby charSpan=\"1\" value=\"う\"}}埋めつくすこと！{{pageBreak}}{{ruby charSpan=\"3\" value=\"じかんない\"}}時間内に　{{ruby charSpan=\"1\" value=\"お\"}}終わらせたら、{{delay frames=\"10\"}}\n{{ruby charSpan=\"2\" value=\"きねん\"}}記念のメダルを　やるぞい！",
      "KRko": "제한 시간 {{color id=\"2\"}}{{fun_00070004 arg=\"0x0500\"}}분{{color id=\"65535\"}} 안에{{delay frames=\"5\"}}\n이 화단을 {{fun_00030011 arg=\"0x0000\"}}{{fun_000E000E arg=\"0x04003CC75CB802005CB8\"}}\n가득 채우는 걸세!{{pageBreak}}시간 안에 무사히 마치면{{delay frames=\"10\"}}\n기념으로 메달을 선물하지!",
      "USen": "You have {{color id=\"2\"}}{{fun_00070004 arg=\"0x0500\"}} minutes{{color id=\"65535\"}}\nto fill this flower bed with\n{{fun_00030011 arg=\"0x0000\"}}!\nIf you finish within the time limit,{{delay frames=\"10\"}}\nyou'll be rewarded with medals.",
      "USes": "Tienes que plantar en este parterre\nalg{{fun_0012000E arg=\"0x10000400FA006E00060075006E0061000000\"}} {{color id=\"2\"}}{{fun_00030011 arg=\"0x0000\"}}{{color id=\"65535\"}}\nque otr{{fun_0012000E arg=\"0x100002006F00020061000000\"}} en {{color id=\"2\"}}{{fun_00070004 arg=\"0x0500\"}} minutos{{color id=\"65535\"}}.\nBueno, en realidad no basta solo\ncon alg{{fun_0012000E arg=\"0x1000060075006E006F00060075006E0061000000\"}}{{delay frames=\"5\"}}. ¡Debes intentar llenarlo\na rebosar de esas flores!\nSi lo logras antes de que se acabe\nel tiempo, {{delay frames=\"10\"}}¡te daré más medallas!",
      "USfr": "Tu as {{color id=\"2\"}}{{fun_00070004 arg=\"0x0500\"}} {{color id=\"2\"}}{{fun_0009000E arg=\"0x05CD0C006D0069006E007500740065000C006D0069006E007500740065000E006D0069006E007500740065007300\"}}{{color id=\"2\"}}{{color id=\"65535\"}}{{delay frames=\"5\"}} pour remplir ce\nparterre avec des fleurs de type\n{{fun_00030011 arg=\"0x0000\"}}!\nSi tu termines dans les temps,{{delay frames=\"10\"}} tu\ngagnes des médailles."
    }
  },
  {
    "label": "004",
    "locale": {
      "EUde": "Ihr Jungspunde habt {{color id=\"2\"}}{{fun_00070004 arg=\"0x0500\"}} {{fun_0009000E arg=\"0x05CD0E004D0069006E007500740065006E000C004D0069006E007500740065000E004D0069006E007500740065006E00\"}}{{color id=\"65535\"}},\num dieses Blumenbeet da mit \nirgendwelchen Blumen zu füllen.\n{{anim id=\"15\"}}Welche Farbe?{{delay frames=\"20\"}} Welche Sorte?!?{{delay frames=\"40\"}}\n{{anim id=\"8\"}}Habe ich nicht eben „irgendwelche“\ngesagt?{{delay frames=\"20\"}} Hört ihr mir überhaupt zu?\n{{anim id=\"0\"}}Na, jedenfalls bekommt ihr\nMedaillen von mir, wenn ihr das\nschafft.{{delay frames=\"20\"}} Oder falls, {{delay frames=\"8\"}}he he huff!",
      "EUen": "You kids have {{color id=\"2\"}}{{fun_00070004 arg=\"0x0500\"}} minutes {{color id=\"65535\"}}to fill\nthis flower bed with flowers!{{pageBreak}}The type and color don't matter.{{delay frames=\"10\"}}\nJust plant as many as possible!{{pageBreak}}If you finish within the time limit,{{delay frames=\"10\"}}\nyou'll be rewarded with medals.",
      "EUes": "Tenéis que plantar en este parterre\ntantas flores como os sea posible\nen {{color id=\"2\"}}{{fun_00070004 arg=\"0x0500\"}} minutos{{color id=\"65535\"}}.\nNi el tipo ni el color importan,{{delay frames=\"10\"}}\n¡lo que cuenta es la cantidad!{{pageBreak}}Si llenáis el parterre antes de\nque se acabe el tiempo,{{delay frames=\"10\"}} ¡os daré\nmás medallas!",
      "EUfr": "Vous avez {{color id=\"2\"}}{{fun_00070004 arg=\"0x0500\"}} {{color id=\"2\"}}{{fun_0009000E arg=\"0x05CD0C006D0069006E007500740065000C006D0069006E007500740065000E006D0069006E007500740065007300\"}} {{color id=\"2\"}}{{color id=\"65535\"}}pour remplir\nce parterre avec des tonnes de\nfleurs.\nPeu importe le type et la couleur\ndes fleurs, {{delay frames=\"10\"}}il faut juste en planter le\nplus possible !\nSi vous terminez dans les temps,{{delay frames=\"10\"}}\nvous gagnez des médailles.",
      "EUit": "Avete {{color id=\"2\"}}{{color id=\"2\"}}{{fun_00070004 arg=\"0x0500\"}} {{fun_0009000E arg=\"0x05CD0C006D0069006E007500740069000C006D0069006E00750074006F000C006D0069006E00750074006900\"}}{{color id=\"2\"}} {{color id=\"65535\"}}per riempire\nquesta aiuola di fiori!{{pageBreak}}Non importa di quale tipo e di quale\ncolore...{{delay frames=\"10\"}} Semplicemente, piantate\npiù fiori che potete!{{pageBreak}}Se finite entro il tempo limite,{{delay frames=\"10\"}}\nvincerete delle medaglie!",
      "JPja": "{{ruby charSpan=\"2\" value=\"ふたり\"}}二人で{{ruby charSpan=\"2\" value=\"きょうりょく\"}}協力して、{{delay frames=\"5\"}}{{ruby charSpan=\"4\" value=\"せいげんじかん\"}}制限時間　{{color id=\"2\"}}{{fun_00070004 arg=\"0x0500\"}}{{fun_000B000E arg=\"\"}}{{color id=\"65535\"}}の{{ruby charSpan=\"1\" value=\"あいだ\"}}間に{{delay frames=\"5\"}}\nこの{{ruby charSpan=\"1\" value=\"か\"}}花だんを　{{ruby charSpan=\"1\" value=\"はな\"}}花で{{ruby charSpan=\"1\" value=\"う\"}}埋めつくすこと！{{pageBreak}}{{ruby charSpan=\"2\" value=\"しゅるい\"}}種類や{{ruby charSpan=\"1\" value=\"いろ\"}}色は　なんでもかまわんから、{{delay frames=\"10\"}}\nとにかく　{{ruby charSpan=\"1\" value=\"はな\"}}花を{{ruby charSpan=\"1\" value=\"し\"}}敷きつめるのじゃ！{{pageBreak}}{{ruby charSpan=\"3\" value=\"じかんない\"}}時間内に　{{ruby charSpan=\"1\" value=\"お\"}}終わらせたら、{{delay frames=\"10\"}}\n{{ruby charSpan=\"2\" value=\"きねん\"}}記念のメダルを　やるぞい！",
      "KRko": "둘이 힘을 모아{{delay frames=\"5\"}} 제한 시간 {{color id=\"2\"}}{{fun_00070004 arg=\"0x0500\"}}분{{color id=\"65535\"}} 안에{{delay frames=\"5\"}}\n이 화단을 꽃으로 가득 채우는 걸세!{{pageBreak}}종류나 색은 무엇이든 상관없으니{{delay frames=\"10\"}}\n온통 꽃으로 뒤덮어보게!{{pageBreak}}시간 안에 무사히 마치면{{delay frames=\"10\"}}\n기념으로 메달을 선물하지!",
      "USen": "You kids have {{color id=\"2\"}}{{fun_00070004 arg=\"0x0500\"}} minutes {{color id=\"65535\"}}to fill this\nflower bed with flowers!{{pageBreak}}The type and color don't matter.{{delay frames=\"10\"}}\nJust plant as many as possible!{{pageBreak}}If you finish within the time limit,{{delay frames=\"10\"}}\nyou'll be rewarded with medals.",
      "USes": "Tenéis que plantar en este parterre\ntantas flores como os sea posible\nen {{color id=\"2\"}}{{fun_00070004 arg=\"0x0500\"}} minutos{{color id=\"65535\"}}.\nNi el tipo ni el color importan,{{delay frames=\"10\"}}\n¡lo que cuenta es la cantidad!{{pageBreak}}Si llenáis el parterre antes de\nque se acabe el tiempo,{{delay frames=\"10\"}} ¡os daré\nmás medallas!",
      "USfr": "Vous avez {{color id=\"2\"}}{{fun_00070004 arg=\"0x0500\"}} {{color id=\"2\"}}{{fun_0009000E arg=\"0x05CD0C006D0069006E007500740065000C006D0069006E007500740065000E006D0069006E007500740065007300\"}} {{color id=\"2\"}}{{color id=\"65535\"}}pour remplir\nce parterre avec des tonnes de\nfleurs.\nPeu importe le type et la couleur\ndes fleurs, {{delay frames=\"10\"}}il faut juste en planter le\nplus possible!\nSi vous terminez dans les temps,{{delay frames=\"10\"}}\nvous gagnez des médailles."
    }
  },
  {
    "label": "005",
    "locale": {
      "EUde": "Ihr habt {{color id=\"2\"}}{{fun_00070004 arg=\"0x0500\"}} {{fun_0009000E arg=\"0x05CD0E004D0069006E007500740065006E000C004D0069006E007500740065000E004D0069006E007500740065006E00\"}}{{color id=\"65535\"}}, um dieses Beet\nvollzupflanzen, {{delay frames=\"8\"}}und zwar mit Blumen\nvom Typ {{fun_00030011 arg=\"0x0000\"}}!\nWenn ihr das schafft, bekommt ihr\nMedaillen.{{delay frames=\"20\"}} Sonst nicht!",
      "EUen": "You kids have {{color id=\"2\"}}{{fun_00070004 arg=\"0x0500\"}} minutes{{color id=\"65535\"}}{{delay frames=\"5\"}}\nto fill this flower bed with\n{{fun_00030011 arg=\"0x0000\"}}!\nIf you finish within the time limit,{{delay frames=\"10\"}}\nyou'll be rewarded with medals.",
      "EUes": "Tenéis que plantar en este parterre\nalg{{fun_0012000E arg=\"0x10000400FA006E00060075006E0061000000\"}} {{color id=\"2\"}}{{fun_00030011 arg=\"0x0000\"}}{{color id=\"65535\"}}\nque otr{{fun_0012000E arg=\"0x100002006F00020061000000\"}} en {{color id=\"2\"}}{{fun_00070004 arg=\"0x0500\"}} minutos{{color id=\"65535\"}}.\nBueno, en realidad no basta solo\ncon alg{{fun_0012000E arg=\"0x1000060075006E006F00060075006E0061000000\"}}{{delay frames=\"5\"}}. ¡Debéis intentar llenarlo\na rebosar de esas flores!\nSi lo lográis antes de que se acabe\nel tiempo, {{delay frames=\"10\"}}¡os daré más medallas!",
      "EUfr": "Vous avez {{color id=\"2\"}}{{fun_00070004 arg=\"0x0500\"}} {{color id=\"2\"}}{{fun_0009000E arg=\"0x05CD0C006D0069006E007500740065000C006D0069006E007500740065000E006D0069006E007500740065007300\"}}{{color id=\"2\"}}{{color id=\"65535\"}}{{delay frames=\"5\"}} pour remplir\nce parterre avec des fleurs de type\n{{fun_00030011 arg=\"0x0000\"}} !\nSi vous terminez dans les temps,{{delay frames=\"10\"}}\nvous gagnez des médailles.",
      "EUit": "Avete {{color id=\"2\"}}{{color id=\"2\"}}{{fun_00070004 arg=\"0x0500\"}} {{fun_0009000E arg=\"0x05CD0C006D0069006E007500740069000C006D0069006E00750074006F000C006D0069006E00750074006900\"}}{{color id=\"2\"}} {{color id=\"65535\"}}per riempire\nquesta aiuola con qualche\n{{fun_00030011 arg=\"0x0000\"}}!{{pageBreak}}Anzi, piantatene più che potete!\nE se finirete entro il tempo limite,{{delay frames=\"10\"}}\nvincerete delle medaglie!",
      "JPja": "{{ruby charSpan=\"2\" value=\"ふたり\"}}二人で{{ruby charSpan=\"2\" value=\"きょうりょく\"}}協力して、{{delay frames=\"5\"}}{{ruby charSpan=\"4\" value=\"せいげんじかん\"}}制限時間　{{color id=\"2\"}}{{fun_00070004 arg=\"0x0500\"}}{{fun_000B000E arg=\"\"}}{{color id=\"65535\"}}の{{ruby charSpan=\"1\" value=\"あいだ\"}}間に{{delay frames=\"5\"}}\nこの{{ruby charSpan=\"1\" value=\"か\"}}花だんを　{{fun_00030011 arg=\"0x0000\"}}で\n{{ruby charSpan=\"1\" value=\"う\"}}埋めつくすこと！{{pageBreak}}{{ruby charSpan=\"3\" value=\"じかんない\"}}時間内に　{{ruby charSpan=\"1\" value=\"お\"}}終わらせたら、{{delay frames=\"10\"}}\n{{ruby charSpan=\"2\" value=\"きねん\"}}記念のメダルを　やるぞい！",
      "KRko": "둘이 힘을 모아{{delay frames=\"5\"}} 제한 시간 {{color id=\"2\"}}{{fun_00070004 arg=\"0x0500\"}}분 {{color id=\"65535\"}}안에{{delay frames=\"5\"}}\n이 화단을 {{fun_00030011 arg=\"0x0000\"}}{{fun_000E000E arg=\"0x04003CC75CB802005CB8\"}}\n가득 채우는 걸세!{{pageBreak}}시간 안에 무사히 마치면{{delay frames=\"10\"}}\n기념으로 메달을 선물하지!",
      "USen": "You kids have {{color id=\"2\"}}{{fun_00070004 arg=\"0x0500\"}} minutes{{color id=\"65535\"}}{{delay frames=\"5\"}}\nto fill this flower bed with\n{{fun_00030011 arg=\"0x0000\"}}!\nIf you finish within the time limit,{{delay frames=\"10\"}}\nyou'll be rewarded with medals.",
      "USes": "Tenéis que plantar en este parterre\nalg{{fun_0012000E arg=\"0x10000400FA006E00060075006E0061000000\"}} {{color id=\"2\"}}{{fun_00030011 arg=\"0x0000\"}}{{color id=\"65535\"}}\nque otr{{fun_0012000E arg=\"0x100002006F00020061000000\"}} en {{color id=\"2\"}}{{fun_00070004 arg=\"0x0500\"}} minutos{{color id=\"65535\"}}.\nBueno, en realidad no basta solo\ncon alg{{fun_0012000E arg=\"0x1000060075006E006F00060075006E0061000000\"}}{{delay frames=\"5\"}}. ¡Debéis intentar llenarlo\na rebosar de esas flores!\nSi lo lográis antes de que se acabe\nel tiempo, {{delay frames=\"10\"}}¡os daré más medallas!",
      "USfr": "Vous avez {{color id=\"2\"}}{{fun_00070004 arg=\"0x0500\"}} {{color id=\"2\"}}{{fun_0009000E arg=\"0x05CD0C006D0069006E007500740065000C006D0069006E007500740065000E006D0069006E007500740065007300\"}}{{color id=\"2\"}}{{color id=\"65535\"}}{{delay frames=\"5\"}} pour remplir\nce parterre avec des fleurs de type\n{{fun_00030011 arg=\"0x0000\"}}!\nSi vous terminez dans les temps,{{delay frames=\"10\"}}\nvous gagnez des médailles."
    }
  },
  {
    "label": "006",
    "locale": {
      "EUde": "Ihr Grünschnäbel habt {{color id=\"2\"}}{{fun_00070004 arg=\"0x0500\"}} {{fun_0009000E arg=\"0x05CD0E004D0069006E007500740065006E000C004D0069006E007500740065000E004D0069006E007500740065006E00\"}}{{color id=\"65535\"}}\nZeit, um dieses Beet da mit Blumen\nvollzupflanzen.\n{{anim id=\"6\"}}Farbe und Sorte interessieren mich\nnicht.{{delay frames=\"20\"}} Ich will nur einen schönen\nBlumenteppich sehen, sonst nichts!{{pageBreak}}Wenn ihr das schafft –{{delay frames=\"8\"}} und nur,\nwenn ihr das schafft –{{delay frames=\"8\"}} bekommt ihr\nhübsche Medaillen von mir.",
      "EUen": "You kids have {{color id=\"2\"}}{{fun_00070004 arg=\"0x0500\"}} minutes {{color id=\"65535\"}}to fill\nthis flower bed with flowers.{{pageBreak}}The type and color don't matter.{{delay frames=\"10\"}}\nJust make sure it's carpeted with\nflowers!\nIf you finish within the time limit,{{delay frames=\"10\"}}\nyou'll be rewarded with medals.",
      "EUes": "Tenéis que plantar en este parterre\ntantas flores como os sea posible\nen {{color id=\"2\"}}{{fun_00070004 arg=\"0x0500\"}} minutos{{color id=\"65535\"}}.\nNi el tipo ni el color importan,{{delay frames=\"10\"}}\n¡lo que cuenta es la cantidad!{{pageBreak}}Si llenáis el parterre antes de\nque se acabe el tiempo,{{delay frames=\"10\"}} ¡os daré\nmás medallas!",
      "EUfr": "Vous avez {{color id=\"2\"}}{{fun_00070004 arg=\"0x0500\"}} {{color id=\"2\"}}{{fun_0009000E arg=\"0x05CD0C006D0069006E007500740065000C006D0069006E007500740065000E006D0069006E007500740065007300\"}} {{color id=\"2\"}}{{color id=\"65535\"}}pour remplir\nce parterre avec des tonnes de\nfleurs.\nPeu importe le type et la couleur\ndes fleurs, {{delay frames=\"10\"}}il faut juste en planter le\nplus possible !\nSi vous terminez dans les temps,{{delay frames=\"10\"}}\nvous gagnez des médailles.",
      "EUit": "Avete {{color id=\"2\"}}{{color id=\"2\"}}{{fun_00070004 arg=\"0x0500\"}} {{fun_0009000E arg=\"0x05CD0C006D0069006E007500740069000C006D0069006E00750074006F000C006D0069006E00750074006900\"}}{{color id=\"2\"}} {{color id=\"65535\"}}per riempire\nquesta aiuola di fiori!{{pageBreak}}Non importa di quale tipo e di quale\ncolore...{{delay frames=\"10\"}} Semplicemente, piantate\npiù fiori che potete!{{pageBreak}}Se finite entro il tempo limite,{{delay frames=\"10\"}}\nvincerete delle medaglie!",
      "JPja": "みんなで{{ruby charSpan=\"2\" value=\"きょうりょく\"}}協力して、{{delay frames=\"5\"}}{{ruby charSpan=\"4\" value=\"せいげんじかん\"}}制限時間　{{color id=\"2\"}}{{fun_00070004 arg=\"0x0500\"}}{{fun_000B000E arg=\"\"}}{{color id=\"65535\"}}の{{ruby charSpan=\"1\" value=\"あいだ\"}}間に{{delay frames=\"5\"}}\nこの{{ruby charSpan=\"1\" value=\"か\"}}花だんを　{{ruby charSpan=\"1\" value=\"はな\"}}花で{{ruby charSpan=\"1\" value=\"う\"}}埋めつくすこと！{{pageBreak}}{{ruby charSpan=\"2\" value=\"しゅるい\"}}種類や{{ruby charSpan=\"1\" value=\"いろ\"}}色は　なんでもかまわんから、{{delay frames=\"10\"}}\nとにかく　{{ruby charSpan=\"1\" value=\"はな\"}}花を{{ruby charSpan=\"1\" value=\"し\"}}敷きつめるのじゃ！{{pageBreak}}{{ruby charSpan=\"3\" value=\"じかんない\"}}時間内に　{{ruby charSpan=\"1\" value=\"お\"}}終わらせたら、{{delay frames=\"10\"}}\n{{ruby charSpan=\"2\" value=\"きねん\"}}記念のメダルを　やるぞい！",
      "KRko": "다 같이 협동하여 {{delay frames=\"5\"}}제한 시간 {{color id=\"2\"}}{{fun_00070004 arg=\"0x0500\"}}분{{color id=\"65535\"}} 안에{{delay frames=\"5\"}}\n이 화단을 꽃으로 가득 채우는 걸세!{{pageBreak}}종류나 색은 무엇이든 상관없으니{{delay frames=\"10\"}}\n온통 꽃으로 뒤덮어보게!{{pageBreak}}시간 안에 무사히 마치면{{delay frames=\"10\"}}\n기념으로 메달을 선물하지!",
      "USen": "You kids have {{color id=\"2\"}}{{fun_00070004 arg=\"0x0500\"}} minutes {{color id=\"65535\"}}to fill\nthis flower bed with flowers.{{pageBreak}}The type and color don't matter.{{delay frames=\"10\"}}\nJust make sure it's carpeted with\nflowers!\nIf you finish within the time limit,{{delay frames=\"10\"}}\nyou'll be rewarded with medals.",
      "USes": "Tenéis que plantar en este parterre\ntantas flores como os sea posible\nen {{color id=\"2\"}}{{fun_00070004 arg=\"0x0500\"}} minutos{{color id=\"65535\"}}.\nNi el tipo ni el color importan,{{delay frames=\"10\"}}\n¡lo que cuenta es la cantidad!{{pageBreak}}Si llenáis el parterre antes de\nque se acabe el tiempo,{{delay frames=\"10\"}} ¡os daré\nmás medallas!",
      "USfr": "Vous avez {{color id=\"2\"}}{{fun_00070004 arg=\"0x0500\"}} {{color id=\"2\"}}{{fun_0009000E arg=\"0x05CD0C006D0069006E007500740065000C006D0069006E007500740065000E006D0069006E007500740065007300\"}} {{color id=\"2\"}}{{color id=\"65535\"}}pour remplir\nce parterre avec des tonnes de\nfleurs.\nPeu importe le type et la couleur\ndes fleurs, {{delay frames=\"10\"}}il faut juste en planter le\nplus possible!\nSi vous terminez dans les temps,{{delay frames=\"10\"}}\nvous gagnez des médailles."
    }
  },
  {
    "label": "007",
    "locale": {
      "EUde": "Ihr habt {{color id=\"2\"}}{{fun_00070004 arg=\"0x0500\"}} {{fun_0009000E arg=\"0x05CD0E004D0069006E007500740065006E000C004D0069006E007500740065000E004D0069006E007500740065006E00\"}}{{color id=\"65535\"}}, um dieses Beet\nvollzupflanzen, und zwar mit Blumen\nvom Typ {{fun_00030011 arg=\"0x0000\"}}!\nWenn ihr das rechtzeitig schafft,\nbekommt ihr Medaillen von mir.",
      "EUen": "You kids have {{color id=\"2\"}}{{fun_00070004 arg=\"0x0500\"}} minutes{{color id=\"65535\"}}{{delay frames=\"5\"}} to\nfill this flower bed with\n{{fun_00030011 arg=\"0x0000\"}}!\nIf you finish within the time limit,{{delay frames=\"10\"}}\nyou'll be rewarded with medals.",
      "EUes": "Tenéis que plantar en este parterre\nalg{{fun_0012000E arg=\"0x10000400FA006E00060075006E0061000000\"}} {{color id=\"2\"}}{{fun_00030011 arg=\"0x0000\"}}{{color id=\"65535\"}}\nque otr{{fun_0012000E arg=\"0x100002006F00020061000000\"}} en {{color id=\"2\"}}{{fun_00070004 arg=\"0x0500\"}} minutos{{color id=\"65535\"}}.\nBueno, en realidad no basta solo\ncon alg{{fun_0012000E arg=\"0x1000060075006E006F00060075006E0061000000\"}}{{delay frames=\"5\"}}. ¡Debéis intentar llenarlo\na rebosar de esas flores!\nSi lo lográis antes de que se acabe\nel tiempo, {{delay frames=\"10\"}}¡os daré más medallas!",
      "EUfr": "Vous avez {{color id=\"2\"}}{{fun_00070004 arg=\"0x0500\"}} {{color id=\"2\"}}{{fun_0009000E arg=\"0x05CD0C006D0069006E007500740065000C006D0069006E007500740065000E006D0069006E007500740065007300\"}}{{color id=\"2\"}}{{color id=\"65535\"}}{{delay frames=\"5\"}} pour remplir\nce parterre avec des fleurs de type\n{{fun_00030011 arg=\"0x0000\"}} !\nSi vous terminez dans les temps,{{delay frames=\"10\"}}\nvous gagnez des médailles.",
      "EUit": "Avete {{color id=\"2\"}}{{color id=\"2\"}}{{fun_00070004 arg=\"0x0500\"}} {{fun_0009000E arg=\"0x05CD0C006D0069006E007500740069000C006D0069006E00750074006F000C006D0069006E00750074006900\"}}{{color id=\"2\"}} {{color id=\"65535\"}}per riempire\nquesta aiuola con qualche\n{{fun_00030011 arg=\"0x0000\"}}!{{pageBreak}}Anzi, piantatene più che potete!\nE se finirete entro il tempo limite,{{delay frames=\"10\"}}\nvincerete delle medaglie!",
      "JPja": "みんなで{{ruby charSpan=\"2\" value=\"きょうりょく\"}}協力して、{{delay frames=\"5\"}}{{ruby charSpan=\"4\" value=\"せいげんじかん\"}}制限時間　{{color id=\"2\"}}{{fun_00070004 arg=\"0x0500\"}}{{fun_000B000E arg=\"\"}}{{color id=\"65535\"}}の{{ruby charSpan=\"1\" value=\"あいだ\"}}間に{{delay frames=\"5\"}}\nこの{{ruby charSpan=\"1\" value=\"か\"}}花だんを　{{fun_00030011 arg=\"0x0000\"}}で\n{{ruby charSpan=\"1\" value=\"う\"}}埋めつくすこと！{{pageBreak}}{{ruby charSpan=\"3\" value=\"じかんない\"}}時間内に　{{ruby charSpan=\"1\" value=\"お\"}}終わらせたら、{{delay frames=\"10\"}}\n{{ruby charSpan=\"2\" value=\"きねん\"}}記念のメダルを　やるぞい！",
      "KRko": "다 같이 협동하여 {{delay frames=\"5\"}}제한 시간 {{color id=\"2\"}}{{fun_00070004 arg=\"0x0500\"}}분{{color id=\"65535\"}} 안에{{delay frames=\"5\"}}\n이 화단을 {{fun_00030011 arg=\"0x0000\"}}{{fun_000E000E arg=\"0x04003CC75CB802005CB8\"}}\n가득 채우는 걸세!{{pageBreak}}시간 안에 무사히 마치면{{delay frames=\"10\"}}\n기념으로 메달을 선물하지!",
      "USen": "You kids have {{color id=\"2\"}}{{fun_00070004 arg=\"0x0500\"}} minutes{{color id=\"65535\"}}{{delay frames=\"5\"}} to\nfill this flower bed with\n{{fun_00030011 arg=\"0x0000\"}}!\nIf you finish within the time limit,{{delay frames=\"10\"}}\nyou'll be rewarded with medals.",
      "USes": "Tenéis que plantar en este parterre\nalg{{fun_0012000E arg=\"0x10000400FA006E00060075006E0061000000\"}} {{color id=\"2\"}}{{fun_00030011 arg=\"0x0000\"}}{{color id=\"65535\"}}\nque otr{{fun_0012000E arg=\"0x100002006F00020061000000\"}} en {{color id=\"2\"}}{{fun_00070004 arg=\"0x0500\"}} minutos{{color id=\"65535\"}}.\nBueno, en realidad no basta solo\ncon alg{{fun_0012000E arg=\"0x1000060075006E006F00060075006E0061000000\"}}{{delay frames=\"5\"}}. ¡Debéis intentar llenarlo\na rebosar de esas flores!\nSi lo lográis antes de que se acabe\nel tiempo, {{delay frames=\"10\"}}¡os daré más medallas!",
      "USfr": "Vous avez {{color id=\"2\"}}{{fun_00070004 arg=\"0x0500\"}} {{color id=\"2\"}}{{fun_0009000E arg=\"0x05CD0C006D0069006E007500740065000C006D0069006E007500740065000E006D0069006E007500740065007300\"}}{{color id=\"2\"}}{{color id=\"65535\"}}{{delay frames=\"5\"}} pour remplir\nce parterre avec des fleurs de type\n{{fun_00030011 arg=\"0x0000\"}}!\nSi vous terminez dans les temps,{{delay frames=\"10\"}}\nvous gagnez des médailles."
    }
  },
  {
    "label": "008",
    "locale": {
      "EUde": "Ich will hier aber kein Durcheinander\nsehen.{{delay frames=\"20\"}} Wer falsche Blumen pflanzt,\nwird das bei der Wertung merken!\nWie?{{delay frames=\"20\"}} Man kann sie ja einfach wieder\nausreißen?{{delay frames=\"40\"}}{{anim id=\"28\"}} He he huff!{{delay frames=\"20\"}} Nichts da!{{delay frames=\"40\"}}\nDas wäre ja zu einfach!",
      "EUen": "But don't just plant flowers all\nwilly-nilly! {{delay frames=\"20\"}}You'll be penalized if\nyou plant the wrong kind!\n{{anim id=\"28\"}}Also, once you plant a flower, you\ncan't pull it back up.",
      "EUes": "Plantar flores al tuntún no sirve\nde nada. {{delay frames=\"20\"}}Es más, ¡plantar un tipo\nde flor distinto restará tiempo!\n{{anim id=\"28\"}}Para evitar artimañas, una vez\nplantada, no es posible desenterrar\nuna flor.",
      "EUfr": "Mais avis aux petits malins :{{delay frames=\"15\"}} je\nretire du temps pour toute fleur\ndu mauvais type qui est plantée !\n{{anim id=\"28\"}}Je précise qu'une fleur ne peut plus\nêtre arrachée une fois mise en terre,\nhé hé houerf !",
      "EUit": "Mi raccomando, {{delay frames=\"20\"}}i fiori non vanno\npiantati a caso!{{pageBreak}}Piantando il tipo sbagliato, verranno\nsottratti dei secondi preziosi!{{pageBreak}}{{anim id=\"28\"}}Inoltre, un fiore già piantato\nnon può essere rimosso.",
      "JPja": "ただし！{{delay frames=\"15\"}}\n{{ruby charSpan=\"2\" value=\"してい\"}}指定と　{{ruby charSpan=\"1\" value=\"ちが\"}}違う{{ruby charSpan=\"1\" value=\"はな\"}}花を{{ruby charSpan=\"1\" value=\"う\"}}植えていたら、{{delay frames=\"5\"}}\nあとで{{ruby charSpan=\"2\" value=\"げんてん\"}}減点するから、{{delay frames=\"5\"}}{{ruby charSpan=\"1\" value=\"き\"}}気をつけるんじゃぞ！{{pageBreak}}{{anim id=\"28\"}}しかも、{{ruby charSpan=\"2\" value=\"いちど\"}}一度　{{ruby charSpan=\"1\" value=\"か\"}}花だんに{{ruby charSpan=\"1\" value=\"う\"}}植えた{{ruby charSpan=\"1\" value=\"はな\"}}花は{{delay frames=\"5\"}}\n{{ruby charSpan=\"1\" value=\"ぬ\"}}抜くことができんから、{{delay frames=\"10\"}}\n{{ruby charSpan=\"1\" value=\"う\"}}植えるときは　{{ruby charSpan=\"2\" value=\"しんちょう\"}}慎重にな{{delay frames=\"8\"}}・{{delay frames=\"8\"}}・{{delay frames=\"8\"}}・",
      "KRko": "다만 명심하게!{{delay frames=\"15\"}}\n지정한 것 이외의 꽃을 심으면{{delay frames=\"5\"}}\n나중에 벌점을 받게 되니{{delay frames=\"5\"}} 조심해야 할 게야!{{pageBreak}}{{anim id=\"28\"}}게다가 화단에 심은 꽃은{{delay frames=\"5\"}}\n다시 뽑을 수도 없으니{{delay frames=\"10\"}}\n신중하게 심어야 하네{{delay frames=\"8\"}}・{{delay frames=\"8\"}}・{{delay frames=\"8\"}}・",
      "USen": "But don't just plant flowers all\nwilly-nilly! {{delay frames=\"20\"}}You'll be penalized if\nyou plant the wrong kind!\n{{anim id=\"28\"}}Also, once you plant a flower, you\ncan't pull it back up.",
      "USes": "Plantar flores al tuntún no sirve\nde nada. {{delay frames=\"20\"}}Es más, ¡plantar un tipo\nde flor distinto restará tiempo!\n{{anim id=\"28\"}}Para evitar artimañas, una vez\nplantada, no es posible desenterrar\nuna flor.",
      "USfr": "Mais avis aux petits malins :{{delay frames=\"15\"}} je\nretire du temps pour toute fleur\ndu mauvais type qui est plantée!\n{{anim id=\"28\"}}Je précise qu'une fleur ne peut plus\nêtre arrachée une fois mise en terre,\nhé hé houerf!"
    }
  },
  {
    "label": "009",
    "locale": {
      "EUde": "Aber Vorsicht!{{delay frames=\"20\"}} Was einmal gepflanzt\nist, bleibt auch da.{{delay frames=\"20\"}} Nichts da mit\nRausreißen!",
      "EUen": "And just so you know, once you\nplant a flower, you can't pull it\nback up.",
      "EUes": "Para evitar artimañas, una vez\nplantada, no es posible desenterrar\nuna flor.",
      "EUfr": "{{anim id=\"28\"}}Et je précise qu'une fleur ne peut\nplus être arrachée une fois plantée,\nhé hé houerf !",
      "EUit": "E, per la cronaca, un fiore già\npiantato non può più essere\nrimosso.",
      "JPja": "ちなみに、{{ruby charSpan=\"2\" value=\"いちど\"}}一度\n{{ruby charSpan=\"1\" value=\"か\"}}花だんに{{ruby charSpan=\"1\" value=\"う\"}}植えた　{{ruby charSpan=\"1\" value=\"はな\"}}花は{{delay frames=\"5\"}}\n{{ruby charSpan=\"1\" value=\"ぬ\"}}抜くことができんからな{{delay frames=\"8\"}}・{{delay frames=\"8\"}}・{{delay frames=\"8\"}}・",
      "KRko": "참고로 화단에\n한 번 심은 꽃은{{delay frames=\"5\"}}\n다시 뽑을 수 없다네{{delay frames=\"8\"}}・{{delay frames=\"8\"}}・{{delay frames=\"8\"}}・",
      "USen": "And just so you know, once you\nplant a flower, you can't pull it\nback up.",
      "USes": "Para evitar artimañas, una vez\nplantada, no es posible desenterrar\nuna flor.",
      "USfr": "{{anim id=\"28\"}}Et je précise qu'une fleur ne peut\nplus être arrachée une fois plantée,\nhé hé houerf!"
    }
  },
  {
    "label": "011",
    "locale": {
      "EUde": "{{anim id=\"1\"}}Übrigens...{{delay frames=\"20\"}} Wenn Blumen übrig sind,\nkann man sie von mir aus mit nach\nHause nehmen.",
      "EUen": "{{anim id=\"1\"}}By the by, {{delay frames=\"10\"}}you can take the leftover\nflowers home with you, sprout.",
      "EUes": "{{anim id=\"1\"}}Por cierto, granujilla, {{delay frames=\"10\"}}puedes\nllevarte a casa las flores\nque sobren.",
      "EUfr": "{{anim id=\"1\"}}Au passage, {{delay frames=\"10\"}}les participants sont\nautorisés à garder toutes les fleurs\ncueillies qui leur restent. {{delay frames=\"15\"}}Cadeau !",
      "EUit": "{{anim id=\"1\"}}Ah, dimenticavo! {{delay frames=\"10\"}}Puoi tenerti\ni fiori che non userai in gara,\ngiovinastr{{fun_0006000E arg=\"0x02006F0002006100\"}}.",
      "JPja": "{{anim id=\"1\"}}そうそう、{{delay frames=\"10\"}}{{ruby charSpan=\"1\" value=\"あま\"}}余った{{ruby charSpan=\"1\" value=\"はな\"}}花は\n{{ruby charSpan=\"1\" value=\"も\"}}持ち{{ruby charSpan=\"1\" value=\"かえ\"}}帰っても　かまわんぞ！",
      "KRko": "{{anim id=\"1\"}}그래그래,{{delay frames=\"10\"}} 남은 꽃은\n집에 가져가도 된다네!",
      "USen": "{{anim id=\"1\"}}By the by, {{delay frames=\"10\"}}you can take the leftover\nflowers home with you, sprout.",
      "USes": "{{anim id=\"1\"}}Por cierto, granujilla, {{delay frames=\"10\"}}puedes\nllevarte a casa las flores\nque sobren.",
      "USfr": "{{anim id=\"1\"}}Au passage, {{delay frames=\"10\"}}les participants sont\nautorisés à garder toutes les fleurs\ncueillies qui leur restent. {{delay frames=\"15\"}}Cadeau!"
    }
  },
  {
    "label": "012",
    "locale": {
      "EUde": "Für falsche Blumen werden\nStrafsekunden aufgeschlagen.{{delay frames=\"20\"}}\nDa kenne ich kein Pardon!\n{{anim id=\"28\"}}Und Rausrupfen gibt's nicht,\nhe he huff!",
      "EUen": "You'll lose points for planting the\nwrong type of flower, so pay\nattention!\n{{anim id=\"28\"}}And once you plant a flower, you\ncan't dig it back up. ",
      "EUes": "¡Te restaré puntos si plantas\nla flor equivocada, jovenzuel{{fun_0006000E arg=\"0x02006F0002006100\"}}!{{pageBreak}}{{anim id=\"28\"}}Como hay mucho caradura por ahí,\nuna vez que hayas plantado una flor,\nno podrás desenterrarla.",
      "EUfr": "{{anim id=\"5\"}}Fleur de la mauvaise espèce,\nEt c'est le temps qui baisse...{{pageBreak}}{{anim id=\"28\"}}Fleur déjà plantée\nTu ne pourras arracher...",
      "EUit": "Attenzione! Se pianti il tipo di fiore\nsbagliato subirai una penalità di\ntempo e perderai preziosi secondi!{{pageBreak}}{{anim id=\"28\"}}E i fiori già piantati non possono\nessere rimossi.",
      "JPja": "{{ruby charSpan=\"2\" value=\"してい\"}}指定と　{{ruby charSpan=\"1\" value=\"ちが\"}}違う{{ruby charSpan=\"1\" value=\"はな\"}}花を{{ruby charSpan=\"1\" value=\"う\"}}植えていたら、{{delay frames=\"5\"}}\nあとで{{ruby charSpan=\"2\" value=\"げんてん\"}}減点するから、{{delay frames=\"5\"}}{{ruby charSpan=\"1\" value=\"き\"}}気をつけるんじゃぞ！{{pageBreak}}{{anim id=\"28\"}}しかも、{{ruby charSpan=\"2\" value=\"いちど\"}}一度　{{ruby charSpan=\"1\" value=\"か\"}}花だんに{{ruby charSpan=\"1\" value=\"う\"}}植えた{{ruby charSpan=\"1\" value=\"はな\"}}花は{{delay frames=\"5\"}}\n{{ruby charSpan=\"1\" value=\"ぬ\"}}抜くことができんから、{{delay frames=\"10\"}}\n{{ruby charSpan=\"1\" value=\"う\"}}植えるときは　{{ruby charSpan=\"2\" value=\"しんちょう\"}}慎重にな{{delay frames=\"8\"}}・{{delay frames=\"8\"}}・{{delay frames=\"8\"}}・",
      "KRko": "지정한 것과 다른 꽃을 심으면{{delay frames=\"5\"}}\n나중에 벌점을 받는단 사실을{{delay frames=\"5\"}} 명심하게!{{pageBreak}}{{anim id=\"28\"}}게다가 화단에 심은 꽃은{{delay frames=\"5\"}}\n다시 뽑을 수도 없으니{{delay frames=\"10\"}}\n심을 때는 신중하게 생각해야 할 게야{{delay frames=\"8\"}}・{{delay frames=\"8\"}}・{{delay frames=\"8\"}}・",
      "USen": "You'll lose points for planting the\nwrong type of flower, so pay\nattention!\n{{anim id=\"28\"}}And once you plant a flower, you\ncan't dig it back up. ",
      "USes": "¡Te restaré puntos si plantas\nla flor equivocada, jovenzuel{{fun_0006000E arg=\"0x02006F0002006100\"}}!{{pageBreak}}{{anim id=\"28\"}}Como hay mucho caradura por ahí,\nuna vez que hayas plantado una flor,\nno podrás desenterrarla.",
      "USfr": "{{anim id=\"5\"}}Fleur de la mauvaise espèce,\nEt c'est le temps qui baisse...{{pageBreak}}{{anim id=\"28\"}}Fleur déjà plantée\nTu ne pourras arracher..."
    }
  },
  {
    "label": "013",
    "locale": {
      "EUde": "Farbe und Sorte sind mir egal.{{delay frames=\"20\"}} Also\nnicht lange rumtüfteln, sondern das\nBeet einfach vollpflanzen!",
      "EUen": "The type and color of the flowers\ndon't matter, so just fill that\nflower bed as fast as you can!",
      "EUes": "¡El tipo y el color dan igual!\nLo importante es llenar el\nparterre de flores cuanto antes.",
      "EUfr": "Allez, on remplit le parterre ! Peu\nimporte le type et la couleur des\nfleurs !",
      "EUit": "Il tipo e il colore dei fiori non sono\nimportanti. Bisogna piantare,\npiantare, piantare!",
      "JPja": "{{ruby charSpan=\"2\" value=\"しゅるい\"}}種類や{{ruby charSpan=\"1\" value=\"いろ\"}}色は　なんでもいいから、{{delay frames=\"10\"}}\nとにかく　{{ruby charSpan=\"3\" value=\"じかんない\"}}時間内に\nこの{{ruby charSpan=\"1\" value=\"か\"}}花だんを　{{ruby charSpan=\"1\" value=\"はな\"}}花で{{ruby charSpan=\"1\" value=\"う\"}}埋めつくすのじゃ！",
      "KRko": "종류나 색은 상관없으니{{delay frames=\"10\"}}\n무조건 시간 안에\n이 화단을 꽃으로 가득 채우게!",
      "USen": "The type and color of the flowers\ndon't matter, so just fill that\nflower bed as fast as you can!",
      "USes": "¡El tipo y el color dan igual!\nLo importante es llenar el\nparterre de flores cuanto antes.",
      "USfr": "Allez, on remplit le parterre! Peu\nimporte le type et la couleur des\nfleurs!"
    }
  },
  {
    "label": "014",
    "locale": {
      "EUde": "Was denn noch?{{delay frames=\"20\"}} Frisch ans Werk!{{delay frames=\"40\"}}\n{{fun_0003000E arg=\"\"}}{{fun_0002000E arg=\"\"}}{{fun_00030011 arg=\"0x0000\"}}\npflanzen, noch {{fun_0008000E arg=\"0x00CD0A00650069006E0065006E000800650069006E0065000800650069006E007300\"}}, noch {{fun_0008000E arg=\"0x00CD0A00650069006E0065006E000800650069006E0065000800650069006E007300\"}}...",
      "EUen": "What are you doing, sprout!\nFill that flower bed with\n{{fun_00030011 arg=\"0x0000\"}}!",
      "EUes": "¿Pero qué haces, niñ{{fun_0006000E arg=\"0x02006F0002006100\"}}? ¡Corre y\nplanta {{fun_0002000E arg=\"\"}}{{fun_00030011 arg=\"0x0000\"}}\nen ese parterre!\nBueno,{{delay frames=\"10\"}} con un{{fun_0012000E arg=\"0x100002006F00020061000000\"}} sol{{fun_0012000E arg=\"0x100002006F00020061000000\"}} no me basta.{{delay frames=\"10\"}}.{{delay frames=\"10\"}}.{{delay frames=\"10\"}}\n¡Intenta que rebose de esas flores!",
      "EUfr": "On s'endort ? Il reste de la place sur\nce parterre pour des fleurs de type\n{{fun_00030011 arg=\"0x0000\"}} !",
      "EUit": "Cosa stai facendo, giovinastr{{fun_0006000E arg=\"0x02006F0002006100\"}}?!\nTi avevo detto di piantare qualche\n{{fun_00030011 arg=\"0x0000\"}}!\nAnzi, piantane più che puoi!",
      "JPja": "とにかく、{{delay frames=\"10\"}}{{ruby charSpan=\"2\" value=\"じかん\"}}時間{{ruby charSpan=\"1\" value=\"ない\"}}内に　この{{ruby charSpan=\"1\" value=\"か\"}}花だんを\n{{fun_00030011 arg=\"0x0000\"}}で\n{{ruby charSpan=\"1\" value=\"う\"}}埋めつくすのじゃ！",
      "KRko": "다른 생각 말고{{delay frames=\"10\"}} 시간 안에 이 화단을\n{{fun_00030011 arg=\"0x0000\"}}{{fun_000E000E arg=\"0x04003CC75CB802005CB8\"}}\n채우는 데 집중해야 할 게야!",
      "USen": "What are you doing, sprout!\nFill that flower bed with\n{{fun_00030011 arg=\"0x0000\"}}!",
      "USes": "¿Pero qué haces, niñ{{fun_0006000E arg=\"0x02006F0002006100\"}}? ¡Corre y\nplanta {{fun_0002000E arg=\"\"}}{{fun_00030011 arg=\"0x0000\"}}\nen ese parterre!\nBueno,{{delay frames=\"10\"}} con un{{fun_0012000E arg=\"0x100002006F00020061000000\"}} sol{{fun_0012000E arg=\"0x100002006F00020061000000\"}} no me basta.{{delay frames=\"10\"}}.{{delay frames=\"10\"}}.{{delay frames=\"10\"}}\n¡Intenta que rebose de esas flores!",
      "USfr": "On s'endort? Il reste de la place sur\nce parterre pour des fleurs de type\n{{fun_00030011 arg=\"0x0000\"}}!"
    }
  },
  {
    "label": "015",
    "locale": {
      "EUde": "Hopp, hopp, den grünen Daumen\ngezückt und ab die Post!",
      "EUen": "The clock's ticking, whippersnapper!{{delay frames=\"20\"}}\nGet to planting!",
      "EUes": "¡El tiempo vuela, pequeñaj{{fun_0006000E arg=\"0x02006F0002006100\"}}!{{delay frames=\"20\"}}\n¡A plantar se ha dicho!",
      "EUfr": "Tic-tac, tic-tac, on plante du tac au\ntac !",
      "EUit": "Il tempo passa, giovincell{{fun_0006000E arg=\"0x02006F0002006100\"}}!{{delay frames=\"20\"}}\nPianta a più non posso!",
      "JPja": "ほれほれ、{{delay frames=\"10\"}}{{ruby charSpan=\"2\" value=\"じかん\"}}時間がないぞ！{{delay frames=\"20\"}}\n{{ruby charSpan=\"2\" value=\"しゅるい\"}}種類や{{ruby charSpan=\"1\" value=\"いろ\"}}色は　なんでもいいから、{{delay frames=\"10\"}}\n{{ruby charSpan=\"1\" value=\"はや\"}}早く{{ruby charSpan=\"1\" value=\"か\"}}花だんを　{{ruby charSpan=\"1\" value=\"はな\"}}花で{{ruby charSpan=\"1\" value=\"う\"}}埋めつくすのじゃ！",
      "KRko": "이보게!{{delay frames=\"10\"}} 시간이 없다네!{{delay frames=\"20\"}}\n종류나 색은 뭐든 괜찮으니{{delay frames=\"10\"}}\n어서 화단을 꽃으로 가득 채우게!",
      "USen": "The clock's ticking, whippersnapper!{{delay frames=\"20\"}}\nGet to planting!",
      "USes": "¡El tiempo vuela, pequeñaj{{fun_0006000E arg=\"0x02006F0002006100\"}}!{{delay frames=\"20\"}}\n¡A plantar se ha dicho!",
      "USfr": "Tic-tac, tic-tac, on plante du tac au\ntac!"
    }
  },
  {
    "label": "016",
    "locale": {
      "EUde": "Was denn noch?{{delay frames=\"20\"}} Pflanz das Beet\nrandvoll mit Blumen vom Typ\n{{fun_00030011 arg=\"0x0000\"}}.{{delay frames=\"20\"}} Klar?",
      "EUen": "The clock's ticking, whippersnapper!\nHurry up, and fill that flower bed\nwith {{fun_00030011 arg=\"0x0000\"}}!",
      "EUes": "¡El tiempo es oro, niñ{{fun_0006000E arg=\"0x02006F0002006100\"}}! ¡Corre y\nplanta {{fun_0002000E arg=\"\"}}{{fun_00030011 arg=\"0x0000\"}}\nen ese parterre!\nBueno,{{delay frames=\"10\"}} con un{{fun_0012000E arg=\"0x100002006F00020061000000\"}} sol{{fun_0012000E arg=\"0x100002006F00020061000000\"}} no me basta.{{delay frames=\"10\"}}.{{delay frames=\"10\"}}.{{delay frames=\"10\"}}\n¡Intenta que rebose de esas flores!",
      "EUfr": "Le temps va, le temps court, le\ntemps vole... Vite, plus de fleurs de\ntype {{fun_00030011 arg=\"0x0000\"}} !",
      "EUit": "Il tempo passa, giovincell{{fun_0006000E arg=\"0x02006F0002006100\"}}!\nTi avevo detto di piantare qualche\n{{fun_00030011 arg=\"0x0000\"}}!\nAnzi, piantane più che puoi!",
      "JPja": "ほれほれ、{{delay frames=\"10\"}}{{ruby charSpan=\"2\" value=\"じかん\"}}時間がないぞ！{{delay frames=\"20\"}}\n{{ruby charSpan=\"1\" value=\"はや\"}}早く　{{fun_00030011 arg=\"0x0000\"}}で\n{{ruby charSpan=\"1\" value=\"か\"}}花だんを　いっぱいにするのじゃ！",
      "KRko": "이런 이런,{{delay frames=\"10\"}} 시간이 얼마 안 남았어!{{delay frames=\"20\"}}\n빨리 {{fun_00030011 arg=\"0x0000\"}}{{fun_000E000E arg=\"0x04003CC75CB802005CB8\"}}\n화단을 꽉꽉 채우게!",
      "USen": "The clock's ticking, whippersnapper!\nHurry up, and fill that flower bed\nwith {{fun_00030011 arg=\"0x0000\"}}!",
      "USes": "¡El tiempo es oro, niñ{{fun_0006000E arg=\"0x02006F0002006100\"}}! ¡Corre y\nplanta {{fun_0002000E arg=\"\"}}{{fun_00030011 arg=\"0x0000\"}}\nen ese parterre!\nBueno,{{delay frames=\"10\"}} con un{{fun_0012000E arg=\"0x100002006F00020061000000\"}} sol{{fun_0012000E arg=\"0x100002006F00020061000000\"}} no me basta.{{delay frames=\"10\"}}.{{delay frames=\"10\"}}.{{delay frames=\"10\"}}\n¡Intenta que rebose de esas flores!",
      "USfr": "Le temps va, le temps court, le\ntemps vole... Vite, plus de fleurs de\ntype {{fun_00030011 arg=\"0x0000\"}}!"
    }
  },
  {
    "label": "018",
    "locale": {
      "EUde": "Gut gemacht, Grünschnabel!{{delay frames=\"30\"}}\nDann wollen wir mal sehen,\nwas deine Gärtnerkünste taugen...{{fun_00090007 arg=\"0x5A000000\"}}",
      "EUen": "Good work, young {{fun_0006000E arg=\"0x06006D0061006E0008006C00610064007900\"}}!{{delay frames=\"30\"}}\nLet's see how you fared.{{fun_00090007 arg=\"0x5A000000\"}}",
      "EUes": "¡Buen trabajo, {{fun_0006000E arg=\"0x140068006F006D006200720065006300690074006F0012006D0075006A00650072006300690074006100\"}}!{{delay frames=\"30\"}}\nVeamos cómo ha ido la cosa.{{fun_00090007 arg=\"0x5A000000\"}}",
      "EUfr": "Bien joué, {{fun_0006000E arg=\"0x0A00700065007400690074000C00700065007400690074006500\"}} !{{delay frames=\"30\"}} Voyons voir le\nbeau résultat que tu nous as fait...{{fun_00090007 arg=\"0x5A000000\"}}",
      "EUit": "Ben fatto, {{fun_0006000E arg=\"0x1600670069006F00760069006E0061007300740072006F001600670069006F00760069006E0061007300740072006100\"}}!{{delay frames=\"30\"}}\nVediamo com'è andata la tua prova.{{fun_00090007 arg=\"0x5A000000\"}}",
      "JPja": "ご{{ruby charSpan=\"2\" value=\"くろう\"}}苦労じゃった！{{delay frames=\"30\"}}\n{{ruby charSpan=\"2\" value=\"こんかい\"}}今回の{{ruby charSpan=\"2\" value=\"せいせき\"}}成績は　どうなるかのう！{{fun_00090007 arg=\"0x5A000000\"}}",
      "KRko": "수고했네!{{delay frames=\"30\"}}\n이번 성적은 어찌 나왔을꼬?{{fun_00090007 arg=\"0x5A000000\"}}",
      "USen": "Good work, young {{fun_0006000E arg=\"0x06006D0061006E0008006C00610064007900\"}}!{{delay frames=\"30\"}}\nLet's see how you fared.{{fun_00090007 arg=\"0x5A000000\"}}",
      "USes": "¡Buen trabajo, {{fun_0006000E arg=\"0x140068006F006D006200720065006300690074006F0012006D0075006A00650072006300690074006100\"}}!{{delay frames=\"30\"}}\nVeamos cómo ha ido la cosa.{{fun_00090007 arg=\"0x5A000000\"}}",
      "USfr": "Bien joué, {{fun_0006000E arg=\"0x0A00700065007400690074000C00700065007400690074006500\"}}!{{delay frames=\"30\"}} Voyons voir le\nbeau résultat que tu nous as fait...{{fun_00090007 arg=\"0x5A000000\"}}"
    }
  },
  {
    "label": "019",
    "locale": {
      "EUde": "Gut gemacht, ihr Grünschnäbel!{{delay frames=\"30\"}}\nDann wollen wir mal sehen,\nwas eure Gärtnerkünste taugen...{{fun_00090007 arg=\"0x5A000000\"}}",
      "EUen": "Good work,{{delay frames=\"5\"}} you two.{{delay frames=\"30\"}}\nLet's see how you fared.{{fun_00090007 arg=\"0x5A000000\"}}",
      "EUes": "Buen trabajo,{{delay frames=\"5\"}} pareja.{{delay frames=\"30\"}}\nVeamos cómo ha ido la cosa.{{fun_00090007 arg=\"0x5A000000\"}}",
      "EUfr": "Bien joué, vous deux !{{delay frames=\"30\"}} Voyons voir\nle beau résultat que vous nous avez\nfait...{{fun_00090007 arg=\"0x5A000000\"}}",
      "EUit": "Ehi, voi due!{{delay frames=\"5\"}} Ben fatto.{{delay frames=\"30\"}}\nVediamo com'è andata\nla vostra prova.{{fun_00090007 arg=\"0x5A000000\"}}",
      "JPja": "{{ruby charSpan=\"2\" value=\"ふたり\"}}二人とも、{{delay frames=\"5\"}}ご{{ruby charSpan=\"2\" value=\"くろう\"}}苦労じゃった！{{delay frames=\"30\"}}\n{{ruby charSpan=\"2\" value=\"こんかい\"}}今回の{{ruby charSpan=\"2\" value=\"せいせき\"}}成績は　どうなるかのう！{{fun_00090007 arg=\"0x5A000000\"}}",
      "KRko": "두 사람 다{{delay frames=\"5\"}} 수고했네!{{delay frames=\"30\"}}\n이번 성적은 어찌 나왔을꼬?{{fun_00090007 arg=\"0x5A000000\"}}",
      "USen": "Good work,{{delay frames=\"5\"}} you two.{{delay frames=\"30\"}}\nLet's see how you fared.{{fun_00090007 arg=\"0x5A000000\"}}",
      "USes": "Buen trabajo,{{delay frames=\"5\"}} pareja.{{delay frames=\"30\"}}\nVeamos cómo ha ido la cosa.{{fun_00090007 arg=\"0x5A000000\"}}",
      "USfr": "Bien joué, vous deux!{{delay frames=\"30\"}} Voyons voir\nle beau résultat que vous nous avez\nfait...{{fun_00090007 arg=\"0x5A000000\"}}"
    }
  },
  {
    "label": "020",
    "locale": {
      "EUde": "Gut gemacht, Sprösslinge!{{delay frames=\"30\"}}\nDann wollen wir mal sehen,\nwas eure Gärtnerkünste taugen...{{fun_00090007 arg=\"0x5A000000\"}}",
      "EUen": "Good work{{delay frames=\"5\"}}, sprouts.{{delay frames=\"30\"}}\nLet's see how you fared.{{fun_00090007 arg=\"0x5A000000\"}}",
      "EUes": "Buen trabajo, {{delay frames=\"5\"}}granujillas.{{delay frames=\"30\"}}\nVeamos cómo ha ido la cosa.{{fun_00090007 arg=\"0x5A000000\"}}",
      "EUfr": "Bien joué, tout le monde !{{delay frames=\"30\"}} Voyons\nvoir le beau résultat que vous nous\navez fait...{{fun_00090007 arg=\"0x5A000000\"}}",
      "EUit": "Un gran bel lavoro{{delay frames=\"5\"}}, gente.{{delay frames=\"30\"}}\nVediamo com'è andata\nla vostra prova.{{fun_00090007 arg=\"0x5A000000\"}}",
      "JPja": "{{ruby charSpan=\"1\" value=\"みな\"}}皆の{{ruby charSpan=\"1\" value=\"もの\"}}者、{{delay frames=\"5\"}}ご{{ruby charSpan=\"2\" value=\"くろう\"}}苦労じゃった！{{delay frames=\"30\"}}\n{{ruby charSpan=\"2\" value=\"こんかい\"}}今回の{{ruby charSpan=\"2\" value=\"せいせき\"}}成績は　どうなるかのう！{{fun_00090007 arg=\"0x5A000000\"}}",
      "KRko": "제군들 모두 {{delay frames=\"5\"}}수고했네!{{delay frames=\"30\"}}\n이번 성적은 어찌 나왔을꼬?{{fun_00090007 arg=\"0x5A000000\"}}",
      "USen": "Good work{{delay frames=\"5\"}}, sprouts.{{delay frames=\"30\"}}\nLet's see how you fared.{{fun_00090007 arg=\"0x5A000000\"}}",
      "USes": "Buen trabajo, {{delay frames=\"5\"}}granujillas.{{delay frames=\"30\"}}\nVeamos cómo ha ido la cosa.{{fun_00090007 arg=\"0x5A000000\"}}",
      "USfr": "Bien joué, tout le monde!{{delay frames=\"30\"}} Voyons\nvoir le beau résultat que vous nous\navez fait...{{fun_00090007 arg=\"0x5A000000\"}}"
    }
  },
  {
    "label": "021",
    "locale": {
      "EUde": "{{size value=\"150\"}}Aus! {{delay frames=\"20\"}}Vorbei!{{size value=\"100\"}}{{fun_00090007 arg=\"0x3C000000\"}}",
      "EUen": "{{size value=\"150\"}}\nGame over!{{size value=\"100\"}}{{fun_00090007 arg=\"0x3C000000\"}}",
      "EUes": "{{size value=\"150\"}}\n¡Se acabó!{{size value=\"100\"}}{{fun_00090007 arg=\"0x3C000000\"}}",
      "EUfr": "{{size value=\"150\"}}\nTerminé !{{size value=\"100\"}}{{fun_00090007 arg=\"0x3C000000\"}}",
      "EUit": "{{size value=\"150\"}}\nFinito!{{size value=\"100\"}}{{fun_00090007 arg=\"0x3C000000\"}}",
      "JPja": "{{size value=\"150\"}}\nそこまでっ！{{size value=\"100\"}}{{fun_00090007 arg=\"0x3C000000\"}}",
      "KRko": "{{size value=\"150\"}}\n그만!{{size value=\"100\"}}{{fun_00090007 arg=\"0x3C000000\"}}",
      "USen": "{{size value=\"150\"}}\nTime's up!{{size value=\"100\"}}{{fun_00090007 arg=\"0x3C000000\"}}",
      "USes": "{{size value=\"150\"}}\n¡Se acabó el tiempo!{{size value=\"100\"}}{{fun_00090007 arg=\"0x3C000000\"}}",
      "USfr": "{{size value=\"150\"}}\nTerminé!{{size value=\"100\"}}{{fun_00090007 arg=\"0x3C000000\"}}"
    }
  },
  {
    "label": "022",
    "locale": {
      "EUde": "",
      "EUen": "",
      "EUes": "",
      "EUfr": "",
      "EUit": "",
      "JPja": "",
      "KRko": "",
      "USen": "",
      "USes": "",
      "USfr": ""
    }
  },
  {
    "label": "023",
    "locale": {
      "EUde": "Die Zeit ist um!{{delay frames=\"60\"}}\nFür Trödelei gibt's keine Medaillen!",
      "EUen": "Looks like the time's up!{{delay frames=\"60\"}}\nSeems some gardening skills\nare in need of brushing up!",
      "EUes": "¡Se acabó el tiempo!{{delay frames=\"60\"}}\nMe temo que no habrá medallas\npor esta vez.",
      "EUfr": "C'était trop lent, trop mou !{{delay frames=\"60\"}} Il va\nfalloir retravailler ça, hé hé houerf !",
      "EUit": "Il tempo è scaduto!{{delay frames=\"60\"}}\nVisto cosa succede quando\nnon si ha il pollice verde...?",
      "JPja": "・{{delay frames=\"5\"}}・{{delay frames=\"5\"}}・{{delay frames=\"5\"}}{{ruby charSpan=\"2\" value=\"ざんねん\"}}残念ながら　{{ruby charSpan=\"3\" value=\"じかんぎ\"}}時間切れじゃ！{{delay frames=\"60\"}}\nよって{{ruby charSpan=\"2\" value=\"こんかい\"}}今回は　メダルなし！",
      "KRko": "・{{delay frames=\"5\"}}・{{delay frames=\"5\"}}・{{delay frames=\"5\"}}안타깝지만 시간을 넘겼구먼!{{delay frames=\"60\"}}\n따라서 메달 선물은 없네!",
      "USen": "Looks like the time's up!{{delay frames=\"60\"}}\nSeems some gardening skills\nare in need of brushing up!",
      "USes": "¡Se acabó el tiempo!{{delay frames=\"60\"}}\nMe temo que no habrá medallas\npor esta vez.",
      "USfr": "C'était trop lent, trop mou!{{delay frames=\"60\"}} Il va\nfalloir retravailler ça, hé hé houerf!"
    }
  },
  {
    "label": "024",
    "locale": {
      "EUde": "Es {{fun_0009000E arg=\"0x01CD0A0077006100720065006E0006007700610072000A0077006100720065006E00\"}} sogar noch {{color id=\"2\"}}{{fun_00070004 arg=\"0x0100\"}} {{fun_0009000E arg=\"0x01CD0E004D0069006E007500740065006E000C004D0069006E007500740065000E004D0069006E007500740065006E00\"}}\nund {{fun_00070004 arg=\"0x0200\"}} {{fun_0009000E arg=\"0x02CD1000530065006B0075006E00640065006E000E00530065006B0075006E00640065001000530065006B0075006E00640065006E00\"}}{{color id=\"65535\"}} übrig,{{delay frames=\"8\"}}\nhe he huff!",
      "EUen": "You filled the flower bed with\n{{color id=\"2\"}}{{fun_00070004 arg=\"0x0100\"}} {{fun_0009000E arg=\"0x01CD0E006D0069006E0075007400650073000C006D0069006E007500740065000E006D0069006E007500740065007300\"}} and {{color id=\"2\"}}{{fun_00070004 arg=\"0x0200\"}} {{fun_0009000E arg=\"0x02CD0E007300650063006F006E00640073000C007300650063006F006E0064000E007300650063006F006E0064007300\"}}\n{{color id=\"2\"}}{{color id=\"65535\"}}to spare!",
      "EUes": "¡El parterre está lleno y han\nsobrado {{color id=\"2\"}}{{fun_00070004 arg=\"0x0100\"}} {{fun_0009000E arg=\"0x01CD0E006D0069006E00750074006F0073000C006D0069006E00750074006F000E006D0069006E00750074006F007300\"}} y {{color id=\"2\"}}{{fun_00070004 arg=\"0x0200\"}} {{fun_0009000E arg=\"0x02CD100073006500670075006E0064006F0073000E0073006500670075006E0064006F00100073006500670075006E0064006F007300\"}}{{color id=\"2\"}}{{color id=\"65535\"}}!",
      "EUfr": "Le temps restant à la fin de\nl'épreuve est de :\n{{color id=\"2\"}}{{fun_00070004 arg=\"0x0100\"}} {{color id=\"2\"}}{{fun_0009000E arg=\"0x01CD0C006D0069006E007500740065000C006D0069006E007500740065000E006D0069006E007500740065007300\"}} {{color id=\"2\"}}{{color id=\"2\"}}{{fun_00070004 arg=\"0x0200\"}} {{color id=\"2\"}}{{fun_0009000E arg=\"0x02CD0E007300650063006F006E00640065000E007300650063006F006E006400650010007300650063006F006E00640065007300\"}} {{color id=\"2\"}}{{color id=\"2\"}}{{color id=\"65535\"}}!",
      "EUit": "Quando l'aiuola era finalmente\nriempita, mancavano ancora\n{{color id=\"2\"}}{{fun_00070004 arg=\"0x0100\"}} {{fun_0009000E arg=\"0x01CD0C006D0069006E007500740069000C006D0069006E00750074006F000C006D0069006E00750074006900\"}} e {{fun_00070004 arg=\"0x0200\"}} {{fun_0009000E arg=\"0x02CD0E007300650063006F006E00640069000E007300650063006F006E0064006F000E007300650063006F006E0064006900\"}}{{color id=\"65535\"}}!",
      "JPja": "{{ruby charSpan=\"1\" value=\"のこ\"}}残り{{ruby charSpan=\"2\" value=\"じかん\"}}時間は{{delay frames=\"5\"}}・{{delay frames=\"5\"}}・{{delay frames=\"5\"}}・{{delay frames=\"60\"}}\n　　　　　　{{color id=\"2\"}}{{fun_00070004 arg=\"0x0100\"}}{{fun_000B000E arg=\"\"}}{{color id=\"2\"}}{{fun_00070004 arg=\"0x0200\"}}{{ruby charSpan=\"1\" value=\"びょう\"}}秒{{color id=\"2\"}}{{color id=\"65535\"}}！",
      "KRko": "남은 시간은{{delay frames=\"5\"}}・{{delay frames=\"5\"}}・{{delay frames=\"5\"}}・{{delay frames=\"60\"}}\n　　　　　　{{color id=\"2\"}}{{fun_00070004 arg=\"0x0100\"}}분 {{color id=\"2\"}}{{fun_00070004 arg=\"0x0200\"}}초{{color id=\"2\"}}{{color id=\"65535\"}}!",
      "USen": "You filled the flower bed with\n{{color id=\"2\"}}{{fun_00070004 arg=\"0x0100\"}} {{fun_0009000E arg=\"0x01CD0E006D0069006E0075007400650073000C006D0069006E007500740065000E006D0069006E007500740065007300\"}} and {{color id=\"2\"}}{{fun_00070004 arg=\"0x0200\"}} {{fun_0009000E arg=\"0x02CD0E007300650063006F006E00640073000C007300650063006F006E0064000E007300650063006F006E0064007300\"}}\n{{color id=\"2\"}}{{color id=\"65535\"}}to spare!",
      "USes": "¡El parterre está lleno y han\nsobrado {{color id=\"2\"}}{{fun_00070004 arg=\"0x0100\"}} {{fun_0009000E arg=\"0x01CD0E006D0069006E00750074006F0073000C006D0069006E00750074006F000E006D0069006E00750074006F007300\"}} y {{color id=\"2\"}}{{fun_00070004 arg=\"0x0200\"}} {{fun_0009000E arg=\"0x02CD100073006500670075006E0064006F0073000E0073006500670075006E0064006F00100073006500670075006E0064006F007300\"}}{{color id=\"2\"}}{{color id=\"65535\"}}!",
      "USfr": "Le temps restant à la fin de\nl'épreuve est de :\n{{color id=\"2\"}}{{fun_00070004 arg=\"0x0100\"}} {{fun_0009000E arg=\"0x01CD0C006D0069006E007500740065000C006D0069006E007500740065000E006D0069006E007500740065007300\"}} {{fun_00070004 arg=\"0x0200\"}} {{fun_0009000E arg=\"0x02CD0E007300650063006F006E00640065000E007300650063006F006E006400650010007300650063006F006E00640065007300\"}}{{color id=\"65535\"}}!"
    }
  },
  {
    "label": "025",
    "locale": {
      "EUde": "Aber {{color id=\"2\"}}{{fun_00070004 arg=\"0x0600\"}} falsche {{fun_0009000E arg=\"0x06CD0C0042006C0075006D0065006E000A0042006C0075006D0065000C0042006C0075006D0065006E00\"}}{{color id=\"65535\"}}...{{delay frames=\"20\"}}\nDafür gibt's Strafsekunden,\nhe he huff!\nDie muss ich dir abziehen.{{delay frames=\"20\"}} Und\nschon hast du nur noch {{color id=\"2\"}}{{fun_00070004 arg=\"0x0300\"}} {{fun_0009000E arg=\"0x03CD0E004D0069006E007500740065006E000C004D0069006E007500740065000E004D0069006E007500740065006E00\"}}\nund {{fun_00070004 arg=\"0x0400\"}} {{fun_0009000E arg=\"0x04CD1000530065006B0075006E00640065006E000E00530065006B0075006E00640065001000530065006B0075006E00640065006E00\"}}{{color id=\"65535\"}} übrig!",
      "EUen": "But you planted {{color id=\"2\"}}{{fun_00070004 arg=\"0x0600\"}} {{color id=\"65535\"}}of the wrong\ntype of flower, {{delay frames=\"20\"}}so that's gonna hurt\nyour time.\nAfter your misplant penalties,\nyour remaining time was\n{{color id=\"2\"}}{{fun_00070004 arg=\"0x0300\"}} {{fun_0009000E arg=\"0x03CD0E006D0069006E0075007400650073000C006D0069006E007500740065000E006D0069006E007500740065007300\"}} and {{color id=\"2\"}}{{fun_00070004 arg=\"0x0400\"}} {{fun_0009000E arg=\"0x04CD0E007300650063006F006E00640073000C007300650063006F006E0064000E007300650063006F006E0064007300\"}}{{color id=\"2\"}}{{color id=\"65535\"}}.",
      "EUes": "Me temo que se {{fun_0009000E arg=\"0x06CD0600680061006E000400680061000600680061006E00\"}} plantado {{color id=\"2\"}}{{fun_00070004 arg=\"0x0600\"}} {{color id=\"65535\"}}\n{{fun_0009000E arg=\"0x06CD0C0066006C006F00720065007300080066006C006F0072000C0066006C006F00720065007300\"}} {{fun_0009000E arg=\"0x06CD1600650071007500690076006F00630061006400610073001400650071007500690076006F0063006100640061001600650071007500690076006F0063006100640061007300\"}}, {{delay frames=\"20\"}}así que tendré\nque restar algo del tiempo de sobra.\nTras deducir las penalizaciones,\nhan sobrado {{color id=\"2\"}}{{fun_00070004 arg=\"0x0300\"}} {{fun_0009000E arg=\"0x03CD0E006D0069006E00750074006F0073000C006D0069006E00750074006F000E006D0069006E00750074006F007300\"}}\ny {{color id=\"2\"}}{{fun_00070004 arg=\"0x0400\"}} {{fun_0009000E arg=\"0x04CD100073006500670075006E0064006F0073000E0073006500670075006E0064006F00100073006500670075006E0064006F007300\"}}{{color id=\"2\"}}{{color id=\"65535\"}}.",
      "EUfr": "Mais attention ! Des fleurs du\nmauvais type ont été plantées...\n{{fun_00070004 arg=\"0x0600\"}}, très précisément !\nDu coup, j'applique une pénalité et\nle temps restant n'est plus que de :\n{{color id=\"2\"}}{{fun_00070004 arg=\"0x0300\"}} {{color id=\"2\"}}{{fun_0009000E arg=\"0x03CD0C006D0069006E007500740065000C006D0069006E007500740065000E006D0069006E007500740065007300\"}} {{color id=\"2\"}}{{color id=\"2\"}}{{fun_00070004 arg=\"0x0400\"}} {{color id=\"2\"}}{{fun_0009000E arg=\"0x04CD0E007300650063006F006E00640065000E007300650063006F006E006400650010007300650063006F006E00640065007300\"}} {{color id=\"2\"}}{{color id=\"2\"}}{{color id=\"65535\"}}!",
      "EUit": "Però {{color id=\"2\"}}{{fun_00070004 arg=\"0x0600\"}} {{color id=\"65535\"}}{{fun_0009000E arg=\"0x06CD1400660069006F0072006900200073006F006E006F000E00660069006F00720065002000E8001400660069006F0072006900200073006F006E006F00\"}}\ndel tipo sbagliato, {{delay frames=\"20\"}}quindi\nscatta una penalità.\nContando questa penalità,\nil tempo rimanente diventa\n{{color id=\"2\"}}{{fun_00070004 arg=\"0x0300\"}} {{fun_0009000E arg=\"0x03CD0C006D0069006E007500740069000C006D0069006E00750074006F000C006D0069006E00750074006900\"}} e {{color id=\"2\"}}{{fun_00070004 arg=\"0x0400\"}} {{fun_0009000E arg=\"0x04CD0E007300650063006F006E00640069000E007300650063006F006E0064006F000E007300650063006F006E0064006900\"}}{{color id=\"2\"}}{{color id=\"65535\"}}!",
      "JPja": "ただし！{{delay frames=\"15\"}}\n{{color id=\"2\"}}{{fun_00070004 arg=\"0x0600\"}}{{fun_000C000E arg=\"\"}}{{color id=\"65535\"}}の　{{ruby charSpan=\"1\" value=\"う\"}}植え{{ruby charSpan=\"2\" value=\"まちが\"}}間違いがあったから\nその{{ruby charSpan=\"1\" value=\"ぶん\"}}分を　{{ruby charSpan=\"1\" value=\"のこ\"}}残り{{ruby charSpan=\"2\" value=\"じかん\"}}時間から{{ruby charSpan=\"1\" value=\"ひ\"}}引くと{{delay frames=\"8\"}}・{{delay frames=\"8\"}}・{{delay frames=\"8\"}}・\n\n　　　　　　{{color id=\"2\"}}{{fun_00070004 arg=\"0x0300\"}}{{fun_000B000E arg=\"\"}}{{color id=\"2\"}}{{fun_00070004 arg=\"0x0400\"}}{{ruby charSpan=\"1\" value=\"びょう\"}}秒{{color id=\"2\"}}{{color id=\"65535\"}}！",
      "KRko": "그러나!{{delay frames=\"15\"}}\n{{color id=\"2\"}}{{fun_00070004 arg=\"0x0600\"}}송이{{color id=\"65535\"}}를 잘못 심었으니\n기록에 벌점을 반영하면{{delay frames=\"8\"}}・{{delay frames=\"8\"}}・{{delay frames=\"8\"}}・\n\n　　　　　　{{color id=\"2\"}}{{fun_00070004 arg=\"0x0300\"}}분 {{color id=\"2\"}}{{fun_00070004 arg=\"0x0400\"}}초{{color id=\"2\"}}{{color id=\"65535\"}}가 되겠군!",
      "USen": "But you planted {{color id=\"2\"}}{{fun_00070004 arg=\"0x0600\"}} {{color id=\"65535\"}}of the wrong\ntype of flower, {{delay frames=\"20\"}}so that's gonna hurt\nyour time.\nAfter your misplant penalties,\nyour remaining time was\n{{color id=\"2\"}}{{fun_00070004 arg=\"0x0300\"}} {{fun_0009000E arg=\"0x03CD0E006D0069006E0075007400650073000C006D0069006E007500740065000E006D0069006E007500740065007300\"}} and {{color id=\"2\"}}{{fun_00070004 arg=\"0x0400\"}} {{fun_0009000E arg=\"0x04CD0E007300650063006F006E00640073000C007300650063006F006E0064000E007300650063006F006E0064007300\"}}{{color id=\"2\"}}{{color id=\"65535\"}}.",
      "USes": "Me temo que se {{fun_0009000E arg=\"0x06CD0600680061006E000400680061000600680061006E00\"}} plantado {{color id=\"2\"}}{{fun_00070004 arg=\"0x0600\"}} {{color id=\"65535\"}}\n{{fun_0009000E arg=\"0x06CD0C0066006C006F00720065007300080066006C006F0072000C0066006C006F00720065007300\"}} {{fun_0009000E arg=\"0x06CD1600650071007500690076006F00630061006400610073001400650071007500690076006F0063006100640061001600650071007500690076006F0063006100640061007300\"}}, {{delay frames=\"20\"}}así que tendré\nque restar algo del tiempo de sobra.\nTras deducir las penalizaciones,\nhan sobrado {{color id=\"2\"}}{{fun_00070004 arg=\"0x0300\"}} {{fun_0009000E arg=\"0x03CD0E006D0069006E00750074006F0073000C006D0069006E00750074006F000E006D0069006E00750074006F007300\"}}\ny {{color id=\"2\"}}{{fun_00070004 arg=\"0x0400\"}} {{fun_0009000E arg=\"0x04CD100073006500670075006E0064006F0073000E0073006500670075006E0064006F00100073006500670075006E0064006F007300\"}}{{color id=\"2\"}}{{color id=\"65535\"}}.",
      "USfr": "Mais attention! Des fleurs du\nmauvais type ont été plantées...\n{{fun_00070004 arg=\"0x0600\"}}, très précisément!\nDu coup, j'applique une pénalité et\nle temps restant n'est plus que de :\n{{color id=\"2\"}}{{fun_00070004 arg=\"0x0300\"}} {{fun_0009000E arg=\"0x03CD0C006D0069006E007500740065000C006D0069006E007500740065000E006D0069006E007500740065007300\"}} {{fun_00070004 arg=\"0x0400\"}} {{fun_0009000E arg=\"0x04CD0E007300650063006F006E00640065000E007300650063006F006E006400650010007300650063006F006E00640065007300\"}}{{color id=\"65535\"}}!"
    }
  },
  {
    "label": "026",
    "locale": {
      "EUde": "{{anim id=\"1\"}}Oho, kein einziger Fehler!{{delay frames=\"20\"}}\nSchade, dann kann ich ja gar keine\nStrafsekunden vergeben.",
      "EUen": "{{anim id=\"1\"}}You didn't misplant any flowers,\nso you get away without a penalty.\n",
      "EUes": "{{anim id=\"1\"}}El parterre se ha llenado con las\nflores correctas, así que no habrá\npenalizaciones.",
      "EUfr": "{{anim id=\"1\"}}Bravo, aucune fleur du mauvais type\nn'a été plantée, donc je n'applique\naucune pénalité !",
      "EUit": "{{anim id=\"1\"}}Non sono stati piantati fiori\ndi tipo sbagliato, quindi\nnon ci saranno penalità.",
      "JPja": "{{anim id=\"1\"}}{{ruby charSpan=\"1\" value=\"う\"}}植え{{ruby charSpan=\"2\" value=\"まちが\"}}間違いは　なかったようじゃから、{{delay frames=\"10\"}}\nペナルティは　ナシじゃ！",
      "KRko": "{{anim id=\"1\"}}잘못 심은 꽃이 없었으니{{delay frames=\"10\"}}\n벌점도 없구만그래!",
      "USen": "{{anim id=\"1\"}}You didn't misplant any flowers,\nso you get away without a penalty.\n",
      "USes": "{{anim id=\"1\"}}El parterre se ha llenado con las\nflores correctas, así que no habrá\npenalizaciones.",
      "USfr": "{{anim id=\"1\"}}Bravo, aucune fleur du mauvais type\nn'a été plantée, donc je n'applique\naucune pénalité!"
    }
  },
  {
    "label": "027",
    "locale": {
      "EUde": "Mit Strafsekunden liegt die\nZeit leider über der Begrenzung.{{pageBreak}}Darum gibt's auch keine Belohnung.{{delay frames=\"20\"}}\nAber wie man so schön sagt:{{delay frames=\"40\"}}\nNeues Spiel, neues Glück!",
      "EUen": "Tough luck!{{delay frames=\"20\"}} The misplant penalty\nputs you over the time limit.{{pageBreak}}That means you'll be leaving\nempty handed today.\nBetter luck next time!",
      "EUes": "¡Mala suerte!{{delay frames=\"20\"}} Las penalizaciones por\nplantar flores equivocadas provocan\nque se rebase el tiempo límite.\nEn otras palabras, hoy no hay\nentrega de medallas, lo siento.\n¡Hasta la próxima!",
      "EUfr": "Ouille !{{delay frames=\"20\"}} La pénalité pour mauvais\nplantage aggravé entraîne un\ndépassement du temps limite !\nAutrement dit : merci d'avoir\nparticipé et à bientôt. Avec plus de\nchance, j'espère !",
      "EUit": "Accipicchia, che peccato!{{delay frames=\"20\"}}\nCon la penalità è stato sforato\nil tempo massimo.\nQuindi niente premi né medaglie.\nCoraggio, sarà per la prossima\nvolta!",
      "JPja": "むむぅ{{delay frames=\"8\"}}・{{delay frames=\"8\"}}・{{delay frames=\"8\"}}・{{delay frames=\"15\"}}\nペナルティによって、{{ruby charSpan=\"4\" value=\"せいげんじかん\"}}制限時間を\nオーバーしてしまったのう{{delay frames=\"8\"}}・{{delay frames=\"8\"}}・{{delay frames=\"8\"}}・{{pageBreak}}よって　{{ruby charSpan=\"2\" value=\"ざんねん\"}}残念ながら{{delay frames=\"5\"}}\n{{ruby charSpan=\"2\" value=\"こんかい\"}}今回は　メダルなしじゃ！",
      "KRko": "에구구{{delay frames=\"8\"}}・{{delay frames=\"8\"}}・{{delay frames=\"8\"}}・{{delay frames=\"15\"}}\n벌점 때문에 제한 시간을\n넘겼네그려{{delay frames=\"8\"}}・{{delay frames=\"8\"}}・{{delay frames=\"8\"}}・{{pageBreak}}안타깝지만{{delay frames=\"5\"}}\n이번에는 메달 선물이 없다네!",
      "USen": "Tough luck!{{delay frames=\"20\"}} The misplant penalty\nputs you over the time limit.{{pageBreak}}That means you'll be leaving\nempty handed today.\nBetter luck next time!",
      "USes": "¡Mala suerte!{{delay frames=\"20\"}} Las penalizaciones por\nplantar flores equivocadas provocan\nque se rebase el tiempo límite.\nEn otras palabras, hoy no hay\nentrega de medallas, lo siento.\n¡Hasta la próxima!",
      "USfr": "Ouille!{{delay frames=\"20\"}} La pénalité pour mauvais\nplantage aggravé entraîne un\ndépassement du temps limite!\nAutrement dit : merci d'avoir\nparticipé et à bientôt. Avec plus de\nchance, j'espère!"
    }
  },
  {
    "label": "028",
    "locale": {
      "EUde": "Bei meinem Rückenpanzer!{{delay frames=\"20\"}}\nBitte sehr,{{color id=\"2\"}}{{delay frames=\"8\"}} {{fun_00070004 arg=\"0x0000\"}} {{fun_0009000E arg=\"0x00CD12004D0065006400610069006C006C0065006E0010004D0065006400610069006C006C00650012004D0065006400610069006C006C0065006E00\"}}{{color id=\"65535\"}}!",
      "EUen": "By the skin of your teeth!\nHere you go—{{color id=\"2\"}}{{fun_00070004 arg=\"0x0000\"}} {{color id=\"2\"}}{{fun_0009000E arg=\"0x00CD0C006D006500640061006C0073000A006D006500640061006C000C006D006500640061006C007300\"}}{{color id=\"2\"}}{{color id=\"65535\"}}!",
      "EUes": "¡Por los pelos, pero aquí tienes\n{{color id=\"2\"}}{{fun_00070004 arg=\"0x0000\"}} {{fun_0009000E arg=\"0x00CD10006D006500640061006C006C00610073000E006D006500640061006C006C00610010006D006500640061006C006C0061007300\"}}{{color id=\"65535\"}}!",
      "EUfr": "Nom d'une tortue édentée ! \nÇa nous fait... {{color id=\"2\"}}{{fun_00070004 arg=\"0x0000\"}} {{color id=\"2\"}}{{fun_0009000E arg=\"0x00CD10006D00E9006400610069006C006C00650010006D00E9006400610069006C006C00650012006D00E9006400610069006C006C0065007300\"}} {{color id=\"2\"}}{{color id=\"65535\"}}!",
      "EUit": "Per un pelo!\nEcco {{color id=\"2\"}}{{fun_00070004 arg=\"0x0000\"}} {{fun_0009000E arg=\"0x00CD10006D0065006400610067006C006900650010006D0065006400610067006C006900610010006D0065006400610067006C0069006500\"}}{{color id=\"65535\"}}!",
      "JPja": "{{ruby charSpan=\"2\" value=\"みごと\"}}見事ツアーの{{ruby charSpan=\"2\" value=\"もくてき\"}}目的を{{delay frames=\"5\"}}\n{{ruby charSpan=\"1\" value=\"は\"}}果たした{{ruby charSpan=\"2\" value=\"きねん\"}}記念として、{{delay frames=\"10\"}}\nメダルを　{{color id=\"2\"}}{{fun_00070004 arg=\"0x0000\"}}{{ruby charSpan=\"1\" value=\"まい\"}}枚{{color id=\"65535\"}}やろう！",
      "KRko": "이번 투어의 목표를{{delay frames=\"5\"}}\n달성한 기념으로{{delay frames=\"10\"}}\n메달 {{color id=\"2\"}}{{fun_00070004 arg=\"0x0000\"}}개{{color id=\"65535\"}}를 주지!",
      "USen": "By the skin of your teeth!\nHere you go—{{color id=\"2\"}}{{fun_00070004 arg=\"0x0000\"}} {{color id=\"2\"}}{{fun_0009000E arg=\"0x00CD0C006D006500640061006C0073000A006D006500640061006C000C006D006500640061006C007300\"}}{{color id=\"2\"}}{{color id=\"65535\"}}!",
      "USes": "¡Por los pelos, pero aquí tienes\n{{color id=\"2\"}}{{fun_00070004 arg=\"0x0000\"}} {{fun_0009000E arg=\"0x00CD10006D006500640061006C006C00610073000E006D006500640061006C006C00610010006D006500640061006C006C0061007300\"}}{{color id=\"65535\"}}!",
      "USfr": "Nom d'une tortue édentée! \nÇa nous fait... {{color id=\"2\"}}{{fun_00070004 arg=\"0x0000\"}} {{fun_0009000E arg=\"0x00CD10006D00E9006400610069006C006C00650010006D00E9006400610069006C006C00650012006D00E9006400610069006C006C0065007300\"}}{{color id=\"65535\"}}!"
    }
  },
  {
    "label": "029",
    "locale": {
      "EUde": "Ich habe das schon schneller\ngesehen.{{pageBreak}}{{anim id=\"1\"}}Aber einen Bronze-Törtel war das\nallemal wert!{{delay frames=\"20\"}}{{anim id=\"0\"}} Und obendrauf gibt's\nnoch {{color id=\"2\"}}{{fun_00070004 arg=\"0x0000\"}}{{delay frames=\"10\"}} {{fun_0009000E arg=\"0x00CD12004D0065006400610069006C006C0065006E0010004D0065006400610069006C006C00650012004D0065006400610069006C006C0065006E00\"}}{{color id=\"65535\"}}!",
      "EUen": "I've seen faster, but you did well.\n{{anim id=\"1\"}}You've earned a Bronze Tortimer\naward and {{color id=\"2\"}}{{fun_00070004 arg=\"0x0000\"}}{{color id=\"65535\"}}{{color id=\"2\"}} {{color id=\"2\"}}{{fun_0009000E arg=\"0x00CD0C006D006500640061006C0073000A006D006500640061006C000C006D006500640061006C007300\"}}{{color id=\"2\"}}{{color id=\"65535\"}}!",
      "EUes": "He visto jardineros más rápidos,\npero esta actuación ha sido digna\n{{anim id=\"1\"}}de un Tórtimer de bronce.{{pageBreak}}{{anim id=\"0\"}}Y, por supuesto, ¡de {{color id=\"2\"}}{{fun_00070004 arg=\"0x0000\"}} {{fun_0009000E arg=\"0x00CD10006D006500640061006C006C00610073000E006D006500640061006C006C00610010006D006500640061006C006C0061007300\"}}{{color id=\"65535\"}}!",
      "EUfr": "Bon, c'était pas rapide, mais c'est\nfait. {{delay frames=\"15\"}}{{anim id=\"1\"}}Ça mérite tout de même un\nTortimer de bronze !\n{{anim id=\"0\"}}Auquel j'ajoute{{delay frames=\"8\"}} {{color id=\"2\"}}{{fun_00070004 arg=\"0x0000\"}}{{color id=\"65535\"}}{{color id=\"2\"}} {{color id=\"2\"}}{{fun_0009000E arg=\"0x00CD10006D00E9006400610069006C006C00650010006D00E9006400610069006C006C00650012006D00E9006400610069006C006C0065007300\"}} {{color id=\"2\"}}{{color id=\"65535\"}}!",
      "EUit": "Ho visto giardinieri più rapidi,\nma non è andata poi così male.\nEcco {{anim id=\"1\"}}un Tortimer di bronzo...{{pageBreak}}{{anim id=\"0\"}}... e {{color id=\"2\"}}{{fun_00070004 arg=\"0x0000\"}}{{color id=\"65535\"}}{{delay frames=\"10\"}}{{color id=\"2\"}} {{fun_0009000E arg=\"0x00CD10006D0065006400610067006C006900650010006D0065006400610067006C006900610010006D0065006400610067006C0069006500\"}}{{color id=\"65535\"}}! Complimenti!",
      "JPja": "{{anim id=\"11\"}}ということは{{delay frames=\"8\"}}・{{delay frames=\"8\"}}・{{delay frames=\"8\"}}・{{pageBreak}}{{anim id=\"1\"}}{{ruby charSpan=\"1\" value=\"おも\"}}思っていたよりも　{{ruby charSpan=\"1\" value=\"はや\"}}早かったのぅ！{{delay frames=\"25\"}}\nこれは　ブロンズコトブキ{{ruby charSpan=\"1\" value=\"しょう\"}}賞に\n{{ruby charSpan=\"1\" value=\"あたい\"}}値する　{{ruby charSpan=\"2\" value=\"せいせき\"}}成績じゃぞ！{{pageBreak}}{{anim id=\"0\"}}ちなみに　ブロンズコトブキ{{ruby charSpan=\"1\" value=\"しょう\"}}賞の\n{{ruby charSpan=\"2\" value=\"きねん\"}}記念メダルは{{delay frames=\"10\"}}　{{color id=\"2\"}}{{fun_00070004 arg=\"0x0000\"}}{{ruby charSpan=\"1\" value=\"まい\"}}枚{{color id=\"65535\"}}じゃ！",
      "KRko": "{{anim id=\"11\"}}이렇게 되면{{delay frames=\"8\"}}・{{delay frames=\"8\"}}・{{delay frames=\"8\"}}・{{pageBreak}}{{anim id=\"1\"}}내 예상보다 빨리 끝냈구먼!{{delay frames=\"25\"}}\n이건 브론즈 고북상을\n받을 만한 성적이야!{{pageBreak}}{{anim id=\"0\"}}참고로 브론즈 고북상의\n기념 메달은 {{delay frames=\"10\"}}{{color id=\"2\"}}{{fun_00070004 arg=\"0x0000\"}}개{{color id=\"65535\"}}라네!",
      "USen": "I've seen faster, but you did well.\n{{anim id=\"1\"}}You've earned a Bronze Tortimer\naward and {{color id=\"2\"}}{{fun_00070004 arg=\"0x0000\"}}{{color id=\"65535\"}}{{color id=\"2\"}} {{color id=\"2\"}}{{fun_0009000E arg=\"0x00CD0C006D006500640061006C0073000A006D006500640061006C000C006D006500640061006C007300\"}}{{color id=\"2\"}}{{color id=\"65535\"}}!",
      "USes": "He visto jardineros más rápidos,\npero esta actuación ha sido digna\n{{anim id=\"1\"}}de un Tórtimer de bronce.{{pageBreak}}{{anim id=\"0\"}}Y, por supuesto, ¡de {{color id=\"2\"}}{{fun_00070004 arg=\"0x0000\"}} {{fun_0009000E arg=\"0x00CD10006D006500640061006C006C00610073000E006D006500640061006C006C00610010006D006500640061006C006C0061007300\"}}{{color id=\"65535\"}}!",
      "USfr": "Bon, c'était pas rapide, mais c'est\nfait. {{delay frames=\"15\"}}{{anim id=\"1\"}}Ça mérite tout de même un\nTortimer de bronze!\n{{anim id=\"0\"}}Auquel j'ajoute{{delay frames=\"8\"}} {{color id=\"2\"}}{{fun_00070004 arg=\"0x0000\"}} {{fun_0009000E arg=\"0x00CD10006D00E9006400610069006C006C00650010006D00E9006400610069006C006C00650012006D00E9006400610069006C006C0065007300\"}}{{color id=\"65535\"}}!"
    }
  },
  {
    "label": "030",
    "locale": {
      "EUde": "{{anim id=\"1\"}}Gar nicht übel!{{delay frames=\"20\"}} Das war ja schon\nfast Profiklasse.{{pageBreak}}Dafür gebe ich doch gerne einen\nSilber-Törtel her.{{delay frames=\"20\"}}{{anim id=\"0\"}} Aber damit nicht\ngenug, {{delay frames=\"8\"}}hier sind noch{{color id=\"2\"}}{{delay frames=\"20\"}} {{fun_00070004 arg=\"0x0000\"}} {{fun_0009000E arg=\"0x00CD12004D0065006400610069006C006C0065006E0010004D0065006400610069006C006C00650012004D0065006400610069006C006C0065006E00\"}}{{color id=\"65535\"}}!",
      "EUen": "{{anim id=\"1\"}}Pretty fast! You should consider a\ncareer in gardening!{{pageBreak}}You've earned a Silver Tortimer\naward and {{color id=\"2\"}}{{fun_00070004 arg=\"0x0000\"}}{{color id=\"65535\"}}{{delay frames=\"10\"}}{{color id=\"2\"}} {{color id=\"2\"}}{{fun_0009000E arg=\"0x00CD0C006D006500640061006C0073000A006D006500640061006C000C006D006500640061006C007300\"}}{{color id=\"2\"}}{{color id=\"65535\"}}!",
      "EUes": "{{anim id=\"1\"}}¡Buena lección de jardinería!\nEs digna de un Tórtimer de plata...{{pageBreak}}{{anim id=\"0\"}}¡Y de {{color id=\"2\"}}{{fun_00070004 arg=\"0x0000\"}} {{fun_0009000E arg=\"0x00CD10006D006500640061006C006C00610073000E006D006500640061006C006C00610010006D006500640061006C006C0061007300\"}}{{color id=\"65535\"}}, claro!",
      "EUfr": "{{anim id=\"1\"}}C'était du jardinage express, là !{{delay frames=\"15\"}} Ce\nTortimer d'argent est amplement\nmérité !\n{{anim id=\"0\"}}Et j'ajoute même{{delay frames=\"8\"}} {{color id=\"2\"}}{{fun_00070004 arg=\"0x0000\"}}{{color id=\"65535\"}}{{color id=\"2\"}} {{color id=\"2\"}}{{fun_0009000E arg=\"0x00CD10006D00E9006400610069006C006C00650010006D00E9006400610069006C006C00650012006D00E9006400610069006C006C0065007300\"}} {{color id=\"2\"}}{{color id=\"65535\"}}!",
      "EUit": "{{anim id=\"1\"}}Che rapidità! Una prova che fa\nonore all'arte del giardinaggio.\nEcco un Tortimer d'argento...\n{{anim id=\"0\"}}... e {{color id=\"2\"}}{{fun_00070004 arg=\"0x0000\"}}{{color id=\"65535\"}}{{delay frames=\"10\"}}{{color id=\"2\"}} {{fun_0009000E arg=\"0x00CD10006D0065006400610067006C006900650010006D0065006400610067006C006900610010006D0065006400610067006C0069006500\"}}{{color id=\"65535\"}}! Complimenti!",
      "JPja": "{{anim id=\"11\"}}ということは{{delay frames=\"8\"}}・{{delay frames=\"8\"}}・{{delay frames=\"8\"}}・{{pageBreak}}{{anim id=\"1\"}}{{ruby charSpan=\"1\" value=\"おも\"}}思っていたよりも　ずいぶん{{ruby charSpan=\"1\" value=\"はや\"}}早かったのぅ！{{delay frames=\"25\"}}\nこれは　シルバーコトブキ{{ruby charSpan=\"1\" value=\"しょう\"}}賞に\n{{ruby charSpan=\"1\" value=\"あたい\"}}値する　{{ruby charSpan=\"2\" value=\"せいせき\"}}成績じゃぞ！{{pageBreak}}{{anim id=\"0\"}}ちなみに　シルバーコトブキ{{ruby charSpan=\"1\" value=\"しょう\"}}賞の\n{{ruby charSpan=\"2\" value=\"きねん\"}}記念メダルは{{delay frames=\"10\"}}　{{color id=\"2\"}}{{fun_00070004 arg=\"0x0000\"}}{{ruby charSpan=\"1\" value=\"まい\"}}枚{{color id=\"65535\"}}じゃ！",
      "KRko": "{{anim id=\"11\"}}이렇게 되면{{delay frames=\"8\"}}・{{delay frames=\"8\"}}・{{delay frames=\"8\"}}・{{pageBreak}}{{anim id=\"1\"}}내 예상보다 훨씬 빨리 끝냈구먼!{{delay frames=\"25\"}}\n이건 실버 고북상을\n받을 만한 성적이야!{{pageBreak}}{{anim id=\"0\"}}참고로 실버 고북상의\n기념 메달은 {{delay frames=\"10\"}}{{color id=\"2\"}}{{fun_00070004 arg=\"0x0000\"}}개{{color id=\"65535\"}}라네!",
      "USen": "{{anim id=\"1\"}}Pretty fast! You should consider a\ncareer in gardening!{{pageBreak}}You've earned a Silver Tortimer\naward and {{color id=\"2\"}}{{fun_00070004 arg=\"0x0000\"}}{{color id=\"65535\"}}{{delay frames=\"10\"}}{{color id=\"2\"}} {{color id=\"2\"}}{{fun_0009000E arg=\"0x00CD0C006D006500640061006C0073000A006D006500640061006C000C006D006500640061006C007300\"}}{{color id=\"2\"}}{{color id=\"65535\"}}!",
      "USes": "{{anim id=\"1\"}}¡Buena lección de jardinería!\nEs digna de un Tórtimer de plata...{{pageBreak}}{{anim id=\"0\"}}¡Y de {{color id=\"2\"}}{{fun_00070004 arg=\"0x0000\"}} {{fun_0009000E arg=\"0x00CD10006D006500640061006C006C00610073000E006D006500640061006C006C00610010006D006500640061006C006C0061007300\"}}{{color id=\"65535\"}}, claro!",
      "USfr": "{{anim id=\"1\"}}C'était du jardinage express, là!{{delay frames=\"15\"}} Ce\nTortimer d'argent est amplement\nmérité!\n{{anim id=\"0\"}}Et j'ajoute même{{delay frames=\"8\"}} {{color id=\"2\"}}{{fun_00070004 arg=\"0x0000\"}} {{fun_0009000E arg=\"0x00CD10006D00E9006400610069006C006C00650010006D00E9006400610069006C006C00650012006D00E9006400610069006C006C0065007300\"}}{{color id=\"65535\"}}!"
    }
  },
  {
    "label": "031",
    "locale": {
      "EUde": "{{anim id=\"31\"}}Hoho!{{delay frames=\"20\"}} Das nenne ich\nSchnellgärtnern!{{pageBreak}}{{anim id=\"1\"}}Da ist der Gold-Törtel ja\nwohlverdient.{{delay frames=\"20\"}} Und weil's so schön\nwar, gibt's noch {{color id=\"2\"}}{{fun_00070004 arg=\"0x0000\"}}{{delay frames=\"10\"}} {{fun_0009000E arg=\"0x00CD12004D0065006400610069006C006C0065006E0010004D0065006400610069006C006C00650012004D0065006400610069006C006C0065006E00\"}} {{color id=\"65535\"}}dazu!",
      "EUen": "{{anim id=\"31\"}}Whoa there, {{delay frames=\"20\"}}Speedy McGreenthumb!{{delay frames=\"20\"}}\nYou've earned a Gold Tortimer\naward and {{color id=\"2\"}}{{fun_00070004 arg=\"0x0000\"}}{{color id=\"65535\"}}{{delay frames=\"10\"}}{{color id=\"2\"}} {{color id=\"2\"}}{{fun_0009000E arg=\"0x00CD0C006D006500640061006C0073000A006D006500640061006C000C006D006500640061006C007300\"}}{{color id=\"2\"}}{{color id=\"65535\"}}!",
      "EUes": "{{anim id=\"31\"}}¡Todo un espectáculo{{delay frames=\"20\"}} que pasará\na los anales de la jardinería!{{delay frames=\"20\"}}{{pageBreak}}{{anim id=\"1\"}}Por descontado,{{delay frames=\"20\"}} ¡es digno de un\nTórtimer de oro y de {{color id=\"2\"}}{{fun_00070004 arg=\"0x0000\"}} {{fun_0009000E arg=\"0x00CD10006D006500640061006C006C00610073000E006D006500640061006C006C00610010006D006500640061006C006C0061007300\"}}{{color id=\"65535\"}}!",
      "EUfr": "{{anim id=\"31\"}}Eh beh, on vient d'inventer le\njardinage éclair ! {{delay frames=\"20\"}}Ça vaut largement\nun Tortimer d'or !\n{{anim id=\"1\"}}Et pourquoi s'arrêter là ? Voici\négalement{{delay frames=\"8\"}} {{color id=\"2\"}}{{fun_00070004 arg=\"0x0000\"}}{{color id=\"65535\"}}{{color id=\"2\"}} {{color id=\"2\"}}{{fun_0009000E arg=\"0x00CD10006D00E9006400610069006C006C00650010006D00E9006400610069006C006C00650012006D00E9006400610069006C006C0065007300\"}} {{color id=\"2\"}}{{color id=\"65535\"}}!",
      "EUit": "{{anim id=\"31\"}}Che prova spettacolare!{{delay frames=\"20\"}} Del resto,\ncol pollice verde uno ci nasce!{{delay frames=\"20\"}}\n{{anim id=\"1\"}}Ecco un Tortimer d'oro...\n... e {{color id=\"2\"}}{{fun_00070004 arg=\"0x0000\"}}{{color id=\"65535\"}}{{delay frames=\"10\"}}{{color id=\"2\"}} {{fun_0009000E arg=\"0x00CD10006D0065006400610067006C006900650010006D0065006400610067006C006900610010006D0065006400610067006C0069006500\"}}{{color id=\"65535\"}}! Complimenti!",
      "JPja": "{{anim id=\"11\"}}ということは{{delay frames=\"8\"}}・{{delay frames=\"8\"}}・{{delay frames=\"8\"}}・{{pageBreak}}{{anim id=\"1\"}}{{ruby charSpan=\"2\" value=\"よそう\"}}予想をはるかに{{ruby charSpan=\"1\" value=\"こ\"}}超える　{{ruby charSpan=\"1\" value=\"はや\"}}早さじゃったのぅ！{{delay frames=\"25\"}}\nこれは　ゴールドコトブキ{{ruby charSpan=\"1\" value=\"しょう\"}}賞に\n{{ruby charSpan=\"1\" value=\"あたい\"}}値する　{{ruby charSpan=\"2\" value=\"せいせき\"}}成績じゃぞ！{{pageBreak}}{{anim id=\"0\"}}ちなみに　ゴールドコトブキ{{ruby charSpan=\"1\" value=\"しょう\"}}賞の\n{{ruby charSpan=\"2\" value=\"きねん\"}}記念メダルは{{delay frames=\"10\"}}　{{color id=\"2\"}}{{fun_00070004 arg=\"0x0000\"}}{{ruby charSpan=\"1\" value=\"まい\"}}枚{{color id=\"65535\"}}じゃ！",
      "KRko": "{{anim id=\"11\"}}이렇게 되면{{delay frames=\"8\"}}・{{delay frames=\"8\"}}・{{delay frames=\"8\"}}・{{pageBreak}}{{anim id=\"1\"}}내 예상을 훌쩍 뛰어넘는 기록이구먼!{{delay frames=\"25\"}}\n이건 골드 고북상을\n받을 만한 성적이야!{{pageBreak}}{{anim id=\"0\"}}참고로 골드 고북상의\n기념 메달은 {{delay frames=\"10\"}}{{color id=\"2\"}}{{fun_00070004 arg=\"0x0000\"}}개{{color id=\"65535\"}}라네!",
      "USen": "{{anim id=\"31\"}}Whoa there, {{delay frames=\"20\"}}Speedy McGreenthumb!{{delay frames=\"20\"}}\nYou've earned a Gold Tortimer\naward and {{color id=\"2\"}}{{fun_00070004 arg=\"0x0000\"}}{{color id=\"65535\"}}{{delay frames=\"10\"}}{{color id=\"2\"}} {{color id=\"2\"}}{{fun_0009000E arg=\"0x00CD0C006D006500640061006C0073000A006D006500640061006C000C006D006500640061006C007300\"}}{{color id=\"2\"}}{{color id=\"65535\"}}!",
      "USes": "{{anim id=\"31\"}}¡Todo un espectáculo{{delay frames=\"20\"}} que pasará\na los anales de la jardinería!{{delay frames=\"20\"}}{{pageBreak}}{{anim id=\"1\"}}Por descontado,{{delay frames=\"20\"}} ¡es digno de un\nTórtimer de oro y de {{color id=\"2\"}}{{fun_00070004 arg=\"0x0000\"}} {{fun_0009000E arg=\"0x00CD10006D006500640061006C006C00610073000E006D006500640061006C006C00610010006D006500640061006C006C0061007300\"}}{{color id=\"65535\"}}!",
      "USfr": "{{anim id=\"31\"}}Eh beh, on vient d'inventer le\njardinage éclair! {{delay frames=\"20\"}}Ça vaut largement\nun Tortimer d'or!\n{{anim id=\"1\"}}Et pourquoi s'arrêter là? Voici\négalement{{delay frames=\"8\"}} {{color id=\"2\"}}{{fun_00070004 arg=\"0x0000\"}} {{fun_0009000E arg=\"0x00CD10006D00E9006400610069006C006C00650010006D00E9006400610069006C006C00650012006D00E9006400610069006C006C0065007300\"}}{{color id=\"65535\"}}!"
    }
  },
  {
    "label": "032",
    "locale": {
      "EUde": "",
      "EUen": "",
      "EUes": "",
      "EUfr": "",
      "EUit": "",
      "JPja": "",
      "KRko": "",
      "USen": "",
      "USes": "",
      "USfr": ""
    }
  },
  {
    "label": "033",
    "locale": {
      "EUde": "",
      "EUen": "",
      "EUes": "",
      "EUfr": "",
      "EUit": "",
      "JPja": "",
      "KRko": "",
      "USen": "",
      "USes": "",
      "USfr": ""
    }
  },
  {
    "label": "034",
    "locale": {
      "EUde": "",
      "EUen": "",
      "EUes": "",
      "EUfr": "",
      "EUit": "",
      "JPja": "",
      "KRko": "",
      "USen": "",
      "USes": "",
      "USfr": ""
    }
  },
  {
    "label": "035",
    "locale": {
      "EUde": "",
      "EUen": "",
      "EUes": "",
      "EUfr": "",
      "EUit": "",
      "JPja": "",
      "KRko": "",
      "USen": "",
      "USes": "",
      "USfr": ""
    }
  }
]