﻿[
  {
    "label": "001",
    "locale": {
      "EUde": "Oh, sei mir gegrüßt!",
      "EUen": "Oh,{{delay frames=\"15\"}} good afternoon to you!",
      "EUes": "¡Oh,{{delay frames=\"15\"}} muy buenas, jovencit{{fun_0006000E arg=\"0x02006F0002006100\"}}!",
      "EUfr": "Oh,{{delay frames=\"15\"}} bonjour à toi !",
      "EUit": "Oh,{{delay frames=\"15\"}} salve, tigrott{{fun_0006000E arg=\"0x02006F0002006100\"}}!",
      "JPja": "やぁ、{{delay frames=\"15\"}}こんにちは～",
      "KRko": "오우! {{delay frames=\"15\"}}안녕～",
      "USen": "Oh,{{delay frames=\"15\"}} good afternoon to you!",
      "USes": "¡Oh,{{delay frames=\"15\"}} muy buenas, jovencit{{fun_0006000E arg=\"0x02006F0002006100\"}}!",
      "USfr": "Oh,{{delay frames=\"15\"}} bonjour à toi!"
    }
  },
  {
    "label": "002",
    "locale": {
      "EUde": "{{fun_00000009 arg=\"0x0C000D00\"}}",
      "EUen": "{{fun_00000009 arg=\"0x0C000D00\"}}",
      "EUes": "{{fun_00000009 arg=\"0x0C000D00\"}}",
      "EUfr": "{{fun_00000009 arg=\"0x0C000D00\"}}",
      "EUit": "{{fun_00000009 arg=\"0x0C000D00\"}}",
      "JPja": "{{fun_00000009 arg=\"0x0C000D00\"}}",
      "KRko": "{{fun_00000009 arg=\"0x0C000D00\"}}",
      "USen": "{{fun_00000009 arg=\"0x0C000D00\"}}",
      "USes": "{{fun_00000009 arg=\"0x0C000D00\"}}",
      "USfr": "{{fun_00000009 arg=\"0x0C000D00\"}}"
    }
  },
  {
    "label": "003",
    "locale": {
      "EUde": "{{fun_00000009 arg=\"0x0F001000\"}}",
      "EUen": "{{fun_00000009 arg=\"0x0F001000\"}}",
      "EUes": "{{fun_00000009 arg=\"0x0F001000\"}}",
      "EUfr": "{{fun_00000009 arg=\"0x0F001000\"}}",
      "EUit": "{{fun_00000009 arg=\"0x0F001000\"}}",
      "JPja": "{{fun_00000009 arg=\"0x0F001000\"}}",
      "KRko": "{{fun_00000009 arg=\"0x0F001000\"}}",
      "USen": "{{fun_00000009 arg=\"0x0F001000\"}}",
      "USes": "{{fun_00000009 arg=\"0x0F001000\"}}",
      "USfr": "{{fun_00000009 arg=\"0x0F001000\"}}"
    }
  },
  {
    "label": "004",
    "locale": {
      "EUde": "War dir bekannt, dass {{color id=\"4\"}}Kofi{{color id=\"65535\"}} eine\nwirklich äußerst schmackhafte\n{{color id=\"2\"}}Doppelröstung{{color id=\"65535\"}} zubereitet?\nMeiner Wenigkeit kommt jedenfalls\nnichts anderes in die Tasse!",
      "EUen": "Did you know {{color id=\"4\"}}Brewster{{color id=\"65535\"}} here can\nmake the most delectable cup of\n{{color id=\"2\"}}Kilimanjaro{{color id=\"65535\"}} coffee?\nIt's the cup of choice for this old\nman, that's for sure!",
      "EUes": "¿Sabías que {{color id=\"4\"}}Fígaro{{color id=\"65535\"}} prepara las\ntazas de café {{color id=\"2\"}}kilimanjaro{{color id=\"65535\"}} más\nsuculentas del mundo?\nTe confiaré un secreto: ¡ese es\nel tipo de café predilecto de\neste viejo león marino!",
      "EUfr": "Savais-tu que {{color id=\"4\"}}Robusto{{color id=\"65535\"}} servait le\nmeilleur {{color id=\"2\"}}Kilimandjaro{{color id=\"65535\"}} que j'aie\njamais goûté ?{{pageBreak}}C'est le café idéal pour un vieux\nlion de mer comme moi !",
      "EUit": "Lo sai che il nostro buon {{color id=\"4\"}}Bartolo\n{{color id=\"65535\"}}fa il caffè{{color id=\"2\"}} decaffeinato{{color id=\"65535\"}} migliore\ndi tutta la città?\nUn vero toccasana\nper il sottoscritto!",
      "JPja": "ここの{{color id=\"4\"}}マスター{{color id=\"65535\"}}はねぇ、{{delay frames=\"5\"}}とっても{{ruby charSpan=\"2\" value=\"おい\"}}美味しい\n{{color id=\"2\"}}キリマンジャロ{{color id=\"65535\"}}コーヒーを\nいれてくれるんだぁ{{pageBreak}}おじちゃん、{{delay frames=\"5\"}}{{ruby charSpan=\"2\" value=\"だいす\"}}大好きなんだよねぇ～",
      "KRko": "여기 {{color id=\"4\"}}마스터{{color id=\"65535\"}}는 말이지{{delay frames=\"5\"}}\n{{color id=\"2\"}}킬리만자로 {{color id=\"65535\"}}커피를\n정말 맛있게 내린단다{{pageBreak}}딱 {{delay frames=\"5\"}}아저씨 취향이야～",
      "USen": "Did you know {{color id=\"4\"}}Brewster{{color id=\"65535\"}} here can\nmake the most delectable cup of\n{{color id=\"2\"}}Kilimanjaro{{color id=\"65535\"}} coffee?\nIt's the cup of choice for this old\nman, that's for sure!",
      "USes": "¿Sabías que {{color id=\"4\"}}Fígaro{{color id=\"65535\"}} prepara las\ntazas de café {{color id=\"2\"}}kilimanjaro{{color id=\"65535\"}} más\nsuculentas del mundo?\nTe confiaré un secreto: ¡ese es\nel tipo de café predilecto de\neste viejo león marino!",
      "USfr": "Savais-tu que {{color id=\"4\"}}Robusto{{color id=\"65535\"}} servait le\nmeilleur {{color id=\"2\"}}Kilimandjaro{{color id=\"65535\"}} que j'aie\njamais goûté?{{pageBreak}}C'est le café idéal pour un vieux\nlion de mer comme moi!"
    }
  },
  {
    "label": "005",
    "locale": {
      "EUde": "Die Milch, die {{color id=\"4\"}}Kofi{{color id=\"65535\"}} hier verwendet,\nist so richtig schön sahnig.{{delay frames=\"20\"}} Köstlich!{{pageBreak}}Deswegen nehme ich hier immer\n{{color id=\"2\"}}viel {{color id=\"65535\"}}Milch in meinen Kaffee.{{delay frames=\"20\"}}\nEin wahres Gedicht!",
      "EUen": "The milk {{color id=\"4\"}}Brewster{{color id=\"65535\"}} uses here is so\nrich and creamy. It's delicious!{{pageBreak}}That's why this old man always\norders his coffee with {{color id=\"2\"}}lots{{color id=\"65535\"}} of milk.",
      "EUes": "La leche que {{color id=\"4\"}}Fígaro{{color id=\"65535\"}} les echa a los\ncafés es muy cremosa y tiene un\nsabor incomparable. ¡Un manjar!\nPor eso este viejo león marino se\nha aficionado a tomar manchados:\ncafés con {{color id=\"2\"}}montones{{color id=\"65535\"}} de leche.",
      "EUfr": "Le lait qu'utilise {{color id=\"4\"}}Robusto{{color id=\"65535\"}} ici est si\ncrémeux, c'est un vrai délice !{{pageBreak}}C'est pour ça que j'en prends\ntoujours {{color id=\"2\"}}beaucoup{{color id=\"65535\"}} dans mon café.",
      "EUit": "Non so da dove lo prenda, ma\nil latte che usa {{color id=\"4\"}}Bartolo{{color id=\"65535\"}} è così\nsaporito...!{{pageBreak}}Ecco perché questo vecchio leone\nmarino ne aggiunge sempre {{color id=\"2\"}}tanto\n{{color id=\"65535\"}}al suo caffè.",
      "JPja": "ここで{{ruby charSpan=\"1\" value=\"つか\"}}使ってる　ミルクは\nとっても{{ruby charSpan=\"2\" value=\"おい\"}}美味しくてねぇ～{{pageBreak}}おじちゃんいつも、{{delay frames=\"10\"}}\n{{color id=\"2\"}}たっぷり{{color id=\"65535\"}}　{{ruby charSpan=\"1\" value=\"い\"}}入れてもらってるんだぁ～",
      "KRko": "여기서 사용하는 우유가\n얼마나 맛있는지{{delay frames=\"8\"}}・{{delay frames=\"8\"}}・{{delay frames=\"8\"}}・{{delay frames=\"8\"}}{{pageBreak}}아저씨는 항상{{delay frames=\"10\"}}\n{{color id=\"2\"}}듬뿍 {{color id=\"65535\"}}넣어서 마시는 편이란다～",
      "USen": "The milk {{color id=\"4\"}}Brewster{{color id=\"65535\"}} uses here is so\nrich and creamy. It's delicious!{{pageBreak}}That's why this old man always\norders his coffee with {{color id=\"2\"}}lots{{color id=\"65535\"}} of milk.",
      "USes": "La leche que {{color id=\"4\"}}Fígaro{{color id=\"65535\"}} les echa a los\ncafés es muy cremosa y tiene un\nsabor incomparable. ¡Un manjar!\nPor eso este viejo león marino se\nha aficionado a tomar manchados:\ncafés con {{color id=\"2\"}}montones{{color id=\"65535\"}} de leche.",
      "USfr": "Le lait qu'utilise {{color id=\"4\"}}Robusto{{color id=\"65535\"}} ici est si\ncrémeux, c'est un vrai délice!{{pageBreak}}C'est pour ça que j'en prends\ntoujours {{color id=\"2\"}}beaucoup{{color id=\"65535\"}} dans mon café."
    }
  },
  {
    "label": "006",
    "locale": {
      "EUde": "Hier bei {{color id=\"4\"}}Kofi{{color id=\"65535\"}} findet man nur Zucker\nvon allerfeinster Qualität.{{pageBreak}}Deswegen nehme ich auch immer\n{{color id=\"2\"}}drei Löffel{{color id=\"65535\"}} davon in meinen Kaffee.{{delay frames=\"20\"}}\nDa kann ich nicht widerstehen!",
      "EUen": "The sugar {{color id=\"4\"}}Brewster{{color id=\"65535\"}} uses here is of\nthe highest quality.{{pageBreak}}That's why this old man orders\nhis coffee with {{color id=\"2\"}}3{{color id=\"65535\"}} {{color id=\"2\"}}spoonfuls{{color id=\"65535\"}}.",
      "EUes": "Por si no lo habías notado, el azúcar\nque {{color id=\"4\"}}Fígaro{{color id=\"65535\"}} utiliza es de calidad\nsuprema, como los turrones.{{pageBreak}}Por eso este viejo león marino que\ntienes delante siempre pide su café\ncon {{color id=\"2\"}}tres azucarillos{{color id=\"65535\"}}.",
      "EUfr": "Le sucre qu'utilise {{color id=\"4\"}}Robusto{{color id=\"65535\"}} est\ntoujours d'une très grande qualité.{{pageBreak}}C'est pourquoi je prends mon café\navec {{color id=\"2\"}}trois{{color id=\"65535\"}} sucres.",
      "EUit": "{{color id=\"4\"}}Bartolo{{color id=\"65535\"}} usa solo zucchero\ndi alta qualità.{{pageBreak}}Io ringrazio e me ne faccio mettere\n{{color id=\"2\"}}tre cucchiaini{{color id=\"65535\"}} nel caffè!",
      "JPja": "ここで{{ruby charSpan=\"1\" value=\"つか\"}}使ってる　お{{ruby charSpan=\"2\" value=\"さとう\"}}砂糖は\nとっても　{{ruby charSpan=\"1\" value=\"しつ\"}}質が{{ruby charSpan=\"1\" value=\"よ\"}}良いものでねぇ～{{pageBreak}}おじちゃんいつも、{{delay frames=\"10\"}}たっぷり{{color id=\"2\"}}3{{ruby charSpan=\"1\" value=\"こ\"}}個{{color id=\"65535\"}}\n{{ruby charSpan=\"1\" value=\"い\"}}入れてもらってるんだぁ～",
      "KRko": "이곳에서 사용하는 설탕은\n정말로 질이 좋거든～{{pageBreak}}아저씨는 항상 {{delay frames=\"10\"}}{{color id=\"2\"}}3개 {{color id=\"65535\"}}꽉 채워서\n넣어달라고 한단다～",
      "USen": "The sugar {{color id=\"4\"}}Brewster{{color id=\"65535\"}} uses here is of\nthe highest quality.{{pageBreak}}That's why this old man orders\nhis coffee with {{color id=\"2\"}}3{{color id=\"65535\"}} {{color id=\"2\"}}spoonfuls{{color id=\"65535\"}}.",
      "USes": "Por si no lo habías notado, el azúcar\nque {{color id=\"4\"}}Fígaro{{color id=\"65535\"}} utiliza es de calidad\nsuprema, como los turrones.{{pageBreak}}Por eso este viejo león marino que\ntienes delante siempre pide su café\ncon {{color id=\"2\"}}tres azucarillos{{color id=\"65535\"}}.",
      "USfr": "Le sucre qu'utilise {{color id=\"4\"}}Robusto{{color id=\"65535\"}} est\ntoujours d'une très grande qualité.{{pageBreak}}C'est pourquoi je prends mon café\navec {{color id=\"2\"}}trois{{color id=\"65535\"}} sucres."
    }
  },
  {
    "label": "007",
    "locale": {
      "EUde": "",
      "EUen": "",
      "EUes": "",
      "EUfr": "",
      "EUit": "",
      "JPja": "",
      "KRko": "",
      "USen": "",
      "USes": "",
      "USfr": ""
    }
  },
  {
    "label": "008",
    "locale": {
      "EUde": "{{fun_00010009 arg=\"0x150016001700\"}}",
      "EUen": "{{fun_00010009 arg=\"0x150016001700\"}}",
      "EUes": "{{fun_00010009 arg=\"0x150016001700\"}}",
      "EUfr": "{{fun_00010009 arg=\"0x150016001700\"}}",
      "EUit": "{{fun_00010009 arg=\"0x150016001700\"}}",
      "JPja": "{{fun_00010009 arg=\"0x150016001700\"}}",
      "KRko": "{{fun_00010009 arg=\"0x150016001700\"}}",
      "USen": "{{fun_00010009 arg=\"0x150016001700\"}}",
      "USes": "{{fun_00010009 arg=\"0x150016001700\"}}",
      "USfr": "{{fun_00010009 arg=\"0x150016001700\"}}"
    }
  },
  {
    "label": "009",
    "locale": {
      "EUde": "{{fun_00010009 arg=\"0x150016001700\"}}",
      "EUen": "{{fun_00010009 arg=\"0x150016001700\"}}",
      "EUes": "{{fun_00010009 arg=\"0x150016001700\"}}",
      "EUfr": "{{fun_00010009 arg=\"0x150016001700\"}}",
      "EUit": "{{fun_00010009 arg=\"0x150016001700\"}}",
      "JPja": "{{fun_00010009 arg=\"0x150016001700\"}}",
      "KRko": "{{fun_00010009 arg=\"0x150016001700\"}}",
      "USen": "{{fun_00010009 arg=\"0x150016001700\"}}",
      "USes": "{{fun_00010009 arg=\"0x150016001700\"}}",
      "USfr": "{{fun_00010009 arg=\"0x150016001700\"}}"
    }
  },
  {
    "label": "010",
    "locale": {
      "EUde": "Es ist mein Traum, dass alle ihr\nLeben genießen und etwas haben,\nfür das sie Leidenschaft empfinden.\nDie Abzeichen, die ich vergebe,\nsind der Beweis, dass ihr Träger\nebendiese Leidenschaft besitzt.{{fun_00010009 arg=\"0x1B001C001D00\"}}",
      "EUen": "My dream is for everyone to enjoy\nthemselves and find something they\ncan be passionate about each day.\nThat's why the badges this old man\ngives out are proof of the work\npeople put forth in their hobbies.{{fun_00010009 arg=\"0x1B001C001D00\"}}",
      "EUes": "Mi sueño es que todo el mundo\nencuentre aquello que le apasione\ny con lo que disfrute a diario.\nPor eso las insignias que regalo son\nun reconocimiento a la dedicación y\nentrega a las aficiones de cada uno.{{fun_00010009 arg=\"0x1B001C001D00\"}}",
      "EUfr": "Mon rêve c'est que chacun puisse\ntrouver une passion qui lui apporte\ndu bonheur.{{pageBreak}}Et les badges que je donne sont les\npreuves des efforts que les gens\nmettent dans leur passion.{{fun_00010009 arg=\"0x1B001C001D00\"}}",
      "EUit": "Sai qual è il mio sogno? Che tutti\nsi godano la vita e trovino interessi\nche li rendano felici ogni giorno.\nI miei distintivi servono proprio\na questo: li do a chi si sforza\ndi coltivare i propri hobby.{{fun_00010009 arg=\"0x1B001C001D00\"}}",
      "JPja": "おじちゃんはねぇ、{{delay frames=\"10\"}}みんなが\n{{ruby charSpan=\"1\" value=\"なに\"}}何か　{{ruby charSpan=\"2\" value=\"むちゅう\"}}夢中になれることを{{ruby charSpan=\"1\" value=\"み\"}}見つけて{{delay frames=\"5\"}}\n{{ruby charSpan=\"2\" value=\"まいにち\"}}毎日を{{ruby charSpan=\"1\" value=\"たの\"}}楽しんで{{ruby charSpan=\"1\" value=\"ほ\"}}欲しいと{{ruby charSpan=\"1\" value=\"おも\"}}思ってるんだぁ{{pageBreak}}だから　おじちゃんのバッジは、{{delay frames=\"5\"}}\n{{ruby charSpan=\"1\" value=\"なに\"}}何かに{{ruby charSpan=\"2\" value=\"むちゅう\"}}夢中になって　がんばった{{ruby charSpan=\"1\" value=\"ひと\"}}人のための\n{{ruby charSpan=\"1\" value=\"あかし\"}}証でもあるんだよぉ{{fun_00010009 arg=\"0x1B001C001D00\"}}",
      "KRko": "아저씨는 말이지{{delay frames=\"8\"}}・{{delay frames=\"8\"}}・{{delay frames=\"8\"}}・{{delay frames=\"8\"}}{{pageBreak}}모두가 자신이 열중할 수 있는 일을 찾아서{{delay frames=\"5\"}}\n즐겁게 지내는 모습을 볼 수만 있다면\n그걸로 족하단다{{delay frames=\"8\"}}・{{delay frames=\"8\"}}・{{delay frames=\"8\"}}・{{delay frames=\"8\"}}{{pageBreak}}그래서 무엇인가에 열중해서{{delay frames=\"5\"}}\n성과를 낸 친구들을 격려하기 위해\n배지를 나눠주고 있는 거지{{fun_00010009 arg=\"0x1B001C001D00\"}}",
      "USen": "My dream is for everyone to enjoy\nthemselves and find something they\ncan be passionate about each day.\nThat's why the badges this old man\ngives out are proof of the work\npeople put forth in their hobbies.{{fun_00010009 arg=\"0x1B001C001D00\"}}",
      "USes": "Mi sueño es que todo el mundo\nencuentre aquello que le apasione\ny con lo que disfrute a diario.\nPor eso las insignias que regalo son\nun reconocimiento a la dedicación y\nentrega a las aficiones de cada uno.{{fun_00010009 arg=\"0x1B001C001D00\"}}",
      "USfr": "Mon rêve c'est que chacun puisse\ntrouver une passion qui lui apporte\ndu bonheur.{{pageBreak}}Et les badges que je donne sont les\npreuves des efforts que les gens\nmettent dans leur passion.{{fun_00010009 arg=\"0x1B001C001D00\"}}"
    }
  },
  {
    "label": "012",
    "locale": {
      "EUde": "Ah, so sieht man sich wieder!",
      "EUen": "Well, well,{{delay frames=\"15\"}} we meet again!",
      "EUes": "Vaya, vaya...{{delay frames=\"15\"}} ¡Volvemos a vernos,\namiguit{{fun_0006000E arg=\"0x02006F0002006100\"}}!",
      "EUfr": "Tiens, tiens,{{delay frames=\"15\"}} comme on se retrouve !",
      "EUit": "Bene, bene, tigrott{{fun_0006000E arg=\"0x02006F0002006100\"}}.{{delay frames=\"15\"}} Ci si rivede!",
      "JPja": "おや、{{delay frames=\"15\"}}\nまた　{{ruby charSpan=\"1\" value=\"あ\"}}会ったねぇ～",
      "KRko": "오우～{{delay frames=\"15\"}}\n또 만났구나～",
      "USen": "Well, well,{{delay frames=\"15\"}} we meet again!",
      "USes": "Vaya, vaya...{{delay frames=\"15\"}} ¡Volvemos a vernos,\namiguit{{fun_0006000E arg=\"0x02006F0002006100\"}}!",
      "USfr": "Tiens, tiens,{{delay frames=\"15\"}} comme on se retrouve!"
    }
  },
  {
    "label": "013",
    "locale": {
      "EUde": "Oh, du bist es! {{delay frames=\"20\"}}Wie ist es dir denn so\nergangen?",
      "EUen": "Well,{{delay frames=\"15\"}} if it isn't you!{{delay frames=\"20\"}} How are you\non this refreshing day?",
      "EUes": "¡Qué sorpresa tan agradable verte\npor aquí!{{delay frames=\"20\"}} ¿Cómo te encuentras?",
      "EUfr": "Oh,{{delay frames=\"15\"}} c'est toi ?{{delay frames=\"20\"}} Comment vas-tu en\ncette magnifique journée ?",
      "EUit": "Toh,{{delay frames=\"15\"}} guarda un po' chi c'è!{{delay frames=\"20\"}}\nCome va la vita in questa\nsplendida giornata?",
      "JPja": "おや、{{delay frames=\"15\"}}キミかぁ{{delay frames=\"20\"}}\n{{ruby charSpan=\"2\" value=\"げんき\"}}元気にしてたかな？",
      "KRko": "오우! {{delay frames=\"15\"}}우리 친구구나{{delay frames=\"20\"}}\n별일 없이 잘 지내고 있지?",
      "USen": "Well,{{delay frames=\"15\"}} if it isn't you!{{delay frames=\"20\"}} How are you\non this refreshing day?",
      "USes": "¡Qué sorpresa tan agradable verte\npor aquí!{{delay frames=\"20\"}} ¿Cómo te encuentras?",
      "USfr": "Oh,{{delay frames=\"15\"}} c'est toi?{{delay frames=\"20\"}} Comment vas-tu en\ncette magnifique journée?"
    }
  },
  {
    "label": "014",
    "locale": {
      "EUde": "",
      "EUen": "",
      "EUes": "",
      "EUfr": "",
      "EUit": "",
      "JPja": "",
      "KRko": "",
      "USen": "",
      "USes": "",
      "USfr": ""
    }
  },
  {
    "label": "015",
    "locale": {
      "EUde": "Fürwahr, wir scheinen uns hier ja\nrecht oft zu begegnen!",
      "EUen": "Well, well,{{delay frames=\"15\"}} we seem to run into each\nother quite often here indeed!",
      "EUes": "Vaya, vaya...{{delay frames=\"15\"}} ¡Últimamente no\nparamos de coincidir aquí!",
      "EUfr": "Tiens, tiens,{{delay frames=\"15\"}} on se croise très\nsouvent, toi et moi !",
      "EUit": "Ehi ehi, tigrott{{fun_0006000E arg=\"0x02006F0002006100\"}},{{delay frames=\"15\"}} sembra proprio\nche questo posto sia diventato\nil nostro ritrovo preferito!",
      "JPja": "おやおや、{{delay frames=\"15\"}}\nよく　{{ruby charSpan=\"1\" value=\"あ\"}}会うねぇ～",
      "KRko": "오우～{{delay frames=\"15\"}}\n자주 보는구나～",
      "USen": "Well, well,{{delay frames=\"15\"}} we seem to run into each\nother quite often here indeed!",
      "USes": "Vaya, vaya...{{delay frames=\"15\"}} ¡Últimamente no\nparamos de coincidir aquí!",
      "USfr": "Tiens, tiens,{{delay frames=\"15\"}} on se croise très\nsouvent, toi et moi!"
    }
  },
  {
    "label": "016",
    "locale": {
      "EUde": "Wie ist das werte Befinden?",
      "EUen": "Are you doing as fine as always?",
      "EUes": "¿Presumo que todo va tan bien\ncomo de costumbre?",
      "EUfr": "Alors,{{delay frames=\"15\"}} toujours en pleine forme ?",
      "EUit": "Tutto bene come sempre?",
      "JPja": "おやおや、{{delay frames=\"15\"}}\n{{ruby charSpan=\"2\" value=\"あいか\"}}相変わらず　{{ruby charSpan=\"2\" value=\"げんき\"}}元気にやってるかい？",
      "KRko": "오우～{{delay frames=\"15\"}}\n변함없이 잘 지내고 있지?",
      "USen": "Are you doing as fine as always?",
      "USes": "¿Presumo que todo va tan bien\ncomo de costumbre?",
      "USfr": "Alors,{{delay frames=\"15\"}} toujours en pleine forme?"
    }
  },
  {
    "label": "017",
    "locale": {
      "EUde": "",
      "EUen": "",
      "EUes": "",
      "EUfr": "",
      "EUit": "",
      "JPja": "",
      "KRko": "",
      "USen": "",
      "USes": "",
      "USfr": ""
    }
  },
  {
    "label": "018",
    "locale": {
      "EUde": "",
      "EUen": "",
      "EUes": "",
      "EUfr": "",
      "EUit": "",
      "JPja": "",
      "KRko": "",
      "USen": "",
      "USes": "",
      "USfr": ""
    }
  },
  {
    "label": "019",
    "locale": {
      "EUde": "",
      "EUen": "",
      "EUes": "",
      "EUfr": "",
      "EUit": "",
      "JPja": "",
      "KRko": "",
      "USen": "",
      "USes": "",
      "USfr": ""
    }
  },
  {
    "label": "021",
    "locale": {
      "EUde": "Der Kaffee, den {{color id=\"4\"}}Kofi{{color id=\"65535\"}} hier kredenzt,\nist wirklich vorzüglich.{{pageBreak}}Ich würde ihm gern ein Abzeichen\nfür diese Meisterleistung verleihen...{{pageBreak}}Aber ich habe noch kein Abzeichen\nfür gutes Kaffeemachen entworfen.{{delay frames=\"20\"}}\nWirklich nachlässig von mir...",
      "EUen": "The coffee {{color id=\"4\"}}Brewster{{color id=\"65535\"}} makes is\nquite delicious.{{pageBreak}}I'd like to present {{color id=\"4\"}}Brewster{{color id=\"65535\"}} with\na badge for it, but{{delay frames=\"5\"}}.{{delay frames=\"5\"}}.{{delay frames=\"5\"}}.{{pageBreak}}I haven't made a badge for people\nwho are good at making cups of\ncoffee. It's quite a shame{{delay frames=\"5\"}}.{{delay frames=\"5\"}}.{{delay frames=\"5\"}}.",
      "EUes": "Por su sabor único, el café que\nprepara {{color id=\"4\"}}Fígaro{{color id=\"65535\"}} es inconfundible.{{pageBreak}}Me encantaría regalarle una insignia,\npero no he diseñado ninguna para\nlos que preparan un buen café.\nEs una verdadera lástima{{delay frames=\"5\"}}.{{delay frames=\"5\"}}.{{delay frames=\"5\"}}.",
      "EUfr": "Le café que prépare {{color id=\"4\"}}Robusto{{color id=\"65535\"}} est\ntoujours exceptionnel.{{pageBreak}}J'aimerais lui offrir un badge pour\nle récompenser, mais{{delay frames=\"5\"}}.{{delay frames=\"5\"}}.{{delay frames=\"5\"}}.{{pageBreak}}... je n'ai pas fabriqué de badge\npour les personnes qui font du bon\ncafé. Il faudra que j'y remédie{{delay frames=\"5\"}}.{{delay frames=\"5\"}}.{{delay frames=\"5\"}}.",
      "EUit": "Il caffè di {{color id=\"4\"}}Bartolo{{color id=\"65535\"}} è una vera delizia.{{pageBreak}}Si meriterebbe un distintivo, ma\nnon posseggo distintivi per baristi\nin zampa. Che disdetta{{delay frames=\"5\"}}.{{delay frames=\"5\"}}.{{delay frames=\"5\"}}.",
      "JPja": "{{color id=\"4\"}}マスター{{color id=\"65535\"}}の　いれるコーヒーは\n{{ruby charSpan=\"2\" value=\"ほんとう\"}}本当に　{{ruby charSpan=\"2\" value=\"おい\"}}美味しいよねぇ～{{pageBreak}}おじちゃん、{{delay frames=\"10\"}}{{color id=\"4\"}}マスター{{color id=\"65535\"}}にも\nバッジをプレゼントしたいんだけど{{delay frames=\"5\"}}・{{delay frames=\"5\"}}・{{delay frames=\"5\"}}・{{pageBreak}}コーヒーをいれるのが{{ruby charSpan=\"2\" value=\"じょうず\"}}上手な{{ruby charSpan=\"2\" value=\"ひとよう\"}}人用の\nバッジは、{{delay frames=\"10\"}}{{ruby charSpan=\"1\" value=\"つく\"}}作ってないんだぁ{{delay frames=\"5\"}}・{{delay frames=\"5\"}}・{{delay frames=\"5\"}}・",
      "KRko": "{{color id=\"4\"}}마스터{{color id=\"65535\"}}가 내리는 커피는\n정말 일품이라니까～{{pageBreak}}아저씨는 사실 {{delay frames=\"10\"}}{{color id=\"4\"}}마스터{{color id=\"65535\"}}한테도\n배지를 선물하고 싶은데{{delay frames=\"5\"}}・{{delay frames=\"5\"}}・{{delay frames=\"5\"}}・{{pageBreak}}커피를 잘 만드는 사람을 위한\n배지가 없어서 늘 아쉽단다{{delay frames=\"5\"}}・{{delay frames=\"5\"}}・{{delay frames=\"5\"}}・",
      "USen": "The coffee {{color id=\"4\"}}Brewster{{color id=\"65535\"}} makes is\nquite delicious.{{pageBreak}}I'd like to present {{color id=\"4\"}}Brewster{{color id=\"65535\"}} with\na badge for it, but{{delay frames=\"5\"}}.{{delay frames=\"5\"}}.{{delay frames=\"5\"}}.{{pageBreak}}I haven't made a badge for people\nwho are good at making cups of\ncoffee. It's quite a shame{{delay frames=\"5\"}}.{{delay frames=\"5\"}}.{{delay frames=\"5\"}}.",
      "USes": "Por su sabor único, el café que\nprepara {{color id=\"4\"}}Fígaro{{color id=\"65535\"}} es inconfundible.{{pageBreak}}Me encantaría regalarle una insignia,\npero no he diseñado ninguna para\nlos que preparan un buen café.\nEs una verdadera lástima{{delay frames=\"5\"}}.{{delay frames=\"5\"}}.{{delay frames=\"5\"}}.",
      "USfr": "Le café que prépare {{color id=\"4\"}}Robusto{{color id=\"65535\"}} est\ntoujours exceptionnel.{{pageBreak}}J'aimerais lui offrir un badge pour\nle récompenser, mais{{delay frames=\"5\"}}.{{delay frames=\"5\"}}.{{delay frames=\"5\"}}.{{pageBreak}}... je n'ai pas fabriqué de badge\npour les personnes qui font du bon\ncafé. Il faudra que j'y remédie{{delay frames=\"5\"}}.{{delay frames=\"5\"}}.{{delay frames=\"5\"}}."
    }
  },
  {
    "label": "022",
    "locale": {
      "EUde": "Ich nehme hier nur ein Tässchen\nKaffee zu mir und habe deswegen\nkeine Abzeichen dabei.\nWenn du ein Abzeichen möchtest,\nsprich mich doch noch mal an, wenn\nich draußen unterwegs bin.",
      "EUen": "I'm just here to enjoy a cup of\ncoffee,{{delay frames=\"5\"}} so I don't have any badges\nwith me at the moment.\nIf you want a badge,{{delay frames=\"10\"}} talk to this old\nman sometime when he's enjoying\nthe great outdoors!",
      "EUes": "He venido a relajarme y a degustar\nuna deliciosa taza de café, por eso\nno llevo ninguna insignia encima.\nSi quieres que te dé una,{{delay frames=\"10\"}} habla\nconmigo cuando me veas en plena\ncalle o disfrutando de la naturaleza.",
      "EUfr": "Je suis juste venu prendre une tasse\nde café,{{delay frames=\"5\"}} je n'ai pas mes badges sur\nmoi.\nSi tu veux un badge, viens me parler\nquand je me promène dehors !",
      "EUit": "Son venuto qui a godermi una bella\ntazza di caffè,{{delay frames=\"5\"}} per cui non ho\ndistintivi al momento.\nSe ne vuoi uno,{{delay frames=\"10\"}} parla con questo\nvecchio leone marino quando\nlo trovi in giro all'aperto!",
      "JPja": "{{ruby charSpan=\"1\" value=\"いま\"}}今は　コーヒーを\n{{ruby charSpan=\"1\" value=\"の\"}}飲みに{{ruby charSpan=\"1\" value=\"き\"}}来てるだけだから、{{delay frames=\"5\"}}\nバッジを　{{ruby charSpan=\"1\" value=\"も\"}}持って{{ruby charSpan=\"1\" value=\"き\"}}来てないんだぁ{{pageBreak}}バッジが{{ruby charSpan=\"1\" value=\"ほ\"}}欲しいんだったら、{{delay frames=\"10\"}}\nまた　お{{ruby charSpan=\"1\" value=\"そと\"}}外で{{ruby charSpan=\"1\" value=\"あ\"}}会った{{ruby charSpan=\"1\" value=\"とき\"}}時に\nおじちゃんに　{{ruby charSpan=\"1\" value=\"こえ\"}}声をかけてちょうだいねぇ",
      "KRko": "지금은 그냥\n커피를 마시러 온 거라서{{delay frames=\"5\"}}\n배지를 안 가져왔단다{{pageBreak}}배지를 받고 싶으면{{delay frames=\"10\"}}\n나중에 밖에서 만났을 때\n아저씨한테 말을 걸어주렴",
      "USen": "I'm just here to enjoy a cup of\ncoffee,{{delay frames=\"5\"}} so I don't have any badges\nwith me at the moment.\nIf you want a badge,{{delay frames=\"10\"}} talk to this old\nman sometime when he's enjoying\nthe great outdoors!",
      "USes": "He venido a relajarme y a degustar\nuna deliciosa taza de café, por eso\nno llevo ninguna insignia encima.\nSi quieres que te dé una,{{delay frames=\"10\"}} habla\nconmigo cuando me veas en plena\ncalle o disfrutando de la naturaleza.",
      "USfr": "Je suis juste venu prendre une tasse\nde café,{{delay frames=\"5\"}} je n'ai pas mes badges sur\nmoi.\nSi tu veux un badge, viens me parler\nquand je me promène dehors!"
    }
  },
  {
    "label": "023",
    "locale": {
      "EUde": "Ich wünsche mir, dass jeder etwas\nim Leben hat, das ihm Freude macht\nund seine Leidenschaft weckt.\nDie Abzeichen, die ich vergebe,\nsind der Beweis, dass ihr Träger\nebendiese Leidenschaft besitzt.{{fun_00060009 arg=\"0x1F002000210022002300240025002600\"}}",
      "EUen": "My dream is for everyone to find\nsomething they can be passionate\nabout and to fully enjoy each day.\nThat's why the badges this old man\ngives out are recognition of the love\npeople have for their hobbies.{{fun_00060009 arg=\"0x1F002000210022002300240025002600\"}}",
      "EUes": "Escucha con atención, jovencit{{fun_0006000E arg=\"0x02006F0002006100\"}},\nque voy a contarte mi sueño más\nanhelado:\nque cada individuo encuentre\nun pasatiempo que le apasione\ny con el que disfrute a diario.\nPor eso considero mis insignias\ncomo un símbolo de dedicación\nhacia la afición escogida.{{fun_00060009 arg=\"0x1F002000210022002300240025002600\"}}",
      "EUfr": "Mon rêve, c'est que chacun puisse\ntrouver une passion qui lui apporte\nbeaucoup de joie.{{pageBreak}}Et les badges que je donne sont les\npreuves des efforts que les gens\nmettent dans leur passion.{{fun_00060009 arg=\"0x1F002000210022002300240025002600\"}}",
      "EUit": "Sai qual è il mio sogno? Che tutti\nsi godano la vita e trovino interessi\nche li rendano felici ogni giorno.\nI miei distintivi servono proprio\na questo: li do a chi si sforza\ndi coltivare i propri hobby.{{fun_00060009 arg=\"0x1F002000210022002300240025002600\"}}",
      "JPja": "おじちゃんはねぇ、{{delay frames=\"10\"}}みんなが\n{{ruby charSpan=\"1\" value=\"なに\"}}何か　{{ruby charSpan=\"2\" value=\"むちゅう\"}}夢中になれることを{{ruby charSpan=\"1\" value=\"み\"}}見つけて{{delay frames=\"5\"}}\n{{ruby charSpan=\"2\" value=\"まいにち\"}}毎日を{{ruby charSpan=\"1\" value=\"たの\"}}楽しんで{{ruby charSpan=\"1\" value=\"ほ\"}}欲しいと{{ruby charSpan=\"1\" value=\"おも\"}}思ってるんだぁ{{pageBreak}}だから　おじちゃんのバッジは、{{delay frames=\"5\"}}\n{{ruby charSpan=\"1\" value=\"なに\"}}何かに{{ruby charSpan=\"2\" value=\"むちゅう\"}}夢中になって　がんばった{{ruby charSpan=\"1\" value=\"ひと\"}}人のための\n{{ruby charSpan=\"1\" value=\"あかし\"}}証でもあるんだよぉ{{fun_00060009 arg=\"0x1F002000210022002300240025002600\"}}",
      "KRko": "아저씨는 말이지{{delay frames=\"8\"}}・{{delay frames=\"8\"}}・{{delay frames=\"8\"}}・{{delay frames=\"8\"}}{{pageBreak}}모두가 자신이 열중할 수 있는 일을 찾아서{{delay frames=\"5\"}}\n즐겁게 지내는 모습을 볼 수만 있다면\n그걸로 족하단다{{delay frames=\"8\"}}・{{delay frames=\"8\"}}・{{delay frames=\"8\"}}・{{delay frames=\"8\"}}{{pageBreak}}그래서 무엇인가에 열중해서{{delay frames=\"5\"}}\n성과를 낸 사람을 격려하기 위해\n배지를 나눠주고 있는 거지{{fun_00060009 arg=\"0x1F002000210022002300240025002600\"}}",
      "USen": "My dream is for everyone to find\nsomething they can be passionate\nabout and to fully enjoy each day.\nThat's why the badges this old man\ngives out are recognition of the love\npeople have for their hobbies.{{fun_00060009 arg=\"0x1F002000210022002300240025002600\"}}",
      "USes": "Escucha con atención, jovencit{{fun_0006000E arg=\"0x02006F0002006100\"}},\nque voy a contarte mi sueño más\nanhelado:\nque cada individuo encuentre\nun pasatiempo que le apasione\ny con el que disfrute a diario.\nPor eso considero mis insignias\ncomo un símbolo de dedicación\nhacia la afición escogida.{{fun_00060009 arg=\"0x1F002000210022002300240025002600\"}}",
      "USfr": "Mon rêve, c'est que chacun puisse\ntrouver une passion qui lui apporte\nbeaucoup de joie.{{pageBreak}}Et les badges que je donne sont les\npreuves des efforts que les gens\nmettent dans leur passion.{{fun_00060009 arg=\"0x1F002000210022002300240025002600\"}}"
    }
  },
  {
    "label": "024",
    "locale": {
      "EUde": "",
      "EUen": "",
      "EUes": "",
      "EUfr": "",
      "EUit": "",
      "JPja": "",
      "KRko": "",
      "USen": "",
      "USes": "",
      "USfr": ""
    }
  },
  {
    "label": "025",
    "locale": {
      "EUde": "",
      "EUen": "",
      "EUes": "",
      "EUfr": "",
      "EUit": "",
      "JPja": "",
      "KRko": "",
      "USen": "",
      "USes": "",
      "USfr": ""
    }
  },
  {
    "label": "026",
    "locale": {
      "EUde": "",
      "EUen": "",
      "EUes": "",
      "EUfr": "",
      "EUit": "",
      "JPja": "",
      "KRko": "",
      "USen": "",
      "USes": "",
      "USfr": ""
    }
  },
  {
    "label": "027",
    "locale": {
      "EUde": "{{fun_00060009 arg=\"0x1F002000210022002300240025002600\"}}",
      "EUen": "{{fun_00060009 arg=\"0x1F002000210022002300240025002600\"}}",
      "EUes": "{{fun_00060009 arg=\"0x1F002000210022002300240025002600\"}}",
      "EUfr": "{{fun_00060009 arg=\"0x1F002000210022002300240025002600\"}}",
      "EUit": "{{fun_00060009 arg=\"0x1F002000210022002300240025002600\"}}",
      "JPja": "{{fun_00060009 arg=\"0x1F002000210022002300240025002600\"}}",
      "KRko": "{{fun_00060009 arg=\"0x1F002000210022002300240025002600\"}}",
      "USen": "{{fun_00060009 arg=\"0x1F002000210022002300240025002600\"}}",
      "USes": "{{fun_00060009 arg=\"0x1F002000210022002300240025002600\"}}",
      "USfr": "{{fun_00060009 arg=\"0x1F002000210022002300240025002600\"}}"
    }
  },
  {
    "label": "028",
    "locale": {
      "EUde": "{{fun_00060009 arg=\"0x2700280029002A002B002C002D002E00\"}}",
      "EUen": "{{fun_00060009 arg=\"0x2700280029002A002B002C002D002E00\"}}",
      "EUes": "{{fun_00060009 arg=\"0x2700280029002A002B002C002D002E00\"}}",
      "EUfr": "{{fun_00060009 arg=\"0x2700280029002A002B002C002D002E00\"}}",
      "EUit": "{{fun_00060009 arg=\"0x2700280029002A002B002C002D002E00\"}}",
      "JPja": "{{fun_00060009 arg=\"0x2700280029002A002B002C002D002E00\"}}",
      "KRko": "{{fun_00060009 arg=\"0x2700280029002A002B002C002D002E00\"}}",
      "USen": "{{fun_00060009 arg=\"0x2700280029002A002B002C002D002E00\"}}",
      "USes": "{{fun_00060009 arg=\"0x2700280029002A002B002C002D002E00\"}}",
      "USfr": "{{fun_00060009 arg=\"0x2700280029002A002B002C002D002E00\"}}"
    }
  },
  {
    "label": "029",
    "locale": {
      "EUde": "{{fun_00060009 arg=\"0x2F003000310032003300340035003600\"}}",
      "EUen": "{{fun_00060009 arg=\"0x2F003000310032003300340035003600\"}}",
      "EUes": "{{fun_00060009 arg=\"0x2F003000310032003300340035003600\"}}",
      "EUfr": "{{fun_00060009 arg=\"0x2F003000310032003300340035003600\"}}",
      "EUit": "{{fun_00060009 arg=\"0x2F003000310032003300340035003600\"}}",
      "JPja": "{{fun_00060009 arg=\"0x2F003000310032003300340035003600\"}}",
      "KRko": "{{fun_00060009 arg=\"0x2F003000310032003300340035003600\"}}",
      "USen": "{{fun_00060009 arg=\"0x2F003000310032003300340035003600\"}}",
      "USes": "{{fun_00060009 arg=\"0x2F003000310032003300340035003600\"}}",
      "USfr": "{{fun_00060009 arg=\"0x2F003000310032003300340035003600\"}}"
    }
  },
  {
    "label": "031",
    "locale": {
      "EUde": "Zum Beispiel jemand, der Insekten\nsammelt und auch schon viele\ngefangen hat...",
      "EUen": "For example,{{delay frames=\"10\"}} someone who really\nloves catching bugs and has caught\na whole slew of them{{delay frames=\"5\"}}.{{delay frames=\"5\"}}.{{delay frames=\"5\"}}.",
      "EUes": "Por ejemplo,{{delay frames=\"10\"}} le daría una a alguien\nque lo pasara pipa cazando bichos y\nconsiguiera atrapar un montón{{delay frames=\"5\"}}.{{delay frames=\"5\"}}.{{delay frames=\"5\"}}.",
      "EUfr": "Par exemple,{{delay frames=\"10\"}} si quelqu'un adore\nattraper les insectes et en a déjà\npris un très grand nombre{{delay frames=\"5\"}}.{{delay frames=\"5\"}}.{{delay frames=\"5\"}}.",
      "EUit": "Per esempio,{{delay frames=\"10\"}} a qualcuno che\nadora catturare insetti e ne ha\npresi tantissimi{{delay frames=\"5\"}}.{{delay frames=\"5\"}}.{{delay frames=\"5\"}}.",
      "JPja": "たとえば、{{delay frames=\"10\"}}ムシとりに　{{ruby charSpan=\"2\" value=\"むちゅう\"}}夢中になって{{delay frames=\"5\"}}\nたくさんのムシを　つかまえた{{ruby charSpan=\"1\" value=\"ひと\"}}人{{delay frames=\"5\"}}・{{delay frames=\"5\"}}・{{delay frames=\"5\"}}・",
      "KRko": "예를 들면 {{delay frames=\"10\"}}곤충채집에 열중해서{{delay frames=\"5\"}}\n곤충을 많이 잡은 친구라든가{{delay frames=\"5\"}}・{{delay frames=\"5\"}}・{{delay frames=\"5\"}}・",
      "USen": "For example,{{delay frames=\"10\"}} someone who really\nloves catching bugs and has caught\na whole slew of them{{delay frames=\"5\"}}.{{delay frames=\"5\"}}.{{delay frames=\"5\"}}.",
      "USes": "Por ejemplo,{{delay frames=\"10\"}} le daría una a alguien\nque lo pasara pipa cazando bichos y\nconsiguiera atrapar un montón{{delay frames=\"5\"}}.{{delay frames=\"5\"}}.{{delay frames=\"5\"}}.",
      "USfr": "Par exemple,{{delay frames=\"10\"}} si quelqu'un adore\nattraper les insectes et en a déjà\npris un très grand nombre{{delay frames=\"5\"}}.{{delay frames=\"5\"}}.{{delay frames=\"5\"}}."
    }
  },
  {
    "label": "032",
    "locale": {
      "EUde": "Zum Beispiel jemand, der gern\nangelt und auch schon viele Fische\ngefangen hat...",
      "EUen": "For example,{{delay frames=\"10\"}} someone who really\nloves catching fish and has caught\na whole mess of them{{delay frames=\"5\"}}.{{delay frames=\"5\"}}.{{delay frames=\"5\"}}.",
      "EUes": "Por ejemplo,{{delay frames=\"10\"}} le daría una a alguien\nque lo pasara bomba pescando y\natrapara un buen puñado de peces{{delay frames=\"5\"}}.{{delay frames=\"5\"}}.{{delay frames=\"5\"}}.",
      "EUfr": "Par exemple,{{delay frames=\"10\"}} si quelqu'un adore la\npêche et a déjà pris beaucoup de\npoissons{{delay frames=\"5\"}}.{{delay frames=\"5\"}}.{{delay frames=\"5\"}}.",
      "EUit": "Per esempio,{{delay frames=\"10\"}} a qualcuno a cui\npiace pescare e ha preso\nuna valanga di pescioni{{delay frames=\"5\"}}.{{delay frames=\"5\"}}.{{delay frames=\"5\"}}.",
      "JPja": "たとえば、{{delay frames=\"10\"}}{{ruby charSpan=\"1\" value=\"つ\"}}釣りに　{{ruby charSpan=\"2\" value=\"むちゅう\"}}夢中になって{{delay frames=\"5\"}}\nたくさん　おサカナを{{ruby charSpan=\"1\" value=\"つ\"}}釣った{{ruby charSpan=\"1\" value=\"ひと\"}}人{{delay frames=\"5\"}}・{{delay frames=\"5\"}}・{{delay frames=\"5\"}}・",
      "KRko": "예를 들면 {{delay frames=\"10\"}}낚시에 열중해서{{delay frames=\"5\"}}\n물고기를 많이 잡은 친구라든가{{delay frames=\"5\"}}・{{delay frames=\"5\"}}・{{delay frames=\"5\"}}・",
      "USen": "For example,{{delay frames=\"10\"}} someone who really\nloves catching fish and has caught\na whole mess of them{{delay frames=\"5\"}}.{{delay frames=\"5\"}}.{{delay frames=\"5\"}}.",
      "USes": "Por ejemplo,{{delay frames=\"10\"}} le daría una a alguien\nque lo pasara bomba pescando y\natrapara un buen puñado de peces{{delay frames=\"5\"}}.{{delay frames=\"5\"}}.{{delay frames=\"5\"}}.",
      "USfr": "Par exemple,{{delay frames=\"10\"}} si quelqu'un adore la\npêche et a déjà pris beaucoup de\npoissons{{delay frames=\"5\"}}.{{delay frames=\"5\"}}.{{delay frames=\"5\"}}."
    }
  },
  {
    "label": "033",
    "locale": {
      "EUde": "Zum Beispiel jemand, der gern\ntaucht und auch schon viele\nMeeresfrüchte gesammelt hat...",
      "EUen": "For example,{{delay frames=\"10\"}} someone who really\nloves diving and has found a bunch\nof creatures under the sea{{delay frames=\"5\"}}.{{delay frames=\"5\"}}.{{delay frames=\"5\"}}.",
      "EUes": "Por ejemplo,{{delay frames=\"10\"}} le daría una a alguien\nque buceara mucho y que cogiera\nplantas y mariscos varios{{delay frames=\"5\"}}.{{delay frames=\"5\"}}.{{delay frames=\"5\"}}.",
      "EUfr": "Par exemple,{{delay frames=\"10\"}} si quelqu'un adore la\nplongée sous-marine et a déjà\nattrapé beaucoup de fruits de mer{{delay frames=\"5\"}}.{{delay frames=\"5\"}}.{{delay frames=\"5\"}}.",
      "EUit": "Per esempio,{{delay frames=\"10\"}} a qualcuno che adora\nle immersioni e ha trovato un sacco\ndi creature marine{{delay frames=\"5\"}}.{{delay frames=\"5\"}}.{{delay frames=\"5\"}}.",
      "JPja": "たとえば、{{delay frames=\"10\"}}{{ruby charSpan=\"1\" value=\"す\"}}素もぐりに　{{ruby charSpan=\"2\" value=\"むちゅう\"}}夢中になって{{delay frames=\"5\"}}\nたくさん　{{ruby charSpan=\"1\" value=\"うみ\"}}海の{{ruby charSpan=\"1\" value=\"さち\"}}幸を{{ruby charSpan=\"1\" value=\"み\"}}見つけた{{ruby charSpan=\"1\" value=\"ひと\"}}人{{delay frames=\"5\"}}・{{delay frames=\"5\"}}・{{delay frames=\"5\"}}・",
      "KRko": "예를 들면 {{delay frames=\"10\"}}잠수에 열중해서{{delay frames=\"5\"}}\n해산물을 많이 건진 친구라든가{{delay frames=\"5\"}}・{{delay frames=\"5\"}}・{{delay frames=\"5\"}}・",
      "USen": "For example,{{delay frames=\"10\"}} someone who really\nloves diving and has found a bunch\nof creatures under the sea{{delay frames=\"5\"}}.{{delay frames=\"5\"}}.{{delay frames=\"5\"}}.",
      "USes": "Por ejemplo,{{delay frames=\"10\"}} le daría una a alguien\nque buceara mucho y que agarrara \nplantas y mariscos varios{{delay frames=\"5\"}}.{{delay frames=\"5\"}}.{{delay frames=\"5\"}}.",
      "USfr": "Par exemple,{{delay frames=\"10\"}} si quelqu'un adore la\nplongée sous-marine et a déjà\nattrapé beaucoup de fruits de mer{{delay frames=\"5\"}}.{{delay frames=\"5\"}}.{{delay frames=\"5\"}}."
    }
  },
  {
    "label": "034",
    "locale": {
      "EUde": "Zum Beispiel jemand, der viele\nverschiedene Insekten gefangen\nhat...",
      "EUen": "For example,{{delay frames=\"10\"}} someone who's caught\na lot of different kinds of bugs{{delay frames=\"5\"}}.{{delay frames=\"5\"}}.{{delay frames=\"5\"}}.",
      "EUes": "Por ejemplo,{{delay frames=\"10\"}} le daría una a alguien\nque atrapara un buen puñado de\nbichos diferentes{{delay frames=\"5\"}}.{{delay frames=\"5\"}}.{{delay frames=\"5\"}}.",
      "EUfr": "Par exemple,{{delay frames=\"10\"}} si quelqu'un a déjà\nattrapé plusieurs sortes d'insectes\ndifférents{{delay frames=\"5\"}}.{{delay frames=\"5\"}}.{{delay frames=\"5\"}}.",
      "EUit": "Per esempio,{{delay frames=\"10\"}} a qualcuno che\nha catturato tanti tipi diversi\ndi insetti{{delay frames=\"5\"}}.{{delay frames=\"5\"}}.{{delay frames=\"5\"}}.",
      "JPja": "たとえば、{{delay frames=\"10\"}}{{ruby charSpan=\"1\" value=\"いろ\"}}色んなムシをつかまえて、{{delay frames=\"10\"}}\nムシの{{ruby charSpan=\"2\" value=\"しゅるい\"}}種類に\nとっても　くわしくなった{{ruby charSpan=\"1\" value=\"ひと\"}}人{{delay frames=\"5\"}}・{{delay frames=\"5\"}}・{{delay frames=\"5\"}}・",
      "KRko": "예를 들면 {{delay frames=\"10\"}}다양한 곤충을 잡아서{{delay frames=\"10\"}}\n곤충에 대한 지식을\n많이 쌓은 친구라든가{{delay frames=\"5\"}}・{{delay frames=\"5\"}}・{{delay frames=\"5\"}}・",
      "USen": "For example,{{delay frames=\"10\"}} someone who's caught\na lot of different kinds of bugs{{delay frames=\"5\"}}.{{delay frames=\"5\"}}.{{delay frames=\"5\"}}.",
      "USes": "Por ejemplo,{{delay frames=\"10\"}} le daría una a alguien\nque atrapara un buen puñado de\nbichos diferentes{{delay frames=\"5\"}}.{{delay frames=\"5\"}}.{{delay frames=\"5\"}}.",
      "USfr": "Par exemple,{{delay frames=\"10\"}} si quelqu'un a déjà\nattrapé plusieurs sortes d'insectes\ndifférents{{delay frames=\"5\"}}.{{delay frames=\"5\"}}.{{delay frames=\"5\"}}."
    }
  },
  {
    "label": "035",
    "locale": {
      "EUde": "Zum Beispiel jemand, der viele\nverschiedene Fische gefangen hat...",
      "EUen": "For example,{{delay frames=\"10\"}} someone who's caught\na lot of different kinds of fish{{delay frames=\"5\"}}.{{delay frames=\"5\"}}.{{delay frames=\"5\"}}.",
      "EUes": "Por ejemplo,{{delay frames=\"10\"}} le daría una a alguien\nque pescara una cantidad mareante\nde peces distintos{{delay frames=\"5\"}}.{{delay frames=\"5\"}}.{{delay frames=\"5\"}}.",
      "EUfr": "Par exemple,{{delay frames=\"10\"}} si quelqu'un a déjà\npêché plusieurs sortes de poissons\ndifférents{{delay frames=\"5\"}}.{{delay frames=\"5\"}}.{{delay frames=\"5\"}}.",
      "EUit": "Per esempio,{{delay frames=\"10\"}} a qualcuno che ha\npescato tanti tipi diversi di pesci{{delay frames=\"5\"}}.{{delay frames=\"5\"}}.{{delay frames=\"5\"}}.",
      "JPja": "たとえば、{{delay frames=\"10\"}}{{ruby charSpan=\"1\" value=\"いろ\"}}色んな　おサカナを{{ruby charSpan=\"1\" value=\"つ\"}}釣って、{{delay frames=\"10\"}}\nおサカナの{{ruby charSpan=\"2\" value=\"しゅるい\"}}種類に\nとっても　くわしくなった{{ruby charSpan=\"1\" value=\"ひと\"}}人{{delay frames=\"5\"}}・{{delay frames=\"5\"}}・{{delay frames=\"5\"}}・",
      "KRko": "예를 들면 {{delay frames=\"10\"}}다양한 물고기를 잡아서{{delay frames=\"10\"}}\n물고기에 대한 지식을\n많이 쌓은 친구라든가{{delay frames=\"5\"}}・{{delay frames=\"5\"}}・{{delay frames=\"5\"}}・",
      "USen": "For example,{{delay frames=\"10\"}} someone who's caught\na lot of different kinds of fish{{delay frames=\"5\"}}.{{delay frames=\"5\"}}.{{delay frames=\"5\"}}.",
      "USes": "Por ejemplo,{{delay frames=\"10\"}} le daría una a alguien\nque pescara una cantidad mareante\nde peces distintos{{delay frames=\"5\"}}.{{delay frames=\"5\"}}.{{delay frames=\"5\"}}.",
      "USfr": "Par exemple,{{delay frames=\"10\"}} si quelqu'un a déjà\npêché plusieurs sortes de poissons\ndifférents{{delay frames=\"5\"}}.{{delay frames=\"5\"}}.{{delay frames=\"5\"}}."
    }
  },
  {
    "label": "036",
    "locale": {
      "EUde": "Zum Beispiel jemand, der im Meer\nviele verschiedene Arten von\nMeeresfrüchten gefunden hat...",
      "EUen": "For example,{{delay frames=\"10\"}} someone who's found\na lot of different things in the sea{{delay frames=\"5\"}}.{{delay frames=\"5\"}}.{{delay frames=\"5\"}}.",
      "EUes": "Por ejemplo,{{delay frames=\"10\"}} le daría una a alguien\nque consiguiera muchos ejemplares\ndistintos de especies marinas{{delay frames=\"5\"}}.{{delay frames=\"5\"}}.{{delay frames=\"5\"}}.",
      "EUfr": "Par exemple,{{delay frames=\"10\"}} si quelqu'un a déjà\nattrapé plusieurs sortes de fruits\nde mer différents{{delay frames=\"5\"}}.{{delay frames=\"5\"}}.{{delay frames=\"5\"}}.",
      "EUit": "Per esempio,{{delay frames=\"10\"}} a qualcuno che ha\ntrovato molte meraviglie nel mare{{delay frames=\"5\"}}.{{delay frames=\"5\"}}.{{delay frames=\"5\"}}.",
      "JPja": "たとえば、{{delay frames=\"10\"}}{{ruby charSpan=\"1\" value=\"いろ\"}}色んな{{ruby charSpan=\"1\" value=\"うみ\"}}海の{{ruby charSpan=\"1\" value=\"さち\"}}幸を{{ruby charSpan=\"1\" value=\"み\"}}見つけて、{{delay frames=\"10\"}}\n{{ruby charSpan=\"1\" value=\"うみ\"}}海の{{ruby charSpan=\"1\" value=\"さち\"}}幸の{{ruby charSpan=\"2\" value=\"しゅるい\"}}種類に\nとっても　くわしくなった{{ruby charSpan=\"1\" value=\"ひと\"}}人{{delay frames=\"5\"}}・{{delay frames=\"5\"}}・{{delay frames=\"5\"}}・",
      "KRko": "예를 들면 {{delay frames=\"10\"}}다양한 해산물을 건져서{{delay frames=\"10\"}}\n해산물에 대한 지식을\n많이 쌓은 친구라든가{{delay frames=\"5\"}}・{{delay frames=\"5\"}}・{{delay frames=\"5\"}}・",
      "USen": "For example,{{delay frames=\"10\"}} someone who's found\na lot of different things in the sea{{delay frames=\"5\"}}.{{delay frames=\"5\"}}.{{delay frames=\"5\"}}.",
      "USes": "Por ejemplo,{{delay frames=\"10\"}} le daría una a alguien\nque consiguiera muchos ejemplares\ndistintos de especies marinas{{delay frames=\"5\"}}.{{delay frames=\"5\"}}.{{delay frames=\"5\"}}.",
      "USfr": "Par exemple,{{delay frames=\"10\"}} si quelqu'un a déjà\nattrapé plusieurs sortes de fruits\nde mer différents{{delay frames=\"5\"}}.{{delay frames=\"5\"}}.{{delay frames=\"5\"}}."
    }
  },
  {
    "label": "037",
    "locale": {
      "EUde": "Zum Beispiel jemand, der gut darin\nist, mit der Schleuder Ballons\nabzuschießen...",
      "EUen": "For example,{{delay frames=\"10\"}} someone who is very\ngood at using a slingshot for taking\ndown those balloons that appear{{delay frames=\"5\"}}.{{delay frames=\"5\"}}.{{delay frames=\"5\"}}.",
      "EUes": "Por ejemplo,{{delay frames=\"10\"}} le daría una a alguien\nque fuera un portento explotando\nglobos con el tirachinas{{delay frames=\"5\"}}.{{delay frames=\"5\"}}.{{delay frames=\"5\"}}.",
      "EUfr": "Par exemple,{{delay frames=\"10\"}} si quelqu'un est très\ndoué au lance-pierre et a déjà\néclaté beaucoup de ballons{{delay frames=\"5\"}}.{{delay frames=\"5\"}}.{{delay frames=\"5\"}}.",
      "EUit": "Per esempio,{{delay frames=\"10\"}} a qualcuno che è\nbravissimo a centrare i palloncini\ncon la fionda{{delay frames=\"5\"}}.{{delay frames=\"5\"}}.{{delay frames=\"5\"}}.",
      "JPja": "たとえば、{{delay frames=\"10\"}}パチンコ{{ruby charSpan=\"1\" value=\"あそ\"}}遊びが{{ruby charSpan=\"2\" value=\"じょうず\"}}上手で、{{delay frames=\"10\"}}\nたくさんの　{{ruby charSpan=\"2\" value=\"そらと\"}}空飛ぶ{{ruby charSpan=\"2\" value=\"ふうせん\"}}風船を\n{{ruby charSpan=\"1\" value=\"う\"}}撃ち{{ruby charSpan=\"1\" value=\"お\"}}落とした{{ruby charSpan=\"1\" value=\"ひと\"}}人{{delay frames=\"5\"}}・{{delay frames=\"5\"}}・{{delay frames=\"5\"}}・",
      "KRko": "예를 들면 {{delay frames=\"10\"}}새총을 잘 다뤄서{{delay frames=\"10\"}}\n날아가는 풍선을 많이 맞혀\n떨어뜨린 친구라든가{{delay frames=\"5\"}}・{{delay frames=\"5\"}}・{{delay frames=\"5\"}}・",
      "USen": "For example,{{delay frames=\"10\"}} someone who is very\ngood at using a slingshot for taking\ndown those balloons that appear{{delay frames=\"5\"}}.{{delay frames=\"5\"}}.{{delay frames=\"5\"}}.",
      "USes": "Por ejemplo,{{delay frames=\"10\"}} le daría una a alguien\nque fuera un portento explotando\nglobos con el tirachinas{{delay frames=\"5\"}}.{{delay frames=\"5\"}}.{{delay frames=\"5\"}}.",
      "USfr": "Par exemple,{{delay frames=\"10\"}} si quelqu'un est très\ndoué au lance-pierre et a déjà\néclaté beaucoup de ballons{{delay frames=\"5\"}}.{{delay frames=\"5\"}}.{{delay frames=\"5\"}}."
    }
  },
  {
    "label": "038",
    "locale": {
      "EUde": "Zum Beispiel jemand, der auf\nzahlreichen Inselausflügen viele\nMedaillen gewonnen hat...",
      "EUen": "For example,{{delay frames=\"10\"}} someone who has\ngone on a lot of tropical-island\ntours to collect a lot of medals{{delay frames=\"5\"}}.{{delay frames=\"5\"}}.{{delay frames=\"5\"}}.",
      "EUes": "Por ejemplo,{{delay frames=\"10\"}} le daría una a alguien\nque obtuviera infinidad de medallas\nhaciendo tours en islas tropicales{{delay frames=\"5\"}}.{{delay frames=\"5\"}}.{{delay frames=\"5\"}}.",
      "EUfr": "Par exemple,{{delay frames=\"10\"}} si quelqu'un a gagné\nbeaucoup de médailles lors\nd'excursions dans les îles{{delay frames=\"5\"}}.{{delay frames=\"5\"}}.{{delay frames=\"5\"}}.",
      "EUit": "Per esempio,{{delay frames=\"10\"}} a qualcuno che ha\npreso parte a molti tour tropicali\ne ha ottenuto svariate medaglie{{delay frames=\"5\"}}.{{delay frames=\"5\"}}.{{delay frames=\"5\"}}.",
      "JPja": "たとえば、{{delay frames=\"10\"}}{{ruby charSpan=\"1\" value=\"みなみ\"}}南の{{ruby charSpan=\"1\" value=\"しま\"}}島で\n{{ruby charSpan=\"1\" value=\"いろ\"}}色んなツアーに{{ruby charSpan=\"1\" value=\"で\"}}出かけて、{{delay frames=\"10\"}}\nたくさんのメダルを{{ruby charSpan=\"1\" value=\"あつ\"}}集めた{{ruby charSpan=\"1\" value=\"ひと\"}}人{{delay frames=\"5\"}}・{{delay frames=\"5\"}}・{{delay frames=\"5\"}}・",
      "KRko": "예를 들면 {{delay frames=\"10\"}}남쪽 섬에서\n다양한 투어를 다니면서{{delay frames=\"10\"}}\n메달을 많이 딴 친구라든가{{delay frames=\"5\"}}・{{delay frames=\"5\"}}・{{delay frames=\"5\"}}・",
      "USen": "For example,{{delay frames=\"10\"}} someone who has\ngone on a lot of tropical-island\ntours to collect a lot of medals{{delay frames=\"5\"}}.{{delay frames=\"5\"}}.{{delay frames=\"5\"}}.",
      "USes": "Por ejemplo,{{delay frames=\"10\"}} le daría una a alguien\nque obtuviera infinidad de medallas\nhaciendo tours en islas tropicales{{delay frames=\"5\"}}.{{delay frames=\"5\"}}.{{delay frames=\"5\"}}.",
      "USfr": "Par exemple,{{delay frames=\"10\"}} si quelqu'un a gagné\nbeaucoup de médailles lors\nd'excursions dans les îles{{delay frames=\"5\"}}.{{delay frames=\"5\"}}.{{delay frames=\"5\"}}."
    }
  },
  {
    "label": "039",
    "locale": {
      "EUde": "Zum Beispiel jemand, der gern\ngärtnert und in der ganzen Stadt\nviele Blumen gepflanzt hat...",
      "EUen": "For example,{{delay frames=\"10\"}} someone who loves\ngardening{{delay frames=\"10\"}} and has planted a lot of\nflowers all around town{{delay frames=\"5\"}}.{{delay frames=\"5\"}}.{{delay frames=\"5\"}}.",
      "EUes": "Por ejemplo,{{delay frames=\"10\"}} le daría una a alguien\nque adorara la jardinería y que\nplantara flores por todo el pueblo{{delay frames=\"5\"}}.{{delay frames=\"5\"}}.{{delay frames=\"5\"}}.",
      "EUfr": "Par exemple,{{delay frames=\"10\"}} si quelqu'un adore\njardiner et a fait pousser de\nnombreuses fleurs en ville{{delay frames=\"5\"}}.{{delay frames=\"5\"}}.{{delay frames=\"5\"}}.",
      "EUit": "Per esempio,{{delay frames=\"10\"}} a qualcuno che adora\nil giardinaggio{{delay frames=\"10\"}} e ha arricchito\nla città con molte piante{{delay frames=\"5\"}}.{{delay frames=\"5\"}}.{{delay frames=\"5\"}}.",
      "JPja": "たとえば、{{delay frames=\"10\"}}ガーデニングが{{ruby charSpan=\"1\" value=\"す\"}}好きで、{{delay frames=\"10\"}}\nたくさんの　お{{ruby charSpan=\"1\" value=\"はな\"}}花を{{ruby charSpan=\"1\" value=\"う\"}}植えて\n{{ruby charSpan=\"1\" value=\"むら\"}}村をキレイにした{{ruby charSpan=\"1\" value=\"ひと\"}}人{{delay frames=\"5\"}}・{{delay frames=\"5\"}}・{{delay frames=\"5\"}}・",
      "KRko": "예를 들면 {{delay frames=\"10\"}}정원을 좋아해서{{delay frames=\"10\"}}\n꽃이랑 나무를 많이 심는 일로\n마을을 아름답게 한 친구라든가{{delay frames=\"5\"}}・{{delay frames=\"5\"}}・{{delay frames=\"5\"}}・",
      "USen": "For example,{{delay frames=\"10\"}} someone who loves\ngardening{{delay frames=\"10\"}} and has planted a lot of\nflowers all around town{{delay frames=\"5\"}}.{{delay frames=\"5\"}}.{{delay frames=\"5\"}}.",
      "USes": "Por ejemplo,{{delay frames=\"10\"}} le daría una a alguien\nque adorara la jardinería y que\nplantara flores por todo el pueblo{{delay frames=\"5\"}}.{{delay frames=\"5\"}}.{{delay frames=\"5\"}}.",
      "USfr": "Par exemple,{{delay frames=\"10\"}} si quelqu'un adore\njardiner et a fait pousser de\nnombreuses fleurs en ville{{delay frames=\"5\"}}.{{delay frames=\"5\"}}.{{delay frames=\"5\"}}."
    }
  },
  {
    "label": "040",
    "locale": {
      "EUde": "Zum Beispiel jemand, der viel\nUnkraut jätet und so die Stadt\nschöner macht...",
      "EUen": "For example,{{delay frames=\"10\"}} someone who's put a\nlot of time into plucking weeds and\nmaking the town prettier{{delay frames=\"5\"}}.{{delay frames=\"5\"}}.{{delay frames=\"5\"}}.",
      "EUes": "Por ejemplo,{{delay frames=\"10\"}} le daría una a alguien\nque dedicara su tiempo libre a\narrancar los hierbajos del pueblo{{delay frames=\"5\"}}.{{delay frames=\"5\"}}.{{delay frames=\"5\"}}.",
      "EUfr": "Par exemple,{{delay frames=\"10\"}} si quelqu'un a passé\nbeaucoup de temps à arracher les\nmauvaises herbes en ville{{delay frames=\"5\"}}.{{delay frames=\"5\"}}.{{delay frames=\"5\"}}.",
      "EUit": "Ad esempio,{{delay frames=\"10\"}} a chi si è preso la briga\ndi strappare erbacce, rendendo\nla nostra città un posto migliore{{delay frames=\"5\"}}.{{delay frames=\"5\"}}.{{delay frames=\"5\"}}.",
      "JPja": "たとえば、{{delay frames=\"10\"}}{{ruby charSpan=\"1\" value=\"むら\"}}村をキレイにするために、{{delay frames=\"10\"}}\n{{ruby charSpan=\"1\" value=\"くさ\"}}草むしりを　すごくがんばってる{{ruby charSpan=\"1\" value=\"ひと\"}}人{{delay frames=\"5\"}}・{{delay frames=\"5\"}}・{{delay frames=\"5\"}}・",
      "KRko": "예를 들면 {{delay frames=\"10\"}}마을을 깨끗하게 하기 위해{{delay frames=\"10\"}}\n잡초를 뽑는 일에\n열중하는 친구라든가{{delay frames=\"5\"}}・{{delay frames=\"5\"}}・{{delay frames=\"5\"}}・",
      "USen": "For example,{{delay frames=\"10\"}} someone who's put a\nlot of time into plucking weeds and\nmaking the town prettier{{delay frames=\"5\"}}.{{delay frames=\"5\"}}.{{delay frames=\"5\"}}.",
      "USes": "Por ejemplo,{{delay frames=\"10\"}} le daría una a alguien\nque dedicara su tiempo libre a\narrancar los hierbajos del pueblo{{delay frames=\"5\"}}.{{delay frames=\"5\"}}.{{delay frames=\"5\"}}.",
      "USfr": "Par exemple,{{delay frames=\"10\"}} si quelqu'un a passé\nbeaucoup de temps à arracher les\nmauvaises herbes en ville{{delay frames=\"5\"}}.{{delay frames=\"5\"}}.{{delay frames=\"5\"}}."
    }
  },
  {
    "label": "041",
    "locale": {
      "EUde": "Zum Beispiel jemand, der eine\nMenge Sternis angespart hat...",
      "EUen": "For example,{{delay frames=\"10\"}} someone who saves up\nbit by bit and has a lot of Bells in\nsavings{{delay frames=\"5\"}}.{{delay frames=\"5\"}}.{{delay frames=\"5\"}}.",
      "EUes": "Por ejemplo,{{delay frames=\"10\"}} le daría una a alguien\nque, baya a baya, hubiera ahorrado\nun buen pellizco{{delay frames=\"5\"}}.{{delay frames=\"5\"}}.{{delay frames=\"5\"}}.",
      "EUfr": "Par exemple,{{delay frames=\"10\"}} si quelqu'un place\nbeaucoup de clochettes au bureau\nde poste{{delay frames=\"5\"}}.{{delay frames=\"5\"}}.{{delay frames=\"5\"}}.",
      "EUit": "Per esempio,{{delay frames=\"10\"}} a chi risparmia\nstellina dopo stellina e ha messo\nda parte una piccola fortuna{{delay frames=\"5\"}}.{{delay frames=\"5\"}}.{{delay frames=\"5\"}}.",
      "JPja": "たとえば、{{delay frames=\"10\"}}コツコツ{{ruby charSpan=\"2\" value=\"ちょきん\"}}貯金をして、{{delay frames=\"10\"}}\n{{ruby charSpan=\"4\" value=\"ゆうびんちょきん\"}}郵便貯金が　いっぱい{{ruby charSpan=\"1\" value=\"た\"}}貯まった{{ruby charSpan=\"1\" value=\"ひと\"}}人{{delay frames=\"5\"}}・{{delay frames=\"5\"}}・{{delay frames=\"5\"}}・",
      "KRko": "예를 들면 {{delay frames=\"10\"}}저금을 열심히 해서{{delay frames=\"10\"}}\n우체국저축에\n돈이 많이 모인 친구라든가{{delay frames=\"5\"}}・{{delay frames=\"5\"}}・{{delay frames=\"5\"}}・",
      "USen": "For example,{{delay frames=\"10\"}} someone who saves up\nbit by bit and has a lot of Bells in\nsavings{{delay frames=\"5\"}}.{{delay frames=\"5\"}}.{{delay frames=\"5\"}}.",
      "USes": "Por ejemplo,{{delay frames=\"10\"}} le daría una a alguien\nque, baya a baya, hubiera ahorrado\nun buen pellizco{{delay frames=\"5\"}}.{{delay frames=\"5\"}}.{{delay frames=\"5\"}}.",
      "USfr": "Par exemple,{{delay frames=\"10\"}} si quelqu'un place\nbeaucoup de clochettes au bureau\nde poste{{delay frames=\"5\"}}.{{delay frames=\"5\"}}.{{delay frames=\"5\"}}."
    }
  },
  {
    "label": "042",
    "locale": {
      "EUde": "Zum Beispiel jemand, der recht\nerfolgreich am Rübenmarkt\nspekuliert...",
      "EUen": "For example,{{delay frames=\"10\"}} someone who realized\na talent for playing and finding\nsuccess in the stalk market{{delay frames=\"5\"}}.{{delay frames=\"5\"}}.{{delay frames=\"5\"}}.",
      "EUes": "Por ejemplo,{{delay frames=\"10\"}} le daría una a alguien\nque se hiciera de oro comerciando\nen el mercado de nabos{{delay frames=\"5\"}}.{{delay frames=\"5\"}}.{{delay frames=\"5\"}}.",
      "EUfr": "Par exemple,{{delay frames=\"10\"}} si quelqu'un a réussi à\ngagner beaucoup de clochettes\ngrâce au commerce des navets{{delay frames=\"5\"}}.{{delay frames=\"5\"}}.{{delay frames=\"5\"}}.",
      "EUit": "Per esempio,{{delay frames=\"10\"}} a qualcuno che\nha compreso di avere fiuto\nper il mercato delle rape{{delay frames=\"5\"}}.{{delay frames=\"5\"}}.{{delay frames=\"5\"}}.",
      "JPja": "たとえば、{{delay frames=\"10\"}}カブの{{ruby charSpan=\"2\" value=\"さいのう\"}}才能に{{ruby charSpan=\"2\" value=\"めざ\"}}目覚めて、{{delay frames=\"10\"}}\nカブで　たくさんのお{{ruby charSpan=\"1\" value=\"かね\"}}金を\nかせいだ{{ruby charSpan=\"1\" value=\"ひと\"}}人{{delay frames=\"5\"}}・{{delay frames=\"5\"}}・{{delay frames=\"5\"}}・",
      "KRko": "예를 들면 {{delay frames=\"10\"}}무 거래에 재능이 있어서{{delay frames=\"10\"}}\n무를 사고파는 일로\n많은 돈을 번 친구라든가{{delay frames=\"5\"}}・{{delay frames=\"5\"}}・{{delay frames=\"5\"}}・",
      "USen": "For example,{{delay frames=\"10\"}} someone who realized\na talent for playing and finding\nsuccess in the stalk market{{delay frames=\"5\"}}.{{delay frames=\"5\"}}.{{delay frames=\"5\"}}.",
      "USes": "Por ejemplo,{{delay frames=\"10\"}} le daría una a alguien\nque se hiciera de oro comerciando\nen el mercado de nabos{{delay frames=\"5\"}}.{{delay frames=\"5\"}}.{{delay frames=\"5\"}}.",
      "USfr": "Par exemple,{{delay frames=\"10\"}} si quelqu'un a réussi à\ngagner beaucoup de clochettes\ngrâce au commerce des navets{{delay frames=\"5\"}}.{{delay frames=\"5\"}}.{{delay frames=\"5\"}}."
    }
  },
  {
    "label": "043",
    "locale": {
      "EUde": "Zum Beispiel jemand, der gern\nbummeln geht und schon viele\nDinge gekauft hat...",
      "EUen": "For example,{{delay frames=\"10\"}} someone who loves to\nshop and has bought a great number\nof things{{delay frames=\"5\"}}.{{delay frames=\"5\"}}.{{delay frames=\"5\"}}.",
      "EUes": "Por ejemplo,{{delay frames=\"10\"}} le daría una a alguien\nque fuera amante de las compras y\nque adquiriera muchos artículos{{delay frames=\"5\"}}.{{delay frames=\"5\"}}.{{delay frames=\"5\"}}.",
      "EUfr": "Par exemple,{{delay frames=\"10\"}} si quelqu'un adore le\nshopping et a acheté beaucoup de\nchoses{{delay frames=\"5\"}}.{{delay frames=\"5\"}}.{{delay frames=\"5\"}}.",
      "EUit": "Per esempio,{{delay frames=\"10\"}} a qualcuno che adora\nfare shopping e ha comprato\nuna caterva di oggetti{{delay frames=\"5\"}}.{{delay frames=\"5\"}}.{{delay frames=\"5\"}}.",
      "JPja": "たとえば、{{delay frames=\"10\"}}ショッピングが　シュミで、{{delay frames=\"10\"}}\nたくさんの　お{{ruby charSpan=\"1\" value=\"か\"}}買い{{ruby charSpan=\"1\" value=\"もの\"}}物を\n{{ruby charSpan=\"1\" value=\"たの\"}}楽しんでる{{ruby charSpan=\"1\" value=\"ひと\"}}人{{delay frames=\"5\"}}・{{delay frames=\"5\"}}・{{delay frames=\"5\"}}・",
      "KRko": "예를 들면 {{delay frames=\"10\"}}쇼핑을 좋아해서{{delay frames=\"10\"}}\n물건을 많이 사는 친구라든가{{delay frames=\"5\"}}・{{delay frames=\"5\"}}・{{delay frames=\"5\"}}・",
      "USen": "For example,{{delay frames=\"10\"}} someone who loves to\nshop and has bought a great number\nof things{{delay frames=\"5\"}}.{{delay frames=\"5\"}}.{{delay frames=\"5\"}}.",
      "USes": "Por ejemplo,{{delay frames=\"10\"}} le daría una a alguien\nque fuera amante de las compras y\nque adquiriera muchos artículos{{delay frames=\"5\"}}.{{delay frames=\"5\"}}.{{delay frames=\"5\"}}.",
      "USfr": "Par exemple,{{delay frames=\"10\"}} si quelqu'un adore le\nshopping et a acheté beaucoup de\nchoses{{delay frames=\"5\"}}.{{delay frames=\"5\"}}.{{delay frames=\"5\"}}."
    }
  },
  {
    "label": "044",
    "locale": {
      "EUde": "Zum Beispiel jemand, für den {{color id=\"4\"}}Björn{{color id=\"65535\"}}\nschon viele Möbel umgestaltet hat...",
      "EUen": "For example,{{delay frames=\"10\"}} someone who loves\ncustomization and has asked {{color id=\"4\"}}Cyrus{{color id=\"65535\"}}\nto refurbish a lot of furniture{{delay frames=\"5\"}}.{{delay frames=\"5\"}}.{{delay frames=\"5\"}}.",
      "EUes": "Por ejemplo,{{delay frames=\"10\"}} le daría una a alguien\nque hubiera personalizado muchos\nenseres en la tienda de {{color id=\"4\"}}Al{{color id=\"65535\"}}{{delay frames=\"5\"}}.{{delay frames=\"5\"}}.{{delay frames=\"5\"}}.",
      "EUfr": "Par exemple,{{delay frames=\"10\"}} si quelqu'un a fait\nrénover beaucoup de meubles par\n{{color id=\"4\"}}Serge{{color id=\"65535\"}}{{delay frames=\"5\"}}.{{delay frames=\"5\"}}.{{delay frames=\"5\"}}.",
      "EUit": "Per esempio,{{delay frames=\"10\"}} a qualcuno che ha\nchiesto a {{color id=\"4\"}}Merino {{color id=\"65535\"}}di personalizzare\nmolti mobili{{delay frames=\"5\"}}.{{delay frames=\"5\"}}.{{delay frames=\"5\"}}.",
      "JPja": "たとえば、{{delay frames=\"10\"}}リメイクが{{ruby charSpan=\"1\" value=\"す\"}}好きで、{{delay frames=\"10\"}}\nたくさんの　{{ruby charSpan=\"2\" value=\"かぐ\"}}家具のリメイクを\n{{ruby charSpan=\"1\" value=\"たの\"}}楽しんでる{{ruby charSpan=\"1\" value=\"ひと\"}}人{{delay frames=\"5\"}}・{{delay frames=\"5\"}}・{{delay frames=\"5\"}}・",
      "KRko": "예를 들면 {{delay frames=\"10\"}}리폼을 좋아해서{{delay frames=\"10\"}}\n가구 리폼을 많이 하는 친구라든가{{delay frames=\"5\"}}・{{delay frames=\"5\"}}・{{delay frames=\"5\"}}・",
      "USen": "For example,{{delay frames=\"10\"}} someone who loves\ncustomization and has asked {{color id=\"4\"}}Cyrus{{color id=\"65535\"}}\nto refurbish a lot of furniture{{delay frames=\"5\"}}.{{delay frames=\"5\"}}.{{delay frames=\"5\"}}.",
      "USes": "Por ejemplo,{{delay frames=\"10\"}} le daría una a alguien\nque hubiera personalizado muchos\nenseres en la tienda de {{color id=\"4\"}}Al{{color id=\"65535\"}}{{delay frames=\"5\"}}.{{delay frames=\"5\"}}.{{delay frames=\"5\"}}.",
      "USfr": "Par exemple,{{delay frames=\"10\"}} si quelqu'un a fait\nrénover beaucoup de meubles par\n{{color id=\"4\"}}Serge{{color id=\"65535\"}}{{delay frames=\"5\"}}.{{delay frames=\"5\"}}.{{delay frames=\"5\"}}."
    }
  },
  {
    "label": "045",
    "locale": {
      "EUde": "Zum Beispiel jemand, der eine\nSammlung mit etlichen einzigartigen\nItems besitzt...",
      "EUen": "For example,{{delay frames=\"10\"}} someone who loves to\ncollect and has quite a varied\ncollection of unique items{{delay frames=\"5\"}}.{{delay frames=\"5\"}}.{{delay frames=\"5\"}}.",
      "EUes": "Por ejemplo,{{delay frames=\"10\"}} le daría una a alguien\nque adorara coleccionar objetos y\nque tuviera una gran variedad{{delay frames=\"5\"}}.{{delay frames=\"5\"}}.{{delay frames=\"5\"}}.",
      "EUfr": "Par exemple,{{delay frames=\"10\"}} si un collectionneur\ndans l'âme a acquis un grand\nnombre d'objets différents{{delay frames=\"5\"}}.{{delay frames=\"5\"}}.{{delay frames=\"5\"}}.",
      "EUit": "Per esempio,{{delay frames=\"10\"}} a qualcuno che\nha una collezione che comprende\nnumerosissimi oggetti unici{{delay frames=\"5\"}}.{{delay frames=\"5\"}}.{{delay frames=\"5\"}}.",
      "JPja": "たとえば、{{delay frames=\"10\"}}コレクションが{{ruby charSpan=\"1\" value=\"す\"}}好きで、{{delay frames=\"10\"}}\nとにかく　{{ruby charSpan=\"1\" value=\"いろ\"}}色んな{{ruby charSpan=\"2\" value=\"しゅるい\"}}種類のアイテムを\n{{ruby charSpan=\"1\" value=\"て\"}}手にしてきた{{ruby charSpan=\"1\" value=\"ひと\"}}人{{delay frames=\"5\"}}・{{delay frames=\"5\"}}・{{delay frames=\"5\"}}・",
      "KRko": "예를 들면 {{delay frames=\"10\"}}수집에 열중해서{{delay frames=\"10\"}}\n여러 가지 아이템을\n손에 넣은 친구라든가{{delay frames=\"5\"}}・{{delay frames=\"5\"}}・{{delay frames=\"5\"}}・",
      "USen": "For example,{{delay frames=\"10\"}} someone who loves to\ncollect and has quite a varied\ncollection of unique items{{delay frames=\"5\"}}.{{delay frames=\"5\"}}.{{delay frames=\"5\"}}.",
      "USes": "Por ejemplo,{{delay frames=\"10\"}} le daría una a alguien\nque adorara coleccionar objetos y\nque tuviera una gran variedad{{delay frames=\"5\"}}.{{delay frames=\"5\"}}.{{delay frames=\"5\"}}.",
      "USfr": "Par exemple,{{delay frames=\"10\"}} si un collectionneur\ndans l'âme a acquis un grand\nnombre d'objets différents{{delay frames=\"5\"}}.{{delay frames=\"5\"}}.{{delay frames=\"5\"}}."
    }
  },
  {
    "label": "046",
    "locale": {
      "EUde": "Zum Beispiel jemand, dessen\nEinrichtung eine gute Bewertung von\nder AdsH erhalten hat...",
      "EUen": "For example,{{delay frames=\"10\"}} someone who loves to\nwork on interior design and received\na high score from the {{color id=\"2\"}}HHA{{color id=\"65535\"}}{{delay frames=\"5\"}}.{{delay frames=\"5\"}}.{{delay frames=\"5\"}}.",
      "EUes": "Por ejemplo,{{delay frames=\"10\"}} le daría una a alguien\nque recibiera muchos puntos en la\n{{color id=\"2\"}}AAD {{color id=\"65535\"}}por su labor en decoración{{delay frames=\"5\"}}.{{delay frames=\"5\"}}.{{delay frames=\"5\"}}.",
      "EUfr": "Par exemple,{{delay frames=\"10\"}} si quelqu'un aime\naménager son intérieur et a reçu\nune bonne évaluation de l'{{color id=\"2\"}}AJD{{color id=\"65535\"}}{{delay frames=\"5\"}}.{{delay frames=\"5\"}}.{{delay frames=\"5\"}}.",
      "EUit": "Per esempio,{{delay frames=\"10\"}} a qualcuno che adora\narredare e ha ricevuto un ottimo\npunteggio dall'{{color id=\"2\"}}ABC{{color id=\"65535\"}}{{delay frames=\"5\"}}.{{delay frames=\"5\"}}.{{delay frames=\"5\"}}.",
      "JPja": "たとえば、{{delay frames=\"10\"}}お{{ruby charSpan=\"2\" value=\"へや\"}}部屋づくりが{{ruby charSpan=\"1\" value=\"す\"}}好きで、{{delay frames=\"10\"}}\nハッピーホームアカデミーでも{{delay frames=\"5\"}}\n{{ruby charSpan=\"1\" value=\"たか\"}}高い{{ruby charSpan=\"2\" value=\"ひょうか\"}}評価を{{ruby charSpan=\"1\" value=\"え\"}}得ている{{ruby charSpan=\"1\" value=\"ひと\"}}人{{delay frames=\"5\"}}・{{delay frames=\"5\"}}・{{delay frames=\"5\"}}・",
      "KRko": "예를 들면 {{delay frames=\"10\"}}집 꾸미기를 좋아해서{{delay frames=\"10\"}}\n해피홈 아카데미에서{{delay frames=\"5\"}}\n높은 평가를 받은 친구라든가{{delay frames=\"5\"}}・{{delay frames=\"5\"}}・{{delay frames=\"5\"}}・",
      "USen": "For example,{{delay frames=\"10\"}} someone who loves to\nwork on interior design and received\na high score from the {{color id=\"2\"}}HHA{{color id=\"65535\"}}{{delay frames=\"5\"}}.{{delay frames=\"5\"}}.{{delay frames=\"5\"}}.",
      "USes": "Por ejemplo,{{delay frames=\"10\"}} le daría una a alguien\nque recibiera muchos puntos en la\n{{color id=\"2\"}}AAD {{color id=\"65535\"}}por su labor en decoración{{delay frames=\"5\"}}.{{delay frames=\"5\"}}.{{delay frames=\"5\"}}.",
      "USfr": "Par exemple,{{delay frames=\"10\"}} si quelqu'un aime\naménager son intérieur et a reçu\nune bonne évaluation de l'{{color id=\"2\"}}AJD{{color id=\"65535\"}}{{delay frames=\"5\"}}.{{delay frames=\"5\"}}.{{delay frames=\"5\"}}."
    }
  },
  {
    "label": "047",
    "locale": {
      "EUde": "Zum Beispiel jemand, der Musik\nliebt und deswegen häufig auf\nKonzerte geht...",
      "EUen": "For example,{{delay frames=\"10\"}} someone who loves\nmusic and shows this by going to\na large number of concerts{{delay frames=\"5\"}}.{{delay frames=\"5\"}}.{{delay frames=\"5\"}}.",
      "EUes": "Por ejemplo,{{delay frames=\"10\"}} le daría una a alguien\nque no se perdiera ni un concierto\nde su cantante favorito{{delay frames=\"5\"}}.{{delay frames=\"5\"}}.{{delay frames=\"5\"}}.",
      "EUfr": "Par exemple,{{delay frames=\"10\"}} si quelqu'un est\nmélomane et assiste à un grand\nnombre de concerts{{delay frames=\"5\"}}.{{delay frames=\"5\"}}.{{delay frames=\"5\"}}.",
      "EUit": "Per esempio,{{delay frames=\"10\"}} a qualcuno che adora\nla musica e lo dimostra andando\na tantissimi concerti{{delay frames=\"5\"}}.{{delay frames=\"5\"}}.{{delay frames=\"5\"}}.",
      "JPja": "たとえば、{{delay frames=\"10\"}}{{ruby charSpan=\"2\" value=\"おんがく\"}}音楽が{{ruby charSpan=\"1\" value=\"す\"}}好きで、{{delay frames=\"10\"}}\nライブを{{delay frames=\"5\"}}　たくさん　{{ruby charSpan=\"1\" value=\"み\"}}観に{{ruby charSpan=\"1\" value=\"い\"}}行ってる{{ruby charSpan=\"1\" value=\"ひと\"}}人{{delay frames=\"5\"}}・{{delay frames=\"5\"}}・{{delay frames=\"5\"}}・",
      "KRko": "예를 들면 {{delay frames=\"10\"}}음악을 좋아해서{{delay frames=\"10\"}}\n라이브를 {{delay frames=\"5\"}}자주 들으러 가는\n친구라든가{{delay frames=\"5\"}}・{{delay frames=\"5\"}}・{{delay frames=\"5\"}}・",
      "USen": "For example,{{delay frames=\"10\"}} someone who loves\nmusic and shows this by going to\na large number of concerts{{delay frames=\"5\"}}.{{delay frames=\"5\"}}.{{delay frames=\"5\"}}.",
      "USes": "Por ejemplo,{{delay frames=\"10\"}} le daría una a alguien\nque no se perdiera ni un concierto\nde su cantante favorito{{delay frames=\"5\"}}.{{delay frames=\"5\"}}.{{delay frames=\"5\"}}.",
      "USfr": "Par exemple,{{delay frames=\"10\"}} si quelqu'un est\nmélomane et assiste à un grand\nnombre de concerts{{delay frames=\"5\"}}.{{delay frames=\"5\"}}.{{delay frames=\"5\"}}."
    }
  },
  {
    "label": "048",
    "locale": {
      "EUde": "Zum Beispiel jemand, der seinen\nNachbarn hilft, wo er nur kann...",
      "EUen": "For example,{{delay frames=\"10\"}} someone who thinks\nabout {{fun_0006000E arg=\"0x06006800690073000600680065007200\"}} neighbors and goes all out\nto assist wherever possible{{delay frames=\"5\"}}.{{delay frames=\"5\"}}.{{delay frames=\"5\"}}.",
      "EUes": "Por ejemplo,{{delay frames=\"10\"}} le daría una a alguien\nque demostrara su altruismo\nayudando mucho al prójimo{{delay frames=\"5\"}}.{{delay frames=\"5\"}}.{{delay frames=\"5\"}}.",
      "EUfr": "Par exemple,{{delay frames=\"10\"}} si quelqu'un est\nserviable envers ses voisins et leur\nvient souvent en aide{{delay frames=\"5\"}}.{{delay frames=\"5\"}}.{{delay frames=\"5\"}}.",
      "EUit": "Per esempio,{{delay frames=\"10\"}} a qualcuno che ci tiene\nai suoi vicini e cerca di aiutarli\nogni volta che può{{delay frames=\"5\"}}.{{delay frames=\"5\"}}.{{delay frames=\"5\"}}.",
      "JPja": "たとえば、{{delay frames=\"10\"}}とにかく{{ruby charSpan=\"3\" value=\"ともだちおも\"}}友達思いで、{{delay frames=\"10\"}}\n{{ruby charSpan=\"2\" value=\"ともだち\"}}友達のお{{ruby charSpan=\"1\" value=\"ねが\"}}願いごとや　{{ruby charSpan=\"1\" value=\"こま\"}}困ったことを{{delay frames=\"5\"}}\n{{ruby charSpan=\"3\" value=\"せっきょくてき\"}}積極的に　{{ruby charSpan=\"1\" value=\"たす\"}}助けてあげてる{{ruby charSpan=\"1\" value=\"ひと\"}}人{{delay frames=\"5\"}}・{{delay frames=\"5\"}}・{{delay frames=\"5\"}}・",
      "KRko": "예를 들면 {{delay frames=\"10\"}}배려심이 깊어서{{delay frames=\"10\"}}\n주변의 부탁을 잘 들어주는{{delay frames=\"5\"}}\n친구라든가{{delay frames=\"5\"}}・{{delay frames=\"5\"}}・{{delay frames=\"5\"}}・",
      "USen": "For example,{{delay frames=\"10\"}} someone who thinks\nabout {{fun_0006000E arg=\"0x06006800690073000600680065007200\"}} neighbors and goes all out\nto assist wherever possible{{delay frames=\"5\"}}.{{delay frames=\"5\"}}.{{delay frames=\"5\"}}.",
      "USes": "Por ejemplo,{{delay frames=\"10\"}} le daría una a alguien\nque demostrara su altruismo\nayudando mucho al prójimo{{delay frames=\"5\"}}.{{delay frames=\"5\"}}.{{delay frames=\"5\"}}.",
      "USfr": "Par exemple,{{delay frames=\"10\"}} si quelqu'un est\nserviable envers ses voisins et leur\nvient souvent en aide{{delay frames=\"5\"}}.{{delay frames=\"5\"}}.{{delay frames=\"5\"}}."
    }
  },
  {
    "label": "049",
    "locale": {
      "EUde": "Zum Beispiel jemand, der so viele\nBriefe schreibt, dass es für ein\nganzes Buch reichen würde...",
      "EUen": "For example,{{delay frames=\"10\"}} someone who loves to\nwrite letters so much that {{fun_0006000E arg=\"0x0400680065000600730068006500\"}} has\npractically written a book{{delay frames=\"5\"}}.{{delay frames=\"5\"}}.{{delay frames=\"5\"}}.",
      "EUes": "Por ejemplo,{{delay frames=\"10\"}} le daría una a alguien\nque escribiera tantas cartas como\npara recogerlas en un libro{{delay frames=\"5\"}}.{{delay frames=\"5\"}}.{{delay frames=\"5\"}}.",
      "EUfr": "Par exemple,{{delay frames=\"10\"}} si quelqu'un aime\nécrire des lettres au point d'en\nfaire presque un roman{{delay frames=\"5\"}}.{{delay frames=\"5\"}}.{{delay frames=\"5\"}}.",
      "EUit": "Per esempio,{{delay frames=\"10\"}} a qualcuno a cui piace\ncosì tanto scrivere lettere che\normai ha scritto un tomo{{delay frames=\"5\"}}.{{delay frames=\"5\"}}.{{delay frames=\"5\"}}.",
      "JPja": "たとえば、{{delay frames=\"10\"}}お{{ruby charSpan=\"2\" value=\"てがみ\"}}手紙を{{ruby charSpan=\"1\" value=\"か\"}}書くのが{{ruby charSpan=\"1\" value=\"す\"}}好きで、{{delay frames=\"10\"}}\nたくさんの　お{{ruby charSpan=\"2\" value=\"てがみ\"}}手紙を{{ruby charSpan=\"1\" value=\"か\"}}書いて{{delay frames=\"5\"}}\nお{{ruby charSpan=\"2\" value=\"ともだち\"}}友達に　{{ruby charSpan=\"1\" value=\"たの\"}}楽しんでもらってる{{ruby charSpan=\"1\" value=\"ひと\"}}人{{delay frames=\"5\"}}・{{delay frames=\"5\"}}・{{delay frames=\"5\"}}・",
      "KRko": "예를 들면 {{delay frames=\"10\"}}편지 쓰기에 열중해서{{delay frames=\"10\"}}\n많은 편지를 보낸 친구라든가{{delay frames=\"5\"}}・{{delay frames=\"5\"}}・{{delay frames=\"5\"}}・",
      "USen": "For example,{{delay frames=\"10\"}} someone who loves to\nwrite letters so much that {{fun_0006000E arg=\"0x0400680065000600730068006500\"}} has\npractically written a book{{delay frames=\"5\"}}.{{delay frames=\"5\"}}.{{delay frames=\"5\"}}.",
      "USes": "Por ejemplo,{{delay frames=\"10\"}} le daría una a alguien\nque escribiera tantas cartas como\npara recogerlas en un libro{{delay frames=\"5\"}}.{{delay frames=\"5\"}}.{{delay frames=\"5\"}}.",
      "USfr": "Par exemple,{{delay frames=\"10\"}} si quelqu'un aime\nécrire des lettres au point d'en\nfaire presque un roman{{delay frames=\"5\"}}.{{delay frames=\"5\"}}.{{delay frames=\"5\"}}."
    }
  },
  {
    "label": "050",
    "locale": {
      "EUde": "Zum Beispiel jemand, der gern\nunterwegs ist und von anderen viele\nDaten via {{color id=\"2\"}}StreetPass{{color id=\"65535\"}} erhält.",
      "EUen": "For example,{{delay frames=\"10\"}} someone who likes to\nwalk around and get a lot of\n{{color id=\"2\"}}StreetPass{{color id=\"65535\"}} data from others{{delay frames=\"5\"}}.{{delay frames=\"5\"}}.{{delay frames=\"5\"}}.",
      "EUes": "Por ejemplo,{{delay frames=\"10\"}} le daría una a alguien\nque hubiera intercambiado infinidad\nde datos mediante {{color id=\"2\"}}StreetPass{{color id=\"65535\"}}{{delay frames=\"5\"}}.{{delay frames=\"5\"}}.{{delay frames=\"5\"}}.",
      "EUfr": "Par exemple,{{delay frames=\"10\"}} si quelqu'un aime se\npromener pour collecter beaucoup\nde données via {{color id=\"2\"}}StreetPass{{color id=\"65535\"}}{{delay frames=\"5\"}}.{{delay frames=\"5\"}}.{{delay frames=\"5\"}}.",
      "EUit": "Per esempio,{{delay frames=\"10\"}} a qualcuno a cui piace\nandare a zonzo e ottenere dati\nda altri tramite {{color id=\"2\"}}StreetPass{{color id=\"65535\"}}{{delay frames=\"5\"}}.{{delay frames=\"5\"}}.{{delay frames=\"5\"}}.",
      "JPja": "たとえば、{{delay frames=\"10\"}}{{ruby charSpan=\"3\" value=\"せっきょくてき\"}}積極的に{{ruby charSpan=\"2\" value=\"である\"}}出歩いて、{{delay frames=\"10\"}}\nすれちがい{{ruby charSpan=\"2\" value=\"つうしん\"}}通信で\n{{ruby charSpan=\"2\" value=\"じょうほう\"}}情報を　キャッチしてる{{ruby charSpan=\"1\" value=\"ひと\"}}人{{delay frames=\"5\"}}・{{delay frames=\"5\"}}・{{delay frames=\"5\"}}・",
      "KRko": "예를 들면 {{delay frames=\"10\"}}열심히 걸어 다녀서{{delay frames=\"10\"}}\n엇갈림 통신으로 많은 정보를\n수집한 친구라든가{{delay frames=\"5\"}}・{{delay frames=\"5\"}}・{{delay frames=\"5\"}}・",
      "USen": "For example,{{delay frames=\"10\"}} someone who likes to\nwalk around and get a lot of\n{{color id=\"2\"}}StreetPass{{color id=\"65535\"}} data from others{{delay frames=\"5\"}}.{{delay frames=\"5\"}}.{{delay frames=\"5\"}}.",
      "USes": "Por ejemplo,{{delay frames=\"10\"}} le daría una a alguien\nque hubiera intercambiado infinidad\nde datos mediante {{color id=\"2\"}}StreetPass{{color id=\"65535\"}}{{delay frames=\"5\"}}.{{delay frames=\"5\"}}.{{delay frames=\"5\"}}.",
      "USfr": "Par exemple,{{delay frames=\"10\"}} si quelqu'un aime se\npromener pour collecter beaucoup\nde données via {{color id=\"2\"}}StreetPass{{color id=\"65535\"}}{{delay frames=\"5\"}}.{{delay frames=\"5\"}}.{{delay frames=\"5\"}}."
    }
  },
  {
    "label": "051",
    "locale": {
      "EUde": "Zum Beispiel jemand, der gern reist\nund oft die Städte von Freunden\nbesucht hat...",
      "EUen": "For example,{{delay frames=\"10\"}} someone who likes to\ntravel and has been to friends'\ntowns many times{{delay frames=\"5\"}}.{{delay frames=\"5\"}}.{{delay frames=\"5\"}}.",
      "EUes": "Por ejemplo,{{delay frames=\"10\"}} le daría una a alguien\nque visitara asiduamente los\npueblos de sus amigos{{delay frames=\"5\"}}.{{delay frames=\"5\"}}.{{delay frames=\"5\"}}.",
      "EUfr": "Par exemple,{{delay frames=\"10\"}} si quelqu'un aime\nvoyager et est allé visiter les villes\nde ses amis plusieurs fois{{delay frames=\"5\"}}.{{delay frames=\"5\"}}.{{delay frames=\"5\"}}.",
      "EUit": "Per esempio,{{delay frames=\"10\"}} a qualcuno che adora\nviaggiare ed è stato spesso\nnelle città dei suoi amici{{delay frames=\"5\"}}.{{delay frames=\"5\"}}.{{delay frames=\"5\"}}.",
      "JPja": "たとえば、{{delay frames=\"10\"}}おでかけするのが{{ruby charSpan=\"1\" value=\"す\"}}好きで、{{delay frames=\"10\"}}\nお{{ruby charSpan=\"2\" value=\"ともだち\"}}友達の{{ruby charSpan=\"1\" value=\"むら\"}}村に　たくさん{{delay frames=\"5\"}}\n{{ruby charSpan=\"1\" value=\"あそ\"}}遊びに{{ruby charSpan=\"1\" value=\"い\"}}行ってる{{ruby charSpan=\"1\" value=\"ひと\"}}人{{delay frames=\"5\"}}・{{delay frames=\"5\"}}・{{delay frames=\"5\"}}・",
      "KRko": "예를 들면 {{delay frames=\"10\"}}외출하기를 좋아해서{{delay frames=\"10\"}}\n다른 마을로 많이 놀러 간 친구라든가{{delay frames=\"5\"}}{{delay frames=\"5\"}}・{{delay frames=\"5\"}}・{{delay frames=\"5\"}}・",
      "USen": "For example,{{delay frames=\"10\"}} someone who likes to\ntravel and has been to friends'\ntowns many times{{delay frames=\"5\"}}.{{delay frames=\"5\"}}.{{delay frames=\"5\"}}.",
      "USes": "Por ejemplo,{{delay frames=\"10\"}} le daría una a alguien\nque visitara asiduamente los\npueblos de sus amigos{{delay frames=\"5\"}}.{{delay frames=\"5\"}}.{{delay frames=\"5\"}}.",
      "USfr": "Par exemple,{{delay frames=\"10\"}} si quelqu'un aime\nvoyager et est allé visiter les villes\nde ses amis plusieurs fois{{delay frames=\"5\"}}.{{delay frames=\"5\"}}.{{delay frames=\"5\"}}."
    }
  },
  {
    "label": "052",
    "locale": {
      "EUde": "Zum Beispiel jemand, der gern\nGastgeber ist und oft Freunde in\nseine Stadt eingeladen hat...",
      "EUen": "For example,{{delay frames=\"10\"}} someone who likes to\nplay {{fun_0006000E arg=\"0x080068006F00730074000E0068006F0073007400650073007300\"}} and has invited friends\nto town many times{{delay frames=\"5\"}}.{{delay frames=\"5\"}}.{{delay frames=\"5\"}}.",
      "EUes": "Por ejemplo,{{delay frames=\"10\"}} le daría una a alguien\nque invitara constantemente a sus\namigos a visitar nuestro pueblo{{delay frames=\"5\"}}.{{delay frames=\"5\"}}.{{delay frames=\"5\"}}.",
      "EUfr": "Par exemple,{{delay frames=\"10\"}} si quelqu'un a\naccueilli ses amis dans sa ville\nde nombreuses fois{{delay frames=\"5\"}}.{{delay frames=\"5\"}}.{{delay frames=\"5\"}}.",
      "EUit": "Per esempio,{{delay frames=\"10\"}} a qualcuno con uno\nspiccato senso dell'ospitalità, che\nha invitato spesso i suoi amici{{delay frames=\"5\"}}.{{delay frames=\"5\"}}.{{delay frames=\"5\"}}.",
      "JPja": "たとえば、{{delay frames=\"10\"}}おもてなしするのが{{ruby charSpan=\"1\" value=\"す\"}}好きで、{{delay frames=\"10\"}}\nたくさんの　お{{ruby charSpan=\"2\" value=\"ともだち\"}}友達を{{delay frames=\"5\"}}\n{{ruby charSpan=\"1\" value=\"むら\"}}村に{{ruby charSpan=\"2\" value=\"しょうたい\"}}招待してきた{{ruby charSpan=\"1\" value=\"ひと\"}}人{{delay frames=\"5\"}}・{{delay frames=\"5\"}}・{{delay frames=\"5\"}}・",
      "KRko": "예를 들면 {{delay frames=\"10\"}}대접하는 걸 좋아해서{{delay frames=\"10\"}}\n다른 사람을 마을에 많이\n초대한 친구라든가{{delay frames=\"5\"}}・{{delay frames=\"5\"}}・{{delay frames=\"5\"}}・",
      "USen": "For example,{{delay frames=\"10\"}} someone who likes to\nplay {{fun_0006000E arg=\"0x080068006F00730074000E0068006F0073007400650073007300\"}} and has invited friends\nto town many times{{delay frames=\"5\"}}.{{delay frames=\"5\"}}.{{delay frames=\"5\"}}.",
      "USes": "Por ejemplo,{{delay frames=\"10\"}} le daría una a alguien\nque invitara constantemente a sus\namigos a visitar nuestro pueblo{{delay frames=\"5\"}}.{{delay frames=\"5\"}}.{{delay frames=\"5\"}}.",
      "USfr": "Par exemple,{{delay frames=\"10\"}} si quelqu'un a\naccueilli ses amis dans sa ville\nde nombreuses fois{{delay frames=\"5\"}}.{{delay frames=\"5\"}}.{{delay frames=\"5\"}}."
    }
  },
  {
    "label": "053",
    "locale": {
      "EUde": "Zum Beispiel jemand, der gern\nträumt und auch schon viele Träume\nerlebt hat...",
      "EUen": "For example,{{delay frames=\"10\"}} someone who loves to\ndream and has experienced more\ndreams than {{fun_0006000E arg=\"0x0400680065000600730068006500\"}} can count{{delay frames=\"5\"}}.{{delay frames=\"5\"}}.{{delay frames=\"5\"}}.",
      "EUes": "Por ejemplo,{{delay frames=\"10\"}} le daría una a alguien\nque hubiera tenido incontables\nsueños de lo más variopintos{{delay frames=\"5\"}}.{{delay frames=\"5\"}}.{{delay frames=\"5\"}}.",
      "EUfr": "Par exemple,{{delay frames=\"10\"}} si quelqu'un adore\nrêver et a fait un nombre\nincalculable de rêves{{delay frames=\"5\"}}.{{delay frames=\"5\"}}.{{delay frames=\"5\"}}.",
      "EUit": "Per esempio,{{delay frames=\"10\"}} a qualcuno a cui piace\nsognare e ha fatto più sogni\ndi quanti riesca a contarne{{delay frames=\"5\"}}.{{delay frames=\"5\"}}.{{delay frames=\"5\"}}.",
      "JPja": "たとえば、{{delay frames=\"10\"}}いつも{{ruby charSpan=\"2\" value=\"ゆめみ\"}}夢見ていて、{{delay frames=\"10\"}}\n{{ruby charSpan=\"1\" value=\"たの\"}}楽しい{{ruby charSpan=\"1\" value=\"ゆめ\"}}夢を　たくさん{{ruby charSpan=\"1\" value=\"み\"}}見てきた{{ruby charSpan=\"1\" value=\"ひと\"}}人{{delay frames=\"5\"}}・{{delay frames=\"5\"}}・{{delay frames=\"5\"}}・",
      "KRko": "예를 들면 {{delay frames=\"10\"}}꿈꾸는 걸 좋아해서{{delay frames=\"10\"}}\n즐거운 꿈을 많이 꾸는 친구라든가{{delay frames=\"5\"}}・{{delay frames=\"5\"}}・{{delay frames=\"5\"}}・",
      "USen": "For example,{{delay frames=\"10\"}} someone who loves to\ndream and has experienced more\ndreams than {{fun_0006000E arg=\"0x0400680065000600730068006500\"}} can count{{delay frames=\"5\"}}.{{delay frames=\"5\"}}.{{delay frames=\"5\"}}.",
      "USes": "Por ejemplo,{{delay frames=\"10\"}} le daría una a alguien\nque hubiera tenido incontables\nsueños de lo más variopintos{{delay frames=\"5\"}}.{{delay frames=\"5\"}}.{{delay frames=\"5\"}}.",
      "USfr": "Par exemple,{{delay frames=\"10\"}} si quelqu'un adore\nrêver et a fait un nombre\nincalculable de rêves{{delay frames=\"5\"}}.{{delay frames=\"5\"}}.{{delay frames=\"5\"}}."
    }
  },
  {
    "label": "054",
    "locale": {
      "EUde": "Zum Beispiel jemand, der so gern\nhier lebt, dass er völlig die Zeit\nvergisst...",
      "EUen": "For example,{{delay frames=\"10\"}} someone who enjoys\nlife to the point that {{fun_0006000E arg=\"0x080068006500270073000A0073006800650027007300\"}} lost\ntrack of how long {{fun_0006000E arg=\"0x080068006500270073000A0073006800650027007300\"}} played{{delay frames=\"5\"}}.{{delay frames=\"5\"}}.{{delay frames=\"5\"}}.",
      "EUes": "Por ejemplo,{{delay frames=\"10\"}} le daría una a alguien\nque hubiera perdido la noción del\ntiempo que lleva jugando aquí{{delay frames=\"5\"}}.{{delay frames=\"5\"}}.{{delay frames=\"5\"}}.",
      "EUfr": "Par exemple,{{delay frames=\"10\"}} si quelqu'un adore\nsa ville au point de perdre la notion\ndu temps quand il s'y amuse{{delay frames=\"5\"}}.{{delay frames=\"5\"}}.{{delay frames=\"5\"}}.",
      "EUit": "Per esempio,{{delay frames=\"10\"}} a qualcuno a cui piace\nla sua vita talmente tanto che non\nricorda più da quante ore gioca{{delay frames=\"5\"}}.{{delay frames=\"5\"}}.{{delay frames=\"5\"}}.",
      "JPja": "たとえば、{{delay frames=\"10\"}}とにかく{{ruby charSpan=\"2\" value=\"まいにち\"}}毎日の\n{{ruby charSpan=\"1\" value=\"く\"}}暮らしを　{{ruby charSpan=\"1\" value=\"たの\"}}楽しんでいて、{{delay frames=\"5\"}}\nいつも{{ruby charSpan=\"2\" value=\"じかん\"}}時間を{{ruby charSpan=\"1\" value=\"わす\"}}忘れて　{{ruby charSpan=\"1\" value=\"あそ\"}}遊んでいる{{ruby charSpan=\"1\" value=\"ひと\"}}人{{delay frames=\"5\"}}・{{delay frames=\"5\"}}・{{delay frames=\"5\"}}・",
      "KRko": "예를 들면 {{delay frames=\"10\"}}매일매일 열심히 생활해서\n시간 가는 줄도 모르고{{delay frames=\"5\"}}\n즐기는 친구라든가{{delay frames=\"5\"}}・{{delay frames=\"5\"}}・{{delay frames=\"5\"}}・",
      "USen": "For example,{{delay frames=\"10\"}} someone who enjoys\nlife to the point that {{fun_0006000E arg=\"0x080068006500270073000A0073006800650027007300\"}} lost\ntrack of how long {{fun_0006000E arg=\"0x080068006500270073000A0073006800650027007300\"}} played{{delay frames=\"5\"}}.{{delay frames=\"5\"}}.{{delay frames=\"5\"}}.",
      "USes": "Por ejemplo,{{delay frames=\"10\"}} le daría una a alguien\nque hubiera perdido la noción del\ntiempo que lleva jugando aquí{{delay frames=\"5\"}}.{{delay frames=\"5\"}}.{{delay frames=\"5\"}}.",
      "USfr": "Par exemple,{{delay frames=\"10\"}} si quelqu'un adore\nsa ville au point de perdre la notion\ndu temps quand il s'y amuse{{delay frames=\"5\"}}.{{delay frames=\"5\"}}.{{delay frames=\"5\"}}."
    }
  },
  {
    "label": "055",
    "locale": {
      "EUde": "So jemand hätte sich wahrlich ein\nAbzeichen verdient!{{delay frames=\"20\"}} Oh ja!",
      "EUen": "I'd certainly give a special badge to\na person like that. Mm, yes indeed.",
      "EUes": "Sí, ese tipo de persona {{color id=\"5\"}}(o animal)\n{{color id=\"65535\"}}bien merecería una condecoración.",
      "EUfr": "... je lui donnerai un des jolis\nbadges dont j'ai le secret. Ça oui !",
      "EUit": "Ecco, qualcuno del genere merita\nsenz'altro un distintivo. Sì sì,\nse lo merita tutto!",
      "JPja": "そういう{{ruby charSpan=\"1\" value=\"ひと\"}}人にも{{delay frames=\"10\"}}\n{{ruby charSpan=\"2\" value=\"とくべつ\"}}特別なバッジを　あげてるんだよぉ～",
      "KRko": "그런 친구들에게{{delay frames=\"10\"}}\n특별한 배지를 주고 있단다～",
      "USen": "I'd certainly give a special badge to\na person like that. Mm, yes indeed.",
      "USes": "Sí, ese tipo de persona {{color id=\"5\"}}(o animal)\n{{color id=\"65535\"}}bien merecería una condecoración.",
      "USfr": "... je lui donnerais un des jolis\nbadges dont j'ai le secret. Ça oui!"
    }
  }
]