﻿[
  {
    "label": "001",
    "locale": {
      "EUde": "{{i10_11 arg=\"0x1007000600CD\"}}",
      "EUen": "{{i10_11 arg=\"0x1007000600CD\"}}",
      "EUes": "{{i10_11 arg=\"0x1007000600CD\"}}",
      "EUfr": "{{i10_11 arg=\"0x1007000600CD\"}}",
      "EUit": "{{i10_11 arg=\"0x1007000600CD\"}}",
      "JPja": "{{i10_11 arg=\"0x1007000600CD\"}}",
      "KRko": "{{i10_11 arg=\"0x1007000600CD\"}}",
      "USen": "{{i10_11 arg=\"0x1007000600CD\"}}",
      "USes": "{{i10_11 arg=\"0x1007000600CD\"}}",
      "USfr": "{{i10_11 arg=\"0x1007000600CD\"}}"
    }
  },
  {
    "label": "002",
    "locale": {
      "EUde": "{{i10_11 arg=\"0x100B000A00CD\"}}",
      "EUen": "{{i10_11 arg=\"0x100B000A00CD\"}}",
      "EUes": "{{i10_11 arg=\"0x100B000A00CD\"}}",
      "EUfr": "{{i10_11 arg=\"0x100B000A00CD\"}}",
      "EUit": "{{i10_11 arg=\"0x100B000A00CD\"}}",
      "JPja": "{{i10_11 arg=\"0x100B000A00CD\"}}",
      "KRko": "{{i10_11 arg=\"0x100B000A00CD\"}}",
      "USen": "{{i10_11 arg=\"0x100B000A00CD\"}}",
      "USes": "{{i10_11 arg=\"0x100B000A00CD\"}}",
      "USfr": "{{i10_11 arg=\"0x100B000A00CD\"}}"
    }
  },
  {
    "label": "003",
    "locale": {
      "EUde": "{{i10_11 arg=\"0x100D000C00CD\"}}",
      "EUen": "{{i10_11 arg=\"0x100D000C00CD\"}}",
      "EUes": "{{i10_11 arg=\"0x100D000C00CD\"}}",
      "EUfr": "{{i10_11 arg=\"0x100D000C00CD\"}}",
      "EUit": "{{i10_11 arg=\"0x100D000C00CD\"}}",
      "JPja": "{{i10_11 arg=\"0x100D000C00CD\"}}",
      "KRko": "{{i10_11 arg=\"0x100D000C00CD\"}}",
      "USen": "{{i10_11 arg=\"0x100D000C00CD\"}}",
      "USes": "{{i10_11 arg=\"0x100D000C00CD\"}}",
      "USfr": "{{i10_11 arg=\"0x100D000C00CD\"}}"
    }
  },
  {
    "label": "004",
    "locale": {
      "EUde": "{{i10_11 arg=\"0x100F000E00CD\"}}",
      "EUen": "{{i10_11 arg=\"0x100F000E00CD\"}}",
      "EUes": "{{i10_11 arg=\"0x100F000E00CD\"}}",
      "EUfr": "{{i10_11 arg=\"0x100F000E00CD\"}}",
      "EUit": "{{i10_11 arg=\"0x100F000E00CD\"}}",
      "JPja": "{{i10_11 arg=\"0x100F000E00CD\"}}",
      "KRko": "{{i10_11 arg=\"0x100F000E00CD\"}}",
      "USen": "{{i10_11 arg=\"0x100F000E00CD\"}}",
      "USes": "{{i10_11 arg=\"0x100F000E00CD\"}}",
      "USfr": "{{i10_11 arg=\"0x100F000E00CD\"}}"
    }
  },
  {
    "label": "005",
    "locale": {
      "EUde": "{{i10_11 arg=\"0x1011001000CD\"}}",
      "EUen": "{{i10_11 arg=\"0x1011001000CD\"}}",
      "EUes": "{{i10_11 arg=\"0x1011001000CD\"}}",
      "EUfr": "{{i10_11 arg=\"0x1011001000CD\"}}",
      "EUit": "{{i10_11 arg=\"0x1011001000CD\"}}",
      "JPja": "{{i10_11 arg=\"0x1011001000CD\"}}",
      "KRko": "{{i10_11 arg=\"0x1011001000CD\"}}",
      "USen": "{{i10_11 arg=\"0x1011001000CD\"}}",
      "USes": "{{i10_11 arg=\"0x1011001000CD\"}}",
      "USfr": "{{i10_11 arg=\"0x1011001000CD\"}}"
    }
  },
  {
    "label": "006",
    "locale": {
      "EUde": "{{anim id=\"9\"}}{{fun_0003000E arg=\"\"}}{{fun_00060007 arg=\"\"}}Ich grüße dich{{fun_00070007 arg=\"\"}}!{{delay frames=\"40\"}}\nIch frage mich, ob dieser ewige\nRegen heute auch mal aufhört...",
      "EUen": "{{anim id=\"9\"}}{{fun_0003000E arg=\"\"}}{{fun_00060007 arg=\"\"}}Well, {{delay frames=\"8\"}}hello again{{fun_00070007 arg=\"\"}}.{{delay frames=\"16\"}}\n{{anim id=\"23\"}}Do you think this rain will ever\nstop today,{{delay frames=\"8\"}} {{fun_00080005 arg=\"\"}}?",
      "EUes": "{{anim id=\"9\"}}{{fun_0003000E arg=\"\"}}{{fun_00060007 arg=\"\"}}Ah, hola de nuevo{{fun_00070007 arg=\"\"}}.\n¿Tú qué crees, {{fun_00080005 arg=\"\"}}?\n¿Va a parar de llover pronto?",
      "EUfr": "{{anim id=\"9\"}}{{fun_0003000E arg=\"\"}}{{fun_00060007 arg=\"\"}}Encore bonjour{{fun_00070007 arg=\"\"}}.\nAh, cette pluie ! Penses-tu qu'elle\ns'arrêtera bientôt, {{fun_00080005 arg=\"\"}} ?",
      "EUit": "{{anim id=\"9\"}}{{fun_0003000E arg=\"\"}}{{fun_00060007 arg=\"\"}}Ariciao{{fun_00070007 arg=\"\"}}!\nPensi che smetterà di piovere\npresto, {{fun_00080005 arg=\"\"}}?",
      "JPja": "{{fun_00060007 arg=\"\"}}ねぇ、{{fun_00080005 arg=\"\"}}{{fun_000D0005 arg=\"\"}}{{fun_00070007 arg=\"\"}}{{delay frames=\"16\"}}\n{{anim id=\"9\"}}この{{ruby charSpan=\"1\" value=\"あめ\"}}雨、いつまで　\n{{ruby charSpan=\"1\" value=\"ふ\"}}降り{{ruby charSpan=\"1\" value=\"つづ\"}}続くのかしらねぇ{{delay frames=\"8\"}}・{{delay frames=\"8\"}}・{{delay frames=\"8\"}}・{{delay frames=\"8\"}}",
      "KRko": "{{fun_00060007 arg=\"\"}}근데, {{fun_00080005 arg=\"\"}}{{fun_00070007 arg=\"\"}}{{delay frames=\"16\"}}\n{{anim id=\"9\"}}이 비 말이야,\n쉽게 그칠 것 같지가 않아{{delay frames=\"8\"}}・{{delay frames=\"8\"}}・{{delay frames=\"8\"}}・{{delay frames=\"8\"}}",
      "USen": "{{anim id=\"9\"}}{{fun_0003000E arg=\"\"}}{{fun_00060007 arg=\"\"}}Well, {{delay frames=\"8\"}}hello again{{fun_00070007 arg=\"\"}}.{{delay frames=\"16\"}}\n{{anim id=\"23\"}}Do you think this rain will ever\nstop today,{{delay frames=\"8\"}} {{fun_00080005 arg=\"\"}}?",
      "USes": "{{anim id=\"9\"}}{{fun_0003000E arg=\"\"}}{{fun_00060007 arg=\"\"}}Ah, hola de nuevo{{fun_00070007 arg=\"\"}}.\n¿Tú qué crees, {{fun_00080005 arg=\"\"}}?\n¿Va a parar de llover pronto?",
      "USfr": "{{anim id=\"9\"}}{{fun_0003000E arg=\"\"}}{{fun_00060007 arg=\"\"}}Encore bonjour{{fun_00070007 arg=\"\"}}.\nAh, cette pluie! Penses-tu qu'elle\ns'arrêtera bientôt, {{fun_00080005 arg=\"\"}}?"
    }
  },
  {
    "label": "007",
    "locale": {
      "EUde": "{{fun_0016000A arg=\"0x0408000900CD\"}}",
      "EUen": "{{fun_0016000A arg=\"0x0408000900CD\"}}",
      "EUes": "{{fun_0016000A arg=\"0x0408000900CD\"}}",
      "EUfr": "{{fun_0016000A arg=\"0x0408000900CD\"}}",
      "EUit": "{{fun_0016000A arg=\"0x0408000900CD\"}}",
      "JPja": "{{fun_0016000A arg=\"0x0408000900CD\"}}",
      "KRko": "{{fun_0016000A arg=\"0x0408000900CD\"}}",
      "USen": "{{fun_0016000A arg=\"0x0408000900CD\"}}",
      "USes": "{{fun_0016000A arg=\"0x0408000900CD\"}}",
      "USfr": "{{fun_0016000A arg=\"0x0408000900CD\"}}"
    }
  },
  {
    "label": "008",
    "locale": {
      "EUde": "{{anim id=\"15\"}}Oh, {{delay frames=\"8\"}}{{fun_00080005 arg=\"\"}}! {{delay frames=\"20\"}}Wieso hast du denn\neinen Schirm?{{delay frames=\"20\"}}{{anim id=\"27\"}} Und das an einem\nso wunderschönen Tag!\n{{anim id=\"37\"}}An einem heißen, sonnigen Tag kann\nich das ja noch verstehen, {{delay frames=\"8\"}}aber\nso... {{delay frames=\"40\"}}{{fun_0003000E arg=\"\"}}{{fun_00070005 arg=\"\"}}!",
      "EUen": "{{anim id=\"15\"}}Oh! {{delay frames=\"10\"}}An umbrella, {{fun_00080005 arg=\"\"}}?{{delay frames=\"10\"}}{{anim id=\"27\"}}\nI can't imagine WHY you'd use one\non a lovely day like today.\n{{anim id=\"37\"}}Now, on a hot, summery day?\nTHAT I could understand,\n{{fun_00070005 arg=\"\"}}.",
      "EUes": "{{anim id=\"15\"}}¡Oh! {{delay frames=\"10\"}}¿Un paraguas, {{fun_00080005 arg=\"\"}}?{{delay frames=\"10\"}}{{anim id=\"27\"}}\n¿Cómo puedes llevar paraguas\nen un día tan espléndido?\n{{anim id=\"37\"}}Si brillara un sol abrasador\nlo entendería, pero hoy no,\n{{fun_00070005 arg=\"\"}}...",
      "EUfr": "{{anim id=\"15\"}}Quoi ! {{delay frames=\"10\"}}Un parapluie, {{fun_00080005 arg=\"\"}} ?{{delay frames=\"10\"}}{{anim id=\"27\"}}\nMais pour quoi faire ? Pour une fois\nqu'il fait un temps superbe !\n{{anim id=\"37\"}}Une ombrelle par un jour d'été\nensoleillé je comprendrais, mais là...\n{{fun_00070005 arg=\"\"}}.",
      "EUit": "{{anim id=\"15\"}}Oh! {{delay frames=\"10\"}}In giro con l'ombrello,\n{{fun_00080005 arg=\"\"}}?{{delay frames=\"10\"}}{{anim id=\"27\"}} E perché mai, in una\ngiornata bella come questa?\n{{anim id=\"37\"}}Capisco in un giorno afoso col sole\nbattente, ma per pararsi dalla\npioggia proprio no, {{fun_00070005 arg=\"\"}}.",
      "JPja": "{{anim id=\"1\"}}アナタも　かさなんか\nさすのはよして、{{delay frames=\"12\"}}\n{{ruby charSpan=\"1\" value=\"あめ\"}}雨に{{ruby charSpan=\"1\" value=\"う\"}}打たれてみたら　どうかしら？\n{{anim id=\"3\"}}とっても　{{ruby charSpan=\"2\" value=\"きも\"}}気持ちいいわよ～！\n{{delay frames=\"8\"}}{{fun_00070005 arg=\"\"}}！",
      "KRko": "{{anim id=\"1\"}}당신도\n우산 같은 거 쓰지 말고{{delay frames=\"12\"}}\n그냥 비에 한번 흠뻑 젖어 봐!\n{{anim id=\"3\"}}얼마나 기분 좋다구～!\n{{delay frames=\"8\"}}{{fun_00070005 arg=\"\"}}!",
      "USen": "{{anim id=\"15\"}}Oh! {{delay frames=\"10\"}}An umbrella, {{fun_00080005 arg=\"\"}}?{{delay frames=\"10\"}}{{anim id=\"27\"}}\nI can't imagine WHY you'd use one\non a lovely day like today.\n{{anim id=\"37\"}}Now, on a hot, summery day?\nTHAT I could understand,\n{{fun_00070005 arg=\"\"}}.",
      "USes": "{{anim id=\"15\"}}¡Oh! {{delay frames=\"10\"}}¿Un paraguas, {{fun_00080005 arg=\"\"}}?{{delay frames=\"10\"}}{{anim id=\"27\"}}\n¿Cómo puedes llevar paraguas\nen un día tan espléndido?\n{{anim id=\"37\"}}Si brillara un sol abrasador\nlo entendería, pero hoy no,\n{{fun_00070005 arg=\"\"}}...",
      "USfr": "{{anim id=\"15\"}}Quoi! {{delay frames=\"10\"}}Un parapluie, {{fun_00080005 arg=\"\"}}?{{delay frames=\"10\"}}{{anim id=\"27\"}}\nMais pour quoi faire? Pour une fois\nqu'il fait un temps superbe!\n{{anim id=\"37\"}}Une ombrelle par un jour d'été\nensoleillé je comprendrais, mais là...\n{{fun_00070005 arg=\"\"}}."
    }
  },
  {
    "label": "009",
    "locale": {
      "EUde": "{{anim id=\"17\"}}Huch?! {{delay frames=\"20\"}}Du hast gar keinen\nRegenschirm?{{delay frames=\"40\"}} {{anim id=\"40\"}}Entschuldige, ich\nbin nur überrascht, {{delay frames=\"8\"}}{{fun_00080005 arg=\"\"}}.\n{{anim id=\"37\"}}Sonst wollen alle immer trocken\nbleiben. {{delay frames=\"40\"}}{{anim id=\"5\"}}Haha! {{delay frames=\"20\"}}Wir zwei genießen\ndie Wasserflut, {{delay frames=\"8\"}}{{fun_00070005 arg=\"\"}}!",
      "EUen": "{{anim id=\"17\"}}Hey! {{delay frames=\"10\"}}No umbrella in all this rain?!{{fun_00010007 arg=\"\"}}\n{{anim id=\"40\"}}Sorry. You just surprised me,\n{{fun_00080005 arg=\"\"}}.\n{{anim id=\"37\"}}I usually see everyone trying to\nstay dry. {{delay frames=\"20\"}}{{anim id=\"5\"}}But I'm with you.\nLet's soak it up, {{fun_00070005 arg=\"\"}}.",
      "EUes": "{{anim id=\"17\"}}¡Oye! {{delay frames=\"10\"}}¡¿No llevas paraguas?!{{fun_00010007 arg=\"\"}}\n{{anim id=\"40\"}}No, es que me has sorprendido,\n{{fun_00080005 arg=\"\"}}.\n{{anim id=\"37\"}}A casi nadie le apetece empaparse.\n{{delay frames=\"20\"}}{{anim id=\"5\"}}¡Pero estoy contigo! ¡A mojarse,\n{{fun_00070005 arg=\"\"}}!",
      "EUfr": "Hello ! {{anim id=\"17\"}}{{delay frames=\"20\"}}Tiens, tu n'as pas de\nparapluie ?!{{fun_00010007 arg=\"\"}} Là on peut dire que tu\nme surprends, {{fun_00080005 arg=\"\"}}.\n{{anim id=\"37\"}}En général les gens ne veulent pas\nse mouiller. {{delay frames=\"20\"}}{{anim id=\"5\"}}Mais toi tu aimes l'eau\non dirait, {{fun_00070005 arg=\"\"}}.",
      "EUit": "{{anim id=\"17\"}}Ma come... {{delay frames=\"10\"}}In giro senza ombrello?!{{fun_00010007 arg=\"\"}}\n{{anim id=\"40\"}}Uau, mi sorprendi, {{fun_00080005 arg=\"\"}}.{{pageBreak}}{{anim id=\"37\"}}Vedo che tutti fanno il possibile per\nnon bagnarsi. {{delay frames=\"20\"}}{{anim id=\"5\"}}Beh, io sono con te!\nInzuppiamoci, {{fun_00070005 arg=\"\"}}!",
      "JPja": "{{anim id=\"37\"}}かさもささずに　{{ruby charSpan=\"1\" value=\"たの\"}}楽しそうね？{{delay frames=\"8\"}}\n{{delay frames=\"8\"}}{{fun_00070005 arg=\"\"}}？{{delay frames=\"32\"}}\n{{anim id=\"35\"}}アナタも{{ruby charSpan=\"1\" value=\"あめ\"}}雨が　{{ruby charSpan=\"1\" value=\"す\"}}好きなのかしら？",
      "KRko": "{{anim id=\"37\"}}우산도 없는데 즐거워 보이네?{{delay frames=\"8\"}}\n{{delay frames=\"8\"}}{{fun_00070005 arg=\"\"}}?{{delay frames=\"32\"}}\n{{anim id=\"35\"}}당신도 나처럼 비가 그렇게 좋아?",
      "USen": "{{anim id=\"17\"}}Hey! {{delay frames=\"10\"}}No umbrella in all this rain?!{{fun_00010007 arg=\"\"}}\n{{anim id=\"40\"}}Sorry. You just surprised me,\n{{fun_00080005 arg=\"\"}}.\n{{anim id=\"37\"}}I usually see everyone trying to\nstay dry. {{delay frames=\"20\"}}{{anim id=\"5\"}}But I'm with you.\nLet's soak it up, {{fun_00070005 arg=\"\"}}.",
      "USes": "{{anim id=\"17\"}}¡Oye! {{delay frames=\"10\"}}¡¿No llevas paraguas?!{{fun_00010007 arg=\"\"}}\n{{anim id=\"40\"}}No, es que me has sorprendido,\n{{fun_00080005 arg=\"\"}}.\n{{anim id=\"37\"}}A casi nadie le apetece empaparse.\n{{delay frames=\"20\"}}{{anim id=\"5\"}}¡Pero estoy contigo! ¡A mojarse,\n{{fun_00070005 arg=\"\"}}!",
      "USfr": "Hello! {{anim id=\"17\"}}{{delay frames=\"20\"}}Tiens, tu n'as pas de\nparapluie?!{{fun_00010007 arg=\"\"}} Là on peut dire que tu\nme surprends, {{fun_00080005 arg=\"\"}}.\n{{anim id=\"37\"}}En général les gens ne veulent pas\nse mouiller. {{delay frames=\"20\"}}{{anim id=\"5\"}}Mais toi tu aimes l'eau\non dirait, {{fun_00070005 arg=\"\"}}."
    }
  },
  {
    "label": "010",
    "locale": {
      "EUde": "{{anim id=\"23\"}}Wieso regnet es denn dauernd?{{delay frames=\"20\"}}\nIst da irgendetwas undicht?!{{pageBreak}}{{fun_000A0007 arg=\"\"}}{{anim id=\"7\"}}Aufhören, da oben! {{delay frames=\"20\"}}Ich werde \npatschnass, {{delay frames=\"8\"}}{{fun_00070005 arg=\"\"}}!",
      "EUen": "{{anim id=\"23\"}}I wonder if it keeps on raining\nbecause the sky is crying.{{delay frames=\"20\"}}\nIf that's the case...\n{{fun_000A0007 arg=\"\"}}{{anim id=\"7\"}}Stop your blubbering up there!{{delay frames=\"20\"}}\nI'm getting soaked to the bone,\n{{fun_00070005 arg=\"\"}}!",
      "EUes": "{{anim id=\"23\"}}¿Y si llueve tanto porque hay\nalguien llorando ahí arriba?{{delay frames=\"20\"}}\nSi es así...\n{{fun_000A0007 arg=\"\"}}{{anim id=\"7\"}}¡Eh! ¡El de ahí arriba! ¡Deja ya\nde lloriquear!{{delay frames=\"20\"}} ¡Que nos vamos a\nahogar aquí abajo, {{fun_00070005 arg=\"\"}}!",
      "EUfr": "{{anim id=\"9\"}}On dit que quand il pleut, c'est que\nle ciel est triste et qu'il pleure.{{delay frames=\"20\"}}\nTu y crois, toi, {{fun_00070005 arg=\"\"}} ?\n{{fun_000A0007 arg=\"\"}}{{anim id=\"7\"}}Hé, toi là-haut !{{delay frames=\"20\"}} Arrête-donc un peu\nde pleurnicher, je suis déjà toute\ntrempée !",
      "EUit": "{{anim id=\"23\"}}Non pensi anche tu che le gocce\ndi pioggia siano lacrime che cadono\nda un cielo che piange?{{delay frames=\"20\"}} Come no?!\n{{anim id=\"0\"}}Oh, forse leggo troppi romanzi rosa.{{delay frames=\"20\"}}\nMeglio che vada ad asciugarmi,\n{{fun_00070005 arg=\"\"}}.",
      "JPja": "{{anim id=\"9\"}}{{ruby charSpan=\"2\" value=\"きょう\"}}今日の{{ruby charSpan=\"1\" value=\"あめ\"}}雨は、{{ruby charSpan=\"2\" value=\"いったい\"}}一体{{delay frames=\"12\"}}\n{{ruby charSpan=\"1\" value=\"だれ\"}}誰の{{ruby charSpan=\"1\" value=\"か\"}}代わりに　{{ruby charSpan=\"1\" value=\"な\"}}泣いてるのかしら？\n{{delay frames=\"8\"}}{{fun_00070005 arg=\"\"}}？",
      "KRko": "{{anim id=\"9\"}}오늘 내리는 비는{{delay frames=\"12\"}}\n누구 대신 울어주고 있는 걸까?\n{{delay frames=\"8\"}}{{fun_00070005 arg=\"\"}}?",
      "USen": "{{anim id=\"23\"}}I wonder if it keeps on raining\nbecause the sky is crying.{{delay frames=\"20\"}}\nIf that's the case...\n{{fun_000A0007 arg=\"\"}}{{anim id=\"7\"}}Stop your blubbering up there!{{delay frames=\"20\"}}\nI'm getting soaked to the bone,\n{{fun_00070005 arg=\"\"}}!",
      "USes": "{{anim id=\"23\"}}¿Y si llueve tanto porque hay\nalguien llorando ahí arriba?{{delay frames=\"20\"}}\nSi es así...\n{{fun_000A0007 arg=\"\"}}{{anim id=\"7\"}}¡Eh! ¡El de ahí arriba! ¡Deja ya\nde lloriquear!{{delay frames=\"20\"}} ¡Que nos vamos a\nahogar aquí abajo, {{fun_00070005 arg=\"\"}}!",
      "USfr": "{{anim id=\"9\"}}On dit que quand il pleut, c'est que\nle ciel est triste et qu'il pleure.{{delay frames=\"20\"}}\nTu y crois, toi, {{fun_00070005 arg=\"\"}}?\n{{fun_000A0007 arg=\"\"}}{{anim id=\"7\"}}Hé, toi là-haut!{{delay frames=\"20\"}} Arrête-donc un peu\nde pleurnicher, je suis déjà toute\ntrempée!"
    }
  },
  {
    "label": "011",
    "locale": {
      "EUde": "{{anim id=\"37\"}}Regen,{{delay frames=\"8\"}} {{fun_0006000E arg=\"0x16006D00650069006E0020006C006900650062006500720016006D00650069006E00650020006C006900650062006500\"}} {{fun_00000005 arg=\"\"}},{{delay frames=\"8\"}}\nist gut für die Pflanzen.{{delay frames=\"20\"}}\nUnd für die Haut!\n{{anim id=\"37\"}}Was für die Pflanzen gut ist, kann\ndoch für uns nicht schlecht sein,{{delay frames=\"8\"}}\n{{fun_00070005 arg=\"\"}}.",
      "EUen": "{{anim id=\"37\"}}You'd think I wouldn't want any\npart of all this mud, right?{{delay frames=\"20\"}}\n{{anim id=\"27\"}}I'm usually fussy, {{delay frames=\"5\"}}I know.\nBut I'd totally roll around in it. {{delay frames=\"5\"}}Well,{{delay frames=\"5\"}}\n{{anim id=\"37\"}}if it didn't mean I'd track mud all\nover my clean floor, {{fun_00070005 arg=\"\"}}.",
      "EUes": "{{anim id=\"37\"}}Soy muy refinada y me gusta\nmantener las formas, pero\nel barro es superior a mí...{{delay frames=\"20\"}}\n{{anim id=\"27\"}}¡Me encantaría revolcarme! {{delay frames=\"5\"}}{{anim id=\"37\"}}Si no\nfuera porque dejaría el suelo\nde casa perdido, {{fun_00070005 arg=\"\"}}.",
      "EUfr": "{{anim id=\"37\"}}Toute cette pluie... et toute cette\nboue...{{delay frames=\"20\"}} {{anim id=\"27\"}}Même je suis quelqu'un de\ntrès propre, {{delay frames=\"10\"}}j'avoue que...\n{{delay frames=\"10\"}}J'ai une folle envie de patauger\ndedans !{{delay frames=\"10\"}} {{anim id=\"39\"}}Mais, ça ruinerait tous mes\nvêtements, {{fun_00070005 arg=\"\"}}...",
      "EUit": "{{anim id=\"37\"}}E così pensavi che fossi inorridita\ndal fango, eh?{{delay frames=\"20\"}} {{anim id=\"27\"}}È vero, {{delay frames=\"5\"}}amo la pulizia,\nma se vedo una pozzanghera.{{delay frames=\"5\"}}.{{delay frames=\"5\"}}.\n{{anim id=\"37\"}}... devo subito saltarci dentro!\nBeh, a meno che non abbia appena\npassato lo straccio, {{fun_00070005 arg=\"\"}}.",
      "JPja": "{{anim id=\"5\"}}{{ruby charSpan=\"1\" value=\"あめ\"}}雨が{{ruby charSpan=\"1\" value=\"ふ\"}}降ると、{{ruby charSpan=\"1\" value=\"き\"}}木や{{ruby charSpan=\"1\" value=\"はな\"}}花たちも\nうれしそう！　{{delay frames=\"8\"}}{{fun_00070005 arg=\"\"}}！{{delay frames=\"32\"}}\n{{anim id=\"37\"}}まさに　めぐみの{{ruby charSpan=\"1\" value=\"あめ\"}}雨って{{ruby charSpan=\"1\" value=\"かん\"}}感じね？",
      "KRko": "{{anim id=\"5\"}}비가 내리면 나무랑 꽃들도\n기뻐하는 것 같아! {{delay frames=\"8\"}}{{fun_00070005 arg=\"\"}}!{{delay frames=\"32\"}}\n{{anim id=\"37\"}}단비란 건 바로 이런 걸까?",
      "USen": "{{anim id=\"37\"}}You'd think I wouldn't want any\npart of all this mud, right?{{delay frames=\"20\"}}\n{{anim id=\"27\"}}I'm usually fussy, {{delay frames=\"5\"}}I know.\nBut I'd totally roll around in it. {{delay frames=\"5\"}}Well,{{delay frames=\"5\"}}\n{{anim id=\"37\"}}if it didn't mean I'd track mud all\nover my clean floor, {{fun_00070005 arg=\"\"}}.",
      "USes": "{{anim id=\"37\"}}Soy muy refinada y me gusta\nmantener las formas, pero\nel barro es superior a mí...{{delay frames=\"20\"}}\n{{anim id=\"27\"}}¡Me encantaría revolcarme! {{delay frames=\"5\"}}{{anim id=\"37\"}}Si no\nfuera porque dejaría el suelo\nde casa perdido, {{fun_00070005 arg=\"\"}}.",
      "USfr": "{{anim id=\"37\"}}Toute cette pluie... et toute cette\nboue...{{delay frames=\"20\"}} {{anim id=\"27\"}}Même je suis quelqu'un de\ntrès propre, {{delay frames=\"10\"}}j'avoue que...\n{{delay frames=\"10\"}}J'ai une folle envie de patauger\ndedans!{{delay frames=\"10\"}} {{anim id=\"39\"}}Mais, ça ruinerait tous mes\nvêtements, {{fun_00070005 arg=\"\"}}..."
    }
  },
  {
    "label": "012",
    "locale": {
      "EUde": "{{anim id=\"11\"}}Also, ich fände Regen wesentlich\nerträglicher, wenn er nicht so\nnass wäre, {{delay frames=\"8\"}}{{fun_00070005 arg=\"\"}}.",
      "EUen": "{{anim id=\"11\"}}You know, I'd like rain a LOT\nmore if it wasn't so wet,\n{{fun_00070005 arg=\"\"}}.",
      "EUes": "{{anim id=\"11\"}}¿Sabes? La lluvia me gustaría\nmás si no mojara, {{fun_00070005 arg=\"\"}}.",
      "EUfr": "{{anim id=\"11\"}}Tu sais, la pluie, ça mouille. Et c'est\nbien là qu'est le problème,\n{{fun_00070005 arg=\"\"}}.",
      "EUit": "{{anim id=\"11\"}}Sai, la pioggia non mi seccherebbe\ncosì tanto se non fosse così...\numida, {{fun_00070005 arg=\"\"}}.",
      "JPja": "{{anim id=\"11\"}}この{{ruby charSpan=\"1\" value=\"あめ\"}}雨が、{{delay frames=\"8\"}}{{ruby charSpan=\"1\" value=\"わす\"}}忘れたい{{ruby charSpan=\"2\" value=\"かこ\"}}過去を\n{{ruby charSpan=\"1\" value=\"あら\"}}洗い{{ruby charSpan=\"1\" value=\"なが\"}}流してくれたら　いいのに{{delay frames=\"8\"}}・{{delay frames=\"8\"}}・{{delay frames=\"8\"}}・{{delay frames=\"8\"}}",
      "KRko": "{{anim id=\"11\"}}이 비가 {{delay frames=\"8\"}}내 아픈 기억들을\n씻어 내주면 좋을 텐데{{delay frames=\"8\"}}・{{delay frames=\"8\"}}・{{delay frames=\"8\"}}・{{delay frames=\"8\"}}",
      "USen": "{{anim id=\"11\"}}You know, I'd like rain a LOT\nmore if it wasn't so wet,\n{{fun_00070005 arg=\"\"}}.",
      "USes": "{{anim id=\"11\"}}¿Sabes? La lluvia me gustaría\nmás si no mojara, {{fun_00070005 arg=\"\"}}.",
      "USfr": "{{anim id=\"11\"}}Tu sais, la pluie, ça mouille. Et c'est\nbien là qu'est le problème,\n{{fun_00070005 arg=\"\"}}."
    }
  },
  {
    "label": "013",
    "locale": {
      "EUde": "{{anim id=\"5\"}}Jeder Tropfen ist wie eine Note\nin einer erlesenen Sinfonie!{{delay frames=\"40\"}}\nBezaubernd!",
      "EUen": "{{anim id=\"5\"}}Every raindrop is like a musical\nnote in a pretty symphony! {{fun_00010007 arg=\"\"}}{{anim id=\"23\"}}What?{{delay frames=\"20\"}}\nIs it just ME who feels that way?",
      "EUes": "{{anim id=\"5\"}}¡Cada gota que cae es como la\nnota de una hermosa melodía!{{pageBreak}}{{anim id=\"23\"}}¿Es que tú no la oyes, flor?",
      "EUfr": "{{anim id=\"5\"}}Écoute... {{fun_00010007 arg=\"\"}}La pluie est une mélodie,\net chacune des gouttes qui la\ncomposent en est une note.\n{{anim id=\"23\"}}Comment ? Tu n'aimes pas ce genre\nde musique ?{{delay frames=\"20\"}} Bah, les gouttes et les\ncouleurs, {{fun_00070005 arg=\"\"}}...",
      "EUit": "{{anim id=\"5\"}}Ogni singola goccia che cade è una\nnota musicale di una bella sinfonia!{{fun_00010007 arg=\"\"}}\n{{anim id=\"23\"}}Come dici...?{{delay frames=\"20\"}} Sto esagerando?!",
      "JPja": "{{anim id=\"5\"}}{{ruby charSpan=\"1\" value=\"あめ\"}}雨が　{{ruby charSpan=\"1\" value=\"ふ\"}}降ると\nウキウキしちゃうわね～、{{delay frames=\"8\"}}{{fun_00070005 arg=\"\"}}！",
      "KRko": "{{anim id=\"5\"}}비가 오면\n왠지 기분이 들떠～ {{delay frames=\"8\"}}{{fun_00070005 arg=\"\"}}!",
      "USen": "{{anim id=\"5\"}}Every raindrop is like a musical\nnote in a pretty symphony! {{fun_00010007 arg=\"\"}}{{anim id=\"23\"}}What?{{delay frames=\"20\"}}\nIs it just ME who feels that way?",
      "USes": "{{anim id=\"5\"}}¡Cada gota que cae es como la\nnota de una hermosa melodía!{{pageBreak}}{{anim id=\"23\"}}¿Es que tú no la oyes, flor?",
      "USfr": "{{anim id=\"5\"}}Écoute... {{fun_00010007 arg=\"\"}}La pluie est une mélodie,\net chacune des gouttes qui la\ncomposent en est une note.\n{{anim id=\"23\"}}Comment? Tu n'aimes pas ce genre\nde musique?{{delay frames=\"20\"}} Bah, les gouttes et les\ncouleurs, {{fun_00070005 arg=\"\"}}..."
    }
  },
  {
    "label": "014",
    "locale": {
      "EUde": "{{anim id=\"9\"}}Ich werde klatschnass hier draußen,{{delay frames=\"8\"}}\n{{fun_00070005 arg=\"\"}}. {{delay frames=\"20\"}}{{anim id=\"27\"}}Manchmal wünschte\nich, {{delay frames=\"8\"}}ich wäre ein Frosch...",
      "EUen": "{{anim id=\"9\"}}I'm getting so soaked out here,\n{{fun_00070005 arg=\"\"}}. {{delay frames=\"20\"}}{{anim id=\"27\"}}Oh, what I wouldn't\nGIVE to be a frog sometimes.",
      "EUes": "{{anim id=\"9\"}}Estoy empapada hasta los huesos,\n{{fun_00070005 arg=\"\"}}. {{delay frames=\"20\"}}{{anim id=\"27\"}}Lo que daría por\nser una rana...",
      "EUfr": "{{anim id=\"9\"}}Pff ! Je suis trempée jusqu'aux os,\n{{fun_00070005 arg=\"\"}}. {{delay frames=\"20\"}}{{anim id=\"27\"}}Dans ces moments-là\nj'aimerais être une grenouille.",
      "EUit": "{{anim id=\"9\"}}Sono fradicia, {{fun_00070005 arg=\"\"}}.\n{{delay frames=\"20\"}}{{anim id=\"27\"}}Almeno le lumache che mi infestano\nil giardino sembrano contente.",
      "JPja": "{{anim id=\"9\"}}{{ruby charSpan=\"1\" value=\"あし\"}}足が　びしょぬれで、{{delay frames=\"8\"}}\nイヤに　なっちゃうわね、{{delay frames=\"8\"}}{{fun_00070005 arg=\"\"}}",
      "KRko": "{{anim id=\"9\"}}발이 젖어서 질척질척{{delay frames=\"8\"}}・{{delay frames=\"8\"}}・{{delay frames=\"8\"}}・{{delay frames=\"8\"}}\n아, 정말 싫다～ {{delay frames=\"8\"}}{{fun_00070005 arg=\"\"}}～",
      "USen": "{{anim id=\"9\"}}I'm getting so soaked out here,\n{{fun_00070005 arg=\"\"}}. {{delay frames=\"20\"}}{{anim id=\"27\"}}Oh, what I wouldn't\nGIVE to be a frog sometimes.",
      "USes": "{{anim id=\"9\"}}Estoy empapada hasta los huesos,\n{{fun_00070005 arg=\"\"}}. {{delay frames=\"20\"}}{{anim id=\"27\"}}Lo que daría por\nser una rana...",
      "USfr": "{{anim id=\"9\"}}Pff! Je suis trempée jusqu'aux os,\n{{fun_00070005 arg=\"\"}}. {{delay frames=\"20\"}}{{anim id=\"27\"}}Dans ces moments-là\nj'aimerais être une grenouille."
    }
  },
  {
    "label": "015",
    "locale": {
      "EUde": "{{anim id=\"37\"}}Wieso kann es nicht immer so sein?{{delay frames=\"20\"}}\nKühl...{{delay frames=\"10\"}} Nass...{{delay frames=\"10\"}} Matschig... {{delay frames=\"10\"}}{{anim id=\"3\"}}Als wär\ndie Welt mein Teich, {{delay frames=\"8\"}}{{fun_00070005 arg=\"\"}}!",
      "EUen": "{{anim id=\"37\"}}Can't it always be like this? {{delay frames=\"20\"}}Rainy?{{delay frames=\"10\"}}\nWet? {{delay frames=\"10\"}}Muddy? {{delay frames=\"10\"}}{{anim id=\"3\"}}It's like the whole\nworld is my pond, {{fun_00070005 arg=\"\"}}!",
      "EUes": "{{anim id=\"37\"}}¿No podría ser así todos los días? {{delay frames=\"20\"}}\nCon lluvia,{{delay frames=\"10\"}} humedad, {{delay frames=\"10\"}}barro...{{pageBreak}}{{anim id=\"3\"}}¡Es como si el mundo fuera mi\nestanque privado, {{fun_00070005 arg=\"\"}}!",
      "EUfr": "{{anim id=\"37\"}}{{delay frames=\"20\"}}De la pluie,{{delay frames=\"10\"}} des flaques, {{delay frames=\"10\"}}de la boue\npartout... {{delay frames=\"10\"}}{{anim id=\"3\"}}La ville toute entière s'est\nchangée en étang, {{fun_00070005 arg=\"\"}} !",
      "EUit": "{{anim id=\"37\"}}Magari potesse essere sempre così!{{delay frames=\"20\"}}\nPioggia,{{delay frames=\"10\"}} acqua, {{delay frames=\"10\"}}fango... {{delay frames=\"10\"}}{{anim id=\"3\"}}È il mio\nhabitat naturale, {{fun_00070005 arg=\"\"}}!",
      "JPja": "{{anim id=\"1\"}}{{ruby charSpan=\"1\" value=\"あめ\"}}雨が{{ruby charSpan=\"1\" value=\"ふ\"}}降ると、{{delay frames=\"8\"}}お{{ruby charSpan=\"1\" value=\"はだ\"}}肌が　\n{{ruby charSpan=\"2\" value=\"わかがえ\"}}若返る{{ruby charSpan=\"1\" value=\"き\"}}気がするの！　{{delay frames=\"8\"}}{{fun_00070005 arg=\"\"}}！{{delay frames=\"32\"}}　\n{{anim id=\"3\"}}もう{{ruby charSpan=\"2\" value=\"まいにち\"}}毎日、{{delay frames=\"8\"}}{{ruby charSpan=\"1\" value=\"ふ\"}}降って{{ruby charSpan=\"1\" value=\"ほ\"}}欲しいわ～！",
      "KRko": "{{anim id=\"1\"}}비가 내리면, {{delay frames=\"8\"}}왠지 피부도\n촉촉해지는 느낌이야! {{delay frames=\"8\"}}{{fun_00070005 arg=\"\"}}!{{delay frames=\"32\"}}　\n{{anim id=\"3\"}}매일 내렸으면 좋겠다～!",
      "USen": "{{anim id=\"37\"}}Can't it always be like this? {{delay frames=\"20\"}}Rainy?{{delay frames=\"10\"}}\nWet? {{delay frames=\"10\"}}Muddy? {{delay frames=\"10\"}}{{anim id=\"3\"}}It's like the whole\nworld is my pond, {{fun_00070005 arg=\"\"}}!",
      "USes": "{{anim id=\"37\"}}¿No podría ser así todos los días? {{delay frames=\"20\"}}\nCon lluvia,{{delay frames=\"10\"}} humedad, {{delay frames=\"10\"}}barro...{{pageBreak}}{{anim id=\"3\"}}¡Es como si el mundo fuera mi\nestanque privado, {{fun_00070005 arg=\"\"}}!",
      "USfr": "{{anim id=\"37\"}}{{delay frames=\"20\"}}De la pluie,{{delay frames=\"10\"}} des flaques, {{delay frames=\"10\"}}de la boue\npartout... {{delay frames=\"10\"}}{{anim id=\"3\"}}La ville toute entière s'est\nchangée en étang, {{fun_00070005 arg=\"\"}}!"
    }
  },
  {
    "label": "016",
    "locale": {
      "EUde": "{{anim id=\"10\"}}Etwas Regen ist ja nett! {{delay frames=\"20\"}}Aber wieso\ndenn gleich so viel? {{delay frames=\"20\"}}{{anim id=\"40\"}}Hoffentlich wird\nes morgen besser, {{delay frames=\"8\"}}{{fun_00070005 arg=\"\"}}.",
      "EUen": "{{anim id=\"10\"}}A little rain can be nice, {{delay frames=\"5\"}}I guess,{{delay frames=\"5\"}}\nbut THIS much? {{delay frames=\"20\"}}{{anim id=\"40\"}}I am so ready for\ntomorrow to start, {{fun_00070005 arg=\"\"}}.",
      "EUes": "{{anim id=\"10\"}}Un poco de lluvia viene bien, {{delay frames=\"5\"}}\n¿pero TANTA? {{delay frames=\"20\"}}{{anim id=\"40\"}}Que se acabe ya\nel día, por favor, {{fun_00070005 arg=\"\"}}.",
      "EUfr": "{{anim id=\"10\"}}D'accord,{{delay frames=\"10\"}} un peu de pluie ça fait du\nbien{{delay frames=\"10\"}}... {{delay frames=\"20\"}}{{anim id=\"40\"}}Mais là, il pleut sans arrêt !\nVivement demain, {{fun_00070005 arg=\"\"}} !",
      "EUit": "{{anim id=\"10\"}}Un po' di pioggia non mi dispiace,{{delay frames=\"5\"}}\nma {{delay frames=\"5\"}}tutta quest'acqua{{delay frames=\"20\"}} {{anim id=\"6\"}}sta sciupando\ni miei gerani, {{fun_00070005 arg=\"\"}}!",
      "JPja": "{{anim id=\"10\"}}{{delay frames=\"60\"}}もぉ～{{delay frames=\"8\"}}・{{delay frames=\"8\"}}・{{delay frames=\"8\"}}・{{delay frames=\"8\"}}{{anim id=\"9\"}}{{ruby charSpan=\"1\" value=\"あめ\"}}雨の{{ruby charSpan=\"1\" value=\"ひ\"}}日って、{{delay frames=\"8\"}}\n{{ruby charSpan=\"1\" value=\"かみ\"}}髪の{{ruby charSpan=\"1\" value=\"け\"}}毛が　{{ruby charSpan=\"2\" value=\"ざんねん\"}}残念な{{ruby charSpan=\"1\" value=\"かん\"}}感じに　\nなっちゃうのよね、{{delay frames=\"8\"}}{{fun_00070005 arg=\"\"}}",
      "KRko": "{{anim id=\"10\"}}{{delay frames=\"60\"}}하아{{delay frames=\"8\"}}・{{delay frames=\"8\"}}・{{delay frames=\"8\"}}・{{delay frames=\"8\"}}{{anim id=\"9\"}} 비 오는 날은{{delay frames=\"8\"}}\n머리카락이 꾸불꾸불{{delay frames=\"8\"}}・{{delay frames=\"8\"}}・{{delay frames=\"8\"}}・{{delay frames=\"8\"}}\n이게 뭐야～ {{delay frames=\"8\"}}{{fun_00070005 arg=\"\"}}～",
      "USen": "{{anim id=\"10\"}}A little rain can be nice, {{delay frames=\"5\"}}I guess,{{delay frames=\"5\"}}\nbut THIS much? {{delay frames=\"20\"}}{{anim id=\"40\"}}I am so ready for\ntomorrow to start, {{fun_00070005 arg=\"\"}}.",
      "USes": "{{anim id=\"10\"}}Un poco de lluvia viene bien, {{delay frames=\"5\"}}\n¿pero TANTA? {{delay frames=\"20\"}}{{anim id=\"40\"}}Que se acabe ya\nel día, por favor, {{fun_00070005 arg=\"\"}}.",
      "USfr": "{{anim id=\"10\"}}D'accord,{{delay frames=\"10\"}} un peu de pluie ça fait du\nbien{{delay frames=\"10\"}}... {{delay frames=\"20\"}}{{anim id=\"40\"}}Mais là, il pleut sans arrêt!\nVivement demain, {{fun_00070005 arg=\"\"}}!"
    }
  },
  {
    "label": "017",
    "locale": {
      "EUde": "{{anim id=\"3\"}}Oh, wie wunderbar erfrischend. {{delay frames=\"20\"}}\nSieh nur, meine Haut wird immer\nschleimiger! {{delay frames=\"20\"}}Hihi, {{delay frames=\"20\"}}{{fun_00070005 arg=\"\"}}!",
      "EUen": "{{anim id=\"3\"}}Oh, it's SO lovely. {{delay frames=\"10\"}}My skin is just\ngetting slimier and slimier in\nall this rain, {{fun_00070005 arg=\"\"}}!",
      "EUes": "{{anim id=\"3\"}}¡Es fantástico! {{delay frames=\"10\"}}¡Mira mi piel!\n¡Está brillante y resbaladiza con\ntanta lluvia, {{fun_00070005 arg=\"\"}}!\n¡Esto no se consigue ni en los\nmejores salones de belleza!",
      "EUfr": "{{anim id=\"3\"}}Oh, magnifique ! {{delay frames=\"10\"}}Ma peau devient de\nplus en plus visqueuse grâce à la\npluie. Touche-moi ça, {{fun_00070005 arg=\"\"}}.",
      "EUit": "{{anim id=\"3\"}}Ah, è una sensazione fantastica.{{delay frames=\"10\"}}\nLa mia pelle si sta facendo\nsempre più viscida, {{fun_00070005 arg=\"\"}}!",
      "JPja": "{{anim id=\"5\"}}{{ruby charSpan=\"1\" value=\"あめ\"}}雨よ～{{ruby charSpan=\"1\" value=\"あめ\"}}雨、{{delay frames=\"8\"}}{{ruby charSpan=\"1\" value=\"あめ\"}}雨～、{{delay frames=\"8\"}}もっと{{ruby charSpan=\"1\" value=\"ふ\"}}降ってね～\n{{delay frames=\"8\"}}{{fun_00070005 arg=\"\"}}！",
      "KRko": "{{anim id=\"5\"}}비야～ 비야～ {{delay frames=\"8\"}}\n더 마음껏, {{delay frames=\"8\"}}하루 종일 내리렴～\n{{delay frames=\"8\"}}{{fun_00070005 arg=\"\"}}!",
      "USen": "{{anim id=\"3\"}}Oh, it's SO lovely. {{delay frames=\"10\"}}My skin is just\ngetting slimier and slimier in\nall this rain, {{fun_00070005 arg=\"\"}}!",
      "USes": "{{anim id=\"3\"}}¡Es fantástico! {{delay frames=\"10\"}}¡Mira mi piel!\n¡Está brillante y resbaladiza con\ntanta lluvia, {{fun_00070005 arg=\"\"}}!\n¡Esto no se consigue ni en los\nmejores salones de belleza!",
      "USfr": "{{anim id=\"3\"}}Oh, magnifique! {{delay frames=\"10\"}}Ma peau devient de\nplus en plus visqueuse grâce à la\npluie. Touche-moi ça, {{fun_00070005 arg=\"\"}}."
    }
  }
]