﻿[
  {
    "label": "001",
    "locale": {
      "EUde": "{{anim id=\"39\"}}Ich habe mir überlegt, dass es sehr\ninteressant wäre, mal dein Haus zu\nsehen, {{delay frames=\"8\"}}{{fun_00080005 arg=\"\"}}.{{delay frames=\"40\"}} Was meinst du?{{fun_0005000F arg=\"0x15002800\"}}\nNachher? Klar!\nLieber nicht.",
      "EUen": "{{anim id=\"39\"}}So, {{fun_00080005 arg=\"\"}}, I've been thinking\nhow nice it would be to visit\nyour house. {{delay frames=\"10\"}}How about it?{{fun_0005000F arg=\"0x15002800\"}}\nLater, right? OK!\nNo, thanks.",
      "EUes": "{{anim id=\"39\"}}¿Sabes, {{fun_00080005 arg=\"\"}}? Tengo muchas\nganas de ir de visita a tu casa.{{delay frames=\"10\"}}\n¿Qué te parece la idea?{{fun_0005000F arg=\"0x00002800\"}}\n¿Después? ¡Vale!\nMejor no",
      "EUfr": "{{anim id=\"39\"}}Dis-moi, {{fun_00080005 arg=\"\"}}, j'aimerais\nbeaucoup aller chez toi voir\ncomment tu as décoré ton intérieur.\nJe cherche de nouvelles idées déco,\npeut-être que je trouverai\nl'inspiration chez toi...\nJe pourrais passer tout à l'heure,\nqu'en penses-tu ?{{fun_0005000F arg=\"0x15002800\"}}\nOui, si tu veux.\nNon, une autre fois.",
      "EUit": "{{anim id=\"39\"}}Sai, {{fun_00080005 arg=\"\"}}, stavo pensando\ndi fare una visitina a casa tua.\n{{delay frames=\"10\"}}Cosa ne dici?{{fun_0005000F arg=\"0x15002800\"}}\nPiù tardi sì!\nNo, grazie.",
      "JPja": "{{anim id=\"39\"}}ねぇ、{{fun_00080005 arg=\"\"}}{{fun_000D0005 arg=\"\"}}{{delay frames=\"16\"}}\n{{ruby charSpan=\"2\" value=\"きょう\"}}今日って　{{ruby charSpan=\"1\" value=\"なに\"}}何か{{ruby charSpan=\"2\" value=\"よてい\"}}予定ある？　\n{{delay frames=\"8\"}}{{fun_00070005 arg=\"\"}}？\nもし、{{ruby charSpan=\"1\" value=\"よ\"}}良かったら{{delay frames=\"16\"}}　アナタの{{ruby charSpan=\"1\" value=\"いえ\"}}家に\n{{ruby charSpan=\"1\" value=\"あそ\"}}遊びに{{ruby charSpan=\"1\" value=\"い\"}}行ってみたいんだけど、{{delay frames=\"16\"}}\nどうかしら{{delay frames=\"8\"}}・{{delay frames=\"8\"}}・{{delay frames=\"8\"}}・{{delay frames=\"8\"}}？{{fun_0005000F arg=\"0x15002800\"}}\nオッケー！\nムリかも",
      "KRko": "{{anim id=\"39\"}}있잖아, {{fun_00080005 arg=\"\"}}～{{delay frames=\"16\"}}\n오늘 무슨 스케줄 있어?　\n{{delay frames=\"8\"}}{{fun_00070005 arg=\"\"}}?\n혹시 괜찮다면{{delay frames=\"16\"}} 당신 집에\n놀러 갈까 하는데{{delay frames=\"8\"}}・{{delay frames=\"8\"}}・{{delay frames=\"8\"}}・{{delay frames=\"8\"}}\n어때?{{fun_0005000F arg=\"0x15002800\"}}\n오케이!\n오지 마",
      "USen": "{{anim id=\"39\"}}So, {{fun_00080005 arg=\"\"}}, I've been thinking\nhow nice it would be to visit\nyour house. {{delay frames=\"10\"}}How about it?{{fun_0005000F arg=\"0x15002800\"}}\nLater, right? OK!\nNo, thanks.",
      "USes": "{{anim id=\"39\"}}¿Sabes, {{fun_00080005 arg=\"\"}}? Tengo muchas\nganas de ir de visita a tu casa.{{delay frames=\"10\"}}\n¿Qué te parece la idea?{{fun_0005000F arg=\"0x00002800\"}}\n¿Después? ¡Vale!\nMejor no",
      "USfr": "{{anim id=\"39\"}}Dis-moi, {{fun_00080005 arg=\"\"}}, j'aimerais\nbeaucoup aller chez toi voir\ncomment tu as décoré ton intérieur.\nJe cherche de nouvelles idées déco,\npeut-être que je trouverai\nl'inspiration chez toi...\nJe pourrais passer tout à l'heure,\nqu'en penses-tu?{{fun_0005000F arg=\"0x15002800\"}}\nOui, si tu veux.\nNon, une autre fois."
    }
  },
  {
    "label": "002",
    "locale": {
      "EUde": "{{anim id=\"39\"}}Es ist höchste Zeit, dass ich dein\nHaus von innen sehe, {{delay frames=\"8\"}}{{fun_00080005 arg=\"\"}}.\n{{delay frames=\"40\"}}Was meinst du dazu?{{fun_0005000F arg=\"0x15002800\"}}\nAu ja!\nÄh, nein.",
      "EUen": "{{anim id=\"39\"}}So, {{fun_00080005 arg=\"\"}}, I'd like to visit your\nplace sometime. {{delay frames=\"10\"}}I'm curious how\nyou've been decorating lately.{{fun_0005000F arg=\"0x15002800\"}}\nSure, sounds fun!\nUh, no.",
      "EUes": "{{anim id=\"39\"}}Oye, {{fun_00080005 arg=\"\"}}, podría pasarme\npor tu casa luego. {{delay frames=\"10\"}}Siento curiosidad\npor ver cómo la has decorado.{{fun_0005000F arg=\"0x00002800\"}}\n¡Suena divertido!\nHum, no",
      "EUfr": "{{anim id=\"39\"}}J'aimerais beaucoup aller chez toi\npour voir comment tu as décoré ton\nintérieur...{{fun_0005000F arg=\"0x15002800\"}}\nOui, pas de problème.\nNon, pas moyen.",
      "EUit": "{{anim id=\"39\"}}Mi piacerebbe passare da casa tua,\n{{fun_00080005 arg=\"\"}}. {{delay frames=\"10\"}}Vorrei vedere\ncome te la cavi ad arredare.{{fun_0005000F arg=\"0x15002800\"}}\nCerto, vieni pure!\nEhm... no.",
      "JPja": "{{fun_00080005 arg=\"\"}}{{fun_000D0005 arg=\"\"}}、{{delay frames=\"16\"}}\n{{ruby charSpan=\"1\" value=\"よ\"}}良かったら、{{ruby charSpan=\"2\" value=\"こんど\"}}今度{{delay frames=\"16\"}}\nアナタの{{ruby charSpan=\"1\" value=\"いえ\"}}家を　{{ruby charSpan=\"1\" value=\"み\"}}見せてくれない？\n{{anim id=\"37\"}}アタシ、{{ruby charSpan=\"2\" value=\"きょうみ\"}}興味があるの！{{delay frames=\"32\"}}\nアナタが　どんな{{ruby charSpan=\"2\" value=\"かぐ\"}}家具を{{delay frames=\"8\"}}\n{{ruby charSpan=\"2\" value=\"へや\"}}部屋に{{ruby charSpan=\"1\" value=\"お\"}}置いているのか{{delay frames=\"8\"}}・{{delay frames=\"8\"}}・{{delay frames=\"8\"}}・{{delay frames=\"8\"}}{{fun_0005000F arg=\"0x15002800\"}}\nいいよー！\nごめんなさい",
      "KRko": "{{fun_00080005 arg=\"\"}}～{{delay frames=\"16\"}}\n혹시 괜찮다면{{delay frames=\"16\"}}\n당신 집 구경 가도 돼?\n{{anim id=\"37\"}}나, 꼭 보고 싶거든!{{delay frames=\"32\"}}\n당신이 어떤 가구를{{delay frames=\"8\"}}\n어떻게 놓아 두었는지{{delay frames=\"8\"}}・{{delay frames=\"8\"}}・{{delay frames=\"8\"}}・{{delay frames=\"8\"}}{{fun_0005000F arg=\"0x15002800\"}}\n놀러 와!\n미안",
      "USen": "{{anim id=\"39\"}}So, {{fun_00080005 arg=\"\"}}, I'd like to visit your\nplace sometime. {{delay frames=\"10\"}}I'm curious how\nyou've been decorating lately.{{fun_0005000F arg=\"0x15002800\"}}\nSure, sounds fun!\nUh, no.",
      "USes": "{{anim id=\"39\"}}Oye, {{fun_00080005 arg=\"\"}}, podría pasarme\npor tu casa luego. {{delay frames=\"10\"}}Siento curiosidad\npor ver cómo la has decorado.{{fun_0005000F arg=\"0x00002800\"}}\n¡Suena divertido!\nHum, no",
      "USfr": "{{anim id=\"39\"}}J'aimerais beaucoup aller chez toi\npour voir comment tu as décoré ton\nintérieur...{{fun_0005000F arg=\"0x15002800\"}}\nOui, pas de problème.\nNon, pas moyen."
    }
  },
  {
    "label": "003",
    "locale": {
      "EUde": "{{anim id=\"39\"}}Mir ist zu Ohren gekommen, dass\ndein Haus inzwischen sehr hübsch\nist, {{delay frames=\"8\"}}{{fun_00080005 arg=\"\"}}.\nIch würde es mir gerne einmal\nansehen, wenn ich darf.{{fun_0005000F arg=\"0x15002800\"}}\nKlar! Wann?\nNichts da!",
      "EUen": "{{anim id=\"39\"}}So.{{delay frames=\"5\"}}.{{delay frames=\"5\"}}.{{delay frames=\"5\"}}{{fun_00080005 arg=\"\"}}. {{fun_00010007 arg=\"\"}}The rumor is that\nyour home is looking very nice\nright now, {{fun_00070005 arg=\"\"}}.\nI'd like to come over to see it for\nmyself, {{fun_00080005 arg=\"\"}}!{{fun_0005000F arg=\"0x15002800\"}}\nSure, when?\nNo way.",
      "EUes": "{{anim id=\"39\"}}{{fun_0003000E arg=\"\"}}{{fun_00080005 arg=\"\"}}... {{fun_00010007 arg=\"\"}}Dicen los rumores\nque tienes una casa encantadora,\n{{fun_00070005 arg=\"\"}}.\n¿Podría ir a verla? Solo para\ncontrastar la información.{{fun_0005000F arg=\"0x00002800\"}}\nClaro. ¿Cuándo?\nNi hablar",
      "EUfr": "{{anim id=\"39\"}}On m'a dit que tu avais très bien su\naménager ton intérieur,\n{{fun_00070005 arg=\"\"}}.\nComme je suis curieuse et\npassionnée de déco, j'adorerais\nvisiter ta maison, {{fun_00080005 arg=\"\"}} !\nTu veux bien que je vienne chez toi,\ndis ?{{fun_0005000F arg=\"0x15002800\"}}\nBien sûr. Quand ça ?\nNon.",
      "EUit": "{{anim id=\"39\"}}Ehi, {{fun_00080005 arg=\"\"}}.{{delay frames=\"5\"}}.{{delay frames=\"5\"}}.{{delay frames=\"5\"}} {{fun_00010007 arg=\"\"}}Ho sentito\ndire che la tua casa è\nun gioiellino, {{fun_00070005 arg=\"\"}}.\nMi farebbe molto piacere venire a\nconstatarlo di persona, {{fun_00080005 arg=\"\"}}!{{fun_0005000F arg=\"0x15002800\"}}\nMa certo! Quando?\nNeanche per sogno.",
      "JPja": "{{fun_00080005 arg=\"\"}}{{fun_000D0005 arg=\"\"}}、{{delay frames=\"16\"}}アナタって\n{{ruby charSpan=\"2\" value=\"ふだん\"}}普段、{{ruby charSpan=\"1\" value=\"いえ\"}}家で{{ruby charSpan=\"1\" value=\"なに\"}}何をしてるの？{{pageBreak}}{{anim id=\"36\"}}ふふふ{{delay frames=\"4\"}}・{{delay frames=\"4\"}}・{{delay frames=\"4\"}}・{{delay frames=\"4\"}}{{ruby charSpan=\"2\" value=\"いがい\"}}意外と\n{{fun_00120005 arg=\"0x0000\"}}とかしてたりして{{delay frames=\"8\"}}・{{delay frames=\"8\"}}・{{delay frames=\"8\"}}・{{delay frames=\"8\"}}{{pageBreak}}{{anim id=\"22\"}}{{delay frames=\"16\"}}そうだ！　{{delay frames=\"32\"}}{{anim id=\"0\"}}{{ruby charSpan=\"1\" value=\"よ\"}}良かったら、{{ruby charSpan=\"2\" value=\"こんど\"}}今度{{delay frames=\"16\"}}\nアナタの{{ruby charSpan=\"1\" value=\"いえ\"}}家を　{{anim id=\"23\"}}{{ruby charSpan=\"1\" value=\"み\"}}見せてくれない？{{pageBreak}}{{anim id=\"37\"}}その{{ruby charSpan=\"1\" value=\"ひと\"}}人のシュミって、{{delay frames=\"16\"}}\n{{ruby charSpan=\"2\" value=\"かぐ\"}}家具とかインテリアに{{ruby charSpan=\"1\" value=\"で\"}}出るでしょ？\n{{delay frames=\"8\"}}{{fun_00070005 arg=\"\"}}？{{fun_0005000F arg=\"0x15002800\"}}\n{{ruby charSpan=\"2\" value=\"しかた\"}}仕方ないなぁ\nイヤだ",
      "KRko": "{{fun_00080005 arg=\"\"}}!{{delay frames=\"16\"}}\n당신은 평소에 집에서 뭐해?{{pageBreak}}{{anim id=\"36\"}}후후훗{{delay frames=\"4\"}}・{{delay frames=\"4\"}}・{{delay frames=\"4\"}}・{{delay frames=\"4\"}}\n의외로 {{fun_00120005 arg=\"0x0000\"}} 같은\n취미가 있는 거 아냐?{{delay frames=\"8\"}}\n{{anim id=\"22\"}}{{delay frames=\"16\"}}그래! {{delay frames=\"32\"}}\n{{anim id=\"0\"}}말 나온 김에{{delay frames=\"16\"}}{{anim id=\"23\"}} 당신 집에\n한번 초대해주지 않을래?\n{{anim id=\"37\"}}가구나 인테리어를 보면{{delay frames=\"16\"}}\n그 사람의 취향을\n알 수 있다고 하잖아～{{fun_0005000F arg=\"0x15002800\"}}\n그럼 한번 놀러 와\n싫어",
      "USen": "{{anim id=\"39\"}}So.{{delay frames=\"5\"}}.{{delay frames=\"5\"}}.{{delay frames=\"5\"}}{{fun_00080005 arg=\"\"}}. {{fun_00010007 arg=\"\"}}The rumor is that\nyour home is looking very nice\nright now, {{fun_00070005 arg=\"\"}}.\nI'd like to come over to see it for\nmyself, {{fun_00080005 arg=\"\"}}!{{fun_0005000F arg=\"0x15002800\"}}\nSure, when?\nNo way.",
      "USes": "{{anim id=\"39\"}}{{fun_0003000E arg=\"\"}}{{fun_00080005 arg=\"\"}}... {{fun_00010007 arg=\"\"}}Dicen los rumores\nque tienes una casa encantadora,\n{{fun_00070005 arg=\"\"}}.\n¿Podría ir a verla? Solo para\ncontrastar la información.{{fun_0005000F arg=\"0x00002800\"}}\nClaro. ¿Cuándo?\nNi hablar",
      "USfr": "{{anim id=\"39\"}}On m'a dit que tu avais très bien su\naménager ton intérieur,\n{{fun_00070005 arg=\"\"}}.\nComme je suis curieuse et\npassionnée de déco, j'adorerais\nvisiter ta maison, {{fun_00080005 arg=\"\"}}!\nTu veux bien que je vienne chez toi,\ndis?{{fun_0005000F arg=\"0x15002800\"}}\nBien sûr. Quand ça?\nNon."
    }
  },
  {
    "label": "004",
    "locale": {
      "EUde": "{{anim id=\"39\"}}Weißt du,{{delay frames=\"8\"}} ich wäre nicht abgeneigt,\neinmal dein Haus zu besichtigen,\n{{delay frames=\"8\"}}{{fun_00080005 arg=\"\"}}. {{delay frames=\"40\"}}Hast du gerade Zeit?{{fun_0005000F arg=\"0x15002800\"}}\nKlar!\nNein!",
      "EUen": "{{anim id=\"39\"}}So, {{fun_00080005 arg=\"\"}}, I've been thinking\nhow lovely it would be to visit your\nhome. {{delay frames=\"10\"}}Have time right now?{{fun_0005000F arg=\"0x15002800\"}}\nSure, let's go!\nNo, thanks.",
      "EUes": "{{anim id=\"39\"}}Ay, {{fun_00080005 arg=\"\"}}, siempre he querido\nver tu casa por dentro. {{delay frames=\"10\"}}¿Por qué\nno vamos ahora? ¿Tienes tiempo?{{fun_0005000F arg=\"0x15002800\"}}\n¡Sí, vamos!\nAhora no",
      "EUfr": "{{anim id=\"39\"}}J'aimerais beaucoup voir comment\ntu as décoré ta maison.{{pageBreak}}J'ai justement un peu de temps\ndevant moi. Cela te dérangerait-il de\nme montrer ton intérieur ?{{fun_0005000F arg=\"0x15002800\"}}\nSi tu veux. Allons-y !\nJe ne peux pas.",
      "EUit": "{{anim id=\"39\"}}{{fun_0003000E arg=\"\"}}{{fun_00080005 arg=\"\"}}, non sai quanto vorrei\nvedere casa tua. {{delay frames=\"10\"}}Hai tempo adesso?{{fun_0005000F arg=\"0x15002800\"}}\nSì, andiamo!\nNo, mi dispiace.",
      "JPja": "{{anim id=\"39\"}}ねぇ、{{fun_00080005 arg=\"\"}}{{fun_000D0005 arg=\"\"}}{{delay frames=\"16\"}}\nこんなところで　{{ruby charSpan=\"1\" value=\"た\"}}立ち{{ruby charSpan=\"1\" value=\"ばなし\"}}話するのもなんだし{{delay frames=\"16\"}}\nアナタの{{ruby charSpan=\"1\" value=\"いえ\"}}家に　{{ruby charSpan=\"1\" value=\"い\"}}行かない？\n{{anim id=\"37\"}}その{{ruby charSpan=\"1\" value=\"ほう\"}}方が　{{ruby charSpan=\"1\" value=\"き\"}}気がねなく\nしゃべれると{{ruby charSpan=\"1\" value=\"おも\"}}思うんだけど、{{delay frames=\"16\"}}\n{{anim id=\"23\"}}どうかしら{{delay frames=\"8\"}}・{{delay frames=\"8\"}}・{{delay frames=\"8\"}}・{{delay frames=\"8\"}}？{{fun_0005000F arg=\"0x15002800\"}}\nそうだね\nムリかも",
      "KRko": "{{anim id=\"39\"}}있잖아 {{fun_00080005 arg=\"\"}}～{{delay frames=\"16\"}}\n우리 이런 데서 서서 얘기하지 말고{{delay frames=\"16\"}}\n당신 집으로 갈까?\n{{anim id=\"37\"}}그 편이 마음 편하게\n수다도 떨 수 있잖아{{delay frames=\"16\"}}\n{{anim id=\"23\"}}어때{{delay frames=\"8\"}}・{{delay frames=\"8\"}}・{{delay frames=\"8\"}}・{{delay frames=\"8\"}}?{{fun_0005000F arg=\"0x15002800\"}}\n그래\n지금은 좀・・・",
      "USen": "{{anim id=\"39\"}}So, {{fun_00080005 arg=\"\"}}, I've been thinking\nhow lovely it would be to visit your\nhome. {{delay frames=\"10\"}}Have time right now?{{fun_0005000F arg=\"0x15002800\"}}\nSure, let's go!\nNo, thanks.",
      "USes": "{{anim id=\"39\"}}Ay, {{fun_00080005 arg=\"\"}}, siempre he querido\nver tu casa por dentro. {{delay frames=\"10\"}}¿Por qué\nno vamos ahora? ¿Tienes tiempo?{{fun_0005000F arg=\"0x15002800\"}}\n¡Sí, vamos!\nAhora no",
      "USfr": "{{anim id=\"39\"}}J'aimerais beaucoup voir comment\ntu as décoré ta maison.{{pageBreak}}J'ai justement un peu de temps\ndevant moi. Cela te dérangerait-il de\nme montrer ton intérieur?{{fun_0005000F arg=\"0x15002800\"}}\nSi tu veux. Allons-y!\nJe ne peux pas."
    }
  },
  {
    "label": "005",
    "locale": {
      "EUde": "{{anim id=\"39\"}}Mich interessiert durchaus, wie\ndein Haus jetzt eingerichtet ist,\n{{delay frames=\"8\"}}{{fun_00080005 arg=\"\"}}.{{delay frames=\"40\"}} Zeigst du es mir?{{fun_0005000F arg=\"0x15002800\"}}\nKlar! Gehen wir!\nWas? Nein!",
      "EUen": "{{anim id=\"39\"}}So, {{delay frames=\"8\"}}{{fun_00080005 arg=\"\"}},{{delay frames=\"8\"}} I've been curious\nhow you've been decorating lately.{{delay frames=\"20\"}}\n{{anim id=\"22\"}}Mind if we go to your house?{{fun_0005000F arg=\"0x15002800\"}}\nSure, let's go.\nWow, no!",
      "EUes": "{{anim id=\"39\"}}Hace tiempo que me pregunto cómo\nes el interior de tu casa, cariñín.{{delay frames=\"20\"}}\n¿Podría verlo ahora?{{fun_0005000F arg=\"0x15002800\"}}\nSí, vamos\n¿Eh? ¡No!",
      "EUfr": "{{anim id=\"39\"}}Je suis toujours à la recherche de\nnouvelles idées déco, et je sais que\ntu as très bon goût pour tout ça.\nAussi je me disais que je pourrais\npasser chez toi et que peut-être j'y\ntrouverais l'inspiration, qui sait ?{{fun_0005000F arg=\"0x15002800\"}}\nSi tu veux. Allons-y.\nPas question !",
      "EUit": "{{anim id=\"39\"}}Mi stavo giusto chiedendo se\nhai cambiato qualcosa al tuo\narredamento, {{fun_00080005 arg=\"\"}}.\nChe ne diresti di portarmi\na casa tua?{{fun_0005000F arg=\"0x15002800\"}}\nCerto, andiamo.\nNiente autoinviti!",
      "JPja": "{{fun_00080005 arg=\"\"}}{{fun_000D0005 arg=\"\"}}、{{delay frames=\"16\"}}\n{{ruby charSpan=\"1\" value=\"よ\"}}良かったら、{{ruby charSpan=\"1\" value=\"いま\"}}今から{{delay frames=\"16\"}}\nアナタの{{ruby charSpan=\"1\" value=\"いえ\"}}家を　{{ruby charSpan=\"1\" value=\"み\"}}見せてくれない？\n{{anim id=\"37\"}}アタシ、{{ruby charSpan=\"2\" value=\"きょうみ\"}}興味があるの！{{delay frames=\"32\"}}\nアナタが　どんな{{ruby charSpan=\"2\" value=\"かぐ\"}}家具を{{delay frames=\"8\"}}\n{{ruby charSpan=\"2\" value=\"へや\"}}部屋に{{ruby charSpan=\"1\" value=\"お\"}}置いているのか{{delay frames=\"8\"}}・{{delay frames=\"8\"}}・{{delay frames=\"8\"}}・{{delay frames=\"8\"}}{{fun_0005000F arg=\"0x15002800\"}}\nしょうがないなぁ\nゴメン！",
      "KRko": "{{fun_00080005 arg=\"\"}}!{{delay frames=\"16\"}}\n괜찮다면 지금 당장{{delay frames=\"16\"}}\n당신 집 좀 보여주지 않을래?\n{{anim id=\"37\"}}나 정말 궁금하거든!{{delay frames=\"32\"}}\n당신이 어떤 가구로{{delay frames=\"8\"}}\n어떻게 방을 꾸미는지{{delay frames=\"8\"}}・{{delay frames=\"8\"}}・{{delay frames=\"8\"}}・{{delay frames=\"8\"}}{{fun_0005000F arg=\"0x15002800\"}}\n그럴까・・・?\n미안!",
      "USen": "{{anim id=\"39\"}}So, {{delay frames=\"8\"}}{{fun_00080005 arg=\"\"}},{{delay frames=\"8\"}} I've been curious\nhow you've been decorating lately.{{delay frames=\"20\"}}\n{{anim id=\"22\"}}Mind if we go to your house?{{fun_0005000F arg=\"0x15002800\"}}\nSure, let's go.\nWow, no!",
      "USes": "{{anim id=\"39\"}}Hace tiempo que me pregunto cómo\nes el interior de tu casa, cariñín.{{delay frames=\"20\"}}\n¿Podría verlo ahora?{{fun_0005000F arg=\"0x15002800\"}}\nSí, vamos\n¿Eh? ¡No!",
      "USfr": "{{anim id=\"39\"}}Je suis toujours à la recherche de\nnouvelles idées déco, et je sais que\ntu as très bon goût pour tout ça.\nAussi je me disais que je pourrais\npasser chez toi et que peut-être j'y\ntrouverais l'inspiration, qui sait?{{fun_0005000F arg=\"0x15002800\"}}\nSi tu veux. Allons-y.\nPas question!"
    }
  },
  {
    "label": "006",
    "locale": {
      "EUde": "{{anim id=\"39\"}}Ich hörte, du hättest dein Haus sehr\nhübsch dekoriert, {{delay frames=\"8\"}}{{fun_00080005 arg=\"\"}}.{{delay frames=\"40\"}}\nDas würde ich mir gerne ansehen.{{fun_0005000F arg=\"0x15002800\"}}\nGut, gehen wir zu mir!\nLieber nicht.",
      "EUen": "{{anim id=\"39\"}}So.{{delay frames=\"5\"}}.{{delay frames=\"5\"}}.{{delay frames=\"5\"}}{{fun_00080005 arg=\"\"}}. {{fun_00010007 arg=\"\"}}The rumor is that\nyour home is looking very stylish,\n{{fun_00070005 arg=\"\"}}.\nI'd like to take a peek right now,\nif you don't mind.{{fun_0005000F arg=\"0x15002800\"}}\nLet's go!\nNope, sorry.",
      "EUes": "{{anim id=\"39\"}}{{fun_0003000E arg=\"\"}}{{fun_00080005 arg=\"\"}}, dicen que tienes\nla casa decorada divinamente. {{fun_00010007 arg=\"\"}}\n¿Es verdad, {{fun_00070005 arg=\"\"}}?\nMe encantaría verla. ¿Por qué\nno vamos ahora mismo?{{fun_0005000F arg=\"0x00002800\"}}\n¡Vamos!\nNo, lo siento",
      "EUfr": "{{anim id=\"39\"}}Il paraît que tu as très bien décoré\nta maison, {{fun_00070005 arg=\"\"}}.{{pageBreak}}Hi hi... je suis curieuse, je sais, mais\nj'aimerais beaucoup voir ça. {{delay frames=\"40\"}}Tout\nde suite, si cela ne te dérange pas.{{fun_0005000F arg=\"0x15002800\"}}\nAllons-y ensemble !\nNon, pas aujourd'hui.",
      "EUit": "{{anim id=\"39\"}}Ehm, {{fun_00080005 arg=\"\"}}{{delay frames=\"5\"}}.{{delay frames=\"5\"}}.{{delay frames=\"5\"}}. {{fun_00010007 arg=\"\"}}Si dice in giro\nche la tua casa è uno splendore,\n{{fun_00070005 arg=\"\"}}.\nTi dispiacerebbe se le dessi\nun'occhiata? Sono libera adesso.{{fun_0005000F arg=\"0x15002800\"}}\nAndiamo!\nNo, mi dispiace.",
      "JPja": "{{fun_00080005 arg=\"\"}}{{fun_000D0005 arg=\"\"}}、{{delay frames=\"16\"}}アナタって\n{{ruby charSpan=\"2\" value=\"ふだん\"}}普段、{{ruby charSpan=\"1\" value=\"いえ\"}}家で{{ruby charSpan=\"1\" value=\"なに\"}}何をしてるの？{{pageBreak}}{{anim id=\"36\"}}ふふふ{{delay frames=\"4\"}}・{{delay frames=\"4\"}}・{{delay frames=\"4\"}}・{{delay frames=\"4\"}}{{ruby charSpan=\"2\" value=\"いがい\"}}意外と\n{{fun_00120005 arg=\"0x0000\"}}とかしてたりして{{delay frames=\"8\"}}・{{delay frames=\"8\"}}・{{delay frames=\"8\"}}・{{delay frames=\"8\"}}{{pageBreak}}{{anim id=\"22\"}}{{delay frames=\"16\"}}そうだ！　{{delay frames=\"32\"}}{{anim id=\"0\"}}{{ruby charSpan=\"1\" value=\"よ\"}}良かったら、{{ruby charSpan=\"1\" value=\"いま\"}}今から{{delay frames=\"16\"}}\nアナタの{{ruby charSpan=\"1\" value=\"いえ\"}}家を　{{anim id=\"23\"}}{{ruby charSpan=\"1\" value=\"み\"}}見せてくれない？{{pageBreak}}{{anim id=\"37\"}}その{{ruby charSpan=\"1\" value=\"ひと\"}}人のシュミって、{{delay frames=\"16\"}}\n{{ruby charSpan=\"2\" value=\"かぐ\"}}家具とかインテリアに　{{ruby charSpan=\"1\" value=\"で\"}}出るでしょ？\n{{delay frames=\"8\"}}{{fun_00070005 arg=\"\"}}？{{fun_0005000F arg=\"0x15002800\"}}\nいいよー\n{{ruby charSpan=\"1\" value=\"いま\"}}今はちょっと",
      "KRko": "{{fun_00080005 arg=\"\"}}～{{delay frames=\"16\"}}\n당신은 평소에 집에서 뭐해?{{pageBreak}}{{anim id=\"36\"}}후후훗{{delay frames=\"4\"}}・{{delay frames=\"4\"}}・{{delay frames=\"4\"}}・{{delay frames=\"4\"}}\n의외로 {{fun_00120005 arg=\"0x0000\"}} 같은\n취미가 있는 거 아냐?{{delay frames=\"8\"}}\n{{anim id=\"22\"}}{{delay frames=\"16\"}}그래! {{delay frames=\"32\"}}\n{{anim id=\"0\"}}말 나온 김에{{delay frames=\"16\"}}{{anim id=\"23\"}} 지금 당장\n당신 집으로 가지 않을래?\n{{anim id=\"37\"}}가구나 인테리어를 보면{{delay frames=\"16\"}}\n그 사람의 취향을\n알 수 있다고 하잖아～ {{delay frames=\"8\"}}{{fun_00070005 arg=\"\"}}{{fun_0005000F arg=\"0x15002800\"}}\n좋아!\n지금은 좀・・・",
      "USen": "{{anim id=\"39\"}}So.{{delay frames=\"5\"}}.{{delay frames=\"5\"}}.{{delay frames=\"5\"}}{{fun_00080005 arg=\"\"}}. {{fun_00010007 arg=\"\"}}The rumor is that\nyour home is looking very stylish,\n{{fun_00070005 arg=\"\"}}.\nI'd like to take a peek right now,\nif you don't mind.{{fun_0005000F arg=\"0x15002800\"}}\nLet's go!\nNope, sorry.",
      "USes": "{{anim id=\"39\"}}{{fun_0003000E arg=\"\"}}{{fun_00080005 arg=\"\"}}, dicen que tienes\nla casa decorada divinamente. {{fun_00010007 arg=\"\"}}\n¿Es verdad, {{fun_00070005 arg=\"\"}}?\nMe encantaría verla. ¿Por qué\nno vamos ahora mismo?{{fun_0005000F arg=\"0x00002800\"}}\n¡Vamos!\nNo, lo siento",
      "USfr": "{{anim id=\"39\"}}Il paraît que tu as très bien décoré\nta maison, {{fun_00070005 arg=\"\"}}.{{pageBreak}}Hi hi... je suis curieuse, je sais, mais\nj'aimerais beaucoup voir ça. {{delay frames=\"40\"}}Tout\nde suite, si cela ne te dérange pas.{{fun_0005000F arg=\"0x15002800\"}}\nAllons-y ensemble!\nNon, pas aujourd'hui."
    }
  }
]