﻿[
  {
    "label": "001",
    "locale": {
      "EUde": "{{anim id=\"32\"}}Heda!{{pageBreak}}{{anim id=\"33\"}}Ganz recht,{{delay frames=\"8\"}} ich bin Bürgermeister-\nkandidat für Puzzleopolis.{{pageBreak}}{{fun_00010005 arg=\"\"}} ist der Name.",
      "EUen": "{{anim id=\"32\"}}Well, hi now.{{pageBreak}}{{anim id=\"33\"}}I bet you think it'll be a breeze{{delay frames=\"8\"}} to\nbeat ol' {{fun_00010005 arg=\"\"}} in the race for\nthe top spot.{{delay frames=\"16\"}}",
      "EUes": "{{anim id=\"32\"}}Hola,{{delay frames=\"8\"}} {{fun_0006000E arg=\"0x12006300680069007100750069006C006C006F0012006300680069007100750069006C006C006100\"}}.{{pageBreak}}{{anim id=\"33\"}}Aquí me tienes,{{delay frames=\"8\"}} el candidato\ncon experiencia que necesita\nVilla Puzzle League: ¡{{fun_00010005 arg=\"\"}}!",
      "EUfr": "{{anim id=\"32\"}}Hé !{{pageBreak}}{{anim id=\"33\"}}Tu sais qui va se présenter aux\nélections de Puzzleville ?{{delay frames=\"8\"}} Bon,{{delay frames=\"8\"}} ok,{{delay frames=\"8\"}}\ntoi,{{delay frames=\"8\"}} bien sûr{{delay frames=\"8\"}}.{{delay frames=\"8\"}}.{{delay frames=\"8\"}}.{{delay frames=\"8\"}} Mais MOI aussi !\nJe suis {{fun_00010005 arg=\"\"}} ! Et je serai le\nfutur maire de cette ville !",
      "EUit": "{{anim id=\"32\"}}Aloha!{{pageBreak}}{{anim id=\"33\"}}Guarda che io,{{delay frames=\"8\"}} {{fun_00010005 arg=\"\"}},{{delay frames=\"8\"}}\nmi candido alle elezioni a sindaco\ndi Puzzleopoli,{{delay frames=\"8\"}} {{fun_00070005 arg=\"\"}}!",
      "JPja": "{{anim id=\"32\"}}おう！{{pageBreak}}{{anim id=\"33\"}}オレは、パネポン{{ruby charSpan=\"1\" value=\"むら\"}}村の　{{delay frames=\"8\"}}\n{{ruby charSpan=\"4\" value=\"そんちょうせんきょ\"}}村長選挙に　{{ruby charSpan=\"2\" value=\"しゅつば\"}}出馬している{{delay frames=\"16\"}}\n{{fun_00010005 arg=\"\"}}ってもんだ！",
      "KRko": "{{anim id=\"32\"}}어이!{{pageBreak}}{{anim id=\"33\"}}나는 패널퐁 마을의{{delay frames=\"8\"}}\n촌장 선거에 출마한{{delay frames=\"16\"}}\n{{fun_00010005 arg=\"\"}}{{fun_000E000E arg=\"0x020074C70000\"}}라고 한다!",
      "USen": "{{anim id=\"32\"}}Well, hi now.{{pageBreak}}{{anim id=\"33\"}}I bet you think it'll be a breeze{{delay frames=\"8\"}} to\nbeat ol' {{fun_00010005 arg=\"\"}} in the race for\nthe top spot.{{delay frames=\"16\"}}",
      "USes": "{{anim id=\"32\"}}Hola,{{delay frames=\"8\"}} {{fun_0006000E arg=\"0x12006300680069007100750069006C006C006F0012006300680069007100750069006C006C006100\"}}.{{pageBreak}}{{anim id=\"33\"}}Aquí me tienes,{{delay frames=\"8\"}} el candidato\ncon experiencia que necesita\nVilla Puzzle League: ¡{{fun_00010005 arg=\"\"}}!",
      "USfr": "{{anim id=\"32\"}}Hé!{{pageBreak}}{{anim id=\"33\"}}Tu sais qui va se présenter aux\nélections de Puzzleville?{{delay frames=\"8\"}} Bon,{{delay frames=\"8\"}} ok,{{delay frames=\"8\"}}\ntoi,{{delay frames=\"8\"}} bien sûr{{delay frames=\"8\"}}.{{delay frames=\"8\"}}.{{delay frames=\"8\"}}.{{delay frames=\"8\"}} Mais MOI aussi!\nJe suis {{fun_00010005 arg=\"\"}}! Et je serai le\nfutur maire de cette ville!"
    }
  },
  {
    "label": "002",
    "locale": {
      "EUde": "{{anim id=\"37\"}}Mit mir als Bürgermeister wird\nhier jeden Freitag{{anim id=\"42\"}} das Tanzbein\ngeschwungen!{{delay frames=\"20\"}} {{fun_0003000E arg=\"\"}}{{fun_00070005 arg=\"\"}}!{{pageBreak}}Zu welcher Musik? {{delay frames=\"20\"}}{{fun_0003000E arg=\"\"}}{{fun_00140005 arg=\"0x0000\"}},{{delay frames=\"8\"}}\nnatürlich!{{delay frames=\"30\"}} Präsentiert vom örtlichen\nGesangsverein!{{anim id=\"33\"}}{{delay frames=\"8\"}} Gra ha ha!",
      "EUen": "{{anim id=\"37\"}}But if I was in charge,{{delay frames=\"16\"}} I'd throw a\nbig party every Friday! {{delay frames=\"40\"}}{{anim id=\"42\"}}Who\nwouldn't be up for that?\n{{anim id=\"5\"}}I'll play hours and hours of\n{{fun_00140005 arg=\"0x0000\"}}{{delay frames=\"8\"}}.{{delay frames=\"8\"}}.{{delay frames=\"8\"}}.{{anim id=\"7\"}}and people are going\nto love it!{{delay frames=\"30\"}}\n{{anim id=\"2\"}}{{delay frames=\"8\"}}At least I hope they do! \n{{fun_0003000E arg=\"\"}}{{fun_00070005 arg=\"\"}}!",
      "EUes": "{{anim id=\"37\"}}Si llego a la alcaldía,{{delay frames=\"8\"}} habrá\nconciertos todos los viernes.{{delay frames=\"20\"}}\n¿De qué tipo de música?\n{{anim id=\"5\"}}Pues {{fun_00140005 arg=\"0x0000\"}},{{delay frames=\"8\"}} por supuesto.{{delay frames=\"20\"}}\n¿Acaso tengo pinta de que\nno me guste?",
      "EUfr": "{{anim id=\"37\"}}Et si on m'élit,{{delay frames=\"16\"}} chaque vendredi\nsera jour de fête !{{delay frames=\"40\"}} {{anim id=\"42\"}}Tout le monde\ndansera jusqu'au bout de la nuit !\n{{anim id=\"5\"}}Ah,{{delay frames=\"8\"}} petit détail,{{delay frames=\"8\"}} la musique sera\n{{fun_0002000E arg=\"\"}}{{fun_00140005 arg=\"0x0000\"}}. {{anim id=\"33\"}}Quoi de mieux\npour faire bouger son corps ?",
      "EUit": "{{anim id=\"37\"}}Se divento sindaco,{{delay frames=\"16\"}} ogni venerdì\nsarà festa cittadina!{{delay frames=\"40\"}} {{anim id=\"42\"}}Tutti a ballare\nal ritmo dell'ukulele fino all'alba!\n{{anim id=\"5\"}}La musica sarà {{fun_00140005 arg=\"0x0000\"}},{{delay frames=\"8\"}}\novvio. {{delay frames=\"30\"}}Sarà una roba bellissima!{{delay frames=\"10\"}}\n{{fun_0003000E arg=\"\"}}{{fun_00070005 arg=\"\"}}!",
      "JPja": "{{anim id=\"37\"}}オレが{{ruby charSpan=\"2\" value=\"そんちょう\"}}村長になったら、{{delay frames=\"16\"}}\n{{ruby charSpan=\"2\" value=\"きんよう\"}}金曜の{{ruby charSpan=\"1\" value=\"よる\"}}夜は　ずっと{{ruby charSpan=\"1\" value=\"まつ\"}}祭りだ！{{delay frames=\"40\"}}\n{{anim id=\"42\"}}{{ruby charSpan=\"1\" value=\"あさ\"}}朝まで　{{ruby charSpan=\"1\" value=\"おど\"}}踊り{{ruby charSpan=\"1\" value=\"あ\"}}明かそうぜ～！\n{{anim id=\"5\"}}BGMは　{{fun_00140005 arg=\"0x0000\"}}！{{delay frames=\"30\"}}\n{{ruby charSpan=\"1\" value=\"も\"}}盛り{{ruby charSpan=\"1\" value=\"あ\"}}上がること　{{ruby charSpan=\"2\" value=\"まちが\"}}間違いなしだぜ！\n{{delay frames=\"8\"}}{{fun_00070005 arg=\"\"}}！",
      "KRko": "{{anim id=\"37\"}}내가 촌장이 되면{{delay frames=\"16\"}}\n금요일 밤마다 축제를 열 거야!{{delay frames=\"40\"}}\n{{anim id=\"42\"}}아침까지 댄스로 불태우자고～!\n{{anim id=\"5\"}}BGM은 {{fun_00140005 arg=\"0x0000\"}}!{{delay frames=\"30\"}}\n틀림없이 다들 열광할 테지!\n{{delay frames=\"8\"}}{{fun_00070005 arg=\"\"}}!",
      "USen": "{{anim id=\"37\"}}But if I was in charge,{{delay frames=\"16\"}} I'd throw a\nbig party every Friday! {{delay frames=\"40\"}}{{anim id=\"42\"}}Who\nwouldn't be up for that?\n{{anim id=\"5\"}}I'll play hours and hours of\n{{fun_00140005 arg=\"0x0000\"}}{{delay frames=\"8\"}}.{{delay frames=\"8\"}}.{{delay frames=\"8\"}}.{{anim id=\"7\"}}and people are going\nto love it!{{delay frames=\"30\"}}\n{{anim id=\"2\"}}{{delay frames=\"8\"}}At least I hope they do! \n{{fun_0003000E arg=\"\"}}{{fun_00070005 arg=\"\"}}!",
      "USes": "{{anim id=\"37\"}}Si llego a la alcaldía,{{delay frames=\"8\"}} habrá\nconciertos todos los viernes.{{delay frames=\"20\"}}\n¿De qué tipo de música?\n{{anim id=\"5\"}}Pues {{fun_00140005 arg=\"0x0000\"}},{{delay frames=\"8\"}} por supuesto.{{delay frames=\"20\"}}\n¿Acaso tengo pinta de que\nno me guste?",
      "USfr": "{{anim id=\"37\"}}Et si on m'élit,{{delay frames=\"16\"}} chaque vendredi\nsera jour de fête!{{delay frames=\"40\"}} {{anim id=\"42\"}}Tout le monde\ndansera jusqu'au bout de la nuit!\n{{anim id=\"5\"}}Ah,{{delay frames=\"8\"}} petit détail,{{delay frames=\"8\"}} la musique sera\n{{fun_0002000E arg=\"\"}}{{fun_00140005 arg=\"0x0000\"}}. {{anim id=\"33\"}}Quoi de mieux\npour faire bouger son corps?"
    }
  },
  {
    "label": "003",
    "locale": {
      "EUde": "{{anim id=\"6\"}}Fein!{{delay frames=\"8\"}} Dann lass ich mir jetzt mal\nvon meinen Bewunderern ein Ohr\nabkauen. {{fun_0003000E arg=\"\"}}{{fun_00070005 arg=\"\"}}!{{pageBreak}}{{anim id=\"37\"}}Wir treten dann später\ngegeneinander an, {{delay frames=\"8\"}}{{fun_00000005 arg=\"\"}}.{{delay frames=\"20\"}}\nIst mir ein Vergnügen, gra ha ha!",
      "EUen": "{{anim id=\"6\"}}Right!{{delay frames=\"8\"}} Time for the dreaded{{delay frames=\"16\"}} meet\nand greet. {{delay frames=\"8\"}}The things we do for\nsupport, eh? \n{{anim id=\"37\"}}Chat with you soon, {{delay frames=\"8\"}}{{fun_00000005 arg=\"\"}}!",
      "EUes": "{{anim id=\"6\"}}Bueno,{{delay frames=\"8\"}} {{fun_00070005 arg=\"\"}},{{delay frames=\"8\"}} voy a dar\na conocer mi insuperable propuesta\nentre los vecinos del pueblo.\n{{anim id=\"37\"}}Me parece que pronto\nnos mediremos en\nlas urnas,{{delay frames=\"8\"}} {{fun_00000005 arg=\"\"}}.",
      "EUfr": "{{anim id=\"6\"}}Et maintenant,{{delay frames=\"8\"}} place à l'action !{{delay frames=\"8\"}} Je\nvais aller faire bonne figure auprès\ndes habitants, {{delay frames=\"8\"}}{{fun_00070005 arg=\"\"}} !\n{{anim id=\"37\"}}On verra bientôt si mon charme\nopère, {{delay frames=\"8\"}}{{fun_00000005 arg=\"\"}} !",
      "EUit": "{{anim id=\"6\"}}OK!{{delay frames=\"8\"}} Adesso vado{{delay frames=\"16\"}} a incontrare\ntutti i miei elettori in città!\n{{delay frames=\"10\"}}{{fun_0003000E arg=\"\"}}{{fun_00070005 arg=\"\"}}!\n{{anim id=\"37\"}}Mi sa che ci vediamo presto{{delay frames=\"8\"}}.{{delay frames=\"8\"}}.{{delay frames=\"8\"}}.{{delay frames=\"20\"}}\nl'uno contro l'altr{{fun_0006000E arg=\"0x02006F0002006100\"}}.{{delay frames=\"8\"}} {{anim id=\"2\"}}AHAHAH!{{delay frames=\"40\"}}{{anim id=\"1\"}}",
      "JPja": "{{anim id=\"6\"}}それじゃ、{{delay frames=\"8\"}}ちょっくら{{delay frames=\"16\"}}\n{{ruby charSpan=\"1\" value=\"むら\"}}村のやつらに　あいさつしてくるわ！\n{{delay frames=\"8\"}}{{fun_00070005 arg=\"\"}}！\n{{anim id=\"37\"}}オメェとの{{ruby charSpan=\"2\" value=\"しょうぶ\"}}勝負は　またあとでな！\n{{delay frames=\"8\"}}{{fun_00000005 arg=\"\"}}！",
      "KRko": "{{anim id=\"6\"}}그럼 나는{{delay frames=\"8\"}} 잠깐{{delay frames=\"16\"}}\n마을 녀석들한테 인사나 하고 올게!\n{{delay frames=\"8\"}}{{fun_00070005 arg=\"\"}}!\n{{anim id=\"37\"}}너와의 승부는 조금 이따 하자!\n{{delay frames=\"8\"}}{{fun_00000005 arg=\"\"}}!",
      "USen": "{{anim id=\"6\"}}Right!{{delay frames=\"8\"}} Time for the dreaded{{delay frames=\"16\"}} meet\nand greet. {{delay frames=\"8\"}}The things we do for\nsupport, eh? \n{{anim id=\"37\"}}Chat with you soon, {{delay frames=\"8\"}}{{fun_00000005 arg=\"\"}}!",
      "USes": "{{anim id=\"6\"}}Bueno,{{delay frames=\"8\"}} {{fun_00070005 arg=\"\"}},{{delay frames=\"8\"}} voy a dar\na conocer mi insuperable propuesta\nentre los vecinos del pueblo.\n{{anim id=\"37\"}}Me parece que pronto\nnos mediremos en\nlas urnas,{{delay frames=\"8\"}} {{fun_00000005 arg=\"\"}}.",
      "USfr": "{{anim id=\"6\"}}Et maintenant,{{delay frames=\"8\"}} place à l'action!{{delay frames=\"8\"}} Je\nvais aller faire bonne figure auprès\ndes habitants, {{delay frames=\"8\"}}{{fun_00070005 arg=\"\"}}!\n{{anim id=\"37\"}}On verra bientôt si mon charme\nopère, {{delay frames=\"8\"}}{{fun_00000005 arg=\"\"}}!"
    }
  },
  {
    "label": "004",
    "locale": {
      "EUde": "{{fun_00020007 arg=\"\"}}Erreiche innerhalb von {{color id=\"2\"}}2 Minuten\n{{color id=\"65535\"}}eine Zustimmung von 100 %, um\ndiese Runde zu gewinnen.{{fun_00030007 arg=\"\"}}{{delay frames=\"40\"}}",
      "EUen": "{{fun_00020007 arg=\"\"}}To win this round, you need to\nearn a 100% approval rating within\n{{color id=\"2\"}}2 minutes{{color id=\"65535\"}}.{{fun_00030007 arg=\"\"}}{{delay frames=\"40\"}}",
      "EUes": "{{fun_00020007 arg=\"\"}}En este nivel tienes que obtener\nun 100 % de aprobación en\n{{color id=\"2\"}}2 minutos{{color id=\"65535\"}} para continuar.{{fun_00030007 arg=\"\"}}{{delay frames=\"40\"}}",
      "EUfr": "{{fun_00020007 arg=\"\"}}Pour remporter ce tour, ta cote de\npopularité doit atteindre 100 %\nen {{color id=\"2\"}}deux minutes{{color id=\"65535\"}}.{{fun_00030007 arg=\"\"}}{{delay frames=\"40\"}}",
      "EUit": "{{fun_00020007 arg=\"\"}}In questo quadro dovrai ottenere\nil 100% dei consensi entro {{color id=\"2\"}}2 minuti\n{{color id=\"65535\"}}per poter andare avanti.{{fun_00030007 arg=\"\"}}{{delay frames=\"40\"}}",
      "JPja": "{{fun_00020007 arg=\"\"}}このステージで　{{color id=\"2\"}}2{{ruby charSpan=\"3\" value=\"ふんいない\"}}分以内{{color id=\"65535\"}}に\n{{ruby charSpan=\"3\" value=\"しじりつ\"}}支持率 100％を{{ruby charSpan=\"2\" value=\"たっせい\"}}達成しないと\n{{ruby charSpan=\"1\" value=\"さき\"}}先に{{ruby charSpan=\"1\" value=\"すす\"}}進むことができません。{{fun_00030007 arg=\"\"}}{{delay frames=\"40\"}}",
      "KRko": "{{fun_00020007 arg=\"\"}}이 스테이지에서 {{color id=\"2\"}}2분 이내{{color id=\"65535\"}}에\n지지율 100%를 달성하지 않으면\n앞으로 나아갈 수 없습니다.{{fun_00030007 arg=\"\"}}{{delay frames=\"40\"}}",
      "USen": "{{fun_00020007 arg=\"\"}}To win this round, you need to\nearn a 100% approval rating within\n{{color id=\"2\"}}2 minutes{{color id=\"65535\"}}.{{fun_00030007 arg=\"\"}}{{delay frames=\"40\"}}",
      "USes": "{{fun_00020007 arg=\"\"}}En este nivel tienes que obtener\nun 100 % de aprobación en\n{{color id=\"2\"}}2 minutos{{color id=\"65535\"}} para continuar.{{fun_00030007 arg=\"\"}}{{delay frames=\"40\"}}",
      "USfr": "{{fun_00020007 arg=\"\"}}Pour remporter ce tour, ta cote de\npopularité doit atteindre 100 %\nen {{color id=\"2\"}}deux minutes{{color id=\"65535\"}}.{{fun_00030007 arg=\"\"}}{{delay frames=\"40\"}}"
    }
  },
  {
    "label": "006",
    "locale": {
      "EUde": "{{anim id=\"32\"}}He! {{delay frames=\"8\"}}Hast doch sicher gern auf\nmich gewartet.{{delay frames=\"40\"}} Stimmt's oder\nhab ich recht, {{delay frames=\"8\"}}{{fun_00000005 arg=\"\"}}?",
      "EUen": "{{anim id=\"32\"}}There you are. {{delay frames=\"16\"}}{{anim id=\"2\"}}I was lookin' for the\n{{fun_0006000E arg=\"0x060062006F00790008006700690072006C00\"}} shakin' in {{fun_0006000E arg=\"0x06006800690073000600680065007200\"}} boots.{{delay frames=\"40\"}}",
      "EUes": "{{anim id=\"32\"}}¡Hola!{{delay frames=\"20\"}} Disculpa que te haya hecho\nesperar,{{delay frames=\"8\"}} {{fun_00000005 arg=\"\"}}. Me he \ndespistado mirando una obra.",
      "EUfr": "{{anim id=\"32\"}}Tiens,{{delay frames=\"8\"}} tu es là. {{delay frames=\"8\"}}Désolé,{{delay frames=\"40\"}} je me suis\npaumé en route. {{delay frames=\"8\"}}Faut toujours que\nça m'arrive au pire moment,{{delay frames=\"8\"}} ça.",
      "EUit": "{{anim id=\"32\"}}Ehi! {{delay frames=\"8\"}}Spiacente di averti fatto\naspettare, {{delay frames=\"8\"}}{{fun_00000005 arg=\"\"}}.{{delay frames=\"20\"}} Ma così puoi\nprepararti meglio.{{delay frames=\"20\"}} Ne hai bisogno.",
      "JPja": "{{anim id=\"32\"}}わりぃ、{{delay frames=\"8\"}}わりぃ！{{delay frames=\"40\"}}\n{{ruby charSpan=\"1\" value=\"ま\"}}待たせたな、{{delay frames=\"8\"}}{{fun_00000005 arg=\"\"}}！",
      "KRko": "{{anim id=\"32\"}}미안, {{delay frames=\"8\"}}미안!{{delay frames=\"40\"}}\n기다리게 했군, {{delay frames=\"8\"}}{{fun_00000005 arg=\"\"}}!",
      "USen": "{{anim id=\"32\"}}There you are. {{delay frames=\"16\"}}{{anim id=\"2\"}}I was lookin' for the\n{{fun_0006000E arg=\"0x060062006F00790008006700690072006C00\"}} shakin' in {{fun_0006000E arg=\"0x06006800690073000600680065007200\"}} boots.{{delay frames=\"40\"}}",
      "USes": "{{anim id=\"32\"}}¡Hola!{{delay frames=\"20\"}} Disculpa que te haya hecho\nesperar,{{delay frames=\"8\"}} {{fun_00000005 arg=\"\"}}. Me he \ndespistado mirando una obra.",
      "USfr": "{{anim id=\"32\"}}Tiens,{{delay frames=\"8\"}} tu es là. {{delay frames=\"8\"}}Désolé,{{delay frames=\"40\"}} je me suis\npaumé en route. {{delay frames=\"8\"}}Faut toujours que\nça m'arrive au pire moment,{{delay frames=\"8\"}} ça."
    }
  },
  {
    "label": "007",
    "locale": {
      "EUde": "{{anim id=\"37\"}}Na schön.{{delay frames=\"20\"}}\nGenug geplaudert,{{delay frames=\"8\"}} fangen wir an.",
      "EUen": "{{anim id=\"6\"}}Well. {{delay frames=\"8\"}}Let's just get this over with.",
      "EUes": "{{anim id=\"37\"}}Bueno,{{delay frames=\"8\"}} ¿para qué seguir mareando\nla perdiz?",
      "EUfr": "{{anim id=\"37\"}}Bon. {{delay frames=\"8\"}}Inutile de faire durer le\nsuspense plus longtemps.",
      "EUit": "{{anim id=\"37\"}}OK. {{delay frames=\"8\"}}Basta chiacchiere.{{delay frames=\"20\"}} Via!",
      "JPja": "{{anim id=\"37\"}}それじゃ、{{delay frames=\"8\"}}{{ruby charSpan=\"1\" value=\"はじ\"}}始めるとするか！",
      "KRko": "{{anim id=\"37\"}}그럼 {{delay frames=\"8\"}}시작해 볼까!",
      "USen": "{{anim id=\"6\"}}Well. {{delay frames=\"8\"}}Let's just get this over with.",
      "USes": "{{anim id=\"37\"}}Bueno,{{delay frames=\"8\"}} ¿para qué seguir mareando\nla perdiz?",
      "USfr": "{{anim id=\"37\"}}Bon. {{delay frames=\"8\"}}Inutile de faire durer le\nsuspense plus longtemps."
    }
  },
  {
    "label": "008",
    "locale": {
      "EUde": "",
      "EUen": "",
      "EUes": "",
      "EUfr": "",
      "EUit": "",
      "JPja": "",
      "KRko": "",
      "USen": "",
      "USes": "",
      "USfr": ""
    }
  },
  {
    "label": "009",
    "locale": {
      "EUde": "",
      "EUen": "",
      "EUes": "",
      "EUfr": "",
      "EUit": "",
      "JPja": "",
      "KRko": "",
      "USen": "",
      "USes": "",
      "USfr": ""
    }
  },
  {
    "label": "011",
    "locale": {
      "EUde": "{{anim id=\"41\"}}Grmpf,{{delay frames=\"8\"}} verloren.{{delay frames=\"40\"}}\nIch sag's nur ungern,{{delay frames=\"8\"}} aber {{anim id=\"36\"}}da muss\nich dir wohl den Vortritt lassen{{delay frames=\"8\"}}.{{delay frames=\"8\"}}.{{delay frames=\"8\"}}.",
      "EUen": "{{anim id=\"41\"}}Hmph. {{delay frames=\"16\"}}{{anim id=\"7\"}}I can't believe I LOST to a\nyoung'un like you!{{delay frames=\"40\"}}{{anim id=\"1\"}} Luckily, I get over\nthis stuff pretty fast. {{delay frames=\"16\"}}",
      "EUes": "{{anim id=\"41\"}}Vaya,{{delay frames=\"8\"}} no he sido elegido.{{delay frames=\"20\"}} Pues nada,{{delay frames=\"8\"}}\n{{anim id=\"1\"}}de todos modos es un triunfo\nde la democracia y tal{{delay frames=\"8\"}}.{{delay frames=\"8\"}}.{{delay frames=\"8\"}}.",
      "EUfr": "{{anim id=\"41\"}}Groumpf. {{delay frames=\"16\"}}{{anim id=\"7\"}}J'arrive pas à croire\nqu'{{fun_0006000E arg=\"0x0E0075006E00200062006C0065007500120075006E006500200062006C00650075006500\"}} comme toi m'a battu !{{pageBreak}}{{anim id=\"1\"}}Heureusement que je suis pas\nrancunier !",
      "EUit": "{{anim id=\"41\"}}Che pacco!{{delay frames=\"16\"}} Ho perso!{{delay frames=\"40\"}}\n{{anim id=\"1\"}}È proprio una seccatura, {{delay frames=\"8\"}}ma\nmi sa che diventi sindaco tu{{delay frames=\"8\"}}.{{delay frames=\"8\"}}.{{delay frames=\"8\"}}.",
      "JPja": "{{anim id=\"41\"}}かぁ～、{{delay frames=\"16\"}}{{ruby charSpan=\"1\" value=\"ま\"}}負けたわ！{{delay frames=\"40\"}}\n{{anim id=\"1\"}}くやしいけど、オメェだったら{{delay frames=\"16\"}}\n{{ruby charSpan=\"2\" value=\"そんちょう\"}}村長を　{{ruby charSpan=\"1\" value=\"まか\"}}任してもいいかもな{{delay frames=\"8\"}}・{{delay frames=\"8\"}}・{{delay frames=\"8\"}}・",
      "KRko": "{{anim id=\"41\"}}크으～{{delay frames=\"16\"}} 내가 졌다!{{delay frames=\"40\"}}\n{{anim id=\"1\"}}분하긴 하지만 너라면{{delay frames=\"16\"}}\n촌장을 맡겨도 괜찮겠어{{delay frames=\"8\"}}・{{delay frames=\"8\"}}・{{delay frames=\"8\"}}・",
      "USen": "{{anim id=\"41\"}}Hmph. {{delay frames=\"16\"}}{{anim id=\"7\"}}I can't believe I LOST to a\nyoung'un like you!{{delay frames=\"40\"}}{{anim id=\"1\"}} Luckily, I get over\nthis stuff pretty fast. {{delay frames=\"16\"}}",
      "USes": "{{anim id=\"41\"}}Vaya,{{delay frames=\"8\"}} no he sido elegido.{{delay frames=\"20\"}} Pues nada,{{delay frames=\"8\"}}\n{{anim id=\"1\"}}de todos modos es un triunfo\nde la democracia y tal{{delay frames=\"8\"}}.{{delay frames=\"8\"}}.{{delay frames=\"8\"}}.",
      "USfr": "{{anim id=\"41\"}}Groumpf. {{delay frames=\"16\"}}{{anim id=\"7\"}}J'arrive pas à croire\nqu'{{fun_0006000E arg=\"0x0E0075006E00200062006C0065007500120075006E006500200062006C00650075006500\"}} comme toi m'a battu!{{pageBreak}}{{anim id=\"1\"}}Heureusement que je suis pas\nrancunier!"
    }
  },
  {
    "label": "012",
    "locale": {
      "EUde": "{{anim id=\"6\"}}Tja,{{delay frames=\"8\"}} jetzt bist du also Bürger-\n{{fun_0006000E arg=\"0x0E006D0065006900730074006500720012006D0065006900730074006500720069006E00\"}}.{{delay frames=\"16\"}} Dass du mir keine\nSchande machst!{{delay frames=\"8\"}} {{fun_0003000E arg=\"\"}}{{fun_00000005 arg=\"\"}}!",
      "EUen": "{{anim id=\"6\"}}Well, you beat me.{{delay frames=\"16\"}} Huh. Bein' in\ncharge sounded like a lotta work\nanyhow!",
      "EUes": "{{anim id=\"6\"}}Bueno,{{delay frames=\"8\"}} {{fun_00000005 arg=\"\"}},{{delay frames=\"8\"}} me has ganado,{{delay frames=\"8\"}}\npero confío en que seguirás\nteniendo respeto por los mayores{{delay frames=\"8\"}}.{{delay frames=\"8\"}}.{{delay frames=\"8\"}}.",
      "EUfr": "{{anim id=\"6\"}}Mais attention,{{delay frames=\"8\"}} ce n'est pas parce\nque tu as gagné ces élections que tu\ndois prendre la grosse tête !{{delay frames=\"16\"}}\nUn maire se doit d'être humble,\n{{delay frames=\"16\"}}{{fun_00000005 arg=\"\"}} !",
      "EUit": "{{anim id=\"6\"}}OK, OK{{delay frames=\"8\"}}.{{delay frames=\"8\"}}.{{delay frames=\"8\"}}.{{delay frames=\"20\"}} mi hai battuto.{{delay frames=\"16\"}}\nMa ora non combinare pasticci\nin città,{{delay frames=\"8\"}} {{fun_00070005 arg=\"\"}}!",
      "JPja": "{{anim id=\"6\"}}オレに　{{ruby charSpan=\"1\" value=\"か\"}}勝ったんだから、{{delay frames=\"16\"}}\n{{ruby charSpan=\"1\" value=\"ま\"}}負けたりするんじゃねぇーぞ！{{delay frames=\"8\"}}\n{{fun_00000005 arg=\"\"}}！",
      "KRko": "{{anim id=\"6\"}}나한테 이겼으니까{{delay frames=\"16\"}}\n절대 누구한테도 지지 마라ー!{{delay frames=\"8\"}}\n{{fun_00000005 arg=\"\"}}!",
      "USen": "{{anim id=\"6\"}}Well, you beat me.{{delay frames=\"16\"}} Huh. Bein' in\ncharge sounded like a lotta work\nanyhow!",
      "USes": "{{anim id=\"6\"}}Bueno,{{delay frames=\"8\"}} {{fun_00000005 arg=\"\"}},{{delay frames=\"8\"}} me has ganado,{{delay frames=\"8\"}}\npero confío en que seguirás\nteniendo respeto por los mayores{{delay frames=\"8\"}}.{{delay frames=\"8\"}}.{{delay frames=\"8\"}}.",
      "USfr": "{{anim id=\"6\"}}Mais attention,{{delay frames=\"8\"}} ce n'est pas parce\nque tu as gagné ces élections que tu\ndois prendre la grosse tête!{{delay frames=\"16\"}}\nUn maire se doit d'être humble,\n{{delay frames=\"16\"}}{{fun_00000005 arg=\"\"}}!"
    }
  },
  {
    "label": "013",
    "locale": {
      "EUde": "",
      "EUen": "",
      "EUes": "",
      "EUfr": "",
      "EUit": "",
      "JPja": "",
      "KRko": "",
      "USen": "",
      "USes": "",
      "USfr": ""
    }
  },
  {
    "label": "014",
    "locale": {
      "EUde": "",
      "EUen": "",
      "EUes": "",
      "EUfr": "",
      "EUit": "",
      "JPja": "",
      "KRko": "",
      "USen": "",
      "USes": "",
      "USfr": ""
    }
  },
  {
    "label": "016",
    "locale": {
      "EUde": "Ich habe gewonnen!{{delay frames=\"20\"}}\n{{anim id=\"33\"}}Keine große Überraschung,{{delay frames=\"8\"}} was?",
      "EUen": "{{anim id=\"33\"}}Guess the ol' boy's not as crotchety\nas you thought, eh? {{delay frames=\"8\"}}I win!",
      "EUes": "{{anim id=\"33\"}}¡Ja!{{delay frames=\"20\"}} ¿Qué me dices,{{delay frames=\"8\"}} {{fun_0006000E arg=\"0x12006A006F00760065006E006300690074006F0012006A006F00760065006E006300690074006100\"}}?\n{{delay frames=\"8\"}}¡Ha vencido la experiencia!",
      "EUfr": "{{anim id=\"33\"}}Alors, quel goût a la défaite ?\n{{delay frames=\"8\"}}{{anim id=\"5\"}}J'ai gagné,{{delay frames=\"8\"}} gagnéhéhééé !{{delay frames=\"8\"}} Tu t'y\nattendais,{{delay frames=\"8\"}} à celle-là ? {{delay frames=\"8\"}}Je crois pas !",
      "EUit": "{{anim id=\"33\"}}Allora, ti sei divertit{{fun_0006000E arg=\"0x02006F0002006100\"}}?{{delay frames=\"20\"}}\nPeccato che ho vinto io!\n{{anim id=\"2\"}}AHAHAH!{{delay frames=\"40\"}}{{anim id=\"1\"}}",
      "JPja": "{{anim id=\"33\"}}どうだ？！　{{delay frames=\"8\"}}オレの{{ruby charSpan=\"1\" value=\"か\"}}勝ちだ！",
      "KRko": "{{anim id=\"33\"}}어떠냐?! {{delay frames=\"8\"}}내 승리다!",
      "USen": "{{anim id=\"33\"}}Guess the ol' boy's not as crotchety\nas you thought, eh? {{delay frames=\"8\"}}I win!",
      "USes": "{{anim id=\"33\"}}¡Ja!{{delay frames=\"20\"}} ¿Qué me dices,{{delay frames=\"8\"}} {{fun_0006000E arg=\"0x12006A006F00760065006E006300690074006F0012006A006F00760065006E006300690074006100\"}}?\n{{delay frames=\"8\"}}¡Ha vencido la experiencia!",
      "USfr": "{{anim id=\"33\"}}Alors, quel goût a la défaite?\n{{delay frames=\"8\"}}{{anim id=\"5\"}}J'ai gagné,{{delay frames=\"8\"}} gagnéhéhééé!{{delay frames=\"8\"}} Tu t'y\nattendais,{{delay frames=\"8\"}} à celle-là? {{delay frames=\"8\"}}Je crois pas!"
    }
  },
  {
    "label": "017",
    "locale": {
      "EUde": "{{anim id=\"36\"}}Kann's gar nicht abwarten,\nvon all den Clowns hier bewundert\nund verehrt zu werden!{{delay frames=\"16\"}} {{anim id=\"2\"}}Gra ha ha!{{delay frames=\"40\"}}{{anim id=\"1\"}}",
      "EUen": "{{anim id=\"36\"}}Won't be long now until yours truly\ntakes charge!{{delay frames=\"16\"}} {{anim id=\"2\"}}Gahahah!{{delay frames=\"40\"}}{{anim id=\"1\"}}",
      "EUes": "{{anim id=\"36\"}}El alcalde {{fun_00010005 arg=\"\"}} estará pronto\nal frente del ayuntamiento. {{anim id=\"5\"}}¡Más\npetanca y obras visibles para todos!",
      "EUfr": "{{anim id=\"36\"}}Je vais bientôt prendre mes\nquartiers.{{delay frames=\"12\"}} Tu pourras m'appeler\nMôssieur le Maire !{{anim id=\"2\"}} Ha ha ha !",
      "EUit": "{{anim id=\"36\"}}Non vedo l'ora di organizzare una\nbella festa{{delay frames=\"8\"}} in mio onore{{delay frames=\"8\"}}.{{delay frames=\"8\"}}.{{delay frames=\"8\"}}.{{delay frames=\"20\"}} e a spese\ndella cittadinanza! {{anim id=\"2\"}}AHAHAH!{{delay frames=\"40\"}}{{anim id=\"1\"}}",
      "JPja": "{{anim id=\"36\"}}これで　{{fun_00010005 arg=\"\"}}{{ruby charSpan=\"4\" value=\"そんちょうたんじょう\"}}村長誕生は{{delay frames=\"12\"}}\n{{ruby charSpan=\"1\" value=\"き\"}}決まったも　{{ruby charSpan=\"2\" value=\"どうぜん\"}}同然だな！{{delay frames=\"16\"}}\n{{anim id=\"2\"}}がーっはっはっは！{{delay frames=\"40\"}}{{anim id=\"1\"}}",
      "KRko": "{{anim id=\"36\"}}이제 {{fun_00010005 arg=\"\"}} 촌장 탄생은{{delay frames=\"12\"}}\n정해진 거나 다름없군!{{delay frames=\"16\"}}\n{{anim id=\"2\"}}으ー하하하핫!{{delay frames=\"40\"}}{{anim id=\"1\"}}",
      "USen": "{{anim id=\"36\"}}Won't be long now until yours truly\ntakes charge!{{delay frames=\"16\"}} {{anim id=\"2\"}}Gahahah!{{delay frames=\"40\"}}{{anim id=\"1\"}}",
      "USes": "{{anim id=\"36\"}}El alcalde {{fun_00010005 arg=\"\"}} estará pronto\nal frente del ayuntamiento. {{anim id=\"5\"}}¡Más\npetanca y obras visibles para todos!",
      "USfr": "{{anim id=\"36\"}}Je vais bientôt prendre mes\nquartiers.{{delay frames=\"12\"}} Tu pourras m'appeler\nMôssieur le Maire!{{anim id=\"2\"}} Ha ha ha!"
    }
  },
  {
    "label": "018",
    "locale": {
      "EUde": "",
      "EUen": "",
      "EUes": "",
      "EUfr": "",
      "EUit": "",
      "JPja": "",
      "KRko": "",
      "USen": "",
      "USes": "",
      "USfr": ""
    }
  },
  {
    "label": "019",
    "locale": {
      "EUde": "",
      "EUen": "",
      "EUes": "",
      "EUfr": "",
      "EUit": "",
      "JPja": "",
      "KRko": "",
      "USen": "",
      "USes": "",
      "USfr": ""
    }
  }
]