﻿[
  {
    "label": "001",
    "locale": {
      "EUde": "{{anim id=\"9\"}}Ich hab eigentlich was mit\n{{fun_00010011 arg=\"0x0100\"}} zu besprechen.{{pageBreak}}Leider kann ich {{fun_0007000E arg=\"0x0600690068006E000600730069006500\"}} nicht\nselber besuchen.{{fun_00010007 arg=\"\"}} {{anim id=\"13\"}}Ich glaube,\nich bin einfach zu schüchtern...\n{{anim id=\"37\"}}Könntest du mir vielleicht einen\nGefallen tun und {{fun_00010011 arg=\"0x0100\"}}\nhierherbringen?{{fun_0005000F arg=\"0x15002800\"}}\nAber sicher!\nNicht mein Problem.",
      "EUen": "{{anim id=\"9\"}}Actually, it's not you I have\nbusiness with—it's {{fun_00010011 arg=\"0x0100\"}}.{{pageBreak}}Unfortunately, I can't go out and\nget {{fun_00010011 arg=\"0x0100\"}} right now.{{fun_00010007 arg=\"\"}} {{anim id=\"15\"}}Why?{{delay frames=\"10\"}}\nI'm feeling a bit shy, I guess!\n{{anim id=\"37\"}}Well, I can't blame you for wanting\nto know. {{delay frames=\"10\"}}Anyway, would you mind\nbringing {{fun_00010011 arg=\"0x0100\"}} here for me?{{fun_0005000F arg=\"0x00002800\"}}\nOK, I'll do it!\nSorry, no.",
      "EUes": "{{anim id=\"9\"}}Pues resulta que tengo un asuntillo\npendiente con {{fun_00010011 arg=\"0x0100\"}}.{{pageBreak}}Lo malo es que no puedo acercarme\ny hablar con {{fun_0008000E arg=\"0x01CD0400E9006C00080065006C006C0061000000\"}} así sin más. {{fun_00010007 arg=\"\"}}{{anim id=\"15\"}}\n¿Que por qué?\n{{delay frames=\"10\"}}Es que.{{delay frames=\"5\"}}.{{delay frames=\"5\"}}.{{delay frames=\"5\"}} Mmm...{{delay frames=\"20\"}}{{anim id=\"37\"}} ¡Me da vergüenza!\n¡Sí, eso es!{{delay frames=\"10\"}} ¿Podrías traerme tú\na {{fun_00010011 arg=\"0x0100\"}} hasta aquí?{{fun_0005000F arg=\"0x00002800\"}}\n¡Vale!\n¡No, caradura!",
      "EUfr": "Tu tombes bien, {{fun_00080005 arg=\"\"}},\nj'aimerais te demander un truc{{delay frames=\"8\"}}.{{delay frames=\"8\"}}.{{delay frames=\"8\"}}. Tu\nvois qui c'est, {{fun_00010011 arg=\"0x0100\"}}, non ?\n{{anim id=\"27\"}}Bon, {{delay frames=\"8\"}}je voudrais lui parler mais je\npeux pas aller {{fun_0008000E arg=\"0x01CD04006C00650004006C0061000000\"}} voir, là.{{fun_00010007 arg=\"\"}}{{anim id=\"15\"}} Pourquoi ?{{delay frames=\"15\"}}\nBen,{{delay frames=\"15\"}} j'ai plein d'obligations, tu sais...\n{{anim id=\"33\"}}Crois-moi, {{delay frames=\"15\"}}si tu accèdes un jour\nau rang de star, tu comprendras\nqu'il faut déléguer un peu le travail.\n{{anim id=\"37\"}}Alors, {{delay frames=\"15\"}}tu es d'accord pour aller me\nchercher {{fun_00010011 arg=\"0x0100\"}} ?{{fun_0005000F arg=\"0x00002800\"}}\nSi ça peut te dépanner.\nJ'ai mieux à faire.",
      "EUit": "{{anim id=\"9\"}}In realtà non si tratta di te,\nma di {{fun_00010011 arg=\"0x0100\"}}.{{pageBreak}}Purtroppo ora non posso andare\na cercare {{fun_00010011 arg=\"0x0100\"}}. {{fun_00010007 arg=\"\"}}{{anim id=\"15\"}}Perché?{{delay frames=\"10\"}}\nBeh, mi vergogno un po'...\n{{anim id=\"37\"}}Ora che ho soddisfatto la tua\ncuriosità, potresti portarmi\nqui {{fun_00010011 arg=\"0x0100\"}}?{{fun_0005000F arg=\"0x00002800\"}}\nOK, va bene!\nNo, mi dispiace.",
      "JPja": "{{anim id=\"9\"}}{{ruby charSpan=\"1\" value=\"じつ\"}}実はさぁ、{{delay frames=\"16\"}}{{fun_00010011 arg=\"0x0100\"}}{{fun_000D0005 arg=\"\"}}に\n{{ruby charSpan=\"2\" value=\"ようじ\"}}用事があるんだけど、{{delay frames=\"16\"}}\n{{ruby charSpan=\"1\" value=\"よ\"}}呼びに{{ruby charSpan=\"1\" value=\"い\"}}行けないんだよね～\n{{anim id=\"15\"}}なぜって？{{delay frames=\"32\"}}　{{anim id=\"36\"}}{{ruby charSpan=\"2\" value=\"つごう\"}}都合が{{ruby charSpan=\"1\" value=\"あ\"}}合わない\nっていうのもあるけど、{{delay frames=\"16\"}}\nそれは　たぶん{{delay frames=\"8\"}}・{{delay frames=\"8\"}}・{{delay frames=\"8\"}}・{{delay frames=\"8\"}}\n{{anim id=\"35\"}}ボクが　シャイBOYだからさ{{fun_00010007 arg=\"\"}}\n{{anim id=\"37\"}}だから、キミの{{ruby charSpan=\"1\" value=\"ちから\"}}力を{{ruby charSpan=\"1\" value=\"か\"}}借りたいんだよ{{delay frames=\"8\"}}\n{{fun_00080005 arg=\"\"}}{{fun_000D0005 arg=\"\"}}！\nボクの{{ruby charSpan=\"1\" value=\"か\"}}代わりに　{{delay frames=\"16\"}}ココへ\n{{fun_00010011 arg=\"0x0100\"}}{{fun_000D0005 arg=\"\"}}を{{delay frames=\"16\"}}\n{{ruby charSpan=\"1\" value=\"つ\"}}連れて{{ruby charSpan=\"1\" value=\"き\"}}来てくれないかな？{{fun_0005000F arg=\"0x00002800\"}}\nしょうがないなぁ\nイヤだよ",
      "KRko": "{{anim id=\"9\"}}실은 말이야, {{delay frames=\"16\"}}{{fun_00010011 arg=\"0x0100\"}}{{fun_0007000E arg=\"0x020070AD020091C5\"}}에게\n용건이 있는데{{delay frames=\"16\"}}\n부르러 가질 못 하겠어～\n{{anim id=\"15\"}}왜냐구?{{delay frames=\"32\"}} {{anim id=\"36\"}}나갈 사정이\n안 되는 것도 있지만{{delay frames=\"16\"}}\n그건 아마도{{delay frames=\"8\"}}・{{delay frames=\"8\"}}・{{delay frames=\"8\"}}・{{delay frames=\"8\"}}\n{{anim id=\"35\"}}내가 샤이 BOY이기 때문일 거야{{fun_00010007 arg=\"\"}}\n{{anim id=\"37\"}}그래서 그대의 힘을 좀 빌리고 싶어{{delay frames=\"8\"}}\n{{fun_00080005 arg=\"\"}}{{fun_0006000E arg=\"0x020070AD020091C5\"}}!\n나를 대신해서 {{delay frames=\"16\"}}여기에\n{{fun_00010011 arg=\"0x0100\"}}{{fun_0007000E arg=\"0x020070AD020091C5\"}}을{{delay frames=\"16\"}}\n데려와주지 않을래?{{fun_0005000F arg=\"0x00002800\"}}\n어쩔 수 없지\n싫어",
      "USen": "{{anim id=\"9\"}}Actually, it's not you I have\nbusiness with—it's {{fun_00010011 arg=\"0x0100\"}}.{{pageBreak}}Unfortunately, I can't go out and\nget {{fun_00010011 arg=\"0x0100\"}} right now.{{fun_00010007 arg=\"\"}} {{anim id=\"15\"}}Why?{{delay frames=\"10\"}}\nI'm feeling a bit shy, I guess!\n{{anim id=\"37\"}}Well, I can't blame you for wanting\nto know. {{delay frames=\"10\"}}Anyway, would you mind\nbringing {{fun_00010011 arg=\"0x0100\"}} here for me?{{fun_0005000F arg=\"0x00002800\"}}\nOK, I'll do it!\nSorry, no.",
      "USes": "{{anim id=\"9\"}}Pues resulta que tengo un asuntillo\npendiente con {{fun_00010011 arg=\"0x0100\"}}.{{pageBreak}}Lo malo es que no puedo acercarme\ny hablar con {{fun_0008000E arg=\"0x01CD0400E9006C00080065006C006C0061000000\"}} así sin más. {{fun_00010007 arg=\"\"}}{{anim id=\"15\"}}\n¿Que por qué?\n{{delay frames=\"10\"}}Es que.{{delay frames=\"5\"}}.{{delay frames=\"5\"}}.{{delay frames=\"5\"}} Mmm...{{delay frames=\"20\"}}{{anim id=\"37\"}} ¡Me da vergüenza!\n¡Sí, eso es!{{delay frames=\"10\"}} ¿Podrías traerme tú\na {{fun_00010011 arg=\"0x0100\"}} hasta aquí?{{fun_0005000F arg=\"0x00002800\"}}\n¡Vale!\n¡No, caradura!",
      "USfr": "Tu tombes bien, {{fun_00080005 arg=\"\"}},\nj'aimerais te demander un truc{{delay frames=\"8\"}}.{{delay frames=\"8\"}}.{{delay frames=\"8\"}}. Tu\nvois qui c'est, {{fun_00010011 arg=\"0x0100\"}}, non?\n{{anim id=\"27\"}}Bon, {{delay frames=\"8\"}}je voudrais lui parler mais je\npeux pas aller {{fun_0008000E arg=\"0x01CD04006C00650004006C0061000000\"}} voir, là.{{fun_00010007 arg=\"\"}}{{anim id=\"15\"}} Pourquoi?{{delay frames=\"15\"}}\nBen,{{delay frames=\"15\"}} j'ai plein d'obligations, tu sais...\n{{anim id=\"33\"}}Crois-moi, {{delay frames=\"15\"}}si tu accèdes un jour\nau rang de star, tu comprendras\nqu'il faut déléguer un peu le travail.\n{{anim id=\"37\"}}Alors, {{delay frames=\"15\"}}tu es d'accord pour aller me\nchercher {{fun_00010011 arg=\"0x0100\"}}?{{fun_0005000F arg=\"0x00002800\"}}\nSi ça peut te dépanner.\nJ'ai mieux à faire."
    }
  },
  {
    "label": "002",
    "locale": {
      "EUde": "{{anim id=\"9\"}}Ich würde gerne etwas mit\n{{fun_00010011 arg=\"0x0100\"}} besprechen, aber ich\nkomme einfach nicht dazu.\nWenn ich unterwegs bin, vergesse\nich es immer, und wenn ich zu\nHause bin, fällt es mir wieder ein.\n{{anim id=\"6\"}}Also hab ich mir was überlegt.{{delay frames=\"20\"}}\nDu bringst {{fun_00010011 arg=\"0x0100\"}} einfach her,\n{{fun_00080005 arg=\"\"}}!{{delay frames=\"20\"}} Und ich warte hier!\nDu kannst dir auch ruhig {{color id=\"2\"}}eine Stunde\n{{color id=\"65535\"}}Zeit lassen, wenn du willst.{{fun_0005000F arg=\"0x15002800\"}}\nOkay, ich helfe dir.\nIst nicht meine Sache.",
      "EUen": "{{anim id=\"9\"}}I'm having a hard time getting\ntogether for a chat with\n{{fun_00010011 arg=\"0x0100\"}}.\nWhen I go out, {{delay frames=\"5\"}}I forget I need to\nchat, {{delay frames=\"5\"}}and when I stay here,{{delay frames=\"5\"}}\nI suddenly remember, {{fun_00080005 arg=\"\"}}!\n{{anim id=\"6\"}}So I have a solution. I will stay\nhere for {{color id=\"2\"}}1 hour{{color id=\"65535\"}}, and you will go\nget {{fun_00010011 arg=\"0x0100\"}} for me!{{fun_0005000F arg=\"0x15002800\"}}\nOK, I'll help.\nNo, sorry.",
      "EUes": "{{anim id=\"9\"}}Tengo que decirle una cosa en\npersona a {{fun_00010011 arg=\"0x0100\"}}, pero como \nestoy en la parra, se me olvida.\nEn serio, hablo a menudo con\n{{fun_0008000E arg=\"0x01CD0400E9006C00080065006C006C0061000000\"}}, pero nunca me acuerdo\nde decírselo.\n¡Menos mal que al fin se me acaba\nde ocurrir cómo solucionarlo!\n¡Y todo gracias a ti, {{fun_00080005 arg=\"\"}}!\n{{anim id=\"6\"}}Cuando digo gracias a ti, me refiero\na que quiero que me traigas\na {{fun_00010011 arg=\"0x0100\"}}.\nOs esperaré aquí {{color id=\"2\"}}una hora{{color id=\"65535\"}}. \n{{fun_0003000E arg=\"\"}}{{fun_00050005 arg=\"\"}} no es tan grande como\npara no dar con {{fun_0008000E arg=\"0x01CD0400E9006C00080065006C006C0061000000\"}} en ese tiempo.{{fun_0005000F arg=\"0x15002800\"}}\n¡Vale!\n¿Cómo?",
      "EUfr": "{{anim id=\"9\"}}J'essaie de dire un truc à\n{{fun_00010011 arg=\"0x0100\"}} depuis quelque temps\nmais je souffre d'un trouble rare...\n{{anim id=\"27\"}}Dès que je sors, {{delay frames=\"5\"}}j'oublie que j'ai un\ntruc à lui dire, {{delay frames=\"5\"}}et dès que je suis ici,\n{{delay frames=\"15\"}}je n'arrête pas d'y penser !\n{{anim id=\"14\"}}Tu comprends mon désarroi,\n{{fun_00080005 arg=\"\"}} ?{{fun_00010007 arg=\"\"}} {{anim id=\"36\"}}Bon, heureusement,\nj'ai pensé à une solution...\n{{anim id=\"38\"}}Je vais rester ici {{color id=\"2\"}}une heure {{color id=\"65535\"}}pour\npas oublier et toi{{delay frames=\"8\"}}.{{delay frames=\"8\"}}.{{delay frames=\"8\"}}.{{delay frames=\"8\"}} tu vas chercher\n{{fun_00010011 arg=\"0x0100\"}} et tu {{fun_0008000E arg=\"0x01CD04006C00650004006C0061000000\"}} ramènes ici !{{fun_0005000F arg=\"0x15002800\"}}\nBien vu. J'y vais.\nBien tenté. J'y vais pas.",
      "EUit": "{{anim id=\"9\"}}{{fun_0003000E arg=\"\"}}{{fun_00080005 arg=\"\"}}, vorrei fare due\nchiacchiere con {{fun_00010011 arg=\"0x0100\"}},\nma non ci riesco mai.\nQuando esco, {{delay frames=\"5\"}}mi dimentico cosa\nvolevo dire {{delay frames=\"5\"}}e quando torno qui,{{delay frames=\"5\"}}\nall'improvviso mi ricordo!\n{{anim id=\"22\"}}Ma ho trovato una soluzione.\nIo resto qui per {{color id=\"2\"}}un'ora{{color id=\"65535\"}} e tu vai\na prendere {{fun_00010011 arg=\"0x0100\"}}, eh?{{fun_0005000F arg=\"0x15002800\"}}\nOK, ti do una mano.\nNo, scusa.",
      "JPja": "{{anim id=\"9\"}}{{fun_00010011 arg=\"0x0100\"}}{{fun_000D0005 arg=\"\"}}に\n{{ruby charSpan=\"1\" value=\"よう\"}}用があるんだけど、{{delay frames=\"16\"}}\nなかなか　{{ruby charSpan=\"1\" value=\"あ\"}}会えないんだ{{delay frames=\"8\"}}・{{delay frames=\"8\"}}・{{delay frames=\"8\"}}・{{delay frames=\"8\"}}\n{{anim id=\"36\"}}ボクも　フラフラ{{ruby charSpan=\"1\" value=\"うご\"}}動き{{ruby charSpan=\"1\" value=\"まわ\"}}回って{{delay frames=\"16\"}}\n{{ruby charSpan=\"1\" value=\"おな\"}}同じ{{ruby charSpan=\"2\" value=\"ばしょ\"}}場所に　なかなか\nいないからねぇ、{{delay frames=\"8\"}}{{fun_00070005 arg=\"\"}}\n{{anim id=\"6\"}}よし、{{ruby charSpan=\"1\" value=\"き\"}}決めた！　{{delay frames=\"16\"}}\n{{ruby charSpan=\"1\" value=\"いま\"}}今から{{color id=\"2\"}}1{{ruby charSpan=\"2\" value=\"じかん\"}}時間{{color id=\"65535\"}}{{delay frames=\"8\"}}・{{delay frames=\"8\"}}・{{delay frames=\"8\"}}・{{delay frames=\"8\"}}ボクは{{delay frames=\"16\"}}\nこの{{ruby charSpan=\"2\" value=\"へや\"}}部屋から{{ruby charSpan=\"1\" value=\"うご\"}}動かないよ！\n{{anim id=\"0\"}}その{{ruby charSpan=\"1\" value=\"あいだ\"}}間に　{{fun_00010011 arg=\"0x0100\"}}{{fun_000D0005 arg=\"\"}}を{{delay frames=\"16\"}}\nココへ　{{ruby charSpan=\"1\" value=\"つ\"}}連れて{{ruby charSpan=\"1\" value=\"き\"}}来てもらえないかな？{{delay frames=\"8\"}}\n{{fun_00080005 arg=\"\"}}{{fun_000D0005 arg=\"\"}}？{{fun_0005000F arg=\"0x15002800\"}}\nいいよー\nいまはムリ",
      "KRko": "{{anim id=\"9\"}}{{fun_00010011 arg=\"0x0100\"}}{{fun_0007000E arg=\"0x020070AD020091C5\"}}에게\n볼일이 있는데{{delay frames=\"16\"}}\n도무지 만날 수가 없네{{delay frames=\"8\"}}・{{delay frames=\"8\"}}・{{delay frames=\"8\"}}・{{delay frames=\"8\"}}\n{{anim id=\"36\"}}나도 바쁜 몸이라{{delay frames=\"16\"}}\n좀처럼 같은 곳에 오래\n머물지 못하거든, {{delay frames=\"8\"}}{{fun_00070005 arg=\"\"}}\n{{anim id=\"6\"}}좋아, 결심했어!{{delay frames=\"16\"}}\n지금부터 {{color id=\"2\"}}1시간{{color id=\"65535\"}} 동안{{delay frames=\"8\"}}・{{delay frames=\"8\"}}・{{delay frames=\"8\"}}・{{delay frames=\"8\"}}\n난{{delay frames=\"16\"}} 이 집에서 움직이지 않겠어!\n{{anim id=\"0\"}}그 사이에 {{fun_00010011 arg=\"0x0100\"}}{{fun_0007000E arg=\"0x020070AD020091C5\"}}을{{delay frames=\"16\"}}\n여기에 데려와줄 수 있겠어?{{delay frames=\"8\"}}\n{{fun_00080005 arg=\"\"}}{{fun_0006000E arg=\"0x020070AD020091C5\"}}?{{fun_0005000F arg=\"0x15002800\"}}\n알았어ー\n좀 힘들겠어",
      "USen": "{{anim id=\"9\"}}I'm having a hard time getting\ntogether for a chat with\n{{fun_00010011 arg=\"0x0100\"}}.\nWhen I go out, {{delay frames=\"5\"}}I forget I need to\nchat, {{delay frames=\"5\"}}and when I stay here,{{delay frames=\"5\"}}\nI suddenly remember, {{fun_00080005 arg=\"\"}}!\n{{anim id=\"6\"}}So I have a solution. I will stay\nhere for {{color id=\"2\"}}1 hour{{color id=\"65535\"}}, and you will go\nget {{fun_00010011 arg=\"0x0100\"}} for me!{{fun_0005000F arg=\"0x15002800\"}}\nOK, I'll help.\nNo, sorry.",
      "USes": "{{anim id=\"9\"}}Tengo que decirle una cosa en\npersona a {{fun_00010011 arg=\"0x0100\"}}, pero como \nestoy en la parra, se me olvida.\nEn serio, hablo a menudo con\n{{fun_0008000E arg=\"0x01CD0400E9006C00080065006C006C0061000000\"}}, pero nunca me acuerdo\nde decírselo.\n¡Menos mal que al fin se me acaba\nde ocurrir cómo solucionarlo!\n¡Y todo gracias a ti, {{fun_00080005 arg=\"\"}}!\n{{anim id=\"6\"}}Cuando digo gracias a ti, me refiero\na que quiero que me traigas\na {{fun_00010011 arg=\"0x0100\"}}.\nOs esperaré aquí {{color id=\"2\"}}una hora{{color id=\"65535\"}}. \n{{fun_0003000E arg=\"\"}}{{fun_00050005 arg=\"\"}} no es tan grande como\npara no dar con {{fun_0008000E arg=\"0x01CD0400E9006C00080065006C006C0061000000\"}} en ese tiempo.{{fun_0005000F arg=\"0x15002800\"}}\n¡Vale!\n¿Cómo?",
      "USfr": "{{anim id=\"9\"}}J'essaie de dire un truc à\n{{fun_00010011 arg=\"0x0100\"}} depuis quelque temps\nmais je souffre d'un trouble rare...\n{{anim id=\"27\"}}Dès que je sors, {{delay frames=\"5\"}}j'oublie que j'ai un\ntruc à lui dire, {{delay frames=\"5\"}}et dès que je suis ici,\n{{delay frames=\"15\"}}je n'arrête pas d'y penser!\n{{anim id=\"14\"}}Tu comprends mon désarroi,\n{{fun_00080005 arg=\"\"}}?{{fun_00010007 arg=\"\"}} {{anim id=\"36\"}}Bon, heureusement,\nj'ai pensé à une solution...\n{{anim id=\"38\"}}Je vais rester ici {{color id=\"2\"}}une heure {{color id=\"65535\"}}pour\npas oublier et toi{{delay frames=\"8\"}}.{{delay frames=\"8\"}}.{{delay frames=\"8\"}}.{{delay frames=\"8\"}} tu vas chercher\n{{fun_00010011 arg=\"0x0100\"}} et tu {{fun_0008000E arg=\"0x01CD04006C00650004006C0061000000\"}} ramènes ici!{{fun_0005000F arg=\"0x15002800\"}}\nBien vu. J'y vais.\nBien tenté. J'y vais pas."
    }
  },
  {
    "label": "003",
    "locale": {
      "EUde": "{{anim id=\"9\"}}Ich muss dringend mit {{fun_00010011 arg=\"0x0100\"}}\nreden, aber ich kann im Moment\nleider keinen Fuß vor die Tür setzen.\n{{anim id=\"15\"}}Warum? {{delay frames=\"10\"}}Ich kann einfach nicht! {{fun_00010007 arg=\"\"}}\n{{anim id=\"27\"}}Also gut. {{delay frames=\"20\"}}Ich hab ein neues Haargel\nauf {{fun_000E0005 arg=\"0x0000\"}}-Basis benutzt.\n{{anim id=\"37\"}}Solange das nicht getrocknet ist,\nkann ich unmöglich rausgehen. {{delay frames=\"20\"}}Aber\ndu könntest {{fun_00010011 arg=\"0x0100\"}} ja herholen.{{fun_0005000F arg=\"0x15002800\"}}\nKlar, mach ich!\nNicht mein Problem.",
      "EUen": "{{anim id=\"9\"}}I need to talk to {{fun_00010011 arg=\"0x0100\"}} really\nsoon, but the problem is I can't set\nfoot outside.\n{{anim id=\"15\"}}Why? {{delay frames=\"10\"}}I just can't! {{fun_00010007 arg=\"\"}}{{anim id=\"27\"}}OK. I'm using a\nnew hair gel infused with\n{{fun_00100005 arg=\"0x0000\"}}. {{delay frames=\"10\"}}Yeah, {{delay frames=\"5\"}}sticky.\n{{anim id=\"37\"}}But it takes a long time to dry, and\nI can't go out until it does. So will\nyou get {{fun_00010011 arg=\"0x0100\"}} for me?{{fun_0005000F arg=\"0x15002800\"}}\nSure, I'll help!\nSorry, no.",
      "EUes": "{{anim id=\"9\"}}Necesito hablar urgentemente con\n{{fun_00010011 arg=\"0x0100\"}}, pero no puedo salir\nde casa. {{delay frames=\"10\"}}{{fun_00010007 arg=\"\"}}{{anim id=\"15\"}}¿Eh? ¿Que por qué?\n{{anim id=\"27\"}}Porque me acabo de echar una laca\ncon aroma de {{fun_00100005 arg=\"0x0000\"}}\ny aún no se me{{delay frames=\"10\"}} ha secado.\n{{anim id=\"37\"}}Hasta que no se seque, no puedo\nsalir de casa. ¿Podrías traerme a\n{{fun_00010011 arg=\"0x0100\"}}?{{fun_0005000F arg=\"0x15002800\"}}\n¡Claro!\nLo siento",
      "EUfr": "{{anim id=\"9\"}}Je dois parler à {{fun_00010011 arg=\"0x0100\"}}, c'est\nurgent. L'ennui, c'est que je peux\npas sortir... {{anim id=\"15\"}}Pourquoi ?! Euh...\n{{anim id=\"26\"}}Ben{{delay frames=\"8\"}}.{{delay frames=\"8\"}}.{{delay frames=\"8\"}}.{{delay frames=\"8\"}} j'ai essayé un nouveau parfum\nà base {{fun_000A000E arg=\"0x0600640065002000040064002700\"}}{{fun_00130005 arg=\"0x0000\"}} et tu\npeux sentir le résultat... {{delay frames=\"15\"}}Ça cocote !\n{{anim id=\"27\"}}Du coup, le temps que l'odeur\ns'estompe,{{delay frames=\"8\"}} je dois rester enfermé\nici. {{delay frames=\"15\"}}Ma réputation est en jeu !\nAlors sois sympa et va me chercher\n{{fun_00010011 arg=\"0x0100\"}}, {{delay frames=\"15\"}}OK ?{{fun_0005000F arg=\"0x15002800\"}}\nJe m'en occupe.\nPas mon problème.",
      "EUit": "{{anim id=\"9\"}}Dovrei parlare con {{fun_00010011 arg=\"0x0100\"}} al più\npresto, ma non posso metter piede\nfuori di casa.\n{{anim id=\"15\"}}Perché? {{delay frames=\"10\"}}Non te lo posso dire!{{fun_00010007 arg=\"\"}}\n{{anim id=\"27\"}}Beh, OK. Sto usando un nuovo gel\nal profumo di {{fun_00100005 arg=\"0x0000\"}}.\n{{delay frames=\"10\"}}Sì, è tutto {{delay frames=\"5\"}}appiccicoso.\n{{anim id=\"37\"}}E soprattutto ci mette una vita ad\nasciugarsi, quindi non posso uscire.\nPotresti andare tu a cercare\n{{fun_00010011 arg=\"0x0100\"}} al posto mio?{{fun_0005000F arg=\"0x15002800\"}}\nCerto, ti aiuto io!\nNo, mi dispiace.",
      "JPja": "{{anim id=\"9\"}}ボク、{{delay frames=\"16\"}}どうしても\n{{fun_00010011 arg=\"0x0100\"}}{{fun_000D0005 arg=\"\"}}に\n{{ruby charSpan=\"1\" value=\"つた\"}}伝えたいことが　あるんだけど{{delay frames=\"8\"}}・{{delay frames=\"8\"}}・{{delay frames=\"8\"}}・{{delay frames=\"8\"}}\nさっき　シャワーを\n{{ruby charSpan=\"1\" value=\"あ\"}}浴びちゃったばかりだから、{{delay frames=\"16\"}}\nしばらく　{{ruby charSpan=\"1\" value=\"そと\"}}外に{{ruby charSpan=\"1\" value=\"で\"}}出たくないんだ\n{{anim id=\"35\"}}そこで、キミの{{ruby charSpan=\"2\" value=\"でばん\"}}出番さ！{{fun_00010007 arg=\"\"}}\n{{anim id=\"37\"}}{{ruby charSpan=\"1\" value=\"わる\"}}悪いんだけど、{{fun_00010011 arg=\"0x0100\"}}{{fun_000D0005 arg=\"\"}}を{{delay frames=\"16\"}}\nココへ　{{ruby charSpan=\"1\" value=\"つ\"}}連れて{{ruby charSpan=\"1\" value=\"き\"}}来てくれないかい？{{fun_0005000F arg=\"0x15002800\"}}\nオッケー\nわるいけど・・・",
      "KRko": "{{anim id=\"9\"}}나 말이야,{{delay frames=\"16\"}}\n{{fun_00010011 arg=\"0x0100\"}}{{fun_0007000E arg=\"0x020070AD020091C5\"}}에게\n꼭 전하고 싶은 말이 있는데{{delay frames=\"8\"}}・{{delay frames=\"8\"}}・{{delay frames=\"8\"}}・{{delay frames=\"8\"}}\n방금 샤워를\n하고 나와서{{delay frames=\"16\"}}\n밖에 나가기 싫단 말이지\n{{anim id=\"35\"}}지금이 바로 그대가 나설 차례지!{{fun_00010007 arg=\"\"}}\n{{anim id=\"37\"}}미안하지만, {{fun_00010011 arg=\"0x0100\"}}{{fun_0007000E arg=\"0x020070AD020091C5\"}}을{{delay frames=\"16\"}}\n여기에 데려와주지 않을래?{{fun_0005000F arg=\"0x15002800\"}}\n오케이\n미안하지만・・・",
      "USen": "{{anim id=\"9\"}}I need to talk to {{fun_00010011 arg=\"0x0100\"}} really\nsoon, but the problem is I can't set\nfoot outside.\n{{anim id=\"15\"}}Why? {{delay frames=\"10\"}}I just can't! {{fun_00010007 arg=\"\"}}{{anim id=\"27\"}}OK. I'm using a\nnew hair gel infused with\n{{fun_00100005 arg=\"0x0000\"}}. {{delay frames=\"10\"}}Yeah, {{delay frames=\"5\"}}sticky.\n{{anim id=\"37\"}}But it takes a long time to dry, and\nI can't go out until it does. So will\nyou get {{fun_00010011 arg=\"0x0100\"}} for me?{{fun_0005000F arg=\"0x15002800\"}}\nSure, I'll help!\nSorry, no.",
      "USes": "{{anim id=\"9\"}}Necesito hablar urgentemente con\n{{fun_00010011 arg=\"0x0100\"}}, pero no puedo salir\nde casa. {{delay frames=\"10\"}}{{fun_00010007 arg=\"\"}}{{anim id=\"15\"}}¿Eh? ¿Que por qué?\n{{anim id=\"27\"}}Porque me acabo de echar una laca\ncon aroma de {{fun_00100005 arg=\"0x0000\"}}\ny aún no se me{{delay frames=\"10\"}} ha secado.\n{{anim id=\"37\"}}Hasta que no se seque, no puedo\nsalir de casa. ¿Podrías traerme a\n{{fun_00010011 arg=\"0x0100\"}}?{{fun_0005000F arg=\"0x15002800\"}}\n¡Claro!\nLo siento",
      "USfr": "{{anim id=\"9\"}}Je dois parler à {{fun_00010011 arg=\"0x0100\"}}, c'est\nurgent. L'ennui, c'est que je peux\npas sortir... {{anim id=\"15\"}}Pourquoi?! Euh...\n{{anim id=\"26\"}}Ben{{delay frames=\"8\"}}.{{delay frames=\"8\"}}.{{delay frames=\"8\"}}.{{delay frames=\"8\"}} j'ai essayé un nouveau parfum\nà base {{fun_000A000E arg=\"0x0600640065002000040064002700\"}}{{fun_00130005 arg=\"0x0000\"}} et tu\npeux sentir le résultat... {{delay frames=\"15\"}}Ça cocote!\n{{anim id=\"27\"}}Du coup, le temps que l'odeur\ns'estompe,{{delay frames=\"8\"}} je dois rester enfermé\nici. {{delay frames=\"15\"}}Ma réputation est en jeu!\nAlors sois sympa et va me chercher\n{{fun_00010011 arg=\"0x0100\"}}, {{delay frames=\"15\"}}OK?{{fun_0005000F arg=\"0x15002800\"}}\nJe m'en occupe.\nPas mon problème."
    }
  },
  {
    "label": "004",
    "locale": {
      "EUde": "{{anim id=\"6\"}}Ich muss mich unbedingt in\nspätestens einer Stunde mit\n{{fun_00010011 arg=\"0x0100\"}} treffen, {{fun_00080005 arg=\"\"}}!\nWarum eine Stunde? {{delay frames=\"20\"}}{{anim id=\"36\"}}Weil mit einem\nZeitlimit alles dringender wirkt.\n{{fun_00010007 arg=\"\"}}{{anim id=\"6\"}}Und das hier IST dringend!\nWie wär's, wenn du {{fun_00010011 arg=\"0x0100\"}}\ninnerhalb {{color id=\"2\"}}einer Stunde{{color id=\"65535\"}} für mich\nherbringen würdest?{{fun_0005000F arg=\"0x15002800\"}}\nBin schon unterwegs!\nIst nicht meine Sache.",
      "EUen": "{{anim id=\"6\"}}So I really need to see {{fun_00010011 arg=\"0x0100\"}}\nwithin the hour, {{fun_00080005 arg=\"\"}}!{{delay frames=\"20\"}} Why\none hour?\n{{anim id=\"36\"}}Heh. Because everything seems\nmore intense when you add a time\nlimit! {{fun_00010007 arg=\"\"}}{{anim id=\"6\"}}And {{delay frames=\"7\"}}I {{delay frames=\"7\"}}am {{delay frames=\"7\"}}IN{{delay frames=\"7\"}}TENSE!\nSo how about bringing {{fun_00010011 arg=\"0x0100\"}}\nhere for me within {{color id=\"2\"}}1 hour{{color id=\"65535\"}}?{{fun_0005000F arg=\"0x00002800\"}}\nSure, right away!\nUh, no.",
      "EUes": "{{anim id=\"9\"}}¡Tengo que ver a {{fun_00010011 arg=\"0x0100\"}} antes\nde que pase {{color id=\"2\"}}una hora{{color id=\"65535\"}}, {{fun_00080005 arg=\"\"}}!{{delay frames=\"20\"}}\n¿Que por qué las prisas?\n{{anim id=\"36\"}}¡Pues porque vivimos en un mundo\nmoderno! {{fun_00010007 arg=\"\"}}{{anim id=\"6\"}}¡Todo va a la velocidad de\nla luz! Lo bueno, si rápido, mejor.\n¿Qué tal si me traes a {{fun_00010011 arg=\"0x0100\"}}\ncuanto antes?{{fun_0005000F arg=\"0x00002800\"}}\n¡Ahora mismo!\nNo",
      "EUfr": "{{anim id=\"13\"}}Je dois voir {{fun_00010011 arg=\"0x0100\"}} dans l'heure\nqui vient, {{fun_00080005 arg=\"\"}} !{{delay frames=\"30\"}} Pourquoi\n{{color id=\"2\"}}d'ici {{color id=\"65535\"}}{{color id=\"2\"}}une heure{{color id=\"65535\"}}...?\n{{anim id=\"36\"}}Hé, {{delay frames=\"15\"}}parce que j'ai justement un trou\nd'une heure dans mon agenda,{{delay frames=\"8\"}} entre\ndeux interviews !\nAlors, vite, vite, {{delay frames=\"8\"}}va me chercher\n{{fun_00010011 arg=\"0x0100\"}} et amène-{{fun_0008000E arg=\"0x01CD04006C00650004006C0061000000\"}} ici, capito ?{{fun_0005000F arg=\"0x00002800\"}}\nCapiche !\nPige pas.",
      "EUit": "{{anim id=\"6\"}}Devo assolutamente vedere\n{{fun_00010011 arg=\"0x0100\"}} entro un'ora,\n{{fun_00080005 arg=\"\"}}!{{delay frames=\"20\"}} Perché?\n{{anim id=\"36\"}}Beh, diventa tutto più intenso\nquando c'è una scadenza di mezzo,\nno? {{fun_00010007 arg=\"\"}}{{anim id=\"6\"}}E {{delay frames=\"7\"}}io {{delay frames=\"7\"}}sono molto {{delay frames=\"7\"}}IN{{delay frames=\"7\"}}TENSO!\nChe ne dici di portarmi {{fun_00010011 arg=\"0x0100\"}}\nentro {{color id=\"2\"}}un'ora{{color id=\"65535\"}}?{{fun_0005000F arg=\"0x00002800\"}}\nCerto, vado subito!\nMa falla finita!",
      "JPja": "{{anim id=\"6\"}}ねぇ、{{fun_00080005 arg=\"\"}}{{fun_000D0005 arg=\"\"}}！{{delay frames=\"16\"}}\nボク、{{delay frames=\"16\"}}{{fun_00010011 arg=\"0x0100\"}}{{fun_000D0005 arg=\"\"}}に\n{{ruby charSpan=\"2\" value=\"だいじ\"}}大事な{{ruby charSpan=\"1\" value=\"はなし\"}}話があるんだ{{delay frames=\"8\"}}・{{delay frames=\"8\"}}・{{delay frames=\"8\"}}・{{delay frames=\"8\"}}\nだから、{{fun_00010011 arg=\"0x0100\"}}{{fun_000D0005 arg=\"\"}}を　\n{{ruby charSpan=\"1\" value=\"つ\"}}連れて{{ruby charSpan=\"1\" value=\"き\"}}来てもらいたいんだ！{{delay frames=\"16\"}}\n{{color id=\"2\"}}1{{ruby charSpan=\"2\" value=\"じかん\"}}時間{{ruby charSpan=\"2\" value=\"いない\"}}以内{{color id=\"65535\"}}に　{{delay frames=\"16\"}}ココへ\n{{delay frames=\"8\"}}・{{delay frames=\"8\"}}・{{delay frames=\"8\"}}・{{delay frames=\"8\"}}{{anim id=\"36\"}}フフフ、{{delay frames=\"16\"}}なぜ1{{ruby charSpan=\"2\" value=\"じかん\"}}時間かって？{{fun_00010007 arg=\"\"}}\n{{anim id=\"6\"}}だって、その{{ruby charSpan=\"1\" value=\"ほう\"}}方が{{delay frames=\"32\"}}\n{{anim id=\"35\"}}ロマンチックだろう？{{fun_0005000F arg=\"0x00002800\"}}\n{{ruby charSpan=\"1\" value=\"つ\"}}連れてこよっか？\nえーヤダよ！",
      "KRko": "{{anim id=\"6\"}}저기, {{fun_00080005 arg=\"\"}}{{fun_0006000E arg=\"0x020070AD020091C5\"}}!{{delay frames=\"16\"}}\n나 {{delay frames=\"16\"}}{{fun_00010011 arg=\"0x0100\"}}{{fun_0007000E arg=\"0x020070AD020091C5\"}}에게\n중요한 용건이 있는데{{delay frames=\"8\"}}・{{delay frames=\"8\"}}・{{delay frames=\"8\"}}・{{delay frames=\"8\"}}\n그래서 말이야 {{fun_00010011 arg=\"0x0100\"}}{{fun_0007000E arg=\"0x020070AD020091C5\"}}을　\n좀 데려와줬으면 좋겠어!{{delay frames=\"16\"}}\n{{color id=\"2\"}}1시간 안{{color id=\"65535\"}}에 {{delay frames=\"16\"}}여기로 말이야\n{{delay frames=\"8\"}}・{{delay frames=\"8\"}}・{{delay frames=\"8\"}}・{{delay frames=\"8\"}}{{anim id=\"36\"}}후후훗, {{delay frames=\"16\"}}왜 하필 1시간이냐구?{{fun_00010007 arg=\"\"}}\n{{anim id=\"6\"}}생각해봐,{{delay frames=\"32\"}}\n{{anim id=\"35\"}}왠지 로맨틱하지 않아?{{fun_0005000F arg=\"0x00002800\"}}\n데려올까?\n으익ー 싫어!",
      "USen": "{{anim id=\"6\"}}So I really need to see {{fun_00010011 arg=\"0x0100\"}}\nwithin the hour, {{fun_00080005 arg=\"\"}}!{{delay frames=\"20\"}} Why\none hour?\n{{anim id=\"36\"}}Heh. Because everything seems\nmore intense when you add a time\nlimit! {{fun_00010007 arg=\"\"}}{{anim id=\"6\"}}And {{delay frames=\"7\"}}I {{delay frames=\"7\"}}am {{delay frames=\"7\"}}IN{{delay frames=\"7\"}}TENSE!\nSo how about bringing {{fun_00010011 arg=\"0x0100\"}}\nhere for me within {{color id=\"2\"}}1 hour{{color id=\"65535\"}}?{{fun_0005000F arg=\"0x00002800\"}}\nSure, right away!\nUh, no.",
      "USes": "{{anim id=\"9\"}}¡Tengo que ver a {{fun_00010011 arg=\"0x0100\"}} antes\nde que pase {{color id=\"2\"}}una hora{{color id=\"65535\"}}, {{fun_00080005 arg=\"\"}}!{{delay frames=\"20\"}}\n¿Que por qué las prisas?\n{{anim id=\"36\"}}¡Pues porque vivimos en un mundo\nmoderno! {{fun_00010007 arg=\"\"}}{{anim id=\"6\"}}¡Todo va a la velocidad de\nla luz! Lo bueno, si rápido, mejor.\n¿Qué tal si me traes a {{fun_00010011 arg=\"0x0100\"}}\ncuanto antes?{{fun_0005000F arg=\"0x00002800\"}}\n¡Ahora mismo!\nNo",
      "USfr": "{{anim id=\"13\"}}Je dois voir {{fun_00010011 arg=\"0x0100\"}} dans l'heure\nqui vient, {{fun_00080005 arg=\"\"}}!{{delay frames=\"30\"}} Pourquoi\n{{color id=\"2\"}}d'ici {{color id=\"65535\"}}{{color id=\"2\"}}une heure{{color id=\"65535\"}}...?\n{{anim id=\"36\"}}Hé, {{delay frames=\"15\"}}parce que j'ai justement un trou\nd'une heure dans mon agenda,{{delay frames=\"8\"}} entre\ndeux interviews!\nAlors, vite, vite, {{delay frames=\"8\"}}va me chercher\n{{fun_00010011 arg=\"0x0100\"}} et amène-{{fun_0008000E arg=\"0x01CD04006C00650004006C0061000000\"}} ici, capito?{{fun_0005000F arg=\"0x00002800\"}}\nCapiche!\nPige pas."
    }
  },
  {
    "label": "005",
    "locale": {
      "EUde": "{{anim id=\"9\"}}{{fun_00010011 arg=\"0x0100\"}} und ich scheinen uns auf\nunseren Spaziergängen durch die\nStadt ständig zu verpassen.\nVielleicht ist es besser, wenn ich\neinfach hierbleibe und du mir\n{{fun_00010011 arg=\"0x0100\"}} vorbeibringst.{{delay frames=\"20\"}} Oder?{{fun_0005000F arg=\"0x15002800\"}}\nKann ich machen!\nNicht mein Problem.",
      "EUen": "{{anim id=\"9\"}}So here's my problem. I keep\nmissing {{fun_00010011 arg=\"0x0100\"}} on my walks\naround town.\nI thought if I stayed here, you could\nbring {{fun_00010011 arg=\"0x0100\"}} to me. OK?{{fun_0005000F arg=\"0x15002800\"}}\nI'll help!\nNo, sorry.",
      "EUes": "{{anim id=\"9\"}}Nunca veo a {{fun_00010011 arg=\"0x0100\"}} cuando\npaseo por {{fun_0003000E arg=\"\"}}{{fun_00050005 arg=\"\"}}. Me pregunto\nsi será u{{fun_0008000E arg=\"0x01CD02006E0004006E0061000000\"}} ermitañ{{fun_0008000E arg=\"0x01CD02006F00020061000000\"}} o si me evita.\nPara salir de dudas, necesito que\nbusques a {{fun_00010011 arg=\"0x0100\"}} y me l{{fun_0008000E arg=\"0x01CD02006F00020061000000\"}}\ntraigas hasta aquí. ¿Qué me dices?{{fun_0005000F arg=\"0x15002800\"}}\n¡Voy!\nNo me apetece",
      "EUfr": "{{anim id=\"9\"}}J'ai un gros souci : {{delay frames=\"15\"}}j'ai rendez-vous\navec {{fun_00010011 arg=\"0x0100\"}} mais dehors, y'a\ndes paparazzi planqués partout !\nAlors je dois rester ici,{{delay frames=\"15\"}} le temps\nqu'ils s'en aillent, tu vois.{{delay frames=\"30\"}} Mais ils ne\ns'intéresseront sûrement pas à toi...\nTu vas pouvoir aller me chercher\n{{fun_00010011 arg=\"0x0100\"}} tranquillement, pas\nvrai ?{{fun_0005000F arg=\"0x15002800\"}}\nJe vais essayer.\nNon mais je rêve !",
      "EUit": "{{anim id=\"9\"}}Ecco il mio problema: quando esco,\nnon riesco mai a incontrare\n{{fun_00010011 arg=\"0x0100\"}}.\nHo pensato che potrei restare qui e\ntu potresti portarmi qui {{fun_00010011 arg=\"0x0100\"}}.\nChe te ne pare?{{fun_0005000F arg=\"0x15002800\"}}\nOK, ti aiuto io!\nNo, non posso.",
      "JPja": "{{anim id=\"9\"}}{{ruby charSpan=\"2\" value=\"さいきん\"}}最近、すれちがいが{{ruby charSpan=\"1\" value=\"おお\"}}多くて{{delay frames=\"16\"}}\n{{fun_00010011 arg=\"0x0100\"}}{{fun_000D0005 arg=\"\"}}と\n{{ruby charSpan=\"1\" value=\"あ\"}}会ってないんだぁ、{{delay frames=\"8\"}}{{fun_00070005 arg=\"\"}}！\n{{anim id=\"6\"}}{{fun_00080005 arg=\"\"}}{{fun_000D0005 arg=\"\"}}、キミ{{delay frames=\"16\"}}\nボク{{ruby charSpan=\"1\" value=\"たち\"}}達の　キューピットに\nなってくれないかい？\n{{anim id=\"37\"}}ボク、この{{ruby charSpan=\"2\" value=\"へや\"}}部屋で{{ruby charSpan=\"1\" value=\"ま\"}}待ってるから{{delay frames=\"16\"}}\n{{fun_00010011 arg=\"0x0100\"}}{{fun_000D0005 arg=\"\"}}を　\nココへ　{{ruby charSpan=\"1\" value=\"つ\"}}連れて{{ruby charSpan=\"1\" value=\"き\"}}来て{{ruby charSpan=\"1\" value=\"ほ\"}}欲しいんだ\n{{anim id=\"23\"}}どうだい？　{{delay frames=\"16\"}}やってくれるかい？\n{{delay frames=\"8\"}}{{fun_00070005 arg=\"\"}}？{{fun_0005000F arg=\"0x15002800\"}}\nまかせて！\nゴメン",
      "KRko": "{{anim id=\"9\"}}요즘 자꾸 엇갈리기만 해서{{delay frames=\"16\"}}\n{{fun_00010011 arg=\"0x0100\"}}{{fun_0007000E arg=\"0x020070AD020091C5\"}}이랑\n만날 수가 없네, {{delay frames=\"8\"}}{{fun_00070005 arg=\"\"}}!\n{{anim id=\"6\"}}{{fun_00080005 arg=\"\"}}{{fun_0006000E arg=\"0x020070AD020091C5\"}}, 그대가{{delay frames=\"16\"}}\n우리들의 큐피드가\n되어주지 않겠어?\n{{anim id=\"37\"}}나 이 집에서 기다릴 테니까{{delay frames=\"16\"}}\n{{fun_00010011 arg=\"0x0100\"}}{{fun_0007000E arg=\"0x020070AD020091C5\"}}을　\n여기에 좀 데려와줬으면 좋겠어\n{{anim id=\"23\"}}어때? {{delay frames=\"16\"}}해줄 수 있겠어?\n{{delay frames=\"8\"}}{{fun_00070005 arg=\"\"}}?{{fun_0005000F arg=\"0x15002800\"}}\n맡겨 둬!\n미안",
      "USen": "{{anim id=\"9\"}}So here's my problem. I keep\nmissing {{fun_00010011 arg=\"0x0100\"}} on my walks\naround town.\nI thought if I stayed here, you could\nbring {{fun_00010011 arg=\"0x0100\"}} to me. OK?{{fun_0005000F arg=\"0x15002800\"}}\nI'll help!\nNo, sorry.",
      "USes": "{{anim id=\"9\"}}Nunca veo a {{fun_00010011 arg=\"0x0100\"}} cuando\npaseo por {{fun_0003000E arg=\"\"}}{{fun_00050005 arg=\"\"}}. Me pregunto\nsi será u{{fun_0008000E arg=\"0x01CD02006E0004006E0061000000\"}} ermitañ{{fun_0008000E arg=\"0x01CD02006F00020061000000\"}} o si me evita.\nPara salir de dudas, necesito que\nbusques a {{fun_00010011 arg=\"0x0100\"}} y me l{{fun_0008000E arg=\"0x01CD02006F00020061000000\"}}\ntraigas hasta aquí. ¿Qué me dices?{{fun_0005000F arg=\"0x15002800\"}}\n¡Voy!\nNo me apetece",
      "USfr": "{{anim id=\"9\"}}J'ai un gros souci : {{delay frames=\"15\"}}j'ai rendez-vous\navec {{fun_00010011 arg=\"0x0100\"}} mais dehors, y'a\ndes paparazzi planqués partout!\nAlors je dois rester ici,{{delay frames=\"15\"}} le temps\nqu'ils s'en aillent, tu vois.{{delay frames=\"30\"}} Mais ils ne\ns'intéresseront sûrement pas à toi...\nTu vas pouvoir aller me chercher\n{{fun_00010011 arg=\"0x0100\"}} tranquillement, pas\nvrai?{{fun_0005000F arg=\"0x15002800\"}}\nJe vais essayer.\nNon mais je rêve!"
    }
  },
  {
    "label": "006",
    "locale": {
      "EUde": "",
      "EUen": "",
      "EUes": "",
      "EUfr": "",
      "EUit": "",
      "JPja": "",
      "KRko": "",
      "USen": "",
      "USes": "",
      "USfr": ""
    }
  },
  {
    "label": "007",
    "locale": {
      "EUde": "{{anim id=\"15\"}}Du hilfst mir wirklich, {{fun_00080005 arg=\"\"}}?{{fun_00010007 arg=\"\"}}\n{{anim id=\"37\"}}Versuch es bitte innerhalb\n{{color id=\"2\"}}einer Stunde{{color id=\"65535\"}}.",
      "EUen": "{{anim id=\"15\"}}You'll do it? Great! I can always\ncount on you, {{fun_00080005 arg=\"\"}}.{{fun_00010007 arg=\"\"}}\n{{anim id=\"37\"}}Do it within {{color id=\"2\"}}1 hour{{color id=\"65535\"}}, OK?",
      "EUes": "{{anim id=\"15\"}}¿Lo harás? ¡Genial, {{fun_00080005 arg=\"\"}}!{{fun_00010007 arg=\"\"}}\n{{anim id=\"37\"}}Tarda menos de {{color id=\"2\"}}una hora{{color id=\"65535\"}}, ¿vale?\nNo me gusta esperar.",
      "EUfr": "{{anim id=\"15\"}}Parfait ! Je peux toujours compter\nsur toi, {{fun_00080005 arg=\"\"}} !{{fun_00010007 arg=\"\"}}{{anim id=\"37\"}} Je te donne\n{{color id=\"2\"}}une heure{{color id=\"65535\"}}, pas plus, OK ?",
      "EUit": "{{anim id=\"15\"}}Lo faresti sul serio? Uaaau!\nSei {{fun_0006000E arg=\"0x100075006E00200061006D00690063006F00100075006E00270061006D00690063006100\"}}, {{fun_00080005 arg=\"\"}}.{{fun_00010007 arg=\"\"}}\n{{anim id=\"37\"}}Allora, ti aspetto entro {{color id=\"2\"}}un'ora{{color id=\"65535\"}}, OK?",
      "JPja": "{{anim id=\"15\"}}えっ？　いいのかい？{{delay frames=\"16\"}}\nさすが　{{fun_00080005 arg=\"\"}}{{fun_000D0005 arg=\"\"}}だ！{{pageBreak}}{{anim id=\"37\"}}とりあえず、{{color id=\"2\"}}1{{ruby charSpan=\"2\" value=\"じかん\"}}時間{{color id=\"65535\"}}は{{ruby charSpan=\"1\" value=\"ま\"}}待ってるから{{delay frames=\"16\"}}\nそれまでには　{{ruby charSpan=\"1\" value=\"つ\"}}連れて{{ruby charSpan=\"1\" value=\"き\"}}来てくれよ\n{{delay frames=\"8\"}}{{fun_00070005 arg=\"\"}}",
      "KRko": "{{anim id=\"15\"}}진짜? 해줄 거야?{{delay frames=\"16\"}}\n역시 {{fun_00080005 arg=\"\"}}{{fun_0006000E arg=\"0x020070AD020091C5\"}}이야!{{pageBreak}}{{anim id=\"37\"}}최대 {{color id=\"2\"}}1시간 {{color id=\"65535\"}}정도는 기다릴 테니까{{delay frames=\"16\"}}\n그 안에만 데리고 와줘,\n{{delay frames=\"8\"}}{{fun_00070005 arg=\"\"}}",
      "USen": "{{anim id=\"15\"}}You'll do it? Great! I can always\ncount on you, {{fun_00080005 arg=\"\"}}.{{fun_00010007 arg=\"\"}}\n{{anim id=\"37\"}}Do it within {{color id=\"2\"}}1 hour{{color id=\"65535\"}}, OK?",
      "USes": "{{anim id=\"15\"}}¿Lo harás? ¡Genial, {{fun_00080005 arg=\"\"}}!{{fun_00010007 arg=\"\"}}\n{{anim id=\"37\"}}Tarda menos de {{color id=\"2\"}}una hora{{color id=\"65535\"}}, ¿vale?\nNo me gusta esperar.",
      "USfr": "{{anim id=\"15\"}}Parfait! Je peux toujours compter\nsur toi, {{fun_00080005 arg=\"\"}}!{{fun_00010007 arg=\"\"}}{{anim id=\"37\"}} Je te donne\n{{color id=\"2\"}}une heure{{color id=\"65535\"}}, pas plus, OK?"
    }
  },
  {
    "label": "008",
    "locale": {
      "EUde": "{{anim id=\"5\"}}Danke, dass du mir hilfst,\n{{fun_00080005 arg=\"\"}}! {{fun_00010007 arg=\"\"}}{{anim id=\"37\"}}Schaffst du es\ninnerhalb {{color id=\"2\"}}einer Stunde{{color id=\"65535\"}}?",
      "EUen": "{{anim id=\"5\"}}Wow, thanks, {{fun_00080005 arg=\"\"}}! I knew\nyou'd help me out, {{fun_00070005 arg=\"\"}}.{{fun_00010007 arg=\"\"}}\n{{anim id=\"37\"}}Within {{color id=\"2\"}}1 hour{{color id=\"65535\"}}, OK?",
      "EUes": "{{anim id=\"5\"}}¡Gracias, {{fun_00080005 arg=\"\"}}! Sabía que\npodía contar contigo, {{fun_00070005 arg=\"\"}}.{{fun_00010007 arg=\"\"}}\n{{anim id=\"37\"}}Tarda menos de {{color id=\"2\"}}una hora{{color id=\"65535\"}}, ¿vale?",
      "EUfr": "{{anim id=\"5\"}}Waouh, super, {{fun_00080005 arg=\"\"}} ! T'es\ntoujours là pour moi, toi !{{fun_00010007 arg=\"\"}} {{anim id=\"37\"}}Essaie de\nfaire ça en moins d'{{color id=\"2\"}}une heure{{color id=\"65535\"}}, OK ?",
      "EUit": "{{anim id=\"5\"}}Oh, gracias, {{fun_00080005 arg=\"\"}}! Sapevo che\nmi avresti aiutato, {{fun_00070005 arg=\"\"}}.{{fun_00010007 arg=\"\"}}\n{{anim id=\"37\"}}Torna qui entro {{color id=\"2\"}}un'ora{{color id=\"65535\"}}, OK?",
      "JPja": "{{anim id=\"5\"}}やってくれるんだね？{{delay frames=\"16\"}}\nありがとう、{{fun_00080005 arg=\"\"}}{{fun_000D0005 arg=\"\"}}！{{pageBreak}}{{anim id=\"37\"}}じゃあ、{{color id=\"2\"}}1{{ruby charSpan=\"2\" value=\"じかん\"}}時間{{ruby charSpan=\"2\" value=\"いない\"}}以内{{color id=\"65535\"}}だよ？{{delay frames=\"32\"}}\nそれまでには　{{ruby charSpan=\"1\" value=\"つ\"}}連れて\nもどってきて{{ruby charSpan=\"1\" value=\"ほ\"}}欲しい、{{delay frames=\"8\"}}{{fun_00070005 arg=\"\"}}",
      "KRko": "{{anim id=\"5\"}}해주는 거지?{{delay frames=\"16\"}}\n고마워, {{fun_00080005 arg=\"\"}}{{fun_0006000E arg=\"0x020070AD020091C5\"}}!{{pageBreak}}{{anim id=\"37\"}}그럼 {{color id=\"2\"}}1시간 안{{color id=\"65535\"}}으로야{{delay frames=\"32\"}}\n그 안에는 꼭\n데려와줘! {{delay frames=\"8\"}}{{fun_00070005 arg=\"\"}}!",
      "USen": "{{anim id=\"5\"}}Wow, thanks, {{fun_00080005 arg=\"\"}}! I knew\nyou'd help me out, {{fun_00070005 arg=\"\"}}.{{fun_00010007 arg=\"\"}}\n{{anim id=\"37\"}}Within {{color id=\"2\"}}1 hour{{color id=\"65535\"}}, OK?",
      "USes": "{{anim id=\"5\"}}¡Gracias, {{fun_00080005 arg=\"\"}}! Sabía que\npodía contar contigo, {{fun_00070005 arg=\"\"}}.{{fun_00010007 arg=\"\"}}\n{{anim id=\"37\"}}Tarda menos de {{color id=\"2\"}}una hora{{color id=\"65535\"}}, ¿vale?",
      "USfr": "{{anim id=\"5\"}}Waouh, super, {{fun_00080005 arg=\"\"}}! T'es\ntoujours là pour moi, toi!{{fun_00010007 arg=\"\"}} {{anim id=\"37\"}}Essaie de\nfaire ça en moins d'{{color id=\"2\"}}une heure{{color id=\"65535\"}}, OK?"
    }
  },
  {
    "label": "009",
    "locale": {
      "EUde": "{{anim id=\"37\"}}Du bist meine Rettung, {{fun_00080005 arg=\"\"}}.{{delay frames=\"20\"}}\nEs muss aber innerhalb {{color id=\"2\"}}einer Stunde\n{{color id=\"65535\"}}sein, {{fun_00070005 arg=\"\"}}.",
      "EUen": "{{anim id=\"37\"}}You're a lifesaver, {{fun_00080005 arg=\"\"}}.\nI'll need that meeting within\n{{color id=\"2\"}}1 hour{{color id=\"65535\"}}, {{fun_00070005 arg=\"\"}}, OK?",
      "EUes": "{{anim id=\"37\"}}Me has salvado, {{fun_00080005 arg=\"\"}}.\nEspero verte por aquí antes de\n{{color id=\"2\"}}una hora{{color id=\"65535\"}}, ¿vale, {{fun_00070005 arg=\"\"}}?",
      "EUfr": "{{anim id=\"37\"}}Cool de pouvoir compter sur ses\nfans, {{fun_00080005 arg=\"\"}} ! {{delay frames=\"30\"}}{{anim id=\"37\"}}Mais je te donne\n{{color id=\"2\"}}une heure{{color id=\"65535\"}}, pas plus. OK ?",
      "EUit": "{{anim id=\"37\"}}Mi hai salvato la vita, {{fun_00080005 arg=\"\"}}.\nMa mi raccomando, torna qui entro\n{{color id=\"2\"}}un'ora{{color id=\"65535\"}}, {{fun_00070005 arg=\"\"}}, OK?",
      "JPja": "{{anim id=\"37\"}}キミは　{{ruby charSpan=\"1\" value=\"やさ\"}}優しいんだね？{{delay frames=\"16\"}}\nじゃあ、{{color id=\"2\"}}1{{ruby charSpan=\"2\" value=\"じかん\"}}時間{{ruby charSpan=\"2\" value=\"いない\"}}以内{{color id=\"65535\"}}によろしく！",
      "KRko": "{{anim id=\"37\"}}그대 참 착하네?{{delay frames=\"16\"}}\n그럼 {{color id=\"2\"}}1시간 안{{color id=\"65535\"}}으로 잘 부탁해!",
      "USen": "{{anim id=\"37\"}}You're a lifesaver, {{fun_00080005 arg=\"\"}}.\nI'll need that meeting within\n{{color id=\"2\"}}1 hour{{color id=\"65535\"}}, {{fun_00070005 arg=\"\"}}, OK?",
      "USes": "{{anim id=\"37\"}}Me has salvado, {{fun_00080005 arg=\"\"}}.\nEspero verte por aquí antes de\n{{color id=\"2\"}}una hora{{color id=\"65535\"}}, ¿vale, {{fun_00070005 arg=\"\"}}?",
      "USfr": "{{anim id=\"37\"}}Cool de pouvoir compter sur ses\nfans, {{fun_00080005 arg=\"\"}}! {{delay frames=\"30\"}}{{anim id=\"37\"}}Mais je te donne\n{{color id=\"2\"}}une heure{{color id=\"65535\"}}, pas plus. OK?"
    }
  },
  {
    "label": "010",
    "locale": {
      "EUde": "",
      "EUen": "",
      "EUes": "",
      "EUfr": "",
      "EUit": "",
      "JPja": "",
      "KRko": "",
      "USen": "",
      "USes": "",
      "USfr": ""
    }
  },
  {
    "label": "011",
    "locale": {
      "EUde": "{{anim id=\"15\"}}Was?{{delay frames=\"20\"}} Du willst mir nicht helfen?{{fun_00010007 arg=\"\"}}\n{{anim id=\"37\"}}Schon gut. {{delay frames=\"20\"}}Heute ist einfach nicht\nmein Glückstag, {{fun_00070005 arg=\"\"}}.",
      "EUen": "{{anim id=\"15\"}}What, really? You won't help?{{fun_00010007 arg=\"\"}}\n{{anim id=\"37\"}}That's OK. Must not be my\nlucky day, {{fun_00070005 arg=\"\"}}.",
      "EUes": "{{anim id=\"15\"}}¿Có-{{delay frames=\"10\"}}cómo? ¿No me vas a echar\nun cable?{{fun_00010007 arg=\"\"}} {{anim id=\"37\"}}En fin, supongo que hoy\nno es mi día, {{fun_00070005 arg=\"\"}}.",
      "EUfr": "{{anim id=\"15\"}}Comment ? T'acceptes pas ?{{fun_00010007 arg=\"\"}}\n{{anim id=\"37\"}}Ah ouais, je vois. {{delay frames=\"30\"}}On se dégonfle,\nhein ? {{fun_0003000E arg=\"\"}}{{fun_00070005 arg=\"\"}}.",
      "EUit": "{{anim id=\"15\"}}Oh, davvero? Non mi aiuti?{{fun_00010007 arg=\"\"}}\n{{anim id=\"37\"}}Va bene. Forse oggi non è il mio\ngiorno fortunato, {{fun_00070005 arg=\"\"}}.",
      "JPja": "{{delay frames=\"4\"}}・{{delay frames=\"4\"}}・{{delay frames=\"4\"}}・{{delay frames=\"4\"}}{{anim id=\"15\"}}え？{{delay frames=\"32\"}}\n{{anim id=\"37\"}}うん、わかってる！{{delay frames=\"16\"}}\nそんな{{ruby charSpan=\"1\" value=\"ひ\"}}日もあるよね？",
      "KRko": "{{delay frames=\"4\"}}・{{delay frames=\"4\"}}・{{delay frames=\"4\"}}・{{delay frames=\"4\"}}{{anim id=\"15\"}}엥?{{delay frames=\"32\"}}\n{{anim id=\"37\"}}아, 괜찮아{{delay frames=\"16\"}}\n뭐 그런 날도 있는 거지 뭐",
      "USen": "{{anim id=\"15\"}}What, really? You won't help?{{fun_00010007 arg=\"\"}}\n{{anim id=\"37\"}}That's OK. Must not be my\nlucky day, {{fun_00070005 arg=\"\"}}.",
      "USes": "{{anim id=\"15\"}}¿Có-{{delay frames=\"10\"}}cómo? ¿No me vas a echar\nun cable?{{fun_00010007 arg=\"\"}} {{anim id=\"37\"}}En fin, supongo que hoy\nno es mi día, {{fun_00070005 arg=\"\"}}.",
      "USfr": "{{anim id=\"15\"}}Comment? T'acceptes pas?{{fun_00010007 arg=\"\"}}\n{{anim id=\"37\"}}Ah ouais, je vois. {{delay frames=\"30\"}}On se dégonfle,\nhein? {{fun_0003000E arg=\"\"}}{{fun_00070005 arg=\"\"}}."
    }
  },
  {
    "label": "012",
    "locale": {
      "EUde": "{{anim id=\"19\"}}Wow, das war deutlich, {{fun_00080005 arg=\"\"}}.{{fun_00010007 arg=\"\"}}\n{{anim id=\"36\"}}Keine Sorge, mir wird schon eine\nandere Möglichkeit einfallen.",
      "EUen": "{{anim id=\"19\"}}Wow, that's harsh, {{fun_00080005 arg=\"\"}}.{{fun_00010007 arg=\"\"}}\n{{anim id=\"36\"}}Heh. Don't worry. I'll meet up\nsome other way.",
      "EUes": "{{anim id=\"19\"}}¡Qué sec{{fun_0006000E arg=\"0x02006F0002006100\"}}, {{fun_00080005 arg=\"\"}}!{{fun_00010007 arg=\"\"}}\n{{anim id=\"36\"}}¡Menos mal que soy un tipo duro y\nque no has herido mis sentimientos!",
      "EUfr": "{{anim id=\"19\"}}Eh ben, il en faut du courage pour\nme dire non, {{fun_00080005 arg=\"\"}}.{{fun_00010007 arg=\"\"}} {{anim id=\"36\"}}Ou serait-\nce de l'inconscience ? Hé hé.",
      "EUit": "{{anim id=\"19\"}}Oh, sorbole, {{fun_00080005 arg=\"\"}}.{{fun_00010007 arg=\"\"}}\n{{anim id=\"36\"}}Ma vabbè, non c'è problema.\nCi incontreremo in un altro modo.",
      "JPja": "{{anim id=\"19\"}}そうかぁ～{{delay frames=\"8\"}}・{{delay frames=\"8\"}}・{{delay frames=\"8\"}}・{{delay frames=\"32\"}}\n{{anim id=\"36\"}}でも、そんな{{ruby charSpan=\"2\" value=\"しう\"}}仕打ちも{{delay frames=\"16\"}}\nボク　{{ruby charSpan=\"1\" value=\"きら\"}}嫌いじゃないよ",
      "KRko": "{{anim id=\"19\"}}그렇구나{{delay frames=\"8\"}}・{{delay frames=\"8\"}}・{{delay frames=\"8\"}}・{{delay frames=\"32\"}}\n{{anim id=\"36\"}}그치만 그런 반응도{{delay frames=\"16\"}}\n난 싫지만은 않아",
      "USen": "{{anim id=\"19\"}}Wow, that's harsh, {{fun_00080005 arg=\"\"}}.{{fun_00010007 arg=\"\"}}\n{{anim id=\"36\"}}Heh. Don't worry. I'll meet up\nsome other way.",
      "USes": "{{anim id=\"19\"}}¡Qué sec{{fun_0006000E arg=\"0x02006F0002006100\"}}, {{fun_00080005 arg=\"\"}}!{{fun_00010007 arg=\"\"}}\n{{anim id=\"36\"}}¡Menos mal que soy un tipo duro y\nque no has herido mis sentimientos!",
      "USfr": "{{anim id=\"19\"}}Eh ben, il en faut du courage pour\nme dire non, {{fun_00080005 arg=\"\"}}.{{fun_00010007 arg=\"\"}} {{anim id=\"36\"}}Ou serait-\nce de l'inconscience? Hé hé."
    }
  },
  {
    "label": "013",
    "locale": {
      "EUde": "{{anim id=\"27\"}}Wenn du mir nicht helfen\nwillst, muss ich mir wohl\nwas anderes überlegen.",
      "EUen": "{{anim id=\"37\"}}You won't help me? Well, I guess\nI'll figure something else out.",
      "EUes": "{{anim id=\"37\"}}¿Pasas de mí? Bueno, supongo\nque ya me las apañaré...",
      "EUfr": "{{anim id=\"18\"}}Tu veux pas ? {{fun_00010007 arg=\"\"}}{{anim id=\"6\"}}Bah, {{delay frames=\"15\"}}je demanderai à\nun autre fan, t'inquiète, {{delay frames=\"15\"}}j'en ai plein\nqui seront ravis de m'aider, eux !",
      "EUit": "{{anim id=\"37\"}}Non vuoi aiutarmi? Beh, si vede\nche dovrò inventarmi qualcos'altro.",
      "JPja": "{{anim id=\"37\"}}わかった、{{ruby charSpan=\"2\" value=\"あんしん\"}}安心して！{{delay frames=\"16\"}}\nキミを　{{ruby charSpan=\"1\" value=\"せ\"}}責めたりしないから{{delay frames=\"4\"}}・{{delay frames=\"4\"}}・{{delay frames=\"4\"}}・{{delay frames=\"4\"}}",
      "KRko": "{{anim id=\"37\"}}알았어, 걱정하지 마!{{delay frames=\"16\"}}\n원망 같은 건 안 할 테니까{{delay frames=\"4\"}}・{{delay frames=\"4\"}}・{{delay frames=\"4\"}}・{{delay frames=\"4\"}}",
      "USen": "{{anim id=\"37\"}}You won't help me? Well, I guess\nI'll figure something else out.",
      "USes": "{{anim id=\"37\"}}¿Pasas de mí? Bueno, supongo\nque ya me las apañaré...",
      "USfr": "{{anim id=\"18\"}}Tu veux pas? {{fun_00010007 arg=\"\"}}{{anim id=\"6\"}}Bah, {{delay frames=\"15\"}}je demanderai à\nun autre fan, t'inquiète, {{delay frames=\"15\"}}j'en ai plein\nqui seront ravis de m'aider, eux!"
    }
  },
  {
    "label": "014",
    "locale": {
      "EUde": "",
      "EUen": "",
      "EUes": "",
      "EUfr": "",
      "EUit": "",
      "JPja": "",
      "KRko": "",
      "USen": "",
      "USes": "",
      "USfr": ""
    }
  },
  {
    "label": "015",
    "locale": {
      "EUde": "",
      "EUen": "",
      "EUes": "",
      "EUfr": "",
      "EUit": "",
      "JPja": "",
      "KRko": "",
      "USen": "",
      "USes": "",
      "USfr": ""
    }
  },
  {
    "label": "016",
    "locale": {
      "EUde": "",
      "EUen": "",
      "EUes": "",
      "EUfr": "",
      "EUit": "",
      "JPja": "",
      "KRko": "",
      "USen": "",
      "USes": "",
      "USfr": ""
    }
  },
  {
    "label": "017",
    "locale": {
      "EUde": "",
      "EUen": "",
      "EUes": "",
      "EUfr": "",
      "EUit": "",
      "JPja": "",
      "KRko": "",
      "USen": "",
      "USes": "",
      "USfr": ""
    }
  },
  {
    "label": "018",
    "locale": {
      "EUde": "",
      "EUen": "",
      "EUes": "",
      "EUfr": "",
      "EUit": "",
      "JPja": "",
      "KRko": "",
      "USen": "",
      "USes": "",
      "USfr": ""
    }
  },
  {
    "label": "019",
    "locale": {
      "EUde": "",
      "EUen": "",
      "EUes": "",
      "EUfr": "",
      "EUit": "",
      "JPja": "",
      "KRko": "",
      "USen": "",
      "USes": "",
      "USfr": ""
    }
  }
]