﻿[
  {
    "label": "001",
    "locale": {
      "EUde": "",
      "EUen": "",
      "EUes": "",
      "EUfr": "",
      "EUit": "",
      "JPja": "",
      "KRko": "",
      "USen": "",
      "USes": "",
      "USfr": ""
    }
  },
  {
    "label": "002",
    "locale": {
      "EUde": "{{fun_00020009 arg=\"0x0500060007000800\"}}",
      "EUen": "{{fun_00020009 arg=\"0x0500060007000800\"}}",
      "EUes": "{{fun_00020009 arg=\"0x0500060007000800\"}}",
      "EUfr": "{{fun_00020009 arg=\"0x0500060007000800\"}}",
      "EUit": "{{fun_00020009 arg=\"0x0500060007000800\"}}",
      "JPja": "{{fun_00020009 arg=\"0x0500060007000800\"}}",
      "KRko": "{{fun_00020009 arg=\"0x0500060007000800\"}}",
      "USen": "{{fun_00020009 arg=\"0x0500060007000800\"}}",
      "USes": "{{fun_00020009 arg=\"0x0500060007000800\"}}",
      "USfr": "{{fun_00020009 arg=\"0x0500060007000800\"}}"
    }
  },
  {
    "label": "003",
    "locale": {
      "EUde": "{{fun_00000009 arg=\"0x09000A00\"}}",
      "EUen": "{{fun_00000009 arg=\"0x09000A00\"}}",
      "EUes": "{{fun_00000009 arg=\"0x09000A00\"}}",
      "EUfr": "{{fun_00000009 arg=\"0x09000A00\"}}",
      "EUit": "{{fun_00000009 arg=\"0x09000A00\"}}",
      "JPja": "{{fun_00000009 arg=\"0x09000A00\"}}",
      "KRko": "{{fun_00000009 arg=\"0x09000A00\"}}",
      "USen": "{{fun_00000009 arg=\"0x09000A00\"}}",
      "USes": "{{fun_00000009 arg=\"0x09000A00\"}}",
      "USfr": "{{fun_00000009 arg=\"0x09000A00\"}}"
    }
  },
  {
    "label": "004",
    "locale": {
      "EUde": "",
      "EUen": "",
      "EUes": "",
      "EUfr": "",
      "EUit": "",
      "JPja": "",
      "KRko": "",
      "USen": "",
      "USes": "",
      "USfr": ""
    }
  },
  {
    "label": "005",
    "locale": {
      "EUde": "{{anim id=\"37\"}}Der Laden hier hat echt so gut wie\nalles, oder?{{delay frames=\"8\"}} {{fun_0003000E arg=\"\"}}{{fun_00070005 arg=\"\"}}!",
      "EUen": "{{anim id=\"37\"}}This department store seems to\nhave almost everything, doesn't it?{{delay frames=\"8\"}}\n{{fun_0003000E arg=\"\"}}{{fun_00070005 arg=\"\"}}!",
      "EUes": "{{anim id=\"37\"}}Estas galerías comerciales tienen\nprácticamente de todo, ¿no te\nparece,{{delay frames=\"8\"}} {{fun_00070005 arg=\"\"}}?",
      "EUfr": "{{anim id=\"37\"}}On dirait qu'on trouve absolument\ntout dans ces galeries, pas vrai ?{{delay frames=\"8\"}}\n{{fun_0003000E arg=\"\"}}{{fun_00070005 arg=\"\"}} !",
      "EUit": "{{anim id=\"37\"}}Ai grandi magazzini c'è di tutto!\nNon trovi anche tu?{{delay frames=\"8\"}}\n{{fun_0003000E arg=\"\"}}{{fun_00070005 arg=\"\"}}!",
      "JPja": "{{anim id=\"37\"}}さすがに　デパートともなると{{delay frames=\"16\"}}\nいろんな{{ruby charSpan=\"1\" value=\"もの\"}}物が　{{ruby charSpan=\"1\" value=\"う\"}}売っているね、\n{{delay frames=\"8\"}}{{fun_00070005 arg=\"\"}}",
      "KRko": "{{anim id=\"37\"}}역시 백화점에는{{delay frames=\"16\"}}\n여러 가지 물건을 파는구나,\n{{delay frames=\"8\"}}{{fun_00070005 arg=\"\"}}",
      "USen": "{{anim id=\"37\"}}This department store seems to\nhave almost everything, doesn't it?{{delay frames=\"8\"}}\n{{fun_0003000E arg=\"\"}}{{fun_00070005 arg=\"\"}}!",
      "USes": "{{anim id=\"37\"}}Estas galerías comerciales tienen\nprácticamente de todo, ¿no te\nparece,{{delay frames=\"8\"}} {{fun_00070005 arg=\"\"}}?",
      "USfr": "{{anim id=\"37\"}}On dirait qu'on trouve absolument\ntout dans ces galeries, pas vrai?{{delay frames=\"8\"}}\n{{fun_0003000E arg=\"\"}}{{fun_00070005 arg=\"\"}}!"
    }
  },
  {
    "label": "006",
    "locale": {
      "EUde": "{{anim id=\"11\"}}{{delay frames=\"8\"}}Ich bin eigentlich gekommen, um\n{{fun_00100005 arg=\"0x0000\"}} zu kaufen{{delay frames=\"8\"}}.{{delay frames=\"8\"}}.{{delay frames=\"8\"}}.{{delay frames=\"32\"}}\n{{anim id=\"9\"}}Gibt's hier so was etwa nicht?",
      "EUen": "{{anim id=\"11\"}}{{delay frames=\"16\"}}Umm,{{delay frames=\"16\"}} I came to buy a pretzel, but{{delay frames=\"8\"}}.{{delay frames=\"8\"}}.{{delay frames=\"8\"}}.{{delay frames=\"32\"}}\n{{anim id=\"9\"}}maybe there's no food cart here?",
      "EUes": "{{anim id=\"11\"}}Mmm{{delay frames=\"16\"}},{{delay frames=\"16\"}} me pregunto dónde tendrán\nla sección de delicatesen{{delay frames=\"8\"}}.{{delay frames=\"8\"}}.{{delay frames=\"8\"}}.{{delay frames=\"32\"}}\n{{anim id=\"9\"}}¡Necesito comprar unas trufas!",
      "EUfr": "{{anim id=\"11\"}}{{delay frames=\"16\"}}Hmmm,{{delay frames=\"16\"}} je suis venu acheter un\nsandwich, mais{{delay frames=\"8\"}}.{{delay frames=\"8\"}}.{{delay frames=\"8\"}}.{{delay frames=\"32\"}} {{anim id=\"9\"}}apparemment ils\nen vendent pas ici.",
      "EUit": "{{anim id=\"11\"}}{{delay frames=\"16\"}}Mmmh,{{delay frames=\"16\"}} ero venuto a comprarmi\nun panino, ma{{delay frames=\"8\"}}.{{delay frames=\"8\"}}.{{delay frames=\"8\"}}.{{delay frames=\"32\"}} {{anim id=\"9\"}}forse non vendono\ncibo qui?!",
      "JPja": "{{anim id=\"11\"}}{{delay frames=\"16\"}}えっと、{{delay frames=\"16\"}}デパ{{ruby charSpan=\"2\" value=\"ちか\"}}地下で\nスイーツを　{{ruby charSpan=\"1\" value=\"か\"}}買いたいんだけど{{delay frames=\"8\"}}・{{delay frames=\"8\"}}・{{delay frames=\"8\"}}・{{delay frames=\"32\"}}\n{{anim id=\"9\"}}{{ruby charSpan=\"2\" value=\"ちか\"}}地下が　{{ruby charSpan=\"1\" value=\"な\"}}無いのかな？",
      "KRko": "{{anim id=\"11\"}}{{delay frames=\"16\"}}음, {{delay frames=\"16\"}}지하 식품관에서\n디저트를 좀 사고 싶은데{{delay frames=\"8\"}}・{{delay frames=\"8\"}}・{{delay frames=\"8\"}}・{{delay frames=\"32\"}}\n{{anim id=\"9\"}}지하는 없나?",
      "USen": "{{anim id=\"11\"}}{{delay frames=\"16\"}}Umm,{{delay frames=\"16\"}} I came to buy a pretzel, but{{delay frames=\"8\"}}.{{delay frames=\"8\"}}.{{delay frames=\"8\"}}.{{delay frames=\"32\"}}\n{{anim id=\"9\"}}maybe there's no food cart here?",
      "USes": "{{anim id=\"11\"}}Mmm{{delay frames=\"16\"}},{{delay frames=\"16\"}} me pregunto dónde tendrán\nla sección de delicatesen{{delay frames=\"8\"}}.{{delay frames=\"8\"}}.{{delay frames=\"8\"}}.{{delay frames=\"32\"}}\n{{anim id=\"9\"}}¡Necesito comprar unas trufas!",
      "USfr": "{{anim id=\"11\"}}{{delay frames=\"16\"}}Hmmm,{{delay frames=\"16\"}} je suis venu acheter un\nsandwich, mais{{delay frames=\"8\"}}.{{delay frames=\"8\"}}.{{delay frames=\"8\"}}.{{delay frames=\"32\"}} {{anim id=\"9\"}}apparemment ils\nen vendent pas ici."
    }
  },
  {
    "label": "007",
    "locale": {
      "EUde": "{{anim id=\"23\"}}{{delay frames=\"8\"}}Weißt du, in welchem Stockwerk die\nToiletten sind?{{delay frames=\"32\"}} {{anim id=\"36\"}}Gibt es hier\nüberhaupt Toiletten?",
      "EUen": "{{anim id=\"11\"}}{{delay frames=\"16\"}}Do you know what floor the boys'\nrestroom is on?{{delay frames=\"32\"}} {{delay frames=\"8\"}}.{{delay frames=\"8\"}}.{{delay frames=\"8\"}}.{{delay frames=\"8\"}}{{anim id=\"36\"}}Actually,{{delay frames=\"15\"}} does\nthis town even have restrooms?",
      "EUes": "{{anim id=\"11\"}}{{delay frames=\"16\"}}¿Sabes dónde están los servicios?\n{{delay frames=\"32\"}}Ahora que caigo{{delay frames=\"8\"}}.{{delay frames=\"8\"}}.{{delay frames=\"8\"}}.{{delay frames=\"8\"}}{{anim id=\"36\"}} ¡no hay aseos\npúblicos en todo el pueblo!",
      "EUfr": "{{anim id=\"23\"}}Tu sais où sont les toilettes pour\nhommes, par hasard ?{{pageBreak}}{{anim id=\"11\"}}Hmmm{{delay frames=\"8\"}}.{{delay frames=\"8\"}}.{{delay frames=\"8\"}}.{{delay frames=\"15\"}} {{anim id=\"36\"}}À la réflexion, un lieu\npublic avec des toilettes, c'est\nplutôt rare dans cette ville, non ?",
      "EUit": "{{anim id=\"23\"}}{{delay frames=\"16\"}}Sai a che piano è il bagno\ndei maschietti?{{delay frames=\"32\"}}{{anim id=\"36\"}} Ora che ci penso{{delay frames=\"8\"}}.{{delay frames=\"8\"}}.{{delay frames=\"8\"}}.{{delay frames=\"8\"}}\n{{delay frames=\"15\"}}ci sono i bagni pubblici in città?",
      "JPja": "{{anim id=\"11\"}}{{delay frames=\"16\"}}えっと、{{delay frames=\"20\"}}{{ruby charSpan=\"2\" value=\"だんし\"}}男子トイレは{{ruby charSpan=\"2\" value=\"なんかい\"}}何階かな？{{delay frames=\"32\"}}\n{{delay frames=\"8\"}}・{{delay frames=\"8\"}}・{{delay frames=\"8\"}}・{{delay frames=\"8\"}}{{anim id=\"36\"}}って、{{delay frames=\"15\"}}{{ruby charSpan=\"3\" value=\"きほんてき\"}}基本的に\nトイレは　{{ruby charSpan=\"1\" value=\"な\"}}無いみたいだね",
      "KRko": "{{anim id=\"11\"}}{{delay frames=\"16\"}}어디 보자, {{delay frames=\"20\"}}남자 화장실은 몇 층이지?{{delay frames=\"32\"}}\n{{delay frames=\"8\"}}・{{delay frames=\"8\"}}・{{delay frames=\"8\"}}・{{delay frames=\"8\"}}{{anim id=\"36\"}}어라?{{delay frames=\"15\"}}\n화장실은 없나 보네{{delay frames=\"8\"}}・{{delay frames=\"8\"}}・{{delay frames=\"8\"}}・",
      "USen": "{{anim id=\"11\"}}{{delay frames=\"16\"}}Do you know what floor the boys'\nrestroom is on?{{delay frames=\"32\"}} {{delay frames=\"8\"}}.{{delay frames=\"8\"}}.{{delay frames=\"8\"}}.{{delay frames=\"8\"}}{{anim id=\"36\"}}Actually,{{delay frames=\"15\"}} does\nthis town even have restrooms?",
      "USes": "{{anim id=\"11\"}}{{delay frames=\"16\"}}¿Sabes dónde están los servicios?\n{{delay frames=\"32\"}}Ahora que caigo{{delay frames=\"8\"}}.{{delay frames=\"8\"}}.{{delay frames=\"8\"}}.{{delay frames=\"8\"}}{{anim id=\"36\"}} ¡no hay aseos\npúblicos en todo el pueblo!",
      "USfr": "{{anim id=\"23\"}}Tu sais où sont les toilettes pour\nhommes, par hasard?{{pageBreak}}{{anim id=\"11\"}}Hmmm{{delay frames=\"8\"}}.{{delay frames=\"8\"}}.{{delay frames=\"8\"}}.{{delay frames=\"15\"}} {{anim id=\"36\"}}À la réflexion, un lieu\npublic avec des toilettes, c'est\nplutôt rare dans cette ville, non?"
    }
  },
  {
    "label": "008",
    "locale": {
      "EUde": "{{fun_0003000E arg=\"\"}}{{fun_00080005 arg=\"\"}},{{delay frames=\"16\"}} {{anim id=\"23\"}}hast du gefunden,\nwonach du suchst?{{pageBreak}}{{anim id=\"0\"}}Wenn nicht, solltest du vielleicht\nmorgen wiederkommen{{delay frames=\"8\"}}.{{delay frames=\"8\"}}.{{delay frames=\"8\"}}.{{delay frames=\"20\"}} {{anim id=\"37\"}}Das\nAngebot hier wechselt täglich!",
      "EUen": "{{fun_0003000E arg=\"\"}}{{fun_00080005 arg=\"\"}},{{delay frames=\"16\"}} {{anim id=\"23\"}}did you find what you\nwere looking for?{{pageBreak}}{{anim id=\"0\"}}If you didn't{{delay frames=\"8\"}}.{{delay frames=\"8\"}}.{{delay frames=\"8\"}}.{{delay frames=\"8\"}}you should come\nback tomorrow.{{delay frames=\"32\"}} {{anim id=\"37\"}}Their product\nselection changes daily!",
      "EUes": "Dime, {{fun_00080005 arg=\"\"}},{{delay frames=\"16\"}} {{anim id=\"23\"}}¿has encontrado\nlo que andabas buscando?{{pageBreak}}{{anim id=\"0\"}}Si no has tenido suerte{{delay frames=\"8\"}}.{{delay frames=\"8\"}}.{{delay frames=\"8\"}}.{{delay frames=\"8\"}} vuelve\nmañana.{{delay frames=\"32\"}} {{anim id=\"37\"}}¡Traen productos nuevos\na diario!",
      "EUfr": "Alors, {{fun_00080005 arg=\"\"}},{{delay frames=\"16\"}} {{anim id=\"23\"}}t'as trouvé ce\nque tu cherchais ?{{pageBreak}}{{anim id=\"0\"}}Si c'est pas le cas{{delay frames=\"8\"}}.{{delay frames=\"8\"}}.{{delay frames=\"8\"}}.{{delay frames=\"8\"}} hésite pas à\nrevenir demain.{{delay frames=\"32\"}} {{anim id=\"37\"}}Leur sélection de\nproduits change tous les jours !",
      "EUit": "{{fun_0003000E arg=\"\"}}{{fun_00080005 arg=\"\"}},{{delay frames=\"16\"}} {{anim id=\"23\"}}hai trovato quello\nche cercavi?{{pageBreak}}{{anim id=\"0\"}}Se non l'hai trovato{{delay frames=\"8\"}}.{{delay frames=\"8\"}}.{{delay frames=\"8\"}}.{{delay frames=\"8\"}} ti consiglio\ndi tornare domani.{{delay frames=\"32\"}} {{anim id=\"37\"}}Qui i prodotti\ncambiano ogni giorno!",
      "JPja": "お{{ruby charSpan=\"1\" value=\"き\"}}気に{{ruby charSpan=\"1\" value=\"い\"}}入りの{{ruby charSpan=\"2\" value=\"しょうひん\"}}商品には、{{delay frames=\"16\"}}\n{{anim id=\"23\"}}{{ruby charSpan=\"2\" value=\"であ\"}}出会えたかい？　{{delay frames=\"8\"}}{{fun_00080005 arg=\"\"}}{{fun_000D0005 arg=\"\"}}？{{pageBreak}}{{anim id=\"0\"}}まだなら{{delay frames=\"8\"}}・{{delay frames=\"8\"}}・{{delay frames=\"8\"}}・{{delay frames=\"8\"}}また\n{{ruby charSpan=\"2\" value=\"あした\"}}明日　{{ruby charSpan=\"1\" value=\"き\"}}来てみるといいよ{{delay frames=\"32\"}}\n{{anim id=\"37\"}}{{ruby charSpan=\"1\" value=\"しな\"}}品ぞろえが　{{ruby charSpan=\"1\" value=\"か\"}}変わってるからさ！",
      "KRko": "마음에 드는 상품은{{delay frames=\"16\"}}\n{{anim id=\"23\"}}찾았어? {{delay frames=\"8\"}}{{fun_00080005 arg=\"\"}}{{fun_0006000E arg=\"0x020070AD020091C5\"}}?{{pageBreak}}{{anim id=\"0\"}}아직 못 찾았으면{{delay frames=\"8\"}}・{{delay frames=\"8\"}}・{{delay frames=\"8\"}}・{{delay frames=\"8\"}}\n내일 또 와봐{{delay frames=\"32\"}}\n{{anim id=\"37\"}}진열 상품이 바뀌어 있을 거야!",
      "USen": "{{fun_0003000E arg=\"\"}}{{fun_00080005 arg=\"\"}},{{delay frames=\"16\"}} {{anim id=\"23\"}}did you find what you\nwere looking for?{{pageBreak}}{{anim id=\"0\"}}If you didn't{{delay frames=\"8\"}}.{{delay frames=\"8\"}}.{{delay frames=\"8\"}}.{{delay frames=\"8\"}}you should come\nback tomorrow.{{delay frames=\"32\"}} {{anim id=\"37\"}}Their product\nselection changes daily!",
      "USes": "Dime, {{fun_00080005 arg=\"\"}},{{delay frames=\"16\"}} {{anim id=\"23\"}}¿has encontrado\nlo que andabas buscando?{{pageBreak}}{{anim id=\"0\"}}Si no has tenido suerte{{delay frames=\"8\"}}.{{delay frames=\"8\"}}.{{delay frames=\"8\"}}.{{delay frames=\"8\"}} vuelve\nmañana.{{delay frames=\"32\"}} {{anim id=\"37\"}}¡Traen productos nuevos\na diario!",
      "USfr": "Alors, {{fun_00080005 arg=\"\"}},{{delay frames=\"16\"}} {{anim id=\"23\"}}t'as trouvé ce\nque tu cherchais?{{pageBreak}}{{anim id=\"0\"}}Si c'est pas le cas{{delay frames=\"8\"}}.{{delay frames=\"8\"}}.{{delay frames=\"8\"}}.{{delay frames=\"8\"}} hésite pas à\nrevenir demain.{{delay frames=\"32\"}} {{anim id=\"37\"}}Leur sélection de\nproduits change tous les jours!"
    }
  },
  {
    "label": "009",
    "locale": {
      "EUde": "{{anim id=\"23\"}}Gibt es in deiner Heimatstadt auch\nso ein Kaufhaus,{{delay frames=\"8\"}} {{fun_00080005 arg=\"\"}}?{{pageBreak}}{{anim id=\"15\"}}Tut mir leid, falls ich einen wunden\nPunkt getroffen habe{{delay frames=\"8\"}}.{{delay frames=\"8\"}}.{{delay frames=\"8\"}}.",
      "EUen": "{{anim id=\"23\"}}Do you even have a department\nstore in your town,{{delay frames=\"8\"}} {{fun_00080005 arg=\"\"}}?{{pageBreak}}{{anim id=\"9\"}}Oh, I'm sorry{{delay frames=\"8\"}}.{{delay frames=\"8\"}}.{{delay frames=\"8\"}}.{{delay frames=\"32\"}} I didn't mean to\nrub it in or anything if you don't{{delay frames=\"8\"}}.{{delay frames=\"8\"}}.{{delay frames=\"8\"}}.",
      "EUes": "{{anim id=\"23\"}}¿Tenéis unas galerías comerciales\nen tu pueblo,{{delay frames=\"8\"}} {{fun_00080005 arg=\"\"}}?{{pageBreak}}{{anim id=\"9\"}}Huy, perdona{{delay frames=\"8\"}}.{{delay frames=\"32\"}} No pretendía darte\nenvidia{{delay frames=\"8\"}}.{{delay frames=\"8\"}}.{{delay frames=\"8\"}}.",
      "EUfr": "{{anim id=\"23\"}}Y'a aussi des galeries dans ta ville,{{delay frames=\"8\"}}\n{{fun_00080005 arg=\"\"}} ?{{pageBreak}}{{anim id=\"9\"}}Oh, navré si t'as pas cette chance{{delay frames=\"8\"}}.{{delay frames=\"8\"}}.{{delay frames=\"8\"}}.{{delay frames=\"32\"}}\n{{anim id=\"36\"}}Je voulais pas te froisser{{delay frames=\"8\"}}.{{delay frames=\"8\"}}.{{delay frames=\"8\"}}.{{delay frames=\"15\"}} Hé hé.",
      "EUit": "{{anim id=\"23\"}}Non ci sono i grandi magazzini\nnella tua città,{{delay frames=\"8\"}} {{fun_00080005 arg=\"\"}}?{{pageBreak}}{{anim id=\"9\"}}Oh, scusami{{delay frames=\"8\"}}.{{delay frames=\"8\"}}.{{delay frames=\"8\"}}.{{delay frames=\"32\"}} Non avevo nessuna\nintenzione di metterti a disagio{{delay frames=\"8\"}}.{{delay frames=\"8\"}}.{{delay frames=\"8\"}}.",
      "JPja": "キミの{{ruby charSpan=\"1\" value=\"むら\"}}村に　デパートは{{delay frames=\"16\"}}\n{{anim id=\"23\"}}あるのかい？　{{delay frames=\"8\"}}{{fun_00080005 arg=\"\"}}{{fun_000D0005 arg=\"\"}}？{{pageBreak}}{{anim id=\"9\"}}いや、ごめん{{delay frames=\"8\"}}・{{delay frames=\"8\"}}・{{delay frames=\"8\"}}・{{delay frames=\"32\"}}\nなんか　{{ruby charSpan=\"2\" value=\"じまん\"}}自慢に{{ruby charSpan=\"1\" value=\"き\"}}聞こえたかな",
      "KRko": "그대 마을에도 백화점이{{delay frames=\"16\"}}\n{{anim id=\"23\"}}있어? {{delay frames=\"8\"}}{{fun_00080005 arg=\"\"}}{{fun_0006000E arg=\"0x020070AD020091C5\"}}?{{pageBreak}}{{anim id=\"9\"}}아, 미안{{delay frames=\"8\"}}・{{delay frames=\"8\"}}・{{delay frames=\"8\"}}・{{delay frames=\"32\"}}\n자랑한 것처럼 들렸으려나?",
      "USen": "{{anim id=\"23\"}}Do you even have a department\nstore in your town,{{delay frames=\"8\"}} {{fun_00080005 arg=\"\"}}?{{pageBreak}}{{anim id=\"9\"}}Oh, I'm sorry{{delay frames=\"8\"}}.{{delay frames=\"8\"}}.{{delay frames=\"8\"}}.{{delay frames=\"32\"}} I didn't mean to\nrub it in or anything if you don't{{delay frames=\"8\"}}.{{delay frames=\"8\"}}.{{delay frames=\"8\"}}.",
      "USes": "{{anim id=\"23\"}}¿Tenéis unas galerías comerciales\nen tu pueblo,{{delay frames=\"8\"}} {{fun_00080005 arg=\"\"}}?{{pageBreak}}{{anim id=\"9\"}}Huy, perdona{{delay frames=\"8\"}}.{{delay frames=\"32\"}} No pretendía darte\nenvidia{{delay frames=\"8\"}}.{{delay frames=\"8\"}}.{{delay frames=\"8\"}}.",
      "USfr": "{{anim id=\"23\"}}Y'a aussi des galeries dans ta ville,{{delay frames=\"8\"}}\n{{fun_00080005 arg=\"\"}}?{{pageBreak}}{{anim id=\"9\"}}Oh, navré si t'as pas cette chance{{delay frames=\"8\"}}.{{delay frames=\"8\"}}.{{delay frames=\"8\"}}.{{delay frames=\"32\"}}\n{{anim id=\"36\"}}Je voulais pas te froisser{{delay frames=\"8\"}}.{{delay frames=\"8\"}}.{{delay frames=\"8\"}}.{{delay frames=\"15\"}} Hé hé."
    }
  },
  {
    "label": "010",
    "locale": {
      "EUde": "{{anim id=\"36\"}}Bist du extra zum Einkaufen nach\n{{fun_00050005 arg=\"\"}} gekommen,{{delay frames=\"8\"}} {{fun_00080005 arg=\"\"}}?{{pageBreak}}{{anim id=\"37\"}}Dann bist du bestimmt auf der\nSuche nach was ganz Besonderem,{{delay frames=\"8\"}}\n{{fun_00070005 arg=\"\"}}!",
      "EUen": "{{anim id=\"36\"}}Wow, you must be dedicated to\ncome out to {{fun_00050005 arg=\"\"}} in your\nitem search,{{delay frames=\"8\"}} {{fun_00080005 arg=\"\"}}!\n{{anim id=\"37\"}}You must be looking for something\nreally good,{{delay frames=\"8\"}} {{fun_00070005 arg=\"\"}}!",
      "EUes": "{{anim id=\"36\"}}Vaya, seguro que estás deseando\ncomprar lo que sea que estés\nbuscando, {{fun_00080005 arg=\"\"}}.\n{{anim id=\"37\"}}¡Lo digo porque has venido hasta\n{{fun_0003000E arg=\"\"}}{{fun_00050005 arg=\"\"}} para encontrarlo,{{delay frames=\"8\"}}\n{{fun_00070005 arg=\"\"}}!",
      "EUfr": "{{anim id=\"37\"}}Eh ben, {{fun_00080005 arg=\"\"}}, doit y'avoir un\nobjet que tu cherches vraiment à\ndénicher pour venir exprès ici !\n{{anim id=\"36\"}}J'espère au moins que tu vas le\ntrouver,{{delay frames=\"8\"}} {{fun_00070005 arg=\"\"}} !",
      "EUit": "{{anim id=\"36\"}}Sorbole, hai fatto tutta questa\nstrada per venire a fare shopping\n{{fun_0010000E arg=\"\"}} {{fun_00050005 arg=\"\"}},{{delay frames=\"8\"}} {{fun_00080005 arg=\"\"}}!{{pageBreak}}{{anim id=\"37\"}}Immagino tu stia cercando una cosa\ndavvero speciale,{{delay frames=\"8\"}} {{fun_00070005 arg=\"\"}}!",
      "JPja": "{{anim id=\"36\"}}わざわざ　よその{{ruby charSpan=\"1\" value=\"むら\"}}村まで{{ruby charSpan=\"1\" value=\"く\"}}来るなんて{{delay frames=\"16\"}}\nキミは　{{ruby charSpan=\"3\" value=\"ねっきょうてき\"}}熱狂的だなぁ、\n{{delay frames=\"8\"}}{{fun_00080005 arg=\"\"}}{{fun_000D0005 arg=\"\"}}\n{{anim id=\"37\"}}そこまでして　{{ruby charSpan=\"1\" value=\"ほ\"}}欲しいものが　{{delay frames=\"16\"}}\nあるんだね、{{delay frames=\"8\"}}{{fun_00070005 arg=\"\"}}",
      "KRko": "{{anim id=\"36\"}}일부러 다른 마을까지 오다니{{delay frames=\"16\"}}\n그대도 참 대단하다,\n{{delay frames=\"8\"}}{{fun_00080005 arg=\"\"}}{{fun_0006000E arg=\"0x020070AD020091C5\"}}\n{{anim id=\"37\"}}그렇게까지 해서 갖고 싶은{{delay frames=\"16\"}}\n물건이 생겼나 보네, {{delay frames=\"8\"}}{{fun_00070005 arg=\"\"}}",
      "USen": "{{anim id=\"36\"}}Wow, you must be dedicated to\ncome out to {{fun_00050005 arg=\"\"}} in your\nitem search,{{delay frames=\"8\"}} {{fun_00080005 arg=\"\"}}!\n{{anim id=\"37\"}}You must be looking for something\nreally good,{{delay frames=\"8\"}} {{fun_00070005 arg=\"\"}}!",
      "USes": "{{anim id=\"36\"}}Vaya, seguro que estás deseando\ncomprar lo que sea que estés\nbuscando, {{fun_00080005 arg=\"\"}}.\n{{anim id=\"37\"}}¡Lo digo porque has venido hasta\n{{fun_0003000E arg=\"\"}}{{fun_00050005 arg=\"\"}} para encontrarlo,{{delay frames=\"8\"}}\n{{fun_00070005 arg=\"\"}}!",
      "USfr": "{{anim id=\"37\"}}Eh ben, {{fun_00080005 arg=\"\"}}, doit y'avoir un\nobjet que tu cherches vraiment à\ndénicher pour venir exprès ici!\n{{anim id=\"36\"}}J'espère au moins que tu vas le\ntrouver,{{delay frames=\"8\"}} {{fun_00070005 arg=\"\"}}!"
    }
  }
]