﻿[
  {
    "label": "001",
    "text": "Thank you for the letter!\nYour words were as sweet\nas dessert, and equally brief.\nI'd love to get a longer letter\nfrom you sometime! This is\nto say thanks for writing."
  },
  {
    "label": "002",
    "text": "The way you're able to\nexpress yourself in so few\nwords is so grown up! I'm\ngoing to try doing that...\nIs it working?"
  },
  {
    "label": "003",
    "text": "Your letter was so cool and\nstoic. It reminded me of a\ndetective on the case. So if\nyou're a detective, can you\ndeduce why I'm sending this\npresent?"
  },
  {
    "label": "004",
    "text": "I read your letter. I actually\nread it twice, to see if I\nmissed anything. Then I\nturned the envelope upside \ndown, but nothing fell out.\nIs that really all you wrote?"
  },
  {
    "label": "005",
    "text": "I got your letter the other\nday, but there were only a\nfew words written in it. I've\nalerted the home office that\nsomeone is intercepting our\ncommunication. Act normal."
  },
  {
    "label": "006",
    "text": "You're so funny! That joke\nyou started telling in your\nlast letter was great, but I\nnever did see the punch line.\nAre you planning to send it in\nyour next letter?"
  }
]