﻿[
  {
    "label": "001",
    "text": "I guess moving day is finally\nhere. I found this picture of\nme when I was packing. You\nshould have it so your\nmemories of me don't fade\nwith age."
  },
  {
    "label": "002",
    "text": "Today's the day I say bye-\nbye to you and this town...\nI'll miss you both. Here's a\npicture to remember me by.\nHopefully you can find a nice\nmacaroni frame for it."
  },
  {
    "label": "003",
    "text": "The fact that I'm moving\ntoday puts butterflies in my\nstomach. Maybe they're the\nreason I'm craving sweets.\nBefore I go, here's a picture\nto remember me by."
  },
  {
    "label": "004",
    "text": "At long last, it's moving day\nfor me. On one hand, I'm\nexcited about living in a new\ntown. On the other hand, I'm\nsad to be leaving this one...\nIt's really confusing my feet."
  },
  {
    "label": "005",
    "text": "I'm moving out today. I just\nwanted to say I'll always\nremember you and the crazy\nthings we did together. You\ntake care of yourself... Don't\nforget your daily nap!"
  },
  {
    "label": "006",
    "text": "Sorry I forgot to stop by\nand say good-bye in person.\nI actually baked you some\ncookies... Um, but then I ate\nthem. Don't worry! I'm sure\nwe'll meet again someday!"
  }
]