﻿[
  {
    "label": "001",
    "text": "That's all I have for now."
  },
  {
    "label": "002",
    "text": "Sorry about the handwriting."
  },
  {
    "label": "003",
    "text": "I'll write again sometime."
  },
  {
    "label": "004",
    "text": "I suppose this is the end."
  },
  {
    "label": "005",
    "text": "Write back, if you'd like to."
  },
  {
    "label": "006",
    "text": "Let me know how you are."
  },
  {
    "label": "007",
    "text": "Come have tea sometime."
  },
  {
    "label": "008",
    "text": "I guess I'll wrap this up."
  },
  {
    "label": "009",
    "text": "Did you like my letter?"
  },
  {
    "label": "010",
    "text": "Thanks for reading all this."
  }
]