﻿[
  {
    "label": "000",
    "text": "Anguilla"
  },
  {
    "label": "001",
    "text": "Antigua-et-Barbuda"
  },
  {
    "label": "002",
    "text": "Saint-Jean"
  },
  {
    "label": "003",
    "text": "Barbuda"
  },
  {
    "label": "004",
    "text": "Saint-Georges"
  },
  {
    "label": "005",
    "text": "Sainte-Marie"
  },
  {
    "label": "006",
    "text": "Saint-Paul"
  },
  {
    "label": "007",
    "text": "Saint-Pierre"
  },
  {
    "label": "008",
    "text": "Saint-Philippe"
  },
  {
    "label": "009",
    "text": "Argentine"
  },
  {
    "label": "010",
    "text": "District Fédéral"
  },
  {
    "label": "011",
    "text": "Buenos Aires"
  },
  {
    "label": "012",
    "text": "Catamarca"
  },
  {
    "label": "013",
    "text": "Chaco"
  },
  {
    "label": "014",
    "text": "Chubut"
  },
  {
    "label": "015",
    "text": "Córdoba"
  },
  {
    "label": "016",
    "text": "Corrientes"
  },
  {
    "label": "017",
    "text": "Entre Ríos"
  },
  {
    "label": "018",
    "text": "Formosa"
  },
  {
    "label": "019",
    "text": "Jujuy"
  },
  {
    "label": "020",
    "text": "La Pampa"
  },
  {
    "label": "021",
    "text": "La Rioja"
  },
  {
    "label": "022",
    "text": "Mendoza"
  },
  {
    "label": "023",
    "text": "Misiones"
  },
  {
    "label": "024",
    "text": "Neuquén"
  },
  {
    "label": "025",
    "text": "Río Negro"
  },
  {
    "label": "026",
    "text": "Salta"
  },
  {
    "label": "027",
    "text": "San Juan"
  },
  {
    "label": "028",
    "text": "San Luis"
  },
  {
    "label": "029",
    "text": "Santa Cruz"
  },
  {
    "label": "030",
    "text": "Santa Fe"
  },
  {
    "label": "031",
    "text": "Santiago del Estero"
  },
  {
    "label": "032",
    "text": "Terre de Feu, Antarctique et Îles de l’Atlantique Sud"
  },
  {
    "label": "033",
    "text": "Tucumán"
  },
  {
    "label": "034",
    "text": "Aruba"
  },
  {
    "label": "035",
    "text": "Bahamas"
  },
  {
    "label": "036",
    "text": "Barbade"
  },
  {
    "label": "037",
    "text": "Belize"
  },
  {
    "label": "038",
    "text": "Cayo"
  },
  {
    "label": "039",
    "text": "Belize"
  },
  {
    "label": "040",
    "text": "Corozal"
  },
  {
    "label": "041",
    "text": "Orange Walk"
  },
  {
    "label": "042",
    "text": "Stann Creek"
  },
  {
    "label": "043",
    "text": "Toledo"
  },
  {
    "label": "044",
    "text": "Bolivie"
  },
  {
    "label": "045",
    "text": "La Paz"
  },
  {
    "label": "046",
    "text": "Chuquisaca"
  },
  {
    "label": "047",
    "text": "Cochabamba"
  },
  {
    "label": "048",
    "text": "Beni"
  },
  {
    "label": "049",
    "text": "Oruro"
  },
  {
    "label": "050",
    "text": "Pando"
  },
  {
    "label": "051",
    "text": "Potosí"
  },
  {
    "label": "052",
    "text": "Santa Cruz"
  },
  {
    "label": "053",
    "text": "Tarija"
  },
  {
    "label": "054",
    "text": "Brésil"
  },
  {
    "label": "055",
    "text": "District Fédéral"
  },
  {
    "label": "056",
    "text": "Acre"
  },
  {
    "label": "057",
    "text": "Alagoas"
  },
  {
    "label": "058",
    "text": "Amapá"
  },
  {
    "label": "059",
    "text": "Amazonas"
  },
  {
    "label": "060",
    "text": "Bahia"
  },
  {
    "label": "061",
    "text": "Ceará"
  },
  {
    "label": "062",
    "text": "Espírito Santo"
  },
  {
    "label": "063",
    "text": "Mato Grosso do Sul"
  },
  {
    "label": "064",
    "text": "Maranhão"
  },
  {
    "label": "065",
    "text": "Mato Grosso"
  },
  {
    "label": "066",
    "text": "Minas Gerais"
  },
  {
    "label": "067",
    "text": "Pará"
  },
  {
    "label": "068",
    "text": "Paraíba"
  },
  {
    "label": "069",
    "text": "Paraná"
  },
  {
    "label": "070",
    "text": "Piauí"
  },
  {
    "label": "071",
    "text": "État de Rio de Janeiro"
  },
  {
    "label": "072",
    "text": "Rio Grande do Norte"
  },
  {
    "label": "073",
    "text": "Rio Grande do Sul"
  },
  {
    "label": "074",
    "text": "Rondônia"
  },
  {
    "label": "075",
    "text": "Roraima"
  },
  {
    "label": "076",
    "text": "Santa Catarina"
  },
  {
    "label": "077",
    "text": "État de São Paulo"
  },
  {
    "label": "078",
    "text": "Sergipe"
  },
  {
    "label": "079",
    "text": "Goiás"
  },
  {
    "label": "080",
    "text": "Pernambouc"
  },
  {
    "label": "081",
    "text": "Tocantins"
  },
  {
    "label": "082",
    "text": "Îles Vierges britanniques"
  },
  {
    "label": "083",
    "text": "Canada"
  },
  {
    "label": "084",
    "text": "Ontario"
  },
  {
    "label": "085",
    "text": "Alberta"
  },
  {
    "label": "086",
    "text": "Colombie-Britannique"
  },
  {
    "label": "087",
    "text": "Manitoba"
  },
  {
    "label": "088",
    "text": "Nouveau-Brunswick"
  },
  {
    "label": "089",
    "text": "Terre-Neuve et Labrador"
  },
  {
    "label": "090",
    "text": "Nouvelle-Écosse"
  },
  {
    "label": "091",
    "text": "Île-du-Prince-Édouard"
  },
  {
    "label": "092",
    "text": "Québec"
  },
  {
    "label": "093",
    "text": "Saskatchewan"
  },
  {
    "label": "094",
    "text": "Territoire du Yukon"
  },
  {
    "label": "095",
    "text": "Territoires du Nord-Ouest"
  },
  {
    "label": "096",
    "text": "Territoire du Nunavut"
  },
  {
    "label": "097",
    "text": "Îles Caïmans"
  },
  {
    "label": "098",
    "text": "Chili"
  },
  {
    "label": "099",
    "text": "Région Métropolitaine de Santiago"
  },
  {
    "label": "100",
    "text": "Valparaiso"
  },
  {
    "label": "101",
    "text": "Aisén del General Carlos Ibáñez del Campo"
  },
  {
    "label": "102",
    "text": "Antofagasta"
  },
  {
    "label": "103",
    "text": "Araucanie"
  },
  {
    "label": "104",
    "text": "Atacama"
  },
  {
    "label": "105",
    "text": "Biobío"
  },
  {
    "label": "106",
    "text": "Coquimbo"
  },
  {
    "label": "107",
    "text": "Libertador General Bernardo O'Higgins"
  },
  {
    "label": "108",
    "text": "Los Lagos"
  },
  {
    "label": "109",
    "text": "Magellan et Antarctique Chilienne"
  },
  {
    "label": "110",
    "text": "Maule"
  },
  {
    "label": "111",
    "text": "Tarapacá"
  },
  {
    "label": "112",
    "text": "Colombie"
  },
  {
    "label": "113",
    "text": "District Capital de Santa Fe de Bogotá"
  },
  {
    "label": "114",
    "text": "Cundinamarca"
  },
  {
    "label": "115",
    "text": "Amazone"
  },
  {
    "label": "116",
    "text": "Antioquia"
  },
  {
    "label": "117",
    "text": "Arauca"
  },
  {
    "label": "118",
    "text": "Atlantique"
  },
  {
    "label": "119",
    "text": "Bolívar"
  },
  {
    "label": "120",
    "text": "Boyacá"
  },
  {
    "label": "121",
    "text": "Caldas"
  },
  {
    "label": "122",
    "text": "Caquetá"
  },
  {
    "label": "123",
    "text": "Cauca"
  },
  {
    "label": "124",
    "text": "Cesar"
  },
  {
    "label": "125",
    "text": "Chocó"
  },
  {
    "label": "126",
    "text": "Córdoba"
  },
  {
    "label": "127",
    "text": "Guaviare"
  },
  {
    "label": "128",
    "text": "Guainía"
  },
  {
    "label": "129",
    "text": "Huila"
  },
  {
    "label": "130",
    "text": "La Guajira"
  },
  {
    "label": "131",
    "text": "Magdalena"
  },
  {
    "label": "132",
    "text": "Meta"
  },
  {
    "label": "133",
    "text": "Nariño"
  },
  {
    "label": "134",
    "text": "Norte de Santander"
  },
  {
    "label": "135",
    "text": "Putumayo"
  },
  {
    "label": "136",
    "text": "Quindío"
  },
  {
    "label": "137",
    "text": "Risaralda"
  },
  {
    "label": "138",
    "text": "Îles de San Andrés, Providencia et Santa Cataline"
  },
  {
    "label": "139",
    "text": "Santander"
  },
  {
    "label": "140",
    "text": "Sucre"
  },
  {
    "label": "141",
    "text": "Tolima"
  },
  {
    "label": "142",
    "text": "Valle del Cauca"
  },
  {
    "label": "143",
    "text": "Vaupés"
  },
  {
    "label": "144",
    "text": "Vichada"
  },
  {
    "label": "145",
    "text": "Casanare"
  },
  {
    "label": "146",
    "text": "Costa Rica"
  },
  {
    "label": "147",
    "text": "San José"
  },
  {
    "label": "148",
    "text": "Alajuela"
  },
  {
    "label": "149",
    "text": "Cartago"
  },
  {
    "label": "150",
    "text": "Guanacaste"
  },
  {
    "label": "151",
    "text": "Heredia"
  },
  {
    "label": "152",
    "text": "Limón"
  },
  {
    "label": "153",
    "text": "Puntarenas"
  },
  {
    "label": "154",
    "text": "Dominique"
  },
  {
    "label": "155",
    "text": "République dominicaine"
  },
  {
    "label": "156",
    "text": "District National"
  },
  {
    "label": "157",
    "text": "Azua"
  },
  {
    "label": "158",
    "text": "Baoruco"
  },
  {
    "label": "159",
    "text": "Barahona"
  },
  {
    "label": "160",
    "text": "Dajabón"
  },
  {
    "label": "161",
    "text": "Duarte"
  },
  {
    "label": "162",
    "text": "Espaillat"
  },
  {
    "label": "163",
    "text": "Independencia"
  },
  {
    "label": "164",
    "text": "La Altagracia"
  },
  {
    "label": "165",
    "text": "Elías Piña"
  },
  {
    "label": "166",
    "text": "La Romana"
  },
  {
    "label": "167",
    "text": "María Trinidad Sánchez"
  },
  {
    "label": "168",
    "text": "Monte Cristi"
  },
  {
    "label": "169",
    "text": "Pedernales"
  },
  {
    "label": "170",
    "text": "Peravia"
  },
  {
    "label": "171",
    "text": "Puerto Plata"
  },
  {
    "label": "172",
    "text": "Salcedo"
  },
  {
    "label": "173",
    "text": "Samaná"
  },
  {
    "label": "174",
    "text": "Sánchez Ramírez"
  },
  {
    "label": "175",
    "text": "San Juan"
  },
  {
    "label": "176",
    "text": "San Pedro de Macorís"
  },
  {
    "label": "177",
    "text": "Santiago"
  },
  {
    "label": "178",
    "text": "Santiago Rodríguez"
  },
  {
    "label": "179",
    "text": "Valverde"
  },
  {
    "label": "180",
    "text": "El Seibo"
  },
  {
    "label": "181",
    "text": "Hato Mayor"
  },
  {
    "label": "182",
    "text": "La Vega"
  },
  {
    "label": "183",
    "text": "Monseñor Nouel"
  },
  {
    "label": "184",
    "text": "Monte Plata"
  },
  {
    "label": "185",
    "text": "San Cristóbal"
  },
  {
    "label": "186",
    "text": "Équateur"
  },
  {
    "label": "187",
    "text": "Pichincha"
  },
  {
    "label": "188",
    "text": "Galápagos"
  },
  {
    "label": "189",
    "text": "Azuay"
  },
  {
    "label": "190",
    "text": "Bolívar"
  },
  {
    "label": "191",
    "text": "Cañar"
  },
  {
    "label": "192",
    "text": "Carchi"
  },
  {
    "label": "193",
    "text": "Chimborazo"
  },
  {
    "label": "194",
    "text": "Cotopaxi"
  },
  {
    "label": "195",
    "text": "El Oro"
  },
  {
    "label": "196",
    "text": "Esmeraldas"
  },
  {
    "label": "197",
    "text": "Guayas"
  },
  {
    "label": "198",
    "text": "Imbabura"
  },
  {
    "label": "199",
    "text": "Loja"
  },
  {
    "label": "200",
    "text": "Los Ríos"
  },
  {
    "label": "201",
    "text": "Manabí"
  },
  {
    "label": "202",
    "text": "Morona-Santiago"
  },
  {
    "label": "203",
    "text": "Pastaza"
  },
  {
    "label": "204",
    "text": "Tungurahua"
  },
  {
    "label": "205",
    "text": "Zamora-Chinchipe"
  },
  {
    "label": "206",
    "text": "Sucumbíos"
  },
  {
    "label": "207",
    "text": "Napo"
  },
  {
    "label": "208",
    "text": "Orellana"
  },
  {
    "label": "209",
    "text": "Santa Elena"
  },
  {
    "label": "210",
    "text": "Santo Domingo de los Tsáchilas"
  },
  {
    "label": "211",
    "text": "Salvador"
  },
  {
    "label": "212",
    "text": "San Salvador"
  },
  {
    "label": "213",
    "text": "Ahuachapán"
  },
  {
    "label": "214",
    "text": "Cabañas"
  },
  {
    "label": "215",
    "text": "Chalatenango"
  },
  {
    "label": "216",
    "text": "Cuscatlán"
  },
  {
    "label": "217",
    "text": "La Libertad"
  },
  {
    "label": "218",
    "text": "La Paz"
  },
  {
    "label": "219",
    "text": "La Unión"
  },
  {
    "label": "220",
    "text": "Morazán"
  },
  {
    "label": "221",
    "text": "San Miguel"
  },
  {
    "label": "222",
    "text": "Santa Ana"
  },
  {
    "label": "223",
    "text": "San Vicente"
  },
  {
    "label": "224",
    "text": "Sonsonate"
  },
  {
    "label": "225",
    "text": "Usulután"
  },
  {
    "label": "226",
    "text": "Guyane"
  },
  {
    "label": "227",
    "text": "Grenade"
  },
  {
    "label": "228",
    "text": "Guadeloupe"
  },
  {
    "label": "229",
    "text": "Guatemala"
  },
  {
    "label": "230",
    "text": "Guatemala"
  },
  {
    "label": "231",
    "text": "Alta Verapaz"
  },
  {
    "label": "232",
    "text": "Baja Verapaz"
  },
  {
    "label": "233",
    "text": "Chimaltenango"
  },
  {
    "label": "234",
    "text": "Chiquimula"
  },
  {
    "label": "235",
    "text": "El Progreso"
  },
  {
    "label": "236",
    "text": "Escuintla"
  },
  {
    "label": "237",
    "text": "Huehuetenango"
  },
  {
    "label": "238",
    "text": "Izabal"
  },
  {
    "label": "239",
    "text": "Jalapa"
  },
  {
    "label": "240",
    "text": "Jutiapa"
  },
  {
    "label": "241",
    "text": "El Petén"
  },
  {
    "label": "242",
    "text": "Quetzaltenango"
  },
  {
    "label": "243",
    "text": "El Quiché"
  },
  {
    "label": "244",
    "text": "Retalhuleu"
  },
  {
    "label": "245",
    "text": "Sacatepéquez"
  },
  {
    "label": "246",
    "text": "San Marcos"
  },
  {
    "label": "247",
    "text": "Santa Rosa"
  },
  {
    "label": "248",
    "text": "Sololá"
  },
  {
    "label": "249",
    "text": "Suchitepéquez"
  },
  {
    "label": "250",
    "text": "Totonicapán"
  },
  {
    "label": "251",
    "text": "Zacapa"
  },
  {
    "label": "252",
    "text": "République coopérative de Guyana"
  },
  {
    "label": "253",
    "text": "Demerara-Mahaica"
  },
  {
    "label": "254",
    "text": "Barima-Waini"
  },
  {
    "label": "255",
    "text": "Cuyuni-Mazaruni"
  },
  {
    "label": "256",
    "text": "Berbice Oriental-Courantyne "
  },
  {
    "label": "257",
    "text": "Îles Essequibo-Demerara Occidental"
  },
  {
    "label": "258",
    "text": "Mahaica-Berbice"
  },
  {
    "label": "259",
    "text": "Pomeroon-Supenaam"
  },
  {
    "label": "260",
    "text": "Potaro-Siparuni"
  },
  {
    "label": "261",
    "text": "Haut-Demerara et Berbice"
  },
  {
    "label": "262",
    "text": "Haut-Takutu et Haut-Essequibo"
  },
  {
    "label": "263",
    "text": "Haïti"
  },
  {
    "label": "264",
    "text": "Ouest"
  },
  {
    "label": "265",
    "text": "Nord-Ouest"
  },
  {
    "label": "266",
    "text": "Artibonite"
  },
  {
    "label": "267",
    "text": "Centre"
  },
  {
    "label": "268",
    "text": "Grande-Anse"
  },
  {
    "label": "269",
    "text": "Nord"
  },
  {
    "label": "270",
    "text": "Nord-Est"
  },
  {
    "label": "271",
    "text": "Sud"
  },
  {
    "label": "272",
    "text": "Sud-Est"
  },
  {
    "label": "273",
    "text": "Nippes"
  },
  {
    "label": "274",
    "text": "Honduras"
  },
  {
    "label": "275",
    "text": "Francisco Morazán"
  },
  {
    "label": "276",
    "text": "Atlántida"
  },
  {
    "label": "277",
    "text": "Choluteca"
  },
  {
    "label": "278",
    "text": "Colón"
  },
  {
    "label": "279",
    "text": "Comayagua"
  },
  {
    "label": "280",
    "text": "Copán"
  },
  {
    "label": "281",
    "text": "Cortés"
  },
  {
    "label": "282",
    "text": "El Paraíso"
  },
  {
    "label": "283",
    "text": "Gracias a Dios"
  },
  {
    "label": "284",
    "text": "Intibucá"
  },
  {
    "label": "285",
    "text": "Islas de la Bahía"
  },
  {
    "label": "286",
    "text": "La Paz"
  },
  {
    "label": "287",
    "text": "Lempira"
  },
  {
    "label": "288",
    "text": "Ocotepeque"
  },
  {
    "label": "289",
    "text": "Olancho"
  },
  {
    "label": "290",
    "text": "Santa Bárbara"
  },
  {
    "label": "291",
    "text": "Valle"
  },
  {
    "label": "292",
    "text": "Yoro"
  },
  {
    "label": "293",
    "text": "Jamaïque"
  },
  {
    "label": "294",
    "text": "Saint-Thomas"
  },
  {
    "label": "295",
    "text": "Clarendon"
  },
  {
    "label": "296",
    "text": "Hanover"
  },
  {
    "label": "297",
    "text": "Manchester"
  },
  {
    "label": "298",
    "text": "Portland"
  },
  {
    "label": "299",
    "text": "Saint Andrew"
  },
  {
    "label": "300",
    "text": "Saint Ann"
  },
  {
    "label": "301",
    "text": "Saint Catherine"
  },
  {
    "label": "302",
    "text": "Saint Elizabeth"
  },
  {
    "label": "303",
    "text": "Saint James"
  },
  {
    "label": "304",
    "text": "Saint Mary"
  },
  {
    "label": "305",
    "text": "Trelawny"
  },
  {
    "label": "306",
    "text": "Westmoreland"
  },
  {
    "label": "307",
    "text": "Kingston"
  },
  {
    "label": "308",
    "text": "Martinique"
  },
  {
    "label": "309",
    "text": "Mexique"
  },
  {
    "label": "310",
    "text": "District Fédéral"
  },
  {
    "label": "311",
    "text": "Aguascalientes"
  },
  {
    "label": "312",
    "text": "Basse-Californie"
  },
  {
    "label": "313",
    "text": "Basse-Californie du Sud"
  },
  {
    "label": "314",
    "text": "Campeche"
  },
  {
    "label": "315",
    "text": "Chiapas"
  },
  {
    "label": "316",
    "text": "Chihuahua"
  },
  {
    "label": "317",
    "text": "Coahuila"
  },
  {
    "label": "318",
    "text": "Colima"
  },
  {
    "label": "319",
    "text": "Durango"
  },
  {
    "label": "320",
    "text": "Guanajuato"
  },
  {
    "label": "321",
    "text": "Guerrero"
  },
  {
    "label": "322",
    "text": "Hidalgo"
  },
  {
    "label": "323",
    "text": "Jalisco"
  },
  {
    "label": "324",
    "text": "Mexico"
  },
  {
    "label": "325",
    "text": "Michoacán"
  },
  {
    "label": "326",
    "text": "Morelos"
  },
  {
    "label": "327",
    "text": "Nayarit"
  },
  {
    "label": "328",
    "text": "Nuevo León"
  },
  {
    "label": "329",
    "text": "Oaxaca"
  },
  {
    "label": "330",
    "text": "Puebla"
  },
  {
    "label": "331",
    "text": "Querétaro"
  },
  {
    "label": "332",
    "text": "Quintana Roo"
  },
  {
    "label": "333",
    "text": "San Luis Potosí"
  },
  {
    "label": "334",
    "text": "Sinaloa"
  },
  {
    "label": "335",
    "text": "Sonora"
  },
  {
    "label": "336",
    "text": "Tabasco"
  },
  {
    "label": "337",
    "text": "Tamaulipas"
  },
  {
    "label": "338",
    "text": "Tlaxcala"
  },
  {
    "label": "339",
    "text": "Veracruz"
  },
  {
    "label": "340",
    "text": "Yucatán"
  },
  {
    "label": "341",
    "text": "Zacatecas"
  },
  {
    "label": "342",
    "text": "Montserrat"
  },
  {
    "label": "343",
    "text": "Antilles néerlandaises"
  },
  {
    "label": "344",
    "text": "Nicaragua"
  },
  {
    "label": "345",
    "text": "Managua"
  },
  {
    "label": "346",
    "text": "Boaco"
  },
  {
    "label": "347",
    "text": "Carazo"
  },
  {
    "label": "348",
    "text": "Chinandega"
  },
  {
    "label": "349",
    "text": "Chontales"
  },
  {
    "label": "350",
    "text": "Estelí"
  },
  {
    "label": "351",
    "text": "Granada"
  },
  {
    "label": "352",
    "text": "Jinotega"
  },
  {
    "label": "353",
    "text": "León"
  },
  {
    "label": "354",
    "text": "Madriz"
  },
  {
    "label": "355",
    "text": "Masaya"
  },
  {
    "label": "356",
    "text": "Matagalpa"
  },
  {
    "label": "357",
    "text": "Nueva Segovia"
  },
  {
    "label": "358",
    "text": "Río San Juan"
  },
  {
    "label": "359",
    "text": "Rivas"
  },
  {
    "label": "360",
    "text": "Región Autónoma del Atlántico Norte"
  },
  {
    "label": "361",
    "text": "Región Autónoma del Atlántico Sur"
  },
  {
    "label": "362",
    "text": "Panama"
  },
  {
    "label": "363",
    "text": "Panama"
  },
  {
    "label": "364",
    "text": "Bocas del Toro"
  },
  {
    "label": "365",
    "text": "Chiriquí"
  },
  {
    "label": "366",
    "text": "Coclé"
  },
  {
    "label": "367",
    "text": "Colón"
  },
  {
    "label": "368",
    "text": "Darién"
  },
  {
    "label": "369",
    "text": "Herrera"
  },
  {
    "label": "370",
    "text": "Los Santos"
  },
  {
    "label": "371",
    "text": "Kuna Yala"
  },
  {
    "label": "372",
    "text": "Veraguas"
  },
  {
    "label": "373",
    "text": "Paraguay"
  },
  {
    "label": "374",
    "text": "Central"
  },
  {
    "label": "375",
    "text": "Alto Paraná"
  },
  {
    "label": "376",
    "text": "Amambay"
  },
  {
    "label": "377",
    "text": "Caaguazú"
  },
  {
    "label": "378",
    "text": "Caazapá"
  },
  {
    "label": "379",
    "text": "Concepción"
  },
  {
    "label": "380",
    "text": "Cordillera"
  },
  {
    "label": "381",
    "text": "Guairá"
  },
  {
    "label": "382",
    "text": "Itapúa"
  },
  {
    "label": "383",
    "text": "Misiones"
  },
  {
    "label": "384",
    "text": "Ñeembucú"
  },
  {
    "label": "385",
    "text": "Paraguarí"
  },
  {
    "label": "386",
    "text": "Presidente Hayes"
  },
  {
    "label": "387",
    "text": "San Pedro"
  },
  {
    "label": "388",
    "text": "Canindeyú"
  },
  {
    "label": "389",
    "text": "Asunción"
  },
  {
    "label": "390",
    "text": "Alto Paraguay"
  },
  {
    "label": "391",
    "text": "Boquerón"
  },
  {
    "label": "392",
    "text": "Pérou"
  },
  {
    "label": "393",
    "text": "Province de Lima"
  },
  {
    "label": "394",
    "text": "Amazone"
  },
  {
    "label": "395",
    "text": "Ancash"
  },
  {
    "label": "396",
    "text": "Apurímac"
  },
  {
    "label": "397",
    "text": "Arequipa"
  },
  {
    "label": "398",
    "text": "Ayacucho"
  },
  {
    "label": "399",
    "text": "Cajamarca"
  },
  {
    "label": "400",
    "text": "Callao"
  },
  {
    "label": "401",
    "text": "Cuzco"
  },
  {
    "label": "402",
    "text": "Huancavelica"
  },
  {
    "label": "403",
    "text": "Huánuco"
  },
  {
    "label": "404",
    "text": "Ica"
  },
  {
    "label": "405",
    "text": "Junín"
  },
  {
    "label": "406",
    "text": "La Libertad"
  },
  {
    "label": "407",
    "text": "Lambayeque"
  },
  {
    "label": "408",
    "text": "Loreto"
  },
  {
    "label": "409",
    "text": "Madre de Dios"
  },
  {
    "label": "410",
    "text": "Moquegua"
  },
  {
    "label": "411",
    "text": "Pasco"
  },
  {
    "label": "412",
    "text": "Piura"
  },
  {
    "label": "413",
    "text": "Puno"
  },
  {
    "label": "414",
    "text": "San Martín"
  },
  {
    "label": "415",
    "text": "Tacna"
  },
  {
    "label": "416",
    "text": "Tumbes"
  },
  {
    "label": "417",
    "text": "Ucayali"
  },
  {
    "label": "418",
    "text": "Saint-Christophe-et-Niévès"
  },
  {
    "label": "419",
    "text": "Saint George Basseterre"
  },
  {
    "label": "420",
    "text": "Christ Church Nichola Town"
  },
  {
    "label": "421",
    "text": "Saint Anne Sandy Point"
  },
  {
    "label": "422",
    "text": "Saint George Gingerland"
  },
  {
    "label": "423",
    "text": "Saint James Windward"
  },
  {
    "label": "424",
    "text": "Saint John Capesterre"
  },
  {
    "label": "425",
    "text": "Saint John Figtree"
  },
  {
    "label": "426",
    "text": "Saint Mary Cayon"
  },
  {
    "label": "427",
    "text": "Saint Paul Capesterre"
  },
  {
    "label": "428",
    "text": "Saint Paul Charlestown"
  },
  {
    "label": "429",
    "text": "Saint Peter Basseterre"
  },
  {
    "label": "430",
    "text": "Saint Thomas Lowland"
  },
  {
    "label": "431",
    "text": "Saint Thomas Middle Island"
  },
  {
    "label": "432",
    "text": "Trinity Palmetto Point"
  },
  {
    "label": "433",
    "text": "Sainte-Lucie"
  },
  {
    "label": "434",
    "text": "Saint-Vincent-et-les-Grenadines"
  },
  {
    "label": "435",
    "text": "Suriname"
  },
  {
    "label": "436",
    "text": "Paramaribo"
  },
  {
    "label": "437",
    "text": "Brokopondo"
  },
  {
    "label": "438",
    "text": "Commewijne"
  },
  {
    "label": "439",
    "text": "Coronie"
  },
  {
    "label": "440",
    "text": "Marowijne"
  },
  {
    "label": "441",
    "text": "Nickerie"
  },
  {
    "label": "442",
    "text": "Para"
  },
  {
    "label": "443",
    "text": "Saramacca"
  },
  {
    "label": "444",
    "text": "Sipaliwini"
  },
  {
    "label": "445",
    "text": "Wanica"
  },
  {
    "label": "446",
    "text": "Trinité-et-Tobago"
  },
  {
    "label": "447",
    "text": "Port d'Espagne"
  },
  {
    "label": "448",
    "text": "Arima"
  },
  {
    "label": "449",
    "text": "Caroni"
  },
  {
    "label": "450",
    "text": "Mayaro"
  },
  {
    "label": "451",
    "text": "Nariva"
  },
  {
    "label": "452",
    "text": "Saint Andrew"
  },
  {
    "label": "453",
    "text": "Saint David"
  },
  {
    "label": "454",
    "text": "Saint George"
  },
  {
    "label": "455",
    "text": "Saint Patrick"
  },
  {
    "label": "456",
    "text": "San Fernando"
  },
  {
    "label": "457",
    "text": "Tobago"
  },
  {
    "label": "458",
    "text": "Victoria"
  },
  {
    "label": "459",
    "text": "Point Fortin"
  },
  {
    "label": "460",
    "text": "Îles Turques-et-Caïques"
  },
  {
    "label": "461",
    "text": "États-Unis d’Amérique"
  },
  {
    "label": "462",
    "text": "Washington (District de Columbia)"
  },
  {
    "label": "463",
    "text": "Alaska"
  },
  {
    "label": "464",
    "text": "Alabama"
  },
  {
    "label": "465",
    "text": "Arkansas"
  },
  {
    "label": "466",
    "text": "Arizona"
  },
  {
    "label": "467",
    "text": "Californie"
  },
  {
    "label": "468",
    "text": "Colorado"
  },
  {
    "label": "469",
    "text": "Connecticut"
  },
  {
    "label": "470",
    "text": "Delaware"
  },
  {
    "label": "471",
    "text": "Floride"
  },
  {
    "label": "472",
    "text": "Géorgie"
  },
  {
    "label": "473",
    "text": "Hawaï"
  },
  {
    "label": "474",
    "text": "Iowa"
  },
  {
    "label": "475",
    "text": "Idaho"
  },
  {
    "label": "476",
    "text": "Illinois"
  },
  {
    "label": "477",
    "text": "Indiana"
  },
  {
    "label": "478",
    "text": "Kansas"
  },
  {
    "label": "479",
    "text": "Kentucky"
  },
  {
    "label": "480",
    "text": "Louisiane"
  },
  {
    "label": "481",
    "text": "Massachusetts"
  },
  {
    "label": "482",
    "text": "Maryland"
  },
  {
    "label": "483",
    "text": "Maine"
  },
  {
    "label": "484",
    "text": "Michigan"
  },
  {
    "label": "485",
    "text": "Minnesota"
  },
  {
    "label": "486",
    "text": "Missouri"
  },
  {
    "label": "487",
    "text": "Mississippi"
  },
  {
    "label": "488",
    "text": "Montana"
  },
  {
    "label": "489",
    "text": "Caroline du Nord"
  },
  {
    "label": "490",
    "text": "Dakota du Nord"
  },
  {
    "label": "491",
    "text": "Nebraska"
  },
  {
    "label": "492",
    "text": "New Hampshire"
  },
  {
    "label": "493",
    "text": "New Jersey"
  },
  {
    "label": "494",
    "text": "Nouveau-Mexique"
  },
  {
    "label": "495",
    "text": "Nevada"
  },
  {
    "label": "496",
    "text": "New York"
  },
  {
    "label": "497",
    "text": "Ohio"
  },
  {
    "label": "498",
    "text": "Oklahoma"
  },
  {
    "label": "499",
    "text": "Oregon"
  },
  {
    "label": "500",
    "text": "Pennsylvanie"
  },
  {
    "label": "501",
    "text": "Rhode Island"
  },
  {
    "label": "502",
    "text": "Caroline du Sud"
  },
  {
    "label": "503",
    "text": "Dakota du Sud"
  },
  {
    "label": "504",
    "text": "Tennessee"
  },
  {
    "label": "505",
    "text": "Texas"
  },
  {
    "label": "506",
    "text": "Utah"
  },
  {
    "label": "507",
    "text": "Virginie"
  },
  {
    "label": "508",
    "text": "Vermont"
  },
  {
    "label": "509",
    "text": "Washington"
  },
  {
    "label": "510",
    "text": "Wisconsin"
  },
  {
    "label": "511",
    "text": "Virginie Occidentale"
  },
  {
    "label": "512",
    "text": "Wyoming"
  },
  {
    "label": "513",
    "text": "Porto Rico"
  },
  {
    "label": "514",
    "text": "Uruguay"
  },
  {
    "label": "515",
    "text": "Montevideo"
  },
  {
    "label": "516",
    "text": "Artigas"
  },
  {
    "label": "517",
    "text": "Canelones"
  },
  {
    "label": "518",
    "text": "Cerro Largo"
  },
  {
    "label": "519",
    "text": "Colonia"
  },
  {
    "label": "520",
    "text": "Durazno"
  },
  {
    "label": "521",
    "text": "Flores"
  },
  {
    "label": "522",
    "text": "Florida"
  },
  {
    "label": "523",
    "text": "Lavalleja"
  },
  {
    "label": "524",
    "text": "Maldonado"
  },
  {
    "label": "525",
    "text": "Paysandú"
  },
  {
    "label": "526",
    "text": "Río Negro"
  },
  {
    "label": "527",
    "text": "Rivera"
  },
  {
    "label": "528",
    "text": "Rocha"
  },
  {
    "label": "529",
    "text": "Salto"
  },
  {
    "label": "530",
    "text": "San José"
  },
  {
    "label": "531",
    "text": "Soriano"
  },
  {
    "label": "532",
    "text": "Tacuarembó"
  },
  {
    "label": "533",
    "text": "Treinta y Tres"
  },
  {
    "label": "534",
    "text": "Îles Vierges américaines"
  },
  {
    "label": "535",
    "text": "Venezuela"
  },
  {
    "label": "536",
    "text": "District Fédéral"
  },
  {
    "label": "537",
    "text": "Amazone"
  },
  {
    "label": "538",
    "text": "Anzoátegui"
  },
  {
    "label": "539",
    "text": "Apure"
  },
  {
    "label": "540",
    "text": "Aragua"
  },
  {
    "label": "541",
    "text": "Barinas"
  },
  {
    "label": "542",
    "text": "Bolívar"
  },
  {
    "label": "543",
    "text": "Carabobo"
  },
  {
    "label": "544",
    "text": "Cojedes"
  },
  {
    "label": "545",
    "text": "Delta Amacuro"
  },
  {
    "label": "546",
    "text": "Falcón"
  },
  {
    "label": "547",
    "text": "Guárico"
  },
  {
    "label": "548",
    "text": "Lara"
  },
  {
    "label": "549",
    "text": "Mérida"
  },
  {
    "label": "550",
    "text": "Miranda"
  },
  {
    "label": "551",
    "text": "Monagas"
  },
  {
    "label": "552",
    "text": "Nueva Esparta"
  },
  {
    "label": "553",
    "text": "Portuguesa"
  },
  {
    "label": "554",
    "text": "Sucre"
  },
  {
    "label": "555",
    "text": "Táchira"
  },
  {
    "label": "556",
    "text": "Trujillo"
  },
  {
    "label": "557",
    "text": "Yaracuy"
  },
  {
    "label": "558",
    "text": "Zulia"
  },
  {
    "label": "559",
    "text": "Dépendances Fédérales"
  },
  {
    "label": "560",
    "text": "Vargas"
  },
  {
    "label": "561",
    "text": "Singapour"
  },
  {
    "label": "562",
    "text": "Malaisie"
  },
  {
    "label": "563",
    "text": "Kuala Lumpur"
  },
  {
    "label": "564",
    "text": "Johor"
  },
  {
    "label": "565",
    "text": "Kedah"
  },
  {
    "label": "566",
    "text": "Kelantan"
  },
  {
    "label": "567",
    "text": "Malacca"
  },
  {
    "label": "568",
    "text": "Negeri Sembilan"
  },
  {
    "label": "569",
    "text": "Pahang"
  },
  {
    "label": "570",
    "text": "Perak"
  },
  {
    "label": "571",
    "text": "Perlis"
  },
  {
    "label": "572",
    "text": "Penang"
  },
  {
    "label": "573",
    "text": "Sarawak"
  },
  {
    "label": "574",
    "text": "Selangor"
  },
  {
    "label": "575",
    "text": "Terengganu"
  },
  {
    "label": "576",
    "text": "Labuan"
  },
  {
    "label": "577",
    "text": "Sabah"
  },
  {
    "label": "578",
    "text": "Putrajaya"
  },
  {
    "label": "579",
    "text": "Émirats arabes unis"
  },
  {
    "label": "580",
    "text": "Abu Dhabi"
  },
  {
    "label": "581",
    "text": "Ajman"
  },
  {
    "label": "582",
    "text": "Sharjah"
  },
  {
    "label": "583",
    "text": "Ras al-Khaïmah"
  },
  {
    "label": "584",
    "text": "Dubaï"
  },
  {
    "label": "585",
    "text": "Fujaïrah"
  },
  {
    "label": "586",
    "text": "Umm al-Qaiwain"
  },
  {
    "label": "587",
    "text": "Arabie saoudite"
  },
  {
    "label": "588",
    "text": "Riyad"
  },
  {
    "label": "589",
    "text": "Al Bâhah"
  },
  {
    "label": "590",
    "text": "Médine"
  },
  {
    "label": "591",
    "text": "Province Est"
  },
  {
    "label": "592",
    "text": "Al Qasim"
  },
  {
    "label": "593",
    "text": "Assir"
  },
  {
    "label": "594",
    "text": "Haïl"
  },
  {
    "label": "595",
    "text": "La Mecque"
  },
  {
    "label": "596",
    "text": "Frontière Nord"
  },
  {
    "label": "597",
    "text": "Najran"
  },
  {
    "label": "598",
    "text": "Jizan"
  },
  {
    "label": "599",
    "text": "Tabouk"
  },
  {
    "label": "600",
    "text": "Al Djôf"
  }
]