﻿[
  {
    "label": "000",
    "text": "Habillons les maisons !"
  },
  {
    "label": "001",
    "text": "Premier bon de commerce"
  },
  {
    "label": "002",
    "text": "Sus aux mauvaises herbes"
  },
  {
    "label": "003",
    "text": "Opération eaux propres"
  },
  {
    "label": "004",
    "text": "Travaux publics"
  },
  {
    "label": "005",
    "text": "L'arroseur arrosant"
  },
  {
    "label": "006",
    "text": "Se faire refaire le portrait"
  },
  {
    "label": "007",
    "text": "Mission Relooking"
  },
  {
    "label": "008",
    "text": "Cap sur le soleil"
  },
  {
    "label": "009",
    "text": "Creuser le passé"
  },
  {
    "label": "010",
    "text": "Goûts de luxe"
  },
  {
    "label": "011",
    "text": "Designer en herbe"
  },
  {
    "label": "012",
    "text": "Pris entre deux jeux"
  },
  {
    "label": "013",
    "text": "Des poissons à foison"
  },
  {
    "label": "014",
    "text": "Nos amis les insectes"
  },
  {
    "label": "015",
    "text": "Trésors engloutis"
  },
  {
    "label": "016",
    "text": "Vive le train-train"
  },
  {
    "label": "017",
    "text": "Ville touristique"
  },
  {
    "label": "018",
    "text": "Bonbons de commerce"
  },
  {
    "label": "019",
    "text": "La bosse de la déco"
  },
  {
    "label": "020",
    "text": "Les bons comptes"
  },
  {
    "label": "021",
    "text": "L'art du mécénat"
  },
  {
    "label": "022",
    "text": "L'amour de la nature"
  },
  {
    "label": "023",
    "text": "Mues de cigales"
  },
  {
    "label": "024",
    "text": "Les saumons, le retour !"
  },
  {
    "label": "025",
    "text": "Tête mise à prix"
  },
  {
    "label": "026",
    "text": "On demande un docteur"
  },
  {
    "label": "027",
    "text": "Façades d'en face"
  },
  {
    "label": "028",
    "text": "Vente par correspondance"
  },
  {
    "label": "029",
    "text": "La chance, c'est du gâteau"
  },
  {
    "label": "030",
    "text": "Marteau des clochettes"
  },
  {
    "label": "031",
    "text": "L'habit fait le veinard"
  },
  {
    "label": "032",
    "text": "Capture d'abeille"
  },
  {
    "label": "033",
    "text": "Investir pour le futur soi"
  },
  {
    "label": "034",
    "text": "Artistes de neige"
  },
  {
    "label": "035",
    "text": "Un sol qui sonne"
  },
  {
    "label": "036",
    "text": "Tremble, cordulégastre !"
  },
  {
    "label": "037",
    "text": "Vol de libellules"
  },
  {
    "label": "038",
    "text": "Chasse à la tarentule"
  },
  {
    "label": "039",
    "text": "Capture un scorpion"
  },
  {
    "label": "040",
    "text": "Feuille ou phyllie ?"
  },
  {
    "label": "041",
    "text": "Cicindèle sur souche"
  },
  {
    "label": "042",
    "text": "La mante méfiante"
  },
  {
    "label": "043",
    "text": "Safari à Tortiland"
  },
  {
    "label": "044",
    "text": "Dytique cryptique"
  },
  {
    "label": "045",
    "text": "L'ombre est la proie"
  },
  {
    "label": "046",
    "text": "Carpe quoi ? Carpe koï !"
  },
  {
    "label": "047",
    "text": "Tortue de rivière"
  },
  {
    "label": "048",
    "text": "Sa majesté le saumon"
  },
  {
    "label": "049",
    "text": "Un crabe chinois chez moi"
  },
  {
    "label": "050",
    "text": "Brochette de brochets"
  },
  {
    "label": "051",
    "text": "Dorade rare adorée"
  },
  {
    "label": "052",
    "text": "À la pêche aux souvenirs"
  },
  {
    "label": "053",
    "text": "Pêche paléontologique"
  },
  {
    "label": "054",
    "text": "Le thon sera tien"
  },
  {
    "label": "055",
    "text": "L'empereur de la mer"
  },
  {
    "label": "056",
    "text": "À marlin, malin et demi"
  },
  {
    "label": "057",
    "text": "Objectif lune de mer"
  },
  {
    "label": "058",
    "text": "Sus au poisson-ruban"
  },
  {
    "label": "059",
    "text": "Murènes marines"
  },
  {
    "label": "060",
    "text": "Pince un crabe"
  },
  {
    "label": "061",
    "text": "Remonte une limule"
  },
  {
    "label": "062",
    "text": "Un scarabée dans ton filet"
  },
  {
    "label": "063",
    "text": "Le trio de Tortiland"
  },
  {
    "label": "064",
    "text": "Couards de squales"
  },
  {
    "label": "065",
    "text": "Homme vs. bathynome"
  },
  {
    "label": "066",
    "text": "À la mode de Carla"
  },
  {
    "label": "067",
    "text": "Ravalement de façade"
  },
  {
    "label": "068",
    "text": "Souvenir de Tortiland"
  },
  {
    "label": "069",
    "text": "Potes par la poste"
  },
  {
    "label": "070",
    "text": "Chers fruits de mer"
  },
  {
    "label": "071",
    "text": "Garçon, des clochettes !"
  },
  {
    "label": "072",
    "text": "Passion divination"
  },
  {
    "label": "073",
    "text": "Partage de rêves"
  },
  {
    "label": "074",
    "text": "Vide ta dette"
  },
  {
    "label": "075",
    "text": "Les navets en vedette"
  },
  {
    "label": "076",
    "text": "Le recyclage, c'est l'avenir"
  },
  {
    "label": "077",
    "text": "Le fruit de tes efforts"
  },
  {
    "label": "078",
    "text": "Parade d'insectes"
  },
  {
    "label": "079",
    "text": "Culture et pisciculture"
  },
  {
    "label": "080",
    "text": "Un fossile ? Facile !"
  },
  {
    "label": "081",
    "text": "Le chic des mimiques"
  },
  {
    "label": "082",
    "text": "Marchande à Tortiland"
  },
  {
    "label": "083",
    "text": "Artificier, un beau métier"
  },
  {
    "label": "084",
    "text": "Le prix de la classe"
  },
  {
    "label": "085",
    "text": "Du bon son à foison"
  },
  {
    "label": "086",
    "text": "Papote, ça rapporte"
  },
  {
    "label": "087",
    "text": "Un panier bien garni"
  },
  {
    "label": "088",
    "text": "L'appel de la caillasse"
  },
  {
    "label": "089",
    "text": "Resetti est ton ami"
  },
  {
    "label": "090",
    "text": "Mycologue d'intérieur"
  },
  {
    "label": "091",
    "text": "Chasse de neige"
  },
  {
    "label": "092",
    "text": "Verger tropical"
  },
  {
    "label": "093",
    "text": "La main verte"
  },
  {
    "label": "094",
    "text": "Ville fleurie"
  },
  {
    "label": "095",
    "text": "L'AJD, c'est le pied"
  },
  {
    "label": "096",
    "text": "Ballons à descendre"
  },
  {
    "label": "097",
    "text": "L'as des haches"
  },
  {
    "label": "098",
    "text": "Nourricier de la terre"
  },
  {
    "label": "099",
    "text": "Habillons les maisons !"
  },
  {
    "label": "100",
    "text": "Papote, ça rapporte"
  }
]