﻿[
  {
    "label": "00",
    "text": "Grincheux mais pas vieux"
  },
  {
    "label": "01",
    "text": "Stop aux fast-foods"
  },
  {
    "label": "02",
    "text": "Allez jouer ailleurs"
  },
  {
    "label": "03",
    "text": "Lâchez-moi la grappe"
  },
  {
    "label": "04",
    "text": "Journée sans enfants"
  },
  {
    "label": "05",
    "text": "Contrôle anti-décibels le soir"
  },
  {
    "label": "06",
    "text": "Pfff, pourquoi moi ?"
  },
  {
    "label": "07",
    "text": "C'était mieux avant"
  },
  {
    "label": "08",
    "text": "Arrêtez de planquer mes clés"
  },
  {
    "label": "09",
    "text": "Arrêtons le progrès"
  },
  {
    "label": "10",
    "text": "Des poignées sans microbes"
  },
  {
    "label": "11",
    "text": "Qu'est-ce qu'elle a ma tête ?"
  },
  {
    "label": "12",
    "text": "Que fait la police ?"
  }
]