﻿[
  {
    "label": "00",
    "text": ""
  },
  {
    "label": "01",
    "text": ""
  },
  {
    "label": "02",
    "text": ""
  },
  {
    "label": "03",
    "text": ""
  },
  {
    "label": "04",
    "text": ""
  },
  {
    "label": "05",
    "text": ""
  },
  {
    "label": "06",
    "text": ""
  },
  {
    "label": "07",
    "text": ""
  },
  {
    "label": "08",
    "text": ""
  },
  {
    "label": "09",
    "text": ""
  },
  {
    "label": "10",
    "text": ""
  },
  {
    "label": "11",
    "text": "tyrannosaure rex"
  },
  {
    "label": "12",
    "text": "tricératops"
  },
  {
    "label": "13",
    "text": "mammouth"
  },
  {
    "label": "14",
    "text": "ankylosaure"
  },
  {
    "label": "15",
    "text": "apatosaure"
  },
  {
    "label": "16",
    "text": "dimétrodon"
  },
  {
    "label": "17",
    "text": "iguanodon"
  },
  {
    "label": "18",
    "text": "smilodon"
  },
  {
    "label": "19",
    "text": "pachycéphalosaure"
  },
  {
    "label": "20",
    "text": "parasaurolophus"
  },
  {
    "label": "21",
    "text": "séismosaure"
  },
  {
    "label": "22",
    "text": "plésiosaure"
  },
  {
    "label": "23",
    "text": "stégosaure"
  },
  {
    "label": "24",
    "text": "ptéranodon"
  },
  {
    "label": "25",
    "text": "ichtyosaure"
  },
  {
    "label": "26",
    "text": "vélociraptor"
  },
  {
    "label": "27",
    "text": "styracosaure"
  },
  {
    "label": "28",
    "text": "spinosaurus"
  },
  {
    "label": "29",
    "text": "brontotherium"
  },
  {
    "label": "30",
    "text": "archelon"
  }
]