﻿[
  {
    "label": "001",
    "text": "T'as voulu te la jouer cool en\njoignant juste un tout petit\nmot au truc que tu m'as\nenvoyé? Enfin, je préfère\nça à un tout petit cadeau\naccompagné d'un roman!"
  },
  {
    "label": "002",
    "text": "Ta lettre était super zarbi,\nmais va savoir pourquoi, j'ai\nl'impression d'avoir tout\ncompris... Même ce qui était\npas écrit! Voici un petit truc\nen remerciement."
  },
  {
    "label": "003",
    "text": "C'est quoi, ce message que\ntu m'as envoyé? Faut que je\nle lise à voix haute pour que\nton cadeau se transforme en\nun truc génial? Bah, peu\nimporte. Merci quand même."
  },
  {
    "label": "004",
    "text": "Merci pour ton message,\nmais y manquait pas la fin?!\nMoi qui te trouvais trop\nfiable pour être honnête, je\nsuis rassurée de voir que toi\naussi, tu fais nimp, des fois."
  },
  {
    "label": "005",
    "text": "Merci pour le message, mais\nj'ai pas tout pigé... C'est un\nde ces trucs qu'on se refile\naprès avoir écrit un bout de\nl'histoire? Je vais réfléchir\nà ma partie sans traîner!"
  },
  {
    "label": "006",
    "text": "Merci pour la lettre, enfin\nle bout de lettre, plutôt.\nVivement la suite! Mais tu\nsais, t'aurais pu tout envoyer\nd'un coup, je peux lire plus\nde trois mots par jour!"
  }
]