﻿[
  {
    "label": "001",
    "text": "Voici ton cadeau d'anniv!\nJ'ai galéré pour trouver un\ntruc qui colle à tes goûts...\nTu me diras ce que t'en as\npensé à notre prochaine\nrencontre!"
  },
  {
    "label": "002",
    "text": "Voici le cadeau promis!\nTu l'attendais, avoue! Te\nconnaissant, ça devrait te\nplaire. Si c'est pas le cas,\nrevends-le, mais évite de\nme le faire savoir, OK?"
  },
  {
    "label": "003",
    "text": "Ou on marine dans son jus\nen attendant ce courrier,\nhi hi? Comme si je tenais\npas mes promesses. J'espère\nque ce truc te plaira, j'ai\nrisqué ma peau pour l'avoir!"
  }
]