﻿[
  {
    "label": "001",
    "text": "Prends ton calendrier,\ncherche le {{fun_00070004 arg=\"0x0100\"}}/{{fun_00070004 arg=\"0x0000\"}} et fais une\ngrosse croix : c'est mon\nanniversaire et tu es invité{{fun_0006000E arg=\"0x000002006500\"}}!\nAinsi, tu ne l'oublieras pas,\ntout comme mon cadeau!"
  },
  {
    "label": "002",
    "text": "Je compte sur toi le {{fun_00070004 arg=\"0x0100\"}}/{{fun_00070004 arg=\"0x0000\"}}.\nC'est mon anniversaire et\nj'organise un goûter. Il va\nsans dire que les absents\nseront sévèrement punis. À\nbon entendeur..."
  },
  {
    "label": "003",
    "text": "--- CONVOCATION ---\nDate : {{fun_00070004 arg=\"0x0100\"}}/{{fun_00070004 arg=\"0x0000\"}}\nLieu : chez moi\nMotif : mon anniversaire\nCadeau correct exigé.\nToute absence sera punie."
  },
  {
    "label": "004",
    "text": "Merci d'avoir répondu\nprésent{{fun_0006000E arg=\"0x000002006500\"}} l'autre jour. Ton\ncadeau d'anniversaire m'a\nbien fait rire, tu sais! Je me\nvengerai quand ce sera le\ntien, tu l'as bien cherché..."
  },
  {
    "label": "005",
    "text": "Je t'envoie ce démenti suite\naux reproches que l'on m'a\nfaits à mon anniversaire :\n1) Je me suis amusé comme\nun petit fou. 2) Ta présence\nm'a fait énormément plaisir."
  },
  {
    "label": "006",
    "text": "Merci d'être passé à ma fête\nl'autre jour! Pour le cadeau,\nvraiment il ne fallait pas,\nmerci encore! Tu as gagné\nle droit d'être sur ma liste\nd'invités l'année prochaine."
  },
  {
    "label": "007",
    "text": "Merci d'être venu{{fun_0006000E arg=\"0x000002006500\"}} à ma\nfête, et merci encore pour le\ncadeau!"
  },
  {
    "label": "008",
    "text": "Ce fut bien aimable à toi de\npasser me soutenir dans ce\nmoment difficile. Et merci\npour le cadeau!"
  },
  {
    "label": "009",
    "text": "Merci d'être venu{{fun_0006000E arg=\"0x000002006500\"}} m'aider à\npasser le cap...\n\nP.-S. : Et merci pour le\ncadeau!"
  }
]