﻿[
  {
    "label": "001",
    "text": "Il paraît que les femmes\nmodernes écrivent leurs\nrecettes et marottes sur\nleurs blogs... Mais je ne sais\npas me servir d'un PC, alors\nmoi, ce sera par courrier..."
  },
  {
    "label": "002",
    "text": "Crois-moi, il vaut mieux\nécrire une lettre l'après-midi\nquand on est bien réveillé,\nparce que parfois, quand je\nrelis ce que j'écris le matin..."
  },
  {
    "label": "003",
    "text": "Il paraît que les femmes\nmodernes écrivent leurs\nrecettes et marottes sur\nleurs blogs... Mais je ne sais\npas me servir d'un PC, alors\nmoi, ce sera par courrier..."
  },
  {
    "label": "004",
    "text": "Écrire, ça permet de libérer\nles paroles de l'emprise du\ntemps, de transmettre ce\nque l'on a à dire à des\nmillénaires de distance.\nÉcrire, c'est magique."
  },
  {
    "label": "005",
    "text": "Je sais que je n'ai pas la plus\nparfaite des écritures, mais\ntu avoueras qu'elle n'est\ntout de même pas si mal..."
  },
  {
    "label": "006",
    "text": "J'espère que tu vas bien\ndepuis la dernière fois.\nMoi, je me suis fait piquer\npar une abeille.\nSinon, rien de neuf..."
  },
  {
    "label": "007",
    "text": "Hello! En fait, je n'ai rien de\nspécial à te dire, mais je\nt'écris quand même. C'est\nsympa de savoir que\nquelqu'un t'écrit même s'il\nn'a rien à te demander, non?"
  },
  {
    "label": "008",
    "text": "Écrire est un art, et un\nartiste va droit à l'essentiel,\nalors je vais essayer d'écrire\nce que je veux te dire en une\nligne seulement :\nÇa va bien?"
  },
  {
    "label": "009",
    "text": "J'espère que tu vas bien.\nTu sais, il y a quelque chose\nde vraiment important que\nje voulais te dire depuis un\nmoment, mais je crois que je\nvais bientôt manquer de..."
  },
  {
    "label": "010",
    "text": "Je t'envoie ce petit mot\npour te remercier pour tout\nce que tu as fait pour moi.\nPour ton amitié et les\nservices rendus. Pour être\ntoi, tout simplement."
  }
]