﻿[
  {
    "label": "001",
    "text": "Grâce à toi, je suis de\nnouveau sur pied! Enfin,\nfaçon de parler, vu que j'en\nprofite pour rester couché...\nEn tout cas, voilà pour te\nremercier d'être passé{{fun_0006000E arg=\"0x000002006500\"}}!"
  },
  {
    "label": "002",
    "text": "Merci d'être venu{{fun_0006000E arg=\"0x000002006500\"}} me voir\nquand j'étais malade. J'étais\nassez fatigué, donc tout est\nun peu flou pour moi, mais je\nme souviens très bien de ta\nvisite, {{fun_00000005 arg=\"\"}}!"
  },
  {
    "label": "003",
    "text": "Sans ton médicament, je ne\nsais pas si j'aurais retrouvé\nmon appétit. Quand je pense\nà tous ces goûters que \nj'aurais pu rater... Tu as bien\nmérité un cadeau, tiens!"
  }
]