﻿[
  {
    "label": "001",
    "text": "¡Escribe más a menudo!"
  },
  {
    "label": "002",
    "text": "Espero ansioso tu respuesta."
  },
  {
    "label": "003",
    "text": "¡Espero verte pronto!"
  },
  {
    "label": "004",
    "text": "¡Uy, es hora del aperitivo!"
  },
  {
    "label": "005",
    "text": "Voy a por un bocata. Chao."
  },
  {
    "label": "006",
    "text": "Escríbeme de nuevo, anda."
  },
  {
    "label": "007",
    "text": "¡Seguimos en contacto!"
  },
  {
    "label": "008",
    "text": "¡Ya nos veremos!"
  },
  {
    "label": "009",
    "text": "¡Que te vaya bien!"
  },
  {
    "label": "010",
    "text": "Bueno, eso es todo por hoy..."
  }
]