﻿[
  {
    "label": "001",
    "text": "Grazie per aver esaudito una\ndelle mie richieste più strane\ne per aver portato da me\nchi ti avevo chiesto!\nAccetta questo regalo come\nringraziamento. Ah ah ah!"
  },
  {
    "label": "002",
    "text": "Grazie per il favore dell'altro\ngiorno! Sapevo di poter\ncontare su di te. Avevo del\ntempo libero, così l'ho usato\nper comprarti questo!"
  },
  {
    "label": "003",
    "text": "... so che ti sei dat{{fun_0006000E arg=\"0x02006F0002006100\"}} da fare\nper portare da me chi ti\navevo chiesto. Non sono\nriuscito a trovare i miei\nguantoni da boxe, quindi\nti ho spedito un'altra cosa."
  }
]