﻿[
  {
    "label": "001",
    "text": "muchas gracias. Ora capisco\nquello che provi per me.\nNo, non devi vergognarti!\nTi dimostrerò quanto sono\nfeliz mandandoti un regalito!"
  },
  {
    "label": "002",
    "text": "sono così feliz di essere\nnato! E di aver ricevuto\nun regalito da te! Ecco un\npensierino per mostrarti\nla mia gratitudine.\nEspero que lo accetterai!"
  },
  {
    "label": "003",
    "text": "non mi stupisce, ma mi\nlusinga, che ti sia ricordat{{fun_0006000E arg=\"0x02006F0002006100\"}}\ndel mio cumpleaños!\nMuchas gracias per avermi\nfesteggiato! Questo è\nun pensierino per te!"
  },
  {
    "label": "004",
    "text": "gracias! Ti sei ricordat{{fun_0006000E arg=\"0x02006F0002006100\"}}\ndel mio cumpleaños!\nSono l'abitante più feliz\ndi questa ciudad. È così bello\navere degli amici con cui\nfesteggiare!"
  },
  {
    "label": "005",
    "text": "non ci avevo mai pensato,\nma è fantastico quando\nqualcuno si ricorda del tuo\ncumpleaños! Devo segnarmi\ntutti quelli che mi hanno\nfatto gli auguri... Gracias!"
  },
  {
    "label": "006",
    "text": "mi hai reso muy feliz\nfacendomi gli auguri il giorno\ndel mio cumpleaños. Gracias!\nSarà un anno fantastico\ne io sono... prontissimo!"
  }
]