﻿[
  {
    "label": "001",
    "text": "Casa tua è proprio bella!\nLa prossima volta, però,\nvoglio vedere tutte le stanze!\nDevo capire qual è lo stile\ndi vita {{fun_0006000E arg=\"0x1800640065006C0020006D0069006F0020006300610072006F001C00640065006C006C00610020006D006900610020006300610072006100\"}} rivale.\nIntanto, apri il mio regalo!"
  },
  {
    "label": "002",
    "text": "Mi è piaciuta proprio casa\ntua! La prossima volta voglio\nvedere anche la stanza che\nera bloccata. Non dobbiamo\navere segreti io e te, capito?"
  },
  {
    "label": "003",
    "text": "Mi sono divertito a casa tua\nl'altro giorno. Però, come\nfai ad allenarti come si deve\ncon il pavimento così pieno\ndi cose? Ti faccio un regalo\nper aiutarti a fare spazio."
  },
  {
    "label": "004",
    "text": "Mi piace casa tua! Ho notato\nche c'erano dei mobili rivolti\nverso la parete. Immagino\nstessi facendo spazio per\nallenarti a fare la ruota...\nAh, ti ho spedito un regalo!"
  },
  {
    "label": "005",
    "text": "Grazie per avermi fatto\nvedere casa tua! Non ho\npotuto fare a meno di notare\nche è un po' vuota. Va bene\nallenarsi, ma pensa anche al\nresto! Prova il mio regalo!\n"
  },
  {
    "label": "006",
    "text": "Hai proprio buon gusto. Casa\ntua è quasi bella quanto la\nmia! Secondo me, però, le\nmanca un po' di carattere.\nPerciò ti spedisco un regalo.\nFammi sapere se ti piace!\n"
  },
  {
    "label": "007",
    "text": "Casa tua è bellissima!\nMi sono divertito un sacco\na giocare con te... grazie!\nAh, ti ho comprato qualcosa\nda mettere alla parete!"
  },
  {
    "label": "008",
    "text": "Non mi avevi mai detto della\ntua passione per gli oggetti\nintrovabili! Dev'essere il tuo\nspirito competitivo che ti\nspinge a comprare rarità.\nEccotene qui una..."
  },
  {
    "label": "009",
    "text": "Sono rimasto colpito da tutti\ngli oggetti costosi che hai,\nspendaccion{{fun_0006000E arg=\"0x0200650002006100\"}}! Ti ho preso\nun oggetto di lusso come\nregalo. Ora mi spetta un\npremio, no?"
  },
  {
    "label": "010",
    "text": "Uau, casa tua è il posto\nperfetto per allenarsi! Hai\nun sacco di spazio per fare\nstretching e salti all'indietro!\nTi ho preso qualcosa per\nringraziarti dell'ospitalità."
  },
  {
    "label": "011",
    "text": "E chi se lo aspettava di\ntrovare un percorso a\nostacoli a casa tua?! A me\npiace, ma forse non va bene\nper viverci? Usa il mio regalo\nse ti va di mettere in ordine."
  },
  {
    "label": "012",
    "text": "Sono stato bene a casa tua!\nMi sono divertito un sacco\na parlare dei miei muscoli.\nAh, sì, grazie alle mie braccia\npossenti ho portato alla\nposta questo regalo!"
  }
]