﻿[
  {
    "label": "001",
    "text": "questo è il regalo che non\nsono riuscito a darti prima.\nSono sicuro che ti piacerà.\nSono stato dieci minuti\na sceglierlo e mezz'ora\na fare il pacchetto!"
  },
  {
    "label": "002",
    "text": "ti mando quel regalo che\nnon sono riuscito a darti\nprima. Spero che lo riceverai\ne che non torni indietro, o\ndovrò camminare di nuovo\nfino alla posta! È lontana!"
  },
  {
    "label": "003",
    "text": "Non riuscivo a capire cosa\nfosse questo pacchetto che\navevo a casa, poi mi sono\nricordato che era il tuo\nregalo! Te lo spedisco prima\ndi dimenticarmi di nuovo!"
  }
]